# timestamp,IR_016,IR_039,IR_087,IR_097,IR_108,IR_120,IR_134,VIS006,VIS008,WV_062,WV_073
2013-08-01 00:00,-0.0758414,283.261,285.658,259.902,287.815,288.167,265.185,-0.0214049,-0.0451545,244.217,265.212
2013-08-01 01:00,-0.0015329,282.923,285.546,259.793,287.679,288.306,264.953,-0.0,-0.0,243.686,265.212
2013-08-01 02:00,-0.0,282.234,284.982,259.244,286.997,287.329,265.069,-0.0,-0.0,243.093,265.137
2013-08-01 03:00,-0.0,282.059,284.414,259.244,286.585,287.188,264.953,-0.0,-0.0,243.472,265.728
2013-08-01 04:00,-0.0,280.982,283.611,258.691,285.618,286.343,264.255,-0.0,-0.0,243.74,265.212
2013-08-01 05:00,0.00130336,280.427,283.264,258.358,285.201,285.777,264.488,-0.0,-0.0,243.633,265.063
2013-08-01 06:00,-0.00147783,280.05,282.682,257.91,284.501,285.208,263.787,-0.0,-0.0,244.058,265.137
2013-08-01 07:00,-0.00183201,279.667,282.331,258.022,283.938,284.779,263.905,-0.0,-0.0,243.846,264.839
2013-08-01 08:00,0.00260619,279.473,282.096,258.022,283.938,284.636,263.553,-0.0,-0.0,243.74,264.839
2013-08-01 09:00,0.00496843,279.081,281.86,257.798,283.797,284.349,263.436,-0.0,-0.0,244.006,264.839
2013-08-01 10:00,-0.364137,279.473,281.86,257.346,283.938,284.636,263.787,-0.847864,-0.919044,244.635,264.989
2013-08-01 11:00,0.562599,285.665,285.882,259.902,288.087,288.167,264.255,0.315947,0.492633,244.997,265.137
2013-08-01 12:00,0.521016,293.702,291.694,263.515,293.892,292.948,265.647,0.240398,0.41666,245.099,264.989
2013-08-01 13:00,0.43963,298.436,295.244,266.059,297.683,295.996,267.137,0.185235,0.334452,245.355,264.989
2013-08-01 14:00,0.367437,301.037,297.783,267.348,300.506,298.076,267.819,0.148981,0.271681,245.202,264.989
2013-08-01 15:00,0.315423,303.592,299.684,268.807,302.55,299.743,268.609,0.121516,0.234052,244.997,264.69
2013-08-01 16:00,0.287783,303.998,300.433,269.479,303.381,300.759,268.834,0.105941,0.213164,244.894,264.69
2013-08-01 17:00,0.273842,303.592,300.433,269.192,303.499,301.138,268.271,0.100995,0.200136,245.048,264.914
2013-08-01 18:00,0.269485,301.826,299.778,268.711,302.907,300.632,269.283,0.107375,0.202046,244.997,265.137
2013-08-01 19:00,0.278198,299.391,297.879,267.446,300.748,298.72,267.932,0.133629,0.224146,245.099,264.69
2013-08-01 20:00,0.311825,295.583,294.846,265.658,297.558,295.996,267.137,0.212017,0.290957,245.099,264.464
2013-08-01 21:00,0.205575,288.291,289.379,262.471,291.817,291.329,265.647,0.40614,0.44967,245.253,264.314
2013-08-01 22:00,-0.0,285.512,287.322,260.984,289.701,289.413,264.953,-0.0,-0.0,245.099,264.238
2013-08-01 23:00,-0.0721815,284.57,286.217,260.228,288.628,288.445,264.372,-0.0220018,-0.0466378,244.894,264.01
2013-08-02 00:00,-0.0700484,283.594,285.77,260.011,288.087,287.888,264.255,-0.0214174,-0.0451809,244.842,264.01
2013-08-02 01:00,-0.00153313,283.428,285.433,259.574,287.815,288.167,264.953,-0.0,-0.0,244.739,264.615
2013-08-02 02:00,-0.0,282.408,284.869,259.354,286.997,287.188,264.605,-0.0,-0.0,244.164,264.765
2013-08-02 03:00,-0.0,281.526,284.3,258.913,286.447,286.907,264.721,-0.0,-0.0,244.269,265.212
2013-08-02 04:00,-0.00123231,281.346,283.841,258.913,286.172,286.626,264.605,-0.0,-0.0,243.579,264.839
2013-08-02 05:00,-0.0,280.982,283.611,258.802,285.757,286.485,264.488,-0.0,-0.0,243.74,265.063
2013-08-02 06:00,0.00147838,280.613,283.264,258.58,285.479,286.485,264.138,-0.0,-0.0,243.793,264.765
2013-08-02 07:00,-0.0,280.239,283.148,258.246,285.201,285.919,264.138,-0.0,-0.0,244.006,264.69
2013-08-02 08:00,-0.00261161,280.427,283.032,258.246,285.061,285.493,264.138,-0.0,-0.0,244.426,264.464
2013-08-02 09:00,-0.0,280.239,282.682,258.134,284.781,285.35,263.787,-0.0,-0.0,244.058,264.314
2013-08-02 10:00,-0.523545,280.427,282.566,258.134,284.641,285.35,263.67,-1.06388,-1.16281,244.111,264.314
2013-08-02 11:00,0.574102,286.569,286.439,260.661,288.628,288.584,264.837,0.317644,0.493512,244.164,264.162
2013-08-02 12:00,0.53836,294.268,292.211,263.928,294.533,293.216,266.337,0.24393,0.420116,244.269,264.314
2013-08-02 13:00,0.4397,298.822,295.738,266.259,298.178,295.996,267.023,0.187903,0.330833,244.217,264.162
2013-08-02 14:00,0.376276,301.74,298.071,267.544,300.506,297.947,267.478,0.148385,0.26886,244.217,263.934
2013-08-02 15:00,0.329957,303.917,300.06,269.288,302.43,299.488,267.932,0.123723,0.226833,244.322,264.162
2013-08-02 16:00,0.292966,304.794,300.898,269.479,303.263,300.379,268.384,0.108194,0.206093,244.531,264.615
2013-08-02 17:00,0.279517,303.836,300.34,269.096,302.788,299.87,268.158,0.10487,0.190942,244.479,264.238
2013-08-02 18:00,0.278271,301.999,299.213,268.518,301.832,299.232,268.158,0.110286,0.193265,244.687,264.238
2013-08-02 19:00,0.287527,299.579,297.783,267.348,300.141,297.818,267.592,0.135249,0.217707,244.426,264.086
2013-08-02 20:00,0.314341,296.008,294.945,265.658,297.434,295.734,267.365,0.206566,0.279454,244.374,264.086
2013-08-02 21:00,0.230606,288.705,289.593,262.681,292.079,291.329,265.532,0.446295,0.465621,244.217,263.706
2013-08-02 22:00,-0.0,285.202,287.212,260.984,289.3,288.861,264.721,-0.0,-0.0,244.426,263.552
2013-08-02 23:00,-0.0694046,284.73,286.772,260.553,288.897,288.445,264.138,-0.0220368,-0.052551,244.058,263.399
2013-08-03 00:00,-0.0700878,283.594,285.882,259.902,287.951,287.888,263.905,-0.0230779,-0.0471719,243.579,262.935
2013-08-03 01:00,-0.00153334,283.261,285.321,259.902,287.543,287.469,264.372,-0.0,-0.0,242.378,262.388
2013-08-03 02:00,-0.00132975,282.581,284.642,259.354,286.722,286.626,263.67,-0.0,-0.0,242.266,262.072
2013-08-03 03:00,-0.0,282.059,284.185,259.134,286.585,286.485,264.138,-0.0,-0.0,242.155,261.993
2013-08-03 04:00,-0.0,281.705,283.956,259.244,286.172,286.485,263.905,-0.0,-0.0,241.476,261.515
2013-08-03 05:00,-0.0,281.165,283.495,259.024,285.757,285.919,263.67,-0.0,-0.0,241.476,261.595
2013-08-03 06:00,0.00147901,280.982,283.38,258.691,285.618,286.06,264.255,-0.0,-0.0,241.874,262.151
2013-08-03 07:00,-0.0,280.427,283.148,258.58,285.479,285.919,264.022,-0.0,-0.0,241.874,262.545
2013-08-03 08:00,0.00261739,280.427,282.682,258.469,284.921,285.635,263.905,-0.0,-0.0,241.986,262.23
2013-08-03 09:00,-0.00502546,280.05,282.566,258.246,284.641,285.35,264.022,-0.0,-0.0,242.099,262.701
2013-08-03 10:00,-0.620634,280.05,282.448,258.469,284.641,285.065,263.67,-1.36627,-1.37845,241.93,262.701
2013-08-03 11:00,0.55142,286.569,286.217,260.553,288.763,288.445,264.837,0.30967,0.494206,242.266,262.935
2013-08-03 12:00,0.520697,294.491,292.108,263.721,294.788,293.75,266.681,0.237582,0.42346,242.544,263.399
2013-08-03 13:00,0.443848,299.485,296.425,266.358,299.164,297.3,268.271,0.185281,0.335547,242.211,263.167
2013-08-03 14:00,0.373034,301.74,298.453,267.935,301.472,299.36,268.384,0.147782,0.271221,241.874,263.09
2013-08-03 15:00,0.322447,303.836,300.34,268.807,303.381,300.885,269.283,0.123255,0.237036,241.874,263.09
2013-08-03 16:00,0.290334,304.715,301.36,269.384,304.559,302.144,269.618,0.10648,0.214738,241.476,263.09
2013-08-03 17:00,0.278469,303.917,301.268,269.288,304.442,302.269,269.73,0.103065,0.202011,241.419,263.167
2013-08-03 18:00,0.273221,302.085,300.153,268.421,303.381,301.138,269.506,0.109843,0.200425,240.957,262.935
2013-08-03 19:00,0.286166,299.858,298.262,267.544,301.472,299.616,268.722,0.132366,0.222026,240.724,262.623
2013-08-03 20:00,0.312169,296.008,295.738,265.758,298.426,297.3,268.158,0.201193,0.282226,240.665,262.701
2013-08-03 21:00,0.380778,288.705,290.017,262.576,292.47,292.276,266.909,0.456739,0.512557,240.724,262.623
2013-08-03 22:00,-0.0,285.512,287.76,261.198,289.968,290.101,265.647,-0.0,-0.0,240.074,262.309
2013-08-03 23:00,-0.0695127,284.41,286.439,260.228,288.763,289.137,265.762,-0.0220711,-0.0497088,240.134,261.993
2013-08-04 00:00,-0.0681778,283.76,285.546,259.793,288.087,288.445,265.185,-0.0230904,-0.0491639,239.894,261.675
2013-08-04 01:00,-0.0,282.923,284.869,259.574,287.27,287.469,265.185,-0.0,-0.0,238.608,261.033
2013-08-04 02:00,-0.0,281.883,284.414,259.134,286.585,287.329,265.069,-0.0,-0.0,238.104,260.789
2013-08-04 03:00,-0.00124001,281.526,283.956,259.024,286.033,286.626,265.069,-0.0,-0.0,238.041,260.871
2013-08-04 04:00,-0.0,281.165,283.495,258.691,285.757,286.343,264.372,-0.0,-0.0,238.483,261.194
2013-08-04 05:00,-0.0,280.613,283.264,258.469,285.34,286.202,264.138,-0.0,-0.0,238.795,260.952
2013-08-04 06:00,-0.0,280.427,282.799,258.469,284.921,285.777,264.488,-0.0,-0.0,238.733,260.545
2013-08-04 07:00,-0.00183751,280.239,282.448,258.134,284.781,285.35,263.905,-0.0,-0.0,238.671,260.299
2013-08-04 08:00,-0.0,280.239,282.214,258.134,284.641,285.208,263.787,-0.0,-0.0,238.919,259.887
2013-08-04 09:00,-0.0,280.05,281.978,257.685,284.501,285.065,263.67,-0.0,-0.0,239.227,260.052
2013-08-04 10:00,-0.768872,280.239,282.331,258.134,284.781,285.35,264.022,-1.69261,-1.70769,239.774,260.217
2013-08-04 11:00,0.567997,286.569,286.661,260.553,289.3,289.276,265.301,0.30647,0.511586,239.532,260.627
2013-08-04 12:00,0.531909,293.93,291.694,263.515,294.533,293.483,266.681,0.238573,0.426693,239.288,259.887
2013-08-04 13:00,0.437635,299.485,295.541,266.358,298.672,296.65,267.023,0.182663,0.336031,239.227,259.471
2013-08-04 14:00,0.369789,303.015,298.453,268.13,301.592,298.848,268.271,0.145728,0.271821,239.104,258.798
2013-08-04 15:00,0.321211,304.794,299.496,268.807,302.43,298.976,267.478,0.122782,0.231405,239.043,258.543
2013-08-04 16:00,0.28616,304.872,299.307,268.904,302.191,298.334,266.909,0.108704,0.212377,238.671,257.769
2013-08-04 17:00,0.275759,303.917,298.644,268.711,301.352,297.43,266.222,0.10549,0.201249,238.795,257.158
2013-08-04 18:00,0.27212,302.171,297.3,267.642,300.02,296.258,265.532,0.112715,0.201594,238.733,256.805
2013-08-04 19:00,0.334922,300.042,292.725,264.645,295.297,291.871,264.372,0.203194,0.276889,238.608,257.07
2013-08-04 20:00,0.328541,296.84,292.417,264.441,294.788,291.6,264.138,0.262503,0.308324,239.043,256.628
2013-08-04 21:00,0.734737,281.165,279.702,257.459,282.374,280.998,260.34,0.570259,0.679947,239.774,256.894
2013-08-04 22:00,-0.00630397,270.151,271.984,252.534,274.933,273.99,257.406,-0.0,-0.0,239.954,256.894
2013-08-04 23:00,-0.0812215,274.073,274.785,253.86,277.678,276.477,257.653,-0.0245608,-0.0497845,240.43,257.333
2013-08-05 00:00,-0.0740601,272.836,273.466,253.14,277.075,275.861,257.653,-0.0231024,-0.0491895,241.189,258.028
2013-08-05 01:00,-0.00153372,283.261,282.799,258.469,284.921,282.904,261.062,-0.0,-0.0,239.834,257.942
2013-08-05 02:00,-0.0,273.586,274.655,254.217,277.528,276.015,257.653,-0.0,-0.0,239.349,257.769
2013-08-05 03:00,-0.0,286.121,286.217,260.445,288.628,287.469,263.083,-0.0,-0.0,237.333,257.421
2013-08-05 04:00,-0.00123222,281.883,280.066,256.778,281.655,279.81,258.638,-0.0,-0.0,232.481,253.69
2013-08-05 05:00,0.00130404,268.382,258.871,243.93,257.361,255.803,243.099,-0.0,-0.0,226.405,239.39
2013-08-05 06:00,-0.00148049,280.427,279.945,256.664,282.231,280.998,259.37,-0.0,0.00149464,233.823,255.366
2013-08-05 07:00,-0.0,282.059,283.726,258.802,286.447,286.202,263.318,-0.0,-0.0,234.615,257.333
2013-08-05 08:00,-0.00263009,281.883,283.495,258.691,286.033,286.06,263.2,-0.0,-0.0,234.827,257.508
2013-08-05 09:00,-0.0,281.346,283.148,258.358,285.479,285.635,263.083,-0.0,-0.0,237.657,258.286
2013-08-05 11:00,0.595062,287.3,286.328,260.553,288.897,287.888,263.787,0.321896,0.4895,238.981,258.543
2013-08-05 12:00,0.542898,294.823,291.279,263.618,293.764,291.871,265.301,0.246771,0.412508,239.227,258.457
2013-08-05 13:00,0.451881,299.579,295.442,266.259,298.055,295.471,265.993,0.192169,0.326152,239.288,258.543
2013-08-05 14:00,0.37842,302.085,297.494,267.446,300.263,297.04,266.566,0.152301,0.263828,238.733,258.372
2013-08-05 15:00,0.332392,303.264,298.453,268.033,301.11,297.689,266.795,0.127567,0.224236,238.104,258.372
2013-08-05 16:00,0.298956,303.836,298.549,267.838,301.352,297.818,266.566,0.11221,0.202246,238.357,258.286
2013-08-05 17:00,0.282989,303.098,298.834,267.935,301.592,298.076,266.795,0.109294,0.193804,238.608,258.372
2013-08-05 18:00,0.276871,301.565,298.071,267.052,300.869,297.689,266.452,0.113912,0.194875,237.977,257.682
2013-08-05 19:00,0.286102,299.013,296.229,266.458,299.287,296.519,266.681,0.140011,0.21729,237.785,257.595
2013-08-05 20:00,0.317123,295.796,293.944,265.153,296.935,294.812,265.647,0.217919,0.273755,237.463,257.421
2013-08-05 21:00,0.443721,288.841,288.843,261.944,291.817,290.648,264.605,0.50093,0.537555,237.398,257.682
2013-08-05 22:00,-0.0063364,285.818,286.661,260.769,289.434,288.722,264.488,-0.0,-0.0,237.137,257.333
2013-08-05 23:00,-0.0697219,284.57,285.77,260.011,288.358,288.027,264.022,-0.0221375,-0.0527913,236.94,257.246
2013-08-06 00:00,-0.0974962,283.261,285.095,259.464,287.679,287.329,263.787,-0.026416,-0.0511827,236.874,257.508
2013-08-06 01:00,-0.00306776,282.753,284.414,259.134,286.997,286.907,264.255,-0.0,-0.0,237.268,257.769
2013-08-06 02:00,-0.00132956,282.059,283.726,258.58,286.31,286.485,264.138,-0.0,-0.0,236.408,257.942
2013-08-06 03:00,-0.0,281.526,283.264,258.469,285.757,286.06,263.787,-0.0,-0.0,236.542,258.2
2013-08-06 04:00,0.00123224,280.799,282.799,258.246,285.201,285.493,263.553,-0.0,-0.0,236.874,258.628
2013-08-06 05:00,-0.0,280.427,282.448,258.022,284.921,285.493,263.787,-0.0,-0.0,237.006,259.22
2013-08-06 06:00,0.00148135,280.05,282.214,257.685,284.501,285.35,263.787,-0.0,-0.0,237.137,259.721
2013-08-06 07:00,-0.00184194,279.667,282.214,257.572,284.501,285.065,263.787,-0.0,-0.0,236.675,260.135
2013-08-06 08:00,-0.00263702,279.473,281.978,257.346,284.22,284.922,264.022,-0.0,-0.0,237.006,260.708
2013-08-06 09:00,-0.00512454,279.473,281.86,257.233,283.797,284.779,263.67,-0.0,-0.0,237.528,261.355
2013-08-06 10:00,-1.86363,280.05,281.978,257.233,284.079,284.922,263.787,-3.41885,-3.76289,237.913,261.515
2013-08-06 11:00,0.561406,286.717,286.439,260.119,289.166,289.137,265.416,0.309203,0.506244,237.398,261.033
2013-08-06 12:00,0.542305,294.713,292.52,263.721,295.297,294.415,266.681,0.242806,0.427099,237.977,260.789
2013-08-06 13:00,0.449663,299.95,296.718,266.059,299.654,298.076,268.045,0.187781,0.340985,237.977,260.789
2013-08-06 14:00,0.3785,302.511,299.118,267.838,302.191,300.379,268.497,0.151654,0.272942,237.463,261.033
2013-08-06 15:00,0.327995,304.478,301.083,268.904,304.324,302.018,269.171,0.124447,0.23429,236.742,261.113
2013-08-06 16:00,0.296291,305.184,301.728,269.479,305.027,302.269,269.059,0.109187,0.210781,235.317,260.381
2013-08-06 17:00,0.283562,304.478,301.175,268.615,304.324,301.642,269.059,0.104691,0.198061,234.041,259.387
2013-08-06 18:00,0.283522,302.68,299.872,268.324,302.907,299.998,268.045,0.111808,0.19605,233.75,258.798
2013-08-06 19:00,0.295212,300.042,297.59,266.657,300.506,297.947,267.137,0.141568,0.224185,233.53,258.882
2013-08-06 20:00,0.310432,296.114,294.646,264.95,297.309,295.339,266.909,0.208727,0.27192,233.968,259.051
2013-08-06 21:00,0.457997,289.247,289.805,262.155,292.34,291.6,265.532,0.508968,0.577969,234.401,259.387
2013-08-06 22:00,-0.0,286.271,287.869,260.769,290.5,289.964,264.605,-0.0,-0.0,233.823,258.882
2013-08-06 23:00,-0.0901882,285.357,286.772,260.011,289.434,288.861,264.605,-0.0270963,-0.052868,233.823,258.457
2013-08-07 00:00,-0.0877887,284.73,286.439,259.902,288.897,288.722,264.953,-0.0264286,-0.0512072,233.896,258.967
2013-08-07 01:00,-0.00153403,283.428,285.77,259.464,288.087,288.445,264.837,-0.0,-0.0015487,233.308,259.804
2013-08-07 02:00,0.0013295,282.923,285.095,259.354,287.679,288.027,264.837,-0.0,-0.0,233.53,259.721
2013-08-07 03:00,-0.00123976,282.408,284.642,259.244,286.997,287.469,264.605,-0.0,-0.0,233.382,259.721
2013-08-07 04:00,-0.00123229,281.526,283.841,258.691,286.31,286.767,264.138,-0.0,-0.0,232.405,259.554
2013-08-07 05:00,-0.0,280.799,282.682,258.134,284.921,285.635,264.138,-0.0,-0.0,231.552,258.798
2013-08-07 06:00,0.00148229,280.982,283.032,258.134,285.34,286.06,264.138,-0.0,-0.0,232.175,259.638
2013-08-07 07:00,0.00184439,280.613,283.032,258.58,285.34,286.06,264.372,-0.0,-0.0,233.01,260.052
2013-08-07 08:00,-0.00264436,280.427,282.916,258.134,284.921,285.919,264.488,-0.0,-0.0,232.405,260.708
2013-08-07 09:00,-0.00516144,280.05,281.267,257.233,283.372,284.061,262.965,-0.0,-0.0,232.02,260.052
2013-08-07 10:00,-3.35625,280.239,282.096,257.572,284.079,285.065,264.138,-6.82015,-6.77667,232.633,260.789
2013-08-07 11:00,0.6469,285.665,280.066,256.664,280.493,279.061,258.392,0.378846,0.593218,230.755,255.366
2013-08-07 12:00,0.544455,295.151,292.725,264.031,295.55,294.547,266.909,0.243632,0.435741,232.784,261.033
2013-08-07 13:00,0.384662,296.635,291.798,263.515,294.021,292.41,264.138,0.181702,0.316803,232.02,258.543
2013-08-07 14:00,0.368458,300.042,293.843,264.849,295.803,293.082,263.905,0.158123,0.281958,231.943,258.372
2013-08-07 15:00,0.329779,303.346,299.024,268.227,301.832,299.488,267.819,0.127869,0.242698,233.085,260.789
2013-08-07 16:00,0.276812,302.341,298.262,267.544,301.11,298.848,267.592,0.110066,0.203803,232.709,260.627
2013-08-07 17:00,0.292334,301.39,296.131,266.259,298.672,295.996,265.185,0.119588,0.217202,232.405,259.804
2013-08-07 18:00,0.280445,301.913,300.246,268.807,303.736,302.018,270.175,0.108082,0.199164,233.53,262.072
2013-08-07 19:00,0.288637,299.391,298.834,267.74,302.072,300.506,269.283,0.127698,0.223141,233.603,261.914
2013-08-07 20:00,0.317444,296.219,295.935,265.557,298.918,297.689,268.271,0.191985,0.283852,233.456,261.515
2013-08-07 21:00,0.110947,288.43,290.229,262.261,292.73,292.545,266.452,0.305301,0.28002,232.935,260.627
2013-08-07 22:00,-0.00640066,285.357,287.76,261.091,289.968,290.101,266.337,-0.0,-0.0,232.175,260.789
2013-08-07 23:00,-0.0990561,284.087,286.661,260.011,288.897,289.137,265.532,-0.0271346,-0.0529428,231.943,260.135
2013-08-08 00:00,-0.0936844,283.428,285.546,259.574,287.815,288.167,265.069,-0.0264408,-0.0532012,231.473,259.721
2013-08-08 01:00,-0.00153418,280.613,281.386,257.12,283.088,283.194,261.66,-0.0,-0.0,230.348,257.07
2013-08-08 02:00,-0.0,281.705,283.495,258.246,285.34,285.777,263.553,-0.0,-0.0,229.852,258.457
2013-08-08 03:00,-0.0,280.982,282.799,258.246,284.921,285.35,263.67,-0.0,-0.0,230.674,259.304
2013-08-08 04:00,0.00123236,280.799,283.495,258.691,285.618,286.343,264.721,-0.0,-0.0,232.784,261.033
2013-08-08 05:00,0.00130503,281.165,283.611,258.58,285.479,286.485,264.837,-0.0,-0.0,233.085,260.463
2013-08-08 06:00,-0.0,280.613,283.148,258.58,285.201,286.06,264.721,-0.0,-0.0,233.159,260.545
2013-08-08 07:00,-0.00184701,279.859,282.448,258.022,284.361,285.208,264.488,-0.0,-0.0,232.328,260.708
2013-08-08 08:00,-0.0,279.667,282.096,257.685,284.079,284.779,264.255,-0.0,-0.0,232.328,260.871
2013-08-08 09:00,-0.0,276.594,275.951,253.98,277.075,276.938,258.515,-0.0,-0.0,230.916,256.36
2013-08-08 10:00,53.6413,276.594,275.436,253.98,276.468,276.477,258.147,59.6112,74.4619,230.348,255.091
2013-08-08 11:00,0.618369,287.729,287.322,260.769,289.968,289.826,265.532,0.329489,0.538173,231.787,259.304
2013-08-08 12:00,0.535285,293.472,288.736,261.731,289.701,287.609,262.136,0.253901,0.432887,229.601,256.091
2013-08-08 13:00,0.473359,300.498,297.59,266.855,300.506,298.976,268.609,0.197838,0.34977,230.835,259.22
2013-08-08 14:00,0.304873,276.811,255.587,241.936,254.461,250.957,237.676,0.2709,0.37205,225.449,239.121
2013-08-08 15:00,0.291625,278.279,258.534,243.65,256.598,253.703,239.47,0.236522,0.331602,225.352,238.578
2013-08-08 16:00,0.315363,304.078,299.966,268.227,303.025,300.759,268.158,0.121254,0.226094,230.996,258.114
2013-08-08 17:00,0.338662,286.569,265.545,247.859,262.329,257.856,240.354,0.241031,0.336944,222.692,238.441
2013-08-08 18:00,0.33903,284.087,264.329,246.533,262.863,259.684,242.527,0.27727,0.367553,225.058,240.185
2013-08-08 19:00,0.354595,283.924,265.545,247.465,262.685,258.957,242.384,0.315575,0.394567,224.156,239.656
2013-08-08 20:00,0.842474,269.865,228.769,228.004,226.221,223.905,220.489,0.793427,0.991524,218.391,222.313
2013-08-08 21:00,0.914966,286.864,282.331,257.233,282.946,282.175,259.492,0.546848,0.815041,229.517,252.634
2013-08-08 22:00,-0.00643245,272.322,264.175,246.533,264.965,263.063,246.044,-0.0,-0.0,226.871,244.53
2013-08-08 23:00,-0.0875231,284.41,285.658,259.574,287.815,287.469,263.67,-0.0247019,-0.0530159,231.076,257.246
2013-08-09 00:00,-0.0995837,280.427,278.474,254.69,280.201,278.911,256.41,-0.0247992,-0.0512535,229.601,254.443
2013-08-09 01:00,-0.0,277.026,273.997,252.534,275.087,274.147,254.264,-0.0,-0.0,227.87,250.95
2013-08-09 02:00,-0.00132939,280.799,281.267,256.664,283.23,282.904,260.581,-0.0,-0.0,230.266,256.271
2013-08-09 03:00,-0.0,264.739,256.294,242.081,254.263,252.536,240.354,-0.0,-0.0,225.156,240.446
2013-08-09 04:00,-0.0,277.24,275.436,253.501,276.163,275.706,255.532,-0.0,-0.0,229.601,253.213
2013-08-09 05:00,-0.00130547,277.661,276.971,253.98,278.576,278.156,257.53,-0.0,-0.0,229.935,254.629
2013-08-09 06:00,-0.0,256.062,247.357,236.943,245.914,244.758,235.537,-0.0,-0.0,225.739,236.757
2013-08-09 07:00,-0.0,277.24,276.336,253.98,277.528,277.091,257.653,-0.0,-0.0,229.601,253.5
2013-08-09 08:00,-0.00266025,278.883,280.429,256.434,282.517,282.758,261.898,-0.0,-0.0,230.996,257.07
2013-08-09 09:00,-0.0052415,276.594,275.951,253.501,276.923,276.784,257.653,-0.0,-0.0,229.601,253.785
2013-08-09 10:00,8.3947,256.589,244.38,235.823,241.107,239.895,233.661,8.68729,12.7124,222.15,231.695
2013-08-09 11:00,0.490152,279.278,273.466,251.799,274.778,273.517,253.753,0.365923,0.526762,230.511,251.252
2013-08-09 12:00,0.478829,287.01,277.476,254.336,275.242,273.675,253.753,0.285211,0.452491,226.963,246.258
2013-08-09 13:00,0.350693,294.268,287.102,260.553,286.997,284.349,260.098,0.186643,0.305491,227.87,250.238
2013-08-09 14:00,0.300193,290.685,278.226,254.336,277.377,273.675,250.633,0.189218,0.279492,226.871,245.918
2013-08-09 15:00,0.314909,291.931,274.129,252.899,270.981,266.667,247.279,0.19415,0.291684,224.959,241.221
2013-08-09 16:00,0.312632,295.583,279.945,255.393,278.576,273.832,249.572,0.174757,0.271189,228.224,247.04
2013-08-09 17:00,0.299879,300.042,290.86,262.261,291.817,288.027,260.701,0.146272,0.236931,230.184,250.849
2013-08-09 18:00,0.278191,295.368,287.212,260.011,288.222,285.777,261.062,0.209553,0.261482,231.473,253.69
2013-08-09 19:00,0.435406,291.19,276.718,253.98,277.978,275.24,254.519,0.379564,0.475982,229.601,250.032
2013-08-09 20:00,0.765406,287.155,270.189,249.797,270.981,267.004,247.959,0.60259,0.790799,229.093,246.145
2013-08-09 21:00,0.130705,288.705,289.272,261.412,291.686,290.238,264.138,0.287735,0.290299,232.709,256.628
2013-08-09 22:00,-0.00646399,285.512,286.105,259.464,288.763,287.748,262.965,-0.0,-0.0,232.709,256.628
2013-08-09 23:00,-0.111012,280.05,280.429,256.089,283.088,281.146,259.856,-0.0296822,-0.0589858,234.041,256.894
2013-08-10 00:00,-0.095719,282.059,282.799,257.572,285.34,284.205,261.66,-0.0264637,-0.0512752,233.968,257.07
2013-08-10 01:00,-0.0,283.76,285.321,258.469,287.679,286.907,262.847,-0.0,-0.0,234.756,257.769
2013-08-10 02:00,-0.00132934,284.73,285.658,259.244,288.358,287.188,263.083,-0.0,-0.0,235.386,258.028
2013-08-10 03:00,-0.0,285.045,286.328,259.464,288.897,287.748,263.318,-0.0,-0.0,235.455,258.882
2013-08-10 04:00,-0.0,283.428,284.982,258.913,287.407,286.626,262.728,-0.0,-0.0,234.897,258.798
2013-08-10 05:00,-0.00130595,282.059,283.841,258.58,286.31,285.635,262.61,-0.0,-0.0,234.472,258.286
2013-08-10 06:00,-0.0,281.165,283.032,257.685,285.757,285.635,262.847,-0.0,-0.0,233.823,258.798
2013-08-10 07:00,-0.0,276.376,280.789,256.549,284.22,284.349,262.728,-0.0,-0.0,234.686,259.638
2013-08-10 08:00,-0.0,274.314,279.336,255.974,282.803,283.194,262.136,-0.0,-0.0,233.896,258.882
2013-08-10 09:00,-0.0,275.707,280.549,256.892,284.361,284.349,262.373,-0.0,-0.0,234.827,259.387
2013-08-10 10:00,5.92942,276.376,278.35,255.393,281.943,281.146,260.581,5.22961,5.9861,235.455,258.967
2013-08-10 11:00,0.875271,287.871,277.476,254.808,281.076,280.257,260.219,0.776381,0.831041,236.004,258.457
2013-08-10 12:00,0.840585,295.796,273.732,252.656,277.075,276.784,257.653,0.744499,0.801165,236.139,257.421
2013-08-10 13:00,0.695748,297.848,276.845,254.808,280.785,280.85,260.461,0.580649,0.605794,235.317,257.246
2013-08-10 14:00,0.524659,297.549,278.968,255.974,281.943,281.146,261.301,0.373939,0.429104,235.867,256.716
2013-08-10 15:00,0.328856,295.368,287.432,260.876,289.434,286.767,261.898,0.152112,0.239778,235.455,256.271
2013-08-10 16:00,0.306889,293.93,286.439,260.119,288.222,285.493,260.701,0.134401,0.221302,233.896,255.366
2013-08-10 17:00,0.277622,293.356,288.412,261.198,290.234,287.188,261.898,0.111345,0.196685,233.75,254.907
2013-08-10 18:00,0.282808,290.558,284.414,259.024,285.757,282.758,259.127,0.139142,0.22185,232.175,252.731
2013-08-10 19:00,0.259023,289.247,285.994,259.793,287.951,285.35,261.898,0.147657,0.207128,233.677,254.907
2013-08-10 20:00,0.382483,284.249,277.224,254.217,277.978,275.085,254.9,0.331379,0.381649,229.769,249.198
2013-08-10 21:00,0.584709,281.346,276.08,254.217,277.075,274.46,253.881,0.452022,0.667294,230.593,251.152
2013-08-10 22:00,-0.00649525,266.131,256.644,242.799,256.021,251.354,237.525,-0.0,-0.0,224.359,240.446
2013-08-10 23:00,-0.0936062,274.073,269.626,250.555,269.515,266.667,248.634,-0.0247676,-0.0531568,228.488,247.04
2013-08-11 00:00,-0.0781698,269.865,262.931,246.399,261.069,257.301,242.527,-0.0215105,-0.0473503,225.643,242.848
2013-08-11 01:00,-0.00153455,274.314,272.391,251.676,273.843,272.246,252.982,-0.0,-0.0,231.787,251.949
2013-08-11 02:00,-0.0,273.088,272.256,251.305,273.215,272.724,255.027,-0.0,-0.0,231.865,251.452
2013-08-11 03:00,-0.0,270.713,268.916,249.414,269.515,269.0,252.982,-0.0,-0.0,231.865,249.408
2013-08-11 04:00,-0.0,274.314,274.261,252.412,276.315,276.015,256.66,-0.0,-0.0,232.633,254.443
2013-08-11 05:00,0.00130649,274.073,274.524,252.656,276.01,276.169,257.282,-0.0,0.00131898,233.01,253.69
2013-08-11 06:00,-0.0,275.932,276.845,254.099,278.427,278.307,259.249,-0.0,-0.0,232.175,254.907
2013-08-11 07:00,-0.00185587,270.434,268.054,249.029,268.191,267.004,250.896,-0.0,-0.0,230.916,249.721
2013-08-11 08:00,-0.0,259.505,253.04,240.171,251.652,250.957,240.938,-0.0,-0.0,228.224,240.835
2013-08-11 09:00,-0.00533047,266.131,262.458,245.451,262.685,261.654,246.594,-0.0,-0.0,230.674,248.775
2013-08-11 10:00,2.82955,274.314,274.655,252.899,276.01,276.477,258.638,2.25485,3.36071,231.473,254.722
2013-08-11 11:00,0.345007,276.155,275.046,253.14,276.468,276.323,257.282,0.274677,0.384695,231.709,253.309
2013-08-11 12:00,0.571197,287.3,281.978,257.346,283.372,282.028,259.37,0.276693,0.487941,231.943,253.5
2013-08-11 13:00,0.339104,277.026,266.145,248.252,265.138,263.237,247.959,0.240105,0.35636,230.101,244.764
2013-08-11 14:00,0.320653,280.05,266.59,248.121,265.826,263.412,247.142,0.23511,0.352085,230.101,244.294
2013-08-11 15:00,0.31235,269.283,252.29,240.469,249.368,248.327,239.322,0.291427,0.385751,227.87,234.996
2013-08-11 16:00,0.298168,294.602,290.017,262.471,291.817,288.999,261.182,0.127504,0.235646,231.236,252.439
2013-08-11 17:00,0.266853,288.977,281.505,257.12,282.946,280.108,256.035,0.150629,0.235116,230.755,250.238
2013-08-11 18:00,0.329257,287.444,276.08,253.86,276.315,273.2,251.553,0.214323,0.317033,230.755,247.59
2013-08-11 19:00,0.344646,278.279,265.092,247.597,263.393,261.654,247.006,0.33072,0.399488,229.007,240.964
2013-08-11 20:00,0.534753,258.096,243.049,235.01,242.978,241.921,236.307,0.647355,0.776335,229.769,237.185
2013-08-11 21:00,0.717746,251.944,242.824,234.845,242.049,241.251,235.227,0.62867,0.84954,229.093,235.444
2013-08-11 22:00,-0.00652622,251.282,246.733,236.784,246.575,245.612,238.428,-0.0,-0.0,230.674,238.714
2013-08-11 23:00,-0.0995836,255.521,251.339,239.419,250.415,249.348,241.374,-0.0247992,-0.0561816,230.755,240.446
2013-08-12 00:00,-0.0899306,251.282,245.89,236.625,246.135,244.758,237.525,-0.0248296,-0.0493425,229.769,238.165
2013-08-12 01:00,-0.0,253.206,247.973,237.415,247.662,246.876,238.428,-0.00129939,-0.0,230.755,239.922
2013-08-12 02:00,-0.0,257.103,253.226,240.617,253.069,252.341,242.527,-0.0,-0.0,231.315,242.23
2013-08-12 03:00,0.00123967,258.576,254.328,240.766,254.066,253.122,242.384,-0.0,-0.0,231.394,243.336
2013-08-12 04:00,-0.0,271.261,269.626,250.303,270.332,269.984,252.982,-0.0,-0.0,232.328,251.85
2013-08-12 05:00,-0.0,272.836,271.574,251.305,272.423,271.765,254.646,-0.0,-0.0,231.865,253.405
2013-08-12 06:00,-0.0,257.103,252.29,240.32,250.83,249.753,240.646,-0.0,-0.0,229.601,241.348
2013-08-12 07:00,-0.0,269.576,267.18,248.382,267.522,266.835,251.159,-0.0,-0.0,232.175,251.552
2013-08-12 08:00,-0.00268731,274.314,274.129,252.534,275.396,275.551,257.406,-0.0,-0.002713,233.456,255.821
2013-08-12 09:00,-0.00537853,274.551,275.565,253.621,277.075,277.396,259.005,-0.0,-0.00542995,234.257,256.539
2013-08-12 10:00,1.61996,265.095,262.616,245.587,262.863,262.361,248.364,2.21569,2.89348,233.308,250.238
2013-08-12 11:00,0.52414,283.428,283.148,258.022,284.781,284.636,261.66,0.297295,0.467502,235.731,259.804
2013-08-12 12:00,0.441787,286.271,281.505,256.892,283.23,281.735,258.882,0.244756,0.377182,235.455,257.769
2013-08-12 13:00,0.471432,297.045,293.742,264.645,296.433,294.812,265.878,0.197075,0.34849,239.593,262.309
2013-08-12 14:00,0.386658,300.589,297.204,266.954,300.141,298.076,267.137,0.15185,0.279062,244.635,264.54
2013-08-12 15:00,0.332207,302.932,299.496,268.324,302.55,300.379,268.722,0.125297,0.234768,245.048,265.137
2013-08-12 16:00,0.303008,303.998,300.712,269.096,303.972,301.516,268.834,0.109227,0.205956,242.984,264.464
2013-08-12 17:00,0.288383,303.346,300.433,269.0,303.499,300.759,268.045,0.102307,0.193551,242.765,264.086
2013-08-12 18:00,0.278658,301.913,299.307,268.13,302.072,299.616,267.932,0.107537,0.195203,245.099,264.615
2013-08-12 19:00,0.287182,299.297,297.397,266.756,300.141,297.818,267.023,0.12911,0.212956,244.058,264.086
2013-08-12 20:00,0.325006,295.796,294.346,265.153,297.06,295.076,266.222,0.208246,0.27934,243.147,263.552
2013-08-12 21:00,0.313562,288.291,289.165,261.519,291.555,290.511,265.185,0.428872,0.438313,243.31,263.322
2013-08-12 22:00,-0.0,285.045,286.772,260.011,289.166,288.445,264.488,-0.0,-0.0,243.31,263.244
2013-08-12 23:00,-0.10264,284.249,286.105,259.134,288.222,288.027,264.255,-0.029796,-0.0592121,244.322,263.476
2013-08-13 00:00,-0.093876,283.594,285.77,259.024,287.951,287.888,264.605,-0.024839,-0.0513356,244.006,263.322
2013-08-13 01:00,-0.00153477,282.753,285.321,258.913,287.543,287.329,264.255,-0.0,-0.0,243.418,263.476
2013-08-13 02:00,-0.00132926,282.923,284.528,258.246,286.86,286.767,263.787,-0.0,-0.0,243.899,263.399
2013-08-13 03:00,-0.00123972,281.526,283.956,258.58,286.172,286.485,263.905,-0.0,-0.0,244.058,263.476
2013-08-13 04:00,-0.00123326,281.346,283.841,258.134,286.172,286.202,263.905,-0.0,-0.0,244.111,263.322
2013-08-13 05:00,-0.0,280.799,283.38,258.022,285.618,286.06,263.553,-0.0,-0.0,243.418,263.167
2013-08-13 06:00,-0.00148981,280.613,282.799,257.798,285.061,285.493,263.083,-0.0,-0.0,243.31,262.935
2013-08-13 07:00,-0.00186265,280.613,282.566,257.798,285.061,285.35,263.318,-0.0,-0.0,243.31,263.012
2013-08-13 08:00,-0.0,279.859,282.096,257.006,284.361,284.922,263.2,-0.0,-0.0,242.984,262.151
2013-08-13 09:00,-0.0,278.482,280.909,256.434,283.23,283.194,261.182,-0.0,-0.0,242.042,261.033
2013-08-13 10:00,1.88162,278.883,279.702,255.858,282.231,281.735,260.701,1.67702,1.99959,242.322,260.545
2013-08-13 11:00,0.583269,287.155,284.755,259.134,287.134,286.06,262.373,0.332073,0.48732,242.875,260.627
2013-08-13 12:00,0.549708,295.151,291.383,263.099,293.892,291.871,264.721,0.245329,0.410072,243.899,260.952
2013-08-13 13:00,0.449279,299.765,295.144,265.052,297.558,294.812,265.416,0.191033,0.320869,244.426,260.789
2013-08-13 14:00,0.376701,302.932,297.397,266.657,299.776,296.258,265.762,0.152542,0.262905,245.099,261.355
2013-08-13 15:00,0.32933,304.95,299.213,267.74,301.712,297.947,266.108,0.126053,0.226207,245.507,261.355
2013-08-13 16:00,0.286884,305.106,299.684,268.13,302.43,298.591,266.566,0.111331,0.196101,245.658,261.675
2013-08-13 17:00,0.370731,295.042,278.721,255.742,280.639,278.458,257.777,0.338356,0.395338,245.151,259.304
2013-08-13 18:00,0.519228,302.085,278.474,255.742,280.347,277.243,257.653,0.382078,0.474632,244.842,258.967
2013-08-13 19:00,0.619869,301.037,276.845,254.808,278.576,276.015,256.785,0.490567,0.595144,244.164,258.457
2013-08-13 20:00,0.881743,297.848,275.306,253.98,277.678,274.304,255.658,0.705916,0.894579,243.418,257.246
2013-08-13 21:00,0.729411,288.43,284.869,259.244,286.86,284.349,260.461,0.577746,0.783892,243.039,258.286
2013-08-13 22:00,-0.00658724,270.151,269.201,250.177,271.464,270.635,254.773,-0.0,-0.0,242.984,256.091
2013-08-13 23:00,-0.111573,262.475,262.774,247.067,265.826,265.48,252.075,-0.0323181,-0.062248,242.765,254.629
2013-08-14 00:00,-0.101736,271.531,269.767,250.806,271.945,269.657,254.009,-0.028161,-0.0533294,243.093,255.548
2013-08-14 01:00,-0.0,275.02,273.599,252.29,275.55,273.517,255.027,-0.0,-0.0,243.579,256.181
2013-08-14 02:00,-0.0,276.376,274.261,253.501,276.315,273.359,255.28,-0.0,-0.0,242.984,256.001
2013-08-14 03:00,0.0012398,275.251,273.333,253.381,276.01,272.883,255.658,-0.0,-0.0,242.929,256.271
2013-08-14 04:00,0.00123355,269.283,269.343,250.931,271.945,270.473,254.9,-0.0,-0.0,242.322,256.091
2013-08-14 05:00,-0.00130845,270.713,270.468,250.931,273.372,271.765,254.137,-0.0,-0.0,242.378,256.091
2013-08-14 06:00,-0.0,270.151,269.626,250.681,271.945,270.148,254.137,-0.0,-0.0,241.874,255.275
2013-08-14 07:00,-0.0,267.444,266.738,249.414,268.855,267.004,252.335,-0.0,-0.0,241.76,254.443
2013-08-14 08:00,-0.0,268.073,267.326,249.924,269.679,267.339,252.335,-0.0,-0.0,241.015,254.256
2013-08-14 09:00,-0.0,262.074,262.141,246.667,264.618,263.412,250.765,-0.0,-0.0,240.607,253.309
2013-08-14 10:00,2.45385,270.434,266.145,249.158,268.69,266.16,251.814,1.8699,2.31215,240.312,253.595
2013-08-14 11:00,0.849483,286.717,259.373,244.488,261.791,261.654,249.305,0.757112,0.877665,240.134,252.146
2013-08-14 12:00,0.774342,296.531,258.365,243.93,261.431,261.654,249.438,0.696611,0.79803,240.43,252.342
2013-08-14 13:00,0.474159,292.534,280.789,257.12,281.799,279.361,258.392,0.264342,0.376256,240.074,255.548
2013-08-14 14:00,0.381487,293.472,288.412,262.155,290.897,288.584,262.373,0.155981,0.269923,240.489,256.894
2013-08-14 15:00,0.327963,295.042,290.44,263.099,292.989,290.511,263.436,0.128065,0.229803,240.665,258.028
2013-08-14 16:00,0.302134,295.476,291.487,263.721,294.149,291.6,263.787,0.113416,0.20435,241.476,259.135
2013-08-14 17:00,0.281378,295.042,291.694,263.515,294.277,292.141,264.022,0.108292,0.196911,241.986,260.708
2013-08-14 18:00,0.276454,293.472,291.174,263.411,293.892,292.006,264.022,0.11624,0.201253,242.322,261.275
2013-08-14 19:00,0.287151,290.685,289.379,261.944,292.079,290.784,263.553,0.138627,0.22378,242.544,261.113
2013-08-14 20:00,0.312387,287.587,287.212,260.876,289.701,288.861,263.318,0.20572,0.284712,242.433,260.789
2013-08-14 21:00,0.36759,283.093,284.071,258.913,286.585,285.919,262.373,0.466856,0.510268,242.489,260.952
2013-08-14 22:00,-0.0,279.473,281.742,257.006,283.656,283.339,261.301,-0.0,-0.0,242.6,260.708
2013-08-14 23:00,-0.0970062,278.684,280.909,256.549,282.803,282.758,261.54,-0.0298673,-0.065289,243.202,260.708
2013-08-15 00:00,-0.103729,278.279,280.669,256.089,282.374,282.467,260.581,-0.0265138,-0.055324,244.687,262.072
2013-08-15 01:00,-0.0,277.869,279.823,255.51,281.655,281.882,261.062,-0.0,-0.0,248.833,264.69
2013-08-15 02:00,-0.0,276.594,279.213,255.393,280.931,280.998,260.701,-0.0,-0.0,252.331,267.103
2013-08-15 03:00,-0.0,276.376,278.598,255.043,280.201,280.554,261.062,-0.0,-0.0,251.531,267.317
2013-08-15 04:00,0.00123388,276.155,278.226,254.69,279.613,279.81,260.461,-0.0,-0.0,251.828,267.032
2013-08-15 05:00,-0.0,275.932,277.727,254.336,279.17,279.661,260.701,-0.0,-0.0,251.616,267.317
2013-08-15 06:00,-0.0,275.251,276.971,254.099,278.725,278.911,260.34,-0.0,-0.0,250.973,266.529
2013-08-15 07:00,-0.00187017,274.314,276.336,253.621,277.678,278.156,260.098,-0.0,-0.0,250.538,266.239
2013-08-15 08:00,-0.0,273.088,275.176,252.777,276.62,277.091,259.492,-0.0,-0.0,249.606,265.728
2013-08-15 09:00,0.00553824,272.322,274.392,252.168,276.01,276.477,258.638,-0.0,-0.0,248.231,264.839
2013-08-15 10:00,1.11047,272.58,274.524,252.534,276.01,276.477,259.249,1.11653,1.40136,248.324,264.615
2013-08-15 11:00,0.657603,282.234,280.066,255.858,282.087,282.175,261.182,0.328258,0.579665,248.137,264.615
2013-08-15 12:00,0.581926,289.247,285.658,258.802,287.815,287.469,263.67,0.253139,0.468914,248.043,264.989
2013-08-15 13:00,0.467683,292.534,289.058,260.661,291.555,290.784,264.721,0.193886,0.36636,248.043,265.137
2013-08-15 14:00,0.389455,295.151,292.417,262.576,295.043,294.016,266.681,0.15251,0.294884,247.855,265.286
2013-08-15 15:00,0.338526,296.943,294.245,263.411,297.184,296.258,267.137,0.125006,0.248418,247.902,265.581
2013-08-15 16:00,0.302434,297.045,295.343,264.236,298.302,297.43,267.592,0.107951,0.22151,247.996,266.094
2013-08-15 17:00,0.281894,296.531,295.144,263.928,298.055,297.559,267.705,0.101135,0.204197,248.324,266.166
2013-08-15 18:00,0.275367,295.042,294.145,263.307,297.06,296.258,267.251,0.101509,0.206136,248.787,266.529
2013-08-15 19:00,0.285891,292.053,292.211,262.261,294.788,294.547,266.337,0.116785,0.222798,248.925,266.673
2013-08-15 20:00,0.29759,288.012,289.058,260.553,291.555,291.464,265.532,0.160676,0.283019,249.108,266.456
2013-08-15 21:00,0.359235,282.408,284.414,257.572,286.31,286.485,263.318,0.380205,0.476004,249.381,266.312
2013-08-15 22:00,-0.00664694,277.661,280.066,255.043,281.655,282.028,261.421,-0.0,-0.0,249.561,266.312
2013-08-15 23:00,-0.0853457,276.155,278.101,253.98,279.76,280.108,261.062,-0.0274098,-0.0623929,249.651,266.094
2013-08-16 00:00,-0.0920171,275.251,277.35,253.621,278.576,279.211,260.581,-0.0248651,-0.0553428,249.606,265.875
2013-08-16 01:00,-0.00153509,274.551,276.463,252.899,277.528,278.307,259.977,-0.0,-0.0,249.741,265.948
2013-08-16 02:00,-0.0,274.073,275.951,252.29,277.226,277.853,260.34,-0.0,-0.0,250.186,266.456
2013-08-16 03:00,0.00124002,273.586,275.823,252.29,276.923,277.701,260.219,-0.0,-0.0,249.561,266.529
2013-08-16 04:00,-0.0,274.073,275.694,252.534,277.075,278.004,260.461,-0.0,-0.0,249.426,266.601
2013-08-16 05:00,-0.0,273.586,275.565,252.412,277.226,278.004,260.581,-0.0,-0.0,249.651,267.103
2013-08-16 06:00,-0.00149485,274.314,276.08,252.656,277.528,278.156,260.581,-0.0,-0.0,249.919,267.317
2013-08-16 07:00,-0.0018742,273.586,276.08,252.899,277.528,278.609,260.461,-0.0,-0.0,249.199,267.459
2013-08-16 08:00,-0.0,274.073,275.951,252.777,277.226,278.004,260.701,-0.0,-0.0,248.603,267.53
2013-08-16 09:00,-0.0,273.831,275.694,252.656,277.226,278.156,260.461,-0.0,-0.0,248.184,267.388
2013-08-16 10:00,0.901186,274.073,276.208,252.534,277.226,278.156,260.701,0.966508,1.21307,248.879,267.53
2013-08-16 11:00,0.615631,283.261,281.978,255.858,283.372,283.629,262.728,0.316036,0.543215,249.651,268.372
2013-08-16 12:00,0.561809,290.813,287.76,259.574,289.701,289.413,264.488,0.251304,0.449463,249.651,268.163
2013-08-16 13:00,0.457383,294.491,291.591,261.838,294.021,293.483,266.337,0.191182,0.358494,249.108,268.233
2013-08-16 14:00,0.386024,297.649,294.945,263.928,297.683,296.78,267.478,0.151799,0.288617,248.971,267.812
2013-08-16 15:00,0.338595,299.858,297.59,265.658,300.506,298.976,268.271,0.12574,0.239882,248.833,267.53
2013-08-16 16:00,0.307156,301.214,299.307,266.954,302.43,300.885,268.946,0.110029,0.211698,248.925,267.6
2013-08-16 17:00,0.285577,300.858,299.684,267.052,302.788,301.39,269.395,0.102092,0.198612,249.017,268.093
2013-08-16 18:00,0.281754,299.297,298.834,266.358,301.952,300.379,269.171,0.105851,0.197795,249.245,267.953
2013-08-16 19:00,0.287146,296.738,296.815,265.153,299.654,298.848,268.158,0.124734,0.211746,249.245,268.093
2013-08-16 20:00,0.304423,292.414,293.539,262.995,296.056,295.602,267.592,0.177887,0.264047,249.561,267.882
2013-08-16 21:00,0.329405,285.512,287.541,259.464,289.835,289.689,265.185,0.427657,0.465576,249.561,267.388
2013-08-16 22:00,-0.0,282.753,285.321,257.685,287.134,287.469,264.138,-0.0,-0.0,249.964,267.53
2013-08-16 23:00,-0.0942799,281.346,284.185,257.346,286.033,286.485,263.787,-0.0274404,-0.065437,250.494,267.6
2013-08-17 00:00,-0.0998813,281.165,283.38,257.233,285.201,285.919,263.436,-0.0248733,-0.0533838,250.008,267.317
2013-08-17 01:00,-0.0,280.239,282.799,256.434,284.501,285.065,263.083,-0.0,-0.0,250.053,267.174
2013-08-17 02:00,-0.00132934,279.667,282.331,256.892,283.797,284.492,262.728,-0.0,-0.0,250.274,267.317
2013-08-17 03:00,-0.00124018,278.482,281.267,256.089,282.66,283.339,262.728,-0.0,-0.0,250.008,267.246
2013-08-17 04:00,-0.0,277.24,279.945,255.393,281.366,282.175,262.255,-0.0,-0.0,249.651,266.529
2013-08-17 05:00,-0.00131096,276.376,278.721,255.043,280.347,280.998,261.54,-0.0,-0.0,249.606,266.166
2013-08-17 06:00,-0.0,276.155,278.474,254.454,280.054,280.85,261.898,-0.0,-0.0,249.516,266.239
2013-08-17 07:00,-0.0,275.251,278.101,254.69,279.466,280.406,261.66,-0.0,-0.0,249.651,266.094
2013-08-17 08:00,-0.0,275.02,277.601,254.217,278.873,279.959,261.54,-0.0,-0.0,249.29,265.728
2013-08-17 09:00,-0.0,274.551,276.971,253.86,278.576,279.511,261.062,-0.0,-0.0,247.617,265.063
2013-08-17 10:00,0.845031,275.932,277.601,254.336,279.022,280.108,261.062,0.939076,1.11971,246.159,264.914
2013-08-17 11:00,0.646353,284.888,283.841,258.022,285.895,286.06,263.083,0.324306,0.546193,245.608,264.69
2013-08-17 12:00,0.576117,293.587,290.545,262.155,293.119,292.276,265.532,0.253922,0.451489,244.997,264.238
2013-08-17 13:00,0.462518,297.848,294.646,264.645,297.558,296.258,267.023,0.191744,0.346814,244.111,264.01
2013-08-17 14:00,0.384215,300.408,297.107,266.657,300.384,298.591,267.592,0.149726,0.277526,244.111,263.858
2013-08-17 15:00,0.33126,301.913,298.834,267.446,302.191,300.379,268.497,0.123961,0.234397,244.164,263.629
2013-08-17 16:00,0.303011,302.764,299.778,268.421,303.144,300.759,268.271,0.108352,0.206413,243.633,263.167
2013-08-17 17:00,0.28291,301.826,299.402,268.033,302.55,300.125,268.158,0.101704,0.19626,243.633,263.09
2013-08-17 18:00,0.276942,299.765,298.167,267.151,301.352,299.36,267.592,0.103866,0.193273,243.418,263.09
2013-08-17 19:00,0.283425,296.738,295.935,265.758,298.795,297.04,266.909,0.124198,0.215856,244.111,262.857
2013-08-17 20:00,0.302668,292.771,292.622,263.618,295.297,294.016,265.762,0.18769,0.258221,244.687,262.545
2013-08-17 21:00,0.365439,287.444,288.628,261.412,291.292,290.511,264.488,0.455025,0.477443,245.099,262.623
2013-08-17 22:00,-0.00670527,283.594,285.546,259.134,287.951,287.609,263.67,-0.0,-0.0,245.658,262.466
2013-08-17 23:00,-0.100281,282.234,283.956,258.246,286.31,286.202,263.083,-0.0274703,-0.059553,245.608,261.993
2013-08-18 00:00,-0.0959952,281.165,283.148,257.685,285.201,285.208,262.373,-0.0265401,-0.0573566,246.307,261.595
2013-08-18 01:00,-0.0,280.613,282.682,257.346,284.781,285.065,262.136,-0.0,-0.00155,246.603,261.993
2013-08-18 02:00,0.00132941,280.427,282.214,257.12,284.501,284.636,262.136,-0.0,-0.0,247.522,262.309
2013-08-18 03:00,-0.00124037,279.278,281.742,256.778,283.797,283.917,262.255,-0.0,-0.0,247.76,262.779
2013-08-18 04:00,0.00123513,279.278,281.386,256.664,283.514,283.773,262.255,-0.0,-0.0,247.522,262.545
2013-08-18 05:00,0.00131193,278.684,280.909,256.205,283.088,283.484,262.136,-0.0,-0.0,246.896,262.701
2013-08-18 06:00,0.00149872,278.482,280.669,255.974,282.66,283.194,262.017,-0.0,-0.00151304,245.809,261.914
2013-08-18 07:00,-0.0,277.661,280.429,255.858,282.66,282.904,261.779,-0.0,-0.0,245.709,261.515
2013-08-18 12:00,0.590152,291.931,282.331,257.685,284.361,281.588,259.856,0.313959,0.448163,244.997,259.97
2013-08-18 13:00,0.479015,298.436,282.096,257.798,284.501,280.702,258.76,0.271464,0.385334,245.253,259.887
2013-08-18 14:00,0.379206,298.045,292.005,263.411,294.405,291.329,263.787,0.165278,0.277835,245.099,260.871
2013-08-18 15:00,0.325449,300.225,295.442,265.658,297.931,295.076,265.762,0.125934,0.228952,245.456,260.952
2013-08-18 16:00,0.298894,301.037,295.144,265.355,297.683,294.282,264.953,0.116612,0.208563,245.202,260.627
2013-08-18 17:00,0.277112,300.769,296.523,266.059,299.287,296.258,265.878,0.10665,0.195515,245.608,261.113
2013-08-18 18:00,0.270318,299.013,295.935,265.557,298.672,295.734,265.416,0.112871,0.203742,245.658,261.275
2013-08-18 19:00,0.272316,296.531,294.245,264.543,297.06,294.415,265.416,0.140438,0.234931,246.505,261.675
2013-08-18 20:00,0.292474,293.124,292.211,262.89,294.916,293.216,265.069,0.218926,0.29527,246.456,262.466
2013-08-18 21:00,0.37905,288.152,288.736,260.984,291.686,290.921,264.488,0.481412,0.510232,246.505,262.779
2013-08-18 22:00,-0.0,285.202,286.772,259.902,289.434,288.999,264.372,-0.0,-0.0,246.847,262.779
2013-08-18 23:00,-0.0915302,283.594,285.433,258.691,287.951,287.609,263.318,-0.0274995,-0.0655779,246.798,262.545
2013-08-19 00:00,-0.107783,282.234,283.956,258.022,286.447,286.202,262.847,-0.0282077,-0.0553961,246.258,262.388
2013-08-19 01:00,-0.0,280.982,282.916,257.572,285.34,285.208,262.965,-0.0,-0.0,246.258,262.309
2013-08-19 02:00,-0.0,279.859,282.331,257.233,284.501,284.779,262.373,-0.0,-0.0,245.809,262.23
2013-08-19 03:00,-0.0,279.667,281.86,256.664,284.22,284.349,262.728,-0.0,-0.0,246.109,262.545
2013-08-19 04:00,0.00123563,279.667,281.624,256.892,283.938,284.061,262.61,-0.0,-0.0,245.809,262.309
2013-08-19 05:00,-0.0,280.05,282.096,257.12,284.501,284.636,262.61,-0.0,-0.0,245.507,262.151
2013-08-19 06:00,-0.0,279.667,281.624,257.006,284.079,284.492,262.728,-0.0,-0.0,245.608,261.993
2013-08-19 07:00,-0.00188748,279.081,281.148,256.549,283.514,283.917,262.017,-0.0,-0.0,245.253,262.072
2013-08-19 08:00,-0.0,279.081,281.029,256.434,283.372,283.917,262.847,-0.0,-0.0,245.456,261.993
2013-08-19 09:00,-0.00579199,278.883,280.789,256.205,283.088,283.194,262.255,-0.0,-0.0,245.759,261.595
2013-08-19 10:00,1.47874,275.02,273.199,252.534,276.468,275.24,257.158,1.07318,1.40757,245.91,260.052
2013-08-19 11:00,0.681759,287.444,279.336,256.089,282.087,279.959,259.37,0.423049,0.556278,246.059,260.871
2013-08-19 12:00,0.655754,295.151,279.458,256.32,281.655,278.307,258.638,0.386244,0.502405,245.456,260.135
2013-08-19 13:00,0.442161,297.549,287.541,260.553,289.568,285.919,261.66,0.244229,0.354428,245.355,260.871
2013-08-19 14:00,0.385376,299.672,294.746,264.645,296.809,293.483,265.185,0.1618,0.271699,245.355,261.675
2013-08-19 15:00,0.334344,302.426,297.494,266.557,299.776,296.519,266.566,0.13037,0.229468,244.635,261.993
2013-08-19 16:00,0.303562,303.346,298.739,267.249,301.11,297.559,266.566,0.116156,0.203327,244.687,261.993
2013-08-19 17:00,0.285476,303.264,299.024,267.348,301.592,297.947,266.566,0.107575,0.191609,244.739,261.914
2013-08-19 18:00,0.407612,302.085,289.805,262.049,291.555,288.306,262.847,0.238932,0.331441,244.739,261.033
2013-08-19 19:00,0.293357,298.533,292.211,263.411,294.661,291.735,264.138,0.19829,0.23892,244.111,261.435
2013-08-19 20:00,0.236046,294.38,293.235,264.031,295.803,293.617,265.416,0.214136,0.242558,244.269,262.072
2013-08-19 21:00,0.660613,288.841,288.087,260.876,290.367,288.861,263.787,0.611778,0.771136,244.583,261.675
2013-08-19 22:00,-0.00676217,285.202,286.992,260.011,289.3,288.722,264.022,-0.0,-0.0,244.739,262.151
2013-08-19 23:00,-0.130049,285.665,286.992,259.902,289.568,289.276,264.837,-0.0350356,-0.0716137,245.151,263.09
2013-08-20 00:00,-0.107817,284.41,285.994,259.354,288.358,288.167,264.138,-0.0282163,-0.0593712,244.739,262.545
2013-08-20 01:00,-0.00153559,283.261,285.095,259.024,287.543,287.329,263.787,-0.00130018,-0.00155027,245.048,262.545
2013-08-20 02:00,-0.00132961,280.982,282.682,257.459,285.201,283.629,261.779,-0.0,-0.0,245.151,261.435
2013-08-20 03:00,-0.00124084,279.859,281.386,257.006,283.797,282.613,261.301,-0.00105062,0.0012527,245.405,261.834
2013-08-20 04:00,-0.00123618,281.526,283.726,258.358,285.895,285.493,262.965,-0.0,-0.0,245.557,262.309
2013-08-20 05:00,-0.00131406,281.165,283.264,257.685,285.895,285.208,263.083,-0.0,-0.0,245.709,262.466
2013-08-20 06:00,-0.0,280.982,283.264,257.685,285.479,285.208,263.2,-0.0,-0.0,245.709,262.466
2013-08-20 07:00,-0.0,279.081,281.029,257.006,283.514,282.321,260.942,-0.0,-0.0,245.96,262.23
2013-08-20 08:00,-0.0,270.989,272.527,252.412,275.703,273.832,257.53,-0.0,-0.0,245.759,260.463
2013-08-20 09:00,-0.0,281.346,283.264,258.134,285.34,285.208,262.61,-0.0,-0.0,245.91,262.779
2013-08-20 10:00,0.689335,281.165,283.148,258.022,285.34,285.493,263.436,0.713361,0.734587,246.208,263.09
2013-08-20 11:00,0.64095,288.705,287.212,260.337,289.568,288.722,264.605,0.320149,0.502765,245.759,262.779
2013-08-20 12:00,0.568536,295.042,291.07,262.681,293.377,291.735,264.837,0.252669,0.415544,245.557,262.779
2013-08-20 13:00,0.450981,299.108,293.843,264.645,296.182,293.35,265.301,0.196514,0.327658,245.96,262.623
2013-08-20 14:00,0.381964,302.085,297.204,266.557,299.531,296.389,266.222,0.151639,0.26401,245.759,263.244
2013-08-20 15:00,0.328555,303.998,298.739,267.348,301.11,297.559,266.222,0.127348,0.227027,245.859,263.09
2013-08-20 16:00,0.318368,301.913,292.929,263.825,295.043,292.006,264.022,0.180939,0.262706,245.859,262.935
2013-08-20 17:00,0.343783,298.63,286.217,260.228,288.358,286.202,262.61,0.255357,0.324983,245.91,262.466
2013-08-20 18:00,0.446484,300.134,283.841,259.024,286.172,283.484,261.062,0.318921,0.422928,246.258,262.466
2013-08-20 19:00,0.392788,300.408,290.965,262.89,293.377,290.101,263.436,0.253587,0.351932,246.456,263.09
2013-08-20 20:00,0.37728,296.114,290.86,262.576,293.377,290.648,264.488,0.322991,0.397815,246.652,263.399
2013-08-20 21:00,0.344286,289.113,289.272,261.838,291.423,290.101,264.837,0.445834,0.470252,246.944,263.629
2013-08-20 22:00,-0.00679009,283.924,284.982,259.134,287.27,285.635,262.728,-0.0,-0.0,247.138,263.399
2013-08-20 23:00,-0.100594,284.888,286.217,259.574,288.358,287.469,263.787,-0.0300609,-0.0716862,247.474,264.01
2013-08-21 00:00,-0.0960839,283.594,285.546,259.244,287.951,287.188,263.787,-0.0265646,-0.05543,247.712,264.314
2013-08-21 01:00,-0.0,283.093,285.321,259.244,287.543,287.188,263.787,-0.0,-0.0,247.712,264.54
2013-08-21 02:00,-0.0,282.923,284.642,259.024,286.997,286.626,263.905,-0.0,-0.0,247.712,264.69
2013-08-21 03:00,-0.0,281.705,283.611,258.469,286.033,285.777,263.083,-0.0,-0.0,248.137,264.69
2013-08-21 04:00,0.00123678,281.883,283.726,258.58,286.033,285.777,263.436,-0.0,-0.0,247.949,264.839
2013-08-21 05:00,0.00131523,281.165,283.38,258.134,285.479,285.777,263.67,-0.0,-0.0,248.184,264.914
2013-08-21 06:00,-0.0,280.799,283.032,257.798,285.061,285.493,263.436,-0.0,0.0015197,247.996,264.989
2013-08-21 07:00,-0.0,280.613,282.448,257.685,284.781,285.208,264.022,-0.0,-0.0,247.665,265.063
2013-08-21 08:00,-0.0,279.667,281.978,257.233,283.797,284.205,263.67,-0.0,-0.0,247.902,265.137
2013-08-21 09:00,0.00593894,279.278,281.624,257.233,283.656,283.917,263.436,-0.0,-0.0,247.902,264.989
2013-08-21 10:00,0.804063,280.239,281.742,257.572,283.656,284.349,262.847,0.710399,0.882337,248.09,264.839
2013-08-21 11:00,0.632899,288.705,287.212,261.091,289.434,288.861,264.372,0.316128,0.51024,247.996,264.914
2013-08-21 12:00,0.569373,296.84,292.827,264.031,295.424,293.75,266.108,0.252933,0.42789,247.855,264.839
2013-08-21 13:00,0.440914,300.317,296.033,266.159,298.918,296.78,267.137,0.185866,0.337162,248.371,265.286
2013-08-21 14:00,0.372261,303.098,298.834,267.544,301.592,299.232,268.384,0.148247,0.270717,248.277,265.434
2013-08-21 15:00,0.330078,304.398,300.246,268.904,303.144,300.379,268.271,0.123117,0.23341,248.043,265.36
2013-08-21 16:00,0.298302,304.478,300.712,268.904,303.499,300.759,268.834,0.109121,0.204668,248.417,265.655
2013-08-21 17:00,0.28178,303.998,300.433,269.0,303.381,300.759,268.158,0.102815,0.194888,248.417,265.875
2013-08-21 18:00,0.276398,302.171,299.59,268.13,302.191,299.87,268.045,0.106939,0.197731,248.557,265.801
2013-08-21 19:00,0.278711,299.108,297.494,266.657,300.384,298.076,267.478,0.130412,0.217202,248.741,265.801
2013-08-21 20:00,0.304366,295.476,294.846,265.355,297.683,296.258,267.023,0.194162,0.273601,248.603,266.021
2013-08-21 21:00,0.377732,289.113,289.699,262.049,292.34,291.6,265.647,0.437656,0.501767,248.603,266.239
2013-08-21 22:00,-0.0,285.357,287.212,260.337,289.568,289.276,265.185,-0.0,-0.0,248.649,266.166
2013-08-21 23:00,-0.142155,284.249,286.217,259.683,288.358,288.584,265.301,-0.0376134,-0.0777369,248.417,266.094
2013-08-22 00:00,-0.117689,283.261,285.208,259.244,287.679,287.888,264.721,-0.031555,-0.0613873,248.787,266.021
2013-08-22 01:00,-0.0,282.923,285.321,259.464,287.543,287.609,264.837,-0.0,-0.0,248.879,265.728
2013-08-22 02:00,-0.0,282.408,284.755,259.244,286.86,286.907,264.372,-0.0,-0.0,248.557,265.581
2013-08-22 03:00,-0.0,282.234,284.414,259.024,286.722,286.767,264.138,-0.0,-0.0,248.137,265.36
2013-08-22 04:00,0.00123743,281.705,283.956,258.58,286.31,286.343,264.372,-0.0,-0.0,247.855,265.212
2013-08-22 05:00,0.00131647,281.165,283.495,258.58,285.618,285.777,264.138,-0.0,-0.0,247.996,265.36
2013-08-22 06:00,0.00150773,277.869,280.429,257.006,282.946,282.028,261.062,-0.0,-0.0,248.043,264.389
2013-08-22 07:00,-0.0,272.322,273.732,254.099,277.377,276.015,258.147,-0.0,-0.0,247.474,263.09
2013-08-22 08:00,-0.0,268.986,270.885,252.29,274.778,273.99,257.777,-0.0,-0.0,247.331,262.545
2013-08-22 09:00,-0.00601803,268.073,270.468,251.799,274.312,273.832,257.777,-0.0,-0.0,246.993,262.388
2013-08-22 10:00,1.05954,272.836,269.626,251.18,273.529,273.2,257.653,1.00585,1.1345,246.406,261.675
2013-08-22 11:00,0.912663,290.301,271.984,252.656,275.703,273.99,257.653,0.609064,0.703523,245.96,261.993
2013-08-22 12:00,0.646163,297.248,287.541,261.412,290.632,287.609,262.492,0.336845,0.491174,245.96,263.629
2013-08-22 13:00,0.47571,301.913,297.687,267.74,300.263,297.3,267.365,0.199022,0.335238,245.91,264.389
2013-08-22 14:00,0.395605,304.95,300.246,269.384,303.025,299.743,267.705,0.155516,0.272598,245.709,264.162
2013-08-22 15:00,0.348958,306.176,301.175,269.765,303.499,299.998,267.705,0.132406,0.232426,245.405,264.464
2013-08-22 16:00,0.311567,306.326,302.185,270.239,304.793,301.642,268.609,0.113582,0.203872,245.151,264.765
2013-08-22 17:00,0.29624,305.106,301.36,269.575,303.618,300.379,267.932,0.108998,0.191031,245.608,264.615
2013-08-22 18:00,0.289953,303.836,300.526,269.0,302.788,299.616,268.271,0.114259,0.193309,245.709,264.464
2013-08-22 19:00,0.299494,301.214,298.644,268.033,301.11,298.72,267.819,0.138129,0.213862,246.406,264.989
2013-08-22 20:00,0.327637,297.649,296.229,266.458,298.672,296.78,267.137,0.210691,0.276339,246.208,264.839
2013-08-22 21:00,0.507734,290.429,290.651,263.099,292.989,291.871,265.647,0.479501,0.532303,246.009,264.69
2013-08-22 22:00,-0.0,286.421,288.195,260.984,290.234,289.826,265.301,-0.0,-0.0,246.109,264.389
2013-08-22 23:00,-0.136364,285.512,286.992,260.553,289.3,289.137,264.721,-0.0351398,-0.0778123,245.405,264.086
2013-08-23 00:00,-0.10399,284.41,286.105,260.119,288.493,288.306,264.488,-0.0299031,-0.0594249,245.96,264.162
2013-08-23 01:00,-0.0,283.594,285.658,259.683,287.679,287.888,264.372,-0.0,-0.0,245.608,263.934
2013-08-23 02:00,-0.00133009,283.093,285.095,259.574,287.27,287.469,263.787,-0.0,-0.0,246.109,264.162
2013-08-23 03:00,-0.0,282.581,284.642,259.464,286.86,287.048,264.138,-0.0,-0.0,246.159,263.934
2013-08-23 04:00,0.00123813,281.883,284.3,259.024,286.447,286.626,263.905,-0.0,-0.0,245.759,263.934
2013-08-23 05:00,-0.00131778,281.346,283.38,258.913,285.757,285.635,263.318,-0.0,-0.0,246.208,263.476
2013-08-23 06:00,-0.0,281.526,283.726,258.802,285.895,286.06,263.436,-0.0,-0.0,245.709,263.706
2013-08-23 07:00,-0.0,280.982,283.38,258.691,285.618,285.777,263.67,-0.0,-0.0,244.739,263.167
2013-08-23 08:00,-0.0,276.811,279.091,256.434,281.655,280.554,260.701,-0.0,-0.0,244.322,261.834
2013-08-23 09:00,-0.0,281.526,283.726,258.58,286.033,286.485,263.553,-0.0,-0.0,241.817,262.857
2013-08-23 10:00,0.711458,282.408,284.185,258.802,286.722,286.907,263.905,0.65259,0.748187,239.653,263.09
2013-08-23 11:00,0.65255,290.813,289.486,262.155,292.079,291.6,265.647,0.323239,0.510897,236.475,262.151
2013-08-23 12:00,0.575882,298.045,294.346,264.95,297.06,295.471,266.108,0.25551,0.42652,235.525,261.275
2013-08-23 13:00,0.411778,299.765,293.742,264.849,295.424,293.216,264.721,0.18689,0.307104,232.709,257.333
2013-08-23 14:00,0.385906,305.874,300.805,269.384,304.207,301.264,268.497,0.153452,0.264988,234.041,260.299
2013-08-23 15:00,0.206186,302.596,299.872,268.711,302.669,299.998,268.045,0.096445,0.15721,232.328,259.051
2013-08-23 16:00,0.313233,307.928,302.55,270.334,305.726,302.269,268.158,0.116792,0.205983,233.75,259.638
2013-08-23 17:00,0.288963,306.845,302.094,270.05,305.261,302.018,268.609,0.108594,0.193443,233.677,259.22
2013-08-23 18:00,0.208937,301.74,298.453,267.642,300.99,298.205,267.251,0.103067,0.161411,232.935,257.942
2013-08-23 19:00,0.618412,267.123,229.673,228.749,230.012,228.056,224.834,0.718678,0.861811,222.585,226.187
2013-08-23 20:00,0.305303,298.436,296.913,266.756,299.776,297.559,267.137,0.202608,0.2749,236.004,260.463
2013-08-23 21:00,0.249517,291.065,291.487,263.411,294.149,292.948,265.762,0.357526,0.368164,235.455,259.554
2013-08-23 22:00,-0.0,287.444,288.628,261.519,291.029,290.375,264.605,-0.0,-0.0,234.827,258.628
2013-08-23 23:00,-0.130559,286.421,287.651,261.091,290.367,290.101,264.953,-0.040198,-0.0838775,233.308,258.543
2013-08-24 00:00,-0.105984,285.357,286.661,260.011,289.434,289.137,264.605,-0.0315739,-0.0614242,232.86,257.769
2013-08-24 01:00,-0.00307261,284.73,286.55,260.337,289.032,288.584,264.605,-0.0,-0.0,233.085,257.682
2013-08-24 02:00,-0.0,283.924,285.882,259.793,288.358,288.306,263.553,-0.0,-0.0,232.633,256.982
2013-08-24 03:00,-0.0,283.594,285.208,259.902,287.951,288.027,264.022,-0.0,-0.0,232.02,256.894
2013-08-24 04:00,-0.0,283.924,285.546,259.793,288.222,288.167,264.022,-0.0,-0.0,232.784,257.246
2013-08-24 05:00,-0.0,283.093,284.869,259.574,287.407,287.469,264.022,-0.0,-0.0,232.86,257.158
2013-08-24 06:00,-0.0,282.753,284.185,258.802,286.86,286.626,263.553,-0.0,-0.0,232.405,256.628
2013-08-24 07:00,0.00191364,277.24,275.306,253.86,275.703,273.99,255.532,-0.0,-0.0,230.266,250.95
2013-08-24 08:00,-0.0,270.151,265.545,248.252,266.847,264.279,248.499,-0.0,-0.0,230.101,248.775
2013-08-24 09:00,-0.00618843,274.551,275.306,254.336,278.128,276.784,258.515,-0.0,-0.0,233.085,255.639
2013-08-24 10:00,1.64983,265.446,252.853,241.354,250.83,249.348,239.47,1.30378,1.85992,227.147,237.748
2013-08-24 11:00,0.618002,286.569,272.527,252.656,274.467,271.765,254.646,0.445329,0.548687,230.674,250.95
2013-08-24 12:00,0.42426,286.421,274.392,252.656,274.0,270.96,251.159,0.28315,0.40564,230.018,247.59
2013-08-24 13:00,0.437079,301.478,294.646,265.658,296.559,292.679,264.138,0.196748,0.318375,232.784,255.821
2013-08-24 14:00,0.391839,302.511,293.031,264.236,294.149,289.276,260.822,0.172467,0.28413,231.787,254.536
2013-08-24 15:00,0.34172,306.918,298.644,268.324,300.748,296.127,264.953,0.13251,0.229025,232.633,256.805
2013-08-24 16:00,0.367845,301.913,287.869,261.731,290.367,286.485,261.779,0.241165,0.333792,233.308,255.911
2013-08-24 17:00,0.438777,294.043,271.162,251.922,274.312,272.246,255.784,0.434082,0.516023,232.784,253.88
2013-08-24 18:00,0.667954,294.38,263.867,248.252,267.354,267.506,253.881,0.697366,0.787643,232.481,252.537
2013-08-24 19:00,0.572484,301.478,281.029,257.459,283.23,279.959,258.27,0.437681,0.577957,232.328,253.974
2013-08-24 20:00,1.11645,294.933,264.175,248.252,267.69,267.506,253.753,0.987005,1.19343,232.633,252.342
2013-08-24 21:00,1.05702,270.434,262.458,247.465,266.167,265.99,253.111,0.815071,1.1243,233.159,251.85
2013-08-24 22:00,-0.00689834,261.251,262.458,247.332,265.826,265.82,253.24,-0.0,-0.0,233.159,251.949
2013-08-24 23:00,-0.157412,260.827,262.458,247.2,266.338,265.99,252.982,-0.045265,-0.0929512,233.159,251.949
2013-08-25 00:00,-0.117795,261.251,262.931,247.067,266.167,266.16,252.853,-0.034908,-0.0673888,233.75,252.439
2013-08-25 01:00,-0.00153653,261.666,262.774,247.332,266.508,266.16,252.982,-0.0,-0.0,232.784,252.146
2013-08-25 02:00,-0.0,262.475,264.021,247.991,267.354,267.339,254.392,-0.0,-0.0,232.935,252.731
2013-08-25 03:00,0.00124267,262.869,265.092,248.382,268.191,268.007,254.392,-0.0,-0.0,233.085,253.405
2013-08-25 04:00,-0.0,264.739,265.092,248.771,268.358,267.506,253.753,-0.0,-0.0,233.382,253.021
2013-08-25 05:00,-0.0,276.811,275.565,255.043,277.978,274.929,257.282,-0.0,-0.0,233.823,253.785
2013-08-25 06:00,-0.0,269.865,269.626,251.922,272.264,269.821,254.9,-0.0,-0.0,233.968,253.117
2013-08-25 07:00,-0.0,264.377,264.788,248.642,267.69,266.329,252.982,-0.0,0.00193786,232.86,252.146
2013-08-25 08:00,-0.00285518,262.074,262.774,247.859,266.167,265.82,252.853,-0.0,-0.0,233.085,251.85
2013-08-25 09:00,-0.00628017,259.505,261.822,247.465,265.826,265.48,252.853,-0.0,-0.0,233.085,251.949
2013-08-25 10:00,1.02443,269.865,262.616,247.2,265.997,265.99,252.723,0.889067,1.03422,233.603,252.537
2013-08-25 11:00,0.822232,290.813,267.326,250.177,270.332,268.67,253.625,0.57893,0.690287,233.308,253.117
2013-08-25 12:00,0.591911,295.151,290.017,262.89,292.079,289.689,263.67,0.270506,0.417548,232.86,255.73
2013-08-25 13:00,0.462071,299.013,293.235,265.052,295.93,292.948,265.416,0.198722,0.32395,232.86,255.911
2013-08-25 14:00,0.385325,301.653,295.639,266.358,297.931,294.282,265.532,0.158541,0.260901,232.86,255.911
2013-08-25 15:00,0.337426,303.755,297.01,267.446,299.041,295.208,265.647,0.133164,0.220846,232.86,256.091
2013-08-25 16:00,0.306547,304.239,297.59,267.74,299.654,295.208,265.416,0.117101,0.195763,232.633,255.73
2013-08-25 17:00,0.285313,303.917,297.879,267.74,300.02,295.734,265.647,0.110397,0.184284,233.382,256.181
2013-08-25 18:00,0.293985,302.68,296.913,266.855,298.672,294.547,265.416,0.122168,0.200292,233.456,256.45
2013-08-25 19:00,0.293546,300.225,296.033,266.358,297.931,294.547,265.301,0.152794,0.213762,233.896,257.07
2013-08-25 20:00,0.330804,296.531,293.133,264.543,295.424,292.141,264.953,0.24897,0.288612,233.456,257.246
2013-08-25 21:00,0.464316,291.44,290.017,262.786,292.34,289.964,263.787,0.518938,0.562505,232.633,256.271
2013-08-25 22:00,-0.0,288.568,288.628,262.049,290.764,288.722,263.318,-0.0,-0.0,232.709,256.181
2013-08-25 23:00,-0.142693,287.01,287.322,261.091,289.835,288.027,263.553,-0.0503407,-0.105041,232.328,256.271
2013-08-26 00:00,-0.117832,285.512,285.882,260.228,288.222,287.048,262.61,-0.0382443,-0.0773227,232.557,256.001
2013-08-26 01:00,-0.00153678,282.753,283.38,258.802,285.895,284.205,261.54,-0.0,-0.0,232.097,255.639
2013-08-26 02:00,-0.0,282.753,283.38,258.691,285.618,284.492,261.66,-0.0,-0.0,232.709,255.821
2013-08-26 03:00,-0.0,278.075,275.823,254.099,277.075,275.085,255.532,-0.0,-0.0,232.935,253.69
2013-08-26 04:00,-0.00124056,280.982,281.978,257.91,284.501,282.904,260.822,-0.0,-0.0,234.257,256.271
2013-08-26 05:00,-0.0,277.026,274.916,253.741,276.163,274.773,256.535,-0.0,-0.0,231.473,251.051
2013-08-26 06:00,-0.00151854,279.667,280.789,257.459,282.803,281.735,260.701,-0.0,-0.0,233.234,255.639
2013-08-26 07:00,-0.0,278.883,279.213,256.434,281.076,280.108,259.005,-0.0,-0.0,233.234,255.457
2013-08-26 08:00,-0.0,275.932,278.845,256.549,282.087,281.882,260.822,-0.0,0.00289936,234.041,256.539
2013-08-26 09:00,0.0063766,276.376,279.213,256.32,282.231,282.175,261.421,-0.0,-0.0,234.041,256.539
2013-08-26 10:00,0.694308,274.551,275.565,254.69,279.318,279.211,260.219,0.790583,0.773456,234.756,256.539
2013-08-26 11:00,0.705008,285.97,275.823,254.572,279.318,279.061,259.614,0.622253,0.634102,234.472,255.911
2013-08-26 12:00,0.715187,294.933,276.08,254.808,279.318,279.361,259.977,0.697108,0.69473,234.827,255.639
2013-08-26 13:00,0.574265,294.491,278.474,256.205,281.655,281.146,260.701,0.453814,0.498773,235.455,255.821
2013-08-26 14:00,0.460491,299.95,278.474,256.892,281.366,279.061,259.492,0.305137,0.379378,235.178,255.821
2013-08-26 15:00,0.377303,297.549,279.823,257.233,282.087,279.361,259.856,0.247131,0.301853,235.108,255.366
2013-08-26 16:00,0.315317,296.635,285.433,260.011,287.27,283.484,260.34,0.162352,0.240899,235.799,255.548
2013-08-26 17:00,0.294977,297.349,288.951,262.049,289.968,286.06,261.421,0.138466,0.208303,236.341,255.275
2013-08-26 18:00,0.619999,298.63,266.293,249.158,269.35,269.329,254.392,0.505172,0.580569,236.94,254.443
2013-08-26 19:00,0.814927,296.635,265.545,248.642,268.69,268.505,254.392,0.698115,0.7961,236.675,254.349
2013-08-26 20:00,1.07286,293.24,265.846,248.9,268.855,268.339,254.009,0.911826,1.07901,237.203,254.443
2013-08-26 21:00,1.09705,270.434,264.175,247.597,267.354,267.004,253.368,0.835981,1.08908,236.071,253.213
2013-08-26 22:00,-0.0,265.446,264.788,247.991,267.522,266.498,252.594,-0.0,-0.0,236.742,253.117
2013-08-27 00:00,-0.106082,276.376,275.823,254.336,277.978,276.784,257.53,-0.036593,-0.0793301,236.609,254.256
2013-08-27 01:00,-0.0,278.883,278.968,255.974,280.931,279.511,258.76,-0.0,-0.0,236.542,254.999
2013-08-27 02:00,-0.0,275.707,275.951,254.336,278.427,276.631,257.406,-0.0,-0.0,237.657,255.183
2013-08-27 03:00,0.00124369,266.797,267.326,249.924,270.169,269.0,254.137,-0.0,-0.0,237.398,253.88
2013-08-27 04:00,-0.0,269.576,273.199,253.621,276.923,276.784,257.9,-0.0,-0.0,238.231,255.457
2013-08-27 05:00,-0.0,270.434,273.199,253.261,275.857,276.015,258.147,-0.0,-0.0,237.913,255.275
2013-08-27 06:00,-0.0,269.283,271.711,252.777,274.467,274.304,256.66,-0.0,-0.0,237.849,255.091
2013-08-27 07:00,0.00193189,268.686,269.908,251.429,272.104,271.121,254.646,-0.0,-0.0,237.268,254.722
2013-08-27 08:00,-0.0,268.686,270.885,252.168,273.686,273.832,257.282,-0.0,-0.0,238.857,256.36
2013-08-27 09:00,-0.0,269.576,271.574,252.29,274.623,275.085,258.147,-0.0,-0.0,239.043,256.716
2013-08-27 10:00,0.696121,272.322,271.574,252.412,274.467,274.617,258.023,0.855588,0.816127,238.919,256.894
2013-08-27 11:00,0.77203,289.381,271.848,252.656,274.933,275.085,258.76,0.739404,0.775151,239.471,257.158
2013-08-27 12:00,0.67069,291.44,271.711,252.29,274.467,274.929,258.515,0.691772,0.733732,239.166,256.894
2013-08-27 13:00,0.614459,290.171,271.984,252.534,274.778,274.929,258.515,0.633829,0.67889,238.42,256.894
2013-08-27 14:00,0.435304,293.816,278.598,256.434,281.366,280.108,259.249,0.308873,0.402327,237.657,257.333
2013-08-27 15:00,0.328939,296.219,291.902,264.133,294.916,293.082,265.301,0.127251,0.243337,236.542,256.628
2013-08-27 16:00,0.301383,296.635,292.417,264.849,295.55,293.883,265.301,0.110219,0.215699,236.742,256.001
2013-08-27 17:00,0.272595,295.902,292.725,264.747,295.803,294.415,264.953,0.100575,0.199866,236.542,255.457
2013-08-27 18:00,0.273977,294.043,291.798,264.339,295.043,293.483,264.953,0.1031,0.202476,236.139,255.821
2013-08-27 19:00,0.276977,291.065,289.911,262.576,292.73,291.6,264.255,0.11928,0.221772,236.139,256.36
2013-08-27 20:00,0.29118,287.01,287.322,260.984,289.701,288.999,263.2,0.164361,0.265384,236.475,256.539
2013-08-27 21:00,0.324161,282.059,283.148,258.469,285.479,284.779,261.898,0.365956,0.436347,236.475,256.628
2013-08-27 22:00,-0.00697627,277.24,278.968,256.205,281.076,280.998,260.701,-0.0,-0.0,236.408,256.539
2013-08-27 23:00,-0.151885,276.594,278.226,255.974,280.201,280.257,260.219,-0.0579965,-0.117258,236.341,256.45
2013-08-28 00:00,-0.135592,276.376,277.224,255.393,278.873,279.211,259.856,-0.0449239,-0.0872911,236.609,256.805
2013-08-28 01:00,-0.00153736,274.551,275.951,254.454,277.978,278.156,259.856,-0.0,-0.00155206,236.139,256.716
2013-08-28 02:00,-0.0,275.251,276.845,254.926,278.725,279.061,259.735,-0.0,-0.0,236.542,257.942
2013-08-28 03:00,-0.0,274.551,276.336,254.454,277.828,278.156,260.098,-0.0,0.00125616,236.675,258.628
2013-08-28 04:00,-0.0,273.088,274.916,253.741,276.468,276.784,259.856,-0.0,-0.0,236.808,258.543
2013-08-28 05:00,-0.0,272.58,274.129,253.621,275.703,275.861,259.127,-0.0,-0.0,237.657,259.471
2013-08-28 06:00,0.00152464,271.798,273.333,252.899,274.778,275.085,258.392,-0.0,-0.0,236.874,258.882
2013-08-28 07:00,-0.00193841,271.261,272.662,252.29,274.156,274.46,258.27,-0.0,-0.0,237.072,259.721
2013-08-28 08:00,-0.00290719,270.989,271.984,252.29,273.215,273.517,257.53,-0.0,-0.0,237.333,260.135
2013-08-28 09:00,-0.0,270.713,271.984,252.045,273.215,273.517,258.023,-0.0,-0.0,238.857,261.515
2013-08-28 10:00,0.697123,272.58,267.618,252.777,273.529,273.675,257.406,0.590253,0.853075,239.227,261.515
2013-08-28 11:00,0.645646,282.581,280.308,256.664,282.087,282.028,261.66,0.324474,0.584534,240.607,263.244
2013-08-28 12:00,0.600207,290.558,286.55,260.228,288.628,288.445,263.905,0.266392,0.491109,240.665,263.934
2013-08-28 13:00,0.473959,294.602,291.174,262.786,293.377,292.814,265.301,0.198361,0.369329,241.073,264.464
2013-08-28 14:00,0.395095,297.549,294.945,265.052,297.558,297.04,267.592,0.156284,0.294149,240.665,265.434
2013-08-28 15:00,0.343101,299.297,297.107,266.557,299.898,299.232,268.609,0.129113,0.249451,240.43,265.507
2013-08-28 16:00,0.312928,299.95,298.453,267.151,301.592,300.885,268.946,0.110995,0.219151,240.43,266.021
2013-08-28 17:00,0.292866,299.013,298.549,267.348,301.472,300.885,269.395,0.1015,0.205281,240.312,266.021
2013-08-28 18:00,0.283718,297.549,297.107,266.458,299.776,299.488,268.609,0.102737,0.201762,240.607,266.094
2013-08-28 19:00,0.283076,294.602,294.746,265.355,297.558,297.3,267.819,0.116819,0.21854,240.782,266.094
2013-08-28 20:00,0.29382,290.171,291.591,263.307,293.892,293.617,266.337,0.163579,0.260058,239.532,265.655
2013-08-28 21:00,0.301685,283.093,285.433,259.683,287.134,287.329,263.905,0.375642,0.412065,239.41,265.434
2013-08-28 22:00,-0.00700172,279.081,281.267,257.346,282.66,283.049,262.61,-0.0,-0.0,239.288,264.989
2013-08-28 23:00,-0.208656,278.075,280.066,256.778,281.51,282.175,262.017,-0.0681435,-0.12639,239.41,264.989
2013-08-29 00:00,-0.125808,277.661,278.721,256.089,280.201,280.406,261.66,-0.04161,-0.0833509,238.919,264.914
2013-08-29 01:00,-0.0015377,275.932,277.852,255.742,279.022,279.661,261.421,-0.0,-0.0,238.483,264.54
2013-08-29 02:00,-0.0,274.787,276.971,255.043,277.978,278.76,260.219,-0.0,0.00134464,238.42,264.54
2013-08-29 03:00,-0.0,274.787,276.591,254.808,277.678,278.307,260.942,-0.0,-0.0,237.072,263.934
2013-08-29 04:00,-0.0,274.551,276.208,254.926,277.377,278.004,260.581,-0.0,-0.0,236.808,263.706
2013-08-29 05:00,0.00132723,274.314,275.694,254.808,277.075,277.853,260.34,-0.0,-0.0,237.006,263.782
2013-08-29 06:00,-0.0,274.551,275.823,254.572,277.075,277.548,260.701,-0.0,-0.0,236.475,263.706
2013-08-29 07:00,-0.0,273.586,275.176,254.336,276.468,276.938,259.977,-0.0,-0.0,235.936,263.244
2013-08-29 08:00,-0.00292577,273.338,274.916,254.217,276.163,276.938,260.34,-0.0,-0.0,234.827,262.935
2013-08-29 09:00,-0.0,272.836,274.524,253.741,275.703,276.323,260.34,-0.0,-0.0,235.038,263.167
2013-08-29 10:00,0.757248,275.48,275.951,254.454,277.226,277.853,260.461,0.556797,0.744368,234.615,262.779
2013-08-29 11:00,0.690975,286.121,283.726,258.691,285.479,285.493,262.965,0.334313,0.581317,235.108,263.552
2013-08-29 12:00,0.573993,292.771,288.52,261.412,290.632,290.101,263.787,0.262317,0.460675,234.329,262.623
2013-08-29 13:00,0.467647,297.549,294.346,265.153,297.06,296.519,267.251,0.19722,0.361776,234.756,263.934
2013-08-29 14:00,0.391699,300.408,297.975,267.544,300.869,300.125,269.171,0.156827,0.289686,234.615,264.086
2013-08-29 15:00,0.343085,303.015,300.805,269.096,303.972,302.644,270.397,0.129768,0.24132,233.968,264.01
2013-08-29 16:00,0.30473,303.674,301.728,269.479,305.261,304.01,270.73,0.111767,0.212656,233.677,263.934
2013-08-29 17:00,0.285781,303.428,301.911,269.86,305.493,304.381,270.619,0.104982,0.199974,233.085,263.629
2013-08-29 18:00,0.280952,301.913,300.99,268.807,304.442,303.391,270.508,0.108402,0.20465,232.784,263.244
2013-08-29 19:00,0.289141,299.297,299.118,267.642,302.191,301.39,269.841,0.130434,0.220125,232.784,262.779
2013-08-29 20:00,0.312479,294.933,295.442,265.758,298.426,297.818,268.271,0.193344,0.270977,232.709,262.151
2013-08-29 21:00,0.384891,288.012,289.486,262.155,291.817,291.6,265.532,0.429577,0.476881,232.709,261.515
2013-08-29 22:00,-0.0,283.594,285.882,260.119,288.087,288.306,264.721,-0.0,-0.0,233.159,261.033
2013-08-29 23:00,-0.220775,282.581,284.755,259.354,286.722,286.907,264.138,-0.07073,-0.132526,233.085,260.381
2013-08-30 00:00,-0.121918,281.705,284.071,259.024,285.895,286.626,264.138,-0.0416242,-0.0853646,233.53,260.052
2013-08-30 01:00,-0.0,280.982,283.032,258.246,285.201,285.493,263.787,-0.0,-0.0,233.896,259.721
2013-08-30 02:00,-0.0,279.667,282.096,258.022,284.079,284.492,262.847,-0.0,-0.0,234.113,258.882
2013-08-30 03:00,-0.0,279.278,281.386,257.233,283.372,283.773,262.847,-0.0,-0.0,233.603,257.769
2013-08-30 04:00,0.00124457,278.684,280.669,257.346,282.66,283.049,263.083,-0.0,-0.0,233.308,257.421
2013-08-30 05:00,-0.0,278.279,280.308,256.549,282.374,282.758,262.373,-0.0,-0.0,232.328,256.628
2013-08-30 06:00,-0.0,278.075,279.945,256.664,281.799,282.321,262.136,-0.0,-0.0,231.552,256.45
2013-08-30 07:00,-0.0,278.075,279.336,256.434,281.51,281.882,261.779,-0.0,-0.0,231.552,255.821
2013-08-30 08:00,-0.0,277.451,279.336,256.205,281.221,281.735,261.421,-0.0,-0.0,231.473,255.275
2013-08-30 09:00,-0.0,277.451,279.458,256.32,281.366,281.882,261.779,-0.0,-0.0,231.156,255.183
2013-08-30 10:00,0.640737,279.473,280.066,256.778,282.087,282.467,262.017,0.510599,0.589787,231.709,256.181
2013-08-30 11:00,0.515776,282.923,277.852,254.454,279.466,278.004,257.406,0.309477,0.455106,230.266,252.342
2013-08-30 12:00,0.57198,296.943,292.827,264.031,296.056,294.415,265.993,0.248201,0.411431,230.755,255.457
2013-08-30 13:00,0.448925,300.858,296.131,265.959,299.654,297.3,266.337,0.187035,0.316532,230.184,255.091
2013-08-30 14:00,0.3566,296.531,284.3,258.134,284.361,279.661,253.625,0.181672,0.280685,226.963,247.808
2013-08-30 15:00,0.310864,291.563,273.865,252.412,272.899,268.67,246.869,0.190885,0.275666,226.122,241.98
2013-08-30 16:00,0.292399,286.864,266.145,247.859,264.965,260.584,242.814,0.204929,0.283895,225.352,238.441
2013-08-30 17:00,0.283271,306.475,301.083,268.711,304.089,300.506,267.251,0.116095,0.196231,229.601,253.5
2013-08-30 18:00,0.26758,301.302,294.346,264.133,296.559,292.679,262.373,0.147039,0.21289,228.312,250.135
2013-08-30 19:00,0.366015,293.93,281.267,256.434,281.655,277.091,252.205,0.275915,0.35521,227.691,245.575
2013-08-30 20:00,0.478533,289.647,277.727,253.741,277.678,274.46,252.205,0.418679,0.491159,227.601,244.294
2013-08-30 21:00,0.793713,287.155,280.789,256.205,281.51,279.361,256.285,0.613598,0.783881,229.093,248.241
2013-08-30 22:00,-0.007052,283.093,280.429,255.974,281.655,280.257,257.53,-0.0,-0.0,228.662,249.093
2013-08-30 23:00,-0.161248,286.121,286.439,259.683,288.763,287.329,262.373,-0.0657361,-0.132644,229.685,252.731
2013-08-31 00:00,-0.155403,284.249,284.414,258.691,286.447,285.208,261.54,-0.0499669,-0.0913529,229.093,251.949
2013-08-31 01:00,-0.0,276.155,269.626,250.303,268.191,264.451,247.823,-0.0,-0.0,226.027,243.093
2013-08-31 02:00,0.00133282,279.278,276.845,253.98,278.278,276.169,254.646,-0.0,-0.0,228.4,249.513
2013-08-31 03:00,-0.0,274.551,270.468,250.681,270.819,269.0,252.335,-0.0,-0.0,228.224,245.575
2013-08-31 04:00,-0.0,278.883,277.727,254.926,279.022,277.243,256.66,-0.0,-0.0,228.748,250.032
2013-08-31 05:00,-0.0,277.661,275.306,253.02,276.315,274.46,255.28,-0.0,-0.0,228.921,248.775
2013-08-31 06:00,0.0015347,269.576,269.201,249.542,271.464,269.984,253.368,-0.0,-0.0,228.835,249.513
2013-08-31 07:00,-0.0,266.131,266.442,248.382,269.35,268.67,252.982,-0.0,0.00197806,228.224,249.513
2013-08-31 08:00,-0.0,259.505,249.185,238.195,247.878,245.399,235.227,-0.0,-0.0,222.799,234.694
2013-08-31 09:00,-0.0,274.787,269.485,249.414,269.842,267.673,249.438,-0.0,-0.0,227.601,244.764
2013-08-31 10:00,0.32153,280.982,279.58,255.277,281.366,279.511,257.653,0.37811,0.396738,228.136,249.198
2013-08-31 11:00,0.421084,271.531,255.941,241.5,254.263,251.552,240.06,0.417651,0.510131,226.871,238.441
2013-08-31 12:00,0.333467,263.636,244.38,236.146,242.515,241.027,233.819,0.436534,0.513338,226.216,233.928
2013-08-31 13:00,0.29048,265.095,245.676,235.499,245.914,242.585,233.819,0.415414,0.495319,226.592,235.444
2013-08-31 14:00,0.308295,287.155,271.299,249.542,270.332,266.329,247.687,0.22538,0.311243,228.224,243.698
2013-08-31 15:00,0.291458,294.823,280.066,255.626,277.678,272.724,249.572,0.174751,0.244969,226.592,242.848
2013-08-31 16:00,0.296889,297.045,281.86,256.664,281.655,276.477,252.075,0.184106,0.264548,227.238,243.698
2013-08-31 17:00,0.30481,278.482,256.294,241.5,254.263,250.557,237.977,0.305122,0.388065,226.499,237.748
2013-08-31 18:00,0.300224,291.809,277.224,252.899,276.468,271.926,250.236,0.239247,0.30666,228.835,243.937
2013-08-31 19:00,0.291763,270.151,256.644,242.369,256.213,254.281,243.525,0.394459,0.448954,228.048,240.576
2013-08-31 20:00,0.69869,268.073,248.784,238.195,249.998,248.121,238.876,0.867202,1.03,228.662,240.706
2013-08-31 21:00,1.02146,251.944,233.938,230.565,234.633,234.216,230.276,1.02343,1.35778,226.499,230.524
2013-08-31 22:00,-0.0,267.444,262.3,245.177,263.92,260.942,247.142,-0.0,-0.0,230.348,244.056
2013-08-31 23:00,-0.155414,252.585,245.676,237.258,245.914,243.679,235.537,-0.0657943,-0.132761,226.778,234.694
