# timestamp,IR_016,IR_039,IR_087,IR_097,IR_108,IR_120,IR_134,VIS006,VIS008,WV_062,WV_073
2016-10-01 00:00,0.0,289.91,288.52,259.683,290.897,288.167,261.062,0.0,0.0,236.94,254.349
2016-10-01 01:00,0.0,284.57,284.185,257.006,286.447,284.205,259.856,0.0,0.0,236.742,254.068
2016-10-01 02:00,0.0,273.586,269.485,248.9,270.332,268.339,251.422,0.0,0.0,236.742,248.987
2016-10-01 03:00,-0.00127476,289.779,287.432,258.913,289.568,286.626,0.0,0.0,0.0,236.742,253.021
2016-10-01 04:00,0.0,288.568,287.102,258.691,289.434,286.767,261.182,0.0,0.0,238.104,254.068
2016-10-01 05:00,0.0,282.581,277.601,253.501,278.427,276.477,255.28,0.0,0.0,231.709,247.699
2016-10-01 06:00,0.0,286.717,282.096,256.549,283.372,279.959,256.16,0.0,0.0,230.593,249.617
2016-10-01 07:00,0.0,230.231,225.282,227.058,225.31,224.474,222.873,0.0,0.0,222.15,224.61
2016-10-01 08:00,0.00359077,218.393,215.218,222.659,214.89,214.364,215.074,0.0,0.0,214.293,215.061
2016-10-01 09:00,0.0,227.984,223.252,226.092,223.443,222.462,220.489,-0.0103014,-0.0122828,221.145,223.793
2016-10-01 10:00,0.396675,252.585,247.769,236.466,247.446,246.666,237.07,0.85038,1.00543,228.4,236.614
2016-10-01 11:00,0.187186,286.569,278.474,254.69,279.613,276.015,255.027,0.32791,0.286721,229.433,248.133
2016-10-01 12:00,0.169153,287.01,277.098,253.741,278.128,275.396,255.027,0.295284,0.257209,230.996,248.987
2016-10-01 13:00,0.203593,259.045,240.277,233.513,238.938,236.872,231.581,0.332352,0.34695,224.661,230.694
2016-10-01 14:00,0.162895,263.636,246.102,236.466,245.248,243.461,234.76,0.253059,0.250254,225.546,233.617
2016-10-01 15:00,0.0868294,280.427,270.746,249.924,270.495,268.007,248.768,0.131202,0.121375,228.224,244.764
2016-10-01 16:00,0.278787,257.605,223.597,227.058,223.758,222.753,220.86,0.431991,0.48366,218.391,220.763
2016-10-01 17:00,0.298112,261.251,229.673,229.484,228.293,226.701,224.481,0.432347,0.484221,221.371,225.604
2016-10-01 18:00,0.37798,260.827,231.997,230.743,230.853,229.909,226.402,0.492705,0.550204,221.819,226.57
2016-10-01 19:00,0.576224,263.636,229.673,229.301,229.444,227.787,224.304,0.653205,0.752405,221.258,225.799
2016-10-01 20:00,0.862257,267.444,224.279,226.866,224.694,223.619,0.0,0.89855,1.08812,220.57,222.743
2016-10-01 21:00,0.893867,252.585,226.902,227.817,225.003,224.474,221.782,0.605468,0.947532,218.891,222.529
2016-10-01 22:00,-0.00640745,222.276,219.247,224.908,218.824,218.235,217.445,0.0,0.0,217.622,219.372
2016-10-01 23:00,-0.0143868,227.984,217.685,224.305,217.427,216.652,217.445,-0.0341076,-0.0174292,215.31,216.909
2016-10-02 00:00,0.0,225.382,220.379,224.908,220.184,219.165,219.172,0.0,0.0,216.695,218.41
2016-10-02 01:00,0.0,282.753,274.261,251.552,275.857,272.565,251.553,0.0,0.0,229.935,251.252
2016-10-02 02:00,0.00134361,266.797,257.166,242.942,258.678,255.045,241.519,0.0,0.0,228.488,244.175
2016-10-02 03:00,0.00127074,282.923,271.437,249.797,273.057,268.505,247.279,0.0,0.0,229.685,246.371
2016-10-02 04:00,0.0,288.43,285.658,258.58,287.407,284.922,259.37,0.0,0.0,230.593,252.731
2016-10-02 05:00,0.0,287.729,283.148,256.434,284.079,280.702,256.285,0.0,0.0,230.916,252.047
2016-10-02 06:00,0.00164677,282.581,276.08,253.02,276.62,273.359,251.814,0.0,0.0,228.224,246.371
2016-10-02 07:00,0.0,262.869,251.339,238.503,249.368,246.457,235.691,0.0,0.0,223.642,233.617
2016-10-02 08:00,0.00357467,264.739,249.978,238.349,248.733,244.758,233.503,0.0,0.0,224.76,235.74
2016-10-02 09:00,-0.0119979,260.827,247.563,237.258,245.914,243.024,233.661,-0.0101586,-0.0121126,221.93,232.185
2016-10-02 10:00,0.332328,238.442,227.219,227.248,226.82,226.701,223.77,0.699846,0.80005,221.258,226.76
2016-10-02 11:00,0.366087,245.913,238.585,233.005,238.693,238.049,232.387,0.672048,0.742443,225.931,232.669
2016-10-02 12:00,0.309915,295.902,274.785,253.381,276.62,273.99,255.406,0.304956,0.295965,230.184,248.348
2016-10-02 13:00,0.101228,291.686,283.495,257.91,284.921,281.146,257.777,0.146536,0.112086,230.184,248.025
2016-10-02 14:00,0.345051,285.512,265.846,247.991,268.524,267.84,252.205,0.305379,0.329714,230.593,248.025
2016-10-02 15:00,0.0857231,290.041,280.549,256.32,281.655,277.396,255.909,0.111141,0.0905993,230.184,247.808
2016-10-02 16:00,0.119464,288.012,271.574,251.18,272.104,268.339,250.369,0.134483,0.124717,228.575,244.881
2016-10-02 17:00,0.517019,286.121,254.871,242.081,257.739,257.301,245.489,0.531834,0.587768,230.593,245.46
2016-10-02 18:00,0.61663,285.665,254.145,241.646,256.598,256.367,245.628,0.623827,0.699225,229.935,244.998
2016-10-02 19:00,0.801104,290.813,253.226,241.061,255.439,255.045,245.072,0.796081,0.90562,230.593,244.647
2016-10-02 20:00,1.02935,287.587,253.04,241.061,255.244,254.472,244.652,0.896446,1.06888,231.315,244.881
2016-10-02 21:00,0.241289,258.096,246.313,237.415,247.446,246.035,238.278,0.286018,0.341033,229.263,239.39
2016-10-02 22:00,-0.0062738,258.096,246.313,237.728,246.135,243.896,236.613,0.0,0.0,227.238,236.614
2016-10-02 23:00,-0.0142527,269.865,255.409,242.225,254.657,250.156,239.025,-0.021722,-0.0172668,227.329,238.578
2016-10-03 00:00,0.00192283,269.576,258.534,244.07,257.928,253.316,240.207,0.0,0.0,226.499,240.576
2016-10-03 01:00,0.0,251.282,249.781,238.81,249.368,248.532,240.354,0.0,0.0,227.51,239.523
2016-10-03 02:00,0.0,253.81,252.666,240.766,254.066,253.122,242.527,0.0,0.0,227.87,242.478
2016-10-03 03:00,-0.0012668,250.598,237.841,232.663,236.695,237.109,230.111,0.0,0.0,221.596,228.242
2016-10-03 04:00,0.0,240.898,238.83,232.663,239.426,238.282,232.227,0.0,0.0,226.216,233.773
2016-10-03 05:00,-0.00139296,269.865,268.916,249.542,270.169,269.165,252.464,0.0,0.0,228.224,245.69
2016-10-03 06:00,0.0,257.103,260.365,244.21,261.431,260.764,249.305,0.0,0.0,229.685,245.345
2016-10-03 07:00,0.0,271.798,268.199,249.029,270.006,268.67,253.24,0.0,0.0,230.916,248.348
2016-10-03 08:00,0.0,269.576,267.326,247.991,268.69,267.171,252.594,0.0,0.0,230.835,248.562
2016-10-03 09:00,0.0,283.261,277.476,254.336,278.128,273.99,253.881,-0.0100177,-0.0119446,231.63,248.348
2016-10-03 10:00,0.370059,290.939,285.321,258.913,286.86,283.194,258.27,0.473636,0.390974,231.076,249.825
2016-10-03 11:00,0.0715552,290.685,286.55,259.464,288.358,284.922,259.856,0.179003,0.108359,231.865,250.032
2016-10-03 12:00,0.0209993,290.041,287.102,260.119,289.032,285.35,259.977,0.0960123,0.05088,231.787,250.032
2016-10-03 13:00,0.0507412,291.686,286.772,259.793,288.763,285.635,259.977,0.0956262,0.0627935,230.755,249.825
2016-10-03 14:00,0.0170825,290.301,287.102,260.011,289.032,285.777,260.098,0.0554443,0.028743,230.348,249.513
2016-10-03 15:00,0.0402928,291.19,286.328,259.793,288.358,285.065,259.614,0.0659572,0.0474576,230.43,249.513
2016-10-03 16:00,0.040855,291.315,285.77,259.354,287.815,284.636,258.515,0.0645715,0.046745,230.348,249.617
2016-10-03 17:00,0.0639474,289.247,281.029,256.664,282.374,278.307,254.519,0.0894008,0.0735669,229.093,246.595
2016-10-03 18:00,0.186456,291.065,284.869,258.802,287.134,284.492,259.614,0.215007,0.198995,229.685,249.303
2016-10-03 19:00,0.106313,293.124,287.651,260.445,290.101,286.907,260.822,0.143205,0.112208,230.101,249.513
2016-10-03 20:00,0.434386,294.823,287.651,260.553,289.835,286.907,261.66,0.400246,0.365449,230.018,249.825
2016-10-03 21:00,0.104822,289.247,287.322,260.228,289.701,286.767,260.942,0.24407,0.211648,230.674,249.825
2016-10-03 22:00,-0.00614674,289.247,287.322,260.337,289.568,286.626,261.54,0.0,0.0,231.156,250.646
2016-10-03 23:00,-0.0141226,289.91,287.432,260.011,289.835,287.048,260.701,-0.0143491,-0.0171092,231.394,250.748
2016-10-04 00:00,-0.00191142,289.113,286.772,260.119,288.763,285.777,260.219,0.0,0.0,231.315,250.544
2016-10-04 01:00,-0.00151968,289.113,286.882,260.011,288.763,285.635,259.614,0.0,0.0,231.943,250.748
2016-10-04 02:00,0.0,288.43,286.882,259.793,289.032,286.343,260.822,0.0,0.0,232.481,251.252
2016-10-04 03:00,-0.00126294,287.155,286.105,259.354,288.222,285.777,260.34,0.0,0.0,232.784,251.352
2016-10-04 04:00,0.0,289.247,287.212,260.228,289.434,286.485,261.301,0.0,0.0,233.234,251.652
2016-10-04 05:00,0.0,289.514,287.76,260.445,289.701,286.767,260.581,0.0,0.0,234.543,251.652
2016-10-04 06:00,-0.00163802,288.568,287.102,260.011,289.3,286.343,261.301,0.0,0.0,233.677,251.85
2016-10-04 07:00,0.00216792,289.381,288.195,260.661,290.5,287.748,261.421,0.0,0.0,233.75,252.537
2016-10-04 08:00,0.0,289.381,287.76,260.337,290.101,287.609,261.898,0.0,0.0,233.968,253.021
2016-10-04 09:00,0.0,289.647,288.412,260.661,290.632,287.888,261.421,-0.00987875,-0.0117789,234.401,253.69
2016-10-04 11:00,0.195946,292.534,288.412,260.445,290.897,288.584,262.373,0.273747,0.217601,235.247,254.349
2016-10-04 12:00,0.0505449,291.44,289.272,261.305,291.817,289.276,262.255,0.123039,0.0765421,234.257,254.349
2016-10-04 13:00,0.0459491,291.686,288.736,260.876,291.292,288.999,262.255,0.0972625,0.0646123,234.401,254.068
2016-10-04 14:00,0.0770698,292.414,288.412,260.661,290.897,288.445,262.017,0.103924,0.0821291,234.543,254.722
2016-10-04 15:00,0.0956258,291.065,284.071,258.246,286.172,283.484,258.76,0.115177,0.0978997,232.633,252.925
2016-10-04 16:00,0.0696763,289.91,282.916,257.572,284.22,281.146,257.034,0.0994815,0.0813765,232.02,250.95
2016-10-04 17:00,0.159746,288.705,277.852,254.572,278.873,276.015,252.594,0.180764,0.168809,230.916,248.455
2016-10-04 18:00,0.230241,294.491,286.105,258.802,288.493,286.06,260.219,0.231214,0.223433,234.827,253.88
2016-10-04 19:00,0.306701,295.042,287.212,260.228,289.701,287.329,260.942,0.298842,0.285059,234.615,254.068
2016-10-04 20:00,0.341067,293.124,288.412,260.876,291.029,289.137,262.61,0.318025,0.318176,234.686,254.629
2016-10-04 21:00,0.114617,288.977,288.195,260.984,290.764,288.584,262.255,0.218354,0.231426,234.615,255.183
2016-10-04 22:00,-0.00602589,289.113,287.978,260.445,290.234,287.888,261.66,0.0,0.0,234.543,254.999
2016-10-04 23:00,-0.0139964,290.301,288.52,260.661,290.632,287.888,261.898,-0.0142209,-0.0113041,233.75,254.722
2016-10-05 00:00,-0.00190031,287.729,284.982,258.802,286.997,284.349,259.37,0.0,0.0,233.456,254.349
2016-10-05 01:00,-0.00151308,287.01,282.682,257.346,283.938,280.554,256.035,0.0,0.0,232.175,252.047
2016-10-05 02:00,0.0,289.91,288.412,260.769,290.101,287.748,262.373,0.0,0.0,233.823,254.999
2016-10-05 03:00,0.0,289.91,287.212,260.011,289.434,286.485,260.822,0.0,0.0,233.677,255.091
2016-10-05 04:00,0.0,288.841,287.651,260.228,289.701,287.609,262.136,0.0,0.0,234.472,256.181
2016-10-05 05:00,0.0,282.923,277.727,254.454,278.576,275.396,254.773,0.0,0.0,231.076,249.928
2016-10-05 06:00,-0.00163374,288.977,287.869,260.661,289.968,287.748,261.779,0.0,0.0,233.968,255.548
2016-10-05 07:00,-0.00216131,289.91,288.736,261.305,291.292,288.722,262.61,0.0,-0.00218198,234.615,256.181
2016-10-05 08:00,0.00352672,289.113,288.303,261.091,290.764,288.722,262.61,0.0,0.0,233.968,256.091
2016-10-05 09:00,0.0115053,288.841,288.195,260.553,290.367,288.306,262.373,-0.00974152,-0.0116153,233.01,256.001
2016-10-05 10:00,0.193313,291.065,289.165,261.091,291.555,289.413,262.61,0.379435,0.266128,232.633,255.821
2016-10-05 11:00,0.285317,293.472,288.412,260.445,290.764,289.276,262.847,0.335986,0.297977,232.481,256.001
2016-10-05 12:00,0.0844941,292.771,289.379,261.198,291.948,290.238,263.318,0.148448,0.104495,233.01,256.271
2016-10-05 13:00,0.029617,291.44,289.699,261.091,292.34,290.511,263.2,0.0891616,0.0581392,233.01,256.716
2016-10-05 14:00,0.0744114,292.294,289.165,260.553,291.817,290.238,263.436,0.105411,0.0837908,233.159,256.36
2016-10-05 15:00,0.0391696,291.563,288.843,260.337,291.292,289.551,262.728,0.0766222,0.0559071,233.234,256.271
2016-10-05 16:00,0.0452314,291.315,288.736,260.228,291.423,289.551,262.136,0.0800764,0.0622689,233.53,256.271
2016-10-05 17:00,0.107917,291.931,286.772,259.354,289.3,287.188,261.062,0.13579,0.122567,232.481,254.722
2016-10-05 18:00,0.240393,292.653,286.439,259.024,289.3,287.469,261.898,0.268856,0.262614,233.53,255.275
2016-10-05 19:00,0.25504,295.902,288.736,260.445,291.423,289.413,262.728,0.269928,0.250051,233.968,255.639
2016-10-05 20:00,0.516519,295.26,288.628,260.119,291.292,289.276,262.728,0.470692,0.472847,236.808,255.911
2016-10-05 21:00,0.126331,289.779,288.951,260.553,291.817,289.826,262.965,0.24067,0.255078,237.849,256.805
2016-10-05 22:00,0.0,289.647,288.951,260.337,291.817,289.689,262.847,0.0,0.0,239.41,256.982
2016-10-05 23:00,-0.0110992,289.91,289.165,260.228,291.948,290.101,262.965,-0.011747,-0.0140066,241.986,258.2
2016-10-06 00:00,0.0,290.558,289.805,261.091,292.47,290.511,263.553,0.0,0.0,242.544,258.713
2016-10-06 01:00,0.0,289.381,289.379,260.553,292.079,290.101,263.436,0.0,0.0,243.093,259.387
2016-10-06 02:00,0.0,289.91,289.699,260.769,292.079,290.101,263.2,0.0,0.0,243.093,259.638
2016-10-06 03:00,-0.0012555,290.429,290.123,261.412,292.86,290.784,263.787,0.0,0.0,243.202,259.804
2016-10-06 04:00,0.0,290.685,290.756,261.305,293.377,291.6,264.605,0.0,0.0,243.256,260.789
2016-10-06 05:00,0.0,290.171,290.017,261.305,292.86,291.329,264.138,0.0,0.0,243.579,260.871
2016-10-06 06:00,0.0,289.647,289.911,261.091,292.86,290.921,263.905,0.0,0.0,243.472,261.435
2016-10-06 07:00,0.0,290.429,290.651,261.412,293.506,291.735,264.372,0.0,0.0,244.006,261.355
2016-10-06 08:00,0.0,290.301,290.44,261.412,293.248,291.464,264.255,0.0,0.0,244.583,261.834
2016-10-06 09:00,0.0113453,289.779,290.229,261.198,293.119,291.6,263.905,-0.00960601,0.0,245.456,262.388
2016-10-06 10:00,0.124369,291.563,290.335,261.519,292.989,291.464,264.721,0.31591,0.206274,245.91,262.935
2016-10-06 11:00,0.447946,294.602,288.303,259.902,291.029,289.413,264.255,0.429473,0.432277,246.603,263.399
2016-10-06 12:00,0.0254265,291.563,290.756,261.412,293.377,291.464,264.605,0.0932905,0.0534783,246.456,263.476
2016-10-06 13:00,0.0230982,291.563,290.756,261.731,293.506,291.735,264.721,0.0712442,0.0399755,246.307,263.476
2016-10-06 14:00,0.00573943,291.19,290.965,261.519,293.635,292.006,264.488,0.044951,0.0217286,246.456,263.629
2016-10-06 15:00,0.059602,292.414,289.486,260.553,292.34,290.784,264.022,0.0791381,0.0629068,246.603,263.629
2016-10-06 16:00,0.0701339,292.174,289.379,260.228,292.079,290.511,263.787,0.0861625,0.0721926,246.652,263.706
2016-10-06 17:00,0.0767457,292.174,289.486,260.553,292.209,290.648,264.022,0.0968336,0.0805177,246.896,263.706
2016-10-06 18:00,0.109998,293.124,289.699,260.984,292.209,290.784,264.372,0.129779,0.11287,246.798,263.399
2016-10-06 19:00,0.0914171,293.24,290.335,261.091,292.989,291.329,264.022,0.135978,0.102268,246.307,263.167
2016-10-06 20:00,0.350651,289.91,287.102,259.244,289.434,288.306,263.787,0.420915,0.412256,246.603,263.629
2016-10-06 21:00,0.105434,290.558,290.756,261.731,293.506,291.6,264.022,0.357082,0.390285,246.208,263.629
2016-10-06 22:00,-0.0058014,290.813,290.651,261.519,293.506,292.006,264.721,0.0,0.0,246.258,263.476
2016-10-06 23:00,-0.0137552,290.939,290.651,261.625,293.248,291.464,264.255,-0.0116465,-0.0111094,246.009,263.244
2016-10-07 00:00,-0.00187895,289.647,290.229,261.198,292.989,291.464,264.488,0.0,0.0,245.709,263.629
2016-10-07 01:00,0.0,289.381,289.699,261.091,292.6,291.193,264.138,0.0,-0.00151472,245.658,263.552
2016-10-07 02:00,0.00132027,290.041,290.229,261.412,292.989,291.464,264.488,0.0,0.0,245.151,263.629
2016-10-07 03:00,0.0012519,289.779,290.229,261.625,292.86,291.464,264.721,0.0,0.0,244.894,263.782
2016-10-07 04:00,-0.00126938,289.647,290.017,261.519,292.73,291.193,265.069,0.0,0.0,244.635,263.706
2016-10-07 05:00,0.0,289.514,289.699,260.984,292.079,290.784,264.022,0.0,0.0,244.006,263.399
2016-10-07 06:00,0.0,288.568,289.058,260.876,291.292,290.101,264.138,0.0,0.0,244.269,263.552
2016-10-07 07:00,0.0,289.91,289.805,261.731,292.34,290.511,263.787,0.0,0.0,244.217,263.476
2016-10-07 08:00,0.0,290.301,290.229,261.838,292.6,290.648,263.787,0.0,0.0,244.583,263.322
2016-10-07 09:00,0.0,290.171,290.229,261.838,292.6,290.784,264.721,-0.00947215,-0.0112941,244.79,263.934
2016-10-07 10:00,0.107814,291.19,290.545,262.261,292.989,291.464,264.022,0.319501,0.199549,243.899,263.244
2016-10-07 11:00,0.0165422,290.939,290.86,262.261,293.377,291.735,264.721,0.13446,0.0668013,243.256,263.476
2016-10-07 12:00,0.0467635,292.534,290.44,262.049,292.73,291.057,264.721,0.106185,0.0665239,242.875,263.244
2016-10-07 13:00,0.00661795,290.939,290.756,262.049,293.377,291.735,264.721,0.0588358,0.0267249,242.984,263.322
2016-10-07 14:00,0.0115106,291.44,290.545,261.731,292.989,291.193,264.255,0.04873,0.027599,242.042,262.935
2016-10-07 15:00,0.00543434,291.19,290.651,262.155,293.119,291.329,264.255,0.03681,0.0178305,241.073,262.466
2016-10-07 16:00,0.00413932,291.065,290.965,262.471,293.377,291.735,264.255,0.0315428,0.0153226,240.312,262.072
2016-10-07 17:00,0.00755436,290.939,290.651,262.049,293.377,291.6,264.255,0.0383776,0.0198291,238.546,261.435
2016-10-07 18:00,0.0580043,292.771,290.335,261.838,292.86,291.193,264.372,0.0844115,0.0640487,237.006,260.463
2016-10-07 19:00,0.0348514,292.534,291.07,262.471,293.506,291.871,264.721,0.0969568,0.0578031,236.542,259.97
2016-10-07 20:00,0.184554,292.653,290.545,262.366,293.377,291.871,264.837,0.262976,0.20904,236.609,259.387
2016-10-07 21:00,0.158264,289.779,289.699,261.944,292.6,290.921,264.138,0.335004,0.359497,236.139,259.387
2016-10-07 22:00,0.0,289.113,288.951,261.198,291.555,290.101,263.787,0.0,0.0,235.593,259.135
2016-10-07 23:00,-0.0109121,290.558,289.486,261.412,291.948,289.826,264.138,-0.0092393,-0.0110165,235.386,259.22
2016-10-08 00:00,0.0,290.171,289.272,260.984,291.292,289.137,262.728,0.0,0.0,234.472,258.713
2016-10-08 01:00,0.0,287.729,286.105,259.244,287.815,285.635,260.461,0.0,0.0,234.041,257.595
2016-10-08 02:00,0.0,290.301,289.593,261.731,291.948,289.826,263.436,0.0,0.0,233.603,257.682
2016-10-08 03:00,0.0,290.171,289.593,261.838,292.209,289.964,263.436,0.0,0.0,233.159,257.246
2016-10-08 04:00,0.00126617,289.91,289.699,262.155,292.209,290.238,263.083,0.0,0.0,232.633,256.716
2016-10-08 05:00,-0.00137562,289.779,289.593,261.625,292.079,289.826,263.436,0.0,0.0,233.085,257.158
2016-10-08 06:00,0.0,290.171,290.123,262.049,292.6,290.784,263.787,0.0,0.0,232.328,257.246
2016-10-08 07:00,0.0,289.779,289.805,261.731,292.209,290.511,263.436,0.0,0.0,231.865,256.982
2016-10-08 08:00,0.0,288.841,288.951,261.412,291.16,289.826,263.67,0.0,0.0,232.405,257.333
2016-10-08 09:00,0.0,285.357,281.148,256.434,282.231,280.108,256.41,-0.0093399,-0.0111364,229.517,251.751
2016-10-08 10:00,0.0727215,290.301,289.272,261.519,291.686,289.413,262.847,0.307866,0.183542,231.552,256.45
2016-10-08 11:00,0.0565024,291.44,289.699,261.198,292.209,289.964,263.2,0.168849,0.100663,231.076,256.805
2016-10-08 12:00,0.0277234,290.939,289.699,261.305,292.079,289.964,263.2,0.0993102,0.0581297,231.394,256.716
2016-10-08 13:00,0.0232293,288.568,286.328,259.024,287.27,284.922,259.37,0.0786728,0.051928,228.835,251.85
2016-10-08 14:00,0.0620441,284.57,274.524,251.922,274.156,270.635,249.572,0.102622,0.0874008,227.147,246.707
2016-10-08 15:00,0.0395172,288.705,284.3,258.358,285.34,283.049,258.147,0.0726872,0.0536519,229.852,253.309
2016-10-08 16:00,0.11214,282.059,265.995,247.332,264.792,260.942,242.097,0.146526,0.136973,223.746,240.964
2016-10-08 17:00,0.133497,283.76,271.299,250.177,269.35,265.99,246.732,0.168263,0.16234,224.56,242.602
2016-10-08 18:00,0.306116,275.707,244.16,235.985,240.631,236.872,227.431,0.342499,0.366068,219.382,228.96
2016-10-08 19:00,0.223235,288.705,277.601,254.099,277.226,274.147,251.291,0.250601,0.245627,229.852,251.152
2016-10-08 20:00,0.661977,284.888,264.175,246.934,262.507,258.957,242.241,0.614612,0.668305,224.46,239.789
2016-10-08 21:00,0.0451961,270.989,255.05,241.354,253.469,249.55,235.846,0.229605,0.228141,222.368,236.325
2016-10-08 22:00,0.0,274.073,264.788,246.801,263.569,261.121,244.652,0.0,0.0,227.055,243.577
2016-10-08 23:00,-0.00541149,286.421,280.066,255.51,281.076,278.307,255.406,-0.00916379,-0.0109264,228.575,250.135
2016-10-09 00:00,0.0,278.279,267.764,248.771,266.508,262.712,243.241,0.0,0.0,225.352,243.214
2016-10-09 01:00,-0.00148832,289.647,289.593,260.769,292.079,290.375,263.318,0.0,0.0,233.75,258.2
2016-10-09 02:00,0.0,289.514,289.486,261.305,292.34,290.375,263.2,0.0,0.0,234.472,259.135
2016-10-09 03:00,0.00124496,290.301,289.486,261.198,291.817,289.826,262.847,0.0,0.0,234.329,258.372
2016-10-09 04:00,0.0,287.871,285.433,258.802,287.27,284.922,259.492,0.0,0.0,233.456,257.246
2016-10-09 05:00,0.00137233,284.57,279.702,255.277,281.076,278.458,254.9,0.0,0.0,232.709,255.911
2016-10-09 06:00,-0.00161718,288.977,288.52,260.445,291.029,289.413,262.492,0.0,0.0,236.071,260.135
2016-10-09 07:00,0.0,268.686,252.479,240.171,248.733,244.973,232.707,0.0,0.0,222.04,234.389
2016-10-09 08:00,-0.00346329,270.989,257.854,243.084,254.657,250.357,236.765,0.0,0.0,223.538,237.888
2016-10-09 09:00,0.0,269.576,256.819,242.081,254.263,250.757,237.373,-0.00920922,-0.0109806,222.799,236.9
2016-10-09 10:00,0.579653,269.283,251.912,239.419,248.093,244.973,233.344,0.701131,0.77097,221.484,233.773
2016-10-09 11:00,0.273834,270.434,252.29,240.171,250.415,248.121,236.0,0.390195,0.397821,224.56,236.179
2016-10-09 12:00,0.273887,257.605,230.85,229.665,228.583,226.426,222.873,0.411259,0.43636,219.624,225.011
2016-10-09 13:00,0.25461,257.103,229.97,229.118,227.708,226.426,223.053,0.384658,0.426726,220.337,225.011
2016-10-09 14:00,0.163516,266.466,246.523,236.943,244.349,242.364,233.819,0.257295,0.258576,223.013,232.185
2016-10-09 15:00,0.213224,269.865,239.317,234.017,235.93,231.714,224.657,0.287007,0.311854,220.219,229.137
2016-10-09 16:00,0.218104,274.551,244.598,236.466,241.107,236.157,226.056,0.272886,0.294521,220.916,231.695
2016-10-09 17:00,0.316829,270.151,229.673,230.027,228.293,225.318,219.739,0.428182,0.464409,218.891,227.877
2016-10-09 18:00,0.285747,271.261,245.463,237.415,242.747,240.123,231.905,0.338097,0.35505,221.819,231.53
2016-10-09 19:00,0.505469,278.482,244.38,236.943,241.344,236.872,227.431,0.509296,0.563883,219.014,229.838
2016-10-09 20:00,0.8428,278.279,238.09,233.849,234.371,229.909,222.329,0.72536,0.860207,217.752,227.323
2016-10-09 21:00,0.0526026,270.434,254.509,242.656,250.623,244.973,232.066,0.267231,0.265527,219.503,234.694
2016-10-09 22:00,-0.00550307,288.568,284.642,258.469,285.757,282.321,256.785,0.0,0.0,228.488,253.405
2016-10-09 23:00,-0.00805246,284.087,276.591,253.501,275.087,271.926,250.896,-0.006818,-0.0108393,226.405,248.241
2016-10-10 00:00,0.0,252.585,231.713,230.921,229.444,226.701,222.692,-0.00156557,-0.0018667,216.012,221.436
2016-10-10 01:00,0.00148253,235.601,221.841,225.504,219.847,217.922,218.025,0.0,0.0,215.31,218.165
2016-10-10 02:00,-0.0013076,222.276,212.119,221.814,211.028,210.219,212.202,0.0,0.0,209.926,210.67
2016-10-10 03:00,-0.00124162,235.601,220.006,225.504,216.715,215.027,213.857,0.0,0.0,213.693,216.392
2016-10-10 04:00,0.00125996,267.123,249.583,239.871,245.914,239.438,228.109,0.0,0.0,218.391,231.53
2016-10-10 05:00,0.0,275.48,263.088,246.399,261.791,254.472,239.173,0.0,0.0,225.058,241.093
2016-10-10 06:00,0.0,278.883,269.485,249.669,268.69,265.138,245.767,0.0,0.0,224.86,243.093
2016-10-10 07:00,-0.00212901,276.594,264.329,246.667,263.217,259.139,240.793,0.0,0.0,222.476,238.441
2016-10-10 08:00,-0.00344747,282.408,274.655,252.656,274.933,271.444,249.572,0.0,0.0,224.56,244.056
2016-10-10 09:00,0.0,284.888,279.091,255.277,280.054,276.938,253.881,0.0,0.0,225.643,246.595
2016-10-10 10:00,0.316771,282.753,271.437,250.681,270.332,266.16,247.006,0.418091,0.423263,225.254,242.725
2016-10-10 11:00,0.318797,290.813,271.984,251.922,271.945,264.967,246.594,0.32391,0.355723,225.449,242.602
2016-10-10 12:00,0.178213,276.594,259.039,244.07,257.17,253.122,237.977,0.249063,0.247114,223.013,236.469
2016-10-10 13:00,0.322142,262.475,234.208,231.274,233.31,231.714,227.77,0.402776,0.441493,222.259,229.137
2016-10-10 14:00,0.258332,265.791,243.049,235.823,242.283,240.576,233.503,0.33301,0.361899,223.952,233.461
2016-10-10 15:00,0.152187,266.797,245.676,236.784,243.895,241.475,231.581,0.219405,0.229771,222.692,232.508
2016-10-10 16:00,0.292744,268.382,223.597,227.438,220.184,217.29,215.873,0.349373,0.384206,212.126,216.392
2016-10-10 17:00,0.347197,265.446,221.481,226.287,218.478,216.331,215.074,0.436424,0.49412,214.293,216.652
2016-10-10 18:00,0.473238,269.283,218.862,225.701,217.78,216.008,216.663,0.595578,0.672957,214.879,218.165
2016-10-10 19:00,0.598461,270.989,230.85,229.847,228.001,225.874,221.782,0.679215,0.771296,218.391,225.011
2016-10-10 20:00,0.61068,268.686,246.102,236.943,245.471,243.243,235.227,0.624451,0.744563,224.76,236.469
2016-10-10 21:00,0.0627741,252.585,245.032,236.784,244.349,242.364,234.916,0.265754,0.316871,224.959,236.179
2016-10-10 22:00,0.0,256.589,247.769,237.884,245.914,244.328,236.765,0.0,0.0,224.258,232.669
2016-10-10 23:00,-0.00798976,283.261,274.129,252.29,274.312,270.798,249.705,-0.00676492,-0.0107548,222.585,240.446
2016-10-11 00:00,-0.00183961,278.482,267.618,248.771,267.016,263.933,244.652,0.0,-0.00185719,225.546,239.922
2016-10-11 01:00,0.0,256.062,238.585,232.319,233.577,231.714,225.009,0.0,0.0,215.31,222.096
2016-10-11 02:00,0.0,274.314,261.179,244.07,259.791,255.992,240.646,0.0,0.0,223.224,238.027
2016-10-11 03:00,-0.00123836,242.013,225.611,228.004,221.838,220.081,218.41,0.0,0.0,214.293,216.909
2016-10-11 04:00,0.0,233.989,218.082,224.102,215.26,214.364,214.872,0.0,-0.00126897,213.693,214.787
2016-10-11 05:00,0.0,268.686,251.53,238.503,246.135,241.251,229.116,0.0,0.0,220.916,232.185
2016-10-11 06:00,0.0,288.705,286.992,258.58,288.763,286.626,261.898,0.0,0.0,234.472,254.722
2016-10-11 07:00,0.0,290.301,290.123,260.661,292.6,290.238,263.905,0.0,0.0,240.014,258.882
2016-10-11 08:00,0.00343166,290.685,290.651,260.661,293.248,291.193,263.905,0.0,0.0,240.957,260.135
2016-10-11 09:00,0.0,290.429,290.756,261.412,293.377,291.6,264.255,-0.00895244,-0.0106744,240.899,261.113
2016-10-11 10:00,0.103822,291.19,290.86,261.412,293.377,291.735,264.837,0.319658,0.2001,240.134,261.113
2016-10-11 11:00,0.0236085,290.813,290.545,261.944,293.377,291.735,264.605,0.139925,0.0783122,240.312,261.033
2016-10-11 12:00,0.0107738,291.065,290.756,262.155,293.506,291.871,264.372,0.0857487,0.0435074,239.653,261.033
2016-10-11 13:00,0.0167428,291.19,290.123,261.838,292.73,290.921,263.67,0.0666278,0.0371863,239.349,260.381
2016-10-11 14:00,0.0174679,291.44,290.229,261.944,292.86,291.193,263.905,0.0542303,0.0323307,237.849,260.052
2016-10-11 15:00,0.0206306,290.558,288.951,261.625,291.16,289.276,262.61,0.0489101,0.031936,237.657,259.887
2016-10-11 16:00,0.0447652,290.685,287.869,260.553,290.101,288.167,262.373,0.069883,0.0550792,237.006,259.471
2016-10-11 17:00,0.124405,289.514,284.869,259.134,286.722,284.922,260.34,0.15735,0.151953,236.341,258.628
2016-10-11 18:00,0.0666421,291.19,287.432,260.661,289.166,287.048,260.701,0.0971777,0.0766235,236.475,258.628
2016-10-11 19:00,0.187328,289.647,279.702,255.858,279.76,276.631,254.264,0.22162,0.207253,233.603,253.785
2016-10-11 20:00,0.338361,291.686,283.495,258.469,284.641,281.882,256.785,0.363156,0.341595,233.968,255.548
2016-10-11 21:00,0.310397,289.647,288.628,261.412,290.632,288.584,262.136,0.459922,0.548387,236.742,259.304
2016-10-11 22:00,-0.00532671,290.685,290.545,262.471,293.119,291.193,264.255,0.0,0.0,238.231,261.113
2016-10-11 23:00,-0.00792908,291.19,290.86,262.681,293.635,292.006,264.721,-0.00671354,-0.00800488,237.977,260.952
2016-10-12 00:00,-0.00183046,290.813,290.86,262.89,293.764,291.871,265.069,-0.00154985,-0.00184796,237.398,260.545
2016-10-12 01:00,0.0,290.171,289.272,262.261,291.817,290.238,264.022,0.0,0.0,236.742,259.471
2016-10-12 02:00,0.00129968,289.381,289.272,261.944,291.817,289.964,264.022,0.0,0.0,235.662,258.543
2016-10-12 03:00,0.0,290.041,289.593,262.049,292.209,290.101,263.905,0.0,0.0,235.108,258.457
2016-10-12 04:00,0.0,289.779,289.272,262.155,291.948,289.826,263.905,0.0,0.00126601,235.386,258.457
2016-10-12 05:00,0.0,290.429,289.805,262.155,292.209,290.101,263.905,0.0,0.0,235.108,258.628
2016-10-12 06:00,-0.00160531,290.429,290.017,262.155,292.34,290.375,263.553,0.0,0.0,235.593,258.798
2016-10-12 07:00,0.0,290.429,289.911,262.049,292.6,290.511,263.2,0.0,0.0,234.543,258.372
2016-10-12 08:00,0.0,289.779,289.165,261.838,291.817,289.689,263.553,0.0,0.0,233.968,257.769
2016-10-12 09:00,0.0,288.291,288.412,261.091,290.632,288.861,263.318,0.0,-0.010524,233.308,257.246
2016-10-12 10:00,0.516559,290.939,288.412,261.305,290.897,289.137,263.083,0.599358,0.531154,233.603,256.539
2016-10-12 11:00,0.0542415,291.19,289.165,261.838,291.555,289.276,263.2,0.166483,0.0924076,233.75,256.36
2016-10-12 12:00,0.13192,293.472,288.736,261.519,291.16,289.276,262.965,0.175785,0.133181,233.01,256.45
2016-10-12 13:00,0.0739011,292.653,288.951,261.625,291.423,289.137,263.318,0.110923,0.0847813,234.185,256.894
2016-10-12 14:00,0.0467237,291.44,288.736,261.091,290.897,288.584,262.847,0.0828305,0.061911,234.257,257.158
2016-10-12 15:00,0.0979635,288.43,284.528,258.913,286.722,284.636,261.779,0.128507,0.119794,234.615,256.716
2016-10-12 16:00,0.167061,288.977,283.611,258.691,285.757,284.492,261.779,0.202072,0.195587,234.615,257.158
2016-10-12 17:00,0.243681,291.686,281.505,257.233,283.514,282.321,260.461,0.253335,0.252239,234.827,256.982
2016-10-12 18:00,0.502479,286.717,276.208,254.099,278.873,278.609,259.614,0.573567,0.620011,234.615,256.982
2016-10-12 19:00,0.545606,295.796,282.331,258.022,285.201,284.205,261.66,0.492615,0.511663,235.038,257.769
2016-10-12 20:00,0.323951,293.24,287.432,260.769,289.3,287.188,262.847,0.331603,0.29776,235.455,257.855
2016-10-12 21:00,0.202386,277.869,279.213,256.664,282.66,282.175,261.182,0.68544,0.817284,235.386,257.421
2016-10-12 22:00,-0.00524461,290.041,289.699,262.261,291.948,289.689,263.318,0.0,0.0,235.455,258.2
2016-10-12 23:00,-0.0078704,289.91,289.272,262.049,291.817,290.101,263.67,-0.00666385,-0.00794564,235.455,258.798
2016-10-13 00:00,-0.00182159,287.729,287.978,261.305,290.764,289.826,263.67,-0.00154234,-0.001839,235.731,259.051
2016-10-13 01:00,0.0,288.152,288.628,261.519,291.686,290.375,263.787,0.0,0.0,235.867,259.051
2016-10-13 02:00,0.0,290.685,290.756,262.576,293.506,292.006,264.488,0.0,0.0,236.004,258.882
2016-10-13 03:00,0.0,290.041,290.44,262.261,293.248,291.6,264.721,0.0,0.0,235.867,259.135
2016-10-13 04:00,-0.00125115,291.065,291.487,262.995,294.533,293.082,265.185,0.0,0.0,236.808,259.387
2016-10-13 05:00,0.00135979,290.813,291.174,262.786,294.277,292.948,264.953,0.0,0.0,236.742,258.967
2016-10-13 06:00,0.0,290.685,290.965,262.576,294.021,292.41,264.953,0.0,0.0,236.808,258.798
2016-10-13 07:00,0.0,290.301,290.651,262.681,293.764,292.276,264.255,0.0,0.0,237.268,258.713
2016-10-13 08:00,0.0,290.685,291.07,262.89,294.149,292.545,264.837,0.0,0.0,238.294,259.304
2016-10-13 09:00,-0.0102771,290.429,290.651,262.681,293.892,292.276,264.721,-0.00870164,0.0,237.657,259.051
2016-10-13 10:00,0.0969981,291.065,290.756,262.681,293.635,292.141,264.953,0.328512,0.205643,237.721,259.471
2016-10-13 11:00,0.0272652,291.065,290.756,262.681,293.635,292.006,264.605,0.144284,0.0756961,237.072,259.051
2016-10-13 13:00,0.02696,291.686,290.651,262.576,293.248,291.871,264.837,0.0741876,0.0459298,235.386,258.882
2016-10-13 14:00,0.0,0.0,0.0,0.0,0.0,0.0,0.0,0.0,0.0,0.0,0.0
2016-10-13 15:00,0.0152266,291.563,290.229,262.366,292.86,291.193,264.721,0.0480533,0.0279494,234.686,259.051
2016-10-13 16:00,0.00281781,290.939,291.07,262.681,293.892,292.141,265.185,0.0345946,0.0170685,234.185,259.22
2016-10-13 17:00,0.0340731,291.686,289.699,262.366,292.6,290.784,264.255,0.0616333,0.0531618,233.159,258.543
2016-10-13 18:00,0.0841939,292.174,288.736,261.519,291.16,289.137,263.083,0.117227,0.0963319,230.916,257.508
2016-10-13 19:00,0.0677471,291.809,290.017,262.576,292.47,290.238,263.436,0.114723,0.0841782,230.018,256.805
2016-10-13 20:00,0.461149,293.702,286.992,260.876,289.032,287.048,261.062,0.452761,0.455652,229.769,255.639
2016-10-13 21:00,0.578196,289.514,288.736,261.944,291.16,289.413,262.847,0.856726,1.02152,229.601,256.091
2016-10-13 22:00,0.0,288.291,286.55,260.553,288.493,286.343,261.421,0.0,0.0,228.835,254.349
2016-10-13 23:00,-0.0104182,288.977,287.76,261.305,289.835,287.888,262.965,-0.00661582,-0.00788836,229.935,255.639
2016-10-14 00:00,0.0,286.121,281.624,257.91,282.66,280.257,256.41,0.0,-0.00366064,228.136,251.751
2016-10-14 01:00,0.0,287.01,286.661,261.305,289.3,287.748,262.728,0.0,0.0,229.852,255.73
2016-10-14 02:00,0.0,279.667,279.823,257.459,283.088,282.321,261.062,0.0,0.0,229.685,255.821
2016-10-14 03:00,0.0,290.171,289.058,262.366,291.423,289.413,263.787,0.0,0.0,229.263,254.999
2016-10-14 04:00,0.0,290.041,289.486,262.995,292.209,290.101,263.318,0.0,0.0,229.263,255.183
2016-10-14 05:00,0.0,290.558,290.651,263.411,293.506,291.735,264.953,0.0,0.0,229.601,255.821
2016-10-14 06:00,-0.00159764,290.301,289.911,262.995,292.47,290.511,264.138,0.0,0.0,230.43,256.001
2016-10-14 07:00,0.0,290.301,289.593,263.307,291.817,289.964,262.728,0.0,0.0,230.593,255.639
2016-10-14 08:00,0.0,290.429,290.017,263.203,292.34,290.375,264.022,0.0,0.0,230.996,255.911
2016-10-14 09:00,-0.0101316,290.429,289.699,262.995,291.948,289.551,263.083,0.0,0.0,230.511,255.911
2016-10-14 10:00,0.0492024,290.939,290.017,263.099,292.34,290.375,264.138,0.316613,0.178822,230.674,256.091
2016-10-14 11:00,0.0616827,288.977,285.321,260.445,286.447,283.629,259.127,0.168286,0.114166,228.4,253.117
2016-10-14 12:00,0.0479393,289.514,285.658,260.553,287.27,285.065,260.098,0.11808,0.0769962,229.517,253.5
2016-10-14 13:00,0.0101434,290.813,289.911,263.307,292.209,290.375,263.67,0.0730012,0.0290143,229.935,255.73
2016-10-14 14:00,0.176317,294.933,284.982,260.769,288.222,286.767,262.728,0.179145,0.155753,230.835,255.73
2016-10-14 15:00,0.338864,288.841,279.58,257.459,282.946,282.467,261.062,0.322192,0.333691,230.835,254.629
2016-10-14 16:00,0.295525,291.065,280.789,258.469,284.22,283.773,262.017,0.277757,0.28122,230.996,255.275
2016-10-14 17:00,0.074656,288.012,278.474,256.664,278.576,275.706,253.24,0.104035,0.0847909,227.238,247.261
2016-10-14 18:00,0.118503,290.813,281.624,258.913,282.803,279.661,256.41,0.141744,0.125332,229.093,250.135
2016-10-14 19:00,0.341337,292.771,279.823,257.685,280.785,277.853,255.909,0.331249,0.320743,228.136,248.133
2016-10-14 20:00,0.467922,291.686,281.978,259.024,283.088,279.661,256.909,0.463626,0.447268,228.662,249.303
2016-10-14 21:00,2.00179,289.647,286.328,262.049,288.222,285.35,260.34,1.27119,2.27354,229.769,251.452
2016-10-14 22:00,0.0,287.01,282.448,259.464,283.797,280.554,257.282,0.0,0.0,228.662,249.408
2016-10-14 23:00,-0.00775884,288.291,285.208,261.519,286.722,283.484,259.856,-0.0065694,-0.00783301,229.517,251.252
2016-10-15 00:00,-0.00180465,287.444,284.185,260.769,286.172,283.194,259.249,-0.00152799,-0.0018219,229.685,250.646
2016-10-15 01:00,0.0,289.779,287.76,262.89,289.968,286.907,261.779,0.0,0.0,229.852,252.244
2016-10-15 02:00,0.0,290.301,288.303,263.099,290.367,287.329,261.898,0.0,0.0,230.184,252.439
2016-10-15 03:00,0.00122613,289.247,286.55,261.944,288.358,285.065,260.098,0.0,0.0,229.935,251.652
2016-10-15 04:00,0.0,288.568,286.882,262.471,289.032,286.343,261.898,0.0,0.0,229.935,252.634
2016-10-15 05:00,0.00135385,288.977,287.102,262.576,289.3,286.485,261.54,0.0,0.0,230.348,252.731
2016-10-15 06:00,0.00159386,289.514,287.322,262.786,289.568,286.626,261.66,0.0,0.0,230.674,252.634
2016-10-15 07:00,-0.00209764,288.977,287.541,262.681,289.968,287.329,261.898,0.0,0.0,230.43,253.309
2016-10-15 08:00,0.0,289.91,288.303,262.995,290.5,287.748,262.847,0.0,0.0,230.835,253.405
2016-10-15 09:00,0.0,289.91,288.52,263.203,290.897,288.167,262.61,0.0,-0.0100834,230.593,253.595
2016-10-15 10:00,0.329617,291.065,288.087,262.786,290.632,287.888,262.728,0.456686,0.332768,230.835,253.69
2016-10-15 11:00,0.206767,291.931,287.869,262.995,290.632,288.027,262.373,0.274275,0.219181,230.916,253.785
2016-10-15 12:00,0.115945,293.24,288.195,262.89,290.897,288.306,262.61,0.161147,0.114845,230.835,253.595
2016-10-15 15:00,0.0105094,287.444,285.658,257.006,288.763,286.202,258.27,0.0519659,0.0256791,227.691,250.032
2016-10-15 16:00,0.0107036,287.444,285.546,256.32,288.087,285.635,257.9,0.0517233,0.0275301,227.78,249.928
2016-10-15 17:00,0.0058903,286.864,285.095,256.205,287.679,284.922,257.777,0.0582515,0.0303002,228.048,249.721
2016-10-15 18:00,0.0356575,288.291,284.755,255.742,286.86,284.492,257.9,0.105789,0.0605304,227.51,249.928
2016-10-15 19:00,0.616126,296.531,281.742,254.217,285.061,283.194,256.66,0.556163,0.536361,227.42,249.408
2016-10-15 20:00,0.266683,288.977,284.185,255.393,286.172,283.773,257.034,0.453827,0.318463,226.963,248.987
2016-10-15 21:00,1.68521,285.045,283.264,255.16,285.618,283.629,256.785,5.30273,6.06821,226.778,248.669
2016-10-15 22:00,-0.00473302,286.421,284.071,255.393,285.895,283.339,257.158,0.0,-0.00486942,227.055,248.348
2016-10-15 23:00,-0.00242166,277.869,278.101,252.412,281.51,280.108,255.658,0.0,-0.00249144,227.601,248.669
2016-10-16 00:00,0.0,280.982,279.458,253.14,281.943,279.81,255.909,0.0,0.0,227.78,248.775
2016-10-16 01:00,0.0,283.594,280.909,253.741,282.803,280.998,255.532,0.0,0.0,227.42,247.917
2016-10-16 02:00,0.0012116,278.075,277.35,252.29,279.907,278.609,255.406,0.0,-0.00124652,227.78,248.133
2016-10-16 03:00,0.00115327,283.428,281.029,254.217,283.797,281.146,256.035,0.0,0.0,227.329,247.151
2016-10-16 04:00,0.00117181,278.684,278.845,253.02,281.943,280.406,256.285,0.0,0.0,228.048,247.261
2016-10-16 05:00,0.00127366,276.594,276.591,252.29,280.054,278.458,255.027,0.0,0.0,227.055,246.258
2016-10-16 06:00,0.0,282.923,281.029,254.69,283.938,282.175,257.034,0.0,0.0,226.963,247.261
2016-10-16 07:00,-0.00197178,277.661,278.598,253.381,282.66,281.735,256.535,0.0,0.0,227.055,247.808
2016-10-16 08:00,0.0,281.165,280.669,253.741,283.656,282.175,256.66,0.0,0.0,226.592,247.917
2016-10-16 09:00,0.0,268.686,259.373,242.225,261.069,258.408,241.808,0.0,-0.00954997,224.156,238.165
2016-10-16 10:00,0.363415,274.787,263.245,244.21,263.04,260.045,244.372,0.558869,0.560832,224.76,240.185
2016-10-16 11:00,0.267954,289.514,282.799,254.572,285.061,282.613,256.785,0.349599,0.262228,227.238,247.371
2016-10-16 12:00,0.360315,291.44,280.066,253.381,283.372,281.882,256.909,0.376064,0.347264,227.87,247.808
2016-10-16 13:00,0.415621,288.291,278.598,252.29,282.517,281.146,256.41,0.411168,0.386324,228.136,247.808
2016-10-16 14:00,0.0376453,287.871,282.214,253.741,285.061,282.321,257.034,0.0877451,0.0516402,228.488,247.371
2016-10-16 15:00,0.0303164,287.155,283.956,254.926,286.722,283.629,256.41,0.0722864,0.0433948,227.87,247.261
2016-10-16 16:00,0.12623,287.444,281.386,253.381,284.079,281.146,255.406,0.149704,0.132631,226.685,245.918
2016-10-16 17:00,0.0798586,288.568,281.978,253.741,284.501,281.588,255.658,0.114342,0.0836814,226.963,246.032
2016-10-16 18:00,0.125471,289.514,281.267,252.777,283.088,279.661,254.392,0.159536,0.123555,226.311,246.371
2016-10-16 19:00,0.286547,292.771,283.495,254.217,285.757,282.904,255.784,0.302812,0.245671,226.311,246.707
2016-10-16 20:00,0.879514,293.356,281.267,253.14,283.372,279.959,254.519,0.695134,0.671187,225.835,245.69
2016-10-16 21:00,-13.7606,284.73,281.267,252.899,283.372,280.257,255.28,-5.9382,-12.4583,225.254,245.345
2016-10-16 22:00,-0.0046689,284.41,280.909,252.534,282.946,279.959,254.137,-0.00419751,-0.00480344,225.643,245.575
2016-10-16 23:00,-0.00240559,283.924,281.386,252.777,283.656,280.702,255.027,-0.00216272,-0.00247492,225.835,246.032
2016-10-17 00:00,0.0,285.045,284.414,254.808,287.543,285.208,257.653,0.0,0.0,226.311,247.59
2016-10-17 01:00,-0.00136359,286.271,285.77,255.393,289.434,287.329,258.147,0.0,0.0,227.601,248.348
2016-10-17 02:00,0.0,286.569,286.105,255.393,289.701,287.469,258.76,0.0,0.0,228.312,248.562
2016-10-17 03:00,0.0,286.717,286.772,255.858,290.367,288.306,259.127,0.0,0.0,230.593,249.617
2016-10-17 04:00,0.0,286.717,286.661,255.974,290.5,288.584,260.098,0.0,0.0,231.076,250.032
2016-10-17 05:00,0.0,287.01,286.55,255.974,290.367,288.306,259.614,0.0,0.0,231.156,250.442
2016-10-17 06:00,-0.00149567,286.271,285.882,255.858,289.166,286.907,258.638,0.0,0.00153877,231.787,250.646
2016-10-17 07:00,0.0,286.569,286.105,255.626,289.3,287.048,258.76,0.0,0.0,232.097,250.95
2016-10-17 08:00,0.0,286.271,285.658,255.51,288.897,286.202,259.005,0.0,-0.00323647,232.251,250.849
2016-10-17 09:00,0.0,286.121,285.433,255.393,288.358,285.777,258.023,0.0,0.0,232.251,251.051
2016-10-17 10:00,0.184642,286.421,284.3,254.808,287.134,284.492,257.53,0.594105,0.389924,232.481,251.152
2016-10-17 11:00,0.0723173,285.818,282.448,253.741,284.921,282.175,255.658,0.242332,0.152184,231.315,249.928
2016-10-17 12:00,0.0332692,286.864,285.095,255.16,288.222,285.635,257.53,0.140204,0.0812914,231.552,251.051
2016-10-17 13:00,0.0409941,286.717,279.091,255.51,279.466,275.551,252.464,0.0954516,0.0707011,228.488,246.929
2016-10-17 14:00,0.0148383,289.779,286.217,259.902,288.358,285.35,258.882,0.0565359,0.0329562,230.593,252.047
2016-10-17 15:00,0.0154316,289.647,285.658,259.464,287.407,284.205,258.76,0.0487001,0.0297419,231.315,252.342
2016-10-17 16:00,0.0085779,291.065,289.593,261.519,291.948,289.137,262.728,0.0375249,0.0202064,232.784,254.907
2016-10-17 17:00,0.0236301,290.171,285.994,259.464,287.679,285.065,259.127,0.0560213,0.0381697,230.674,252.537
2016-10-17 18:00,0.0229373,291.809,289.805,261.625,292.47,289.826,262.492,0.058263,0.0347349,233.159,255.275
2016-10-17 19:00,0.0779098,291.563,287.432,260.119,289.568,286.626,259.977,0.125108,0.0922157,231.865,253.021
2016-10-17 20:00,0.254877,293.587,289.699,261.731,292.6,289.964,262.965,0.295078,0.252062,233.308,254.443
2016-10-17 21:00,0.0,289.514,288.628,260.984,291.16,288.861,262.373,-0.564833,-0.673477,233.75,254.999
2016-10-17 22:00,0.0,0.0,286.55,259.683,288.763,286.202,260.219,0.0,0.0,231.865,252.439
2016-10-17 23:00,-0.0101406,290.685,288.843,261.305,291.423,288.861,262.136,-0.00643955,-0.00767819,233.53,253.88
2016-10-18 00:00,-0.0017812,290.041,288.628,261.091,291.029,288.445,261.898,0.0,-0.00179823,234.113,253.785
2016-10-18 01:00,0.0,288.568,287.541,260.337,290.101,287.329,261.779,0.0,0.0,235.038,253.974
2016-10-18 02:00,-0.00127849,287.444,285.658,259.683,288.222,285.777,261.779,0.0,0.0,234.329,254.256
2016-10-18 03:00,0.00121778,289.779,288.52,261.198,290.764,287.888,261.54,0.0,0.0,234.686,254.443
2016-10-18 04:00,0.0,289.113,286.992,260.228,289.434,286.626,261.54,0.0,0.0,234.401,254.722
2016-10-18 05:00,-0.00134533,277.026,277.35,254.69,280.785,280.257,259.005,0.0,0.0,233.896,254.722
2016-10-18 06:00,0.0,282.753,281.267,257.346,284.079,282.321,259.37,0.0,0.0,233.677,254.256
2016-10-18 07:00,-0.00207913,288.977,286.772,260.337,288.763,285.777,259.614,0.0,0.0,232.481,253.69
2016-10-18 08:00,-0.00332089,289.247,287.212,260.228,289.166,286.06,261.062,0.0,0.0,231.787,253.405
2016-10-18 09:00,-0.00956696,289.113,286.772,260.228,288.763,285.777,260.219,0.0,0.0,231.315,252.634
2016-10-18 10:00,0.125765,290.171,288.412,261.198,290.764,288.167,261.54,0.328329,0.211612,231.236,253.309
2016-10-18 11:00,0.0456031,290.813,289.058,261.731,291.686,288.999,262.728,0.157418,0.092078,231.63,253.309
2016-10-18 12:00,0.0598008,286.717,279.458,255.742,280.054,276.169,253.753,0.133147,0.0983848,228.662,248.562
2016-10-18 13:00,0.0205705,291.19,289.058,261.625,291.686,289.276,262.492,0.072571,0.0415343,232.633,254.256
2016-10-18 14:00,0.0327548,291.44,288.52,261.305,291.029,288.584,262.136,0.0693335,0.0450926,232.935,254.629
2016-10-18 15:00,0.023931,290.813,288.087,260.769,290.367,287.888,261.779,0.0536356,0.0326867,233.53,254.162
2016-10-18 16:00,0.0688792,285.045,275.436,253.501,275.703,271.765,250.896,0.0959849,0.0854734,229.935,249.408
2016-10-18 17:00,0.026896,291.19,288.412,261.305,290.897,288.167,261.301,0.0576017,0.0383338,231.943,254.162
2016-10-18 18:00,0.0691813,290.813,286.105,259.354,287.407,284.636,259.37,0.10088,0.077603,230.593,252.244
2016-10-18 19:00,0.435838,281.165,251.53,240.171,248.52,243.679,231.094,0.435494,0.489198,221.031,232.669
2016-10-18 20:00,0.907903,273.831,236.832,232.319,233.842,230.688,224.657,0.808944,0.996516,219.863,227.323
2016-10-18 21:00,0.0,278.279,265.846,247.597,264.095,259.864,241.229,-0.234146,-0.139592,225.058,241.475
2016-10-18 22:00,0.0,262.074,246.313,237.258,244.8,240.576,230.276,0.0,0.0,221.258,232.347
2016-10-18 23:00,-0.00503863,267.123,247.15,237.728,243.667,238.747,228.614,-0.0063993,-0.0050868,218.642,228.603
2016-10-19 00:00,-0.00177389,282.059,271.437,251.552,271.785,267.171,246.732,0.0,0.0,226.778,244.647
2016-10-19 01:00,0.0,287.3,283.495,258.691,284.921,281.441,257.282,0.0,0.0,229.601,249.928
2016-10-19 02:00,0.0,287.587,284.185,258.913,285.895,282.467,257.9,0.0,0.0,230.593,250.646
2016-10-19 03:00,0.0,285.818,280.308,256.664,280.785,276.631,253.881,0.0,0.0,229.178,248.133
2016-10-19 04:00,0.0,287.01,281.148,257.12,281.943,277.701,254.519,0.0,0.0,229.348,248.669
2016-10-19 05:00,0.0,287.155,282.682,258.469,283.656,280.108,256.16,0.0,0.0,229.093,249.408
2016-10-19 06:00,0.0,288.291,285.095,259.574,286.585,283.049,258.27,0.0,0.00159428,229.517,250.748
2016-10-19 07:00,0.0,285.202,280.429,256.892,280.639,276.477,254.009,0.0,0.0,227.42,247.261
2016-10-19 08:00,0.00330502,282.923,277.476,255.393,277.978,274.773,252.075,0.0,0.0,227.78,247.04
2016-10-19 09:00,0.0,286.717,280.789,257.12,281.076,277.091,253.753,0.0,0.0,227.959,248.241
2016-10-19 10:00,0.373184,286.271,277.098,255.043,277.075,272.724,250.369,0.505559,0.473631,226.685,246.258
2016-10-19 11:00,0.504775,287.871,276.208,254.454,277.226,274.147,252.335,0.531999,0.5096,227.601,247.59
2016-10-19 12:00,0.326989,291.931,275.565,254.336,276.315,272.883,251.422,0.333363,0.307658,226.311,246.483
2016-10-19 13:00,0.0929054,286.569,274.655,253.98,274.312,269.984,248.499,0.139845,0.114637,225.254,243.818
2016-10-19 14:00,0.055277,287.155,277.476,255.393,277.226,272.883,250.896,0.0961357,0.0769209,226.311,246.032
2016-10-19 15:00,0.0522666,289.247,281.267,257.572,281.799,277.701,254.137,0.0801357,0.062749,227.691,248.455
2016-10-19 16:00,0.0403304,289.514,282.916,258.246,283.938,280.257,255.784,0.069515,0.0508949,228.748,249.513
2016-10-19 17:00,0.198617,288.152,281.505,257.685,283.088,280.702,257.406,0.244853,0.239014,230.018,250.748
2016-10-19 18:00,0.175813,290.685,283.264,258.691,284.361,281.441,257.53,0.199571,0.181394,229.263,250.748
2016-10-19 19:00,0.147295,291.931,282.916,258.802,283.23,278.76,255.027,0.177833,0.154211,228.488,249.093
2016-10-19 20:00,0.407099,291.686,279.336,256.664,279.022,274.304,251.159,0.376438,0.400175,227.238,247.481
2016-10-19 21:00,-0.100839,281.526,271.299,251.552,269.515,264.795,245.628,-0.170761,-0.101803,223.329,241.093
2016-10-19 22:00,0.0,275.251,261.501,245.995,259.421,254.855,238.428,0.0,0.0,222.692,237.468
2016-10-19 23:00,-0.00751215,287.01,282.448,258.358,283.656,280.108,255.784,-0.00424035,-0.00505597,227.959,249.513
2016-10-20 00:00,0.0,288.43,284.071,259.464,285.479,282.028,257.9,0.0,-0.00178373,227.78,250.34
2016-10-20 01:00,0.0,287.3,284.642,259.793,285.895,283.339,258.882,0.0,0.0,229.178,251.051
2016-10-20 02:00,0.0,287.3,283.841,259.134,285.34,282.028,257.158,0.0,0.0,228.224,249.825
2016-10-20 03:00,0.0,288.841,286.992,261.091,288.897,285.919,260.34,0.0,0.0,228.4,251.652
2016-10-20 04:00,0.0,280.613,272.527,251.922,272.264,269.329,249.438,0.0,0.00124464,225.352,242.602
2016-10-20 05:00,0.0,281.705,273.199,252.29,272.582,268.173,247.279,0.0,0.0,225.352,243.818
2016-10-20 06:00,0.0,282.753,277.476,254.808,277.075,274.147,252.464,0.0,0.0,226.216,246.032
2016-10-20 07:00,0.0,279.081,268.916,249.924,267.69,264.967,246.732,0.0,0.0,225.449,240.053
2016-10-20 08:00,0.0,281.705,275.436,253.501,276.01,273.359,252.723,0.0,0.0,227.959,245.918
2016-10-20 09:00,0.0,278.482,271.984,251.18,271.945,269.657,250.236,0.0,0.0,227.601,245.23
2016-10-20 10:00,0.0976901,290.558,288.412,261.731,291.16,288.445,262.136,0.340047,0.219164,229.433,252.146
2016-10-20 11:00,0.0390783,290.813,288.52,261.944,291.029,288.027,261.301,0.16243,0.0896633,229.007,251.949
2016-10-20 12:00,0.0781985,291.065,286.882,261.091,289.166,286.343,260.822,0.139988,0.0969908,229.093,251.152
2016-10-20 13:00,0.0967047,290.939,285.095,260.011,286.585,283.049,257.9,0.147676,0.109833,228.136,250.238
2016-10-20 14:00,0.176904,289.91,281.624,258.58,282.803,279.511,255.784,0.206905,0.178595,227.87,249.303
2016-10-20 15:00,0.0326044,289.381,284.528,259.793,286.172,282.758,257.9,0.0708156,0.0486585,228.748,250.238
2016-10-20 16:00,0.15181,289.647,279.091,256.549,280.639,277.548,254.9,0.157917,0.148883,228.312,248.882
2016-10-20 17:00,0.0829812,289.647,281.505,257.91,282.087,278.156,254.137,0.108092,0.0902186,228.312,248.669
2016-10-20 18:00,0.291352,290.558,281.386,257.685,283.23,281.146,258.023,0.337139,0.335316,229.178,250.849
2016-10-20 19:00,0.250102,287.871,280.549,257.233,281.943,280.108,257.53,0.309497,0.307986,229.769,250.442
2016-10-20 20:00,0.168507,291.315,285.77,260.553,287.27,284.061,258.882,0.239325,0.203043,229.178,249.617
2016-10-20 21:00,-0.0796868,287.444,285.433,260.337,287.679,285.35,260.461,-0.0674707,-0.0804486,229.433,250.238
2016-10-20 22:00,0.0,289.647,288.303,261.944,290.5,288.167,261.779,0.0,0.0,230.511,251.352
2016-10-20 23:00,-0.0049787,289.91,288.087,262.049,290.367,287.748,261.779,-0.00421546,-0.0050263,230.184,251.352
2016-10-21 00:00,-0.00176003,290.301,288.628,262.366,290.897,288.027,262.492,0.0,0.0,230.101,251.652
2016-10-21 01:00,-0.00142899,286.864,284.3,259.683,286.997,284.492,260.581,0.0,0.0,229.093,250.032
2016-10-21 02:00,0.0,281.883,278.226,256.664,280.347,277.701,256.16,0.0,0.0012814,228.136,248.241
2016-10-21 03:00,0.0,275.707,265.696,248.512,263.745,259.864,243.099,0.0,0.0,224.46,239.789
2016-10-21 04:00,0.0,287.01,282.682,258.913,283.514,280.108,256.535,0.0,0.0,228.224,247.371
2016-10-21 05:00,0.0,288.977,287.212,261.838,289.434,286.485,260.822,0.0,0.0,228.575,249.198
2016-10-21 06:00,0.00157206,289.91,287.869,262.155,290.101,287.048,261.421,0.0,0.0,229.517,249.303
2016-10-21 07:00,-0.00206081,288.977,285.882,261.091,287.543,284.061,259.249,0.0,0.0,230.348,248.775
2016-10-21 08:00,0.0,289.381,286.55,261.198,288.222,284.636,259.614,0.0,0.0,231.156,249.093
2016-10-21 09:00,0.0,283.428,277.727,255.742,278.278,273.2,251.814,0.0,0.0,231.076,246.707
2016-10-21 10:00,0.608152,287.3,269.767,251.305,270.657,264.623,248.499,0.561732,0.602802,231.076,246.483
2016-10-21 11:00,0.196679,290.685,284.071,259.793,285.895,282.175,257.282,0.260388,0.22022,230.43,248.669
2016-10-21 12:00,0.168324,291.931,284.642,259.793,286.447,283.339,258.882,0.218531,0.178997,230.018,249.303
2016-10-21 13:00,0.318947,290.939,282.566,258.58,285.061,283.049,259.37,0.400675,0.391995,230.184,249.928
2016-10-21 14:00,0.112836,291.19,284.869,260.011,286.86,284.205,260.219,0.145218,0.124547,229.685,250.032
2016-10-21 15:00,0.128036,288.977,281.86,258.246,284.361,282.175,258.76,0.150566,0.126387,229.685,249.513
2016-10-21 16:00,0.0188669,290.558,287.102,261.412,289.166,285.777,259.735,0.0466949,0.0278383,229.852,249.303
2016-10-21 17:00,0.0576967,287.3,278.845,256.549,279.318,274.773,253.24,0.0895615,0.0744284,228.224,246.818
2016-10-21 18:00,0.0742032,291.315,286.992,261.305,289.166,285.777,260.461,0.105815,0.0808267,229.685,249.303
2016-10-21 19:00,0.257528,296.531,282.214,258.691,284.641,280.108,256.785,0.253218,0.246012,230.184,249.093
2016-10-21 20:00,0.0937692,289.779,286.439,261.091,288.493,285.208,259.492,0.163459,0.133646,229.093,248.455
2016-10-21 21:00,-0.0661032,287.444,284.185,259.464,286.585,282.613,258.023,-0.0559695,-0.0667351,228.488,247.808
2016-10-21 22:00,-0.00465631,268.073,256.819,243.509,256.598,253.122,242.814,0.0,0.0,227.42,241.98
2016-10-21 23:00,-0.00742562,279.278,268.773,250.177,269.186,263.412,245.628,-0.00419151,-0.00749661,226.122,242.23
2016-10-22 00:00,0.0,266.131,260.036,245.177,261.069,258.591,246.457,-0.00148466,0.0,227.238,244.412
2016-10-22 01:00,0.0,274.551,264.329,247.597,264.618,259.502,245.211,0.0,0.0,227.147,242.478
2016-10-22 02:00,0.0,282.923,280.429,257.572,281.943,278.911,257.034,0.0,0.0,228.748,247.917
2016-10-22 03:00,0.0,279.859,274.129,253.261,275.396,272.246,253.24,0.0,0.00121927,229.935,248.882
2016-10-22 04:00,0.0,286.121,280.789,257.572,282.374,279.211,257.034,0.0,0.0,229.852,248.987
2016-10-22 05:00,0.00133467,242.013,240.277,234.35,241.58,240.35,233.819,0.0,-0.00134742,226.778,235.887
2016-10-22 06:00,0.0,271.531,268.487,249.924,270.169,268.835,253.368,0.0,0.0,230.916,248.669
2016-10-22 07:00,-0.00205473,287.444,284.642,259.902,286.447,283.194,259.37,0.0,0.0,231.63,250.442
2016-10-22 08:00,0.0,286.569,284.982,260.011,286.585,283.773,259.856,0.0,0.0,232.175,250.95
2016-10-22 09:00,-0.00903024,288.977,286.55,261.198,288.493,285.208,259.977,0.0,0.0,232.02,251.252
2016-10-22 10:00,0.225435,290.171,286.882,260.984,288.628,285.35,260.219,0.410382,0.273108,231.709,251.452
2016-10-22 11:00,0.061202,290.429,287.102,260.876,288.897,285.493,260.581,0.164604,0.0981324,232.784,252.244
2016-10-22 12:00,0.047348,291.065,287.102,260.984,288.897,285.777,260.461,0.112632,0.0660103,233.603,253.5
2016-10-22 13:00,0.0817839,291.315,286.439,260.661,288.222,285.493,260.701,0.126706,0.103646,233.896,254.256
2016-10-22 14:00,0.0905924,290.171,286.217,260.445,288.087,285.065,260.219,0.138068,0.118896,234.113,254.349
2016-10-22 15:00,0.0442592,290.813,287.212,260.876,289.3,286.343,261.062,0.0761573,0.0533305,235.386,255.091
2016-10-22 16:00,0.0116547,290.301,288.628,261.091,290.897,288.027,261.54,0.0431724,0.0235322,235.108,255.639
2016-10-22 17:00,0.0724327,291.065,287.76,260.876,290.367,287.609,261.66,0.103577,0.0828751,235.038,255.639
2016-10-22 18:00,0.212015,296.114,279.823,256.434,282.946,279.959,258.515,0.199459,0.19026,234.897,255.639
2016-10-22 19:00,0.0669576,292.294,288.736,261.198,290.897,288.167,262.136,0.125197,0.0901303,235.593,256.628
2016-10-22 20:00,0.307831,292.294,288.736,261.198,291.16,288.722,262.136,0.331723,0.299473,236.874,257.942
2016-10-22 21:00,-0.0566522,289.381,288.951,260.984,291.292,288.999,262.255,-0.0479673,-0.0571938,237.721,258.882
2016-10-22 22:00,0.00460508,288.43,287.869,260.553,290.5,288.167,262.136,0.0,0.0,238.168,259.387
2016-10-22 23:00,-0.00246161,289.381,288.303,260.661,290.5,288.584,262.847,-0.00416848,-0.00497029,238.919,260.052
2016-10-23 00:00,-0.00174716,288.705,288.412,260.337,290.897,289.137,263.318,0.0,0.0,238.981,260.627
2016-10-23 01:00,0.0,290.558,290.756,261.944,293.119,291.193,263.905,0.0,0.0,239.714,261.914
2016-10-23 02:00,0.0,287.587,288.087,260.661,290.5,289.413,263.67,0.0,-0.0012757,239.349,261.595
2016-10-23 03:00,-0.00120539,289.247,289.593,261.412,292.079,290.511,263.67,0.0,0.0,239.532,261.355
2016-10-23 04:00,-0.00122591,290.429,290.756,261.838,293.248,291.6,263.905,0.0,0.0,239.714,261.435
2016-10-23 05:00,0.0,289.381,289.486,261.198,291.686,289.826,0.0,0.0,0.0,238.733,260.708
2016-10-23 06:00,0.0,290.429,290.017,261.625,292.34,290.375,264.022,0.0,0.0,238.671,260.463
2016-10-23 07:00,0.0,288.841,288.628,260.553,291.029,288.999,262.965,0.0,0.0,238.42,260.627
2016-10-23 08:00,0.0,289.91,289.165,260.876,291.423,289.413,262.373,0.0,0.0,239.166,260.789
2016-10-23 09:00,0.0,290.429,289.699,260.984,291.948,289.826,262.61,0.0,0.0,239.714,261.194
2016-10-23 10:00,0.896892,290.171,287.432,259.354,289.434,287.748,262.136,0.973586,0.940292,239.471,260.299
2016-10-23 11:00,0.0616253,290.939,289.272,260.228,291.292,288.861,262.255,0.17495,0.10613,240.548,260.789
2016-10-23 12:00,0.0928759,291.686,288.628,259.902,290.764,288.306,262.373,0.157276,0.114346,241.986,261.435
2016-10-23 13:00,0.108308,290.685,286.882,258.58,288.897,286.907,262.373,0.173054,0.153433,242.211,261.435
2016-10-23 14:00,0.131835,290.041,287.102,258.691,289.032,286.907,262.017,0.16038,0.149924,242.765,261.595
2016-10-23 15:00,0.0186274,290.301,288.52,259.574,290.234,288.167,262.255,0.0521682,0.0274849,243.31,262.309
2016-10-23 16:00,0.23691,285.357,280.909,255.626,283.656,282.904,260.461,0.309555,0.315947,243.526,262.309
2016-10-23 17:00,0.10346,284.73,282.916,256.434,284.501,283.484,260.581,0.206681,0.205635,244.322,261.435
2016-10-23 18:00,0.260503,290.171,282.448,256.434,284.641,283.484,260.461,0.272367,0.274948,244.531,262.151
2016-10-23 19:00,0.0534034,291.315,288.412,259.683,290.367,288.027,261.66,0.116611,0.0822896,244.79,261.515
2016-10-23 20:00,0.306659,291.315,287.76,259.354,289.835,287.469,261.421,0.403897,0.349723,245.099,261.355
2016-10-23 21:00,-0.0497046,287.155,286.661,258.246,288.493,286.485,261.779,-0.0420848,-0.10036,244.531,260.789
2016-10-23 22:00,0.0,289.91,288.52,259.464,290.367,287.888,262.492,0.0,0.0,245.202,261.355
2016-10-23 23:00,-0.0048971,290.429,288.843,259.683,290.632,288.306,261.779,-0.00414637,-0.00494391,245.456,261.595
2016-10-24 00:00,-0.00174108,289.779,288.52,259.683,290.367,287.888,262.017,0.0,-0.00175772,245.557,261.515
2016-10-24 01:00,0.0,289.91,288.628,260.011,290.5,288.027,261.779,0.0,0.0,245.507,261.355
2016-10-24 02:00,0.0,288.977,287.978,259.354,289.968,287.609,261.898,0.0,0.0,245.202,261.113
2016-10-24 03:00,0.0,289.779,288.412,259.793,290.101,287.609,261.421,0.0,0.0,245.202,260.952
2016-10-24 04:00,0.0,289.514,288.412,260.119,290.367,287.748,261.66,0.0,0.00123541,245.253,261.033
2016-10-24 05:00,0.0,283.924,280.789,255.277,283.656,281.146,258.392,0.0,0.0,245.048,259.887
2016-10-24 06:00,0.0,290.301,289.272,260.337,291.686,289.276,262.728,0.0,0.0,244.739,260.135
2016-10-24 07:00,0.0,290.301,289.699,260.876,292.209,290.101,262.728,0.0,0.0,244.997,260.545
2016-10-24 08:00,-0.00322547,290.171,289.699,260.445,292.34,289.964,262.965,0.0,0.0,245.048,260.708
2016-10-24 09:00,0.0087726,290.171,289.699,260.661,292.47,290.375,262.492,0.0,0.0,244.111,260.381
2016-10-24 10:00,0.129128,290.301,289.165,260.228,291.948,289.413,262.492,0.367755,0.248874,242.875,259.471
2016-10-24 11:00,0.0876166,291.065,289.058,260.119,291.555,289.276,262.373,0.182371,0.121625,241.76,259.22
2016-10-24 12:00,0.0978735,292.053,288.412,259.683,290.632,288.027,261.54,0.152248,0.112596,242.266,259.051
2016-10-24 13:00,0.0175385,290.171,287.978,259.354,289.968,287.048,261.301,0.0772189,0.0407241,240.724,258.2
2016-10-24 14:00,0.101901,289.91,286.772,258.58,288.897,286.626,261.301,0.144228,0.127442,241.419,258.028
2016-10-24 15:00,0.0172571,290.429,288.628,259.464,290.897,288.584,261.301,0.0547934,0.0319405,241.533,258.457
2016-10-24 16:00,0.0220204,290.558,288.736,259.464,291.029,288.584,261.779,0.0559338,0.0340873,241.189,258.457
2016-10-24 17:00,0.0519535,291.563,288.303,259.244,290.5,288.167,261.421,0.0824793,0.0606455,241.93,258.628
2016-10-24 18:00,0.0515818,291.315,288.303,259.354,290.367,287.609,261.421,0.0974271,0.0721037,241.361,258.2
2016-10-24 19:00,0.195374,293.24,288.303,259.244,290.101,287.469,260.822,0.230153,0.194383,243.202,259.471
2016-10-24 20:00,0.380268,293.124,288.736,259.683,290.897,288.445,262.017,0.390269,0.366453,243.686,259.638
2016-10-24 21:00,0.0,289.91,288.52,259.464,290.897,288.306,261.421,-0.0375836,-0.0896254,243.093,258.882
2016-10-24 22:00,0.0,289.779,288.303,259.134,290.5,287.609,261.301,0.0,0.0,241.533,258.028
2016-10-24 23:00,-0.00487203,288.152,286.882,258.58,289.3,286.767,260.701,-0.00412514,-0.00491861,241.59,258.028
2016-10-25 00:00,-0.00173523,289.247,287.978,258.913,290.101,287.469,260.942,0.0,0.0,242.544,258.628
2016-10-25 01:00,0.0,289.647,287.978,258.913,289.701,287.048,260.581,0.0,0.0,243.418,258.628
2016-10-25 02:00,0.0,289.514,288.195,259.134,289.968,287.329,260.942,0.0,0.0,244.374,259.051
2016-10-25 03:00,0.0,289.247,287.978,259.464,289.968,287.329,261.301,0.0,0.0,242.655,258.713
2016-10-25 04:00,0.00122156,289.647,288.087,259.574,290.101,287.469,261.779,0.0,0.0,242.266,258.286
2016-10-25 05:00,0.0,288.568,287.322,258.913,289.835,287.329,261.421,0.0,0.0,242.211,258.114
2016-10-25 06:00,0.0,287.155,285.77,258.246,287.543,285.35,260.701,0.0,0.0,241.817,257.769
2016-10-25 07:00,0.0,290.041,288.52,259.793,290.367,287.748,261.898,0.0,0.0,241.073,257.333
2016-10-25 08:00,-0.00320953,289.647,288.087,259.902,290.101,287.188,261.182,0.0,0.0,239.166,255.183
2016-10-25 10:00,0.0719622,290.041,288.087,259.902,289.968,286.907,260.822,0.365581,0.230059,239.166,254.068
2016-10-25 11:00,0.0625117,290.558,287.869,259.902,289.968,286.626,260.942,0.183693,0.111369,238.857,253.974
2016-10-25 12:00,0.0503195,291.315,287.541,259.793,289.3,286.202,260.461,0.122007,0.0762008,237.977,253.213
2016-10-25 13:00,0.0140874,290.301,287.541,259.793,289.434,286.06,260.581,0.0715668,0.037333,236.274,252.634
2016-10-25 14:00,0.0106859,290.171,287.651,260.228,289.434,286.06,260.581,0.0542864,0.0292818,236.542,252.828
2016-10-25 15:00,0.0173204,290.429,287.322,260.228,289.434,286.06,260.098,0.0488838,0.0276861,234.401,252.342
2016-10-25 16:00,0.0103157,290.171,287.212,260.337,289.032,285.777,259.856,0.0424238,0.0223164,233.677,251.751
2016-10-25 17:00,0.0701134,291.686,286.55,260.011,288.763,285.777,260.098,0.0897376,0.0707836,231.315,250.646
2016-10-25 18:00,0.173506,289.514,280.308,256.434,281.221,278.004,254.9,0.195876,0.179191,228.488,247.151
2016-10-25 19:00,0.290933,285.045,278.226,255.393,280.201,278.004,256.66,0.463685,0.466488,230.018,250.032
2016-10-25 20:00,0.619579,283.261,270.885,250.555,270.495,267.004,249.305,0.643373,0.761224,227.87,244.175
2016-10-25 21:00,-0.0401945,283.924,280.066,256.434,281.799,278.911,256.785,-0.0340326,-0.0811575,229.263,248.669
2016-10-25 22:00,-0.00446545,289.647,287.102,260.984,289.032,285.635,259.977,0.0,0.0,230.101,249.408
2016-10-25 23:00,-0.00484799,280.05,278.968,256.434,281.076,279.211,257.406,-0.00410479,-0.00489434,230.835,249.303
2016-10-26 00:00,0.0,288.012,284.642,259.902,286.585,282.758,259.005,0.0,0.0,230.511,248.882
2016-10-26 01:00,0.0,287.729,283.264,258.691,284.641,280.998,258.147,0.0,0.0,230.43,249.093
2016-10-26 02:00,0.0,273.338,270.746,250.681,272.899,271.283,254.519,0.0,0.0,231.076,249.303
2016-10-26 03:00,0.0,275.02,268.916,250.303,270.332,267.506,251.814,0.0,0.0,231.865,248.775
2016-10-26 04:00,0.0,263.255,259.373,244.488,261.431,260.225,248.094,0.0,0.0,231.787,247.371
2016-10-26 05:00,0.0,268.073,261.501,245.859,263.393,261.831,248.499,0.0,0.0,231.787,247.59
2016-10-26 06:00,0.0,285.818,281.86,258.134,283.938,279.81,257.282,0.0,0.0,231.865,249.721
2016-10-26 07:00,0.00203055,285.818,282.214,258.469,284.22,280.998,258.76,0.0,0.0,231.865,250.442
2016-10-26 08:00,-0.00319358,284.087,280.308,257.459,282.231,278.911,257.406,0.0,0.0,232.251,250.34
2016-10-26 09:00,0.0,280.613,276.208,254.572,278.427,275.861,256.035,0.0,0.0,231.63,250.032
2016-10-26 10:00,0.294338,289.514,285.994,260.553,287.815,284.636,260.098,0.477664,0.359059,231.709,250.135
2016-10-26 11:00,0.570482,285.818,278.101,255.16,280.054,278.307,257.53,0.777861,0.826505,232.097,250.544
2016-10-26 13:00,0.346557,287.444,279.336,256.778,281.799,279.81,257.777,0.664706,0.605131,231.709,250.032
2016-10-26 14:00,0.280407,287.01,280.669,257.346,282.517,280.257,258.27,0.345103,0.331043,231.63,250.646
2016-10-26 15:00,0.0564989,288.43,281.624,257.685,283.088,280.108,258.023,0.0944485,0.0716644,231.63,250.135
2016-10-26 16:00,0.315103,283.594,274.392,253.98,277.377,276.015,256.66,0.378276,0.373375,230.835,249.721
2016-10-26 17:00,0.291484,288.841,275.306,254.099,278.128,276.631,257.282,0.287008,0.281045,230.755,249.513
2016-10-26 18:00,0.0641507,290.939,284.869,259.793,285.895,282.175,258.638,0.0967508,0.0708355,230.916,249.721
2016-10-26 19:00,0.413716,292.053,280.549,257.459,282.946,280.406,258.147,0.377051,0.365462,230.266,249.198
2016-10-26 20:00,0.385395,286.121,281.86,258.134,283.938,280.998,258.147,0.436758,0.401051,229.433,248.882
2016-10-26 21:00,0.0,287.155,284.642,259.574,286.447,283.773,259.37,-0.0311636,-0.0371579,229.348,249.303
2016-10-26 22:00,-0.00442329,287.3,284.642,259.793,286.31,283.484,259.614,0.0,0.0,230.018,249.513
2016-10-26 23:00,-0.00482497,288.43,285.433,260.337,287.27,284.061,260.098,-0.00408529,-0.00487109,230.348,249.928
2016-10-27 00:00,0.00172424,287.3,284.528,259.793,286.722,283.773,260.461,0.0,0.0,231.473,250.238
2016-10-27 01:00,-0.00140724,288.841,286.439,261.198,288.628,285.493,260.701,0.0,0.0,231.552,250.646
2016-10-27 02:00,0.0,290.171,288.303,262.155,290.632,287.469,261.301,0.0,0.0,232.481,251.152
2016-10-27 03:00,-0.00119678,289.779,287.978,262.155,290.234,287.048,261.421,0.0,0.0,232.709,251.452
2016-10-27 04:00,0.0,288.977,287.541,261.731,289.701,286.767,261.421,0.0,0.0,233.382,251.652
2016-10-27 05:00,0.0,289.247,287.651,261.838,290.101,287.048,261.66,0.0,0.0,233.382,251.949
2016-10-27 06:00,-0.00155149,289.91,288.195,261.944,290.234,287.329,261.54,0.0,0.0,233.01,251.949
2016-10-27 07:00,0.0,290.041,287.978,261.838,289.968,286.907,261.54,0.0,0.0,233.677,252.342
2016-10-27 08:00,0.0,289.91,287.432,261.412,289.434,286.485,261.062,0.0,0.0,233.382,252.537
2016-10-27 09:00,0.00839988,289.247,286.992,260.876,288.897,286.06,260.942,0.0,0.0,233.603,252.439
2016-10-27 10:00,0.138066,290.171,287.541,261.412,289.3,286.202,261.301,0.403837,0.278771,234.041,252.439
2016-10-27 11:00,0.231417,290.301,285.208,259.683,287.407,284.636,260.34,0.306551,0.263774,234.543,252.828
2016-10-27 12:00,0.254132,290.041,284.982,259.902,287.134,284.492,260.581,0.369706,0.335862,235.317,252.925
2016-10-27 13:00,0.239692,286.717,281.505,257.91,283.797,282.467,259.977,0.344258,0.333399,235.799,253.117
2016-10-27 14:00,0.0584472,290.429,285.77,260.337,287.407,284.492,260.822,0.0937652,0.0714283,235.247,252.925
2016-10-27 15:00,0.0596166,289.91,286.217,260.876,288.087,285.208,260.701,0.104648,0.0851419,234.897,252.634
2016-10-27 16:00,0.147022,286.421,283.148,259.244,285.479,283.773,260.34,0.217531,0.197903,235.317,252.634
2016-10-27 17:00,0.126632,289.247,284.642,260.119,286.997,284.492,260.701,0.175449,0.141125,234.185,252.439
2016-10-27 18:00,0.336518,288.291,281.148,257.91,283.514,282.321,260.098,0.380474,0.386525,234.615,252.828
2016-10-27 19:00,0.109961,292.889,288.52,262.366,291.029,288.027,261.898,0.154356,0.119776,234.968,253.021
2016-10-27 20:00,0.432988,291.809,285.321,260.769,287.543,285.35,260.942,0.42262,0.418914,234.827,252.731
2016-10-27 21:00,0.0,288.977,287.541,261.944,289.968,287.469,262.136,-0.0288007,0.0,234.686,252.537
2016-10-27 22:00,0.0,287.3,286.439,261.198,288.763,286.343,261.182,0.0,0.0,233.896,252.828
2016-10-27 23:00,-0.00240147,289.514,286.992,261.731,289.166,286.343,261.421,-0.00203332,-0.00484885,233.968,253.021
2016-10-28 00:00,0.0,290.041,287.978,261.731,289.968,286.907,261.54,0.0,0.0,233.823,252.828
2016-10-28 01:00,0.0,289.514,287.212,261.625,289.032,286.343,261.66,0.0,0.0,233.456,252.634
2016-10-28 02:00,-0.00125115,287.3,284.755,260.119,286.997,284.492,260.098,0.0,0.0,233.234,252.828
2016-10-28 03:00,0.00119479,282.234,281.148,258.022,283.797,282.175,259.856,0.0,0.0,233.603,252.925
2016-10-28 04:00,0.0,288.012,286.55,261.091,288.222,285.777,261.182,0.0,0.0,233.456,252.925
2016-10-28 05:00,0.0,278.279,278.968,256.664,281.221,280.257,258.638,0.0,0.0,233.159,252.634
2016-10-28 06:00,0.0,272.061,271.848,252.29,273.843,273.359,254.392,0.0,0.0,231.394,251.051
2016-10-28 07:00,0.0,278.075,276.971,255.043,279.466,277.853,257.406,0.0,0.0,235.178,252.634
2016-10-28 08:00,0.0,278.075,277.224,255.393,279.613,278.609,257.9,0.0,0.0,233.75,252.342
2016-10-28 09:00,0.0,287.871,285.208,260.119,286.722,283.917,260.219,0.0,0.0,232.784,252.244
2016-10-28 10:00,0.36,289.91,286.55,260.876,287.951,284.922,260.34,0.500761,0.376421,232.405,252.244
2016-10-28 11:00,0.342293,291.931,285.658,260.553,287.951,285.35,261.062,0.369439,0.326578,233.085,252.731
2016-10-28 12:00,0.222931,293.816,286.217,261.198,288.493,286.343,261.301,0.237911,0.206307,233.603,253.021
2016-10-28 13:00,0.00891486,290.429,288.628,262.681,290.764,288.167,261.062,0.0664241,0.0342003,232.935,252.439
2016-10-28 14:00,0.0231595,291.065,288.195,262.366,290.632,287.888,262.017,0.0601346,0.0358507,233.382,252.731
2016-10-28 15:00,0.00875691,290.558,288.951,262.471,291.686,288.861,262.728,0.0407795,0.0206281,233.234,252.925
2016-10-28 16:00,0.0402518,291.931,288.951,262.576,291.948,289.689,262.847,0.0593264,0.0436467,234.329,253.405
2016-10-28 17:00,0.039638,291.931,289.699,262.786,292.86,290.511,262.965,0.0657245,0.0466865,234.113,253.405
2016-10-28 18:00,0.0405083,292.534,290.017,262.995,293.377,291.057,263.67,0.0737413,0.0490746,234.686,253.5
2016-10-28 19:00,0.171943,293.356,289.272,262.681,292.34,290.238,263.2,0.202337,0.173587,235.455,254.162
2016-10-28 20:00,0.207356,292.174,289.911,263.099,292.989,290.784,263.318,0.268515,0.227809,234.543,253.595
2016-10-28 21:00,0.0,287.871,287.322,261.519,290.101,288.306,262.136,0.0,0.0,234.257,253.785
2016-10-28 22:00,0.0,289.91,289.379,262.261,292.079,290.101,263.2,0.0,0.0,233.382,253.309
2016-10-28 23:00,-0.00478188,286.717,285.994,260.553,288.897,287.188,262.017,-0.00404881,-0.00482759,232.784,253.309
2016-10-29 00:00,0.0,284.087,284.185,259.902,287.27,286.06,261.54,0.0,0.0,232.709,252.828
2016-10-29 01:00,0.0,285.357,285.095,260.661,287.951,286.485,261.301,0.0,0.0,232.405,252.146
2016-10-29 02:00,-0.00124893,287.155,286.55,261.519,289.434,287.329,262.373,0.0,0.0,233.896,253.69
2016-10-29 03:00,0.0,287.444,287.102,262.155,289.968,288.027,262.492,0.0,0.0,234.185,253.595
2016-10-29 04:00,0.0,289.647,289.165,263.411,292.209,289.826,262.728,0.0,0.0,233.308,253.595
2016-10-29 05:00,0.0,290.558,289.805,263.721,292.86,290.648,263.2,0.0,0.0,233.01,253.69
2016-10-29 06:00,0.00154486,290.301,289.805,263.928,292.989,290.784,263.436,0.0,0.0,233.382,253.88
2016-10-29 07:00,0.0,290.171,289.805,263.721,292.86,290.784,262.965,0.0,0.0,233.53,253.595
2016-10-29 08:00,0.00314573,290.558,290.229,264.031,293.248,291.057,263.436,0.0,0.0,232.709,253.5
2016-10-29 09:00,0.0,290.558,290.017,263.825,292.989,290.784,263.553,0.0,0.0,231.865,253.69
2016-10-29 10:00,0.131828,290.813,289.911,263.721,292.6,290.375,263.905,0.435312,0.279485,230.266,253.309
2016-10-29 11:00,0.21231,280.982,268.343,250.806,268.191,264.623,245.767,0.317794,0.294716,225.546,242.725
2016-10-29 12:00,0.109716,292.174,286.55,261.625,288.628,285.35,260.34,0.16405,0.127261,228.4,251.152
2016-10-29 13:00,0.046555,289.91,285.095,261.198,287.134,283.484,258.515,0.103093,0.0705001,228.835,250.032
2016-10-29 14:00,0.0170491,289.647,285.77,261.305,287.679,284.636,258.76,0.0629911,0.0391184,228.048,249.721
2016-10-29 15:00,0.0498083,289.91,287.102,262.155,289.166,287.048,260.822,0.0781433,0.063595,228.662,250.238
2016-10-29 16:00,0.0164622,289.779,286.55,261.625,288.897,285.635,259.492,0.0481512,0.0317283,228.224,249.825
2016-10-29 17:00,0.0149274,290.685,289.058,263.618,291.948,289.413,261.54,0.0491517,0.0284657,229.517,250.135
2016-10-29 18:00,0.124178,290.171,287.432,262.786,290.632,288.027,261.66,0.163745,0.143862,229.433,249.617
2016-10-29 19:00,0.425543,300.408,275.951,255.626,276.772,269.494,249.171,0.372731,0.41776,228.312,245.114
2016-10-29 20:00,0.333933,276.811,263.556,248.512,262.863,259.139,244.932,0.345572,0.393313,226.405,241.093
2016-10-29 21:00,0.0,252.585,239.799,234.681,237.702,234.461,228.446,0.0,0.0,221.708,229.137
2016-10-29 22:00,0.00430885,283.428,276.208,255.043,276.163,272.724,250.501,0.0,0.0,226.311,242.971
2016-10-29 23:00,-0.00238089,285.045,278.226,256.892,278.873,274.147,250.896,-0.0040318,-0.00480731,227.238,244.647
2016-10-30 00:00,0.0,289.247,287.869,262.786,290.234,287.748,261.062,0.0,0.0,229.093,249.093
2016-10-30 01:00,0.0,290.301,288.843,263.203,291.555,288.584,262.136,0.0,0.0,230.348,249.928
2016-10-30 02:00,-0.0012468,290.429,288.736,263.099,291.423,288.445,262.017,0.0,0.0,230.916,250.646
2016-10-30 03:00,0.0,287.444,284.982,261.091,287.815,285.493,261.062,0.0,0.0,231.076,250.849
2016-10-30 04:00,0.00121163,284.087,276.336,255.626,275.857,270.96,248.229,0.0,0.0,227.42,244.647
2016-10-30 05:00,0.0,285.512,278.474,257.459,279.76,273.517,250.765,0.0,0.0,229.935,248.348
2016-10-30 06:00,-0.00154158,251.282,232.839,231.45,228.293,224.19,220.86,0.0,0.0,216.424,222.743
2016-10-30 07:00,0.0,251.282,226.261,228.004,222.162,218.547,215.274,0.0,0.0,213.541,218.653
2016-10-30 08:00,0.0,256.589,237.086,232.834,233.31,228.324,222.147,0.0,0.0,217.096,223.999
2016-10-30 09:00,0.0,225.382,218.082,223.899,217.072,215.683,214.671,0.0,0.0,213.995,215.6
2016-10-30 10:00,0.64945,250.598,220.006,225.107,217.072,215.356,214.265,0.80192,0.956168,213.388,216.131
2016-10-30 11:00,0.347793,276.376,255.941,243.509,251.447,246.876,233.185,0.430387,0.439861,218.517,230.183
2016-10-30 12:00,0.31682,258.576,229.97,229.118,228.001,225.874,221.965,0.45702,0.495173,218.264,223.586
2016-10-30 13:00,0.262553,267.123,236.318,234.017,235.414,231.203,224.657,0.354772,0.373993,220.454,227.509
2016-10-30 14:00,0.28007,252.585,224.616,227.438,223.758,221.875,220.115,0.486126,0.530937,216.963,220.763
2016-10-30 15:00,0.249977,256.062,227.533,229.118,226.522,224.474,221.415,0.483072,0.528486,218.767,223.999
2016-10-30 16:00,0.374082,259.045,213.921,222.868,212.609,211.284,212.827,0.586404,0.655214,211.303,213.382
2016-10-30 17:00,0.348111,276.594,239.317,234.183,238.938,235.677,229.781,0.43013,0.467464,225.352,233.304
2016-10-30 18:00,0.317123,294.38,265.696,249.669,265.654,258.591,243.241,0.313547,0.326351,228.662,243.093
2016-10-30 19:00,0.673769,281.705,239.559,234.845,237.451,233.722,226.402,0.615517,0.701094,222.585,231.53
2016-10-30 20:00,1.02817,275.02,236.832,233.681,236.441,234.461,229.615,0.875859,1.08231,222.476,231.53
2016-10-30 21:00,0.0,239.711,236.06,233.175,236.441,235.193,230.604,0.0,0.0,222.906,232.022
2016-10-30 22:00,-0.00427448,242.013,237.086,233.681,237.702,236.157,230.111,0.0,0.0,223.952,232.347
2016-10-30 23:00,-0.00474263,252.585,248.38,239.267,248.093,247.085,239.47,-0.00200779,-0.00478797,227.147,239.255
2016-10-31 00:00,-0.00170497,268.986,259.871,245.859,259.606,257.301,244.231,0.0,0.0,226.592,241.602
2016-10-31 01:00,0.0,256.062,251.721,241.207,251.652,249.753,240.646,0.0,0.0,226.871,239.656
2016-10-31 02:00,-0.00124476,247.601,242.597,235.499,241.344,239.895,234.447,0.0,0.0,223.746,233.461
2016-10-31 03:00,0.0,233.989,230.85,230.921,230.294,229.121,225.709,0.0,0.0,221.145,227.323
2016-10-31 04:00,0.0,264.009,255.05,243.226,253.469,251.947,240.646,0.0,0.0,222.692,234.694
2016-10-31 05:00,-0.0013132,250.598,242.597,235.985,240.87,239.438,232.867,0.0,0.0,223.434,232.829
2016-10-31 06:00,0.0,222.276,219.628,224.305,219.508,218.235,217.639,0.0,0.0,217.096,218.653
2016-10-31 07:00,0.0,256.062,250.175,240.469,249.579,246.876,237.827,0.0,0.0,225.156,238.303
2016-10-31 08:00,0.0,230.231,222.904,226.092,222.162,220.384,218.792,0.0,0.0,216.56,220.306
2016-10-31 09:00,-0.00792918,259.505,242.142,235.662,239.669,235.193,226.918,0.0,0.0,219.382,229.664
2016-10-31 10:00,0.611659,246.775,216.058,222.868,213.763,212.329,211.358,0.753296,0.898192,212.448,213.092
2016-10-31 11:00,0.435439,251.944,212.578,221.386,211.028,210.576,211.146,0.626438,0.70803,210.624,212.207
2016-10-31 12:00,0.365724,250.598,217.285,223.694,216.715,216.331,214.872,0.623312,0.693182,214.145,216.392
2016-10-31 13:00,0.303435,254.966,224.279,226.674,223.125,221.283,219.739,0.616298,0.678315,218.264,222.313
2016-10-31 14:00,0.340524,253.81,216.471,223.694,215.993,214.697,215.474,0.0,0.635518,214.441,215.867
2016-10-31 15:00,0.309959,253.206,222.904,226.287,222.162,221.283,218.982,0.547378,0.609453,218.137,221.213
2016-10-31 16:00,0.307657,254.396,229.072,229.118,228.293,227.246,223.77,0.563124,0.622719,220.686,226.187
2016-10-31 17:00,0.369643,259.505,217.285,223.694,216.355,214.364,215.074,0.70101,0.783502,213.541,216.131
2016-10-31 18:00,0.452351,270.434,223.597,226.866,221.838,219.472,217.445,0.644144,0.722377,216.695,220.075
2016-10-31 19:00,0.669447,275.02,218.082,224.305,215.993,213.356,213.653,0.78599,0.91014,214.293,216.131
2016-10-31 20:00,0.807052,273.831,216.471,223.899,214.517,213.016,212.202,0.710233,0.885338,213.078,215.061
2016-10-31 21:00,0.0,227.984,215.218,223.076,213.763,210.576,211.358,0.0,0.0,212.287,213.668
2016-10-31 22:00,0.0,230.231,216.471,223.489,213.763,210.931,211.358,0.0,0.0,210.624,213.382
2016-10-31 23:00,-0.0023622,233.989,220.006,224.908,219.508,217.922,217.445,-0.00200007,-0.00476956,216.012,218.165
