# timestamp,IR_016,IR_039,IR_087,IR_097,IR_108,IR_120,IR_134,VIS006,VIS008,WV_062,WV_073
2015-05-01 00:00,-0.0723875,286.121,287.322,262.786,289.835,288.999,263.787,-0.0183871,-0.0401937,245.405,262.779
2015-05-01 01:00,-0.00145555,285.665,286.772,262.366,289.3,288.861,264.488,-0.0,-0.0,245.405,262.935
2015-05-01 02:00,-0.0,284.41,285.77,261.944,289.032,288.861,264.255,-0.0,-0.00129517,245.202,262.151
2015-05-01 03:00,-0.0,284.57,285.321,261.731,288.628,288.306,263.67,-0.0,-0.0,244.842,262.072
2015-05-01 04:00,-0.0,283.76,284.528,261.412,288.087,287.888,263.553,-0.0,-0.0,244.111,261.435
2015-05-01 05:00,-0.00131813,283.594,284.528,261.519,287.815,287.609,263.553,-0.0,-0.0,243.846,261.355
2015-05-01 06:00,-0.0,283.76,284.642,261.519,287.951,287.609,263.553,-0.0,-0.0,243.418,261.755
2015-05-01 07:00,-0.0,283.594,284.528,261.091,287.679,287.188,263.318,-0.0,-0.0,242.929,261.435
2015-05-01 08:00,-0.00298258,282.581,284.3,260.769,287.27,287.048,263.318,-0.0,-0.0,242.71,261.355
2015-05-01 09:00,-0.00698861,282.581,284.071,260.661,287.134,286.907,263.318,-0.0,-0.0,242.489,261.033
2015-05-01 10:00,0.352219,283.093,284.528,260.445,287.407,287.188,263.2,0.345311,0.486591,242.875,261.355
2015-05-01 11:00,0.400185,287.871,287.541,262.681,290.234,289.137,264.255,0.213083,0.495642,242.71,261.595
2015-05-01 12:00,0.373722,292.534,290.44,264.543,292.86,291.329,264.605,0.165454,0.438944,243.202,262.072
2015-05-01 13:00,0.31274,295.902,292.725,266.259,295.17,293.082,265.069,0.129283,0.356589,243.31,262.072
2015-05-01 14:00,0.26266,298.339,294.646,267.348,297.184,294.812,265.993,0.102541,0.293753,243.364,262.23
2015-05-01 15:00,0.229489,299.672,296.131,268.711,298.672,296.127,266.108,0.0859439,0.25396,243.686,262.23
2015-05-01 16:00,0.20818,299.858,296.425,268.904,298.672,295.734,266.566,0.0768015,0.235691,243.793,263.012
2015-05-01 17:00,0.213192,299.203,295.738,268.033,297.931,295.339,265.993,0.0895657,0.238232,243.31,262.935
2015-05-01 18:00,0.215833,297.947,295.244,267.935,297.434,295.076,265.762,0.0913726,0.251571,243.793,262.935
2015-05-01 19:00,0.232754,295.69,294.145,267.249,296.559,294.679,265.878,0.122881,0.290269,243.364,262.545
2015-05-01 20:00,0.282824,293.007,292.005,265.758,294.788,293.082,265.185,0.226163,0.375417,243.364,262.545
2015-05-01 21:00,-4.79091,288.152,289.058,263.825,291.948,291.193,264.837,-5.40861,-8.06119,243.093,262.388
2015-05-01 22:00,-0.0100877,286.864,288.195,263.307,291.16,290.648,264.953,-0.0,-0.0,243.147,262.857
2015-05-01 23:00,-0.095688,285.97,287.869,262.89,290.764,290.511,265.069,-0.0306558,-0.067883,243.256,263.244
2015-05-02 00:00,-0.0668645,285.512,287.322,262.681,290.367,290.101,265.069,-0.0198914,-0.0419618,242.875,263.476
2015-05-02 01:00,-0.00145464,284.888,286.772,262.261,289.701,289.689,264.605,-0.0,-0.0,241.874,263.167
2015-05-02 02:00,-0.00128266,284.087,286.217,262.155,289.166,289.137,265.301,-0.0,-0.0,241.533,262.857
2015-05-02 03:00,-0.00121417,283.76,285.433,261.838,288.628,288.861,264.022,-0.0,-0.0,241.073,262.23
2015-05-02 04:00,-0.0,283.428,285.208,261.412,288.493,288.584,264.488,-0.0,-0.0,240.43,262.072
2015-05-02 05:00,-0.0,283.093,285.095,261.198,287.951,287.888,264.255,-0.0,-0.0,241.76,262.309
2015-05-02 06:00,-0.0,282.923,284.642,260.661,287.679,287.888,263.905,-0.0,-0.0,241.533,262.072
2015-05-02 07:00,0.00196192,282.581,284.414,261.091,287.407,287.469,263.67,-0.0,-0.0,241.189,262.388
2015-05-02 08:00,-0.00297837,282.408,284.414,260.876,287.27,287.329,264.022,-0.0,-0.0,241.704,262.466
2015-05-02 09:00,-0.0,281.883,284.185,260.769,287.134,287.188,263.553,-0.0,-0.0,241.304,262.309
2015-05-02 10:00,0.398259,282.923,284.869,261.412,287.679,287.888,263.553,0.385378,0.612673,241.361,261.914
2015-05-02 11:00,0.402868,288.568,288.087,263.721,290.897,290.101,264.488,0.210994,0.524123,241.361,262.23
2015-05-02 12:00,0.3731,293.816,291.487,265.758,294.149,292.545,265.185,0.164186,0.451008,241.304,262.309
2015-05-02 13:00,0.308548,297.248,294.245,267.74,296.935,294.944,265.993,0.126713,0.359995,240.074,261.675
2015-05-02 14:00,0.260585,299.485,295.935,269.096,298.426,295.865,266.681,0.101627,0.299748,240.724,262.072
2015-05-02 15:00,0.223053,300.134,296.913,269.67,299.409,296.78,266.909,0.0850488,0.263958,240.782,262.388
2015-05-02 16:00,0.207586,300.589,297.01,269.955,299.654,297.04,266.795,0.0809266,0.250278,240.841,262.623
2015-05-02 17:00,0.228911,300.042,296.131,269.0,298.426,296.389,266.566,0.103831,0.265764,240.841,262.857
2015-05-02 18:00,0.222927,298.822,295.639,269.384,298.178,295.865,266.222,0.105233,0.280825,241.361,262.935
2015-05-02 19:00,0.281268,296.635,293.438,267.249,296.182,293.75,265.878,0.163436,0.342419,241.76,262.857
2015-05-02 20:00,0.280905,293.816,292.725,267.052,295.297,293.883,266.222,0.215404,0.379904,242.042,262.857
2015-05-02 21:00,-2.85427,288.43,288.843,264.645,291.948,291.329,265.762,-2.41671,-3.84208,242.433,262.779
2015-05-02 22:00,-0.00500572,286.421,287.651,264.236,290.632,290.238,265.185,-0.0,-0.00505357,242.544,262.779
2015-05-02 23:00,-0.134096,285.97,287.212,263.721,290.234,290.101,264.837,-0.034935,-0.0728957,243.093,263.167
2015-05-03 00:00,-0.0776054,285.665,286.992,263.618,290.101,289.689,264.837,-0.0183372,-0.0400847,243.899,263.476
2015-05-03 01:00,-0.00145382,285.357,286.772,263.411,289.434,288.999,264.255,-0.0,-0.0,243.793,263.399
2015-05-03 02:00,-0.0,285.202,286.55,263.515,289.434,288.861,264.138,-0.0,-0.0,243.846,263.629
2015-05-03 03:00,-0.0,285.045,285.994,263.099,289.032,288.722,264.022,-0.0,-0.0,242.6,263.244
2015-05-03 04:00,0.00122512,269.865,271.023,253.741,273.686,273.675,257.653,-0.0,-0.0,242.378,259.22
2015-05-03 05:00,0.0013186,273.088,273.599,255.742,276.923,276.015,258.27,-0.0,-0.0,243.202,259.97
2015-05-03 06:00,-0.0,285.045,285.546,262.786,288.763,288.445,263.905,-0.0,0.00154395,243.093,261.993
2015-05-03 07:00,-0.00196119,284.73,286.105,262.89,288.897,288.584,264.138,-0.0,-0.0,243.364,262.857
2015-05-03 08:00,-0.0,284.73,286.217,262.995,289.166,289.137,264.721,-0.0,-0.0,243.74,262.701
2015-05-03 09:00,-0.00690839,284.249,285.546,262.995,289.032,288.999,264.605,-0.0,-0.0,243.472,262.623
2015-05-03 10:00,0.407729,285.202,285.994,263.099,289.032,288.722,264.022,0.443859,0.646842,243.579,263.012
2015-05-03 12:00,0.377408,294.156,290.335,266.059,291.948,289.551,263.2,0.171262,0.443273,240.548,260.627
2015-05-03 13:00,0.313597,296.531,291.07,266.059,291.948,288.999,262.017,0.13826,0.357808,241.246,260.789
2015-05-03 14:00,0.279104,286.121,265.995,250.051,262.15,257.115,238.428,0.200064,0.350615,229.433,243.698
2015-05-03 15:00,0.266988,279.859,255.23,244.349,252.059,247.293,234.134,0.218523,0.336925,223.642,234.694
2015-05-03 16:00,0.256472,294.156,283.611,262.049,282.517,278.609,256.41,0.176518,0.299807,237.268,255.548
2015-05-03 17:00,0.249692,285.97,266.738,251.676,263.04,257.486,240.5,0.210023,0.308466,229.007,243.698
2015-05-03 18:00,0.422473,274.314,236.06,233.681,232.502,227.787,220.489,0.423203,0.544653,218.642,225.994
2015-05-03 19:00,0.380404,292.414,279.091,258.691,277.226,272.883,250.633,0.279769,0.45412,234.756,252.244
2015-05-03 20:00,0.305672,294.268,290.965,266.954,292.47,289.413,263.787,0.227028,0.384389,241.246,261.755
2015-05-03 21:00,-0.600227,290.558,289.486,265.959,291.555,289.276,263.905,-0.677615,-1.00994,242.6,260.952
2015-05-03 22:00,-0.0,270.989,259.373,246.934,253.469,252.536,239.618,-0.0,-0.0,224.76,236.325
2015-05-03 23:00,-0.108014,204.719,202.034,216.869,201.233,200.845,203.228,-0.0326627,-0.0701015,202.954,203.113
2015-05-04 00:00,-0.0558796,242.013,237.086,233.681,237.702,236.157,230.768,-0.0167885,-0.0382158,226.963,233.773
2015-05-04 01:00,-0.00145309,222.276,216.88,223.694,215.993,215.027,215.674,-0.0,-0.0,213.541,215.6
2015-05-04 02:00,-0.00128233,233.989,226.902,229.118,225.919,224.19,222.147,-0.0,-0.0,220.101,225.011
2015-05-04 03:00,-0.0,237.078,227.845,229.301,226.221,224.474,221.23,-0.0,-0.0,218.137,223.793
2015-05-04 04:00,-0.0,244.063,233.666,232.491,232.23,230.17,226.229,-0.0,-0.0,222.04,228.96
2015-05-04 05:00,0.00131887,225.382,218.474,224.908,216.715,215.356,216.071,-0.0,-0.0,212.922,215.332
2015-05-04 06:00,-0.00152939,237.078,226.583,228.378,224.384,223.043,220.489,-0.0,-0.0,218.137,222.096
2015-05-04 07:00,-0.00196044,225.382,217.285,223.899,215.26,213.694,214.062,-0.0,-0.0,213.541,215.332
2015-05-04 08:00,-0.0,222.276,215.64,223.076,213.763,212.329,212.202,-0.0,-0.0,212.126,213.952
2015-05-04 09:00,-0.0,218.393,211.654,220.954,209.808,208.766,208.982,-0.0,-0.0,209.388,209.707
2015-05-04 11:00,0.366281,245.913,212.578,221.386,211.825,209.859,211.146,0.791366,0.888329,210.452,211.602
2015-05-04 12:00,0.297476,240.898,209.734,220.517,208.977,208.026,209.42,0.749321,0.82588,208.274,208.711
2015-05-04 14:00,0.210192,253.206,228.155,229.301,226.522,224.756,222.147,0.664687,0.72502,218.137,223.793
2015-05-04 15:00,0.327661,256.589,226.583,228.564,225.31,223.332,220.86,0.582603,0.639032,218.891,224.204
2015-05-04 16:00,0.35698,270.713,239.559,235.985,236.695,232.976,226.574,0.428512,0.485085,220.916,230.183
2015-05-04 17:00,0.372972,267.123,239.074,235.173,237.451,235.193,228.614,0.444348,0.513157,223.118,231.859
2015-05-04 18:00,0.356928,281.705,261.501,247.597,258.491,254.281,240.06,0.381562,0.44489,224.156,238.441
2015-05-04 19:00,0.545157,278.482,247.769,239.721,244.8,239.895,229.116,0.537331,0.677377,220.916,231.695
2015-05-04 20:00,0.640165,275.707,246.942,238.963,243.667,239.667,229.781,0.569588,0.739394,221.93,232.669
2015-05-04 21:00,-0.0,265.791,248.583,240.617,245.248,240.35,230.111,-0.499034,-0.743778,219.503,232.022
2015-05-04 22:00,0.00493526,253.206,237.591,233.681,235.672,231.968,225.185,-0.0,-0.0,220.337,228.06
2015-05-04 23:00,-0.0974759,240.898,223.94,228.004,219.847,218.547,217.25,-0.0304068,-0.0621523,213.234,215.867
2015-05-05 00:00,-0.0666193,243.066,229.673,230.027,227.708,224.756,221.046,-0.0167695,-0.0363547,219.503,226.187
2015-05-05 01:00,-0.00290488,246.775,231.713,231.45,229.444,225.874,221.782,-0.0,-0.0,217.096,224.811
2015-05-05 02:00,-0.0,251.282,243.273,237.258,242.747,240.35,233.661,-0.0,-0.0,225.739,237.185
2015-05-05 03:00,-0.00121459,250.598,246.733,239.419,247.229,245.824,236.918,-0.0,-0.0,229.263,241.221
2015-05-05 04:00,-0.0,251.944,247.563,240.32,248.307,246.035,238.128,-0.0,-0.0,228.312,241.348
2015-05-05 05:00,-0.00131915,267.761,264.175,249.669,264.965,262.537,248.903,-0.0,-0.0,232.251,248.562
2015-05-05 06:00,0.00152945,267.444,262.616,249.286,263.92,261.299,249.171,-0.0,-0.0,231.076,247.808
2015-05-05 07:00,-0.00195968,270.434,268.199,252.045,269.842,266.835,251.944,-0.0,-0.0,233.603,251.352
2015-05-05 08:00,-0.0,264.377,263.245,249.158,265.654,263.412,250.369,-0.0,-0.0,233.968,250.849
2015-05-05 09:00,-0.00682808,280.613,280.789,260.228,283.23,282.028,259.977,-0.0,-0.0,234.968,257.07
2015-05-05 10:00,0.203971,284.249,285.546,262.89,288.628,287.188,262.965,0.466296,0.411842,236.475,258.114
2015-05-05 11:00,0.682531,292.053,283.726,262.155,286.585,285.493,262.255,0.617382,0.607739,236.207,256.805
2015-05-05 12:00,0.657716,294.823,283.264,261.625,286.31,285.065,262.373,0.649702,0.643883,237.913,257.07
2015-05-05 13:00,0.604583,295.902,283.726,262.261,286.86,285.919,262.847,0.602235,0.608473,239.41,257.769
2015-05-05 14:00,0.495665,297.349,284.3,262.049,287.134,285.777,262.136,0.44134,0.489104,239.593,257.595
2015-05-05 15:00,0.358913,294.602,285.994,263.515,288.222,286.485,262.728,0.310222,0.378951,240.014,258.882
2015-05-05 16:00,0.373621,292.174,282.214,260.984,284.641,283.629,261.779,0.363732,0.418424,241.015,259.387
2015-05-05 17:00,0.351472,296.323,282.799,261.305,285.201,282.758,261.66,0.266709,0.359853,241.533,259.471
2015-05-05 18:00,0.352794,295.796,282.448,261.305,284.361,282.758,261.66,0.285133,0.348072,242.042,259.804
2015-05-05 19:00,0.236421,293.816,289.272,265.557,289.968,286.767,262.373,0.119153,0.281303,241.246,257.508
2015-05-05 20:00,0.279857,291.44,288.195,265.052,289.166,286.06,262.492,0.199785,0.332391,241.131,257.682
2015-05-05 21:00,-0.117392,284.41,283.032,261.625,285.201,282.467,260.822,-0.496976,-0.592569,241.419,258.372
2015-05-05 22:00,-0.00490278,284.73,283.148,261.731,285.201,282.758,261.062,-0.0,-0.00494965,241.704,258.457
2015-05-05 23:00,-0.107475,286.717,285.433,262.995,286.997,284.636,262.017,-0.0324995,-0.067168,241.533,259.051
2015-05-06 00:00,-0.0557576,273.088,274.524,255.858,277.678,277.548,258.882,-0.015229,-0.0345007,241.533,259.387
2015-05-06 01:00,-0.0,269.283,272.256,254.572,275.55,275.396,258.515,-0.0,-0.0,241.647,258.798
2015-05-06 02:00,-0.0,270.989,273.333,254.808,275.857,275.706,258.515,-0.0,-0.0,241.76,258.543
2015-05-06 03:00,-0.0,272.322,274.524,255.974,277.528,276.784,259.249,-0.0,-0.0,242.155,258.713
2015-05-06 04:00,0.00122598,274.314,275.436,256.664,277.978,277.396,259.005,-0.0,-0.0,241.476,257.855
2015-05-06 05:00,-0.0,264.009,264.482,249.414,266.847,266.667,252.335,-0.0,-0.0,241.189,255.911
2015-05-06 06:00,-0.0,265.446,265.696,250.177,267.69,267.339,253.24,-0.0,-0.00154413,240.43,255.73
2015-05-06 07:00,-0.0,263.636,264.329,249.542,266.678,266.329,253.368,-0.0,-0.0,240.548,255.548
2015-05-06 08:00,-0.00296089,266.466,266.59,250.681,268.855,268.505,254.392,-0.0,-0.0,240.665,256.716
2015-05-06 09:00,-0.0,273.586,273.732,255.742,276.315,275.706,258.147,-0.0,-0.0,239.714,257.158
2015-05-06 10:00,1.40244,278.279,273.466,255.043,276.163,275.24,258.023,1.24062,1.47925,240.841,257.595
2015-05-06 11:00,0.610471,290.041,277.224,257.685,280.347,279.661,260.098,0.549416,0.586138,240.548,258.286
2015-05-06 12:00,0.490756,298.533,280.187,259.683,283.514,281.441,261.421,0.375242,0.465114,240.724,258.457
2015-05-06 13:00,0.485023,298.144,286.105,262.995,288.493,286.485,262.61,0.394751,0.468783,240.782,258.882
2015-05-06 14:00,0.330732,295.26,286.772,263.825,288.087,285.635,261.779,0.265077,0.363069,240.665,258.798
2015-05-06 15:00,0.373891,292.653,280.789,260.337,283.514,281.882,261.182,0.339457,0.413847,240.899,259.387
2015-05-06 16:00,0.27494,294.602,286.882,263.721,288.628,286.06,262.136,0.204496,0.314373,241.015,260.052
2015-05-06 17:00,0.251477,292.053,283.841,262.155,285.757,283.339,261.66,0.215746,0.299277,241.647,260.217
2015-05-06 18:00,0.141045,287.871,283.495,261.838,286.172,283.917,261.66,0.201313,0.223761,241.073,259.387
2015-05-06 19:00,0.373987,288.705,282.331,260.661,284.22,283.194,261.182,0.400615,0.474812,241.419,260.217
2015-05-06 20:00,0.571586,293.587,286.772,263.618,288.897,286.626,262.61,0.465167,0.610665,241.476,260.708
2015-05-06 21:00,-0.0981054,288.705,288.303,264.747,290.101,288.027,263.436,-0.415329,-0.59426,241.419,260.952
2015-05-06 22:00,-0.00974411,287.729,288.303,264.543,290.5,288.999,264.022,-0.0,-0.0,241.361,260.871
2015-05-06 23:00,-0.112335,287.3,288.087,264.543,290.632,289.276,264.721,-0.0302634,-0.0644367,241.073,261.033
2015-05-07 00:00,-0.0628915,287.01,287.651,263.928,290.101,288.722,264.488,-0.0182572,-0.0362816,241.476,261.033
2015-05-07 01:00,-0.00145141,286.421,287.432,264.031,289.701,288.584,264.138,-0.00122891,-0.0,241.131,260.789
2015-05-07 02:00,-0.00128225,286.421,287.212,263.618,289.568,288.722,263.436,-0.0,-0.0,241.073,260.463
2015-05-07 03:00,-0.0,286.121,286.55,263.515,288.897,287.609,263.318,-0.0,-0.0,241.073,260.299
2015-05-07 04:00,-0.0,285.512,285.994,262.995,288.222,287.329,263.083,-0.0,-0.0,241.304,260.463
2015-05-07 05:00,-0.0,285.045,286.328,262.995,288.358,287.329,263.553,-0.0,-0.0,241.246,260.463
2015-05-07 06:00,-0.00152957,284.73,285.77,262.995,287.951,286.907,263.67,-0.0,-0.0,240.957,260.381
2015-05-07 07:00,-0.0,279.278,281.386,260.011,284.361,283.773,261.898,-0.0,-0.0,239.834,260.217
2015-05-07 08:00,-0.0,284.087,285.095,262.366,287.543,286.202,262.728,-0.0,-0.0,239.714,259.721
2015-05-07 09:00,-0.0,284.41,285.433,262.471,287.543,286.626,263.2,-0.0,-0.0,239.593,259.638
2015-05-07 10:00,0.386991,285.045,285.77,262.681,288.087,286.907,263.436,0.45509,0.586036,238.919,259.471
2015-05-07 11:00,0.39123,289.113,287.869,264.441,290.101,288.306,263.436,0.218409,0.477437,239.41,259.304
2015-05-07 12:00,0.37244,293.356,290.335,266.059,292.079,289.689,264.488,0.164064,0.414108,239.593,259.554
2015-05-07 13:00,0.315319,296.008,292.314,267.348,293.764,290.921,264.488,0.126296,0.339301,239.593,258.882
2015-05-07 14:00,0.261157,297.449,293.438,268.421,295.17,292.276,264.721,0.101006,0.289694,239.593,259.051
2015-05-07 15:00,0.236703,298.045,293.641,268.324,295.17,292.006,264.605,0.093187,0.251142,239.471,259.135
2015-05-07 16:00,0.251683,297.549,291.174,266.855,293.248,290.511,264.138,0.1369,0.269488,239.41,259.051
2015-05-07 17:00,0.235877,297.947,292.314,267.446,294.021,291.329,264.605,0.111898,0.255021,239.471,258.967
2015-05-07 18:00,0.218728,295.902,292.211,267.446,294.405,291.464,264.488,0.108031,0.259667,239.288,259.051
2015-05-07 19:00,0.193918,293.816,291.591,266.954,293.377,291.193,264.837,0.120728,0.256231,239.104,258.798
2015-05-07 20:00,0.263717,291.315,290.335,266.059,292.34,290.101,263.787,0.237541,0.362536,238.733,258.457
2015-05-07 21:00,-0.169345,287.871,287.978,264.747,290.5,288.861,264.022,-0.35846,-0.512891,238.919,258.457
2015-05-07 22:00,-0.00968605,287.01,287.432,264.133,289.701,288.306,263.553,-0.0,-0.0,239.471,258.882
2015-05-07 23:00,-0.0993551,286.569,287.322,263.825,289.701,288.445,263.67,-0.0301983,-0.0617261,239.834,258.798
2015-05-08 00:00,-0.0700175,286.271,286.882,263.825,289.434,288.167,264.255,-0.0197612,-0.0380621,240.312,259.554
2015-05-08 01:00,-0.00145102,285.202,286.328,263.618,288.897,287.748,264.255,-0.0,-0.0,240.371,259.887
2015-05-08 02:00,-0.0,284.57,286.217,263.307,288.763,288.306,264.255,-0.0,-0.0,239.41,259.721
2015-05-08 03:00,-0.0,284.888,285.882,262.995,288.628,288.167,264.255,-0.0,-0.0,238.546,259.638
2015-05-08 04:00,-0.00122667,283.924,284.869,262.155,287.134,286.485,263.2,-0.0,-0.0,237.398,257.682
2015-05-08 05:00,-0.0,283.261,284.642,262.366,287.407,286.343,263.553,-0.0,-0.0,236.742,257.07
2015-05-08 06:00,0.00152963,283.093,284.414,262.155,287.27,286.626,263.905,-0.0,-0.0,235.662,256.539
2015-05-08 07:00,-0.0,282.581,283.726,261.838,286.31,285.777,262.61,-0.0,-0.0,234.401,255.548
2015-05-08 08:00,-0.00295177,281.705,283.032,261.412,285.479,285.065,261.66,-0.0,-0.0,234.257,255.457
2015-05-08 09:00,0.00670772,280.982,281.624,260.011,284.079,283.629,261.54,-0.0,-0.0,233.159,254.629
2015-05-08 10:00,0.596766,281.346,280.066,259.244,281.943,280.998,259.977,0.542709,0.825608,232.405,253.117
2015-05-08 11:00,0.428664,287.155,285.546,262.89,287.543,286.202,262.136,0.230968,0.542045,232.405,253.974
2015-05-08 12:00,0.381913,291.563,288.843,264.95,291.423,289.826,264.022,0.169178,0.446846,232.481,254.814
2015-05-08 13:00,0.316695,294.156,291.694,266.557,294.277,292.276,264.605,0.126847,0.365671,232.784,255.091
2015-05-08 14:00,0.258988,295.902,293.336,268.13,295.93,293.617,265.532,0.100049,0.303952,234.257,255.275
2015-05-08 15:00,0.228575,297.045,294.245,268.615,297.06,294.547,265.993,0.0833094,0.264381,233.75,254.907
2015-05-08 16:00,0.208306,297.146,294.145,268.807,296.809,294.149,265.301,0.0752177,0.241224,233.456,254.536
2015-05-08 17:00,0.204998,295.902,292.929,267.838,295.424,292.545,264.255,0.0768267,0.2341,234.185,254.722
2015-05-08 18:00,0.213726,295.151,293.336,268.033,296.056,293.617,265.647,0.0861722,0.256868,234.401,255.548
2015-05-08 19:00,0.238213,293.356,292.211,267.348,294.661,292.679,265.069,0.119073,0.29844,234.185,254.536
2015-05-08 21:00,-0.448782,285.97,286.328,263.515,288.897,287.888,262.965,-0.379983,-0.604097,234.185,254.907
2015-05-08 22:00,-0.00481563,285.357,286.55,263.411,289.3,288.584,264.255,-0.0,-0.0,236.004,255.821
2015-05-08 23:00,-0.124579,284.73,286.105,263.307,288.763,288.027,264.138,-0.0344427,-0.0667351,236.94,255.73
2015-05-09 00:00,-0.0591983,283.924,285.546,262.786,288.628,288.167,263.905,-0.0167077,-0.0344097,236.609,256.181
2015-05-09 01:00,-0.0,284.087,285.658,262.681,288.493,288.445,264.022,-0.0,-0.0,236.207,255.821
2015-05-09 02:00,-0.0,283.428,284.982,262.471,288.087,287.469,263.67,-0.0,-0.0,236.475,255.639
2015-05-09 03:00,-0.0,283.093,284.755,262.786,287.815,287.188,263.67,-0.0,-0.0,237.203,256.539
2015-05-09 04:00,-0.0,283.261,284.642,262.049,287.543,287.188,263.553,-0.0,-0.0,238.795,257.769
2015-05-09 05:00,-0.00132037,282.923,284.185,261.838,286.997,286.485,263.67,-0.0,-0.0,237.721,257.158
2015-05-09 06:00,-0.00152968,282.581,283.956,261.944,286.86,286.06,263.67,-0.0,-0.0,237.977,256.539
2015-05-09 07:00,-0.0,282.581,283.726,261.519,286.585,285.493,262.61,-0.0,-0.0,237.006,256.539
2015-05-09 08:00,-0.00294711,282.581,283.611,261.412,286.31,285.635,262.61,-0.0,-0.0,237.913,256.716
2015-05-09 09:00,-0.0,282.408,283.841,261.519,286.585,285.919,262.61,-0.0,-0.0,237.849,257.333
2015-05-09 10:00,0.409389,283.594,284.185,261.838,286.86,285.777,262.728,0.462172,0.551071,238.357,257.333
2015-05-09 11:00,0.444837,290.813,282.096,260.769,285.479,284.061,261.301,0.369258,0.453492,236.808,256.001
2015-05-09 12:00,0.371143,291.563,288.303,264.747,290.5,287.609,262.492,0.174342,0.423452,236.609,255.183
2015-05-09 13:00,0.312362,295.151,290.965,266.458,292.73,289.826,263.436,0.129013,0.340346,237.592,256.271
2015-05-09 14:00,0.274671,297.749,291.694,267.052,292.989,289.276,263.083,0.107337,0.295346,236.808,255.183
2015-05-09 15:00,0.253807,298.726,293.742,268.13,294.916,291.193,263.787,0.091364,0.279249,236.542,254.722
2015-05-09 16:00,0.219926,297.248,290.017,265.959,291.555,287.469,261.779,0.10157,0.242213,235.178,253.117
2015-05-09 17:00,0.291967,298.63,289.272,265.557,291.16,288.027,262.492,0.192908,0.306685,235.799,253.5
2015-05-09 18:00,0.435714,299.297,280.187,260.011,282.087,278.458,257.777,0.330814,0.439879,235.386,252.047
2015-05-09 19:00,0.309027,296.943,289.805,265.758,291.555,288.027,262.017,0.227418,0.355717,235.386,253.021
2015-05-09 20:00,0.728057,295.151,282.331,261.198,284.921,281.588,259.37,0.611591,0.763954,236.004,254.068
2015-05-09 21:00,-0.134492,288.291,287.651,264.645,289.835,287.748,262.728,-0.227748,-0.339444,235.525,254.814
2015-05-09 22:00,-0.00478983,282.753,283.148,261.412,286.033,284.349,261.421,-0.0,-0.0,235.936,254.814
2015-05-09 23:00,-0.106581,282.408,281.386,260.337,284.361,282.175,260.581,-0.0300807,-0.0614856,235.867,254.629
2015-05-10 00:00,-0.0555708,227.984,225.282,228.004,225.919,224.756,222.329,-0.015178,-0.0343851,221.819,225.994
2015-05-10 01:00,-0.00145048,230.231,223.94,226.674,224.384,223.043,220.86,-0.0,-0.0,219.26,221.878
2015-05-10 02:00,-0.0,259.954,245.463,238.349,243.895,241.698,232.707,-0.0,-0.0,223.849,232.347
2015-05-10 03:00,-0.0,271.531,259.871,247.2,258.491,253.896,239.173,-0.0,-0.0,224.76,238.303
2015-05-10 04:00,0.00122743,281.705,277.35,258.022,278.427,274.929,253.881,-0.0,-0.0,229.263,248.882
2015-05-10 05:00,-0.0,285.202,283.726,261.731,285.479,282.904,259.614,-0.0,-0.0,230.674,251.552
2015-05-10 06:00,-0.0,285.97,285.208,262.786,287.407,285.065,260.701,-0.0,-0.0,232.097,252.731
2015-05-10 07:00,-0.0,273.088,263.401,249.286,262.685,258.408,243.383,-0.0,-0.0,224.156,238.714
2015-05-10 08:00,-0.00294239,284.57,282.682,261.305,284.22,281.146,258.023,-0.0,-0.0,230.018,250.544
2015-05-10 09:00,-0.00662776,283.76,281.624,260.769,283.372,281.146,258.638,-0.0,-0.0,230.43,250.646
2015-05-10 10:00,0.562252,281.526,274.129,255.742,274.312,270.635,249.971,0.575237,0.827789,228.4,246.707
2015-05-10 12:00,0.314268,281.526,264.635,249.797,261.069,256.555,240.793,0.237967,0.407553,224.56,238.85
2015-05-10 13:00,0.281203,274.551,248.583,240.766,244.122,238.978,228.278,0.252672,0.366935,220.101,230.524
2015-05-10 14:00,0.254572,286.717,270.049,253.14,267.857,262.185,242.956,0.163041,0.303134,227.51,243.214
2015-05-10 15:00,0.407401,282.234,246.523,239.721,245.693,242.805,233.976,0.365617,0.442105,226.027,238.165
2015-05-10 16:00,0.162139,280.239,265.696,250.931,261.611,257.301,243.808,0.177814,0.247872,227.959,242.354
2015-05-10 17:00,0.383062,259.505,216.058,224.102,212.997,211.983,213.653,0.543911,0.638265,211.135,213.092
2015-05-10 18:00,0.474844,262.074,200.774,217.809,199.715,198.656,204.422,0.868497,0.973294,202.222,200.502
2015-05-10 19:00,0.592809,264.739,198.787,217.342,198.14,197.294,202.009,0.910364,1.02973,200.945,199.57
2015-05-10 20:00,0.857314,270.713,205.549,218.957,204.12,202.113,204.658,0.917167,1.12282,205.449,205.868
2015-05-10 21:00,-0.0612977,204.719,200.774,217.342,199.715,199.102,202.986,-0.103801,-0.123767,201.973,201.402
2015-05-10 22:00,-0.00476556,218.393,198.095,215.909,197.056,195.891,200.766,-0.0,-0.0,198.438,197.598
2015-05-10 23:00,-0.121594,213.142,204.418,219.183,203.179,201.694,204.185,-0.0343177,-0.0690503,204.573,203.929
2015-05-11 00:00,-0.0680756,213.142,202.034,218.272,200.733,199.981,202.986,-0.0166851,-0.0343632,202.469,203.113
2015-05-11 01:00,-0.00290065,218.393,209.237,220.954,207.702,205.74,207.648,-0.0,-0.00146419,207.105,208.711
2015-05-11 02:00,-0.0,222.276,211.654,221.814,209.808,208.397,208.982,-0.0,-0.0,209.388,210.67
2015-05-11 03:00,-0.0,218.393,204.988,219.183,204.12,202.529,205.127,-0.0,-0.0,205.233,205.109
2015-05-11 04:00,-0.0,213.142,209.237,220.954,207.702,206.895,209.201,-0.0,-0.0,208.464,208.711
2015-05-11 05:00,0.00132102,218.393,212.578,222.027,211.825,211.284,211.781,-0.0,-0.0,210.452,212.207
2015-05-11 06:00,-0.00152977,222.276,217.685,223.694,216.715,215.027,215.274,-0.0,-0.0,214.293,216.652
2015-05-11 07:00,-0.0,222.276,211.184,221.6,210.625,209.497,211.358,-0.0,-0.0,210.278,211.295
2015-05-11 08:00,-0.0,222.276,215.64,222.449,214.141,213.356,213.447,-0.0,-0.0,212.765,213.952
2015-05-11 09:00,-0.0,222.276,216.88,223.283,215.993,215.683,216.071,-0.0,-0.0,214.588,215.867
2015-05-11 10:00,0.458968,240.898,229.673,229.118,229.158,228.056,225.185,0.797667,0.951097,222.476,227.136
2015-05-11 11:00,0.287626,239.711,219.247,224.305,218.478,217.922,217.445,0.606957,0.687966,216.695,218.41
2015-05-11 12:00,0.290192,251.282,234.208,231.799,233.842,232.725,228.278,0.578385,0.627414,223.434,229.838
2015-05-11 13:00,0.326616,257.103,234.477,231.973,232.502,230.688,226.402,0.505915,0.564434,222.368,229.314
2015-05-11 14:00,0.437468,283.093,271.162,253.02,272.582,271.121,253.111,0.48416,0.527664,230.674,253.595
2015-05-11 15:00,0.298713,276.155,259.871,246.13,258.304,255.614,241.664,0.337227,0.398999,224.46,242.354
2015-05-11 16:00,0.37209,272.58,237.841,235.499,230.853,225.597,221.782,0.447631,0.511819,214.145,225.994
2015-05-11 17:00,0.347245,281.526,268.054,250.681,269.021,265.65,247.142,0.358867,0.429613,231.315,253.595
2015-05-12 02:00,-0.0,239.711,225.282,227.817,221.838,220.384,218.41,-0.0,-0.0,216.695,221.658
2015-05-12 03:00,-0.0,245.01,228.769,229.665,224.072,221.283,219.927,-0.0,-0.0,215.167,220.989
2015-05-12 04:00,0.00122825,244.063,228.769,230.027,223.125,220.081,218.025,-0.0,0.00123999,214.734,221.436
2015-05-12 05:00,-0.00132136,240.898,231.713,230.921,231.131,229.647,225.36,-0.0,-0.00133399,222.15,227.694
2015-05-12 06:00,-0.0015298,263.255,252.666,241.5,250.207,248.121,236.613,-0.0,-0.0,227.055,241.348
2015-05-12 07:00,-0.0,278.883,276.208,256.434,276.468,273.832,253.625,-0.0,-0.0,237.072,259.22
2015-05-12 08:00,-0.0,275.251,273.599,254.926,274.933,273.2,253.497,-0.0,-0.0,236.808,258.967
2015-05-12 09:00,-0.0,279.859,279.091,257.685,280.054,278.76,257.653,-0.0,-0.0,237.203,261.033
2015-05-12 10:00,0.448833,281.346,279.336,258.022,280.639,278.76,257.158,0.527815,0.730033,238.357,261.993
2015-05-12 11:00,0.312036,285.818,284.414,261.198,285.757,283.773,260.34,0.207586,0.459027,238.795,263.244
2015-05-12 12:00,0.358787,289.779,283.956,260.769,285.061,282.613,259.005,0.201066,0.453422,237.398,261.355
2015-05-12 13:00,0.308737,289.779,281.386,259.464,280.931,277.396,254.137,0.156844,0.374026,233.308,256.628
2015-05-12 14:00,0.304331,289.113,273.065,254.572,273.057,269.165,250.236,0.204748,0.35042,231.787,253.213
2015-05-12 15:00,0.26451,293.24,284.528,261.625,285.479,282.904,258.515,0.148439,0.308958,236.004,260.463
2015-05-12 16:00,0.280173,286.717,269.059,252.29,266.508,262.361,243.383,0.2135,0.333136,230.101,249.617
2015-05-12 17:00,0.302549,287.3,269.908,252.899,268.69,264.451,244.512,0.222881,0.357211,231.156,251.452
2015-05-12 18:00,0.350708,287.871,270.885,252.899,270.006,265.99,245.072,0.265317,0.423197,231.315,252.828
2015-05-12 19:00,0.496986,284.087,251.53,242.369,245.914,238.747,228.278,0.415817,0.564083,220.801,236.614
2015-05-12 20:00,0.892434,271.261,232.839,231.799,229.158,226.151,219.927,0.780643,1.01433,219.137,226.57
2015-05-12 21:00,-0.0525629,276.811,269.767,252.29,270.006,266.498,247.006,-0.0890098,-0.159196,229.852,251.949
2015-05-12 22:00,-0.00472145,268.686,260.365,246.934,259.791,256.18,241.664,-0.0,-0.0,226.027,245.804
2015-05-12 23:00,-0.123741,246.775,230.265,230.207,227.414,224.19,219.927,-0.0320728,-0.066286,216.695,223.999
2015-05-13 00:00,-0.04474,255.521,239.559,234.845,236.441,232.725,224.657,-0.0151525,-0.0343275,219.863,231.031
2015-05-13 01:00,-0.00290048,260.827,244.598,237.728,242.049,237.581,227.089,-0.0,-0.0,220.454,233.928
2015-05-13 02:00,-0.00128341,267.761,255.764,243.509,254.066,249.753,236.0,-0.0,-0.0,223.849,241.728
2015-05-13 03:00,-0.0,232.213,216.471,223.283,214.141,212.329,211.358,-0.0,-0.0,210.624,213.952
2015-05-13 04:00,-0.0,254.396,235.8,233.513,230.574,226.701,221.046,-0.0,-0.0,215.734,225.604
2015-05-13 05:00,-0.0,233.989,216.471,224.305,214.141,210.931,210.932,-0.0,-0.0,210.624,214.787
2015-05-13 06:00,-0.0,239.711,223.597,227.058,219.508,216.652,214.872,-0.0,-0.0,212.448,218.165
2015-05-13 07:00,0.00195274,240.898,223.597,226.866,219.847,217.607,215.074,-0.0,-0.0,213.234,218.653
2015-05-13 08:00,-0.0,230.231,217.685,224.102,214.517,212.673,213.241,-0.0,-0.0,211.636,214.511
2015-05-13 09:00,-0.0,225.382,214.79,222.659,212.997,211.983,211.781,-0.0,-0.0,211.303,212.8
2015-05-13 10:00,0.876145,251.944,231.427,229.847,227.708,226.151,222.511,0.916379,1.24874,217.881,223.377
2015-05-13 11:00,0.489493,257.605,227.533,228.564,223.125,220.685,219.551,0.58936,0.770727,213.995,218.895
2015-05-13 12:00,0.339867,254.966,229.072,228.934,226.82,225.038,220.86,0.432746,0.552653,218.137,222.529
2015-05-13 13:00,0.31201,254.396,221.841,225.701,220.519,219.472,217.639,0.467645,0.569334,216.56,219.372
2015-05-13 14:00,0.262603,263.636,238.585,234.35,236.186,233.225,226.746,0.304851,0.418512,220.219,228.06
2015-05-13 15:00,0.280971,269.283,236.318,233.005,231.408,227.517,221.23,0.307176,0.419252,217.881,225.21
2015-05-13 16:00,0.303145,258.096,227.219,228.192,225.31,223.905,222.147,0.4247,0.528476,219.382,223.586
2015-05-13 17:00,0.315811,264.377,231.997,231.274,229.158,226.426,224.481,0.37639,0.481711,218.767,223.999
2015-05-13 18:00,0.318971,266.797,243.496,236.306,240.631,238.282,231.094,0.367157,0.486187,222.585,232.185
2015-05-13 19:00,0.485063,269.283,238.338,234.017,234.895,231.968,226.746,0.535916,0.665872,219.982,228.96
2015-05-13 20:00,0.537077,258.576,227.533,228.004,224.072,223.043,220.302,0.560849,0.692826,214.734,219.134
2015-05-13 21:00,-0.0985577,240.898,225.611,228.004,222.162,220.081,218.218,-0.125173,-0.14925,216.56,220.306
2015-05-13 22:00,-0.0,240.898,231.713,230.027,230.853,229.909,225.535,-0.0,-0.00474646,221.819,227.509
2015-05-13 23:00,-0.0882654,233.989,227.219,228.004,226.522,225.038,222.873,-0.0277584,-0.0611035,220.916,224.811
2015-05-14 00:00,-0.0679772,230.231,224.279,226.866,223.125,221.875,221.415,-0.0181756,-0.0343135,219.137,222.096
2015-05-14 01:00,-0.0014503,239.711,228.155,228.934,226.221,224.756,222.873,-0.0,-0.00146416,219.982,223.377
2015-05-14 02:00,-0.00128375,238.442,233.116,230.387,231.683,231.203,228.278,-0.0,-0.0,222.906,226.76
2015-05-14 03:00,-0.0,276.376,273.865,253.98,274.467,273.675,253.753,-0.0,-0.0,229.007,249.825
2015-05-14 04:00,-0.0,278.883,276.971,256.205,278.128,277.396,257.282,-0.0,-0.0,230.996,252.731
2015-05-14 05:00,0.00132203,282.581,283.726,260.119,286.447,286.202,262.373,-0.0,-0.0,233.603,258.028
2015-05-14 06:00,-0.0,282.234,284.185,260.228,286.86,287.048,263.436,-0.0,-0.0,235.662,258.713
2015-05-14 07:00,-0.0,282.234,283.726,260.011,286.447,286.907,263.436,-0.0,-0.0,234.543,257.595
2015-05-14 08:00,-0.0,280.05,280.789,258.358,283.372,282.467,261.301,-0.0,-0.0,233.085,254.722
2015-05-14 09:00,-0.0,280.427,281.624,258.691,284.22,283.484,260.461,-0.0,-0.0,232.86,256.36
2015-05-14 10:00,0.426608,281.526,283.148,259.683,286.172,286.485,263.436,0.541812,0.646029,234.113,257.769
2015-05-14 11:00,0.375518,286.864,285.882,261.412,288.763,288.584,263.905,0.256659,0.507,235.038,257.595
2015-05-14 12:00,0.354645,290.939,289.593,263.721,292.209,291.329,264.255,0.17001,0.442279,235.038,257.942
2015-05-14 13:00,0.3153,294.043,292.108,265.355,294.533,293.35,265.647,0.128538,0.361542,235.386,258.967
2015-05-14 14:00,0.261984,295.902,293.944,266.259,296.559,294.812,266.337,0.0996792,0.301316,234.615,259.22
2015-05-14 15:00,0.226257,297.146,294.846,266.756,297.309,295.339,266.108,0.0826645,0.264404,234.615,258.967
2015-05-14 16:00,0.211765,297.045,294.646,266.756,296.809,294.415,265.762,0.0757048,0.239127,235.178,259.22
2015-05-14 17:00,0.251605,297.248,291.902,265.254,294.149,292.141,264.721,0.135699,0.269668,233.968,258.372
2015-05-14 18:00,0.268057,295.042,289.699,263.928,291.423,288.722,262.492,0.147172,0.317132,232.784,256.716
2015-05-14 19:00,0.327175,290.939,283.032,259.902,284.361,281.441,258.023,0.236725,0.38135,229.769,252.146
2015-05-14 20:00,0.343358,288.705,280.909,258.469,281.076,278.911,255.909,0.336624,0.468269,230.018,252.537
2015-05-14 21:00,-0.0,247.601,231.14,229.847,228.871,226.974,222.511,-0.078755,-0.140855,218.264,223.999
2015-05-14 22:00,-0.0,237.078,224.279,226.674,222.806,221.579,218.025,-0.0,-0.0,218.517,221.658
2015-05-14 23:00,-0.0906745,240.898,228.155,228.378,225.919,223.332,221.782,-0.0277239,-0.0610275,217.622,220.989
2015-05-15 00:00,-0.0572248,268.382,259.206,244.626,257.361,255.235,241.664,-0.0166554,-0.034302,226.122,240.446
2015-05-15 01:00,-0.00145043,280.427,281.029,258.802,283.797,282.613,259.856,-0.0,-0.0,228.748,252.634
2015-05-15 02:00,-0.00128414,281.883,282.448,259.464,284.921,283.484,260.34,-0.0,-0.0,229.517,252.342
2015-05-15 03:00,-0.0,244.063,236.576,232.491,234.107,232.221,228.278,-0.0,-0.0,221.93,227.323
2015-05-15 04:00,-0.00122958,242.013,236.576,232.834,236.186,234.706,230.768,-0.0,-0.0,224.359,231.53
2015-05-15 05:00,-0.00132236,266.131,256.819,243.93,255.439,252.927,240.646,-0.0,-0.0,225.156,237.185
2015-05-15 06:00,-0.0,260.395,252.666,242.081,252.667,249.753,239.025,-0.0,-0.0,226.405,239.523
2015-05-15 07:00,-0.0,258.096,247.973,239.115,247.446,244.544,235.227,-0.0,-0.0,224.86,235.295
2015-05-15 08:00,-0.0,243.066,237.841,233.175,238.199,236.396,231.257,-0.0,-0.0,224.661,233.928
2015-05-15 09:00,-0.0,249.156,239.317,233.849,237.951,235.435,229.615,-0.0,-0.0,223.538,231.031
2015-05-15 10:00,0.524844,254.396,239.559,234.017,237.951,235.917,229.283,0.608105,0.75296,222.692,229.664
2015-05-15 11:00,0.405689,261.251,238.338,234.515,235.672,232.474,226.229,0.455422,0.556827,221.596,229.314
2015-05-15 12:00,0.325007,256.589,226.261,227.438,223.758,221.875,220.115,0.439405,0.523924,217.752,220.989
2015-05-15 13:00,0.330335,259.045,223.94,226.481,222.162,220.384,218.792,0.474983,0.566345,217.752,220.989
2015-05-15 14:00,0.29464,262.475,239.317,234.35,237.451,234.95,228.278,0.367864,0.465511,222.259,229.137
2015-05-15 15:00,0.35467,256.062,227.219,228.378,227.118,225.318,223.592,0.55845,0.648592,221.258,225.604
2015-05-15 16:00,0.308619,262.074,237.339,233.175,236.186,233.474,227.77,0.39196,0.488019,222.585,229.664
2015-05-15 17:00,0.330463,267.444,240.039,235.01,239.426,236.157,229.449,0.385278,0.48908,223.329,231.031
2015-05-15 18:00,0.471172,261.666,224.279,226.674,222.806,221.875,220.489,0.610878,0.722009,219.26,221.213
2015-05-15 19:00,0.583166,260.395,221.841,225.504,221.511,219.777,219.739,0.696337,0.821218,218.264,219.843
2015-05-15 20:00,0.668687,256.589,230.265,229.484,229.444,228.324,225.185,0.7,0.871466,222.15,226.379
2015-05-15 21:00,-0.0,239.711,233.938,231.45,232.772,231.459,227.431,-0.0747534,-0.0891322,222.15,228.782
2015-05-15 22:00,-0.0046657,225.382,224.279,226.674,223.758,223.043,221.23,-0.0,-0.0,219.382,222.313
2015-05-15 23:00,-0.120764,233.989,224.616,226.674,224.384,223.332,221.23,-0.0340835,-0.066039,219.503,222.096
2015-05-16 00:00,-0.064361,222.276,217.685,223.694,216.715,216.008,215.274,-0.0166511,-0.0324882,215.167,216.131
2015-05-16 01:00,-0.00145062,235.601,231.997,230.743,230.294,229.647,226.746,-0.0,-0.0,221.819,226.57
2015-05-16 02:00,-0.0,252.585,240.75,235.499,237.702,233.722,228.949,-0.0,-0.0,221.484,230.354
2015-05-16 03:00,-0.0,242.013,229.072,229.665,227.118,224.756,221.598,-0.0,-0.0,219.26,223.377
2015-05-16 04:00,-0.00123004,237.078,226.902,228.378,224.384,223.043,220.489,-0.0,-0.0,218.264,221.436
2015-05-16 05:00,-0.00132269,278.684,273.333,254.572,273.686,269.984,250.633,-0.0,-0.0,227.42,244.53
2015-05-16 06:00,0.0015298,280.427,276.08,256.32,277.226,274.773,252.205,-0.0,-0.0,229.852,248.133
2015-05-16 07:00,-0.0,218.393,211.654,220.517,211.028,210.219,211.57,-0.0,-0.0,211.135,210.67
2015-05-16 08:00,-0.00291275,261.666,248.784,239.871,247.662,244.112,233.344,-0.0,-0.0,225.931,238.027
2015-05-16 09:00,-0.0,279.473,278.598,257.685,280.493,278.004,256.785,-0.0,-0.0,231.865,250.238
2015-05-16 10:00,0.429856,235.601,220.75,224.507,220.184,218.235,217.25,0.582333,0.723275,217.36,219.134
2015-05-16 11:00,0.307711,278.279,264.175,249.029,263.04,258.591,241.519,0.311091,0.426568,225.739,241.602
2015-05-16 12:00,0.363549,287.444,277.098,257.233,276.772,271.605,250.765,0.218594,0.422876,226.778,245.804
2015-05-16 13:00,0.312113,294.268,290.335,265.153,291.948,289.276,262.255,0.136288,0.346805,233.01,254.629
2015-05-16 14:00,0.27239,293.472,284.642,262.155,285.061,280.998,255.909,0.124513,0.303674,230.996,250.849
2015-05-16 15:00,0.227962,294.043,285.321,262.786,285.061,280.406,256.16,0.107084,0.258514,230.835,250.442
2015-05-16 16:00,0.241812,295.26,286.105,263.411,286.997,283.049,257.158,0.127127,0.269653,231.076,251.452
2015-05-16 17:00,0.189324,293.24,287.869,264.133,289.3,286.06,260.581,0.117652,0.212177,231.63,252.634
2015-05-16 18:00,0.369691,284.087,259.373,246.265,256.213,250.557,235.382,0.296919,0.452135,223.642,236.9
2015-05-16 19:00,0.207449,292.414,288.087,264.133,289.568,286.485,259.856,0.134917,0.264066,231.865,253.5
2015-05-16 20:00,0.717544,277.026,245.89,238.04,242.515,237.109,226.918,0.612736,0.804892,219.744,230.183
2015-05-16 21:00,-0.0421126,269.865,253.04,242.799,250.207,244.973,232.227,-0.0713134,-0.0850304,220.219,233.461
2015-05-16 22:00,-0.00464974,259.954,243.94,237.258,241.107,236.872,228.278,-0.0,-0.0,218.767,228.06
2015-05-16 23:00,-0.108076,227.984,216.88,223.694,216.355,215.027,215.074,-0.0319213,-0.0608981,213.995,215.6
2015-05-17 00:00,-0.0518364,235.601,229.373,229.484,228.583,227.246,225.883,-0.0151344,-0.0324819,221.371,225.604
2015-05-17 01:00,-0.00145088,218.393,216.88,223.899,215.628,214.697,214.062,-0.0,-0.00146475,213.388,214.787
2015-05-17 02:00,-0.00257001,225.382,219.247,224.708,218.13,216.652,217.055,-0.0,-0.0,215.167,216.909
2015-05-17 03:00,-0.00243811,227.984,226.261,228.004,226.522,225.597,223.053,-0.0,-0.0,221.708,225.011
2015-05-17 04:00,-0.0012305,233.989,232.28,230.921,231.408,230.946,227.431,-0.0,-0.0,222.799,228.242
2015-05-17 05:00,-0.0,269.576,261.501,247.728,260.888,257.856,243.383,-0.0,-0.0,225.058,238.441
2015-05-17 06:00,-0.0,251.282,249.978,240.469,250.83,249.753,241.229,-0.0,-0.0,229.852,241.093
2015-05-17 07:00,-0.0,280.05,278.598,258.246,281.366,277.701,256.16,-0.0,-0.0,231.076,248.562
2015-05-17 08:00,-0.00290761,281.165,280.187,259.024,282.517,281.588,259.37,-0.0,-0.0,232.251,249.303
2015-05-17 09:00,-0.0,274.787,270.329,253.14,271.464,265.82,249.572,-0.0,-0.0,232.935,246.145
2015-05-17 10:00,0.238176,282.753,283.148,260.769,286.172,284.779,261.182,0.352911,0.420793,232.405,249.721
2015-05-17 11:00,0.397966,287.444,285.77,262.471,288.628,286.485,261.54,0.219414,0.476519,230.43,249.513
2015-05-17 12:00,0.389233,292.174,288.412,264.236,290.764,288.027,261.062,0.17487,0.435724,230.593,249.513
2015-05-17 13:00,0.323292,295.042,290.017,265.355,292.209,288.722,261.898,0.136866,0.354245,230.835,249.093
2015-05-17 14:00,0.275116,292.534,285.433,262.576,286.447,283.194,259.614,0.124993,0.306537,231.552,248.882
2015-05-17 15:00,0.277383,295.796,272.391,254.808,272.264,265.82,250.896,0.1579,0.272124,231.473,245.918
2015-05-17 16:00,0.261735,297.146,285.433,263.203,286.585,280.702,257.034,0.119536,0.275448,232.02,248.025
2015-05-17 17:00,0.188304,295.151,284.528,261.944,284.781,280.85,256.66,0.113672,0.212987,230.348,246.818
2015-05-17 18:00,0.557929,286.271,249.583,240.021,250.415,249.144,240.5,0.517302,0.633938,231.236,241.98
2015-05-17 19:00,0.371708,275.251,258.365,245.587,259.606,257.115,246.182,0.396604,0.47289,229.007,244.294
2015-05-17 20:00,1.39789,279.278,247.769,239.419,249.579,248.327,239.322,1.23073,1.54239,227.601,241.093
2015-05-17 21:00,-0.0,245.01,243.049,236.625,243.438,242.143,235.846,-0.068336,-0.12222,225.449,236.325
2015-05-17 22:00,-0.00463503,246.775,241.218,235.823,240.392,238.282,231.581,-0.0,-0.0,223.642,234.236
2015-05-17 23:00,-0.115514,279.667,274.129,254.926,275.55,272.086,252.335,-0.0340192,-0.0684497,229.093,246.032
2015-05-18 00:00,-0.0643406,259.505,253.04,242.081,253.669,251.354,239.913,-0.018159,-0.0342822,227.78,242.105
2015-05-18 01:00,-0.0014512,270.713,263.401,248.382,263.745,260.584,247.415,-0.0,-0.0,228.835,244.764
2015-05-18 02:00,-0.0,268.986,259.039,246.399,256.789,249.55,237.222,-0.0,-0.0,224.86,236.614
2015-05-18 03:00,-0.0,270.151,260.854,247.2,258.678,252.341,239.618,-0.0,-0.0,227.42,239.656
2015-05-18 04:00,-0.0,270.713,260.365,246.934,259.421,252.927,237.977,-0.0,-0.0,226.871,239.922
2015-05-18 05:00,0.00132334,269.576,260.692,247.067,259.791,255.425,242.671,-0.0,-0.0,226.871,238.986
2015-05-18 06:00,-0.00152971,244.063,239.074,234.681,240.152,239.667,234.134,-0.0,-0.0,228.488,235.146
2015-05-18 07:00,-0.00194746,237.078,236.318,233.344,238.693,238.282,233.344,-0.0,-0.0,228.835,233.304
2015-05-18 08:00,-0.0,251.944,249.781,240.617,250.83,248.941,240.207,-0.0,-0.0,230.101,240.446
2015-05-18 09:00,0.00631368,253.81,253.595,242.656,256.406,256.18,245.905,-0.0,-0.0,231.236,245.345
2015-05-18 10:00,0.49564,266.131,260.854,246.801,262.863,261.654,248.499,0.655715,0.68802,231.156,246.818
2015-05-18 11:00,0.643454,269.865,256.294,244.21,256.98,255.425,244.09,0.686936,0.771994,230.184,243.457
2015-05-18 12:00,0.686616,290.041,261.017,247.2,264.095,263.586,251.422,0.691769,0.776469,233.234,248.562
2015-05-18 13:00,0.558244,286.271,259.871,246.667,262.329,262.008,250.104,0.581612,0.661508,235.247,249.198
2015-05-18 14:00,0.426034,293.007,268.773,252.168,270.332,267.84,252.205,0.319374,0.431806,235.038,249.825
2015-05-18 15:00,0.309847,293.472,271.574,254.217,272.264,268.505,252.594,0.191766,0.30487,233.896,248.882
2015-05-18 16:00,0.23084,295.583,274.785,256.089,275.55,269.984,252.594,0.138838,0.226618,233.603,248.562
2015-05-18 17:00,0.374514,277.026,256.294,244.765,257.361,255.045,243.667,0.368962,0.464667,233.085,243.577
2015-05-18 18:00,0.426018,266.466,253.411,242.656,254.066,252.536,244.09,0.506796,0.599976,233.53,243.457
2015-05-18 19:00,0.455568,280.05,260.201,246.13,260.158,257.301,245.211,0.498876,0.613231,233.75,244.764
2015-05-18 20:00,0.767078,279.081,260.036,246.533,261.431,260.225,247.687,0.733969,0.875147,235.038,246.818
2015-05-18 21:00,-0.0388242,258.096,255.23,243.509,255.827,254.855,245.072,-0.0986172,-0.195977,236.94,245.918
2015-05-18 22:00,-0.00462154,268.986,267.326,250.555,268.69,267.171,253.111,-0.0,-0.0,238.231,250.34
2015-05-18 23:00,-0.0903326,268.073,265.394,249.414,267.69,266.498,252.335,-0.0297439,-0.0607974,238.42,250.748
2015-05-19 00:00,-0.0482527,268.986,265.243,250.051,267.857,266.16,251.291,-0.0151317,-0.0306717,240.724,252.146
2015-05-19 01:00,-0.0,284.57,284.185,261.519,286.447,283.917,260.219,-0.0,-0.0,238.795,252.537
2015-05-19 02:00,-0.0,284.73,283.956,260.769,286.447,284.205,260.581,-0.0,-0.0,236.475,251.949
2015-05-19 03:00,-0.00122011,283.924,283.495,260.553,286.033,283.773,260.219,-0.0,0.00123177,234.827,251.652
2015-05-19 04:00,0.00123145,284.41,283.726,260.445,286.31,284.349,260.461,-0.0,-0.0,233.085,251.552
2015-05-19 05:00,0.00132366,283.76,283.264,260.228,285.479,283.773,259.735,-0.0,-0.0,232.251,250.849
2015-05-19 06:00,-0.0,283.428,283.264,260.553,285.895,284.061,260.581,-0.0,-0.0,231.787,251.352
2015-05-19 07:00,-0.0,272.061,272.12,253.741,275.55,274.617,256.41,-0.0,-0.0,231.865,250.646
2015-05-19 08:00,-0.0,277.869,276.971,256.664,280.201,278.004,258.147,-0.0,-0.0,232.328,250.442
2015-05-19 09:00,-0.0,283.428,282.799,259.683,285.479,283.339,259.856,-0.0,-0.0,232.633,250.238
2015-05-19 10:00,0.839381,270.151,263.867,248.771,267.016,264.795,250.765,0.792707,0.977775,233.159,248.348
2015-05-19 12:00,0.449364,288.705,271.984,253.381,273.686,272.086,254.264,0.414446,0.510367,235.525,249.617
2015-05-19 13:00,0.483048,293.356,261.34,247.2,261.791,259.864,247.823,0.383749,0.501714,235.731,246.818
2015-05-19 14:00,0.348195,294.491,269.908,252.29,270.332,265.82,250.104,0.273349,0.368587,235.525,247.808
2015-05-19 15:00,0.389878,280.799,258.195,245.314,259.791,258.408,247.687,0.473112,0.537024,236.274,247.04
2015-05-19 16:00,0.39781,278.684,253.226,242.942,255.244,254.664,245.072,0.630364,0.696775,236.675,245.918
2015-05-19 17:00,0.421548,277.026,255.587,243.93,256.789,255.803,246.182,0.54877,0.641913,237.072,246.483
2015-05-19 18:00,0.566721,285.357,256.118,244.349,258.678,257.856,247.279,0.566757,0.647704,238.608,248.025
2015-05-19 19:00,0.772106,292.294,264.482,249.286,267.016,266.16,252.205,0.664076,0.770244,239.894,250.849
2015-05-19 20:00,0.96174,281.705,263.556,248.771,266.338,266.329,252.594,0.85156,1.01536,241.246,251.949
2015-05-19 21:00,-0.11246,259.045,260.528,247.597,263.745,263.586,251.159,-0.12696,-0.227071,241.986,252.244
2015-05-19 22:00,-0.00460923,249.156,248.583,240.617,251.242,250.957,243.099,-0.0,-0.0,241.304,245.804
2015-05-19 23:00,-0.0902733,265.446,262.141,247.991,264.095,262.361,249.171,-0.0297244,-0.0632891,243.793,251.85
2015-05-20 00:00,-0.0500401,269.865,267.473,251.305,269.021,267.171,252.335,-0.0151318,-0.0324762,244.635,253.69
2015-05-20 01:00,-0.00145202,265.791,264.94,249.797,267.185,265.65,252.075,-0.0,-0.0,245.355,253.785
2015-05-20 02:00,-0.00257312,265.446,264.94,249.924,267.69,266.498,252.982,-0.0,-0.0,245.608,254.349
2015-05-20 03:00,0.00122066,260.395,261.662,247.859,264.792,264.623,252.335,-0.0,0.00123233,246.847,254.999
2015-05-20 04:00,-0.0,261.666,262.931,248.9,265.826,265.48,252.594,-0.0,-0.0,247.426,255.911
2015-05-20 05:00,0.00132397,262.074,264.788,249.669,267.69,267.171,253.368,-0.0,-0.0,247.855,256.45
2015-05-20 06:00,0.00152956,279.473,277.852,257.459,279.613,276.631,257.034,-0.0,0.00154418,246.456,255.639
2015-05-20 07:00,-0.0,269.283,266.145,250.555,268.524,266.667,252.594,-0.0,-0.0,246.059,254.907
2015-05-20 08:00,-0.00289189,276.376,273.997,254.336,275.703,273.832,256.16,-0.0,-0.0,245.608,254.999
2015-05-20 09:00,-0.0,272.322,271.574,253.741,273.843,271.121,254.009,-0.0,-0.0,245.608,255.457
2015-05-20 10:00,0.370738,279.667,276.845,256.892,279.613,276.784,256.535,0.542197,0.54441,245.709,256.181
2015-05-20 12:00,0.728522,296.427,261.017,247.332,263.92,263.759,251.028,0.598629,0.721916,245.456,254.256
2015-05-20 13:00,0.419176,298.045,274.916,256.089,275.703,271.605,254.773,0.256891,0.401016,245.304,255.275
2015-05-20 14:00,0.437709,298.144,267.764,251.676,269.021,265.82,251.814,0.303094,0.426478,244.583,254.349
2015-05-20 15:00,0.403922,296.219,264.329,249.669,265.997,263.933,250.896,0.315176,0.388593,245.355,254.162
2015-05-20 16:00,0.355904,290.813,271.299,253.02,273.215,270.473,253.625,0.329849,0.401387,246.505,255.275
2015-05-20 17:00,0.236202,294.602,286.992,262.89,287.951,284.349,259.856,0.135815,0.261594,246.554,256.982
2015-05-20 18:00,0.319878,288.568,278.968,257.459,280.493,277.853,257.034,0.32719,0.407463,247.138,257.07
2015-05-20 19:00,0.37099,264.009,260.692,246.533,261.791,261.299,249.971,0.66977,0.761455,245.557,253.785
2015-05-20 20:00,0.190011,288.012,284.528,261.091,286.31,283.917,260.701,0.268137,0.281347,246.208,256.982
2015-05-20 21:00,-0.0726278,274.314,270.885,252.656,273.215,270.311,252.723,-0.0922408,-0.146644,243.74,253.213
2015-05-20 22:00,-0.0,253.206,254.509,243.368,256.406,256.555,246.732,-0.0,-0.0,243.74,250.032
2015-05-20 23:00,-0.0927302,243.066,241.682,235.823,242.747,241.921,236.307,-0.0318302,-0.0657847,233.896,238.303
2015-05-21 00:00,-0.0554054,243.066,242.597,236.306,243.438,242.805,237.373,-0.0166461,-0.0324784,233.75,238.986
2015-05-21 01:00,-0.00145251,251.282,252.101,241.646,252.667,252.536,243.667,-0.0,-0.0,236.207,244.056
2015-05-21 02:00,-0.0,254.396,254.69,243.226,255.827,255.425,245.905,-0.0,-0.0,239.104,247.371
2015-05-21 03:00,-0.0,258.096,259.039,245.859,261.069,261.121,249.438,-0.0,-0.0,243.202,251.652
2015-05-21 04:00,0.00123241,255.521,256.294,244.349,258.304,258.408,247.415,-0.0,-0.0,244.79,251.652
2015-05-21 05:00,-0.0,258.576,259.54,246.533,261.611,261.121,249.705,-0.0,-0.0,244.531,252.634
2015-05-21 06:00,-0.00152945,253.81,255.941,243.509,257.739,257.486,247.415,-0.0,-0.0,244.531,251.452
2015-05-21 07:00,-0.0019439,254.396,255.23,243.509,257.17,257.301,247.415,-0.0,-0.0,243.093,249.825
2015-05-21 08:00,-0.0,255.521,256.294,244.21,258.304,258.224,247.687,-0.0,-0.0,244.531,251.452
2015-05-21 09:00,-0.0,264.739,262.616,247.2,264.444,263.412,250.236,-0.0,0.00625915,244.739,253.595
2015-05-21 10:00,0.916509,260.395,255.764,243.65,258.304,257.671,247.687,0.895393,1.06762,244.269,251.252
2015-05-21 12:00,0.570071,293.472,261.982,247.597,263.745,262.361,249.838,0.484965,0.57552,243.899,252.537
2015-05-21 13:00,0.485029,290.301,261.982,247.2,263.569,262.008,250.236,0.436128,0.53418,243.31,252.731
2015-05-21 14:00,0.449529,285.512,260.201,246.533,261.431,260.405,248.903,0.371965,0.471017,241.304,251.652
2015-05-21 15:00,0.300412,287.01,264.94,249.414,265.826,263.933,250.104,0.216676,0.301679,241.246,252.342
2015-05-21 16:00,0.38124,271.798,257.166,245.177,258.865,258.591,248.364,0.403154,0.4807,240.371,251.152
2015-05-21 17:00,0.295391,288.705,271.162,253.14,272.899,269.821,252.853,0.238126,0.330358,240.489,253.309
2015-05-21 18:00,0.249966,294.043,287.978,262.89,289.701,286.626,261.421,0.122243,0.276285,242.489,256.539
2015-05-21 19:00,0.271023,293.007,287.432,262.681,289.568,286.485,261.301,0.153852,0.310924,242.655,256.982
2015-05-21 20:00,0.376405,291.315,285.321,260.984,287.543,284.779,260.098,0.3133,0.495937,240.548,256.181
2015-05-21 21:00,-0.0352832,286.421,286.105,262.049,288.628,286.907,261.898,-0.0597485,-0.0712411,240.312,256.716
2015-05-21 23:00,-0.117741,285.357,285.321,261.305,287.951,286.626,262.255,-0.0339374,-0.0657559,238.357,256.45
2015-05-22 00:00,-0.0715002,284.888,285.095,261.305,287.679,286.202,262.373,-0.0196752,-0.0360918,234.041,254.629
2015-05-22 01:00,-0.0029061,284.57,284.3,260.769,286.86,284.922,261.66,-0.0,-0.0,232.935,252.244
2015-05-22 02:00,-0.00128774,284.41,284.071,260.769,286.86,284.779,261.421,-0.0,-0.0,233.677,252.439
2015-05-22 03:00,-0.00122179,283.428,282.214,259.574,284.781,282.758,259.735,-0.0,-0.0,234.041,252.634
2015-05-22 04:00,-0.0,284.087,284.185,261.198,286.86,285.35,261.66,-0.0,-0.0,233.159,252.828
2015-05-22 05:00,0.00132457,282.234,282.448,260.228,285.061,283.049,260.581,-0.0,-0.0,233.01,252.925
2015-05-22 06:00,-0.0,283.76,283.956,260.984,286.86,285.065,261.66,-0.0,0.00154394,233.159,252.634
2015-05-22 07:00,-0.0,283.594,283.956,260.876,286.585,285.208,261.421,-0.0,-0.0,231.709,252.634
2015-05-22 08:00,-0.0,280.05,278.101,257.233,279.318,277.396,257.158,-0.0,-0.0,229.093,249.198
2015-05-22 09:00,-0.0,283.76,284.185,260.769,287.134,285.919,262.373,-0.0,-0.0,230.916,252.925
2015-05-22 10:00,0.628001,283.093,281.742,259.464,283.938,282.321,259.005,0.594284,0.895065,230.348,251.452
2015-05-22 11:00,0.360516,287.871,286.55,262.261,289.032,287.188,262.847,0.215709,0.480431,230.755,253.213
2015-05-22 12:00,0.36384,291.19,288.303,263.618,290.5,287.888,262.136,0.163227,0.413919,231.076,251.751
2015-05-22 13:00,0.309905,293.816,289.379,264.645,291.555,288.167,262.255,0.126087,0.341311,230.266,250.95
2015-05-22 14:00,0.26659,294.491,289.272,264.543,291.029,287.469,261.301,0.104179,0.291567,230.835,250.849
2015-05-22 15:00,0.232851,296.114,291.487,265.758,293.377,289.964,262.847,0.0850736,0.259229,231.156,251.252
2015-05-22 16:00,0.200129,295.476,289.272,264.543,291.292,287.048,261.182,0.0847243,0.216706,231.709,251.552
2015-05-22 17:00,0.301712,298.918,283.726,261.731,285.061,280.554,258.638,0.136746,0.290262,232.02,251.452
2015-05-22 18:00,0.214105,294.933,291.174,266.159,293.377,289.689,262.965,0.0878947,0.244536,232.175,252.342
2015-05-22 19:00,0.235075,293.587,290.545,265.557,292.86,289.826,263.2,0.117851,0.277917,232.935,252.828
2015-05-22 20:00,0.250534,291.065,289.379,264.747,291.817,289.137,263.083,0.217566,0.330753,232.784,253.021
2015-05-22 21:00,-0.0343764,287.444,287.102,263.099,289.968,288.027,262.61,-0.0291065,-0.0694101,233.382,253.405
2015-05-22 22:00,-0.0,286.569,286.105,262.681,288.493,286.907,262.255,-0.0,-0.0,231.63,252.634
2015-05-22 23:00,-0.117702,283.594,281.386,259.354,282.946,280.998,258.882,-0.0318057,-0.0657341,230.674,250.238
2015-05-23 00:00,-0.0607867,285.512,285.77,262.681,288.493,287.188,262.017,-0.0181652,-0.0360987,231.473,252.731
2015-05-23 01:00,-0.0,285.512,285.77,262.261,288.493,286.626,262.373,-0.0,-0.0,230.755,251.85
2015-05-23 02:00,-0.0,280.613,277.098,257.006,278.725,276.323,255.153,-0.0,-0.0,228.835,247.371
2015-05-23 03:00,-0.0,272.836,267.473,250.555,268.358,266.498,249.838,-0.0,-0.0,228.4,243.818
2015-05-23 04:00,-0.0,258.576,249.781,240.32,248.946,246.876,237.827,-0.0,-0.0,226.216,236.757
2015-05-23 05:00,-0.0,246.775,239.559,234.681,238.693,237.581,232.707,-0.0,-0.0,225.546,232.829
2015-05-23 06:00,-0.0,232.213,229.373,230.027,228.871,227.787,225.535,-0.0,-0.0,221.93,226.379
2015-05-23 07:00,0.00194137,233.989,228.769,229.301,228.583,227.787,225.185,-0.0,-0.0,222.692,226.187
2015-05-23 08:00,-0.0,239.711,230.85,230.743,230.294,228.59,224.657,-0.0,-0.0,222.585,227.509
2015-05-23 09:00,-0.0,262.074,247.973,239.267,245.914,243.024,233.819,-0.0,-0.0,224.156,233.146
2015-05-23 10:00,0.504344,249.89,238.338,233.849,238.199,236.635,229.946,0.722661,0.939997,225.156,232.185
2015-05-23 12:00,0.297425,263.255,248.583,239.419,247.878,246.035,237.222,0.402002,0.520648,226.216,236.325
2015-05-23 13:00,0.167696,282.923,274.916,255.742,274.933,272.086,253.625,0.181334,0.283525,228.748,245.114
2015-05-23 14:00,0.200653,266.131,252.29,242.225,251.652,249.753,239.322,0.296223,0.38956,227.42,238.303
2015-05-23 15:00,0.296032,270.434,249.583,240.766,247.446,244.544,237.07,0.311619,0.420022,226.963,235.592
2015-05-23 16:00,0.273638,262.475,242.37,236.306,241.815,241.027,235.072,0.456523,0.541066,225.931,235.295
2015-05-23 17:00,0.309822,253.81,234.745,232.663,234.895,233.969,230.276,0.542743,0.629162,225.449,231.695
2015-05-23 18:00,0.35375,251.944,235.8,232.491,235.672,234.706,230.931,0.633952,0.727409,225.546,231.695
2015-05-23 19:00,0.4752,259.505,233.116,231.274,232.502,231.459,227.601,0.570654,0.705503,223.642,228.423
2015-05-23 20:00,0.310378,291.44,288.087,263.203,290.367,287.609,261.779,0.257322,0.372097,234.257,251.552
2015-05-23 21:00,-0.0335785,286.717,286.772,262.155,289.568,287.748,262.965,-0.0568617,-0.135598,234.756,252.731
2015-05-23 22:00,-0.00457127,286.421,286.328,262.049,289.166,287.609,262.965,-0.0,-0.0,234.615,253.785
2015-05-23 23:00,-0.120179,285.97,286.439,261.944,289.434,288.027,263.436,-0.0360383,-0.0657191,234.897,254.999
2015-05-24 00:00,-0.0608017,285.512,286.105,261.838,289.166,288.027,263.083,-0.0166555,-0.0343022,235.108,255.091
2015-05-24 01:00,-0.00145428,285.357,285.994,261.838,288.897,288.027,263.67,-0.0,-0.0,235.936,255.366
2015-05-24 02:00,-0.00128901,285.202,285.77,261.731,288.628,287.469,263.318,-0.0,-0.0,237.913,256.45
2015-05-24 03:00,-0.0,284.73,285.433,261.198,288.358,287.048,262.728,-0.0,-0.0,239.288,256.716
2015-05-24 04:00,-0.00123384,284.57,285.546,261.412,288.628,287.329,263.2,-0.0,-0.0,239.834,257.769
2015-05-24 05:00,-0.00132512,284.57,285.546,261.412,288.628,287.748,263.787,-0.0,-0.0,240.43,258.114
2015-05-24 06:00,-0.0,284.57,285.658,261.625,288.222,287.188,263.67,-0.0,-0.0,243.846,259.387
2015-05-24 07:00,0.00194006,284.41,285.546,261.519,288.358,287.609,263.553,-0.0,-0.0,239.227,258.457
2015-05-24 08:00,-0.00287036,284.087,285.095,261.625,287.951,287.188,263.67,-0.0,-0.0,237.203,257.421
2015-05-24 09:00,-0.0,283.924,284.982,261.625,287.951,286.907,263.67,-0.0,-0.0,235.867,256.805
2015-05-24 10:00,0.490042,284.249,285.095,261.625,288.087,287.048,263.436,0.656954,0.742091,237.203,256.091
2015-05-24 12:00,0.364695,292.174,289.379,264.747,291.686,289.137,263.2,0.164841,0.423547,237.977,256.001
2015-05-24 13:00,0.312377,295.583,291.383,265.959,293.377,290.375,263.905,0.125375,0.350176,238.795,256.271
2015-05-24 14:00,0.266751,297.248,292.725,267.151,294.661,291.329,264.372,0.100543,0.295362,237.977,256.091
2015-05-24 15:00,0.234385,298.144,293.641,267.642,295.677,292.006,264.255,0.0856342,0.259316,236.675,255.639
2015-05-24 16:00,0.211154,297.848,293.336,267.348,294.916,291.193,263.67,0.07839,0.23941,235.593,255.183
2015-05-24 17:00,0.22328,297.045,290.545,265.557,291.948,287.609,260.701,0.0892319,0.248857,233.603,253.595
2015-05-24 18:00,0.333166,299.391,286.105,263.203,287.27,282.467,259.249,0.189905,0.342946,234.615,253.974
2015-05-24 19:00,0.530086,294.38,278.101,257.798,279.466,276.784,257.158,0.403941,0.535154,235.178,254.443
2015-05-24 20:00,0.286283,291.931,288.736,264.441,290.632,287.469,261.779,0.253414,0.374413,234.185,254.814
2015-05-24 21:00,-0.0328772,288.291,288.303,263.928,291.029,288.999,263.2,-0.0278371,-0.066383,235.593,256.181
2015-05-24 22:00,-0.00456446,287.3,287.76,263.721,290.367,288.722,263.67,-0.0,-0.0,236.207,256.45
2015-05-24 23:00,-0.0976329,286.864,287.541,263.411,290.101,288.861,264.022,-0.0296748,-0.0606561,236.408,257.07
2015-05-25 00:00,-0.06082,286.864,287.102,263.411,289.968,288.584,263.905,-0.0181751,-0.0361185,236.675,256.982
2015-05-25 01:00,-0.00145497,286.121,286.882,263.203,289.568,288.167,263.553,-0.0,-0.0,235.867,256.628
2015-05-25 02:00,-0.00128968,285.818,286.439,263.099,289.3,287.469,263.436,-0.0,-0.0,236.207,256.805
2015-05-25 03:00,-0.00122355,285.665,286.217,262.576,288.763,287.188,262.965,-0.0,-0.0,236.207,256.716
2015-05-25 04:00,-0.0,285.357,286.105,262.366,288.628,287.469,263.436,-0.0,-0.0,236.408,256.982
2015-05-25 05:00,-0.0,285.357,285.994,262.576,288.763,287.609,263.436,-0.0,-0.0,236.408,257.333
2015-05-25 06:00,-0.0,285.045,285.882,262.681,288.358,287.048,263.436,-0.0,-0.0,236.207,256.894
2015-05-25 07:00,-0.0,284.249,285.433,261.944,288.222,287.048,263.436,-0.0,-0.0,236.408,256.628
2015-05-25 08:00,0.0028649,284.57,284.982,262.261,287.815,286.485,262.965,-0.0,-0.0,235.867,256.271
2015-05-25 09:00,-0.0,284.41,284.982,262.049,287.815,286.626,262.728,-0.0,-0.00611095,235.867,256.001
2015-05-25 10:00,0.430926,284.57,285.433,262.155,288.358,287.048,263.2,0.693243,0.739578,235.936,256.628
2015-05-25 12:00,0.37198,293.24,290.123,265.456,292.34,289.551,263.905,0.165643,0.408917,235.799,256.45
2015-05-25 13:00,0.319704,296.427,292.314,266.756,294.149,290.921,263.787,0.127588,0.343318,236.139,256.36
2015-05-25 14:00,0.269393,297.947,293.336,267.544,294.788,291.329,264.138,0.10235,0.284172,236.207,256.894
2015-05-25 15:00,0.241573,296.738,289.486,265.254,290.5,286.485,260.581,0.0954517,0.258515,235.108,255.091
2015-05-25 16:00,0.218319,298.045,293.031,267.446,294.405,290.648,263.318,0.0786304,0.23192,236.542,256.45
2015-05-25 17:00,0.211424,298.045,293.539,267.74,295.17,291.464,263.905,0.0788866,0.231533,236.808,256.894
2015-05-25 18:00,0.242492,297.549,292.314,266.954,294.021,290.648,264.138,0.110983,0.258043,237.203,257.421
2015-05-25 19:00,0.256652,295.69,291.902,266.657,293.764,290.784,264.138,0.135154,0.290704,237.072,256.805
2015-05-25 20:00,0.320684,292.653,290.017,265.557,292.079,289.551,264.022,0.243816,0.356785,237.913,257.07
2015-05-25 21:00,-0.0322622,288.568,288.195,264.645,290.632,288.584,263.083,-0.0273164,-0.0651413,237.137,256.628
2015-05-25 22:00,-0.0,287.444,287.212,263.618,289.701,287.748,262.965,-0.0,-0.0,236.874,256.36
2015-05-25 23:00,-0.130174,286.569,286.217,263.203,288.493,286.485,261.898,-0.0360327,-0.0682362,236.207,255.911
2015-05-26 00:00,-0.0644206,285.357,284.3,261.838,286.447,284.205,259.977,-0.0181816,-0.0343248,236.341,255.183
2015-05-26 01:00,-0.0,285.357,285.208,262.576,287.27,285.208,260.581,-0.0,-0.0,237.528,256.271
2015-05-26 02:00,-0.00129037,282.581,279.702,259.464,280.785,277.548,255.532,-0.0,-0.0,235.317,252.439
2015-05-26 03:00,-0.0,281.705,277.476,257.459,278.725,275.706,253.881,-0.0,-0.0,234.615,251.252
2015-05-26 04:00,-0.0,280.05,274.129,255.51,274.467,271.926,252.075,-0.0,-0.0,232.633,248.455
2015-05-26 05:00,-0.0,281.165,276.718,256.664,277.828,275.551,253.881,-0.0,-0.0,233.382,251.152
2015-05-26 06:00,-0.0,275.02,266.738,250.555,266.508,263.412,245.35,-0.0,-0.0,230.184,245.23
2015-05-26 07:00,-0.00193734,275.02,266.738,251.305,265.31,261.831,244.231,-0.0,-0.0,229.178,244.647
2015-05-26 08:00,-0.0,279.859,276.208,256.549,276.315,274.147,253.881,-0.0,-0.0,231.787,250.238
2015-05-26 09:00,-0.0,277.24,271.711,253.501,270.981,268.339,249.171,-0.0,-0.0,230.43,247.808
2015-05-26 10:00,0.227982,284.41,285.208,262.155,288.222,286.907,263.2,0.386064,0.414291,235.593,256.716
2015-05-26 11:00,0.277494,287.871,287.432,263.618,290.101,288.722,263.787,0.192998,0.375196,235.525,256.894
2015-05-26 12:00,0.37931,293.007,290.017,265.153,292.079,289.964,263.787,0.168785,0.405297,235.662,256.628
2015-05-26 13:00,0.322976,296.531,292.622,266.954,294.788,291.735,264.255,0.128078,0.338446,236.94,257.07
2015-05-26 14:00,0.275497,298.339,293.843,268.033,295.803,292.41,264.372,0.104161,0.283378,237.785,257.158
2015-05-26 15:00,0.240708,299.013,294.546,268.615,296.559,292.948,264.605,0.0861733,0.249532,238.795,257.682
2015-05-26 16:00,0.220604,299.108,294.746,268.615,296.809,293.35,264.837,0.077481,0.229311,238.919,257.942
2015-05-26 17:00,0.213848,298.533,294.346,268.518,296.182,292.814,265.301,0.0760776,0.226778,238.483,257.942
2015-05-26 18:00,0.216949,297.248,293.843,268.13,295.93,292.814,264.721,0.085351,0.241146,238.981,258.2
2015-05-26 19:00,0.235583,295.368,292.929,267.544,295.424,292.679,264.721,0.119681,0.272717,238.671,258.114
2015-05-26 20:00,0.263221,292.414,291.279,266.657,293.635,291.464,264.837,0.206154,0.325528,239.349,258.286
2015-05-26 21:00,-0.0634503,288.43,288.736,264.543,291.423,289.689,264.022,-0.0537233,-0.0640569,239.714,258.457
2015-05-26 22:00,-0.00455389,287.444,288.195,264.236,290.897,289.689,264.022,-0.0,-0.0,239.532,258.543
2015-05-26 23:00,-0.0951334,286.864,287.76,264.133,290.632,289.276,264.372,-0.029676,-0.0606586,239.894,258.882
2015-05-27 00:00,-0.0501253,286.421,287.432,263.721,290.5,289.551,264.488,-0.0166733,-0.0325315,240.014,258.967
2015-05-27 01:00,-0.0,286.121,287.212,263.721,290.234,289.413,264.372,-0.0,-0.0,239.471,258.967
2015-05-27 02:00,-0.00129107,285.665,286.882,263.307,289.968,289.276,264.372,-0.0,-0.0,239.774,259.304
2015-05-27 03:00,0.00122476,285.202,286.439,263.307,289.568,288.584,263.67,-0.0,-0.0,239.166,258.628
2015-05-27 04:00,-0.00123525,283.924,284.3,261.625,286.997,286.06,262.373,-0.0,-0.0,238.357,257.07
2015-05-27 05:00,-0.0,282.234,280.909,259.902,282.803,281.293,258.515,-0.0,-0.0,237.463,254.907
2015-05-27 06:00,-0.0,283.594,283.841,261.305,286.447,285.35,261.779,-0.0,-0.0,237.913,257.07
2015-05-27 07:00,-0.00193593,283.261,283.611,261.198,286.31,285.065,261.779,-0.0,-0.0,237.913,257.333
2015-05-27 08:00,-0.0,280.239,278.226,257.459,280.054,278.458,257.406,-0.0,-0.0,234.686,253.213
2015-05-27 09:00,-0.0,282.408,282.799,260.445,285.201,284.349,260.942,-0.0,-0.0,238.733,257.246
2015-05-27 10:00,0.532279,284.087,285.208,261.944,288.222,287.748,264.138,0.655535,0.781626,240.724,259.304
2015-05-27 11:00,0.374457,287.871,287.322,263.307,289.968,288.999,263.67,0.22405,0.478846,240.134,259.135
2015-05-27 12:00,0.36999,292.653,289.911,265.153,292.47,290.238,264.022,0.167234,0.418462,240.607,258.628
2015-05-27 13:00,0.318041,295.69,292.108,266.557,294.405,291.735,263.787,0.128562,0.350082,241.131,257.595
2015-05-27 14:00,0.269451,297.549,293.235,267.642,295.297,291.871,263.787,0.103033,0.293087,241.246,257.333
2015-05-27 15:00,0.236575,298.144,293.641,268.033,295.55,292.141,264.605,0.0864342,0.258467,241.304,257.246
2015-05-27 16:00,0.219602,298.242,293.742,267.935,295.424,291.735,264.138,0.0790925,0.236592,241.073,256.805
2015-05-27 17:00,0.212657,297.549,293.438,267.74,295.424,292.006,263.787,0.079347,0.234704,240.312,256.001
2015-05-27 18:00,0.217594,296.635,292.929,267.642,294.916,291.464,263.553,0.0911876,0.250739,239.288,254.814
2015-05-27 19:00,0.233229,294.713,291.591,266.954,293.764,290.511,263.083,0.128092,0.286369,238.981,254.256
2015-05-27 20:00,0.25134,291.44,289.593,265.355,292.079,289.276,262.61,0.22961,0.333872,239.288,254.068
2015-05-27 21:00,-0.0312588,287.3,286.882,263.618,289.3,286.907,262.255,-0.0264668,-0.0631153,239.894,253.785
2015-05-27 22:00,-0.0,286.421,285.658,262.89,287.679,285.208,261.421,-0.0,-0.0,237.137,252.342
2015-05-27 23:00,-0.090141,286.421,285.882,263.099,288.493,286.626,261.779,-0.0296809,-0.0631963,235.799,252.342
2015-05-28 00:00,-0.0501483,285.045,284.528,262.576,287.134,285.208,261.062,-0.0166809,-0.0343545,237.137,252.634
2015-05-28 01:00,-0.00145728,286.864,285.994,263.307,288.493,286.343,262.136,-0.0,-0.0,236.874,252.925
2015-05-28 02:00,-0.0,285.357,285.321,263.307,287.815,285.777,261.898,-0.0,-0.0,236.071,252.537
2015-05-28 04:00,-0.0,284.73,284.071,262.366,286.86,284.636,260.701,-0.0,-0.0,235.867,251.552
2015-05-28 05:00,-0.0,282.581,280.909,260.337,283.088,280.257,258.147,-0.0,-0.0,233.159,249.928
2015-05-28 06:00,-0.0,269.283,265.545,249.924,265.997,264.451,250.104,-0.0,-0.0,232.328,245.918
2015-05-28 07:00,-0.0019345,249.156,246.313,238.963,245.914,244.328,237.07,-0.0,-0.0,230.43,238.578
2015-05-28 08:00,-0.00284839,251.944,250.566,240.913,250.83,249.955,241.664,-0.0,-0.0,230.916,241.348
2015-05-28 09:00,-0.0,243.066,243.496,236.784,243.895,243.024,236.613,-0.0,-0.0,229.601,237.327
2015-05-28 10:00,0.309122,252.585,252.853,242.225,255.439,254.664,245.072,0.741578,0.676167,233.75,244.998
2015-05-28 11:00,0.890375,283.594,245.676,239.115,247.229,245.399,238.428,0.924247,1.07155,231.787,238.714
2015-05-28 12:00,0.53384,272.061,237.841,233.849,238.938,238.282,233.819,0.868505,0.962196,229.517,234.236
2015-05-28 13:00,0.278032,251.282,238.338,234.017,238.199,237.815,233.185,0.704485,0.771379,229.263,234.542
2015-05-28 14:00,0.474366,283.093,241.682,236.146,243.209,242.143,236.307,0.707309,0.774693,230.996,237.468
2015-05-28 15:00,0.32828,261.251,236.576,233.681,237.451,236.396,232.066,0.557285,0.630024,229.263,233.928
2015-05-28 16:00,0.310603,275.251,255.764,244.07,257.739,257.301,246.182,0.556587,0.615532,235.455,247.481
2015-05-28 17:00,0.460821,268.686,241.682,236.306,242.515,241.027,234.604,0.677835,0.762606,230.018,238.165
2015-05-28 18:00,0.542221,278.684,246.942,238.503,247.878,246.876,238.278,0.711041,0.801079,232.557,241.98
2015-05-28 19:00,0.667144,286.271,255.05,243.65,257.17,256.928,246.319,0.741559,0.839508,234.041,246.032
2015-05-28 20:00,0.478484,255.521,246.313,238.195,246.575,246.246,239.765,0.596443,0.677623,230.511,239.255
2015-05-28 21:00,-0.0,242.013,240.277,235.01,241.344,239.895,233.819,-0.0261269,-0.0623046,228.575,236.325
2015-05-28 22:00,-0.00454722,233.989,230.559,230.387,230.853,230.429,227.94,-0.0,-0.0,225.739,228.96
2015-05-28 23:00,-0.122723,227.984,225.282,227.438,225.919,225.318,223.053,-0.0339296,-0.0632124,223.013,224.811
2015-05-29 00:00,-0.0698847,225.382,223.252,226.866,222.806,222.462,221.782,-0.0197237,-0.0361809,221.145,221.658
2015-05-29 01:00,-0.00145812,248.394,247.563,239.267,249.789,248.941,240.354,-0.0,-0.0,238.357,244.647
2015-05-29 02:00,-0.00129253,250.598,251.339,240.617,252.667,252.536,243.383,-0.0,-0.0,240.957,246.818
2015-05-29 03:00,-0.00122597,281.705,282.214,258.802,285.201,283.484,259.856,-0.0,-0.0,245.202,256.628
2015-05-29 04:00,-0.0,276.811,279.458,257.006,282.803,282.467,260.461,-0.0,-0.0,248.787,261.113
2015-05-29 05:00,-0.0,276.155,279.213,257.572,282.946,282.904,260.098,-0.0,-0.0,249.154,261.914
2015-05-29 06:00,-0.0,275.932,279.213,257.233,282.66,282.904,260.701,-0.0,-0.0,248.879,263.012
2015-05-29 07:00,-0.0,275.02,278.845,257.006,282.231,282.321,261.421,-0.0,-0.0,247.617,263.476
2015-05-29 08:00,-0.00284285,276.376,279.458,257.685,282.517,282.613,260.942,-0.0,-0.0,245.809,263.399
2015-05-29 09:00,-0.0,275.932,279.213,257.346,282.374,282.758,261.898,-0.0,-0.0,243.256,262.466
2015-05-29 10:00,0.880841,276.594,279.213,257.572,282.803,283.194,261.54,1.25855,1.22273,242.984,263.012
2015-05-29 12:00,0.536319,293.356,282.566,259.793,285.757,285.777,262.847,0.465988,0.538611,241.131,263.167
2015-05-29 13:00,0.597365,293.702,281.742,259.464,285.201,285.635,262.847,0.575793,0.62603,239.774,262.701
2015-05-29 14:00,0.586076,290.685,280.909,259.244,284.501,284.779,262.965,0.598438,0.658794,237.849,261.595
2015-05-29 15:00,0.457974,291.563,280.909,259.574,284.22,284.492,262.373,0.419505,0.490324,236.274,260.708
2015-05-29 16:00,0.319682,293.472,285.095,262.049,288.087,287.048,0.0,0.237189,0.342701,234.257,259.471
2015-05-29 17:00,0.24642,291.19,284.185,261.519,286.033,283.194,258.882,0.162619,0.290848,232.02,256.181
2015-05-29 18:00,0.342565,275.251,255.587,243.65,255.827,252.144,236.765,0.29192,0.444013,226.499,239.523
2015-05-29 19:00,0.323474,286.271,276.718,256.892,277.828,274.617,252.594,0.206756,0.397002,229.178,249.408
2015-05-29 20:00,0.367104,286.421,280.669,259.793,281.655,279.959,257.406,0.259964,0.444736,231.156,252.146
2015-05-29 21:00,-0.274641,273.338,264.482,249.924,265.31,263.412,246.457,-0.0516751,-0.184844,226.592,243.577
2015-05-29 22:00,-0.0,272.836,262.616,248.771,260.888,256.742,240.354,-0.0,-0.0,225.058,241.348
2015-05-29 23:00,-0.115249,274.314,264.788,249.669,265.31,262.008,243.525,-0.03182,-0.0657635,228.662,246.595
2015-05-30 00:00,-0.0681303,282.581,283.38,261.519,285.757,284.922,261.301,-0.0182166,-0.0343908,233.823,257.769
2015-05-30 01:00,-0.00145901,268.986,260.365,247.067,259.791,256.742,241.953,-0.0,-0.0,226.311,241.854
2015-05-30 02:00,-0.00129327,272.836,268.63,253.02,270.495,267.004,250.896,-0.0,-0.0,231.076,250.849
2015-05-30 03:00,-0.00122657,268.686,259.871,247.728,260.158,256.928,243.099,-0.0,-0.0,227.329,244.998
2015-05-30 04:00,-0.00123658,275.707,273.599,255.393,275.242,273.359,255.406,-0.0,0.00124841,231.865,253.405
2015-05-30 05:00,-0.0,254.396,249.781,240.913,250.415,248.532,238.727,-0.0,-0.0,227.87,242.848
2015-05-30 06:00,0.00152754,267.444,259.039,246.667,257.55,255.235,242.671,-0.0,-0.0,226.311,241.728
2015-05-30 07:00,-0.0,277.661,273.997,255.858,275.087,272.883,253.368,-0.0,-0.0,232.328,252.828
2015-05-30 08:00,-0.00283732,263.255,265.696,250.806,268.855,268.835,254.137,-0.0,-0.0,235.108,255.73
2015-05-30 09:00,-0.0,264.009,259.039,246.265,259.791,257.671,245.35,-0.0,-0.0,231.156,247.699
2015-05-30 10:00,0.590637,269.576,268.343,252.534,271.303,269.984,254.773,0.950174,0.894426,236.475,256.001
2015-05-30 11:00,0.54631,289.381,273.199,255.393,275.703,272.724,255.532,0.432299,0.561841,236.542,256.091
2015-05-30 12:00,0.338497,288.152,284.071,261.838,285.479,283.339,259.977,0.171963,0.398688,236.004,256.36
2015-05-30 13:00,0.323605,292.653,288.303,264.849,289.701,286.907,261.421,0.135242,0.358112,237.333,258.457
2015-05-30 14:00,0.252698,293.356,287.978,264.645,288.628,285.493,260.219,0.10698,0.28346,236.808,257.508
2015-05-30 15:00,0.240246,293.24,286.772,263.721,287.543,284.205,259.249,0.101016,0.263992,236.475,256.181
2015-05-30 16:00,0.26269,293.124,283.956,261.519,285.061,282.028,259.614,0.186049,0.306899,236.609,257.246
2015-05-30 17:00,0.401444,295.796,269.201,253.02,270.819,269.329,253.753,0.32606,0.392444,234.543,253.88
2015-05-30 18:00,0.646998,289.113,264.021,249.924,267.016,265.99,252.594,0.722286,0.785161,233.603,250.135
2015-05-30 19:00,0.728269,293.007,265.243,250.681,267.857,266.667,252.464,0.624702,0.725599,233.968,253.117
2015-05-30 20:00,0.743834,280.799,267.764,251.676,270.006,269.329,254.519,0.663846,0.778006,234.185,252.634
2015-05-30 21:00,-0.0604592,262.475,262.931,248.512,265.482,264.967,251.683,-0.0511907,-0.122074,233.382,251.452
2015-05-30 22:00,-0.0,261.251,262.3,248.382,264.618,264.106,251.159,-0.0,-0.00458774,233.308,250.95
2015-05-30 23:00,-0.117805,266.131,266.293,250.806,268.191,267.84,253.497,-0.0360782,-0.0683223,235.936,254.999
2015-05-31 00:00,-0.0502312,263.255,264.788,249.669,267.016,266.835,253.111,-0.0151895,-0.0326002,235.867,255.366
2015-05-31 01:00,-0.00145992,258.576,252.101,242.225,251.856,249.955,239.765,-0.0,-0.0,230.348,244.764
2015-05-31 02:00,-0.0,281.705,281.029,260.011,283.372,280.998,259.492,-0.0,-0.0,237.268,257.769
2015-05-31 03:00,-0.0,284.57,284.869,262.471,287.27,286.06,262.255,-0.0,-0.0,237.849,259.304
2015-05-31 04:00,-0.0,284.73,285.433,262.89,287.679,286.343,262.728,-0.0,-0.0,237.137,258.713
2015-05-31 05:00,-0.00132662,283.76,283.495,261.625,285.201,283.194,259.614,-0.0,-0.0,237.463,257.769
2015-05-31 06:00,-0.0,284.087,284.642,262.576,287.134,285.635,261.898,-0.0,-0.0,238.357,258.543
2015-05-31 07:00,-0.0,269.865,269.767,253.381,272.104,270.635,255.784,-0.0,-0.0,238.919,256.001
2015-05-31 08:00,-0.00283178,268.686,267.473,252.168,270.169,268.67,253.753,-0.0,-0.0,239.532,256.001
2015-05-31 09:00,-0.0,265.095,267.326,251.552,270.495,269.494,253.881,-0.0,-0.0,239.471,256.894
2015-05-31 10:00,1.27307,282.059,281.267,260.445,284.079,281.441,259.735,1.0779,1.41376,239.714,258.114
2015-05-31 11:00,0.4629,289.113,285.095,262.786,287.951,286.202,262.136,0.361453,0.472518,239.593,258.457
2015-05-31 12:00,0.433528,294.156,286.661,263.928,289.434,287.469,262.965,0.287896,0.434811,239.471,258.543
2015-05-31 13:00,0.347635,295.583,283.841,262.261,285.34,281.882,259.249,0.213266,0.357263,238.231,257.508
2015-05-31 14:00,0.286895,296.114,290.44,266.059,291.292,287.888,262.965,0.125182,0.305629,237.463,258.114
2015-05-31 15:00,0.417873,298.918,271.574,255.16,272.582,269.0,253.24,0.2664,0.397052,236.675,254.814
2015-05-31 16:00,0.481977,299.765,264.788,250.681,266.508,264.451,250.369,0.359006,0.456486,236.408,253.974
2015-05-31 17:00,0.289518,298.726,286.992,264.339,288.493,283.629,259.614,0.146464,0.290447,236.341,256.539
2015-05-31 18:00,0.166582,287.587,278.474,258.913,278.427,274.773,253.753,0.144806,0.210779,231.236,249.303
2015-05-31 19:00,0.519727,267.123,232.28,231.799,228.583,226.151,223.413,0.542641,0.663112,219.137,223.999
2015-05-31 20:00,0.807039,261.251,216.88,224.305,215.993,215.356,215.474,0.854149,1.06597,214.879,215.867
2015-05-31 21:00,-0.0299957,204.719,206.643,219.855,205.946,204.955,207.872,-0.0253973,-0.0302824,206.292,206.606
2015-05-31 22:00,-0.0,218.393,203.838,218.502,202.701,202.941,206.286,-0.0,-0.0,203.894,203.524
2015-05-31 23:00,-0.120374,232.213,223.94,227.628,222.806,221.283,220.489,-0.0339734,-0.0683575,219.26,221.658
