# timestamp,IR_016,IR_039,IR_087,IR_097,IR_108,IR_120,IR_134,VIS006,VIS008,WV_062,WV_073
2016-01-01 00:00,-0.00169871,288.568,289.379,261.838,292.209,290.921,264.372,0.0,0.0,240.43,261.194
2016-01-01 01:00,0.0,288.43,289.272,262.261,291.948,290.784,264.488,0.0,0.0,240.371,260.708
2016-01-01 02:00,0.0,286.864,287.76,260.984,290.632,289.689,264.138,0.0,0.0,239.714,260.052
2016-01-01 03:00,0.00115546,288.291,288.951,261.944,291.555,290.238,264.488,0.0,0.0,239.894,259.887
2016-01-01 04:00,0.0,288.841,289.486,262.261,292.34,291.057,264.372,0.0,0.0,240.134,259.887
2016-01-01 05:00,0.0,287.01,287.651,260.876,290.101,288.861,263.083,0.0,0.0,239.834,259.97
2016-01-01 06:00,0.0,288.43,289.272,262.155,291.948,290.648,264.255,0.0,0.0,240.312,259.97
2016-01-01 07:00,0.0,286.421,287.651,260.876,290.234,288.999,263.318,0.0,0.0,240.548,260.463
2016-01-01 08:00,0.0,288.705,289.272,261.838,291.948,290.375,264.138,0.0,0.0,240.724,260.627
2016-01-01 09:00,-0.00444279,289.113,289.805,261.731,292.47,291.193,264.255,0.0,0.0,240.724,260.545
2016-01-01 10:00,-0.0301843,289.113,290.017,262.049,292.73,291.329,264.605,-0.25557,-0.21331,240.607,260.381
2016-01-01 11:00,0.105354,289.779,289.058,261.305,291.817,290.238,263.67,0.25646,0.16619,240.312,260.217
2016-01-01 12:00,0.135513,291.315,287.541,260.769,290.234,288.861,263.083,0.202795,0.15908,240.371,260.135
2016-01-01 13:00,0.128338,290.171,287.869,260.661,290.234,288.999,263.318,0.18173,0.160839,240.371,259.887
2016-01-01 14:00,0.139051,290.685,287.541,260.553,289.968,288.584,263.553,0.162659,0.149616,240.371,259.887
2016-01-01 15:00,0.0706174,289.113,287.76,260.769,290.367,288.999,263.2,0.111042,0.0967541,240.014,259.721
2016-01-01 16:00,0.0219141,289.514,288.843,261.412,291.423,289.964,263.436,0.0585184,0.0374399,240.134,259.97
2016-01-01 17:00,0.0516528,289.779,288.52,261.198,291.16,290.101,264.138,0.079659,0.0633209,240.724,260.299
2016-01-01 18:00,0.0674461,290.171,288.195,260.984,290.632,289.137,263.553,0.106599,0.0817091,241.189,260.217
2016-01-01 19:00,0.01948,289.779,289.272,261.519,291.817,290.101,263.787,0.0907155,0.0491657,240.841,260.135
2016-01-01 20:00,0.333284,290.685,288.412,261.091,291.029,289.551,264.138,0.318216,0.322153,241.704,260.708
2016-01-01 21:00,0.0,286.717,287.76,260.876,290.632,289.551,264.138,0.0,0.0,242.155,261.275
2016-01-01 22:00,0.0,288.977,290.017,262.049,292.6,291.193,264.488,0.0,0.0,241.874,261.275
2016-01-01 23:00,0.0,289.113,290.017,262.049,292.73,291.057,264.488,0.0,0.0,242.378,261.435
2016-01-02 00:00,0.0,289.113,289.593,261.731,292.47,290.921,264.605,0.0,0.0,242.82,261.834
2016-01-02 01:00,0.0,288.977,289.805,262.049,292.47,290.921,264.837,0.0,0.0,242.929,262.151
2016-01-02 02:00,0.0,289.113,289.699,262.261,292.34,290.921,264.488,0.0,0.0,243.418,262.388
2016-01-02 03:00,0.0,288.291,288.736,261.625,291.16,289.413,263.787,0.0,0.0,243.418,262.545
2016-01-02 04:00,0.0,288.568,289.593,261.838,291.948,290.375,264.372,0.0,0.0,244.006,262.935
2016-01-02 05:00,0.0,289.113,289.593,261.838,292.34,290.921,264.721,0.0,0.0,244.269,263.167
2016-01-02 06:00,-0.0013972,288.152,289.272,262.049,291.817,290.375,264.488,0.0,0.0,244.687,263.782
2016-01-02 07:00,0.0,288.012,289.165,261.198,291.817,290.511,264.605,0.0,0.0,244.687,263.858
2016-01-02 08:00,0.00242732,288.705,289.911,262.155,292.6,291.329,265.069,0.0,0.0,245.099,264.238
2016-01-02 09:00,0.0,287.3,287.76,260.553,290.367,288.999,263.436,0.0,0.0,245.304,264.01
2016-01-02 10:00,0.0,287.3,287.651,260.445,289.968,288.722,263.67,-0.248855,-0.237377,245.709,264.389
2016-01-02 11:00,0.185188,288.841,287.102,260.445,289.434,287.888,263.553,0.319196,0.260406,246.059,264.54
2016-01-02 12:00,0.410169,287.3,280.909,257.006,283.372,282.613,262.136,0.488877,0.531947,246.159,264.464
2016-01-02 13:00,0.177022,291.686,285.658,259.244,287.679,286.343,262.728,0.207965,0.189884,246.307,264.839
2016-01-02 14:00,0.0804476,289.247,286.992,260.119,289.166,288.027,263.2,0.109913,0.0959833,245.099,264.615
2016-01-02 15:00,0.0117543,289.514,289.272,261.412,291.555,289.964,264.488,0.0526052,0.028819,245.099,264.765
2016-01-02 16:00,0.00504733,289.247,290.017,261.625,292.34,290.921,264.605,0.0413112,0.0203823,245.304,265.286
2016-01-02 17:00,0.0183974,290.041,290.123,261.519,292.6,291.464,264.953,0.0498467,0.02786,245.557,265.286
2016-01-02 18:00,0.0291134,290.041,290.017,261.625,292.34,291.329,265.069,0.0682622,0.0429571,245.709,265.434
2016-01-02 19:00,0.10003,290.813,289.805,261.519,292.209,291.193,264.372,0.139337,0.107501,245.96,265.581
2016-01-02 20:00,0.181827,290.301,289.593,261.731,291.948,290.648,264.138,0.23685,0.204746,246.159,265.581
2016-01-02 21:00,0.0,289.113,289.805,261.412,292.209,290.784,264.721,0.0,0.0,246.406,265.655
2016-01-02 22:00,-0.00425612,288.152,288.951,260.876,291.16,289.964,264.138,0.0,0.0,246.456,265.581
2016-01-02 23:00,0.0,287.587,288.412,260.769,290.367,289.276,263.787,0.0,0.0,246.258,265.581
2016-01-03 00:00,0.0,288.705,289.272,261.305,291.423,290.101,264.022,0.0,0.0,246.554,265.728
2016-01-03 01:00,0.0,285.97,286.105,259.683,288.358,286.907,263.2,0.0,0.0,246.059,265.286
2016-01-03 02:00,0.0,288.012,288.303,260.553,290.632,289.137,263.905,0.0,0.0,245.859,265.063
2016-01-03 03:00,0.0,288.152,288.843,261.091,291.029,289.689,263.787,0.0,0.0,246.159,265.434
2016-01-03 04:00,0.0,288.568,289.165,261.198,291.555,290.101,264.255,0.0,0.0,246.652,265.434
2016-01-03 05:00,-0.00122934,288.841,289.805,261.305,291.948,290.375,264.138,0.0,0.0,246.554,265.655
2016-01-03 06:00,0.0,289.381,290.123,261.838,292.6,291.193,264.837,0.0,0.0,246.208,265.507
2016-01-03 07:00,0.0,289.381,290.44,261.838,293.119,292.006,265.416,0.0,0.0,246.109,265.801
2016-01-03 08:00,0.0,289.247,290.651,261.731,293.635,292.679,265.532,0.0,0.0,245.759,265.728
2016-01-03 09:00,0.0,288.977,290.123,261.412,292.86,291.735,265.185,0.0,0.0,245.759,265.728
2016-01-03 10:00,-0.0286879,288.705,289.165,260.984,291.817,290.511,264.255,-0.21861,-0.202735,245.253,265.36
2016-01-03 11:00,0.358579,288.977,283.726,257.798,286.31,285.493,262.61,0.421678,0.40223,245.456,265.063
2016-01-03 12:00,0.0378974,289.647,289.911,261.198,292.209,290.784,264.605,0.131025,0.0669544,245.91,265.655
2016-01-03 13:00,0.0154873,289.247,289.486,261.305,291.948,290.511,264.721,0.0842982,0.0424388,245.557,265.137
2016-01-03 14:00,0.00548052,289.514,290.017,261.305,292.47,291.057,264.837,0.0572309,0.0258202,245.507,265.137
2016-01-03 15:00,0.132467,289.113,286.882,259.793,289.434,288.167,263.787,0.173208,0.169283,245.355,265.063
2016-01-03 16:00,0.0167901,289.647,289.272,260.876,291.686,290.238,264.138,0.0554428,0.0339011,245.253,264.615
2016-01-03 17:00,0.0073382,289.647,289.911,261.198,292.079,290.784,264.605,0.0465993,0.0240771,245.96,264.989
2016-01-03 18:00,0.0178444,289.514,289.486,260.876,291.555,290.101,264.138,0.0604354,0.03603,245.91,264.765
2016-01-03 19:00,0.12185,291.19,288.412,260.337,290.897,289.276,263.67,0.15747,0.129489,245.709,264.839
2016-01-03 20:00,0.813747,287.3,279.458,255.626,282.231,282.028,261.301,0.636447,0.786716,245.759,264.54
2016-01-03 21:00,-0.0244665,289.381,289.699,261.305,292.079,290.511,264.488,0.0,-0.0247004,246.009,265.063
2016-01-03 22:00,0.0,288.012,288.951,260.769,291.423,289.964,264.372,0.0,0.0,246.009,264.914
2016-01-03 23:00,0.0,289.113,289.699,261.412,292.34,290.921,264.837,0.0,0.0,245.759,264.914
2016-01-04 00:00,0.0,288.705,289.699,261.305,292.34,290.921,264.721,0.0,0.0,246.009,265.286
2016-01-04 01:00,0.0,276.811,279.091,255.043,281.366,281.293,261.062,0.0,0.0,245.859,264.464
2016-01-04 02:00,0.0,281.346,282.096,257.346,284.641,283.773,261.779,0.0,0.0,245.658,264.238
2016-01-04 03:00,-0.00115609,288.841,289.593,261.519,291.817,290.238,264.488,0.0,0.0,246.009,264.69
2016-01-04 04:00,0.00115695,288.568,289.911,261.838,292.34,291.193,265.069,0.0,0.0,244.164,264.464
2016-01-04 05:00,0.0,278.883,279.945,256.32,282.517,282.321,261.66,0.0,0.0,242.655,263.399
2016-01-04 06:00,0.0,276.594,278.226,255.16,280.639,280.554,260.581,0.0,0.0,240.957,262.466
2016-01-04 07:00,0.0,283.76,282.682,257.572,284.921,283.629,261.779,0.0,0.0,240.253,262.388
2016-01-04 08:00,0.0,277.869,278.845,255.51,281.366,280.85,261.182,0.0,0.0,240.724,262.545
2016-01-04 09:00,0.0,277.026,278.968,255.51,281.51,281.588,260.942,0.0,0.0,240.724,262.701
2016-01-04 10:00,-0.0841961,278.075,279.336,255.742,281.51,281.293,261.182,-0.285155,-0.255003,241.817,263.244
2016-01-04 11:00,0.0466487,289.779,290.123,262.366,292.47,291.057,264.721,0.225699,0.127828,242.266,263.167
2016-01-04 12:00,0.0221226,289.514,290.017,262.049,292.47,291.193,264.255,0.123091,0.0670023,241.93,263.322
2016-01-04 13:00,0.181367,293.124,282.682,257.91,285.479,284.636,262.255,0.202254,0.205431,241.131,263.167
2016-01-04 14:00,0.127755,290.685,286.55,260.228,289.166,288.167,263.318,0.154529,0.127134,240.724,263.09
2016-01-04 15:00,0.123892,289.514,282.566,258.134,285.479,284.349,261.66,0.131832,0.126766,240.371,262.545
2016-01-04 16:00,0.04356,289.91,287.869,260.769,290.367,288.999,263.905,0.0709272,0.0490506,240.43,262.857
2016-01-04 17:00,0.00914585,289.381,289.805,261.838,291.948,290.375,264.488,0.0449139,0.0276998,239.41,263.399
2016-01-04 18:00,0.0133284,289.381,289.911,261.944,292.34,290.921,264.721,0.0545449,0.0313969,238.231,262.857
2016-01-04 19:00,0.0254889,289.779,290.017,262.049,292.47,291.329,264.953,0.0890235,0.0514652,236.341,262.623
2016-01-04 20:00,0.380784,280.799,278.721,255.51,280.639,280.406,259.614,0.403012,0.432478,236.808,261.275
2016-01-04 21:00,0.0,278.279,272.527,251.056,272.264,270.473,252.205,0.0,0.0,233.968,253.974
2016-01-04 22:00,0.0,273.586,267.18,247.859,268.024,266.329,248.768,0.0,0.0,231.943,250.748
2016-01-04 23:00,0.0,260.827,249.185,237.415,247.012,244.328,234.76,0.0,0.0,227.87,238.986
2016-01-05 00:00,0.00171381,269.865,258.534,242.942,257.55,254.855,241.084,0.0,0.0,228.748,241.854
2016-01-05 01:00,-0.00139018,277.026,274.916,252.777,275.703,274.304,255.153,0.0,0.0,233.677,255.457
2016-01-05 02:00,0.00122657,288.977,289.699,262.155,292.34,290.921,264.605,0.0,0.0,235.038,261.033
2016-01-05 03:00,0.0,288.841,289.486,261.731,292.079,290.784,264.488,0.0,0.0,235.317,261.595
2016-01-05 04:00,0.00115672,287.871,288.412,261.198,290.897,289.551,263.905,0.0,0.0,236.071,261.675
2016-01-05 05:00,0.0,287.729,288.195,260.876,290.367,289.137,263.787,0.0,0.0,236.475,261.435
2016-01-05 06:00,-0.0013928,288.705,288.843,261.412,291.16,289.964,263.787,0.0,0.0,235.386,260.627
2016-01-05 07:00,0.0,283.093,283.956,258.691,286.585,285.777,262.255,0.0,0.00173554,235.662,260.217
2016-01-05 08:00,0.0,285.818,285.546,259.574,287.951,287.048,263.083,0.0,0.0,235.593,259.804
2016-01-05 09:00,-0.00436935,288.43,289.058,261.305,291.292,289.689,263.787,0.0,0.0,235.317,259.887
2016-01-05 10:00,-0.0275159,288.012,288.412,261.198,291.292,289.689,263.67,-0.209679,-0.194453,235.662,259.387
2016-01-05 11:00,0.10696,289.247,287.869,260.769,290.367,288.722,263.67,0.277348,0.195718,234.827,258.543
2016-01-05 12:00,0.259277,287.3,282.916,257.798,285.479,284.779,262.492,0.326616,0.303253,235.525,258.713
2016-01-05 13:00,0.28961,289.381,283.726,258.246,286.033,285.35,262.255,0.378114,0.39951,235.386,258.967
2016-01-05 14:00,0.0820382,290.558,287.432,260.445,289.968,288.445,263.436,0.123487,0.0920249,236.408,260.052
2016-01-05 15:00,0.0668573,289.779,288.087,260.876,290.367,288.999,263.787,0.10614,0.0809957,237.528,260.381
2016-01-05 16:00,0.252409,288.152,280.669,256.549,283.372,282.758,261.182,0.256175,0.259885,237.592,259.721
2016-01-05 17:00,0.0930041,289.647,287.651,260.769,289.968,288.306,263.436,0.118892,0.106781,237.785,259.721
2016-01-05 18:00,0.0353928,290.171,289.486,261.625,291.948,290.375,264.138,0.0711717,0.0468971,238.42,259.887
2016-01-05 19:00,0.0728053,291.065,289.699,261.944,292.34,291.057,264.837,0.120608,0.0894798,238.671,260.299
2016-01-05 20:00,0.221237,290.813,289.379,261.838,291.817,290.375,263.67,0.261114,0.223352,238.608,260.135
2016-01-05 21:00,0.0,288.291,289.379,261.625,291.948,290.511,264.138,-0.0229938,-0.0274166,238.483,259.471
2016-01-05 22:00,-0.00435969,288.841,289.911,261.838,292.6,291.193,264.605,0.0,0.0,238.546,259.887
2016-01-05 23:00,0.0,288.568,289.593,261.944,292.34,290.921,265.069,0.0,0.0,238.981,260.052
2016-01-06 00:00,-0.00171774,288.705,289.486,261.838,292.079,290.648,264.255,0.0,0.0,239.227,260.217
2016-01-06 01:00,0.0,288.568,289.593,262.049,292.079,290.648,263.67,0.0,0.0,239.834,260.052
2016-01-06 02:00,0.0,288.012,289.058,261.519,291.423,290.101,263.905,0.0,0.0,240.134,260.299
2016-01-06 03:00,0.0011566,285.512,286.439,260.119,288.763,287.609,263.2,0.0,0.0,239.894,260.299
2016-01-06 04:00,-0.0011565,287.587,288.412,261.198,290.764,289.551,264.022,0.0,0.00116756,239.653,260.217
2016-01-06 05:00,0.0,288.291,289.272,261.625,291.817,290.511,264.255,0.0,0.0,239.834,260.871
2016-01-06 06:00,-0.00139146,288.841,289.593,262.155,292.209,290.784,264.255,0.0,0.0,240.724,261.113
2016-01-06 07:00,-0.0034333,288.291,289.379,262.049,291.817,290.511,264.488,0.0,0.0,240.899,261.033
2016-01-06 08:00,0.0,288.291,289.165,262.049,291.555,290.101,263.905,0.0,0.0,241.246,261.194
2016-01-06 09:00,0.0,286.717,287.651,260.876,290.101,288.584,263.553,0.0,0.0,241.073,261.355
2016-01-06 10:00,-0.0540666,288.291,289.058,261.944,291.686,290.101,263.905,-0.206001,-0.191042,241.189,261.355
2016-01-06 11:00,0.0737323,289.514,289.699,262.049,292.209,290.921,264.138,0.255392,0.155641,241.874,261.755
2016-01-06 12:00,0.0442782,289.647,289.593,262.049,292.34,291.193,264.138,0.141927,0.083017,241.533,261.355
2016-01-06 13:00,0.0132562,289.113,289.699,262.576,292.47,291.193,264.837,0.0860507,0.0468402,241.93,261.914
2016-01-06 14:00,0.00728329,289.247,290.017,262.366,292.73,291.464,265.069,0.0601258,0.0294117,242.042,262.466
2016-01-06 15:00,0.00500538,289.247,290.123,262.681,292.989,291.871,265.185,0.0466186,0.0202129,242.042,262.701
2016-01-06 16:00,0.00500285,289.514,290.229,262.786,292.989,292.006,265.647,0.0395351,0.0202027,242.266,262.23
2016-01-06 17:00,0.00727153,289.381,290.229,262.786,292.989,292.141,264.605,0.0415583,0.0220231,242.489,262.309
2016-01-06 18:00,0.0110126,289.647,290.335,262.681,293.119,292.141,265.185,0.0540811,0.0289064,242.655,262.545
2016-01-06 19:00,0.0314458,289.647,290.229,263.203,292.989,291.6,264.953,0.0931879,0.0603182,243.147,263.012
2016-01-06 20:00,0.0925336,290.171,290.123,262.786,292.86,291.871,264.721,0.201467,0.1468,242.984,262.857
2016-01-06 21:00,-0.0287754,288.841,290.123,262.995,292.86,291.871,265.301,-0.0243641,0.0,242.929,262.857
2016-01-06 22:00,0.0,287.01,288.303,262.049,291.029,289.964,264.488,0.0,0.0,242.655,262.466
2016-01-06 23:00,0.0,288.152,289.058,262.576,291.948,290.784,264.605,0.0,0.0,242.655,262.388
2016-01-07 00:00,0.0,288.291,289.593,263.099,292.079,290.648,264.837,0.0,0.0,242.875,262.309
2016-01-07 01:00,-0.00139397,288.705,289.379,262.786,292.079,290.921,264.372,0.0,0.0,243.147,262.623
2016-01-07 02:00,-0.00122835,289.247,290.123,263.203,292.34,291.057,264.488,0.0,0.00124009,243.147,262.779
2016-01-07 03:00,0.0,288.841,289.379,262.786,291.686,290.101,264.138,0.0,0.0,243.526,262.623
2016-01-07 04:00,0.0,284.73,285.433,260.228,287.951,287.048,263.2,0.0,0.0,243.364,262.935
2016-01-07 05:00,0.00122648,286.421,287.212,261.198,289.434,288.445,263.67,0.0,0.0,243.256,262.935
2016-01-07 06:00,-0.00139018,288.841,289.805,262.89,292.079,290.784,264.605,0.0,0.0,243.793,263.09
2016-01-07 07:00,0.0,288.841,289.593,262.786,292.079,290.648,264.488,0.0,0.0,243.472,263.167
2016-01-07 08:00,0.00240056,288.291,289.272,262.786,291.555,290.511,264.372,0.0,0.0,244.269,263.322
2016-01-07 09:00,0.0,285.665,285.994,260.661,288.763,287.469,263.318,0.0,0.0,244.217,263.244
2016-01-07 10:00,-0.0266121,280.05,281.86,257.798,284.22,284.205,262.017,-0.247857,-0.214932,244.997,263.552
2016-01-07 11:00,0.550865,284.41,282.331,258.246,284.641,284.492,262.255,0.688249,0.698555,245.355,263.782
2016-01-07 12:00,0.373212,289.514,283.148,258.802,285.34,284.779,262.373,0.447218,0.41829,245.355,263.476
2016-01-07 13:00,0.525411,289.514,281.267,257.685,283.797,283.773,262.255,0.600006,0.610667,245.759,263.782
2016-01-07 14:00,0.478222,284.41,280.669,257.233,283.088,282.904,261.66,0.655862,0.688395,245.809,263.934
2016-01-07 15:00,0.318073,280.982,280.308,256.892,282.517,282.175,261.421,0.517474,0.529585,245.507,263.934
2016-01-07 16:00,0.286119,284.73,281.978,258.134,284.22,284.061,261.66,0.347891,0.342594,245.859,264.238
2016-01-07 17:00,0.338842,283.261,281.624,257.798,283.797,283.773,262.136,0.444921,0.459157,245.91,264.238
2016-01-07 18:00,0.217088,291.809,285.433,260.228,287.951,287.048,262.847,0.224654,0.20588,246.208,264.54
2016-01-07 19:00,0.171795,290.939,287.102,261.412,289.568,288.584,263.787,0.177195,0.160824,246.847,265.063
2016-01-07 20:00,0.0977402,290.041,289.699,263.203,292.079,290.648,264.255,0.193098,0.151301,246.944,265.212
2016-01-07 21:00,0.0,288.841,289.911,263.203,292.47,291.193,264.837,-0.0259312,-0.0309191,246.603,264.765
2016-01-07 22:00,0.0,288.841,290.229,263.307,292.6,291.464,265.069,0.0,0.0,246.652,264.914
2016-01-07 23:00,0.0,289.247,290.335,263.307,292.73,291.735,265.416,0.0,0.0,246.603,265.286
2016-01-08 00:00,0.0,288.705,290.017,263.203,292.73,291.871,264.953,0.0,0.0,246.993,265.507
2016-01-08 01:00,-0.00139591,288.291,289.058,262.576,291.423,290.238,265.069,0.0,0.0,247.041,265.507
2016-01-08 02:00,0.0,288.291,289.486,262.471,291.817,290.648,264.488,0.0,0.0,247.522,265.507
2016-01-08 03:00,0.0,288.291,288.951,262.471,291.292,289.826,263.67,0.0,0.0,248.043,265.507
2016-01-08 04:00,0.0,283.093,283.264,259.024,286.033,284.636,262.728,0.0,0.0,248.695,265.36
2016-01-08 05:00,0.0,276.155,278.474,256.089,281.366,281.735,261.182,0.0,0.0,249.108,265.212
2016-01-08 06:00,-0.00138897,278.279,279.336,256.664,282.374,282.028,261.421,0.0,0.0,249.651,265.286
2016-01-08 07:00,0.0,286.421,286.55,260.984,288.763,287.329,262.255,0.0,0.0,249.964,265.801
2016-01-08 08:00,0.0,288.841,289.805,262.89,292.209,290.784,264.488,0.0,0.0,250.097,266.456
2016-01-08 09:00,-0.00432665,288.977,290.017,262.89,292.47,291.057,264.488,0.0,0.0,250.053,266.094
2016-01-08 10:00,0.0,288.977,289.911,262.786,292.079,290.784,264.372,-0.200018,-0.185493,249.108,266.094
2016-01-08 11:00,0.23554,291.315,287.102,261.198,289.701,288.306,263.2,0.319091,0.258174,248.971,265.875
2016-01-08 12:00,0.224515,292.414,284.071,259.574,286.86,285.777,262.61,0.275774,0.255393,248.925,265.875
2016-01-08 13:00,0.430071,294.491,278.968,256.089,282.087,281.882,261.301,0.403356,0.434183,248.695,265.948
2016-01-08 14:00,0.0290498,289.647,288.736,261.944,291.16,289.689,263.787,0.0768639,0.0476573,246.307,265.212
2016-01-08 15:00,0.300815,285.512,281.029,257.233,283.656,283.629,261.898,0.318023,0.33557,245.809,264.464
2016-01-08 16:00,0.10121,289.514,285.994,260.228,288.358,287.188,263.083,0.12784,0.102178,245.202,264.238
2016-01-08 17:00,0.270892,287.729,282.799,258.022,285.34,285.208,262.373,0.264533,0.273481,244.739,263.858
2016-01-08 18:00,0.445318,288.705,282.214,257.91,284.921,284.922,262.492,0.47501,0.498059,244.997,264.01
2016-01-08 19:00,0.577043,286.864,281.86,257.685,284.22,284.205,262.136,0.61992,0.670256,245.099,264.01
2016-01-08 20:00,0.668059,285.045,281.505,257.233,283.938,284.061,261.421,0.609155,0.70687,244.842,263.858
2016-01-08 21:00,-0.0327612,280.239,281.86,257.572,284.22,284.061,262.136,-0.0277388,-0.0661488,245.202,264.086
2016-01-08 22:00,0.0,280.427,281.86,257.233,284.22,283.917,261.898,0.0,0.0,245.355,263.552
2016-01-08 23:00,0.0,283.261,284.185,259.244,286.31,285.635,262.136,0.0,0.0,245.456,263.476
2016-01-09 00:00,-0.00172988,287.444,288.303,261.519,290.632,289.276,263.67,0.0,0.0,244.479,263.399
2016-01-09 01:00,0.0,286.271,286.772,260.661,289.032,287.888,262.728,0.0,0.0,243.633,262.779
2016-01-09 02:00,0.0,283.093,283.495,258.691,285.618,285.208,261.898,0.0,0.0,243.793,262.623
2016-01-09 03:00,-0.00115752,288.012,288.736,261.519,290.632,289.551,263.67,0.0,0.0,242.544,262.935
2016-01-09 04:00,0.0,288.841,289.379,262.155,291.686,290.238,264.138,0.0,0.0,241.361,262.309
2016-01-09 05:00,0.0,288.841,289.379,262.049,291.686,290.238,263.787,0.0,0.0,241.304,262.466
2016-01-09 06:00,0.0,288.705,289.272,261.944,291.948,290.511,263.67,0.0,0.0,240.014,261.834
2016-01-09 07:00,0.00171005,287.871,288.951,261.625,291.423,290.375,263.905,0.0,0.0,239.653,261.675
2016-01-09 08:00,0.0,288.568,289.486,262.155,292.209,291.057,264.022,0.0,0.0,239.288,261.755
2016-01-09 09:00,0.0,287.155,288.303,261.305,290.764,289.826,263.553,0.0,0.0,239.227,261.675
2016-01-09 10:00,-0.0259375,288.705,289.593,262.155,291.948,290.648,264.255,-0.197651,-0.157113,238.919,261.675
2016-01-09 11:00,0.289753,289.247,288.412,262.049,290.764,289.689,263.67,0.382264,0.299326,239.227,261.834
2016-01-09 12:00,0.290795,288.977,285.095,259.683,287.543,287.048,262.847,0.339885,0.322294,238.42,261.113
2016-01-09 13:00,0.394342,287.155,283.611,258.469,286.033,285.635,262.255,0.526014,0.544901,237.977,260.299
2016-01-09 14:00,0.157702,287.871,285.77,259.574,287.543,286.343,262.017,0.263982,0.241559,236.139,257.421
2016-01-09 15:00,0.180771,278.482,268.054,249.158,268.524,267.339,250.369,0.230289,0.234402,235.317,251.352
2016-01-09 16:00,0.0248211,289.113,288.843,261.305,291.292,289.689,263.2,0.0574437,0.0334112,237.333,259.135
2016-01-09 17:00,0.0521928,288.977,287.869,260.876,290.234,289.137,263.2,0.0853355,0.0654105,237.913,257.421
2016-01-09 18:00,0.00651875,289.113,289.272,261.731,291.817,290.101,263.67,0.0515145,0.0219369,238.104,257.07
2016-01-09 19:00,0.129406,290.171,288.628,261.731,291.292,289.826,263.67,0.161743,0.133754,238.608,257.246
2016-01-09 20:00,0.316625,288.568,286.992,260.769,289.568,288.445,262.728,0.369958,0.370796,237.528,256.001
2016-01-09 21:00,-0.0352485,287.3,287.76,261.625,290.234,288.722,263.083,-0.0298448,-0.0355855,237.268,255.639
2016-01-09 22:00,0.0,288.43,288.736,262.261,291.423,289.551,262.965,0.0,0.0,236.609,254.999
2016-01-09 23:00,0.0,288.43,288.951,262.576,291.555,290.101,263.436,0.0,0.0,236.475,255.457
2016-01-10 00:00,0.0,288.705,288.951,262.786,291.817,290.101,263.436,0.0,0.0,236.408,254.443
2016-01-10 01:00,-0.00139987,288.705,288.736,262.89,291.555,289.689,263.553,0.0,0.0,236.274,253.974
2016-01-10 02:00,-0.00123118,273.586,263.867,247.859,263.393,256.367,242.956,0.0,0.0,234.543,243.336
2016-01-10 03:00,0.0,287.587,287.212,262.155,289.835,287.188,261.54,0.0,0.0,235.108,250.849
2016-01-10 04:00,0.0,288.291,288.52,262.89,291.423,289.276,263.2,0.0,0.0,236.004,251.751
2016-01-10 05:00,0.00122476,288.152,288.087,262.471,290.897,288.861,262.61,0.0,0.0,236.004,252.439
2016-01-10 06:00,0.0,287.444,287.322,262.155,290.234,288.445,262.373,0.0,0.0,236.274,252.731
2016-01-10 07:00,-0.00170812,285.97,286.55,261.305,289.166,287.609,262.255,0.00144626,0.0,235.936,252.537
2016-01-10 08:00,0.0,288.291,288.628,262.786,291.555,289.689,262.847,0.0,0.0,235.936,252.731
2016-01-10 09:00,0.0,287.3,287.212,261.731,290.101,288.027,262.728,0.0,0.0,236.004,252.634
2016-01-10 10:00,-0.0256774,287.871,287.212,261.944,289.701,287.469,261.301,-0.195669,-0.155537,235.662,251.652
2016-01-10 11:00,0.121392,288.705,286.882,261.519,289.434,286.767,261.54,0.274086,0.17702,236.408,251.949
2016-01-10 12:00,0.135825,290.429,285.546,261.198,287.951,285.35,261.421,0.20861,0.153068,237.592,253.117
2016-01-10 13:00,0.116611,289.514,285.658,260.984,288.087,285.35,261.301,0.16021,0.126611,237.657,253.69
2016-01-10 14:00,0.419801,289.647,276.971,255.742,279.76,278.458,257.9,0.41826,0.421987,237.333,252.634
2016-01-10 15:00,0.238285,276.155,270.468,251.305,271.785,270.635,254.392,0.49318,0.49449,238.546,251.552
2016-01-10 16:00,0.204618,284.249,277.727,255.974,280.201,278.911,258.147,0.243108,0.246556,239.043,253.595
2016-01-10 17:00,0.20445,278.482,274.785,253.741,277.075,276.477,257.53,0.332549,0.329523,240.312,255.639
2016-01-10 18:00,0.144905,289.247,283.38,258.802,285.757,283.917,260.701,0.164809,0.13974,239.714,255.275
2016-01-10 19:00,0.437542,290.939,282.096,258.246,285.201,283.773,261.301,0.396373,0.420102,239.774,256.628
2016-01-10 20:00,0.255949,290.813,287.869,261.519,290.367,288.584,262.728,0.306568,0.289908,238.733,257.333
2016-01-10 21:00,0.0,288.291,288.951,261.838,291.555,290.101,263.787,-0.0323273,-0.0385454,238.981,257.942
2016-01-10 22:00,0.0,288.152,288.736,261.731,291.686,290.101,263.67,0.0,0.0,238.608,257.595
2016-01-10 23:00,0.0,286.569,287.541,261.198,289.968,288.584,263.318,0.0,0.0,239.471,258.028
2016-01-11 00:00,0.0,287.155,288.087,261.198,290.367,289.276,263.553,0.0,0.0,239.349,259.554
2016-01-11 01:00,0.0,288.012,287.978,261.091,290.367,288.861,263.318,0.0,0.0,239.714,259.97
2016-01-11 02:00,0.0,288.152,288.52,261.412,290.897,289.276,263.67,0.0,0.0,239.288,260.299
2016-01-11 03:00,0.0,279.667,281.742,257.572,284.501,284.349,262.017,0.0,0.0,239.774,261.355
2016-01-11 04:00,-0.00115586,278.482,280.669,256.778,283.514,283.917,261.54,0.0,0.0,239.532,261.275
2016-01-11 05:00,0.0,285.818,286.55,260.119,289.3,287.888,263.2,0.0,-0.00123597,239.166,260.789
2016-01-11 06:00,-0.00138577,281.705,282.799,258.134,285.479,284.779,262.136,0.0,0.0,238.483,259.97
2016-01-11 07:00,0.00170632,288.291,289.272,262.049,291.948,290.511,264.605,0.0,0.0,239.043,260.708
2016-01-11 08:00,-0.00238463,283.594,284.3,259.464,286.86,285.919,262.255,0.0,0.0,239.043,260.381
2016-01-11 09:00,0.0,285.512,285.433,260.553,288.763,287.329,263.436,0.0,0.0,239.41,260.952
2016-01-11 10:00,-0.0254655,284.087,284.414,260.011,287.27,286.343,262.847,-0.194054,-0.205671,238.168,260.135
2016-01-11 11:00,0.694872,285.357,278.721,256.778,282.231,281.588,261.182,0.674029,0.735569,238.357,259.554
2016-01-11 12:00,0.552284,289.647,278.968,256.778,281.943,281.588,261.301,0.537092,0.589424,237.528,258.798
2016-01-11 13:00,0.0834876,290.558,287.432,261.731,290.367,288.861,263.787,0.150679,0.126428,237.137,258.798
2016-01-11 14:00,0.258271,289.113,282.916,259.464,285.895,284.779,262.017,0.275258,0.273503,237.006,258.114
2016-01-11 15:00,0.115563,289.381,284.414,260.337,287.134,285.777,262.136,0.139781,0.125001,236.274,257.595
2016-01-11 16:00,0.0855612,289.113,285.546,260.553,288.222,286.767,262.492,0.105881,0.0930237,235.386,257.333
2016-01-11 17:00,0.22337,287.871,282.566,259.683,285.757,284.636,262.017,0.251161,0.259783,233.603,256.271
2016-01-11 18:00,0.213097,291.315,284.185,260.011,286.86,285.493,262.017,0.196831,0.195576,234.185,256.628
2016-01-11 19:00,0.470938,289.647,280.429,258.246,283.514,282.758,261.66,0.445048,0.499979,235.038,256.982
2016-01-11 20:00,0.79389,274.314,253.963,241.791,252.465,250.757,239.025,0.70345,0.869823,226.778,239.121
2016-01-11 21:00,0.0,286.864,286.992,262.261,289.701,288.584,263.2,-0.0705885,-0.0841661,235.247,257.942
2016-01-11 22:00,0.0,280.613,281.624,259.464,284.781,284.061,261.898,0.0,0.0,236.071,258.028
2016-01-11 23:00,0.0,288.152,288.412,263.307,291.16,289.551,264.372,0.0,0.0,235.247,257.769
2016-01-12 00:00,0.0,283.594,280.429,258.358,282.087,280.257,257.653,0.0,0.0,233.53,254.256
2016-01-12 01:00,-0.00140394,288.568,288.52,263.618,291.555,290.238,263.905,0.0,0.0,234.615,257.682
2016-01-12 04:00,0.0,277.661,278.845,258.58,282.374,282.028,261.301,0.0,0.0,235.662,256.894
2016-01-12 05:00,0.0,282.234,281.624,260.228,284.921,283.917,262.136,0.0,0.0,235.799,256.805
2016-01-12 06:00,0.0,275.932,277.852,257.91,281.221,281.146,261.301,0.0,0.0,236.071,257.07
2016-01-12 07:00,0.0,276.155,277.852,257.459,281.366,281.146,260.942,0.0,0.0,237.268,257.07
2016-01-12 08:00,0.0,275.707,277.224,257.12,280.639,280.85,260.701,0.0,0.0,238.168,257.07
2016-01-12 09:00,0.00428609,275.932,277.35,256.892,280.785,280.406,260.581,0.0,0.0,237.977,256.894
2016-01-12 10:00,0.0,281.705,281.267,259.244,284.501,283.339,261.898,-0.214214,-0.178792,237.463,256.628
2016-01-12 11:00,0.600344,286.569,279.458,258.358,282.803,282.321,261.182,0.599691,0.606083,237.333,256.716
2016-01-12 12:00,0.554817,290.171,278.968,258.358,282.231,281.441,260.942,0.544497,0.582398,237.006,256.894
2016-01-12 13:00,0.326837,292.771,281.742,259.574,284.921,283.629,262.017,0.345451,0.354321,236.808,256.36
2016-01-12 14:00,0.064889,289.779,287.212,263.307,290.234,288.306,263.318,0.106831,0.0855261,235.662,255.821
2016-01-12 15:00,0.0642284,289.514,287.102,263.203,289.835,288.167,263.2,0.0962145,0.0748182,235.525,255.183
2016-01-12 16:00,0.303499,290.429,278.721,258.691,282.374,281.588,260.822,0.297255,0.313026,234.827,255.091
2016-01-12 17:00,0.122846,290.041,285.321,262.366,288.358,286.767,262.965,0.13567,0.127616,235.525,255.457
2016-01-12 18:00,0.451985,289.91,278.474,258.246,281.799,281.146,261.062,0.429852,0.467119,235.662,254.999
2016-01-12 19:00,0.555101,290.813,279.336,258.913,283.088,282.175,261.062,0.498101,0.548225,235.178,254.722
2016-01-12 20:00,0.576378,290.041,283.726,261.412,286.585,285.208,262.136,0.488018,0.545137,234.756,254.256
2016-01-12 21:00,-0.0459426,276.594,277.852,257.91,281.51,280.998,260.942,-0.077799,-0.185527,234.615,254.349
2016-01-12 22:00,0.00463855,280.982,280.549,259.354,283.656,282.613,261.421,0.0,0.0,234.543,254.443
2016-01-12 23:00,-0.00247875,283.594,283.726,261.305,286.447,284.922,261.54,0.0,0.0,234.615,254.256
2016-01-13 00:00,0.0,277.026,278.226,258.022,281.51,281.146,260.942,0.0,0.0,234.257,254.629
2016-01-13 01:00,0.0,277.026,278.474,258.022,281.51,281.146,261.062,0.0,0.0,234.185,254.349
2016-01-13 02:00,0.0,281.883,281.742,260.661,285.201,283.629,261.421,0.0,0.0,234.686,254.068
2016-01-13 03:00,-0.00115906,275.707,277.476,257.798,281.076,280.554,260.822,0.0,0.0,234.827,254.443
2016-01-13 04:00,0.0,277.24,278.226,257.91,281.51,280.85,260.701,0.0,0.0,235.867,255.275
2016-01-13 05:00,0.0,276.811,278.226,257.91,281.51,281.146,260.942,0.0,0.0,236.94,256.716
2016-01-13 06:00,0.0,275.932,278.101,257.572,281.076,280.85,260.942,0.0,0.0,237.333,257.07
2016-01-13 07:00,0.0,286.271,285.658,262.366,288.493,286.767,262.61,0.0,0.0,236.475,256.894
2016-01-13 08:00,0.0,275.932,277.727,257.346,281.076,280.998,261.182,0.0,0.0,237.006,257.421
2016-01-13 09:00,0.0,278.482,279.213,258.469,282.517,282.028,261.062,0.0,0.0,237.006,257.333
2016-01-13 10:00,-0.0251793,275.48,277.601,257.006,280.931,280.702,261.062,-0.234512,-0.22878,237.072,257.595
2016-01-13 11:00,0.694353,283.76,277.977,257.346,281.655,281.293,261.182,0.696357,0.714602,236.742,258.028
2016-01-13 12:00,0.541476,290.558,278.598,257.798,282.087,282.028,260.942,0.522439,0.533939,234.827,256.181
2016-01-13 13:00,0.582458,288.291,278.598,257.685,281.655,281.293,261.421,0.639633,0.669819,235.178,256.716
2016-01-13 14:00,0.480239,288.705,278.845,258.022,282.231,281.882,261.421,0.493423,0.50662,235.108,256.001
2016-01-13 15:00,0.298973,290.685,279.213,258.358,282.803,282.175,261.421,0.264267,0.265346,233.968,255.275
2016-01-13 16:00,0.143927,291.44,283.032,260.553,286.31,284.922,262.255,0.142635,0.137047,234.615,255.73
2016-01-13 17:00,0.326359,290.813,279.213,258.469,282.66,282.028,261.182,0.306363,0.322316,234.472,256.001
2016-01-13 18:00,0.304824,292.534,280.669,258.802,283.797,282.613,261.54,0.292386,0.296978,236.408,257.246
2016-01-13 19:00,0.50622,289.647,280.308,258.691,283.23,282.613,261.54,0.502165,0.541299,234.827,257.07
2016-01-13 20:00,0.532357,290.301,283.726,260.984,286.585,285.35,262.492,0.460875,0.489137,233.382,256.45
2016-01-13 21:00,0.0,283.093,283.148,260.445,286.033,285.065,262.017,-0.0433698,-0.0517119,232.86,256.539
2016-01-13 22:00,0.0,288.43,288.303,263.203,291.16,289.551,263.318,0.0,-0.00472761,232.709,256.271
2016-01-13 23:00,-0.00248961,281.526,282.096,259.354,284.781,284.349,262.017,0.0,0.0,232.405,255.639
2016-01-14 00:00,-0.00175122,276.811,278.845,257.685,281.943,281.882,261.779,0.0,0.0,233.896,256.091
2016-01-14 01:00,0.0,276.376,278.226,257.572,281.51,281.146,261.301,0.0,0.0,233.159,255.821
2016-01-14 02:00,0.0,276.155,277.852,257.459,281.076,281.146,261.301,0.0,0.0,233.159,255.73
2016-01-14 03:00,-0.00115951,275.251,277.727,257.346,280.931,280.85,260.822,0.0,0.0,234.329,256.45
2016-01-14 04:00,0.0,275.932,277.852,257.233,280.785,280.702,261.062,0.0,0.0,234.615,256.982
2016-01-14 05:00,0.00122308,275.707,277.476,257.233,280.639,280.85,261.062,0.0,0.0,233.677,256.36
2016-01-14 06:00,0.00138324,275.48,277.224,256.664,280.493,280.108,260.942,0.0,0.0,233.603,256.271
2016-01-14 07:00,0.0,275.48,277.098,256.664,279.907,279.81,260.219,0.0,0.0,233.456,255.73
2016-01-14 08:00,0.0,275.932,277.35,256.778,280.201,279.81,260.942,0.0,0.0,234.257,255.457
2016-01-14 10:00,-0.0251028,275.48,276.845,256.778,280.054,279.81,260.461,-0.255054,-0.228085,231.787,254.443
2016-01-14 11:00,0.639721,280.982,276.463,256.664,279.76,279.511,260.098,0.706997,0.727416,231.315,254.162
2016-01-14 12:00,0.631774,285.512,276.845,256.434,279.907,279.511,260.34,0.6946,0.742529,234.113,254.907
2016-01-14 13:00,0.563864,289.647,276.718,256.778,280.054,279.959,260.219,0.573648,0.620002,232.02,254.162
2016-01-14 14:00,0.550947,287.155,276.718,256.778,279.907,279.511,260.219,0.581968,0.625061,230.348,253.595
2016-01-14 15:00,0.481685,284.888,276.208,256.778,279.318,278.911,259.977,0.510496,0.550798,229.517,252.537
2016-01-14 16:00,0.404344,286.717,276.208,256.892,279.613,279.361,260.34,0.404478,0.427961,230.511,252.634
2016-01-14 17:00,0.447024,287.01,276.08,256.32,279.613,279.361,260.219,0.441327,0.467351,231.236,253.213
2016-01-14 18:00,0.502695,290.685,272.391,254.454,275.396,275.24,256.909,0.461549,0.503217,229.601,250.135
2016-01-14 19:00,0.588837,291.065,277.601,257.233,280.785,280.257,260.581,0.511157,0.558438,230.835,253.309
2016-01-14 20:00,0.813849,286.717,279.091,258.022,281.943,281.441,261.062,0.684091,0.779952,230.916,253.213
2016-01-14 21:00,-0.405548,275.707,275.436,255.393,277.828,277.243,258.638,-0.196215,-0.350936,229.685,251.949
2016-01-14 22:00,-0.00472829,275.251,276.845,256.549,279.76,279.361,259.856,0.0,0.0,229.852,252.925
2016-01-14 23:00,0.0,274.787,275.046,255.858,277.528,276.938,258.023,0.0,0.0,228.748,251.452
2016-01-15 00:00,0.0,276.376,277.727,257.12,280.639,280.257,260.34,0.0,0.0,229.348,253.021
2016-01-15 01:00,0.0,276.155,277.35,257.459,279.76,279.361,259.735,0.0,0.0,228.835,252.244
2016-01-15 02:00,0.00123631,275.707,277.224,257.006,280.201,279.661,260.461,0.0,0.0,230.101,253.595
2016-01-15 03:00,0.0,275.48,277.098,257.006,280.054,279.81,260.461,0.0,0.0,230.43,253.69
2016-01-15 04:00,0.0,274.073,275.306,255.974,278.278,278.004,258.882,0.0,0.0,230.916,253.405
2016-01-15 05:00,-0.00122279,272.58,272.391,254.454,274.933,274.147,256.285,0.0,0.0,229.601,251.152
2016-01-15 06:00,0.0,274.073,275.306,256.32,278.873,278.76,259.735,0.0,0.0,231.076,252.537
2016-01-15 07:00,-0.00170053,274.314,275.694,256.32,279.17,278.76,259.614,0.0,0.0,230.916,251.85
2016-01-15 08:00,0.0,273.338,273.865,254.926,276.923,276.477,257.158,0.0,0.0,230.348,250.544
2016-01-15 09:00,-0.00426798,273.088,272.662,254.808,275.396,274.46,255.658,0.0,0.0,229.601,250.135
2016-01-15 10:00,-0.0501401,277.026,275.176,255.742,277.226,275.551,256.16,-0.191041,-0.177168,229.517,249.617
2016-01-15 11:00,0.329441,287.155,281.742,259.902,284.921,283.194,260.461,0.381404,0.359741,230.184,252.342
2016-01-15 12:00,0.0219625,288.43,286.661,262.366,289.032,286.626,261.421,0.135482,0.0791872,230.511,252.244
2016-01-15 13:00,0.0109051,288.43,288.087,263.721,291.029,289.137,263.67,0.0831001,0.0418356,230.996,252.828
2016-01-15 14:00,0.0196942,288.568,288.087,263.307,291.16,288.999,263.083,0.0697322,0.039765,231.63,252.634
2016-01-15 15:00,0.00326784,288.152,287.978,263.203,291.16,288.861,262.847,0.0470368,0.0230935,232.097,253.405
2016-01-15 16:00,0.00325036,288.291,287.869,263.307,290.764,288.584,262.61,0.0399051,0.0196886,233.01,253.405
2016-01-15 17:00,0.00352,288.152,287.102,262.89,289.968,287.329,261.898,0.0402351,0.019545,233.308,252.537
2016-01-15 18:00,0.00844177,288.152,287.102,262.155,289.701,287.048,262.255,0.0518203,0.027698,234.329,251.949
2016-01-15 19:00,0.0620025,289.247,286.439,261.731,289.032,286.485,261.182,0.114994,0.0804795,233.896,251.949
2016-01-15 20:00,0.133743,289.247,286.328,262.049,289.032,286.485,261.062,0.221556,0.176115,233.382,252.047
2016-01-15 21:00,0.0,287.729,286.772,261.944,289.434,286.767,261.301,-0.113034,-0.202164,233.677,251.949
2016-01-15 22:00,0.0,287.587,286.439,261.625,289.166,286.485,261.301,0.0,0.0,233.896,251.751
2016-01-15 23:00,-0.0025118,287.729,286.882,261.944,289.434,286.907,261.54,0.0,-0.00253582,233.968,252.146
2016-01-16 00:00,-0.00176011,287.871,286.882,262.261,289.434,287.048,261.301,0.0,0.0,233.603,252.146
2016-01-16 01:00,0.0,287.729,287.212,261.838,289.701,286.907,261.301,0.0,0.0,233.603,253.309
2016-01-16 02:00,0.0,288.291,286.992,261.944,289.701,287.329,262.017,0.0,0.0,234.615,253.785
2016-01-16 03:00,0.0,287.587,286.772,261.305,289.166,286.767,261.301,0.0,0.0,234.257,253.595
2016-01-16 04:00,0.0,287.01,286.217,260.984,288.897,286.343,261.421,0.0,0.0,234.615,254.349
2016-01-16 05:00,0.0,284.57,283.726,259.354,286.585,284.349,260.942,0.0,0.0,237.657,255.639
2016-01-16 06:00,0.0,284.249,284.071,259.024,286.86,284.779,261.301,0.0,0.0,241.419,257.421
2016-01-16 07:00,0.00169945,285.512,284.869,259.574,287.407,285.35,261.779,0.0,0.0,242.544,257.855
2016-01-16 08:00,-0.00237191,284.087,284.071,259.244,286.722,284.922,261.301,0.0,0.0,242.765,258.372
2016-01-16 09:00,0.0,286.121,286.105,260.337,288.493,286.626,262.492,0.0,-0.00430508,242.765,259.471
2016-01-16 10:00,-0.0501618,286.421,286.439,260.661,288.628,286.626,262.136,-0.169888,-0.151924,243.31,260.135
2016-01-16 11:00,0.4965,288.152,284.982,259.683,287.407,285.777,261.898,0.556727,0.514794,242.042,260.217
2016-01-16 12:00,0.122115,290.041,286.882,260.769,289.166,286.907,262.373,0.198835,0.142248,241.189,260.545
2016-01-16 13:00,0.165392,290.171,286.105,260.337,288.358,286.626,262.255,0.208213,0.180155,241.131,260.789
2016-01-16 14:00,0.0553648,289.247,287.541,261.412,289.701,287.888,262.965,0.102828,0.0703184,240.371,260.871
2016-01-16 15:00,0.0602846,288.841,287.212,261.198,289.434,287.609,262.492,0.095188,0.07402,238.795,260.545
2016-01-16 16:00,0.0291571,289.113,287.651,261.731,290.101,288.306,263.083,0.0603466,0.0408831,237.721,260.135
2016-01-16 17:00,0.0105181,288.841,288.087,262.049,290.5,288.584,263.083,0.0474968,0.0247768,235.525,259.22
2016-01-16 18:00,0.016798,289.113,288.303,262.261,290.5,288.445,263.318,0.0586692,0.0317974,235.455,259.135
2016-01-16 19:00,0.0322424,288.977,287.76,262.261,290.101,288.027,263.318,0.0943078,0.059183,233.968,257.855
2016-01-16 20:00,0.326833,285.512,278.35,255.742,279.17,276.784,255.027,0.378682,0.376267,230.348,251.152
2016-01-16 21:00,-0.315296,287.01,286.328,261.305,288.628,286.485,262.492,-0.266961,-0.397888,231.943,256.628
2016-01-16 22:00,-0.00482272,288.43,287.76,262.155,290.101,288.167,263.318,0.0,0.0,232.481,256.716
2016-01-16 23:00,-0.00504627,286.569,285.882,260.876,288.628,286.767,262.61,0.0,0.0,231.156,256.091
2016-01-17 00:00,0.0,287.444,286.772,261.198,288.897,286.907,262.017,0.0,0.0,231.236,255.091
2016-01-17 01:00,0.0,281.883,277.727,255.626,277.678,276.169,255.406,0.0,0.0,227.87,247.481
2016-01-17 02:00,0.00123852,288.705,288.195,262.576,291.029,288.722,263.436,0.0,0.0,231.315,255.091
2016-01-17 03:00,0.0,287.01,286.328,261.412,288.628,286.767,261.421,0.0,0.0,230.755,254.068
2016-01-17 04:00,0.00231221,286.864,286.661,261.731,289.3,287.609,262.728,0.0,0.0,230.674,254.629
2016-01-17 05:00,0.0,288.291,288.195,262.681,291.029,288.999,263.787,0.0,0.0,230.835,253.974
2016-01-17 06:00,-0.00138143,288.43,288.628,263.307,291.555,289.689,264.022,0.0,0.0,232.251,254.907
2016-01-17 07:00,0.0,288.43,288.628,263.099,291.555,289.551,263.436,0.0,0.0,233.234,255.091
2016-01-17 08:00,0.00237036,288.43,288.303,262.89,291.029,288.999,263.436,0.0,0.0,233.677,254.999
2016-01-17 09:00,0.0,288.012,287.978,262.681,290.764,288.584,263.67,0.0,0.0,234.472,255.275
2016-01-17 10:00,0.0,288.705,288.087,262.786,290.764,288.861,263.436,-0.17026,-0.152257,233.677,254.443
2016-01-17 11:00,0.0200774,288.568,288.087,262.786,290.764,288.722,263.436,0.22666,0.121616,235.038,255.183
2016-01-17 12:00,0.187447,290.939,284.414,261.198,287.407,285.919,262.728,0.238066,0.192393,236.542,255.548
2016-01-17 13:00,0.0390796,289.113,287.432,262.471,289.835,287.748,263.083,0.112134,0.0679472,237.203,256.001
2016-01-17 14:00,0.00712541,288.841,288.195,262.681,290.632,288.584,263.2,0.061839,0.0287741,236.874,255.911
2016-01-17 15:00,0.0308669,289.381,286.661,262.261,289.434,287.748,262.728,0.0605231,0.0393625,236.341,255.73
2016-01-17 16:00,0.00645757,288.705,288.087,262.995,290.367,288.445,263.2,0.0410071,0.0179281,235.662,255.548
2016-01-17 17:00,0.0349191,289.247,287.541,262.576,290.101,288.306,263.2,0.0620885,0.0423035,235.247,255.821
2016-01-17 18:00,0.0229791,289.514,288.087,263.307,291.029,288.861,263.436,0.0583692,0.0358527,234.113,255.457
2016-01-17 19:00,0.0407377,289.381,288.412,263.411,291.292,289.413,263.787,0.0960864,0.0587531,233.53,255.548
2016-01-17 20:00,0.130054,289.779,288.52,263.411,291.292,289.276,263.67,0.20587,0.15984,233.234,255.548
2016-01-17 21:00,-0.0963612,288.568,288.628,263.825,291.555,289.689,263.905,-0.244767,-0.389129,232.557,255.457
2016-01-17 22:00,0.00487173,288.291,288.412,263.721,291.423,289.413,263.787,0.0,0.0,232.709,256.001
2016-01-17 23:00,-0.00253462,284.41,281.148,258.913,283.23,280.998,258.023,0.0,0.0,231.709,253.974
2016-01-18 00:00,-0.00176921,288.152,288.303,263.825,291.029,289.413,263.905,0.0,-0.00178612,232.935,256.539
2016-01-18 01:00,-0.00141681,289.113,288.951,264.133,291.948,290.375,264.255,0.0,0.0,232.328,255.821
2016-01-18 02:00,0.0,288.841,288.951,264.236,291.817,290.238,264.372,0.0,0.0,233.01,256.091
2016-01-18 03:00,0.0,288.43,288.52,263.618,291.16,289.689,264.138,0.0,0.0,234.401,257.333
2016-01-18 04:00,0.0,286.271,286.55,262.155,289.032,287.888,263.787,0.0,0.0,234.543,258.114
2016-01-18 05:00,0.00122221,288.705,288.736,263.618,291.029,289.689,264.372,0.0,0.0,234.543,258.2
2016-01-18 06:00,-0.001381,287.587,287.541,262.786,290.234,288.722,263.905,0.0,0.0,234.543,258.2
2016-01-18 07:00,0.0,287.444,287.651,262.786,290.234,288.584,263.67,0.0,0.0,235.247,258.713
2016-01-18 08:00,-0.00236915,287.3,287.869,262.681,290.101,288.584,263.553,0.0,0.0,234.185,257.942
2016-01-18 09:00,0.00426058,282.408,283.032,259.902,285.895,284.922,262.61,0.0,0.0,233.53,256.894
2016-01-18 10:00,-0.0252357,287.587,287.869,262.786,290.5,289.276,263.436,-0.170936,-0.152862,233.677,256.805
2016-01-18 11:00,0.180153,289.514,288.412,263.307,291.16,289.551,264.022,0.327668,0.2425,233.603,256.45
2016-01-18 12:00,0.0280478,289.247,288.951,263.618,291.686,290.101,264.488,0.129295,0.0723628,233.896,256.36
2016-01-18 13:00,0.0108283,289.247,289.058,263.721,291.817,290.101,264.488,0.0806814,0.0415411,234.041,257.333
2016-01-18 14:00,0.0088828,288.977,289.165,263.825,291.948,290.238,264.953,0.0586642,0.0286967,235.799,258.2
2016-01-18 15:00,0.011338,289.381,289.165,263.721,291.817,290.375,264.372,0.0507421,0.0277983,235.867,258.372
2016-01-18 16:00,0.0257416,289.514,288.843,263.618,291.686,290.101,264.372,0.0572129,0.0357331,236.408,258.882
2016-01-18 17:00,0.0260823,289.91,289.272,263.721,291.817,290.511,264.721,0.0559458,0.0351089,236.341,259.051
2016-01-18 18:00,0.078973,290.813,288.951,263.515,291.555,290.238,264.721,0.103819,0.0839242,236.139,259.387
2016-01-18 19:00,0.0346636,290.041,289.699,264.339,292.6,291.193,265.416,0.0904947,0.0554088,236.675,259.721
2016-01-18 20:00,0.117111,290.429,289.699,264.133,292.47,291.057,265.301,0.198315,0.14638,236.341,259.721
2016-01-18 21:00,0.0,288.291,289.272,263.825,292.209,290.784,265.416,-0.315295,-0.501255,236.207,260.217
2016-01-18 22:00,0.0,288.43,289.165,263.721,291.817,290.238,265.069,0.0,0.0,236.742,260.545
2016-01-18 23:00,0.0,288.705,289.486,264.133,292.079,290.784,264.953,0.0,0.0,237.268,260.871
2016-01-19 00:00,-0.00177382,288.568,289.272,264.031,292.079,290.648,265.416,0.0,-0.00179078,237.203,261.033
2016-01-19 01:00,0.0,288.977,289.699,264.339,292.34,290.921,264.953,0.0,0.0,236.675,261.275
2016-01-19 02:00,-0.00124083,288.841,289.593,264.441,292.209,290.921,264.953,0.0,0.0,237.006,260.952
2016-01-19 03:00,-0.00116214,287.871,288.736,263.721,291.292,290.238,264.953,0.0,0.0,237.006,261.194
2016-01-19 04:00,0.0,288.841,289.593,264.031,292.209,291.193,265.185,0.0,0.0,237.072,261.355
2016-01-19 05:00,0.0,287.444,288.628,263.928,291.423,290.238,265.069,0.0,0.0,237.268,261.355
2016-01-19 06:00,0.0,285.045,286.55,262.155,288.763,288.167,264.488,0.0,0.0,237.203,261.355
2016-01-19 07:00,0.0,288.705,289.593,264.236,291.948,290.511,264.488,0.0,0.0,237.785,261.914
2016-01-19 08:00,-0.00236829,288.291,288.951,263.721,291.686,290.375,264.953,0.0,0.0,237.721,261.755
2016-01-19 09:00,0.0,288.152,288.843,263.411,291.423,290.238,264.953,0.0,0.0,237.592,261.914
2016-01-19 10:00,-0.0761456,287.444,288.412,263.618,291.029,289.826,264.721,-0.214908,-0.204996,237.913,262.151
2016-01-19 11:00,0.0864385,289.113,289.272,264.339,291.948,290.648,264.837,0.27023,0.167817,237.849,262.151
2016-01-19 12:00,0.245537,290.685,286.992,262.786,289.434,288.445,264.255,0.302633,0.285538,238.795,262.623
2016-01-19 13:00,0.129597,290.429,286.882,262.995,289.434,288.306,264.022,0.181054,0.152642,238.733,262.623
2016-01-19 14:00,0.0584627,289.779,288.52,264.236,290.764,289.413,264.488,0.102,0.0697527,238.42,262.545
2016-01-19 15:00,-0.00161473,289.381,289.593,264.849,292.079,290.511,265.069,0.0382813,0.00978099,238.857,262.935
2016-01-19 16:00,0.0112226,289.247,289.379,264.543,291.817,290.648,265.185,0.0447957,0.0226597,238.795,263.09
2016-01-19 17:00,0.00865814,289.514,289.699,264.95,291.948,290.648,264.721,0.043985,0.0244745,238.857,262.935
2016-01-19 18:00,0.0103372,289.647,289.911,264.849,292.47,291.057,264.837,0.0542654,0.0292208,238.608,263.09
2016-01-19 19:00,0.0602185,290.558,289.593,264.747,292.209,291.193,265.762,0.109258,0.075269,238.42,262.935
2016-01-19 20:00,0.247523,291.315,289.486,264.645,291.817,290.511,265.647,0.284094,0.249889,238.104,262.857
2016-01-19 21:00,-0.34941,288.705,289.593,264.95,292.079,290.921,264.953,-0.59169,-0.881876,237.785,262.388
2016-01-19 22:00,0.0,287.871,288.843,264.339,291.555,290.375,265.185,0.0,0.0,237.785,262.388
2016-01-19 23:00,-0.00255803,288.43,289.699,264.849,292.209,291.057,265.532,0.0,0.0,237.913,262.23
2016-01-20 00:00,0.0,288.705,289.699,265.052,292.47,291.193,265.301,0.0,-0.00179549,238.041,262.151
2016-01-20 01:00,0.0,287.871,288.195,263.928,290.5,289.276,263.67,0.0,0.0,237.463,260.789
2016-01-20 02:00,0.0,287.3,287.76,263.618,290.234,288.861,263.436,0.0,0.0,237.333,260.217
2016-01-20 03:00,0.00116275,288.012,289.165,264.645,291.948,290.921,265.069,0.0,0.0,237.849,261.275
2016-01-20 04:00,0.00115673,287.871,289.058,264.645,291.948,290.648,264.953,0.0,0.0,238.42,261.515
2016-01-20 05:00,0.0,286.864,287.102,263.411,289.434,288.027,263.318,0.0,0.0,238.671,261.033
2016-01-20 06:00,0.0,288.43,288.412,264.236,290.764,289.413,263.67,0.0,0.0,239.288,261.355
2016-01-20 07:00,0.0,288.568,288.951,264.849,291.555,290.101,264.488,0.0,0.0,239.593,261.675
2016-01-20 08:00,-0.00236778,288.568,289.486,264.849,292.079,290.921,264.721,0.0,0.0,239.532,261.755
2016-01-20 09:00,0.0,288.568,289.805,265.254,292.34,290.921,265.301,0.0,0.0,239.593,262.072
2016-01-20 10:00,-0.0255761,288.43,289.486,264.645,292.079,291.057,264.953,-0.194897,-0.154924,239.227,262.072
2016-01-20 11:00,0.29803,290.301,288.303,264.236,290.897,289.964,264.721,0.392532,0.327624,237.849,261.275
2016-01-20 12:00,0.189044,291.065,287.869,263.825,290.5,289.413,264.721,0.254526,0.225267,237.977,261.113
2016-01-20 13:00,0.0280014,289.381,289.272,264.645,291.948,290.784,265.069,0.0984825,0.0587127,237.849,261.194
2016-01-20 14:00,0.0105988,288.977,289.272,264.747,292.079,290.511,264.837,0.0673048,0.035667,238.357,261.113
2016-01-20 15:00,0.0096578,288.977,289.379,264.645,292.079,290.648,264.721,0.0545149,0.0276253,238.104,260.708
2016-01-20 16:00,0.00958508,289.247,289.699,264.849,292.209,290.921,265.069,0.048694,0.0274173,237.913,260.789
2016-01-20 17:00,0.0103463,289.247,289.805,264.95,292.6,291.6,264.953,0.051101,0.0295946,237.721,260.708
2016-01-20 18:00,0.0246795,289.647,289.699,265.052,292.6,291.193,265.532,0.0713949,0.0456782,237.463,260.627
2016-01-20 19:00,0.0512387,290.041,289.699,264.543,292.6,291.329,264.953,0.1181,0.0804665,236.004,259.97
2016-01-20 20:00,0.141075,290.429,289.486,264.849,292.47,291.329,264.953,0.243489,0.186246,235.317,259.887
2016-01-20 21:00,-0.295667,288.705,289.593,264.849,292.6,291.329,265.647,-1.2517,-1.19397,235.593,259.304
2016-01-20 22:00,-0.0050261,288.43,289.486,264.747,292.47,291.464,265.532,0.0,0.0,234.686,259.387
2016-01-20 23:00,0.0,288.43,289.379,264.339,292.209,290.648,264.953,0.0,0.0,234.756,259.304
2016-01-21 00:00,0.0,288.841,289.486,264.95,292.079,290.921,264.605,0.0,-0.00180024,234.041,259.051
2016-01-21 01:00,-0.00142361,288.43,289.165,264.95,291.948,290.784,264.953,0.0,0.0,234.185,258.882
2016-01-21 02:00,-0.00124325,285.045,286.328,263.099,289.3,288.167,264.138,0.0,0.0,234.185,258.798
2016-01-21 03:00,0.0,287.3,288.412,264.543,291.16,289.689,264.488,0.0,0.0,234.543,259.135
2016-01-21 04:00,-0.00115701,287.3,288.628,264.441,291.292,289.964,264.488,0.0,0.0,233.823,258.713
2016-01-21 05:00,-0.00122214,288.705,289.272,264.95,291.817,290.648,265.069,0.0,0.0,234.827,259.051
2016-01-21 06:00,0.0,288.568,289.272,264.95,292.079,290.648,264.837,0.0,0.0,233.896,258.882
2016-01-21 07:00,0.00169638,288.291,289.272,264.95,291.948,290.784,264.605,0.0,0.0,234.827,258.967
2016-01-21 08:00,0.0,287.01,287.651,264.031,290.367,288.999,263.787,0.0,0.0,235.247,258.882
2016-01-21 09:00,0.0,288.568,289.058,264.747,291.555,290.101,264.372,0.0,0.0,233.968,258.286
2016-01-21 10:00,-0.0258209,288.43,289.165,264.645,291.817,290.101,264.721,-0.196763,-0.156407,233.677,258.372
2016-01-21 11:00,0.0659374,288.841,288.843,265.052,291.686,290.238,264.488,0.26798,0.159763,232.709,257.942
2016-01-21 12:00,0.0247157,288.841,289.058,265.153,291.555,290.238,264.488,0.141256,0.081094,231.865,257.595
2016-01-21 13:00,0.0150338,288.841,288.843,264.849,291.292,289.826,263.905,0.0945587,0.0520371,231.63,257.508
2016-01-21 14:00,0.010567,288.841,289.272,264.849,292.079,291.057,264.488,0.065612,0.0355601,234.257,258.543
2016-01-21 15:00,0.00962658,288.841,289.272,264.747,292.079,290.648,264.022,0.0543388,0.0291558,234.897,258.628
2016-01-21 16:00,0.0127338,289.113,289.272,264.849,291.817,290.511,264.837,0.0539086,0.0321389,234.472,258.2
2016-01-21 17:00,0.0686832,283.76,278.721,257.91,279.613,277.853,255.909,0.114854,0.102276,232.328,252.537
2016-01-21 18:00,0.0163664,289.247,289.272,264.95,292.209,290.648,264.022,0.0692871,0.0433726,233.382,258.028
2016-01-21 19:00,0.0395609,289.647,289.486,265.052,292.209,290.784,264.605,0.119629,0.0798783,233.085,257.421
2016-01-21 20:00,0.117766,289.91,289.486,265.052,292.47,291.193,264.255,0.240216,0.189146,233.234,256.982
2016-01-21 21:00,-0.968484,288.291,289.272,265.153,292.209,291.057,264.605,-4.10007,-4.88871,233.234,256.982
2016-01-21 22:00,0.0,288.568,289.272,264.747,291.948,290.648,264.372,0.0,0.0,232.784,256.628
2016-01-21 23:00,0.0,287.871,288.628,264.747,291.686,290.238,264.372,0.0,0.0,233.085,256.805
2016-01-22 00:00,0.0,287.871,288.628,264.645,291.555,290.375,264.255,0.0,0.0,232.633,256.716
2016-01-22 01:00,0.00142593,288.152,288.843,265.153,291.686,290.375,264.372,0.0,0.0,232.709,256.894
2016-01-22 02:00,0.0,288.568,289.272,265.254,292.209,290.921,264.372,0.0,0.0,232.784,256.36
2016-01-22 03:00,0.0,287.444,288.52,264.849,291.423,290.238,264.138,0.0,0.0,232.251,256.894
2016-01-22 04:00,-0.00115734,287.01,287.869,264.543,290.632,289.413,263.67,0.0,0.0,232.633,256.271
2016-01-22 05:00,0.0,287.3,288.52,264.747,291.292,290.101,264.372,0.0,0.0,232.481,256.091
2016-01-22 06:00,0.0,288.152,288.628,265.052,291.555,290.101,263.905,0.0,0.0,231.709,255.457
2016-01-22 07:00,0.0,288.152,288.736,265.355,291.686,290.238,264.022,0.0,0.0,230.674,254.536
2016-01-22 08:00,0.0,288.012,288.843,265.254,291.555,289.964,264.255,0.0,0.0,230.996,254.722
2016-01-22 09:00,0.00426782,286.569,285.882,263.307,288.493,286.907,262.373,0.0,0.0,231.315,253.69
2016-01-22 10:00,-0.0261193,287.729,287.432,264.339,289.701,287.609,262.136,-0.199036,-0.158214,232.251,253.88
2016-01-22 11:00,0.0459321,288.152,287.212,264.339,289.3,287.048,261.898,0.233344,0.125865,232.097,253.405
2016-01-22 12:00,0.138566,290.558,286.661,264.133,288.897,286.767,262.255,0.211183,0.155434,232.097,253.785
2016-01-22 13:00,0.0321171,288.568,286.882,264.031,288.628,286.202,262.017,0.106961,0.0540402,231.076,253.117
2016-01-22 14:00,0.510916,288.841,280.789,260.337,283.372,282.321,260.701,0.593141,0.581383,231.473,253.405
2016-01-22 15:00,0.251063,286.121,279.213,258.913,281.366,280.702,259.735,0.270796,0.250234,231.236,253.117
2016-01-22 16:00,0.30766,289.113,279.58,259.354,282.087,280.85,259.614,0.314205,0.294591,231.394,253.309
2016-01-22 17:00,0.306044,266.131,250.954,241.354,249.998,248.736,237.977,0.45311,0.469495,226.592,237.608
2016-01-22 18:00,0.380543,268.073,253.963,242.942,255.244,253.896,241.953,0.590997,0.632769,229.093,243.577
2016-01-22 19:00,0.547001,264.739,237.591,232.834,238.693,235.917,229.615,0.705405,0.795778,225.931,233.304
2016-01-22 20:00,0.110915,282.753,280.549,259.902,282.803,280.998,259.977,0.196768,0.149301,231.076,252.439
2016-01-22 21:00,1.51118,277.661,277.224,257.685,279.613,278.609,258.76,4.47829,4.57687,230.593,252.731
2016-01-22 22:00,0.0,286.717,285.433,262.89,287.27,284.779,261.062,0.0,-0.00518436,229.935,252.828
2016-01-22 23:00,0.0,280.239,279.823,259.354,281.799,280.257,258.882,0.0,0.0,229.348,251.051
2016-01-23 00:00,0.0,284.57,284.869,262.681,287.407,286.06,261.898,0.0,-0.00180987,229.769,252.537
2016-01-23 01:00,-0.00142828,283.261,281.505,260.228,283.514,281.441,259.249,0.0,0.0,229.685,251.252
2016-01-23 02:00,0.0,283.093,283.956,261.731,286.585,285.635,261.779,0.0,0.0,230.018,252.828
2016-01-23 03:00,0.0,274.073,269.343,252.412,269.515,267.506,249.705,0.0,0.0,228.224,245.46
2016-01-23 04:00,0.0,283.093,282.916,261.091,285.757,284.779,261.54,0.0,0.0,230.755,253.117
2016-01-23 05:00,0.0,277.661,274.524,255.742,275.857,273.99,254.264,0.0,0.00123408,228.748,248.133
2016-01-23 06:00,0.0,277.661,271.574,253.741,272.582,270.311,251.291,0.0,0.0,228.835,248.025
2016-01-23 07:00,0.0,275.707,273.466,255.043,274.778,273.359,254.392,0.0,0.0,230.018,249.198
2016-01-23 08:00,0.0,279.859,280.308,259.134,283.088,282.028,260.581,0.0,0.0,231.236,253.595
2016-01-23 09:00,0.0,283.76,280.669,259.024,281.799,279.211,257.034,0.0,0.0,231.156,251.552
2016-01-23 11:00,0.110958,285.202,281.386,259.134,282.374,279.959,256.909,0.30395,0.210859,233.159,253.5
2016-01-23 12:00,0.0184106,288.568,288.303,264.133,290.632,288.722,263.083,0.124706,0.0650533,234.472,256.091
2016-01-23 13:00,0.0106717,288.568,288.412,264.031,290.764,288.861,263.2,0.0831286,0.0409401,234.968,256.716
2016-01-23 14:00,0.00875067,288.705,288.303,264.031,290.764,288.861,263.787,0.0607553,0.0282698,234.543,256.982
2016-01-23 15:00,0.041437,288.568,286.217,262.681,289.166,287.609,263.318,0.0715187,0.048269,235.038,257.333
2016-01-23 16:00,0.00789981,288.705,288.628,263.928,291.16,289.689,263.67,0.0441458,0.0207359,235.178,257.508
2016-01-23 17:00,0.00851186,288.977,288.628,264.031,291.16,289.413,264.138,0.0432419,0.0223424,235.731,258.2
2016-01-23 18:00,0.0769194,290.171,285.208,262.155,287.134,285.35,261.54,0.104547,0.089916,234.686,256.36
2016-01-23 19:00,0.470608,292.534,283.148,260.769,285.895,285.208,262.255,0.431472,0.435749,234.897,257.595
2016-01-23 20:00,0.776585,286.864,281.978,260.228,284.921,284.492,261.898,0.701663,0.741914,235.386,257.595
2016-01-23 21:00,0.542839,280.613,282.331,260.337,284.921,284.349,262.492,1.60867,1.64409,235.455,257.508
2016-01-23 22:00,0.00519177,277.451,276.718,256.549,278.725,277.091,256.909,0.0,0.0,233.677,254.068
2016-01-23 23:00,-0.00521309,279.859,281.386,260.119,284.079,283.194,261.66,0.0,0.0,235.867,257.508
2016-01-24 00:00,0.0,279.081,280.308,259.244,282.946,282.613,261.301,-0.001522,-0.00181476,235.386,257.855
2016-01-24 01:00,-0.00143065,277.026,278.474,258.022,280.785,280.554,260.581,0.0,0.0,235.525,257.508
2016-01-24 02:00,0.0,277.026,278.226,257.798,280.493,280.108,260.098,0.0,0.0,235.799,257.769
2016-01-24 03:00,0.0,285.512,284.642,262.155,286.722,285.35,262.136,0.0,0.0,235.317,258.543
2016-01-24 04:00,-0.00231627,282.581,282.916,260.769,285.201,284.205,262.728,0.0,0.0,235.731,258.628
2016-01-24 05:00,0.0,282.753,283.495,261.305,286.31,285.35,262.136,0.0,0.0,235.799,258.628
2016-01-24 06:00,0.0,287.01,285.77,262.576,287.815,286.202,262.017,0.0,0.0,235.799,258.628
2016-01-24 07:00,-0.0016965,279.473,281.86,260.011,284.781,284.061,262.61,0.0,0.0,236.071,259.387
2016-01-24 08:00,0.00236932,280.239,281.86,260.337,284.781,284.349,262.492,0.0,0.0,236.408,259.721
2016-01-24 09:00,0.0,280.239,282.096,260.445,285.34,284.779,262.373,0.0,0.0,236.071,259.471
2016-01-24 10:00,-0.0268925,279.859,282.096,260.119,284.921,284.636,262.373,-0.227698,-0.217197,236.207,259.554
2016-01-24 11:00,0.648954,282.923,280.549,258.802,283.372,283.194,261.779,0.758266,0.779638,237.006,259.887
2016-01-24 12:00,0.522758,294.156,280.549,259.354,283.514,283.049,261.421,0.486621,0.487634,236.742,259.638
2016-01-24 13:00,0.163802,292.174,287.541,263.721,289.835,288.722,263.67,0.203533,0.176106,237.398,260.708
2016-01-24 14:00,0.0366325,290.041,288.52,264.441,290.764,289.137,263.905,0.088619,0.0581156,238.041,261.113
2016-01-24 15:00,0.0285885,289.647,288.087,264.133,290.367,288.584,263.553,0.0685831,0.0416892,237.913,260.708
2016-01-24 16:00,0.190453,290.813,285.208,262.471,287.815,286.907,263.083,0.201237,0.19863,237.528,260.545
2016-01-24 17:00,0.186448,291.809,285.77,262.681,288.628,287.748,263.436,0.196613,0.191652,237.592,261.113
2016-01-24 18:00,0.14698,291.44,286.882,263.099,289.568,288.167,264.022,0.168772,0.152451,238.104,261.194
2016-01-24 19:00,0.140983,291.686,288.412,263.928,291.16,289.826,264.138,0.182567,0.161867,238.294,261.275
2016-01-24 20:00,0.123453,290.171,289.699,264.645,292.6,291.193,264.953,0.226477,0.171371,238.104,261.275
2016-01-24 21:00,0.165329,288.012,289.165,264.849,291.948,290.511,265.301,0.979888,1.00146,238.919,261.275
2016-01-24 22:00,0.0,288.705,289.165,264.645,292.079,290.784,265.301,0.0,-0.00529975,239.288,261.675
2016-01-24 23:00,0.0,288.841,289.486,264.849,292.34,291.193,264.953,0.0,-0.00264405,239.532,261.515
2016-01-25 00:00,0.0,287.3,288.52,264.133,291.16,289.689,264.721,0.0,-0.00181968,240.014,261.595
2016-01-25 01:00,-0.00143306,287.444,288.195,264.133,290.764,289.551,264.488,0.0,0.0,239.954,261.595
2016-01-25 02:00,0.0012484,288.705,289.272,264.645,291.817,290.511,264.721,0.0,0.0,239.954,261.515
2016-01-25 03:00,0.0,288.568,289.165,264.543,291.555,290.101,264.255,0.0,0.00117745,239.532,261.355
2016-01-25 04:00,0.0,288.43,288.951,264.236,291.555,289.826,264.721,0.0,0.0,239.593,261.033
2016-01-25 05:00,-0.0012229,288.152,288.843,264.236,291.292,289.689,264.255,0.0,0.0,239.774,261.113
2016-01-25 06:00,0.00138055,282.408,282.682,260.876,285.895,284.205,262.136,0.0,0.0,239.41,260.789
2016-01-25 07:00,-0.00169688,287.871,288.412,263.721,290.897,289.137,264.022,0.0,0.0,239.714,260.789
2016-01-25 08:00,0.0,288.152,288.303,263.618,290.5,288.584,263.787,0.0,0.0,239.471,260.871
2016-01-25 09:00,0.0,288.152,288.52,263.618,290.764,289.137,263.67,0.0,0.0,239.288,260.789
2016-01-25 10:00,-0.0273775,288.43,288.736,263.825,290.897,289.551,264.022,-0.231805,-0.193474,239.166,260.871
2016-01-25 11:00,0.0902939,288.977,288.628,263.618,291.029,289.551,263.67,0.278503,0.182314,239.104,260.789
2016-01-25 12:00,0.0426319,289.381,288.628,263.618,290.897,289.276,263.905,0.15212,0.0983759,239.227,260.789
2016-01-25 13:00,0.0254402,289.113,288.951,264.133,291.423,289.964,264.138,0.100521,0.0599278,239.288,261.113
2016-01-25 14:00,0.0173854,289.247,289.165,263.928,291.817,290.375,264.372,0.072129,0.0438791,238.981,260.952
2016-01-25 15:00,0.0126615,289.113,289.165,264.031,291.817,290.784,264.837,0.0603025,0.0367497,239.593,261.275
2016-01-25 16:00,0.0109758,289.113,289.379,264.133,292.079,291.057,264.372,0.0570869,0.0348252,239.227,260.952
2016-01-25 17:00,0.0168757,289.381,289.379,263.825,292.209,290.921,264.837,0.0628698,0.0408887,239.043,260.789
2016-01-25 18:00,0.0300404,289.779,289.593,264.031,292.6,291.329,265.069,0.0847838,0.0566114,239.104,260.871
2016-01-25 19:00,0.063119,290.171,289.593,263.928,292.6,291.735,264.953,0.146387,0.108051,238.857,260.627
2016-01-25 20:00,0.182787,290.813,289.486,263.721,292.6,291.464,264.837,0.288035,0.246046,238.795,260.545
2016-01-25 21:00,0.118841,287.871,288.843,263.307,291.817,290.511,264.255,0.704359,0.719864,238.733,260.871
2016-01-25 22:00,-0.00530867,288.291,289.165,263.515,292.209,290.921,264.953,0.0,0.0,238.483,260.545
2016-01-25 23:00,-0.0026316,288.291,289.272,263.411,292.34,291.057,264.605,0.0,0.0,238.42,260.217
2016-01-26 00:00,-0.00180737,287.01,285.994,261.519,287.815,286.485,261.182,0.0,0.0,236.542,257.508
2016-01-26 01:00,0.00143549,287.155,288.195,262.995,291.16,289.826,263.787,0.0,0.0,237.333,259.135
2016-01-26 02:00,0.00124976,288.012,288.843,263.515,291.817,290.511,263.787,0.0,0.0,237.528,259.304
2016-01-26 03:00,-0.00116712,288.291,288.843,263.411,291.686,290.511,264.372,0.0,0.0,238.608,259.554
2016-01-26 04:00,0.00115911,288.568,289.165,263.411,292.209,290.921,264.488,0.0,0.0,238.168,259.304
2016-01-26 05:00,0.00122325,287.729,288.303,263.099,291.423,289.689,264.138,0.0,0.0,237.977,259.135
2016-01-26 06:00,0.0,287.729,288.52,263.307,291.555,290.375,264.255,0.0,0.0,237.203,258.967
2016-01-26 07:00,-0.00169744,286.271,286.882,261.944,289.434,288.027,262.728,0.0,0.0,237.006,258.543
2016-01-26 08:00,0.0,285.665,285.095,260.876,286.86,285.35,260.219,0.0,0.0,234.686,256.181
2016-01-26 09:00,0.00429549,286.717,286.328,261.412,288.493,287.048,261.182,0.0,0.0,235.317,257.333
2016-01-26 10:00,-0.0558733,287.587,287.651,261.625,289.835,287.748,261.54,-0.165578,-0.141019,234.185,257.595
2016-01-26 11:00,0.31395,283.428,274.261,253.501,274.312,271.121,249.971,0.390595,0.381636,230.755,250.34
2016-01-26 12:00,0.109176,286.421,281.029,257.91,281.799,279.361,255.909,0.210557,0.162269,232.709,254.162
2016-01-26 13:00,0.0612626,286.717,282.682,258.691,283.938,282.028,257.9,0.135938,0.104502,232.784,255.091
2016-01-26 14:00,0.109151,284.73,276.463,254.808,276.468,273.517,251.683,0.1687,0.153922,230.674,251.751
2016-01-26 15:00,0.0788522,284.41,275.694,254.454,275.857,273.2,251.553,0.126852,0.108264,230.593,250.442
2016-01-26 16:00,0.231163,284.73,268.343,250.177,268.024,265.48,247.551,0.247302,0.249142,229.007,247.261
2016-01-26 17:00,0.124331,284.249,273.599,252.899,272.899,269.984,249.171,0.160751,0.152658,229.935,248.669
2016-01-26 18:00,0.105576,286.421,280.669,257.006,281.51,279.061,255.406,0.148423,0.130718,232.481,253.309
2016-01-26 19:00,0.234302,283.76,273.065,251.922,272.582,269.494,248.903,0.288348,0.294302,230.018,248.348
2016-01-26 20:00,0.486215,285.357,271.299,251.676,270.332,267.339,247.279,0.462607,0.506044,229.178,246.371
2016-01-26 21:00,1.02031,278.684,272.662,252.412,272.899,269.657,249.305,0.863898,1.31099,229.852,248.133
2016-01-26 22:00,0.0,281.883,276.971,255.16,277.075,274.46,252.075,0.0,0.0,231.236,250.544
2016-01-26 23:00,0.0,282.408,278.598,256.664,279.17,276.631,254.392,0.0,0.0,230.916,251.552
2016-01-27 00:00,0.0,281.346,275.951,254.808,275.242,272.405,250.501,0.0,0.0,230.43,249.721
2016-01-27 01:00,0.0,277.661,269.626,250.555,268.855,266.498,247.687,0.0,0.0,229.007,246.145
2016-01-27 02:00,0.0,279.473,273.065,253.02,273.057,270.473,250.104,0.0,0.0,230.511,249.093
2016-01-27 03:00,-0.00116797,284.087,281.505,258.134,282.946,280.554,256.66,0.0,0.0,232.328,253.974
2016-01-27 04:00,0.0,288.152,288.628,262.576,291.292,289.689,262.965,0.0,0.0,233.234,256.982
2016-01-27 05:00,0.0,287.155,287.541,261.731,289.968,288.167,262.017,0.0,0.0,232.86,256.271
2016-01-27 06:00,0.0,288.152,288.412,261.838,290.897,289.276,262.847,0.0,0.0,233.968,256.894
2016-01-27 07:00,0.0,284.888,285.208,259.793,287.951,286.626,261.301,0.0,0.0,234.041,256.628
2016-01-27 08:00,0.0,285.818,286.217,260.337,288.897,287.469,261.421,0.0,0.0,233.968,256.628
2016-01-27 09:00,0.0,285.97,285.208,259.683,287.815,286.202,261.062,0.0,0.0,233.823,255.911
2016-01-27 10:00,0.0,275.932,277.977,255.16,280.785,280.406,259.249,-0.290365,-0.259663,234.756,256.181
2016-01-27 11:00,0.260859,288.568,286.661,260.337,288.763,286.907,261.66,0.398642,0.327585,236.139,256.982
2016-01-27 12:00,0.147966,288.568,285.095,259.024,287.134,285.493,260.942,0.212213,0.167672,237.203,257.421
2016-01-27 13:00,0.206268,287.871,281.624,257.346,284.501,283.194,260.461,0.261971,0.244363,237.203,256.894
2016-01-27 14:00,0.170919,290.041,285.546,259.244,287.815,286.202,261.062,0.209035,0.167324,237.333,256.716
2016-01-27 15:00,0.11785,289.247,282.916,257.798,285.618,284.205,260.701,0.134375,0.114218,236.542,256.716
2016-01-27 16:00,0.0653444,289.247,286.882,259.793,289.568,287.888,262.255,0.0856251,0.0691105,236.94,256.805
2016-01-27 17:00,0.102036,289.514,286.217,259.464,288.897,287.469,261.54,0.12605,0.109766,236.475,256.45
2016-01-27 18:00,0.0871799,289.91,287.212,260.011,289.968,288.445,262.255,0.110723,0.0940142,236.071,256.091
2016-01-27 19:00,0.0811442,290.558,288.52,260.337,291.292,289.689,262.61,0.123668,0.0955732,235.936,256.181
2016-01-27 20:00,0.138578,290.558,288.951,260.661,291.948,290.375,262.728,0.201144,0.159889,234.897,256.001
2016-01-27 21:00,0.152134,288.291,288.843,260.553,291.686,290.238,262.965,0.515246,0.614353,234.185,255.366
2016-01-27 22:00,0.0,287.729,288.195,259.902,291.16,289.413,262.136,0.0,0.0,234.543,255.639
2016-01-27 23:00,-0.00265716,285.357,285.882,258.022,288.897,287.329,261.301,0.0,0.0,235.386,255.366
2016-01-28 00:00,-0.00181733,286.717,287.322,259.134,290.5,288.999,262.255,0.0,0.0,235.525,255.821
2016-01-28 01:00,-0.00144044,286.421,286.992,258.691,289.968,288.445,262.136,0.0,0.0,235.936,255.275
2016-01-28 02:00,0.0,287.587,287.651,259.024,290.5,288.584,262.255,0.0,0.0,236.274,254.722
2016-01-28 03:00,0.0,288.012,288.412,259.574,291.16,289.276,262.136,0.0,0.0,236.542,254.349
2016-01-28 04:00,0.0,282.234,282.799,256.434,285.895,284.779,260.34,0.0,0.0,238.483,254.999
2016-01-28 05:00,0.00122417,286.864,287.322,259.024,289.968,288.167,261.898,0.0,0.0,241.93,257.158
2016-01-28 06:00,0.0,278.482,279.702,254.808,282.803,282.175,259.977,0.0,0.0,243.31,257.855
2016-01-28 07:00,0.0,287.3,287.978,259.683,290.764,288.722,262.255,0.0,0.0,243.472,258.713
2016-01-28 08:00,0.0,285.357,285.321,258.469,288.222,286.626,261.301,0.0,0.0,244.217,259.304
2016-01-28 10:00,-0.058624,286.421,286.882,259.024,289.701,288.027,261.54,-0.248184,-0.236738,245.658,261.194
2016-01-28 11:00,0.113679,288.43,287.541,259.683,289.968,288.027,261.779,0.27806,0.1849,246.009,261.355
2016-01-28 12:00,0.153319,291.809,286.217,258.913,288.763,287.048,261.779,0.213813,0.16996,245.859,261.675
2016-01-28 13:00,0.142586,291.44,284.414,257.91,287.27,285.635,261.062,0.182866,0.158767,246.059,261.834
2016-01-28 14:00,0.361251,292.534,279.945,255.742,282.803,282.321,260.219,0.361218,0.376861,245.456,261.675
2016-01-28 15:00,0.0673194,289.514,287.541,259.793,290.234,288.861,262.728,0.0914639,0.071124,245.355,262.23
2016-01-28 16:00,0.0185963,289.113,288.52,260.228,291.292,289.689,263.318,0.0524849,0.0328547,243.846,262.466
2016-01-28 17:00,0.0616159,290.301,287.212,260.011,289.701,288.167,262.492,0.0874201,0.070611,242.378,261.993
2016-01-28 18:00,0.47693,289.647,278.474,254.926,281.655,281.735,260.581,0.448869,0.485468,242.099,261.993
2016-01-28 19:00,0.102046,290.558,287.978,260.445,290.234,288.722,262.728,0.13415,0.108443,241.93,261.834
2016-01-28 20:00,0.195499,290.939,288.628,260.876,291.16,289.689,263.083,0.244155,0.207236,242.765,262.151
2016-01-28 21:00,0.193435,286.271,287.102,259.793,289.701,288.306,262.728,0.491344,0.520759,242.155,261.914
2016-01-28 22:00,-0.00549395,287.444,287.978,260.553,290.5,288.722,262.728,0.0,0.0,241.419,261.515
2016-01-28 23:00,0.0,277.869,279.945,255.51,282.803,282.321,260.581,0.0,0.0,241.246,260.952
2016-01-29 00:00,-0.00182236,278.684,281.386,256.549,283.514,283.194,261.301,-0.00154299,-0.00183978,238.733,260.299
2016-01-29 01:00,0.0,287.155,287.322,260.445,289.434,288.027,262.255,0.0,0.0,236.274,259.638
2016-01-29 02:00,0.00125403,285.818,285.77,259.683,287.815,286.485,261.779,0.0,0.0,237.463,259.135
2016-01-29 03:00,0.00116979,280.239,276.971,254.217,278.873,277.548,257.53,0.0,0.0,237.072,256.716
2016-01-29 04:00,0.0,287.3,286.772,260.445,288.897,286.767,261.66,0.0,0.0,236.675,258.286
2016-01-29 05:00,-0.00122473,281.883,282.566,257.346,283.938,282.613,260.219,0.0,0.0,236.94,257.942
2016-01-29 06:00,0.0013825,286.271,285.208,259.024,287.134,285.065,261.301,0.0,0.0,236.609,258.286
2016-01-29 07:00,0.0017002,285.818,284.982,259.134,287.27,285.919,261.54,0.0,0.0,235.799,257.333
2016-01-29 08:00,0.0,287.3,287.212,260.553,289.166,287.048,261.54,0.0,0.0,236.675,257.769
2016-01-29 09:00,0.0,288.152,288.087,261.091,290.234,288.167,262.492,0.0,0.0,236.94,257.769
2016-01-29 10:00,-0.0301501,283.76,284.185,258.58,286.722,285.493,261.54,-0.306336,-0.243506,236.874,257.682
2016-01-29 11:00,0.144129,289.113,287.978,261.198,290.234,288.722,262.728,0.286515,0.196118,236.341,257.595
2016-01-29 12:00,0.290257,291.315,286.882,260.553,289.434,288.027,262.847,0.329369,0.293031,236.341,257.595
2016-01-29 13:00,0.0772826,290.429,287.978,261.412,290.897,289.551,263.436,0.129102,0.0948909,236.609,257.421
2016-01-29 14:00,0.116547,290.939,287.651,261.198,290.632,289.137,263.318,0.14802,0.128043,236.675,257.595
2016-01-29 15:00,0.00935846,288.705,288.843,261.838,291.817,290.238,263.083,0.0528253,0.0283438,236.139,257.942
2016-01-29 16:00,0.0632853,290.171,287.541,260.984,290.5,289.276,263.2,0.0875634,0.0716818,236.341,257.682
2016-01-29 17:00,0.0944993,289.647,285.658,259.793,287.951,286.626,261.66,0.110894,0.0987501,235.525,256.36
2016-01-29 18:00,0.107815,290.041,286.661,260.769,289.166,287.748,262.255,0.126142,0.112804,234.472,256.982
2016-01-29 19:00,0.293288,286.121,275.046,253.02,276.01,273.359,251.553,0.313795,0.312243,231.236,250.849
2016-01-29 20:00,0.526174,291.44,285.433,259.464,287.815,286.202,261.421,0.482296,0.506837,234.329,256.716
2016-01-29 21:00,0.223866,280.982,282.566,257.91,285.479,284.492,261.301,0.521254,0.565015,235.386,257.769
2016-01-29 22:00,0.0,285.665,286.772,260.228,289.434,287.748,262.61,0.0,0.0,234.968,257.682
2016-01-29 23:00,-0.00536636,287.871,288.195,260.876,290.764,289.276,263.083,0.0,0.0,235.386,257.942
2016-01-30 00:00,-0.00182744,279.667,281.386,257.459,283.656,283.339,261.182,-0.00154729,-0.00184491,236.341,258.286
2016-01-30 01:00,-0.00144551,286.569,287.102,260.228,289.434,287.888,262.847,0.0,0.0,236.874,259.051
2016-01-30 02:00,0.0,285.045,285.095,259.464,287.815,286.343,262.017,0.0,0.0,237.072,258.967
2016-01-30 03:00,0.0,287.729,287.869,260.661,290.234,288.861,262.847,0.0,0.0,237.785,259.471
2016-01-30 04:00,0.0,284.41,284.869,258.802,286.997,285.919,261.898,0.0,0.0,238.483,259.97
2016-01-30 05:00,0.0,285.202,285.321,259.354,287.815,286.485,262.373,0.0,0.0,238.041,260.381
2016-01-30 06:00,0.0,284.888,285.658,259.354,287.951,286.626,261.898,0.0,0.0,237.977,260.789
2016-01-30 07:00,0.0,286.271,287.102,259.902,289.3,287.748,262.728,0.0,0.0,237.333,260.463
2016-01-30 08:00,-0.00238297,286.421,285.208,258.802,286.86,284.636,259.856,0.0,0.0,235.799,258.628
2016-01-30 09:00,0.0,287.444,287.978,260.445,290.234,288.722,262.728,0.0,0.0,236.542,260.381
2016-01-30 10:00,-0.0933219,284.888,282.448,257.12,283.656,281.293,256.785,-0.316062,-0.314047,234.686,257.769
2016-01-30 11:00,0.428874,278.482,262.3,245.177,260.158,256.18,239.913,0.531534,0.539649,224.56,240.446
2016-01-30 12:00,0.184634,281.165,271.162,250.177,271.142,268.505,248.903,0.300052,0.279599,231.315,252.925
2016-01-30 13:00,0.135226,283.261,271.984,251.676,270.657,266.667,246.869,0.213139,0.189026,227.51,248.562
2016-01-30 14:00,0.23393,262.475,236.06,230.743,233.041,230.688,224.834,0.328186,0.343045,220.101,227.509
2016-01-30 15:00,0.284358,259.045,225.937,225.306,224.072,222.462,219.172,0.402591,0.434536,217.622,221.878
2016-01-30 16:00,0.270578,270.434,239.317,232.491,235.93,232.474,224.657,0.338441,0.364737,220.337,231.695
2016-01-30 17:00,0.161748,283.594,269.343,250.051,268.191,264.623,244.231,0.195645,0.188288,225.058,245.46
2016-01-30 18:00,0.132589,286.569,275.823,253.98,275.55,271.765,249.705,0.170045,0.157478,226.685,249.928
2016-01-30 19:00,0.307094,286.271,269.201,250.303,266.678,262.537,243.383,0.30933,0.315375,224.156,243.698
2016-01-30 20:00,0.615152,287.587,273.065,251.799,272.899,269.494,248.229,0.565262,0.625847,227.78,249.721
2016-01-30 21:00,0.247265,287.729,288.303,261.305,290.897,289.689,262.728,0.376846,0.449332,233.01,259.387
2016-01-30 22:00,0.00562422,287.729,288.736,261.731,291.555,290.101,263.436,0.0,0.0,233.01,259.051
2016-01-30 23:00,-0.00269636,288.012,288.628,261.625,291.029,289.413,262.61,0.0,0.0,230.674,257.942
2016-01-31 00:00,-0.00183255,283.093,280.187,255.974,280.931,279.211,256.035,-0.00155162,0.0,228.575,251.85
2016-01-31 01:00,0.0,272.836,266.145,247.991,266.338,264.279,247.279,0.0,-0.00146194,227.601,244.056
2016-01-31 02:00,0.0,285.202,283.032,258.691,285.201,281.735,255.909,0.0,0.0,228.488,253.88
2016-01-31 03:00,-0.00117177,285.97,284.755,259.354,286.86,284.779,259.37,0.0,0.0,227.601,252.828
2016-01-31 04:00,0.0,284.57,283.032,258.134,285.061,283.049,258.76,0.0,0.0,228.312,250.748
2016-01-31 05:00,0.00122608,281.165,277.098,254.336,278.873,276.784,254.519,0.0,0.0,227.42,248.025
2016-01-31 06:00,0.0,269.865,260.692,243.93,260.524,258.408,242.671,-0.00117194,0.0,225.352,240.835
2016-01-31 07:00,0.00170298,274.073,265.545,246.801,265.31,262.537,244.372,0.0,0.0,225.058,241.854
2016-01-31 08:00,0.0,277.451,272.391,250.806,273.529,271.283,250.896,0.0,0.0,227.238,245.804
2016-01-31 09:00,0.0,265.095,255.587,240.617,254.657,251.947,239.025,0.0,0.0,224.258,237.468
2016-01-31 10:00,-0.0966058,270.151,261.179,243.65,260.524,257.856,242.527,-0.190857,-0.227568,224.76,240.185
2016-01-31 11:00,0.166396,288.152,285.658,258.802,287.951,284.779,259.127,0.297429,0.230205,227.78,249.825
2016-01-31 12:00,0.121491,282.408,274.524,252.29,275.55,272.724,251.159,0.21075,0.179491,225.835,244.056
2016-01-31 13:00,0.0642295,284.73,279.58,255.16,280.639,278.004,254.773,0.138589,0.104586,226.592,246.929
2016-01-31 14:00,0.0476286,285.512,281.386,256.32,282.946,280.554,256.785,0.103698,0.0755605,227.42,248.562
2016-01-31 15:00,0.0990688,280.982,272.391,250.931,273.215,270.635,249.838,0.148103,0.137522,226.963,245.114
2016-01-31 16:00,0.0199056,287.871,286.55,259.244,289.3,287.188,261.062,0.0557479,0.0355542,228.048,250.95
2016-01-31 17:00,0.0213604,288.705,287.322,259.683,289.968,287.888,261.54,0.0556487,0.036494,227.87,250.95
2016-01-31 18:00,0.0387898,289.247,287.651,259.574,290.632,288.861,261.421,0.0755395,0.0548249,228.4,252.244
2016-01-31 19:00,0.0841195,290.301,288.195,259.902,291.029,289.276,262.255,0.129093,0.103501,228.662,253.021
2016-01-31 20:00,0.310957,290.041,286.55,259.244,289.701,288.167,262.136,0.311157,0.309173,228.835,252.634
2016-01-31 21:00,0.354487,284.888,284.869,257.91,287.27,285.777,260.701,0.37518,0.447345,228.835,251.949
2016-01-31 22:00,0.0,278.075,272.256,249.669,273.215,270.798,250.104,0.0,0.0,227.78,246.595
2016-01-31 23:00,0.0,282.581,281.386,255.393,284.22,282.321,258.882,-0.00229425,0.0,229.007,251.051
