# timestamp,IR_016,IR_039,IR_087,IR_097,IR_108,IR_120,IR_134,VIS006,VIS008,WV_062,WV_073
2014-08-01 00:00,-0.08183,282.059,284.071,256.778,286.86,287.048,261.66,-0.0253483,-0.0483584,240.193,257.942
2014-08-01 01:00,-0.00155709,281.705,283.495,256.434,286.447,286.767,262.255,-0.0,-0.0,240.014,258.2
2014-08-01 02:00,-0.0,280.982,283.264,256.089,285.895,286.343,262.373,-0.0,-0.0,240.014,258.882
2014-08-01 03:00,0.00124423,280.982,282.916,256.205,285.895,286.06,262.255,-0.0,-0.0,240.014,258.882
2014-08-01 04:00,-0.00123002,280.427,282.682,255.974,285.34,285.777,262.728,-0.0,-0.0,240.312,259.471
2014-08-01 05:00,-0.00129422,280.239,282.448,255.626,285.061,285.777,262.373,-0.0,-0.0,239.774,259.887
2014-08-01 06:00,0.00145886,280.05,282.331,255.742,284.781,285.35,262.255,-0.0,-0.0,239.41,258.967
2014-08-01 07:00,-0.0,279.667,281.86,255.858,284.641,284.922,262.017,-0.0,-0.0,239.043,258.628
2014-08-01 08:00,-0.0,279.859,281.86,255.393,284.641,284.922,262.255,-0.0,-0.0,238.608,258.543
2014-08-01 09:00,-0.0,279.667,281.386,254.926,284.361,284.636,261.421,-0.0,-0.0,238.42,258.286
2014-08-01 10:00,-0.0403158,279.667,281.505,255.277,284.22,284.492,261.66,-0.273083,-0.284909,238.357,257.682
2014-08-01 11:00,0.562846,285.818,285.658,257.459,288.628,288.027,262.136,0.288031,0.493295,239.227,257.855
2014-08-01 13:00,0.431514,296.531,293.742,262.471,296.809,294.944,265.069,0.159398,0.316052,240.134,257.855
2014-08-01 14:00,0.354077,299.013,296.033,264.031,299.531,297.17,264.953,0.124915,0.250574,240.253,258.2
2014-08-01 15:00,0.307322,300.947,297.783,265.153,301.11,298.591,266.108,0.101415,0.210022,240.014,258.114
2014-08-01 16:00,0.271791,301.302,298.262,265.355,301.592,298.848,265.878,0.088105,0.181881,239.834,257.682
2014-08-01 17:00,0.258451,300.589,297.783,265.153,301.11,298.591,265.532,0.08136,0.172275,240.074,257.769
2014-08-01 18:00,0.25561,299.108,296.815,264.543,300.141,297.43,265.185,0.0852582,0.173991,240.193,257.421
2014-08-01 19:00,0.244678,296.323,294.646,263.099,297.807,295.602,264.255,0.104675,0.187213,239.41,257.421
2014-08-01 20:00,0.197465,291.563,291.487,261.412,294.533,292.948,264.022,0.141185,0.186062,239.714,257.508
2014-08-01 21:00,0.281312,286.717,287.432,258.469,290.101,289.413,263.083,0.403084,0.415078,239.166,257.333
2014-08-01 22:00,-0.00692611,283.924,285.321,257.12,288.222,288.167,262.728,-0.0,-0.0,239.043,257.333
2014-08-01 23:00,-0.10275,283.093,284.528,256.434,287.27,287.048,261.182,-0.0281466,-0.0579683,238.857,257.07
2014-08-02 00:00,-0.0718936,282.753,284.071,256.32,286.722,286.767,261.898,-0.0219816,-0.0463711,238.795,257.246
2014-08-02 01:00,-0.00155731,282.059,283.495,255.742,286.033,285.919,261.779,-0.0,-0.0,238.357,257.333
2014-08-02 02:00,-0.00134136,281.526,283.032,255.393,285.757,285.493,262.136,-0.0,-0.0,237.849,256.982
2014-08-02 03:00,-0.00124406,280.799,282.916,255.393,285.618,285.635,262.136,-0.0,-0.0,237.785,256.894
2014-08-02 04:00,-0.0012299,280.982,282.799,255.277,285.479,285.635,261.54,-0.0,0.00124166,237.137,257.246
2014-08-02 05:00,0.00129427,280.613,282.331,254.808,285.061,285.35,261.421,-0.0,-0.0,236.609,257.07
2014-08-02 06:00,0.00145931,280.05,281.978,254.926,284.921,284.922,261.301,-0.0,-0.0,236.207,256.716
2014-08-02 07:00,0.00359147,279.667,281.624,254.454,284.641,284.779,261.301,-0.0,0.0018129,236.139,256.45
2014-08-02 08:00,-0.0,279.473,281.386,253.98,284.22,284.492,261.182,-0.0,-0.0,236.475,256.181
2014-08-02 09:00,-0.00466667,279.278,281.029,253.261,283.656,283.917,260.701,-0.0,-0.0,236.675,255.911
2014-08-02 10:00,-0.0854197,278.883,280.789,253.501,283.372,283.773,260.942,-0.289299,-0.301827,237.463,256.091
2014-08-02 11:00,0.593735,285.357,285.546,255.626,288.493,288.027,262.492,0.290227,0.506718,237.333,256.539
2014-08-02 12:00,0.539981,293.007,290.756,258.691,294.021,292.948,263.787,0.2159,0.417943,237.785,257.07
2014-08-02 13:00,0.435862,297.349,294.945,260.876,298.302,296.78,265.532,0.158671,0.316736,239.471,257.942
2014-08-02 14:00,0.361311,300.042,297.01,262.366,300.748,298.72,265.993,0.122954,0.253067,241.361,258.543
2014-08-02 15:00,0.307754,301.565,298.834,263.099,302.43,300.252,266.795,0.101039,0.214,242.155,259.135
2014-08-02 16:00,0.278548,301.653,299.307,263.203,302.907,300.632,266.452,0.0864769,0.187474,241.76,258.967
2014-08-02 17:00,0.264107,300.947,298.929,263.411,302.669,300.506,266.681,0.0796642,0.176643,242.042,259.471
2014-08-02 18:00,0.256536,299.485,297.879,262.786,301.592,299.488,266.108,0.0849237,0.17915,241.986,259.471
2014-08-02 19:00,0.261504,297.045,296.229,262.261,299.654,298.076,266.222,0.102025,0.199297,242.378,259.97
2014-08-02 20:00,0.279011,293.472,293.438,261.305,296.809,295.471,265.069,0.15134,0.242067,242.984,260.381
2014-08-02 21:00,0.29544,286.569,287.651,258.022,290.367,289.964,263.083,0.375223,0.426092,243.418,261.275
2014-08-02 22:00,-0.0,283.093,285.095,256.778,287.679,287.609,262.965,-0.0,-0.0,242.6,261.113
2014-08-02 23:00,-0.121085,282.753,284.414,257.006,286.86,287.329,262.728,-0.0333198,-0.0611213,243.579,261.914
2014-08-03 00:00,-0.0919166,281.883,283.956,256.549,286.033,286.485,263.2,-0.0253779,-0.0484149,243.364,262.23
2014-08-03 01:00,-0.00155751,281.526,283.611,256.549,285.895,286.343,262.492,-0.0,-0.0015724,243.418,262.623
2014-08-03 02:00,-0.0,280.982,283.38,256.089,285.479,286.06,263.083,-0.0,-0.0,243.364,262.935
2014-08-03 03:00,-0.00248781,280.799,283.148,256.434,285.201,285.777,262.61,-0.0,-0.0,242.82,263.167
2014-08-03 04:00,-0.0012298,280.05,282.566,256.549,284.641,285.35,262.847,-0.0,-0.0,240.489,262.466
2014-08-03 05:00,-0.0,280.239,282.448,256.549,284.501,285.208,263.2,-0.0,-0.0,239.349,262.701
2014-08-03 06:00,0.00145983,280.05,282.331,256.549,284.361,285.065,262.965,-0.0,-0.0,239.593,262.857
2014-08-03 07:00,-0.0,279.667,281.978,256.549,283.938,284.636,263.2,-0.0,-0.0,238.981,263.09
2014-08-03 08:00,-0.0,279.667,281.742,256.32,283.656,284.636,262.492,-0.0,-0.0,240.253,263.552
2014-08-03 09:00,-0.0,279.278,281.742,256.664,283.797,284.636,262.728,-0.0,-0.0,240.724,263.782
2014-08-03 10:00,-0.136583,279.859,281.86,256.778,283.797,284.492,262.847,-0.346935,-0.367704,241.76,264.615
2014-08-03 11:00,0.623763,286.864,287.102,259.902,289.434,289.551,264.255,0.297399,0.531904,242.544,264.69
2014-08-03 12:00,0.551641,294.268,292.417,263.515,295.297,294.679,266.222,0.219651,0.421448,242.655,264.765
2014-08-03 13:00,0.446407,298.726,297.01,266.458,300.02,298.848,268.045,0.161481,0.32584,240.665,264.389
2014-08-03 14:00,0.359847,301.125,299.024,267.838,302.191,300.506,268.271,0.125372,0.258994,241.131,264.615
2014-08-03 15:00,0.309726,302.256,299.966,268.711,303.025,301.138,268.271,0.101984,0.213196,241.361,264.389
2014-08-03 16:00,0.277533,301.826,299.872,268.518,302.907,300.885,268.158,0.0874673,0.188347,241.59,264.389
2014-08-03 17:00,0.259843,301.125,299.213,268.227,302.191,299.998,267.592,0.0807628,0.175992,241.76,264.086
2014-08-03 18:00,0.255527,299.579,298.262,267.446,301.352,299.232,267.705,0.0845896,0.178445,242.266,264.54
2014-08-03 19:00,0.260309,297.045,296.425,266.159,299.287,297.559,267.365,0.101558,0.19581,242.6,264.615
2014-08-03 20:00,0.277211,294.491,294.044,264.95,296.684,295.208,265.878,0.157698,0.236133,241.93,264.464
2014-08-03 21:00,0.288344,288.012,289.379,262.049,291.817,291.193,264.837,0.38365,0.415858,242.042,264.389
2014-08-03 22:00,-0.0,284.73,286.772,260.445,289.166,289.276,263.905,-0.0,-0.0,241.76,264.314
2014-08-03 23:00,-0.103091,284.41,286.217,259.793,288.628,288.584,264.255,-0.030807,-0.0612212,241.533,264.389
2014-08-04 01:00,-0.00155769,283.261,285.546,259.574,288.087,288.167,264.138,-0.0,-0.0,242.266,265.212
2014-08-04 02:00,-0.00134118,283.261,285.208,259.574,287.679,287.748,264.138,-0.0,-0.0,242.378,265.212
2014-08-04 03:00,-0.0,282.581,284.755,259.354,287.134,287.609,264.138,-0.0,-0.0,242.378,264.989
2014-08-04 04:00,-0.00122972,282.059,284.414,258.802,286.86,287.188,263.553,-0.0,-0.0,242.71,265.063
2014-08-04 05:00,0.00129448,281.346,284.185,259.024,286.447,287.048,264.138,-0.0,-0.0,243.364,265.212
2014-08-04 06:00,-0.00146043,281.526,284.185,258.691,286.31,286.767,263.553,-0.0,-0.0,242.929,265.137
2014-08-04 07:00,0.0017991,281.346,283.956,258.58,286.447,286.907,263.436,-0.0,-0.0,243.147,265.137
2014-08-04 08:00,0.00253429,281.526,284.185,258.58,286.31,286.907,264.022,-0.0,-0.0,243.364,265.507
2014-08-04 09:00,-0.0,281.346,284.185,258.691,286.447,287.048,263.905,-0.0,-0.0,243.093,265.948
2014-08-04 10:00,-0.195535,280.982,283.841,258.469,286.31,286.907,264.022,-0.372509,-0.394809,242.875,265.286
2014-08-04 12:00,0.539356,294.268,291.591,263.618,294.277,292.41,264.953,0.218299,0.40988,243.31,264.01
2014-08-04 13:00,0.433858,299.108,295.639,266.059,297.807,295.208,265.647,0.160714,0.313764,243.31,263.706
2014-08-04 14:00,0.366939,300.498,294.044,265.456,296.433,292.545,263.905,0.164054,0.273508,243.31,262.857
2014-08-04 15:00,0.305431,301.999,297.783,267.838,299.776,296.519,265.301,0.109513,0.210812,243.633,263.244
2014-08-04 16:00,0.433202,294.823,278.474,256.089,280.931,279.661,259.127,0.387602,0.476115,243.202,260.952
2014-08-04 17:00,0.286734,300.134,293.944,265.758,296.433,293.216,264.488,0.129019,0.221655,243.039,262.23
2014-08-04 18:00,0.296621,299.485,293.539,265.355,295.803,293.216,264.372,0.132866,0.222177,243.364,262.857
2014-08-04 19:00,0.307391,296.219,291.487,264.133,293.635,291.329,264.255,0.178531,0.248777,244.058,262.466
2014-08-04 20:00,0.357209,294.38,291.279,263.618,293.635,291.329,263.787,0.236857,0.317175,243.472,262.309
2014-08-04 21:00,0.683971,284.57,281.624,258.022,283.514,282.175,260.219,0.579117,0.710819,243.74,261.194
2014-08-04 22:00,-0.0,273.586,274.785,253.501,276.772,276.015,257.158,-0.0,-0.0,243.686,260.545
2014-08-04 23:00,-0.103255,284.087,284.982,259.793,287.27,285.919,262.61,-0.0282848,-0.0582529,243.526,263.167
2014-08-05 00:00,-0.102017,276.155,277.727,255.858,280.493,279.661,259.492,-0.0270989,-0.0504864,0.0,261.834
2014-08-05 01:00,-0.0,279.473,280.429,257.346,282.803,281.882,260.822,-0.0,-0.0,243.686,261.993
2014-08-05 02:00,-0.0,285.357,286.439,260.553,288.897,288.027,262.847,-0.0,-0.0,243.793,263.012
2014-08-05 03:00,-0.0,284.087,285.77,260.445,288.358,287.748,263.553,-0.0,-0.0,243.846,262.857
2014-08-05 04:00,-0.0,283.76,285.658,260.553,288.358,288.306,263.436,-0.0,-0.0,244.006,263.476
2014-08-05 05:00,-0.00129465,283.428,285.208,260.011,287.815,287.609,263.67,-0.0,-0.0,244.531,263.552
2014-08-05 06:00,-0.0014611,282.234,284.3,259.574,286.86,286.907,263.318,-0.0,-0.0,243.256,263.012
2014-08-05 07:00,-0.0,281.705,283.611,259.134,286.033,286.343,263.083,-0.0,-0.0,242.82,262.857
2014-08-05 08:00,-0.0,281.705,283.495,259.244,286.033,285.919,262.373,-0.0,-0.0,242.266,262.545
2014-08-05 09:00,0.004745,280.799,283.148,258.691,285.479,285.635,262.965,-0.0,-0.0,241.874,262.545
2014-08-05 10:00,-0.0529379,281.346,283.495,259.134,286.033,286.06,262.728,-0.403402,-0.374108,241.419,262.23
2014-08-05 11:00,0.592368,287.3,286.992,261.305,289.568,288.861,263.318,0.300934,0.502346,241.93,262.23
2014-08-05 12:00,0.535968,294.043,291.694,264.133,294.277,292.679,264.488,0.214435,0.410278,241.986,262.545
2014-08-05 13:00,0.437988,298.242,295.045,266.358,297.558,295.471,265.878,0.163453,0.316438,242.6,262.857
2014-08-05 14:00,0.360283,300.317,296.621,267.348,299.409,296.91,265.762,0.127225,0.255126,242.984,262.857
2014-08-05 15:00,0.30736,301.39,297.783,268.13,300.384,297.818,266.452,0.103834,0.213134,243.31,263.09
2014-08-05 16:00,0.273956,301.826,298.262,268.324,300.99,298.205,266.337,0.0907098,0.188503,243.472,263.244
2014-08-05 17:00,0.279135,300.317,295.045,266.557,297.558,294.679,264.953,0.11057,0.201053,242.82,262.779
2014-08-05 18:00,0.25161,299.765,297.107,267.544,299.287,296.389,265.532,0.0936073,0.178965,242.211,262.309
2014-08-05 19:00,0.343928,298.144,290.123,262.681,292.989,290.238,263.2,0.220544,0.321686,242.266,262.151
2014-08-05 20:00,0.359223,296.323,290.651,263.099,292.73,290.238,263.553,0.24622,0.323801,242.71,261.834
2014-08-05 21:00,0.471919,288.43,287.432,261.519,289.835,288.445,263.553,0.482818,0.575687,242.322,262.072
2014-08-05 22:00,-0.0,285.665,287.102,260.984,289.568,289.137,264.255,-0.0,-0.0,242.211,262.701
2014-08-05 23:00,-0.0882076,285.045,286.772,260.337,289.434,288.722,263.905,-0.0283289,-0.0614144,242.099,262.779
2014-08-06 00:00,-0.0680456,284.57,286.439,260.661,289.032,288.861,264.022,-0.0220289,-0.0464709,242.099,262.857
2014-08-06 01:00,-0.00155799,285.202,287.102,260.876,289.701,289.551,264.022,-0.0,-0.0,242.322,263.167
2014-08-06 02:00,-0.0,284.57,286.661,260.553,289.3,289.137,263.553,-0.0,-0.0,242.155,263.244
2014-08-06 03:00,-0.0012435,284.888,287.102,260.661,289.568,289.276,264.605,-0.0,-0.0,241.986,263.476
2014-08-06 04:00,0.00122964,284.41,286.55,260.769,288.897,288.999,264.488,-0.0,-0.0,241.93,263.629
2014-08-06 05:00,-0.0,283.76,286.105,260.228,288.628,288.722,264.372,-0.0,-0.0,242.71,263.782
2014-08-06 06:00,0.00146184,283.093,285.433,259.902,287.815,288.167,263.905,-0.0,-0.0,242.544,263.706
2014-08-06 07:00,-0.0,283.261,285.658,259.902,287.951,287.748,264.022,-0.0,-0.0,241.817,263.552
2014-08-06 08:00,-0.0,282.408,284.755,259.464,286.997,287.329,263.905,-0.0,-0.0,242.155,263.399
2014-08-06 09:00,-0.0,281.705,283.841,258.802,286.31,286.485,263.436,-0.0,-0.0,241.817,263.09
2014-08-06 10:00,-0.173761,281.526,283.495,258.802,285.895,285.919,262.965,-0.490412,-0.467793,242.322,263.167
2014-08-06 11:00,0.603236,286.717,286.328,260.337,288.628,288.167,263.553,0.29753,0.49075,241.76,262.935
2014-08-06 12:00,0.529608,292.889,290.229,263.203,292.6,291.329,264.138,0.220493,0.401742,241.986,263.012
2014-08-06 13:00,0.425506,296.323,293.235,264.747,295.677,294.149,265.878,0.166146,0.314882,242.266,263.167
2014-08-06 14:00,0.355356,299.013,295.935,266.657,298.426,296.519,266.222,0.129565,0.254045,242.378,263.552
2014-08-06 15:00,0.306164,300.225,297.01,267.446,299.654,297.43,266.566,0.104739,0.212305,242.489,263.167
2014-08-06 16:00,0.275981,301.037,298.071,267.838,300.748,298.72,266.909,0.0929526,0.189338,243.039,263.399
2014-08-06 17:00,0.258574,300.769,297.975,267.74,300.506,297.689,265.878,0.0895016,0.177314,242.655,263.09
2014-08-06 18:00,0.262008,299.579,296.718,266.954,298.795,296.258,266.108,0.104491,0.187842,242.984,262.857
2014-08-06 19:00,0.241675,297.248,295.144,266.159,297.558,295.339,265.301,0.127891,0.193155,242.544,262.545
2014-08-06 20:00,0.305976,294.933,293.843,265.153,296.182,294.282,265.762,0.208695,0.270288,242.984,262.701
2014-08-06 21:00,0.40391,289.514,289.699,262.681,292.079,291.329,264.837,0.455986,0.485442,243.31,262.545
2014-08-06 22:00,-0.0,285.818,287.651,261.305,290.101,289.276,264.022,-0.0,-0.0,243.418,262.779
2014-08-06 23:00,-0.112712,284.57,286.439,260.661,288.628,288.445,263.553,-0.0283719,-0.0615077,243.472,262.779
2014-08-07 00:00,-0.0981129,284.249,285.994,260.337,288.358,288.167,263.787,-0.0271256,-0.0525576,243.526,263.012
2014-08-07 01:00,-0.0,283.428,285.208,259.902,287.543,287.469,263.553,-0.0,-0.0,244.269,263.09
2014-08-07 02:00,-0.00268177,282.923,284.869,259.574,287.134,286.767,263.318,-0.0,-0.0,244.217,263.399
2014-08-07 03:00,-0.0,282.753,284.982,259.683,287.134,287.188,263.553,-0.0,-0.0,244.479,263.552
2014-08-07 04:00,-0.00122964,282.581,284.869,259.793,286.997,287.329,263.905,-0.0,-0.0,244.583,264.314
2014-08-07 05:00,-0.0,282.059,284.528,259.683,286.722,287.048,263.787,-0.0,-0.0,244.79,264.464
2014-08-07 06:00,0.00146266,282.059,284.3,259.793,286.31,286.767,263.905,-0.0,-0.0,244.635,264.389
2014-08-07 07:00,-0.0,281.883,283.956,259.134,286.172,286.343,263.553,-0.0,-0.0,244.374,264.086
2014-08-07 08:00,0.00255275,280.982,283.495,258.913,285.757,286.202,263.553,-0.0,-0.0,243.74,263.934
2014-08-07 09:00,-0.0,280.982,283.264,258.58,285.618,286.06,263.318,-0.0,-0.0,242.984,263.322
2014-08-07 10:00,-0.192532,281.346,283.495,258.802,285.618,285.777,263.2,-0.543388,-0.583117,242.71,262.701
2014-08-07 11:00,0.590498,287.444,287.102,260.876,289.701,288.999,264.022,0.303906,0.479252,242.155,262.151
2014-08-07 12:00,0.534872,294.268,291.383,263.618,294.021,292.276,263.787,0.221515,0.39325,241.93,261.275
2014-08-07 13:00,0.431601,298.242,294.646,265.355,297.06,294.812,265.416,0.168796,0.311233,242.266,261.194
2014-08-07 14:00,0.362295,300.769,296.523,266.557,299.287,296.389,265.185,0.131876,0.251245,242.544,261.194
2014-08-07 15:00,0.309581,302.085,297.59,267.249,300.141,296.91,264.953,0.112152,0.209915,243.31,261.113
2014-08-07 16:00,0.353931,301.999,286.772,261.091,289.032,285.493,259.856,0.208356,0.288305,244.058,260.463
2014-08-07 17:00,0.277044,297.045,288.843,262.049,290.764,288.306,261.779,0.183817,0.227353,244.322,260.299
2014-08-07 18:00,0.257192,298.436,293.438,264.133,295.55,292.679,263.67,0.139305,0.215739,244.635,261.194
2014-08-07 19:00,0.250611,296.635,292.417,263.721,294.405,292.141,263.67,0.167632,0.220116,244.479,260.952
2014-08-07 20:00,0.337866,295.26,291.902,263.307,294.277,292.141,263.787,0.257463,0.31125,244.479,261.275
2014-08-07 21:00,0.470667,288.705,287.978,260.984,290.367,289.137,262.373,0.526037,0.646227,244.739,261.515
2014-08-07 22:00,-0.00717108,285.357,286.661,260.011,288.897,288.027,263.083,-0.0,-0.00723964,244.894,261.914
2014-08-07 23:00,-0.109828,284.249,285.77,259.464,288.222,287.609,262.728,-0.0284139,-0.0615987,245.048,262.072
2014-08-08 00:00,-0.0961548,283.428,285.321,259.244,287.815,287.329,262.965,-0.027138,-0.0525818,245.608,262.545
2014-08-08 01:00,-0.0,283.093,285.095,259.244,287.543,287.469,263.318,-0.0,-0.0,245.91,262.857
2014-08-08 02:00,-0.0,282.923,284.869,259.354,287.407,287.469,263.787,-0.0,-0.0,246.505,263.629
2014-08-08 03:00,-0.0,282.408,284.414,258.691,286.86,286.767,263.2,-0.0,-0.0,246.944,263.399
2014-08-08 04:00,-0.00122966,282.059,284.071,0.0,0.0,0.0,0.0,-0.0,-0.0,0.0,0.0
2014-08-08 05:00,-0.0,281.705,283.956,258.358,286.31,286.767,262.965,-0.0,-0.0,247.807,264.389
2014-08-08 06:00,-0.0,281.346,283.495,258.022,285.895,286.06,263.2,-0.0,-0.0,247.855,264.615
2014-08-08 07:00,0.00180759,281.165,283.148,257.685,285.618,285.777,262.492,-0.0,-0.0,248.324,264.162
2014-08-08 08:00,-0.0,280.982,283.148,257.685,285.34,285.777,262.847,-0.0,-0.0,248.184,264.314
2014-08-08 09:00,-0.0,280.239,282.799,257.346,285.061,285.208,262.847,-0.0,-0.0,248.371,264.314
2014-08-08 10:00,-0.361253,280.239,282.682,257.233,284.781,285.208,262.373,-0.672919,-0.729412,248.51,264.162
2014-08-08 12:00,0.542871,294.156,291.591,262.366,294.405,292.679,265.069,0.220044,0.411045,248.417,264.238
2014-08-08 13:00,0.435545,297.749,294.646,264.543,297.434,295.602,265.532,0.164477,0.319976,248.277,264.615
2014-08-08 14:00,0.353977,299.95,296.718,266.059,300.02,297.947,266.566,0.129875,0.25696,248.417,265.063
2014-08-08 15:00,0.311421,300.589,297.783,266.657,301.11,299.104,266.795,0.106511,0.218375,248.231,265.137
2014-08-08 16:00,0.276927,300.947,298.644,266.855,301.832,299.743,267.478,0.0922519,0.194021,248.137,265.212
2014-08-08 17:00,0.266316,300.134,298.453,266.557,301.832,299.998,267.592,0.0874625,0.180871,247.617,265.581
2014-08-08 18:00,0.258061,298.339,297.204,265.959,300.627,298.848,267.251,0.0940985,0.186363,247.57,265.434
2014-08-08 19:00,0.264458,296.219,295.738,264.95,298.672,297.3,266.795,0.118295,0.209055,247.234,265.434
2014-08-08 20:00,0.289623,293.587,293.539,263.618,296.433,295.208,266.222,0.199022,0.266966,247.234,265.581
2014-08-08 21:00,0.368811,287.729,289.058,261.091,291.555,291.329,264.721,0.452794,0.502654,247.665,265.581
2014-08-08 22:00,-0.00721116,283.924,286.217,259.134,288.493,288.445,263.787,-0.0,-0.0,247.379,265.434
2014-08-08 23:00,-0.128317,282.923,285.208,258.802,287.407,288.027,264.022,-0.0336285,-0.0647719,247.807,265.581
2014-08-09 01:00,-0.00155833,282.234,284.414,258.022,286.585,287.048,263.67,-0.0,-0.0,248.137,266.239
2014-08-09 02:00,0.0013407,281.526,284.3,257.798,286.172,286.626,263.553,-0.0,-0.0,247.09,265.948
2014-08-09 03:00,0.0012432,281.165,283.264,257.798,285.34,286.343,263.2,-0.0,-0.0,246.701,266.094
2014-08-09 04:00,-0.0,280.239,283.032,257.346,285.061,285.777,262.61,-0.0,-0.0,245.96,266.239
2014-08-09 05:00,-0.0,280.427,282.916,257.459,284.921,285.635,263.318,-0.0,-0.0,244.997,265.875
2014-08-09 06:00,-0.00146455,280.239,282.916,257.459,285.061,285.493,263.318,-0.0,-0.0,243.633,265.581
2014-08-09 07:00,-0.0,279.859,282.448,257.233,284.501,285.35,263.2,-0.0,-0.0,243.147,265.507
2014-08-09 08:00,0.00256689,279.859,282.331,257.006,284.22,285.208,262.965,-0.0,-0.0,243.039,265.728
2014-08-09 09:00,0.00487207,279.667,282.214,256.778,284.22,284.922,262.255,-0.0,-0.0,241.76,264.989
2014-08-09 10:00,-0.332169,279.278,281.86,256.778,284.079,284.636,263.083,-0.843742,-0.838362,240.899,264.54
2014-08-09 11:00,0.604906,285.665,285.994,259.024,288.358,288.445,263.905,0.30156,0.496541,240.014,263.858
2014-08-09 12:00,0.521997,292.053,289.805,261.091,292.209,291.6,264.488,0.220987,0.402479,239.288,263.552
2014-08-09 13:00,0.427201,295.151,292.52,262.995,295.17,294.282,265.069,0.167076,0.314222,238.733,263.09
2014-08-09 14:00,0.350743,297.848,295.045,264.236,297.931,296.519,266.222,0.130725,0.250747,237.977,262.935
2014-08-09 15:00,0.305591,299.391,297.01,265.658,300.02,298.463,266.909,0.107378,0.215958,238.041,263.399
2014-08-09 16:00,0.277379,299.95,298.167,266.159,301.592,299.743,267.705,0.0919005,0.196326,238.42,263.706
2014-08-09 17:00,0.262094,299.672,298.262,266.358,301.472,300.125,268.384,0.0884936,0.185057,237.463,263.167
2014-08-09 18:00,0.255169,298.144,296.913,265.557,300.02,298.72,267.137,0.0984938,0.191312,236.94,261.914
2014-08-09 19:00,0.248378,295.902,295.541,264.543,298.672,297.17,266.452,0.119872,0.205617,236.408,261.834
2014-08-09 20:00,0.479781,292.534,278.845,255.16,278.576,274.147,250.369,0.317919,0.433825,229.935,251.452
2014-08-09 21:00,0.415702,287.01,288.195,260.445,290.764,290.648,264.953,0.443794,0.529157,234.968,260.789
2014-08-10 01:00,-0.0,280.982,282.916,256.778,285.061,285.35,263.2,-0.0,-0.0,233.823,260.381
2014-08-10 02:00,-0.00134061,280.427,282.566,256.892,284.641,285.065,263.083,-0.0,-0.0,233.308,259.97
2014-08-10 03:00,0.00124314,279.473,281.86,256.32,283.656,284.492,262.136,-0.0,-0.0,233.603,259.804
2014-08-10 04:00,-0.0,279.667,281.624,256.32,283.797,284.205,262.492,-0.0,-0.0,233.085,258.882
2014-08-10 05:00,-0.0,278.482,279.702,254.926,281.655,282.175,261.182,-0.0,-0.0,231.787,256.982
2014-08-10 06:00,0.00146562,278.279,280.187,255.393,282.087,282.467,261.779,-0.0,-0.0,231.473,257.682
2014-08-10 07:00,-0.0,278.684,280.187,255.16,282.231,282.904,261.898,-0.0,-0.0,231.865,257.07
2014-08-10 08:00,-0.00257454,277.869,279.702,255.277,281.799,282.321,261.66,-0.0,-0.0,231.552,256.539
2014-08-10 09:00,-0.00490827,278.075,279.58,254.808,281.51,281.882,261.182,-0.0,-0.0,231.865,256.36
2014-08-10 10:00,-0.49086,278.075,279.213,254.572,281.076,281.735,261.301,-0.914343,-1.09022,231.865,255.911
2014-08-10 11:00,0.642288,286.271,285.433,258.134,288.087,287.609,263.2,0.30265,0.552573,231.943,256.181
2014-08-10 12:00,0.575389,294.491,291.902,261.731,295.424,294.547,265.416,0.226708,0.451483,231.236,255.821
2014-08-10 13:00,0.344026,286.864,277.852,253.261,278.576,276.323,252.982,0.195333,0.322799,228.224,246.929
2014-08-10 14:00,0.260635,293.472,287.212,258.58,287.951,285.493,257.53,0.131559,0.227706,228.312,248.669
2014-08-10 16:00,0.304851,279.473,258.195,242.225,256.406,253.316,237.827,0.233958,0.339603,225.546,238.027
2014-08-10 17:00,0.275519,290.685,278.474,253.14,278.873,275.706,251.814,0.160042,0.252278,227.51,245.114
2014-08-10 18:00,0.242953,298.339,295.935,263.928,298.918,296.91,264.953,0.101272,0.186787,230.101,252.731
2014-08-10 19:00,0.215133,296.008,294.846,263.411,298.426,296.127,265.301,0.115154,0.184736,230.916,253.69
2014-08-10 20:00,0.377382,290.558,285.546,257.798,287.27,285.493,259.735,0.280905,0.360056,229.007,248.775
2014-08-11 01:00,-0.00155851,282.408,283.726,256.778,286.585,286.485,262.255,-0.0,-0.0,232.02,253.69
2014-08-11 02:00,-0.00134053,281.165,282.566,256.32,285.061,284.205,260.581,-0.0,-0.0,233.159,253.595
2014-08-11 03:00,-0.0,280.982,282.448,256.549,285.34,285.208,261.301,-0.0,-0.0,233.896,252.828
2014-08-11 04:00,-0.00122993,280.982,282.214,256.089,285.061,284.636,261.898,-0.0,-0.0,233.75,252.925
2014-08-11 05:00,-0.0,280.799,281.86,255.974,284.781,284.492,261.182,-0.0,0.00130905,234.686,252.828
2014-08-11 06:00,-0.0,280.982,281.624,255.974,284.501,284.061,260.581,-0.0,-0.0,234.897,252.342
2014-08-11 07:00,-0.0,280.05,281.029,255.51,283.938,283.339,260.701,-0.0,-0.0,235.799,252.537
2014-08-11 08:00,0.00258258,279.859,280.669,255.16,283.514,282.613,260.461,-0.0,-0.0,236.274,252.828
2014-08-11 09:00,-0.0,274.073,275.046,252.168,278.427,277.548,256.909,-0.0,-0.0,236.004,252.731
2014-08-11 10:00,-2.17559,275.48,276.208,252.656,279.613,278.911,258.147,-1.63739,-2.07436,236.874,252.925
2014-08-11 11:00,0.62892,287.01,284.071,257.12,286.86,285.35,260.822,0.322306,0.506832,237.398,253.5
2014-08-11 12:00,0.543102,293.816,289.699,260.661,292.47,289.689,262.017,0.222737,0.399798,237.913,254.068
2014-08-11 13:00,0.434808,297.947,292.417,262.155,294.661,291.193,262.61,0.175554,0.31703,238.546,0.0
2014-08-11 14:00,0.362586,300.589,294.746,263.411,296.935,293.082,262.965,0.133785,0.255229,238.733,254.999
2014-08-11 15:00,0.345559,298.822,287.212,259.574,289.835,286.343,260.461,0.18479,0.270827,237.657,254.443
2014-08-11 16:00,0.28124,301.653,295.935,264.645,298.426,294.415,263.787,0.100063,0.193313,236.675,254.068
2014-08-11 17:00,0.255327,300.769,295.244,264.133,297.807,293.883,262.965,0.0959319,0.177215,237.203,254.349
2014-08-11 18:00,0.305293,299.485,291.798,262.155,294.277,290.648,262.017,0.159193,0.240555,236.071,253.88
2014-08-11 19:00,0.285584,297.947,291.07,261.731,293.377,289.689,261.779,0.168846,0.24109,235.662,253.309
2014-08-11 21:00,0.661006,291.315,287.322,259.464,289.968,287.188,260.701,0.574401,0.684887,235.593,252.925
2014-08-11 22:00,-0.00732954,285.97,286.328,258.913,289.3,287.888,262.017,-0.0,-0.0,236.139,253.5
2014-08-11 23:00,-0.122708,285.202,285.77,258.358,288.763,287.329,261.54,-0.0363638,-0.0712315,236.341,253.405
2014-08-12 00:00,-0.0983194,285.045,285.658,258.246,288.628,287.609,261.898,-0.0237848,-0.0526682,237.072,253.785
2014-08-12 01:00,-0.00311716,284.73,285.321,258.246,288.493,287.048,261.898,-0.0,-0.0,237.913,254.256
2014-08-12 02:00,-0.0,284.57,285.321,258.469,288.358,286.907,261.898,-0.0,-0.0,237.849,254.349
2014-08-12 03:00,-0.0,284.087,284.982,258.358,287.815,286.907,261.66,-0.0,-0.0,238.104,254.536
2014-08-12 04:00,-0.0,283.76,284.3,258.134,287.407,286.343,261.301,-0.0,-0.0,238.041,254.443
2014-08-12 05:00,-0.0,282.581,283.841,257.798,286.997,286.202,262.136,-0.0,-0.0,237.333,254.256
2014-08-12 06:00,-0.0,281.883,283.611,257.798,286.722,286.343,261.779,-0.0,-0.0,237.528,254.722
2014-08-12 07:00,-0.00181856,281.705,283.495,257.572,286.447,285.777,262.017,-0.0,-0.0,238.357,255.275
2014-08-12 08:00,-0.00259102,281.526,283.495,257.346,286.447,286.485,262.255,-0.0,-0.0,238.608,256.001
2014-08-12 09:00,-0.0,281.526,283.38,257.233,286.31,286.06,262.136,-0.0,-0.0,238.981,256.45
2014-08-12 10:00,-0.951653,282.059,283.148,257.459,286.31,286.06,261.898,-1.61153,-1.76138,239.532,256.716
2014-08-12 11:00,0.593898,288.43,286.882,259.354,289.701,288.306,262.255,0.299866,0.47856,239.653,256.894
2014-08-12 12:00,0.536467,294.933,290.965,261.944,293.506,291.193,263.083,0.221168,0.394145,239.532,256.894
2014-08-12 13:00,0.424478,299.108,293.843,263.618,296.182,293.216,263.67,0.16614,0.30523,239.894,257.246
2014-08-12 14:00,0.359289,301.478,295.738,264.849,298.055,294.149,263.905,0.131777,0.245716,239.834,256.982
2014-08-12 15:00,0.304902,302.256,296.327,265.355,298.549,294.547,263.67,0.108632,0.205719,240.074,257.333
2014-08-12 16:00,0.274195,302.511,296.718,265.758,298.918,294.812,263.905,0.0958922,0.18655,240.312,257.942
2014-08-12 17:00,0.271847,299.485,292.417,262.995,294.405,290.921,262.847,0.133258,0.205433,240.899,258.114
2014-08-12 18:00,0.313372,299.485,292.005,263.099,294.533,291.057,262.373,0.171131,0.254592,240.607,257.855
2014-08-12 19:00,0.267181,298.045,294.044,264.236,296.559,293.216,264.138,0.143205,0.210344,240.43,257.595
2014-08-12 20:00,0.307392,295.042,292.314,262.786,294.533,291.329,263.318,0.235976,0.273091,240.074,257.333
2014-08-12 21:00,0.409924,290.171,289.165,260.984,291.686,289.551,263.2,0.506161,0.517303,239.774,256.982
2014-08-12 22:00,-0.00736831,286.864,287.102,259.793,289.968,288.445,262.373,-0.0,-0.0,239.532,256.539
2014-08-12 23:00,-0.0921495,285.357,286.105,258.58,289.032,287.609,261.66,-0.0286084,-0.0651213,240.371,256.894
2014-08-13 00:00,-0.0782829,285.202,286.105,258.691,289.032,288.027,262.373,-0.0237935,-0.0526875,240.665,256.628
2014-08-13 01:00,-0.00311729,284.73,285.77,258.58,288.763,287.748,262.255,-0.0,-0.0,241.304,257.158
2014-08-13 02:00,-0.0013404,284.41,285.546,258.469,288.628,287.888,262.255,-0.0,-0.0,241.476,257.421
2014-08-13 03:00,0.00124307,284.087,285.658,258.469,288.493,287.888,262.61,-0.0,-0.0,241.704,257.942
2014-08-13 04:00,-0.0,283.76,285.208,258.802,288.222,287.609,262.728,-0.0,-0.0,241.304,258.286
2014-08-13 05:00,-0.0,282.923,284.642,258.469,287.543,287.048,262.492,-0.0,-0.0,240.548,258.028
2014-08-13 06:00,0.00146936,282.408,284.3,258.58,287.27,286.907,262.728,-0.0,-0.0,240.841,258.028
2014-08-13 07:00,-0.0,282.059,283.956,258.022,286.86,286.485,262.255,-0.0,-0.0,238.795,257.595
2014-08-13 08:00,0.00259988,281.346,282.214,256.778,284.22,283.773,260.34,-0.0,0.00262473,234.329,254.907
2014-08-13 09:00,-0.00502857,271.261,266.293,247.597,266.508,264.106,247.006,-0.0,-0.0,229.685,246.818
2014-08-13 10:00,-2.80353,280.05,278.101,254.572,279.907,278.609,256.785,-2.57156,-3.30205,229.093,250.646
2014-08-13 11:00,0.360492,265.095,252.101,240.32,252.262,249.55,239.173,0.378118,0.445417,227.238,241.98
2014-08-13 12:00,0.468501,288.012,279.702,255.16,280.931,277.243,253.881,0.269175,0.39415,229.093,249.408
2014-08-13 13:00,0.384349,275.02,258.025,242.942,256.789,254.281,240.793,0.397933,0.452359,224.56,238.303
2014-08-13 14:00,0.441704,272.061,256.819,241.936,256.789,255.425,243.099,0.612618,0.642267,226.963,240.185
2014-08-13 15:00,0.251036,270.989,255.23,241.354,253.669,251.552,240.646,0.288918,0.361184,226.871,239.255
2014-08-13 16:00,0.328058,253.206,222.198,225.897,222.162,221.875,219.739,0.632201,0.72533,218.767,220.535
2014-08-13 17:00,0.256564,266.466,252.479,239.871,252.059,249.753,241.229,0.333894,0.402915,227.51,238.165
2014-08-13 18:00,0.389729,289.381,254.871,241.354,253.469,249.55,239.765,0.362825,0.428885,229.178,240.576
2014-08-13 19:00,0.512526,267.444,245.248,236.625,246.135,245.186,237.977,0.692262,0.810634,230.266,239.523
2014-08-13 20:00,0.802778,295.583,266.886,247.728,267.857,263.237,247.415,0.67281,0.810452,230.835,244.881
2014-08-13 21:00,0.805468,282.581,274.261,252.534,276.772,273.517,254.009,0.59674,0.762345,232.784,249.721
2014-08-13 22:00,-0.00740669,263.255,261.34,244.765,263.569,262.185,248.634,-0.0,-0.0,232.175,247.151
2014-08-13 23:00,-0.126096,266.131,267.618,248.9,271.303,270.473,254.392,-0.0364563,-0.0745176,230.996,250.442
2014-08-14 00:00,-0.090358,276.594,279.091,254.808,282.66,281.735,259.492,-0.025502,-0.0547331,232.405,253.021
2014-08-14 01:00,-0.0,275.251,277.601,254.69,281.366,280.108,258.392,-0.0,-0.0,234.686,254.629
2014-08-14 02:00,0.00134035,268.382,270.468,250.555,274.0,272.883,256.16,-0.0,-0.0,236.139,254.349
2014-08-14 03:00,-0.00124309,264.009,266.59,248.121,270.006,270.148,254.392,-0.0,-0.0,238.795,255.183
2014-08-14 04:00,-0.0,269.865,272.527,251.552,276.163,274.929,256.285,-0.0,-0.0,239.471,255.821
2014-08-14 05:00,0.00129835,274.073,277.35,254.454,280.639,279.81,259.127,-0.0,-0.0,235.108,254.722
2014-08-14 06:00,-0.0,272.836,274.655,253.14,277.978,276.323,257.53,-0.0,-0.0,234.472,254.443
2014-08-14 07:00,-0.0,276.594,279.458,255.974,282.946,281.735,258.76,-0.0,-0.0,234.113,254.349
2014-08-14 08:00,-0.0,276.811,279.458,255.742,282.231,281.146,259.492,-0.0,-0.0,234.041,254.722
2014-08-14 09:00,-0.0,267.761,268.487,249.669,271.945,270.148,253.497,-0.0,-0.0,234.185,253.88
2014-08-14 10:00,-1.36318,278.075,279.458,255.858,282.803,281.588,259.127,-5.771,-5.0461,233.896,254.629
2014-08-14 11:00,0.621568,284.73,278.968,255.393,282.231,281.293,259.249,0.59825,0.584603,233.896,254.536
2014-08-14 12:00,0.725367,290.813,273.065,252.168,275.703,273.517,254.009,0.717309,0.732301,232.709,252.047
2014-08-14 13:00,0.629829,294.491,276.845,253.98,280.054,279.061,258.147,0.659048,0.661844,234.185,254.814
2014-08-14 14:00,0.593885,292.771,279.58,255.742,283.088,282.321,260.219,0.652861,0.655875,234.329,255.911
2014-08-14 15:00,0.553891,293.587,279.458,255.742,283.088,282.758,260.701,0.590659,0.592435,234.827,255.73
2014-08-14 16:00,0.408114,296.635,280.789,256.549,284.22,282.904,260.219,0.291714,0.331404,233.896,254.907
2014-08-14 17:00,0.337636,296.84,285.095,258.691,286.997,283.917,259.614,0.172327,0.245294,233.677,254.907
2014-08-14 18:00,0.294385,296.219,286.882,259.683,288.358,285.065,259.856,0.14488,0.226614,234.329,255.73
2014-08-14 19:00,0.274606,292.534,287.869,260.445,289.835,286.485,260.822,0.164608,0.237977,234.401,254.907
2014-08-14 20:00,0.303895,289.647,286.661,259.902,288.628,286.202,260.822,0.253877,0.30271,234.543,254.256
2014-08-14 21:00,0.478364,287.01,284.755,258.469,286.722,284.492,260.581,0.600562,0.649467,235.108,254.256
2014-08-14 22:00,-0.00744467,282.753,283.148,257.572,285.757,284.349,260.581,-0.0,-0.0,235.317,254.907
2014-08-14 23:00,-0.110853,282.234,282.214,256.434,284.501,283.049,259.977,-0.0338935,-0.0714997,235.178,254.443
2014-08-15 00:00,-0.0763279,282.408,282.916,257.12,285.479,284.636,260.701,-0.0238099,-0.0527236,235.317,253.974
2014-08-15 01:00,-0.00155877,281.705,282.448,256.778,285.201,284.349,260.219,-0.0,-0.0,235.178,253.595
2014-08-15 02:00,-0.0,280.613,281.505,256.434,284.22,283.339,259.977,-0.0,-0.0,235.455,254.068
2014-08-15 03:00,-0.0,280.799,282.096,256.549,284.781,284.205,260.461,-0.0,-0.0,235.525,254.722
2014-08-15 04:00,-0.00123076,280.427,281.624,256.205,284.361,283.917,260.701,-0.0,-0.0,235.038,253.785
2014-08-15 05:00,-0.0,280.613,281.978,256.664,284.641,283.917,260.461,-0.0,-0.0,234.615,253.974
2014-08-15 06:00,-0.00147231,274.551,272.796,251.922,274.0,269.821,252.982,-0.0,-0.0,233.677,248.882
2014-08-15 07:00,-0.00182854,280.239,281.267,256.32,283.938,283.339,260.581,-0.0,-0.0,234.968,253.213
2014-08-15 08:00,0.00261885,280.427,281.86,256.778,284.641,283.917,261.182,-0.0,-0.0,234.897,253.5
2014-08-15 09:00,-0.0,280.613,281.624,256.434,284.361,283.484,260.461,-0.0,-0.0,235.525,253.595
2014-08-15 10:00,-119.882,279.859,281.267,256.205,284.079,283.484,260.701,-177.631,-196.67,236.004,253.785
2014-08-15 12:00,0.623884,296.738,272.256,251.429,274.778,271.926,254.646,0.402581,0.507763,236.675,252.047
2014-08-15 13:00,0.411668,294.268,286.661,259.354,288.358,284.636,259.614,0.186787,0.300268,235.525,251.751
2014-08-15 14:00,0.35762,297.349,291.279,261.944,293.635,290.238,262.255,0.136881,0.248935,235.525,252.537
2014-08-15 15:00,0.333937,300.134,288.195,259.793,289.032,282.175,254.519,0.136323,0.236292,234.756,250.032
2014-08-15 16:00,0.360869,299.672,271.984,251.056,271.945,262.008,243.808,0.190811,0.285507,233.382,244.764
2014-08-15 17:00,0.278205,299.579,291.174,261.625,292.86,287.329,258.882,0.115782,0.199937,233.01,249.825
2014-08-15 18:00,0.560841,293.587,247.563,238.195,248.093,246.246,238.577,0.470208,0.55325,231.394,238.303
2014-08-15 19:00,0.740464,296.219,242.824,235.499,243.895,242.364,235.846,0.684317,0.815945,230.996,237.608
2014-08-15 20:00,0.535901,303.264,284.869,258.469,286.722,280.702,255.28,0.433277,0.508482,231.552,248.562
2014-08-15 21:00,0.713833,284.57,273.865,252.412,274.467,269.657,251.683,0.53572,0.655143,232.481,245.575
2014-08-15 22:00,-0.00748223,285.97,285.208,258.469,287.951,285.777,260.822,-0.0,-0.0,233.01,249.617
2014-08-15 23:00,-0.0986525,285.818,285.433,258.469,288.087,286.343,260.942,-0.0287131,-0.0684719,232.709,250.032
2014-08-16 00:00,-0.102473,284.249,284.414,257.798,287.134,285.635,260.34,-0.02722,-0.0547691,232.557,250.135
2014-08-16 01:00,-0.00155884,283.093,283.726,257.459,286.722,285.493,260.581,-0.0,-0.0,233.085,249.825
2014-08-16 02:00,-0.0,283.093,283.38,257.346,286.447,285.208,260.701,-0.0,-0.0,233.382,250.032
2014-08-16 03:00,-0.00124321,282.408,283.148,257.685,286.172,284.922,260.581,-0.0,-0.0,232.935,249.617
2014-08-16 04:00,-0.0,281.883,282.682,257.006,285.618,284.636,260.701,-0.0,-0.0,232.935,250.135
2014-08-16 05:00,-0.0,281.705,282.331,257.006,285.201,284.349,260.219,-0.0,-0.0,232.784,249.928
2014-08-16 06:00,-0.0,281.526,281.978,256.664,284.781,283.773,259.856,-0.0,-0.0,232.709,250.238
2014-08-16 07:00,-0.0,281.165,281.86,256.434,284.781,283.773,260.461,-0.0,-0.0,232.481,249.825
2014-08-16 08:00,-0.00262898,280.613,280.909,255.974,283.797,282.028,259.614,-0.0,-0.0,232.175,249.093
2014-08-16 09:00,-0.00516811,252.585,250.371,239.115,252.059,250.757,241.953,-0.0,-0.0,232.633,242.848
2014-08-16 10:00,7.54364,265.446,258.025,243.368,258.865,255.803,244.932,6.78639,8.56772,232.328,243.818
2014-08-16 11:00,0.859474,289.779,258.703,244.07,258.865,255.235,243.808,0.591817,0.757922,231.943,243.093
2014-08-16 12:00,0.507437,287.155,271.162,249.797,271.945,268.505,249.971,0.32108,0.454449,232.175,246.258
2014-08-16 13:00,0.413303,295.368,288.52,260.445,290.5,286.202,259.37,0.175801,0.308491,231.63,248.455
2014-08-16 14:00,0.359205,299.297,292.827,263.099,295.55,291.464,261.062,0.134867,0.251057,231.236,249.198
2014-08-16 15:00,0.30434,301.037,294.346,263.721,296.935,292.679,261.898,0.109359,0.209829,230.835,249.093
2014-08-16 16:00,0.280238,301.653,295.343,264.339,298.055,293.75,262.965,0.0944139,0.186636,230.916,249.303
2014-08-16 17:00,0.263064,300.947,295.244,263.928,297.807,293.483,262.373,0.0928065,0.177052,230.101,249.093
2014-08-16 18:00,0.284823,299.013,292.725,262.786,295.043,291.193,262.017,0.126763,0.206443,230.266,249.093
2014-08-16 19:00,0.269879,296.84,292.314,262.155,294.916,290.921,261.66,0.142816,0.206777,230.184,249.303
2014-08-16 20:00,0.292525,295.583,289.486,260.876,292.079,288.027,260.701,0.240895,0.275094,229.769,248.455
2014-08-16 21:00,1.30907,289.381,272.662,251.18,272.423,266.329,249.171,0.946187,1.32159,229.517,243.577
2014-08-16 22:00,-0.0,284.249,283.956,257.572,286.31,283.339,258.515,-0.0,-0.0,229.769,248.241
2014-08-16 23:00,-0.148149,284.57,284.3,257.685,287.407,285.493,260.34,-0.0391992,-0.0778985,230.835,249.408
2014-08-17 00:00,-0.080396,283.76,284.185,257.572,286.997,285.777,260.701,-0.0238249,-0.052757,230.43,250.135
2014-08-17 01:00,-0.0015589,278.684,275.823,253.14,277.075,275.551,254.519,-0.0,-0.0,228.048,245.46
2014-08-17 02:00,-0.0,282.234,282.096,256.205,284.921,283.773,260.219,-0.0,-0.0,229.852,249.303
2014-08-17 03:00,-0.0012433,281.165,281.386,255.626,283.797,282.613,259.735,-0.0,-0.0,229.433,249.303
2014-08-17 04:00,-0.0,276.594,272.796,250.681,274.778,271.926,249.971,-0.0,-0.0,228.835,245.345
2014-08-17 05:00,-0.0,280.982,281.978,255.858,284.781,284.061,260.098,-0.0,-0.0,231.156,250.442
2014-08-17 06:00,-0.0,273.831,271.711,250.555,272.741,265.99,247.551,-0.0,-0.0,230.018,245.23
2014-08-17 07:00,-0.0,280.982,281.624,255.742,284.501,283.917,259.977,-0.0,-0.0,230.593,250.238
2014-08-17 08:00,-0.00263956,280.613,281.267,255.16,284.361,283.484,259.856,-0.0,-0.0,231.156,250.442
2014-08-17 09:00,-0.0,278.482,278.101,253.02,279.907,278.76,256.535,-0.0,-0.0,228.835,248.348
2014-08-17 10:00,2.2927,266.797,257.683,241.791,256.98,254.855,240.793,2.71772,3.70339,228.136,239.656
2014-08-17 11:00,0.470179,274.314,261.982,244.21,261.069,258.591,243.808,0.432717,0.546906,228.488,240.576
2014-08-17 12:00,0.333071,272.322,259.706,242.656,259.051,256.367,242.097,0.309524,0.399132,228.748,239.121
2014-08-17 13:00,0.45969,297.248,290.545,260.228,292.47,288.722,260.219,0.181415,0.340197,230.916,250.135
2014-08-17 14:00,0.299283,285.512,272.12,249.542,271.625,268.67,248.499,0.193134,0.287445,228.921,240.706
2014-08-17 15:00,0.285329,294.491,283.726,255.974,284.361,279.511,254.264,0.122671,0.2194,229.433,246.145
2014-08-17 16:00,0.244073,286.717,273.199,250.051,272.741,268.67,248.634,0.158395,0.233127,230.184,242.478
2014-08-17 17:00,0.329154,270.434,249.385,237.258,249.579,247.293,236.765,0.30511,0.40947,229.935,236.614
2014-08-17 18:00,0.26555,299.013,293.031,261.731,295.297,291.057,261.66,0.11088,0.192803,234.472,251.751
2014-08-17 19:00,0.335944,296.943,289.486,259.464,291.686,288.027,260.34,0.197078,0.278592,234.041,251.85
2014-08-17 20:00,0.753262,270.713,248.177,236.943,246.794,245.399,236.307,0.708651,0.885195,230.835,237.185
2014-08-17 21:00,0.518662,290.041,286.105,257.685,288.763,285.635,259.735,0.625457,0.698161,233.677,251.352
2014-08-17 22:00,0.00755605,285.665,285.321,257.12,287.815,285.777,260.34,-0.0,-0.0,233.896,251.452
2014-08-17 23:00,-0.132865,277.661,272.527,249.542,272.104,269.657,251.028,-0.0366268,-0.0811049,230.916,244.056
2014-08-18 00:00,-0.112588,282.753,280.669,254.336,282.66,280.406,256.535,-0.0272366,-0.0588619,231.63,248.455
2014-08-18 01:00,-0.00155897,279.081,276.336,252.29,277.828,276.015,254.646,-0.00131998,-0.0,231.236,246.483
2014-08-18 02:00,-0.00134029,282.059,281.267,254.926,283.372,281.882,257.9,-0.0,-0.0,231.552,248.133
2014-08-18 03:00,-0.0,282.753,282.799,256.089,285.34,283.917,259.492,-0.0,0.00125532,231.394,249.721
2014-08-18 04:00,0.00123179,283.428,282.916,256.205,285.757,284.061,259.37,-0.0,-0.0,231.394,249.198
2014-08-18 05:00,-0.00130144,282.408,282.916,256.089,285.618,284.349,259.977,-0.0,-0.0,231.236,249.825
2014-08-18 06:00,-0.0,282.059,282.096,256.089,284.921,283.484,259.249,-0.0,-0.0,230.996,249.408
2014-08-18 07:00,-0.0,281.526,281.742,255.626,284.501,283.194,258.76,-0.0,-0.0,231.943,249.928
2014-08-18 08:00,-0.00265059,281.883,282.566,255.858,285.618,284.492,259.856,-0.0,-0.0,232.175,250.748
2014-08-18 09:00,-0.00527301,281.526,282.214,255.858,285.061,283.917,259.977,-0.0,-0.0,232.328,250.544
2014-08-18 10:00,1.8033,282.059,282.566,256.205,285.34,284.205,259.856,2.0358,2.12396,232.935,250.748
2014-08-18 12:00,0.548274,293.587,288.412,259.354,290.897,288.306,260.701,0.225284,0.396143,233.01,250.646
2014-08-18 13:00,0.428051,297.349,291.487,261.198,293.892,290.375,261.301,0.167275,0.306997,232.709,250.646
2014-08-18 14:00,0.357449,299.672,293.235,262.155,295.677,291.735,261.779,0.130876,0.24708,232.784,250.748
2014-08-18 15:00,0.30769,300.679,294.145,262.576,296.559,292.141,261.779,0.108446,0.211051,233.234,250.646
2014-08-18 16:00,0.283888,301.037,293.843,262.576,296.056,291.871,262.136,0.103543,0.194008,233.382,251.051
2014-08-18 17:00,0.289067,297.649,289.379,260.011,291.423,287.748,260.461,0.153958,0.230641,233.75,250.849
2014-08-18 18:00,0.27904,296.943,289.593,259.902,291.817,288.306,260.34,0.159554,0.230488,233.603,251.051
2014-08-18 19:00,0.267647,296.323,291.902,261.731,294.277,290.648,261.301,0.149729,0.21713,233.968,251.152
2014-08-18 20:00,0.293358,293.702,290.651,260.876,293.377,290.375,261.301,0.221533,0.272149,234.543,251.252
2014-08-18 21:00,0.387025,288.705,287.212,259.134,289.968,287.888,261.062,0.498094,0.515757,235.108,251.252
2014-08-18 22:00,-0.00759229,284.57,284.982,257.459,287.951,286.626,260.581,-0.0,-0.00766487,235.593,251.652
2014-08-18 23:00,-0.145382,284.57,284.642,257.346,287.407,286.343,261.182,-0.0392856,-0.0843159,236.609,252.047
2014-08-19 00:00,-0.118654,283.428,284.3,257.346,287.134,285.919,260.701,-0.0306501,-0.0629396,237.137,252.146
2014-08-19 01:00,-0.00155905,283.093,283.611,257.12,286.722,285.493,260.461,-0.0,-0.0,237.657,252.537
2014-08-19 02:00,-0.0,283.093,283.611,256.892,286.86,285.635,260.822,-0.0,-0.0,238.104,252.828
2014-08-19 03:00,0.00124359,282.753,283.611,257.006,286.722,285.919,261.062,-0.0,0.00125548,238.294,253.595
2014-08-19 04:00,0.00123222,282.408,283.611,257.346,286.447,285.777,261.062,-0.0,-0.0,238.42,253.69
2014-08-19 05:00,-0.00130237,281.705,283.032,256.664,286.172,285.919,261.421,-0.0,-0.0,238.357,253.785
2014-08-19 06:00,-0.0,282.059,283.032,256.892,286.033,285.35,261.062,-0.0,-0.0,238.608,253.974
2014-08-19 07:00,-0.00184432,281.705,282.799,256.892,285.895,285.208,261.421,-0.0,-0.0,238.919,254.349
2014-08-19 09:00,-0.00532933,281.526,282.799,256.892,285.895,284.922,261.54,-0.0,-0.0,239.653,254.629
2014-08-19 10:00,1.33355,281.526,282.916,257.006,285.895,285.493,261.182,1.59958,1.79506,240.074,255.091
2014-08-19 11:00,0.632241,288.43,286.661,259.024,289.568,288.027,261.898,0.295057,0.477457,241.131,256.181
2014-08-19 12:00,0.552141,294.823,290.651,261.091,293.377,290.648,262.492,0.225844,0.401234,241.533,256.982
2014-08-19 13:00,0.435258,298.045,293.539,262.995,296.056,293.082,263.905,0.166329,0.309149,241.189,257.246
2014-08-19 14:00,0.36217,300.589,295.738,264.441,298.302,295.339,264.488,0.131615,0.250765,241.304,257.682
2014-08-19 15:00,0.307866,301.913,296.913,264.95,299.654,296.258,264.837,0.10675,0.210166,241.704,258.457
2014-08-19 16:00,0.279886,301.826,297.204,265.153,299.898,296.65,264.953,0.101913,0.193255,242.82,259.471
2014-08-19 17:00,0.257022,300.498,295.935,264.133,298.302,295.339,264.605,0.107499,0.186012,242.6,259.135
2014-08-19 18:00,0.268966,299.485,294.245,263.307,296.684,293.75,263.436,0.125329,0.209575,242.71,259.051
2014-08-19 19:00,0.323676,297.349,292.314,262.261,294.661,292.141,263.436,0.187406,0.266702,242.71,259.051
2014-08-19 20:00,0.295765,294.38,292.725,262.471,295.043,292.948,264.138,0.227051,0.270724,243.147,259.887
2014-08-19 21:00,0.381389,289.514,289.486,260.553,292.079,290.921,263.905,0.477924,0.492845,242.765,260.299
2014-08-19 22:00,-0.0152562,284.73,286.661,258.802,289.166,288.584,262.965,-0.0,-0.0,243.633,260.871
2014-08-19 23:00,-0.167212,282.753,284.414,257.798,286.997,286.343,261.779,-0.0445708,-0.0875311,244.531,261.595
2014-08-20 00:00,-0.122711,283.594,284.982,258.246,287.679,287.188,262.965,-0.032362,-0.0649883,244.583,261.755
2014-08-20 01:00,-0.0,283.76,285.433,258.469,287.951,287.888,263.318,-0.0,-0.0,244.739,262.151
2014-08-20 02:00,-0.00268074,282.753,285.208,258.246,287.543,287.609,262.965,-0.0,-0.0,244.79,262.388
2014-08-20 03:00,-0.0,282.581,284.869,258.134,287.407,287.609,263.436,-0.0,-0.0,244.945,263.09
2014-08-20 04:00,-0.0,282.408,284.869,258.134,287.407,287.469,263.436,-0.0,-0.0,245.048,263.09
2014-08-20 05:00,-0.0,281.526,284.185,257.798,286.722,287.048,263.083,-0.0,-0.0,245.151,263.012
2014-08-20 06:00,-0.0,281.526,283.841,257.233,286.31,286.767,262.61,-0.0,-0.0,245.557,263.782
2014-08-20 07:00,0.00184873,280.982,283.841,257.346,286.172,286.767,263.436,-0.0,-0.0,245.557,264.389
2014-08-20 08:00,-0.0,280.613,283.148,256.892,285.479,286.202,263.083,-0.0,-0.0,245.253,264.464
2014-08-20 09:00,-0.0,280.239,283.032,256.549,285.201,286.06,262.728,-0.0,-0.0,245.809,264.615
2014-08-20 10:00,1.3166,280.427,283.148,256.664,285.201,285.777,263.083,1.33772,1.59503,245.759,264.765
2014-08-20 11:00,0.648509,288.568,288.303,259.574,290.632,290.648,264.605,0.303664,0.55551,245.91,265.434
2014-08-20 12:00,0.577067,295.476,293.641,262.576,296.056,295.471,267.137,0.228612,0.456981,245.658,265.581
2014-08-20 13:00,0.451932,298.918,296.718,264.543,299.654,298.591,267.478,0.167004,0.340256,245.507,265.286
2014-08-20 14:00,0.366832,301.478,299.213,265.859,302.311,301.138,267.705,0.12964,0.270508,245.099,265.286
2014-08-20 15:00,0.318253,302.848,300.805,267.052,303.972,302.394,268.609,0.105066,0.225496,245.557,265.655
2014-08-20 16:00,0.28458,303.346,301.544,267.642,304.91,303.267,269.059,0.0905105,0.199798,245.809,265.875
2014-08-20 17:00,0.266865,302.511,300.712,267.052,303.972,302.269,268.497,0.0862021,0.186878,245.557,264.914
2014-08-20 18:00,0.262567,300.947,299.684,266.458,302.907,301.39,268.384,0.0913624,0.190638,245.151,264.54
2014-08-20 19:00,0.267853,298.339,297.687,265.658,300.627,299.36,268.045,0.112392,0.208194,244.426,263.934
2014-08-20 20:00,0.294242,294.823,294.846,263.618,297.683,296.519,266.108,0.179377,0.265369,244.531,263.244
2014-08-20 21:00,0.376002,288.841,289.699,260.984,292.34,291.6,264.953,0.420236,0.4707,244.479,262.701
2014-08-20 22:00,-0.00766342,284.888,287.102,259.024,289.3,289.276,263.787,-0.0,-0.0,244.894,262.23
2014-08-20 23:00,-0.117789,285.045,286.439,259.024,288.763,288.584,263.553,-0.0367431,-0.0844919,244.635,261.275
2014-08-21 00:00,-0.0845127,283.428,285.433,258.358,287.815,287.609,263.436,-0.0272597,-0.0589118,244.945,260.952
2014-08-21 01:00,-0.0,282.923,284.642,258.134,286.86,286.767,263.318,-0.0,-0.00157413,245.456,261.033
2014-08-21 02:00,-0.0,282.234,283.956,257.572,286.172,286.202,262.847,-0.0,-0.0,245.557,261.113
2014-08-21 03:00,-0.00124401,281.883,283.611,257.572,285.895,285.919,262.847,-0.0,-0.0,245.658,261.355
2014-08-21 04:00,-0.0,281.883,283.726,257.685,286.033,286.343,263.2,-0.0,-0.0,245.809,262.151
2014-08-21 05:00,-0.0,280.982,283.032,257.12,285.34,285.635,262.847,-0.0,-0.0,246.109,261.993
2014-08-21 06:00,-0.0,280.613,282.799,257.12,285.201,285.35,262.965,-0.0,-0.0,246.307,262.623
2014-08-21 07:00,-0.00185333,280.613,282.566,256.778,284.781,285.065,262.847,-0.0,-0.0,246.993,263.399
2014-08-21 08:00,0.00268649,280.239,282.682,256.892,284.921,285.493,262.847,-0.0,-0.0,246.798,263.399
2014-08-21 09:00,-0.0,280.239,282.331,256.664,284.641,284.922,262.728,-0.0,-0.0,246.652,262.857
2014-08-21 10:00,1.15635,280.799,282.566,256.549,284.921,285.208,262.492,1.16265,1.38629,246.847,262.545
2014-08-21 11:00,0.644817,288.841,287.651,259.354,290.367,289.551,264.372,0.299665,0.518827,246.357,262.623
2014-08-21 12:00,0.5569,296.219,292.827,262.786,295.55,293.883,265.185,0.224642,0.421668,246.307,262.545
2014-08-21 13:00,0.441732,299.485,295.738,264.543,298.795,296.65,266.222,0.167662,0.321011,245.809,262.388
2014-08-21 14:00,0.360326,301.999,298.262,265.859,300.99,298.72,266.909,0.131712,0.259607,245.355,261.914
2014-08-21 15:00,0.308194,303.098,299.402,266.657,302.311,299.743,266.795,0.107087,0.215743,244.842,261.675
2014-08-21 16:00,0.279163,303.755,299.966,266.657,302.788,299.87,267.137,0.0938156,0.193214,244.426,260.952
2014-08-21 17:00,0.267415,303.015,299.872,267.052,303.144,300.125,267.251,0.0897871,0.183084,244.79,261.033
2014-08-21 18:00,0.259804,301.39,298.739,266.059,301.832,299.36,267.137,0.0970926,0.189932,245.658,261.834
2014-08-21 19:00,0.273869,299.391,297.01,265.254,299.898,297.559,265.762,0.123938,0.212132,245.507,261.033
2014-08-21 20:00,0.308365,296.323,294.846,263.721,297.434,295.471,265.416,0.208213,0.279788,245.048,260.217
2014-08-21 21:00,0.445021,290.301,290.123,261.091,292.73,291.6,264.488,0.427039,0.494203,245.608,261.113
2014-08-21 22:00,-0.0076983,286.121,287.541,259.574,290.101,289.413,263.787,-0.0,-0.0,245.099,260.135
2014-08-21 23:00,-0.17686,284.888,286.55,258.913,288.897,288.999,263.318,-0.0472886,-0.100239,245.099,260.789
2014-08-22 00:00,-0.0885611,284.087,285.546,258.358,288.087,287.609,262.965,-0.0289713,-0.0629918,244.739,259.721
2014-08-22 01:00,-0.00311866,283.76,284.869,258.022,287.407,287.048,262.61,-0.0,-0.0,244.217,259.051
2014-08-22 02:00,-0.0,282.581,284.414,257.91,287.134,286.626,262.728,-0.00113504,-0.0,244.111,259.638
2014-08-22 03:00,-0.0,282.753,284.3,257.685,286.722,286.626,262.847,-0.0,-0.0,244.687,259.721
2014-08-22 04:00,0.0012338,282.234,283.841,257.798,286.31,286.06,262.847,-0.0,-0.0,244.058,259.135
2014-08-22 05:00,-0.0,281.883,283.611,257.459,286.172,286.202,262.492,-0.0,-0.0,243.256,258.2
2014-08-22 06:00,-0.00148571,281.526,283.148,256.892,285.757,285.777,262.492,-0.0,-0.0,243.31,257.942
2014-08-22 07:00,-0.00185811,281.346,283.148,257.006,285.757,285.777,262.373,-0.0,-0.0,243.093,258.457
2014-08-22 08:00,-0.0,280.982,283.032,257.006,285.34,285.919,262.61,-0.0,-0.0,243.093,258.798
2014-08-22 09:00,-0.00551518,280.982,282.916,256.549,285.34,285.35,262.373,-0.0,-0.0,243.526,259.22
2014-08-22 10:00,1.04111,281.526,283.032,256.778,285.618,285.919,262.373,1.03707,1.17472,243.31,259.051
2014-08-22 11:00,0.650656,290.301,288.843,260.228,291.423,290.511,263.67,0.299759,0.526467,243.31,258.798
2014-08-22 12:00,0.560446,297.349,293.742,263.099,296.684,294.679,265.532,0.225125,0.426327,243.202,259.22
2014-08-22 13:00,0.439197,300.947,297.397,265.153,300.141,297.947,265.993,0.168302,0.324902,243.093,259.304
2014-08-22 14:00,0.364928,303.51,299.684,266.657,302.907,300.252,267.023,0.131084,0.25837,243.039,259.387
2014-08-22 15:00,0.31269,304.794,300.619,267.052,303.736,300.506,267.137,0.106637,0.216299,242.82,258.967
2014-08-22 16:00,0.279519,304.715,300.619,267.052,303.736,300.759,266.681,0.09224,0.191022,243.526,259.135
2014-08-22 17:00,0.263368,303.674,300.526,267.151,303.736,300.632,267.251,0.0868637,0.179318,243.526,259.135
2014-08-22 18:00,0.257065,301.999,299.402,266.358,302.43,299.998,266.909,0.0937134,0.187433,243.202,258.882
2014-08-22 19:00,0.27044,299.858,297.879,265.557,300.99,298.591,266.222,0.115486,0.208923,242.82,258.457
2014-08-22 20:00,0.302947,296.738,295.639,264.133,298.795,296.78,265.878,0.180868,0.262711,243.039,258.457
2014-08-22 21:00,0.409833,290.558,290.44,261.198,293.248,292.141,264.605,0.421363,0.472858,242.875,258.286
2014-08-22 22:00,-0.00773274,286.121,287.432,259.683,290.234,289.551,264.022,-0.0,-0.0,243.202,258.286
2014-08-22 23:00,-0.189457,284.888,286.55,258.802,289.166,288.722,263.787,-0.0525943,-0.103473,243.526,258.372
2014-08-23 00:00,-0.100665,284.73,285.994,258.134,288.628,288.584,264.255,-0.0306837,-0.0650412,243.633,258.628
2014-08-23 01:00,-0.0,283.428,285.546,257.91,288.222,287.888,263.318,-0.0,-0.0,243.579,258.543
2014-08-23 02:00,-0.0,283.261,285.095,257.91,287.679,287.748,263.2,-0.0,-0.0,243.364,258.543
2014-08-23 03:00,-0.0,282.581,284.642,257.685,287.134,287.188,262.965,-0.0,-0.0,243.31,258.628
2014-08-23 04:00,-0.0,282.234,284.071,257.459,286.722,287.048,263.083,-0.0,-0.0,243.472,258.798
2014-08-23 05:00,0.00130674,281.346,283.726,257.233,286.31,286.626,262.965,-0.0,-0.0,243.256,258.798
2014-08-23 06:00,-0.0,281.705,283.611,256.664,286.31,286.767,262.847,-0.0,0.00150226,243.686,258.628
2014-08-23 07:00,-0.0,281.526,283.38,256.892,286.033,286.202,263.083,-0.0,-0.0,243.579,258.543
2014-08-23 08:00,-0.00271285,280.799,283.148,256.664,285.757,285.919,262.136,-0.0,-0.0,242.929,257.855
2014-08-23 09:00,-0.0,280.427,282.799,256.549,285.479,285.919,262.847,-0.0,-0.0,243.364,258.114
2014-08-23 10:00,1.007,281.526,283.148,256.664,285.757,286.202,262.728,0.942371,1.07013,243.364,258.2
2014-08-23 12:00,0.574234,297.848,294.245,263.099,297.184,295.471,265.185,0.232151,0.438709,243.633,258.286
2014-08-23 13:00,0.449844,301.39,297.687,264.849,300.99,298.848,266.681,0.17052,0.332532,243.953,258.628
2014-08-23 14:00,0.364758,303.346,299.966,266.458,303.499,301.012,267.478,0.131789,0.263486,243.579,258.713
2014-08-23 15:00,0.317145,304.557,301.175,267.249,305.144,302.769,268.384,0.108631,0.222668,243.793,258.798
2014-08-23 16:00,0.2813,304.478,301.544,267.348,305.377,303.142,268.045,0.0930943,0.196053,243.364,259.135
2014-08-23 17:00,0.26393,303.836,301.268,267.249,304.91,302.394,268.384,0.0904212,0.186363,242.984,258.628
2014-08-23 18:00,0.257909,301.999,299.59,266.059,303.025,300.632,267.251,0.0978906,0.190343,242.266,258.114
2014-08-23 19:00,0.267047,299.858,297.687,265.254,301.231,299.232,266.452,0.126938,0.212842,242.322,257.942
2014-08-23 20:00,0.2976,296.323,295.244,263.825,298.549,296.91,265.301,0.206163,0.273132,242.042,257.421
2014-08-23 21:00,0.404546,289.779,290.123,261.091,292.989,292.141,264.837,0.464861,0.510517,241.76,257.682
2014-08-23 22:00,-0.00776673,285.665,286.992,259.134,289.701,289.276,263.553,-0.0,-0.0,241.986,257.421
2014-08-23 23:00,-0.139897,284.73,286.105,258.802,288.628,288.722,263.436,-0.0500124,-0.103572,242.6,258.028
2014-08-24 00:00,-0.144996,284.249,285.321,258.246,287.815,287.469,263.318,-0.0409226,-0.0813232,242.266,257.942
2014-08-24 01:00,-0.00155959,283.428,284.642,258.246,287.407,286.907,262.61,-0.0,-0.0,242.765,258.372
2014-08-24 02:00,-0.0,282.581,284.528,257.798,286.86,287.048,262.965,-0.0,-0.0,242.984,258.628
2014-08-24 03:00,-0.0,282.408,283.956,258.022,286.585,286.767,262.965,-0.0,-0.0,243.093,259.051
2014-08-24 04:00,-0.0,281.526,283.726,257.572,286.31,286.485,262.847,-0.0,-0.0,242.655,258.967
2014-08-24 05:00,-0.00130801,281.705,283.611,257.685,286.033,286.626,263.2,-0.0,-0.0,243.039,259.304
2014-08-24 06:00,-0.00149047,281.705,283.611,257.572,286.033,286.06,262.965,-0.0,-0.0,243.093,259.304
2014-08-24 07:00,-0.0,281.165,283.032,257.459,285.34,285.777,262.61,-0.0,-0.0,243.256,259.638
2014-08-24 08:00,-0.00272679,280.613,282.682,257.12,284.921,285.493,262.965,-0.0,-0.0,243.093,259.804
2014-08-24 09:00,-0.0,279.859,282.214,256.549,284.361,284.922,262.492,-0.0,-0.0,242.544,259.804
2014-08-24 10:00,0.978868,281.346,282.682,256.892,285.061,285.35,262.255,0.868273,1.08234,242.655,259.804
2014-08-24 11:00,0.652179,290.301,288.628,260.228,291.423,290.784,264.488,0.299765,0.517325,243.093,259.887
2014-08-24 12:00,0.559526,297.349,294.044,263.411,297.06,295.734,265.993,0.223836,0.417178,243.202,260.135
2014-08-24 13:00,0.436019,300.947,297.397,265.153,300.869,298.848,266.681,0.17112,0.309831,242.82,260.135
2014-08-24 14:00,0.358321,303.015,299.118,266.557,302.788,300.379,266.681,0.135134,0.24801,242.82,259.804
2014-08-24 15:00,0.30146,303.917,299.872,266.557,303.499,301.138,267.478,0.114253,0.21159,243.147,260.299
2014-08-24 16:00,0.274532,303.346,299.778,266.557,303.499,300.885,267.365,0.109599,0.190994,243.202,260.217
2014-08-24 17:00,0.255371,302.341,299.213,266.159,302.788,300.252,267.137,0.114546,0.187221,243.472,260.545
2014-08-24 18:00,0.249891,301.302,298.262,265.859,301.832,299.36,267.137,0.12905,0.200392,243.793,260.871
2014-08-24 19:00,0.266023,299.297,297.01,264.849,300.384,298.205,266.681,0.167943,0.228516,243.472,261.113
2014-08-24 20:00,0.300017,296.323,294.746,263.721,297.558,295.734,265.416,0.270307,0.306768,243.418,260.708
2014-08-24 21:00,0.413749,291.065,290.44,261.625,293.377,292.141,265.069,0.519441,0.56174,243.31,260.708
2014-08-24 22:00,-0.00780031,285.818,287.432,259.683,289.968,290.101,264.022,-0.0,-0.0,243.147,260.952
2014-08-24 23:00,-0.146251,285.202,286.772,259.354,289.166,289.413,264.255,-0.0500593,-0.109952,242.655,261.194
2014-08-25 00:00,-0.118848,284.57,286.439,259.464,289.032,288.861,263.787,-0.0392279,-0.0833786,242.82,261.194
2014-08-25 01:00,-0.0,284.087,286.105,259.134,288.493,288.584,263.436,-0.0,-0.0,243.147,261.355
2014-08-25 02:00,-0.00134101,283.093,285.095,258.469,287.815,287.748,263.2,-0.0,-0.0,242.82,261.113
2014-08-25 03:00,-0.0,282.408,284.414,258.134,286.997,287.329,263.2,-0.0,-0.0,242.655,260.627
2014-08-25 04:00,-0.00123581,282.059,284.071,258.022,286.585,286.485,261.898,-0.0,-0.0,241.704,259.638
2014-08-25 05:00,-0.0,282.059,283.956,258.134,286.447,286.202,262.255,-0.0,-0.0,241.704,258.628
2014-08-25 06:00,-0.00149301,282.059,283.841,257.91,286.447,286.343,262.492,-0.0,-0.0,241.874,258.457
2014-08-25 07:00,0.0,281.883,283.726,257.91,0.0,286.202,262.61,-0.0,-0.0,241.647,258.2
2014-08-25 08:00,-0.0,281.165,283.264,257.685,286.033,286.485,262.61,-0.0,-0.0,241.476,258.372
2014-08-25 09:00,-0.0,280.799,282.916,257.346,285.479,285.919,262.61,-0.0,-0.0,241.131,257.942
2014-08-25 10:00,0.830442,281.705,283.264,257.006,285.618,285.777,261.779,0.738291,0.8803,240.782,257.333
2014-08-25 11:00,0.629747,289.647,287.541,259.574,290.632,289.689,262.965,0.291901,0.468705,240.957,256.628
2014-08-25 13:00,0.426054,300.408,295.244,264.031,298.549,295.734,264.837,0.171706,0.298647,240.014,255.639
2014-08-25 14:00,0.356609,302.426,296.913,264.849,300.263,297.17,265.301,0.141081,0.245252,239.471,255.183
2014-08-25 15:00,0.311635,304.159,298.167,265.355,301.592,298.076,265.301,0.121037,0.212148,239.834,255.73
2014-08-25 16:00,0.28057,303.998,298.262,265.456,301.712,298.076,265.647,0.11278,0.193126,240.193,255.73
2014-08-25 17:00,0.287769,302.341,296.033,264.441,299.287,295.471,263.318,0.146192,0.221713,239.532,255.821
2014-08-25 18:00,0.266659,301.39,296.229,264.236,299.776,296.519,263.787,0.159989,0.221071,238.483,255.275
2014-08-25 19:00,0.362653,298.726,290.86,260.984,294.021,291.057,262.373,0.307058,0.359079,239.227,254.814
2014-08-25 20:00,0.313914,295.796,292.52,262.049,295.677,293.082,263.083,0.427857,0.421264,238.857,254.814
2014-08-25 21:00,0.0986564,290.429,289.699,260.119,292.86,290.921,263.436,0.357995,0.313027,237.592,254.536
2014-08-25 22:00,-0.00783347,287.155,286.882,258.469,289.968,288.306,261.779,-0.0,-0.0,235.731,252.925
2014-08-25 23:00,-0.224251,286.864,286.992,258.358,290.101,288.584,262.255,-0.0685652,-0.135208,236.542,253.88
2014-08-26 00:00,-0.141044,286.421,286.55,258.358,289.835,288.722,261.54,-0.0460626,-0.0915378,239.532,254.629
2014-08-26 01:00,-0.00155994,286.271,286.772,258.913,289.835,288.584,262.255,-0.0,-0.0,238.608,254.814
2014-08-26 02:00,-0.0,285.512,286.55,258.58,289.968,288.722,262.492,-0.0,-0.0,238.981,254.907
2014-08-26 03:00,-0.0,285.512,286.328,258.913,289.701,288.584,262.017,-0.0,-0.0,239.349,255.366
2014-08-26 04:00,-0.00123658,285.202,286.105,258.802,289.3,288.027,262.136,-0.0,-0.0,239.774,256.001
2014-08-26 05:00,-0.0,285.045,285.546,258.58,288.628,287.748,262.255,-0.0,-0.0,238.981,255.366
2014-08-26 06:00,0.00149567,282.581,284.414,258.358,287.951,287.329,261.301,-0.0,-0.0,239.166,255.091
2014-08-26 07:00,-0.0,278.279,282.448,257.459,286.447,286.06,261.54,-0.0,-0.0,239.954,255.457
2014-08-26 08:00,-0.0,279.081,282.096,257.12,285.757,284.922,260.942,-0.0,-0.0,239.532,255.366
2014-08-26 09:00,0.00580753,278.684,281.505,256.664,285.061,284.349,260.098,-0.0,-0.0,240.193,256.001
2014-08-26 10:00,0.560593,278.684,280.669,256.434,284.22,283.194,259.856,0.886019,0.867793,238.357,255.821
2014-08-26 11:00,0.625941,285.97,283.38,257.798,286.033,284.636,260.942,0.299556,0.38465,239.894,256.894
2014-08-26 12:00,0.677215,294.491,274.916,253.381,277.226,275.396,255.909,0.46214,0.56889,235.108,251.352
2014-08-26 13:00,0.46428,296.84,277.224,254.336,279.613,276.938,256.16,0.317929,0.38842,236.94,253.021
2014-08-26 14:00,0.354905,294.491,288.087,260.553,290.5,287.329,261.182,0.162715,0.245645,240.548,256.982
2014-08-26 15:00,0.30464,296.219,290.335,262.049,292.73,289.689,261.779,0.136201,0.215574,241.76,258.543
2014-08-26 16:00,0.278092,297.045,290.44,262.366,292.34,288.999,261.54,0.144623,0.212344,240.014,257.855
2014-08-26 17:00,0.327485,299.297,282.096,257.346,283.797,280.406,258.515,0.241503,0.292526,238.733,257.07
2014-08-26 18:00,0.443448,301.74,279.945,256.32,282.517,278.156,256.66,0.351627,0.429922,235.799,254.068
2014-08-26 19:00,0.296451,292.174,288.412,260.445,290.367,288.027,261.54,0.354936,0.381121,240.43,258.628
2014-08-26 20:00,0.632539,296.84,283.495,258.134,286.033,283.629,260.34,0.700112,0.76938,238.294,257.769
2014-08-26 21:00,0.52924,285.357,284.528,258.58,286.86,285.35,261.062,0.872629,1.0686,239.104,258.457
2014-08-26 22:00,-0.00786624,282.408,283.148,257.798,285.618,284.636,261.062,-0.0,-0.0,240.489,259.304
2014-08-26 23:00,-0.240041,281.883,282.448,257.233,285.061,284.205,260.822,-0.0765457,-0.138477,239.166,258.372
2014-08-27 00:00,-0.147129,277.026,277.852,254.572,280.493,279.661,259.127,-0.0477817,-0.0935976,240.193,258.713
2014-08-27 01:00,-0.00156014,277.24,278.474,254.69,280.785,280.257,259.127,-0.0,-0.0,240.371,259.051
2014-08-27 02:00,-0.00134148,280.982,282.096,257.233,284.501,283.773,260.822,-0.0,-0.0,239.834,258.967
2014-08-27 03:00,-0.0,280.05,281.029,256.778,283.372,282.321,259.856,-0.0,-0.0,240.134,259.304
2014-08-27 04:00,-0.00123741,278.883,279.58,255.742,281.943,280.998,258.515,-0.0,-0.0,239.834,258.372
2014-08-27 05:00,-0.0,279.081,279.945,255.742,282.087,281.146,258.882,-0.0,-0.0,239.532,258.628
2014-08-27 06:00,-0.00149844,278.482,277.977,254.926,279.76,278.307,257.034,-0.0,-0.0,238.041,256.45
2014-08-27 07:00,-0.0,278.684,279.091,255.393,281.799,280.702,259.614,-0.0,-0.0,238.919,257.682
2014-08-27 08:00,-0.0,279.081,279.945,255.51,282.087,281.293,259.127,-0.0,-0.0,238.671,257.333
2014-08-27 09:00,-0.0,275.48,275.436,253.02,277.678,276.323,256.16,-0.0,-0.0,237.657,255.275
2014-08-27 10:00,0.882148,279.081,278.226,254.808,280.347,279.211,257.777,0.689458,0.787821,237.268,255.548
2014-08-27 11:00,0.671367,285.202,276.971,254.099,278.278,275.24,253.497,0.363805,0.510598,234.615,251.751
2014-08-27 12:00,0.549086,289.647,276.718,254.336,276.315,270.311,248.499,0.299326,0.422712,233.01,249.303
2014-08-27 13:00,0.454231,292.653,276.208,254.572,275.242,267.171,245.072,0.242903,0.347179,231.865,247.917
2014-08-27 14:00,0.35938,294.823,285.882,259.134,286.722,281.146,255.909,0.161938,0.261601,235.178,253.021
2014-08-27 15:00,0.326053,295.902,285.095,258.802,285.895,280.108,254.773,0.146437,0.234713,235.108,251.949
2014-08-27 16:00,0.272822,296.114,287.432,259.902,288.493,283.484,256.909,0.135741,0.207282,234.827,252.634
2014-08-27 17:00,0.272184,294.268,278.721,255.974,276.01,266.329,243.241,0.164249,0.227723,230.018,245.69
2014-08-27 18:00,0.277063,295.69,282.916,257.685,281.655,273.2,248.364,0.188562,0.247846,232.251,249.617
2014-08-27 19:00,0.32305,293.816,277.727,254.808,276.468,268.835,244.652,0.289156,0.330797,231.076,247.371
2014-08-27 20:00,0.485522,294.156,275.694,253.501,274.312,267.673,245.072,0.494593,0.536116,230.511,247.04
2014-08-27 21:00,1.0601,288.43,272.931,252.29,271.142,265.138,244.231,0.862618,1.13973,230.266,246.929
2014-08-27 22:00,-0.0,278.684,273.333,252.29,272.264,266.667,246.732,-0.0,-0.00797415,231.315,249.198
2014-08-27 23:00,-0.224654,277.451,270.746,250.555,270.006,265.48,245.489,-0.0739721,-0.144901,229.685,248.133
2014-08-28 00:00,-0.12701,279.081,275.823,253.02,276.163,273.042,252.075,-0.0443812,-0.0895532,231.473,252.244
2014-08-28 01:00,-0.00312076,277.661,273.997,252.29,274.156,270.798,249.438,-0.0,-0.0,229.007,250.544
2014-08-28 02:00,-0.00134177,278.075,274.129,252.29,274.156,270.96,249.705,-0.0,-0.0,229.769,251.051
2014-08-28 03:00,-0.00124666,274.787,269.908,249.797,269.515,266.329,247.142,-0.0,-0.0,229.093,248.562
2014-08-28 04:00,-0.0012383,272.061,265.243,247.067,263.92,260.405,243.949,-0.0,-0.0,227.87,245.114
2014-08-28 05:00,-0.0,270.713,263.556,245.723,261.611,258.591,242.241,-0.0,-0.0,226.311,243.698
2014-08-28 06:00,0.00150132,274.551,270.468,250.177,270.495,267.673,248.499,-0.0,-0.0,227.51,247.917
2014-08-28 07:00,-0.0,270.989,265.696,247.332,265.482,262.185,244.231,-0.0,-0.0,226.592,244.881
2014-08-28 08:00,-0.0,277.026,276.336,252.899,277.678,276.169,254.773,-0.0,-0.0,231.156,252.047
2014-08-28 09:00,-0.0,276.811,275.176,252.29,276.923,275.706,255.153,-0.0,-0.0,229.007,249.928
2014-08-28 10:00,0.806686,279.859,278.845,254.336,280.639,278.911,256.66,0.60421,0.783075,230.674,251.652
2014-08-28 12:00,0.524904,289.514,277.224,253.381,278.725,273.99,250.765,0.263291,0.391791,227.51,245.804
2014-08-28 13:00,0.422344,295.902,287.978,259.354,289.968,285.777,258.392,0.184217,0.29902,230.101,250.135
2014-08-28 14:00,0.345386,295.368,282.214,256.205,282.517,276.169,250.633,0.166365,0.260354,227.51,245.575
2014-08-28 15:00,0.310583,295.151,278.845,254.217,277.828,270.635,245.35,0.154196,0.238015,226.027,242.478
2014-08-28 16:00,0.273198,295.69,279.091,254.572,277.978,270.798,245.905,0.143535,0.21499,225.156,242.478
2014-08-28 17:00,0.271223,300.589,289.379,259.902,290.897,284.636,257.034,0.145906,0.208766,230.996,250.442
2014-08-28 18:00,0.274358,298.63,286.992,258.913,288.222,281.735,254.392,0.181992,0.239932,229.517,248.775
2014-08-28 19:00,0.28969,297.248,288.628,259.574,289.968,284.636,256.535,0.241386,0.280853,230.348,249.928
2014-08-29 12:00,0.535621,295.042,289.272,259.574,291.817,288.999,261.54,0.22571,0.366309,232.86,254.443
2014-08-29 13:00,0.428983,298.726,292.005,261.091,294.788,291.329,261.779,0.175454,0.289946,233.75,254.629
2014-08-29 14:00,0.383464,301.478,291.279,260.769,294.021,289.689,261.54,0.183682,0.277623,233.308,254.907
2014-08-29 15:00,0.313517,301.302,291.798,261.091,293.635,288.861,260.34,0.145226,0.225676,233.234,254.536
2014-08-29 16:00,0.280552,303.264,295.045,262.995,297.309,292.545,262.492,0.124089,0.198686,233.677,255.275
2014-08-29 17:00,0.344935,302.085,289.165,259.574,291.292,287.048,259.977,0.212404,0.290948,234.041,255.73
2014-08-29 18:00,0.329149,300.769,288.087,259.024,289.835,286.06,260.098,0.247724,0.29889,234.329,256.091
2014-08-29 19:00,0.32989,295.368,284.185,256.892,286.172,283.049,258.638,0.32199,0.358484,234.113,255.457
2014-08-29 20:00,0.327088,296.635,291.174,260.337,293.506,290.375,262.017,0.442475,0.447878,234.329,256.539
2014-08-29 21:00,0.430925,291.065,288.951,259.354,291.292,289.276,262.136,0.649914,0.734138,234.827,256.982
2014-08-29 23:00,-0.206294,277.451,276.845,252.777,279.466,278.609,258.147,-0.074102,-0.145155,235.108,256.539
2014-08-30 00:00,-0.12305,285.818,286.217,257.685,288.763,287.329,261.66,-0.0461152,-0.0957153,234.827,257.333
2014-08-30 01:00,-0.00312189,285.512,286.105,257.798,288.628,287.329,262.136,-0.0,-0.0,234.756,256.982
2014-08-30 02:00,-0.0,284.888,285.882,257.685,288.628,287.329,262.373,-0.0,-0.0,234.756,257.333
2014-08-30 03:00,0.0012478,285.045,285.77,257.572,288.628,287.609,263.083,-0.0,-0.0,234.472,257.333
2014-08-30 04:00,-0.0,284.249,285.77,257.91,288.897,288.167,262.728,-0.0,-0.0,234.329,257.246
2014-08-30 05:00,0.00131714,284.41,285.658,257.685,288.493,287.748,263.2,-0.0,-0.0,233.823,257.246
2014-08-30 06:00,-0.0,283.594,285.208,257.233,288.358,288.027,262.728,-0.0,-0.0,233.603,256.982
2014-08-30 07:00,-0.0,283.261,284.982,257.12,287.951,287.888,262.847,-0.0,-0.0,233.896,256.805
2014-08-30 08:00,-0.0,282.923,284.642,257.006,287.679,287.469,263.083,-0.0,-0.0,234.472,256.539
2014-08-30 09:00,0.0061606,282.923,284.414,256.32,287.407,287.188,262.373,-0.0,-0.0,234.543,256.716
2014-08-30 10:00,0.686704,283.428,284.869,256.664,287.815,287.329,262.847,0.559068,0.63994,234.615,256.805
2014-08-30 11:00,0.61936,290.429,288.412,258.913,291.292,289.689,262.965,0.287698,0.438565,234.756,256.091
2014-08-30 12:00,0.538793,296.84,291.798,260.769,294.916,292.545,263.436,0.221877,0.373343,234.472,256.181
2014-08-30 13:00,0.428306,299.95,294.145,261.838,296.935,293.883,264.022,0.172907,0.291916,234.185,255.548
2014-08-30 14:00,0.352754,302.68,296.523,263.618,299.287,295.865,264.953,0.140326,0.242534,234.185,255.911
2014-08-30 15:00,0.303826,304.398,297.687,263.928,300.506,296.389,264.953,0.122105,0.207785,234.041,255.639
2014-08-30 16:00,0.280901,305.106,298.071,264.133,300.748,296.65,265.069,0.116564,0.192333,234.543,255.091
2014-08-30 17:00,0.296122,301.125,290.545,259.683,293.635,289.964,261.421,0.197809,0.2644,234.615,254.999
2014-08-30 18:00,0.281174,301.214,293.336,261.091,295.803,292.141,262.492,0.192513,0.254074,234.257,254.536
2014-08-30 19:00,0.212303,296.114,289.486,258.913,292.47,289.276,261.54,0.230011,0.253511,234.113,253.88
2014-08-30 20:00,0.677564,294.602,273.732,250.303,276.315,273.832,254.519,0.700475,0.816314,233.823,251.452
2014-08-30 21:00,0.146567,268.986,266.293,246.399,268.524,267.171,251.814,0.304605,0.269034,233.75,249.721
2014-08-30 22:00,-0.00799393,258.096,259.206,242.369,261.971,261.654,248.768,-0.0,-0.0,234.329,249.408
2014-08-30 23:00,-0.256528,258.576,260.528,243.79,263.569,263.759,250.369,-0.0874105,-0.164231,234.543,250.032
2014-08-31 00:00,-0.123088,266.466,266.442,246.801,270.169,268.339,252.075,-0.0461296,-0.0916708,234.185,250.748
2014-08-31 01:00,-0.0,283.594,283.495,256.664,286.447,284.349,260.822,-0.0,-0.0,234.257,253.117
2014-08-31 02:00,-0.0,284.888,285.77,257.685,288.628,287.888,262.728,-0.0,-0.0,233.968,253.69
2014-08-31 03:00,-0.0,284.73,285.433,257.798,288.493,287.748,262.728,-0.0,-0.0,233.823,254.162
2014-08-31 04:00,-0.0012413,284.249,285.433,257.459,288.358,287.469,262.847,-0.0,-0.0,233.53,254.068
2014-08-31 05:00,-0.0,283.924,284.755,257.233,287.951,286.907,262.255,-0.0,-0.0,233.53,253.5
2014-08-31 06:00,-0.00302129,283.924,284.528,257.233,287.407,286.343,262.373,-0.0,-0.0,233.53,253.117
2014-08-31 07:00,0.00191025,283.594,284.185,256.892,286.997,285.919,261.54,-0.0,-0.0,233.603,252.731
2014-08-31 08:00,-0.0,283.428,284.414,257.006,287.407,286.626,262.017,-0.0,-0.0,233.968,253.213
2014-08-31 09:00,-0.0,283.093,284.185,256.32,286.997,286.343,261.54,-0.0,-0.0,233.75,253.117
2014-08-31 10:00,0.638297,283.76,284.3,256.549,287.407,286.907,261.898,0.561231,0.59483,234.401,253.213
2014-08-31 12:00,0.544317,298.144,292.827,261.091,295.803,293.35,263.318,0.222206,0.377796,234.968,253.405
2014-08-31 13:00,0.422235,301.037,295.045,261.838,298.055,294.812,264.255,0.170386,0.288414,234.827,253.595
2014-08-31 14:00,0.354111,303.755,296.425,263.307,299.409,295.208,263.905,0.138381,0.236803,234.897,253.117
2014-08-31 15:00,0.303977,304.636,297.397,263.618,300.506,295.996,263.905,0.120424,0.205527,234.401,252.537
2014-08-31 16:00,0.27848,305.028,298.453,264.236,301.712,297.17,264.837,0.109096,0.187428,233.823,252.731
2014-08-31 17:00,0.259514,303.51,297.59,264.236,300.99,297.3,264.721,0.113004,0.182648,232.86,252.634
2014-08-31 18:00,0.257748,302.596,297.687,264.236,301.231,297.818,264.953,0.130355,0.195595,233.896,253.213
2014-08-31 19:00,0.270713,300.769,296.815,263.825,300.263,297.17,265.416,0.182985,0.234258,233.968,253.88
2014-08-31 20:00,0.294482,297.349,292.314,261.198,295.043,291.871,262.965,0.366116,0.353747,233.75,254.068
2014-08-31 21:00,0.540683,293.93,291.174,260.228,293.892,291.329,263.083,0.692277,0.718927,233.823,253.974
2014-08-31 22:00,-0.00802517,289.91,289.911,259.793,293.377,291.6,264.255,-0.0,-0.0,233.603,253.785
2014-08-31 23:00,-0.181604,289.113,289.272,259.354,292.73,291.329,263.553,-0.0768819,-0.15173,233.53,253.309
