# timestamp,IR_016,IR_039,IR_087,IR_097,IR_108,IR_120,IR_134,VIS006,VIS008,WV_062,WV_073
2015-11-01 00:00,-0.0,248.394,242.597,236.146,242.049,241.251,235.537,-0.0,-0.0,225.739,235.592
2015-11-01 01:00,-0.0,244.063,240.514,235.01,240.631,240.123,234.291,-0.0,-0.0,224.46,234.542
2015-11-01 02:00,-0.0,245.01,239.559,234.35,239.669,238.282,232.867,-0.0,-0.0,224.661,234.389
2015-11-01 03:00,-0.0,248.394,247.563,238.963,248.093,247.293,240.06,-0.0,-0.0,227.601,240.185
2015-11-01 04:00,-0.0,251.282,250.954,240.766,252.262,251.552,242.671,-0.0,-0.0,228.488,242.602
2015-11-01 05:00,-0.0,254.966,252.479,242.081,254.657,253.51,243.525,-0.0,-0.0,228.224,243.214
2015-11-01 06:00,-0.00202086,254.966,255.941,243.509,258.304,257.671,247.142,-0.0,-0.0,228.921,244.998
2015-11-01 07:00,-0.0,270.713,267.764,250.303,269.515,268.339,253.625,-0.00251499,-0.0,231.709,248.987
2015-11-01 08:00,-0.0,262.475,260.692,246.265,263.393,262.712,251.159,-0.0,-0.0,231.787,248.348
2015-11-01 09:00,0.816884,263.255,259.54,245.177,261.791,262.008,249.838,0.776002,0.965494,232.251,248.562
2015-11-01 10:00,0.653447,277.24,259.871,245.314,262.329,261.831,249.705,0.630396,0.723664,231.394,248.348
2015-11-01 11:00,0.569615,289.113,260.036,245.995,262.329,261.654,249.171,0.49569,0.586471,231.076,248.025
2015-11-01 12:00,0.461326,298.726,265.243,248.771,266.847,264.106,250.501,0.371073,0.450766,231.156,248.133
2015-11-01 13:00,0.453104,296.943,262.616,247.728,263.569,260.045,247.959,0.40438,0.465678,231.943,244.881
2015-11-01 14:00,0.37547,295.151,271.023,252.29,273.372,270.311,253.497,0.326194,0.39511,233.308,249.513
2015-11-01 15:00,0.446168,293.587,263.088,247.465,265.826,264.795,252.205,0.403685,0.465883,233.159,249.408
2015-11-01 16:00,0.38758,286.421,267.033,249.797,269.679,268.67,253.497,0.358833,0.43273,233.53,250.849
2015-11-01 17:00,0.256825,298.436,282.916,258.913,283.23,279.211,257.158,0.131145,0.255271,233.085,251.051
2015-11-01 18:00,0.251606,293.702,281.86,258.358,282.946,279.959,259.127,0.237,0.284175,232.633,251.352
2015-11-01 19:00,0.577427,268.382,220.379,225.701,220.184,219.777,219.362,0.860901,0.969467,217.096,217.164
2015-11-01 20:00,1.20063,292.174,255.764,243.79,255.633,252.927,242.384,1.00498,1.27081,227.238,240.964
2015-11-01 21:00,0.632706,289.647,276.463,255.393,277.377,272.724,254.264,0.517238,0.671794,230.348,247.481
2015-11-01 22:00,-0.0090604,284.41,277.727,255.16,277.377,273.517,251.944,-0.0,-0.0,229.093,246.595
2015-11-01 23:00,-0.00999999,262.475,259.54,245.587,261.25,260.045,248.364,-0.00564465,-0.00673039,229.263,246.032
2015-11-02 00:00,-0.00215263,266.466,263.088,247.728,265.138,263.412,249.705,-0.0,-0.00217321,230.511,248.348
2015-11-02 01:00,-0.0016881,273.831,269.908,251.552,271.142,267.673,251.814,-0.0,-0.0,229.685,247.808
2015-11-02 02:00,-0.0,262.074,259.54,245.587,261.25,259.502,247.142,-0.0,-0.0,228.748,246.145
2015-11-02 03:00,-0.0,256.589,256.294,243.79,257.361,255.992,244.792,-0.0,-0.0,228.662,245.345
2015-11-02 04:00,-0.0,268.382,264.94,248.252,266.167,263.759,249.438,-0.0,-0.0,229.093,246.371
2015-11-02 05:00,-0.0,283.924,279.336,256.778,280.639,276.631,255.28,-0.0,-0.0,229.852,247.699
2015-11-02 06:00,-0.0,275.932,270.049,251.429,271.785,267.339,250.369,-0.0,-0.0,229.935,246.483
2015-11-02 07:00,0.00298759,262.869,259.373,245.314,261.611,258.408,246.594,-0.0,-0.0,230.348,245.575
2015-11-02 08:00,-0.00671186,266.797,263.401,247.859,265.826,263.063,249.705,-0.0,-0.0,231.709,247.59
2015-11-02 09:00,0.115877,286.569,283.264,258.469,285.061,281.882,258.515,0.277987,0.253467,232.02,249.928
2015-11-02 10:00,0.433223,291.686,278.968,255.974,280.639,276.631,256.285,0.290113,0.453269,231.63,249.303
2015-11-02 11:00,0.410247,294.713,284.185,259.134,284.921,280.554,257.53,0.204214,0.409617,233.01,249.303
2015-11-02 12:00,0.314129,297.549,284.528,259.244,284.921,279.959,257.9,0.161533,0.312151,233.234,250.442
2015-11-02 13:00,0.308465,297.549,285.433,259.793,286.033,281.882,259.249,0.195595,0.30867,233.896,250.95
2015-11-02 14:00,0.282209,298.822,287.322,260.876,288.087,284.061,260.34,0.159297,0.270106,234.543,250.748
2015-11-02 15:00,0.25049,297.649,286.992,260.984,287.951,284.061,260.461,0.160312,0.258821,234.257,251.452
2015-11-02 16:00,0.255693,297.146,286.328,260.445,287.815,284.061,260.581,0.17871,0.272749,235.178,252.439
2015-11-02 17:00,0.245917,298.726,288.303,261.412,289.166,285.065,260.822,0.14105,0.256276,234.756,252.828
2015-11-02 18:00,0.255884,299.391,289.486,262.261,290.764,286.343,261.54,0.139564,0.271009,234.543,253.021
2015-11-02 19:00,0.321353,296.008,283.841,259.354,284.361,279.661,256.41,0.220852,0.356025,232.02,250.544
2015-11-02 20:00,0.575295,289.381,267.326,248.771,266.167,260.764,243.525,0.648508,0.87291,231.473,244.53
2015-11-02 21:00,0.782679,278.279,251.147,239.57,250.623,247.085,236.0,0.789785,1.01747,229.685,237.468
2015-11-02 22:00,-0.0,257.605,249.385,241.061,242.515,229.385,223.949,-0.0,-0.0,221.819,234.542
2015-11-02 23:00,-0.00671034,238.442,222.198,226.481,218.824,214.697,214.468,-0.00568163,-0.00677449,214.145,217.418
2015-11-03 00:00,-0.0,225.382,221.481,225.701,220.184,218.235,217.25,-0.0,-0.0,216.56,220.306
2015-11-03 01:00,0.00169442,227.984,218.082,225.107,217.072,215.356,215.074,-0.0,-0.0,214.145,216.131
2015-11-03 02:00,-0.00148659,204.719,206.643,219.632,204.12,202.941,207.648,-0.0,-0.0,204.573,205.491
2015-11-03 03:00,-0.0,204.719,205.549,219.409,204.584,203.757,206.286,-0.0,-0.0,205.449,205.109
2015-11-03 04:00,-0.0,222.276,209.734,220.954,209.394,208.766,210.718,-0.0,-0.0,210.278,210.032
2015-11-03 05:00,-0.0,222.276,221.117,225.897,220.519,220.081,219.362,-0.0,-0.0,217.752,219.608
2015-11-03 06:00,-0.0020379,227.984,223.94,226.674,223.125,221.579,219.739,-0.0,-0.0,218.767,222.096
2015-11-03 07:00,-0.0,227.984,229.373,230.027,229.158,228.056,225.883,-0.0,-0.0,222.04,226.57
2015-11-03 08:00,-0.00678989,253.206,249.185,239.267,249.579,248.121,239.322,-0.0,-0.0,227.87,239.656
2015-11-03 09:00,0.806732,257.605,250.371,240.469,250.623,250.156,241.519,1.04842,1.34478,226.963,238.441
2015-11-03 10:00,0.383943,259.045,246.942,238.349,247.662,246.246,238.727,0.560604,0.648659,227.691,238.027
2015-11-03 11:00,0.292266,262.475,246.942,238.195,246.575,245.186,237.525,0.481598,0.569694,228.921,237.888
2015-11-03 12:00,0.274197,256.589,237.086,233.681,236.948,235.917,231.419,0.494908,0.575185,225.449,232.022
2015-11-03 13:00,0.175078,263.255,255.587,242.369,256.021,254.664,243.949,0.399898,0.475447,230.348,244.175
2015-11-03 14:00,0.439348,287.444,266.886,249.924,269.515,268.505,253.111,0.390595,0.459565,231.473,248.241
2015-11-03 15:00,0.428818,287.587,265.092,248.642,267.522,266.16,251.944,0.480459,0.519501,232.481,248.133
2015-11-03 16:00,0.303615,292.294,273.997,254.217,274.933,271.283,253.111,0.287674,0.339358,231.076,247.699
2015-11-03 17:00,0.480642,295.476,266.886,250.177,268.024,264.795,248.499,0.439382,0.498568,231.63,246.483
2015-11-03 18:00,0.327534,299.391,279.945,257.798,279.318,273.359,252.723,0.225573,0.31959,232.405,247.59
2015-11-03 19:00,0.786718,300.858,268.054,250.931,268.524,265.65,249.705,0.653777,0.775328,234.257,248.455
2015-11-03 20:00,0.667351,294.156,269.059,251.676,270.332,267.673,251.814,0.665433,0.745549,236.004,250.032
2015-11-03 21:00,1.03273,285.665,252.479,242.225,250.415,245.824,236.613,0.803028,1.0426,231.865,241.854
2015-11-03 22:00,-0.0,222.276,210.707,222.027,207.269,204.955,207.423,-0.0,-0.0,206.702,208.371
2015-11-03 23:00,-0.0067552,238.442,224.95,227.628,222.162,220.081,218.218,-0.00571962,-0.00681978,216.963,221.436
2015-11-04 00:00,-0.0,227.984,220.75,225.897,217.78,215.027,214.265,-0.0,-0.0,214.879,217.918
2015-11-04 01:00,0.00170082,235.601,223.94,227.628,220.184,216.331,215.274,-0.0,-0.0,213.541,219.134
2015-11-04 02:00,-0.00298329,249.156,239.559,235.499,236.441,230.946,224.304,-0.0,-0.0,219.744,229.664
2015-11-04 03:00,-0.00142437,247.601,239.317,235.173,237.451,234.461,227.601,-0.0,-0.0,220.57,230.863
2015-11-04 04:00,-0.0,232.213,223.94,227.817,221.511,218.235,217.055,-0.0,-0.0,214.879,220.075
2015-11-04 05:00,-0.00164473,240.898,232.28,231.45,230.294,225.597,220.489,-0.0,-0.0,218.009,225.604
2015-11-04 06:00,-0.0,253.81,246.523,238.657,245.024,241.027,231.905,-0.0,-0.0,222.259,235.887
2015-11-04 07:00,0.00302127,253.81,243.496,237.415,241.815,236.635,228.446,-0.0,-0.0,219.863,231.859
2015-11-04 08:00,-0.00686688,253.81,245.248,238.04,243.667,239.895,230.604,-0.0,-0.0,219.982,232.185
2015-11-04 09:00,0.584394,254.966,245.248,237.884,244.349,241.698,233.503,0.819522,1.0509,224.76,235.74
2015-11-04 10:00,0.456117,265.791,246.733,238.503,246.135,243.243,235.072,0.544632,0.633648,223.642,236.033
2015-11-04 11:00,0.444049,284.888,257.166,244.21,257.55,254.664,241.953,0.404459,0.486784,227.329,242.105
2015-11-04 12:00,0.418027,298.045,271.023,252.168,271.945,266.835,249.705,0.297034,0.415403,230.266,247.261
2015-11-04 13:00,0.2779,297.549,284.642,260.011,284.641,279.211,256.285,0.148065,0.298348,230.674,249.093
2015-11-04 14:00,0.412092,297.549,267.18,250.303,269.842,268.173,252.464,0.332401,0.412339,231.076,249.617
2015-11-04 15:00,0.438976,294.156,264.94,249.029,267.354,265.82,251.944,0.394537,0.452652,231.236,249.513
2015-11-04 16:00,0.453748,288.977,264.635,248.642,267.185,266.667,252.723,0.470808,0.532206,232.097,250.442
2015-11-04 17:00,0.360027,303.181,275.176,255.043,276.315,272.883,255.658,0.238954,0.338172,232.251,250.748
2015-11-04 18:00,0.192429,298.63,291.383,264.339,291.948,287.469,262.255,0.0940487,0.232175,232.175,252.244
2015-11-04 19:00,0.163988,291.686,280.187,257.459,278.873,274.617,253.625,0.145879,0.201182,227.51,245.23
2015-11-04 20:00,0.711272,276.594,233.666,232.663,229.158,226.426,223.053,0.670733,0.806554,212.607,217.918
2015-11-04 21:00,0.80792,263.636,213.479,222.449,212.219,211.284,212.411,0.692834,0.878385,211.303,211.906
2015-11-04 22:00,-0.0,225.382,216.88,225.107,214.517,212.329,212.827,-0.0,-0.0,212.922,214.233
2015-11-04 23:00,-0.00680125,237.078,223.597,227.248,220.852,217.922,217.639,-0.0028793,-0.00686627,215.593,219.843
2015-11-05 00:00,-0.00218253,251.944,235.275,233.849,231.131,226.151,220.675,-0.0,-0.00220339,214.734,223.586
2015-11-05 01:00,-0.0,237.078,222.198,226.674,218.478,214.697,214.265,-0.0,-0.0,211.303,215.6
2015-11-05 03:00,-0.0,225.382,221.117,226.092,219.508,216.972,217.25,-0.0,-0.0,215.167,218.165
2015-11-05 04:00,-0.0,230.231,222.552,226.674,220.852,219.472,218.41,-0.0,-0.0,215.734,219.134
2015-11-05 05:00,-0.00165045,222.276,216.88,224.305,215.993,215.027,215.274,-0.0,-0.0,214.145,215.332
2015-11-05 06:00,-0.00205451,239.711,231.713,230.565,230.853,229.385,225.535,-0.0,-0.0,223.118,228.423
2015-11-05 07:00,-0.00303764,250.598,244.598,237.101,243.895,241.921,235.846,-0.0,-0.0,226.499,235.295
2015-11-05 08:00,-0.0,256.062,249.385,239.871,249.368,247.293,238.278,-0.0,-0.0,227.87,239.255
2015-11-05 09:00,0.267157,274.314,270.468,251.676,271.785,270.635,253.881,0.407163,0.449518,230.266,249.303
2015-11-05 10:00,0.213417,279.278,270.049,250.681,269.679,267.171,249.705,0.239838,0.340814,228.575,244.881
2015-11-05 11:00,0.436313,295.796,263.245,247.597,261.791,256.555,243.667,0.320169,0.476627,228.921,242.354
2015-11-05 12:00,0.276639,292.653,272.527,252.168,270.819,267.84,250.104,0.198195,0.323903,230.018,244.881
2015-11-05 13:00,0.243744,283.093,269.201,249.924,268.358,264.967,249.171,0.18574,0.330833,231.315,245.918
2015-11-05 14:00,0.228998,297.248,287.76,261.091,287.407,283.484,260.219,0.103134,0.252093,233.823,251.552
2015-11-05 15:00,0.209907,301.478,293.539,264.849,294.405,289.276,262.255,0.0724813,0.217833,234.968,254.349
2015-11-05 16:00,0.206807,301.214,289.272,262.576,288.763,282.175,258.147,0.0794072,0.212425,235.731,253.117
2015-11-05 17:00,0.273964,303.098,278.35,256.664,277.678,269.0,250.633,0.136056,0.264616,235.386,249.825
2015-11-05 18:00,0.324851,305.261,279.458,257.346,279.17,270.311,251.291,0.187775,0.321649,236.004,249.721
2015-11-05 19:00,0.289843,299.765,291.487,264.133,293.248,289.137,262.61,0.171787,0.317695,236.542,255.183
2015-11-05 20:00,0.348846,297.449,291.694,263.928,293.377,289.964,263.67,0.252766,0.406363,237.268,255.639
2015-11-05 21:00,0.458163,293.816,290.123,263.515,292.47,289.413,263.553,0.499994,0.575609,237.657,254.536
2015-11-05 22:00,-0.0,290.558,288.087,261.731,290.234,287.188,262.136,-0.0,-0.0,237.463,254.256
2015-11-05 23:00,-0.0068485,278.684,278.226,256.205,280.201,278.307,259.005,-0.00289931,-0.00691397,236.675,253.117
2015-11-06 00:00,-0.0,287.3,285.658,260.337,287.679,284.922,261.182,-0.0,-0.0,236.609,253.88
2015-11-06 01:00,-0.0,288.43,287.212,261.519,289.701,287.048,262.373,-0.0,-0.0,238.357,254.629
2015-11-06 02:00,-0.0,287.587,286.105,260.984,288.222,285.635,261.182,-0.0,-0.0,234.472,253.117
2015-11-06 03:00,0.00143364,287.3,285.321,260.445,287.543,284.779,260.701,-0.0,-0.0,234.401,252.828
2015-11-06 04:00,0.00147848,287.871,286.661,261.198,289.166,286.767,262.017,-0.0,-0.0,235.247,253.88
2015-11-06 05:00,-0.0,287.155,286.55,261.198,289.166,286.907,262.61,-0.0,-0.0,235.317,254.068
2015-11-06 06:00,-0.00206263,286.717,285.994,260.769,288.628,286.06,261.54,-0.0,-0.0,234.472,253.69
2015-11-06 07:00,-0.0,286.421,285.321,260.228,287.407,285.493,260.701,-0.0,-0.0,233.603,253.117
2015-11-06 08:00,0.00701701,285.357,283.726,259.574,285.061,281.146,257.282,-0.0,-0.0,231.473,251.652
2015-11-06 09:00,0.435021,286.864,283.726,259.134,284.781,280.85,258.023,0.427264,0.632418,231.156,250.748
2015-11-06 10:00,0.428835,289.113,281.86,258.246,283.088,279.959,258.147,0.2944,0.460237,231.076,249.721
2015-11-06 11:00,0.68767,298.822,284.869,260.011,288.087,285.777,261.779,0.595482,0.617607,231.943,252.146
2015-11-06 12:00,0.547621,298.242,276.463,255.393,278.128,271.605,251.422,0.535642,0.542954,231.865,248.775
2015-11-06 13:00,0.516755,298.436,282.566,258.58,285.618,283.339,260.098,0.455862,0.49165,233.085,251.949
2015-11-06 14:00,0.368754,300.408,286.439,261.198,289.3,286.767,261.898,0.259671,0.348935,233.603,252.828
2015-11-06 15:00,0.247218,300.947,290.756,263.307,292.34,288.584,262.255,0.118052,0.243667,233.677,253.405
2015-11-06 16:00,0.264261,301.037,289.593,262.786,291.686,288.027,262.492,0.150522,0.261937,234.041,253.785
2015-11-06 17:00,0.259155,299.203,289.486,262.786,291.555,287.888,262.373,0.167076,0.270929,234.257,253.974
2015-11-06 18:00,0.246338,299.391,290.86,263.928,292.73,288.999,263.083,0.14653,0.272304,234.329,254.814
2015-11-06 19:00,0.272553,297.848,290.86,263.618,292.6,289.276,263.083,0.183567,0.31685,236.274,255.639
2015-11-06 20:00,0.290369,296.323,291.798,264.236,293.764,290.648,263.436,0.226073,0.367273,236.808,256.001
2015-11-06 21:00,0.500422,293.356,290.335,263.411,292.47,289.551,263.2,0.53387,0.616351,237.333,255.821
2015-11-06 22:00,-0.0197653,279.667,275.823,255.858,277.528,273.832,254.9,-0.0,-0.0,238.42,254.256
2015-11-06 23:00,-0.00344847,258.576,257.166,244.488,259.791,259.864,248.903,-0.00583963,-0.00696288,240.074,251.352
2015-11-07 00:00,-0.00440681,270.989,265.696,249.924,266.338,262.361,248.634,-0.0,-0.00222447,239.834,251.452
2015-11-07 01:00,-0.0,275.932,270.189,252.29,271.142,267.004,250.236,-0.0,-0.0,239.774,251.751
2015-11-07 02:00,-0.0,266.131,262.931,248.252,264.792,262.888,249.572,-0.0,-0.0,239.593,251.751
2015-11-07 03:00,-0.0,257.605,257.683,245.04,259.051,258.224,247.142,-0.0,-0.0,238.231,250.032
2015-11-07 04:00,-0.0,269.283,262.141,247.991,262.685,259.139,246.044,-0.0,-0.0,236.742,248.669
2015-11-07 05:00,0.00166173,245.913,246.102,238.81,248.093,246.457,239.322,-0.0,-0.0,235.108,242.478
2015-11-07 06:00,-0.0,245.01,245.676,238.657,247.446,246.457,238.577,-0.0,-0.0,234.472,241.98
2015-11-07 07:00,-0.0,266.131,259.373,245.314,259.974,257.301,243.949,-0.0,-0.0,235.317,245.804
2015-11-07 08:00,-0.00708978,249.156,248.177,239.721,249.579,248.736,240.938,-0.0,-0.0,235.108,242.848
2015-11-07 09:00,0.22138,262.869,260.365,246.801,263.04,262.008,249.438,0.360466,0.326649,236.274,249.303
2015-11-07 10:00,0.661789,286.121,250.371,240.469,251.856,249.753,241.519,0.566852,0.683654,234.827,243.214
2015-11-07 11:00,0.635048,298.726,271.299,252.899,272.582,270.635,254.392,0.481095,0.58938,236.341,250.748
2015-11-07 12:00,0.597543,299.579,263.712,248.642,265.826,264.623,252.075,0.521144,0.603255,235.593,249.928
2015-11-07 13:00,0.578438,289.514,261.662,246.934,264.095,263.933,251.291,0.637377,0.716315,236.071,250.238
2015-11-07 14:00,0.499782,280.613,260.036,246.399,262.329,262.361,250.501,0.63938,0.703437,237.072,250.442
2015-11-07 15:00,0.295011,281.346,256.992,244.626,259.051,258.591,248.499,0.657173,0.716213,237.333,249.408
2015-11-07 16:00,0.465616,291.315,264.788,249.286,267.857,266.835,252.594,0.489747,0.557296,237.333,251.85
2015-11-07 17:00,0.38366,287.3,260.036,245.723,261.431,259.684,247.006,0.508403,0.579664,236.609,249.198
2015-11-07 18:00,0.575879,299.108,270.468,252.29,273.215,271.926,255.153,0.529766,0.60024,237.463,252.828
2015-11-07 19:00,0.597187,293.93,268.916,251.922,270.819,269.494,254.9,0.577124,0.659028,237.657,252.634
2015-11-07 20:00,1.12244,293.816,261.982,247.859,264.27,263.759,252.335,1.05159,1.23374,238.041,252.342
2015-11-07 21:00,1.56441,293.24,271.299,253.14,272.582,269.494,254.137,1.14131,1.51977,237.528,252.634
2015-11-07 22:00,-0.0,288.568,287.102,262.049,289.434,286.767,261.779,-0.0,-0.0,237.203,253.785
2015-11-07 23:00,-0.0034733,282.234,279.091,257.233,280.931,276.784,257.158,-0.00294084,-0.0035065,237.657,253.5
2015-11-08 00:00,-0.00221411,275.48,271.162,252.777,272.423,268.505,251.159,-0.0,-0.0,236.139,251.252
2015-11-08 01:00,-0.0,275.932,269.908,252.656,271.625,265.99,247.415,-0.0,-0.0,233.823,248.348
2015-11-08 02:00,-0.00151223,282.581,277.35,256.664,276.923,271.444,250.104,-0.0,-0.0,231.394,246.707
2015-11-08 03:00,-0.0,268.686,253.963,244.349,247.878,238.282,227.431,-0.0,0.00145673,222.15,233.304
2015-11-08 04:00,0.00148797,243.066,230.265,231.799,225.919,220.081,215.873,-0.0,-0.0,218.264,226.187
2015-11-08 05:00,-0.0,252.585,239.317,235.985,234.371,228.856,223.233,-0.0,-0.0,220.219,230.183
2015-11-08 06:00,-0.0,245.01,227.219,229.118,222.806,218.547,216.663,-0.0,-0.0,213.845,219.372
2015-11-08 07:00,-0.00308465,237.078,223.94,227.628,220.184,216.652,215.074,-0.0,-0.0,214.734,219.372
2015-11-08 08:00,-0.0,244.063,239.074,234.845,236.441,232.725,227.089,-0.0,-0.0,222.04,231.53
2015-11-08 09:00,0.467381,265.095,243.94,237.572,240.392,235.435,226.402,0.466397,0.623515,219.863,228.242
2015-11-08 10:00,0.379466,282.234,267.909,250.177,267.016,262.185,243.241,0.311557,0.479834,227.055,241.221
2015-11-08 12:00,0.420731,285.357,248.985,240.171,247.012,241.475,230.44,0.342425,0.451094,223.118,233.304
2015-11-08 13:00,0.419949,294.043,257.854,244.903,258.116,255.045,242.097,0.33156,0.433506,230.996,244.647
2015-11-08 14:00,0.369385,296.635,266.738,250.051,268.358,263.933,249.171,0.252058,0.369236,234.257,249.825
2015-11-08 15:00,0.286589,292.534,269.767,251.429,269.35,265.65,249.171,0.202047,0.307043,233.968,248.775
2015-11-08 16:00,0.200221,300.408,290.651,263.618,291.292,285.777,258.882,0.0822254,0.222711,234.615,251.152
2015-11-08 17:00,0.199472,299.391,289.165,262.995,289.701,283.773,258.023,0.106669,0.2345,234.543,250.748
2015-11-08 18:00,0.208203,300.589,293.438,265.557,294.661,289.689,262.255,0.111823,0.250978,236.071,253.405
2015-11-08 19:00,0.238231,299.297,292.929,265.355,294.533,290.375,262.728,0.165193,0.296489,236.139,253.785
2015-11-08 20:00,0.194938,296.008,291.383,264.339,293.119,289.413,262.373,0.271359,0.316884,237.006,254.629
2015-11-08 21:00,1.45099,293.587,270.049,252.168,267.354,261.477,242.384,1.00741,1.38673,228.048,241.475
2015-11-08 22:00,-0.0,269.865,249.185,240.617,244.122,237.815,227.26,-0.0,-0.0,218.137,228.423
2015-11-08 23:00,-0.00349873,266.466,246.102,238.657,242.283,236.396,226.918,-0.00296237,-0.00353218,219.382,227.877
2015-11-09 00:00,-0.002225,238.442,216.88,224.102,213.381,211.284,212.202,-0.0,-0.0,210.966,212.8
2015-11-09 01:00,-0.0,222.276,216.471,223.283,214.89,214.03,213.653,-0.0,-0.0,214.588,215.332
2015-11-09 02:00,-0.0,232.213,219.628,225.107,218.478,216.972,216.269,-0.0,-0.0,214.879,217.164
2015-11-09 03:00,-0.00144758,235.601,224.279,226.866,221.511,218.547,217.25,-0.0,-0.0,216.56,219.372
2015-11-09 04:00,-0.0,245.913,240.984,235.985,239.669,237.109,230.931,-0.0,-0.0,222.799,233.304
2015-11-09 05:00,-0.0,272.58,258.703,244.903,257.55,251.75,237.222,-0.0,-0.0,222.692,235.887
2015-11-09 06:00,-0.0,268.986,254.509,242.656,253.669,248.121,235.691,-0.0,-0.0,222.368,234.694
2015-11-09 07:00,-0.0,256.589,250.954,240.913,252.059,249.753,238.577,-0.0,-0.0,224.359,238.85
2015-11-09 08:00,-0.0,274.073,265.696,249.286,265.482,261.831,247.006,-0.0,-0.0,227.42,243.577
2015-11-09 09:00,0.442437,282.234,273.065,253.501,273.372,268.835,248.903,0.457858,0.612099,228.488,244.764
2015-11-09 10:00,0.290281,286.421,275.694,254.336,274.467,270.148,249.705,0.232845,0.343184,227.329,242.848
2015-11-09 11:00,0.346377,284.888,266.442,249.669,265.31,260.045,242.814,0.253797,0.405728,226.405,239.255
2015-11-09 12:00,0.288336,290.301,270.607,250.931,269.021,262.361,242.956,0.206893,0.330562,229.852,243.457
2015-11-09 13:00,0.292786,296.84,280.549,257.91,281.221,274.773,251.291,0.154224,0.314655,232.633,248.133
2015-11-09 14:00,0.233129,299.391,287.651,261.944,287.134,281.293,256.909,0.104864,0.251294,232.709,249.303
2015-11-09 15:00,0.216241,296.219,280.066,257.346,278.128,271.926,249.305,0.116782,0.241909,229.348,244.881
2015-11-09 16:00,0.222798,298.918,283.611,259.902,282.803,276.784,253.497,0.121705,0.243067,232.481,248.455
2015-11-09 17:00,0.216272,297.947,280.308,258.691,277.377,269.0,247.415,0.126517,0.240835,229.935,245.918
2015-11-09 18:00,0.262134,296.114,275.565,255.858,272.423,264.279,244.231,0.174669,0.295958,228.748,243.093
2015-11-09 19:00,0.251922,299.672,291.798,265.153,292.47,287.748,261.421,0.180353,0.308091,236.874,254.256
2015-11-09 20:00,0.0262978,293.93,290.229,264.236,291.817,288.027,262.255,0.0751487,0.0763289,0.0,254.999
2015-11-09 21:00,0.82746,263.636,210.224,221.17,207.702,207.651,210.289,0.716715,0.921788,208.274,208.027
2015-11-09 22:00,-0.0,227.984,216.471,223.283,214.517,214.03,214.872,-0.0,-0.0,213.693,214.511
2015-11-09 23:00,-0.00352476,238.442,221.117,225.897,218.13,216.008,214.671,-0.00298441,-0.00355846,213.845,217.418
2015-11-10 00:00,-0.00223606,218.393,213.479,221.814,211.825,211.284,212.827,-0.0,-0.0,211.303,211.906
2015-11-10 01:00,-0.00174096,225.382,212.119,221.814,211.028,210.219,211.146,-0.0,-0.0,210.624,210.984
2015-11-10 02:00,-0.0,225.382,211.184,221.386,210.625,209.859,211.781,-0.0,-0.0,210.102,210.984
2015-11-10 03:00,-0.0,225.382,219.247,224.102,219.167,218.235,218.41,-0.0,-0.0,216.287,218.653
2015-11-10 04:00,-0.0,235.601,228.155,228.749,227.708,226.151,223.413,-0.0,-0.0,220.337,224.408
2015-11-10 05:00,-0.0,272.836,261.34,246.667,260.888,257.856,242.956,-0.0,-0.0,226.122,238.714
2015-11-10 06:00,-0.00209365,278.883,270.885,251.552,269.35,266.498,248.768,-0.0,-0.0,229.263,243.214
2015-11-10 07:00,-0.00311399,283.594,279.58,257.346,280.785,277.853,255.153,-0.0,-0.0,233.159,249.825
2015-11-10 08:00,-0.00729673,283.594,280.909,258.469,282.946,279.661,257.9,-0.0,-0.0,236.94,253.117
2015-11-10 09:00,0.563842,277.869,265.545,248.642,263.92,258.774,241.953,0.559245,0.780661,229.348,241.98
2015-11-10 10:00,0.354058,272.322,250.76,240.32,247.662,242.805,230.768,0.380366,0.499651,224.054,233.617
2015-11-10 11:00,0.323672,290.813,280.066,257.572,280.493,275.861,252.205,0.18583,0.362577,236.274,251.452
2015-11-10 12:00,0.296197,298.144,290.017,263.618,291.029,286.767,260.34,0.13504,0.326959,238.294,255.183
2015-11-10 13:00,0.26426,301.565,293.742,266.259,295.043,290.648,263.2,0.107308,0.287204,238.294,255.911
2015-11-10 14:00,0.228121,301.214,291.07,264.849,291.817,286.485,259.127,0.0965749,0.249902,236.139,253.021
2015-11-10 15:00,0.206742,302.171,292.108,265.254,292.86,287.609,260.461,0.0850515,0.226406,235.731,253.021
2015-11-10 16:00,0.196272,303.428,294.945,266.855,296.307,291.464,262.136,0.0759985,0.215064,237.333,254.536
2015-11-10 18:00,0.209037,301.826,293.235,266.059,294.405,289.413,260.34,0.106195,0.245426,237.072,253.88
2015-11-10 19:00,0.24715,300.317,292.314,265.658,293.635,289.137,260.581,0.155649,0.299002,236.542,254.068
2015-11-10 20:00,0.41207,298.533,287.322,262.681,288.358,283.484,256.41,0.323978,0.475439,235.731,252.634
2015-11-10 21:00,1.05682,296.531,283.956,260.769,284.501,280.108,255.153,0.815623,1.05748,235.731,251.85
2015-11-10 22:00,-0.0,290.171,286.992,262.366,288.897,285.635,259.856,-0.0,-0.0,238.168,255.183
2015-11-10 23:00,-0.00710281,287.729,281.978,259.354,283.088,279.511,255.153,-0.00300697,-0.00717071,236.475,252.146
2015-11-11 00:00,-0.00224729,285.97,279.702,257.685,280.347,276.784,253.24,-0.0,-0.0,235.867,251.051
2015-11-11 01:00,-0.0,287.729,283.841,260.228,285.201,282.175,257.034,-0.0,-0.0,237.463,253.974
2015-11-11 02:00,-0.00152797,285.512,278.968,257.685,279.613,275.396,252.594,-0.0,-0.0,232.328,250.032
2015-11-11 03:00,-0.00145684,280.982,273.199,253.741,273.686,270.148,250.369,-0.0,0.00147077,230.593,247.808
2015-11-11 04:00,-0.0,277.026,265.243,248.9,265.138,260.942,242.671,-0.0,-0.0,226.405,243.698
2015-11-11 05:00,-0.0,283.594,277.852,256.434,278.873,275.706,254.9,-0.0,-0.0,230.018,249.198
2015-11-11 06:00,0.00210098,280.427,274.655,254.572,275.857,273.517,254.264,-0.0,-0.0,229.433,246.818
2015-11-11 07:00,-0.0,271.531,258.703,244.903,258.116,254.855,240.207,-0.0,-0.0,223.013,236.469
2015-11-11 08:00,0.0073613,256.589,244.598,236.625,242.747,240.802,232.867,-0.0,-0.0,222.799,231.031
2015-11-11 09:00,0.364769,284.73,277.098,254.808,277.226,273.359,250.765,0.362562,0.528367,227.87,247.04
2015-11-11 10:00,0.33782,291.19,286.217,261.412,287.543,283.917,259.127,0.215327,0.39853,229.935,251.252
2015-11-11 11:00,0.363069,277.24,260.036,245.723,257.739,256.742,244.231,0.352397,0.458175,227.51,239.39
2015-11-11 12:00,0.333341,283.76,260.036,245.177,257.928,253.122,238.278,0.308398,0.421891,222.259,236.757
2015-11-11 13:00,0.459457,295.368,258.195,244.765,255.827,251.552,241.519,0.448345,0.531863,227.51,242.105
2015-11-11 14:00,0.265574,292.889,267.764,251.056,264.095,255.425,237.676,0.188924,0.302392,222.368,237.185
2015-11-11 15:00,0.249788,296.323,271.848,252.412,269.515,260.045,241.229,0.17394,0.281636,225.156,241.728
2015-11-11 16:00,0.257087,286.864,258.025,244.349,253.469,246.666,232.547,0.196414,0.310246,220.454,231.364
2015-11-11 17:00,0.232761,290.301,268.054,249.669,265.997,260.045,242.384,0.201507,0.319475,225.449,240.446
2015-11-11 18:00,0.42199,262.074,222.904,226.092,222.162,221.283,219.172,0.802286,0.905107,220.686,222.096
2015-11-11 19:00,0.566274,292.534,265.243,247.991,262.863,258.591,243.808,0.512232,0.711525,230.43,243.937
2015-11-11 20:00,0.468514,297.349,280.789,257.572,279.76,273.517,252.723,0.393935,0.509124,231.709,247.917
2015-11-11 21:00,1.22325,291.44,271.984,252.412,270.981,266.16,245.905,0.926699,1.22566,227.329,242.354
2015-11-11 22:00,-0.0,213.142,207.178,219.632,205.043,204.559,206.515,-0.0,-0.0,206.084,205.868
2015-11-11 23:00,-0.0071573,222.276,202.034,218.502,200.227,200.415,203.468,-0.00303004,-0.00722572,203.429,201.402
2015-11-12 00:00,-0.00225868,267.761,253.226,242.513,248.946,242.805,232.387,-0.0,-0.0,223.224,233.617
2015-11-12 01:00,-0.0,218.393,218.082,223.899,216.715,215.683,215.274,-0.0,-0.0,213.693,215.6
2015-11-12 02:00,0.00153325,240.898,232.56,230.921,230.853,228.59,225.535,-0.0,-0.0,221.484,226.948
2015-11-12 03:00,-0.0,245.01,241.451,235.823,240.392,238.282,232.066,-0.0,0.00147543,223.952,232.669
2015-11-12 04:00,0.00150654,267.123,253.04,241.5,249.368,244.328,233.344,-0.0,-0.0,222.15,233.773
2015-11-12 05:00,-0.00168867,277.661,265.545,249.029,264.095,258.774,241.808,-0.0,-0.0,222.259,237.185
2015-11-12 06:00,-0.0,261.666,243.273,236.146,240.392,235.917,227.089,-0.0,-0.0,217.36,226.379
2015-11-12 07:00,-0.0,230.231,219.628,225.107,218.13,216.331,215.873,-0.0,-0.0,213.078,216.392
2015-11-12 08:00,0.00742335,235.601,221.481,224.908,219.508,217.29,216.071,-0.0,-0.0,213.693,216.131
2015-11-12 09:00,0.469013,258.096,237.591,232.491,235.93,232.221,225.535,0.54272,0.710245,219.744,227.136
2015-11-12 10:00,0.355832,279.081,260.036,245.177,257.55,251.947,236.613,0.333333,0.49299,221.031,233.928
2015-11-12 11:00,0.338293,268.986,234.745,231.625,230.294,225.597,220.86,0.372549,0.495549,216.15,221.436
2015-11-12 12:00,0.245346,269.576,243.049,235.662,238.938,235.917,228.109,0.276521,0.38056,221.484,228.782
2015-11-12 13:00,0.263932,290.813,271.299,250.806,269.021,263.063,243.949,0.159622,0.314036,226.592,241.093
2015-11-12 14:00,0.232701,303.264,293.742,265.153,294.405,288.722,260.581,0.089278,0.250832,230.996,250.34
2015-11-12 15:00,0.204134,303.755,293.742,265.153,294.405,288.584,260.461,0.08,0.223749,231.394,250.34
2015-11-12 16:00,0.199523,302.426,291.279,263.618,291.948,285.919,258.147,0.0869969,0.221935,231.865,249.721
2015-11-12 17:00,0.203754,303.592,294.346,265.758,295.297,289.689,261.301,0.0840474,0.229437,232.935,0.0
2015-11-12 18:00,0.220662,303.428,291.383,264.236,292.73,287.188,260.219,0.126733,0.250812,232.709,251.652
2015-11-12 19:00,0.235635,300.498,294.044,265.758,296.056,291.464,262.728,0.137595,0.291208,232.935,252.047
2015-11-12 20:00,0.301017,299.108,291.798,264.543,293.506,289.137,261.779,0.254871,0.372517,232.935,251.552
2015-11-12 21:00,0.434201,294.823,289.272,262.995,291.029,287.469,260.942,0.520819,0.584469,233.53,251.452
2015-11-12 22:00,-0.0,287.155,281.742,258.469,283.23,278.609,255.153,-0.0,-0.0,232.175,249.617
2015-11-12 23:00,-0.007213,282.753,273.199,253.741,272.104,267.339,246.594,-0.00305362,-0.00364098,228.048,243.093
2015-11-13 00:00,-0.0,279.667,266.59,249.924,264.444,258.224,240.207,-0.0,-0.0,224.56,238.714
2015-11-13 01:00,-0.0,269.576,250.175,240.617,245.024,238.049,226.746,-0.0,-0.0,218.517,228.782
2015-11-13 02:00,-0.0,267.761,247.357,238.963,242.049,235.193,224.834,-0.0,-0.0,217.881,227.877
2015-11-13 03:00,-0.0,265.791,245.032,237.415,241.344,236.157,225.883,-0.0,-0.0,217.36,226.379
2015-11-13 04:00,-0.00151107,259.954,239.799,234.515,237.702,234.216,224.304,-0.0,-0.0,218.767,226.379
2015-11-13 05:00,-0.0016938,237.078,223.597,226.287,220.852,218.547,218.025,-0.0,-0.0,213.995,217.164
2015-11-13 06:00,-0.00211509,277.869,268.199,249.669,267.354,263.237,244.09,-0.0,-0.0,226.592,242.105
2015-11-13 07:00,-0.0,287.155,285.77,260.876,288.358,286.06,260.461,-0.0,-0.0,231.865,251.751
2015-11-13 08:00,-0.0,286.864,285.77,260.661,288.628,286.06,260.822,-0.0,0.00755423,231.63,251.051
2015-11-13 09:00,0.385771,287.871,286.882,261.519,289.835,287.469,262.255,0.352762,0.498507,230.511,250.34
2015-11-13 10:00,0.373842,292.889,289.486,262.786,291.817,288.584,262.373,0.191837,0.438413,231.076,250.34
2015-11-13 11:00,0.348962,297.549,290.86,263.721,292.73,288.306,260.942,0.157083,0.392433,232.481,250.646
2015-11-13 12:00,0.30526,300.947,291.383,264.031,291.817,285.635,258.638,0.131981,0.337685,231.943,249.617
2015-11-13 13:00,0.263795,302.341,290.651,263.618,289.835,282.613,255.909,0.112817,0.28398,231.076,248.241
2015-11-13 14:00,0.227735,305.416,294.646,265.758,295.297,288.861,260.34,0.0882062,0.242142,231.709,249.928
2015-11-13 15:00,0.204008,305.798,295.244,266.259,295.93,289.551,260.581,0.0789637,0.217727,232.86,250.34
2015-11-13 16:00,0.207716,303.755,290.86,263.618,290.897,284.922,259.005,0.116238,0.22778,232.557,250.032
2015-11-13 17:00,0.18134,297.449,285.882,260.119,285.479,280.85,257.282,0.160168,0.246293,232.175,249.825
2015-11-13 18:00,0.248008,298.436,283.032,259.244,282.946,277.396,254.137,0.193033,0.295478,231.394,248.133
2015-11-13 19:00,0.342345,293.007,271.162,252.656,269.842,263.063,242.956,0.307015,0.427421,226.592,240.706
2015-11-13 20:00,0.460451,291.809,272.527,253.381,271.945,266.498,247.006,0.449842,0.54287,228.4,243.336
2015-11-13 21:00,1.21011,291.315,263.867,248.642,260.888,254.089,237.07,0.888991,1.18575,225.352,237.327
2015-11-13 22:00,-0.0,278.279,263.088,247.728,259.791,253.122,237.222,-0.0,-0.0,222.906,235.592
2015-11-13 23:00,-0.0,269.283,251.147,240.617,247.012,241.251,229.615,-0.0030777,-0.0036697,219.624,229.137
2015-11-14 00:00,-0.0,222.276,208.734,220.736,207.269,206.513,209.42,-0.0,-0.0,206.905,207.678
2015-11-14 01:00,-0.0,218.393,211.654,222.238,209.808,208.026,208.54,-0.0,-0.0,208.652,210.032
2015-11-14 02:00,-0.00154384,222.276,210.707,221.6,209.808,208.026,209.201,-0.0,-0.0,208.652,210.032
2015-11-14 03:00,-0.0,213.142,202.034,218.041,200.733,199.543,203.947,-0.0,-0.0,201.465,201.84
2015-11-14 04:00,-0.0,213.142,201.41,217.342,200.227,199.102,202.255,-0.0,-0.0,201.72,201.84
2015-11-14 05:00,-0.0,213.142,206.643,219.855,205.043,204.559,206.743,-0.0,-0.0,206.498,205.868
2015-11-14 06:00,-0.0,225.382,215.218,223.283,214.89,214.697,213.653,-0.0,-0.0,213.388,215.061
2015-11-14 07:00,0.00633404,227.984,225.937,227.628,225.615,225.038,223.77,-0.0,-0.0,220.101,223.793
2015-11-14 08:00,-0.0,238.442,241.451,234.845,241.58,241.475,235.382,-0.0,-0.0,227.601,236.469
2015-11-14 09:00,0.36598,253.206,249.185,238.81,248.946,248.121,240.793,0.723041,0.908302,228.4,240.185
2015-11-14 10:00,0.305203,269.865,260.854,245.859,261.069,258.957,247.006,0.401979,0.536358,230.266,244.056
2015-11-14 11:00,0.355244,295.583,286.882,260.769,287.679,283.049,258.882,0.175613,0.41433,232.097,248.669
2015-11-14 12:00,0.272628,300.225,290.44,263.203,291.423,286.485,260.701,0.133279,0.31783,233.53,249.408
2015-11-14 13:00,0.26771,303.592,294.245,265.052,295.043,289.689,261.301,0.100236,0.286567,233.308,249.825
2015-11-14 14:00,0.226417,304.872,295.144,265.557,295.803,290.101,262.255,0.0809886,0.240806,233.234,250.135
2015-11-14 15:00,0.200394,304.872,294.245,265.557,294.533,288.999,261.062,0.0729988,0.214071,231.865,249.513
2015-11-14 16:00,0.198008,304.715,294.044,264.95,294.405,288.584,261.66,0.0777667,0.209534,232.251,250.135
2015-11-14 17:00,0.224134,303.181,292.005,264.133,292.73,287.469,261.421,0.120264,0.248641,232.633,250.34
2015-11-14 18:00,0.0784258,283.093,275.046,253.98,275.242,271.283,252.464,0.11588,0.147484,231.709,247.808
2015-11-14 19:00,0.410074,272.061,234.477,231.098,228.871,227.787,223.233,0.465226,0.554712,216.56,221.213
2015-11-14 20:00,0.848834,274.073,213.479,222.659,212.997,212.329,213.653,0.960083,1.13182,211.47,212.207
2015-11-14 21:00,0.796562,269.283,239.799,234.681,238.446,235.917,231.257,0.689271,0.892548,225.546,232.669
2015-11-14 22:00,-0.0117189,255.521,238.585,232.834,233.31,230.946,225.883,-0.0,-0.0,215.873,220.306
2015-11-14 23:00,-0.00366399,247.601,230.265,229.484,228.001,225.597,221.782,-0.0031023,-0.00369902,219.014,223.793
2015-11-15 00:00,-0.0,285.202,278.226,255.742,279.022,274.46,252.205,-0.0,-0.0,227.601,246.145
2015-11-15 01:00,-0.0,284.57,278.598,256.089,279.022,274.147,252.723,-0.0,-0.0,228.048,246.258
2015-11-15 02:00,-0.00154914,286.717,283.611,258.913,285.061,281.293,257.653,-0.0,-0.0,230.184,249.721
2015-11-15 03:00,0.00147517,283.261,275.823,255.043,275.396,269.984,248.229,-0.0,0.00148927,226.871,244.53
2015-11-15 06:00,-0.00210482,268.686,248.177,239.115,244.122,237.815,225.36,-0.0,-0.0,216.287,227.509
2015-11-15 07:00,0.00314379,267.761,249.978,239.419,247.012,239.438,228.109,-0.0,-0.0,220.337,231.53
2015-11-15 08:00,-0.0150171,227.984,216.471,224.102,213.381,210.576,210.932,-0.0,-0.0,209.206,212.505
2015-11-15 09:00,0.552058,239.711,213.921,222.449,212.997,210.576,211.146,0.780664,0.941287,211.47,212.505
2015-11-15 10:00,0.412815,249.156,217.285,223.283,215.628,214.364,214.872,0.756318,0.821182,212.448,215.867
2015-11-15 11:00,0.318318,251.944,217.685,223.899,216.715,215.356,216.071,0.669382,0.724572,213.995,216.392
2015-11-15 12:00,0.288729,257.103,239.799,234.017,239.183,237.581,231.743,0.58115,0.628851,225.058,233.617
2015-11-15 13:00,0.284592,259.045,238.09,233.005,237.451,235.677,231.419,0.601283,0.654698,225.546,232.669
2015-11-15 14:00,0.22621,258.576,245.248,236.784,245.248,244.328,237.222,0.584871,0.633722,226.963,237.888
2015-11-15 15:00,0.264856,274.073,250.175,239.871,251.447,251.156,242.384,0.619559,0.656421,229.517,242.354
2015-11-15 16:00,0.300567,287.155,252.29,241.061,254.263,253.703,244.792,0.38399,0.450144,229.348,243.457
2015-11-15 17:00,0.218826,294.043,273.199,252.29,273.843,269.657,252.594,0.160112,0.27407,231.156,247.371
2015-11-15 18:00,0.247451,297.045,284.185,258.802,285.895,281.441,258.392,0.127387,0.277056,232.251,249.408
2015-11-15 19:00,0.231086,296.531,290.651,262.681,292.73,288.584,262.136,0.106198,0.278284,233.308,250.544
2015-11-15 20:00,0.270996,294.491,289.805,262.155,292.079,288.306,262.017,0.177315,0.34434,232.709,250.646
2015-11-15 21:00,0.323651,292.053,286.661,260.445,288.628,285.065,260.581,0.35314,0.402988,230.996,249.198
2015-11-15 22:00,-0.0,287.444,284.071,258.469,286.172,282.904,259.249,-0.0,-0.0,230.916,249.198
2015-11-15 23:00,-0.00365274,280.982,275.694,253.98,277.828,274.617,254.9,-0.00360598,-0.004115,230.593,248.241
2015-11-16 00:00,-0.00456038,278.279,271.848,251.676,292.209136963,269.984,250.501,-0.0,-0.00256875,228.488,246.032
2015-11-16 01:00,-0.00176361,259.505,252.853,241.5,292.078613281,251.75,240.938,-0.0,-0.0,224.359,239.789
2015-11-16 02:00,-0.0,245.913,231.997,230.565,230.574,228.856,224.126,-0.0,-0.0,217.491,224.811
2015-11-16 03:00,-0.0014633,246.775,236.318,232.834,235.155,232.976,226.402,-0.0,-0.0,219.744,228.423
2015-11-16 04:00,0.00150744,254.396,247.15,237.258,245.693,243.024,235.227,-0.0,-0.0,224.76,236.757
2015-11-16 05:00,-0.00168961,270.989,260.365,244.765,259.421,254.281,239.765,-0.0,-0.0,223.013,237.748
2015-11-16 06:00,-0.00211107,258.096,256.469,243.084,258.865,258.04,244.932,-0.0,-0.0,226.311,242.848
2015-11-16 07:00,-0.0,266.466,264.175,246.533,266.847,265.48,251.683,-0.0,-0.00355433,228.748,247.04
2015-11-16 08:00,0.00755818,285.202,282.916,256.549,285.34,281.735,258.023,-0.0,-0.0,227.691,247.59
2015-11-16 09:00,0.19213,286.569,282.916,256.664,284.921,280.554,257.282,0.335571,0.36629,227.238,246.929
2015-11-16 10:00,0.386136,290.685,285.546,257.798,287.815,284.349,259.37,0.205258,0.451733,229.263,248.882
2015-11-16 11:00,0.339888,294.268,286.772,258.246,287.951,283.484,258.638,0.157014,0.385356,228.575,248.133
2015-11-16 12:00,0.311063,296.008,284.528,257.346,284.921,279.959,255.027,0.140878,0.337784,226.963,246.483
2015-11-16 13:00,0.275193,298.144,285.882,258.58,286.86,281.588,256.41,0.127304,0.293544,228.136,246.818
2015-11-16 14:00,0.260821,299.95,287.541,259.902,288.628,283.629,258.882,0.142914,0.268219,228.312,248.882
2015-11-16 15:00,0.222132,301.74,290.965,261.305,292.079,287.748,261.54,0.104531,0.237277,229.348,250.748
2015-11-16 16:00,0.237915,297.947,281.505,257.233,281.655,275.706,252.853,0.155805,0.250774,227.601,246.595
2015-11-16 17:00,0.21472,291.19,279.458,255.626,280.493,276.938,255.406,0.208164,0.288244,229.685,248.882
2015-11-16 18:00,0.197012,298.822,287.212,260.011,287.543,282.758,257.53,0.106221,0.235602,230.674,250.032
2015-11-16 19:00,0.24037,299.579,291.694,262.471,293.248,288.584,262.492,0.141199,0.29093,234.827,253.595
2015-11-16 20:00,0.269574,297.045,288.52,260.661,289.701,285.35,260.942,0.250651,0.356658,234.185,252.439
2015-11-16 21:00,0.268196,293.124,286.439,259.134,287.951,284.349,259.37,0.339227,0.368228,232.557,251.552
2015-11-16 22:00,-0.0121781,285.818,278.598,254.926,279.022,275.706,254.137,-0.0,-0.0,228.4,246.818
2015-11-16 23:00,-0.00368263,280.613,269.201,248.9,269.842,264.451,245.767,-0.0,-0.0,224.76,241.348
2015-11-17 00:00,-0.0,272.58,259.706,243.79,257.928,253.703,239.322,-0.0,-0.0,223.118,237.185
2015-11-17 01:00,-0.0,268.382,249.583,238.195,245.693,239.208,228.278,-0.0,-0.0,218.264,229.838
2015-11-17 02:00,-0.0,253.81,237.591,232.834,236.186,233.225,227.089,-0.0,-0.00173764,220.686,228.242
2015-11-17 03:00,-0.00146772,245.913,236.576,231.799,234.895,233.225,228.614,-0.0,-0.0,221.93,228.96
2015-11-17 04:00,-0.0,254.396,243.049,235.985,241.58,239.438,232.227,-0.0,-0.0,221.484,232.347
2015-11-17 05:00,-0.00169424,276.594,263.712,245.451,261.611,255.992,240.207,-0.0,-0.0,221.708,237.185
2015-11-17 06:00,-0.0,268.686,256.992,242.081,254.657,248.941,236.307,-0.0,-0.0,222.476,236.757
2015-11-17 07:00,-0.0,258.096,249.978,239.57,248.946,245.612,236.307,-0.0,-0.0,223.329,237.327
2015-11-17 08:00,-0.0,222.276,215.218,223.283,214.89,214.364,213.857,-0.0,-0.0,213.845,214.511
2015-11-17 09:00,0.498291,235.601,207.178,220.298,206.392,206.128,208.761,0.781273,0.924577,206.084,206.968
2015-11-17 10:00,0.40042,258.576,221.117,225.107,218.478,216.331,216.269,0.603922,0.672464,215.167,218.895
2015-11-17 11:00,0.544394,278.883,244.815,236.784,243.895,238.978,231.257,0.614814,0.677069,221.93,234.694
2015-11-17 12:00,0.427983,274.787,234.745,231.45,232.502,227.246,221.23,0.484218,0.545347,215.593,223.377
2015-11-17 13:00,0.358852,291.809,261.017,244.765,259.974,254.855,242.241,0.287343,0.404265,225.352,240.185
2015-11-17 14:00,0.375551,296.943,257.339,244.07,258.304,254.472,242.956,0.270383,0.363792,228.488,242.478
2015-11-17 15:00,0.286444,294.491,274.129,252.168,275.242,270.473,251.944,0.23508,0.326581,229.685,246.707
2015-11-17 16:00,0.195369,297.947,281.742,256.892,282.087,277.853,256.285,0.118509,0.217441,231.787,248.241
2015-11-17 17:00,0.205488,298.339,287.432,259.574,287.815,282.467,258.638,0.107768,0.23728,231.709,249.928
2015-11-17 18:00,0.21785,298.822,289.165,260.984,289.835,285.065,260.098,0.129933,0.264166,233.677,251.552
2015-11-17 19:00,0.301101,297.649,284.755,258.358,284.781,279.959,255.658,0.228801,0.363753,231.315,249.408
2015-11-17 20:00,0.561259,294.823,271.299,250.555,270.169,265.309,248.229,0.532527,0.604184,227.959,243.457
2015-11-17 21:00,0.956824,270.989,241.218,235.01,236.948,237.581,229.283,0.741003,0.882771,217.881,227.136
2015-11-17 22:00,-0.0124982,213.142,202.646,217.576,202.217,200.845,203.708,-0.0,-0.0,202.222,202.696
2015-11-17 23:00,-0.0037131,222.276,203.247,218.957,202.217,200.845,203.708,-0.0,-0.0,202.954,203.113
2015-11-18 00:00,-0.0,213.142,206.1,218.73,204.12,203.351,204.893,-0.0,-0.0,204.122,206.606
2015-11-18 01:00,0.00177788,218.393,208.734,221.17,207.269,207.274,206.97,-0.0,-0.0,207.304,207.678
2015-11-18 02:00,-0.00154765,222.276,214.79,222.659,213.381,213.356,213.857,-0.0,-0.0,212.126,213.382
2015-11-18 03:00,0.0014721,227.984,220.379,225.107,219.847,219.165,218.41,-0.0,-0.0,217.096,218.895
2015-11-18 04:00,-0.00151584,239.711,229.673,229.484,228.293,226.974,224.304,-0.0,-0.0,219.624,225.994
2015-11-18 05:00,-0.0,243.066,229.673,229.118,228.001,226.151,223.233,-0.0,-0.0,218.891,223.999
2015-11-18 06:00,-0.0,239.711,231.14,229.847,230.012,229.385,226.229,-0.0,-0.0,221.93,226.948
2015-11-18 07:00,-0.0,275.707,268.63,248.512,269.679,264.279,246.594,-0.0,0.00357774,226.311,242.23
2015-11-18 08:00,-0.0,273.831,268.343,248.771,270.332,266.329,250.369,-0.0,-0.0,229.263,245.804
2015-11-18 09:00,0.160037,285.818,284.071,257.346,286.997,284.205,259.614,0.330339,0.295019,230.511,249.408
2015-11-18 10:00,0.536975,292.771,272.662,251.552,274.156,268.505,251.422,0.372899,0.517319,231.552,247.917
2015-11-18 11:00,0.315618,293.007,287.432,259.574,289.434,285.635,261.182,0.152566,0.365368,232.405,251.751
2015-11-18 12:00,0.369479,298.242,280.187,256.892,281.943,278.911,258.515,0.236,0.391008,237.006,254.068
2015-11-18 13:00,0.329202,300.679,284.185,259.683,285.757,281.588,258.882,0.19227,0.345915,237.203,254.536
2015-11-18 14:00,0.224884,300.225,290.965,263.411,291.817,286.907,261.898,0.0982755,0.249005,240.43,256.271
2015-11-18 15:00,0.280214,300.225,283.611,259.354,284.361,280.702,259.37,0.170313,0.28524,242.929,257.508
2015-11-18 16:00,0.196223,301.214,293.235,265.153,293.506,288.861,262.728,0.0775328,0.218509,242.984,258.286
2015-11-18 17:00,0.207556,301.478,293.235,265.153,293.892,289.689,263.318,0.0966554,0.234423,244.322,259.304
2015-11-18 18:00,0.245867,298.726,289.272,262.681,290.367,286.626,262.847,0.174557,0.308344,242.6,258.967
2015-11-18 19:00,0.199743,296.943,290.651,263.721,291.555,288.306,263.553,0.169122,0.274247,243.793,259.135
2015-11-18 20:00,0.385776,290.301,270.468,251.799,268.024,263.063,245.072,0.361159,0.455958,230.43,243.818
2015-11-18 21:00,0.976997,266.797,220.379,226.092,218.824,217.29,216.466,0.861979,1.11067,214.734,216.131
2015-11-18 22:00,-0.0129808,227.984,226.583,228.378,226.522,225.597,222.692,-0.0,-0.0,221.708,225.604
2015-11-18 23:00,-0.00378603,222.276,205.549,218.73,204.584,204.159,206.97,-0.0,-0.0,205.663,205.868
2015-11-19 00:00,-0.00234235,213.142,205.549,219.409,204.12,202.113,204.893,-0.0,-0.0,205.449,204.328
2015-11-19 01:00,-0.00180503,240.898,234.477,232.319,230.574,226.701,222.147,-0.0,-0.0,220.57,228.96
2015-11-19 02:00,-0.0,227.984,218.474,224.708,216.715,213.694,214.872,-0.0,-0.0,213.995,216.131
2015-11-19 03:00,-0.0,227.984,225.282,227.817,223.758,221.283,219.739,-0.0,-0.0,217.752,222.743
2015-11-19 04:00,-0.0,227.984,218.082,224.102,215.993,214.364,213.447,-0.0,-0.0,213.845,216.131
2015-11-19 05:00,-0.0,225.382,218.862,224.908,217.78,216.008,216.269,-0.0,-0.0,215.452,216.909
2015-11-19 06:00,-0.0,237.078,228.155,229.484,227.414,226.151,223.77,-0.0,-0.0,219.382,224.61
2015-11-19 07:00,-0.0,237.078,226.583,228.378,225.919,224.474,221.782,-0.0,-0.0,220.101,222.956
2015-11-19 08:00,-0.0,263.636,248.985,239.115,247.662,243.679,232.547,-0.0,-0.0,224.359,233.461
2015-11-19 09:00,0.277778,278.883,268.199,249.924,266.678,263.759,246.319,0.309466,0.442789,229.178,242.602
2015-11-19 10:00,0.31801,284.57,273.199,253.261,273.057,268.67,249.438,0.266091,0.426808,234.543,249.408
2015-11-19 11:00,0.305859,291.809,285.994,261.412,287.951,284.061,259.735,0.150911,0.388756,238.231,254.999
2015-11-19 12:00,0.285175,296.323,290.123,263.515,291.292,287.329,261.66,0.117985,0.335339,239.043,255.821
2015-11-19 13:00,0.239141,298.045,290.335,264.031,290.897,286.626,261.54,0.100102,0.28076,237.977,255.73
2015-11-19 14:00,0.216366,299.391,291.694,264.747,292.34,287.888,261.66,0.0818755,0.251382,238.42,256.001
2015-11-19 15:00,9.96921e+36,9.96921e+36,9.96921e+36,9.96921e+36,9.96921e+36,9.96921e+36,9.96921e+36,9.96921e+36,9.96921e+36,9.96921e+36,9.96921e+36
2015-11-19 16:00,9.96921e+36,9.96921e+36,9.96921e+36,9.96921e+36,9.96921e+36,9.96921e+36,9.96921e+36,9.96921e+36,9.96921e+36,9.96921e+36,9.96921e+36
2015-11-19 17:00,9.96921e+36,9.96921e+36,9.96921e+36,9.96921e+36,9.96921e+36,9.96921e+36,9.96921e+36,9.96921e+36,9.96921e+36,9.96921e+36,9.96921e+36
2015-11-19 18:00,9.96921e+36,9.96921e+36,9.96921e+36,9.96921e+36,9.96921e+36,9.96921e+36,9.96921e+36,9.96921e+36,9.96921e+36,9.96921e+36,9.96921e+36
2015-11-19 19:00,9.96921e+36,9.96921e+36,9.96921e+36,9.96921e+36,9.96921e+36,9.96921e+36,9.96921e+36,9.96921e+36,9.96921e+36,9.96921e+36,9.96921e+36
2015-11-19 20:00,9.96921e+36,9.96921e+36,9.96921e+36,9.96921e+36,9.96921e+36,9.96921e+36,9.96921e+36,9.96921e+36,9.96921e+36,9.96921e+36,9.96921e+36
2015-11-19 21:00,9.96921e+36,9.96921e+36,9.96921e+36,9.96921e+36,9.96921e+36,9.96921e+36,9.96921e+36,-0.0,9.96921e+36,9.96921e+36,9.96921e+36
2015-11-19 22:00,9.96921e+36,9.96921e+36,9.96921e+36,9.96921e+36,9.96921e+36,9.96921e+36,9.96921e+36,-0.0,-0.0,9.96921e+36,9.96921e+36
2015-11-19 23:00,-0.0,9.96921e+36,9.96921e+36,9.96921e+36,9.96921e+36,9.96921e+36,9.96921e+36,9.96921e+36,-0.0,9.96921e+36,9.96921e+36
2015-11-20 00:00,-0.0,9.96921e+36,9.96921e+36,9.96921e+36,9.96921e+36,9.96921e+36,9.96921e+36,-0.0,-0.0,9.96921e+36,9.96921e+36
2015-11-20 01:00,9.96921e+36,9.96921e+36,9.96921e+36,9.96921e+36,9.96921e+36,9.96921e+36,9.96921e+36,-0.0,-0.0,9.96921e+36,9.96921e+36
2015-11-20 02:00,-0.0,9.96921e+36,9.96921e+36,9.96921e+36,9.96921e+36,9.96921e+36,9.96921e+36,-0.0,-0.0,9.96921e+36,9.96921e+36
2015-11-20 03:00,-0.0,9.96921e+36,9.96921e+36,9.96921e+36,9.96921e+36,9.96921e+36,9.96921e+36,-0.0,-0.0,9.96921e+36,9.96921e+36
2015-11-20 04:00,9.96921e+36,9.96921e+36,9.96921e+36,9.96921e+36,9.96921e+36,9.96921e+36,9.96921e+36,-0.0,-0.0,9.96921e+36,9.96921e+36
2015-11-20 05:00,9.96921e+36,9.96921e+36,9.96921e+36,9.96921e+36,9.96921e+36,9.96921e+36,9.96921e+36,-0.0,-0.0,9.96921e+36,9.96921e+36
2015-11-20 06:00,-0.0,9.96921e+36,9.96921e+36,9.96921e+36,9.96921e+36,9.96921e+36,9.96921e+36,-0.0,9.96921e+36,9.96921e+36,9.96921e+36
2015-11-20 07:00,-0.0,9.96921e+36,9.96921e+36,9.96921e+36,9.96921e+36,9.96921e+36,9.96921e+36,-0.0,-0.0,9.96921e+36,9.96921e+36
2015-11-20 08:00,9.96921e+36,9.96921e+36,9.96921e+36,9.96921e+36,9.96921e+36,9.96921e+36,9.96921e+36,-0.0,-0.0,9.96921e+36,9.96921e+36
2015-11-20 09:00,9.96921e+36,9.96921e+36,9.96921e+36,9.96921e+36,9.96921e+36,9.96921e+36,9.96921e+36,-0.0,-0.0,9.96921e+36,9.96921e+36
2015-11-20 10:00,9.96921e+36,9.96921e+36,9.96921e+36,9.96921e+36,9.96921e+36,9.96921e+36,9.96921e+36,9.96921e+36,9.96921e+36,9.96921e+36,9.96921e+36
2015-11-20 11:00,0.321965,289.91,283.032,252.412,285.618,283.484,259.249,0.348938,0.333711,236.94,255.911
2015-11-20 12:00,0.237716,288.291,280.429,251.552,283.23,281.735,258.147,0.268364,0.263213,238.104,256.181
2015-11-20 13:00,0.159228,290.301,286.328,254.454,288.897,286.907,261.062,0.189074,0.176433,239.288,258.2
2015-11-20 14:00,0.0134274,289.91,288.843,256.32,291.686,289.826,261.898,0.059687,0.0338894,240.253,258.286
2015-11-20 15:00,0.00795979,289.779,289.272,257.006,292.079,289.826,261.66,0.0431331,0.0225005,242.099,259.304
2015-11-20 16:00,0.0278751,290.171,288.628,257.346,291.16,288.861,261.54,0.056922,0.0380739,243.793,260.052
2015-11-20 17:00,0.361515,289.113,275.694,250.681,278.128,277.701,257.158,0.32952,0.364971,245.048,259.804
2015-11-20 18:00,0.516675,288.43,274.392,250.681,277.226,277.091,257.53,0.510379,0.568606,246.258,261.275
2015-11-20 19:00,0.546328,283.76,276.08,251.552,278.427,277.853,257.9,0.604673,0.699352,246.75,261.435
2015-11-20 20:00,0.946877,279.667,274.392,250.931,277.075,276.938,257.53,0.711731,1.0047,246.009,261.993
2015-11-20 21:00,-0.0113684,273.338,274.261,250.931,276.62,276.477,257.158,0.0,0.0,244.997,261.435
2015-11-20 22:00,0.0,273.338,274.392,251.18,276.923,276.631,258.023,0.0,0.0,245.151,262.466
2015-11-20 23:00,0.0,286.717,285.095,257.12,287.679,285.493,261.062,0.0,-0.00217896,244.531,262.857
2015-11-21 00:00,0.0016079,290.171,290.335,260.011,292.73,290.784,263.318,0.0,0.0,243.472,263.09
2015-11-21 01:00,-0.00134076,289.113,289.805,260.011,292.209,290.375,263.436,0.0,0.0,240.957,262.935
2015-11-21 02:00,-0.00120942,290.041,290.335,260.337,293.119,291.057,263.436,0.0,0.0,239.653,261.914
2015-11-21 03:00,-0.00116359,289.647,289.699,260.119,292.079,289.964,262.965,0.0,0.0,238.981,260.952
2015-11-21 04:00,-0.00118859,288.977,288.52,259.793,291.029,288.722,262.965,0.0,0.0,239.043,260.871
2015-11-21 05:00,0.0,290.171,290.229,260.661,292.6,290.784,263.905,0.0,0.00130458,240.014,261.675
2015-11-21 06:00,0.0,289.779,290.44,260.553,293.119,291.329,263.67,0.0,0.0,240.193,262.623
2015-11-21 07:00,0.0,289.647,290.335,260.661,292.989,291.464,264.721,0.0,0.0,239.227,262.388
2015-11-21 08:00,0.0,285.97,286.772,257.91,289.032,287.888,262.965,0.0,0.0,239.894,262.151
2015-11-21 09:00,0.0,290.041,290.44,260.011,293.119,291.735,263.905,0.0,-0.00698447,240.193,261.993
2015-11-21 10:00,0.22616,290.301,289.805,259.683,292.47,290.511,263.553,0.539652,0.394375,241.361,262.623
2015-11-21 11:00,0.11711,291.19,289.165,259.024,291.817,290.101,263.67,0.220349,0.15764,242.042,263.012
2015-11-21 12:00,0.0900196,290.558,289.058,259.354,291.555,289.826,263.2,0.154617,0.122039,241.986,262.779
2015-11-21 13:00,0.0760807,290.558,288.52,259.024,291.029,289.551,263.787,0.125531,0.10438,240.899,262.857
2015-11-21 14:00,0.0303262,290.301,289.379,259.683,291.817,290.238,263.436,0.0684723,0.0459241,241.361,262.545
2015-11-21 15:00,0.00638883,290.301,290.335,260.445,292.86,291.193,263.67,0.041923,0.0209622,241.704,262.309
2015-11-21 16:00,0.0082232,290.813,290.335,260.445,292.73,291.057,264.138,0.0403829,0.0215847,241.361,262.23
2015-11-21 17:00,0.00924884,290.558,290.123,260.661,292.86,291.057,264.255,0.0454197,0.0242769,241.361,262.23
2015-11-21 18:00,0.0163396,290.558,290.44,260.769,293.119,291.6,263.905,0.061268,0.0353482,241.073,261.834
2015-11-21 19:00,0.082415,291.44,290.335,260.769,292.989,291.6,264.255,0.145629,0.108525,240.899,261.914
2015-11-21 20:00,0.359967,290.813,289.486,260.661,292.34,290.921,263.787,0.337733,0.363408,239.227,260.871
2015-11-21 21:00,-0.0113059,288.977,289.486,260.661,292.34,290.784,263.553,0.0,0.0,238.546,260.052
2015-11-21 22:00,0.0,290.041,290.017,261.305,292.86,291.329,263.905,0.0,0.0,238.483,259.638
2015-11-21 23:00,-0.00215732,289.91,290.123,261.838,292.989,291.464,264.138,0.0,0.0,239.227,259.638
2015-11-22 00:00,0.00160741,289.91,290.44,262.155,293.377,291.871,263.67,0.0,0.0,239.532,259.304
2015-11-22 01:00,-0.00134033,289.779,289.911,261.519,292.47,290.648,263.553,0.0,0.0,238.919,258.713
2015-11-22 02:00,0.0,289.113,288.628,261.198,291.292,288.861,262.728,0.0,0.0,237.333,257.421
2015-11-22 03:00,0.0,287.587,286.439,260.119,288.763,286.626,261.301,0.0,0.0,236.542,256.45
2015-11-22 04:00,0.0,288.977,288.412,261.091,290.897,288.861,262.017,0.0,0.0,234.472,255.639
2015-11-22 05:00,0.0,285.97,285.208,259.244,287.679,285.635,261.062,0.0,0.0,232.86,254.443
2015-11-22 06:00,-0.00150843,282.753,278.226,255.277,279.907,277.091,255.406,0.0,0.0,230.101,250.544
2015-11-22 07:00,0.0,283.924,280.308,256.205,281.655,278.911,255.784,0.0,0.0019648,230.266,251.051
2015-11-22 08:00,0.00296093,284.73,282.682,257.685,284.781,282.904,259.37,0.0,0.0,231.236,253.69
2015-11-22 09:00,-0.00681814,287.3,286.105,260.011,288.763,286.485,261.301,0.0,0.0,232.097,254.349
2015-11-22 10:00,0.0647253,289.647,288.303,260.876,290.367,287.748,261.54,0.438422,0.283157,232.175,253.974
2015-11-22 11:00,0.311174,291.315,282.096,257.459,285.061,283.194,259.856,0.337687,0.305299,232.175,254.162
2015-11-22 12:00,0.0802277,290.939,286.661,260.011,288.358,285.777,260.822,0.14024,0.0914455,231.473,253.595
2015-11-22 13:00,0.194016,292.174,280.909,256.664,283.372,282.028,259.614,0.210734,0.187957,230.593,253.309
2015-11-22 14:00,0.218152,290.171,279.458,255.974,282.231,280.998,258.76,0.196164,0.187799,231.076,253.021
2015-11-22 15:00,0.0304452,290.685,287.869,260.337,289.568,287.048,261.301,0.0637664,0.0388247,230.674,252.731
2015-11-22 16:00,0.0263912,290.301,287.869,260.661,290.101,287.609,261.54,0.0544669,0.0333044,230.018,252.925
2015-11-22 17:00,0.146536,291.19,282.799,257.233,285.201,283.629,260.581,0.157053,0.146064,229.935,252.439
2015-11-22 18:00,0.280891,291.809,281.505,256.778,284.22,282.467,259.492,0.265577,0.262308,229.685,252.342
2015-11-22 19:00,0.230074,291.563,286.882,259.683,289.166,286.626,261.182,0.261767,0.228644,229.769,252.634
2015-11-22 20:00,0.871268,287.01,282.096,256.892,285.061,283.049,259.37,0.696257,0.800532,229.178,251.751
2015-11-22 21:00,0.0112532,278.482,279.213,255.16,281.943,281.293,259.977,0.0,0.0,229.601,251.85
2015-11-22 22:00,0.0,285.512,284.528,258.358,287.134,285.35,260.581,0.0,0.0,229.852,252.047
2015-11-23 00:00,-0.00160707,286.271,285.994,259.024,288.358,286.907,261.301,0.0,0.0,228.921,252.047
2015-11-23 01:00,-0.00133999,288.152,286.439,259.464,288.358,285.777,260.461,0.0,0.0,228.4,250.748
2015-11-23 02:00,-0.00120843,286.569,282.448,257.006,283.514,280.554,256.909,0.0,0.0,227.78,248.669
2015-11-23 03:00,-0.00116215,283.76,277.727,254.572,278.725,276.169,254.646,0.0,0.0,226.871,246.595
2015-11-23 04:00,-0.0011864,279.667,271.984,250.806,271.785,268.835,249.572,0.0,0.0,226.963,243.937
2015-11-23 05:00,0.00128871,280.239,273.065,251.552,273.529,270.473,250.633,0.0,-0.00130103,226.963,244.056
2015-11-23 06:00,0.00150537,284.73,279.58,254.69,280.201,277.396,255.027,0.0,0.0,227.87,246.818
2015-11-23 07:00,-0.00194001,269.283,264.175,246.13,265.138,262.537,246.319,0.0,0.0,227.329,243.698
2015-11-23 08:00,0.0,246.775,235.011,230.207,232.23,230.688,225.535,0.0,0.0,216.15,223.167
2015-11-23 09:00,-0.00672082,218.393,217.685,222.238,217.78,217.29,215.873,0.0,0.0,216.012,216.131
2015-11-23 10:00,0.771578,261.666,239.559,233.175,237.451,233.969,225.883,1.09523,1.30589,219.744,228.06
2015-11-23 11:00,0.434023,245.913,221.117,223.899,220.852,219.472,218.601,0.674975,0.764565,218.009,219.608
2015-11-23 12:00,0.374985,247.601,217.685,222.868,217.427,216.652,216.663,0.811388,0.904362,215.167,216.652
2015-11-23 13:00,0.324836,248.394,223.252,225.107,223.443,222.169,220.86,0.788443,0.876498,219.624,221.658
2015-11-23 14:00,0.28855,246.775,225.611,226.674,225.615,224.756,223.053,0.672584,0.74712,221.596,224.408
2015-11-23 15:00,0.30381,249.156,220.006,223.899,219.847,218.857,218.218,0.609743,0.676719,217.229,218.653
2015-11-23 16:00,0.332482,250.598,225.282,226.287,225.003,224.474,222.692,0.658261,0.734778,221.258,223.793
2015-11-23 17:00,0.308729,253.81,231.427,229.118,231.408,230.429,226.402,0.481859,0.536992,222.259,228.242
2015-11-23 18:00,0.377858,253.206,233.938,229.847,233.577,232.725,228.446,0.623967,0.710815,224.054,230.354
2015-11-23 19:00,0.378596,253.206,240.277,233.344,240.152,239.667,233.819,0.58616,0.677067,225.739,234.389
2015-11-23 20:00,1.04345,258.576,242.37,233.849,242.049,241.027,234.134,1.00017,1.39131,227.055,236.325
2015-11-23 21:00,0.0,273.338,269.908,249.924,271.625,269.494,251.683,0.0,0.0,229.263,247.59
2015-11-23 22:00,-0.0035456,273.586,269.626,249.414,270.981,268.505,251.159,0.0,0.0,230.018,246.818
2015-11-23 23:00,-0.00215617,237.078,240.514,232.663,239.911,239.667,234.76,0.0,-0.00217678,227.238,234.236
2015-11-24 00:00,-0.00160687,249.156,247.15,236.625,247.662185669,246.666,238.577,0.0,0.0,228.921,239.922
2015-11-24 01:00,0.0,264.009,255.764,242.369,256.020568848,252.927,241.519,-0.00113435,-0.00135254,228.488,241.728
2015-11-24 02:00,-0.00120801,286.569,284.185,258.134,285.757,282.613,258.023,0.0,0.0,230.511,248.987
2015-11-24 03:00,0.0,285.202,283.956,258.022,286.172,283.049,258.392,0.0,0.0,231.315,249.093
2015-11-24 04:00,0.0,272.061,271.437,250.555,272.741,271.765,253.111,0.0,0.0,229.685,247.481
2015-11-24 05:00,0.00128699,264.739,253.779,241.207,252.666824341,249.955,237.525,0.0,0.0,225.254,237.327
2015-11-24 06:00,0.00150233,245.01,233.116,229.484,231.957077026,229.909,225.36,0.0,0.0,220.454,225.408
2015-11-24 07:00,0.0,222.276,218.474,222.449,218.130187988,217.29,216.663,0.0,0.0,215.593,216.652
2015-11-24 08:00,0.0,222.276,218.862,222.449,0.0,217.607,217.832,0.0,0.0,217.096,217.418
2015-11-24 09:00,-0.0066263,227.984,223.94,225.701,223.75831604,223.043,221.046,0.0,0.0,219.503,221.213
2015-11-24 10:00,0.861512,268.686,251.147,239.419,250.206924438,246.666,235.537,1.09416,1.2563,223.434,232.988
2015-11-24 11:00,0.273012,273.088,258.871,243.084,258.116,255.045,240.646,0.420634,0.415692,226.871,237.888
2015-11-24 12:00,0.0576445,289.514,287.322,259.902,289.434,286.485,259.856,0.15086,0.103165,230.348,249.928
2015-11-24 13:00,0.0316419,290.171,288.303,260.553,290.897,288.167,261.182,0.0971179,0.0618922,231.473,251.252
2015-11-24 14:00,0.0306637,290.171,288.303,260.984,291.029,288.584,261.301,0.0793311,0.0498749,231.473,251.552
2015-11-24 15:00,0.0403112,290.813,288.087,260.553,290.897,288.584,261.54,0.079185,0.0553474,233.085,251.85
2015-11-24 16:00,0.0680064,290.685,287.651,260.553,290.5,288.027,261.182,0.103926,0.0803783,233.234,252.634
2015-11-24 17:00,0.0745817,290.939,287.978,260.337,290.632,288.027,261.182,0.110509,0.0884713,233.234,252.537
2015-11-24 18:00,0.108228,291.44,288.195,260.769,290.764,288.027,261.66,0.143431,0.118764,233.308,252.731
2015-11-24 19:00,0.216933,292.414,288.195,260.553,290.764,288.167,261.062,0.241842,0.211707,233.234,252.537
2015-11-24 20:00,0.415444,288.568,286.439,259.902,289.3,286.767,260.701,0.410381,0.429401,233.308,252.342
2015-11-24 21:00,-0.0111763,289.381,288.303,261.198,291.029,288.306,260.822,0.0,0.0,233.823,252.634
2015-11-24 22:00,0.0,289.113,288.412,261.091,291.292,288.861,261.182,0.0,0.00357805,234.041,252.537
2015-11-24 23:00,0.00215602,289.514,289.486,261.838,292.73,290.648,262.847,0.0,0.0,233.603,252.925
2015-11-25 00:00,0.0,289.381,289.593,262.155,292.73,291.057,263.318,0.0,0.0,233.968,253.595
2015-11-25 01:00,0.0,287.587,287.869,260.876,290.764,288.722,262.136,0.0,0.0,234.329,253.5
2015-11-25 02:00,0.0,288.841,288.736,261.625,291.555,289.689,262.373,0.0,0.0,234.401,253.595
2015-11-25 03:00,0.00116085,288.43,288.087,261.412,290.764,288.722,262.728,0.0,0.0,234.756,254.162
2015-11-25 04:00,-0.00118431,288.152,288.52,261.091,291.423,289.689,263.083,0.0,0.0,235.247,254.814
2015-11-25 05:00,0.0,289.514,289.805,261.412,292.6,290.511,262.847,0.0,0.0,235.108,256.091
2015-11-25 06:00,-0.00149931,290.041,291.07,262.261,293.892,292.545,263.905,0.0,0.0,234.756,257.158
2015-11-25 07:00,0.0,289.647,290.44,261.944,293.377,291.735,263.553,0.0,0.0,234.615,257.421
2015-11-25 08:00,-0.00291169,289.91,289.911,261.625,292.73,291.057,263.318,0.0,0.0,234.615,257.07
2015-11-25 09:00,-0.00653453,289.113,288.736,260.553,291.16,289.137,262.255,0.0,0.0,235.038,257.769
2015-11-25 10:00,0.582046,286.121,284.071,257.91,286.585,285.35,261.301,0.792793,0.740899,235.247,257.158
2015-11-25 11:00,0.162833,289.647,286.55,259.574,288.897,287.329,261.898,0.252762,0.210053,235.525,258.114
2015-11-25 12:00,0.129183,292.534,287.102,259.793,289.434,287.469,262.492,0.176346,0.149049,235.593,259.471
2015-11-25 13:00,0.0158919,290.558,290.756,261.944,293.119,291.464,263.905,0.0740062,0.0381041,235.525,259.804
2015-11-25 14:00,0.0153868,290.813,291.279,262.366,293.892,292.679,264.022,0.0564547,0.0310679,235.731,261.033
2015-11-25 15:00,0.00646935,290.429,291.487,262.366,294.149,292.948,264.605,0.0424513,0.0212264,236.004,261.113
2015-11-25 16:00,0.0332622,290.939,290.229,262.049,292.989,291.464,264.138,0.0619587,0.0436542,236.742,260.789
2015-11-25 17:00,0.0467267,291.19,290.123,261.731,292.47,290.921,264.022,0.0712141,0.0528342,236.94,261.435
2015-11-25 18:00,0.0259407,290.939,290.756,262.366,293.248,291.735,263.436,0.0678886,0.0404734,237.977,263.012
2015-11-25 19:00,0.275464,291.315,288.628,260.984,290.897,289.551,262.847,0.282337,0.274438,237.657,262.701
2015-11-25 20:00,0.139053,289.247,289.272,261.519,291.292,289.826,263.083,0.260702,0.200547,237.137,262.545
2015-11-25 21:00,-0.0111516,287.729,288.628,260.984,290.764,289.689,262.847,0.0,0.0,236.94,262.466
2015-11-25 22:00,0.00354358,289.247,289.699,261.412,292.079,290.511,263.436,0.0,0.0,236.94,261.675
2015-11-25 23:00,0.0,276.155,278.721,255.277,280.639,280.554,259.977,0.0,0.0,236.207,259.304
2015-11-26 00:00,0.0,286.421,286.661,260.011,288.628,287.329,262.255,0.0,0.00162224,236.274,260.381
2015-11-26 01:00,0.0,289.113,288.412,261.305,290.367,287.888,261.779,0.0,0.0,236.675,259.804
2015-11-26 02:00,0.0,286.121,285.433,259.134,287.407,285.208,260.942,0.0,0.00121886,236.004,258.713
2015-11-26 03:00,0.0,275.02,276.591,254.099,278.128,278.156,258.515,0.0,0.0,235.593,257.942
2015-11-26 04:00,0.0,287.01,286.105,259.902,287.951,286.06,261.182,0.0,0.0,235.867,258.286
2015-11-26 05:00,0.0,287.729,287.102,260.553,288.897,286.485,261.779,0.0,0.0,235.593,258.798
2015-11-26 06:00,0.0,273.338,274.916,253.02,276.772,276.784,257.9,0.0,0.0,236.004,258.114
2015-11-26 07:00,0.0,272.322,273.865,252.656,276.315,276.323,256.909,0.0,0.0,236.542,257.855
2015-11-26 08:00,0.0,281.165,282.566,257.12,284.361,283.773,261.182,0.0,0.0,237.006,259.554
2015-11-26 09:00,0.0,283.093,282.566,257.798,284.361,283.339,260.219,0.0,0.0,237.137,259.887
2015-11-26 10:00,0.510019,288.841,289.272,261.519,291.292,289.964,263.318,0.840937,0.785892,238.104,262.309
2015-11-26 11:00,0.16914,290.813,290.229,262.261,292.73,291.6,264.255,0.27481,0.221523,239.104,262.309
2015-11-26 12:00,0.0450944,291.19,290.756,262.576,293.506,292.141,264.138,0.119036,0.0749831,239.349,261.834
2015-11-26 13:00,0.057864,291.065,289.486,262.155,292.079,290.511,263.553,0.109813,0.078561,240.134,260.952
2015-11-26 14:00,0.101225,289.381,287.651,261.091,289.568,287.888,261.898,0.164151,0.136834,239.532,260.627
2015-11-26 15:00,0.0178433,289.779,288.412,261.412,290.101,288.027,261.898,0.0535644,0.0294773,240.014,260.545
2015-11-26 16:00,0.0917061,289.247,286.217,260.337,288.087,286.202,260.701,0.127059,0.102683,240.899,260.135
2015-11-26 17:00,0.0786819,288.152,282.214,258.134,283.938,281.882,259.735,0.114205,0.0907818,240.899,258.882
2015-11-26 18:00,0.255241,287.155,282.448,257.798,284.079,282.904,259.735,0.282146,0.286312,241.189,259.97
2015-11-26 19:00,0.214321,279.081,276.336,254.572,278.427,278.156,257.9,0.436747,0.429073,240.841,258.798
2015-11-26 21:00,0.0111357,288.977,288.303,261.198,290.367,287.748,261.66,0.0,0.0,240.957,259.638
2015-11-26 22:00,-0.00354383,288.012,287.541,260.661,289.701,287.469,261.779,0.0,0.0,240.371,259.638
2015-11-26 23:00,0.0,289.247,288.412,261.519,290.5,288.027,261.66,0.0,0.0,241.246,260.135
2015-11-27 00:00,0.0,287.3,286.328,260.011,288.493,286.767,261.54,0.0,0.0,241.246,260.135
2015-11-27 01:00,0.0,288.568,287.651,261.519,289.3,286.907,261.66,0.0,0.0,240.724,260.217
2015-11-27 02:00,-0.00120704,288.705,287.869,261.305,289.701,287.329,261.66,0.0,0.0,240.782,260.463
2015-11-27 03:00,0.0,285.818,285.994,260.553,288.087,286.343,261.66,0.0,0.0,240.489,260.789
2015-11-27 04:00,0.00118232,288.841,288.087,261.519,289.568,287.469,261.898,0.0,0.0,240.43,260.627
2015-11-27 05:00,0.0,286.569,286.328,260.445,288.222,286.202,261.66,0.0,0.0,239.834,260.381
2015-11-27 06:00,-0.00149334,287.01,286.55,260.553,288.358,286.343,262.136,0.0,0.0,238.981,260.627
2015-11-27 07:00,0.0,285.818,285.546,260.445,287.543,286.06,261.66,0.0,0.0,238.608,260.381
2015-11-27 08:00,0.0,280.613,281.86,257.346,284.079,283.194,260.581,0.0,0.0,238.795,260.627
2015-11-27 09:00,0.00635896,286.271,285.546,260.228,287.951,286.343,261.66,0.0,-0.00641975,238.981,261.113
2015-11-27 10:00,1.02852,285.202,282.448,258.022,285.201,283.773,260.822,1.06437,1.0672,239.349,261.113
2015-11-27 11:00,0.101645,290.685,289.058,262.155,291.16,289.137,262.492,0.215157,0.139932,240.253,261.595
2015-11-27 12:00,0.0480393,290.939,289.379,262.049,291.423,289.276,262.728,0.137842,0.0862196,240.193,262.309
2015-11-27 13:00,0.0320651,290.939,290.44,263.203,292.47,290.921,264.255,0.0848421,0.0526039,240.724,262.779
2015-11-27 14:00,0.0258243,290.685,289.805,262.995,291.948,290.375,263.905,0.0685116,0.043452,240.841,263.167
2015-11-27 15:00,0.00976072,290.558,290.123,262.89,292.34,290.511,264.138,0.0454541,0.0229927,240.489,263.322
2015-11-27 16:00,0.0317586,290.813,290.017,263.099,292.34,291.057,264.138,0.0622716,0.0421872,240.782,263.706
2015-11-27 17:00,0.1333,290.171,287.869,261.305,290.234,289.137,263.318,0.170093,0.15732,240.548,263.782
2015-11-27 18:00,0.175236,292.053,286.992,260.984,289.166,288.027,262.847,0.180452,0.164957,240.43,263.244
2015-11-27 19:00,0.451317,292.653,285.994,260.661,288.358,287.188,262.847,0.422192,0.440934,240.548,263.244
2015-11-27 20:00,0.269812,289.779,289.379,262.366,291.16,289.689,264.022,0.304599,0.292568,240.782,263.476
2015-11-27 21:00,-0.0111287,287.444,288.195,261.519,290.367,289.137,263.553,0.0,0.0,240.957,263.706
2015-11-27 22:00,0.00354489,289.514,290.229,262.995,292.34,290.784,264.138,0.0,0.0,240.957,264.54
2015-11-27 23:00,0.0,288.705,289.486,262.89,291.555,290.101,263.67,0.0,0.0,241.533,264.615
2015-11-28 00:00,-0.00160742,289.91,290.44,263.203,292.73,291.464,263.905,0.0,0.0,241.476,264.389
2015-11-28 01:00,0.0,288.152,288.843,262.261,291.423,289.964,263.67,0.0,0.0,240.782,264.389
2015-11-28 02:00,0.0,289.647,290.44,263.203,292.47,290.784,264.255,0.0,0.0,241.189,264.54
2015-11-28 03:00,0.0,286.717,286.992,261.091,289.434,288.027,263.318,0.0,0.0,240.665,264.238
2015-11-28 04:00,0.0,288.012,288.087,261.838,289.968,288.167,262.728,0.0,0.0,240.665,264.01
2015-11-28 05:00,0.0,287.01,286.882,260.876,288.628,286.907,262.61,0.0,0.0,240.782,263.244
2015-11-28 06:00,0.0,288.152,288.087,261.625,289.701,287.888,262.965,0.0,0.0,239.834,262.545
2015-11-28 07:00,0.0,288.012,288.52,261.838,290.764,289.137,263.2,0.0,0.0,239.593,262.779
2015-11-28 08:00,0.0,289.381,290.44,263.099,293.248,292.006,264.953,0.0,0.0,238.608,262.857
2015-11-28 09:00,-0.00627504,287.587,288.412,261.519,291.029,289.826,263.318,0.0,0.0,238.104,262.623
2015-11-28 10:00,0.274707,290.171,290.545,262.89,292.989,291.464,264.488,0.697783,0.523852,237.006,261.834
2015-11-28 11:00,0.214809,290.429,288.736,261.944,291.16,289.276,263.436,0.320264,0.278149,237.398,261.595
2015-11-28 12:00,0.0778675,291.315,289.593,262.261,292.079,290.511,263.905,0.150048,0.113852,237.072,261.595
2015-11-28 13:00,0.24153,290.041,286.217,260.445,288.897,287.748,263.553,0.281192,0.282447,236.808,261.275
2015-11-28 14:00,0.0414591,290.685,290.123,262.681,292.34,290.648,264.721,0.0804453,0.0523193,236.675,261.515
2015-11-28 15:00,0.0652534,290.685,288.628,262.155,291.16,289.826,263.318,0.102212,0.0774057,236.609,260.952
2015-11-28 16:00,0.0234567,290.429,289.165,262.681,291.029,289.276,263.083,0.0680939,0.0456703,235.867,260.463
2015-11-28 17:00,0.0206947,290.939,290.017,262.995,291.686,289.964,263.787,0.0557524,0.0303892,235.525,260.708
2015-11-28 18:00,0.0498198,290.939,288.951,262.261,290.764,288.584,263.318,0.0863733,0.0646663,235.731,260.463
2015-11-28 19:00,0.466661,286.271,280.549,257.685,282.66,282.028,260.942,0.438338,0.489526,235.386,259.804
2015-11-28 20:00,0.410516,280.239,278.226,256.089,280.639,280.406,260.461,0.381493,0.444765,234.897,259.304
2015-11-28 21:00,0.0,281.705,280.187,257.233,282.231,281.588,260.098,0.0,0.0,234.329,259.22
2015-11-28 22:00,0.0,287.729,286.661,260.984,288.628,286.485,261.779,0.0,0.0,234.827,259.22
2015-11-28 23:00,0.0,288.291,288.412,261.944,290.897,288.999,263.787,0.0,0.0,234.897,259.721
2015-11-29 00:00,0.0,288.977,288.52,262.366,290.632,288.584,262.373,0.0,0.0,234.041,259.135
2015-11-29 01:00,0.0,288.152,288.303,262.261,290.5,288.861,263.67,0.0,0.0,234.897,259.887
2015-11-29 02:00,0.0,289.381,289.593,262.786,291.948,290.375,263.905,0.0,0.0,234.897,260.052
2015-11-29 03:00,0.0,289.247,289.805,262.995,292.079,290.238,264.022,0.0,0.0,234.615,259.721
2015-11-29 04:00,-0.00118042,288.977,288.843,262.576,291.16,289.137,262.373,0.0,0.0,233.896,258.882
2015-11-29 05:00,0.0,287.871,287.978,262.471,289.568,287.048,261.54,0.0,0.0,232.784,257.769
2015-11-29 06:00,0.0,288.43,288.736,262.366,290.897,288.999,262.847,0.0,0.0,233.53,258.628
2015-11-29 07:00,0.0,288.705,287.978,261.944,289.835,286.907,261.182,0.0,0.0,233.085,257.421
2015-11-29 08:00,0.0,286.864,283.841,259.793,284.641,280.702,256.909,0.0,0.0,231.076,254.629
2015-11-29 09:00,0.00619363,285.202,281.029,258.246,281.366,278.004,254.646,0.0,0.0,230.511,253.5
2015-11-29 10:00,0.491219,287.587,282.799,259.134,283.23,279.361,255.28,0.720918,0.760402,230.755,253.974
2015-11-29 11:00,0.254874,285.818,276.208,255.974,276.01,271.605,249.705,0.347679,0.319255,228.488,251.152
2015-11-29 12:00,0.16478,288.291,281.624,258.358,282.231,279.211,255.28,0.228719,0.196353,230.511,253.69
2015-11-29 13:00,0.113196,288.977,282.448,258.913,283.372,279.959,255.784,0.164302,0.142848,230.43,253.88
2015-11-29 14:00,0.0779942,286.421,276.971,256.205,276.923,272.883,250.369,0.118868,0.099737,228.488,249.721
2015-11-29 15:00,0.0736091,289.113,284.3,260.228,285.34,282.321,257.653,0.10249,0.0825697,230.43,254.162
2015-11-29 16:00,0.0806056,286.421,278.721,256.549,278.873,275.551,252.982,0.10806,0.0966342,226.871,248.562
2015-11-29 17:00,0.0640891,288.43,283.264,259.244,284.22,280.998,256.41,0.0941643,0.0799257,230.43,253.5
2015-11-29 18:00,0.185351,282.923,267.909,250.051,266.678,262.537,243.525,0.217296,0.211113,224.359,242.23
2015-11-29 19:00,0.237312,288.841,277.35,255.858,276.923,272.565,249.171,0.247301,0.243266,227.691,248.987
2015-11-29 20:00,0.471167,282.581,268.487,249.924,267.016,262.888,242.671,0.398936,0.485792,224.959,243.698
2015-11-29 21:00,-0.0111407,279.473,273.732,253.261,273.529,270.148,249.838,0.0,0.0,227.42,248.775
2015-11-29 22:00,0.00354947,287.444,285.321,260.661,286.585,284.061,258.882,0.0,0.0,229.517,253.69
2015-11-29 23:00,0.0,287.3,283.956,259.793,285.34,282.321,257.034,0.0,0.0,230.184,252.828
2015-11-30 00:00,-0.00160846,286.271,283.956,259.683,285.34,283.339,258.27,0.0,0.0,229.935,253.213
2015-11-30 01:00,0.0,286.717,283.495,259.464,284.921,281.735,256.41,0.0,0.0,229.935,253.213
2015-11-30 02:00,0.0,283.261,277.224,255.858,277.678,274.617,251.944,0.0,0.0,226.963,248.669
2015-11-30 03:00,0.0,278.075,268.916,250.303,268.024,264.451,245.489,0.0,0.0,224.86,243.214
2015-11-30 04:00,0.0011795,278.482,269.343,250.681,268.69,265.138,245.905,0.0,0.0,224.661,243.937
2015-11-30 05:00,0.0,277.24,267.18,249.029,266.338,262.361,243.667,0.0,0.00128924,224.359,243.336
2015-11-30 06:00,0.0,277.026,267.618,249.542,266.508,262.712,244.792,0.0,0.0,224.86,242.105
2015-11-30 07:00,0.0,289.113,288.951,262.89,291.423,288.861,262.61,0.0,0.0,229.178,254.256
2015-11-30 08:00,0.00283356,289.647,289.379,262.89,291.948,290.101,262.965,0.0,0.0,230.266,254.999
2015-11-30 09:00,0.00611466,289.247,289.058,262.786,291.686,289.689,263.318,0.0,0.00617311,229.517,254.349
2015-11-30 10:00,0.388338,289.381,289.379,263.099,291.948,290.101,263.553,0.807068,0.641537,229.685,254.629
2015-11-30 11:00,0.16697,289.647,287.869,262.471,290.5,288.861,262.728,0.278707,0.221544,229.517,254.349
2015-11-30 12:00,0.290771,295.796,272.796,253.381,273.057,268.173,248.903,0.278408,0.26886,229.178,247.699
2015-11-30 13:00,0.0182688,289.91,289.058,262.786,291.686,289.689,263.2,0.0773408,0.0430347,229.852,254.907
2015-11-30 14:00,0.0347766,288.291,286.105,260.661,287.407,285.065,259.37,0.0736133,0.0544191,229.517,253.88
2015-11-30 15:00,0.0311609,288.43,284.982,260.661,287.815,285.35,259.005,0.0722086,0.0496718,229.769,254.536
2015-11-30 16:00,0.0521706,288.152,283.726,259.244,286.172,283.049,258.023,0.0812209,0.0628634,230.348,254.068
2015-11-30 18:00,0.0237981,290.813,290.017,263.307,292.6,290.648,263.318,0.0705244,0.0432461,230.755,255.548
2015-11-30 19:00,0.274135,296.323,282.096,259.024,283.372,277.853,254.773,0.253773,0.247235,229.685,251.051
2015-11-30 20:00,0.381131,280.05,268.63,250.555,266.338,259.864,244.932,0.331196,0.405026,228.662,244.175
2015-11-30 21:00,0.0,250.598,248.985,239.721,249.579,248.532,240.646,0.0,0.0,229.852,240.835
2015-11-30 22:00,0.0,280.982,276.845,255.51,278.725,276.477,254.646,0.0,0.0,230.266,250.135
2015-11-30 23:00,-0.00216089,281.346,275.436,255.043,275.242,268.007,247.823,0.0,0.0,227.601,246.595
