# timestamp,IR_016,IR_039,IR_087,IR_097,IR_108,IR_120,IR_134,VIS006,VIS008,WV_062,WV_073
2015-07-01 02:00,-0.00132132,230.231,230.85,228.934,230.294,229.647,226.402,-0.0,-0.00133395,223.952,227.509
2015-07-01 03:00,-0.0012416,266.797,267.473,249.797,269.35,268.835,252.335,-0.0,-0.0,232.405,250.646
2015-07-01 04:00,0.00124004,254.966,246.523,238.81,244.8,240.123,231.257,-0.0,-0.0,223.329,234.542
2015-07-01 05:00,-0.00131614,261.251,255.587,243.368,256.406,253.122,240.793,-0.0,0.00132872,226.778,240.185
2015-07-01 06:00,-0.0,268.073,263.245,247.859,263.745,260.942,244.792,-0.0,-0.0,226.963,241.854
2015-07-01 07:00,0.00185417,260.827,259.039,245.451,259.791,258.774,246.457,-0.0,-0.0,227.51,243.937
2015-07-01 08:00,-0.00262814,243.066,231.997,230.743,230.294,228.056,223.592,-0.0,-0.0,217.229,223.167
2015-07-01 09:00,-0.00492535,230.231,224.95,227.058,223.758,222.169,220.302,-0.0,-0.0,218.391,222.096
2015-07-01 10:00,-0.105169,259.954,251.912,241.207,249.998,247.708,236.46,-0.267139,-0.371611,223.013,236.614
2015-07-01 11:00,0.509403,259.505,245.032,236.943,244.122,241.921,233.185,0.702877,0.793631,222.15,234.236
2015-07-01 12:00,0.580083,279.278,265.243,248.9,267.016,265.48,249.171,0.74868,0.861031,228.488,248.025
2015-07-01 13:00,0.306789,275.932,259.871,245.314,259.236,255.425,239.025,0.263523,0.397253,225.254,240.446
2015-07-01 14:00,0.316881,282.753,268.63,250.555,268.358,265.138,246.869,0.241785,0.377569,227.601,246.032
2015-07-01 15:00,0.260357,295.151,290.44,264.133,291.423,288.445,262.017,0.105927,0.278207,231.552,256.45
2015-07-01 16:00,0.253114,292.534,284.071,260.337,284.781,281.588,257.777,0.132873,0.265755,231.156,254.068
2015-07-01 17:00,0.322297,293.356,282.448,259.574,284.501,282.467,260.219,0.238778,0.343866,233.234,257.07
2015-07-01 18:00,0.237337,291.809,285.658,261.412,287.134,284.492,259.977,0.176764,0.275103,232.328,255.639
2015-07-01 19:00,0.181133,291.315,289.165,263.515,291.16,288.584,262.492,0.137769,0.226256,232.633,256.45
2015-07-01 20:00,0.491239,288.012,280.909,258.913,280.931,278.156,256.909,0.365208,0.520127,228.921,250.032
2015-07-02 01:00,-0.00301417,275.932,273.732,254.217,274.312,272.565,254.009,-0.00127605,-0.0,228.835,247.917
2015-07-02 02:00,-0.00132176,260.395,257.854,244.488,258.304,257.301,244.932,-0.0,-0.0,227.78,244.056
2015-07-02 03:00,-0.0,263.255,264.329,248.382,265.826,265.138,251.422,-0.0,-0.0,230.184,249.303
2015-07-02 04:00,0.00123991,259.045,256.294,243.226,257.17,255.992,245.072,-0.0,-0.0,226.963,243.093
2015-07-02 05:00,-0.0,256.062,249.978,239.871,249.998,248.532,238.577,-0.0,-0.0,225.546,238.578
2015-07-02 06:00,-0.0,251.282,243.94,236.943,242.978,241.027,232.387,-0.0,-0.0,223.224,234.389
2015-07-02 07:00,-0.00185289,271.531,266.59,249.542,267.69,265.309,248.499,-0.0,-0.0,228.136,246.258
2015-07-02 08:00,-0.0,267.761,257.683,244.488,257.361,253.896,239.618,-0.0,-0.0,225.058,239.922
2015-07-02 09:00,-0.0,243.066,231.713,230.207,230.012,227.787,224.481,-0.0,-0.0,220.219,225.011
2015-07-02 10:00,-0.0,266.131,253.411,241.791,251.652,247.915,235.382,-0.17567,-0.20946,222.04,235.146
2015-07-02 11:00,0.497264,257.605,235.538,232.146,233.041,230.688,224.657,0.559601,0.699012,218.891,224.61
2015-07-02 12:00,0.357442,273.831,254.871,242.942,255.244,251.354,237.525,0.355742,0.468484,223.538,238.303
2015-07-02 13:00,0.386662,249.89,216.058,223.283,214.89,213.694,213.653,0.538117,0.637136,212.607,214.233
2015-07-02 14:00,0.325872,271.531,243.94,237.572,241.344,236.872,226.918,0.297739,0.408911,217.622,227.509
2015-07-02 15:00,0.331058,255.521,224.95,227.628,223.125,220.984,219.362,0.384706,0.489397,216.287,220.306
2015-07-02 16:00,0.332027,265.446,233.666,231.799,231.408,228.59,221.965,0.328219,0.438994,216.56,223.377
2015-07-02 17:00,0.38214,258.576,220.75,226.092,218.13,215.683,215.474,0.425733,0.537156,212.607,215.6
2015-07-02 18:00,0.418871,268.382,221.117,226.866,215.993,211.983,210.718,0.415933,0.526934,209.206,213.092
2015-07-02 19:00,0.575416,270.989,222.552,227.058,217.072,213.356,213.241,0.559766,0.682886,210.278,214.511
2015-07-03 01:00,-0.00150804,262.475,245.89,237.884,242.978,237.581,227.77,-0.0,-0.0,218.767,230.524
2015-07-03 02:00,-0.0,265.791,252.666,241.646,250.207,246.246,234.916,-0.0,-0.0,221.93,234.694
2015-07-03 03:00,0.00124182,264.377,250.371,239.871,248.307,243.679,231.905,-0.0,-0.0,222.906,235.295
2015-07-03 04:00,-0.0,280.982,276.463,255.51,277.528,274.929,252.594,-0.0,-0.0,230.674,251.252
2015-07-03 05:00,-0.00131537,280.239,276.208,255.626,277.678,275.396,253.881,-0.0,-0.0,229.263,249.617
2015-07-03 06:00,-0.00149404,264.377,249.185,239.267,247.878,244.758,232.707,-0.0,-0.0,221.596,233.617
2015-07-03 07:00,-0.0,284.249,284.869,260.984,287.679,286.626,263.083,-0.0,-0.0,233.896,255.911
2015-07-03 08:00,-0.0,283.594,284.3,260.661,286.997,286.343,262.728,-0.0,-0.0,233.456,255.366
2015-07-03 09:00,-0.0,283.594,284.414,260.769,287.27,286.767,262.61,-0.0,0.00495644,232.784,254.999
2015-07-03 10:00,-0.153876,282.923,283.148,259.793,285.757,284.492,260.701,-0.347432,-0.466042,232.557,254.814
2015-07-03 11:00,0.743149,288.977,277.476,257.006,279.76,277.243,257.53,0.458586,0.737537,231.709,253.117
2015-07-03 12:00,0.435726,292.053,287.76,263.203,290.101,287.609,262.255,0.209679,0.477868,231.473,253.69
2015-07-03 13:00,0.304269,290.171,283.38,259.793,284.361,280.998,255.909,0.15984,0.354263,230.996,251.352
2015-07-03 14:00,0.299855,293.24,285.994,261.838,287.815,283.917,257.653,0.133953,0.321293,230.996,252.146
2015-07-03 15:00,0.249723,296.635,293.438,266.657,296.056,293.082,264.022,0.0942907,0.264034,232.251,254.349
2015-07-03 16:00,0.237334,297.146,293.742,266.954,296.433,292.948,264.022,0.0883611,0.249799,231.865,254.162
2015-07-03 17:00,0.266509,297.649,288.303,263.307,290.764,286.767,261.301,0.139101,0.278271,231.552,253.88
2015-07-03 18:00,0.2801,294.713,286.661,262.261,287.679,284.061,259.005,0.159342,0.30266,230.348,251.051
2015-07-03 19:00,0.26239,295.26,289.379,263.515,291.555,287.888,261.54,0.196332,0.314181,232.097,254.068
2015-07-04 01:00,0.00150897,259.505,248.784,239.419,248.307,245.824,235.691,-0.0,-0.00152339,224.258,235.146
2015-07-04 02:00,-0.0,235.601,228.769,229.301,227.414,225.874,222.692,-0.0,-0.0,220.101,224.61
2015-07-04 03:00,0.00124189,256.062,248.38,239.57,247.446,245.399,235.072,-0.0,-0.0,224.258,236.033
2015-07-04 04:00,-0.0,253.206,246.313,238.503,245.914,243.024,235.072,-0.0,-0.0,225.835,236.033
2015-07-04 05:00,-0.00131498,259.505,250.175,240.766,247.878,243.679,235.072,-0.0,-0.0,223.642,233.928
2015-07-04 06:00,-0.00149335,281.883,280.308,258.691,282.374,280.406,258.27,-0.0,-0.0,230.266,249.617
2015-07-04 07:00,-0.00185046,266.797,257.683,244.765,256.98,253.896,241.229,-0.0,-0.0,226.778,238.986
2015-07-04 08:00,0.00262073,254.396,246.313,238.657,245.248,243.679,235.072,-0.0,-0.0,225.739,235.146
2015-07-04 09:00,0.0049029,254.966,254.145,242.942,255.827,255.045,244.652,-0.0,-0.0,228.048,241.98
2015-07-04 10:00,-0.203389,253.81,247.357,239.115,246.575,243.896,235.537,-0.344419,-0.410667,226.027,237.468
2015-07-04 11:00,0.510223,255.521,240.514,234.845,239.669,237.815,231.094,0.677342,0.788549,224.054,232.022
2015-07-04 12:00,0.510738,262.074,243.273,236.146,242.978,240.802,234.447,0.673865,0.749706,224.959,234.542
2015-07-04 13:00,0.506013,266.797,248.985,239.871,249.579,248.736,240.354,0.689639,0.74387,226.216,237.608
2015-07-04 14:00,0.38228,269.865,256.992,244.488,258.116,256.742,245.35,0.603779,0.640131,227.601,242.848
2015-07-04 15:00,0.541003,296.427,251.339,242.225,253.469,249.753,241.229,0.684959,0.743546,230.348,242.23
2015-07-04 16:00,0.482401,293.816,253.595,243.084,255.439,251.75,242.097,0.663195,0.705914,229.935,242.848
2015-07-04 17:00,0.526617,294.713,251.721,242.369,254.066,250.357,240.793,0.666514,0.704576,229.433,242.105
2015-07-04 18:00,0.637521,292.053,260.036,246.667,263.04,261.121,247.959,0.724647,0.782478,229.433,246.707
2015-07-04 19:00,0.717683,282.581,259.54,246.265,262.15,261.831,248.768,0.775025,0.853487,230.266,246.818
2015-07-05 01:00,-0.0,261.251,253.963,241.936,253.269,251.156,240.354,-0.0,-0.0,226.122,237.185
2015-07-05 02:00,-0.0,240.898,232.28,230.387,231.408,230.17,226.574,-0.0,-0.0,223.329,228.242
2015-07-05 03:00,-0.00124195,235.601,233.666,232.491,232.502,230.17,226.746,-0.0,-0.0,223.013,228.06
2015-07-05 04:00,-0.0,244.063,236.832,233.344,234.895,232.976,229.781,-0.0,-0.0,223.952,230.354
2015-07-05 05:00,-0.00131458,239.711,239.559,234.845,240.631,240.576,235.072,-0.0,-0.0,227.147,235.295
2015-07-05 06:00,-0.00149267,274.314,274.261,254.926,276.468,274.304,254.392,-0.0,-0.0,228.048,248.133
2015-07-05 07:00,-0.0,264.377,262.616,248.121,261.971,257.115,244.512,-0.0,-0.0,227.78,241.475
2015-07-05 08:00,-0.00261861,260.395,256.644,244.765,256.98,251.156,240.5,-0.0,-0.0,228.048,240.964
2015-07-05 09:00,-0.0,275.02,277.476,256.892,281.076,280.108,259.005,-0.0,-0.0,229.348,249.408
2015-07-05 10:00,-0.404241,275.02,277.601,256.664,280.785,280.108,259.005,-0.470621,-0.612157,229.007,248.882
2015-07-05 11:00,0.604609,269.576,259.706,245.723,259.974,258.591,244.372,0.698559,0.762986,228.136,241.221
2015-07-05 12:00,0.576175,285.512,273.997,254.808,276.923,275.396,255.153,0.548827,0.543747,229.093,247.808
2015-07-05 13:00,0.42353,280.05,268.487,250.806,270.169,268.007,250.236,0.46562,0.47459,229.093,245.114
2015-07-05 14:00,0.361678,256.062,234.208,231.799,232.502,230.946,227.94,0.534741,0.580139,222.259,225.994
2015-07-05 15:00,0.380409,269.576,256.118,244.07,256.789,255.045,243.808,0.468885,0.530187,228.224,241.348
2015-07-05 16:00,0.246708,254.396,243.273,236.466,242.978,242.364,236.613,0.471772,0.52863,227.055,235.887
2015-07-05 17:00,0.316474,284.087,266.886,250.303,267.016,262.537,245.072,0.238698,0.380094,229.348,243.937
2015-07-05 18:00,0.228699,288.841,284.528,261.519,286.033,283.049,258.27,0.118027,0.266067,230.184,247.808
2015-07-05 19:00,0.612888,293.24,282.214,255.626,285.34,284.922,262.017,0.63288,0.675664,236.341,257.942
2015-07-06 01:00,-0.00151075,262.475,256.294,244.903,255.633,250.957,240.938,-0.0,-0.0,229.178,240.446
2015-07-06 02:00,-0.0,254.396,244.38,236.943,242.283,240.35,232.227,-0.0,-0.0,224.86,233.928
2015-07-06 03:00,-0.0,254.966,246.102,237.572,244.8,242.585,235.382,-0.0,-0.0,225.352,233.773
2015-07-06 04:00,-0.00123924,274.073,272.391,254.099,274.467,272.246,251.944,-0.0,-0.0,226.685,245.114
2015-07-06 05:00,-0.0,278.075,279.091,258.358,282.231,280.85,258.023,-0.0,-0.0,229.263,248.882
2015-07-06 06:00,-0.0,255.521,247.15,238.657,245.471,243.896,235.382,-0.0,-0.0,224.76,234.389
2015-07-06 07:00,-0.0,244.063,240.277,234.681,239.426,238.282,232.707,-0.0,-0.0,224.46,232.185
2015-07-06 08:00,-0.0,225.382,217.285,223.489,216.355,215.356,216.269,-0.0,-0.0,214.734,216.131
2015-07-06 09:00,-0.0,230.231,221.841,225.701,219.847,219.165,218.601,-0.0,-0.0,215.167,218.41
2015-07-06 10:00,-0.100676,261.666,249.583,240.021,247.878,243.461,232.066,-0.255726,-0.203276,222.368,232.829
2015-07-06 11:00,0.276967,251.282,240.277,234.681,240.152,238.978,233.026,0.431707,0.495681,226.778,235.444
2015-07-06 12:00,0.347295,245.913,220.75,224.908,219.847,219.472,218.218,0.569565,0.657009,216.56,218.895
2015-07-06 13:00,0.376582,251.944,221.117,224.908,220.519,220.081,219.362,0.665836,0.746945,218.391,219.134
2015-07-06 14:00,0.333742,253.81,226.583,227.438,226.82,226.426,223.592,0.647446,0.718295,221.596,224.811
2015-07-06 15:00,0.233644,256.589,245.89,238.04,245.914,245.612,239.173,0.498124,0.561695,227.87,237.608
2015-07-06 16:00,0.358568,284.57,251.53,241.646,251.242,248.532,239.913,0.312111,0.382295,229.007,238.85
2015-07-06 17:00,0.399354,290.429,250.371,240.469,250.415,246.035,238.428,0.302782,0.412335,230.511,239.39
2015-07-06 18:00,0.341108,257.103,241.913,235.662,242.515,241.698,235.382,0.612583,0.706284,227.51,236.325
2015-07-06 19:00,0.456032,253.206,228.769,228.934,228.583,227.517,226.056,0.662287,0.771384,221.258,225.011
2015-07-06 20:00,0.911498,264.009,230.559,229.665,230.294,228.856,226.229,1.0323,1.2543,223.118,227.877
2015-07-06 21:00,-0.180813,232.213,229.673,229.118,229.158,228.324,224.657,-0.76547,-0.912707,223.013,227.509
2015-07-06 22:00,-0.0105211,225.382,219.628,224.305,219.508,217.922,218.218,-0.0,-0.0,216.424,217.918
2015-07-06 23:00,-0.105728,230.231,231.14,230.027,231.408,230.946,227.601,-0.0275446,-0.0574749,223.538,228.782
2015-07-07 00:00,-0.0660788,246.775,245.463,237.415,245.693,244.758,237.977,-0.020781,-0.0457443,227.51,238.027
2015-07-07 01:00,-0.0,222.276,221.117,224.908,221.182,220.384,219.739,-0.0,-0.0,218.642,220.306
2015-07-07 02:00,-0.00132361,232.213,224.95,227.058,225.003,222.753,221.23,-0.0,-0.0,220.916,225.21
2015-07-07 03:00,0.00124201,250.598,249.781,240.021,250.623,249.348,240.354,-0.0,-0.0,228.835,240.964
2015-07-07 04:00,-0.0,227.984,222.198,225.504,221.511,220.685,220.675,-0.0,-0.0,218.767,220.306
2015-07-07 05:00,-0.0,227.984,224.279,226.866,223.443,222.169,221.598,-0.0,-0.0,219.863,221.658
2015-07-07 06:00,-0.0,240.898,239.799,234.017,240.152,239.208,233.661,-0.0,-0.0,226.122,234.542
2015-07-07 07:00,-0.0,253.81,250.76,240.32,251.036,249.955,240.207,-0.0,-0.0,227.87,240.706
2015-07-07 08:00,-0.00261494,248.394,246.313,237.572,246.794,246.246,237.977,-0.0,-0.0,227.329,238.986
2015-07-07 09:00,-0.0,251.282,249.583,239.721,250.415,249.144,240.5,-0.0,-0.0,228.136,240.316
2015-07-07 10:00,-0.100539,247.601,244.38,236.943,244.122,242.585,234.447,-0.255379,-0.253751,226.778,237.748
2015-07-07 11:00,0.339614,246.775,237.841,233.344,237.702,236.635,230.931,0.670951,0.755563,225.835,233.773
2015-07-07 12:00,0.325059,255.521,231.14,230.565,230.294,227.787,224.481,0.603382,0.67211,221.484,227.136
2015-07-07 13:00,0.329678,251.944,226.902,228.004,225.919,224.474,222.511,0.612605,0.687997,220.337,223.999
2015-07-07 14:00,0.28935,253.206,232.839,231.098,232.23,230.946,227.601,0.446569,0.523221,223.224,228.06
2015-07-07 15:00,0.396097,262.869,231.997,230.565,231.957,230.17,227.089,0.554221,0.632019,223.642,228.96
2015-07-07 16:00,0.314458,256.589,234.745,231.973,234.371,233.225,229.116,0.611812,0.683899,224.86,231.198
2015-07-07 17:00,0.329693,256.589,236.576,232.491,235.672,234.461,230.44,0.576707,0.652888,224.56,230.694
2015-07-07 18:00,0.329389,260.827,241.451,235.337,241.344,239.895,233.503,0.554117,0.643199,226.592,235.146
2015-07-07 19:00,0.559707,259.505,231.997,230.743,231.683,230.688,228.109,0.817864,0.947838,224.56,228.96
2015-07-07 20:00,0.680519,258.096,229.97,229.118,229.729,228.856,226.402,0.791047,0.966492,224.156,227.694
2015-07-07 21:00,-0.447192,238.442,234.477,231.625,234.371,232.976,228.614,-1.13591,-1.3544,225.546,231.031
2015-07-07 22:00,-0.00528619,227.984,227.219,228.192,227.118,226.974,224.834,-0.0,-0.0,221.93,224.204
2015-07-07 23:00,-0.0733463,238.442,237.591,233.005,237.951,236.872,231.743,-0.0253009,-0.05485,227.78,234.236
2015-07-08 00:00,-0.0944981,245.01,244.815,237.101,245.693,244.758,237.525,-0.0240034,-0.0496088,229.348,238.85
2015-07-08 01:00,-0.00151243,245.913,243.496,235.985,243.438,241.921,236.153,-0.0,-0.0,228.575,237.043
2015-07-08 02:00,-0.0,254.396,247.563,238.503,247.229,245.612,236.918,-0.0,-0.0,229.348,237.748
2015-07-08 03:00,-0.0,261.666,257.166,244.21,257.739,254.281,242.527,-0.0,-0.0,229.093,242.354
2015-07-08 04:00,-0.0,232.213,227.533,227.628,227.414,226.426,224.657,-0.0,-0.0,223.434,226.379
2015-07-08 05:00,-0.0,218.393,222.552,225.306,222.485,221.875,219.927,-0.0,-0.0,219.744,221.213
2015-07-08 06:00,-0.0,227.984,223.94,226.674,224.072,223.332,221.965,-0.0,-0.0,221.145,222.956
2015-07-08 07:00,-0.00184627,222.276,221.481,224.708,220.852,220.384,219.551,-0.0,0.00186392,219.382,220.535
2015-07-08 08:00,-0.0,225.382,224.616,226.287,224.694,223.619,222.329,-0.0,-0.0,221.371,222.529
2015-07-08 09:00,-0.0,222.276,224.616,226.481,225.003,223.905,222.692,-0.0,-0.0,221.596,222.743
2015-07-08 10:00,-0.0503264,227.984,228.155,228.192,228.293,228.056,225.36,-0.298279,-0.20323,225.352,227.323
2015-07-08 11:00,0.364316,247.601,230.265,229.118,230.294,229.385,227.089,0.675434,0.767304,226.027,227.877
2015-07-08 12:00,0.355877,252.585,233.116,231.098,233.577,232.474,228.949,0.634358,0.7028,228.312,232.022
2015-07-08 13:00,0.413213,273.831,256.118,243.368,257.739,256.555,245.767,0.529478,0.629091,231.865,244.764
2015-07-08 14:00,0.27979,253.206,238.09,233.175,238.199,237.109,232.227,0.608502,0.672008,229.178,234.845
2015-07-08 15:00,0.358595,262.074,234.477,231.625,235.414,234.461,229.781,0.585961,0.669911,228.224,232.508
2015-07-08 16:00,0.300525,255.521,232.839,230.387,232.502,231.203,227.77,0.473567,0.568028,225.931,230.011
2015-07-08 17:00,0.365132,255.521,228.155,228.564,228.293,227.787,225.36,0.589235,0.691624,224.46,226.76
2015-07-08 18:00,0.350117,272.836,251.721,240.469,249.789,246.457,235.691,0.338531,0.466921,227.601,236.757
2015-07-08 19:00,0.365758,276.594,263.556,246.667,262.329,259.502,244.231,0.337609,0.463081,230.101,243.457
2015-07-08 20:00,0.796211,266.131,241.451,234.845,240.152,238.515,231.905,0.75175,1.00622,227.601,234.996
2015-07-08 21:00,-0.588599,277.661,273.865,253.261,274.778,272.883,252.205,-1.4951,-1.78268,231.63,251.552
2015-07-08 22:00,-0.00531226,237.078,236.318,231.799,235.93,235.435,229.946,-0.0,-0.0,227.87,231.695
2015-07-08 23:00,-0.0871068,278.075,275.694,253.741,276.772,274.617,253.497,-0.0276574,-0.0549622,233.382,252.828
2015-07-09 00:00,-0.0870289,248.394,240.277,233.849,241.58,239.208,231.905,-0.0240284,-0.0477505,229.935,235.146
2015-07-09 01:00,-0.00151324,275.707,273.732,252.777,275.087,272.724,252.853,-0.0,-0.0,236.742,253.213
2015-07-09 02:00,-0.00132419,227.984,232.839,230.027,234.371,234.706,230.276,-0.0,-0.0,228.312,229.838
2015-07-09 03:00,-0.0,277.24,277.601,255.277,280.347,279.061,258.023,-0.0,-0.0,240.665,254.907
2015-07-09 04:00,-0.0,271.531,270.468,251.056,272.264,271.283,254.009,-0.0,-0.0,237.268,252.731
2015-07-09 05:00,-0.00131296,257.103,253.04,241.061,253.069,251.354,241.084,-0.0,-0.0,230.996,241.093
2015-07-09 06:00,-0.0,254.396,247.769,237.728,247.012,244.973,237.373,-0.0,-0.0,229.178,235.592
2015-07-09 07:00,-0.0,260.827,259.871,244.765,260.888,259.321,247.142,-0.0,-0.0,232.86,247.04
2015-07-09 08:00,-0.0,257.103,251.721,240.32,252.868,251.156,239.47,-0.0,-0.0,232.481,242.354
2015-07-09 09:00,-0.0,280.613,281.505,257.572,283.656,282.758,259.614,-0.0,-0.0,238.42,255.73
2015-07-09 10:00,-0.202044,268.986,267.033,249.286,268.524,267.171,251.553,-0.384908,-0.458944,232.86,248.025
2015-07-09 11:00,0.677289,280.982,275.176,253.621,277.528,276.477,256.41,0.690275,0.7724,233.896,251.552
2015-07-09 12:00,0.614101,278.482,263.556,246.801,265.31,264.451,250.369,0.77334,0.881178,232.175,246.595
2015-07-09 13:00,0.317731,282.923,259.373,244.903,259.421,255.992,242.956,0.33441,0.416553,232.251,242.602
2015-07-09 14:00,0.591569,289.113,267.473,249.414,270.169,267.84,251.028,0.533345,0.632247,235.038,249.513
2015-07-09 15:00,0.264302,292.653,285.658,260.661,287.951,285.635,259.856,0.131721,0.258385,237.721,254.256
2015-07-09 16:00,0.259951,294.602,286.217,260.769,288.222,285.919,261.062,0.150966,0.259071,241.986,259.135
2015-07-09 17:00,0.337256,295.902,282.096,258.58,285.061,282.758,260.098,0.230581,0.325914,243.039,259.304
2015-07-09 18:00,0.234918,292.771,287.978,262.366,289.835,287.048,261.779,0.138686,0.25457,242.82,259.22
2015-07-09 19:00,0.256848,291.563,288.412,262.471,290.101,287.469,261.301,0.146668,0.277395,242.875,258.967
2015-07-09 20:00,0.24462,288.705,287.651,262.155,289.568,287.469,261.779,0.20712,0.310134,242.875,259.554
2015-07-09 21:00,-1.29964,285.357,285.433,260.769,287.543,286.343,261.182,-2.9344,-3.93619,242.155,258.967
2015-07-09 22:00,-0.00533874,278.883,280.187,257.572,283.088,282.467,259.37,-0.0,-0.0,240.548,259.051
2015-07-09 23:00,-0.0981952,283.428,284.185,259.574,286.447,285.065,260.822,-0.0300234,-0.0578281,239.288,257.246
2015-07-10 00:00,-0.0776489,283.594,284.528,260.011,287.134,286.202,261.301,-0.0224496,-0.0458875,240.371,257.855
2015-07-10 01:00,-0.00151401,281.883,282.566,258.913,285.201,283.917,260.581,-0.0,-0.0,241.647,257.682
2015-07-10 02:00,-0.00132444,279.859,280.308,257.346,282.803,280.998,258.638,-0.0,-0.0,241.361,257.595
2015-07-10 03:00,-0.0,282.059,282.682,258.913,285.061,283.194,260.219,-0.0,-0.0,242.042,258.028
2015-07-10 04:00,-0.0,283.261,283.956,259.464,286.447,285.35,260.942,-0.0,-0.0,242.322,259.051
2015-07-10 05:00,-0.0,279.473,281.505,258.358,284.641,283.629,260.581,-0.0,-0.0,240.899,258.2
2015-07-10 06:00,-0.0,283.76,284.528,260.011,286.997,285.777,261.54,-0.0,-0.0,240.014,258.457
2015-07-10 07:00,0.00184456,283.924,284.982,260.337,287.543,286.626,262.136,-0.0,-0.0,238.546,258.114
2015-07-10 08:00,0.00261093,284.087,284.982,260.337,287.679,286.626,261.54,-0.0,-0.0,238.981,258.372
2015-07-10 09:00,-0.0,284.087,285.208,260.228,287.951,287.048,261.779,-0.0,-0.0,238.919,258.114
2015-07-10 10:00,-0.101656,284.087,285.433,260.445,288.087,287.748,262.255,-0.344287,-0.41051,239.532,258.713
2015-07-10 11:00,0.438116,287.3,287.212,261.625,289.835,288.722,262.728,0.249068,0.499172,239.41,258.713
2015-07-10 12:00,0.413921,290.558,289.486,262.786,291.817,290.238,263.083,0.179186,0.430446,239.227,258.798
2015-07-10 13:00,0.343654,293.816,291.487,264.236,294.021,292.141,264.022,0.13616,0.353611,238.357,258.882
2015-07-10 14:00,0.286172,294.933,292.314,265.052,294.661,292.276,263.905,0.108032,0.292588,238.608,258.967
2015-07-10 15:00,0.237103,295.476,292.827,265.254,295.043,292.545,263.67,0.0876536,0.254541,237.849,258.114
2015-07-10 16:00,0.2245,296.219,293.539,265.859,296.056,293.216,264.138,0.0802574,0.233361,237.398,258.028
2015-07-10 17:00,0.210515,295.796,293.843,265.859,296.559,293.883,264.605,0.0731251,0.221609,237.721,258.628
2015-07-10 18:00,0.236393,296.738,290.545,264.031,293.248,290.511,262.136,0.112814,0.249501,238.919,258.713
2015-07-10 19:00,0.217173,293.702,292.108,264.95,294.788,292.679,264.255,0.103275,0.249284,239.471,258.798
2015-07-10 20:00,0.231622,291.315,290.86,263.928,293.377,291.6,263.787,0.176981,0.290869,241.246,259.721
2015-07-10 21:00,-1.66007,286.864,288.087,262.366,291.029,290.238,264.372,-4.91952,-6.70375,241.704,259.721
2015-07-10 22:00,-0.0,286.569,287.651,261.944,290.5,290.101,263.67,-0.0,-0.0,240.724,258.543
2015-07-10 23:00,-0.0847292,285.97,286.992,261.198,289.434,288.306,263.2,-0.0254562,-0.0496679,240.253,258.028
2015-07-11 00:00,-0.07204,285.665,286.328,260.661,289.032,287.888,262.255,-0.0240774,-0.0478478,240.899,258.967
2015-07-11 01:00,-0.00151475,285.665,286.105,260.553,288.897,287.748,262.847,-0.0,-0.0,241.817,259.638
2015-07-11 02:00,-0.0,286.421,287.76,261.412,290.367,289.826,263.436,-0.0,-0.0,241.419,259.97
2015-07-11 03:00,0.00124191,284.73,285.095,260.228,287.815,286.202,262.017,-0.0,-0.0,240.665,258.882
2015-07-11 04:00,-0.00123813,281.526,281.624,258.022,284.501,282.467,259.977,-0.0,-0.00124997,240.134,258.2
2015-07-11 05:00,-0.00131216,284.41,285.77,260.337,288.358,287.048,262.373,-0.0,-0.0,239.227,257.855
2015-07-11 06:00,-0.0,285.202,286.105,260.553,289.032,288.722,262.728,-0.0,-0.0,239.471,257.942
2015-07-11 07:00,-0.0,284.888,285.994,260.769,288.897,288.445,263.2,-0.0,-0.0,239.166,257.333
2015-07-11 08:00,0.00261002,283.428,284.3,259.683,287.134,285.635,261.54,-0.0,-0.0,236.609,255.457
2015-07-11 09:00,-0.00488273,283.428,284.869,260.011,287.679,286.767,261.66,-0.0,-0.0,235.247,254.722
2015-07-11 10:00,-0.307704,275.251,273.865,253.98,276.163,274.773,255.658,-0.390798,-0.569516,233.968,251.552
2015-07-11 11:00,0.699344,287.01,270.049,252.168,272.899,270.473,254.009,0.502256,0.67451,233.234,251.552
2015-07-11 12:00,0.469082,290.171,282.799,259.464,283.23,280.702,257.653,0.252506,0.49552,230.996,249.825
2015-07-11 13:00,0.338652,293.007,288.843,262.89,291.423,288.445,261.182,0.143368,0.37075,230.511,251.252
2015-07-11 14:00,0.241987,289.381,277.098,255.858,276.62,271.605,250.896,0.161755,0.271853,229.685,245.46
2015-07-11 15:00,0.264976,297.449,291.694,264.849,294.021,289.551,260.822,0.0987725,0.277604,231.236,250.646
2015-07-11 16:00,0.202449,296.008,291.694,265.052,293.635,289.964,261.779,0.0857065,0.232864,230.266,251.452
2015-07-11 17:00,0.303335,273.338,252.666,240.766,250.83,247.708,237.07,0.288748,0.400461,228.048,235.887
2015-07-11 18:00,0.246408,286.864,275.306,253.741,275.703,271.605,249.705,0.208633,0.315821,230.674,247.261
2015-07-11 19:00,0.322982,254.966,245.676,237.884,245.693,245.612,240.207,0.577043,0.625216,229.093,236.325
2015-07-11 20:00,0.342185,251.282,236.318,232.834,236.948,236.635,232.707,0.465464,0.538005,228.488,232.347
2015-07-11 21:00,-124.554,286.121,285.208,260.445,287.543,285.777,260.822,-86.2849,-148.607,234.897,254.068
2015-07-11 22:00,-0.00539286,285.97,286.661,261.198,289.3,288.306,262.373,-0.0,-0.0,236.207,256.539
2015-07-11 23:00,-0.0794236,285.665,286.439,261.198,289.166,288.027,262.728,-0.0231889,-0.0497687,235.731,256.982
2015-07-12 00:00,-0.0948836,285.512,286.105,261.198,288.763,287.748,262.017,-0.0273149,-0.0498112,234.827,256.36
2015-07-12 01:00,-0.00151547,285.665,285.994,261.091,288.628,287.469,262.965,-0.0,-0.0,236.071,257.246
2015-07-12 02:00,-0.0,282.581,283.264,259.464,285.618,284.205,260.461,-0.0,-0.0,233.823,254.162
2015-07-12 03:00,0.00124184,285.045,285.882,260.769,288.493,287.329,262.017,-0.0,-0.0,235.178,256.45
2015-07-12 04:00,-0.0,284.73,285.546,260.876,288.222,287.329,262.017,-0.0,-0.0,236.808,256.805
2015-07-12 05:00,-0.0,283.924,285.433,260.445,288.222,287.329,262.61,-0.0,-0.0,236.675,257.246
2015-07-12 06:00,-0.00148842,283.594,284.755,260.119,287.543,286.626,262.255,-0.0,-0.0,236.139,257.508
2015-07-12 07:00,0.00184313,283.924,285.095,260.119,287.815,286.907,262.373,-0.0,-0.0,235.386,256.805
2015-07-12 08:00,0.00260934,283.261,284.3,259.902,286.86,285.919,261.54,-0.0,-0.0,233.085,255.639
2015-07-12 10:00,-0.155665,283.76,285.095,259.902,287.951,287.329,262.492,-0.351471,-0.419076,233.677,256.894
2015-07-12 11:00,0.47327,288.291,286.661,261.091,289.434,287.748,262.492,0.268902,0.509228,233.159,256.894
2015-07-12 12:00,0.409228,292.653,290.545,263.411,292.989,290.921,263.67,0.183746,0.42879,232.86,257.07
2015-07-12 13:00,0.348981,295.26,291.902,264.236,294.021,291.329,263.553,0.141237,0.354533,232.328,256.716
2015-07-12 14:00,0.283287,296.635,293.843,265.859,296.182,293.75,264.138,0.109166,0.295162,232.481,256.805
2015-07-12 15:00,0.249468,297.349,294.346,265.959,296.684,293.617,264.255,0.0901223,0.251853,232.405,256.894
2015-07-12 16:00,0.230146,297.349,294.245,265.758,296.433,293.617,263.905,0.0799082,0.227331,233.456,257.333
2015-07-12 17:00,0.293617,281.346,265.092,248.382,262.685,259.684,243.808,0.225867,0.359685,228.136,241.728
2015-07-12 18:00,0.213617,295.042,291.694,264.339,293.764,291.193,263.083,0.115756,0.232912,233.456,257.158
2015-07-12 19:00,0.233138,294.823,292.622,264.95,294.916,292.679,264.255,0.117439,0.259201,234.472,258.628
2015-07-12 20:00,0.250638,292.414,291.591,264.133,294.021,292.006,263.67,0.179204,0.292395,234.686,258.286
2015-07-12 22:00,-0.00542046,286.569,287.102,261.305,289.701,288.584,263.083,-0.0,-0.0,234.113,257.595
2015-07-12 23:00,-0.104283,284.249,283.148,259.244,285.061,283.484,260.098,-0.0278829,-0.0554102,233.677,256.181
2015-07-13 00:00,-0.07978,286.421,287.212,261.731,290.101,288.999,263.318,-0.0225165,-0.0460244,233.603,257.855
2015-07-13 01:00,-0.0,286.421,286.882,261.198,289.3,287.888,262.255,-0.0,-0.0,233.53,257.07
2015-07-13 02:00,-0.00132507,287.3,287.869,262.049,290.764,290.101,263.905,-0.0,-0.0,233.603,257.682
2015-07-13 03:00,-0.0,285.97,286.661,261.412,289.3,288.445,262.492,-0.0,-0.0,233.308,257.508
2015-07-13 04:00,0.00123763,284.888,284.642,260.661,286.997,285.777,260.34,-0.0,-0.0,231.943,256.894
2015-07-13 05:00,-0.0,285.97,287.432,261.731,289.968,289.276,262.965,-0.0,-0.0,233.456,258.713
2015-07-13 06:00,0.00148791,285.818,287.212,261.731,289.835,288.861,263.67,-0.0,-0.0,234.543,259.304
2015-07-13 07:00,-0.00184253,285.97,287.432,261.944,290.101,289.276,263.436,-0.0,-0.0,235.936,259.554
2015-07-13 08:00,-0.00260888,285.202,286.328,261.412,288.763,287.748,263.436,-0.0,-0.0,237.137,259.887
2015-07-13 09:00,-0.0,285.665,287.102,261.412,289.434,288.722,263.67,-0.0,-0.0,237.398,260.463
2015-07-13 10:00,-0.15796,285.665,286.882,261.625,289.3,288.861,263.2,-0.356653,-0.425255,237.528,260.135
2015-07-13 11:00,0.428359,289.247,287.651,262.261,290.101,288.306,262.847,0.268076,0.457524,238.104,260.217
2015-07-13 12:00,0.436159,293.816,291.279,264.543,293.506,291.6,264.138,0.193814,0.443451,238.608,260.789
2015-07-13 13:00,0.350457,296.323,293.336,265.758,295.424,293.082,264.488,0.139093,0.351596,238.671,260.789
2015-07-13 14:00,0.288144,297.248,294.346,266.557,296.559,293.883,264.953,0.108943,0.294557,237.977,260.463
2015-07-13 15:00,0.247275,297.848,294.945,267.151,297.309,294.547,265.069,0.0885243,0.252989,238.42,260.217
2015-07-13 16:00,0.229612,298.242,295.442,267.446,297.807,295.076,265.185,0.0783244,0.228472,236.808,259.721
2015-07-13 17:00,0.216066,297.649,295.144,267.249,297.309,294.547,265.069,0.0771082,0.221737,236.874,259.804
2015-07-13 18:00,0.208692,296.84,293.843,266.657,295.93,293.617,264.953,0.0901526,0.221436,237.398,260.135
2015-07-13 19:00,0.252746,295.583,292.314,265.355,294.661,292.006,264.138,0.131883,0.272964,237.398,260.052
2015-07-13 20:00,0.254371,293.007,291.902,265.355,294.405,292.006,264.837,0.177919,0.290299,236.94,259.887
2015-07-13 21:00,0.917923,288.705,289.165,263.721,291.686,290.511,264.255,3.10881,3.70679,237.203,259.804
2015-07-13 22:00,-0.00544839,287.444,288.303,262.89,290.897,289.826,263.67,-0.0,-0.0,238.041,259.554
2015-07-13 23:00,-0.0824937,287.587,288.087,262.995,290.897,289.689,263.905,-0.0256107,-0.0527455,236.341,259.051
2015-07-14 00:00,-0.0988696,286.864,288.195,263.307,291.16,290.375,263.905,-0.0273676,-0.0499074,236.004,258.882
2015-07-14 01:00,-0.00151682,287.155,288.195,263.099,291.16,290.511,264.372,-0.0,-0.0,235.247,258.798
2015-07-14 02:00,-0.0,286.121,286.439,262.261,288.763,287.748,262.373,-0.0,-0.0,234.472,257.595
2015-07-14 03:00,-0.00124167,276.811,269.059,251.552,267.857,264.106,245.767,-0.0,-0.0,227.959,245.575
2015-07-14 04:00,-0.0,286.421,287.212,262.786,289.835,288.861,263.2,-0.0,-0.0,235.317,258.2
2015-07-14 05:00,-0.00131099,284.087,283.264,260.011,285.479,284.349,260.219,-0.0,-0.0,232.557,255.548
2015-07-14 06:00,-0.0,285.97,287.541,262.576,290.367,289.826,263.905,-0.0,-0.0,232.86,257.769
2015-07-14 07:00,-0.00184202,285.818,287.432,262.261,290.5,290.101,264.605,-0.0,-0.0,233.677,258.114
2015-07-14 08:00,-0.0,285.357,287.102,262.155,290.234,289.964,264.255,-0.0,-0.0,233.308,257.595
2015-07-14 09:00,-0.0,285.818,287.322,262.366,290.367,290.101,264.138,-0.0,-0.0,234.543,258.372
2015-07-14 10:00,-0.107189,285.665,287.541,262.261,290.5,290.101,264.605,-0.27227,-0.270534,234.756,258.628
2015-07-14 11:00,0.575369,287.01,283.495,259.683,284.501,282.758,258.023,0.309061,0.630837,230.755,252.731
2015-07-14 12:00,0.333271,287.01,280.187,257.685,281.655,279.361,255.406,0.201184,0.380072,230.184,252.047
2015-07-14 13:00,0.378102,296.738,293.843,266.557,296.433,294.547,264.953,0.14619,0.37951,233.896,256.982
2015-07-14 14:00,0.303795,272.58,248.784,239.57,245.693,241.251,231.094,0.255692,0.390676,222.368,232.347
2015-07-14 15:00,0.284805,275.48,250.76,240.617,249.368,244.758,232.867,0.256566,0.386156,225.643,236.614
2015-07-14 16:00,0.273553,292.653,279.458,257.346,279.907,274.617,249.037,0.138133,0.28615,228.748,247.59
2015-07-14 17:00,0.224389,298.533,295.837,267.642,298.549,296.127,266.452,0.0753927,0.224736,234.686,257.07
2015-07-14 18:00,0.220762,286.569,274.392,254.572,273.529,270.96,249.838,0.188716,0.259303,226.685,244.294
2015-07-14 19:00,0.310214,286.421,271.437,253.02,271.945,267.171,246.594,0.267613,0.392951,227.601,245.114
2015-07-14 20:00,0.581926,277.869,252.853,242.081,249.789,245.824,233.344,0.492716,0.642912,221.819,232.508
2015-07-14 21:00,0.300542,271.531,258.534,244.626,256.406,252.732,237.827,1.52681,1.82049,223.434,237.888
2015-07-14 22:00,-0.0,280.05,272.256,252.534,274.467,270.96,250.104,-0.0,-0.0,228.312,248.669
2015-07-14 23:00,-0.0991901,273.831,265.243,248.512,264.792,261.654,245.211,-0.0279947,-0.0556324,226.311,242.602
2015-07-15 00:00,-0.0742217,266.466,248.784,239.267,245.471,241.475,230.276,-0.0225592,-0.0480328,219.137,230.694
2015-07-15 01:00,-0.00151745,265.791,248.985,239.721,245.471,241.251,229.615,-0.0,-0.0,219.26,231.364
2015-07-15 02:00,-0.00132538,245.913,233.666,231.799,230.853,228.59,224.304,-0.0,-0.00133805,220.801,226.76
2015-07-15 03:00,-0.00124156,248.394,239.559,234.35,236.948,236.157,231.419,-0.0,-0.0,222.368,228.423
2015-07-15 04:00,-0.0,276.155,277.098,256.434,280.493,279.361,258.882,-0.0,-0.0,231.076,252.244
2015-07-15 05:00,-0.0,279.278,277.601,256.434,279.466,278.004,256.285,-0.0,-0.0,229.517,248.987
2015-07-15 06:00,-0.0,282.753,282.682,260.011,0.0,0.0,0.0,0.0,0.0,0.0,0.0
2015-07-15 07:00,-0.0,256.062,244.38,238.04,239.911,235.917,228.782,-0.0,-0.0,219.503,228.242
2015-07-15 08:00,-0.0,247.601,233.116,231.799,229.729,225.318,221.965,-0.0,-0.0,218.009,224.408
2015-07-15 09:00,-0.00489333,267.123,256.992,244.07,255.439,251.354,238.428,-0.0,-0.0,224.86,238.165
2015-07-15 10:00,-0.109462,251.282,245.463,237.258,244.349,242.143,235.537,-0.278045,-0.331527,226.027,235.887
2015-07-15 11:00,0.425265,251.282,234.745,231.973,234.107,232.221,227.431,0.584463,0.715551,221.484,228.782
2015-07-15 12:00,0.317012,255.521,237.339,233.344,236.186,234.461,229.283,0.458648,0.562404,222.476,229.664
2015-07-15 13:00,0.359776,295.042,287.869,262.786,290.234,287.329,262.017,0.190158,0.365417,230.43,253.117
2015-07-15 14:00,0.348207,297.947,288.52,262.995,291.029,287.469,261.66,0.174146,0.342429,230.996,253.595
2015-07-15 15:00,0.280835,286.271,269.626,251.429,268.524,263.759,244.512,0.169245,0.308536,224.054,239.656
2015-07-15 16:00,0.244926,293.007,282.331,259.024,282.517,277.853,253.24,0.119695,0.258884,228.575,247.699
2015-07-15 17:00,0.273493,286.421,270.607,251.799,268.855,264.451,246.319,0.184952,0.304794,225.739,240.446
2015-07-15 18:00,0.279283,289.91,280.789,258.58,281.655,278.609,256.285,0.207806,0.318265,229.263,247.917
2015-07-15 19:00,0.30306,287.871,276.845,256.205,276.468,272.724,251.683,0.256601,0.344202,227.147,244.53
2015-07-15 20:00,0.376047,276.155,263.401,248.121,260.888,257.486,242.956,0.346085,0.451168,226.871,239.922
2015-07-15 21:00,0.668999,222.276,211.184,221.17,210.218,209.497,210.504,1.32169,1.80105,210.102,210.032
2015-07-15 22:00,-0.0,213.142,206.643,219.409,206.392,205.349,207.423,-0.0,-0.0,207.502,206.606
2015-07-15 23:00,-0.0800614,266.131,262.931,247.597,263.393,261.299,247.823,-0.0233751,-0.0529555,229.517,244.175
2015-07-16 00:00,-0.097148,263.636,254.69,242.369,253.469,249.955,238.727,-0.0258055,-0.0499999,226.871,237.888
2015-07-16 01:00,-0.00151805,275.707,272.391,253.261,272.899,270.635,251.553,-0.0,-0.00153257,228.224,245.69
2015-07-16 02:00,-0.0,262.869,258.195,244.903,258.491,257.115,245.35,-0.0,-0.0,229.093,241.348
2015-07-16 03:00,-0.00124144,266.466,258.365,245.04,257.55,255.235,242.956,-0.0,-0.0,226.405,239.121
2015-07-16 04:00,-0.0,257.605,248.985,238.657,247.446,245.186,236.153,-0.0,-0.0,225.254,236.325
2015-07-16 05:00,-0.00131025,259.954,245.032,237.728,243.209,239.438,231.094,-0.0,-0.0,222.799,232.347
2015-07-16 06:00,-0.0,264.377,253.04,242.369,252.465,248.532,235.846,-0.0,-0.0,223.118,235.74
2015-07-16 07:00,-0.0,264.739,252.666,241.791,250.83,247.915,235.537,-0.0,-0.0,223.538,234.996
2015-07-16 08:00,-0.0,279.859,278.101,257.12,279.466,277.853,256.66,-0.0,-0.0,229.178,248.241
2015-07-16 09:00,-0.0,276.155,271.711,252.899,272.582,270.311,250.765,-0.0,-0.0,227.78,245.575
2015-07-16 10:00,-0.112177,268.073,257.854,244.765,257.17,253.51,239.618,-0.23745,-0.226499,224.661,237.748
2015-07-16 11:00,0.448047,262.074,246.733,238.503,243.895,241.921,233.819,0.509279,0.63822,223.538,232.022
2015-07-16 12:00,0.389781,280.799,268.773,250.681,268.358,265.309,247.142,0.314435,0.486462,227.238,242.105
2015-07-16 13:00,0.365412,288.705,275.436,255.742,274.933,268.835,246.182,0.198896,0.408431,226.405,243.336
2015-07-16 14:00,0.250182,265.791,249.185,239.871,245.471,244.328,235.072,0.257547,0.377952,223.538,231.859
2015-07-16 15:00,0.303223,254.966,227.219,228.378,225.615,225.038,223.233,0.429757,0.519075,219.26,221.878
2015-07-16 16:00,0.280365,268.686,245.248,238.195,241.815,238.747,230.768,0.266537,0.38236,222.15,229.838
2015-07-16 17:00,0.231984,286.271,272.256,253.381,269.842,264.967,246.594,0.161934,0.264594,225.546,240.964
2015-07-16 18:00,0.360592,273.088,246.733,238.503,243.667,240.576,230.931,0.342807,0.461968,221.371,229.489
2015-07-16 19:00,0.223409,289.514,280.066,258.022,281.799,277.701,252.335,0.18179,0.301702,228.048,247.371
2015-07-16 20:00,0.800696,272.836,233.938,231.799,230.012,226.701,222.511,0.728336,0.917587,217.881,222.956
2015-07-16 21:00,0.885159,265.446,251.912,241.5,250.207,247.293,235.072,1.19914,1.42979,223.118,233.617
2015-07-16 22:00,-0.00553399,253.206,237.591,233.344,235.93,233.474,227.089,-0.0,-0.0,220.337,227.323
2015-07-16 23:00,-0.0885172,279.473,275.694,255.51,277.678,275.551,253.881,-0.0257632,-0.0558521,228.048,246.258
2015-07-17 00:00,-0.0953285,276.376,272.662,253.14,274.156,272.246,252.335,-0.0258286,-0.0481199,227.87,245.575
2015-07-17 01:00,-0.00151863,282.059,280.187,258.134,281.943,280.257,256.41,-0.0,-0.0,227.055,246.595
2015-07-17 02:00,-0.0,258.576,245.248,237.572,243.667,241.027,231.743,-0.0,-0.0,221.484,230.011
2015-07-17 03:00,-0.0,278.075,274.916,255.277,276.01,271.283,250.501,-0.0,-0.0,228.312,246.483
2015-07-17 04:00,-0.0,271.531,263.401,248.252,262.685,255.992,242.097,-0.0,-0.0,228.136,241.475
2015-07-17 05:00,-0.0,269.283,263.712,247.465,263.217,261.654,246.044,-0.0,-0.0,228.488,243.937
2015-07-17 06:00,-0.0,250.598,247.357,238.349,247.229,246.457,238.577,-0.0,-0.0,227.601,238.165
2015-07-17 07:00,-0.0,262.475,252.101,241.354,250.83,248.532,237.525,-0.0,-0.0,226.778,237.043
2015-07-17 08:00,-0.0,279.667,278.226,257.233,280.054,278.911,257.282,-0.0,-0.0,230.018,247.699
2015-07-17 09:00,-0.0,274.551,269.485,250.931,269.35,267.673,249.171,-0.0,-0.00495212,228.488,243.818
2015-07-17 10:00,-0.0576979,282.059,281.86,259.574,284.501,282.758,259.005,-0.244264,-0.291247,230.593,250.849
2015-07-17 11:00,0.549893,288.012,282.799,260.119,285.479,283.194,259.614,0.331089,0.548981,232.557,251.352
2015-07-17 12:00,0.373313,291.19,286.661,262.155,289.032,286.626,260.461,0.186541,0.370703,232.328,251.051
2015-07-17 13:00,0.353611,295.042,291.07,264.95,292.989,289.964,262.847,0.143272,0.348231,233.085,251.85
2015-07-17 14:00,0.319575,296.84,292.52,265.859,294.788,291.329,262.255,0.11857,0.309942,232.935,251.552
2015-07-17 15:00,0.36492,289.91,256.294,243.65,255.633,249.348,238.727,0.332637,0.46134,231.236,240.185
2015-07-17 16:00,0.246915,280.613,264.94,247.991,265.482,261.299,244.372,0.265828,0.391247,230.835,243.818
2015-07-17 17:00,0.238369,293.007,285.546,261.412,286.86,282.321,256.66,0.118106,0.267387,232.175,248.455
2015-07-17 18:00,0.388788,265.446,245.89,238.04,244.8,243.024,236.765,0.469758,0.596183,229.007,235.444
2015-07-17 19:00,0.300423,285.512,269.343,251.429,268.358,264.279,247.006,0.303284,0.364537,229.852,241.728
2015-07-17 20:00,0.472594,274.314,256.469,243.93,255.633,252.341,240.938,0.48654,0.601812,230.755,239.121
2015-07-17 21:00,0.733199,278.482,274.129,254.69,275.396,274.147,254.009,1.11744,1.33237,233.603,246.483
2015-07-17 22:00,-0.0,277.026,274.785,254.099,275.55,273.517,252.982,-0.0,-0.0,233.677,248.025
2015-07-17 23:00,-0.0665172,284.087,284.071,260.119,286.722,285.065,260.461,-0.0234667,-0.0475668,233.896,251.652
2015-07-18 00:00,-0.0992283,283.594,283.38,260.011,286.033,284.492,260.219,-0.0274669,-0.0520149,234.185,251.352
2015-07-18 01:00,-0.00151917,280.613,278.474,256.664,279.76,278.156,256.285,-0.0,-0.0,231.394,247.59
2015-07-18 02:00,-0.0,283.261,283.38,259.574,286.172,284.922,261.062,-0.0,-0.0,233.085,251.452
2015-07-18 03:00,-0.0,282.923,283.726,259.793,286.31,285.065,260.942,-0.0,-0.0,235.108,252.731
2015-07-18 04:00,-0.0,283.428,283.956,260.119,286.585,285.635,261.66,-0.0,-0.0,234.543,252.439
2015-07-18 05:00,-0.0,283.924,284.528,260.553,287.27,285.777,261.779,-0.0,-0.0,237.268,254.162
2015-07-18 06:00,-0.00148586,285.045,285.208,260.769,287.951,287.188,261.66,-0.0,-0.0,239.41,255.091
2015-07-18 07:00,-0.0,283.76,284.3,259.902,287.134,286.06,261.66,-0.0,-0.0,240.312,255.821
2015-07-18 08:00,-0.0,283.093,283.611,259.244,286.447,285.35,260.942,-0.0,-0.0,240.957,255.73
2015-07-18 09:00,-0.00491292,272.836,271.023,251.676,271.785,269.984,252.205,-0.0,-0.0,238.981,250.34
2015-07-18 10:00,-0.178798,280.799,281.386,257.798,283.797,282.758,259.492,-0.403702,-0.481354,238.104,252.537
2015-07-18 11:00,0.480334,286.271,285.658,260.553,288.493,287.469,262.373,0.247108,0.515618,239.954,255.911
2015-07-18 12:00,0.427027,291.563,289.593,262.786,292.209,290.375,263.083,0.183364,0.446506,241.533,257.769
2015-07-18 13:00,0.343987,293.816,291.591,263.928,294.149,292.141,263.905,0.137384,0.364748,241.361,258.286
2015-07-18 14:00,0.300834,295.476,292.827,264.645,295.677,293.483,264.255,0.109164,0.301902,241.59,258.882
2015-07-18 15:00,0.25084,296.114,294.044,265.153,296.684,294.415,264.953,0.088841,0.259858,244.006,260.789
2015-07-18 16:00,0.225039,296.427,294.546,265.557,297.06,294.812,264.488,0.0773207,0.233776,242.765,260.871
2015-07-18 17:00,0.214771,295.69,294.245,265.153,296.809,294.547,264.953,0.0730365,0.223933,244.426,261.755
2015-07-18 18:00,0.213617,295.042,293.438,264.543,295.93,293.75,264.372,0.0797952,0.230459,244.894,262.309
2015-07-18 19:00,0.227192,293.356,292.827,264.645,295.424,293.617,265.185,0.0973991,0.252591,243.256,261.355
2015-07-18 20:00,0.245218,290.685,291.07,263.721,293.635,292.679,264.953,0.16249,0.30138,241.647,260.952
2015-07-18 21:00,0.625358,285.818,287.651,261.625,289.835,289.551,263.905,1.05898,1.26267,240.253,259.97
2015-07-18 22:00,-0.0111847,284.087,285.994,260.661,288.628,288.306,263.2,-0.0,-0.0056458,239.653,258.372
2015-07-18 23:00,-0.0749761,284.087,285.546,260.228,288.222,288.167,262.965,-0.0258631,-0.0532653,238.795,257.333
2015-07-19 00:00,-0.097403,283.428,285.095,260.337,287.815,287.888,262.965,-0.0274903,-0.0501311,238.857,257.333
2015-07-19 01:00,-0.00151969,283.428,284.869,260.228,287.407,287.469,262.847,-0.0,-0.0,239.227,257.246
2015-07-19 02:00,-0.0,283.428,284.982,260.553,287.679,287.048,262.728,-0.0,-0.0,238.041,256.628
2015-07-19 03:00,-0.0,284.249,285.321,260.445,287.815,287.469,263.083,-0.0,-0.0,237.657,256.539
2015-07-19 04:00,-0.0,284.249,285.658,260.984,288.222,287.609,262.728,-0.0,-0.0,237.137,256.539
2015-07-19 05:00,-0.0,284.73,285.994,260.984,288.628,287.748,262.728,-0.0,-0.0,236.94,256.45
2015-07-19 06:00,-0.00148556,285.045,286.328,261.198,288.763,288.167,262.728,-0.0,-0.0,236.542,256.716
2015-07-19 07:00,0.00184078,284.888,286.217,261.091,288.628,288.167,263.318,-0.0,-0.0,236.675,257.246
2015-07-19 08:00,-0.0,285.202,286.217,261.305,288.763,288.306,262.847,-0.0,-0.0,236.341,257.508
2015-07-19 09:00,-0.0,285.045,286.217,260.876,288.628,288.027,263.318,-0.0,-0.0,236.808,258.028
2015-07-19 10:00,-0.185534,284.888,286.105,261.305,288.493,288.167,263.318,-0.471274,-0.499487,236.475,258.2
2015-07-19 11:00,0.465732,288.012,287.869,262.681,290.367,289.689,263.905,0.25094,0.525141,236.609,258.028
2015-07-19 12:00,0.428626,291.931,290.017,263.928,292.86,291.464,264.138,0.182745,0.457275,236.341,257.682
2015-07-19 13:00,0.340839,293.816,291.383,264.849,294.149,292.276,263.787,0.136988,0.372409,236.675,257.595
2015-07-19 14:00,0.28573,295.476,292.827,265.758,295.677,293.617,264.953,0.105843,0.311899,236.341,257.769
2015-07-19 15:00,0.241985,296.114,293.843,266.259,296.433,294.149,264.837,0.0872159,0.265757,237.072,257.769
2015-07-19 16:00,0.213022,296.323,294.044,266.358,296.809,294.812,265.532,0.075726,0.2364,236.675,257.942
2015-07-19 18:00,0.204518,295.26,293.235,265.959,296.056,293.883,264.953,0.0777474,0.223328,236.874,258.457
2015-07-19 19:00,0.220446,293.472,292.52,265.758,294.916,293.082,264.837,0.0993859,0.248567,236.475,258.543
2015-07-19 20:00,0.243408,291.19,290.86,264.543,293.248,291.464,264.372,0.165771,0.293813,235.936,258.543
2015-07-19 21:00,0.544921,286.121,287.102,262.261,289.701,288.722,263.318,0.830491,1.10026,235.108,257.942
2015-07-19 22:00,-0.00562183,284.57,285.882,261.625,288.358,287.888,263.436,-0.0,-0.0,235.038,257.855
2015-07-19 23:00,-0.0918121,284.41,285.433,261.198,288.087,287.748,263.318,-0.0259124,-0.0505581,234.827,258.028
2015-07-20 00:00,-0.0764579,284.249,285.546,261.305,287.951,287.329,263.318,-0.0226579,-0.048243,235.525,258.372
2015-07-20 01:00,-0.00152017,284.249,285.658,261.412,288.087,287.469,263.67,-0.0,-0.0,235.799,258.798
2015-07-20 02:00,-0.00132581,284.249,285.658,261.412,287.951,287.609,263.787,-0.0,-0.0,236.004,259.22
2015-07-20 03:00,-0.0,283.594,285.321,260.876,287.679,287.469,263.2,-0.0,-0.0,235.178,259.554
2015-07-20 04:00,-0.0,284.087,285.321,260.984,287.543,286.767,263.083,-0.0,-0.0,234.827,259.051
2015-07-20 05:00,-0.00130894,284.888,285.77,261.519,288.087,287.609,263.553,-0.0,-0.0,235.662,259.22
2015-07-20 06:00,-0.0,283.76,285.095,260.661,287.27,287.048,263.083,-0.0,-0.0,235.936,259.721
2015-07-20 07:00,-0.00184083,283.428,284.982,260.445,287.27,287.048,263.2,-0.0,-0.0,235.867,259.804
2015-07-20 08:00,-0.0,283.093,284.528,260.445,286.997,286.907,262.965,-0.0,-0.0,234.968,259.471
2015-07-20 09:00,-0.00493192,283.594,284.869,260.553,287.134,286.767,263.318,-0.0,-0.0,235.799,259.721
2015-07-20 10:00,-0.193501,283.76,284.869,260.445,287.27,286.767,263.436,-0.49151,-0.520935,235.593,259.554
2015-07-20 11:00,0.505246,287.729,287.212,261.944,289.568,288.861,263.553,0.264823,0.534366,235.455,259.304
2015-07-20 12:00,0.442246,292.889,291.07,264.339,293.635,292.141,264.488,0.187224,0.45259,236.071,259.554
2015-07-20 13:00,0.367772,295.69,293.539,265.758,295.93,294.016,265.301,0.142038,0.366945,237.398,259.804
2015-07-20 14:00,0.300951,297.649,295.244,267.052,297.931,295.734,266.222,0.111576,0.303828,236.808,260.217
2015-07-20 15:00,0.264135,298.242,296.131,267.348,298.672,296.258,266.337,0.0911136,0.263368,238.357,261.194
2015-07-20 16:00,0.231863,298.045,296.033,267.348,298.549,296.127,266.108,0.0809985,0.235717,238.357,261.113
2015-07-20 17:00,0.223943,297.649,295.442,267.151,297.683,295.602,265.762,0.0755485,0.224317,238.357,261.275
2015-07-20 18:00,0.220422,296.531,294.346,266.557,296.809,294.415,265.069,0.0809909,0.233026,237.849,260.708
2015-07-20 19:00,0.239397,295.151,293.944,266.259,296.433,294.679,265.762,0.103762,0.253195,237.977,261.113
2015-07-20 20:00,0.267871,292.174,291.798,265.052,294.277,292.679,265.416,0.168993,0.296944,237.785,261.033
2015-07-20 21:00,0.579205,286.717,287.869,262.471,290.367,289.689,264.022,0.817353,1.07203,237.268,260.789
2015-07-20 22:00,-0.0056515,285.045,286.661,261.412,288.897,288.306,263.905,-0.0,-0.0,237.203,261.033
2015-07-20 23:00,-0.0864101,280.05,280.429,257.685,283.372,282.321,260.701,-0.0259612,-0.0534673,236.609,260.052
2015-07-21 00:00,-0.0918235,282.059,283.38,259.464,285.757,284.492,262.017,-0.0259156,-0.0482819,236.808,260.217
2015-07-21 01:00,-0.00152063,279.473,280.429,257.91,282.66,281.882,261.062,-0.0,-0.00153517,237.592,260.135
2015-07-21 02:00,-0.0,283.093,284.3,260.119,286.447,285.777,262.373,-0.0,-0.0,237.398,260.463
2015-07-21 03:00,-0.00124068,280.427,281.386,258.469,283.938,283.049,261.54,-0.0,-0.0,237.592,259.887
2015-07-21 04:00,-0.0,279.278,279.823,257.572,282.517,281.293,261.062,-0.0,0.00124731,237.268,258.798
2015-07-21 05:00,-0.00130866,276.376,276.718,255.393,279.17,278.458,259.127,-0.0,-0.0,237.268,257.682
2015-07-21 06:00,-0.0,283.261,284.528,260.445,286.997,286.626,263.083,-0.0,-0.0,237.137,258.628
2015-07-21 07:00,-0.00184098,283.261,285.321,260.876,287.679,287.748,264.372,-0.0,-0.0,236.542,259.638
2015-07-21 08:00,-0.0,275.707,276.718,256.089,0.0,279.061,259.249,-0.0,-0.0,236.341,258.028
2015-07-21 09:00,-0.00494329,282.581,284.185,259.902,286.585,286.06,262.61,-0.0,-0.0,236.94,259.051
2015-07-21 11:00,0.46041,285.97,285.095,260.553,287.27,286.343,262.61,0.268324,0.470848,237.333,259.051
2015-07-21 12:00,0.0,291.315,0.0,261.519,287.951,285.777,260.942,0.237627,0.432617,237.333,258.2
2015-07-21 14:00,0.557529,0.0,0.0,259.134,284.641,284.205,261.54,0.481079,0.530593,238.104,258.882
2015-07-21 15:00,0.421073,295.476,283.264,260.119,286.033,284.779,261.779,0.346886,0.410326,238.357,259.471
2015-07-21 16:00,0.33464,295.476,283.611,260.553,286.033,284.061,261.421,0.24775,0.324782,238.608,259.471
2015-07-21 17:00,0.341821,295.69,285.882,261.625,288.222,286.485,262.61,0.24069,0.329242,238.546,260.052
2015-07-21 18:00,0.470325,295.042,282.682,259.793,285.757,284.779,262.255,0.387698,0.455996,238.795,259.97
2015-07-21 20:00,0.922796,288.291,278.968,257.233,282.374,282.321,261.421,0.790158,0.894773,238.231,259.638
2015-07-21 21:00,0.519725,279.667,281.742,259.354,284.921,284.636,261.54,1.02678,1.13683,238.357,259.887
2015-07-21 22:00,-0.0,280.05,283.032,259.683,286.172,285.635,262.373,-0.0,-0.0,238.733,259.97
2015-07-21 23:00,-0.0977412,276.376,280.308,257.91,283.797,283.484,262.017,-0.0283739,-0.0507475,239.774,260.463
2015-07-22 00:00,-0.0746651,278.684,281.505,258.802,284.921,284.492,261.898,-0.0226939,-0.046387,239.774,260.789
2015-07-22 01:00,-0.0,278.279,281.624,258.691,284.781,284.636,262.136,-0.0,-0.0,240.134,261.515
2015-07-22 02:00,-0.0,278.075,281.386,258.58,284.361,284.349,262.61,-0.0,-0.0,240.782,261.595
2015-07-22 03:00,-0.0,280.05,282.214,259.024,284.641,284.492,262.847,-0.0,-0.0,241.246,261.914
2015-07-22 04:00,-0.0,280.239,281.86,258.913,284.22,284.205,262.61,-0.0,-0.0,241.476,262.23
2015-07-22 05:00,-0.0,279.859,281.505,258.691,283.938,284.205,262.847,-0.0,-0.0,242.099,262.388
2015-07-22 06:00,-0.0,277.026,280.429,258.58,283.797,283.773,262.373,-0.0,-0.0,242.433,262.545
2015-07-22 07:00,-0.0,276.811,280.187,258.022,283.514,283.773,262.492,-0.0,-0.0,242.155,262.388
2015-07-22 08:00,0.00261612,276.811,280.187,258.246,283.656,283.484,262.017,-0.0,-0.0,241.986,262.388
2015-07-22 09:00,-0.00991191,276.376,280.066,257.798,283.23,283.339,261.898,-0.0,-0.0,242.489,262.151
2015-07-22 10:00,-0.214272,276.594,279.823,257.91,283.088,283.194,262.255,-0.725696,-0.721069,241.189,261.675
2015-07-22 11:00,0.570441,285.512,280.669,258.134,283.797,283.773,261.66,0.513179,0.539901,241.189,261.435
2015-07-22 12:00,0.646273,291.19,279.702,257.572,283.23,283.049,262.017,0.605736,0.625139,240.43,261.275
2015-07-22 13:00,0.609032,296.427,279.945,257.91,283.372,283.484,262.136,0.546426,0.573864,241.073,261.515
2015-07-22 14:00,0.300934,293.007,289.165,263.411,291.029,288.722,263.787,0.131897,0.307385,241.189,261.435
2015-07-22 15:00,0.241521,293.816,291.174,264.747,292.989,0.0,263.67,0.0905819,0.261831,241.246,0.0
2015-07-22 17:00,0.208599,294.268,291.798,265.254,293.635,291.193,264.022,0.0765357,0.222878,240.134,260.952
2015-07-22 18:00,0.222945,294.156,290.335,265.052,292.47,289.826,263.318,0.0961316,0.239665,240.312,260.789
2015-07-22 19:00,0.234383,292.534,290.335,264.645,292.34,289.826,263.67,0.12194,0.262281,239.349,260.299
2015-07-22 20:00,0.263926,289.779,288.628,263.721,291.029,289.137,263.2,0.201557,0.318693,239.954,260.627
2015-07-22 21:00,0.392734,285.045,285.882,261.838,288.222,287.188,262.728,0.798065,0.951572,240.193,260.545
2015-07-22 22:00,-0.00571127,283.76,284.869,261.198,287.543,286.767,263.318,-0.0,-0.0,240.548,260.463
2015-07-22 23:00,-0.0811341,282.923,284.414,260.769,286.997,286.343,262.965,-0.0236883,-0.0508405,240.782,261.033
2015-07-23 00:00,-0.0766379,280.799,282.214,259.354,284.361,283.629,261.779,-0.0243334,-0.0502908,240.665,260.627
2015-07-23 01:00,-0.0,274.073,275.176,255.043,278.128,277.091,258.76,-0.0,-0.00153601,240.899,260.463
2015-07-23 02:00,-0.0026517,265.446,268.199,251.676,272.104,272.246,256.909,-0.0,-0.0,240.724,259.721
2015-07-23 03:00,0.0,0.0,0.0,0.0,0.0,0.0,0.0,-0.0,0.0,0.0,0.0
2015-07-23 04:00,-0.0,282.408,283.726,0.0,286.033,285.35,261.898,-0.0,-0.0,240.193,260.627
2015-07-23 05:00,-0.00130815,282.581,283.956,260.769,286.447,285.777,262.847,-0.0,0.00132066,240.193,260.708
2015-07-23 07:00,-0.0,281.165,282.331,259.574,284.781,0.0,261.54,-0.0,-0.0,240.074,0.0
2015-07-23 08:00,-0.0,282.581,283.956,260.553,286.31,285.777,262.492,-0.0,-0.0,240.014,260.627
2015-07-23 09:00,0.0,0.0,0.0,0.0,0.0,0.0,0.0,0.0,0.0,0.0,0.0
2015-07-23 10:00,-0.227913,281.705,0.0,260.337,286.033,285.777,262.847,-0.643244,-0.613577,239.954,260.381
2015-07-23 12:00,0.0,291.315,289.379,263.618,291.555,0.0,263.67,0.19517,0.426134,240.014,260.463
2015-07-23 13:00,0.36418,295.042,291.487,265.052,293.635,0.0,264.022,0.0,0.0,239.653,259.887
2015-07-23 14:00,0.298231,296.635,293.031,265.959,295.043,292.141,263.553,0.0,0.288611,0.0,0.0
2015-07-23 15:00,0.0,297.549,293.539,266.059,295.297,292.141,264.138,0.098516,0.251245,238.919,259.051
2015-07-23 18:00,0.0,0.0,282.331,259.574,283.656,282.028,260.701,0.24553,0.271995,237.785,257.246
2015-07-23 19:00,0.522811,0.0,273.466,0.0,276.315,275.085,257.034,0.466462,0.55051,237.977,256.539
2015-07-23 20:00,0.857851,282.923,266.738,250.051,270.169,270.148,255.153,0.852472,1.02682,237.592,256.36
2015-07-23 21:00,0.215547,285.665,286.105,261.625,288.493,287.188,262.492,0.608343,0.652821,237.849,258.372
2015-07-23 22:00,0.0,284.57,0.0,261.305,287.815,0.0,0.0,-0.0,-0.00579622,0.0,258.543
2015-07-23 23:00,-0.0700696,284.41,285.095,260.661,287.407,286.626,262.373,-0.021358,-0.0509324,238.733,258.457
2015-07-24 00:00,-0.0977853,279.278,279.702,257.91,282.517,280.998,259.614,-0.0259748,-0.0503279,239.288,258.457
2015-07-24 01:00,0.0,278.075,279.091,257.685,0.0,279.661,259.127,-0.0,0.0,0.0,258.2
2015-07-24 02:00,-0.0,283.428,284.869,260.984,287.407,286.626,262.728,-0.0,-0.0,239.043,259.051
2015-07-24 03:00,-0.00124015,283.261,284.414,260.661,287.134,286.626,262.728,-0.0,-0.0,238.857,258.967
2015-07-24 04:00,-0.00123475,0.0,0.0,0.0,0.0,0.0,0.0,-0.0,0.0,0.0,0.0
2015-07-24 05:00,-0.0,282.923,284.528,0.0,286.997,286.343,262.728,-0.0,-0.0,0.0,259.22
2015-07-24 06:00,0.0,283.093,284.185,260.337,286.722,286.06,0.0,-0.0,-0.0,238.294,258.628
2015-07-24 07:00,-0.0,0.0,0.0,259.793,286.172,285.635,262.136,-0.0,-0.0,238.546,0.0
2015-07-24 08:00,-0.0,281.526,282.916,259.464,285.479,284.779,261.779,-0.0,-0.0,237.849,257.333
2015-07-24 09:00,-0.0,280.613,281.86,259.134,284.501,0.0,0.0,-0.0,-0.0,237.463,256.45
2015-07-24 11:00,0.463139,286.421,284.755,0.0,287.134,285.493,260.942,0.277972,0.0,236.542,255.821
2015-07-24 12:00,0.444143,291.931,288.52,263.099,0.0,288.167,261.779,0.0,0.44237,236.408,255.548
2015-07-24 13:00,0.341678,294.156,289.699,263.618,291.555,288.722,262.017,0.150938,0.342802,237.463,255.821
2015-07-24 14:00,0.30079,296.738,292.417,265.254,294.533,291.193,262.61,0.116169,0.291235,238.357,256.805
2015-07-24 16:00,0.0,297.649,293.742,266.557,296.056,293.082,263.553,0.0840786,0.0,237.785,257.158
2015-07-24 17:00,0.222757,297.549,0.0,0.0,295.93,292.41,263.905,0.0877245,0.224886,237.721,257.07
2015-07-24 18:00,0.0,0.0,0.0,265.456,0.0,291.193,263.553,0.0,0.215124,237.463,256.894
2015-07-24 19:00,0.22102,294.602,291.591,265.355,293.892,291.057,263.318,0.127917,0.248553,237.398,256.45
2015-07-24 20:00,0.183565,291.065,289.272,0.0,291.423,289.276,263.2,0.215867,0.247093,237.137,256.181
2015-07-24 21:00,0.331036,0.0,0.0,0.0,0.0,0.0,261.062,0.672689,0.0,236.609,0.0
2015-07-25 01:00,0.0,0.0,0.0,0.0,276.468,0.0,0.0,0.0,0.0,237.463,255.821
2015-07-25 02:00,0.0,0.0,284.071,0.0,286.31,284.779,260.822,-0.0,-0.0,237.592,256.271
2015-07-25 03:00,0.0,0.0,283.956,260.011,0.0,0.0,261.779,-0.0,-0.0,237.913,256.45
2015-07-25 07:00,-0.00184271,282.408,283.032,259.464,284.641,283.773,261.182,-0.0,-0.0,237.463,0.0
2015-07-25 08:00,-0.0,0.0,0.0,0.0,0.0,0.0,0.0,0.0,0.0,0.0,0.0
2015-07-25 09:00,-0.00500205,0.0,0.0,0.0,270.495,269.821,254.646,-0.0,0.0,238.357,255.275
2015-07-25 11:00,0.0,287.01,275.951,255.393,0.0,276.784,258.023,0.522378,0.546468,237.913,255.821
2015-07-25 14:00,0.369924,0.0,0.0,260.228,286.722,282.904,260.098,0.0,0.0,0.0,0.0
2015-07-25 15:00,0.255327,295.902,290.86,264.031,292.34,288.999,262.965,0.103334,0.0,238.168,256.805
2015-07-25 20:00,0.0,0.0,282.096,259.024,284.501,0.0,259.249,0.497136,0.654079,0.0,255.639
2015-07-25 22:00,-0.00580167,0.0,276.845,0.0,278.873,277.396,257.777,-0.0,-0.0,0.0,254.999
2015-07-26 02:00,-0.0,278.279,0.0,0.0,282.231,280.257,259.127,-0.0,-0.0,235.593,253.974
2015-07-26 04:00,-0.0,0.0,276.08,0.0,278.725,277.091,257.53,-0.0,-0.0,0.0,0.0
2015-07-26 05:00,0.0,0.0,268.63,251.056,0.0,271.283,255.153,-0.0,-0.0,0.0,0.0
2015-07-26 07:00,0.0,264.009,265.394,248.9,268.69,0.0,0.0,0.0,0.0,0.0,0.0
2015-07-26 09:00,0.00502025,265.095,266.145,0.0,269.35,0.0,253.497,-0.0,-0.0,0.0,253.117
2015-07-26 10:00,0.0,0.0,0.0,0.0,268.358,268.505,253.368,0.0,0.0,0.0,254.629
2015-07-26 12:00,0.0,293.472,0.0,0.0,0.0,0.0,259.492,0.0,0.0,0.0,0.0
2015-07-26 14:00,0.0,0.0,272.796,0.0,0.0,0.0,254.773,0.0,0.453333,0.0,0.0
2015-07-26 16:00,0.222774,0.0,290.545,262.995,292.6,0.0,0.0,0.109131,0.0,0.0,260.545
2015-07-26 17:00,0.0,295.26,289.165,261.944,0.0,0.0,262.017,0.136496,0.0,242.655,261.113
2015-07-26 18:00,0.0,0.0,287.102,260.553,0.0,287.048,0.0,0.0,0.29765,244.687,261.113
2015-07-26 19:00,0.260527,294.713,292.108,263.099,294.021,0.0,263.553,0.13376,0.285402,246.208,262.779
2015-07-26 22:00,-0.0058319,282.234,0.0,0.0,0.0,283.629,260.822,0.0,0.0,0.0,262.701
2015-07-26 23:00,-0.087343,0.0,0.0,258.913,0.0,0.0,0.0,-0.0238559,0.0,0.0,0.0
2015-07-27 01:00,-0.0,0.0,0.0,259.134,0.0,0.0,0.0,-0.0,-0.0,247.665,0.0
2015-07-27 02:00,-0.0013257,284.087,285.433,0.0,287.679,0.0,263.083,-0.0,-0.0,0.0,0.0
2015-07-27 03:00,0.0,283.76,284.982,0.0,287.407,287.048,262.965,-0.0,0.00125143,0.0,263.629
2015-07-27 05:00,0.0,0.0,0.0,0.0,0.0,0.0,0.0,0.0,0.0,0.0,0.0
2015-07-27 06:00,-0.0,279.081,280.066,256.892,282.517,281.441,259.977,-0.0,-0.0,244.374,261.515
2015-07-27 08:00,0.00263016,282.581,283.38,258.58,285.757,284.636,261.779,-0.0,-0.0,243.256,261.595
2015-07-27 09:00,-0.0,280.613,281.267,257.685,283.797,282.613,260.701,-0.0,-0.0,243.526,261.194
2015-07-27 10:00,-0.541851,282.581,283.38,258.691,286.033,284.779,261.66,-0.917569,-1.09406,244.006,261.435
2015-07-27 13:00,0.348344,0.0,290.965,264.031,292.86,290.784,263.2,0.145694,0.349556,243.364,0.0
2015-07-27 16:00,0.223616,297.248,294.044,266.159,0.0,293.082,264.488,0.0805684,0.222552,242.82,0.0
2015-07-27 17:00,0.21021,296.84,293.539,265.959,295.677,292.545,264.138,0.0810334,0.217395,243.364,0.0
2015-07-27 19:00,0.22344,294.043,292.314,264.849,294.277,291.6,264.488,0.119117,0.25064,244.531,262.935
2015-07-27 21:00,0.429006,286.864,287.869,262.261,290.234,289.276,264.488,0.590262,0.703798,245.658,263.629
2015-07-27 22:00,-0.00586213,285.357,287.102,261.519,289.568,289.413,264.605,-0.0,-0.0,245.96,264.314
2015-07-27 23:00,-0.0620899,284.888,286.217,261.305,288.628,288.584,264.255,-0.0191169,-0.0427387,246.75,264.162
2015-07-28 00:00,-0.0845928,284.249,285.658,260.553,288.087,287.748,263.2,-0.0227896,-0.0485236,247.474,263.782
2015-07-28 01:00,-0.00152309,281.526,282.799,259.244,285.479,284.205,262.255,-0.0,-0.0,247.57,263.167
2015-07-28 03:00,0.0012394,271.261,273.199,254.099,276.62,275.085,257.158,-0.0,-0.0,247.474,261.275
2015-07-28 04:00,-0.0,273.831,275.176,255.043,278.427,276.323,257.653,-0.0,-0.0,248.184,261.914
2015-07-28 05:00,-0.0,276.811,277.601,256.778,280.493,277.853,258.882,-0.0,-0.0,248.51,262.466
2015-07-28 06:00,-0.00148517,270.713,271.574,253.14,274.623,273.359,257.158,-0.0,-0.0,248.557,261.595
2015-07-28 07:00,-0.0,278.482,279.091,257.572,281.51,279.661,259.492,-0.0,-0.0,248.603,262.466
2015-07-28 08:00,-0.0,266.797,269.201,251.552,272.741,272.246,256.66,-0.0,-0.0,248.417,261.194
2015-07-28 10:00,-0.741035,278.279,278.226,256.664,281.076,278.911,259.37,-1.25487,-1.37155,248.184,262.701
2015-07-28 11:00,0.409348,288.012,285.994,261.091,288.493,286.907,262.61,0.279201,0.407521,247.902,263.629
2015-07-28 12:00,0.778146,298.63,270.885,252.412,274.156,273.2,257.282,0.547395,0.691078,247.522,261.515
2015-07-28 13:00,0.359501,296.323,291.487,264.339,293.892,291.057,264.138,0.173431,0.356608,247.855,263.706
2015-07-28 14:00,0.314026,298.144,295.442,266.458,297.807,295.471,265.878,0.116049,0.296009,247.712,264.162
2015-07-28 15:00,0.271861,299.485,296.131,267.348,298.795,296.127,266.566,0.0955737,0.25199,247.712,264.238
2015-07-28 16:00,0.244987,299.391,296.425,267.446,298.795,296.127,266.566,0.0843102,0.226585,247.665,264.01
2015-07-28 17:00,0.226498,298.822,296.327,267.544,298.795,296.258,266.222,0.0836314,0.221786,248.137,264.238
2015-07-28 18:00,0.191672,297.146,295.442,266.756,297.807,295.602,265.878,0.0785819,0.203689,247.902,264.464
2015-07-28 19:00,0.16473,0.0,293.539,265.557,295.93,294.149,265.993,0.104608,0.199566,247.855,264.389
2015-07-28 20:00,0.272358,293.007,292.52,265.052,295.043,293.617,265.532,0.188677,0.309957,247.902,265.137
2015-07-28 21:00,0.403609,287.871,288.951,262.576,291.029,290.511,264.605,0.598036,0.713068,247.996,264.765
2015-07-28 22:00,0.0,286.121,287.322,261.519,289.701,289.137,264.138,-0.0,-0.0,247.855,264.54
2015-07-28 23:00,-0.0706735,285.202,286.772,261.305,289.166,288.584,264.022,-0.0215421,-0.0485174,247.76,264.086
2015-07-29 00:00,-0.0750263,285.202,286.105,260.661,288.358,287.748,263.553,-0.0228037,-0.0485536,247.996,263.629
2015-07-29 01:00,-0.00152334,284.249,285.321,260.445,287.543,286.343,263.083,-0.0,-0.0,248.137,263.476
2015-07-29 02:00,-0.00132556,284.41,285.77,260.661,287.951,287.469,263.553,-0.0,-0.0,247.949,264.162
2015-07-29 03:00,-0.0,284.087,285.095,260.119,287.27,286.06,263.083,-0.0,-0.0,247.807,263.706
2015-07-29 04:00,-0.0,282.408,283.38,259.354,285.895,284.349,262.136,-0.0,-0.0,247.665,263.244
2015-07-29 05:00,-0.0,284.888,286.105,261.198,288.087,287.329,263.2,-0.0,-0.0,247.76,263.858
2015-07-29 06:00,-0.00148542,285.202,286.328,261.091,288.628,287.888,263.67,-0.0,-0.0,247.855,264.162
2015-07-29 07:00,-0.0,285.512,286.328,260.876,288.628,287.748,263.905,-0.0,-0.0,247.949,264.162
2015-07-29 08:00,-0.0,285.97,287.651,261.305,289.701,289.276,264.255,-0.0,-0.0,247.996,264.765
2015-07-29 09:00,-0.0,285.97,287.322,261.198,289.3,288.722,264.372,-0.0,-0.0,247.996,264.989
2015-07-29 10:00,-0.579139,286.421,287.541,261.412,289.835,289.276,263.787,-1.34848,-1.46169,247.807,264.914
2015-07-29 11:00,0.501768,290.041,289.699,262.681,291.948,291.057,265.069,0.267319,0.495181,247.996,265.063
2015-07-29 12:00,0.454038,294.713,292.827,264.747,295.297,293.483,265.762,0.192216,0.443686,247.474,264.989
2015-07-29 13:00,0.36428,296.943,294.945,266.358,297.184,295.339,266.452,0.149811,0.359356,246.554,264.989
2015-07-29 14:00,0.30078,298.63,296.033,266.954,298.426,296.127,266.452,0.11709,0.296675,246.307,264.54
2015-07-29 16:00,0.231544,299.297,296.621,267.642,299.164,296.389,265.762,0.085354,0.225806,245.099,263.934
2015-07-29 17:00,0.222297,298.918,296.718,267.249,299.164,296.65,266.566,0.0804598,0.219282,244.739,264.389
2015-07-29 18:00,0.217049,298.144,295.837,266.954,298.178,295.865,265.993,0.0884845,0.225211,244.374,264.01
2015-07-29 19:00,0.254126,296.219,293.944,265.758,295.803,293.483,265.185,0.141132,0.262073,244.322,263.934
2015-07-29 20:00,0.255651,293.472,292.725,264.95,295.043,293.35,265.416,0.191483,0.302765,243.953,263.552
2015-07-29 21:00,0.428793,288.012,288.951,263.099,291.292,290.648,264.721,0.605097,0.769585,244.111,263.244
2015-07-29 22:00,-0.00592252,281.346,281.742,258.802,284.361,282.613,260.942,-0.0,-0.0,244.006,262.388
2015-07-29 23:00,-0.0934404,283.924,284.869,260.445,287.407,286.06,263.083,-0.026372,-0.0485961,243.364,262.623
2015-07-30 00:00,-0.0712212,285.818,286.882,261.625,289.032,288.584,264.138,-0.0211875,-0.0466391,243.147,263.012
2015-07-30 01:00,-0.0,285.357,285.994,260.769,288.358,287.188,263.083,-0.0,-0.00153813,243.093,262.701
2015-07-30 02:00,-0.00132548,267.444,269.908,252.168,273.843,273.832,257.034,-0.0,-0.0,242.82,260.463
2015-07-30 03:00,-0.0,281.346,280.789,258.246,283.656,281.735,260.461,-0.0,-0.0,243.202,261.755
2015-07-30 04:00,-0.0,279.859,280.909,258.134,283.088,282.175,261.301,-0.0,-0.0,243.633,262.23
2015-07-30 05:00,-0.00130724,285.357,286.772,261.198,288.897,288.167,263.787,-0.0,-0.0,243.953,263.322
2015-07-30 06:00,-0.0,283.76,284.982,260.337,287.27,286.06,262.492,-0.0,-0.0,243.74,262.701
2015-07-30 07:00,-0.0,283.76,284.414,259.902,286.86,286.06,262.847,-0.0,-0.0,243.364,263.012
2015-07-30 08:00,-0.0,285.665,286.55,260.984,288.493,287.748,263.083,-0.0,-0.0,243.526,263.322
2015-07-30 09:00,-0.0,274.551,275.823,255.16,279.022,277.701,258.638,-0.0,-0.0,243.418,261.675
2015-07-30 10:00,-1.23727,280.613,281.029,258.022,283.372,282.175,260.942,-1.94554,-2.31976,243.364,262.309
2015-07-30 12:00,0.445872,293.007,290.86,263.515,293.248,291.871,264.372,0.196114,0.444288,243.579,263.629
2015-07-30 13:00,0.356538,295.69,292.929,264.849,295.297,293.216,264.837,0.14743,0.364132,244.058,264.238
2015-07-30 14:00,0.29966,297.349,294.546,265.859,296.684,294.679,265.762,0.115196,0.299048,244.111,264.389
2015-07-30 15:00,0.254178,298.339,295.244,265.959,297.558,295.208,266.566,0.0949072,0.251826,244.374,264.314
2015-07-30 17:00,0.211352,297.947,295.837,266.855,298.302,295.996,266.222,0.0816018,0.2202,244.583,264.989
2015-07-30 18:00,0.216196,296.943,295.639,266.557,298.055,296.127,266.909,0.0881367,0.226347,244.687,265.063
2015-07-30 19:00,0.206692,295.151,294.746,265.758,297.06,295.471,266.337,0.105925,0.247107,244.687,265.212
2015-07-30 20:00,0.302638,293.587,292.108,264.645,294.405,292.545,265.416,0.235578,0.369594,245.099,265.286
2015-07-30 22:00,-0.0,285.512,287.102,261.519,289.3,288.999,264.372,-0.0,-0.00600952,245.202,264.989
2015-07-30 23:00,-0.0850808,284.888,286.661,260.984,288.628,288.584,264.022,-0.0240126,-0.0486733,245.658,265.286
2015-07-31 00:00,-0.0654838,284.73,286.328,260.876,288.493,288.584,264.255,-0.0211996,-0.0466658,245.91,265.212
2015-07-31 01:00,-0.0,284.249,286.217,260.661,288.222,288.027,264.372,-0.0,-0.0,246.258,265.507
2015-07-31 02:00,-0.00132539,283.924,285.994,260.769,287.951,288.167,264.605,-0.0,-0.0,246.009,265.655
2015-07-31 03:00,-0.0,283.924,286.105,260.876,288.087,288.167,264.721,-0.0,-0.0,245.859,265.655
2015-07-31 04:00,-0.0,283.594,285.882,260.553,287.815,287.748,264.488,-0.0,-0.0,245.405,265.36
2015-07-31 05:00,-0.0,283.924,285.546,260.119,287.679,287.888,264.488,-0.0,-0.0,245.355,265.434
2015-07-31 06:00,-0.0,283.594,285.546,260.337,287.679,287.888,264.255,-0.0,-0.00150032,245.405,265.948
2015-07-31 07:00,0.00369808,283.093,284.982,260.119,287.134,287.329,264.372,-0.0,-0.0,245.355,266.021
2015-07-31 08:00,-0.0,282.581,284.528,259.574,286.447,287.048,264.721,-0.0,-0.0,245.304,265.948
2015-07-31 09:00,-0.00513447,282.059,284.3,259.464,286.172,286.907,264.138,-0.0,-0.0,244.842,265.948
2015-07-31 10:00,-1.14965,282.581,284.414,259.464,286.31,286.485,264.255,-2.33618,-2.78554,244.374,265.875
2015-07-31 11:00,0.520708,288.152,288.412,261.838,290.5,290.238,265.301,0.262653,0.53687,244.531,265.875
2015-07-31 12:00,0.463632,294.602,293.031,264.441,295.424,294.282,266.452,0.197497,0.456435,244.322,265.728
2015-07-31 13:00,0.383907,297.549,295.442,266.059,297.807,296.258,267.137,0.148546,0.370907,244.479,265.728
2015-07-31 14:00,0.317394,298.918,296.815,267.052,299.409,297.818,267.592,0.119116,0.30484,244.374,0.0
2015-07-31 15:00,0.272145,299.672,297.783,267.348,300.263,298.591,268.045,0.0958994,0.260454,244.269,265.581
2015-07-31 16:00,0.242436,299.765,297.879,267.642,300.506,298.591,268.045,0.0847566,0.232121,244.322,265.507
2015-07-31 17:00,0.227432,298.918,297.397,267.151,299.898,297.947,267.705,0.0798792,0.224503,244.374,265.875
2015-07-31 18:00,0.231294,298.045,296.815,266.954,299.287,297.43,267.478,0.0844122,0.231492,244.322,265.728
2015-07-31 19:00,0.240905,296.114,295.442,265.959,297.931,296.519,267.137,0.110008,0.254139,244.79,266.021
2015-07-31 20:00,0.27626,293.24,293.336,264.645,295.803,294.679,266.909,0.184665,0.308259,244.531,265.875
2015-07-31 21:00,0.386171,287.871,289.272,262.471,291.686,291.464,265.416,0.54495,0.693089,244.426,265.728
2015-07-31 22:00,-0.0,286.121,287.978,261.731,290.101,290.238,265.416,-0.0,-0.0,244.374,265.581
2015-07-31 23:00,-0.0710108,285.818,287.76,261.412,289.968,290.101,264.837,-0.0216449,-0.0458814,244.479,265.728
