# timestamp,IR_016,IR_039,IR_087,IR_097,IR_108,IR_120,IR_134,VIS006,VIS008,WV_062,WV_073
2013-10-01 00:00,-0.0,218.393,210.707,220.517,209.394,208.026,208.096,-0.0,-0.0,209.023,210.353
2013-10-01 01:00,-0.00153225,222.276,213.479,221.17,212.219,210.576,211.146,-0.0,-0.0,211.303,212.8
2013-10-01 02:00,-0.0,222.276,213.921,221.6,212.219,210.219,211.358,-0.0,-0.0,211.47,212.505
2013-10-01 03:00,-0.0,225.382,219.247,224.102,218.478,216.972,215.474,-0.0,-0.0,215.167,217.164
2013-10-01 04:00,-0.0,222.276,223.94,225.897,223.758,222.462,220.115,-0.0,-0.0,218.137,222.096
2013-10-01 05:00,0.00146073,260.395,246.523,237.258,245.024,241.027,232.387,-0.0,-0.0,221.93,232.347
2013-10-01 06:00,-0.0,232.213,225.937,227.248,225.003,223.905,222.147,-0.0,-0.0,218.767,222.743
2013-10-01 07:00,-0.0,245.913,234.208,230.565,232.23,229.647,224.304,-0.0,0.00247726,219.624,226.57
2013-10-01 08:00,-0.00453615,251.944,237.841,232.834,236.695,233.722,226.574,-0.0,-0.0,220.801,227.694
2013-10-01 09:00,-0.172874,260.827,246.313,237.415,244.349,240.123,231.905,-0.292744,-0.349052,221.708,232.185
2013-10-01 10:00,0.425712,247.601,232.839,229.847,232.502,230.429,226.574,0.57672,0.666162,221.93,228.423
2013-10-01 11:00,0.513922,275.707,251.339,239.721,251.856,248.941,239.025,0.5306,0.611483,226.685,239.523
2013-10-01 12:00,0.336459,269.576,240.514,234.681,237.451,233.969,227.601,0.351094,0.414955,219.624,227.323
2013-10-01 13:00,0.426792,284.57,255.05,242.656,254.066,250.557,238.428,0.409795,0.463447,224.258,238.578
2013-10-01 14:00,0.30455,260.395,226.583,227.248,224.384,221.875,220.489,0.438585,0.497982,216.424,220.306
2013-10-01 15:00,0.281268,268.382,236.576,232.491,233.31,229.647,223.77,0.320343,0.376934,219.503,224.811
2013-10-01 16:00,0.35673,262.869,225.611,227.438,223.443,220.984,219.172,0.455221,0.510627,215.873,218.895
2013-10-01 17:00,0.376837,290.558,270.746,251.922,270.657,267.171,249.971,0.377187,0.411553,227.78,244.294
2013-10-01 18:00,0.453673,280.427,238.83,234.017,234.633,229.121,222.329,0.452413,0.519078,218.264,225.408
2013-10-01 19:00,0.524119,296.84,271.437,252.412,270.657,265.138,247.687,0.509659,0.5661,227.51,243.937
2013-10-01 20:00,0.688072,299.203,286.772,261.731,287.951,284.061,260.098,0.789206,0.827926,232.02,251.352
2013-10-01 21:00,1.4454,289.91,279.213,257.12,279.907,275.551,254.392,0.935858,1.35192,229.433,247.481
2013-10-01 22:00,-0.0126567,279.473,271.299,252.045,271.303,267.84,249.171,-0.0,-0.00638885,229.769,245.918
2013-10-01 23:00,-0.085413,285.97,277.852,255.742,279.022,275.706,253.625,-0.0626765,-0.0661093,231.394,249.093
2013-10-02 00:00,-0.0,272.322,264.788,248.252,264.965,262.185,247.415,-0.0,-0.0,229.348,245.46
2013-10-02 01:00,-0.0,251.944,238.338,233.005,235.672,233.722,228.278,-0.0,-0.0,221.708,228.782
2013-10-02 02:00,-0.00135547,287.01,285.433,260.984,287.543,285.493,260.942,-0.0,-0.00136843,230.674,252.537
2013-10-02 03:00,-0.0012943,276.376,267.909,249.924,267.354,263.759,247.279,-0.0,-0.0,228.488,243.457
2013-10-02 04:00,-0.0,279.278,272.662,252.777,272.899,269.984,250.236,-0.0,-0.0,228.748,245.918
2013-10-02 05:00,-0.0014656,278.684,272.256,252.656,272.741,269.821,251.028,-0.0,-0.0,228.835,245.114
2013-10-02 06:00,0.00177527,249.156,246.523,238.04,246.575,245.186,237.827,-0.0,-0.0,226.963,236.325
2013-10-02 07:00,-0.00247059,259.045,252.479,241.5,252.465,250.357,239.913,-0.0,-0.0,226.499,237.748
2013-10-02 08:00,0.00459728,280.427,273.732,253.86,273.372,269.657,250.236,-0.0,-0.0,226.963,243.818
2013-10-02 09:00,-0.209334,274.314,266.886,250.429,267.185,261.654,244.652,-0.295405,-0.281781,228.048,243.093
2013-10-02 10:00,0.523679,282.753,271.023,252.045,271.625,267.171,248.364,0.421228,0.518112,227.691,243.698
2013-10-02 11:00,0.582798,282.581,252.101,241.936,248.946,243.896,233.661,0.508875,0.590996,223.642,236.614
2013-10-02 12:00,0.517481,287.444,249.185,239.871,247.012,241.921,232.387,0.459598,0.542521,223.538,235.887
2013-10-02 13:00,0.429535,289.113,249.978,240.469,248.307,243.896,233.503,0.371109,0.432166,224.86,238.027
2013-10-02 14:00,0.509909,280.427,246.733,237.884,247.446,246.035,237.827,0.583342,0.648392,226.963,239.656
2013-10-02 15:00,0.485355,280.799,248.985,239.721,249.789,248.327,239.765,0.691572,0.758176,227.42,241.475
2013-10-02 16:00,0.386423,288.568,253.04,242.081,254.854,253.703,244.09,0.65652,0.709653,230.996,244.53
2013-10-02 17:00,0.350881,259.045,203.247,218.041,201.728,200.845,206.286,0.770542,0.873593,203.429,203.524
2013-10-02 18:00,0.254869,296.114,283.495,260.228,283.514,277.243,254.137,0.224316,0.260691,229.935,249.198
2013-10-02 19:00,0.299123,295.69,285.994,261.091,287.407,283.194,260.219,0.3016,0.325034,232.557,252.047
2013-10-02 20:00,0.422579,297.248,280.669,258.246,282.803,279.361,258.638,0.445558,0.466865,233.823,252.146
2013-10-02 21:00,0.209086,285.665,283.495,260.011,285.479,282.321,260.581,0.371769,0.358844,230.996,251.152
2013-10-02 22:00,-0.0,278.279,275.046,254.926,276.315,272.246,254.392,-0.0,-0.0,232.251,250.238
2013-10-02 23:00,-0.0913257,273.831,270.329,251.922,272.899,270.96,255.153,-0.070076,-0.0749114,231.63,250.442
2013-10-03 00:00,-0.0,253.81,255.941,243.368,257.928,256.555,246.319,-0.0,-0.0,230.593,246.258
2013-10-03 01:00,-0.0,256.062,256.118,243.93,257.928,256.742,246.869,-0.0,-0.00155243,230.593,245.918
2013-10-03 02:00,-0.0,252.585,254.871,242.656,256.98,256.555,247.142,-0.0,-0.0013711,231.943,247.481
2013-10-03 03:00,-0.0,253.81,255.409,243.226,257.55,257.301,247.415,-0.0,-0.0,232.328,247.699
2013-10-03 04:00,-0.00133033,253.206,254.871,243.084,257.17,257.115,247.415,-0.0,-0.0,232.097,247.699
2013-10-03 05:00,-0.00147056,250.598,251.147,241.354,252.465,250.357,240.793,-0.0,-0.0,227.691,242.848
2013-10-03 06:00,-0.00178337,274.073,270.468,252.168,272.104,269.494,252.205,-0.0,-0.0,229.263,249.617
2013-10-03 07:00,-0.0,280.05,275.436,254.926,276.01,272.724,252.982,-0.0,-0.0,228.662,248.455
2013-10-03 08:00,-0.0,280.799,275.176,254.69,276.01,272.883,252.982,-0.0,-0.0,227.959,246.371
2013-10-03 09:00,-0.970872,261.666,256.118,244.21,257.17,255.045,243.667,-0.971497,-1.24747,228.575,244.881
2013-10-03 10:00,0.6857,280.427,257.339,243.79,258.304,256.555,245.767,0.619869,0.733895,231.156,246.258
2013-10-03 11:00,0.725561,289.779,253.226,241.207,254.657,253.51,244.231,0.682104,0.789845,229.263,244.647
2013-10-03 12:00,0.554487,294.491,258.871,245.314,258.678,255.045,243.099,0.451192,0.532525,228.312,244.764
2013-10-03 13:00,0.518159,289.113,255.587,243.084,256.98,255.235,244.932,0.532385,0.63038,229.769,244.998
2013-10-03 14:00,0.296225,299.95,280.669,257.685,279.76,272.246,252.335,0.166479,0.242902,230.835,248.455
2013-10-03 15:00,0.267442,303.098,292.005,264.543,292.47,287.329,260.822,0.117415,0.201249,232.557,251.949
2013-10-03 16:00,0.319608,302.341,276.463,255.858,277.828,273.99,256.035,0.184703,0.254802,233.382,252.731
2013-10-03 17:00,0.32086,304.478,280.066,257.91,280.493,275.706,256.909,0.187808,0.2521,233.382,252.146
2013-10-03 18:00,0.594031,300.858,264.482,248.382,266.508,264.795,251.814,0.481713,0.569301,233.159,251.252
2013-10-03 19:00,0.437388,303.51,286.55,260.876,287.951,282.758,259.249,0.343332,0.416271,232.86,253.117
2013-10-03 20:00,0.810434,300.769,279.213,257.12,280.347,276.784,256.909,0.696284,0.774063,231.787,251.85
2013-10-03 21:00,1.06935,284.249,276.971,255.858,278.576,275.706,257.282,0.783533,1.01729,233.159,252.731
2013-10-03 22:00,-0.0,287.444,282.096,257.91,282.66,279.211,256.66,-0.0,-0.0,230.593,250.442
2013-10-03 23:00,-0.0915544,289.514,284.642,260.119,285.895,282.467,258.515,-0.0678291,-0.075099,233.159,251.152
2013-10-04 00:00,0.00193153,277.026,271.023,252.534,270.981,266.498,249.838,-0.0,-0.0,232.175,248.987
2013-10-04 01:00,-0.00154063,277.24,272.391,252.777,274.312,270.148,252.075,-0.0,-0.0,232.481,250.238
2013-10-04 02:00,-0.0,249.89,243.94,237.572,243.438,240.123,233.185,-0.0,-0.0,226.311,237.888
2013-10-04 03:00,0.00130015,239.711,232.28,230.921,231.408,228.324,223.592,-0.0,-0.0,219.982,228.423
2013-10-04 04:00,0.00133395,244.063,236.576,233.005,235.672,232.976,228.109,-0.0,-0.0,221.145,230.863
2013-10-04 05:00,0.00147559,244.063,235.8,232.146,234.633,232.725,226.574,-0.0,-0.0,220.454,229.137
2013-10-04 06:00,-0.0,240.898,231.427,230.565,228.583,224.19,219.739,-0.0,0.0018087,217.881,226.187
2013-10-04 07:00,-0.0,253.206,253.226,241.354,253.469,252.341,243.099,-0.0,-0.0,229.685,244.412
2013-10-04 08:00,0.00472384,256.062,248.583,238.963,247.662,244.758,234.76,-0.0,-0.0,224.258,237.468
2013-10-04 09:00,-0.718359,235.601,227.533,227.817,226.82,224.474,221.046,-1.01372,-1.20871,220.57,224.61
2013-10-04 10:00,0.502702,258.096,215.218,222.449,214.517,214.03,214.265,0.941561,1.08166,212.126,213.668
2013-10-04 11:00,0.384437,254.966,228.155,228.192,227.414,225.318,222.692,0.579393,0.657202,219.744,226.379
2013-10-04 12:00,0.653869,287.01,256.819,244.07,258.491,257.671,246.732,0.809968,0.895231,229.769,246.929
2013-10-04 13:00,0.394437,260.395,234.745,231.625,234.371,232.976,228.782,0.638471,0.682224,222.368,228.782
2013-10-04 14:00,0.254078,250.598,222.904,226.092,223.125,222.169,220.302,0.584229,0.644522,219.014,222.096
2013-10-04 15:00,0.229724,249.89,223.597,225.701,223.125,221.875,220.675,0.70169,0.76434,218.891,222.096
2013-10-04 16:00,0.297394,256.589,218.082,223.489,218.13,216.972,216.859,0.70612,0.781894,216.15,217.669
2013-10-04 17:00,0.430194,267.761,243.94,236.146,245.024,243.461,235.846,0.71788,0.788498,227.691,239.789
2013-10-04 18:00,0.586145,290.685,246.102,238.04,247.662,245.824,238.727,0.664545,0.729991,228.136,239.39
2013-10-04 19:00,0.618195,270.151,233.938,230.921,231.957,230.688,226.402,0.76397,0.862733,219.863,226.948
2013-10-04 20:00,0.918437,270.989,247.769,238.04,247.662,246.457,238.428,1.09942,1.27492,226.963,238.165
2013-10-04 21:00,2.48744,275.48,257.339,243.226,257.928,255.235,242.384,1.54106,2.26622,229.093,243.336
2013-10-04 22:00,-0.00642602,264.377,266.293,249.158,270.006,268.173,253.625,-0.0,-0.0,230.593,248.669
2013-10-04 23:00,-0.0917936,273.088,267.326,249.924,270.006,268.339,253.497,-0.0680063,-0.0723993,231.865,249.408
2013-10-05 00:00,-0.0,263.636,262.141,246.667,264.792,263.063,250.501,-0.0,-0.0,231.865,248.241
2013-10-05 01:00,-0.00154364,256.589,257.339,243.368,259.236,259.139,248.499,-0.0,-0.0,233.603,248.775
2013-10-05 02:00,0.00136365,253.81,252.666,241.646,254.657,252.927,242.671,-0.0,-0.0,231.236,244.764
2013-10-05 03:00,-0.0,252.585,253.963,241.354,256.213,255.803,246.182,-0.0,-0.0,232.557,247.04
2013-10-05 04:00,-0.00133764,251.944,253.226,241.207,255.827,255.425,246.182,-0.0,-0.0,234.113,247.261
2013-10-05 05:00,-0.0,261.666,260.854,246.13,264.27,262.888,250.104,-0.0,-0.0,236.274,250.442
2013-10-05 06:00,-0.0,253.206,254.69,242.225,257.17,257.115,247.006,-0.0,0.00181707,236.004,248.455
2013-10-05 07:00,-0.0,279.278,279.336,256.664,281.943,279.661,258.392,-0.0,-0.0,235.799,252.342
2013-10-05 08:00,-0.00478928,275.932,277.852,255.974,281.076,279.511,259.492,-0.0,-0.0,236.071,253.405
2013-10-05 09:00,-1.29625,276.376,275.951,254.926,278.427,276.169,256.535,-2.35185,-2.05643,234.615,251.552
2013-10-05 10:00,0.68543,279.278,260.365,245.723,261.069,255.992,241.519,0.68202,0.737441,227.691,242.478
2013-10-05 11:00,0.615721,283.428,261.662,245.995,262.685,260.225,245.211,0.65274,0.675548,228.312,242.602
2013-10-05 12:00,0.625759,301.74,274.261,254.099,277.377,276.169,257.53,0.584171,0.608343,234.257,251.452
2013-10-05 13:00,0.554845,297.749,274.785,254.69,277.978,277.091,258.76,0.541967,0.574736,234.897,252.634
2013-10-05 14:00,0.316358,287.3,267.618,249.542,266.847,262.185,244.231,0.244993,0.303802,227.238,240.964
2013-10-05 15:00,0.27968,296.114,283.495,259.464,284.079,279.81,256.41,0.166911,0.237575,233.677,250.544
2013-10-05 16:00,0.281603,295.476,285.658,260.337,287.679,284.779,262.136,0.215979,0.272821,235.247,254.256
2013-10-05 17:00,0.298729,297.349,285.546,260.769,287.543,284.922,261.182,0.215287,0.270725,234.543,253.309
2013-10-05 18:00,0.378313,284.41,265.846,247.991,265.826,262.888,246.044,0.393693,0.467737,229.769,242.971
2013-10-05 19:00,0.285707,294.043,285.882,260.553,287.134,284.349,260.34,0.226549,0.279282,232.709,253.5
2013-10-05 20:00,0.224852,292.174,289.593,262.681,291.555,288.999,263.787,0.263863,0.266827,235.662,257.158
2013-10-05 21:00,0.497114,289.514,287.541,261.412,289.835,287.888,263.318,0.707122,0.762837,234.615,256.894
2013-10-05 22:00,-0.0,286.421,286.328,261.091,288.763,287.188,262.847,-0.0,-0.0,233.53,257.07
2013-10-05 23:00,-0.0920437,287.3,286.328,260.984,288.628,287.469,263.436,-0.0681916,-0.0696927,235.038,257.421
2013-10-06 00:00,-0.0,285.512,285.994,260.769,288.493,287.609,264.138,-0.0,-0.0,234.185,257.508
2013-10-06 01:00,-0.00154677,284.888,285.77,260.337,288.358,287.469,263.787,-0.0,-0.0,235.867,258.543
2013-10-06 02:00,-0.0,284.249,285.095,260.011,287.543,286.907,263.67,-0.0,-0.0,234.257,257.942
2013-10-06 03:00,-0.00130628,283.924,284.869,260.228,287.27,286.485,263.083,-0.0,-0.0,233.677,257.855
2013-10-06 04:00,-0.0,283.261,283.726,259.464,286.033,285.208,262.373,-0.0,-0.0,234.543,257.508
2013-10-06 05:00,-0.0,283.261,283.956,259.574,286.722,286.06,263.083,-0.0,-0.0,236.207,258.028
2013-10-06 06:00,-0.0,282.753,283.611,259.024,286.033,285.493,263.318,-0.0,-0.0,236.139,257.333
2013-10-06 07:00,-0.0,282.408,283.264,259.024,285.618,285.065,262.728,-0.0,-0.0,236.274,256.894
2013-10-06 08:00,-0.0,281.705,282.799,258.58,285.201,284.492,262.255,-0.0,-0.0,237.657,256.181
2013-10-06 09:00,-2.8277,281.883,282.331,258.802,284.781,283.917,261.779,-4.10436,-4.07819,238.919,255.911
2013-10-06 10:00,0.438905,287.01,285.321,260.337,287.679,285.777,262.136,0.242179,0.398293,239.043,255.275
2013-10-06 11:00,0.487563,294.156,289.165,262.786,291.292,289.276,263.318,0.20534,0.380007,238.168,254.907
2013-10-06 12:00,0.413432,298.436,290.965,264.031,293.119,289.413,262.847,0.174275,0.309904,236.808,253.974
2013-10-06 13:00,0.332597,301.037,294.746,266.059,297.184,293.75,264.488,0.126785,0.242747,235.525,253.213
2013-10-06 14:00,0.27571,302.426,295.935,267.151,298.426,294.415,264.605,0.103149,0.201963,233.968,252.731
2013-10-06 15:00,0.24214,302.932,296.621,267.544,299.164,295.208,264.721,0.0884602,0.177447,233.382,251.85
2013-10-06 16:00,0.216744,302.426,296.327,267.151,298.795,294.679,264.372,0.0821557,0.161568,233.308,251.751
2013-10-06 17:00,0.221874,297.749,287.76,261.519,287.951,283.629,259.127,0.115064,0.187596,233.234,250.442
2013-10-06 18:00,0.204582,299.391,294.245,265.859,296.684,293.082,263.905,0.111255,0.176313,234.897,252.537
2013-10-06 19:00,0.217179,296.738,292.622,264.645,295.17,292.141,264.138,0.178139,0.223823,235.317,252.537
2013-10-06 20:00,0.259426,293.93,290.756,263.515,293.377,290.784,263.67,0.346123,0.341271,235.731,253.117
2013-10-06 21:00,0.488721,289.91,287.76,261.731,290.234,288.306,262.61,0.744839,0.789429,235.936,253.117
2013-10-06 22:00,-0.00649905,287.01,286.105,260.445,288.493,286.485,262.017,-0.0,-0.0,235.867,252.925
2013-10-06 23:00,-0.098074,287.587,285.321,260.553,288.087,285.777,261.779,-0.0683852,-0.0669784,235.731,251.949
2013-10-07 00:00,-0.00194392,274.314,273.599,253.621,275.703,272.883,255.28,-0.0,-0.0,233.968,250.238
2013-10-07 01:00,-0.0,283.093,282.096,258.358,283.938,281.293,259.005,-0.0,-0.0,234.257,251.352
2013-10-07 02:00,0.00136953,282.408,280.789,258.022,283.088,279.959,258.638,-0.0,-0.0,235.593,251.552
2013-10-07 03:00,-0.0,280.05,278.845,257.006,280.785,277.853,257.653,-0.0,-0.0,235.867,251.751
2013-10-07 04:00,-0.0,276.155,273.599,253.501,275.703,272.565,254.519,-0.0,-0.0,235.108,251.352
2013-10-07 05:00,0.00149113,253.81,251.912,240.469,252.868,251.75,243.667,-0.0,-0.0,234.401,243.937
2013-10-07 06:00,0.00181675,249.89,249.978,239.57,251.856,250.957,243.099,-0.0,-0.0,233.677,243.937
2013-10-07 07:00,-0.00255784,251.282,253.04,241.207,255.049,254.664,244.932,-0.0,-0.0,234.257,245.114
2013-10-07 08:00,-0.0,247.601,248.583,238.503,250.207,249.55,241.664,-0.0,-0.0,233.603,242.354
2013-10-07 09:00,4.76459,253.81,253.963,241.936,255.827,254.855,245.489,24.205,21.6456,235.867,247.151
2013-10-07 10:00,0.680794,279.473,257.511,243.79,259.236,258.408,247.823,0.77406,0.878765,236.609,247.917
2013-10-07 11:00,0.531844,292.771,278.968,256.549,280.054,276.015,256.41,0.278258,0.422957,237.657,251.652
2013-10-07 12:00,0.438021,297.947,284.528,260.337,286.447,282.904,259.614,0.210858,0.342355,237.977,253.785
2013-10-07 13:00,0.426152,301.653,278.101,256.549,280.785,277.548,257.653,0.264846,0.357797,237.977,253.88
2013-10-07 14:00,0.274949,301.214,293.742,265.557,295.043,290.648,263.083,0.102865,0.205278,238.795,255.457
2013-10-07 15:00,0.252613,300.317,283.495,259.902,284.921,280.998,259.127,0.124595,0.196842,239.227,255.457
2013-10-07 16:00,0.211268,301.913,295.244,266.756,296.684,292.141,263.553,0.0787925,0.159966,236.808,254.999
2013-10-07 17:00,0.204838,300.947,294.646,266.657,296.182,291.735,263.2,0.0820307,0.157892,236.475,253.974
2013-10-07 18:00,0.202521,299.013,293.438,265.254,294.788,290.511,262.847,0.101198,0.170939,236.341,253.5
2013-10-07 19:00,0.225707,297.248,291.798,264.747,293.635,289.826,262.492,0.150973,0.209635,236.071,253.595
2013-10-07 20:00,0.25849,293.816,290.123,263.928,291.948,288.999,262.847,0.268605,0.288639,235.799,253.785
2013-10-07 21:00,0.65334,291.19,287.102,261.944,288.897,285.635,261.421,0.699613,0.756584,234.543,252.634
2013-10-07 22:00,-0.00653817,287.155,285.882,260.984,287.679,284.779,261.062,-0.0,-0.0,234.113,252.537
2013-10-07 23:00,-0.130187,287.871,285.546,260.984,287.407,284.636,260.942,-0.0685872,-0.0613349,235.455,253.785
2013-10-08 00:00,-0.0019484,278.684,274.916,254.336,276.923,273.675,255.28,-0.0,-0.0,235.867,253.309
2013-10-08 01:00,-0.00155334,285.818,285.095,260.553,286.997,284.779,261.54,-0.0,-0.0,235.525,254.536
2013-10-08 02:00,-0.0,269.283,267.764,249.924,270.332,269.0,253.368,-0.0,-0.0,234.756,252.634
2013-10-08 03:00,-0.0,274.551,270.049,252.29,271.945,268.007,252.464,-0.0,-0.0,235.178,252.146
2013-10-08 04:00,-0.00134912,256.062,258.195,244.765,260.706,260.225,249.572,-0.0,-0.0,234.185,250.135
2013-10-08 05:00,-0.0,255.521,257.511,244.07,259.606,259.502,249.305,-0.0,-0.0,233.382,249.093
2013-10-08 06:00,-0.0,254.966,256.294,242.656,257.928,257.301,247.006,-0.0,-0.0,233.603,248.348
2013-10-08 07:00,-0.0,254.396,254.871,242.225,256.021,255.614,246.457,-0.0,-0.0,233.01,246.371
2013-10-08 08:00,-0.0,254.966,256.118,243.226,256.789,257.115,247.142,-0.0,-0.0,232.633,246.032
2013-10-08 09:00,0.304537,266.797,267.764,249.286,269.842,268.835,254.392,2.57851,2.15214,233.823,253.021
2013-10-08 10:00,0.441317,270.434,261.982,246.13,263.393,263.063,250.633,0.974771,1.12837,233.823,250.238
2013-10-08 11:00,0.829732,295.583,267.909,250.177,270.657,269.821,254.646,0.751056,0.827602,234.329,252.537
2013-10-08 12:00,0.249674,263.255,255.409,242.656,256.789,256.18,247.006,0.902164,0.963864,233.823,247.59
2013-10-08 13:00,0.237385,273.831,252.479,241.207,253.867,253.51,244.512,0.742222,0.804141,233.677,245.918
2013-10-08 14:00,0.201512,256.589,249.978,239.419,250.415,249.955,241.953,0.795865,0.839504,232.328,243.937
2013-10-08 15:00,0.184748,251.282,240.984,234.35,241.107,240.802,235.227,0.750013,0.809049,229.007,235.887
2013-10-08 16:00,0.229668,266.466,237.086,233.175,236.441,235.435,230.931,0.665201,0.715864,226.122,232.347
2013-10-08 17:00,0.265233,265.446,253.963,241.791,254.657,253.703,244.652,0.773138,0.839567,235.178,247.481
2013-10-08 18:00,0.351238,299.485,279.336,257.006,281.655,279.061,258.515,0.263726,0.352923,240.371,257.508
2013-10-08 19:00,0.207172,291.931,287.212,261.305,288.763,285.919,261.66,0.167785,0.225066,240.43,258.286
2013-10-08 20:00,0.362909,291.563,285.994,260.876,287.815,285.635,262.136,0.413003,0.429411,242.378,259.135
2013-10-08 21:00,0.982058,287.3,0.0,260.445,287.407,285.635,261.779,0.831507,0.991447,242.984,260.952
2013-10-08 22:00,-0.00657914,285.512,285.321,260.445,287.407,285.919,262.373,-0.0,-0.0,242.765,260.708
2013-10-08 23:00,-0.0957641,283.924,284.185,259.902,286.585,285.35,262.255,-0.0663409,-0.0585937,242.875,261.113
2013-10-09 00:00,0.00195305,285.045,285.546,260.445,287.679,286.485,263.436,-0.0,-0.0,242.82,261.515
2013-10-09 01:00,-0.0015568,284.41,285.321,260.228,287.679,286.485,263.553,-0.0,-0.0,243.364,261.755
2013-10-09 02:00,-0.00137574,284.249,285.208,260.337,287.815,286.767,263.436,-0.0,-0.0,243.793,262.388
2013-10-09 03:00,-0.0,284.249,285.095,260.337,287.27,286.485,263.436,-0.0,-0.00132859,243.793,262.072
2013-10-09 04:00,-0.0,283.594,284.982,260.445,287.134,286.343,263.318,-0.0,-0.0,243.526,262.23
2013-10-09 05:00,-0.0,283.76,285.095,260.553,287.407,286.767,264.022,-0.0,-0.0,244.111,263.09
2013-10-09 06:00,-0.0,283.594,285.208,260.119,287.407,287.048,264.022,-0.0,-0.0,244.531,263.399
2013-10-09 07:00,-0.0,283.093,284.982,260.228,287.407,287.188,263.67,-0.0,-0.00261893,244.006,263.934
2013-10-09 08:00,-0.0,283.093,284.642,260.011,286.997,286.907,264.138,-0.0,-0.0,243.526,264.086
2013-10-09 09:00,1.47195,281.883,283.841,259.793,286.585,286.626,263.67,2.35412,2.14648,242.433,264.01
2013-10-09 10:00,0.444969,288.291,286.55,261.519,289.032,288.306,264.721,0.28457,0.434886,242.765,264.314
2013-10-09 12:00,0.530414,303.346,284.982,260.337,287.951,287.329,264.138,0.354241,0.445354,241.986,263.552
2013-10-09 13:00,0.592941,302.848,280.909,258.134,284.641,284.922,263.436,0.54066,0.585658,241.476,263.552
2013-10-09 14:00,0.450302,302.848,283.38,259.793,286.86,286.343,263.905,0.325265,0.391681,240.193,263.167
2013-10-09 15:00,0.283221,301.214,291.383,264.339,293.635,291.329,265.069,0.143675,0.229236,240.253,263.399
2013-10-09 16:00,0.271803,300.589,291.279,264.441,293.248,291.193,264.721,0.150595,0.231408,240.371,263.167
2013-10-09 17:00,0.238542,300.317,293.641,265.658,295.677,293.216,265.532,0.112078,0.199061,240.312,263.167
2013-10-09 18:00,0.284419,298.436,290.86,264.031,293.119,290.921,264.488,0.180613,0.262097,239.41,262.545
2013-10-09 19:00,0.305548,297.749,291.591,264.236,293.635,291.6,264.721,0.192128,0.281251,238.671,262.779
2013-10-09 20:00,0.334357,295.368,291.174,263.928,293.377,291.735,265.301,0.26664,0.341478,240.014,263.012
2013-10-09 21:00,0.278376,290.301,290.545,263.825,292.86,291.464,265.069,0.455688,0.44966,239.653,263.322
2013-10-09 22:00,-0.0,287.729,289.272,262.681,291.423,290.784,265.185,-0.0,-0.0,240.134,263.244
2013-10-09 23:00,-0.0669578,288.152,288.52,262.366,290.764,290.238,265.069,-0.0813422,-0.0529027,240.193,263.244
2013-10-10 00:00,-0.0,286.421,288.303,262.155,290.367,289.964,265.069,-0.0,-0.0,240.074,263.012
2013-10-10 01:00,-0.0,286.569,287.869,262.049,290.234,289.689,265.069,-0.0,-0.0,240.014,263.167
2013-10-10 02:00,-0.0,286.121,287.541,262.155,289.835,289.551,264.837,-0.0,-0.00139215,239.166,263.167
2013-10-10 03:00,-0.0,285.818,287.432,261.944,289.701,289.413,265.069,-0.0,-0.0,238.795,263.629
2013-10-10 04:00,-0.0,285.357,287.432,261.731,289.568,289.276,265.301,-0.0,-0.0,238.294,263.629
2013-10-10 05:00,0.00150727,285.202,286.992,261.519,289.3,289.137,264.953,-0.0,-0.0,238.857,263.706
2013-10-10 06:00,-0.0,284.41,286.55,261.412,289.032,288.999,264.953,-0.0,-0.0,238.857,263.322
2013-10-10 07:00,-0.0,284.41,286.55,261.091,288.763,288.722,265.069,-0.0,-0.0,238.795,263.244
2013-10-10 08:00,-0.0,284.249,285.882,261.091,288.358,288.167,264.372,-0.0,-0.0,237.137,262.935
2013-10-10 09:00,1.01012,284.087,285.994,260.769,288.358,288.584,264.488,1.42544,1.58632,237.977,263.244
2013-10-10 10:00,0.486003,288.568,288.303,262.261,290.632,290.238,265.069,0.237403,0.448189,237.528,263.012
2013-10-10 11:00,0.425446,290.939,285.095,260.445,286.172,283.773,260.219,0.20614,0.384824,232.481,257.942
2013-10-10 12:00,0.404386,298.436,294.646,266.458,296.935,295.471,267.023,0.154962,0.336104,235.662,262.466
2013-10-10 13:00,0.323938,300.498,297.107,267.544,299.531,297.689,267.705,0.119094,0.265357,235.455,262.23
2013-10-10 14:00,0.274057,300.317,294.446,265.658,296.056,293.35,264.605,0.104205,0.22416,233.234,259.304
2013-10-10 15:00,0.237538,301.826,297.01,267.348,299.287,296.389,265.993,0.0835433,0.193077,234.113,260.135
2013-10-10 16:00,0.210023,299.579,293.539,265.153,294.788,291.735,263.318,0.0804452,0.17543,232.251,257.07
2013-10-10 17:00,0.200945,301.214,298.358,268.227,301.11,298.591,267.592,0.0699205,0.16396,235.525,260.708
2013-10-10 18:00,0.201355,300.134,297.975,267.935,300.627,298.463,267.251,0.076859,0.171622,234.185,259.97
2013-10-10 19:00,0.542443,279.473,252.29,240.32,250.83,247.293,232.867,0.523813,0.669826,224.054,237.327
2013-10-10 20:00,0.201416,291.686,286.328,260.769,287.679,285.35,260.098,0.180377,0.215072,230.348,254.814
2013-10-10 21:00,0.510552,281.883,275.176,253.501,275.242,273.675,254.137,0.4786,0.6627,229.263,249.198
2013-10-10 22:00,-0.00666698,287.01,287.212,261.198,289.166,288.167,262.847,-0.0,-0.0,231.236,257.333
2013-10-10 23:00,-0.0554963,288.43,288.843,262.261,291.423,290.648,265.185,-0.0915042,-0.0501293,232.784,259.051
2013-10-11 00:00,0.00196288,258.576,247.357,237.884,245.693,243.679,234.76,-0.0,-0.0,225.835,236.325
2013-10-11 01:00,-0.0,274.073,264.94,247.991,262.685,259.139,243.383,-0.0,-0.0,224.56,243.457
2013-10-11 02:00,-0.0,278.482,272.662,252.412,271.945,270.311,251.553,-0.0,-0.0,227.238,246.929
2013-10-11 03:00,-0.0,254.966,245.676,236.943,244.349,243.024,236.0,-0.0,-0.0,226.778,236.033
2013-10-11 04:00,-0.00136118,239.711,239.317,233.681,238.693,238.282,234.134,-0.0,-0.0,226.216,233.928
2013-10-11 05:00,0.00151278,274.787,268.054,249.286,268.524,266.16,249.037,-0.0,-0.0,227.78,245.804
2013-10-11 06:00,-0.0,276.155,272.796,252.29,273.215,272.565,254.392,-0.0,-0.0,228.748,248.025
2013-10-11 07:00,-0.0,272.836,269.767,250.555,270.657,269.329,252.335,-0.0,0.00265626,229.093,247.481
2013-10-11 08:00,-0.0,284.888,286.105,260.876,288.763,287.609,262.965,-0.0,-0.0,229.601,253.785
2013-10-11 09:00,0.857015,270.434,264.329,247.859,265.31,260.045,246.319,1.08845,1.12477,229.769,246.595
2013-10-11 10:00,0.747628,281.705,244.815,236.784,247.229,247.085,239.765,0.675998,0.792048,229.769,239.656
2013-10-11 11:00,0.69647,295.476,250.566,239.871,252.059,250.156,241.953,0.537972,0.638983,230.674,242.105
2013-10-11 12:00,0.612726,297.045,246.313,237.728,247.878,247.293,239.913,0.567293,0.658887,231.156,240.316
2013-10-11 13:00,0.460316,296.738,250.175,239.57,250.207,248.121,239.913,0.394546,0.484735,231.473,241.221
2013-10-11 14:00,0.267046,299.95,293.336,264.849,294.788,291.464,263.2,0.106088,0.228712,231.943,251.252
2013-10-11 15:00,0.234606,303.998,299.778,269.288,303.025,300.125,267.819,0.0792503,0.191442,231.709,252.731
2013-10-11 16:00,0.213371,303.674,299.684,268.711,303.025,300.125,267.705,0.0707853,0.1751,230.996,252.634
2013-10-11 17:00,0.201958,302.341,298.453,268.033,301.592,298.591,266.337,0.0721214,0.169214,230.916,252.439
2013-10-11 18:00,0.200975,300.769,296.523,267.151,299.409,296.127,265.647,0.0822932,0.17795,231.076,251.85
2013-10-11 19:00,0.212451,298.045,294.446,266.059,297.184,293.883,265.185,0.113609,0.203193,231.315,251.352
2013-10-11 20:00,0.235384,295.042,292.005,264.339,294.533,291.6,264.138,0.1993,0.261009,231.076,251.252
2013-10-11 21:00,2.14951,287.871,271.162,251.799,271.303,267.004,246.732,1.41049,2.13389,226.499,242.478
2013-10-11 22:00,-0.0,287.3,285.658,260.661,288.222,285.777,261.54,-0.0,-0.0,229.178,249.825
2013-10-11 23:00,-0.0527563,278.684,272.527,252.045,273.215,271.926,253.368,-0.0818926,-0.0443839,229.093,244.294
2013-10-12 00:00,-0.00196808,284.249,282.331,258.58,283.938,280.406,258.27,-0.0,-0.0,229.685,247.917
2013-10-12 01:00,-0.0,259.045,250.76,240.617,249.789,246.035,238.278,-0.0,-0.0,228.748,238.441
2013-10-12 02:00,-0.0,261.251,255.05,242.081,254.461,252.927,241.953,-0.0,-0.0,229.007,240.706
2013-10-12 03:00,0.00132637,253.206,250.371,239.57,250.623,250.156,242.241,-0.0,-0.0,228.748,240.706
2013-10-12 04:00,-0.0,237.078,235.538,231.625,235.93,235.193,231.419,-0.0,-0.0,226.685,232.185
2013-10-12 05:00,-0.0,247.601,247.15,237.572,247.878,246.876,240.207,-0.0,-0.00153286,229.093,240.446
2013-10-12 06:00,-0.0,269.283,264.94,248.9,266.167,262.008,248.634,-0.0,0.0018782,229.769,245.575
2013-10-12 07:00,-0.0,249.156,247.973,238.81,250.207,249.348,241.084,-0.0,-0.0,228.835,240.446
2013-10-12 08:00,-0.0,245.913,244.815,236.625,244.8,243.896,237.525,-0.0,-0.0,228.048,238.578
2013-10-12 09:00,0.764515,245.913,244.38,235.985,245.248,244.328,237.977,1.58886,2.17514,228.488,238.85
2013-10-12 10:00,0.296352,249.89,243.049,235.337,243.438,242.585,236.153,0.656255,0.741059,227.87,237.185
2013-10-12 11:00,0.233163,254.966,246.523,237.101,246.794,246.035,238.727,0.528506,0.593384,228.488,239.656
2013-10-12 12:00,0.36303,293.587,273.865,253.741,274.312,270.148,252.335,0.232728,0.338576,229.769,245.804
2013-10-12 13:00,0.458921,294.38,259.871,245.314,261.431,259.684,248.229,0.373025,0.450478,230.916,246.032
2013-10-12 14:00,0.373715,292.174,264.788,247.991,265.654,263.412,249.171,0.283285,0.364542,230.266,246.258
2013-10-12 15:00,0.389398,282.408,258.365,244.488,260.341,259.864,249.171,0.396465,0.442107,231.552,246.818
2013-10-12 16:00,0.438413,279.859,256.644,243.509,258.491,258.408,248.094,0.556805,0.616124,231.63,246.595
2013-10-12 17:00,0.512919,284.888,255.941,242.942,258.116,258.04,247.687,0.562019,0.629971,231.315,246.707
2013-10-12 18:00,0.317342,303.428,282.096,259.024,283.23,276.938,255.027,0.186554,0.282196,232.557,249.408
2013-10-12 19:00,0.586792,303.51,280.549,257.91,282.374,277.853,256.16,0.426939,0.583392,233.234,249.825
2013-10-12 20:00,0.476659,300.225,284.414,260.119,285.895,281.735,259.37,0.416605,0.473454,233.677,250.646
2013-10-12 21:00,0.721364,289.247,281.742,258.802,283.797,279.81,258.27,0.640572,0.746023,233.968,250.544
2013-10-12 22:00,-0.00676328,288.012,286.772,261.519,288.493,285.635,261.182,-0.0,-0.0,235.247,251.652
2013-10-12 23:00,-0.041179,272.061,267.618,249.797,270.006,268.007,253.625,-0.107089,-0.0415727,234.257,250.442
2013-10-13 00:00,-0.00394691,275.02,269.485,250.806,269.842,266.498,249.838,-0.00167092,-0.00199232,232.02,246.371
2013-10-13 01:00,-0.0,275.251,267.326,250.177,267.185,260.942,246.182,-0.0,-0.0,232.097,245.46
2013-10-13 02:00,-0.0,286.569,285.433,261.091,287.543,285.208,261.182,-0.0,-0.0,233.53,251.252
2013-10-13 03:00,-0.0,285.045,283.032,259.464,284.921,281.882,259.492,-0.0,-0.0,233.677,251.452
2013-10-13 04:00,-0.00136952,281.346,279.336,257.572,281.221,278.307,257.653,-0.0,-0.0,233.75,251.452
2013-10-13 05:00,-0.0,260.395,260.692,246.13,263.745,263.063,251.028,-0.0,-0.0,234.257,249.617
2013-10-13 06:00,-0.0,257.103,258.195,244.349,260.706,260.405,248.768,-0.0,-0.0,233.01,248.775
2013-10-13 07:00,-0.0,251.282,254.145,242.225,257.17,256.742,246.594,-0.0,-0.0,233.896,247.371
2013-10-13 08:00,-0.0,258.576,257.683,243.93,259.606,258.408,247.551,-0.0,-0.0,234.401,248.133
2013-10-13 09:00,0.117182,275.48,271.299,252.534,273.372,270.635,253.753,0.644915,0.473209,234.756,251.552
2013-10-13 10:00,0.563231,289.91,275.823,255.16,277.226,275.24,257.034,0.434921,0.514028,234.543,252.146
2013-10-13 11:00,0.521489,297.248,287.978,262.471,289.3,285.35,260.461,0.230993,0.41923,234.472,252.634
2013-10-13 12:00,0.397754,299.485,291.487,264.645,292.989,288.861,262.136,0.16037,0.323331,234.968,252.439
2013-10-13 13:00,0.533596,290.301,255.764,243.226,257.55,257.301,246.732,0.582922,0.672305,234.827,247.151
2013-10-13 14:00,0.26577,295.796,280.066,257.685,279.466,273.359,249.438,0.135443,0.245421,229.263,244.175
2013-10-13 15:00,0.265133,270.713,240.039,233.849,236.948,233.474,226.229,0.26344,0.348334,219.624,225.994
2013-10-13 16:00,0.228758,296.219,282.331,258.358,281.221,275.861,252.853,0.117898,0.208353,227.87,244.412
2013-10-13 17:00,0.231371,301.302,290.545,264.133,291.555,286.06,259.614,0.111281,0.200412,230.511,249.303
2013-10-13 18:00,0.388967,303.264,285.321,261.091,286.722,283.629,260.219,0.283481,0.357891,231.315,251.051
2013-10-13 19:00,0.790221,303.836,274.916,254.808,277.828,276.169,257.158,0.669079,0.766313,231.076,250.849
2013-10-13 20:00,0.528423,297.848,282.566,259.134,284.22,279.061,257.158,0.450657,0.529608,230.266,250.032
2013-10-13 21:00,0.431978,284.57,277.852,256.434,279.76,275.861,256.16,0.424275,0.48844,229.685,249.408
2013-10-13 22:00,-0.0,280.799,276.336,255.51,277.828,274.46,254.646,-0.0,-0.0,228.835,248.562
2013-10-13 23:00,-0.0413311,276.811,267.473,249.542,267.185,263.759,247.279,-0.114984,-0.0417262,227.055,241.093
2013-10-14 00:00,-0.00197902,284.888,281.029,258.246,282.087,278.911,257.158,-0.00167563,-0.00199794,229.093,247.261
2013-10-14 01:00,-0.0015758,274.787,268.773,250.429,269.515,267.004,250.633,-0.0,-0.0,229.007,245.114
2013-10-14 02:00,-0.0,265.446,262.931,247.2,264.27,262.712,248.903,-0.0,-0.0,228.312,244.056
2013-10-14 03:00,-0.0,273.586,266.886,249.414,267.185,264.795,248.229,-0.0,-0.0,228.488,243.214
2013-10-14 04:00,-0.0,268.686,269.908,251.799,272.264,271.444,254.392,-0.0,-0.0,227.959,246.929
2013-10-14 05:00,-0.0,250.598,240.984,234.515,239.669,238.515,232.227,-0.0,-0.0,225.254,232.347
2013-10-14 06:00,0.00187836,237.078,237.339,232.319,237.702,236.872,232.227,-0.0,-0.0,226.592,233.461
2013-10-14 07:00,-0.00268762,256.062,248.38,238.195,247.446,245.399,237.07,-0.0,-0.0,227.238,236.9
2013-10-14 08:00,-0.00544155,274.551,268.343,249.669,268.69,266.329,249.037,-0.0,-0.0,228.662,244.53
2013-10-14 09:00,0.659747,284.73,283.495,259.574,285.618,283.484,260.942,0.687516,0.819759,230.348,250.748
2013-10-14 10:00,0.454375,290.813,287.76,262.471,289.701,287.188,261.898,0.241392,0.418244,230.916,251.751
2013-10-14 11:00,0.456058,296.84,290.545,264.031,292.079,288.445,261.898,0.199169,0.390144,229.769,251.352
2013-10-14 12:00,0.356774,298.918,290.86,263.928,291.686,287.469,261.062,0.155397,0.309967,229.601,250.032
2013-10-14 13:00,0.317276,302.848,294.846,266.358,295.93,291.464,263.2,0.122432,0.2622,229.517,251.252
2013-10-14 14:00,0.23877,295.69,280.909,257.572,278.873,273.517,251.159,0.117044,0.218216,227.055,243.336
2013-10-14 15:00,0.224743,294.268,278.598,255.51,277.226,272.565,251.291,0.124813,0.219572,228.662,244.175
2013-10-14 16:00,0.229598,298.144,284.528,259.793,283.514,278.307,254.646,0.113488,0.211746,228.575,245.69
2013-10-14 17:00,0.248744,294.933,277.852,255.742,276.468,270.148,248.768,0.15738,0.248362,228.921,244.647
2013-10-14 18:00,0.317809,277.661,258.703,243.79,256.98,253.896,241.808,0.332893,0.423386,227.329,237.043
2013-10-14 19:00,0.435276,293.007,273.997,253.261,273.372,269.0,251.159,0.392992,0.482035,230.43,245.804
2013-10-14 21:00,1.67976,276.155,263.088,247.728,265.482,264.279,251.422,1.16366,1.61017,232.633,248.987
2013-10-14 22:00,-0.0,265.095,262.458,247.067,264.444,262.888,250.236,-0.0,-0.0,231.63,248.025
2013-10-14 23:00,-0.0355621,276.594,271.023,252.656,272.741,269.165,253.111,-0.117932,-0.0418857,231.236,248.562
2013-10-15 00:00,-0.00198478,254.396,250.371,240.32,250.83,248.327,239.47,-0.00168051,-0.00200375,226.122,239.656
2013-10-15 01:00,-0.0,244.063,241.451,235.499,242.747,242.143,236.46,-0.0,-0.0,228.136,236.757
2013-10-15 02:00,-0.0,255.521,246.313,237.572,245.693,243.461,235.537,-0.0,-0.0,225.643,234.845
2013-10-15 03:00,-0.0,283.594,279.702,257.233,280.785,276.631,255.153,-0.0,-0.0,230.266,248.025
2013-10-15 04:00,-0.0,259.045,249.385,239.721,248.52,246.666,238.727,-0.0,0.00139125,226.592,236.614
2013-10-15 05:00,0.00153535,269.283,263.401,246.934,263.92,260.942,247.415,-0.0,-0.0,229.093,244.056
2013-10-15 06:00,-0.0,233.989,232.839,230.207,233.041,232.725,228.446,-0.0,-0.0,226.027,229.838
2013-10-15 07:00,-0.0,254.396,253.411,241.5,255.633,254.855,245.628,-0.0,-0.0,230.755,244.647
2013-10-15 08:00,-0.0,249.156,248.784,238.81,251.242,250.357,241.808,-0.0,-0.0,231.63,242.848
2013-10-15 09:00,1.79391,257.605,246.523,237.728,248.307,247.501,240.646,1.59485,2.128,231.943,240.835
2013-10-15 10:00,0.493429,251.282,246.313,237.101,246.575,246.457,239.173,0.913906,1.05411,229.685,238.714
2013-10-15 11:00,0.498839,278.883,258.365,244.488,259.974,258.774,247.006,0.662853,0.722882,231.943,246.145
2013-10-15 12:00,0.587848,289.647,261.501,246.265,263.745,263.412,250.896,0.685826,0.753911,233.382,248.455
2013-10-15 13:00,0.534791,286.121,255.764,242.799,257.739,257.671,247.142,0.746775,0.819748,233.53,246.929
2013-10-15 14:00,0.530395,284.73,252.853,241.646,255.244,255.045,245.072,0.693268,0.760791,233.53,246.145
2013-10-15 15:00,0.501699,291.065,257.339,244.488,260.158,259.321,248.768,0.615738,0.66234,233.53,247.59
2013-10-15 16:00,0.446019,280.427,253.595,242.081,255.439,255.614,245.905,0.645141,0.707945,233.896,246.371
2013-10-15 17:00,0.466636,283.76,255.941,243.368,257.928,257.671,247.415,0.5707,0.630884,234.543,247.481
2013-10-15 18:00,0.645904,296.008,255.409,243.226,257.739,257.671,247.006,0.72549,0.797352,234.968,247.808
2013-10-15 19:00,0.91283,297.947,254.871,242.799,257.361,256.928,247.551,0.99613,1.12958,236.207,248.562
2013-10-15 20:00,1.10551,295.796,260.201,245.723,263.04,262.537,250.633,1.03896,1.23497,235.386,250.442
2013-10-15 21:00,1.79916,278.883,261.662,246.667,264.618,264.106,251.422,1.19893,1.64817,234.968,250.442
2013-10-15 22:00,-0.0,256.062,257.854,244.765,260.341,260.405,249.572,-0.0,-0.0,235.593,249.617
2013-10-15 23:00,-0.0357027,257.103,256.469,243.226,258.678,258.591,248.229,-0.108322,-0.0390477,234.827,248.669
2013-10-16 00:00,-0.00199073,255.521,254.69,242.513,256.598,256.18,246.319,-0.00168554,-0.00200976,232.709,246.707
2013-10-16 01:00,-0.0,251.944,251.721,241.061,253.069,251.75,243.099,-0.0,-0.0,231.076,242.848
2013-10-16 02:00,-0.0,260.395,256.644,243.79,258.491,257.301,246.319,-0.0,-0.0,230.43,245.114
2013-10-16 03:00,-0.0,268.686,262.616,247.332,263.217,258.04,244.512,-0.0,0.00135394,229.601,243.214
2013-10-16 04:00,-0.0,256.062,256.118,243.509,257.361,256.555,245.628,-0.0,-0.0,229.433,243.937
2013-10-16 05:00,-0.0,240.898,235.538,231.973,233.842,231.203,227.26,-0.0,-0.0,223.538,229.489
2013-10-16 06:00,-0.0,244.063,241.913,234.845,241.815,241.251,235.227,-0.0,-0.0,227.959,235.592
2013-10-16 07:00,-0.0,238.442,237.339,232.146,237.451,236.396,232.066,-0.0,-0.0,226.122,232.669
2013-10-16 08:00,-0.0,233.989,235.275,231.45,235.414,235.193,230.44,-0.0,-0.0,227.42,232.022
2013-10-16 09:00,0.52324,249.89,244.598,236.146,245.024,244.544,237.525,0.886052,1.01585,229.601,238.714
2013-10-16 10:00,0.710458,278.075,251.912,240.766,253.867,253.703,244.932,0.760233,0.86686,231.63,243.818
2013-10-16 11:00,0.674144,290.171,259.039,245.04,261.25,260.584,249.305,0.743643,0.843546,232.86,247.808
2013-10-16 12:00,0.48356,302.848,273.333,253.741,274.778,271.926,255.027,0.330138,0.428019,234.756,251.252
2013-10-16 13:00,0.397919,301.037,272.12,253.381,273.057,269.494,253.368,0.265987,0.360845,234.756,251.051
2013-10-16 14:00,0.247734,302.085,293.031,265.153,293.377,288.306,261.66,0.1017,0.217261,236.207,252.634
2013-10-16 15:00,0.225108,302.171,287.102,261.731,287.407,282.175,259.249,0.120271,0.200524,236.475,252.537
2013-10-16 16:00,0.484852,286.569,265.092,248.512,267.857,267.506,253.497,0.581226,0.636833,237.268,251.751
2013-10-16 17:00,0.509456,284.41,262.3,246.934,264.792,264.795,252.594,0.627427,0.701354,239.104,252.634
2013-10-16 18:00,0.509257,302.085,273.065,253.261,274.467,271.926,255.027,0.407693,0.502591,240.014,254.256
2013-10-16 19:00,0.674175,306.623,273.997,253.741,275.087,270.96,254.137,0.539007,0.676157,241.419,255.457
2013-10-16 20:00,0.877819,287.444,262.3,246.533,264.444,263.759,251.683,0.983522,1.1536,240.957,253.5
2013-10-16 21:00,1.12843,289.647,277.224,255.626,277.678,273.2,253.368,0.80312,1.08968,237.657,253.309
2013-10-16 22:00,-0.0,264.009,259.871,245.587,261.431,260.045,247.823,-0.0,-0.0,235.867,249.825
2013-10-16 23:00,-0.0358486,271.798,268.487,250.555,267.857,264.451,248.499,-0.0885293,-0.0331753,229.685,247.481
2013-10-17 00:00,-0.00199687,237.078,233.938,231.274,232.23,230.946,226.918,-0.00169074,-0.0,221.371,226.57
2013-10-17 01:00,-0.00158858,230.231,228.463,228.564,228.871,227.787,224.304,-0.0,-0.0,223.118,226.948
2013-10-17 02:00,-0.0,254.396,249.583,240.021,248.733,245.612,236.307,-0.0,-0.0,224.86,238.165
2013-10-17 03:00,-0.0,275.251,271.299,252.29,271.945,269.165,252.075,-0.0,-0.0,230.511,247.481
2013-10-17 04:00,0.00138685,251.944,249.185,239.871,248.52,246.035,237.07,-0.0,-0.0,225.835,239.656
2013-10-17 05:00,-0.0,281.883,277.601,256.205,278.427,274.929,253.881,-0.0,-0.0,230.348,249.408
2013-10-17 06:00,-0.00190565,260.827,259.039,245.177,259.236,257.486,245.211,-0.0,-0.0,230.593,247.04
2013-10-17 07:00,-0.00274509,275.48,273.333,253.621,274.623,272.246,254.009,-0.0,-0.0,233.159,252.146
2013-10-17 08:00,-0.0,280.239,274.785,254.69,275.396,271.765,251.291,-0.0,-0.0,229.348,248.025
2013-10-17 09:00,0.694809,280.982,273.199,253.501,272.741,268.339,248.903,0.743108,0.922962,230.018,248.133
2013-10-17 10:00,0.539207,285.045,272.931,253.501,273.843,270.798,251.944,0.47846,0.544362,231.076,249.303
2013-10-17 11:00,0.44626,293.124,279.823,257.685,280.785,277.243,256.16,0.299879,0.410003,232.481,249.617
2013-10-17 12:00,0.378365,293.356,275.306,255.16,274.156,268.67,248.094,0.238475,0.351149,229.178,244.881
2013-10-17 13:00,0.410806,299.203,281.978,258.134,282.946,279.361,258.147,0.299487,0.388022,235.455,253.69
2013-10-17 14:00,0.335864,296.943,280.789,257.685,281.076,277.243,257.158,0.254775,0.373108,236.341,254.349
2013-10-17 15:00,0.255948,301.302,289.486,262.995,289.434,284.636,259.614,0.139387,0.228067,236.874,254.999
2013-10-17 16:00,0.264257,293.472,279.336,257.459,278.725,274.773,254.392,0.248839,0.299196,236.675,253.785
2013-10-17 17:00,0.252955,299.858,287.651,261.731,287.27,282.175,257.653,0.156602,0.249881,237.398,255.548
2013-10-17 18:00,0.306307,268.986,242.597,235.823,240.152,238.049,231.419,0.51594,0.577349,225.643,233.928
2013-10-17 19:00,0.460887,273.586,228.463,229.301,225.615,222.462,220.115,0.552674,0.641169,217.752,222.743
2013-10-17 20:00,1.0099,284.249,200.774,217.576,200.227,198.656,201.016,1.20923,1.40759,204.573,202.271
2013-10-17 21:00,1.55712,286.271,256.819,244.765,253.867,246.876,232.066,1.12813,1.58822,224.86,237.043
2013-10-17 22:00,-0.0,274.314,265.394,248.512,263.745,259.139,243.525,-0.0,-0.0,226.592,239.922
2013-10-17 23:00,-0.0359998,276.376,273.199,253.621,273.686,270.473,251.422,-0.096523,-0.0302866,235.799,250.646
2013-10-18 00:00,-0.0020032,284.087,279.945,258.134,280.054,276.015,254.009,-0.0,-0.00202235,235.799,251.652
2013-10-18 01:00,-0.0,279.473,272.256,252.656,271.464,267.004,246.869,-0.0,-0.0,226.963,245.23
2013-10-18 02:00,-0.0,227.984,215.64,223.076,213.763,212.673,213.241,-0.0,-0.0,211.47,213.092
2013-10-18 03:00,-0.00134886,218.393,211.184,220.736,209.808,208.397,210.073,-0.0,-0.0,209.206,210.984
2013-10-18 04:00,-0.0013913,213.142,205.549,218.957,204.584,204.559,206.97,-0.0,-0.0,205.015,205.109
2013-10-18 05:00,-0.0,213.142,206.1,218.957,205.043,203.757,205.361,-0.0,-0.0,206.084,206.606
2013-10-18 06:00,-0.0,225.382,215.218,223.489,214.517,212.673,212.827,-0.0,-0.0,212.607,214.233
2013-10-18 07:00,-0.0,222.276,216.471,222.868,215.26,213.356,213.035,-0.0,-0.0,213.078,215.6
2013-10-18 08:00,-0.0,222.276,218.862,223.694,217.427,215.356,214.671,-0.0,-0.0,214.441,216.652
2013-10-18 09:00,0.1678,249.156,247.563,238.503,249.368,248.736,241.084,0.340982,0.338808,230.43,242.23
2013-10-18 10:00,0.644862,280.427,258.534,244.488,261.25,260.764,249.171,0.647249,0.724321,233.53,249.093
2013-10-18 11:00,0.63894,292.294,254.509,242.369,257.17,256.555,245.767,0.582757,0.666392,232.251,247.04
2013-10-18 12:00,0.434572,297.947,274.785,254.099,277.377,275.085,257.53,0.326432,0.421655,234.185,253.88
2013-10-18 13:00,0.309758,296.943,286.55,260.984,287.951,284.636,260.822,0.17524,0.290282,234.686,255.183
2013-10-18 14:00,0.312755,299.108,281.148,258.134,282.946,279.81,259.127,0.193068,0.28807,236.742,256.628
2013-10-18 15:00,0.284293,297.045,281.86,258.246,283.23,280.108,259.127,0.195006,0.274901,236.609,256.36
2013-10-18 16:00,0.294658,291.931,278.598,256.089,280.054,278.458,258.638,0.265144,0.33357,236.808,256.894
2013-10-18 17:00,0.226753,294.156,284.185,259.793,284.641,281.146,258.023,0.160951,0.241258,234.615,253.117
2013-10-18 18:00,0.256967,295.26,286.328,260.445,287.815,284.922,261.182,0.212065,0.277485,237.977,256.716
2013-10-18 19:00,0.409196,297.349,285.546,260.445,286.86,283.917,260.098,0.325976,0.424213,239.104,257.855
2013-10-18 20:00,0.420301,293.702,285.546,260.228,286.172,283.194,259.249,0.346336,0.458416,236.542,255.639
2013-10-18 21:00,0.913819,289.779,285.095,259.683,286.31,284.636,260.701,0.707028,0.93846,238.104,257.682
2013-10-18 22:00,0.00711114,286.271,282.799,258.58,283.938,281.146,257.9,-0.0,-0.0,235.662,255.091
2013-10-18 23:00,-0.0301304,285.202,281.148,257.459,282.517,280.108,257.158,-0.0637784,-0.0273766,236.475,255.366
2013-10-19 00:00,-0.00200974,280.239,274.392,253.261,274.778,272.883,252.335,-0.0,-0.00202895,232.02,250.032
2013-10-19 01:00,-0.00159769,276.811,269.908,250.931,269.35,266.329,248.094,-0.0,-0.0,231.709,249.721
2013-10-19 02:00,-0.0014118,282.234,279.336,256.205,281.076,278.911,256.909,-0.0,-0.0,237.006,257.682
2013-10-19 03:00,-0.0,286.864,287.541,261.198,290.101,289.276,264.255,-0.0,-0.0,240.548,262.857
2013-10-19 04:00,-0.00139581,286.121,287.541,260.984,289.835,288.999,264.255,-0.0,-0.0,240.724,263.244
2013-10-19 05:00,-0.0,285.665,287.322,260.876,289.835,289.551,265.185,-0.0,0.00157355,240.074,263.782
2013-10-19 06:00,-0.0,285.665,287.102,260.661,289.568,289.551,265.185,-0.0,-0.0,240.074,264.01
2013-10-19 07:00,-0.0,284.888,286.772,260.553,289.166,288.722,264.837,-0.0,-0.0,240.841,264.464
2013-10-19 08:00,-0.0,284.57,286.439,260.228,288.763,288.445,264.721,-0.0,-0.0,241.817,264.54
2013-10-19 09:00,0.372682,285.045,286.661,260.228,289.166,288.999,264.605,0.499619,0.627074,241.533,264.389
2013-10-19 10:00,0.406025,289.779,289.058,261.625,291.292,290.101,264.605,0.218444,0.473954,240.782,263.552
2013-10-19 11:00,0.416053,295.796,293.235,264.339,295.55,293.75,266.222,0.172177,0.42003,241.874,264.54
2013-10-19 12:00,0.362359,298.242,292.417,264.133,293.764,290.784,263.318,0.146983,0.345405,241.304,262.388
2013-10-19 13:00,0.295146,301.39,296.913,267.151,298.795,295.865,266.566,0.105591,0.275585,241.131,264.086
2013-10-19 14:00,0.262399,301.913,295.144,266.059,296.809,293.617,265.185,0.106348,0.241053,241.874,263.552
2013-10-19 15:00,0.235914,302.085,295.442,266.059,297.434,294.149,265.532,0.0993668,0.218825,240.312,263.167
2013-10-19 16:00,0.228958,301.74,294.546,265.859,296.559,293.617,265.185,0.102141,0.213749,238.42,262.072
2013-10-19 17:00,0.231819,300.769,293.742,265.355,295.93,293.216,265.416,0.119376,0.223086,238.671,261.515
2013-10-19 18:00,0.243521,300.408,293.742,265.153,296.056,293.35,265.185,0.131961,0.239293,238.857,261.033
2013-10-19 19:00,0.261174,299.203,294.245,265.658,296.684,294.415,266.108,0.156096,0.276965,239.774,261.675
2013-10-19 20:00,0.399854,297.848,292.108,264.133,294.533,292.545,265.069,0.303751,0.448949,242.82,263.012
2013-10-19 21:00,0.309242,291.44,291.798,263.928,294.405,293.35,266.337,0.418936,0.452687,243.74,263.782
2013-10-19 22:00,-0.00717891,288.705,289.379,262.576,291.817,290.921,264.953,-0.0,-0.0,244.79,263.09
2013-10-19 23:00,-0.0211859,288.152,288.843,262.155,291.423,290.375,264.721,-0.0691898,-0.0213885,243.039,262.23
2013-10-20 00:00,-0.00201646,287.3,288.736,261.731,291.16,290.511,265.647,-0.0,-0.00203574,241.647,262.779
2013-10-20 01:00,-0.0,286.569,288.303,261.731,290.632,290.648,265.069,-0.0,-0.0,244.217,263.629
2013-10-20 02:00,-0.0,286.421,288.195,261.731,290.632,290.648,265.532,-0.0,-0.0,244.894,264.086
2013-10-20 03:00,-0.0,285.97,287.651,261.625,289.968,289.826,265.301,-0.0,-0.0,244.635,263.552
2013-10-20 04:00,-0.00140035,286.121,287.432,261.625,289.835,289.551,265.069,-0.0,-0.0,244.426,263.706
2013-10-20 05:00,-0.00156455,285.665,287.212,261.625,289.434,288.722,264.488,-0.0,-0.0,243.256,263.012
2013-10-20 06:00,-0.0,285.045,286.772,261.305,289.032,288.584,264.837,-0.0,-0.0,243.039,262.623
2013-10-20 07:00,-0.0,285.202,286.772,261.412,289.032,288.861,265.069,-0.0,-0.0,242.378,262.309
2013-10-20 08:00,-0.00593351,285.202,286.661,260.984,289.032,288.861,264.837,-0.0,-0.0,241.073,262.23
2013-10-20 09:00,0.463109,285.665,286.992,261.198,289.434,289.137,264.488,0.490142,0.642862,241.817,262.779
2013-10-20 10:00,0.427384,290.939,290.44,263.203,293.119,292.006,266.681,0.209314,0.46108,241.246,262.545
2013-10-20 11:00,0.428011,296.738,293.944,265.758,296.559,295.208,267.251,0.171351,0.420361,241.419,262.623
2013-10-20 12:00,0.36121,300.317,296.621,267.249,298.918,296.91,267.819,0.136559,0.340917,241.419,262.623
2013-10-20 13:00,0.297215,302.256,297.879,268.518,300.141,297.3,267.592,0.107684,0.274936,241.476,262.466
2013-10-20 14:00,0.249489,303.181,298.262,268.421,300.263,297.04,267.251,0.0872294,0.230572,242.266,262.545
2013-10-20 15:00,0.228355,303.098,297.01,267.544,298.549,294.944,266.452,0.0880694,0.210019,243.418,262.935
2013-10-20 16:00,0.224924,302.764,295.738,266.756,297.309,293.75,265.532,0.0967823,0.210943,243.953,263.244
2013-10-20 18:00,0.210677,300.225,295.144,266.259,296.935,293.75,266.222,0.112517,0.215964,244.583,263.476
2013-10-20 19:00,0.201432,299.297,296.718,267.642,298.795,295.996,267.137,0.101961,0.2122,245.151,264.01
2013-10-20 20:00,0.256755,297.248,294.346,266.159,296.056,293.35,265.532,0.192189,0.285506,244.635,262.779
2013-10-20 22:00,-0.00724983,289.514,287.102,261.625,288.628,286.343,261.898,-0.0,-0.0,241.93,260.052
2013-10-20 23:00,-0.0212839,286.569,282.214,258.58,283.23,280.702,257.777,-0.0540631,-0.0184177,235.867,255.73
2013-10-21 00:00,-0.00202339,278.684,270.049,250.931,269.35,265.99,248.364,-0.0017132,-0.00204273,232.251,247.699
2013-10-21 01:00,-0.00160725,275.02,263.556,247.2,261.25,257.486,241.808,-0.0,-0.0,226.499,242.105
2013-10-21 02:00,-0.0,288.43,287.76,262.261,289.968,287.888,263.083,-0.0,-0.0,235.178,258.798
2013-10-21 03:00,-0.0,288.43,286.992,261.519,288.628,286.343,260.581,-0.0,-0.0,236.071,257.595
2013-10-21 04:00,0.00140494,288.977,288.843,262.995,291.555,289.826,264.022,-0.0,-0.0,235.455,257.595
2013-10-21 05:00,-0.0,288.568,289.058,262.995,291.686,290.238,264.837,-0.0,-0.0,238.546,259.22
2013-10-21 06:00,0.00194244,288.568,289.165,262.786,291.555,290.101,265.069,-0.0,-0.0,239.349,259.804
2013-10-21 07:00,-0.0,288.705,289.058,262.786,291.817,290.511,265.185,-0.0,-0.0,240.665,260.627
2013-10-21 08:00,0.00601903,288.152,289.165,262.89,291.686,290.648,265.532,-0.0,-0.0,242.984,262.151
2013-10-21 09:00,0.488518,288.012,288.843,262.471,291.423,290.101,264.837,0.459586,0.602785,244.006,262.466
2013-10-21 10:00,0.436002,292.294,290.86,263.307,292.989,291.464,265.647,0.207434,0.44017,242.099,261.435
2013-10-21 11:00,0.432973,297.045,293.235,264.543,295.17,292.814,265.647,0.172516,0.406724,242.82,262.309
2013-10-21 12:00,0.36178,300.408,294.945,265.658,296.559,293.75,265.878,0.136141,0.334802,241.817,262.23
2013-10-21 13:00,0.295161,302.341,296.621,266.756,298.426,294.944,265.878,0.105103,0.272919,243.147,261.914
2013-10-21 14:00,0.253989,303.755,297.204,267.446,298.795,294.944,265.647,0.0860209,0.236404,241.874,260.217
2013-10-21 15:00,0.242318,292.414,269.908,251.429,266.847,260.405,239.173,0.137454,0.24825,229.769,243.457
2013-10-21 16:00,0.233182,292.294,271.023,251.922,267.857,260.942,241.229,0.139243,0.237889,229.685,244.647
2013-10-21 17:00,0.237866,293.702,272.662,253.02,269.679,262.712,241.808,0.139607,0.242869,229.263,244.647
2013-10-21 18:00,0.22163,294.38,281.742,258.246,280.931,276.015,252.723,0.160259,0.241713,237.137,253.88
2013-10-21 19:00,0.141973,295.26,287.869,261.944,288.358,284.779,259.735,0.140551,0.178612,239.532,257.158
2013-10-21 20:00,0.28529,296.008,281.624,258.469,280.493,275.085,252.205,0.263514,0.31046,232.633,251.452
2013-10-21 21:00,1.9354,272.58,237.841,233.344,234.633,233.969,229.283,1.43701,2.05911,224.258,227.877
2013-10-21 22:00,-0.00732403,286.717,284.3,259.574,285.895,283.484,259.977,-0.0,-0.0,238.42,257.508
2013-10-21 23:00,-0.0183301,289.779,288.195,261.838,290.234,287.888,262.492,-0.041387,-0.0185054,237.268,258.286
2013-10-22 00:00,-0.00203052,286.121,284.3,259.134,285.895,283.629,260.461,-0.00171924,-0.00204993,236.071,255.911
2013-10-22 01:00,-0.0016122,286.121,282.916,258.691,283.938,281.146,258.638,-0.0,-0.0,234.401,252.439
2013-10-22 02:00,-0.0,286.421,284.414,259.902,286.172,283.339,260.461,-0.0,-0.0,234.827,254.068
2013-10-22 03:00,-0.00136505,239.711,237.841,233.175,235.672,233.722,229.449,-0.0,-0.0,223.538,229.664
2013-10-22 04:00,-0.0,233.989,232.56,230.387,231.408,229.385,226.056,-0.0,-0.0,222.799,228.96
2013-10-22 05:00,-0.0,230.231,225.282,227.058,,,,-0.0,-0.0,216.56,221.213
2013-10-22 07:00,-0.0,232.213,225.937,226.481,225.003,223.332,221.046,0.00240616,-0.0,220.219,223.586
2013-10-22 10:00,0.423994,279.081,253.963,241.936,251.447,244.112,232.547,0.365966,0.469605,224.258,237.327
2013-10-22 11:00,0.357276,280.982,255.23,242.513,251.447,244.758,231.581,0.312263,0.435157,221.819,234.694
2013-10-22 12:00,0.313954,268.986,239.799,233.513,237.702,235.193,229.449,0.408635,0.502408,222.585,231.031
2013-10-22 13:00,0.250476,294.933,282.566,258.802,281.799,276.015,251.944,0.127013,0.261207,227.51,244.647
2013-10-22 14:00,0.218911,284.888,262.141,245.995,257.55,251.947,236.153,0.16755,0.258462,218.891,230.863
2013-10-22 15:00,0.262208,280.05,248.38,238.349,243.895,237.581,225.883,0.241185,0.332097,217.36,226.76
2013-10-22 16:00,0.289218,292.294,270.189,251.429,269.515,263.759,244.372,0.213752,0.309304,226.311,240.964
2013-10-22 17:00,0.23616,288.012,272.12,252.534,271.625,267.673,249.037,0.243375,0.318798,227.055,243.818
2013-10-22 18:00,0.177638,293.472,280.669,257.685,279.613,273.832,252.075,0.166814,0.236397,228.4,246.483
2013-10-22 19:00,0.108945,288.705,279.702,257.12,280.201,276.477,255.532,0.132831,0.16718,230.755,248.455
2013-10-22 20:00,0.723024,282.923,256.819,242.942,254.854,251.947,240.354,0.630924,0.793247,227.147,235.887
2013-10-22 21:00,0.978659,289.514,277.476,255.277,277.828,273.832,252.205,0.704953,1.00276,229.007,244.881
2013-10-22 22:00,-0.0,270.151,251.339,240.021,248.946,243.461,229.449,-0.0,-0.0,219.863,230.863
2013-10-22 23:00,-0.0184199,285.97,278.35,255.742,279.17,274.46,252.075,-0.0233941,-0.0216953,227.055,244.998
2013-10-23 00:00,-0.00203784,276.594,269.201,250.303,269.021,265.309,246.869,-0.0,-0.0,226.311,243.457
2013-10-23 01:00,-0.00161727,285.665,280.549,257.459,281.076,276.784,254.009,-0.0,-0.0,227.78,247.371
2013-10-23 02:00,-0.00142845,273.586,258.365,244.21,256.021,251.156,236.46,-0.0,-0.0,221.145,234.236
2013-10-23 03:00,-0.0,284.41,278.474,256.32,278.873,274.617,252.205,-0.0,-0.0,226.871,245.575
2013-10-23 04:00,-0.0,273.586,263.401,247.465,261.069,254.281,239.025,-0.0,-0.0,223.642,238.303
2013-10-23 05:00,-0.00158242,275.02,269.908,251.552,269.35,264.795,247.142,-0.0,0.00159755,225.643,244.998
2013-10-23 06:00,-0.0,266.797,249.781,239.419,245.248,238.049,227.089,-0.0,-0.0,218.391,229.838
2013-10-23 07:00,-0.0,227.984,218.082,224.102,214.89,211.983,212.202,-0.0,-0.0,211.303,213.952
2013-10-23 08:00,-0.0,227.984,224.616,226.287,224.072,222.462,220.86,-0.0,-0.0,219.26,222.956
2013-10-23 09:00,0.605678,243.066,232.56,230.027,232.502,230.688,227.089,0.861549,1.07618,221.93,228.242
2013-10-23 10:00,0.342899,266.131,250.371,239.419,249.157,246.035,236.153,0.466604,0.564597,225.254,237.327
2013-10-23 11:00,0.300655,276.594,261.501,245.587,260.341,256.928,242.814,0.295372,0.430965,225.835,240.185
2013-10-23 12:00,0.319725,289.647,271.711,252.534,269.35,262.712,243.525,0.188933,0.34968,223.952,239.523
2013-10-23 13:00,0.276043,293.472,275.565,255.043,271.625,263.412,243.383,0.151165,0.293933,223.746,239.789
2013-10-23 14:00,0.248172,292.653,272.391,253.381,269.021,261.299,242.097,0.140085,0.264256,223.642,239.523
2013-10-23 15:00,0.243968,286.864,259.54,245.451,253.867,246.666,232.387,0.178353,0.281143,219.982,232.347
2013-10-23 16:00,0.303496,267.123,228.155,228.378,225.919,223.332,219.739,0.345044,0.429945,217.881,221.658
2013-10-23 17:00,0.327441,267.761,229.97,228.934,226.221,222.753,219.362,0.375363,0.466608,216.012,220.763
2013-10-23 18:00,0.324024,283.093,253.779,242.081,248.946,244.328,231.094,0.311204,0.395475,219.382,229.664
2013-10-23 19:00,0.20649,298.436,293.235,266.059,295.17,291.329,263.083,0.117784,0.232602,235.731,254.536
2013-10-23 20:00,0.249736,296.219,292.417,265.254,294.405,290.921,264.255,0.22389,0.311447,237.592,255.275
2013-10-23 21:00,0.444244,292.294,287.76,262.89,289.701,286.06,261.54,0.50961,0.593166,238.294,254.907
2013-10-23 22:00,-0.00748287,289.113,286.105,261.412,287.407,283.773,259.249,-0.0,-0.00755441,238.231,253.595
2013-10-23 23:00,-0.0154272,289.381,286.661,261.944,288.628,285.635,260.701,-0.018287,-0.0186896,239.954,254.999
2013-10-24 00:00,-0.00204537,283.924,282.448,259.574,284.22,281.293,259.127,-0.00173181,-0.0,239.894,254.814
2013-10-24 01:00,0.00162245,288.705,287.651,262.366,289.968,287.329,263.083,-0.0,-0.0,240.957,256.36
2013-10-24 02:00,-0.0,287.871,286.992,262.155,289.3,287.048,263.083,-0.0,-0.0,241.59,256.628
2013-10-24 03:00,0.00137346,287.3,286.882,262.261,289.3,287.188,262.965,-0.0,-0.0,241.476,256.982
2013-10-24 04:00,-0.0,287.871,287.651,262.89,290.234,288.167,264.022,-0.0,-0.0,242.155,257.421
2013-10-24 05:00,0.00158841,287.3,287.212,262.471,289.968,287.888,263.787,-0.0,-0.0,242.489,257.421
2013-10-24 06:00,-0.00197009,286.864,286.882,262.155,289.701,287.748,263.553,-0.0,-0.0,240.782,256.539
2013-10-24 07:00,-0.00288042,286.569,286.661,261.944,289.3,287.609,262.728,-0.0,-0.0,240.665,256.271
2013-10-24 08:00,0.00627995,286.271,286.439,261.944,289.434,287.469,263.318,-0.0,-0.0,239.714,255.911
2013-10-24 09:00,0.437724,286.717,286.772,261.838,289.568,288.027,263.2,0.429139,0.534941,239.834,256.181
2013-10-24 10:00,0.408989,291.563,289.379,263.618,291.948,289.551,264.255,0.209145,0.437427,239.774,255.821
2013-10-24 11:00,0.409116,297.549,292.827,265.557,295.043,291.735,264.372,0.168361,0.406105,239.653,256.001
2013-10-24 12:00,0.348747,301.302,295.244,267.151,297.309,293.216,264.953,0.133581,0.340345,239.714,256.36
2013-10-24 13:00,0.28782,303.428,296.621,268.033,298.549,294.282,264.721,0.104442,0.279502,240.957,256.45
2013-10-24 14:00,0.244068,304.478,297.783,268.711,299.654,295.076,265.301,0.086627,0.235202,240.371,256.539
2013-10-24 15:00,0.218663,304.715,297.879,268.904,299.654,294.944,265.185,0.0754652,0.211155,240.607,256.45
2013-10-24 16:00,0.267639,304.159,292.52,265.658,294.533,290.238,263.67,0.144865,0.252925,239.532,256.45
2013-10-24 17:00,0.223358,301.565,292.52,265.456,294.021,290.238,263.67,0.126458,0.229569,238.671,256.091
2013-10-24 18:00,0.244605,299.672,290.545,264.133,292.079,287.888,262.017,0.167593,0.266439,236.071,254.907
2013-10-24 19:00,0.318731,293.24,283.264,259.024,283.514,279.959,257.653,0.266197,0.369935,231.552,251.051
2013-10-24 20:00,0.350991,297.649,289.486,263.411,291.029,287.609,261.898,0.346714,0.431859,233.53,255.183
2013-10-24 21:00,1.01222,283.428,267.473,250.429,265.654,262.712,246.869,0.73801,1.02189,227.329,241.728
2013-10-24 22:00,-0.00756785,252.585,240.514,234.845,238.693,236.635,230.604,-0.0,-0.0,224.86,231.198
2013-10-24 23:00,-0.0155069,266.131,251.53,240.171,249.579,246.035,235.846,-0.0183816,-0.0156552,226.216,237.608
2013-10-25 00:00,-0.00205309,261.666,247.973,239.115,244.349,241.251,232.867,-0.00173835,-0.00207272,222.259,232.185
2013-10-25 01:00,0.00162774,257.605,243.496,236.306,240.631,237.109,227.94,-0.0,-0.0,221.484,231.695
2013-10-25 02:00,-0.0,252.585,243.496,236.466,241.815,239.208,231.581,-0.0,-0.0,224.76,234.236
2013-10-25 03:00,-0.0,262.074,254.69,242.513,254.854,252.144,240.646,-0.0,-0.0,225.739,240.576
2013-10-25 04:00,-0.0,263.636,263.556,247.991,265.654,264.279,250.633,-0.0,0.00143723,229.263,247.371
2013-10-25 05:00,-0.0,263.255,263.245,247.991,265.482,264.451,251.028,-0.0,-0.0,229.263,247.371
2013-10-25 06:00,-0.0,263.255,266.293,250.177,269.515,269.0,254.646,-0.0,-0.0,229.517,248.882
2013-10-25 07:00,-0.00289963,282.923,280.549,257.91,282.517,279.211,257.9,-0.0,-0.0,229.178,249.303
2013-10-25 08:00,0.00636805,257.605,250.175,240.171,250.83,248.736,240.5,-0.0,-0.0,229.178,240.576
2013-10-25 09:00,0.615672,258.096,244.598,237.572,245.693,244.112,237.373,0.595758,0.754749,230.184,238.441
2013-10-25 10:00,0.429947,289.779,275.046,254.572,275.703,270.473,251.028,0.316404,0.474623,230.996,246.707
2013-10-25 11:00,0.4257,296.427,290.017,263.721,292.079,288.306,261.898,0.181183,0.420576,231.394,249.928
2013-10-25 12:00,0.400839,303.428,270.607,251.922,270.006,263.759,249.438,0.246829,0.377916,231.787,245.918
2013-10-25 13:00,0.309149,300.769,282.799,259.464,283.656,278.004,257.034,0.152884,0.296914,232.481,248.455
2013-10-25 14:00,0.243685,303.592,295.045,266.358,296.182,291.057,262.373,0.0896171,0.236075,232.633,250.849
2013-10-25 15:00,0.211239,303.998,295.244,266.657,296.307,291.193,262.61,0.0773703,0.210863,233.53,250.95
2013-10-25 16:00,0.222124,301.125,289.911,263.515,290.764,286.343,260.822,0.128137,0.22548,233.456,250.95
2013-10-25 17:00,0.279469,303.51,281.505,258.691,282.231,277.396,257.158,0.17747,0.257725,233.308,250.238
2013-10-25 18:00,0.435345,304.636,278.845,257.233,280.054,276.631,256.785,0.312839,0.400584,233.896,250.748
2013-10-25 19:00,0.322267,301.74,287.978,262.366,289.434,284.922,260.581,0.252718,0.32098,234.257,252.047
2013-10-25 20:00,0.363958,300.769,288.843,262.89,290.632,286.485,261.301,0.298917,0.341716,234.756,252.731
2013-10-25 21:00,0.482697,280.799,275.046,254.808,277.377,275.396,256.535,0.525469,0.57085,234.968,252.342
2013-10-25 22:00,-0.00765675,282.923,278.101,256.32,279.466,275.551,254.137,-0.0,-0.0,232.251,249.408
2013-10-25 23:00,-0.0124714,286.717,280.909,258.358,281.943,278.156,255.28,-0.0131994,-0.0157383,231.394,248.241
2013-10-26 00:00,-0.0,285.818,283.611,259.683,285.895,283.339,260.098,-0.0,-0.0,234.686,252.925
2013-10-26 01:00,-0.0,289.779,288.52,262.576,291.029,288.722,263.436,-0.0,-0.0,234.401,253.117
2013-10-26 02:00,-0.00144171,288.43,285.208,260.445,287.134,284.349,259.977,-0.0,0.00145549,231.394,250.748
2013-10-26 03:00,0.00138205,282.753,275.951,255.16,276.315,273.042,252.205,-0.0,-0.0,228.224,245.345
2013-10-26 04:00,-0.0,277.24,266.145,249.669,264.792,260.225,241.664,-0.0,-0.0,226.685,241.475
2013-10-26 05:00,-0.00160041,264.009,246.942,238.81,243.438,239.895,229.946,-0.0,-0.0,221.145,229.838
2013-10-26 06:00,0.00198844,285.665,282.096,258.802,283.797,280.998,257.406,-0.0,-0.0,231.236,250.544
2013-10-26 07:00,-0.0,277.869,269.343,251.056,269.021,265.138,247.279,-0.0,-0.0,227.78,244.294
2013-10-26 08:00,-0.0,283.924,281.148,257.91,282.946,280.554,257.9,-0.0,-0.0,230.018,250.748
2013-10-26 09:00,0.231618,284.57,283.148,259.244,285.061,283.629,261.062,0.374393,0.425149,230.916,251.552
2013-10-26 10:00,0.450699,292.771,289.805,263.411,292.209,289.689,263.553,0.222885,0.495274,232.251,253.021
2013-10-26 11:00,0.399129,290.041,277.727,256.32,277.377,273.359,251.944,0.222735,0.434997,227.51,243.698
2013-10-26 12:00,0.353574,301.39,295.738,266.756,298.549,294.812,265.185,0.139893,0.366962,231.552,252.342
2013-10-26 13:00,0.274441,290.041,272.662,253.381,271.464,267.004,249.037,0.190751,0.314282,224.959,238.165
2013-10-26 14:00,0.25192,304.636,298.167,268.324,301.231,297.17,265.301,0.0926035,0.254328,232.328,252.731
2013-10-26 15:00,0.216883,305.493,299.307,268.904,302.191,297.947,267.023,0.0792738,0.21776,232.935,253.021
2013-10-26 16:00,0.227929,305.261,296.033,267.052,298.795,294.149,265.185,0.101138,0.225186,233.677,252.828
2013-10-26 17:00,0.207964,304.159,296.033,267.151,298.426,294.016,264.488,0.0976974,0.214015,234.113,252.537
2013-10-26 18:00,0.261394,303.917,293.843,266.059,295.93,291.735,263.2,0.145285,0.265512,233.382,252.146
2013-10-26 19:00,0.302045,301.39,290.44,264.133,292.47,287.748,260.581,0.221034,0.326714,232.633,251.352
2013-10-26 20:00,0.39127,299.297,290.965,264.339,293.248,289.551,262.847,0.40184,0.45353,233.382,252.244
2013-10-26 21:00,1.23112,294.713,284.869,260.984,287.407,284.061,260.701,0.882019,1.13362,233.823,252.925
2013-10-26 22:00,-0.0,290.171,288.303,262.786,290.764,287.469,262.847,-0.0,-0.0,234.968,253.5
2013-10-26 23:00,-0.0125393,285.045,282.448,259.244,285.061,282.904,260.701,-0.0132712,-0.0158239,235.247,252.828
2013-10-27 00:00,-0.0,288.705,286.661,261.198,288.628,285.635,261.54,-0.0,-0.00208892,235.455,252.828
2013-10-27 01:00,-0.0,283.428,281.148,258.691,283.372,280.554,259.37,-0.0,-0.0,235.247,252.146
2013-10-27 02:00,-0.0,287.587,285.546,260.984,287.27,284.205,260.701,-0.0,-0.0,237.333,252.537
2013-10-27 03:00,0.00138641,284.57,279.702,257.459,279.907,276.323,255.027,-0.0,-0.0,232.86,248.455
2013-10-27 04:00,-0.0,286.717,284.3,260.228,286.585,283.049,260.098,-0.0,-0.0,234.827,251.751
2013-10-27 05:00,-0.0,278.075,275.694,255.626,277.828,273.99,256.035,-0.0,-0.0,234.827,251.751
2013-10-27 06:00,0.00199756,277.026,273.732,254.454,275.857,272.883,255.28,-0.0,-0.0,232.784,251.652
2013-10-27 07:00,-0.0,269.283,263.088,247.597,263.745,260.225,247.415,-0.0,-0.0,230.018,245.918
2013-10-27 08:00,-0.0065452,259.505,253.226,242.369,253.269,251.354,240.646,-0.0,-0.0,227.42,241.98
2013-10-27 09:00,0.707855,268.986,261.179,246.265,261.791,259.502,245.35,0.702083,0.898381,226.685,243.093
2013-10-27 10:00,0.637597,278.883,261.34,246.265,262.685,261.654,247.959,0.620327,0.691669,227.51,244.175
2013-10-27 11:00,0.585208,280.05,255.764,243.509,256.598,255.045,243.949,0.642804,0.695733,227.51,242.478
2013-10-27 12:00,0.420307,280.613,248.38,238.963,247.878,245.824,237.676,0.422861,0.512518,226.871,238.027
2013-10-27 13:00,0.201718,262.074,248.38,239.115,248.093,246.876,238.876,0.378517,0.451324,228.4,238.986
2013-10-27 14:00,0.263827,257.103,228.463,228.934,228.293,227.787,225.185,0.53196,0.603311,222.368,226.57
2013-10-27 15:00,0.390596,277.661,257.683,244.626,258.491,257.115,245.905,0.470019,0.531748,227.51,243.336
2013-10-27 16:00,0.303114,286.271,264.021,247.991,263.745,261.121,248.094,0.251493,0.334278,228.748,244.998
2013-10-27 17:00,0.199635,302.511,294.346,266.259,295.803,290.511,262.728,0.0737381,0.202896,232.633,251.85
2013-10-27 18:00,0.190503,301.214,295.244,266.855,296.935,292.141,264.022,0.0799715,0.205253,234.968,254.349
2013-10-27 19:00,0.219508,297.349,289.058,262.89,289.568,284.922,259.249,0.149415,0.252023,233.823,252.828
2013-10-27 20:00,0.263241,297.045,292.725,265.355,294.405,290.648,263.553,0.216779,0.320365,235.867,256.36
2013-10-27 21:00,0.570652,293.24,286.55,261.519,287.543,284.061,259.977,0.471934,0.629699,233.53,253.88
2013-10-27 22:00,-0.00784708,278.075,265.243,248.9,262.863,258.04,241.953,-0.0,-0.0,225.449,240.053
2013-10-27 23:00,-0.0126092,267.123,248.38,239.57,243.895,239.438,230.44,-0.0106762,-0.0127298,221.484,231.364
2013-10-28 00:00,-0.0,252.585,237.591,234.35,234.107,230.17,224.304,-0.0,-0.0,218.137,227.136
2013-10-28 01:00,-0.0,255.521,242.142,235.985,240.152,237.815,230.604,-0.0,-0.0,223.118,232.185
2013-10-28 02:00,-0.0,252.585,238.09,233.681,235.93,234.461,229.116,-0.0,-0.0,222.476,228.96
2013-10-28 03:00,0.00139081,251.944,240.277,235.01,238.446,235.435,228.446,-0.0,-0.0,223.013,231.695
2013-10-28 04:00,0.00143791,282.923,280.308,257.798,281.51,278.911,258.023,-0.0,-0.0,233.01,254.349
2013-10-28 05:00,-0.0,285.357,283.841,260.228,284.921,282.613,260.581,-0.0,0.00162782,233.308,256.091
2013-10-28 06:00,-0.0,286.121,284.982,260.876,286.722,284.779,260.822,-0.0,-0.0,233.382,256.271
2013-10-28 07:00,-0.0,287.155,287.322,262.155,289.701,288.167,264.255,-0.0,-0.0,234.329,258.028
2013-10-28 08:00,0.00663399,283.093,278.845,257.12,279.17,276.477,255.406,-0.0,-0.0,229.433,251.751
2013-10-28 09:00,0.642809,284.57,280.669,257.685,281.799,279.361,256.909,0.577251,0.688284,233.823,254.443
2013-10-28 10:00,0.487739,287.3,276.971,255.393,276.772,273.2,251.814,0.349691,0.52417,235.038,252.828
2013-10-28 11:00,0.511112,296.323,286.105,261.091,287.134,284.205,260.461,0.329811,0.470536,239.653,258.457
2013-10-28 12:00,0.335478,298.918,292.725,264.95,293.764,290.648,264.605,0.147594,0.340345,243.686,261.275
2013-10-28 13:00,0.280294,301.565,294.546,265.859,295.424,292.006,264.721,0.10599,0.2816,244.583,261.675
2013-10-28 14:00,0.236503,302.932,295.837,266.855,296.307,292.41,265.069,0.0850789,0.238764,244.058,261.595
2013-10-28 15:00,0.209241,303.836,296.033,267.544,296.684,291.871,264.721,0.0740685,0.210048,244.479,260.952
2013-10-28 16:00,0.192099,303.836,296.229,267.74,296.935,292.41,264.953,0.0700014,0.197618,243.633,260.952
2013-10-28 17:00,0.191332,303.015,295.935,267.642,296.809,292.41,264.953,0.0770352,0.198564,243.633,261.435
2013-10-28 18:00,0.194967,301.565,295.639,267.249,296.684,293.082,265.301,0.0893047,0.209738,243.256,261.993
2013-10-28 19:00,0.206073,299.391,294.846,266.756,296.307,292.814,265.647,0.119956,0.24055,244.217,262.466
2013-10-28 20:00,0.251236,297.045,293.742,266.059,295.424,292.679,265.878,0.233993,0.318859,244.687,263.244
2013-10-28 21:00,0.898244,295.26,290.86,264.339,292.73,290.101,264.488,0.826676,0.972543,245.405,261.914
2013-10-28 22:00,-0.00794891,269.283,272.931,253.98,276.62,275.706,258.515,-0.0,-0.0,243.418,259.887
2013-10-28 23:00,-0.0126813,289.113,288.736,262.681,290.764,288.999,264.605,-0.00805295,-0.0128026,242.82,261.435
2013-10-29 00:00,-0.00208599,288.291,288.412,262.471,290.632,288.999,264.372,-0.0,-0.0,242.544,261.435
2013-10-29 01:00,-0.0,278.883,282.214,259.134,285.479,284.349,262.61,-0.0,-0.0,241.189,261.033
2013-10-29 02:00,-0.0,287.587,287.76,262.681,289.835,288.027,264.022,-0.0,-0.0,240.548,261.113
2013-10-29 03:00,-0.00139524,286.717,287.432,262.155,289.3,287.748,263.905,-0.0,-0.0,238.546,260.217
2013-10-29 04:00,-0.0,286.421,287.102,262.155,289.3,287.888,264.022,-0.0,-0.0,237.333,260.052
2013-10-29 05:00,-0.0,286.271,286.992,261.944,289.166,287.748,264.138,-0.0,-0.0,236.475,259.387
2013-10-29 06:00,-0.0,285.97,286.328,261.944,288.628,287.609,263.553,-0.0,-0.0,236.742,259.97
2013-10-29 07:00,-0.0,285.512,285.77,261.305,288.087,286.907,263.318,-0.0,-0.0,234.185,257.508
2013-10-29 08:00,-0.0,284.888,286.217,261.305,288.897,287.888,263.67,-0.0,-0.0,235.038,258.372
2013-10-29 09:00,0.413789,285.512,286.328,261.305,288.897,288.167,264.372,0.398131,0.531676,233.159,257.246
2013-10-29 10:00,0.402513,289.381,288.303,262.471,290.632,289.137,264.255,0.205146,0.449759,233.01,256.271
2013-10-29 11:00,0.39496,294.491,290.86,264.133,293.377,291.193,264.953,0.167206,0.41686,232.935,256.001
2013-10-29 12:00,0.338031,298.533,293.336,265.557,295.55,292.276,264.953,0.13338,0.351202,234.185,255.548
2013-10-29 13:00,0.281201,301.214,294.945,266.855,296.684,292.814,264.837,0.104669,0.286632,234.257,255.275
2013-10-29 14:00,0.239862,303.428,296.913,268.13,298.426,294.415,265.069,0.0860026,0.244626,235.038,255.911
2013-10-29 15:00,0.211352,304.398,297.687,268.518,299.041,294.679,265.416,0.0719804,0.214564,235.731,256.271
2013-10-29 16:00,0.195511,304.557,297.3,268.615,298.795,294.547,265.069,0.0688888,0.201058,235.455,256.628
2013-10-29 17:00,0.185728,303.015,296.327,267.838,297.558,293.216,264.721,0.078062,0.196946,236.139,256.181
2013-10-29 18:00,0.193035,301.826,296.229,267.838,297.807,293.617,264.953,0.0877995,0.212596,236.542,256.716
2013-10-29 19:00,0.207688,299.95,295.343,267.052,297.06,293.483,264.953,0.117837,0.244259,235.936,256.894
2013-10-29 20:00,0.28219,297.947,293.336,265.959,295.043,291.871,264.605,0.257076,0.346193,236.94,257.246
2013-10-29 21:00,0.446949,294.156,292.005,265.052,294.021,291.464,265.185,0.518991,0.541466,237.268,258.028
2013-10-29 22:00,-0.0,283.924,284.071,260.337,286.722,284.779,262.017,-0.0,-0.0,237.398,257.07
2013-10-29 23:00,-0.00637777,267.444,266.59,249.542,267.354,266.498,251.944,-0.0108001,-0.0096581,232.557,250.135
2013-10-30 00:00,-0.00209471,286.271,283.264,259.134,284.501,281.588,259.735,-0.0,-0.0,234.041,253.69
2013-10-30 01:00,-0.0,276.594,265.394,249.542,261.791,255.992,239.618,-0.0,-0.0,223.746,239.255
2013-10-30 02:00,-0.00146029,269.576,259.871,245.723,258.865,254.664,239.913,-0.0,-0.0,224.959,241.602
2013-10-30 03:00,-0.0,272.58,262.458,247.067,260.341,257.115,241.664,-0.0,-0.0,223.746,238.303
2013-10-30 04:00,-0.0,274.787,262.458,247.332,260.158,254.472,238.577,-0.0,-0.0,221.484,237.327
2013-10-30 05:00,-0.0,237.078,216.88,223.283,212.219,210.576,209.201,-0.0,-0.0,208.652,211.295
2013-10-30 06:00,-0.0,245.913,227.219,228.564,223.443,219.777,216.663,-0.0,-0.0,214.145,219.608
2013-10-30 07:00,-0.00299383,260.395,241.682,235.985,238.199,232.474,224.304,-0.0,-0.0,217.881,227.136
2013-10-30 08:00,0.00681125,233.989,221.841,225.504,219.508,217.607,217.25,-0.0,-0.0,215.31,217.918
2013-10-30 09:00,0.45509,273.338,261.017,246.265,259.791,255.425,240.793,0.462389,0.643217,226.216,240.576
2013-10-30 10:00,0.396142,275.707,251.721,241.354,248.733,243.024,230.768,0.394603,0.529318,220.801,232.022
2013-10-30 11:00,0.348967,281.705,256.992,244.349,253.867,247.708,233.976,0.286,0.426829,222.368,235.592
2013-10-30 12:00,0.352071,297.248,284.414,260.337,283.656,277.548,253.881,0.17054,0.380234,227.238,245.46
2013-10-30 13:00,0.367579,286.569,245.032,237.415,242.049,236.396,229.283,0.318119,0.420389,222.906,231.53
2013-10-30 14:00,0.28356,296.427,275.694,255.16,274.623,267.673,247.823,0.168684,0.294908,227.42,243.457
2013-10-30 15:00,0.303099,287.729,261.179,245.859,261.25,256.555,242.956,0.309558,0.381008,227.51,242.478
2013-10-30 16:00,0.231669,294.713,276.845,255.043,276.772,271.765,251.291,0.212586,0.302457,229.852,247.808
2013-10-30 17:00,0.320251,270.989,233.116,231.274,230.574,226.974,222.329,0.594283,0.674914,221.484,228.96
2013-10-30 18:00,0.323292,262.475,234.477,231.625,234.107,232.976,229.116,0.670168,0.760486,225.643,231.695
2013-10-30 19:00,0.583021,275.251,213.479,222.027,211.825,209.859,210.718,0.840821,0.957275,211.303,212.505
2013-10-30 21:00,2.34252,275.251,240.514,235.499,239.911,238.049,230.44,1.78188,2.55461,225.643,235.444
2013-10-30 22:00,-0.008167,222.276,221.481,225.897,220.852,218.857,217.832,-0.0,-0.0,217.36,219.372
2013-10-30 23:00,-0.00962391,266.466,247.973,239.721,243.209,236.872,226.746,-0.00814855,-0.00971591,218.391,229.838
2013-10-31 00:00,-0.00210362,225.382,209.237,220.298,207.702,205.74,207.423,-0.0,-0.00212373,207.697,208.371
2013-10-31 01:00,-0.0,238.442,222.904,227.058,220.184,215.683,214.265,-0.0,-0.0,214.293,218.165
2013-10-31 02:00,-0.0,270.989,257.683,244.765,254.854,250.156,236.46,-0.0,-0.0,222.585,235.74
2013-10-31 03:00,-0.0,276.155,266.738,250.177,265.654,260.764,243.949,-0.0,-0.0,224.661,240.706
2013-10-31 04:00,-0.00145233,230.231,228.155,228.934,228.001,226.701,225.009,-0.0,-0.0,223.434,226.187
2013-10-31 05:00,-0.0,259.954,251.147,241.061,248.946,246.035,235.846,-0.0,-0.0,224.258,236.325
2013-10-31 06:00,-0.0,283.093,279.58,257.685,280.054,277.091,255.28,-0.0,-0.0,229.433,249.198
2013-10-31 07:00,-0.0,283.428,281.978,259.244,283.797,281.146,258.515,-0.0,-0.0,231.552,251.751
2013-10-31 08:00,-0.0,283.594,282.096,259.464,283.656,281.146,259.005,-0.0,-0.00696537,231.473,252.047
2013-10-31 09:00,0.441405,285.665,284.642,260.553,286.447,284.205,260.701,0.403636,0.552574,232.02,252.925
2013-10-31 10:00,0.393811,290.041,286.439,261.944,287.543,284.492,260.34,0.215754,0.440451,231.236,253.405
2013-10-31 11:00,0.383599,294.713,289.058,263.618,290.632,286.907,262.255,0.168061,0.405278,231.787,253.974
2013-10-31 12:00,0.330135,298.533,292.314,265.153,293.635,290.101,262.965,0.13146,0.341541,234.113,254.999
2013-10-31 13:00,0.273591,300.317,292.827,265.959,293.764,289.276,262.136,0.105503,0.28441,233.308,254.256
2013-10-31 14:00,0.234388,301.302,292.108,265.355,292.079,286.202,259.492,0.0919926,0.244023,231.63,252.828
2013-10-31 15:00,0.220299,302.085,293.336,265.959,294.021,289.137,261.898,0.0947595,0.224783,232.935,254.349
2013-10-31 16:00,0.23625,299.765,287.76,262.786,287.543,282.028,257.034,0.13951,0.238509,232.405,252.634
2013-10-31 17:00,0.205222,298.339,286.328,261.731,286.033,280.257,255.532,0.125243,0.227364,231.865,251.552
2013-10-31 18:00,0.227344,298.533,288.843,262.89,289.568,284.922,259.249,0.142686,0.261618,233.01,253.021
2013-10-31 19:00,0.210878,297.649,290.335,263.928,291.029,286.767,261.062,0.14789,0.247301,233.159,254.068
2013-10-31 20:00,0.339608,297.045,290.44,264.133,291.686,288.167,262.017,0.299527,0.410711,234.543,254.814
2013-10-31 21:00,0.700454,290.429,284.869,260.984,286.447,283.773,261.301,0.634693,0.818806,236.341,254.999
2013-10-31 22:00,-0.00828373,261.666,259.373,245.723,261.069,259.502,246.869,-0.0,-0.0,233.677,249.825
2013-10-31 23:00,-0.0129104,233.989,220.379,224.507,219.167,217.922,217.445,-0.00819841,-0.00977536,213.845,215.6
