# timestamp,IR_016,IR_039,IR_087,IR_097,IR_108,IR_120,IR_134,VIS006,VIS008,WV_062,WV_073
2013-08-01 00:00,-0.0806102,283.594,285.77,259.902,287.815,288.306,264.953,-0.0249704,-0.0476375,244.583,264.765
2013-08-01 01:00,-0.00154288,283.261,285.095,259.683,287.407,287.609,264.837,-0.0,-0.0,244.322,264.54
2013-08-01 02:00,-0.00133454,282.234,284.642,259.134,286.585,287.329,264.721,-0.0,-0.0,244.269,264.69
2013-08-01 03:00,-0.0,281.526,283.611,258.469,285.895,286.485,264.138,-0.0,-0.0,244.058,264.54
2013-08-01 04:00,-0.0,280.982,283.264,258.58,285.34,285.919,264.138,-0.0,-0.0,244.164,264.69
2013-08-01 05:00,-0.0,280.427,283.032,258.134,284.921,285.493,263.905,-0.0,-0.0,244.164,264.389
2013-08-01 06:00,-0.0,280.05,282.682,258.022,284.781,285.493,263.787,-0.0,-0.0,244.374,264.615
2013-08-01 07:00,-0.00181688,279.859,282.448,257.91,284.781,285.493,264.138,-0.0,-0.0,244.687,265.063
2013-08-01 08:00,-0.0,279.859,282.096,257.798,284.22,284.922,263.787,-0.0,0.00259642,244.635,264.989
2013-08-01 09:00,-0.0,279.081,281.978,257.572,284.079,284.636,263.905,-0.0,-0.0,244.894,264.765
2013-08-01 10:00,-0.187916,279.859,281.86,258.022,283.938,284.636,263.436,-0.530362,-0.569138,244.842,264.839
2013-08-01 11:00,0.559057,285.045,285.658,259.902,287.951,288.027,264.372,0.303942,0.570342,244.894,264.989
2013-08-01 12:00,0.505217,292.414,290.545,262.89,293.119,292.41,266.222,0.22514,0.480219,245.253,264.839
2013-08-01 13:00,0.420355,297.947,295.442,265.859,298.302,296.65,267.705,0.17353,0.384258,244.894,264.839
2013-08-01 14:00,0.362379,301.302,298.358,267.935,301.472,299.232,268.722,0.138802,0.311837,244.687,264.69
2013-08-01 15:00,0.314678,303.346,299.966,268.807,302.907,300.379,268.722,0.1159,0.266856,244.269,264.54
2013-08-01 16:00,0.294143,304.159,300.433,269.0,303.263,300.379,268.271,0.1041,0.234107,244.79,263.858
2013-08-01 17:00,0.276692,303.51,299.778,268.807,302.788,299.87,267.819,0.101613,0.223806,244.269,263.782
2013-08-01 18:00,0.262397,301.565,298.644,267.838,301.352,298.72,267.365,0.106112,0.223391,244.217,263.322
2013-08-01 19:00,0.286226,299.579,296.033,266.159,298.672,295.996,266.337,0.153412,0.267754,244.426,263.09
2013-08-01 20:00,0.465287,297.848,291.07,263.515,293.506,291.057,264.372,0.316711,0.46513,244.945,262.623
2013-08-01 21:00,0.731811,289.381,288.195,261.625,290.5,289.276,264.138,0.527827,0.711443,244.997,262.857
2013-08-01 22:00,-0.00650497,278.075,278.474,256.089,281.366,279.511,259.37,-0.0,-0.0,244.217,261.275
2013-08-01 23:00,-0.0942129,274.787,275.306,254.572,278.725,277.243,259.249,-0.0274209,-0.0564737,244.374,261.194
2013-08-02 00:00,-0.0885252,284.087,285.321,259.683,287.679,286.907,264.022,-0.0249847,-0.0496508,243.899,262.701
2013-08-02 01:00,-0.00154309,284.41,285.994,260.337,288.358,288.027,264.372,-0.0,-0.0,244.111,263.629
2013-08-02 02:00,-0.0,283.76,285.882,259.902,288.222,288.445,265.301,-0.0,-0.0,244.058,264.54
2013-08-02 03:00,-0.0,283.76,285.994,260.011,288.222,288.445,264.953,-0.0,-0.0,243.793,265.212
2013-08-02 04:00,-0.00123116,284.087,286.105,260.119,288.358,288.445,264.953,-0.0,-0.0,243.31,264.69
2013-08-02 05:00,-0.00129957,283.428,285.658,259.902,287.815,288.306,265.069,-0.0,-0.0,243.472,264.914
2013-08-02 06:00,-0.0,282.059,284.755,259.134,286.997,287.329,264.721,-0.0,-0.0,243.899,264.54
2013-08-02 07:00,-0.0,281.346,283.611,258.691,286.033,286.343,264.605,-0.0,-0.0,244.374,264.69
2013-08-02 08:00,-0.0,280.239,282.799,258.246,285.201,285.635,264.138,-0.0,-0.0,244.058,264.389
2013-08-02 09:00,-0.00486717,279.859,282.566,257.798,284.781,285.35,263.787,-0.0,-0.0,244.217,264.389
2013-08-02 10:00,-0.274801,279.859,282.331,257.91,284.641,285.065,263.553,-0.639853,-0.693571,244.322,264.01
2013-08-02 11:00,0.565136,286.121,286.217,260.228,288.628,288.445,264.488,0.305845,0.576421,243.953,263.858
2013-08-02 12:00,0.519913,293.702,291.591,263.515,294.021,292.545,265.647,0.231296,0.468539,243.953,264.086
2013-08-02 13:00,0.43094,299.391,296.131,266.458,298.672,296.258,266.909,0.174506,0.376211,244.164,264.238
2013-08-02 14:00,0.364377,302.764,298.929,267.935,301.472,298.72,267.932,0.138251,0.305393,244.164,264.464
2013-08-02 15:00,0.322917,304.398,300.619,269.384,303.263,300.379,268.609,0.116798,0.259537,244.374,264.54
2013-08-02 16:00,0.291529,303.998,300.526,269.096,303.025,300.252,267.932,0.103724,0.231696,244.374,264.238
2013-08-02 17:00,0.282316,303.917,300.246,269.192,303.144,299.998,268.045,0.101239,0.219629,244.479,263.934
2013-08-02 18:00,0.275013,301.999,299.024,268.227,301.952,299.232,267.932,0.105692,0.226446,244.322,263.552
2013-08-02 19:00,0.287511,299.672,297.397,267.348,299.898,297.3,267.023,0.134996,0.255956,244.006,263.706
2013-08-02 20:00,0.317172,295.902,294.245,265.254,296.809,294.812,266.452,0.214839,0.311055,244.269,263.399
2013-08-02 21:00,0.735728,289.647,288.412,261.731,290.632,288.861,263.905,0.5117,0.689707,244.426,262.779
2013-08-02 22:00,-0.00654081,284.087,284.982,260.011,287.543,286.343,263.318,-0.0,-0.0,244.111,262.701
2013-08-02 23:00,-0.0943636,284.57,285.546,259.902,287.951,287.188,263.083,-0.024968,-0.056564,243.899,262.545
2013-08-03 00:00,-0.0944787,283.924,285.77,259.683,288.087,287.609,264.138,-0.026665,-0.0496781,242.875,262.151
2013-08-03 01:00,-0.0,283.093,285.095,259.464,287.543,287.469,264.255,-0.0,-0.0,242.655,262.23
2013-08-03 02:00,-0.00133436,282.923,284.869,259.464,287.27,287.048,263.905,-0.0,-0.0,242.099,261.834
2013-08-03 03:00,-0.0,282.059,284.185,259.244,286.585,286.767,264.138,-0.0,-0.0,241.874,262.072
2013-08-03 04:00,0.00123108,281.883,284.071,259.134,286.31,286.626,263.67,-0.0,-0.0,241.533,261.355
2013-08-03 05:00,-0.00129968,281.883,284.071,258.913,286.172,286.626,263.905,-0.0,-0.0,241.59,261.675
2013-08-03 06:00,-0.0,281.165,283.611,258.691,285.757,286.06,264.022,-0.0,-0.0,241.817,262.309
2013-08-03 07:00,-0.0,280.427,282.916,258.691,285.061,285.493,263.905,-0.0,-0.0,241.93,262.545
2013-08-03 08:00,-0.0,280.427,282.448,258.134,284.781,285.35,263.905,-0.0,-0.0,242.155,262.623
2013-08-03 09:00,-0.00489439,280.05,282.214,258.022,284.501,285.208,263.787,-0.0,0.00494118,241.874,262.545
2013-08-03 10:00,-0.305615,279.667,282.214,257.91,284.22,284.779,263.436,-0.7116,-0.848476,241.647,262.466
2013-08-03 11:00,0.565131,285.818,285.994,260.119,288.493,288.306,265.069,0.307604,0.582177,242.099,262.309
2013-08-03 12:00,0.508068,293.124,291.279,263.099,293.764,292.814,266.337,0.227452,0.483446,242.099,262.779
2013-08-03 13:00,0.437234,298.822,295.837,266.059,298.918,297.17,267.592,0.175453,0.387022,242.322,262.935
2013-08-03 14:00,0.371464,301.913,298.929,267.935,302.072,300.125,269.395,0.14204,0.317985,241.817,262.935
2013-08-03 15:00,0.32639,304.478,300.99,269.096,304.442,302.018,269.506,0.117682,0.268023,241.76,263.322
2013-08-03 16:00,0.296645,304.239,301.36,269.575,304.676,302.269,269.841,0.104654,0.238649,241.476,263.012
2013-08-03 17:00,0.286234,303.917,301.083,269.096,304.442,302.144,269.506,0.102265,0.225497,241.419,262.701
2013-08-03 18:00,0.279752,301.999,299.684,267.935,302.788,300.759,268.946,0.108563,0.241239,240.899,261.993
2013-08-03 19:00,0.293985,299.579,298.167,267.249,301.231,299.488,268.609,0.134371,0.267903,240.841,262.072
2013-08-03 20:00,0.346568,296.323,295.442,265.557,298.302,297.04,267.705,0.21341,0.331705,241.015,262.309
2013-08-03 21:00,0.535558,289.247,290.017,262.471,292.6,291.871,266.681,0.453456,0.592171,240.899,261.834
2013-08-03 22:00,-0.0,285.512,287.869,261.198,290.234,290.101,265.647,-0.0,-0.0,240.253,261.595
2013-08-03 23:00,-0.0945111,285.202,287.102,260.876,289.568,289.551,265.185,-0.0275077,-0.0536707,240.074,261.355
2013-08-04 00:00,-0.0945285,284.41,286.217,260.445,288.628,288.722,265.416,-0.0250116,-0.0516924,239.653,261.194
2013-08-04 01:00,-0.0,283.594,285.77,259.902,287.951,288.167,265.185,-0.0,-0.0,238.919,261.113
2013-08-04 02:00,-0.00266853,282.923,285.208,259.354,287.543,287.748,264.605,-0.0,-0.0,238.104,261.113
2013-08-04 03:00,-0.0,282.408,284.3,259.024,286.447,287.048,264.138,-0.0,-0.0,238.357,260.789
2013-08-04 04:00,-0.0,281.526,283.841,258.913,286.172,286.626,264.721,-0.0,-0.0,238.041,260.545
2013-08-04 05:00,0.00129983,281.883,284.185,259.244,286.31,286.767,264.605,-0.0,-0.0,237.977,260.381
2013-08-04 06:00,-0.00147176,281.346,283.495,258.691,285.757,286.343,264.372,-0.0,-0.0,238.357,259.887
2013-08-04 07:00,-0.00182202,280.427,282.682,258.246,284.921,285.635,264.372,-0.0,-0.0,238.857,260.217
2013-08-04 08:00,-0.0,280.239,282.682,258.246,285.201,285.919,263.905,-0.0,-0.0,238.919,260.381
2013-08-04 09:00,-0.00492327,279.667,282.214,257.91,284.641,285.35,264.022,-0.0,-0.0,239.227,259.97
2013-08-04 10:00,-0.345966,279.667,281.978,257.685,284.361,285.35,264.022,-0.805554,-0.873183,239.714,260.381
2013-08-04 11:00,0.593466,286.717,286.55,260.445,289.3,289.137,265.069,0.304391,0.576095,239.593,260.299
2013-08-04 12:00,0.531106,294.491,292.211,263.928,295.424,294.149,266.222,0.228529,0.489304,239.471,260.299
2013-08-04 13:00,0.439297,299.858,296.425,266.657,299.898,297.689,267.365,0.176372,0.381032,239.227,259.304
2013-08-04 14:00,0.368234,303.264,299.024,268.421,302.43,299.616,267.478,0.13857,0.313238,239.043,258.798
2013-08-04 15:00,0.322037,304.715,299.872,269.0,302.907,299.616,267.592,0.115917,0.263862,238.981,258.457
2013-08-04 16:00,0.30171,305.028,299.496,268.711,302.55,298.72,266.452,0.106875,0.239324,239.349,257.855
2013-08-04 17:00,0.27363,303.755,298.262,267.74,300.748,297.04,266.222,0.104676,0.214673,238.919,257.07
2013-08-04 18:00,0.220591,299.579,295.343,266.358,298.055,294.547,265.647,0.108132,0.205118,238.733,256.539
2013-08-04 19:00,0.261552,297.848,292.005,264.236,294.021,290.511,263.67,0.171025,0.23268,238.795,256.894
2013-08-04 20:00,0.69304,296.738,284.869,260.011,286.86,284.061,261.062,0.514866,0.650011,239.288,256.982
2013-08-04 21:00,0.69383,287.155,285.433,260.228,287.543,285.493,262.136,0.524522,0.700462,239.593,256.894
2013-08-04 22:00,-0.0,284.888,284.185,259.464,286.447,284.779,261.301,-0.0,-0.0,239.834,256.805
2013-08-04 23:00,-0.0828233,282.059,281.267,257.685,283.797,281.588,259.735,-0.0250451,-0.0567388,240.841,257.508
2013-08-05 00:00,-0.0926057,274.073,274.916,253.621,277.377,275.861,258.023,-0.0250242,-0.0497293,240.841,257.333
2013-08-05 01:00,-0.00154358,281.346,279.702,256.664,282.803,280.406,259.249,-0.0,-0.0,239.349,257.246
2013-08-05 02:00,-0.0,282.234,281.742,257.798,284.079,282.028,260.098,-0.0,-0.0,238.168,256.894
2013-08-05 03:00,-0.0,278.684,279.336,256.434,282.087,280.554,259.492,-0.0,-0.0,235.936,256.894
2013-08-05 04:00,-0.0,272.58,267.473,249.029,266.847,264.623,248.903,-0.0,-0.0,229.685,246.707
2013-08-05 05:00,-0.0,249.156,238.09,233.175,236.441,234.706,228.446,-0.0,-0.0,222.692,229.664
2013-08-05 06:00,-0.00147247,281.883,282.916,258.58,285.618,285.208,262.255,-0.0,-0.0,233.677,256.091
2013-08-05 07:00,-0.0,277.869,276.591,254.454,277.528,276.169,255.784,-0.0,-0.0,232.02,252.439
2013-08-05 08:00,0.00259435,278.075,277.35,255.16,279.17,278.458,258.023,-0.0,-0.0,232.86,253.309
2013-08-05 09:00,-0.0,280.239,281.978,258.022,284.641,284.636,262.728,-0.0,-0.0,235.731,257.07
2013-08-05 11:00,0.558906,286.271,285.77,259.793,288.222,287.329,263.787,0.305923,0.55285,238.671,258.372
2013-08-05 12:00,0.51628,293.356,290.123,262.681,292.989,291.057,264.605,0.229556,0.462979,238.919,258.2
2013-08-05 13:00,0.433082,298.242,293.843,265.052,296.809,294.149,265.532,0.177263,0.372986,239.043,258.028
2013-08-05 14:00,0.370096,301.39,296.718,266.855,299.898,296.519,266.108,0.14518,0.305077,238.608,258.2
2013-08-05 15:00,0.330097,302.932,298.167,267.446,300.99,297.559,266.909,0.12072,0.258154,238.168,257.942
2013-08-05 16:00,0.292921,303.264,298.453,267.838,301.592,297.947,266.681,0.106478,0.227597,238.294,258.286
2013-08-05 17:00,0.284101,302.511,298.167,267.642,301.352,298.076,266.566,0.102893,0.222159,237.849,257.682
2013-08-05 18:00,0.279462,300.947,297.494,267.052,300.627,297.559,266.681,0.109335,0.227652,238.168,257.421
2013-08-05 19:00,0.288703,298.63,296.033,265.959,299.041,296.258,266.452,0.133135,0.25503,237.333,257.595
2013-08-05 20:00,0.319828,295.583,293.944,264.747,297.06,294.547,265.878,0.20686,0.304947,237.785,257.942
2013-08-05 21:00,0.361535,288.568,289.058,262.049,292.079,290.784,265.069,0.469371,0.510988,237.398,257.769
2013-08-05 22:00,-0.00664742,285.512,286.882,260.445,289.701,289.137,264.605,-0.0,-0.0,237.137,257.508
2013-08-05 23:00,-0.106646,284.41,285.882,259.902,288.628,288.167,264.605,-0.0300989,-0.0568233,237.137,257.595
2013-08-06 00:00,-0.0670237,283.594,284.982,259.354,287.815,287.888,263.905,-0.0233672,-0.0477631,236.742,257.333
2013-08-06 01:00,-0.00154372,282.059,284.071,258.691,286.86,286.767,264.022,-0.0,-0.0,236.341,257.769
2013-08-06 02:00,0.00133407,281.526,283.495,258.358,285.895,286.343,263.905,-0.0,-0.0,236.071,258.028
2013-08-06 03:00,-0.0,281.346,283.032,258.134,285.479,285.777,263.905,-0.0,-0.0,235.936,257.855
2013-08-06 04:00,-0.0,281.165,283.148,258.022,285.479,285.777,263.318,-0.0,-0.0,236.609,258.457
2013-08-06 05:00,-0.00130026,281.165,282.916,257.798,285.201,285.635,263.787,-0.0,-0.0,236.94,259.22
2013-08-06 06:00,-0.0,280.427,282.448,257.798,284.781,285.208,263.553,-0.0,-0.0,236.475,259.471
2013-08-06 07:00,-0.00182618,280.05,282.214,257.572,284.501,284.922,263.787,-0.0,-0.0,237.398,260.217
2013-08-06 08:00,-0.0,280.239,282.448,257.572,284.641,285.208,263.436,-0.0,-0.0,237.203,260.952
2013-08-06 09:00,-0.0,279.278,281.978,257.346,283.938,284.922,264.138,-0.0,-0.0,237.268,261.675
2013-08-06 10:00,-0.600046,279.667,282.096,257.12,284.22,285.208,263.787,-1.21934,-1.45388,237.657,261.675
2013-08-06 11:00,0.586329,286.421,286.55,259.793,289.032,289.276,265.416,0.31205,0.597572,237.657,261.834
2013-08-06 12:00,0.530215,294.043,292.417,263.411,295.424,294.547,267.023,0.232959,0.497669,237.333,262.388
2013-08-06 13:00,0.439137,300.042,297.494,266.358,300.869,299.36,268.722,0.178126,0.393847,237.463,262.23
2013-08-06 14:00,0.378675,303.51,300.619,268.227,303.972,301.767,269.283,0.145998,0.320855,237.137,261.993
2013-08-06 15:00,0.330357,305.261,302.003,269.096,305.61,303.142,269.506,0.12025,0.272735,235.455,261.194
2013-08-06 16:00,0.30252,305.261,302.185,269.192,305.958,303.391,269.841,0.104786,0.240627,234.968,260.708
2013-08-06 17:00,0.287942,304.398,301.452,268.904,304.91,302.519,269.506,0.0997363,0.229583,234.185,259.887
2013-08-06 18:00,0.280271,302.426,300.153,268.033,303.618,301.264,268.722,0.105649,0.2345,233.677,259.304
2013-08-06 19:00,0.292512,299.579,297.879,266.756,301.11,298.72,267.819,0.130352,0.266814,233.456,258.798
2013-08-06 20:00,0.313351,295.69,294.546,264.747,297.309,295.865,266.452,0.198051,0.31189,233.677,258.628
2013-08-06 21:00,0.469342,289.113,289.699,261.944,292.6,291.735,265.301,0.457,0.568595,233.823,258.967
2013-08-06 22:00,-0.0,286.121,287.869,260.445,290.5,289.826,265.185,-0.0,-0.0,233.968,259.304
2013-08-06 23:00,-0.0771336,284.41,286.328,259.683,288.897,288.584,264.255,-0.0251188,-0.0539107,233.53,259.22
2013-08-07 00:00,-0.0828321,284.249,286.105,259.683,288.763,288.722,264.837,-0.0233779,-0.0477851,233.53,259.135
2013-08-07 01:00,-0.00154384,283.093,285.321,259.354,287.951,288.027,264.721,-0.0,-0.0,233.456,259.051
2013-08-07 02:00,-0.00266796,282.408,284.3,259.024,286.86,287.188,264.372,-0.0,-0.0,233.382,259.135
2013-08-07 03:00,-0.00124101,282.753,284.755,258.913,287.134,287.329,264.605,-0.0,-0.0,232.86,259.387
2013-08-07 04:00,0.00123097,281.883,283.956,258.691,286.447,286.767,264.488,-0.0,-0.0,232.328,259.135
2013-08-07 05:00,-0.0,281.165,283.264,258.358,285.895,286.485,264.022,-0.0,-0.0,232.251,259.051
2013-08-07 06:00,0.00147413,281.165,283.264,258.246,285.757,286.343,263.787,-0.0,-0.0,232.405,259.554
2013-08-07 07:00,-0.0,279.859,281.978,257.685,283.797,284.205,263.318,-0.0,-0.0,232.557,258.798
2013-08-07 08:00,-0.0,280.613,282.682,257.798,284.921,285.493,263.67,-0.0,-0.0,232.709,260.217
2013-08-07 09:00,-0.0,279.667,281.624,256.892,283.23,283.773,262.965,-0.0,-0.0,232.251,259.638
2013-08-07 10:00,-1.50817,278.883,278.845,255.742,280.347,280.406,260.34,-2.04314,-2.5884,231.709,257.942
2013-08-07 11:00,0.458343,285.665,285.882,259.793,288.222,288.167,264.837,0.266512,0.4906,232.557,260.952
2013-08-07 12:00,0.535347,294.38,292.52,263.721,295.424,294.547,266.909,0.236283,0.514591,233.308,261.914
2013-08-07 13:00,0.420699,295.476,288.951,261.731,290.234,288.167,261.421,0.192729,0.383685,231.315,256.894
2013-08-07 14:00,0.353489,296.943,288.843,261.625,290.234,287.469,259.977,0.163902,0.322881,231.236,256.091
2013-08-07 15:00,0.319834,300.679,294.945,265.355,296.684,294.282,264.372,0.131496,0.284082,232.633,259.387
2013-08-07 16:00,0.307468,301.565,295.343,265.254,297.931,295.076,264.721,0.122434,0.25816,232.935,259.721
2013-08-07 17:00,0.293376,302.68,298.739,267.74,301.952,299.616,268.045,0.10902,0.245171,233.603,261.435
2013-08-07 18:00,0.286805,302.256,300.246,268.421,303.499,301.893,269.841,0.108468,0.250941,233.603,261.834
2013-08-07 19:00,0.301395,297.349,293.133,264.236,295.297,293.216,264.372,0.16436,0.288805,231.076,257.682
2013-08-07 20:00,0.337662,296.427,295.935,265.959,299.164,298.076,268.384,0.2005,0.345317,231.943,260.135
2013-08-07 21:00,0.091482,288.568,290.123,262.155,292.6,292.545,266.566,0.290466,0.27707,232.709,260.299
2013-08-07 22:00,-0.00671746,285.818,287.978,261.091,290.367,290.375,265.993,-0.0,-0.0,232.557,260.052
2013-08-07 23:00,-0.0742718,284.888,286.882,260.119,289.434,289.551,265.301,-0.0251543,-0.0569861,232.175,259.304
2013-08-08 00:00,-0.0808956,284.249,286.439,260.011,288.628,288.722,264.837,-0.0233882,-0.0478062,232.251,259.721
2013-08-08 01:00,-0.0,274.314,269.908,249.669,269.186,268.505,251.814,-0.0,-0.0,228.835,248.775
2013-08-08 02:00,-0.0,282.753,284.071,258.358,286.447,286.202,263.553,-0.0,-0.0,231.156,259.471
2013-08-08 03:00,-0.0,283.428,285.095,259.024,286.997,287.188,264.255,-0.0,-0.0,232.175,260.381
2013-08-08 04:00,-0.0,282.059,284.185,258.691,286.447,287.329,265.069,-0.0,-0.0,233.382,260.627
2013-08-08 05:00,-0.0,281.346,283.495,258.469,285.895,286.626,264.605,-0.0,-0.0,232.481,260.381
2013-08-08 06:00,-0.00147509,281.165,283.495,258.246,285.757,286.485,264.837,-0.0,-0.0,232.709,260.627
2013-08-08 07:00,-0.0,280.239,283.032,257.798,285.061,285.919,264.488,-0.0,-0.0,232.557,260.789
2013-08-08 08:00,0.00261516,275.932,273.865,252.534,274.312,273.99,255.784,-0.0,-0.0,230.184,254.162
2013-08-08 09:00,-0.0,277.451,276.845,254.336,278.427,278.307,258.76,-0.0,-0.0,230.835,256.001
2013-08-08 10:00,-1.84789,279.859,281.742,257.233,283.656,284.349,263.436,-2.25998,-2.90197,231.315,258.628
2013-08-08 11:00,0.616977,286.717,286.217,260.011,288.628,288.584,265.069,0.31436,0.628387,231.552,259.051
2013-08-08 12:00,0.548817,293.816,291.694,263.307,294.916,294.282,267.137,0.237132,0.505512,231.236,259.135
2013-08-08 13:00,0.471155,300.679,297.879,266.954,301.11,299.36,268.609,0.186622,0.414415,230.593,258.543
2013-08-08 14:00,0.33855,292.053,280.549,256.32,279.76,277.243,254.392,0.183058,0.329942,228.048,248.455
2013-08-08 15:00,0.333882,300.947,292.725,263.411,294.405,291.329,261.301,0.142645,0.289141,229.935,254.443
2013-08-08 16:00,0.309335,301.913,295.045,264.849,297.683,294.679,263.436,0.130957,0.264836,230.511,255.366
2013-08-08 17:00,0.334483,284.888,263.088,245.723,260.158,255.992,238.727,0.244712,0.352433,225.352,239.39
2013-08-08 18:00,0.358036,282.923,264.329,246.667,261.971,259.321,243.099,0.285411,0.40568,224.359,238.986
2013-08-08 19:00,0.434788,267.444,234.477,231.274,230.853,228.856,224.481,0.449942,0.544188,219.014,224.811
2013-08-08 20:00,0.531623,284.249,265.995,247.465,265.654,261.831,243.241,0.490709,0.642286,228.575,245.69
2013-08-08 21:00,0.914688,263.636,246.313,236.146,244.8,243.024,233.819,0.698908,1.01352,223.224,233.461
2013-08-08 22:00,-0.00675209,285.512,287.212,260.119,289.968,289.689,265.069,-0.0,-0.0,231.156,257.158
2013-08-08 23:00,-0.0862738,270.989,261.501,244.626,261.069,257.856,242.384,-0.0277078,-0.0570646,224.76,242.602
2013-08-09 00:00,-0.0671124,283.594,283.148,257.685,284.501,284.061,260.942,-0.0217268,-0.0478263,229.685,254.999
2013-08-09 01:00,-0.0,278.482,275.176,252.777,276.01,274.929,254.646,-0.0,-0.0,228.488,251.452
2013-08-09 02:00,-0.0013338,275.707,268.63,249.414,267.354,264.279,246.732,-0.0,-0.0,225.739,247.261
2013-08-09 03:00,-0.0,280.982,280.549,256.089,282.087,281.588,260.461,-0.0,-0.0,229.348,254.907
2013-08-09 04:00,-0.0,265.791,256.992,242.656,255.633,254.089,242.097,-0.0,0.00124285,226.216,240.835
2013-08-09 05:00,-0.00130126,243.066,235.8,231.45,235.414,233.474,228.278,-0.0,-0.0,223.746,230.524
2013-08-09 06:00,-0.0,266.466,258.365,243.368,258.116,255.803,242.671,-0.0,-0.0,227.51,243.937
2013-08-09 07:00,-0.0,273.586,270.607,250.303,271.303,270.635,253.24,-0.0,-0.0,229.093,250.34
2013-08-09 08:00,-0.0,277.869,276.971,254.099,278.427,278.004,257.53,-0.0,-0.0,229.517,254.536
2013-08-09 09:00,-0.0,254.396,242.37,234.515,239.911,238.515,231.257,-0.0,-0.0,222.906,232.669
2013-08-09 10:00,-1.63792,276.811,273.466,251.305,273.529,271.926,251.159,-2.49628,-2.97644,229.007,252.828
2013-08-09 11:00,0.507362,277.869,269.201,248.9,269.515,266.835,247.551,0.356462,0.550355,228.488,247.917
2013-08-09 12:00,0.429951,281.346,268.487,248.382,267.185,264.106,246.044,0.295038,0.473779,226.592,242.971
2013-08-09 13:00,0.384253,283.428,265.545,247.465,263.393,259.684,243.099,0.248694,0.404174,225.835,239.922
2013-08-09 14:00,0.303694,295.902,288.087,260.228,287.543,284.779,259.37,0.156825,0.308281,228.488,249.928
2013-08-09 15:00,0.283733,283.924,263.867,246.533,260.158,256.367,241.664,0.214405,0.306466,223.329,235.592
2013-08-09 16:00,0.32024,304.478,298.644,266.855,300.748,297.04,265.993,0.12662,0.263826,231.473,254.814
2013-08-09 17:00,0.279836,299.013,290.017,262.049,291.555,288.445,262.255,0.191741,0.279245,232.328,253.595
2013-08-09 18:00,0.303504,285.357,271.299,250.806,270.169,268.173,249.971,0.281068,0.365772,227.055,241.98
2013-08-09 19:00,0.39233,280.239,263.401,245.314,261.069,258.957,243.525,0.379334,0.462519,226.963,239.121
2013-08-09 20:00,0.337772,292.889,289.379,261.412,291.555,288.861,262.017,0.249326,0.327886,230.996,253.88
2013-08-09 21:00,0.588094,290.041,286.661,259.902,288.763,286.767,261.182,0.479496,0.637695,231.787,254.722
2013-08-09 22:00,-0.0,286.121,285.994,259.354,288.493,287.329,262.373,-0.0,-0.0,233.085,256.894
2013-08-09 23:00,-0.0774525,285.97,287.102,259.793,289.568,288.445,262.965,-0.0252227,-0.0541336,233.382,257.508
2013-08-10 00:00,-0.0770128,285.512,286.105,259.134,288.493,287.188,263.083,-0.0217355,-0.0478455,234.257,257.855
2013-08-10 01:00,-0.0,283.261,282.916,257.12,285.757,284.205,260.942,-0.0,-0.00155888,234.756,257.595
2013-08-10 02:00,-0.0,286.271,287.212,259.902,289.701,288.445,263.318,-0.0,-0.0,235.525,258.372
2013-08-10 03:00,-0.0012408,285.202,285.994,259.244,288.628,287.888,263.2,-0.0,-0.0,234.827,258.372
2013-08-10 04:00,-0.0,283.093,284.414,258.469,287.134,286.343,262.492,-0.0,-0.0,233.53,258.2
2013-08-10 05:00,-0.0,281.526,283.148,257.572,285.618,285.208,262.61,-0.0,-0.0,233.382,258.028
2013-08-10 06:00,-0.0,275.48,279.945,255.858,283.514,283.629,262.255,-0.0,-0.0,234.113,259.22
2013-08-10 07:00,-0.0,274.073,277.852,255.16,281.51,281.441,260.822,-0.0,-0.0,233.085,258.2
2013-08-10 08:00,-0.0,275.02,279.58,255.858,283.23,283.194,262.017,-0.0,-0.0,233.968,259.051
2013-08-10 09:00,-0.00513475,274.551,277.977,255.043,280.931,280.998,260.34,-0.0,-0.0,234.257,258.628
2013-08-10 10:00,-7.6423,275.707,278.474,254.926,281.943,282.028,261.062,-14.3794,-12.8589,235.662,259.387
2013-08-10 11:00,0.832226,285.818,277.601,254.572,281.655,282.175,261.182,0.745297,0.770166,235.386,258.628
2013-08-10 12:00,0.792689,295.26,274.916,253.381,278.576,278.458,258.76,0.718434,0.763635,233.823,256.001
2013-08-10 13:00,0.638441,297.349,276.336,254.336,280.201,280.702,260.34,0.537178,0.565744,235.867,256.628
2013-08-10 14:00,0.604698,297.449,276.591,254.454,280.054,280.406,260.461,0.502151,0.54507,235.593,256.45
2013-08-10 15:00,0.467946,297.947,277.601,254.808,280.639,280.108,259.977,0.311307,0.375788,234.686,255.821
2013-08-10 16:00,0.434882,296.427,274.785,253.381,277.528,276.631,257.282,0.29559,0.361562,232.709,253.69
2013-08-10 17:00,0.270718,292.414,287.978,261.091,290.234,287.329,262.255,0.103693,0.231008,233.677,254.722
2013-08-10 18:00,0.272074,291.19,286.992,260.337,289.032,286.343,260.942,0.116782,0.238433,233.308,254.256
2013-08-10 19:00,0.28978,289.779,283.726,258.469,285.618,283.049,259.977,0.17495,0.254392,233.085,254.349
2013-08-10 20:00,0.400251,285.665,280.549,256.664,282.087,279.81,257.158,0.302452,0.421457,232.175,253.021
2013-08-10 21:00,0.681069,276.376,267.033,248.121,268.024,264.795,247.959,0.504578,0.752041,229.178,247.371
2013-08-10 22:00,-0.00682047,271.261,264.94,246.934,265.654,262.712,244.932,-0.0,-0.0,227.959,246.145
2013-08-10 23:00,-0.0894847,268.073,260.528,244.488,260.341,257.486,243.099,-0.0277811,-0.0602267,225.931,241.602
2013-08-11 00:00,-0.0869196,269.283,261.822,246.265,260.706,257.301,242.241,-0.0250891,-0.0518526,226.027,242.725
2013-08-11 01:00,-0.0015442,271.798,270.746,250.681,271.785,270.96,253.368,-0.0,-0.0,231.552,250.849
2013-08-11 02:00,-0.0,273.586,273.466,252.168,274.933,274.773,256.41,-0.0,-0.0,232.175,252.244
2013-08-11 03:00,-0.0,260.395,256.118,241.646,256.98,255.425,242.814,-0.0,-0.0,230.184,244.056
2013-08-11 04:00,0.00123132,268.686,267.18,248.771,268.69,268.007,252.853,-0.0,-0.0,231.394,249.513
2013-08-11 05:00,0.00130218,273.831,274.916,253.14,276.772,276.938,258.515,-0.0,-0.0,232.251,253.69
2013-08-11 06:00,-0.00147847,274.314,276.08,253.741,278.278,278.609,259.249,-0.0,-0.0,233.159,255.366
2013-08-11 07:00,-0.0,266.131,261.982,245.451,261.431,260.045,247.823,-0.0,-0.0,229.263,245.23
2013-08-11 08:00,-0.0,263.636,260.201,244.349,259.421,258.408,245.628,-0.0,-0.0,230.101,245.69
2013-08-11 09:00,-0.0,266.797,264.788,247.2,265.138,264.451,250.104,-0.0,-0.0,230.101,248.987
2013-08-11 10:00,19.8909,267.444,264.788,247.332,264.444,264.279,250.501,20.2099,29.4522,230.43,247.59
2013-08-11 11:00,0.453392,273.088,268.63,249.414,269.679,269.0,252.853,0.361567,0.51095,231.315,249.721
2013-08-11 12:00,0.568268,287.871,284.642,259.024,286.722,285.919,262.492,0.253485,0.542917,232.175,255.821
2013-08-11 13:00,0.336462,272.58,258.703,243.368,256.789,255.045,242.671,0.278139,0.399976,229.263,240.964
2013-08-11 14:00,0.327459,288.012,280.789,256.434,282.231,279.511,255.784,0.172237,0.318902,231.315,251.051
2013-08-11 15:00,0.273879,278.883,266.59,248.512,265.997,263.586,247.006,0.199863,0.311632,229.852,242.602
2013-08-11 16:00,0.319286,289.381,279.702,256.205,281.366,277.396,254.137,0.163727,0.295099,231.552,249.617
2013-08-11 17:00,0.317849,290.301,282.331,258.022,283.088,281.146,259.005,0.157667,0.301439,230.511,248.348
2013-08-11 18:00,0.286058,290.429,285.095,259.683,286.172,283.629,259.127,0.152971,0.271693,230.996,250.442
2013-08-11 19:00,0.42145,277.869,256.992,242.513,256.598,254.089,241.808,0.42481,0.529316,230.101,241.728
2013-08-11 20:00,0.577484,265.095,249.185,238.81,248.307,247.708,239.173,0.619342,0.768702,230.266,238.85
2013-08-11 21:00,0.541155,257.103,247.973,237.728,247.446,247.085,239.322,0.511064,0.630379,230.018,239.39
2013-08-11 22:00,-0.00685418,259.045,253.411,240.617,252.868,251.947,242.384,-0.0,-0.0,230.674,241.728
2013-08-11 23:00,-0.0866114,252.585,247.973,238.349,248.093,246.876,238.577,-0.0278162,-0.0572878,230.755,239.922
2013-08-12 00:00,-0.0770706,258.576,253.411,240.469,252.868,251.75,241.808,-0.0234251,-0.0518716,230.835,240.706
2013-08-12 01:00,-0.0,250.598,243.719,235.823,243.438,241.027,234.604,-0.0,-0.0,230.266,237.185
2013-08-12 02:00,-0.00133358,269.283,265.394,246.801,265.654,264.106,248.634,-0.0,-0.0,231.394,248.025
2013-08-12 03:00,-0.0,252.585,248.177,238.04,247.446,245.399,237.525,-0.0,-0.0,230.835,239.789
2013-08-12 04:00,-0.0,270.151,267.473,248.382,268.358,267.171,250.501,-0.0,-0.0,232.633,251.85
2013-08-12 05:00,-0.0,261.666,256.819,242.513,256.98,256.367,244.652,-0.0,-0.0,231.63,244.53
2013-08-12 06:00,-0.0,264.377,260.036,244.765,259.606,259.321,247.279,-0.0,-0.0,230.43,244.175
2013-08-12 07:00,-0.0,275.02,275.951,253.621,277.678,278.156,259.005,-0.0,-0.0,232.481,255.73
2013-08-12 08:00,-0.00264853,276.155,278.35,254.808,280.347,281.146,261.301,-0.0,-0.0,233.896,258.372
2013-08-12 09:00,-0.0,275.02,276.336,254.099,277.678,276.784,257.53,-0.0,-0.0,233.677,257.158
2013-08-12 10:00,3.64679,270.434,268.199,249.414,269.021,269.0,253.368,4.63159,5.15431,233.677,252.537
2013-08-12 11:00,0.349016,280.799,281.148,256.892,283.372,283.339,261.301,0.224942,0.431238,235.799,259.97
2013-08-12 12:00,0.423931,281.883,274.785,253.261,275.242,273.99,254.519,0.261049,0.455775,234.756,253.785
2013-08-12 13:00,0.45746,295.902,292.929,264.031,295.55,294.282,266.337,0.184443,0.405854,239.894,262.701
2013-08-12 14:00,0.368788,299.579,296.229,266.259,299.409,297.3,267.023,0.142186,0.32245,245.355,264.69
2013-08-12 15:00,0.325505,302.426,298.929,267.838,301.952,299.36,267.365,0.117387,0.272326,245.099,264.69
2013-08-12 16:00,0.29715,303.674,300.153,268.807,303.263,300.379,268.609,0.103673,0.238183,244.058,264.989
2013-08-12 17:00,0.286257,303.098,300.06,268.615,303.025,300.125,267.705,0.100199,0.227643,245.355,264.162
2013-08-12 18:00,0.281185,301.565,298.262,267.249,300.99,298.205,267.478,0.109516,0.230883,245.048,263.858
2013-08-12 19:00,0.312196,299.672,296.815,266.259,299.531,296.91,266.566,0.141684,0.269794,244.687,263.706
2013-08-12 20:00,0.344416,296.008,294.546,265.052,297.184,295.076,265.993,0.205212,0.321952,244.687,263.629
2013-08-12 21:00,1.05924,286.421,280.549,257.12,283.23,280.85,259.735,0.741629,1.11049,242.71,260.952
2013-08-12 22:00,-0.0,279.081,279.458,255.858,282.231,279.959,259.492,-0.0,-0.0,243.202,260.871
2013-08-12 23:00,-0.0867179,280.239,280.909,256.664,283.372,281.441,260.581,-0.0253186,-0.0603772,243.793,261.113
2013-08-13 00:00,-0.0751208,284.41,285.658,259.134,287.951,287.748,263.553,-0.0234333,-0.049894,243.147,262.701
2013-08-13 01:00,-0.00154433,282.923,284.528,258.246,286.86,286.485,263.67,-0.0,-0.0,243.472,262.779
2013-08-13 02:00,-0.0,282.581,284.3,257.91,286.585,286.767,263.787,-0.0,-0.0,244.058,263.244
2013-08-13 03:00,-0.0,281.883,284.185,258.134,286.447,286.485,263.67,-0.0,-0.0,244.006,263.399
2013-08-13 04:00,-0.0,281.526,283.841,257.91,285.895,285.919,263.436,-0.0,0.00124348,243.686,263.706
2013-08-13 05:00,-0.00130332,281.165,283.611,258.134,285.757,285.919,263.67,-0.0,-0.0,243.256,263.167
2013-08-13 06:00,0.00148118,280.799,282.682,257.685,285.201,285.35,263.2,-0.0,-0.0,243.418,263.244
2013-08-13 07:00,0.00184581,280.05,282.331,257.233,284.641,285.065,262.847,-0.0,-0.0,243.686,262.857
2013-08-13 08:00,-0.0,279.278,281.742,256.892,284.079,284.061,262.965,-0.0,-0.0,243.147,262.23
2013-08-13 09:00,-0.0,277.661,280.066,255.626,282.803,282.321,261.182,-0.0,-0.0,242.544,261.194
2013-08-13 10:00,0.835795,279.278,280.909,256.32,283.372,283.194,261.898,2.65375,2.53136,242.82,261.033
2013-08-13 11:00,0.607282,286.569,283.611,258.246,286.172,285.065,262.373,0.344242,0.576718,243.579,261.113
2013-08-13 12:00,0.571293,294.38,282.682,257.798,285.479,282.904,259.735,0.344848,0.47189,243.74,260.789
2013-08-13 13:00,0.449102,298.533,293.843,263.928,296.307,293.617,264.721,0.186791,0.389761,244.635,261.355
2013-08-13 14:00,0.376944,302.68,297.107,266.059,299.776,296.127,265.647,0.148478,0.320984,245.304,261.355
2013-08-13 15:00,0.448735,296.943,278.721,255.16,280.931,279.361,258.638,0.387567,0.484842,245.253,260.299
2013-08-13 16:00,0.346574,301.913,292.108,263.307,295.043,291.735,263.787,0.205284,0.319853,245.048,261.033
2013-08-13 17:00,0.318626,300.947,285.77,259.464,287.407,283.629,260.34,0.222569,0.28468,245.355,259.721
2013-08-13 18:00,0.403322,300.408,284.3,258.802,286.172,282.613,259.37,0.298806,0.405293,244.79,259.387
2013-08-13 19:00,0.37797,296.114,285.546,260.011,288.087,285.493,260.581,0.282128,0.376562,244.217,259.387
2013-08-13 20:00,0.604454,296.943,282.682,257.91,284.22,281.735,259.37,0.493896,0.601698,243.364,257.769
2013-08-13 21:00,0.718215,287.155,281.86,257.459,283.23,281.293,259.37,0.557435,0.725081,242.875,257.158
2013-08-13 22:00,-0.0138411,270.434,269.059,250.429,271.142,268.835,253.625,-0.0,-0.0,243.039,255.821
2013-08-13 23:00,-0.0958032,275.48,272.796,252.29,274.933,272.724,255.027,-0.0278838,-0.0574269,242.71,256.36
2013-08-14 00:00,-0.071191,277.869,276.718,254.808,279.466,276.784,256.785,-0.0217668,-0.0499108,243.147,257.07
2013-08-14 01:00,-0.0015444,261.251,261.982,246.13,264.965,264.795,251.159,-0.0,-0.0,243.31,254.907
2013-08-14 02:00,-0.00133348,262.074,263.088,247.067,265.826,264.967,251.683,-0.0,-0.0,243.093,255.457
2013-08-14 03:00,-0.0,283.093,282.214,257.572,284.079,281.588,259.249,-0.0,-0.0,243.686,258.628
2013-08-14 04:00,-0.0,262.869,262.616,246.801,265.654,264.795,251.422,-0.0,-0.0,242.211,254.629
2013-08-14 05:00,0.00130398,266.466,267.033,248.9,269.515,268.007,253.497,-0.0,-0.0,241.986,255.821
2013-08-14 06:00,-0.00148267,271.798,270.468,251.305,272.741,270.798,253.881,-0.0,-0.0,242.155,255.457
2013-08-14 07:00,-0.0,280.05,280.909,257.233,283.23,282.175,260.219,-0.0,0.00186698,241.647,257.158
2013-08-14 08:00,-0.0,265.446,264.788,247.991,267.016,265.65,251.683,-0.0,-0.0,240.899,254.068
2013-08-14 09:00,-0.0,277.24,278.226,255.51,280.493,279.211,258.76,-0.0,-0.0,240.548,256.539
2013-08-14 10:00,2.46926,272.58,269.767,250.806,271.945,269.984,253.24,2.58265,2.93278,240.371,254.629
2013-08-14 11:00,0.859171,288.291,260.692,245.723,263.393,262.537,250.236,0.667195,0.780132,240.312,252.439
2013-08-14 12:00,0.667652,293.356,275.176,254.217,277.828,275.085,256.16,0.409038,0.572656,239.834,255.548
2013-08-14 13:00,0.45451,291.563,283.032,258.691,285.201,282.175,259.249,0.218957,0.375786,239.834,256.181
2013-08-14 14:00,0.371955,292.414,286.882,260.984,289.701,287.188,261.421,0.147798,0.306338,240.371,256.45
2013-08-14 15:00,0.31536,294.156,289.165,262.261,291.817,289.276,262.61,0.121486,0.259528,240.665,257.246
2013-08-14 16:00,0.296335,294.823,290.44,262.786,293.119,290.648,263.318,0.109144,0.233351,240.899,257.682
2013-08-14 17:00,0.276154,293.93,290.756,262.681,293.635,291.329,264.138,0.103472,0.225919,241.704,259.887
2013-08-14 18:00,0.277134,292.889,290.229,262.681,293.248,291.735,264.022,0.113387,0.234718,242.433,260.789
2013-08-14 19:00,0.284724,290.171,288.628,261.731,291.423,290.101,263.67,0.140453,0.259951,242.655,261.033
2013-08-14 20:00,0.315178,286.569,286.661,260.337,289.166,288.306,263.2,0.238395,0.335161,242.211,260.952
2013-08-14 21:00,0.371514,282.581,283.611,258.358,285.895,285.35,262.255,0.463563,0.513248,242.765,260.952
2013-08-14 22:00,-0.0,278.279,280.549,256.434,282.66,282.467,260.822,-0.0,-0.00701962,242.544,260.871
2013-08-14 23:00,-0.113898,277.451,279.702,255.626,281.655,281.588,260.461,-0.0279162,-0.0605196,243.472,261.275
2013-08-15 00:00,-0.0791266,277.451,279.336,255.393,281.51,281.293,260.581,-0.0234487,-0.0499269,245.048,261.993
2013-08-15 01:00,-0.00154446,276.594,278.474,254.69,280.347,280.554,260.34,-0.0,-0.0,248.277,264.01
2013-08-15 02:00,-0.0,275.251,277.977,254.808,279.466,279.81,260.581,-0.0,-0.0,251.828,266.239
2013-08-15 03:00,0.00124086,274.551,276.845,253.86,278.278,278.609,260.34,-0.0,-0.0,251.403,266.96
2013-08-15 04:00,0.00123223,274.314,276.591,253.98,278.128,278.156,259.977,-0.0,-0.0,251.828,267.174
2013-08-15 05:00,-0.0,274.073,276.08,253.501,277.678,278.307,259.977,-0.0,-0.0,251.317,266.96
2013-08-15 06:00,-0.0,273.831,275.823,253.381,277.226,277.396,259.614,-0.0,-0.0,251.103,267.103
2013-08-15 07:00,-0.0,272.58,274.524,252.777,276.163,276.631,259.249,-0.0,0.00187068,250.756,266.601
2013-08-15 08:00,-0.0,271.261,272.931,251.552,274.312,275.085,258.515,-0.0,-0.0,250.097,266.094
2013-08-15 09:00,-0.0,270.434,272.527,251.552,273.843,274.46,258.76,-0.0,-0.0,249.245,265.581
2013-08-15 10:00,1.43839,271.531,272.662,251.305,274.0,274.617,258.392,1.6863,2.12237,248.879,264.839
2013-08-15 11:00,0.612616,280.239,278.845,254.926,280.785,280.702,260.461,0.306119,0.669167,248.695,264.914
2013-08-15 12:00,0.538909,287.3,284.185,257.91,286.447,286.06,262.728,0.232709,0.546781,248.557,264.989
2013-08-15 13:00,0.438392,290.813,287.869,259.902,290.367,289.826,264.372,0.176519,0.424879,248.925,265.36
2013-08-15 14:00,0.373488,293.702,290.86,261.625,293.506,292.679,265.416,0.142992,0.347549,248.324,265.434
2013-08-15 15:00,0.325962,295.26,293.336,262.89,296.433,295.602,266.909,0.118462,0.294517,248.741,266.239
2013-08-15 16:00,0.293709,296.323,294.346,263.825,297.434,296.91,267.137,0.101223,0.260756,248.417,266.312
2013-08-15 17:00,0.281433,295.69,294.446,263.721,297.434,296.91,267.251,0.0977253,0.247411,248.184,266.312
2013-08-15 18:00,0.279766,294.38,293.641,263.203,296.684,296.127,266.452,0.0988296,0.248772,248.137,266.456
2013-08-15 19:00,0.285967,291.809,291.902,261.838,294.788,294.282,266.108,0.114802,0.26879,248.695,266.456
2013-08-15 20:00,0.309194,288.152,289.165,260.661,291.686,291.464,265.069,0.166275,0.299495,249.062,266.312
2013-08-15 21:00,0.306836,282.581,284.185,257.233,286.447,286.626,263.318,0.357222,0.464654,249.154,266.239
2013-08-15 22:00,-0.0,277.451,279.336,254.572,281.076,281.588,261.779,-0.0,-0.00705216,249.651,266.166
2013-08-15 23:00,-0.132031,275.932,277.977,253.86,279.466,280.257,260.942,-0.0304884,-0.0666467,249.696,266.239
2013-08-16 00:00,-0.0930025,275.48,277.224,253.14,278.576,279.211,260.822,-0.0251314,-0.0499423,249.651,266.239
2013-08-16 01:00,-0.0,274.551,276.336,252.656,277.828,278.307,260.461,-0.0,-0.0,249.786,266.312
2013-08-16 02:00,-0.00133344,274.551,276.208,252.534,277.528,278.004,260.581,-0.0,-0.00134619,249.786,266.384
2013-08-16 03:00,0.00124095,274.787,276.208,252.412,277.678,278.458,260.581,-0.0,-0.0,250.008,266.673
2013-08-16 04:00,0.00123256,274.314,276.336,252.777,277.377,278.156,259.856,-0.0,-0.0,249.964,266.888
2013-08-16 05:00,-0.0,273.831,275.436,251.799,276.772,277.548,260.098,-0.0,-0.0,249.964,267.103
2013-08-16 06:00,-0.00148594,274.073,275.565,252.412,276.923,278.004,260.461,-0.0,-0.0,249.154,266.888
2013-08-16 07:00,-0.00185682,273.088,275.436,252.534,276.62,277.396,260.461,-0.0,-0.0,248.879,267.103
2013-08-16 08:00,-0.0,273.088,274.655,251.922,276.01,277.091,260.461,-0.0,-0.0,248.557,266.817
2013-08-16 09:00,-0.0,272.836,274.785,251.799,276.01,277.091,260.34,-0.0,-0.0,248.324,267.032
2013-08-16 10:00,1.06717,273.586,275.436,252.534,276.315,277.396,260.581,1.43065,1.70583,248.649,267.246
2013-08-16 11:00,0.595117,281.526,281.148,255.742,282.66,283.484,262.136,0.30653,0.650873,249.199,267.6
2013-08-16 12:00,0.537676,288.977,286.661,259.024,288.628,288.584,264.138,0.235552,0.534714,249.199,268.093
2013-08-16 13:00,0.432105,293.124,290.651,261.519,293.248,292.679,265.762,0.177189,0.416674,248.695,267.882
2013-08-16 14:00,0.368523,296.531,293.944,263.307,296.809,295.865,267.251,0.14096,0.332883,248.879,267.459
2013-08-16 15:00,0.327573,299.203,296.815,264.95,299.898,298.72,268.158,0.119225,0.279827,247.665,267.032
2013-08-16 16:00,0.29992,300.589,298.358,266.259,301.952,300.506,269.283,0.104564,0.24787,248.695,267.742
2013-08-16 17:00,0.285096,300.589,299.024,266.756,302.311,301.012,268.722,0.0986899,0.230575,248.557,267.742
2013-08-16 18:00,0.278688,299.579,298.834,266.259,302.191,300.759,268.946,0.101574,0.231044,248.649,267.882
2013-08-16 19:00,0.28966,297.248,297.01,265.456,300.263,299.36,268.497,0.120549,0.250299,249.199,267.53
2013-08-16 20:00,0.31576,292.889,293.742,263.307,296.433,295.734,267.365,0.17589,0.297806,249.245,267.174
2013-08-16 21:00,0.319951,286.717,288.736,260.228,291.16,291.057,265.185,0.398386,0.437014,249.516,266.96
2013-08-16 22:00,-0.00701722,282.581,285.095,258.022,287.27,287.748,264.488,-0.0,-0.0,250.053,266.888
2013-08-16 23:00,-0.129172,281.165,283.841,257.006,285.618,286.06,263.436,-0.0305218,-0.0636871,250.23,266.529
2013-08-17 00:00,-0.0712572,280.427,282.331,256.664,284.501,284.922,263.318,-0.023463,-0.0519555,250.538,266.312
2013-08-17 01:00,-0.00154459,278.279,280.789,255.51,282.66,283.194,262.728,-0.0,-0.0,250.538,266.312
2013-08-17 02:00,-0.0,277.661,280.066,255.16,281.655,282.321,262.136,-0.0,-0.0,249.964,266.094
2013-08-17 03:00,-0.0,277.661,279.823,255.277,281.51,282.175,261.898,-0.0,-0.0,250.142,265.948
2013-08-17 04:00,-0.0,277.026,279.213,255.277,280.785,281.588,261.421,-0.0,-0.0,249.83,265.875
2013-08-17 05:00,-0.00261263,276.155,278.35,254.69,280.054,280.85,261.421,-0.0,-0.0,249.651,265.875
2013-08-17 06:00,-0.0,275.02,277.852,254.572,279.613,280.257,261.182,-0.0,-0.0,249.741,266.021
2013-08-17 07:00,0.00186085,275.48,277.852,254.336,279.17,280.108,261.062,-0.0,-0.0,249.83,265.434
2013-08-17 08:00,-0.0,275.48,277.476,254.217,279.318,279.959,261.421,-0.0,-0.0,249.199,265.212
2013-08-17 09:00,-0.0,275.48,277.35,253.86,278.873,279.661,261.062,-0.0,-0.0,247.949,264.464
2013-08-17 10:00,1.11074,275.48,277.476,254.099,279.17,279.81,261.421,1.19125,1.49515,246.159,263.782
2013-08-17 11:00,0.621982,283.924,283.264,257.459,285.34,285.35,262.61,0.306856,0.637817,245.405,263.476
2013-08-17 12:00,0.549675,292.053,289.165,261.091,291.817,290.921,264.953,0.236077,0.517399,244.842,263.706
2013-08-17 13:00,0.450907,296.219,293.031,263.515,296.182,294.679,265.878,0.181102,0.404638,244.739,263.399
2013-08-17 14:00,0.382892,298.918,295.738,265.254,298.918,297.17,267.365,0.145751,0.326458,244.479,263.244
2013-08-17 15:00,0.333588,300.858,297.494,266.756,301.11,299.232,267.819,0.119978,0.27419,244.322,263.167
2013-08-17 16:00,0.306078,302.256,298.834,267.348,302.191,299.87,268.158,0.106638,0.238036,244.111,262.701
2013-08-17 17:00,0.280884,301.74,298.834,267.642,302.311,299.998,267.705,0.0983183,0.226538,244.739,262.779
2013-08-17 18:00,0.27946,300.317,298.453,267.249,301.592,299.36,267.705,0.102742,0.23016,244.269,262.857
2013-08-17 19:00,0.288441,297.549,296.229,265.658,299.409,297.3,266.566,0.120041,0.249246,243.579,262.072
2013-08-17 20:00,0.305744,293.24,292.622,263.618,295.803,293.617,265.647,0.18191,0.296153,244.269,261.355
2013-08-17 21:00,0.332681,287.729,288.303,261.412,291.029,289.964,264.138,0.43817,0.485133,244.739,261.113
2013-08-17 22:00,-0.0,283.093,284.869,258.802,287.27,286.767,262.965,-0.0,-0.0,245.202,261.435
2013-08-17 23:00,-0.111267,281.705,283.495,258.246,286.172,285.919,262.61,-0.0331005,-0.0698269,245.304,261.515
2013-08-18 00:00,-0.0930571,280.427,282.331,257.459,284.641,284.492,262.017,-0.0251462,-0.0519705,245.709,261.914
2013-08-18 01:00,-0.0,279.278,281.386,256.778,283.797,283.773,262.373,-0.0,-0.0,246.059,261.435
2013-08-18 02:00,-0.0,278.482,280.909,256.205,283.088,283.339,261.66,-0.0,-0.0,246.258,261.515
2013-08-18 03:00,-0.00124121,278.684,280.669,256.32,282.946,283.194,261.66,-0.0,-0.0,246.652,261.435
2013-08-18 04:00,-0.0,278.075,280.187,255.974,282.231,282.467,261.54,-0.0,-0.0,246.75,261.755
2013-08-18 05:00,-0.0,277.451,279.458,255.742,281.799,282.028,261.779,-0.0,-0.0,246.109,261.914
2013-08-18 06:00,-0.0,277.026,279.336,255.393,281.51,281.735,261.301,-0.0,-0.0,245.759,261.834
2013-08-18 07:00,-0.00186507,276.811,278.968,255.393,281.076,281.588,261.421,-0.0,-0.0,245.405,261.435
2013-08-18 12:00,0.656328,294.602,275.436,253.621,277.828,275.24,256.785,0.392792,0.524227,245.608,259.638
2013-08-18 13:00,0.461806,297.749,281.267,257.12,283.797,280.406,259.127,0.266082,0.398512,245.759,260.299
2013-08-18 14:00,0.366687,296.84,292.417,263.411,295.17,292.948,264.837,0.146424,0.313613,245.608,261.275
2013-08-18 15:00,0.321906,298.918,294.446,264.849,297.06,294.679,264.837,0.124456,0.26711,246.109,261.355
2013-08-18 16:00,0.300513,300.042,295.837,265.658,298.795,295.734,265.762,0.10993,0.235639,246.059,261.435
2013-08-18 17:00,0.276703,300.408,296.327,265.859,299.531,296.65,265.878,0.10192,0.228845,246.059,261.755
2013-08-18 18:00,0.276565,298.822,295.837,265.355,298.795,296.127,265.416,0.111656,0.232983,246.357,261.914
2013-08-18 19:00,0.292108,296.531,294.546,264.441,297.434,295.339,266.108,0.140152,0.253123,246.847,262.23
2013-08-18 20:00,0.32051,293.472,292.725,263.307,295.677,294.149,265.647,0.20875,0.302832,246.896,262.935
2013-08-18 21:00,0.381379,287.729,288.628,260.661,291.292,290.511,264.255,0.461304,0.513366,246.847,262.779
2013-08-18 22:00,-0.0,283.76,285.546,258.913,288.087,287.609,263.67,-0.0,-0.0,247.522,262.779
2013-08-18 23:00,-0.144495,282.753,284.642,258.469,287.134,286.907,263.083,-0.0331349,-0.0759775,248.043,263.012
2013-08-19 00:00,-0.0752588,282.581,284.3,258.469,286.722,286.343,263.436,-0.0234763,-0.0519851,247.902,263.012
2013-08-19 01:00,-0.0,280.982,283.032,257.798,285.618,285.493,262.847,-0.0,-0.0,247.283,263.012
2013-08-19 02:00,-0.0,280.05,282.448,257.12,284.781,284.779,262.847,-0.0,-0.0,247.234,262.857
2013-08-19 03:00,-0.0,279.278,281.742,256.892,284.079,284.205,262.61,-0.0,-0.0,247.09,262.701
2013-08-19 04:00,-0.0,279.081,281.148,256.778,283.656,283.773,262.373,-0.0,-0.0,246.944,262.857
2013-08-19 05:00,0.00130818,278.684,280.789,256.549,283.23,283.629,262.017,-0.0,-0.0,246.357,262.151
2013-08-19 06:00,-0.00149161,278.482,280.549,256.205,282.946,283.339,262.492,-0.0,0.00150586,245.91,262.23
2013-08-19 07:00,-0.00186949,278.075,280.549,256.32,282.803,283.194,262.136,-0.0,0.00188736,245.304,261.993
2013-08-19 08:00,-0.0,278.279,280.308,256.32,282.803,283.194,262.373,-0.0,-0.0,245.557,261.993
2013-08-19 09:00,0.00560336,276.811,279.091,255.742,281.799,281.588,261.062,-0.0,-0.0,245.557,261.595
2013-08-19 10:00,1.4302,273.586,271.984,251.922,275.242,273.832,257.034,1.25752,1.4994,245.709,259.887
2013-08-19 11:00,0.792667,288.012,274.524,252.899,277.226,275.24,257.53,0.509427,0.665264,246.009,260.135
2013-08-19 12:00,0.766569,297.045,271.437,251.799,274.312,272.246,255.909,0.493989,0.612779,245.709,259.554
2013-08-19 13:00,0.579258,302.68,273.466,253.02,275.857,273.2,256.535,0.388816,0.504001,245.658,259.387
2013-08-19 14:00,0.376119,298.533,293.235,263.825,295.677,292.545,264.605,0.156531,0.307311,245.859,261.834
2013-08-19 15:00,0.324952,301.214,296.621,265.658,299.287,296.389,265.878,0.123935,0.252693,245.304,262.072
2013-08-19 16:00,0.300801,302.341,298.167,266.756,300.99,297.559,265.993,0.111964,0.230324,244.583,261.914
2013-08-19 17:00,0.288129,302.596,298.644,266.954,301.472,298.463,267.023,0.106814,0.218555,243.899,261.755
2013-08-19 18:00,0.284644,301.302,297.397,266.259,299.898,296.78,266.337,0.118959,0.224735,243.899,261.675
2013-08-19 19:00,0.300602,298.339,295.639,265.254,298.426,295.602,265.993,0.15189,0.256975,244.322,261.914
2013-08-19 20:00,0.318789,294.933,293.336,264.031,296.056,293.883,265.416,0.231852,0.321836,244.374,262.072
2013-08-19 21:00,0.410674,288.43,288.628,260.769,291.16,290.238,264.488,0.468662,0.540783,244.739,262.388
2013-08-19 22:00,-0.00711027,284.41,286.105,259.574,288.628,287.888,264.138,-0.0,-0.0,245.099,262.388
2013-08-19 23:00,-0.0994409,283.428,285.095,258.802,287.407,287.048,263.083,-0.0331683,-0.0699698,244.997,262.466
2013-08-20 00:00,-0.0891466,282.408,283.841,258.134,286.31,285.777,262.965,-0.0251601,-0.0519993,245.151,262.151
2013-08-20 01:00,-0.0,281.526,283.264,258.022,285.757,285.35,262.728,-0.0,-0.0,245.557,262.309
2013-08-20 02:00,-0.0,279.667,281.267,256.664,283.797,282.904,261.54,-0.0,-0.0,245.658,261.993
2013-08-20 03:00,-0.0,277.24,279.091,256.205,281.799,280.406,260.098,-0.0,0.00125346,245.91,261.834
2013-08-20 04:00,-0.0,279.859,281.86,257.12,284.22,283.629,262.373,-0.0,-0.0,246.059,262.545
2013-08-20 05:00,-0.0,279.667,282.096,257.12,284.22,283.917,262.255,-0.0,-0.0,245.809,262.545
2013-08-20 06:00,-0.0,277.661,280.308,256.32,282.803,282.175,261.421,-0.0,-0.0,245.96,262.23
2013-08-20 07:00,0.00187409,278.279,280.429,256.434,283.088,282.467,261.54,-0.0,-0.0,245.96,262.466
2013-08-20 08:00,-0.0,278.684,280.909,256.778,283.088,282.758,261.779,-0.0,-0.0,246.059,262.545
2013-08-20 09:00,-0.0,278.075,280.066,256.32,282.517,282.467,261.779,-0.0,-0.0,246.208,262.545
2013-08-20 10:00,0.922664,279.473,281.386,257.006,283.797,283.773,262.847,0.904568,1.12759,245.859,262.857
2013-08-20 11:00,0.617616,287.3,286.105,259.683,288.493,287.748,263.905,0.311365,0.580682,246.109,263.09
2013-08-20 12:00,0.521941,293.24,289.593,261.838,291.948,290.101,263.905,0.244049,0.477121,245.809,262.935
2013-08-20 13:00,0.435782,297.947,293.843,264.441,296.433,293.883,265.301,0.182884,0.382564,245.96,263.012
2013-08-20 14:00,0.374344,300.947,296.229,266.159,298.795,295.996,266.337,0.149077,0.309064,246.159,263.244
2013-08-20 15:00,0.325049,302.596,297.879,266.954,300.627,297.43,266.222,0.123416,0.261936,246.159,263.09
2013-08-20 16:00,0.301083,303.51,298.549,267.151,301.352,298.334,266.566,0.110305,0.233817,246.357,263.476
2013-08-20 17:00,0.370845,300.858,287.76,261.091,290.897,288.027,262.728,0.240422,0.333662,246.701,262.545
2013-08-20 18:00,0.438091,300.858,287.869,260.661,291.16,288.445,262.255,0.292435,0.411081,246.652,262.935
2013-08-20 19:00,0.287306,298.63,294.646,264.95,297.309,294.282,265.532,0.165582,0.263241,246.847,263.399
2013-08-20 20:00,0.58949,297.947,288.303,261.091,290.632,288.027,263.083,0.440603,0.591021,246.993,263.012
2013-08-20 21:00,0.544508,289.779,288.736,261.091,291.16,289.551,264.372,0.50565,0.585178,247.09,263.167
2013-08-20 22:00,-0.0,285.97,287.102,259.902,289.701,288.445,263.436,-0.0,-0.0,247.474,263.629
2013-08-20 23:00,-0.150816,276.811,277.601,255.16,280.639,278.76,259.614,-0.0408626,-0.0822193,247.665,262.466
2013-08-21 00:00,-0.0871889,283.76,285.321,259.244,287.815,287.329,263.67,-0.0268446,-0.0580147,247.712,264.238
2013-08-21 01:00,-0.00154492,283.093,285.095,259.464,287.407,287.188,263.67,-0.0,-0.0,247.902,264.389
2013-08-21 02:00,-0.00133366,281.705,283.956,258.469,286.31,286.202,263.67,-0.0,-0.0,248.043,264.464
2013-08-21 03:00,-0.0,281.165,283.495,258.358,285.618,285.635,263.2,-0.0,-0.0,248.184,264.69
2013-08-21 04:00,-0.00123485,280.799,283.032,257.798,285.201,285.35,263.553,-0.0,-0.0,248.231,264.989
2013-08-21 05:00,-0.00131032,280.239,282.448,257.685,284.501,284.922,263.436,-0.0,-0.0,248.371,265.063
2013-08-21 06:00,-0.0014959,279.859,282.096,257.459,284.361,284.636,263.318,-0.0,-0.0,247.902,265.137
2013-08-21 07:00,0.0018789,279.667,281.742,257.346,283.938,284.492,263.083,-0.0,-0.0,247.76,265.137
2013-08-21 08:00,-0.00274987,279.278,281.386,257.12,283.372,283.917,263.083,-0.0,-0.0,247.76,265.286
2013-08-21 09:00,-0.00573864,278.279,280.909,256.778,282.946,283.484,263.083,-0.0,-0.0,247.807,265.063
2013-08-21 10:00,0.780742,279.081,281.029,257.006,282.946,283.629,262.728,0.807953,1.00715,247.665,264.989
2013-08-21 11:00,0.600454,286.717,285.77,259.902,288.222,287.888,264.372,0.307407,0.606194,247.665,264.765
2013-08-21 12:00,0.530902,294.38,291.07,262.89,293.764,292.679,265.878,0.233486,0.504756,247.949,264.914
2013-08-21 13:00,0.444616,299.297,295.244,265.557,298.302,296.389,267.137,0.180252,0.389906,248.09,265.063
2013-08-21 14:00,0.374152,301.302,297.494,266.358,300.384,298.205,267.819,0.147035,0.317165,248.277,265.581
2013-08-21 15:00,0.330945,303.181,299.213,267.935,302.43,299.616,268.045,0.121671,0.266701,247.949,265.212
2013-08-21 16:00,0.308571,304.794,300.619,268.711,303.618,301.012,268.384,0.109879,0.235824,248.043,265.212
2013-08-21 17:00,0.282901,303.674,299.966,268.324,303.144,300.125,268.045,0.102096,0.229421,248.043,265.137
2013-08-21 18:00,0.280713,301.999,298.929,267.74,301.952,299.488,268.045,0.108872,0.234031,248.09,265.286
2013-08-21 19:00,0.29096,298.822,296.913,266.259,299.898,297.559,267.251,0.134376,0.262182,248.51,265.507
2013-08-21 20:00,0.331636,295.476,294.346,264.747,297.06,295.208,266.452,0.212309,0.330724,248.277,265.507
2013-08-21 21:00,0.432201,289.779,290.017,262.049,292.47,291.6,265.416,0.439132,0.523599,247.807,265.507
2013-08-21 22:00,-0.0143405,285.818,287.322,260.553,289.701,289.276,264.372,-0.0,-0.0,248.137,265.36
2013-08-21 23:00,-0.108692,284.888,286.328,260.119,288.763,288.722,264.721,-0.0332327,-0.07925,248.231,265.507
2013-08-22 00:00,-0.0832477,283.76,285.546,259.683,287.815,287.748,264.255,-0.0251735,-0.056029,248.277,265.655
2013-08-22 01:00,-0.0,283.428,285.433,259.464,287.543,287.748,264.605,-0.0,-0.0,248.557,265.801
2013-08-22 02:00,-0.0,282.923,284.528,258.58,286.722,286.767,264.138,-0.0,-0.0,248.184,265.137
2013-08-22 03:00,0.00124212,281.883,283.841,258.802,286.172,286.202,264.138,-0.0,-0.0,247.617,264.989
2013-08-22 04:00,-0.0,281.165,283.495,258.58,285.618,285.777,263.553,-0.0,-0.0,247.665,265.212
2013-08-22 05:00,-0.0,280.799,283.032,258.358,285.34,285.777,263.905,-0.0,-0.0,247.712,265.36
2013-08-22 06:00,-0.00149821,281.165,283.032,258.358,285.201,285.35,264.138,-0.0,-0.0,248.043,265.063
2013-08-22 07:00,-0.0,280.05,282.331,258.134,284.501,284.779,263.318,-0.0,-0.0,247.617,264.839
2013-08-22 08:00,-0.0027636,279.278,281.742,257.685,283.797,284.205,262.965,-0.0,-0.0,247.138,264.69
2013-08-22 09:00,-0.0,279.081,281.029,256.778,283.23,283.484,262.728,-0.0,-0.0,246.701,264.238
2013-08-22 10:00,0.195575,279.081,280.429,256.434,282.803,282.758,261.898,0.629254,0.592334,246.208,264.389
2013-08-22 11:00,0.634156,288.152,287.102,260.661,289.568,289.137,264.721,0.31516,0.612383,246.208,264.314
2013-08-22 12:00,0.54991,295.796,292.827,264.133,295.55,293.75,265.878,0.240384,0.493195,246.059,264.314
2013-08-22 13:00,0.4552,301.214,297.494,267.151,300.02,297.3,267.137,0.185571,0.382014,245.355,264.086
2013-08-22 14:00,0.370807,304.159,299.213,268.324,301.832,298.591,267.251,0.148999,0.309316,245.355,264.162
2013-08-22 15:00,0.332451,305.798,301.452,269.765,304.324,301.138,268.609,0.122385,0.264125,245.048,264.389
2013-08-22 16:00,0.303073,305.798,301.636,269.575,304.442,301.264,268.722,0.109455,0.234916,245.151,264.464
2013-08-22 17:00,0.2911,305.339,301.452,269.67,304.324,301.264,268.271,0.104328,0.220801,245.456,264.389
2013-08-22 18:00,0.285092,303.51,300.433,268.807,303.499,300.885,267.932,0.111527,0.225882,245.658,264.615
2013-08-22 19:00,0.301779,301.302,298.739,267.935,301.712,299.488,267.819,0.137898,0.253887,246.159,264.615
2013-08-22 20:00,0.34604,297.649,296.033,265.959,298.672,296.65,266.909,0.21804,0.320912,246.258,264.615
2013-08-22 21:00,0.51073,290.685,290.545,262.89,293.119,292.41,265.647,0.475677,0.567173,245.608,264.389
2013-08-22 22:00,-0.0,286.271,287.869,260.984,290.101,289.689,264.721,-0.0,-0.00726846,245.96,264.238
2013-08-22 23:00,-0.126926,285.202,286.772,260.228,289.166,288.722,264.837,-0.0383814,-0.085426,245.709,264.01
2013-08-23 00:00,-0.0892173,284.249,286.105,259.793,288.358,288.306,264.138,-0.0302161,-0.0620484,245.456,263.858
2013-08-23 01:00,-0.00154516,283.76,285.658,259.464,287.815,287.748,263.787,-0.0,-0.0,245.507,263.629
2013-08-23 02:00,-0.00133391,283.428,285.433,259.574,287.543,287.748,264.138,-0.0,-0.0,246.258,263.934
2013-08-23 03:00,-0.0,282.923,284.982,259.464,287.27,287.329,264.138,-0.0,-0.0,246.109,264.238
2013-08-23 04:00,-0.0,282.581,284.528,259.024,286.722,286.626,263.905,-0.0,-0.0,246.159,263.782
2013-08-23 05:00,0.00131273,281.705,283.726,259.134,286.172,286.06,263.787,-0.0,-0.0,246.059,263.552
2013-08-23 06:00,-0.0,280.613,282.566,258.469,285.061,284.492,262.373,-0.0,-0.0,245.709,263.167
2013-08-23 07:00,-0.0,277.026,278.968,256.434,281.799,280.406,259.856,-0.0,-0.0,244.583,261.834
2013-08-23 08:00,-0.00277785,273.338,275.176,254.454,278.576,276.784,258.638,-0.0,-0.0,243.202,260.627
2013-08-23 09:00,-0.0,281.883,284.071,258.691,286.447,286.907,264.255,-0.0,-0.0,240.724,262.857
2013-08-23 10:00,0.746711,281.705,283.956,258.691,286.31,286.907,263.67,0.692452,0.89744,238.546,262.779
2013-08-23 11:00,0.630589,289.381,288.628,261.412,291.292,290.921,265.532,0.30345,0.613718,236.341,261.993
2013-08-23 12:00,0.492433,292.889,286.882,260.337,287.543,286.06,261.182,0.240709,0.499703,231.865,255.091
2013-08-23 13:00,0.445151,302.68,298.358,267.446,301.592,299.232,267.819,0.181358,0.391116,234.257,260.052
2013-08-23 14:00,0.306496,296.008,286.217,259.793,287.679,284.205,257.406,0.154911,0.282588,231.076,252.731
2013-08-23 15:00,0.322423,306.623,302.003,269.765,305.377,302.018,268.497,0.119435,0.26738,234.041,259.804
2013-08-23 16:00,0.296185,306.991,302.185,269.86,305.726,302.269,268.497,0.107823,0.235458,234.827,259.638
2013-08-23 17:00,0.138112,301.565,299.118,268.227,302.43,299.616,268.045,0.0753606,0.151826,233.085,258.372
2013-08-23 18:00,0.316411,303.51,296.229,265.456,298.795,294.547,263.318,0.143085,0.272246,231.865,256.716
2013-08-23 19:00,0.300596,302.171,299.024,267.838,302.311,299.488,267.705,0.141397,0.257708,234.113,258.798
2013-08-23 20:00,0.348309,298.726,296.815,266.358,299.776,297.689,267.023,0.210168,0.319304,234.113,258.798
2013-08-23 21:00,0.888959,288.43,283.956,258.469,285.618,284.205,259.735,0.582262,0.829725,231.865,253.595
2013-08-23 22:00,-0.00722862,286.717,287.651,260.984,290.367,289.689,264.138,-0.0,-0.0,232.557,256.894
2013-08-23 23:00,-0.145191,285.512,286.439,260.119,288.897,288.167,263.436,-0.0435387,-0.0946654,232.328,255.639
2013-08-24 00:00,-0.0971732,284.57,285.882,259.574,288.358,287.888,263.67,-0.0319031,-0.0680708,232.784,256.982
2013-08-24 01:00,-0.00154531,283.76,284.982,259.354,287.815,287.469,264.488,-0.0,-0.00156008,232.557,256.805
2013-08-24 02:00,-0.00133408,283.594,284.642,259.244,287.27,286.907,263.67,-0.0,-0.0,232.251,256.45
2013-08-24 03:00,-0.0,282.753,284.528,259.354,286.86,286.767,263.553,-0.0,-0.0,232.097,256.539
2013-08-24 04:00,-0.00123679,281.883,283.148,258.469,285.618,285.065,262.847,-0.0,-0.0,232.86,256.36
2013-08-24 05:00,-0.0,278.279,278.598,255.742,281.076,280.108,258.882,-0.0,-0.0,231.709,255.183
2013-08-24 06:00,0.00150316,272.061,269.201,250.303,270.169,268.339,251.683,-0.0,0.00151753,229.769,249.408
2013-08-24 07:00,-0.0,274.314,269.767,249.924,270.006,268.007,250.236,-0.0,-0.0,229.348,248.775
2013-08-24 08:00,-0.00279265,278.684,277.977,255.043,279.907,278.911,258.76,-0.0,-0.0,231.787,254.349
2013-08-24 09:00,-0.00596774,233.989,230.265,228.564,229.729,229.385,226.402,-0.0,-0.0,223.118,226.187
2013-08-24 10:00,0.813618,276.155,272.662,252.412,273.529,272.246,254.773,0.661334,0.919964,229.935,249.928
2013-08-24 11:00,0.492641,278.279,269.485,249.924,268.855,266.667,250.104,0.382991,0.569693,229.007,245.69
2013-08-24 12:00,0.564252,296.738,292.108,263.825,294.533,291.735,264.022,0.247407,0.516242,232.175,256.181
2013-08-24 13:00,0.444456,301.565,295.442,266.059,297.558,294.149,264.372,0.185024,0.390747,231.787,255.821
2013-08-24 14:00,0.370405,303.998,297.879,267.446,300.02,296.389,265.416,0.147587,0.314241,232.405,255.821
2013-08-24 15:00,0.319643,305.339,297.204,267.348,299.164,294.415,264.721,0.131073,0.267709,233.53,256.45
2013-08-24 16:00,0.280798,300.589,287.541,261.412,288.493,284.779,259.856,0.178615,0.290677,232.175,253.974
2013-08-24 17:00,0.359312,304.636,288.52,262.261,289.968,285.635,260.701,0.196778,0.310265,232.097,254.349
2013-08-24 18:00,0.442447,300.498,276.208,254.572,277.978,274.617,256.16,0.391303,0.43221,231.552,252.828
2013-08-24 19:00,0.862649,301.74,263.556,247.728,267.69,267.171,253.625,0.746501,0.873295,232.328,251.751
2013-08-24 20:00,1.17524,300.408,263.556,247.859,267.016,266.329,252.982,0.991697,1.19451,232.935,251.751
2013-08-24 21:00,1.52101,278.279,262.3,247.332,266.167,265.82,252.853,1.06387,1.53555,232.405,251.252
2013-08-24 22:00,-0.00725723,259.045,261.179,246.533,265.31,265.48,252.594,-0.0,-0.0,232.557,251.051
2013-08-24 23:00,-0.142294,261.251,261.662,246.801,265.654,265.309,252.853,-0.0461412,-0.100863,233.085,251.352
2013-08-25 00:00,-0.101166,260.827,261.179,246.399,265.31,264.967,252.853,-0.033591,-0.0700913,233.603,251.352
2013-08-25 01:00,-0.00309096,262.869,264.94,248.512,268.524,267.506,253.24,-0.0,-0.0,233.159,252.828
2013-08-25 02:00,-0.0,284.087,282.096,257.91,284.921,282.467,259.856,-0.0,-0.0,232.935,254.814
2013-08-25 03:00,-0.0,285.818,286.105,260.337,288.763,287.048,262.492,-0.0,-0.0,232.481,255.275
2013-08-25 04:00,0.00123755,270.434,269.626,251.552,272.264,269.821,254.392,-0.0,-0.0,233.234,253.021
2013-08-25 05:00,-0.0,270.989,269.626,251.305,272.582,270.311,254.646,-0.0,-0.0,233.308,253.117
2013-08-25 06:00,-0.0,265.095,264.788,248.512,267.69,266.667,252.982,-0.0,-0.0,232.633,252.244
2013-08-25 07:00,-0.0,260.395,262.458,247.2,266.167,265.48,252.205,-0.0,0.0019183,232.86,251.751
2013-08-25 08:00,-0.0,259.505,261.662,246.934,265.654,265.309,252.075,-0.0,-0.0,232.935,251.652
2013-08-25 09:00,-0.00605181,259.505,262.141,247.067,265.826,265.65,253.111,-0.0,-0.00610966,233.75,252.244
2013-08-25 10:00,0.838945,273.586,269.059,250.806,272.741,271.444,254.773,0.862548,0.96796,234.113,253.405
2013-08-25 11:00,0.702971,288.705,277.35,255.51,279.907,277.243,257.9,0.441724,0.593641,233.53,254.256
2013-08-25 12:00,0.549943,293.587,289.058,262.155,291.292,289.137,263.553,0.245517,0.454255,233.677,255.821
2013-08-25 13:00,0.436383,297.349,291.591,263.618,294.021,290.921,264.138,0.183963,0.356905,233.234,255.73
2013-08-25 14:00,0.365547,299.765,293.641,265.052,295.803,292.276,263.905,0.148197,0.292418,233.159,255.73
2013-08-25 15:00,0.322592,301.565,295.045,265.959,297.184,293.082,264.255,0.125692,0.2493,232.328,255.457
2013-08-25 16:00,0.295347,302.596,296.327,266.756,298.302,294.282,265.069,0.110608,0.223628,233.159,256.001
2013-08-25 17:00,0.283364,303.015,296.913,266.756,299.041,294.812,264.837,0.108353,0.215324,233.234,256.271
2013-08-25 18:00,0.282009,301.125,295.738,266.358,297.558,293.883,264.488,0.119388,0.223439,233.603,256.181
2013-08-25 19:00,0.293554,298.436,294.245,265.254,296.559,293.216,264.721,0.152338,0.25095,233.677,256.894
2013-08-25 20:00,0.33699,295.151,291.902,264.031,294.149,291.6,264.255,0.251761,0.328204,232.633,256.271
2013-08-25 21:00,0.489102,290.813,289.272,262.155,291.423,289.276,263.436,0.524554,0.559614,232.935,256.271
2013-08-25 22:00,-0.00728548,287.444,287.541,261.305,289.968,288.445,263.083,-0.0,-0.00735512,232.633,256.181
2013-08-25 23:00,-0.203023,286.717,286.772,260.553,289.3,287.888,263.436,-0.0564444,-0.11013,231.63,256.001
2013-08-26 00:00,-0.136908,285.045,285.658,260.011,288.222,286.907,262.492,-0.0403199,-0.0761194,232.328,255.457
2013-08-26 01:00,-0.00154567,283.594,284.642,259.464,287.134,285.777,262.965,-0.0,-0.0,232.784,255.457
2013-08-26 02:00,0.00133452,282.753,283.726,258.913,286.447,284.922,262.61,-0.0,-0.0,232.784,255.457
2013-08-26 03:00,-0.0,280.799,281.742,257.91,284.501,283.194,261.301,-0.0,-0.0,232.86,255.639
2013-08-26 04:00,-0.0,281.165,282.331,258.022,284.641,284.061,261.66,-0.0,-0.0,232.557,255.639
2013-08-26 05:00,-0.0,280.239,281.505,257.685,284.361,283.629,261.66,-0.0,-0.0,233.01,256.091
2013-08-26 06:00,-0.00150855,279.473,280.429,257.346,282.66,281.735,260.34,-0.0,-0.0,232.328,255.183
2013-08-26 07:00,-0.0,274.073,271.437,251.429,272.104,270.96,253.753,-0.0,0.00192418,231.156,249.617
2013-08-26 08:00,-0.00282389,279.473,280.909,257.346,283.514,283.049,261.779,-0.0,-0.0,233.823,256.181
2013-08-26 09:00,0.00614005,275.48,278.598,255.974,281.799,281.588,261.062,-0.0,-0.0,234.472,256.181
2013-08-26 10:00,0.748607,274.787,276.971,255.277,280.347,280.554,260.822,0.868602,0.783755,234.686,256.091
2013-08-26 11:00,0.737614,283.261,270.746,251.305,272.899,272.405,255.406,0.724315,0.731447,232.709,251.949
2013-08-26 12:00,0.711934,290.171,275.694,254.69,278.873,278.911,259.735,0.722512,0.723748,234.257,255.275
2013-08-26 13:00,0.527244,294.933,277.601,255.626,280.639,280.406,260.701,0.404565,0.456507,234.897,255.73
2013-08-26 14:00,0.36381,294.602,288.087,261.519,289.568,286.343,261.54,0.151408,0.301923,235.108,255.548
2013-08-26 15:00,0.39943,300.769,279.458,256.892,281.799,279.211,259.37,0.234691,0.31284,234.897,255.366
2013-08-26 16:00,0.292812,296.427,289.593,262.576,291.029,287.188,261.54,0.118572,0.228492,236.071,255.275
2013-08-26 17:00,0.405305,301.037,282.916,258.358,284.641,280.998,259.735,0.235207,0.311099,236.609,255.366
2013-08-26 18:00,0.416178,299.013,275.176,254.099,276.772,274.773,257.406,0.295154,0.355517,236.94,254.629
2013-08-26 19:00,0.808948,293.93,265.394,248.512,268.524,268.505,253.881,0.744842,0.83811,236.408,254.068
2013-08-26 20:00,1.15217,294.043,264.329,247.859,268.191,268.007,254.009,1.01229,1.16318,235.731,253.5
2013-08-26 21:00,1.09372,271.798,264.175,247.728,266.847,266.835,252.982,0.857957,1.12041,236.004,253.309
2013-08-26 22:00,-0.00731337,266.466,266.145,248.771,269.021,267.673,253.497,-0.0,-0.0,236.675,253.595
2013-08-27 00:00,-0.150838,277.661,277.476,255.16,279.76,278.307,258.147,-0.0453722,-0.0841548,236.742,254.536
2013-08-27 01:00,-0.0,277.451,278.35,255.626,280.785,279.511,259.249,-0.0,-0.0,237.072,255.366
2013-08-27 02:00,-0.00133479,278.075,278.845,256.205,281.221,280.257,259.856,-0.0,-0.0,237.592,255.275
2013-08-27 03:00,-0.0012441,275.707,277.852,255.742,280.347,279.511,259.249,-0.0,-0.0,237.592,255.183
2013-08-27 04:00,-0.0,274.551,276.208,254.926,279.022,278.458,259.249,-0.0,-0.0,237.785,255.091
2013-08-27 05:00,-0.00131843,270.713,273.199,252.899,276.163,276.323,258.515,-0.0,-0.0,237.849,255.457
2013-08-27 06:00,-0.00151142,267.444,269.485,251.429,271.785,270.798,254.264,-0.0,-0.0,237.072,253.405
2013-08-27 07:00,-0.0,269.283,271.574,252.29,274.467,274.617,257.653,-0.0,0.00193028,238.294,255.911
2013-08-27 08:00,0.00284037,268.986,271.711,252.29,274.778,275.085,258.023,-0.0,-0.0,238.857,256.271
2013-08-27 09:00,-0.0,268.986,271.711,252.412,274.778,275.085,258.27,-0.0,-0.0,238.483,255.821
2013-08-27 10:00,0.670089,272.061,271.574,252.168,274.623,275.24,258.023,0.894688,0.832609,238.857,256.271
2013-08-27 11:00,0.77557,289.113,271.711,252.412,274.933,275.085,258.147,0.722341,0.756884,238.357,256.181
2013-08-27 12:00,0.716322,294.602,271.711,251.922,274.623,274.773,258.147,0.683624,0.72814,238.795,256.539
2013-08-27 13:00,0.598842,294.38,271.984,252.29,274.778,275.085,257.9,0.550191,0.608242,238.294,256.181
2013-08-27 14:00,0.5017,295.796,273.599,253.621,276.315,275.706,258.638,0.391013,0.484811,237.333,256.36
2013-08-27 15:00,0.311423,293.816,289.699,262.89,292.6,290.921,264.255,0.117458,0.285818,236.341,255.548
2013-08-27 16:00,0.284661,294.823,291.174,263.825,294.277,292.679,264.605,0.103806,0.25466,235.936,254.907
2013-08-27 17:00,0.269242,294.823,291.902,263.928,295.297,293.883,265.069,0.0960533,0.242802,236.071,255.366
2013-08-27 18:00,0.274707,292.889,290.44,262.995,293.635,292.41,263.905,0.105042,0.248705,236.139,256.091
2013-08-27 19:00,0.289012,290.813,289.165,262.261,292.209,291.057,264.022,0.121358,0.270425,235.867,256.001
2013-08-27 20:00,0.306337,287.01,286.661,260.661,289.568,288.584,263.318,0.169591,0.31323,236.071,256.36
2013-08-27 21:00,0.349232,282.234,283.032,258.691,285.34,284.779,261.898,0.362898,0.464752,236.274,256.45
2013-08-27 22:00,-0.00734095,276.811,278.845,255.974,280.931,280.998,260.822,-0.0,-0.0,236.071,256.805
2013-08-27 23:00,-0.224621,276.155,277.224,254.926,279.022,279.361,259.977,-0.0668221,-0.128706,236.139,256.45
2013-08-28 00:00,-0.131027,274.551,275.951,254.454,277.978,278.156,259.492,-0.042023,-0.0821739,236.341,256.36
2013-08-28 01:00,-0.0,273.831,275.176,254.217,276.772,277.243,259.492,-0.0,-0.0,236.207,257.07
2013-08-28 02:00,-0.0,273.338,274.524,253.621,276.01,276.323,258.882,-0.0,-0.0,235.593,256.894
2013-08-28 03:00,-0.0,272.58,273.865,253.14,275.55,276.015,259.37,-0.0,-0.0,236.139,257.508
2013-08-28 04:00,0.00124013,272.322,273.599,252.899,275.087,275.551,258.392,-0.0,-0.0,236.542,257.595
2013-08-28 05:00,-0.0,271.531,272.931,252.412,274.467,274.773,258.638,-0.0,-0.0,237.268,258.286
2013-08-28 06:00,-0.0,271.261,272.256,252.534,273.843,273.99,258.392,-0.0,-0.0,236.139,257.595
2013-08-28 07:00,0.00191826,270.713,271.984,252.045,273.372,273.675,258.515,-0.0,-0.0,236.004,258.457
2013-08-28 08:00,-0.0,270.434,271.437,251.676,272.741,272.883,258.023,-0.0,-0.0,237.203,259.97
2013-08-28 09:00,-0.0,269.576,270.607,251.429,271.464,271.765,257.53,-0.0,-0.0,237.849,260.052
2013-08-28 10:00,0.673475,271.261,266.145,251.676,271.625,271.765,256.535,0.631326,1.01987,238.041,260.217
2013-08-28 11:00,0.599764,281.346,278.721,255.858,280.493,280.257,260.461,0.298929,0.665618,238.981,261.993
2013-08-28 12:00,0.544721,288.43,284.528,259.134,286.31,285.777,262.255,0.237846,0.537598,239.653,263.012
2013-08-28 13:00,0.445193,292.771,290.017,262.155,292.209,291.871,265.069,0.180811,0.425697,240.014,264.238
2013-08-28 14:00,0.371055,295.796,293.336,264.133,296.056,295.339,267.365,0.142218,0.345312,239.043,264.615
2013-08-28 15:00,0.324233,297.449,295.442,265.355,298.549,297.947,268.158,0.116972,0.28606,239.593,265.286
2013-08-28 16:00,0.29342,298.726,297.107,266.159,300.263,299.488,268.497,0.101039,0.252287,239.471,265.655
2013-08-28 17:00,0.281856,298.339,297.204,266.358,300.506,299.87,268.722,0.0957142,0.240423,239.894,265.728
2013-08-28 18:00,0.277286,297.045,296.523,266.059,299.654,299.232,268.609,0.0986963,0.247842,239.774,266.021
2013-08-28 19:00,0.290294,293.93,294.546,265.052,297.558,297.04,267.705,0.114967,0.267071,239.834,265.728
2013-08-28 20:00,0.312755,289.91,291.383,263.099,293.892,293.75,266.909,0.158885,0.315745,239.288,265.434
2013-08-28 21:00,0.313463,283.093,285.208,259.574,286.997,287.188,264.022,0.345031,0.443043,238.608,264.839
2013-08-28 22:00,-0.00736822,277.661,280.066,256.549,281.366,281.735,261.779,-0.0,-0.0,238.357,264.464
2013-08-28 23:00,-0.161013,276.594,277.977,255.51,279.466,279.81,260.942,-0.0617342,-0.128815,238.919,264.765
2013-08-29 00:00,-0.127093,275.707,276.718,254.808,277.978,278.307,260.701,-0.0453978,-0.0902167,238.294,264.238
2013-08-29 01:00,0.00154641,274.787,276.336,254.926,277.377,278.004,260.701,-0.0,-0.0,237.398,263.858
2013-08-29 02:00,-0.00133543,274.551,275.436,254.099,276.772,277.548,260.098,-0.0,-0.0,237.268,264.01
2013-08-29 03:00,-0.0,273.831,275.436,254.454,276.62,277.243,260.219,-0.0,-0.0,236.94,263.782
2013-08-29 04:00,0.0012411,273.831,275.176,253.98,276.315,277.091,260.461,-0.0,0.00125297,236.341,263.552
2013-08-29 05:00,-0.0,273.338,274.524,253.501,275.703,276.323,259.735,-0.0,-0.0,236.675,263.399
2013-08-29 06:00,-0.0,272.58,274.261,253.501,275.396,276.015,259.856,-0.0,-0.0,236.274,263.322
2013-08-29 07:00,-0.0,272.836,274.129,253.381,275.087,275.861,259.614,-0.0,-0.0,235.799,263.012
2013-08-29 08:00,0.00287507,272.836,274.129,253.501,275.242,275.861,259.492,-0.0,-0.0,235.178,262.779
2013-08-29 09:00,-0.0,272.322,273.599,252.899,274.778,275.551,259.614,-0.0,-0.0,234.329,262.779
2013-08-29 10:00,0.720894,274.314,275.046,253.86,276.315,276.784,260.34,0.572231,0.909732,234.686,262.779
2013-08-29 11:00,0.671901,285.045,283.032,258.358,284.921,284.779,262.728,0.316449,0.695282,234.041,262.623
2013-08-29 12:00,0.557507,292.414,289.272,262.049,291.817,291.329,265.416,0.240125,0.538365,234.615,263.476
2013-08-29 13:00,0.446234,296.219,292.622,264.031,295.297,294.547,266.108,0.182819,0.412352,234.329,263.322
2013-08-29 14:00,0.372339,299.013,296.621,266.458,299.776,299.104,268.609,0.144118,0.334473,234.185,263.706
2013-08-29 15:00,0.327109,301.037,299.307,267.935,302.55,301.516,269.618,0.120057,0.283464,233.896,263.476
2013-08-29 16:00,0.286731,302.085,300.526,268.807,304.324,303.142,269.953,0.101847,0.252758,232.935,263.476
2013-08-29 17:00,0.276364,301.999,300.526,268.615,304.442,303.142,270.619,0.0979226,0.239581,233.085,263.09
2013-08-29 18:00,0.283375,300.679,300.06,268.227,303.499,302.644,269.841,0.105809,0.241661,232.633,262.701
2013-08-29 19:00,0.289247,298.339,298.167,267.249,301.712,300.759,268.946,0.128377,0.261398,232.405,261.755
2013-08-29 20:00,0.319135,294.491,295.045,265.153,298.178,297.43,267.932,0.191125,0.322186,232.481,260.789
2013-08-29 21:00,0.402489,287.155,288.628,261.412,291.16,290.784,264.953,0.419429,0.500106,232.784,259.97
2013-08-29 22:00,-0.00739522,282.581,284.642,259.354,286.86,286.907,263.905,-0.0,-0.0,232.935,259.554
2013-08-29 23:00,-0.164189,281.346,283.264,258.802,285.479,285.777,263.318,-0.066935,-0.131993,232.481,258.713
2013-08-30 00:00,-0.13309,280.799,282.799,258.022,284.781,284.922,263.553,-0.0470933,-0.0942544,232.86,258.967
2013-08-30 01:00,-0.00154672,280.427,282.214,257.798,284.22,284.922,263.2,-0.0,-0.0,233.75,258.628
2013-08-30 02:00,-0.0,279.859,281.505,257.798,283.938,284.205,262.965,-0.0,-0.0,234.113,257.595
2013-08-30 03:00,-0.0,279.278,281.029,257.459,283.372,283.629,262.728,-0.0,-0.0,233.159,256.716
2013-08-30 04:00,0.00124214,278.684,280.669,257.233,282.803,283.049,262.492,-0.0,-0.0,232.328,256.181
2013-08-30 05:00,-0.0,277.869,280.187,256.549,282.231,282.613,261.54,-0.0,-0.0,231.865,256.091
2013-08-30 06:00,-0.0,277.869,279.823,256.32,281.799,282.175,261.898,-0.0,-0.0,231.156,255.639
2013-08-30 07:00,-0.00193142,277.451,279.213,256.089,281.366,281.735,261.54,-0.0,-0.0,231.787,255.639
2013-08-30 08:00,-0.0,277.451,279.091,256.089,281.221,281.588,261.898,-0.0,-0.0,231.709,255.821
2013-08-30 09:00,-0.0,277.026,278.721,255.858,280.931,281.588,261.421,-0.0,-0.0,231.943,256.091
2013-08-30 10:00,0.613873,278.279,279.702,256.434,281.799,282.321,261.898,0.519765,0.683852,231.865,255.548
2013-08-30 11:00,0.621892,287.587,285.546,259.683,288.358,287.748,263.2,0.298381,0.57761,231.394,255.457
2013-08-30 12:00,0.538796,295.26,291.487,262.995,294.661,293.216,265.069,0.228099,0.471097,230.674,254.722
2013-08-30 13:00,0.425783,299.579,295.541,265.355,298.918,296.519,266.452,0.175711,0.372058,230.674,254.536
2013-08-30 14:00,0.350919,297.549,288.087,260.876,288.897,284.492,257.406,0.163929,0.302354,228.136,249.198
2013-08-30 15:00,0.304796,297.848,286.105,259.354,287.27,283.194,255.28,0.14916,0.265364,227.601,247.808
2013-08-30 16:00,0.303784,303.592,296.131,265.456,298.178,294.547,263.318,0.126247,0.251822,228.921,250.849
2013-08-30 17:00,0.336772,303.592,292.725,263.618,294.661,290.238,260.822,0.166018,0.270482,229.178,250.544
2013-08-30 18:00,0.32276,292.534,277.476,253.86,277.226,273.042,251.553,0.234664,0.318762,228.224,244.412
2013-08-30 19:00,0.483463,269.576,242.37,234.845,240.392,238.515,230.111,0.519556,0.624185,224.156,231.031
2013-08-30 20:00,0.67808,269.865,243.719,235.173,242.515,240.576,232.387,0.679113,0.821474,225.156,232.508
2013-08-30 21:00,0.978898,278.075,262.616,245.314,261.791,258.408,241.953,0.738178,1.05002,226.685,240.576
2013-08-30 22:00,-0.00742199,286.271,285.77,259.134,288.087,286.485,261.66,-0.0,-0.0,228.835,251.452
2013-08-30 23:00,-0.237361,285.97,286.328,259.683,289.3,288.167,263.318,-0.079874,-0.144393,230.266,252.925
2013-08-31 00:00,-0.115248,285.045,285.546,259.244,288.358,287.329,262.373,-0.0420606,-0.0822475,230.674,253.117
2013-08-31 01:00,-0.00154707,283.76,284.642,258.691,287.679,286.626,262.492,-0.0013099,-0.0,229.685,253.021
2013-08-31 02:00,0.00133624,281.165,281.624,257.233,284.22,282.758,260.461,-0.0,-0.00134901,229.348,251.949
2013-08-31 03:00,-0.00124649,269.865,271.023,250.806,274.0,273.042,256.16,-0.0,-0.0,229.685,251.352
2013-08-31 04:00,-0.0,276.155,271.848,251.799,272.899,269.984,251.944,-0.0,-0.0,228.575,248.241
2013-08-31 05:00,-0.0,269.283,266.59,248.382,268.524,266.835,251.553,-0.0,-0.0,228.662,248.133
2013-08-31 06:00,-0.00152407,268.382,260.692,245.177,258.678,255.614,241.953,-0.0,-0.0,223.434,239.121
2013-08-31 07:00,-0.0,277.661,274.916,253.14,276.468,273.832,254.137,-0.0,-0.0,227.42,247.808
2013-08-31 08:00,0.00291219,267.123,259.54,243.65,259.791,257.486,242.814,-0.0,-0.0,226.778,240.964
2013-08-31 09:00,-0.0,275.251,271.711,250.555,273.057,271.444,252.594,-0.0,-0.0,228.136,246.483
2013-08-31 10:00,0.319175,277.24,274.129,252.045,274.623,273.042,253.368,0.405368,0.443061,228.136,246.818
2013-08-31 11:00,0.388869,251.944,238.338,233.005,239.183,237.345,232.547,0.537205,0.636403,225.931,232.829
2013-08-31 12:00,0.369969,259.505,239.074,233.175,239.183,238.282,232.707,0.582043,0.67713,225.449,232.022
2013-08-31 13:00,0.297052,257.103,238.585,232.834,238.693,237.815,232.066,0.421699,0.495629,226.216,232.347
2013-08-31 14:00,0.340235,291.19,275.046,251.922,275.703,270.798,249.705,0.221793,0.329809,227.959,244.647
2013-08-31 15:00,0.341148,304.319,292.827,263.307,293.892,288.167,258.147,0.152088,0.276933,227.42,247.371
2013-08-31 16:00,0.283229,275.932,256.118,241.646,254.854,251.947,240.354,0.355012,0.4247,225.931,237.748
2013-08-31 17:00,0.316224,275.251,258.534,242.799,257.55,255.045,242.956,0.424353,0.493929,227.329,240.446
2013-08-31 18:00,0.40035,269.576,248.38,237.572,247.662,245.612,236.46,0.550651,0.630093,228.4,238.303
2013-08-31 19:00,0.449343,262.869,245.89,236.784,246.355,245.399,238.278,0.637365,0.727224,229.093,238.303
2013-08-31 20:00,0.43981,294.602,280.066,255.626,281.943,277.701,255.658,0.447517,0.510228,230.43,248.241
2013-08-31 21:00,0.665169,268.686,261.982,245.177,263.569,262.008,247.823,0.601597,0.7631,230.018,245.575
2013-08-31 22:00,-0.00744854,259.045,259.373,243.93,262.15,261.121,247.279,-0.0,-0.0,230.593,246.258
2013-08-31 23:00,-0.231469,271.531,271.711,250.681,274.467,273.042,255.532,-0.0799409,-0.147588,233.01,249.617
