# timestamp,IR_016,IR_039,IR_087,IR_097,IR_108,IR_120,IR_134,VIS006,VIS008,WV_062,WV_073
2013-07-17 13:00,0.239228,295.26,290.545,262.995,293.119,291.329,265.878,0.176134,0.273017,232.935,257.508
2013-07-17 14:00,0.192154,295.69,291.902,263.307,294.405,292.545,265.762,0.130406,0.22805,233.53,258.372
2013-07-17 15:00,0.285501,298.242,295.442,265.658,298.055,295.996,266.909,0.0936192,0.274902,240.607,261.993
2013-07-17 16:00,0.261259,298.436,296.131,266.059,298.672,296.519,266.681,0.0829528,0.250569,239.41,261.755
2013-07-17 17:00,0.254198,298.533,296.229,266.159,299.041,296.78,266.566,0.0801544,0.23893,240.548,262.23
2013-07-17 18:00,0.246471,296.738,294.945,265.456,297.558,295.208,265.993,0.0876834,0.244645,241.419,262.309
2013-07-17 19:00,0.255926,294.713,293.336,264.031,295.677,293.483,265.532,0.114299,0.272569,242.211,262.309
2013-07-17 20:00,0.293883,292.174,291.383,262.89,293.635,292.006,265.532,0.193058,0.342731,241.986,261.914
2013-07-17 21:00,0.422085,286.421,287.541,260.876,289.968,288.999,264.255,0.491395,0.63918,241.419,262.23
2013-07-17 22:00,-0.00597076,283.924,285.658,259.683,288.087,287.748,263.318,-0.0,-0.0,238.231,260.789
2013-07-17 23:00,-0.0858993,283.261,285.321,259.244,287.815,288.027,263.787,-0.0242436,-0.0520323,238.733,261.033
2013-07-18 00:00,-0.0758761,282.408,284.528,258.58,286.997,287.048,263.318,-0.0247093,-0.0510676,238.231,260.708
2013-07-18 01:00,-0.00153746,282.234,284.414,259.024,286.86,286.907,263.553,-0.0,-0.0,237.528,260.217
2013-07-18 02:00,-0.0,280.799,282.214,257.572,284.079,283.629,261.421,-0.0,-0.0,234.472,257.595
2013-07-18 03:00,-0.0,281.705,283.841,258.691,286.447,286.485,263.2,-0.0,-0.0,236.542,258.713
2013-07-18 04:00,-0.00123426,280.799,283.495,258.134,286.033,286.202,262.965,-0.0,-0.0,240.193,259.554
2013-07-18 05:00,-0.0,281.165,283.264,258.134,286.033,286.06,263.2,-0.0,-0.0,239.166,259.387
2013-07-18 06:00,-0.0,280.799,282.916,258.134,285.618,285.919,262.728,-0.0,-0.0,237.137,258.713
2013-07-18 07:00,-0.00180801,278.075,277.727,255.277,280.054,279.511,258.147,-0.0,-0.0,234.257,255.275
2013-07-18 08:00,-0.0,280.05,282.448,258.246,285.34,285.777,262.847,-0.0,-0.0,235.247,257.246
2013-07-18 09:00,-0.0,279.473,281.742,257.798,284.641,285.065,262.728,-0.0,-0.0,234.329,256.36
2013-07-18 10:00,-0.0,278.883,281.148,257.346,283.797,284.061,262.728,-0.1147,-0.102572,233.896,255.548
2013-07-18 11:00,0.4133,277.026,272.527,252.045,273.529,272.086,252.335,0.322167,0.536465,231.943,249.721
2013-07-18 12:00,0.45379,290.558,288.628,261.838,291.16,289.826,264.138,0.192112,0.474035,235.593,255.457
2013-07-18 13:00,0.367903,294.38,291.798,263.825,294.533,292.545,264.605,0.141762,0.380316,236.071,255.548
2013-07-18 14:00,0.320123,297.449,293.843,265.557,296.684,294.016,265.185,0.114851,0.321358,234.968,255.091
2013-07-18 15:00,0.276523,298.242,293.235,264.95,295.93,292.141,262.965,0.103129,0.279166,233.823,254.068
2013-07-18 16:00,0.268687,300.498,295.935,266.756,298.918,295.865,265.647,0.0909986,0.251528,234.615,254.256
2013-07-18 17:00,0.265678,299.858,295.144,266.458,298.426,295.339,264.837,0.099155,0.255865,234.615,253.974
2013-07-18 18:00,0.268332,298.144,293.133,264.849,296.182,292.948,263.905,0.117093,0.275065,234.401,253.5
2013-07-18 19:00,0.229611,295.902,293.742,265.153,296.809,294.149,265.416,0.113802,0.248767,235.038,254.629
2013-07-18 20:00,0.271694,293.702,292.622,264.543,295.55,293.617,264.837,0.166142,0.325086,236.609,255.73
2013-07-18 21:00,0.248187,287.444,288.52,262.155,291.817,291.057,264.605,0.378251,0.501119,235.386,255.639
2013-07-18 22:00,-0.00600516,285.512,286.992,260.984,289.968,289.413,263.67,-0.0,-0.0,234.472,255.275
2013-07-18 23:00,-0.0918132,280.982,278.845,255.974,280.201,279.211,257.034,-0.0267225,-0.0550352,230.916,249.303
2013-07-19 00:00,-0.0778919,284.41,285.546,260.119,288.763,288.167,262.847,-0.0230828,-0.0511137,233.308,254.068
2013-07-19 02:00,-0.0,281.165,280.909,257.346,283.088,281.588,259.127,-0.0,-0.0,232.097,251.452
2013-07-19 03:00,-0.0,283.261,284.528,259.574,287.815,287.048,262.847,-0.0,-0.0,233.01,253.595
2013-07-19 04:00,-0.0,282.923,284.642,259.683,287.543,286.907,262.255,-0.0,-0.0,233.234,253.785
2013-07-19 05:00,0.00130151,283.261,284.528,259.574,287.543,286.343,262.965,-0.0,-0.0,233.382,253.88
2013-07-19 06:00,-0.0,276.811,277.727,255.626,279.907,279.211,259.37,-0.0,-0.0,233.896,252.925
2013-07-19 07:00,-0.0,282.753,283.956,259.683,286.585,285.919,261.898,-0.0,-0.0,235.317,254.349
2013-07-19 08:00,-0.0025343,280.05,281.267,258.022,284.22,283.049,260.701,-0.0,-0.0,235.593,254.068
2013-07-19 09:00,-0.00463395,279.859,280.789,257.91,283.372,281.882,260.581,-0.0,-0.0,235.386,253.595
2013-07-19 10:00,-0.0691251,264.739,266.59,249.414,270.332,270.148,254.9,-0.263377,-0.244251,233.677,252.634
2013-07-19 11:00,0.554544,286.421,284.071,259.793,286.722,284.492,260.822,0.314862,0.540086,233.53,253.69
2013-07-19 12:00,0.505616,293.124,281.978,258.58,284.079,281.735,259.492,0.35897,0.456551,233.085,253.117
2013-07-19 13:00,0.474468,295.796,283.956,259.902,286.033,283.194,260.581,0.306878,0.450175,233.234,253.117
2013-07-19 14:00,0.533887,298.144,273.599,253.98,276.772,275.24,257.034,0.427607,0.513498,233.234,253.213
2013-07-19 15:00,0.400527,295.796,279.945,257.685,281.655,278.458,258.392,0.284921,0.386127,233.159,252.439
2013-07-19 16:00,0.300408,268.986,253.226,241.646,253.867,252.732,242.241,0.580204,0.637707,230.018,243.457
2013-07-19 17:00,0.332829,290.939,279.213,257.006,281.221,278.911,258.023,0.293609,0.36064,231.473,251.652
2013-07-19 18:00,0.394925,296.84,282.916,259.574,285.061,281.882,259.37,0.247304,0.390394,231.236,251.552
2013-07-19 19:00,0.485078,273.831,254.69,242.081,254.263,251.156,238.876,0.476806,0.61918,227.42,237.608
2013-07-19 20:00,0.239805,287.155,280.789,258.246,280.931,277.853,255.909,0.245343,0.262272,229.007,247.261
2013-07-19 21:00,0.187411,247.601,238.83,233.344,237.702,236.396,230.604,0.357031,0.378404,225.352,231.031
2013-07-19 22:00,-0.00603986,260.827,252.853,241.207,251.856,249.753,239.618,-0.0,-0.0,227.78,239.121
2013-07-19 23:00,-0.106374,273.586,267.326,249.797,267.016,262.361,247.006,-0.0292108,-0.0580491,230.018,243.937
2013-07-20 00:00,-0.0818586,273.586,269.485,251.429,269.842,267.004,251.159,-0.0247534,-0.0511588,229.517,246.032
2013-07-20 01:00,-0.00153856,260.395,253.04,241.646,252.667,250.156,239.47,-0.0,-0.0,227.959,238.303
2013-07-20 02:00,-0.00133482,267.123,256.819,244.07,255.439,252.144,240.207,-0.0,-0.0,226.778,238.027
2013-07-20 03:00,0.00124387,268.073,260.036,245.177,259.606,257.115,243.667,-0.0,-0.0,227.691,240.706
2013-07-20 04:00,0.00123374,272.061,265.545,248.121,265.997,263.759,248.094,-0.0,-0.0,228.312,242.725
2013-07-20 05:00,0.00130121,284.087,283.956,259.902,286.585,284.636,261.062,-0.0,-0.0,230.018,250.442
2013-07-20 06:00,-0.0,278.482,279.336,257.12,282.231,280.406,259.127,-0.0,-0.0,229.093,249.721
2013-07-20 07:00,-0.00180795,283.924,284.414,260.228,287.134,285.777,261.421,-0.0,-0.0,229.769,249.928
2013-07-20 08:00,-0.00253547,280.982,279.58,257.233,281.799,279.81,258.392,-0.0,-0.0,229.935,248.348
2013-07-20 09:00,-0.00464262,283.76,283.611,259.574,286.172,284.636,260.581,-0.0,-0.0,230.43,250.135
2013-07-20 10:00,-0.0,275.707,271.023,251.552,271.142,268.835,251.028,-0.119749,-0.107087,229.348,244.056
2013-07-20 11:00,0.226995,269.865,264.788,247.991,265.31,263.237,248.229,0.334971,0.399402,231.552,245.345
2013-07-20 12:00,0.347327,275.932,266.293,248.771,265.997,263.586,248.634,0.29673,0.451734,231.787,244.764
2013-07-20 13:00,0.197094,279.278,270.746,251.305,270.819,268.173,250.896,0.200255,0.294046,232.175,245.69
2013-07-20 14:00,0.330936,296.943,291.174,264.236,292.6,288.722,262.017,0.120304,0.306863,232.86,250.032
2013-07-20 15:00,0.283186,297.649,291.174,264.543,292.6,288.167,261.54,0.0997898,0.267715,234.472,250.238
2013-07-20 16:00,0.259062,298.144,292.211,265.456,294.021,289.689,262.728,0.08911,0.240289,234.827,251.252
2013-07-20 17:00,0.257098,297.449,290.965,264.747,292.47,288.445,262.017,0.107371,0.243772,234.401,251.051
2013-07-20 18:00,0.129126,293.472,289.593,263.721,291.292,287.748,261.898,0.0867705,0.140707,235.386,251.051
2013-07-20 19:00,0.191503,294.156,290.335,264.236,291.948,288.445,261.779,0.103397,0.20174,234.827,250.849
2013-07-20 20:00,0.238112,292.294,289.805,263.928,292.079,288.999,262.492,0.180608,0.270437,234.897,251.352
2013-07-20 21:00,0.266138,290.041,288.628,263.307,290.897,288.027,262.255,0.450677,0.447803,235.593,251.552
2013-07-20 22:00,-0.0,267.444,259.373,245.995,259.421,255.235,244.231,-0.0,-0.0,234.401,242.848
2013-07-20 23:00,-0.112348,286.271,284.869,260.445,286.172,282.758,259.492,-0.0292693,-0.0581653,235.386,250.646
2013-07-21 00:00,-0.0877809,287.01,286.661,261.412,289.032,286.907,262.373,-0.0247747,-0.0531721,235.593,252.244
2013-07-21 01:00,-0.00153907,286.717,286.55,261.944,289.166,287.188,262.255,-0.0,-0.0,234.897,252.146
2013-07-21 02:00,-0.0,286.271,286.217,261.625,288.897,287.048,262.373,-0.0,-0.0,235.247,252.439
2013-07-21 03:00,0.00124372,285.512,285.882,261.091,288.493,286.767,262.017,-0.0,-0.0,234.041,252.146
2013-07-21 04:00,-0.0,283.76,284.3,260.445,286.997,284.349,260.581,-0.0,0.00124528,233.896,251.552
2013-07-21 05:00,0.00130093,284.73,285.321,261.198,288.087,286.343,262.017,-0.0,-0.0,233.823,252.047
2013-07-21 06:00,-0.00146884,284.41,284.642,260.553,286.997,284.779,261.062,-0.0,-0.0,232.935,251.751
2013-07-21 07:00,-0.0,283.924,283.956,260.119,286.86,284.492,260.219,-0.0,-0.0,233.159,251.652
2013-07-21 08:00,-0.00253691,280.613,280.909,258.358,284.501,282.467,259.856,-0.0,-0.0,233.456,252.439
2013-07-21 09:00,-0.0,283.594,283.726,260.228,286.585,284.922,261.182,-0.0,-0.0,232.86,251.949
2013-07-21 10:00,-0.0362646,284.087,284.071,260.119,286.997,284.779,261.779,-0.214936,-0.183056,232.328,251.652
2013-07-21 11:00,0.483374,288.012,285.658,260.984,288.087,285.635,261.898,0.294676,0.527035,231.63,251.252
2013-07-21 12:00,0.48627,293.124,288.412,262.786,289.968,286.767,262.017,0.208501,0.456303,232.328,252.342
2013-07-21 13:00,0.395121,296.114,290.44,263.928,291.817,288.306,262.61,0.157108,0.370248,233.159,253.88
2013-07-21 14:00,0.33355,293.124,282.214,259.134,283.23,279.211,256.41,0.182204,0.322255,230.511,249.093
2013-07-21 15:00,0.398254,289.113,277.852,256.778,280.201,278.609,258.638,0.440849,0.523998,232.633,253.5
2013-07-21 16:00,0.306726,295.583,283.495,259.683,285.201,280.702,257.53,0.218699,0.324326,232.175,251.751
2013-07-21 17:00,0.380962,293.124,275.823,254.926,277.075,274.46,256.035,0.334289,0.424812,232.405,251.652
2013-07-21 18:00,0.236902,296.114,289.593,263.515,291.029,287.469,261.779,0.121042,0.237105,231.473,252.146
2013-07-21 19:00,0.408918,301.037,286.992,262.261,287.951,282.321,257.777,0.224582,0.382144,231.787,250.34
2013-07-21 20:00,0.359571,293.124,289.272,263.307,291.555,288.584,262.847,0.250231,0.392844,234.615,253.117
2013-07-21 21:00,0.378968,290.041,289.272,263.203,291.948,289.551,263.2,0.534786,0.595141,234.041,253.117
2013-07-21 22:00,0.00611002,287.3,287.322,261.838,290.101,288.445,262.847,-0.0,0.00616843,235.455,254.068
2013-07-21 23:00,-0.101025,285.97,286.772,261.625,289.835,288.306,264.022,-0.0317711,-0.0582803,236.341,254.999
2013-07-22 00:00,-0.0819973,285.97,286.55,261.412,289.3,287.888,263.553,-0.0247954,-0.0512455,235.178,254.814
2013-07-22 01:00,-0.00153955,283.261,284.982,260.553,288.358,286.907,263.083,-0.0,-0.0,234.472,254.162
2013-07-22 02:00,-0.0,279.859,283.38,259.793,287.27,286.343,262.847,-0.0,-0.0,235.178,254.068
2013-07-22 03:00,-0.0,280.427,283.148,259.464,286.722,285.919,262.728,-0.0,0.00125544,235.386,254.722
2013-07-22 04:00,-0.00123324,279.667,282.682,259.024,286.31,285.493,262.373,-0.0,-0.0,234.401,254.068
2013-07-22 05:00,0.00130067,279.667,282.331,259.134,285.757,285.065,262.255,-0.0,-0.0,234.827,253.974
2013-07-22 06:00,-0.0,279.278,282.096,258.691,285.895,285.065,262.255,-0.0,-0.0,234.113,253.405
2013-07-22 07:00,-0.0,278.883,281.742,259.134,285.895,285.208,262.728,-0.0,-0.0,234.329,253.785
2013-07-22 08:00,-0.00253861,278.075,281.624,258.802,285.618,284.922,262.017,-0.0,-0.0,234.827,253.785
2013-07-22 09:00,-0.0,278.075,280.669,258.246,284.079,283.049,261.54,-0.0,-0.0,234.897,254.814
2013-07-22 10:00,-0.261089,278.482,280.429,258.022,283.372,282.467,261.301,-0.315805,-0.338895,234.472,254.536
2013-07-22 11:00,0.768283,285.357,281.029,258.58,284.501,283.484,262.017,0.737238,0.717456,234.615,254.722
2013-07-22 12:00,0.707857,292.053,280.669,258.134,284.079,283.484,261.66,0.715003,0.708355,234.185,254.443
2013-07-22 13:00,0.628802,291.809,280.669,258.246,284.079,283.484,261.779,0.714787,0.7073,233.01,254.068
2013-07-22 14:00,0.632893,293.124,280.789,258.469,284.501,283.773,261.898,0.702382,0.698505,231.943,253.5
2013-07-22 15:00,0.548415,294.268,275.951,255.742,279.17,278.609,259.856,0.519457,0.542158,232.86,253.785
2013-07-22 16:00,0.531121,293.007,279.823,258.022,282.946,282.467,261.421,0.501483,0.518325,233.159,254.814
2013-07-22 17:00,0.497104,293.93,279.702,257.798,282.946,281.735,261.062,0.438434,0.47049,232.709,254.443
2013-07-22 18:00,0.693876,299.95,273.732,254.454,277.528,276.323,257.9,0.673648,0.694346,232.175,254.068
2013-07-22 19:00,0.82239,293.587,272.256,253.261,275.396,275.085,257.53,0.822072,0.869126,231.473,254.068
2013-07-22 20:00,0.89013,286.421,272.391,253.381,276.01,275.706,258.27,0.832352,0.923327,231.473,253.974
2013-07-22 21:00,1.08197,269.576,267.033,250.177,269.679,268.339,252.594,0.814315,1.09232,229.007,250.238
2013-07-22 22:00,-0.0122909,268.986,267.618,250.806,269.679,267.004,249.438,-0.0,-0.0,227.147,247.59
2013-07-22 23:00,-0.0896538,263.636,255.764,243.93,255.244,250.757,236.918,-0.0293844,-0.0583941,222.585,239.789
2013-07-23 00:00,-0.0879256,264.377,259.039,245.314,258.865,255.803,241.374,-0.0248155,-0.0532597,223.952,241.093
2013-07-23 01:00,-0.00154,239.711,229.673,229.118,228.293,226.426,223.233,-0.0,-0.0,219.863,224.61
2013-07-23 02:00,-0.0,258.096,253.226,242.369,253.867,251.552,239.47,-0.0,-0.0,224.56,240.053
2013-07-23 03:00,-0.00124339,249.156,235.011,232.491,232.502,228.856,223.413,-0.0,-0.0,217.229,225.408
2013-07-23 04:00,-0.0,252.585,239.317,234.515,236.695,233.722,227.089,-0.0,0.00124478,219.382,228.96
2013-07-23 05:00,-0.0,245.913,233.938,230.743,231.408,228.59,224.126,-0.0,-0.0,218.391,225.408
2013-07-23 06:00,-0.00146856,268.686,266.145,249.158,267.522,265.48,249.305,-0.0,-0.0,226.405,245.345
2013-07-23 07:00,-0.0,258.576,251.339,240.32,251.652,249.55,237.827,-0.0,-0.0,223.952,237.327
2013-07-23 08:00,0.00254059,257.605,252.29,240.913,253.469,251.354,239.322,-0.0,-0.0,225.254,239.789
2013-07-23 09:00,-0.0,262.074,261.017,245.995,263.393,261.654,247.006,-0.0,-0.0,228.312,246.371
2013-07-23 10:00,-0.0769557,259.505,258.703,244.765,260.888,260.045,246.457,-0.195475,-0.194228,228.4,246.483
2013-07-23 11:00,0.769292,268.986,254.145,242.225,254.657,253.316,242.384,0.915131,1.03981,226.499,242.354
2013-07-23 12:00,0.646152,274.073,252.853,241.354,253.069,251.156,240.06,0.806247,0.886418,226.499,242.725
2013-07-23 13:00,0.537745,274.551,250.566,240.32,250.83,249.753,240.207,0.657259,0.720199,226.311,241.475
2013-07-23 15:00,0.509429,278.482,253.963,242.081,254.263,253.122,242.384,0.545347,0.607659,226.778,243.214
2013-07-23 16:00,0.452462,274.073,250.175,240.171,249.998,248.121,239.025,0.513515,0.581513,225.546,240.316
2013-07-23 17:00,0.259778,282.234,273.997,253.381,274.623,271.605,252.335,0.136925,0.27442,228.488,247.59
2013-07-23 18:00,0.407493,285.202,265.696,248.512,265.997,262.712,247.006,0.303827,0.423669,226.685,243.818
2013-07-23 19:00,0.662584,275.932,248.177,238.195,246.355,243.896,233.819,0.667647,0.77119,224.258,235.444
2013-07-23 20:00,0.815857,266.797,243.719,236.146,242.978,241.027,232.867,0.855258,1.01977,224.258,235.146
2013-07-23 21:00,0.726276,250.598,235.275,231.799,233.31,231.459,227.431,0.647302,0.84899,221.819,227.877
2013-07-23 22:00,-0.00618104,249.156,242.37,235.337,241.107,238.978,231.743,-0.0,-0.0,222.799,232.347
2013-07-23 23:00,-0.0724407,232.213,226.902,228.004,226.221,225.597,223.233,-0.0245342,-0.0526559,218.891,221.658
2013-07-24 00:00,-0.0723514,250.598,243.273,235.823,242.283,241.251,233.503,-0.0231794,-0.0513275,223.329,233.146
2013-07-24 01:00,-0.0,237.078,231.14,229.118,230.294,229.385,226.402,-0.0,-0.0,220.916,226.187
2013-07-24 02:00,-0.00133493,259.045,258.703,245.04,261.25,259.684,247.006,-0.0,-0.0,228.921,246.483
2013-07-24 03:00,-0.0,255.521,251.721,240.021,252.465,250.957,240.646,-0.0,-0.0,227.51,241.348
2013-07-24 04:00,0.00123275,258.096,256.644,243.65,258.116,257.115,245.211,-0.0,-0.0,228.662,245.114
2013-07-24 05:00,-0.0,258.096,255.764,242.942,256.598,255.803,244.09,-0.0,-0.0,227.601,242.23
2013-07-24 06:00,-0.0,252.585,250.566,239.871,251.447,250.156,240.207,-0.0,-0.0,227.87,240.706
2013-07-24 07:00,-0.00180905,263.255,265.243,248.382,268.69,267.84,252.853,-0.0,-0.0,231.63,250.135
2013-07-24 08:00,-0.0,260.395,263.712,247.597,267.016,266.835,252.853,-0.0,-0.0,234.041,250.748
2013-07-24 09:00,-0.0,266.131,266.738,249.414,270.006,269.494,254.264,-0.0,-0.0,233.896,251.252
2013-07-24 10:00,-0.0398257,263.255,265.092,249.029,268.69,267.673,253.24,-0.168602,-0.160826,234.615,251.152
2013-07-24 11:00,0.744739,277.451,263.867,247.991,266.847,266.667,252.464,0.71607,0.847434,234.827,252.047
2013-07-24 12:00,0.726442,292.294,262.3,247.2,265.826,265.82,252.335,0.701083,0.776892,235.038,252.146
2013-07-24 13:00,0.613617,294.156,263.712,248.252,266.847,266.667,252.723,0.570772,0.645659,234.543,252.244
2013-07-24 14:00,0.559586,290.301,264.788,248.642,267.522,267.339,252.982,0.496363,0.575696,235.247,252.828
2013-07-24 15:00,0.514305,282.581,263.556,247.859,266.508,266.667,252.335,0.54775,0.617188,234.543,251.85
2013-07-24 16:00,0.379059,293.93,267.473,250.303,269.842,268.173,253.625,0.255946,0.347159,234.329,251.252
2013-07-24 17:00,0.50925,283.093,263.867,248.121,266.678,266.667,252.853,0.522644,0.592015,234.543,251.252
2013-07-24 18:00,0.616031,288.152,263.245,247.859,266.508,266.498,252.594,0.584868,0.664741,235.178,251.252
2013-07-24 19:00,0.621395,293.24,268.916,251.305,271.625,270.148,254.264,0.477674,0.569554,234.968,251.352
2013-07-24 20:00,0.718488,282.408,260.365,246.13,263.04,262.888,250.633,0.70633,0.788642,235.247,249.093
2013-07-24 21:00,0.146161,262.074,263.867,247.859,266.167,265.82,251.944,0.46408,0.405786,235.731,250.646
2013-07-24 22:00,-0.0062168,262.869,263.245,247.067,265.138,264.623,250.765,-0.0,-0.0,236.675,249.928
2013-07-24 23:00,-0.0812876,272.58,274.261,253.98,277.226,276.631,257.777,-0.0245808,-0.049825,238.42,253.785
2013-07-25 00:00,-0.0861052,272.58,274.392,253.501,277.075,276.938,258.515,-0.024854,-0.0513668,240.607,255.911
2013-07-25 01:00,-0.00154082,273.338,275.306,253.621,277.226,277.548,258.882,9.96921e+36,-0.0,241.817,258.372
2013-07-25 02:00,-0.00133492,272.322,274.392,253.02,276.01,276.631,259.127,9.96921e+36,-0.0,241.361,259.22
2013-07-25 03:00,-0.0,271.798,273.732,253.02,275.242,275.706,258.76,-0.0,-0.0,243.846,262.545
2013-07-25 04:00,-0.0,271.261,272.931,252.656,274.467,274.929,258.515,-0.0,-0.0,245.456,263.782
2013-07-25 05:00,-0.0,270.713,272.391,252.168,273.529,273.99,258.147,-0.0,-0.0,246.798,264.914
2013-07-25 06:00,0.00146849,270.434,271.574,251.676,272.899,273.359,257.9,-0.0,-0.0,248.231,265.655
2013-07-25 07:00,-0.0,270.151,271.162,251.305,272.264,272.883,257.777,-0.0,-0.0,248.833,265.948
2013-07-25 08:00,-0.0,269.576,270.746,251.056,271.785,272.246,257.777,9.96921e+36,-0.0,249.335,266.384
2013-07-25 09:00,-0.00470303,268.686,270.329,251.056,271.303,271.765,257.282,9.96921e+36,-0.0,248.741,265.728
2013-07-25 10:00,-0.0413705,269.283,269.908,250.931,271.142,271.444,257.034,-0.280227,-0.292362,248.464,265.36
2013-07-25 11:00,0.469736,275.48,275.306,254.099,276.772,276.938,259.614,0.254544,0.644948,248.925,265.801
2013-07-25 12:00,0.456561,283.924,282.331,257.91,284.22,284.205,262.136,0.184204,0.513514,249.29,266.166
2013-07-25 13:00,0.387484,288.977,286.882,260.553,289.3,289.137,264.721,0.140346,0.410747,249.516,266.817
2013-07-25 14:00,0.327553,291.315,289.911,262.261,292.34,292.006,265.993,0.109436,0.337834,249.875,267.459
2013-07-25 15:00,0.295021,292.771,291.694,263.515,294.405,294.016,266.795,0.0914545,0.284821,249.919,267.459
2013-07-25 16:00,0.264646,293.587,292.52,264.339,295.677,295.208,267.023,0.0796411,0.255909,249.786,267.53
2013-07-25 17:00,0.252908,293.124,292.827,264.543,295.677,295.339,267.137,0.0766842,0.24325,249.154,267.246
2013-07-25 18:00,0.253534,291.686,291.798,263.825,294.788,294.149,266.795,0.080074,0.249863,248.695,267.032
2013-07-25 19:00,0.260436,0.0,0.0,262.786,292.73,292.41,266.337,0.0964736,0.282098,248.09,266.529
2013-07-25 20:00,0.287289,285.665,287.212,261.198,289.434,289.276,264.255,0.150003,0.319039,247.712,266.456
2013-07-25 21:00,0.244995,278.684,280.429,257.233,282.231,282.613,261.779,0.444508,0.530009,247.76,265.728
2013-07-25 22:00,-0.00625268,275.707,277.476,255.277,278.725,279.511,260.942,-0.0,-0.0,247.76,265.655
2013-07-25 23:00,-0.078531,274.314,276.463,254.454,277.828,278.458,259.977,-0.0246267,-0.0557909,247.902,265.655
2013-07-26 00:00,-0.0842106,274.073,275.823,254.454,277.075,278.004,260.098,-0.0248724,-0.0514048,247.902,265.801
2013-07-26 01:00,-0.0,273.586,275.306,253.86,276.772,277.396,260.34,-0.0,-0.0,246.159,265.434
2013-07-26 02:00,-0.0013349,273.088,274.785,253.86,276.163,276.938,260.098,-0.0,-0.0,245.151,265.212
2013-07-26 03:00,-0.0,272.836,274.655,253.98,276.01,276.784,260.461,-0.0,-0.0,244.739,264.989
2013-07-26 04:00,-0.0,272.836,274.524,253.621,275.857,276.477,259.977,-0.0,-0.0,244.739,265.212
2013-07-26 05:00,-0.0,272.322,274.261,253.501,275.396,276.323,259.977,-0.0,-0.0,244.164,265.434
2013-07-26 06:00,0.00146853,272.836,274.129,253.741,275.396,276.323,260.098,-0.0,-0.0,243.686,265.581
2013-07-26 07:00,-0.0,272.322,274.129,253.501,275.242,275.861,259.735,-0.0,-0.0,243.899,265.875
2013-07-26 08:00,-0.0,272.58,273.865,253.621,275.242,276.015,260.098,-0.0,-0.0,243.202,266.021
2013-07-26 09:00,-0.00471875,271.531,273.466,253.02,274.623,275.396,259.614,-0.0,-0.0,243.633,265.875
2013-07-26 10:00,-0.0862969,271.798,273.065,253.02,274.467,275.085,259.37,-0.29227,-0.348488,243.793,265.801
2013-07-26 11:00,0.497063,278.279,278.101,256.089,279.76,280.257,261.421,0.263039,0.620995,242.929,265.728
2013-07-26 12:00,0.475758,284.888,283.495,259.024,285.479,285.493,263.67,0.191083,0.504937,242.378,265.875
2013-07-26 13:00,0.401026,289.647,287.651,261.519,289.968,289.551,264.953,0.148893,0.402695,242.6,265.948
2013-07-26 14:00,0.342314,292.414,290.545,263.515,293.248,292.545,265.993,0.11952,0.331336,242.82,266.456
2013-07-26 15:00,0.298875,294.38,292.725,265.153,295.55,295.076,267.137,0.0979577,0.279022,243.147,266.96
2013-07-26 17:00,0.260555,295.69,295.045,266.059,298.178,297.689,268.834,0.0793047,0.238976,241.704,266.745
2013-07-26 18:00,0.258584,294.268,294.646,265.758,297.434,296.91,268.271,0.0831643,0.244866,239.774,266.021
2013-07-26 19:00,0.264634,292.053,292.725,264.339,295.55,295.076,267.137,0.0983144,0.267164,239.834,265.581
2013-07-26 20:00,0.285276,288.291,289.805,262.681,292.34,292.141,266.566,0.152977,0.316803,239.471,265.063
2013-07-26 21:00,0.201513,281.705,284.185,259.244,286.172,286.626,264.372,0.426553,0.474693,241.015,265.507
2013-07-26 22:00,-0.00628866,279.081,281.386,257.459,283.088,284.061,263.083,-0.0,-0.0,242.266,265.728
2013-07-26 23:00,-0.104901,278.482,280.909,257.233,282.66,283.629,263.436,-0.0271392,-0.0558934,242.155,265.875
2013-07-27 00:00,-0.0685926,277.24,279.58,256.549,281.366,282.175,262.728,-0.0215715,-0.0474846,241.59,265.286
2013-07-27 01:00,-0.00154153,276.811,279.091,256.205,280.785,281.588,262.728,-0.0,-0.0,241.246,264.989
2013-07-27 02:00,-0.00133486,276.594,278.968,256.549,280.639,281.588,262.373,-0.0,-0.0,241.189,265.212
2013-07-27 03:00,-0.0,276.155,278.845,256.205,280.347,281.588,262.728,-0.0,-0.0,240.724,265.137
2013-07-27 04:00,-0.0,276.155,278.598,256.089,280.201,281.441,262.61,-0.0,-0.0,240.957,265.063
2013-07-27 05:00,-0.0,276.594,279.091,256.778,280.785,281.735,262.847,-0.0,-0.00131214,241.073,265.36
2013-07-27 06:00,-0.0,276.811,279.091,256.434,280.785,281.735,262.61,-0.0,-0.0,241.131,265.434
2013-07-27 07:00,-0.0,276.155,278.35,256.434,280.201,281.293,262.847,-0.0,-0.0,241.419,265.655
2013-07-27 08:00,-0.0,275.48,277.852,255.858,279.613,280.85,262.255,-0.0,-0.0,241.647,265.728
2013-07-27 09:00,-0.0,275.02,277.476,255.626,279.17,280.406,262.492,-0.0,-0.0,241.647,266.021
2013-07-27 10:00,-0.0452054,275.251,277.476,255.858,279.17,280.406,262.492,-0.344478,-0.365101,241.874,266.601
2013-07-27 11:00,0.468301,280.982,281.148,257.572,282.946,283.629,263.67,0.28173,0.584751,242.155,266.673
2013-07-27 12:00,0.467367,287.01,286.55,261.305,288.493,288.584,265.185,0.200429,0.496346,242.489,267.032
2013-07-27 13:00,0.403731,292.534,290.86,263.825,293.377,293.082,266.681,0.155546,0.398965,242.155,267.103
2013-07-27 14:00,0.34639,295.476,294.245,265.758,296.809,295.996,268.158,0.123568,0.330174,242.266,267.246
2013-07-27 15:00,0.294673,297.549,296.131,267.151,299.041,298.205,268.946,0.100342,0.279705,242.544,267.174
2013-07-27 16:00,0.273983,298.63,297.783,268.13,300.869,300.125,269.506,0.0871606,0.249422,241.874,266.817
2013-07-27 17:00,0.263043,299.672,298.834,268.615,302.191,301.264,270.064,0.0847765,0.234718,242.266,267.103
2013-07-27 18:00,0.263584,298.339,298.358,268.13,301.352,300.506,269.73,0.0896086,0.235865,242.211,266.529
2013-07-27 19:00,0.271472,296.323,297.107,267.249,299.898,299.232,269.283,0.106962,0.257786,241.986,266.673
2013-07-27 20:00,0.288006,292.294,293.944,265.153,296.684,296.519,268.722,0.155907,0.309825,242.042,266.745
2013-07-27 21:00,0.258278,284.41,287.102,261.091,289.032,289.551,265.532,0.437368,0.488901,242.322,267.032
2013-07-27 22:00,-0.0,280.613,283.38,258.802,284.921,285.635,263.905,-0.0,-0.0,241.93,267.388
2013-07-27 23:00,-0.0846559,279.278,281.978,258.022,283.372,284.061,263.553,-0.0271882,-0.0559944,242.099,267.459
2013-07-28 00:00,-0.0745235,278.279,280.308,257.006,281.655,282.613,263.2,-0.0215865,-0.0455375,241.76,267.103
2013-07-28 01:00,-0.00154185,277.24,280.066,256.549,281.366,282.321,263.2,-0.0,-0.0,241.647,266.673
2013-07-28 02:00,-0.0,277.026,279.823,256.664,281.366,282.467,263.318,-0.0,-0.0,241.817,266.817
2013-07-28 03:00,-0.0,277.026,279.336,256.664,280.785,281.882,263.083,-0.0,-0.0,241.419,266.601
2013-07-28 04:00,-0.0,275.932,278.845,256.32,280.347,281.293,262.728,-0.0,-0.0,241.874,266.456
2013-07-28 05:00,-0.0,276.155,278.226,255.974,279.76,280.85,262.492,-0.0,-0.0,241.304,266.312
2013-07-28 06:00,-0.0,276.155,277.977,255.858,279.613,280.406,262.136,-0.0,-0.0,240.724,265.434
2013-07-28 07:00,-0.00181196,275.02,277.476,255.51,279.022,280.108,262.255,-0.0,-0.0,240.134,265.137
2013-07-28 08:00,-0.00255482,275.48,276.971,255.277,278.576,279.511,261.898,-0.0,-0.0,239.894,264.839
2013-07-28 09:00,-0.0,274.787,276.591,255.043,277.978,278.911,261.779,-0.0,-0.0,240.193,264.989
2013-07-28 10:00,-0.0952023,274.551,276.08,254.808,277.528,278.156,261.182,-0.362734,-0.384449,239.954,264.765
2013-07-28 11:00,0.52537,281.526,281.86,258.469,283.938,284.061,263.318,0.284484,0.62907,240.43,265.063
2013-07-28 12:00,0.492186,290.041,288.736,262.261,291.029,290.784,266.108,0.207088,0.506037,240.371,265.212
2013-07-28 13:00,0.421256,295.26,293.742,265.456,296.182,295.865,267.705,0.163927,0.403804,240.074,265.063
2013-07-28 14:00,0.352154,297.848,296.718,267.052,299.531,298.848,268.834,0.127575,0.325452,239.532,264.765
2013-07-28 15:00,0.31282,299.765,298.358,268.13,301.712,300.632,269.73,0.106757,0.273918,238.608,264.464
2013-07-28 16:00,0.285681,300.408,299.118,268.615,302.669,301.893,269.953,0.093547,0.246983,237.849,264.086
2013-07-28 17:00,0.268882,299.858,299.213,268.615,302.907,302.018,269.953,0.0873419,0.2356,237.721,264.389
2013-07-28 18:00,0.266545,298.242,298.739,268.324,301.952,301.516,270.397,0.090947,0.242987,237.398,264.086
2013-07-28 19:00,0.270211,295.902,296.621,267.052,299.898,299.36,269.395,0.106465,0.264691,237.398,263.934
2013-07-28 20:00,0.290694,291.809,293.336,265.153,296.182,295.996,268.045,0.154824,0.31714,237.072,263.706
2013-07-28 21:00,0.24868,283.428,285.658,260.445,287.679,288.167,265.416,0.394794,0.470731,237.849,264.01
2013-07-28 22:00,-0.0,280.05,282.448,258.358,284.22,284.779,264.022,-0.0,-0.00642161,237.333,263.476
2013-07-28 23:00,-0.0701844,279.081,281.029,257.91,282.66,283.484,263.787,-0.0222844,-0.0531415,237.398,263.476
2013-07-29 00:00,-0.0941978,277.869,279.823,257.12,281.366,282.321,263.318,-0.0249241,-0.0495303,237.849,263.706
2013-07-29 01:00,-0.00154214,277.24,279.336,257.006,280.639,281.441,262.492,-0.0,-0.0,238.483,263.629
2013-07-29 02:00,-0.0,277.026,278.598,256.549,280.201,280.702,262.847,-0.0,-0.0,239.593,263.399
2013-07-29 03:00,0.00124232,276.155,278.226,256.434,279.613,280.554,261.779,-0.0,-0.0,238.42,263.09
2013-07-29 04:00,-0.0,276.155,277.727,255.974,279.17,280.108,262.017,-0.0,-0.0,237.785,262.466
2013-07-29 05:00,-0.0,275.48,277.224,255.742,278.873,279.661,262.017,-0.0,-0.0,237.657,262.072
2013-07-29 06:00,-0.0,275.02,276.718,255.51,278.128,278.76,261.898,-0.0,-0.0,238.294,262.151
2013-07-29 07:00,-0.0,275.02,276.336,255.277,277.678,278.458,261.062,-0.0,-0.0,238.795,262.151
2013-07-29 08:00,-0.0,274.551,275.823,255.043,277.226,278.156,261.301,-0.0,-0.0,238.919,261.993
2013-07-29 09:00,-0.0,274.073,275.565,254.926,277.075,277.853,260.942,-0.0,-0.0,239.043,261.595
2013-07-29 10:00,-0.0504143,274.314,275.306,254.808,276.923,277.701,260.942,-0.384171,-0.40717,239.349,261.914
2013-07-29 11:00,0.526759,281.346,280.909,258.022,282.946,283.339,262.847,0.287084,0.629596,239.471,261.675
2013-07-29 12:00,0.49263,288.841,287.322,261.944,289.968,289.826,265.416,0.213641,0.515534,239.532,262.151
2013-07-29 13:00,0.41316,293.816,292.108,264.747,295.043,294.415,267.137,0.16325,0.406415,239.166,262.151
2013-07-29 14:00,0.354352,296.635,295.045,266.358,298.055,297.43,268.045,0.13154,0.331306,238.546,261.993
2013-07-29 15:00,0.311733,298.533,297.01,267.74,300.627,299.488,269.059,0.109079,0.2826,239.043,262.072
2013-07-29 16:00,0.284698,299.297,298.358,268.421,301.832,300.885,269.73,0.0958888,0.250897,239.043,261.993
2013-07-29 17:00,0.27298,299.485,298.644,268.518,302.191,301.516,269.73,0.0898847,0.234762,239.349,262.151
2013-07-29 18:00,0.259566,298.045,297.879,268.324,301.352,300.632,269.506,0.0922715,0.244044,239.349,261.993
2013-07-29 19:00,0.271618,295.583,296.033,267.052,299.287,298.72,268.609,0.114989,0.271526,239.166,262.309
2013-07-29 20:00,0.293342,291.931,293.133,265.355,296.056,295.602,267.365,0.173466,0.31965,238.919,262.466
2013-07-29 21:00,0.239804,283.924,285.77,260.876,288.087,288.167,265.185,0.456843,0.514454,238.919,262.309
2013-07-29 22:00,-0.0,280.613,282.799,259.024,284.641,285.065,264.255,-0.0,-0.0,239.714,262.309
2013-07-29 23:00,-0.0937421,280.239,281.978,258.469,283.797,284.349,263.318,-0.0272839,-0.053234,240.312,262.701
2013-07-30 00:00,-0.0687301,279.667,281.386,258.134,283.23,283.773,263.083,-0.0216148,-0.0475797,239.954,262.545
2013-07-30 01:00,-0.00154241,278.482,280.187,257.572,281.655,282.613,262.728,-0.0,-0.0,240.074,262.466
2013-07-30 02:00,-0.0,277.869,279.823,257.346,281.366,282.028,262.728,-0.0,-0.0,240.43,262.857
2013-07-30 03:00,-0.0,277.661,279.702,257.233,281.221,282.028,262.492,-0.0,-0.0,240.489,262.857
2013-07-30 04:00,-0.0,277.451,279.213,257.233,281.221,282.321,262.373,-0.0,-0.0,240.253,262.779
2013-07-30 05:00,0.00129949,277.451,279.213,257.006,281.076,281.735,262.965,-0.0,-0.0,239.593,262.072
2013-07-30 06:00,-0.0,276.811,279.091,257.233,280.785,281.735,262.492,-0.0,-0.0,239.593,261.993
2013-07-30 07:00,-0.0,276.594,278.474,256.664,280.347,281.146,262.373,-0.0,-0.0,239.349,261.914
2013-07-30 08:00,0.00256267,276.594,278.474,256.664,280.201,280.85,262.373,-0.0,-0.0,239.227,261.515
2013-07-30 09:00,-0.0,276.155,277.977,256.664,279.613,280.554,262.255,-0.0,0.00484075,239.471,261.435
2013-07-30 10:00,-0.107502,275.932,277.727,256.32,279.466,280.406,262.136,-0.455107,-0.434117,239.166,261.113
2013-07-30 11:00,0.539927,282.581,282.331,258.913,284.641,284.779,263.436,0.294611,0.599597,239.288,261.194
2013-07-30 12:00,0.498954,290.041,288.52,262.786,291.423,290.784,265.532,0.217556,0.497691,239.166,261.194
2013-07-30 13:00,0.41774,295.26,293.336,265.557,296.559,295.471,267.365,0.167918,0.391913,238.546,261.113
2013-07-30 14:00,0.361718,298.533,296.523,267.838,299.776,298.591,268.722,0.135464,0.317773,239.166,261.194
2013-07-30 15:00,0.309046,299.95,298.167,268.807,301.832,300.379,269.171,0.111377,0.2704,238.733,261.194
2013-07-30 16:00,0.28684,300.947,299.684,270.05,303.263,301.642,269.506,0.0995358,0.23578,238.733,261.834
2013-07-30 17:00,0.273679,301.214,299.966,270.05,303.736,302.394,270.064,0.0938268,0.220358,239.166,261.914
2013-07-30 18:00,0.26842,300.042,299.118,269.67,302.669,301.516,269.618,0.100267,0.223165,238.919,262.388
2013-07-30 19:00,0.283606,297.449,297.3,268.421,300.506,299.488,268.946,0.121187,0.246179,238.919,262.623
2013-07-30 20:00,0.309825,293.816,294.446,266.358,297.434,296.65,268.045,0.187937,0.298781,239.41,262.701
2013-07-30 21:00,0.347368,285.818,287.869,262.471,290.234,290.511,265.647,0.441174,0.496809,239.166,263.244
2013-07-30 22:00,-0.0,282.581,285.321,260.876,287.134,287.888,264.953,-0.0,-0.0,239.349,263.476
2013-07-30 23:00,-0.073361,282.059,284.185,260.119,286.033,286.767,264.488,-0.0223613,-0.0473999,239.471,263.476
2013-07-31 00:00,-0.0825272,281.165,283.38,259.244,285.34,286.06,264.837,-0.0232919,-0.0456255,239.593,263.629
2013-07-31 01:00,-0.0,280.05,282.448,258.802,284.22,285.065,264.022,-0.0,-0.0,239.288,263.782
2013-07-31 02:00,-0.0,279.081,281.978,258.469,283.797,284.492,263.436,-0.0,-0.0,240.253,264.314
2013-07-31 03:00,0.00124198,278.684,281.742,258.802,283.797,284.779,263.905,-0.0,-0.0,240.724,265.137
2013-07-31 04:00,0.0012314,278.482,280.429,257.459,281.799,282.904,262.728,-0.0,-0.0,240.957,264.615
2013-07-31 05:00,-0.0,278.482,281.029,258.022,282.66,283.773,263.318,-0.0,-0.0,241.419,265.212
2013-07-31 06:00,-0.0,278.279,280.909,258.246,282.66,283.629,263.67,-0.0,-0.0,241.704,265.212
2013-07-31 07:00,0.00181545,277.24,280.308,257.685,281.799,282.758,263.436,-0.0,-0.0,241.647,264.69
2013-07-31 08:00,-0.00256708,277.661,280.429,257.685,282.231,283.049,263.436,-0.0,-0.0,241.59,265.063
2013-07-31 09:00,-0.0,277.869,280.187,257.12,281.943,283.049,263.436,-0.0,-0.0,241.533,265.063
2013-07-31 10:00,-0.17327,277.661,280.187,257.233,281.943,283.049,263.2,-0.489025,-0.524779,241.93,265.212
2013-07-31 11:00,0.546712,283.594,284.185,259.354,286.447,286.626,264.605,0.301891,0.569936,242.544,264.765
2013-07-31 12:00,0.505119,291.315,289.911,262.786,292.34,291.871,266.222,0.226421,0.473951,242.211,264.914
2013-07-31 13:00,0.42433,296.635,294.446,265.658,297.434,296.519,267.819,0.170747,0.377489,242.875,265.063
2013-07-31 14:00,0.358601,300.042,297.975,267.74,300.99,299.36,268.722,0.139346,0.313059,242.929,265.36
2013-07-31 15:00,0.31741,302.341,300.06,269.0,303.263,301.264,269.506,0.114988,0.26624,243.31,265.507
2013-07-31 16:00,0.288951,303.592,301.083,269.67,304.324,302.144,269.618,0.101829,0.236524,243.579,265.36
2013-07-31 17:00,0.277706,303.015,300.898,269.479,304.207,302.018,269.059,0.0991526,0.224626,243.633,264.69
2013-07-31 18:00,0.271299,301.653,299.778,268.711,302.907,301.012,268.722,0.103202,0.232213,243.526,264.464
2013-07-31 19:00,0.287563,299.108,297.975,267.74,300.99,298.976,268.158,0.129558,0.261014,243.74,264.314
2013-07-31 20:00,0.330676,295.69,295.045,265.859,297.683,296.127,267.023,0.206098,0.324564,243.74,263.858
2013-07-31 21:00,0.503865,288.012,289.165,262.366,291.817,291.329,266.108,0.474024,0.536942,243.899,264.162
2013-07-31 22:00,-0.00646902,285.512,287.651,260.876,289.701,289.689,264.953,-0.0,-0.0,244.426,264.314
2013-07-31 23:00,-0.0911197,284.73,286.661,260.445,289.032,289.137,264.837,-0.0248874,-0.0563814,244.058,264.464
