# timestamp,IR_016,IR_039,IR_087,IR_097,IR_108,IR_120,IR_134,VIS006,VIS008,WV_062,WV_073
2013-07-17 13:00,0.461653,296.84,286.992,260.337,290.5,289.413,265.069,0.399698,0.488844,233.085,256.001
2013-07-17 14:00,0.331334,294.156,287.322,260.553,290.101,288.722,265.185,0.289229,0.396665,233.234,256.805
2013-07-17 15:00,0.303901,299.672,296.229,266.059,299.164,296.78,267.251,0.104316,0.278613,238.608,261.675
2013-07-17 16:00,0.277378,300.589,296.913,266.458,299.776,297.17,266.566,0.0947663,0.253828,239.166,261.755
2013-07-17 17:00,0.323135,301.125,292.314,263.515,295.043,292.276,264.488,0.150037,0.291146,239.349,260.871
2013-07-17 18:00,0.382488,298.436,288.303,261.625,290.632,288.445,262.61,0.21821,0.37169,239.653,260.217
2013-07-17 19:00,0.350563,295.902,288.303,261.519,291.029,288.722,263.083,0.243066,0.367848,240.548,260.708
2013-07-17 20:00,0.298513,291.931,289.699,262.049,292.34,290.511,263.787,0.207172,0.316188,238.483,260.135
2013-07-17 21:00,1.08182,285.202,283.611,258.58,285.895,284.779,261.182,0.817836,1.17017,235.936,257.855
2013-07-17 22:00,-0.0,282.923,284.642,259.244,287.134,286.767,263.083,-0.0,-0.0,235.731,259.471
2013-07-17 23:00,-0.101911,282.581,284.642,259.134,286.997,287.048,263.083,-0.0295843,-0.0617308,237.528,260.217
2013-07-18 00:00,-0.0962345,283.093,284.869,259.024,287.679,287.609,263.67,-0.0266062,-0.0495686,236.609,259.887
2013-07-18 01:00,-0.0,279.859,278.101,255.043,279.318,278.609,256.909,-0.0,-0.0,231.709,252.925
2013-07-18 02:00,-0.0,280.799,280.187,256.434,282.087,281.441,259.005,-0.0,-0.0,232.405,254.814
2013-07-18 03:00,-0.0,282.234,283.148,258.134,285.479,284.922,261.301,-0.0,-0.0,235.662,257.07
2013-07-18 04:00,-0.0,282.581,284.414,259.134,287.134,286.626,262.965,-0.0,-0.0,237.333,258.286
2013-07-18 05:00,-0.0,282.753,284.185,259.134,286.585,286.485,262.017,-0.0,-0.0,236.139,258.457
2013-07-18 06:00,-0.0,261.666,252.29,240.32,251.242,249.753,238.727,-0.0,-0.0,227.691,238.714
2013-07-18 07:00,-0.0,282.234,284.185,259.354,287.134,287.048,263.67,-0.0,-0.0,236.004,257.942
2013-07-18 08:00,-0.0,282.581,284.185,259.354,286.86,286.767,262.965,-0.0,-0.0,235.525,256.716
2013-07-18 09:00,-0.0,282.234,283.726,258.913,286.31,285.777,262.373,-0.0,-0.0,234.041,256.001
2013-07-18 10:00,-0.0309936,282.581,283.841,259.024,286.722,286.343,262.728,-0.104969,-0.12516,234.113,255.911
2013-07-18 11:00,0.498631,268.686,253.595,241.791,252.262,249.55,238.428,0.49537,0.677909,226.405,237.327
2013-07-18 12:00,0.290871,287.729,285.095,259.793,287.407,285.919,260.34,0.165971,0.328762,234.401,254.629
2013-07-18 13:00,0.398616,296.114,292.622,264.747,295.677,293.216,264.953,0.160363,0.400203,234.897,255.639
2013-07-18 14:00,0.339129,298.918,295.045,266.259,298.178,295.471,265.878,0.126769,0.329623,234.968,255.457
2013-07-18 15:00,0.294924,300.498,296.425,266.954,299.531,296.65,266.108,0.105434,0.279548,235.038,255.275
2013-07-18 16:00,0.276631,300.498,296.131,266.657,299.287,296.127,265.878,0.0972505,0.249878,234.968,254.443
2013-07-18 17:00,0.310064,296.008,288.195,261.625,290.897,288.167,262.965,0.199465,0.327018,235.317,254.722
2013-07-18 18:00,0.265007,292.294,284.528,259.574,285.618,282.758,258.515,0.160519,0.284004,230.755,248.775
2013-07-18 19:00,0.272113,291.44,285.208,260.011,286.86,284.205,259.005,0.179198,0.305238,233.308,251.452
2013-07-18 20:00,0.510369,288.977,280.066,256.892,280.201,277.548,255.027,0.36628,0.559412,230.996,248.775
2013-07-18 21:00,0.517237,270.989,260.036,245.587,258.678,256.367,242.814,0.500507,0.708675,226.216,238.714
2013-07-18 22:00,-0.0,274.073,266.59,248.252,266.508,264.451,247.006,-0.0,-0.00630953,230.184,244.764
2013-07-18 23:00,-0.090449,277.661,274.524,253.261,275.55,274.46,254.392,-0.029645,-0.058912,230.916,247.808
2013-07-19 00:00,-0.0963205,284.249,285.546,260.011,288.763,288.306,263.553,-0.02663,-0.0496129,233.308,254.068
2013-07-19 02:00,-0.0,279.859,279.091,255.858,281.076,280.257,258.882,-0.0,-0.0,232.557,250.849
2013-07-19 03:00,-0.0,283.428,284.528,259.574,287.679,286.767,262.847,-0.0,-0.0,232.328,253.309
2013-07-19 04:00,-0.0,283.428,284.528,259.683,287.543,286.626,262.61,-0.0,-0.0,232.935,253.785
2013-07-19 05:00,-0.0,283.261,284.642,259.683,287.407,286.485,262.373,-0.0,-0.0,233.456,253.88
2013-07-19 06:00,-0.0,282.923,284.3,259.683,287.27,286.202,262.255,-0.0,-0.0,234.041,253.785
2013-07-19 07:00,-0.0,283.261,284.3,259.683,286.997,285.777,262.017,-0.0,-0.0,234.827,254.443
2013-07-19 08:00,-0.0,283.594,284.642,260.119,287.407,285.919,261.779,-0.0,-0.0,234.329,254.162
2013-07-19 09:00,-0.0,269.865,271.023,252.168,274.312,273.359,256.16,-0.0,-0.0,233.53,252.634
2013-07-19 10:00,-0.0315537,279.667,279.823,256.892,282.66,280.85,258.882,-0.160299,-0.159277,233.085,253.405
2013-07-19 11:00,1.18357,285.818,273.997,253.621,276.315,275.861,257.9,1.01892,1.24828,232.633,252.537
2013-07-19 12:00,0.61128,292.534,276.463,255.277,279.17,276.938,257.777,0.442869,0.633029,232.175,251.751
2013-07-19 13:00,0.404063,295.583,282.682,259.024,285.201,282.175,260.098,0.278902,0.372454,232.557,252.925
2013-07-19 14:00,0.444359,296.219,280.308,257.459,282.946,280.108,258.515,0.322925,0.424996,232.784,253.021
2013-07-19 15:00,0.274526,296.531,287.978,262.366,289.568,285.635,261.182,0.168796,0.28045,231.943,252.731
2013-07-19 16:00,0.253279,279.278,271.848,252.777,273.215,272.724,255.784,0.411145,0.408795,231.473,249.928
2013-07-19 17:00,0.355765,295.902,285.433,260.984,287.543,284.922,261.54,0.273443,0.367884,231.156,252.342
2013-07-19 18:00,0.199091,293.472,286.882,261.838,288.358,285.635,261.182,0.16341,0.223555,230.511,251.85
2013-07-19 19:00,0.443363,263.255,240.277,234.681,239.183,238.282,233.026,0.514429,0.594038,225.835,231.031
2013-07-19 20:00,0.608299,253.206,230.559,229.118,230.574,229.647,226.918,0.731693,0.872433,224.46,227.694
2013-07-19 21:00,0.566251,265.095,254.145,242.369,253.669,250.957,239.913,0.509409,0.678852,228.136,238.165
2013-07-19 22:00,-0.0,260.827,251.147,240.021,251.036,248.327,238.128,-0.0,-0.0,227.87,238.303
2013-07-19 23:00,-0.0789382,278.279,272.391,252.777,271.785,269.165,250.633,-0.0272298,-0.0590317,228.748,243.214
2013-07-20 00:00,-0.0944369,274.314,267.473,249.797,268.024,264.967,248.094,-0.0266532,-0.0496561,228.136,243.214
2013-07-20 01:00,-0.00154718,256.062,247.15,238.195,247.446,244.328,235.537,-0.0,-0.00156197,227.238,236.469
2013-07-20 02:00,-0.00133895,274.787,268.773,250.429,269.515,267.004,249.838,-0.0,-0.0,228.312,244.412
2013-07-20 03:00,-0.00249076,280.613,278.474,256.664,280.054,278.156,256.41,-0.0,-0.0,228.662,248.025
2013-07-20 04:00,-0.00123328,280.239,278.474,256.664,280.201,278.156,256.909,-0.0,-0.0,229.433,248.133
2013-07-20 05:00,-0.0,283.261,283.611,259.902,286.447,284.779,261.182,-0.0,-0.0,230.184,250.238
2013-07-20 06:00,-0.0,283.261,283.726,259.793,286.585,284.922,261.421,-0.0,-0.0,229.769,249.721
2013-07-20 07:00,0.00179836,283.261,283.611,260.119,286.722,285.065,261.421,-0.0,-0.00181555,230.101,249.825
2013-07-20 08:00,-0.0,283.093,283.38,259.464,286.033,284.349,260.942,-0.0,-0.0,230.018,249.408
2013-07-20 09:00,-0.00457501,265.446,255.941,242.942,254.263,252.144,240.793,-0.0,-0.0,226.778,236.614
2013-07-20 10:00,-0.0,274.551,271.299,251.922,271.945,270.148,252.853,-0.109027,-0.0974988,229.769,245.23
2013-07-20 11:00,0.302382,260.395,251.339,240.021,250.83,249.348,240.646,0.434132,0.497728,230.916,239.523
2013-07-20 12:00,0.323384,251.944,243.273,236.146,244.122,243.243,237.07,0.534326,0.624424,230.674,238.303
2013-07-20 13:00,0.253972,257.103,248.583,238.963,248.946,248.532,240.207,0.450467,0.530483,231.787,241.093
2013-07-20 14:00,0.401856,298.533,285.77,261.305,286.172,280.108,256.285,0.179239,0.349552,233.53,248.882
2013-07-20 15:00,0.30473,298.822,292.211,264.849,293.635,289.413,262.255,0.110381,0.26487,234.257,250.544
2013-07-20 16:00,0.276688,299.013,292.52,265.658,294.277,290.101,262.255,0.0994292,0.238733,234.041,250.95
2013-07-20 17:00,0.277199,298.144,291.694,265.052,293.506,289.551,262.61,0.109334,0.248562,234.401,251.152
2013-07-20 18:00,0.406922,301.999,273.865,254.69,272.899,264.623,246.732,0.270833,0.365847,233.75,246.032
2013-07-20 19:00,0.291568,295.796,283.726,259.574,283.938,279.511,256.41,0.184576,0.272347,234.543,249.303
2013-07-20 20:00,0.728847,301.125,281.742,259.464,282.803,276.169,254.9,0.507495,0.672883,234.257,248.775
2013-07-20 21:00,0.40749,289.381,287.651,262.576,289.968,287.329,261.898,0.517532,0.617078,234.257,251.252
2013-07-20 22:00,-0.0,279.081,275.306,255.393,274.778,269.984,252.205,-0.0,-0.0,234.329,247.59
2013-07-20 23:00,-0.0761672,282.059,280.549,258.469,282.231,277.396,256.535,-0.0248041,-0.0532352,235.038,249.617
2013-07-21 00:00,-0.0905786,286.421,286.105,261.519,288.897,287.188,262.373,-0.0250085,-0.0477102,235.108,252.634
2013-07-21 01:00,-0.0,285.97,285.994,261.305,288.628,286.767,262.373,-0.0,-0.0,234.756,252.731
2013-07-21 02:00,0.00133898,284.087,284.185,260.337,286.722,283.629,259.977,-0.0,-0.0,234.257,252.047
2013-07-21 03:00,-0.0,285.045,285.433,260.984,288.358,286.485,262.136,-0.0,-0.0,233.53,252.634
2013-07-21 04:00,-0.001233,284.73,285.208,260.876,288.222,286.767,261.898,-0.0,-0.0,233.085,252.439
2013-07-21 05:00,-0.00129848,278.482,277.35,256.434,279.022,272.405,252.594,-0.0,-0.0,231.943,248.455
2013-07-21 06:00,-0.0,283.428,283.726,259.902,286.172,283.194,259.249,-0.0,-0.0,232.097,250.95
2013-07-21 07:00,-0.0,280.982,280.066,257.91,282.087,276.784,254.773,-0.0,-0.0,231.473,249.408
2013-07-21 08:00,-0.0,268.686,263.401,247.728,264.095,256.367,242.527,-0.0,-0.0,231.236,244.53
2013-07-21 09:00,-0.00458401,276.811,277.977,256.778,281.51,279.81,259.249,-0.0,-0.0,232.557,251.949
2013-07-21 10:00,-0.0329171,281.705,281.86,258.802,284.641,283.194,260.581,-0.195096,-0.166159,232.557,251.949
2013-07-21 11:00,0.790468,285.665,279.336,257.459,281.655,280.257,259.614,0.802039,0.883762,231.63,251.652
2013-07-21 12:00,0.694378,294.933,284.3,260.337,286.447,284.349,261.421,0.44227,0.59681,232.784,253.213
2013-07-21 13:00,0.403775,295.796,290.017,263.825,291.686,288.306,262.847,0.168166,0.36577,232.481,253.785
2013-07-21 14:00,0.407847,297.947,286.217,261.838,288.493,285.635,261.66,0.262022,0.36118,232.328,253.69
2013-07-21 15:00,0.349362,297.449,288.628,262.89,290.367,287.469,262.255,0.210502,0.337937,232.097,254.068
2013-07-21 16:00,0.389763,291.686,279.58,257.798,280.785,279.661,259.614,0.408779,0.440448,232.481,253.117
2013-07-21 17:00,0.399913,285.357,272.662,253.741,274.933,274.147,256.909,0.489743,0.5129,232.251,251.949
2013-07-21 18:00,0.121041,291.19,286.772,261.519,288.087,285.35,261.062,0.140063,0.195517,230.755,251.949
2013-07-21 19:00,0.377108,294.933,287.102,261.944,289.434,286.485,261.779,0.234304,0.367018,232.481,252.731
2013-07-21 20:00,0.257175,292.053,290.229,263.928,292.6,290.238,263.436,0.181458,0.288482,234.543,253.595
2013-07-21 21:00,0.358966,288.705,287.869,262.366,290.5,288.445,263.083,0.49735,0.527124,234.329,253.88
2013-07-21 22:00,-0.0,285.97,286.882,261.625,290.101,288.722,263.67,-0.0,-0.0,235.662,254.722
2013-07-21 23:00,-0.0939301,285.202,286.439,261.412,289.701,288.722,264.022,-0.0273386,-0.0563042,235.593,255.183
2013-07-22 00:00,-0.0945945,284.41,285.658,260.876,288.763,287.748,262.965,-0.0266977,-0.0497389,233.968,254.162
2013-07-22 01:00,-0.0,284.087,285.095,260.445,288.087,287.048,263.318,-0.0,-0.0,233.896,254.443
2013-07-22 02:00,0.00267798,282.923,284.642,260.445,287.815,286.767,262.492,-0.0,-0.00135179,234.827,254.629
2013-07-22 03:00,-0.0,281.165,284.185,259.793,287.679,286.907,262.728,-0.0,-0.0,234.257,254.349
2013-07-22 04:00,-0.0,279.667,283.032,259.464,286.86,285.919,262.255,-0.0,0.00124451,233.823,254.162
2013-07-22 05:00,-0.00129819,279.278,281.505,258.358,284.501,282.904,260.701,-0.0,-0.0,233.603,252.244
2013-07-22 06:00,-0.0,279.081,282.682,259.134,286.447,285.919,262.017,-0.0,-0.0,233.896,253.69
2013-07-22 07:00,-0.0,279.667,282.331,258.913,285.895,284.922,261.898,-0.0,-0.0,234.185,253.213
2013-07-22 08:00,-0.0,279.667,281.978,258.802,285.201,284.205,261.779,-0.0,-0.0,234.686,253.88
2013-07-22 09:00,0.00459408,278.279,281.624,258.58,285.201,284.205,261.898,-0.0,-0.0,234.543,254.722
2013-07-22 10:00,-0.0674797,276.155,280.066,258.134,283.797,282.904,260.942,-0.257107,-0.238437,234.185,254.162
2013-07-22 11:00,0.759325,285.045,280.429,258.469,284.079,283.339,261.062,0.74183,0.72072,234.401,254.722
2013-07-22 12:00,0.704096,291.686,280.909,258.246,284.501,283.773,261.301,0.69112,0.695101,233.968,254.629
2013-07-22 13:00,0.646111,292.889,280.669,258.246,284.22,283.484,261.421,0.707312,0.702802,232.557,253.88
2013-07-22 14:00,0.609936,292.053,280.187,258.246,283.656,283.339,261.66,0.748978,0.745402,230.593,253.021
2013-07-22 15:00,0.573544,294.602,279.213,257.459,282.374,281.441,260.098,0.559696,0.559399,232.02,253.309
2013-07-22 16:00,0.553313,291.44,280.789,258.246,283.938,282.904,261.54,0.561917,0.573133,232.709,253.974
2013-07-22 17:00,0.525249,295.583,274.916,255.51,278.576,277.243,258.638,0.528748,0.538907,232.481,253.88
2013-07-22 18:00,0.651287,297.449,279.213,257.346,282.946,282.175,261.301,0.696112,0.700129,232.557,254.722
2013-07-22 19:00,0.799507,298.144,275.565,255.393,279.76,279.061,259.614,0.76842,0.798969,232.175,254.629
2013-07-22 20:00,0.856162,291.065,277.476,256.205,280.931,279.361,259.37,0.853072,0.931202,231.315,253.5
2013-07-22 21:00,0.942214,276.811,277.224,256.089,280.931,279.959,259.249,0.744587,0.951222,230.593,253.88
2013-07-22 22:00,-0.0128008,271.261,270.189,251.922,271.464,268.505,250.104,-0.0,-0.0,227.055,248.133
2013-07-22 23:00,-0.108819,265.791,261.179,246.801,261.611,257.856,241.519,-0.0298822,-0.0593834,224.56,243.214
2013-07-23 00:00,-0.0867807,261.251,251.53,241.207,250.207,245.824,233.503,-0.025049,-0.0477874,221.145,235.887
2013-07-23 01:00,-0.00154854,237.078,231.427,229.665,229.729,228.324,224.834,-0.0,-0.0,220.101,225.799
2013-07-23 02:00,-0.00267796,256.062,250.76,240.913,251.242,248.736,237.827,-0.0,-0.0,223.746,238.986
2013-07-23 03:00,-0.0,251.944,243.273,236.466,242.283,238.978,230.44,-0.0,-0.0,221.031,233.304
2013-07-23 04:00,-0.0,252.585,239.317,234.681,235.672,231.459,225.36,-0.0,-0.0,218.009,226.948
2013-07-23 05:00,-0.0,246.775,234.745,231.973,232.23,229.385,224.304,-0.0,-0.0,218.891,226.76
2013-07-23 06:00,-0.00146341,258.576,249.978,239.721,249.789,246.457,234.916,-0.0,-0.0,222.15,236.614
2013-07-23 07:00,-0.00179879,263.255,255.941,242.942,255.633,252.927,239.173,-0.0,-0.0,222.906,238.165
2013-07-23 08:00,-0.00251939,265.446,262.774,247.067,263.745,261.654,245.905,-0.0,-0.0,225.546,242.848
2013-07-23 09:00,-0.0,261.666,261.017,245.995,263.04,262.008,247.279,-0.0,-0.0,227.78,246.483
2013-07-23 10:00,-0.034673,262.869,263.556,247.597,266.167,265.99,251.028,-0.146788,-0.140018,229.348,248.987
2013-07-23 11:00,0.670293,270.434,258.365,244.626,259.791,258.04,245.211,0.791276,0.865396,227.78,245.575
2013-07-23 12:00,0.651545,273.088,251.721,240.617,252.059,249.753,239.322,0.824866,0.908354,226.027,241.602
2013-07-23 13:00,0.57021,275.02,252.479,241.061,252.667,251.552,241.084,0.725112,0.798922,226.778,242.478
2013-07-23 15:00,0.415134,286.271,266.738,249.669,268.024,266.329,250.369,0.339184,0.417472,228.4,247.59
2013-07-23 16:00,0.441618,286.569,268.343,250.303,269.842,268.505,251.944,0.414414,0.474812,229.093,249.198
2013-07-23 17:00,0.370067,285.97,267.473,250.177,268.524,265.82,249.838,0.255578,0.361553,228.748,247.481
2013-07-23 18:00,0.372535,285.665,265.545,248.9,265.482,261.477,244.792,0.257766,0.378118,227.329,244.764
2013-07-23 19:00,0.500161,279.473,260.201,245.04,260.706,257.671,243.099,0.453084,0.564667,226.963,243.093
2013-07-23 20:00,0.624846,272.58,250.566,240.021,249.579,246.666,235.846,0.560879,0.697221,224.86,236.179
2013-07-23 21:00,0.726467,250.598,235.275,231.45,233.842,231.968,227.26,0.615098,0.855647,221.371,228.423
2013-07-23 22:00,-0.00643859,235.601,228.463,228.749,226.82,225.874,222.873,-0.0,-0.0,219.382,222.956
2013-07-23 23:00,-0.109029,248.394,240.75,234.017,239.426,236.635,230.604,-0.0324348,-0.0594978,222.585,232.347
2013-07-24 00:00,-0.100664,251.282,245.89,237.101,245.471,243.679,235.537,-0.0267396,-0.0518097,224.76,236.179
2013-07-24 01:00,-0.0,238.442,230.85,229.301,230.574,229.385,225.36,-0.0,-0.0,221.819,227.509
2013-07-24 02:00,-0.0,227.984,225.937,227.248,225.919,224.756,223.233,-0.0,-0.0,221.031,223.793
2013-07-24 03:00,-0.00124462,235.601,231.713,229.847,232.23,230.688,226.918,-0.0,-0.0,222.799,228.06
2013-07-24 04:00,-0.0,240.898,236.06,231.973,236.186,234.95,229.449,-0.0,-0.0,224.46,231.859
2013-07-24 05:00,-0.0,254.966,250.954,239.871,251.652,249.955,239.913,-0.0,-0.0,226.871,240.446
2013-07-24 06:00,0.0014633,254.396,247.15,238.349,246.575,244.973,236.46,-0.0,-0.0,226.499,235.592
2013-07-24 07:00,-0.0,264.739,266.293,249.286,269.021,268.007,252.723,-0.0,-0.0,231.709,250.032
2013-07-24 08:00,0.00252146,262.869,264.635,248.382,267.857,267.339,252.982,-0.0,-0.0,233.75,251.051
2013-07-24 09:00,-0.0,262.074,264.329,248.252,267.857,267.506,253.24,-0.0,-0.0,233.896,250.849
2013-07-24 10:00,-0.0,266.797,268.773,250.303,272.264,271.605,254.9,-0.181526,-0.108221,233.896,251.252
2013-07-24 11:00,0.639838,274.787,263.712,247.465,266.167,265.65,250.896,0.67177,0.729929,232.557,248.987
2013-07-24 12:00,0.695074,289.91,263.867,248.252,267.354,267.339,253.111,0.672219,0.742263,235.386,252.634
2013-07-24 13:00,0.65247,288.43,264.175,248.121,267.016,267.004,252.723,0.667691,0.737229,235.247,252.342
2013-07-24 14:00,0.634464,285.357,263.712,247.859,266.847,267.004,252.982,0.688756,0.758615,234.756,252.244
2013-07-24 15:00,0.478266,279.667,264.329,248.252,266.678,266.667,252.853,0.515387,0.582007,233.968,251.352
2013-07-24 16:00,0.4911,281.165,262.458,247.067,265.138,264.795,251.422,0.510011,0.577625,233.53,249.825
2013-07-24 17:00,0.506534,283.093,264.329,248.512,267.354,267.339,253.24,0.523869,0.586881,234.041,250.95
2013-07-24 18:00,0.578709,284.249,263.867,247.991,266.678,266.667,252.594,0.58799,0.664826,234.686,250.849
2013-07-24 19:00,0.682642,289.113,265.394,249.029,268.191,267.673,253.111,0.584792,0.683762,235.247,251.352
2013-07-24 20:00,0.989248,285.512,264.482,248.512,267.522,267.673,252.594,0.90081,1.03168,235.178,250.646
2013-07-24 21:00,1.13926,268.073,265.545,248.9,268.191,268.173,253.24,0.915144,1.20914,235.178,251.051
2013-07-24 22:00,-0.0,270.434,271.711,252.534,274.933,273.99,255.784,-0.0,-0.0,235.593,251.949
2013-07-24 23:00,-0.0974263,268.382,269.059,250.555,270.981,269.984,253.753,-0.0274969,-0.0596107,236.742,251.352
2013-07-25 00:00,-0.0948136,273.338,274.785,253.621,277.377,277.396,258.147,-0.0250871,-0.0498542,238.483,254.162
2013-07-25 01:00,-0.0,273.088,274.655,253.621,276.923,277.243,258.76,9.96921e+36,-0.0,240.489,256.091
2013-07-25 02:00,0.00133892,271.798,274.261,252.899,276.01,276.784,258.882,9.96921e+36,-0.0,241.476,258.713
2013-07-25 03:00,-0.0,271.531,273.732,252.534,275.242,276.015,259.249,-0.0,-0.0,242.875,262.151
2013-07-25 04:00,-0.00123192,271.261,272.796,252.534,274.467,275.085,258.638,-0.0,-0.0,244.006,263.399
2013-07-25 05:00,-0.00129743,270.434,272.391,252.045,273.686,274.46,258.882,-0.0,-0.0,245.456,264.54
2013-07-25 06:00,0.00146323,270.434,272.12,252.168,273.057,273.99,258.023,-0.0,-0.0,247.522,265.655
2013-07-25 07:00,0.00179961,270.713,272.12,252.045,273.215,273.675,258.515,-0.0,0.00181681,248.09,265.875
2013-07-25 08:00,-0.0,270.434,271.437,251.799,272.741,273.042,258.27,9.96921e+36,-0.0,248.603,266.166
2013-07-25 09:00,0.00463105,269.865,271.023,251.676,272.104,272.724,258.023,9.96921e+36,-0.0,248.971,266.166
2013-07-25 10:00,-0.0,269.865,271.162,251.552,272.264,272.565,257.653,-0.218918,-0.261027,248.371,265.728
2013-07-25 11:00,0.546085,276.376,275.694,254.099,277.075,277.548,259.492,0.279572,0.647464,248.557,266.021
2013-07-25 12:00,0.501284,285.045,282.214,257.798,284.079,284.205,262.492,0.208312,0.5216,249.154,267.032
2013-07-25 13:00,0.419769,288.977,286.328,260.337,288.628,288.722,264.372,0.158571,0.415089,249.062,267.388
2013-07-25 14:00,0.353285,292.174,290.123,262.786,292.73,292.814,266.337,0.125633,0.337046,248.971,267.671
2013-07-25 15:00,0.313021,294.491,293.031,264.236,295.55,295.471,267.023,0.103295,0.290084,249.29,268.511
2013-07-25 16:00,0.288337,295.902,294.446,265.254,297.434,297.3,267.705,0.0912152,0.255907,249.381,268.995
2013-07-25 17:00,0.274446,295.042,294.245,265.456,297.309,297.17,268.045,0.086064,0.246284,248.879,268.65
2013-07-25 18:00,0.274368,293.587,293.235,264.849,296.307,295.865,267.705,0.0892193,0.242869,247.902,267.6
2013-07-25 19:00,0.279826,0.0,0.0,263.515,293.506,293.216,266.566,0.103797,0.271739,247.522,267.388
2013-07-25 20:00,0.305892,286.271,287.102,261.091,289.568,289.551,264.953,0.14912,0.318175,248.231,267.174
2013-07-25 21:00,0.310496,278.883,280.429,257.459,282.517,282.758,262.373,0.406295,0.512942,248.137,266.673
2013-07-25 22:00,-0.0,276.155,277.852,255.51,279.466,279.959,261.421,-0.0,-0.0,246.993,266.384
2013-07-25 23:00,-0.100566,275.932,277.476,255.626,279.17,279.661,261.182,-0.0275482,-0.0597219,245.658,265.728
2013-07-26 00:00,-0.0889519,275.932,277.476,255.043,279.022,279.361,260.942,-0.0251051,-0.0478945,244.945,265.434
2013-07-26 01:00,-0.0,274.551,276.845,255.043,278.427,279.211,260.822,-0.0,-0.0,244.79,265.434
2013-07-26 02:00,-0.00133887,275.707,277.601,255.51,279.318,279.959,260.701,-0.0,-0.0,244.583,265.581
2013-07-26 03:00,-0.0,275.932,278.101,255.974,279.907,280.257,261.182,-0.0,-0.0,244.164,265.801
2013-07-26 04:00,0.00123167,276.155,277.852,255.858,279.613,280.257,261.421,-0.0,-0.0,244.111,265.581
2013-07-26 05:00,-0.0,275.48,277.601,255.626,279.17,279.959,261.421,-0.0,-0.0,243.579,265.286
2013-07-26 06:00,-0.0,275.707,277.601,255.393,279.022,279.661,261.182,-0.0,-0.0,243.256,265.36
2013-07-26 07:00,-0.0,276.155,278.101,255.974,279.76,280.406,261.182,-0.0,0.00181739,243.472,265.728
2013-07-26 08:00,-0.0,276.155,277.601,255.742,279.318,279.959,261.421,-0.0,-0.0,242.266,265.507
2013-07-26 09:00,-0.0,275.251,277.098,255.51,278.725,279.211,260.701,-0.0,-0.0,241.76,265.507
2013-07-26 10:00,-0.0383094,275.251,276.845,255.16,278.278,278.911,261.062,-0.259492,-0.309405,242.489,265.655
2013-07-26 11:00,0.592159,279.859,279.702,257.006,281.51,281.882,262.136,0.293361,0.629619,242.322,265.728
2013-07-26 12:00,0.517315,286.569,284.071,259.464,286.31,286.343,264.138,0.215117,0.51608,241.476,266.021
2013-07-26 13:00,0.428919,290.685,287.76,261.625,290.234,289.964,265.301,0.167056,0.409203,241.015,265.728
2013-07-26 14:00,0.364416,293.93,291.383,264.441,294.149,293.617,266.795,0.132662,0.334131,241.76,266.312
2013-07-26 15:00,0.32001,296.323,294.145,265.557,296.935,296.389,268.045,0.109735,0.282685,241.647,266.601
2013-07-26 17:00,0.275206,297.749,296.033,266.756,299.409,298.463,268.722,0.0900617,0.235224,241.015,265.948
2013-07-26 18:00,0.273345,296.323,295.343,266.358,298.672,297.689,268.158,0.0939179,0.235964,240.489,265.507
2013-07-26 19:00,0.283871,293.93,293.438,265.052,296.684,295.602,267.365,0.110068,0.254444,241.361,265.728
2013-07-26 20:00,0.308435,289.91,290.545,262.995,293.248,293.082,266.222,0.167605,0.316032,241.647,265.581
2013-07-26 21:00,0.327698,283.428,285.321,260.337,287.815,288.167,264.721,0.416192,0.468677,241.419,265.434
2013-07-26 22:00,-0.0,281.165,283.148,258.469,285.34,285.635,264.022,-0.0,-0.0,242.211,265.286
2013-07-26 23:00,-0.074081,280.613,282.916,258.58,285.061,285.635,264.022,-0.0250897,-0.0568398,242.099,264.914
2013-07-27 00:00,-0.096926,280.982,282.799,258.469,284.921,285.493,263.787,-0.0284723,-0.0519218,241.476,264.839
2013-07-27 01:00,-0.00154994,280.427,282.448,258.246,284.781,285.208,264.022,-0.0,-0.0,241.246,264.989
2013-07-27 02:00,-0.0,280.05,282.448,258.469,284.361,285.065,263.67,-0.0,-0.0,241.246,265.286
2013-07-27 03:00,-0.0,279.473,282.096,258.134,284.361,284.922,263.67,-0.0,-0.0,240.724,264.839
2013-07-27 04:00,-0.00123143,279.667,281.86,258.022,284.22,284.779,263.787,-0.0,0.0012432,240.957,264.839
2013-07-27 05:00,-0.0,279.473,281.505,258.022,283.656,284.349,263.67,-0.0,-0.0,241.246,264.989
2013-07-27 06:00,-0.0,278.883,280.909,257.685,282.66,283.629,263.436,-0.0,-0.0,240.957,265.137
2013-07-27 07:00,0.00180087,278.075,280.308,257.12,282.087,282.758,263.2,-0.0,0.00181809,240.724,265.507
2013-07-27 08:00,-0.00252933,277.661,279.702,256.778,281.51,282.321,262.728,-0.0,-0.0,241.419,265.728
2013-07-27 09:00,-0.00466163,277.24,279.702,257.12,281.366,282.175,263.2,-0.0,-0.0,241.361,265.801
2013-07-27 10:00,-0.0797608,277.661,279.945,257.006,281.51,282.613,262.965,-0.270133,-0.322093,241.817,266.312
2013-07-27 11:00,0.587282,283.594,284.071,259.354,286.033,286.485,264.721,0.301525,0.618126,242.266,266.239
2013-07-27 12:00,0.514819,291.19,289.486,262.576,291.817,291.735,265.993,0.219238,0.504364,242.155,266.166
2013-07-27 13:00,0.431536,295.796,294.044,265.456,296.809,296.127,267.819,0.171837,0.39684,242.099,266.456
2013-07-27 14:00,0.363155,299.672,297.494,267.838,300.627,299.743,269.618,0.135173,0.327661,242.155,266.601
2013-07-27 15:00,0.315764,302.68,300.712,269.67,304.207,303.018,270.508,0.112074,0.278532,242.266,266.96
2013-07-27 16:00,0.288032,303.428,301.544,270.523,305.144,303.887,270.508,0.0972841,0.247883,242.6,266.888
2013-07-27 17:00,0.280994,302.764,301.544,270.334,305.027,303.887,270.951,0.0926026,0.231021,242.6,266.601
2013-07-27 18:00,0.278237,300.858,300.246,269.479,303.736,302.769,270.84,0.0969063,0.237069,242.875,266.96
2013-07-27 19:00,0.293151,297.649,297.59,267.544,300.869,300.379,269.618,0.114043,0.263958,242.433,266.312
2013-07-27 20:00,0.310939,293.007,294.044,265.557,297.06,296.78,268.497,0.162609,0.309295,242.266,266.166
2013-07-27 21:00,0.317398,285.357,287.76,261.625,290.101,290.101,265.878,0.380715,0.453945,242.266,266.021
2013-07-27 22:00,-0.0,282.923,285.546,260.337,287.543,288.167,264.953,-0.0,-0.0,242.042,265.948
2013-07-27 23:00,-0.100931,281.883,284.185,259.354,286.172,286.907,264.605,-0.0276483,-0.0539451,242.211,266.094
2013-07-28 00:00,-0.0890733,280.613,283.148,258.469,285.061,285.777,264.605,-0.0268154,-0.0499582,242.322,266.239
2013-07-28 01:00,-0.0,279.081,281.267,257.572,283.088,284.061,263.67,-0.0,-0.00156505,242.155,266.166
2013-07-28 02:00,-0.00267744,278.075,280.549,257.12,282.087,282.758,262.728,-0.0,-0.0,242.322,266.745
2013-07-28 03:00,-0.00124379,278.279,280.308,257.346,282.087,282.758,263.318,-0.0,-0.0,241.76,266.673
2013-07-28 04:00,-0.0,278.279,280.549,257.233,282.231,283.049,262.965,-0.0,-0.0,242.042,266.888
2013-07-28 05:00,-0.0,278.482,280.429,257.233,281.943,282.904,262.728,-0.0,-0.0,242.211,266.888
2013-07-28 06:00,-0.00146338,277.869,279.823,257.006,281.366,282.175,262.965,-0.0,-0.0,241.533,266.745
2013-07-28 07:00,-0.00180168,277.661,279.58,256.664,281.366,281.882,262.61,-0.0,-0.0,241.304,266.456
2013-07-28 08:00,-0.0,277.451,279.213,256.549,280.931,281.588,262.492,-0.0,-0.0,240.899,266.021
2013-07-28 09:00,-0.00467879,277.451,279.091,256.434,280.785,281.293,262.492,-0.0,-0.0,240.607,265.581
2013-07-28 10:00,-0.0833736,276.811,278.598,255.858,279.907,280.257,262.136,-0.282369,-0.336683,240.312,265.137
2013-07-28 11:00,0.607041,283.76,283.956,259.244,285.895,285.919,264.255,0.314682,0.644112,240.665,265.581
2013-07-28 12:00,0.548624,292.053,290.335,263.307,292.86,293.082,266.909,0.236109,0.523268,241.015,266.239
2013-07-28 13:00,0.448972,297.045,295.144,265.859,298.055,297.818,269.059,0.180163,0.4103,240.724,266.239
2013-07-28 14:00,0.3776,300.317,298.739,268.324,301.952,301.264,270.397,0.142095,0.330029,240.253,266.166
2013-07-28 15:00,0.332183,302.764,300.99,269.67,304.324,303.515,270.951,0.118425,0.275989,239.349,265.875
2013-07-28 16:00,0.304325,303.264,301.728,270.428,305.493,304.873,271.502,0.1036,0.24547,238.795,265.434
2013-07-28 17:00,0.286728,302.596,301.083,269.955,305.027,304.01,270.73,0.0951212,0.228528,238.041,264.01
2013-07-28 18:00,0.281114,300.498,299.59,268.904,303.263,302.644,270.286,0.0982037,0.234186,237.913,263.706
2013-07-28 19:00,0.289193,297.349,297.107,267.446,300.748,300.252,269.73,0.113526,0.257454,237.657,263.858
2013-07-28 20:00,0.313404,292.889,293.438,265.254,296.559,296.258,267.932,0.161523,0.307229,237.268,263.476
2013-07-28 21:00,0.282113,284.087,285.77,260.661,288.222,288.584,265.069,0.390869,0.517836,236.808,263.09
2013-07-28 22:00,-0.0,281.165,283.148,258.802,285.201,285.493,264.022,-0.0,-0.0,237.913,263.552
2013-07-28 23:00,-0.0981357,280.613,282.566,258.58,284.501,284.922,264.138,-0.030215,-0.0540403,238.041,263.706
2013-07-29 00:00,-0.0673432,279.859,281.505,258.358,283.372,283.917,263.2,-0.0234786,-0.0459912,237.398,263.322
2013-07-29 01:00,-0.00155048,279.278,280.789,257.685,282.66,283.339,263.318,-0.0,-0.0,237.657,263.476
2013-07-29 02:00,-0.00133863,279.278,281.148,257.798,282.803,283.484,263.2,-0.0,-0.0,238.168,263.629
2013-07-29 03:00,0.00124357,279.473,280.669,258.134,282.66,283.049,262.847,-0.0,-0.0,238.857,263.858
2013-07-29 04:00,-0.00123098,278.883,280.187,257.346,282.231,282.758,262.61,-0.0,-0.0,238.733,263.858
2013-07-29 05:00,-0.0,279.278,281.029,257.798,282.946,283.484,263.083,-0.0,-0.0,238.546,263.629
2013-07-29 06:00,0.00146354,278.684,280.669,257.91,282.517,283.049,262.728,-0.0,-0.0,237.977,262.857
2013-07-29 07:00,-0.0,278.279,279.58,257.12,281.221,281.882,262.373,-0.0,-0.0,238.357,262.545
2013-07-29 08:00,-0.0,277.451,278.721,256.664,280.347,280.702,261.898,-0.0,-0.0,238.671,262.466
2013-07-29 09:00,-0.0,277.026,278.598,256.549,280.201,280.702,262.255,-0.0,-0.0,239.043,262.388
2013-07-29 10:00,-0.131329,277.869,279.458,256.778,280.785,281.441,262.255,-0.333588,-0.353558,239.41,262.309
2013-07-29 11:00,0.61395,284.73,284.3,260.119,286.585,286.767,264.255,0.317097,0.638414,239.288,262.545
2013-07-29 12:00,0.539768,292.174,290.017,263.307,292.73,292.545,266.681,0.237447,0.523618,239.714,263.012
2013-07-29 13:00,0.445019,295.902,293.539,265.355,296.433,296.127,268.158,0.183016,0.412904,239.471,262.857
2013-07-29 14:00,0.371005,298.242,296.327,267.446,299.654,299.104,269.395,0.143054,0.335865,239.471,262.857
2013-07-29 15:00,0.331043,300.858,298.834,268.807,302.55,301.767,269.841,0.11936,0.279839,238.857,262.779
2013-07-29 16:00,0.297038,301.826,300.153,269.765,303.972,303.391,270.84,0.103248,0.249372,239.043,263.012
2013-07-29 17:00,0.287395,301.913,300.34,269.955,304.324,303.639,270.951,0.0976176,0.234475,239.166,263.167
2013-07-29 18:00,0.280042,300.225,299.213,268.711,303.025,302.394,270.84,0.0994873,0.233293,238.231,262.545
2013-07-29 19:00,0.287881,297.045,296.523,267.446,300.263,299.616,268.946,0.115227,0.258928,238.608,261.993
2013-07-29 20:00,0.320347,292.653,292.929,265.254,296.307,295.865,267.478,0.168091,0.318854,238.857,261.914
2013-07-29 21:00,0.348517,284.888,286.328,261.412,289.032,288.999,265.532,0.421556,0.502641,239.227,261.993
2013-07-29 22:00,-0.0,282.581,284.3,259.683,286.722,286.907,264.372,-0.0,-0.00673383,239.774,262.23
2013-07-29 23:00,-0.0804316,282.581,284.185,259.793,286.585,286.907,264.255,-0.0227004,-0.0511263,239.834,262.23
2013-07-30 00:00,-0.0971134,282.408,284.3,259.793,286.585,286.767,264.372,-0.0251712,-0.0500213,240.074,262.388
2013-07-30 01:00,-0.0,281.705,283.495,259.134,285.757,286.06,263.436,-0.0,-0.0,240.014,262.309
2013-07-30 02:00,-0.0,281.705,283.495,259.244,285.479,285.777,263.905,-0.0,-0.0,240.014,262.309
2013-07-30 03:00,-0.0,281.705,283.38,259.354,285.757,286.06,264.022,-0.0,-0.0,239.834,262.623
2013-07-30 04:00,0.00123078,280.982,282.799,259.024,284.921,285.35,263.905,-0.0,-0.0,239.714,262.388
2013-07-30 05:00,-0.0012967,280.982,282.331,258.913,284.501,284.922,264.138,-0.0,-0.0,239.532,262.466
2013-07-30 06:00,-0.0,280.427,282.214,259.024,284.22,284.779,263.67,-0.0,-0.0,240.253,262.935
2013-07-30 07:00,-0.0,280.427,282.096,258.691,284.079,284.349,263.67,-0.0,-0.0,240.074,262.701
2013-07-30 08:00,-0.0,279.859,281.86,258.691,283.656,284.061,263.67,-0.0,-0.0,240.43,262.857
2013-07-30 09:00,0.00471707,280.427,282.331,258.913,284.079,284.636,263.553,-0.0,-0.0,240.607,263.167
2013-07-30 10:00,-0.0924219,280.613,282.214,258.913,283.938,284.636,263.553,-0.352141,-0.373222,240.312,262.779
2013-07-30 11:00,0.602258,286.421,286.105,261.198,288.493,288.584,264.837,0.3142,0.601874,240.253,262.545
2013-07-30 12:00,0.533906,292.771,291.07,264.133,293.764,293.617,267.023,0.236187,0.499644,239.894,262.151
2013-07-30 13:00,0.449486,297.649,295.244,266.657,298.549,297.689,268.271,0.185823,0.392,239.593,261.993
2013-07-30 14:00,0.378306,301.214,298.644,269.096,302.311,301.012,269.953,0.146932,0.318852,238.42,261.275
2013-07-30 15:00,0.333044,303.098,300.526,270.239,304.442,302.893,269.841,0.120279,0.267707,238.733,261.113
2013-07-30 16:00,0.303806,304.398,301.728,271.086,305.726,303.887,270.175,0.108169,0.235931,238.608,261.194
2013-07-30 17:00,0.294703,303.592,301.36,270.899,305.493,303.639,270.064,0.104321,0.225241,238.857,261.194
2013-07-30 18:00,0.290674,301.999,300.153,270.239,303.972,302.644,269.73,0.107365,0.224521,238.919,261.755
2013-07-30 19:00,0.302205,299.108,297.783,268.807,301.352,300.125,269.506,0.130144,0.249861,239.288,261.914
2013-07-30 20:00,0.340643,294.823,294.646,266.657,297.807,296.91,268.045,0.193546,0.307699,239.653,262.388
2013-07-30 21:00,0.483761,286.569,287.978,262.576,290.632,290.648,265.647,0.45056,0.537224,239.653,262.701
2013-07-30 22:00,-0.0,283.428,285.546,261.091,287.951,288.445,265.069,-0.0,-0.0,240.014,263.012
2013-07-30 23:00,-0.0895197,283.428,285.546,260.661,287.951,288.306,264.605,-0.0277919,-0.0542253,240.134,263.322
2013-07-31 00:00,-0.0753571,282.059,284.414,260.119,286.585,287.048,264.488,-0.023507,-0.0480489,240.074,263.399
2013-07-31 01:00,-0.00155092,281.165,283.148,259.464,285.201,285.493,263.905,-0.0,-0.0,240.253,263.782
2013-07-31 02:00,-0.00133841,280.05,281.029,257.91,282.803,282.758,261.421,-0.0,-0.0,240.253,263.552
2013-07-31 03:00,-0.0,282.059,284.185,260.119,286.447,286.907,264.488,-0.0,-0.0,241.419,265.655
2013-07-31 04:00,0.0012306,282.059,284.642,260.119,286.585,287.188,264.837,-0.0,-0.0,241.304,265.434
2013-07-31 05:00,-0.0,282.581,284.869,260.119,286.722,287.329,264.605,-0.0,-0.0,241.76,265.507
2013-07-31 06:00,-0.0,283.261,285.208,260.337,287.27,287.888,264.605,-0.0,-0.0,242.211,265.581
2013-07-31 07:00,-0.0,282.923,285.208,260.445,287.134,287.329,265.185,-0.0,-0.0,241.986,265.36
2013-07-31 08:00,-0.00254404,282.923,284.869,260.119,286.997,287.048,264.721,-0.0,-0.0,241.986,265.212
2013-07-31 09:00,-0.0,282.753,284.982,260.011,286.86,287.188,264.721,-0.0,-0.0,241.986,265.137
2013-07-31 10:00,-0.0981463,282.923,284.414,259.902,286.585,286.907,264.721,-0.373951,-0.396338,242.489,265.286
2013-07-31 11:00,0.614665,288.012,287.869,262.155,290.101,290.101,265.647,0.326548,0.559704,242.655,265.36
2013-07-31 12:00,0.542925,294.602,292.725,264.747,295.55,294.812,267.023,0.23995,0.472825,242.875,265.36
2013-07-31 13:00,0.447557,298.533,295.935,266.855,299.164,297.947,268.384,0.185025,0.373348,242.875,265.36
2013-07-31 14:00,0.378603,301.74,298.929,268.421,302.191,300.759,269.171,0.146376,0.301938,243.633,265.581
2013-07-31 15:00,0.333434,303.836,300.805,269.86,304.442,302.144,269.73,0.123847,0.258817,243.633,265.507
2013-07-31 16:00,0.305852,304.794,301.268,269.86,304.793,302.519,269.953,0.109107,0.231974,243.579,265.137
2013-07-31 17:00,0.285356,303.998,300.898,269.955,304.089,302.018,269.283,0.103949,0.221088,243.526,264.765
2013-07-31 18:00,0.28761,302.341,299.59,268.904,303.025,300.759,268.834,0.106951,0.221694,243.846,264.464
2013-07-31 19:00,0.298239,299.672,297.59,267.642,300.869,299.104,268.045,0.131749,0.246109,243.472,264.464
2013-07-31 20:00,0.342863,295.902,294.546,265.758,297.434,296.127,267.137,0.199818,0.305682,243.364,263.782
2013-07-31 21:00,0.494022,288.152,288.951,262.366,291.686,291.193,265.416,0.478043,0.569993,243.793,263.934
2013-07-31 22:00,-0.00674728,284.41,286.328,260.553,288.763,288.584,264.953,-0.0,-0.0,244.006,263.782
2013-07-31 23:00,-0.0866789,283.428,285.433,260.011,288.087,287.888,264.372,-0.0253072,-0.0512975,244.111,264.086
