# timestamp,IR_016,IR_039,IR_087,IR_097,IR_108,IR_120,IR_134,VIS006,VIS008,WV_062,WV_073
2013-12-01 00:00,-0.00263566,243.066,225.282,228.004,221.182,218.547,216.859,-0.0,-0.0,214.441,217.418
2013-12-01 01:00,-0.0,275.02,262.3,247.332,259.051,253.316,238.727,-0.0,-0.0,223.118,236.757
2013-12-01 02:00,-0.00162398,277.661,270.329,251.552,268.69,265.48,248.768,-0.0,-0.0,225.931,240.964
2013-12-01 03:00,-0.0,278.883,269.059,251.429,268.524,262.888,243.949,-0.0,-0.0,227.601,242.105
2013-12-01 04:00,-0.0,280.613,271.574,252.412,271.625,266.16,245.628,-0.0,-0.0,228.312,243.818
2013-12-01 05:00,-0.0,277.661,269.767,251.799,269.186,264.795,246.044,-0.0,-0.0,227.055,242.725
2013-12-01 06:00,-0.0,269.865,254.69,242.799,252.465,248.532,236.613,-0.0,-0.0,221.031,232.185
2013-12-01 07:00,-0.0,253.81,237.841,234.017,235.155,230.946,224.126,-0.0,-0.0,217.491,225.408
2013-12-01 08:00,-0.0,268.073,254.328,242.799,252.667,247.501,236.153,-0.0,-0.0,223.952,235.74
2013-12-01 09:00,2.28432,270.434,256.819,243.368,256.598,250.957,237.373,2.03593,2.79166,224.258,237.888
2013-12-01 10:00,0.326552,281.526,269.626,250.931,269.842,265.309,246.594,0.304953,0.431484,226.592,242.478
2013-12-01 11:00,0.386967,290.041,280.187,257.459,280.201,276.015,253.753,0.196587,0.410829,227.42,245.345
2013-12-01 12:00,0.325081,292.534,281.148,258.022,280.785,275.861,253.625,0.147981,0.322895,227.329,245.345
2013-12-01 13:00,0.379537,297.947,283.495,259.574,284.361,280.406,257.158,0.217806,0.353363,229.178,248.241
2013-12-01 14:00,0.290569,298.436,284.982,260.445,285.34,280.257,256.285,0.129817,0.263388,229.178,248.025
2013-12-01 15:00,0.317151,297.449,281.029,258.246,282.66,279.661,258.638,0.218182,0.302526,230.101,249.721
2013-12-01 16:00,0.253891,296.427,284.642,260.228,285.757,282.321,259.614,0.182278,0.259861,229.178,249.513
2013-12-01 17:00,0.251201,292.294,279.458,257.685,281.943,278.609,258.392,0.241262,0.31164,230.266,249.721
2013-12-01 18:00,0.465796,293.816,265.092,248.771,267.857,266.329,252.594,0.583695,0.639538,231.709,249.198
2013-12-01 19:00,0.562767,268.382,223.94,227.058,222.806,222.169,221.23,0.841501,0.952374,219.744,220.989
2013-12-01 20:00,0.768538,270.713,224.95,227.817,224.072,224.19,222.329,0.933739,1.11068,221.258,223.167
2013-12-01 21:00,1.3424,276.811,228.155,229.484,228.001,225.874,222.329,1.28209,1.62085,223.118,226.76
2013-12-01 22:00,-2.07048,283.924,274.655,254.572,274.0,269.0,247.823,-0.751317,-1.79166,227.42,243.818
2013-12-01 23:00,-0.0,284.888,277.977,256.664,278.128,273.2,251.159,-0.0,-0.0,229.093,245.918
2013-12-02 00:00,-0.0,284.087,277.476,256.664,276.923,271.283,250.236,-0.0,-0.0,228.048,245.345
2013-12-02 01:00,0.00193547,284.41,278.845,257.233,279.022,274.147,252.594,-0.0,-0.0,230.018,246.707
2013-12-02 02:00,-0.0,277.451,271.023,253.02,270.495,265.48,246.594,-0.0,-0.0,227.601,243.093
2013-12-02 03:00,-0.00150813,275.932,267.909,251.056,266.678,260.764,243.099,-0.0,-0.0,228.662,243.457
2013-12-02 04:00,-0.0,269.283,262.774,248.382,263.04,258.04,241.808,-0.0,-0.0,227.691,242.971
2013-12-02 05:00,-0.0,254.396,249.185,240.766,248.733,244.973,234.76,-0.0,-0.0,226.778,239.789
2013-12-02 06:00,-0.00198613,270.434,257.166,245.04,256.789,250.757,235.691,-0.0,-0.0,225.156,238.303
2013-12-02 07:00,0.00277585,261.251,251.912,241.5,250.623,244.973,232.547,-0.0,-0.0,226.027,237.608
2013-12-02 08:00,-0.0,275.02,261.34,246.533,260.341,254.472,237.676,-0.0,-0.0,225.058,238.027
2013-12-02 09:00,1.27529,278.075,267.909,249.924,267.185,261.654,243.667,1.29574,1.80247,227.51,242.602
2013-12-02 10:00,0.529817,259.954,234.477,231.973,231.683,229.121,224.834,0.648424,0.75856,220.219,225.799
2013-12-02 11:00,0.317594,289.381,277.224,255.858,276.315,270.148,249.305,0.199033,0.343352,228.224,246.371
2013-12-02 12:00,0.307942,280.427,251.147,241.207,246.135,240.123,230.111,0.263697,0.381541,221.484,231.53
2013-12-02 13:00,0.326349,286.421,261.017,246.399,257.17,249.955,234.916,0.260835,0.369232,223.224,236.9
2013-12-02 14:00,0.296856,266.131,232.839,231.274,229.444,228.856,224.834,0.34665,0.433307,218.391,222.956
2013-12-02 15:00,0.269347,275.48,251.721,240.766,249.368,246.035,235.382,0.309998,0.389638,223.849,236.033
2013-12-02 16:00,0.229235,265.095,246.313,238.195,244.8,243.679,236.153,0.466417,0.525432,224.959,236.179
2013-12-02 17:00,0.283457,258.576,208.734,221.386,207.269,207.274,209.638,0.578332,0.647972,204.573,206.606
2013-12-02 18:00,0.457959,270.434,206.1,220.298,205.946,203.757,205.127,0.767024,0.878439,208.274,207.326
2013-12-02 19:00,0.620779,278.684,199.463,218.272,197.601,197.294,200.766,0.904967,1.03362,200.681,200.041
2013-12-02 20:00,0.917254,282.753,202.646,220.077,201.233,199.981,203.228,1.05179,1.23029,205.663,203.524
2013-12-02 21:00,1.50998,288.152,207.704,221.386,205.497,203.351,206.286,1.2875,1.59956,209.023,207.326
2013-12-02 22:00,-0.0866485,227.984,215.218,223.899,212.997,210.576,209.638,-0.220095,-0.26243,211.964,213.092
2013-12-02 23:00,-0.0,246.775,235.8,233.513,234.371,231.203,225.709,-0.00415669,-0.0,223.538,229.838
2013-12-03 00:00,-0.0,263.255,253.963,242.942,251.856,248.121,237.827,-0.0,-0.0,225.254,237.888
2013-12-03 01:00,-0.0,285.818,281.624,258.913,282.517,279.061,256.285,-0.0,-0.0,228.136,250.238
2013-12-03 02:00,-0.0,283.76,278.968,257.12,278.576,274.147,252.075,-0.0,-0.0,227.055,249.303
2013-12-03 03:00,0.00151119,280.613,272.796,253.501,271.625,266.667,246.457,-0.0,-0.0,225.156,246.258
2013-12-03 04:00,-0.00151691,279.081,269.343,251.552,267.69,263.412,244.512,-0.0,-0.0,224.86,245.114
2013-12-03 05:00,-0.0,257.103,237.841,234.515,233.842,230.17,223.592,-0.0,-0.0,217.491,226.57
2013-12-03 06:00,-0.0,249.89,234.477,231.973,231.957,229.385,224.481,-0.0,-0.0,218.137,225.408
2013-12-03 07:00,-0.0,267.123,253.226,242.225,251.447,247.708,234.76,-0.0,-0.0,222.368,235.592
2013-12-03 08:00,0.00537158,265.446,252.29,241.207,251.242,247.915,235.691,-0.0,-0.0,223.118,235.74
2013-12-03 09:00,0.821367,285.512,282.566,259.354,284.641,282.028,258.147,1.04318,1.38203,228.748,251.452
2013-12-03 10:00,0.405901,289.91,286.328,261.412,288.358,285.635,259.856,0.229117,0.463443,230.593,253.021
2013-12-03 11:00,0.410857,294.823,288.951,262.786,290.367,287.188,261.421,0.171815,0.407197,232.175,254.536
2013-12-03 12:00,0.355597,298.339,291.798,264.543,292.989,289.551,263.083,0.129036,0.33247,233.968,255.73
2013-12-03 13:00,0.309697,300.858,293.336,265.456,294.277,290.511,263.436,0.10608,0.281392,234.968,257.07
2013-12-03 14:00,0.300679,302.511,292.622,265.052,293.892,290.238,263.2,0.133055,0.267327,238.104,258.967
2013-12-03 15:00,0.314828,299.858,288.195,262.576,289.968,287.329,262.61,0.21029,0.306066,239.349,259.387
2013-12-03 16:00,0.27007,299.297,287.869,262.155,289.568,286.626,262.255,0.169273,0.26557,239.349,259.051
2013-12-03 17:00,0.2932,297.045,284.414,259.902,284.781,281.882,258.638,0.232406,0.343868,239.714,258.372
2013-12-03 18:00,0.35011,272.322,207.704,220.736,205.497,203.757,206.056,0.687252,0.758851,202.713,204.721
2013-12-03 19:00,0.280017,276.376,242.824,236.784,238.693,236.157,230.604,0.363234,0.411356,222.15,232.347
2013-12-03 20:00,0.728064,279.473,216.471,225.306,212.997,211.635,211.992,0.75344,0.882556,211.964,214.511
2013-12-03 21:00,1.32156,295.042,208.734,221.17,205.946,203.351,206.743,1.12342,1.38203,208.838,208.027
2013-12-03 22:00,-0.104528,213.142,203.838,219.632,202.701,202.113,204.422,-0.26551,-0.316581,202.713,203.929
2013-12-03 23:00,-0.0,204.719,206.1,219.632,204.584,203.351,206.056,-0.0,-0.0,205.663,205.109
2013-12-04 00:00,-0.00267762,218.393,211.654,222.238,208.556,206.128,206.515,-0.0,-0.0,208.464,209.379
2013-12-04 01:00,-0.00194926,235.601,220.75,225.897,214.89,211.284,211.146,-0.0,-0.0,209.388,215.061
2013-12-04 02:00,-0.0,239.711,217.685,225.107,212.219,209.497,210.504,-0.0,-0.0,207.891,210.032
2013-12-04 03:00,-0.00151413,222.276,212.578,222.659,210.625,208.766,209.42,-0.0,-0.0,210.624,211.602
2013-12-04 04:00,-0.0,225.382,217.685,224.708,215.628,212.673,213.035,-0.0,-0.0,213.234,215.6
2013-12-04 05:00,-0.0,225.382,213.921,222.868,211.428,210.219,211.146,-0.0,-0.0,209.023,211.602
2013-12-04 06:00,-0.0019882,244.063,237.339,233.681,236.695,234.216,228.782,-0.0,-0.0,224.661,232.829
2013-12-04 07:00,-0.0,257.103,250.566,240.766,250.415,248.736,240.207,-0.0,-0.0,228.835,240.053
2013-12-04 08:00,-0.00536054,265.446,257.339,244.626,257.361,254.664,242.241,-0.0,-0.0,225.156,239.789
2013-12-04 09:00,2.08677,256.589,242.142,235.499,241.58,237.815,229.283,2.27169,3.0096,223.013,231.53
2013-12-04 10:00,0.514008,255.521,219.247,224.908,218.824,217.607,217.445,0.739035,0.871397,214.734,217.418
2013-12-04 11:00,0.386542,254.396,220.006,225.107,219.847,219.472,218.601,0.635441,0.724725,217.36,218.653
2013-12-04 12:00,0.315696,254.396,227.533,228.564,227.414,226.151,223.949,0.516779,0.602015,221.371,224.811
2013-12-04 13:00,0.23668,278.075,263.556,247.597,263.217,260.045,0.0,0.186083,0.314323,226.963,242.602
2013-12-04 14:00,0.251285,295.902,284.414,260.337,284.361,278.911,255.406,0.0995686,0.247439,227.959,245.46
2013-12-04 15:00,0.247206,298.436,283.611,260.119,284.22,278.458,255.658,0.0967559,0.227202,229.093,247.261
2013-12-04 16:00,0.227898,299.579,286.217,261.305,287.134,282.613,259.005,0.104891,0.215918,230.101,249.513
2013-12-04 17:00,0.284228,296.323,276.845,256.205,277.978,275.085,256.535,0.198435,0.290721,230.018,248.562
2013-12-04 18:00,0.13413,279.278,272.527,253.02,273.843,273.042,256.16,0.227136,0.249217,231.709,248.562
2013-12-04 19:00,0.084159,253.206,238.09,233.681,235.155,235.435,233.185,0.206191,0.224159,216.012,223.793
2013-12-04 20:00,0.634024,270.151,216.058,224.305,213.763,213.016,215.474,0.748038,0.852572,209.748,210.353
2013-12-04 21:00,0.745688,270.989,223.94,227.628,221.182,219.165,215.674,0.750583,0.984452,219.26,221.436
2013-12-04 22:00,-0.13153,213.142,204.988,220.298,204.12,202.941,206.97,-0.334099,-0.398362,204.795,205.491
2013-12-04 23:00,-0.0,218.393,210.707,221.814,208.977,207.651,208.761,-0.0,-0.0,208.838,209.379
2013-12-05 00:00,-0.0,225.382,219.628,225.701,218.478,216.008,215.873,-0.0,-0.0,216.83,218.41
2013-12-05 01:00,-0.0,239.711,234.477,232.663,232.772,230.429,225.709,-0.0,-0.0,221.145,229.664
2013-12-05 02:00,-0.0,250.598,239.317,234.845,235.672,232.725,226.918,-0.0,-0.0,220.101,228.603
2013-12-05 03:00,-0.00151697,266.797,249.583,240.32,246.135,241.251,229.946,-0.0,-0.0,219.014,229.489
2013-12-05 04:00,-0.0,272.322,259.039,245.314,257.928,252.732,237.07,-0.0,-0.0,223.642,237.468
2013-12-05 05:00,-0.0,276.376,265.092,248.771,264.444,258.957,240.938,-0.0,-0.0,224.258,239.789
2013-12-05 06:00,-0.0,271.531,261.179,246.399,260.341,256.18,241.808,-0.0,-0.0,224.46,238.441
2013-12-05 07:00,-0.0,257.605,247.15,238.657,247.012,244.328,235.072,-0.0,-0.0,225.643,236.033
2013-12-05 08:00,-0.0,280.799,273.065,253.02,274.312,270.473,249.438,-0.0,-0.0,226.778,244.175
2013-12-05 09:00,2.31245,280.05,272.12,252.777,272.741,268.505,248.364,2.0978,3.00157,225.931,242.971
2013-12-05 10:00,0.394265,286.864,279.213,256.664,279.613,275.706,253.368,0.255519,0.471743,226.122,244.056
2013-12-05 11:00,0.367203,292.053,284.528,260.011,285.34,280.998,256.41,0.170362,0.388487,228.488,246.929
2013-12-05 12:00,0.351227,297.248,289.699,262.786,290.632,286.485,260.461,0.130849,0.327991,231.865,250.135
2013-12-05 13:00,0.300321,298.436,289.165,262.681,289.3,284.349,258.76,0.106249,0.274723,232.328,250.34
2013-12-05 14:00,0.277396,300.042,289.486,262.786,289.968,285.208,259.856,0.10695,0.245042,233.968,251.552
2013-12-05 15:00,0.276369,297.947,286.882,261.625,288.087,284.636,259.977,0.167849,0.263706,235.178,253.5
2013-12-05 16:00,0.226647,293.93,284.755,260.553,285.757,282.904,260.098,0.174096,0.248864,237.203,254.999
2013-12-05 17:00,0.307654,296.531,282.331,258.913,283.656,280.406,258.023,0.247835,0.339517,237.398,255.639
2013-12-05 18:00,0.480164,299.858,273.865,253.621,275.396,271.926,253.753,0.395696,0.510646,236.675,254.162
2013-12-05 19:00,0.417985,273.586,245.032,237.101,245.024,242.805,231.905,0.73655,0.827731,231.394,240.446
2013-12-05 20:00,1.06345,291.563,246.942,238.195,247.446,244.758,234.291,1.11731,1.31132,232.935,243.093
2013-12-05 21:00,1.66833,282.923,215.64,224.102,214.517,213.694,214.062,1.605,1.96586,214.734,215.332
2013-12-05 22:00,-1.94679,283.093,273.199,253.98,271.625,267.339,247.959,-1.4985,-2.14407,226.871,243.457
2013-12-05 23:00,0.00505769,285.045,280.308,258.358,281.366,278.156,256.41,-0.0,-0.0,233.01,249.513
2013-12-06 00:00,-0.0,288.43,287.322,262.471,289.701,287.048,262.728,-0.0,-0.0,240.014,255.821
2013-12-06 01:00,0.00196269,287.155,284.642,261.091,286.447,282.467,257.53,-0.0,-0.0,237.721,253.69
2013-12-06 02:00,-0.0,275.02,263.712,248.382,261.069,257.486,242.097,-0.0,-0.0,224.258,238.165
2013-12-06 03:00,-0.0,271.798,266.886,250.806,267.69,264.967,249.171,-0.0,-0.0,230.43,247.481
2013-12-06 04:00,-0.0,262.869,263.867,248.9,266.678,265.82,251.944,-0.0,-0.0,233.53,251.452
2013-12-06 05:00,-0.0,263.636,263.401,248.642,265.826,265.309,252.464,-0.0,-0.0,235.455,252.537
2013-12-06 06:00,-0.0,260.395,261.822,247.465,264.27,263.759,251.553,-0.0,-0.0,236.542,252.244
2013-12-06 07:00,-0.0,259.505,259.871,245.995,261.791,261.477,249.572,-0.0,-0.0,236.808,251.051
2013-12-06 08:00,-0.0,259.505,259.871,246.265,262.15,261.121,248.499,-0.0,-0.0,235.731,250.849
2013-12-06 09:00,3.36986,270.713,265.995,249.797,267.354,265.138,250.236,3.01177,3.96908,234.329,250.34
2013-12-06 10:00,0.503377,289.113,278.845,257.572,278.427,273.359,252.723,0.326898,0.567395,234.041,249.617
2013-12-06 11:00,0.443601,293.702,281.505,258.802,281.51,276.477,254.519,0.262491,0.450386,234.897,250.646
2013-12-06 12:00,0.371047,296.635,284.642,260.984,283.656,276.784,252.464,0.168249,0.369268,233.677,250.032
2013-12-06 13:00,0.316099,293.24,273.466,255.043,270.495,262.537,241.953,0.167275,0.324819,228.136,242.725
2013-12-06 14:00,0.260173,296.008,280.429,258.58,278.128,270.798,248.094,0.115389,0.256406,230.593,246.145
2013-12-06 15:00,0.247228,297.749,281.505,259.464,279.76,272.246,248.634,0.107626,0.236641,231.315,247.699
2013-12-06 16:00,0.25109,258.576,238.338,234.845,238.693,235.917,229.449,0.430139,0.518771,226.963,233.461
2013-12-06 17:00,0.326063,260.395,228.155,229.118,228.001,226.701,222.873,0.552154,0.630719,221.596,225.799
2013-12-06 18:00,0.355679,259.505,221.841,226.866,220.852,220.081,219.362,0.622783,0.703794,217.229,220.306
2013-12-06 19:00,0.550612,272.322,208.734,220.954,207.702,207.651,208.318,0.798127,0.91027,208.274,208.711
2013-12-06 20:00,0.948173,282.753,214.79,224.102,0.0,209.497,209.42,0.981705,1.14972,212.126,213.092
2013-12-06 21:00,1.43268,283.428,223.597,227.438,220.184,217.922,216.269,1.24337,1.54968,216.287,218.895
2013-12-06 22:00,-0.538965,264.377,250.371,241.791,247.878,241.921,230.604,-0.912681,-1.08823,222.04,234.694
2013-12-06 23:00,-0.0051081,227.984,211.654,222.238,208.556,206.895,207.423,-0.0,-0.0,208.274,209.047
2013-12-07 00:00,-0.00271913,242.013,219.628,226.481,214.89,210.576,210.718,-0.0,-0.0,209.569,212.8
2013-12-07 01:00,-0.0,225.382,210.707,222.449,208.131,205.349,206.743,-0.0,-0.0,207.105,209.047
2013-12-07 02:00,-0.0,225.382,206.643,220.298,204.12,202.113,203.708,-0.0,-0.00166476,203.662,205.109
2013-12-07 03:00,-0.00152229,227.984,216.88,225.107,214.517,211.284,211.358,-0.0,-0.0,211.135,214.233
2013-12-07 04:00,-0.0,225.382,218.082,224.708,216.355,214.364,213.857,-0.0,-0.0,214.145,216.131
2013-12-07 05:00,-0.00165783,218.393,213.479,223.489,212.219,211.284,211.146,-0.0,-0.0,212.126,213.092
2013-12-07 06:00,-0.00198934,232.213,224.279,228.004,222.806,220.081,216.466,-0.0,0.00200836,216.424,220.763
2013-12-07 07:00,-0.0,230.231,217.685,224.708,216.355,215.027,214.062,-0.0,-0.0,212.765,215.332
2013-12-07 08:00,-0.0,230.231,221.481,225.701,220.184,218.235,217.055,-0.0,-0.0,215.167,219.608
2013-12-07 09:00,1.96869,233.989,225.611,227.817,224.384,223.905,221.598,3.14856,3.75418,218.767,222.956
2013-12-07 10:00,0.343574,246.775,229.97,229.484,229.729,228.056,225.883,0.723104,0.832461,221.819,227.136
2013-12-07 11:00,0.280399,246.775,234.477,231.973,234.371,233.722,230.44,0.697269,0.782932,223.642,229.838
2013-12-07 12:00,0.308175,264.377,244.38,237.415,243.895,242.143,236.0,0.424945,0.510239,224.959,234.845
2013-12-07 13:00,0.451968,279.667,248.177,239.115,248.307,246.035,237.827,0.514227,0.593176,226.592,238.714
2013-12-07 14:00,0.478441,287.155,253.411,242.513,255.049,254.089,243.099,0.543625,0.614404,228.488,243.937
2013-12-07 15:00,0.363867,280.982,256.819,244.349,258.116,256.928,246.044,0.499652,0.562792,229.007,245.575
2013-12-07 16:00,0.379419,286.421,252.666,242.081,254.263,252.341,241.519,0.384515,0.460833,228.921,243.698
2013-12-07 17:00,0.446403,292.174,259.373,245.859,261.611,260.045,248.364,0.405343,0.480799,232.175,248.133
2013-12-07 18:00,0.217353,291.19,277.476,256.32,277.978,274.617,254.646,0.186438,0.248115,230.593,249.513
2013-12-07 19:00,0.232864,282.923,272.12,252.656,272.264,269.494,252.205,0.290481,0.351738,229.093,247.481
2013-12-07 20:00,0.785121,277.026,214.79,223.489,217.427,215.027,212.827,0.953693,1.12418,212.922,213.382
2013-12-07 21:00,1.08992,276.594,213.031,223.076,211.825,211.284,210.932,0.995798,1.2334,211.135,211.602
2013-12-07 22:00,-1.11995,230.231,217.285,224.708,215.628,214.364,213.857,-2.37064,-2.82663,212.765,214.511
2013-12-07 23:00,-0.0,225.382,225.282,227.628,223.758,222.169,222.147,-0.0,-0.0,218.891,221.436
2013-12-08 00:00,-0.0,230.231,223.94,227.058,222.806,221.283,219.927,-0.0,-0.0,218.642,221.658
2013-12-08 01:00,-0.0,251.282,241.218,235.662,239.911,237.581,230.768,-0.0,-0.0,224.56,233.146
2013-12-08 02:00,-0.0,268.986,259.54,245.723,257.361,254.089,241.953,-0.0,-0.0,225.449,239.121
2013-12-08 03:00,-0.00152477,278.279,272.527,253.261,272.899,269.165,250.765,-0.0,-0.0,228.4,246.032
2013-12-08 04:00,-0.0,281.526,276.08,255.742,276.62,270.798,251.683,-0.0,-0.0,228.662,246.818
2013-12-08 05:00,-0.00165873,280.05,273.997,254.217,273.215,267.84,249.705,-0.0,-0.0,227.055,244.647
2013-12-08 06:00,-0.0019892,279.473,272.662,253.381,272.264,267.506,248.634,-0.0,-0.0,225.739,243.336
2013-12-08 07:00,-0.0,272.061,262.458,247.991,260.524,254.855,240.646,-0.0,-0.0,225.643,239.656
2013-12-08 08:00,-0.0,283.76,279.336,257.685,279.466,275.24,253.24,-0.0,-0.0,226.685,246.258
2013-12-08 09:00,6.94196,262.869,258.534,245.04,259.606,257.671,244.652,6.32988,8.62563,226.216,243.336
2013-12-08 10:00,0.576883,278.075,260.201,246.265,261.791,258.957,245.767,0.559417,0.637153,226.311,243.698
2013-12-08 11:00,0.367149,291.19,281.386,258.58,281.51,275.551,252.982,0.195094,0.385997,228.312,246.483
2013-12-08 12:00,0.366827,295.042,283.38,259.793,282.66,277.396,254.646,0.155296,0.350749,228.662,246.595
2013-12-08 13:00,0.30253,296.943,286.55,261.519,286.31,281.441,257.53,0.113712,0.279733,228.921,247.808
2013-12-08 14:00,0.33978,294.713,279.336,257.572,280.347,276.784,255.28,0.245692,0.33176,229.935,247.699
2013-12-08 15:00,0.295078,295.368,282.096,258.802,282.374,278.458,256.785,0.202442,0.293189,230.184,247.481
2013-12-08 16:00,0.229904,292.653,279.702,257.006,280.639,276.631,255.153,0.201576,0.287476,230.674,248.241
2013-12-08 17:00,0.27333,287.729,274.785,254.572,275.857,273.042,254.264,0.311376,0.382558,230.674,248.241
2013-12-08 18:00,0.0936215,293.702,286.661,261.305,286.997,283.049,259.249,0.0720629,0.123158,232.557,250.849
2013-12-08 19:00,0.189741,292.053,280.669,257.798,279.76,275.24,253.368,0.139633,0.225569,230.511,248.025
2013-12-08 20:00,0.472686,287.01,263.401,247.465,259.974,255.992,241.229,0.447817,0.55201,223.538,237.748
2013-12-08 21:00,0.647984,268.073,226.261,228.004,222.485,222.462,223.592,0.637962,0.760673,211.8,216.652
2013-12-08 22:00,8.11283,239.711,233.666,232.319,230.574,229.909,227.601,34.3456,32.7616,216.287,222.743
2013-12-08 23:00,-0.0,261.666,256.644,243.93,254.066,252.341,242.241,-0.0,-0.0,224.054,239.523
2013-12-09 00:00,-0.00274633,277.451,265.995,249.414,263.217,257.856,240.938,-0.0,-0.00277259,224.76,241.093
2013-12-09 01:00,-0.0,262.074,241.913,235.823,237.951,231.968,222.873,-0.0,-0.0,218.517,227.323
2013-12-09 02:00,-0.0,267.123,255.764,243.65,253.669,250.557,239.322,-0.0,-0.0,226.871,239.121
2013-12-09 03:00,-0.0,272.061,262.141,247.465,261.069,257.301,242.814,-0.0,-0.0,226.499,241.475
2013-12-09 04:00,-0.00152799,271.261,262.458,248.642,259.974,252.927,238.577,-0.0,-0.0,224.56,241.093
2013-12-09 05:00,-0.0,269.283,257.339,244.765,255.439,249.753,235.691,-0.0,-0.0,221.708,236.9
2013-12-09 06:00,-0.00198878,266.466,252.29,241.791,249.789,245.612,234.134,-0.0,-0.0,221.93,234.542
2013-12-09 07:00,-0.0,275.251,260.036,246.13,258.491,252.144,236.0,-0.0,-0.0,220.454,235.295
2013-12-09 08:00,-0.00527954,233.989,222.904,226.481,221.511,219.472,218.41,-0.0,-0.0,216.15,219.843
2013-12-09 09:00,2.09525,245.01,232.28,230.743,231.408,228.856,225.36,3.84377,4.93566,219.744,226.948
2013-12-09 10:00,0.297266,272.061,259.206,244.21,258.491,254.855,241.229,0.356567,0.465167,226.216,239.922
2013-12-09 11:00,0.345207,285.818,275.176,254.099,275.857,271.765,251.159,0.217065,0.404883,229.433,246.258
2013-12-09 12:00,0.335593,291.931,280.669,257.572,280.347,276.631,255.027,0.166001,0.347717,228.575,246.595
2013-12-09 13:00,0.302817,284.73,268.054,249.924,266.338,263.933,248.499,0.236027,0.33714,227.329,241.348
2013-12-09 14:00,0.316373,292.294,280.308,257.346,281.366,278.458,256.785,0.260519,0.343196,228.748,248.669
2013-12-09 15:00,0.268273,295.151,285.095,260.445,285.895,282.904,259.856,0.187643,0.284968,229.178,250.544
2013-12-09 16:00,0.257821,294.38,281.386,258.134,281.221,277.243,254.519,0.182737,0.277952,227.87,248.348
2013-12-09 17:00,0.280547,287.3,273.199,252.777,274.778,273.359,256.285,0.266968,0.359675,229.852,250.849
2013-12-09 18:00,0.225209,297.947,290.229,263.411,290.764,286.907,261.54,0.0839488,0.220212,229.935,251.85
2013-12-09 19:00,0.525389,296.943,274.392,254.099,275.857,272.883,253.497,0.408899,0.542912,229.433,248.562
2013-12-09 20:00,0.333327,294.713,281.386,258.246,282.087,276.938,253.368,0.282227,0.403302,232.784,251.152
2013-12-09 21:00,1.12004,276.155,218.862,225.306,218.13,216.652,217.25,1.04528,1.30664,215.593,216.909
2013-12-09 22:00,1.98522,254.966,238.338,234.35,234.633,232.221,226.746,2.1011,3.00629,221.031,227.509
2013-12-09 23:00,-0.00526157,279.081,273.732,254.099,274.778,271.605,252.464,-0.0,-0.0,229.685,247.371
2013-12-10 00:00,-0.00275974,282.234,274.261,254.572,272.899,267.339,248.229,-0.0,-0.0,225.546,243.457
2013-12-10 01:00,0.00198816,253.206,237.339,233.849,234.633,231.714,224.126,-0.0,-0.0,217.622,226.76
2013-12-10 02:00,-0.0,242.013,227.533,228.934,224.694,221.579,218.792,-0.0,-0.0,215.024,221.658
2013-12-10 03:00,-0.00152934,245.01,233.938,231.799,231.131,227.517,221.782,-0.0,-0.0,218.517,226.379
2013-12-10 04:00,-0.0,238.442,227.219,229.301,225.31,222.169,218.982,-0.0,-0.0,216.83,221.878
2013-12-10 05:00,-0.0,256.062,251.147,241.791,250.415,246.876,236.153,-0.0,-0.0,223.642,238.441
2013-12-10 06:00,-0.0,239.711,225.611,228.378,222.162,218.547,215.674,-0.0,-0.0,214.145,219.843
2013-12-10 07:00,-0.0,238.442,223.597,226.092,221.511,219.472,216.071,-0.0,-0.0,214.441,218.41
2013-12-10 08:00,-0.0,227.984,219.628,224.507,218.13,216.652,216.466,-0.0,-0.0,215.734,217.669
2013-12-10 09:00,3.63203,239.711,229.673,229.484,229.158,226.974,224.126,6.15047,7.33351,221.258,225.994
2013-12-10 10:00,0.423268,249.156,224.279,226.674,223.125,221.875,220.302,0.657734,0.769166,217.622,221.658
2013-12-10 11:00,0.366449,251.944,225.282,227.438,224.384,223.043,221.598,0.61839,0.706507,218.391,222.313
2013-12-10 12:00,0.238825,254.396,245.676,237.258,246.355,245.186,237.977,0.653071,0.710821,229.517,239.789
2013-12-10 13:00,0.274784,268.382,254.145,242.369,255.439,254.472,244.792,0.512089,0.566261,231.156,244.881
2013-12-10 14:00,0.346325,282.234,261.179,246.399,262.863,261.121,248.364,0.419354,0.458661,232.405,246.929
2013-12-10 15:00,0.221635,276.811,261.179,246.667,262.15,261.654,250.236,0.60643,0.626509,233.159,247.151
2013-12-10 16:00,0.206417,250.598,238.585,234.183,238.446,238.049,234.447,0.755374,0.819432,228.575,233.928
2013-12-10 17:00,0.279068,260.827,214.79,223.076,210.218,211.284,213.653,0.563937,0.612306,203.429,206.239
2013-12-10 18:00,0.388934,262.475,214.79,223.694,214.141,213.016,213.447,0.779567,0.872402,213.995,214.787
2013-12-10 19:00,0.545297,263.636,230.85,230.387,230.853,229.647,225.709,0.92938,1.04044,225.643,229.489
2013-12-10 20:00,0.861564,281.705,246.942,238.81,246.135,243.896,235.227,1.10281,1.24842,228.488,238.85
2013-12-10 21:00,0.666073,277.026,254.509,243.084,255.439,252.732,242.527,0.78537,0.91153,229.852,242.354
2013-12-10 22:00,0.514451,247.601,234.208,232.319,232.502,228.59,223.77,1.52455,1.55811,218.264,226.57
2013-12-10 23:00,-0.00531328,243.066,226.902,228.934,224.384,221.283,218.41,-0.0,0.00536408,216.012,220.989
2013-12-11 00:00,-0.0,227.984,218.474,224.908,217.072,215.356,214.062,-0.0,-0.0,214.145,216.652
2013-12-11 01:00,0.00199419,238.442,222.904,226.866,220.184,216.652,215.873,-0.0,-0.0,213.541,218.165
2013-12-11 02:00,-0.0,233.989,225.937,228.192,224.384,221.875,219.739,-0.0,-0.0,218.137,222.313
2013-12-11 03:00,-0.0,238.442,226.261,228.192,223.125,220.685,217.639,-0.0,-0.0,215.734,221.658
2013-12-11 04:00,-0.0,243.066,232.28,230.743,230.574,228.056,224.657,-0.0,0.00154516,219.982,226.57
2013-12-11 05:00,-0.0,238.442,233.116,231.45,231.683,230.17,226.056,-0.0,-0.0,220.219,228.06
2013-12-11 06:00,-0.00198715,235.601,230.559,230.207,228.871,227.517,224.126,-0.0,-0.0,219.982,225.408
2013-12-11 07:00,-0.0,265.446,256.992,244.349,255.439,252.341,240.354,-0.0,-0.0,224.46,238.165
2013-12-11 08:00,-0.0,257.605,249.185,239.419,248.52,245.612,237.222,-0.0,-0.0,224.359,235.592
2013-12-11 09:00,1.06691,251.944,247.563,238.195,248.093,246.876,239.173,8.13013,8.61684,228.136,238.441
2013-12-11 10:00,0.295367,272.836,264.94,248.512,265.482,262.185,247.823,0.41116,0.439705,227.691,242.725
2013-12-11 11:00,0.344461,279.473,264.175,248.382,262.507,258.774,243.099,0.31974,0.414729,224.76,238.85
2013-12-11 12:00,0.373883,284.57,261.179,246.801,260.524,256.367,242.241,0.33607,0.409657,226.778,240.835
2013-12-11 13:00,0.336026,278.075,251.912,241.207,250.83,248.532,239.618,0.324128,0.405082,227.147,238.85
2013-12-11 14:00,0.353956,282.753,253.04,242.225,253.867,252.732,243.241,0.279715,0.374893,0.0,0.0
2013-12-11 15:00,0.303315,293.124,261.017,246.533,261.611,258.774,247.415,0.205453,0.299148,230.018,245.345
2013-12-11 16:00,0.301938,284.249,262.931,247.465,264.095,263.063,250.765,0.293159,0.367202,231.473,247.59
2013-12-11 17:00,0.363099,287.155,259.373,245.995,261.431,260.405,248.903,0.365145,0.44664,232.328,247.481
2013-12-11 18:00,0.490037,289.91,258.365,245.314,260.341,259.864,249.171,0.422088,0.52181,233.456,247.481
2013-12-11 19:00,0.304561,290.813,275.046,254.454,274.778,269.821,250.369,0.253399,0.369677,232.251,245.918
2013-12-11 20:00,0.646059,275.932,233.392,230.743,230.012,229.385,223.233,0.722234,0.848415,219.26,223.999
2013-12-11 21:00,0.738518,275.707,222.552,226.481,218.824,217.607,218.41,0.716405,0.859142,217.229,219.134
2013-12-11 22:00,0.0,218.393,218.862,225.701,218.13,217.607,217.055,1.03255,1.05528,215.734,217.418
2013-12-11 23:00,-0.0,218.393,221.117,225.897,220.519,218.547,218.792,-0.0,-0.0,216.012,218.653
2013-12-12 00:00,-0.0,251.944,241.682,235.823,240.392,237.815,230.111,-0.0,-0.0,223.118,232.988
2013-12-12 01:00,-0.0,252.585,241.451,236.306,240.631,237.345,229.615,-0.0,-0.0,222.04,232.347
2013-12-12 02:00,-0.0,251.282,243.94,237.258,244.122,242.143,233.503,-0.0,-0.0,225.449,237.185
2013-12-12 03:00,-0.00153337,242.013,234.745,232.834,233.577,232.474,227.94,-0.0,-0.0,220.454,228.242
2013-12-12 04:00,-0.00153158,258.576,241.451,235.985,239.669,235.677,227.431,-0.0,-0.0,221.93,230.011
2013-12-12 05:00,-0.0016605,274.787,261.501,246.13,259.791,254.472,237.676,-0.0,-0.0,225.739,238.714
2013-12-12 06:00,-0.0,272.836,261.982,247.465,261.069,256.742,240.354,-0.0,-0.0,224.76,238.578
2013-12-12 07:00,-0.0,283.093,278.35,257.12,279.022,275.861,254.9,-0.0,-0.0,229.601,247.59
2013-12-12 08:00,-0.0,275.932,267.473,249.286,267.857,263.933,246.044,-0.0,-0.0,227.959,244.175
2013-12-12 09:00,-218.09,268.073,265.696,249.542,268.191,266.835,252.075,-184.657,-248.893,231.236,249.617
2013-12-12 10:00,0.599075,251.944,229.072,228.934,226.221,224.474,221.23,0.895122,1.02664,216.424,222.096
2013-12-12 11:00,0.342853,252.585,224.95,227.248,223.758,221.875,218.601,0.493932,0.594105,217.229,220.989
2013-12-12 12:00,0.28754,253.206,220.379,225.107,219.167,217.922,216.859,0.489925,0.578785,214.734,217.164
2013-12-12 13:00,0.269665,259.954,222.904,226.481,221.838,220.984,220.302,0.501114,0.591771,215.31,218.41
2013-12-12 14:00,0.277103,274.073,244.16,236.784,242.283,238.049,227.94,0.300906,0.402692,224.359,232.347
2013-12-12 15:00,0.268342,285.357,265.846,248.9,264.444,260.942,245.211,0.242022,0.333333,227.87,240.964
2013-12-12 16:00,0.243563,266.466,237.339,233.681,234.895,232.725,227.77,0.351272,0.429427,222.368,228.242
2013-12-12 17:00,0.294689,261.666,233.116,231.799,231.408,229.909,226.574,0.408866,0.49001,223.538,228.242
2013-12-12 18:00,0.301765,287.729,270.189,251.305,269.679,265.309,247.959,0.232819,0.36017,229.685,243.818
2013-12-12 19:00,0.235337,296.323,286.105,261.519,285.757,280.85,258.023,0.127883,0.242906,231.787,249.303
2013-12-12 20:00,0.439854,297.649,281.386,259.134,280.931,276.323,254.773,0.31922,0.431371,232.709,249.303
2013-12-12 21:00,0.800066,308.561,278.598,258.134,274.933,264.795,246.182,0.513193,0.641276,230.674,245.575
2013-12-12 22:00,0.528352,267.444,250.566,242.513,242.515,232.221,223.053,0.782872,0.933456,216.83,228.06
2013-12-12 23:00,-0.0,269.865,258.703,246.533,254.854,245.824,232.707,-0.0,-0.0,222.585,236.614
2013-12-13 00:00,-0.0,272.836,258.195,246.533,252.059,243.243,230.768,-0.0,-0.0,218.137,231.695
2013-12-13 01:00,-0.0,261.251,244.16,238.195,237.702,230.946,221.415,-0.0,-0.0,214.145,225.21
2013-12-13 02:00,-0.0016698,232.213,218.082,224.708,213.763,211.284,211.146,-0.0,-0.0,210.452,213.952
2013-12-13 03:00,-0.0,239.711,225.282,228.749,220.852,215.683,212.827,-0.0,-0.0,212.448,218.895
2013-12-13 04:00,-0.0,239.711,223.597,228.378,219.847,215.027,211.992,-0.0,-0.0,210.452,216.909
2013-12-13 05:00,-0.0,240.898,221.841,226.866,217.78,215.356,213.241,-0.0,-0.0,210.966,215.6
2013-12-13 06:00,0.00198447,242.013,228.463,230.387,225.615,221.579,217.445,-0.0,-0.0,215.31,221.436
2013-12-13 07:00,-0.0,267.761,257.339,244.626,256.021,248.736,233.661,-0.0,-0.0,223.013,237.608
2013-12-13 08:00,-0.0,271.261,260.365,247.067,257.17,250.957,236.46,-0.0,-0.0,223.224,238.165
2013-12-13 09:00,-7.50003,256.589,236.06,232.319,232.23,226.426,220.115,-8.46702,-11.7782,217.491,225.408
2013-12-13 10:00,0.551943,263.636,226.902,229.301,221.182,216.652,215.274,0.668838,0.782151,212.765,217.669
2013-12-13 11:00,0.397717,270.434,238.83,234.35,233.577,228.324,221.046,0.464928,0.546585,215.593,224.204
2013-12-13 12:00,0.467616,278.684,239.559,235.173,239.183,234.706,227.431,0.557011,0.624661,222.368,233.617
2013-12-13 13:00,0.271371,260.827,229.673,230.027,225.919,223.332,221.046,0.486003,0.568011,213.693,221.878
2013-12-13 14:00,0.28347,254.396,222.198,226.481,219.847,217.607,216.663,0.497923,0.566084,213.845,218.41
2013-12-13 15:00,0.261366,250.598,207.704,220.077,206.392,205.349,207.423,0.611534,0.677332,206.905,206.968
2013-12-13 16:00,0.252796,249.89,209.237,221.17,208.556,208.026,209.201,0.622399,0.691544,210.278,210.353
2013-12-13 17:00,0.290726,259.505,219.247,225.306,217.78,215.683,215.074,0.575066,0.641965,214.734,217.418
2013-12-13 18:00,0.357639,261.666,226.902,228.749,225.919,224.474,221.598,0.743918,0.825885,219.624,224.408
2013-12-13 19:00,0.516855,274.314,222.198,226.866,220.852,219.777,219.172,0.820352,0.92685,217.229,220.075
2013-12-13 20:00,0.735989,278.075,226.261,228.004,223.758,222.169,220.675,0.953818,1.09685,218.264,222.743
2013-12-13 21:00,1.15391,280.982,233.392,231.973,231.683,230.946,227.431,1.13171,1.37852,222.259,228.242
2013-12-13 22:00,0.533153,242.013,233.116,231.625,232.23,231.714,227.94,0.812556,1.0765,223.434,228.782
2013-12-13 23:00,0.0054693,249.156,244.598,237.258,244.349,243.243,235.537,-0.0,-0.0,227.691,237.043
2013-12-14 00:00,-0.0,247.601,243.273,236.625,243.667,242.143,234.76,-0.0,-0.0,228.048,236.469
2013-12-14 01:00,-0.0,254.966,250.954,240.766,250.207,248.941,238.577,-0.0,-0.0,227.78,239.656
2013-12-14 02:00,-0.0,269.865,265.696,249.286,265.826,263.237,247.823,-0.0,-0.0,225.835,243.214
2013-12-14 03:00,-0.00153683,260.395,247.563,239.267,243.667,240.802,231.581,-0.0,-0.0,219.624,230.694
2013-12-14 04:00,-0.00153321,249.89,234.477,232.663,231.408,228.056,223.233,-0.0,-0.0,217.096,224.61
2013-12-14 05:00,-0.0,249.89,242.142,236.146,240.87,239.438,233.185,-0.0,-0.0,223.329,231.859
2013-12-14 06:00,-0.0,270.434,265.092,248.642,266.678,264.106,248.499,-0.0,-0.0,227.87,245.575
2013-12-14 07:00,-0.00273962,273.088,266.145,249.286,265.654,261.831,245.072,-0.0,-0.0,224.46,241.98
2013-12-14 08:00,-0.0,260.395,247.973,238.657,246.575,243.243,233.661,-0.0,-0.0,220.57,232.669
2013-12-14 09:00,-5.11656,246.775,230.85,229.118,229.729,226.974,223.053,-6.13726,-8.17866,218.642,224.408
2013-12-14 10:00,0.55531,255.521,239.074,233.681,237.951,235.917,231.094,0.819581,0.930936,222.692,230.354
2013-12-14 11:00,0.440067,266.131,242.597,236.146,238.693,236.157,229.449,0.631902,0.680701,218.009,225.799
2013-12-14 12:00,0.315266,253.206,224.616,227.438,223.125,221.283,220.302,0.601736,0.647349,216.695,219.843
2013-12-14 13:00,0.234683,253.206,244.598,236.943,245.024,244.328,237.827,0.529882,0.575803,228.748,238.303
2013-12-14 14:00,0.273676,266.797,240.277,233.681,240.87,237.345,225.709,0.600368,0.664357,222.585,231.53
2013-12-14 15:00,0.241554,251.944,220.006,225.504,218.824,218.235,216.663,0.608631,0.672686,214.588,216.909
2013-12-14 16:00,0.224758,258.576,229.673,229.484,228.001,225.597,221.23,0.51273,0.580786,218.642,223.999
2013-12-14 17:00,0.296658,255.521,222.198,226.092,221.182,220.081,219.172,0.609111,0.688836,217.096,219.608
2013-12-14 18:00,0.393665,260.395,225.611,228.192,225.003,223.332,222.511,0.613062,0.69408,219.503,223.377
2013-12-14 19:00,0.491156,276.155,245.463,237.572,244.8,242.143,232.066,0.593453,0.689956,225.835,235.887
2013-12-14 20:00,0.541071,281.346,249.385,240.32,248.093,243.243,232.227,0.610128,0.722451,223.118,234.694
2013-12-14 21:00,1.30647,284.249,226.261,228.564,221.511,216.652,212.202,1.09811,1.35265,212.448,217.669
2013-12-14 22:00,1.79195,249.89,222.198,227.058,218.478,214.03,212.202,1.44138,2.1709,211.636,215.332
2013-12-14 23:00,-0.0,227.984,218.862,224.708,217.072,216.008,215.074,-0.0,-0.0,213.388,216.131
2013-12-15 00:00,-0.0,230.231,223.94,227.058,221.838,220.984,219.551,-0.0,-0.0,217.491,220.535
2013-12-15 01:00,-0.0,237.078,229.072,229.301,227.118,225.597,223.233,-0.0,-0.0,219.503,224.204
2013-12-15 02:00,-0.0016756,261.666,248.38,239.419,245.914,243.024,233.344,-0.0,-0.0,223.329,233.773
2013-12-15 03:00,0.00153834,275.251,265.545,248.771,264.792,260.942,244.792,-0.0,-0.0,225.254,240.964
2013-12-15 04:00,-0.00153379,249.156,237.086,233.513,234.895,232.221,225.709,-0.0,-0.0,219.503,227.694
2013-12-15 05:00,-0.0,246.775,231.427,230.387,228.583,225.038,221.23,-0.0,-0.0,217.229,222.743
2013-12-15 06:00,0.00198075,245.01,228.769,229.484,225.31,222.169,218.601,-0.0,-0.0,216.15,220.989
2013-12-15 07:00,-0.0,249.156,232.28,231.625,228.871,223.332,218.41,-0.0,-0.0,214.441,222.096
2013-12-15 08:00,-0.00513235,252.585,235.011,232.146,231.408,226.974,220.86,-0.0,-0.0,213.995,222.529
2013-12-15 09:00,-2.25961,238.442,221.117,225.504,217.78,214.697,213.653,-2.63066,-3.13666,212.765,215.867
2013-12-15 10:00,0.548584,257.605,220.379,225.504,216.355,214.364,214.062,0.677193,0.797098,211.636,214.511
2013-12-15 11:00,0.379455,263.255,241.218,235.01,239.911,236.396,229.449,0.500504,0.544655,225.449,232.829
2013-12-15 12:00,0.281937,271.261,256.294,242.799,254.657,251.354,239.618,0.397355,0.419742,225.546,238.165
2013-12-15 13:00,0.331766,263.255,225.937,227.628,225.003,222.462,218.792,0.522026,0.573562,215.452,220.535
2013-12-15 14:00,0.215331,262.074,250.954,240.913,250.623,249.955,240.793,0.675533,0.727562,228.136,240.446
2013-12-15 15:00,0.306934,286.864,268.63,250.303,269.186,265.99,247.823,0.409089,0.470104,230.018,246.483
2013-12-15 16:00,0.268915,255.521,220.75,225.701,220.519,219.472,217.25,0.671242,0.753344,218.009,219.843
2013-12-15 17:00,0.313694,257.103,214.358,223.076,212.609,211.635,213.035,0.507158,0.588501,210.624,211.295
2013-12-15 18:00,0.390276,265.446,217.285,224.908,215.26,213.694,213.035,0.505178,0.602349,212.922,214.511
2013-12-15 19:00,0.460351,282.923,237.591,234.515,233.577,228.324,220.675,0.435548,0.561575,218.642,224.408
2013-12-15 20:00,0.849393,283.76,198.095,217.342,196.503,195.415,199.751,0.975729,1.14837,200.945,199.092
2013-12-15 21:00,1.19179,282.753,198.095,217.342,194.798,194.933,198.979,1.1132,1.34164,200.142,197.598
2013-12-15 22:00,0.154824,218.393,197.389,217.106,195.375,193.954,198.719,0.458813,0.39076,197.532,197.08
2013-12-15 23:00,-0.00557334,213.142,202.034,218.502,200.227,199.102,202.255,-0.00471894,-0.0,202.954,201.84
2013-12-16 00:00,0.00283637,213.142,211.654,222.449,211.028,209.133,210.289,-0.0,-0.0,209.926,210.984
2013-12-16 01:00,0.00202191,227.984,221.481,225.701,219.167,216.008,215.873,-0.0,-0.0,214.879,218.653
2013-12-16 02:00,0.00167827,237.078,223.94,226.866,221.182,219.777,218.025,-0.0,0.00169432,215.593,219.134
2013-12-16 03:00,0.00153971,218.393,216.471,223.489,214.89,214.364,214.468,-0.0,-0.0,212.126,214.233
2013-12-16 04:00,0.00153422,222.276,214.79,223.283,213.763,211.635,214.265,-0.0,-0.0,212.607,214.233
2013-12-16 05:00,-0.0,230.231,220.379,225.701,218.824,216.652,215.474,-0.0,-0.0,214.441,217.669
2013-12-16 06:00,0.00197851,243.066,233.938,231.799,231.131,229.121,226.056,-0.0,-0.0,220.916,226.57
2013-12-16 07:00,-0.00272696,262.869,251.339,240.766,249.579,245.612,235.072,-0.0,0.00275303,222.259,234.389
2013-12-16 08:00,-0.0,218.393,206.1,218.73,204.12,202.941,205.127,-0.0,-0.0,205.663,204.328
2013-12-16 09:00,-1.2541,225.382,212.119,220.954,211.028,210.219,210.718,-1.94672,-2.53218,209.926,210.67
2013-12-16 10:00,0.428346,245.913,219.628,224.708,218.478,216.972,215.074,0.60301,0.718998,215.167,217.418
2013-12-16 11:00,0.393592,256.062,225.282,227.438,222.806,220.685,218.601,0.530575,0.630016,215.452,219.372
2013-12-16 12:00,0.368273,264.739,221.117,226.092,217.78,215.356,214.062,0.482862,0.56852,213.541,216.392
2013-12-16 13:00,0.421944,280.613,254.145,241.791,252.465,246.876,233.503,0.468299,0.515202,221.708,234.694
2013-12-16 14:00,0.315087,262.869,226.583,228.934,224.384,222.169,219.172,0.40492,0.470233,215.167,219.372
2013-12-16 15:00,0.294127,264.377,217.685,224.708,215.628,214.364,214.671,0.429885,0.504324,213.234,214.787
2013-12-16 16:00,0.281621,266.797,234.477,232.491,230.012,229.121,224.657,0.354716,0.429994,215.167,220.306
2013-12-16 17:00,0.266535,284.888,273.065,253.14,273.057,270.473,253.111,0.261198,0.333863,228.835,245.804
2013-12-16 18:00,0.349049,277.869,241.682,235.985,236.186,230.946,222.873,0.334707,0.437298,216.56,225.21
2013-12-16 19:00,0.320097,288.841,260.036,246.533,255.439,247.708,231.581,0.269552,0.370577,222.259,235.592
2013-12-16 20:00,0.705073,284.73,225.937,229.301,218.478,214.03,211.992,0.651446,0.791736,209.569,214.233
2013-12-16 21:00,1.38401,291.065,203.247,219.409,200.227,198.656,201.266,1.20759,1.48723,204.795,203.929
2013-12-16 22:00,2.32123,245.01,199.463,218.041,195.943,194.933,200.261,1.50294,2.2745,198.732,197.598
2013-12-16 23:00,0.00562515,213.142,205.549,220.077,202.217,201.271,202.743,-0.0,-0.0,203.894,203.929
2013-12-17 00:00,0.00284833,204.719,204.418,219.632,202.217,199.981,202.986,-0.0,-0.0,202.954,203.929
2013-12-17 01:00,-0.0,225.382,213.921,223.489,210.218,207.651,207.648,-0.0,-0.0,209.023,211.295
2013-12-17 02:00,0.00168078,245.01,224.95,228.378,220.852,215.683,213.653,-0.0,-0.0,211.303,215.6
2013-12-17 03:00,-0.0,225.382,220.006,225.504,218.13,215.027,213.653,-0.0,-0.0,214.588,217.918
2013-12-17 04:00,0.00153448,227.984,215.64,223.489,213.763,211.284,211.781,-0.0,-0.0,210.624,213.382
2013-12-17 05:00,0.00165852,230.231,222.552,227.058,219.508,216.652,215.474,-0.0,-0.0,215.167,219.372
2013-12-17 06:00,0.00197601,240.898,233.666,231.625,233.041,229.909,225.36,-0.0,-0.0,219.503,228.242
2013-12-17 07:00,-0.0,243.066,238.09,233.849,237.702,235.677,229.615,-0.0,-0.0,222.04,232.185
2013-12-17 08:00,-0.0,274.787,265.394,248.771,264.27,257.856,241.953,-0.0,-0.0,223.538,238.986
2013-12-17 09:00,-1.1521,281.165,275.306,254.926,276.01,271.926,251.159,-1.25419,-1.66159,226.122,243.214
2013-12-17 10:00,0.280592,281.165,274.129,253.741,274.156,271.283,251.422,0.299171,0.38819,227.42,243.818
2013-12-17 11:00,0.363687,292.889,286.328,261.091,287.679,284.061,259.249,0.180361,0.382899,229.178,248.348
2013-12-17 12:00,0.354646,296.219,286.661,260.984,287.679,283.049,258.76,0.171371,0.332721,229.433,248.562
2013-12-17 13:00,0.301121,298.242,288.628,262.576,289.166,284.205,259.127,0.120834,0.280948,229.852,249.198
2013-12-17 14:00,0.322748,296.427,279.702,257.006,279.76,273.517,252.464,0.220515,0.317027,230.184,247.371
2013-12-17 15:00,0.196106,281.165,269.908,251.18,268.191,265.99,250.633,0.210518,0.282829,230.101,243.093
2013-12-17 16:00,0.241968,292.174,282.331,259.024,283.372,280.998,259.492,0.222603,0.288909,231.709,250.032
2013-12-17 17:00,0.29713,270.434,245.248,237.572,240.392,238.515,230.604,0.479149,0.535216,217.881,225.604
2013-12-17 18:00,0.333139,274.551,246.733,239.419,243.209,242.143,231.905,0.439695,0.493181,218.767,229.137
2013-12-17 19:00,0.376624,280.982,238.585,235.01,232.502,228.324,222.329,0.486413,0.562452,219.744,227.323
2013-12-17 20:00,0.690039,288.705,246.733,239.115,243.209,237.109,227.94,0.688586,0.863331,222.476,233.146
2013-12-17 21:00,0.926307,281.346,196.665,216.869,194.798,194.446,198.195,0.867069,1.06674,199.307,198.106
2013-12-17 22:00,0.183507,218.393,194.386,216.392,192.406,192.445,198.195,0.414334,0.432277,195.928,194.312
2013-12-17 23:00,0.00567672,218.393,204.988,219.183,203.179,201.694,204.185,-0.0,-0.0,204.122,204.328
2013-12-18 00:00,-0.0,245.01,226.902,229.665,220.852,216.652,214.671,-0.0,-0.0,213.541,218.895
2013-12-18 01:00,-0.0020317,225.382,210.707,221.386,208.556,206.513,208.54,-0.0,-0.0,208.464,209.707
2013-12-18 02:00,-0.0,222.276,204.988,219.409,203.179,201.694,205.361,-0.0,-0.0,205.233,205.109
2013-12-18 03:00,-0.0,218.393,208.223,220.298,206.833,204.559,206.97,-0.0,-0.0,207.697,206.968
2013-12-18 04:00,-0.0,213.142,200.125,218.041,199.196,197.752,201.266,-0.00129933,-0.0,200.681,200.041
2013-12-18 05:00,0.00165756,213.142,204.418,219.183,203.179,202.113,205.127,-0.0,-0.0,204.573,204.328
2013-12-18 06:00,-0.00197327,218.393,208.734,220.298,205.946,204.159,206.056,-0.0,-0.0,206.905,206.606
2013-12-18 07:00,-0.00271261,225.382,218.474,225.306,215.628,211.635,211.358,-0.0,-0.0,211.47,215.6
2013-12-18 08:00,-0.0,225.382,216.058,223.899,214.141,211.284,210.718,-0.0,-0.0,211.47,214.233
2013-12-18 09:00,-1.21392,243.066,229.373,230.207,225.615,222.462,218.792,-1.59883,-2.04253,215.167,222.743
2013-12-18 10:00,0.596564,266.797,245.676,237.728,243.209,238.978,228.949,0.642464,0.72906,221.371,232.988
2013-12-18 11:00,0.552548,283.594,256.294,244.349,256.021,251.552,237.525,0.538459,0.607824,225.254,239.523
2013-12-18 12:00,0.466603,294.933,277.977,256.32,279.466,275.24,254.009,0.343409,0.440263,230.101,248.348
2013-12-18 13:00,0.372909,289.779,270.329,251.056,270.332,265.99,247.823,0.300015,0.390899,227.78,245.114
2013-12-18 14:00,0.491266,294.713,268.199,250.555,271.464,270.635,254.519,0.43179,0.494704,230.996,251.352
2013-12-18 15:00,0.288353,289.514,267.473,249.797,266.847,262.185,244.372,0.213506,0.309967,225.449,242.971
2013-12-18 16:00,0.233742,292.653,276.336,255.043,274.933,269.821,248.768,0.150647,0.252412,226.027,244.764
2013-12-18 17:00,0.283325,290.685,279.458,257.006,280.639,277.853,256.535,0.287869,0.346971,230.996,250.544
2013-12-18 18:00,0.278141,285.045,257.854,244.488,254.263,248.327,234.134,0.263904,0.35982,221.93,235.295
2013-12-18 19:00,0.507351,275.707,219.247,224.708,215.26,211.983,211.146,0.564457,0.685266,211.8,213.952
2013-12-18 20:00,0.832266,284.087,211.654,222.238,207.269,204.159,205.825,0.850188,1.01372,207.502,208.711
2013-12-18 21:00,1.28411,286.569,210.224,221.386,207.269,205.74,207.197,1.13419,1.40364,210.278,209.707
2013-12-18 22:00,0.221991,227.984,208.223,221.6,205.043,203.757,204.893,0.422908,0.392198,205.015,206.606
2013-12-18 23:00,-0.0,235.601,222.198,226.674,218.13,215.356,213.447,-0.0,-0.00578271,214.145,217.418
2013-12-19 00:00,-0.0,249.156,234.208,232.319,230.294,225.597,219.551,-0.0,-0.0,216.424,224.811
2013-12-19 01:00,-0.00203629,258.096,237.339,234.183,231.683,225.318,219.362,-0.0,-0.0,214.879,222.529
2013-12-19 02:00,-0.0,249.156,228.769,229.665,224.072,218.857,215.074,-0.0,-0.0,213.234,219.843
2013-12-19 03:00,-0.0,257.103,243.049,237.101,240.152,234.216,224.657,-0.0,-0.0,217.36,228.782
2013-12-19 04:00,-0.0,267.444,258.534,246.265,256.213,248.327,234.604,-0.0,-0.0,222.906,238.027
2013-12-19 05:00,-0.0,283.428,276.336,255.742,276.315,270.635,249.838,-0.0,-0.0,227.51,244.881
2013-12-19 06:00,-0.00197028,284.57,281.148,258.134,282.231,278.156,255.28,-0.0,-0.0,229.769,247.917
2013-12-19 07:00,-0.00270483,284.087,279.58,257.459,279.76,275.085,252.853,-0.0,-0.0,227.87,246.707
2013-12-19 08:00,-0.00501003,284.087,278.101,256.205,278.128,273.517,251.683,-0.0,-0.0,228.048,245.69
2013-12-19 09:00,-1.023,275.48,263.401,247.465,262.15,256.742,239.025,-0.96241,-1.26228,223.538,237.748
2013-12-19 10:00,0.548229,282.581,262.616,247.465,262.507,256.555,241.519,0.446331,0.617332,228.048,242.105
2013-12-19 11:00,0.45766,291.563,267.18,250.177,266.338,261.121,245.628,0.323285,0.467315,230.266,244.881
2013-12-19 12:00,0.409986,295.69,283.495,259.024,284.361,280.85,258.147,0.299937,0.40846,232.557,249.825
2013-12-19 13:00,0.43772,292.771,269.767,251.429,270.819,266.498,249.705,0.512323,0.576208,230.511,246.707
2013-12-19 14:00,0.35058,292.174,275.306,254.454,276.01,272.405,252.723,0.365499,0.438321,230.184,247.59
2013-12-19 15:00,0.265034,270.434,250.566,240.469,250.415,247.708,236.765,0.553595,0.607037,226.122,239.523
2013-12-19 16:00,0.241796,290.558,272.12,252.656,271.945,267.004,248.364,0.217524,0.318044,230.835,246.595
2013-12-19 17:00,0.258467,273.088,243.94,236.943,238.199,235.193,227.601,0.354318,0.40756,212.287,220.989
2013-12-19 18:00,0.41451,267.123,200.125,217.809,198.14,197.294,201.515,0.710203,0.796085,199.867,199.092
2013-12-19 19:00,0.570107,278.883,231.997,231.098,230.853,227.517,221.598,0.981507,1.11274,223.849,230.694
2013-12-19 20:00,0.498955,280.05,257.854,244.488,258.116,255.425,243.667,0.567428,0.686449,228.575,243.336
2013-12-19 21:00,1.66872,298.63,265.092,249.029,267.857,267.339,252.723,1.48666,1.74021,239.104,253.405
2013-12-19 22:00,0.610439,269.576,267.473,250.429,270.332,269.165,254.264,0.603001,0.770343,236.071,252.439
2013-12-19 23:00,-0.00577878,258.576,246.942,239.115,243.895,240.35,230.604,-0.0,-0.0,222.04,232.669
2013-12-20 00:00,-0.00288247,265.446,262.458,247.2,263.393,261.121,247.279,-0.0,-0.0,229.601,245.804
2013-12-20 01:00,-0.0,257.103,251.147,240.913,251.242,248.121,236.918,-0.0,-0.0,224.76,238.85
2013-12-20 02:00,-0.0,230.231,222.198,226.481,220.184,219.165,217.055,-0.0,-0.0,215.734,218.895
2013-12-20 03:00,-0.00154363,246.775,240.984,235.01,241.344,240.35,234.916,-0.0,-0.0,226.499,234.845
2013-12-20 04:00,-0.0,244.063,241.451,235.662,242.283,241.251,235.072,-0.0,-0.0,226.216,236.033
2013-12-20 05:00,-0.0,243.066,236.576,233.005,235.672,234.216,229.615,-0.0,-0.0,222.476,230.183
2013-12-20 06:00,-0.0,240.898,236.318,233.005,236.441,235.677,230.768,-0.0,-0.0,225.156,231.859
2013-12-20 07:00,0.00269666,246.775,243.94,236.784,243.667,242.143,236.46,-0.0,-0.0,227.329,237.043
2013-12-20 08:00,-0.0,281.526,276.463,256.205,276.315,270.798,250.369,-0.0,-0.0,231.394,247.808
2013-12-20 09:00,-0.684547,277.661,268.63,250.555,267.354,262.537,244.932,-0.993609,-1.086,229.093,243.214
2013-12-20 10:00,0.63737,267.761,248.784,239.871,249.368,247.915,238.278,0.656587,0.766794,230.184,242.105
2013-12-20 11:00,0.58259,292.053,260.854,246.13,262.507,260.405,247.823,0.53994,0.612004,233.53,248.669
2013-12-20 12:00,0.578384,289.113,250.76,240.469,252.262,250.757,241.808,0.581252,0.642122,232.784,244.056
2013-12-20 13:00,0.405303,278.482,253.04,242.081,253.469,252.144,242.241,0.493534,0.553764,235.247,246.032
2013-12-20 14:00,0.359531,291.809,263.088,247.465,263.393,260.225,247.006,0.261077,0.351625,236.808,248.987
2013-12-20 15:00,0.294256,297.749,285.658,260.984,286.31,282.613,259.614,0.186859,0.287638,238.42,254.256
2013-12-20 16:00,0.277733,285.665,270.049,251.429,272.104,270.635,254.264,0.380776,0.431728,238.231,253.213
2013-12-20 17:00,0.19061,265.791,249.781,239.721,247.446,247.501,239.913,0.376922,0.415902,225.449,233.461
2013-12-20 18:00,0.333078,294.713,268.054,250.303,269.021,265.82,251.422,0.441315,0.523388,239.954,251.85
2013-12-20 19:00,0.158577,294.268,283.495,259.464,284.641,280.702,258.638,0.169293,0.205336,240.607,255.183
2013-12-20 20:00,0.16083,292.889,284.414,260.011,285.201,282.175,259.614,0.177439,0.21649,241.361,255.275
2013-12-20 21:00,0.978405,300.589,279.213,256.892,280.493,278.004,259.005,0.805296,0.987758,243.418,257.421
2013-12-20 22:00,0.376215,264.739,266.886,249.797,269.679,269.329,255.027,0.517628,0.569717,244.269,257.421
2013-12-20 23:00,-0.0,268.686,252.479,241.061,249.368,244.544,233.026,-0.0,-0.0,222.799,234.542
2013-12-21 00:00,-0.0,272.061,258.365,244.626,256.789,252.927,238.278,-0.0,-0.0,225.931,239.656
2013-12-21 01:00,-0.0,279.859,277.476,255.974,279.466,276.631,255.784,-0.0,-0.0,235.936,254.722
2013-12-21 02:00,-0.0,273.831,267.473,249.797,265.997,264.279,249.705,-0.0,-0.0,229.517,243.214
2013-12-21 03:00,-0.00154422,283.924,280.308,257.346,280.639,278.76,256.035,-0.0,-0.0,231.63,249.303
2013-12-21 04:00,-0.0,286.569,285.882,261.091,288.222,286.06,261.421,-0.0,-0.0,236.609,253.309
2013-12-21 05:00,-0.0,286.271,285.882,261.198,288.358,286.343,261.779,-0.0,-0.0,237.333,254.629
2013-12-21 06:00,-0.00196358,285.97,285.546,260.445,287.815,285.919,261.54,-0.0,-0.0,240.014,254.907
2013-12-21 07:00,-0.0,285.512,285.546,260.769,287.951,286.06,262.492,-0.0,-0.0,240.782,255.639
2013-12-21 08:00,-0.00494323,285.818,285.882,260.553,288.358,286.485,262.017,-0.0,-0.0,241.76,256.539
2013-12-21 09:00,-0.256476,285.97,285.77,260.553,288.358,286.202,261.898,-0.723859,-0.690474,241.76,256.36
2013-12-21 10:00,0.380063,288.977,286.882,261.091,289.166,286.626,262.255,0.226619,0.437738,242.211,256.271
2013-12-21 11:00,0.381872,293.24,288.412,262.155,290.101,287.469,262.017,0.16501,0.380205,242.266,256.628
2013-12-21 12:00,0.344854,296.943,290.756,263.307,291.948,288.306,262.255,0.131471,0.335392,241.874,256.628
2013-12-21 13:00,0.381418,300.042,288.628,262.049,290.367,287.469,261.779,0.230676,0.350322,242.322,257.07
2013-12-21 14:00,0.367246,298.533,286.992,261.198,288.493,285.777,261.54,0.26441,0.369495,242.82,257.246
2013-12-21 15:00,0.276771,287.871,277.601,255.626,279.613,277.853,258.515,0.330254,0.404389,243.147,256.716
2013-12-21 16:00,0.21839,267.123,258.534,244.07,259.236,258.774,247.279,0.517356,0.562922,241.874,250.544
2013-12-21 17:00,0.305945,255.521,209.734,220.517,208.556,210.219,211.57,0.763604,0.84722,207.502,208.027
2013-12-21 18:00,0.379913,261.251,224.279,226.866,224.384,223.905,222.329,0.804769,0.897748,221.484,222.956
2013-12-21 19:00,0.22701,294.491,288.951,262.366,290.897,287.748,261.779,0.123771,0.26564,245.151,257.333
2013-12-21 20:00,0.279213,294.043,287.432,261.519,288.493,284.492,259.127,0.195294,0.338258,237.268,254.256
2013-12-21 21:00,0.293673,287.871,280.308,257.006,281.943,278.307,256.035,0.302208,0.410511,239.714,253.405
2013-12-21 22:00,3.85342,284.57,270.329,251.552,269.842,266.16,248.229,2.03918,3.71343,230.43,244.53
2013-12-21 23:00,-0.0,261.666,248.985,239.115,244.575,242.805,234.447,-0.0,-0.0,222.259,228.603
2013-12-22 00:00,-0.0,213.142,219.247,224.305,218.824,218.547,217.832,-0.0,-0.0,217.229,218.165
2013-12-22 01:00,-0.0,222.276,220.379,225.107,220.184,219.777,219.172,-0.0,-0.0,217.752,219.134
2013-12-22 02:00,-0.0,233.989,229.072,228.749,228.583,227.517,224.834,-0.0,-0.0,224.054,226.76
2013-12-22 03:00,-0.0,230.231,227.219,228.564,227.118,226.426,224.834,-0.0,-0.0,222.799,225.21
2013-12-22 04:00,-0.0,230.231,232.839,231.274,232.502,232.474,229.449,-0.0,-0.0,226.027,229.489
2013-12-22 05:00,-0.0,237.078,238.338,233.513,238.446,238.049,233.661,-0.0,-0.0,229.769,234.996
2013-12-22 06:00,-0.00195989,256.589,255.587,243.084,256.598,255.425,244.652,-0.0,-0.0,231.552,244.53
2013-12-22 07:00,-0.0,256.062,256.294,243.084,257.739,257.301,246.594,-0.0,-0.0,232.784,246.145
2013-12-22 08:00,-0.0,256.062,252.101,240.617,253.867,252.341,242.241,-0.0,-0.0,231.315,242.602
2013-12-22 09:00,-1.28687,267.444,267.326,249.158,268.69,267.84,252.335,-1.15369,-1.68128,231.709,246.483
2013-12-22 10:00,0.259018,273.088,268.773,249.669,270.495,268.173,251.553,0.383792,0.441271,232.097,246.595
2013-12-22 11:00,0.243171,275.48,262.774,245.859,261.431,259.684,246.182,0.293173,0.370912,230.593,242.105
2013-12-22 12:00,0.30577,293.24,283.495,258.691,284.641,281.293,258.638,0.156256,0.317826,232.633,249.928
2013-12-22 13:00,0.323024,280.982,264.635,247.859,263.569,261.654,247.959,0.301462,0.40148,230.184,241.854
2013-12-22 14:00,0.222483,279.667,261.501,245.314,259.974,256.367,242.097,0.203192,0.310416,229.263,240.706
2013-12-22 15:00,0.331696,284.41,262.141,246.667,262.863,261.477,247.687,0.334247,0.41033,231.315,245.69
2013-12-22 16:00,0.199732,294.043,280.308,257.346,280.785,277.091,255.532,0.121919,0.213365,232.251,250.34
2013-12-22 17:00,0.218521,296.219,286.992,260.876,287.679,282.904,257.653,0.0893925,0.228047,231.394,251.051
2013-12-22 18:00,0.322394,268.686,243.719,235.823,241.344,238.282,230.768,0.375334,0.482602,226.027,232.829
2013-12-22 19:00,0.494188,267.123,232.28,231.45,231.408,229.909,226.918,0.639266,0.751833,225.156,228.423
2013-12-22 20:00,0.631419,275.48,243.273,236.146,242.747,241.027,234.76,0.891036,1.01602,232.328,239.121
2013-12-22 21:00,0.978027,270.151,226.902,228.192,226.82,226.426,224.126,1.20036,1.43124,224.86,225.408
2013-12-22 22:00,0.0820549,245.01,244.16,236.784,244.8,243.679,237.525,0.451593,0.372777,236.004,241.093
2013-12-22 23:00,-0.0,240.898,235.011,231.973,233.842,232.725,227.94,-0.0,-0.0,224.46,229.838
2013-12-23 00:00,-0.00291359,237.078,232.839,231.098,232.23,231.203,228.614,-0.0,-0.0,223.952,228.782
2013-12-23 01:00,-0.00205244,235.601,235.011,231.625,234.895,234.461,229.781,-0.0,-0.0,226.685,231.53
2013-12-23 02:00,-0.0,263.255,256.294,243.084,255.049,253.51,243.949,-0.0,-0.0,228.048,238.165
2013-12-23 03:00,-0.00154491,271.531,266.886,248.512,267.69,265.82,250.633,-0.0,-0.0,231.63,245.804
2013-12-23 04:00,-0.0,276.811,271.162,251.552,272.104,269.0,251.422,-0.0,-0.0,230.184,244.764
2013-12-23 05:00,-0.0,275.02,266.293,248.382,267.185,263.933,246.594,-0.0,0.00166583,228.662,242.725
2013-12-23 06:00,-0.0,267.123,264.482,247.991,265.997,264.451,250.104,-0.0,-0.0,229.685,245.345
2013-12-23 07:00,-0.00266996,270.434,268.054,250.177,270.169,267.673,252.205,-0.0,-0.0,229.769,246.707
2013-12-23 08:00,-0.0,279.859,274.261,253.381,275.703,272.246,252.853,-0.0,-0.0,229.007,245.345
2013-12-23 09:00,-0.27092,273.338,267.18,249.669,267.857,264.451,250.104,-0.401428,-0.410264,229.517,244.764
2013-12-23 10:00,0.72366,286.121,273.065,252.777,275.396,273.359,255.532,0.548225,0.730578,230.996,247.699
2013-12-23 11:00,0.679155,286.569,266.738,249.158,269.515,268.505,253.111,0.671629,0.747249,230.348,247.59
2013-12-23 12:00,0.431524,274.073,261.179,245.723,263.04,262.888,250.501,0.497396,0.55646,230.101,244.412
2013-12-23 13:00,0.454231,285.665,261.34,245.451,263.569,261.477,247.551,0.435714,0.516621,230.184,245.23
2013-12-23 14:00,0.342687,278.279,248.177,238.503,247.229,244.973,236.46,0.38334,0.453287,229.178,237.327
2013-12-23 15:00,0.272162,286.421,272.662,252.168,273.057,268.67,250.633,0.315494,0.38915,229.517,244.998
2013-12-23 16:00,0.24145,261.666,248.177,238.81,247.446,247.501,239.618,0.427546,0.480486,229.517,236.757
2013-12-23 17:00,0.255134,266.466,244.38,235.662,245.471,243.243,234.447,0.597176,0.689752,228.136,235.592
2013-12-23 18:00,0.313609,261.251,236.832,232.663,236.441,235.917,231.743,0.756648,0.847553,227.87,233.461
2013-12-23 19:00,0.474263,264.739,235.011,232.146,234.895,234.706,232.066,0.890096,0.99735,227.78,231.695
2013-12-23 20:00,0.443568,272.836,255.409,242.942,255.439,254.281,245.072,0.602134,0.679014,231.394,241.093
2013-12-23 21:00,0.351998,288.705,280.669,257.006,281.655,279.061,257.282,0.365943,0.427335,232.02,248.775
2013-12-23 22:00,0.425131,279.667,271.437,251.305,272.264,268.67,250.896,0.523575,0.663302,229.852,245.345
2013-12-23 23:00,-0.0,263.636,259.54,245.04,259.974,258.04,245.35,-0.0,-0.0,229.433,242.971
2013-12-24 00:00,0.00292322,277.026,271.574,251.922,272.741,268.835,251.683,-0.0,-0.0,230.184,246.258
2013-12-24 01:00,-0.0,272.322,261.822,245.451,261.611,256.742,240.207,-0.0,-0.0,228.312,240.185
2013-12-24 02:00,-0.0,283.261,279.213,255.974,279.613,276.784,255.658,-0.0,-0.0,230.018,246.371
2013-12-24 03:00,-0.0,268.986,260.692,245.451,259.974,256.742,243.383,-0.0,-0.0,228.835,240.185
2013-12-24 04:00,-0.0,260.395,256.469,243.368,256.406,255.235,243.949,-0.0,-0.0,227.329,240.185
2013-12-24 05:00,-0.00164801,260.395,256.118,243.509,256.789,255.045,244.932,-0.0,-0.0,228.048,241.854
2013-12-24 06:00,-0.00195182,252.585,246.523,237.572,246.575,245.186,237.525,-0.0,-0.0,227.42,237.327
2013-12-24 07:00,-0.0,254.396,251.147,240.469,251.447,250.757,241.808,-0.0,-0.0,228.312,240.835
2013-12-24 08:00,-0.0,240.898,238.585,233.344,238.446,237.109,231.743,-0.0,-0.0,226.685,233.928
2013-12-24 09:00,-0.0611308,265.095,259.039,244.07,259.236,256.928,246.182,-0.258797,-0.246861,229.263,243.457
2013-12-24 10:00,0.504857,271.798,258.871,244.488,260.706,260.045,248.094,0.529681,0.620484,230.101,245.345
2013-12-24 11:00,0.529931,278.075,258.871,244.349,260.888,260.045,246.732,0.556919,0.63178,230.018,245.69
2013-12-24 12:00,0.517852,291.44,264.021,247.597,266.167,264.623,249.572,0.489234,0.583338,230.755,247.04
2013-12-24 13:00,0.433211,287.3,263.712,246.667,265.654,261.831,246.594,0.389953,0.495472,229.007,244.881
2013-12-24 14:00,0.300351,291.686,278.845,256.434,279.907,276.015,255.658,0.223578,0.322174,229.348,247.04
2013-12-24 15:00,0.257006,292.174,277.727,255.858,278.427,273.99,253.24,0.168151,0.272436,228.921,245.918
2013-12-24 16:00,0.176382,281.346,266.442,248.512,264.27,260.764,245.211,0.177835,0.260073,225.546,238.027
2013-12-24 17:00,0.196091,278.482,264.021,247.067,261.971,259.502,245.35,0.211689,0.304373,228.048,241.348
2013-12-24 18:00,0.232796,285.818,270.746,251.922,269.021,264.967,247.415,0.173642,0.290978,226.685,240.316
2013-12-24 19:00,0.322889,282.923,262.458,246.667,261.971,257.671,242.097,0.296534,0.419112,228.4,240.964
2013-12-24 20:00,0.26666,284.57,272.796,253.381,272.264,269.494,251.683,0.262393,0.317715,227.959,243.336
2013-12-24 21:00,1.01797,280.799,242.37,236.146,239.669,237.109,229.449,0.873158,1.10366,222.476,230.183
2013-12-24 22:00,0.877932,281.883,273.199,253.621,273.529,270.148,250.369,0.681398,1.03405,226.778,243.336
2013-12-24 23:00,-0.0,281.526,277.35,256.205,278.873,275.396,254.264,-0.0,-0.0,231.315,248.987
2013-12-25 00:00,-0.00293244,269.865,269.626,251.18,271.945,271.444,255.28,-0.0,0.00296048,229.093,248.348
2013-12-25 01:00,-0.0,279.278,271.848,252.29,271.625,268.173,248.903,-0.0,-0.0,227.691,243.457
2013-12-25 02:00,-0.0,284.249,281.742,258.691,283.797,280.998,258.023,-0.0,-0.0,229.517,248.669
2013-12-25 03:00,-0.0,283.924,281.386,258.469,282.803,279.959,257.653,-0.0,-0.0,229.263,248.241
2013-12-25 04:00,-0.00153085,277.451,276.336,255.393,278.576,276.938,257.158,-0.0,-0.0,230.916,249.928
2013-12-25 05:00,-0.00164581,275.02,274.785,254.926,277.528,276.169,257.9,-0.0,-0.00166154,231.236,249.721
2013-12-25 06:00,-0.0,279.667,277.601,256.205,279.907,277.701,257.53,-0.0,-0.0,231.709,250.135
2013-12-25 07:00,-0.0,281.526,276.718,255.742,277.978,274.46,253.625,-0.0,-0.0,230.511,247.59
2013-12-25 08:00,-0.0,268.073,264.021,248.121,264.965,263.412,249.971,-0.0,-0.0,230.996,246.818
2013-12-25 09:00,-0.222338,282.059,276.971,255.51,278.278,274.46,252.205,-0.235317,-0.28058,228.835,246.032
2013-12-25 10:00,0.166074,285.512,282.448,258.358,284.22,280.85,257.406,0.154676,0.229138,228.4,247.917
2013-12-25 11:00,0.318112,274.787,261.017,245.723,260.341,256.742,241.808,0.285189,0.429104,226.311,239.789
2013-12-25 12:00,0.291357,275.02,255.05,242.081,253.269,250.357,238.278,0.292947,0.397093,224.661,236.469
2013-12-25 13:00,0.317033,289.779,273.599,253.261,272.264,268.173,248.634,0.1757,0.322973,225.835,241.602
2013-12-25 14:00,0.378179,291.563,273.466,253.86,273.529,269.494,249.171,0.3043,0.38053,227.691,244.175
2013-12-25 15:00,0.315453,286.121,259.373,246.399,256.213,249.144,235.072,0.282921,0.357393,221.258,234.694
2013-12-25 16:00,0.251718,286.569,268.916,251.056,268.191,263.586,245.489,0.251434,0.31385,227.147,242.725
2013-12-25 17:00,0.268175,287.3,264.94,249.286,262.863,256.742,240.06,0.203216,0.300408,223.849,238.165
2013-12-25 18:00,0.218632,285.357,266.145,249.158,264.444,259.684,242.814,0.227294,0.311525,225.835,240.835
2013-12-25 19:00,0.349469,287.01,272.527,253.261,272.899,270.635,253.24,0.405593,0.473282,229.263,246.595
2013-12-25 20:00,0.260964,294.38,288.195,262.576,289.3,285.35,261.062,0.145954,0.285212,232.784,251.949
2013-12-25 21:00,0.101136,289.647,285.882,261.305,287.543,284.779,260.822,0.145202,0.159814,232.935,252.047
2013-12-25 22:00,0.730169,240.898,228.155,229.118,226.522,225.874,224.657,0.765431,1.05307,217.622,221.436
2013-12-25 23:00,-0.00606965,250.598,231.427,230.921,228.293,224.756,219.172,-0.0,-0.0,215.734,221.213
2013-12-26 00:00,-0.0,264.009,245.248,238.349,240.392,234.216,225.535,-0.0,-0.0,219.137,228.603
2013-12-26 01:00,-0.0,272.061,266.293,249.542,267.016,264.967,248.364,-0.0,-0.0,228.575,244.998
2013-12-26 02:00,0.00339105,279.473,271.848,252.777,271.464,267.84,249.705,-0.0,-0.0,227.42,243.577
2013-12-26 03:00,-0.0,286.271,283.956,260.769,286.033,283.194,258.76,-0.0,-0.0,228.835,249.408
2013-12-26 04:00,-0.0,281.165,275.694,255.742,275.396,273.2,253.497,-0.0,0.0015443,226.685,243.577
2013-12-26 05:00,-0.0,282.408,277.098,256.892,277.828,273.832,253.24,-0.0,-0.0,228.662,245.918
2013-12-26 06:00,-0.0019429,285.665,283.726,260.769,286.033,283.339,259.492,-0.0,-0.0,230.101,249.408
2013-12-26 07:00,-0.0,280.799,275.694,255.51,276.62,272.724,251.291,-0.0,-0.0,228.312,244.53
2013-12-26 08:00,-0.0,284.41,282.331,259.793,284.361,280.554,257.9,-0.0,-0.0,230.266,248.241
2013-12-26 09:00,-0.101729,282.234,278.226,256.778,279.76,275.085,253.753,-0.258403,-0.256755,229.852,246.707
2013-12-26 10:00,0.664708,286.271,266.442,249.797,267.857,262.361,247.687,0.482406,0.68798,230.018,243.818
2013-12-26 11:00,0.356929,292.889,287.322,262.261,288.897,284.636,259.249,0.156786,0.373888,229.685,248.348
2013-12-26 12:00,0.3504,293.007,283.38,259.902,283.938,279.81,256.035,0.157613,0.36112,230.018,246.371
2013-12-26 13:00,0.307337,298.918,286.772,262.681,287.679,281.146,256.66,0.130722,0.298621,230.996,247.917
2013-12-26 14:00,0.278175,300.679,290.756,264.849,291.555,285.919,259.614,0.0912415,0.256799,231.315,248.882
2013-12-26 15:00,0.239538,301.39,292.827,266.159,293.506,288.445,260.822,0.0722225,0.217055,231.552,249.928
2013-12-26 16:00,0.226118,301.565,292.725,266.259,293.635,288.584,261.421,0.0687269,0.202525,232.251,250.849
2013-12-26 17:00,0.220233,300.589,291.487,265.254,292.209,287.748,261.182,0.0787323,0.208751,231.63,251.252
2013-12-26 18:00,0.245965,298.726,289.699,264.441,290.764,286.767,260.822,0.124019,0.244131,232.405,251.751
2013-12-26 19:00,0.261971,298.822,290.545,264.645,291.686,287.609,261.898,0.122428,0.259323,232.633,252.146
2013-12-26 20:00,0.267251,296.738,290.229,264.543,291.686,287.748,262.136,0.141426,0.286669,233.308,252.439
2013-12-26 21:00,0.218474,293.472,289.699,264.133,291.555,288.167,262.255,0.177582,0.273497,233.823,253.117
2013-12-26 22:00,0.530791,290.685,288.303,263.721,290.367,287.469,262.728,0.646042,0.736815,234.472,253.88
2013-12-26 23:00,-0.0,288.568,287.541,262.681,290.234,287.609,262.492,-0.0,-0.0,234.756,253.88
2013-12-27 00:00,-0.0,288.568,287.541,262.576,290.234,288.027,262.61,-0.0,-0.0,235.593,254.068
2013-12-27 01:00,-0.0,287.729,287.432,262.576,290.234,288.167,263.083,-0.0,-0.0,236.004,254.907
2013-12-27 02:00,-0.0,287.444,287.102,262.576,289.968,288.027,263.083,-0.0,-0.0,236.139,254.722
2013-12-27 03:00,-0.0,287.155,286.882,262.155,289.835,287.748,262.255,-0.0,-0.0,236.408,254.722
2013-12-27 04:00,-0.0,286.864,286.439,261.944,289.434,287.329,262.255,-0.0,-0.0,236.742,254.629
2013-12-27 05:00,-0.0,286.569,286.217,261.519,289.166,287.188,262.492,-0.0,-0.0,236.341,253.974
2013-12-27 06:00,-0.0,285.97,285.658,261.305,288.087,286.202,261.301,-0.0,-0.0,235.178,253.117
2013-12-27 07:00,0.0026298,285.665,285.321,261.091,287.679,285.208,260.942,-0.0,-0.0,235.867,253.213
2013-12-27 08:00,-0.0,285.665,284.755,260.876,287.27,284.779,260.581,-0.0,-0.0,235.525,253.117
2013-12-27 09:00,-0.140415,285.512,284.642,260.661,286.86,284.492,260.461,-0.317038,-0.378019,235.247,253.5
2013-12-27 10:00,0.400264,289.113,286.217,261.838,287.951,285.065,260.098,0.224344,0.455313,234.257,253.117
2013-12-27 11:00,0.396071,294.602,288.736,262.995,289.968,286.06,260.701,0.161973,0.394418,234.113,253.117
2013-12-27 12:00,0.345695,298.144,290.44,264.236,291.292,286.626,260.34,0.130089,0.334227,234.185,253.213
2013-12-27 13:00,0.309176,300.947,291.279,264.849,291.817,287.609,261.54,0.117433,0.290253,233.75,253.021
2013-12-27 14:00,0.338536,295.69,282.799,259.464,284.22,280.998,257.9,0.289823,0.374683,233.382,251.85
2013-12-27 15:00,0.283973,294.38,279.213,257.233,279.76,276.015,254.773,0.212735,0.303205,231.709,248.882
2013-12-27 16:00,0.0,296.114,283.264,259.574,285.201,282.321,260.219,0.282662,0.351075,235.317,254.443
2013-12-27 17:00,0.299513,298.533,282.566,259.574,284.22,281.735,259.614,0.258773,0.32706,236.742,255.091
2013-12-27 18:00,0.274606,299.672,289.058,263.618,290.234,286.343,261.54,0.165911,0.282804,237.268,255.548
2013-12-27 19:00,0.303861,297.449,284.642,260.553,284.781,280.108,256.66,0.188288,0.3359,234.968,252.828
2013-12-27 20:00,0.337729,298.822,288.303,263.307,289.3,284.492,258.882,0.195335,0.367369,237.072,254.907
2013-12-27 21:00,0.442953,297.449,288.087,263.515,289.701,285.635,260.581,0.371371,0.512951,237.785,256.271
2013-12-27 22:00,0.41289,291.44,289.058,263.825,290.897,288.027,262.492,0.618512,0.673353,239.471,257.246
2013-12-27 23:00,-0.0,289.381,288.195,263.411,290.632,288.027,261.779,-0.0,-0.0,236.675,255.639
2013-12-28 00:00,0.00295753,286.717,283.726,260.876,284.079,278.911,255.406,-0.0,-0.0,233.382,252.244
2013-12-28 01:00,-0.0,284.57,281.86,259.574,282.946,278.307,256.035,-0.0,-0.0,234.472,253.021
2013-12-28 02:00,-0.0,286.421,284.3,260.661,285.201,281.146,257.034,-0.0,-0.0,234.113,253.69
2013-12-28 03:00,-0.00154383,286.864,284.982,261.305,286.31,282.613,257.53,-0.0,-0.0,233.308,252.146
2013-12-28 04:00,-0.0,284.888,281.148,259.024,281.799,277.243,253.753,-0.0,-0.0,231.552,250.442
2013-12-28 05:00,-0.0,280.427,272.527,253.621,271.464,267.506,248.903,-0.0,-0.0,227.147,244.412
2013-12-28 06:00,-0.0,275.48,263.245,247.859,261.791,256.928,240.06,-0.0,-0.0,225.931,240.316
2013-12-28 07:00,-0.0,283.924,279.336,257.798,279.466,274.304,252.464,-0.0,-0.00264408,230.593,249.617
2013-12-28 08:00,-0.0,280.239,275.951,255.626,275.55,270.473,249.838,-0.0,-0.0,230.018,248.669
2013-12-28 09:00,-0.129842,282.059,277.852,256.549,277.978,273.99,252.335,-0.183228,-0.218471,230.43,250.135
2013-12-28 10:00,0.495123,285.357,274.785,254.808,276.315,272.565,252.335,0.433675,0.540074,229.601,250.032
2013-12-28 11:00,0.481537,294.823,281.742,258.691,283.088,279.361,257.777,0.300061,0.483409,231.394,252.731
2013-12-28 12:00,0.500464,296.635,273.997,253.98,275.55,272.883,254.646,0.388042,0.497845,230.43,250.238
2013-12-28 13:00,0.454237,286.421,262.141,247.597,263.04,259.502,243.383,0.516885,0.579796,226.405,243.818
2013-12-28 14:00,0.302367,274.073,250.566,240.617,249.998,245.612,233.503,0.585326,0.642181,225.058,238.441
2013-12-28 15:00,0.269981,254.396,208.223,220.736,208.131,206.895,208.982,0.720412,0.792907,208.464,208.711
2013-12-28 16:00,0.246816,265.791,225.611,228.004,221.511,217.29,215.474,0.354184,0.421141,213.234,217.164
2013-12-28 17:00,0.361563,264.739,198.787,217.342,197.056,196.363,201.266,0.783954,0.871854,199.867,199.57
2013-12-28 18:00,0.446491,270.151,200.774,217.809,198.671,197.752,201.266,0.819093,0.918212,201.207,201.402
2013-12-28 19:00,0.592919,277.869,198.095,216.631,195.375,195.415,199.237,0.895037,1.01076,199.867,199.092
2013-12-28 20:00,0.815542,284.087,202.034,219.183,200.227,199.102,202.5,1.01169,1.1632,203.192,202.696
2013-12-28 21:00,1.24325,284.73,203.247,219.409,200.733,199.543,202.009,1.19155,1.43818,204.349,203.113
2013-12-28 22:00,0.762558,247.601,207.178,220.517,205.043,203.351,206.286,0.69731,0.893024,205.663,206.606
2013-12-28 23:00,-0.0,218.393,212.119,222.449,209.808,209.133,209.856,-0.0,-0.0,209.023,210.032
2013-12-29 00:00,-0.0,227.984,220.75,225.504,218.478,216.972,216.466,-0.0,-0.0,213.995,218.165
2013-12-29 01:00,-0.0,238.442,232.28,230.921,230.853,228.856,225.185,-0.0,-0.0,221.258,227.694
2013-12-29 02:00,-0.00169712,245.913,240.75,235.662,238.938,235.435,228.782,-0.0,-0.0,221.145,232.669
2013-12-29 03:00,-0.00154313,259.954,252.29,242.081,251.036,247.501,237.222,-0.0,-0.0,222.259,236.469
2013-12-29 04:00,0.00152525,254.396,241.682,235.985,239.669,235.677,227.26,-0.0,-0.0,220.686,230.183
2013-12-29 05:00,-0.0,248.394,243.719,237.728,242.283,238.282,230.276,-0.0,-0.0,221.484,234.082
2013-12-29 06:00,-0.00192803,238.442,231.997,231.098,230.012,226.151,221.23,-0.0,-0.0,219.137,226.379
2013-12-29 07:00,-0.00260804,239.711,231.713,230.921,228.293,223.905,219.551,-0.0,-0.0,217.229,225.21
2013-12-29 08:00,-0.00465091,238.442,227.845,228.564,225.615,222.462,218.218,-0.0,-0.0,214.734,221.658
2013-12-29 09:00,-0.0401959,227.984,216.471,223.283,214.89,212.673,211.992,-0.170169,-0.243481,211.636,214.787
2013-12-29 10:00,0.448223,256.062,228.769,228.934,225.919,223.332,218.792,0.559533,0.678761,215.734,221.213
2013-12-29 11:00,0.36671,255.521,226.261,227.438,223.758,221.283,217.832,0.535887,0.636222,216.56,220.989
2013-12-29 12:00,0.288468,255.521,230.85,229.847,229.444,227.787,223.413,0.494714,0.584307,219.744,225.994
2013-12-29 13:00,0.233208,254.396,233.116,231.45,232.772,230.688,225.883,0.410858,0.485498,221.371,228.423
2013-12-29 14:00,0.246066,290.171,279.336,256.434,279.76,276.015,255.406,0.164761,0.285174,230.101,247.151
2013-12-29 15:00,0.301572,288.012,276.718,255.043,278.427,275.551,256.16,0.294928,0.368178,231.552,248.241
2013-12-29 16:00,0.233987,298.726,288.195,262.155,288.493,283.484,259.127,0.0980776,0.221022,231.156,248.882
2013-12-29 17:00,0.21969,298.339,287.869,262.155,288.087,283.194,258.023,0.094039,0.213165,231.865,249.093
2013-12-29 18:00,0.27249,293.702,284.071,260.011,284.641,281.588,258.147,0.201586,0.302882,233.382,250.442
2013-12-29 19:00,0.160609,292.534,281.742,258.913,281.366,276.477,254.519,0.135988,0.194574,231.865,248.562
2013-12-29 20:00,0.527026,285.818,251.53,241.791,247.012,241.251,229.946,0.502262,0.617958,221.371,231.859
2013-12-29 21:00,1.21892,277.869,204.988,219.183,202.701,200.845,204.185,1.12654,1.36489,204.573,204.721
2013-12-29 22:00,0.646307,246.775,208.223,220.517,205.946,204.559,206.743,0.596975,0.830436,205.449,206.968
2013-12-29 23:00,-0.0,235.601,220.75,225.504,217.78,216.008,214.872,-0.0,-0.00630248,213.995,216.909
2013-12-30 00:00,-0.00297195,244.063,227.219,228.378,223.758,220.984,218.601,-0.0,-0.0,215.167,220.075
2013-12-30 01:00,-0.00207127,227.984,220.75,225.701,219.167,217.29,217.25,-0.0,-0.0,216.012,217.918
2013-12-30 02:00,-0.0,237.078,229.072,229.118,228.293,226.974,223.592,-0.0,-0.0,221.484,225.994
2013-12-30 03:00,0.00154227,259.954,249.583,240.021,248.733,244.973,236.307,-0.0,-0.0,224.86,235.887
2013-12-30 04:00,0.00152348,271.798,265.243,249.286,265.826,261.477,246.319,-0.0,-0.0,226.311,243.336
2013-12-30 05:00,-0.0,270.151,264.788,249.158,264.444,260.764,245.072,-0.0,-0.0,226.311,242.478
2013-12-30 06:00,-0.0019227,275.932,271.299,252.777,271.625,267.339,249.438,-0.0,-0.0,226.963,244.647
2013-12-30 07:00,-0.0,273.586,269.059,251.799,269.679,266.329,249.705,-0.0,-0.0,226.871,244.764
2013-12-30 08:00,-0.0,251.944,250.566,240.469,251.652,250.156,240.207,-0.0,-0.0,226.778,241.093
2013-12-30 09:00,-0.0749536,253.81,251.721,241.354,253.469,251.354,241.808,-0.126926,-0.113505,226.778,241.98
2013-12-30 10:00,0.754481,268.382,252.853,241.354,253.867,252.927,242.384,0.761667,0.878877,227.51,242.602
2013-12-30 11:00,0.545537,288.291,259.373,245.995,259.974,257.115,245.072,0.454977,0.559013,226.405,242.971
2013-12-30 12:00,0.397787,293.007,271.162,251.799,271.464,267.004,249.037,0.28379,0.409026,226.499,243.937
2013-12-30 13:00,0.381453,292.653,266.145,249.414,265.826,262.008,246.869,0.283679,0.396814,226.122,242.478
2013-12-30 14:00,0.409535,286.121,257.683,244.626,258.304,256.742,244.09,0.357389,0.43501,226.216,242.105
2013-12-30 15:00,0.388115,287.729,265.092,249.029,266.508,264.623,247.687,0.338514,0.415429,226.778,243.818
2013-12-30 16:00,0.306857,294.823,272.527,253.14,273.372,270.148,251.553,0.249031,0.326157,228.136,245.575
2013-12-30 17:00,0.248781,283.261,268.054,250.806,267.185,262.888,246.044,0.33455,0.395207,227.42,243.214
2013-12-30 18:00,0.320233,273.831,244.38,236.784,243.209,239.438,228.949,0.570211,0.645202,224.359,234.236
2013-12-30 19:00,0.59223,276.155,201.41,218.272,201.233,199.981,202.743,0.970023,1.08506,204.122,202.696
2013-12-30 20:00,0.843496,282.408,200.774,216.869,198.671,197.752,200.766,1.04734,1.2036,202.469,201.402
2013-12-30 21:00,1.15664,281.526,202.646,218.957,201.233,199.981,203.468,1.08051,1.30988,204.122,202.696
2013-12-30 22:00,1.30497,251.944,213.479,222.659,212.219,210.219,211.146,1.00884,1.51793,210.796,212.207
2013-12-30 23:00,-0.0,230.231,224.279,227.058,224.072,222.462,221.965,-0.0,-0.0,218.137,221.658
2013-12-31 00:00,0.00297842,247.601,240.75,234.35,240.152,238.978,233.026,-0.0,-0.0,224.86,232.022
2013-12-31 01:00,0.0020729,268.382,260.854,245.995,260.341,256.928,243.949,-0.0,-0.0,228.048,241.854
2013-12-31 02:00,-0.0,284.73,280.549,258.134,281.51,277.091,255.28,-0.0,-0.0,229.093,247.151
2013-12-31 03:00,-0.0,282.923,276.208,255.393,276.468,271.926,249.971,-0.0,-0.0,226.405,243.818
2013-12-31 04:00,-0.0,264.009,249.185,239.871,246.135,241.475,231.419,-0.0,-0.0,221.819,231.364
2013-12-31 05:00,-0.0,261.666,247.973,238.963,246.575,241.921,231.419,-0.0,-0.0,222.259,233.146
2013-12-31 06:00,-0.0,273.088,265.243,248.9,265.826,262.361,246.732,-0.0,-0.0,226.311,243.577
2013-12-31 07:00,0.00258533,267.444,265.846,249.029,268.024,266.329,251.683,-0.0,-0.0,228.575,247.151
2013-12-31 08:00,0.0045741,270.151,262.458,247.332,262.329,258.957,244.512,-0.0,-0.0,225.643,241.221
2013-12-31 09:00,-0.105194,280.799,273.599,253.621,274.156,268.835,248.094,-0.148446,-0.247799,227.601,243.698
2013-12-31 10:00,0.351772,282.753,272.256,253.261,270.819,265.99,247.279,0.277988,0.437999,225.739,241.728
2013-12-31 11:00,0.473882,288.841,268.054,250.429,267.69,262.888,246.044,0.329337,0.495004,227.329,241.854
2013-12-31 12:00,0.39871,294.933,282.682,259.244,284.079,280.406,257.158,0.275071,0.378296,229.769,248.348
2013-12-31 13:00,0.315149,296.114,284.869,260.769,285.201,280.257,255.909,0.1451,0.302034,228.488,247.151
2013-12-31 14:00,0.289121,299.013,286.661,261.625,287.27,282.758,258.147,0.122399,0.265235,229.601,248.455
2013-12-31 15:00,0.286444,296.738,279.213,257.685,281.51,278.307,258.147,0.198975,0.278559,230.511,249.198
2013-12-31 16:00,0.241929,295.69,283.841,259.902,285.479,281.882,258.882,0.148975,0.25359,231.943,250.238
2013-12-31 17:00,0.222993,294.713,282.916,259.464,282.66,277.853,255.406,0.141348,0.242347,230.755,248.348
2013-12-31 18:00,0.312953,286.569,259.206,245.314,254.066,247.085,234.447,0.295194,0.399088,222.04,234.389
2013-12-31 19:00,0.395735,288.43,253.04,242.513,249.157,241.475,230.276,0.394953,0.513423,223.013,234.236
2013-12-31 20:00,0.357067,293.702,273.065,254.099,270.495,264.279,246.732,0.300339,0.41977,228.136,244.998
2013-12-31 21:00,0.747127,285.512,259.54,245.177,257.55,254.855,241.519,0.661345,0.805696,223.329,236.757
2013-12-31 22:00,1.04356,256.589,224.616,226.866,223.443,220.984,219.172,0.837075,1.21988,217.229,219.843
2013-12-31 23:00,-0.0,249.156,231.997,230.743,227.414,225.318,221.965,-0.0,-0.0,215.024,220.075
