# timestamp,IR_016,IR_039,IR_087,IR_097,IR_108,IR_120,IR_134,VIS006,VIS008,WV_062,WV_073
2016-07-01 00:00,-0.160977,283.924,280.308,252.412,282.087,278.004,255.406,-0.0442972,-0.0812579,228.048,246.258
2016-07-01 01:00,-0.00263905,286.271,284.414,254.336,286.86,284.205,258.515,0.0,0.0,228.662,247.917
2016-07-01 02:00,0.00210879,284.888,281.267,253.02,283.656,279.361,255.658,0.0,-0.00212895,229.935,248.348
2016-07-01 03:00,0.0,286.121,284.071,254.336,286.447,284.061,258.515,0.0,0.0,230.593,249.198
2016-07-01 04:00,0.00186513,287.871,285.546,255.393,287.815,284.779,258.515,0.0,0.0,230.266,248.987
2016-07-01 05:00,0.0,285.357,283.148,254.217,285.895,282.613,257.9,0.0,0.0,230.184,248.987
2016-07-01 06:00,0.0,270.713,264.635,245.177,265.997,262.361,247.687,0.0,0.0,230.184,246.258
2016-07-01 07:00,0.0,284.888,280.909,252.534,283.23,279.361,255.909,0.0,0.0,230.348,248.241
2016-07-01 08:00,0.0,287.3,285.321,254.336,287.815,284.779,258.882,0.0,0.0,230.348,249.093
2016-07-01 09:00,1.03686,288.152,285.095,253.86,287.407,284.779,258.638,1.21932,1.10493,229.263,248.348
2016-07-01 10:00,0.232512,288.841,284.755,253.381,287.27,284.636,258.638,0.345612,0.281682,228.921,248.348
2016-07-01 11:00,0.0765282,289.514,285.433,253.86,287.951,284.922,258.882,0.168933,0.11313,229.007,248.348
2016-07-01 12:00,0.076535,289.91,285.208,253.621,287.27,284.349,258.147,0.136084,0.100447,228.835,248.133
2016-07-01 13:00,0.0566502,288.43,283.264,252.777,284.921,282.028,257.653,0.107599,0.0788319,227.78,247.04
2016-07-01 14:00,0.0694751,289.647,283.611,252.777,284.781,281.882,257.53,0.104074,0.0795811,228.312,247.481
2016-07-01 15:00,0.059839,288.291,281.624,251.922,282.803,280.108,255.784,0.0949979,0.0729966,228.488,246.371
2016-07-01 16:00,0.166559,273.088,255.05,239.419,255.244,252.536,239.47,0.226686,0.239149,226.871,238.578
2016-07-01 17:00,0.0737385,290.558,284.071,253.14,285.895,282.904,258.147,0.0985804,0.0809735,228.748,247.59
2016-07-01 18:00,0.12714,290.171,280.066,251.305,280.201,277.701,254.264,0.148018,0.13419,227.87,244.998
2016-07-01 19:00,0.317369,301.125,285.095,253.741,287.407,284.636,258.76,0.280528,0.26759,229.685,249.513
2016-07-01 20:00,1.04462,314.858,278.598,250.931,280.201,276.015,253.368,0.804797,0.826585,230.018,247.371
2016-07-01 21:00,2.36605,322.776,285.546,254.217,287.679,284.779,258.392,1.52556,1.65007,232.328,250.34
2016-07-01 22:00,2.04421,294.602,285.658,254.454,287.679,284.779,259.005,1.02801,1.37584,232.633,250.34
2016-07-01 23:00,-0.392509,287.871,285.321,253.86,287.543,284.779,258.638,-0.129242,-0.275181,232.481,249.825
2016-07-02 00:00,-0.160919,288.012,285.546,253.98,287.951,285.208,259.37,-0.0442813,-0.0893516,233.159,250.238
2016-07-02 01:00,-0.00263728,285.665,284.071,253.14,286.31,284.205,258.638,0.0,0.0,233.677,250.646
2016-07-02 02:00,0.0,284.73,282.682,252.656,285.757,283.629,258.515,0.0,0.0,234.543,250.95
2016-07-02 03:00,0.0,287.729,285.433,253.741,287.543,285.208,258.882,0.0,0.0,235.731,251.652
2016-07-02 04:00,0.0,288.291,285.994,254.099,288.087,285.35,258.882,0.0,0.0,235.799,252.146
2016-07-02 05:00,0.0,288.152,285.994,253.621,288.222,285.35,259.127,0.0,0.0,237.528,253.309
2016-07-02 06:00,0.0,288.705,286.55,254.099,288.763,286.202,259.492,0.0,0.0,239.471,254.999
2016-07-02 07:00,-0.00333219,288.705,286.772,254.099,288.897,286.343,260.098,0.0,0.0,240.253,255.821
2016-07-02 08:00,0.0,288.43,286.992,253.741,289.166,286.343,260.34,0.0,0.0,240.724,256.716
2016-07-02 09:00,0.244938,288.568,287.212,254.572,289.434,286.907,260.219,1.03694,0.680018,238.671,257.158
2016-07-02 10:00,0.0675026,289.514,287.541,254.808,289.3,286.767,260.701,0.219825,0.131054,237.977,257.246
2016-07-02 11:00,0.0301338,289.381,287.432,255.16,289.568,287.188,260.701,0.125252,0.0746718,237.203,257.421
2016-07-02 12:00,0.0210752,289.381,287.541,255.277,289.568,287.188,260.581,0.0892216,0.0502903,237.072,257.508
2016-07-02 13:00,0.0383083,290.558,287.541,255.51,289.968,287.888,261.301,0.0843326,0.0556914,236.004,257.682
2016-07-02 14:00,0.0507947,290.041,287.432,255.16,289.568,287.888,260.822,0.0860155,0.0661245,236.274,258.2
2016-07-02 15:00,0.0374082,290.041,287.651,255.51,289.968,287.888,261.421,0.0665143,0.0490956,236.274,258.628
2016-07-02 16:00,0.0160398,290.041,288.195,255.858,290.5,288.167,261.66,0.045966,0.0286493,236.341,258.967
2016-07-02 17:00,0.0362181,291.44,287.869,255.626,290.367,288.445,261.779,0.0602365,0.0430937,236.274,259.051
2016-07-02 18:00,0.069331,292.294,287.541,255.51,289.568,287.888,261.421,0.102729,0.0831176,235.455,258.713
2016-07-02 19:00,0.299809,301.037,287.322,255.626,289.434,287.748,261.898,0.280413,0.26924,235.108,258.798
2016-07-02 20:00,1.46023,324.8,288.087,255.742,290.234,288.167,261.66,1.0771,1.1276,234.897,259.051
2016-07-02 21:00,2.51586,331.667,288.52,256.089,290.632,288.445,261.54,3.1179,3.46245,234.686,258.713
2016-07-02 22:00,2.27633,295.902,288.087,256.434,290.367,288.445,261.66,1.08938,1.42382,233.896,258.543
2016-07-02 23:00,-0.414294,289.247,287.869,256.089,289.968,287.888,261.779,-0.129236,-0.264161,232.784,257.508
2016-07-03 00:00,-0.152777,288.152,287.212,255.858,289.434,287.609,261.66,-0.0442533,-0.0892952,232.784,257.421
2016-07-03 01:00,-0.00527001,289.381,288.195,256.32,290.5,288.445,262.017,0.0,0.0,233.896,257.855
2016-07-03 02:00,-0.0042093,288.152,287.432,255.393,289.568,287.888,261.421,0.0,0.0,234.401,257.942
2016-07-03 03:00,0.0,286.717,285.994,254.926,287.951,286.485,261.182,0.0,0.0,234.401,257.595
2016-07-03 04:00,-0.00185961,288.705,287.76,255.974,290.101,288.167,261.421,0.0,0.0,233.968,257.508
2016-07-03 05:00,0.00199818,285.202,284.869,253.98,286.997,285.493,260.942,0.0,0.0,234.401,257.508
2016-07-03 06:00,0.0,288.841,287.541,255.626,289.701,287.469,261.421,0.0,0.0,235.178,257.246
2016-07-03 07:00,0.0,288.705,287.432,255.393,289.434,287.048,261.182,0.0,0.0,235.317,257.421
2016-07-03 08:00,-0.00654368,285.357,285.095,254.454,287.134,285.493,260.701,0.0,0.0,235.108,257.246
2016-07-03 09:00,0.327446,289.247,287.651,255.51,289.968,287.609,261.421,1.05354,0.793383,235.247,256.982
2016-07-03 11:00,0.0659002,290.301,287.978,255.742,290.234,288.445,262.017,0.148794,0.102567,234.185,257.682
2016-07-03 12:00,0.251324,289.514,284.071,253.86,286.585,285.635,261.062,0.326503,0.325389,234.041,257.421
2016-07-03 13:00,0.0567425,291.809,286.992,255.626,289.568,287.469,261.54,0.099983,0.0727674,233.823,257.333
2016-07-03 14:00,0.090939,291.563,286.439,255.393,289.032,287.609,261.66,0.108703,0.0891081,233.75,257.333
2016-07-03 15:00,0.0760811,291.065,286.217,255.16,288.897,287.048,261.301,0.0950426,0.0730309,234.543,257.595
2016-07-03 16:00,0.032081,291.065,288.087,256.089,290.5,288.722,261.66,0.0553705,0.0373704,235.317,258.028
2016-07-03 17:00,0.0245738,291.065,288.628,255.974,291.16,289.276,262.017,0.0514691,0.0339488,235.799,258.286
2016-07-03 18:00,0.114079,294.491,287.978,255.51,290.5,288.722,262.136,0.124712,0.10788,233.603,256.805
2016-07-03 19:00,0.329319,304.319,288.303,255.626,291.029,288.999,262.136,0.289161,0.279695,235.247,256.982
2016-07-03 20:00,1.45482,325.394,288.412,255.393,291.423,289.413,262.136,1.06065,1.11993,235.662,256.36
2016-07-03 21:00,2.50266,331.738,288.736,255.393,291.555,289.551,262.255,2.44146,2.75806,237.398,256.45
2016-07-03 22:00,1.44629,293.587,0.0,255.043,291.423,289.689,261.898,0.837316,1.06077,0.0,256.628
2016-07-03 23:00,-0.381314,287.3,287.212,254.454,290.101,288.584,261.66,-0.129143,-0.263972,236.139,255.73
2016-07-04 00:00,-0.164689,288.012,287.432,254.572,290.367,288.584,261.54,-0.0442132,-0.0892144,233.968,253.405
2016-07-04 01:00,-0.00263222,288.841,287.76,254.808,290.632,288.306,261.301,0.0,0.0,233.085,252.146
2016-07-04 02:00,-0.00210208,287.444,286.55,254.808,289.968,287.748,261.421,0.0,0.0,232.709,251.552
2016-07-04 03:00,0.0,288.841,287.869,255.51,291.029,288.999,261.182,0.0,0.0,232.935,251.85
2016-07-04 04:00,0.0,285.818,285.77,254.69,288.897,287.469,260.942,0.0,0.0,232.935,252.146
2016-07-04 05:00,0.0,287.01,286.328,254.926,289.434,287.609,261.062,0.0,0.00201315,233.603,252.537
2016-07-04 06:00,0.00237593,287.3,286.661,255.626,289.568,287.748,261.062,0.0,0.0,233.968,253.021
2016-07-04 07:00,0.00330735,288.841,287.869,255.742,290.764,288.722,261.421,0.0,-0.00333897,234.113,253.117
2016-07-04 08:00,0.0,289.113,288.412,256.434,291.292,289.276,261.898,0.0,0.0,233.823,253.213
2016-07-04 09:00,0.352655,289.514,288.412,256.205,291.555,289.551,262.017,1.13465,0.925667,234.257,253.405
2016-07-04 10:00,0.0786927,289.779,288.52,256.32,291.555,289.826,262.017,0.239864,0.15889,234.686,253.974
2016-07-04 11:00,0.0853233,290.939,288.628,256.32,291.948,290.375,262.965,0.167791,0.119483,234.756,254.443
2016-07-04 12:00,0.0441852,290.685,289.058,256.892,292.209,290.648,262.847,0.110608,0.0717601,235.108,254.629
2016-07-04 13:00,0.0399056,290.939,288.951,256.778,292.34,290.921,262.61,0.0844699,0.0588811,235.525,255.091
2016-07-04 14:00,0.0173936,290.685,289.272,257.233,292.6,291.057,262.965,0.0566428,0.0351197,233.75,253.974
2016-07-04 15:00,0.0149702,290.429,289.058,257.233,292.34,290.648,262.61,0.0475322,0.0277077,233.677,253.88
2016-07-04 16:00,0.0259127,289.247,285.882,255.51,288.628,286.767,260.219,0.0564177,0.0411092,232.251,252.731
2016-07-04 18:00,0.0952846,290.429,283.38,254.808,285.201,282.758,258.27,0.121016,0.107856,231.156,251.452
2016-07-04 19:00,0.310049,300.589,287.322,257.233,290.101,288.445,262.017,0.286115,0.276084,231.315,254.349
2016-07-04 20:00,1.31091,322.685,285.658,256.32,288.087,285.919,260.098,0.984627,1.03883,230.511,251.452
2016-07-04 21:00,2.41997,310.254,281.029,254.336,283.938,282.904,259.977,1.72667,1.94899,231.787,253.309
2016-07-04 22:00,3.48543,298.918,277.852,252.656,280.054,275.706,254.009,1.83136,2.69521,230.593,250.238
2016-07-04 23:00,-0.522223,284.73,279.702,253.14,281.221,278.76,255.658,-0.147389,-0.274591,230.43,249.093
2016-07-05 00:00,-0.132398,283.924,277.35,252.29,279.17,276.784,254.009,-0.0407641,-0.0891091,229.601,249.303
2016-07-05 01:00,0.0,288.291,287.322,257.685,290.101,288.167,261.301,0.0,-0.00265407,230.674,251.751
2016-07-05 02:00,-0.00209918,289.113,287.978,257.798,291.029,288.999,261.421,0.0,-0.00211924,230.184,251.252
2016-07-05 03:00,0.0,288.012,287.322,257.685,290.367,288.445,261.182,0.0,0.0,230.018,251.252
2016-07-05 04:00,-0.00185312,289.247,288.303,258.358,291.029,288.999,261.898,0.0,0.0,229.433,251.352
2016-07-05 05:00,0.00198974,289.381,288.628,258.802,291.555,289.413,262.136,0.0,0.0,229.517,251.85
2016-07-05 06:00,0.0,287.587,287.651,258.58,290.897,288.999,262.61,0.0,0.0,229.935,252.047
2016-07-05 07:00,0.0,288.841,288.087,258.802,291.16,288.999,261.898,0.0,0.0,229.935,252.244
2016-07-05 08:00,-0.0064454,289.113,288.195,258.691,291.029,288.999,262.017,0.0,0.0,229.852,251.85
2016-07-05 09:00,1.07221,288.705,287.541,258.469,290.632,288.584,262.017,1.55629,1.31441,230.184,252.047
2016-07-05 10:00,0.184599,290.685,287.76,258.691,290.764,288.722,261.66,0.303668,0.228961,229.517,251.949
2016-07-05 11:00,0.201407,291.563,286.992,258.022,289.968,288.306,261.66,0.254629,0.220045,229.601,251.85
2016-07-05 12:00,0.0461691,290.939,288.195,258.802,291.292,289.137,262.373,0.10913,0.0737999,229.769,251.949
2016-07-05 13:00,0.019969,290.301,288.52,258.691,291.423,289.413,262.847,0.0728332,0.0434213,229.935,252.342
2016-07-05 14:00,0.0455121,291.19,288.412,258.802,291.555,289.689,262.492,0.0770701,0.0567583,230.266,253.5
2016-07-05 15:00,0.0162214,290.685,289.379,259.024,292.47,290.784,262.847,0.0496559,0.0302334,231.076,254.162
2016-07-05 16:00,0.0308498,291.686,288.951,259.024,292.209,290.375,262.492,0.057465,0.0423568,230.916,253.69
2016-07-05 17:00,0.0853445,293.472,288.303,258.913,291.555,290.238,262.728,0.0974429,0.0835494,231.394,254.536
2016-07-05 18:00,0.105368,294.933,289.058,259.244,292.34,290.784,262.847,0.119769,0.104919,232.02,254.814
2016-07-05 19:00,0.313441,301.999,288.52,259.024,291.686,290.238,262.847,0.283082,0.279519,230.916,254.162
2016-07-05 20:00,1.4866,326.348,289.486,259.244,292.34,291.057,263.2,1.08173,1.15703,231.865,254.907
2016-07-05 21:00,2.51249,331.561,289.486,259.134,292.6,290.921,262.847,2.63038,3.07752,232.02,255.366
2016-07-05 22:00,2.17642,296.943,289.165,259.134,292.6,291.057,263.905,1.0575,1.44817,231.473,254.907
2016-07-05 23:00,-0.434293,289.113,288.951,259.024,292.34,290.921,263.2,-0.1287,-0.263067,231.315,254.814
2016-07-06 00:00,-0.144224,288.43,288.736,258.58,291.948,290.648,263.083,-0.0440968,-0.0889795,230.674,254.814
2016-07-06 01:00,-0.00262516,288.012,287.978,258.469,291.16,289.689,262.728,0.0,-0.00265025,230.511,254.349
2016-07-06 02:00,-0.0041919,289.113,288.628,258.691,291.817,290.101,262.492,0.0,0.0,230.018,254.256
2016-07-06 03:00,-0.00188112,289.247,288.951,258.913,291.948,290.375,263.083,0.0,0.0,230.101,254.349
2016-07-06 04:00,0.0,289.514,289.165,258.913,292.209,290.648,263.318,0.0,0.0,229.093,254.162
2016-07-06 05:00,0.0,289.381,289.058,258.913,292.34,290.511,262.847,0.0,0.00200412,229.093,254.068
2016-07-06 06:00,-0.00236244,289.647,289.272,259.244,292.6,290.921,263.436,0.0,0.0,230.184,254.349
2016-07-06 07:00,-0.00328073,288.841,288.843,258.58,292.079,290.511,262.847,0.0,0.0,230.184,254.722
2016-07-06 08:00,0.0,289.647,289.272,258.802,292.34,290.784,262.847,0.0,0.0,229.935,254.443
2016-07-06 09:00,0.755801,289.247,287.978,258.022,290.897,288.861,262.255,1.56429,1.27171,229.852,253.785
2016-07-06 10:00,0.10076,290.685,289.165,258.802,292.079,290.375,262.965,0.237979,0.171323,230.43,254.536
2016-07-06 11:00,0.193602,292.174,287.651,257.346,290.5,289.413,262.61,0.245884,0.223375,231.236,254.907
2016-07-06 12:00,0.115581,291.809,288.628,257.572,291.686,289.964,262.61,0.154948,0.12252,231.394,254.256
2016-07-06 13:00,0.0,0.0,0.0,0.0,0.0,0.0,0.0,0.0,0.0,0.0,0.0
2016-07-06 14:00,0.0147313,290.685,289.272,258.358,292.209,290.648,263.553,0.0521598,0.0297443,231.865,254.162
2016-07-06 15:00,0.0124807,290.685,289.699,258.913,292.86,291.193,263.553,0.0433264,0.0226801,232.251,254.162
2016-07-06 16:00,0.0111064,291.065,289.593,259.024,292.86,291.193,263.67,0.0417946,0.0249169,232.481,254.629
2016-07-06 17:00,0.0581842,293.007,288.628,258.246,291.817,290.238,262.847,0.0733493,0.0587404,232.633,254.443
2016-07-06 18:00,0.0793722,293.24,288.628,258.246,291.686,289.551,262.728,0.0965298,0.078674,232.935,254.536
2016-07-06 19:00,0.191499,299.95,289.058,258.469,292.079,290.238,263.318,0.193096,0.177511,233.159,254.814
2016-07-06 20:00,1.50735,331.525,288.951,258.358,291.555,289.276,261.66,1.58639,1.72561,233.677,254.349
2016-07-06 21:00,2.4928,331.561,284.755,255.858,286.31,283.484,257.53,3.19557,3.48095,232.633,252.146
2016-07-06 22:00,1.42377,294.043,288.951,258.358,291.817,289.689,262.965,0.849094,1.04991,233.896,254.907
2016-07-06 23:00,-0.400627,289.381,287.978,258.022,290.632,288.445,261.301,-0.12835,-0.26235,233.085,254.629
2016-07-07 00:00,-0.127978,288.705,288.087,258.358,291.029,289.137,263.083,-0.0440206,-0.0888256,233.085,255.091
2016-07-07 01:00,-0.00524175,289.247,288.736,258.358,291.423,289.689,262.965,0.0,-0.00264593,233.085,255.091
2016-07-07 02:00,0.0,287.155,286.772,257.459,289.835,288.167,262.373,0.0,0.0,233.603,255.183
2016-07-07 03:00,0.0,284.249,284.528,256.089,287.27,286.343,261.421,0.0,0.0,233.823,255.091
2016-07-07 04:00,-0.00184568,284.249,282.331,255.16,285.061,283.339,259.005,0.0,0.0,232.481,253.595
2016-07-07 05:00,0.0,283.594,276.208,251.429,276.62,273.675,251.422,0.0,0.0,229.263,248.025
2016-07-07 06:00,0.0,289.247,288.412,258.58,291.292,289.413,263.2,0.0,0.0,233.456,255.821
2016-07-07 07:00,0.0,285.357,285.77,256.892,288.493,287.329,261.898,0.0,0.0,233.677,255.911
2016-07-07 08:00,0.0,288.291,287.978,258.022,290.5,288.722,262.492,0.0,0.0,234.615,256.36
2016-07-07 09:00,1.58414,289.113,288.628,258.469,291.16,289.276,263.2,1.89359,1.59929,235.108,256.894
2016-07-07 11:00,0.0138629,290.041,289.165,258.358,291.948,290.101,263.083,0.112682,0.0587809,235.108,256.894
2016-07-07 12:00,0.028935,290.813,288.303,258.358,291.16,289.276,262.255,0.0881971,0.0506334,236.004,256.539
2016-07-07 13:00,0.00923137,290.171,289.272,258.802,292.34,290.238,263.083,0.0573187,0.0295121,236.542,256.894
2016-07-07 14:00,0.00669912,289.91,288.52,258.134,291.423,289.276,262.61,0.0476459,0.0243474,235.936,256.091
2016-07-07 15:00,0.0174768,289.381,285.546,256.32,288.087,285.493,259.492,0.0486207,0.031507,235.317,254.814
2016-07-07 16:00,0.0259162,288.841,283.611,255.393,285.895,283.049,257.653,0.0522456,0.0386229,233.968,253.213
2016-07-07 17:00,0.020686,290.813,287.978,257.685,290.5,288.167,261.301,0.0481658,0.0313257,235.662,255.821
2016-07-07 18:00,0.0808018,291.686,283.032,255.16,284.22,280.998,255.909,0.098957,0.0859443,232.328,252.146
2016-07-07 19:00,0.156648,293.816,281.029,254.099,282.087,279.061,254.137,0.172424,0.159903,229.433,250.135
2016-07-07 20:00,1.50004,328.183,285.208,256.205,287.27,284.779,259.37,1.25021,1.36034,230.674,252.537
2016-07-07 21:00,2.49297,331.49,286.105,256.664,288.358,286.06,259.37,3.19578,3.47726,230.755,253.021
2016-07-07 22:00,1.352,291.44,283.611,255.277,285.618,283.049,257.406,0.913688,1.17709,229.852,251.552
2016-07-07 23:00,-0.453221,286.717,282.682,254.69,285.201,282.758,257.406,-0.146187,-0.283248,229.517,251.452
2016-07-08 00:00,-0.183599,288.705,287.432,257.233,290.5,288.584,261.54,-0.0473118,-0.0967065,230.184,254.256
2016-07-08 01:00,-0.00523221,288.012,285.658,256.089,288.222,285.777,259.735,0.0,0.0,229.007,252.342
2016-07-08 02:00,-0.00208854,288.012,285.77,256.089,288.628,286.343,259.492,0.0,0.0,228.575,251.751
2016-07-08 03:00,0.0,283.261,276.718,251.18,277.528,274.773,252.335,0.0,0.0,225.931,246.258
2016-07-08 04:00,-0.00184163,288.705,287.212,257.006,290.101,287.888,260.822,0.0,0.0,228.662,251.949
2016-07-08 05:00,0.0,288.152,286.105,256.549,288.897,286.626,260.219,0.0,0.0,229.007,251.949
2016-07-08 06:00,-0.00234785,288.977,287.541,257.233,290.367,288.306,261.66,0.0,0.0,229.263,252.828
2016-07-08 07:00,0.0,290.041,289.165,258.022,292.209,290.511,262.61,0.0,0.0,229.769,253.69
2016-07-08 08:00,0.0,289.113,288.736,257.798,292.079,290.238,262.847,0.0,0.0,230.184,254.068
2016-07-08 09:00,0.839571,289.514,288.843,257.572,292.079,290.238,262.965,1.77716,1.48329,230.348,254.162
2016-07-08 10:00,0.101904,290.171,288.52,257.346,291.555,289.689,262.492,0.236141,0.157025,230.996,254.629
2016-07-08 11:00,0.0639292,290.685,287.651,257.346,290.897,288.722,262.136,0.150619,0.106632,231.315,254.814
2016-07-08 12:00,0.0695398,290.939,286.439,256.434,289.968,288.167,261.898,0.125936,0.103357,230.674,254.536
2016-07-08 13:00,0.0138582,289.381,286.328,256.664,288.358,286.202,260.219,0.0677949,0.0404175,230.018,253.021
2016-07-08 14:00,0.171575,290.813,282.682,254.808,285.757,284.779,260.822,0.160027,0.148857,230.018,254.162
2016-07-08 15:00,0.0836572,287.155,281.624,254.572,284.921,284.349,260.701,0.0993768,0.0894991,229.769,253.785
2016-07-08 16:00,0.0814547,286.864,282.448,254.808,285.479,284.349,260.219,0.100316,0.0971849,229.935,253.213
2016-07-08 17:00,0.0956662,289.647,284.185,255.742,287.27,286.06,261.66,0.108365,0.104412,230.184,253.5
2016-07-08 18:00,0.138497,293.587,284.982,256.205,288.222,286.907,261.779,0.140474,0.133995,229.935,253.405
2016-07-08 19:00,0.224492,301.999,289.058,258.022,291.817,289.826,262.728,0.212179,0.198527,230.266,253.595
2016-07-08 20:00,1.50695,331.561,289.272,258.358,292.079,289.964,263.083,1.91787,2.04743,230.755,254.068
2016-07-08 21:00,2.50912,331.667,289.272,258.134,291.817,289.413,262.728,3.19656,3.45067,230.348,253.88
2016-07-08 22:00,1.90261,294.823,288.52,258.022,291.555,289.276,262.373,0.989727,1.20521,229.685,253.213
2016-07-08 23:00,-0.537355,288.012,286.439,256.778,289.166,286.767,260.34,-0.154693,-0.292946,229.517,251.352
2016-07-09 00:00,-0.175217,289.113,287.322,257.12,289.568,286.907,260.822,-0.0472041,-0.0924661,230.266,251.751
2016-07-09 01:00,0.0,287.871,286.439,256.778,288.897,285.35,259.37,0.0,0.0,230.101,251.452
2016-07-09 02:00,0.0,289.91,288.951,258.022,292.209,290.238,262.255,0.0,0.00210429,230.266,252.047
2016-07-09 03:00,0.0,289.647,288.736,258.022,292.079,289.826,261.779,0.0,0.0,229.433,250.849
2016-07-09 04:00,0.0,288.841,286.772,256.892,289.166,286.767,260.34,0.0,0.0,228.748,249.617
2016-07-09 05:00,0.00197,287.155,284.982,256.089,287.679,284.492,259.37,0.0,0.0,229.007,250.442
2016-07-09 06:00,0.0,288.977,287.322,257.12,290.234,288.027,261.779,0.0,0.00236254,229.348,250.849
2016-07-09 07:00,0.0,288.43,286.882,257.233,289.568,286.626,260.34,0.0,0.0,229.178,250.442
2016-07-09 08:00,0.0,288.012,286.661,257.12,289.032,286.06,260.098,0.0,0.0,228.921,250.238
2016-07-09 09:00,2.28888,286.271,284.869,255.742,287.679,286.343,261.062,2.44799,2.43238,228.921,251.352
2016-07-09 10:00,0.0863156,290.171,288.52,257.91,291.292,289.276,261.898,0.223817,0.136157,228.312,251.452
2016-07-09 11:00,0.044585,290.041,287.76,257.12,290.632,288.306,261.421,0.129766,0.0843961,228.662,251.152
2016-07-09 12:00,0.0135404,290.429,289.058,257.91,291.948,289.964,262.373,0.0769767,0.0410094,230.184,251.652
2016-07-09 13:00,0.0169514,290.813,289.165,257.91,292.209,290.238,262.492,0.0639349,0.0373384,229.935,251.949
2016-07-09 14:00,0.00670515,290.685,289.486,258.358,292.47,290.511,262.61,0.0454179,0.0216616,230.184,252.244
2016-07-09 15:00,0.00374664,290.429,289.593,258.246,292.73,290.784,262.728,0.0359525,0.0176515,229.769,252.146
2016-07-09 16:00,0.00370267,290.429,289.272,258.58,292.47,290.511,262.373,0.0323955,0.0137062,229.685,251.552
2016-07-09 17:00,0.040074,291.686,288.303,257.572,291.423,289.276,262.017,0.0623885,0.0469824,229.517,251.652
2016-07-09 18:00,0.096648,291.686,287.432,256.778,290.367,288.306,262.136,0.133129,0.11796,230.511,251.452
2016-07-09 19:00,0.247085,299.858,287.869,256.778,290.897,288.584,261.66,0.246039,0.233637,230.184,250.95
2016-07-09 21:00,2.5063,331.667,289.272,257.91,292.079,289.689,262.017,3.19793,3.45999,230.101,250.646
2016-07-09 22:00,1.88387,296.323,288.52,257.346,291.686,289.137,261.54,1.01409,1.3351,229.263,250.442
2016-07-09 23:00,-0.545509,287.01,284.071,254.926,286.31,281.882,257.158,-0.144904,-0.29156,229.685,249.617
2016-07-10 00:00,-0.135049,289.779,288.52,257.346,291.555,288.999,261.66,-0.0437206,-0.0922303,229.685,250.442
2016-07-10 01:00,0.0,290.041,288.951,257.233,292.079,289.964,261.779,0.0,0.0,229.685,250.442
2016-07-10 02:00,-0.00207989,287.587,286.772,256.434,290.101,288.027,261.421,0.0,0.0,229.935,250.238
2016-07-10 03:00,0.00186582,289.647,288.195,257.006,291.292,288.861,261.66,0.0,0.0,230.348,249.825
2016-07-10 04:00,0.00183288,290.041,288.736,257.459,291.948,289.826,261.779,0.0,0.0,230.43,249.825
2016-07-10 05:00,0.0,290.041,288.736,257.12,291.948,289.689,262.255,0.0,0.0,230.593,250.238
2016-07-10 06:00,0.0,289.91,288.628,257.459,291.948,289.551,261.898,0.0,0.0,230.996,250.646
2016-07-10 07:00,0.0,289.647,288.736,257.006,291.817,289.689,262.136,0.0,0.0,231.552,250.849
2016-07-10 08:00,0.0,289.91,288.843,257.459,291.817,289.964,261.66,0.0,0.0,231.315,250.442
2016-07-10 09:00,0.425566,289.91,288.736,257.12,291.948,289.689,262.017,2.16195,1.57532,230.916,250.748
2016-07-10 10:00,0.0325611,290.429,288.843,257.346,291.948,289.826,261.898,0.197581,0.109575,231.865,251.452
2016-07-10 11:00,0.0586675,291.44,288.412,257.006,291.817,289.689,262.136,0.139559,0.0874322,231.709,251.85
2016-07-10 12:00,0.0135592,290.558,289.058,257.346,292.34,290.238,262.847,0.0770836,0.0371553,231.156,251.85
2016-07-10 13:00,0.00771134,290.171,289.058,257.233,292.209,289.964,262.017,0.0574567,0.0280262,231.076,251.751
2016-07-10 14:00,0.00804975,290.813,289.165,257.572,292.079,289.964,262.373,0.046574,0.0243801,230.835,251.85
2016-07-10 15:00,0.00749486,290.813,289.165,257.459,292.47,290.101,262.492,0.0401906,0.0201774,230.593,251.751
2016-07-10 16:00,0.0185143,291.315,289.058,258.134,292.34,290.375,262.255,0.0428479,0.027414,230.266,251.252
2016-07-10 17:00,0.0206824,291.686,289.058,257.685,292.209,290.101,262.136,0.0459683,0.0287101,230.755,251.552
2016-07-10 18:00,0.0980812,292.889,288.303,257.12,291.292,289.276,261.54,0.118462,0.104843,230.593,251.949
2016-07-10 19:00,0.20531,300.589,288.843,257.346,291.948,289.551,262.017,0.201826,0.184437,229.935,251.152
2016-07-10 20:00,1.53523,331.949,288.951,257.346,291.948,289.551,262.136,1.35752,1.45511,230.593,251.452
2016-07-10 21:00,2.49617,331.596,288.303,257.233,291.292,288.999,261.54,3.19989,3.47388,230.835,250.442
2016-07-10 22:00,2.1419,295.26,288.087,257.12,291.16,288.722,260.822,1.10297,1.40365,230.835,250.34
2016-07-10 23:00,-0.478736,289.247,287.978,256.664,291.029,288.584,260.942,-0.144123,-0.289988,230.348,250.544
2016-07-11 00:00,-0.19012,289.113,287.541,256.778,290.5,288.027,260.822,-0.0536582,-0.103966,230.755,250.442
2016-07-11 01:00,-0.0025989,282.059,281.386,253.86,285.618,284.061,259.614,0.0,0.0,231.076,250.748
2016-07-11 02:00,0.0,289.381,287.102,256.549,289.835,286.626,260.581,0.0,0.0,231.315,250.849
2016-07-11 03:00,0.0,287.587,285.433,255.858,287.951,285.493,259.735,0.0,0.0,231.943,250.646
2016-07-11 04:00,-0.0018282,279.278,279.945,253.02,283.514,282.321,259.37,0.0,0.0,232.557,251.352
2016-07-11 05:00,0.0,286.717,284.869,255.51,287.407,285.065,259.735,0.0,0.0,232.557,251.552
2016-07-11 06:00,-0.00232408,289.247,286.992,256.089,289.434,286.343,260.098,0.0,0.0,233.968,251.85
2016-07-11 07:00,0.00320758,289.381,286.328,255.974,288.493,285.208,260.581,0.0,0.0,233.896,252.439
2016-07-11 08:00,0.0,289.247,286.661,256.434,288.628,285.493,260.461,0.0,0.0,233.456,251.949
2016-07-11 09:00,0.692628,287.444,285.208,255.742,287.679,285.065,260.461,2.4924,1.92294,232.935,251.751
2016-07-11 10:00,0.436781,290.041,282.682,254.69,286.172,284.349,259.856,0.429918,0.391349,231.236,249.825
2016-07-11 11:00,0.0196063,290.301,287.541,257.233,290.101,287.048,260.461,0.10909,0.0537257,230.996,250.135
2016-07-11 12:00,0.151298,291.686,286.217,256.32,288.358,285.919,260.461,0.188871,0.152745,231.709,250.544
2016-07-11 13:00,0.314873,290.429,282.799,254.808,286.033,284.061,259.492,0.386834,0.384887,231.315,249.721
2016-07-11 14:00,0.0442931,290.301,286.882,257.006,289.166,286.343,260.098,0.0750058,0.0501367,232.328,249.721
2016-07-11 15:00,0.012494,290.171,286.992,257.12,289.166,286.485,260.581,0.0433726,0.0239656,232.175,249.721
2016-07-11 16:00,0.0197498,291.315,286.661,257.006,289.166,286.343,260.219,0.0418052,0.023677,232.557,250.646
2016-07-11 17:00,0.0336077,291.563,283.611,255.277,285.201,281.441,256.909,0.0558167,0.0404538,233.308,249.825
2016-07-11 18:00,0.229321,294.602,282.448,254.217,285.34,283.194,259.249,0.207599,0.206761,234.472,251.152
2016-07-11 19:00,0.243582,300.317,286.992,256.434,289.3,286.343,260.581,0.231284,0.205511,236.139,252.537
2016-07-11 20:00,1.53784,329.369,287.432,256.549,289.568,286.626,260.701,1.36769,1.43166,237.913,252.828
2016-07-11 21:00,2.53319,331.561,287.76,256.434,290.101,287.188,260.581,3.20245,3.44523,238.231,253.405
2016-07-11 22:00,1.5102,292.414,286.772,256.549,289.166,286.202,260.219,0.852455,0.952897,238.041,252.731
2016-07-11 23:00,-0.539288,289.514,286.882,256.664,288.897,285.777,260.219,-0.152205,-0.29891,237.849,252.925
2016-07-12 00:00,-0.185584,289.514,286.992,256.664,288.897,286.06,260.219,-0.0534924,-0.103645,238.231,253.021
2016-07-12 01:00,-0.00259223,289.779,287.212,256.32,289.3,286.485,260.461,0.0,0.0,238.483,253.021
2016-07-12 02:00,0.0,289.779,287.651,256.434,289.968,287.188,260.461,0.0,0.0,238.483,253.5
2016-07-12 03:00,0.0,289.647,287.541,256.434,289.701,287.188,261.301,0.0,0.0,238.733,253.974
2016-07-12 04:00,0.0,289.514,287.322,256.549,289.701,287.048,260.581,0.0,0.0,238.795,254.443
2016-07-12 05:00,0.0,289.247,287.212,256.434,289.434,286.907,260.34,0.0,0.0,238.168,254.443
2016-07-12 06:00,-0.0023157,289.113,286.882,256.434,289.032,286.343,260.581,0.0,0.0,237.849,254.162
2016-07-12 07:00,-0.00319202,289.647,287.102,256.549,288.763,286.06,260.701,0.0,0.0,237.785,253.974
2016-07-12 08:00,0.0,286.271,283.264,254.454,284.501,281.735,258.27,0.0,0.0,237.977,253.785
2016-07-12 09:00,1.11629,282.234,278.474,252.168,280.493,278.307,257.158,3.78065,3.60629,236.071,251.252
2016-07-12 10:00,0.384543,287.871,280.669,253.86,283.088,280.998,258.392,0.418618,0.393765,235.038,250.646
2016-07-12 11:00,0.0702045,290.171,284.869,255.742,286.447,283.484,258.76,0.152172,0.0992259,236.808,252.537
2016-07-12 12:00,0.365176,293.816,278.35,252.777,281.51,279.511,257.9,0.348666,0.341213,236.675,252.244
2016-07-12 13:00,0.310487,280.982,274.655,250.555,276.62,275.085,255.532,0.462999,0.460047,236.675,249.928
2016-07-12 14:00,0.153079,291.809,284.3,255.742,286.447,283.917,259.37,0.1785,0.143697,233.53,250.95
2016-07-12 15:00,0.0924752,289.247,283.264,255.277,285.618,283.339,259.492,0.120622,0.0984056,233.382,250.95
2016-07-12 16:00,0.0666596,289.779,282.799,254.69,285.201,283.049,259.492,0.0825705,0.073528,235.178,252.244
2016-07-12 17:00,0.0685066,290.558,284.982,255.16,286.997,284.492,259.977,0.085365,0.0678566,238.041,253.974
2016-07-12 18:00,0.0331709,291.686,287.102,256.664,288.897,286.06,260.098,0.0598349,0.0407681,238.041,254.907
2016-07-12 19:00,0.231409,301.478,287.651,256.664,289.568,287.188,260.942,0.218032,0.198491,238.168,255.821
2016-07-12 20:00,1.51946,330.881,287.651,256.32,289.701,287.188,261.301,1.43566,1.48419,240.014,257.508
2016-07-12 21:00,2.46949,332.124,287.978,256.32,289.968,288.167,261.898,3.20563,3.55089,240.782,258.713
2016-07-12 22:00,3.1129,295.368,287.978,256.549,290.764,288.861,262.492,1.4357,1.82683,240.665,259.304
2016-07-12 23:00,-0.514673,287.587,287.432,256.205,290.764,289.413,262.728,-0.1334,-0.286306,240.724,259.304
2016-07-13 00:00,-0.161349,289.247,289.165,256.892,291.948,290.511,263.2,-0.0466487,-0.0953512,240.957,259.721
2016-07-13 01:00,-0.00258511,287.444,287.651,255.858,290.367,289.137,262.965,0.0,0.0,241.304,260.299
2016-07-13 02:00,-0.00206466,286.121,286.105,255.626,288.763,287.609,262.255,0.0,0.0,240.782,260.299
2016-07-13 03:00,0.00185189,288.841,288.412,256.778,291.029,289.413,262.61,0.0,0.0,240.253,260.052
2016-07-13 04:00,0.0,287.587,287.541,256.434,290.234,288.722,262.492,0.0,0.0,239.288,259.804
2016-07-13 06:00,0.0,288.012,287.978,256.549,290.764,289.276,263.083,0.0,0.0,239.593,260.299
2016-07-13 07:00,0.00317619,290.301,290.017,257.798,292.73,290.921,263.553,0.0,0.0,240.782,260.871
2016-07-13 08:00,-0.00602681,290.429,290.44,257.91,293.119,291.6,263.553,0.0,0.0,240.782,260.789
2016-07-13 09:00,5.37537,289.113,289.058,256.892,291.686,290.375,263.083,6.69311,7.6613,240.899,261.113
2016-07-13 10:00,0.0829192,291.19,290.229,258.022,292.73,291.193,263.67,0.238706,0.13952,240.957,261.113
2016-07-13 11:00,0.0394176,291.44,290.335,258.134,293.119,291.329,263.787,0.126347,0.0739038,241.419,261.113
2016-07-13 12:00,0.00972567,290.939,290.86,258.469,293.892,292.545,264.372,0.0774063,0.0412383,241.647,261.113
2016-07-13 13:00,0.00772964,290.939,290.965,258.358,294.149,292.948,264.138,0.0575932,0.0280927,241.647,260.952
2016-07-13 14:00,0.00940364,291.19,290.86,258.58,294.021,292.41,263.905,0.0466348,0.0244119,241.704,261.113
2016-07-13 15:00,0.00749954,290.813,290.44,258.469,293.248,291.735,263.67,0.0391574,0.02019,241.59,260.789
2016-07-13 16:00,0.00740712,291.19,289.911,258.802,292.86,291.057,263.2,0.0365843,0.0186948,241.131,259.804
2016-07-13 17:00,0.0116331,291.315,289.911,258.58,292.73,290.921,263.318,0.0404934,0.0221838,241.015,259.721
2016-07-13 18:00,0.0620146,293.702,289.699,258.691,292.47,290.648,262.728,0.0830354,0.0655194,240.957,260.052
2016-07-13 19:00,0.259269,302.68,289.593,258.58,292.209,290.375,263.083,0.240149,0.22837,241.304,259.887
2016-07-13 20:00,1.02195,311.101,288.628,257.91,291.292,289.551,263.083,0.799641,0.839605,241.647,260.217
2016-07-13 21:00,2.49972,331.525,290.017,258.469,292.73,290.784,263.553,3.20944,3.50393,241.647,260.381
2016-07-13 22:00,2.91595,296.427,288.628,258.134,291.423,289.826,263.083,1.39079,1.91541,241.361,259.97
2016-07-13 23:00,-0.417063,288.705,288.52,258.134,291.555,290.101,262.847,-0.123594,-0.263157,241.189,259.721
2016-07-14 00:00,-0.14508,289.647,289.165,258.246,292.209,290.238,263.2,-0.0464798,-0.0950059,241.015,259.051
2016-07-14 01:00,0.0,290.041,289.699,258.358,292.86,290.784,263.2,0.0,-0.00260217,241.533,259.051
2016-07-14 02:00,-0.00205902,290.041,289.699,258.691,292.73,290.784,263.083,0.0,0.0,241.817,258.967
2016-07-14 03:00,0.0,290.171,289.272,258.358,292.079,290.238,262.728,0.0,0.0,241.59,258.882
2016-07-14 04:00,0.0,290.171,289.272,258.469,291.948,289.964,262.728,0.0,0.0,241.704,258.798
2016-07-14 05:00,0.0,290.171,289.058,258.58,291.948,289.826,262.255,0.0,0.0,241.533,258.457
2016-07-14 06:00,0.0,290.041,288.951,258.469,291.555,289.276,262.728,0.0,0.0,241.704,258.798
2016-07-14 07:00,0.0,288.977,288.087,257.798,290.5,288.584,262.728,0.0,0.00319034,241.647,258.628
2016-07-14 08:00,-0.00597315,289.381,287.869,257.798,290.101,288.167,262.017,0.0,0.0,241.817,258.628
2016-07-14 09:00,2.18985,280.982,281.742,254.099,285.201,284.492,260.942,8.80716,6.63234,241.986,258.798
2016-07-14 10:00,0.628641,287.871,283.611,255.742,286.447,284.922,261.062,0.640608,0.617802,242.099,259.051
2016-07-14 11:00,0.54201,285.818,279.945,253.381,282.946,282.613,260.219,0.714671,0.740988,242.211,258.713
2016-07-14 12:00,0.22595,293.24,285.546,256.434,287.815,286.06,261.66,0.257281,0.212379,242.322,258.967
2016-07-14 13:00,0.0232071,290.558,288.303,257.572,290.234,287.888,261.898,0.0707378,0.0390482,242.266,258.713
2016-07-14 14:00,0.0456943,291.19,288.087,257.459,290.367,288.167,261.66,0.0785165,0.0542719,242.266,259.051
2016-07-14 15:00,0.00875127,290.171,288.628,257.346,290.632,288.445,262.255,0.0423411,0.0214563,242.82,259.22
2016-07-14 16:00,0.0111115,290.939,287.869,257.233,290.101,287.888,261.779,0.0470405,0.0274211,242.984,259.304
2016-07-14 17:00,0.0491182,292.053,286.992,256.664,289.166,287.188,262.017,0.0711379,0.0535026,242.655,259.22
2016-07-14 18:00,0.298541,294.268,284.071,255.626,286.722,285.635,261.301,0.293072,0.292659,242.875,259.387
2016-07-14 19:00,0.283668,303.428,288.303,257.572,290.234,288.027,262.136,0.259337,0.238943,242.6,259.471
2016-07-14 20:00,1.48074,324.714,288.412,257.685,290.234,288.027,262.255,1.09254,1.11286,242.82,259.387
2016-07-14 21:00,2.46804,330.7,288.52,257.798,290.632,288.445,262.492,3.21389,3.49697,242.984,259.22
2016-07-14 22:00,2.55186,296.84,288.736,257.91,291.029,288.999,262.492,1.12919,1.42406,242.378,259.22
2016-07-14 23:00,-0.403405,288.705,287.978,257.346,290.367,288.861,262.255,-0.122612,-0.261065,242.544,259.387
2016-07-15 00:00,-0.148423,289.779,289.165,257.685,291.555,289.826,262.965,-0.0462993,-0.0985802,242.765,260.052
2016-07-15 01:00,-0.00256952,289.91,288.951,257.459,291.686,289.689,262.847,0.0,0.0,242.929,259.887
2016-07-15 02:00,0.0,288.841,288.303,257.006,290.897,289.413,262.492,0.0,0.0,243.418,260.135
2016-07-15 03:00,0.0,288.43,287.869,256.892,290.632,288.999,262.61,0.0,0.0,243.686,259.97
2016-07-15 04:00,-0.00180753,286.121,285.994,255.51,288.897,287.748,262.017,0.0,-0.00182481,243.579,259.638
2016-07-15 05:00,0.0,290.041,289.272,257.459,292.209,290.511,262.373,0.0,0.0,243.364,259.721
2016-07-15 06:00,0.0,290.301,289.593,257.459,292.73,290.784,262.847,0.0,0.0,243.74,259.804
2016-07-15 07:00,0.0,289.91,289.165,256.892,291.817,289.964,262.61,0.0,0.0,243.793,259.804
2016-07-15 08:00,-0.00591945,289.91,288.843,257.12,291.423,289.551,262.847,0.0,0.0,243.686,259.804
2016-07-15 09:00,27.5229,288.841,287.869,256.549,290.367,288.861,262.255,34.0591,32.0608,244.006,259.554
2016-07-15 10:00,0.0839882,290.558,288.52,257.233,290.764,288.722,262.017,0.232301,0.158277,244.111,259.471
2016-07-15 11:00,0.271724,292.653,287.102,256.089,289.835,288.027,262.017,0.316344,0.274322,244.322,259.387
2016-07-15 12:00,0.292585,290.813,283.495,254.454,286.585,285.493,261.421,0.338566,0.344612,243.74,259.051
2016-07-15 13:00,0.309668,292.174,283.841,254.69,286.585,285.635,261.062,0.355275,0.342328,243.579,258.967
2016-07-15 14:00,0.243358,289.779,284.185,254.926,287.134,285.777,261.66,0.311922,0.331199,243.418,258.967
2016-07-15 15:00,0.138799,291.065,287.432,256.664,289.835,288.167,262.255,0.176811,0.169161,243.579,259.304
2016-07-15 16:00,0.21484,290.301,285.433,255.858,288.358,287.188,262.017,0.250903,0.249303,243.418,259.721
2016-07-15 17:00,0.0180967,291.19,289.379,257.798,292.209,290.511,263.083,0.0448728,0.0274045,243.793,260.052
2016-07-15 18:00,0.0461537,293.472,289.699,257.798,292.6,290.784,262.965,0.0720506,0.0538754,244.006,260.545
2016-07-15 19:00,0.238466,302.68,289.805,257.685,292.73,290.921,263.318,0.222541,0.209114,243.953,260.789
2016-07-15 20:00,1.42982,325.77,289.805,257.798,292.73,290.921,262.965,1.04536,1.10873,244.269,260.871
2016-07-15 21:00,2.46415,326.836,289.699,257.459,292.73,291.057,263.318,1.90424,2.2034,244.426,261.355
2016-07-15 22:00,2.39107,297.248,290.545,258.134,293.635,291.871,263.787,1.13811,1.53969,244.374,261.675
2016-07-15 23:00,-0.399952,290.301,290.017,257.572,292.86,291.464,263.553,-0.121563,-0.25883,244.531,261.993
2016-07-16 00:00,-0.147808,290.301,289.805,257.685,292.6,290.921,263.436,-0.0461076,-0.0981719,244.322,261.914
2016-07-16 01:00,-0.00512217,290.301,289.805,257.91,292.34,290.648,262.965,-0.00216847,-0.00258557,243.846,261.595
2016-07-16 02:00,0.0,289.779,289.699,257.91,292.47,290.511,263.436,0.0,0.00206648,243.74,261.435
2016-07-16 04:00,0.0,290.041,289.593,257.91,292.34,290.238,263.083,0.0,0.0,243.633,260.871
2016-07-16 05:00,-0.00192761,289.647,289.272,258.134,291.817,289.689,262.492,0.0,0.0,243.74,261.033
2016-07-16 06:00,-0.00228024,289.514,289.058,257.91,291.686,289.826,262.492,0.0,0.0,243.793,260.789
2016-07-16 07:00,0.0,289.113,288.628,258.022,291.029,288.861,262.373,0.0,0.0,243.846,260.708
2016-07-16 08:00,-0.0058658,289.779,288.951,258.358,291.423,289.413,262.373,0.0,0.0,243.899,260.545
2016-07-16 09:00,-2.22431,289.647,288.951,258.022,291.292,288.861,261.779,-14.1249,-10.1051,244.322,260.381
2016-07-16 10:00,0.197259,290.429,286.439,257.006,288.897,286.767,261.301,0.29109,0.221904,244.374,260.381
2016-07-16 11:00,0.0340562,290.301,287.978,257.798,289.968,287.469,261.301,0.127356,0.0687636,243.793,259.721
2016-07-16 12:00,0.0097664,289.91,287.76,257.459,289.434,287.048,261.182,0.0760766,0.0394391,243.256,258.713
2016-07-16 13:00,0.043387,290.685,284.528,256.205,285.895,283.049,258.882,0.0879034,0.062574,241.361,255.275
2016-07-16 14:00,0.0901206,282.059,269.908,249.029,271.303,268.173,251.683,0.133249,0.13172,239.774,252.047
2016-07-16 15:00,0.136327,279.278,275.436,250.806,277.075,276.631,257.034,0.292275,0.279047,243.526,256.628
2016-07-16 16:00,0.0222268,290.301,286.217,256.664,287.951,285.777,261.062,0.046003,0.029919,244.006,260.135
2016-07-16 17:00,0.0180975,290.813,287.76,257.12,289.434,287.048,260.822,0.0437804,0.0274058,244.006,260.545
2016-07-16 18:00,0.0331758,291.931,287.869,257.459,289.835,287.329,261.182,0.061065,0.0422303,243.793,260.135
2016-07-16 19:00,0.226337,301.478,288.303,257.572,290.234,288.027,262.017,0.215226,0.193347,243.418,260.052
2016-07-16 20:00,1.39311,323.934,289.272,258.134,291.686,289.551,262.61,1.02014,1.06194,242.984,259.97
2016-07-16 21:00,2.53519,322.135,287.432,257.006,290.234,288.722,262.136,2.07355,2.19944,242.6,259.471
2016-07-16 22:00,1.70795,292.414,287.76,257.459,290.764,289.689,262.373,0.949361,1.22411,242.099,259.304
2016-07-16 23:00,-0.538548,288.568,288.303,257.459,291.423,289.826,262.492,-0.14626,-0.297494,241.93,258.882
2016-07-17 00:00,-0.185884,289.381,289.058,257.91,292.079,290.375,262.965,-0.0524627,-0.10556,241.59,259.22
2016-07-17 01:00,-0.00255224,290.041,289.911,257.798,292.73,291.193,262.965,0.0,0.0,241.304,259.471
2016-07-17 02:00,0.0,289.514,289.272,257.459,292.34,290.784,263.318,0.0,0.0,241.304,260.463
2016-07-17 03:00,-0.00183036,290.685,290.44,258.134,293.248,292.006,264.022,0.0,0.0,241.189,259.97
2016-07-17 04:00,0.0,290.171,290.017,257.685,292.989,291.6,263.67,0.0,0.0,240.957,259.135
2016-07-17 05:00,0.0,289.779,289.486,257.685,292.209,290.648,262.728,0.0,0.0,240.253,257.421
2016-07-17 06:00,0.0,288.43,288.087,257.346,291.16,289.413,262.255,0.0,0.0,240.253,256.716
2016-07-17 07:00,0.0,289.779,288.843,257.798,291.423,289.689,262.255,0.0,0.0,240.312,256.628
2016-07-17 08:00,-0.00581225,288.705,288.195,257.346,290.897,288.999,262.492,0.0,0.0,240.489,256.36
2016-07-17 09:00,-3.06111,288.705,287.212,256.892,289.701,287.609,261.182,-5.9242,-5.29778,240.253,256.001
2016-07-17 10:00,0.351757,289.514,285.994,256.089,288.628,286.626,262.017,0.417925,0.37803,239.714,256.181
2016-07-17 11:00,0.179275,291.19,286.439,256.549,288.628,286.907,261.182,0.250577,0.203971,239.288,256.001
2016-07-17 12:00,0.0586799,291.065,287.541,256.549,289.568,287.329,261.301,0.127523,0.090836,239.714,256.091
2016-07-17 13:00,0.0325653,290.558,287.541,256.778,289.3,287.609,260.942,0.0853449,0.0563598,239.288,256.001
2016-07-17 14:00,0.0269129,290.685,288.087,257.12,290.234,288.584,261.898,0.0683613,0.0448308,239.043,256.001
2016-07-17 15:00,0.0275212,291.065,288.087,256.892,290.367,288.722,262.017,0.061433,0.0429394,239.166,255.821
2016-07-17 16:00,0.0333435,291.686,288.412,257.006,290.764,289.276,262.255,0.0606462,0.0448829,238.857,256.001
2016-07-17 17:00,0.0504178,292.889,288.303,256.778,290.764,289.276,262.136,0.0766206,0.0613407,238.546,255.911
2016-07-17 18:00,0.108195,296.114,288.412,257.006,290.5,288.861,262.373,0.120923,0.107773,238.671,256.36
2016-07-17 19:00,0.294328,303.755,288.303,257.006,290.367,288.999,262.373,0.261004,0.251428,238.546,256.539
2016-07-17 20:00,0.878416,315.481,288.087,257.12,290.5,288.584,262.255,0.663994,0.682347,238.483,256.539
2016-07-17 21:00,2.18692,322.411,288.195,256.892,290.101,288.445,261.898,1.3929,1.52605,238.733,256.271
2016-07-17 22:00,1.75073,296.635,288.087,256.892,289.968,288.445,262.136,0.880488,1.26248,238.608,256.091
2016-07-17 23:00,-0.543366,286.717,285.994,255.742,288.493,287.188,262.017,-0.144836,-0.294597,238.357,255.73
2016-07-18 00:00,-0.208148,282.234,282.682,254.454,285.757,285.065,261.421,-0.0554826,-0.10896,238.857,255.911
2016-07-18 01:00,-0.00254298,284.41,283.38,254.926,286.585,285.635,261.062,0.0,0.0,239.166,256.181
2016-07-18 02:00,-0.00203377,289.514,287.869,256.664,290.234,288.861,262.255,0.0,0.0,239.41,256.271
2016-07-18 03:00,0.0,287.3,284.869,255.277,287.27,285.208,259.614,0.0,0.0,239.349,255.911
2016-07-18 04:00,0.00179021,289.514,288.087,256.778,290.5,288.722,262.136,0.0,0.0,239.653,256.271
2016-07-18 05:00,-0.00191399,289.647,288.628,256.892,290.897,289.551,262.61,0.0,0.0,239.532,256.716
2016-07-18 06:00,0.0,289.514,288.52,257.233,291.16,289.276,261.898,0.0,0.0,239.349,256.181
2016-07-18 07:00,0.00309399,289.514,288.303,257.233,290.764,288.999,262.255,0.0,0.0,239.954,256.181
2016-07-18 08:00,0.0,289.247,288.303,256.892,290.632,288.722,262.136,0.0,0.0,240.665,256.805
2016-07-18 09:00,-1.6263,288.568,287.322,256.549,289.701,287.888,261.779,-3.44245,-3.01004,240.957,256.982
2016-07-18 10:00,0.119947,290.301,288.087,256.664,290.367,288.584,262.373,0.275659,0.207589,240.665,256.805
2016-07-18 11:00,0.068479,290.685,288.195,256.664,290.367,288.722,261.779,0.171527,0.120984,241.361,257.07
2016-07-18 12:00,0.054844,290.685,287.869,256.089,290.101,288.722,261.779,0.1277,0.0889847,241.817,258.028
2016-07-18 13:00,0.0465573,290.939,287.978,256.205,290.234,288.861,261.54,0.103806,0.0752038,242.155,258.2
2016-07-18 14:00,0.0390399,291.19,288.303,256.32,290.632,289.551,262.373,0.0843472,0.0611582,242.378,258.2
2016-07-18 15:00,0.0475468,291.315,287.869,256.32,290.101,289.137,261.421,0.0815749,0.0631596,242.042,258.028
2016-07-18 16:00,0.0568135,292.414,287.978,256.089,290.367,289.137,262.492,0.083659,0.0698254,242.155,257.942
2016-07-18 17:00,0.0762796,293.356,288.087,255.858,290.234,289.276,262.492,0.10071,0.0874506,242.433,257.855
2016-07-18 18:00,0.158711,297.045,288.087,255.974,290.764,289.826,262.373,0.160035,0.152945,242.322,257.855
2016-07-18 19:00,0.33625,303.346,287.76,256.089,290.367,289.413,262.373,0.295028,0.293733,242.155,257.942
2016-07-18 20:00,0.773108,311.863,288.087,256.32,290.632,289.551,262.728,0.592722,0.623447,242.71,258.114
2016-07-18 21:00,1.8455,319.299,288.412,256.549,291.029,290.101,263.083,1.15944,1.32287,242.655,258.2
2016-07-18 22:00,1.83571,296.531,287.432,256.32,290.234,289.137,262.492,0.923563,1.41008,241.76,257.942
2016-07-18 23:00,-0.428223,288.291,287.541,256.32,290.101,288.999,262.61,-0.12648,-0.251347,240.899,257.333
2016-07-19 00:00,-0.157265,284.57,284.982,254.808,287.951,287.188,261.898,-0.0454679,-0.0968099,240.782,257.246
2016-07-19 01:00,-0.00506668,289.381,288.52,256.434,291.292,290.101,263.083,0.0,-0.00255756,240.957,257.769
2016-07-19 02:00,0.0,288.977,288.52,256.205,291.16,289.689,262.728,0.0,0.0,240.841,257.855
2016-07-19 03:00,0.0,289.247,288.412,256.32,291.029,289.689,263.083,0.0,0.0,240.371,257.682
2016-07-19 04:00,0.0,289.514,288.736,256.664,291.292,290.238,262.492,0.0,0.0,240.134,257.595
2016-07-19 05:00,0.0,289.514,288.736,256.549,291.292,290.101,262.61,0.0,0.0,239.954,257.158
2016-07-19 06:00,0.0,289.514,288.843,256.778,291.555,290.238,262.847,0.0,0.0,239.954,257.421
2016-07-19 07:00,0.0,287.871,287.76,256.205,290.367,289.413,262.61,0.0,0.0,239.894,257.158
2016-07-19 08:00,0.0,288.977,288.412,256.664,291.16,289.964,262.017,0.0,0.0,239.774,256.894
2016-07-19 09:00,-1.56681,287.01,286.439,255.742,289.568,288.445,262.255,-2.81906,-2.76813,239.593,257.07
2016-07-19 10:00,0.115015,290.813,288.951,257.233,291.555,290.238,262.136,0.267803,0.197394,239.714,257.158
2016-07-19 11:00,0.231741,292.174,287.541,256.664,290.367,289.137,262.61,0.280999,0.259952,239.653,257.421
2016-07-19 12:00,0.133377,292.294,287.651,256.778,290.764,289.413,262.61,0.182681,0.154454,240.014,257.421
2016-07-19 13:00,0.054358,291.44,287.76,257.006,290.367,288.306,262.136,0.0986247,0.070557,239.954,256.36
2016-07-19 14:00,0.044443,291.065,287.541,256.32,289.968,287.888,261.182,0.084382,0.0611834,239.288,256.001
2016-07-19 15:00,0.0362935,290.813,287.651,256.549,289.835,287.888,261.182,0.0709961,0.0505385,238.795,255.73
2016-07-19 16:00,0.0568202,291.44,285.77,255.51,288.222,285.919,260.219,0.0815771,0.0685867,238.857,255.366
2016-07-19 17:00,0.0711157,293.472,287.541,256.664,290.234,288.999,262.136,0.0930573,0.0796278,238.733,255.548
2016-07-19 18:00,0.122664,296.531,287.651,256.549,290.101,288.445,261.062,0.134406,0.120923,238.857,255.366
2016-07-19 19:00,0.299792,303.51,288.087,256.664,290.367,288.722,261.421,0.265639,0.258667,238.733,255.183
2016-07-19 20:00,0.887106,315.086,286.772,256.32,289.166,287.188,260.701,0.665213,0.693127,238.671,254.536
2016-07-19 21:00,1.65672,309.317,273.199,249.924,274.778,271.765,252.723,1.29587,1.56504,238.919,253.021
2016-07-19 22:00,2.13936,290.301,272.256,249.414,274.0,270.798,252.723,1.2076,1.86097,238.981,252.244
2016-07-19 23:00,-0.551634,276.376,270.468,248.642,272.264,268.67,251.159,-0.141788,-0.288399,238.981,251.751
2016-07-20 00:00,-0.198433,274.314,268.487,247.597,270.495,267.171,251.028,-0.0516964,-0.104018,239.104,251.352
2016-07-20 01:00,-0.00252332,265.095,260.036,243.084,262.15,260.584,247.823,0.0,0.0,239.532,250.135
2016-07-20 02:00,0.0,272.061,264.482,245.587,265.997,262.888,247.823,0.0,0.0,239.954,250.95
2016-07-20 03:00,0.00181222,266.797,260.692,243.509,262.329,260.045,247.823,0.0,0.0,239.714,249.825
2016-07-20 04:00,-0.0017779,272.58,265.696,245.723,267.016,263.586,249.037,0.0,0.0,240.014,250.34
2016-07-20 05:00,-0.00189981,281.526,277.977,252.045,279.613,276.477,255.532,0.0,0.0,239.834,252.244
2016-07-20 06:00,0.0,284.41,280.789,253.261,282.517,279.061,255.909,0.0,0.0,240.074,252.828
2016-07-20 07:00,-0.00612014,279.473,272.662,249.542,274.312,269.821,251.028,0.0,0.0,239.774,251.452
2016-07-20 08:00,0.0,289.514,287.102,256.205,289.3,287.748,260.701,0.0,0.0,240.253,254.536
2016-07-20 09:00,-0.765076,288.012,285.994,255.858,288.493,286.767,260.822,-1.81381,-1.54478,240.193,254.349
2016-07-20 10:00,0.231618,290.558,286.439,256.089,288.628,286.767,260.34,0.352999,0.280598,240.489,254.349
2016-07-20 11:00,0.106144,290.939,286.992,256.32,288.897,287.188,260.822,0.208892,0.156394,240.665,254.443
2016-07-20 12:00,0.0707088,290.558,285.994,255.393,287.815,285.919,259.977,0.143021,0.105094,240.607,254.349
2016-07-20 13:00,0.0466277,290.813,287.102,256.32,289.3,287.329,260.822,0.102647,0.0737484,240.665,255.091
2016-07-20 14:00,0.0471558,291.065,287.102,256.205,289.434,287.469,260.581,0.0878389,0.0639289,240.841,255.275
2016-07-20 15:00,0.0525745,291.315,287.102,256.32,289.434,287.888,261.182,0.0826702,0.0644508,240.724,255.275
2016-07-20 16:00,0.0444738,291.563,287.76,256.778,289.968,288.306,261.421,0.0753118,0.0586181,240.665,255.639
2016-07-20 17:00,0.0750045,293.007,287.212,256.549,289.568,287.748,261.301,0.0952592,0.0809436,241.015,255.366
2016-07-20 18:00,0.105371,294.602,287.76,256.664,290.101,288.167,261.54,0.125882,0.109293,240.665,255.73
2016-07-20 19:00,0.402826,302.764,284.869,255.742,288.087,286.767,261.421,0.344025,0.352101,240.724,256.271
2016-07-20 20:00,1.03214,305.261,281.86,254.572,285.618,285.493,261.062,0.819916,0.898939,240.899,256.894
2016-07-20 21:00,2.59849,329.067,288.736,257.572,291.16,289.551,261.779,1.98917,2.26397,241.189,257.246
2016-07-20 22:00,2.13882,291.563,282.566,254.808,286.447,285.777,261.421,1.09579,1.62289,241.304,257.769
2016-07-20 23:00,-0.428495,289.113,288.195,257.233,290.897,289.276,262.492,-0.131929,-0.275285,241.647,258.114
2016-07-21 00:00,-0.189776,279.278,281.148,253.86,284.781,284.779,261.062,-0.0514185,-0.111122,242.322,259.471
2016-07-21 01:00,-0.00251293,283.594,283.264,255.043,286.86,286.202,261.898,0.0,0.0,242.378,259.804
2016-07-21 02:00,-0.00201225,278.684,280.187,253.86,284.361,284.492,261.421,0.0,0.0,242.6,259.804
2016-07-21 03:00,0.0,281.165,282.448,254.572,286.033,285.493,261.66,0.0,0.0,242.765,260.299
2016-07-21 04:00,0.0,289.247,288.52,257.572,291.292,289.826,262.728,0.0,0.0,242.655,260.299
2016-07-21 05:00,0.0,285.512,286.105,256.205,288.628,288.027,262.61,0.0,0.0,243.093,260.545
2016-07-21 06:00,0.0,289.113,288.628,257.346,291.423,289.964,262.847,0.0,0.0,243.364,261.194
2016-07-21 07:00,0.0,289.514,289.058,257.685,291.817,290.375,262.728,0.0,0.0,243.579,260.952
2016-07-21 08:00,-0.0112007,289.113,289.272,257.685,291.948,290.238,262.728,0.0,0.0,244.217,261.113
2016-07-21 09:00,-0.87758,289.113,288.951,257.685,291.817,290.238,262.847,-1.59224,-1.39224,244.374,261.194
2016-07-21 10:00,0.0816321,290.429,289.272,257.798,292.209,290.511,263.2,0.222164,0.141279,244.997,261.834
2016-07-21 11:00,0.0632841,290.813,288.951,257.572,291.817,289.826,262.728,0.14857,0.101642,244.739,261.515
2016-07-21 12:00,0.011801,290.429,289.593,258.022,292.34,290.511,263.083,0.0816006,0.0436841,244.479,261.275
2016-07-21 13:00,0.0466626,291.563,287.432,257.006,290.234,288.306,261.779,0.0895541,0.0628116,244.374,260.871
2016-07-21 14:00,0.183309,295.26,280.669,253.98,284.361,283.339,260.461,0.170043,0.178258,244.058,260.952
2016-07-21 15:00,0.0413178,291.809,287.102,256.664,289.701,287.469,262.017,0.0625466,0.0417127,244.322,261.194
2016-07-21 16:00,0.00370668,290.429,289.058,257.459,291.292,289.276,262.492,0.0334767,0.0162158,244.269,261.194
2016-07-21 17:00,0.0543219,291.315,288.087,257.459,290.632,288.584,261.898,0.085418,0.0613699,244.374,261.113
2016-07-21 18:00,0.0750794,293.124,288.412,257.798,291.029,288.999,262.492,0.0965768,0.0772547,244.79,261.595
2016-07-21 19:00,0.198908,300.769,289.272,258.134,291.948,289.551,262.728,0.195007,0.17791,245.048,261.755
2016-07-21 20:00,1.28876,322.457,289.593,258.246,292.079,290.238,262.61,0.951035,1.00266,245.151,261.993
2016-07-21 21:00,2.55841,331.984,288.951,257.572,291.686,289.964,263.083,3.26441,3.55595,245.099,261.834
2016-07-21 22:00,4.44588,299.203,288.736,257.346,291.555,289.689,262.728,1.71849,2.45327,244.997,262.309
2016-07-21 23:00,-0.433022,289.647,289.272,257.685,292.079,290.238,263.318,-0.122213,-0.242868,244.79,262.23
2016-07-22 00:00,-0.173614,289.381,289.272,257.572,292.079,290.511,263.083,-0.0479345,-0.099068,244.79,262.151
2016-07-22 01:00,-0.00250219,289.514,289.593,257.685,292.34,290.375,263.318,0.0,0.0,244.479,261.675
2016-07-22 02:00,-0.00400927,289.247,288.736,257.346,291.686,289.964,262.61,0.0,0.0,244.322,261.275
2016-07-22 03:00,-0.00179929,289.381,289.058,257.572,291.948,290.375,263.083,0.0,0.0,244.635,261.113
2016-07-22 04:00,0.0,289.647,289.165,257.459,291.686,289.964,262.965,0.0,0.0,244.842,261.275
2016-07-22 05:00,-0.00188514,289.647,288.736,257.798,291.555,289.689,262.492,0.0,0.0,245.151,261.355
2016-07-22 06:00,0.0,287.155,286.439,255.974,289.032,287.188,261.898,0.0,0.0,245.405,261.834
2016-07-22 07:00,-0.00302579,289.113,288.628,257.346,291.029,289.137,262.847,0.0,0.0,245.099,261.755
2016-07-22 08:00,0.0,275.932,277.727,251.676,280.639,280.406,259.37,0.0,0.0,245.099,261.755
2016-07-22 09:00,-0.848502,282.059,281.029,253.381,283.938,282.904,259.977,-1.52665,-1.392,245.048,261.755
2016-07-22 10:00,0.229008,290.813,286.772,256.205,288.493,286.907,261.898,0.313224,0.237125,245.048,262.23
2016-07-22 11:00,0.023075,290.301,289.165,257.459,291.555,289.413,262.847,0.114783,0.058239,244.739,262.309
2016-07-22 12:00,0.0905987,291.315,287.869,256.778,290.5,288.722,262.373,0.150084,0.13322,244.894,262.309
2016-07-22 13:00,0.0233487,290.813,288.736,257.233,291.16,289.137,262.847,0.0672155,0.0392864,245.859,262.545
2016-07-22 14:00,0.00674205,290.301,289.911,257.459,292.47,290.648,263.553,0.0433845,0.0217808,246.009,262.623
2016-07-22 15:00,0.00500936,290.301,289.593,257.346,291.948,289.964,262.728,0.0371124,0.0177004,246.406,263.09
2016-07-22 16:00,0.0111218,290.685,288.52,256.892,290.764,288.861,262.492,0.0376672,0.0212086,246.258,263.399
2016-07-22 17:00,0.0142297,291.065,289.058,257.233,291.16,289.137,262.965,0.0427166,0.0248136,246.456,263.706
2016-07-22 18:00,0.103989,293.007,287.978,257.006,289.968,288.445,262.492,0.121065,0.104983,246.208,263.552
2016-07-22 19:00,0.221729,294.38,285.433,255.858,288.087,286.767,262.255,0.246868,0.241475,246.059,263.629
2016-07-22 20:00,0.691392,308.769,286.661,256.089,288.763,287.329,261.898,0.619482,0.614337,245.557,263.244
2016-07-22 21:00,2.55446,331.596,289.593,257.685,291.817,289.964,262.492,3.27461,3.59918,245.253,263.167
2016-07-22 22:00,1.09265,292.653,289.486,257.572,291.948,290.101,263.2,0.687931,0.806111,244.997,263.167
2016-07-22 23:00,-0.418157,289.514,289.593,257.572,292.079,290.238,263.083,-0.1207,-0.249455,244.374,263.09
2016-07-23 00:00,-0.146336,289.381,288.951,257.346,291.686,289.964,263.083,-0.0444777,-0.0947017,244.058,262.623
2016-07-23 01:00,-0.00249111,287.729,287.869,256.778,290.101,288.445,262.847,0.0,-0.00251492,243.579,261.834
2016-07-23 02:00,0.0,289.91,289.058,257.685,291.16,289.137,262.373,0.0,0.0,243.364,261.435
2016-07-23 03:00,0.0,283.76,284.185,255.16,286.033,284.636,261.182,0.0,0.0,243.039,260.871
2016-07-23 04:00,0.0,288.841,288.195,257.346,290.5,288.167,262.255,0.0,-0.00177524,243.364,260.871
2016-07-23 05:00,0.0,289.779,289.272,257.91,291.686,289.689,263.2,0.0,0.0,243.093,261.194
2016-07-23 06:00,-0.00221247,286.717,286.882,257.346,289.032,287.888,262.255,0.0,0.0,243.147,261.113
2016-07-23 07:00,-0.00300856,289.91,289.699,258.469,292.209,290.511,263.083,0.0,0.0,243.147,261.355
2016-07-23 08:00,0.00549644,288.152,287.541,257.12,290.5,288.584,262.492,0.0,0.0,242.984,261.194
2016-07-23 09:00,-0.36731,288.841,288.628,258.246,291.423,289.826,263.2,-1.0885,-1.01976,242.6,261.275
2016-07-23 10:00,0.029569,0.0,289.699,258.802,292.209,290.375,262.965,0.200288,0.107466,242.82,261.275
2016-07-23 11:00,0.0925515,291.315,289.379,258.802,291.948,290.511,263.318,0.166522,0.125555,243.039,261.113
2016-07-23 12:00,0.043389,291.563,289.805,258.802,292.47,290.784,263.436,0.100193,0.0637146,242.929,261.113
2016-07-23 13:00,0.017135,291.19,289.911,258.913,292.86,290.921,263.905,0.0659463,0.0361703,242.984,261.275
2016-07-23 14:00,0.0215834,291.44,290.017,258.691,292.86,291.464,263.67,0.0559659,0.0354082,242.82,261.275
2016-07-23 15:00,0.0288106,291.315,289.593,258.469,292.47,290.648,263.787,0.056212,0.0392029,243.256,261.595
2016-07-23 16:00,0.0383149,291.44,289.486,258.358,292.209,290.648,263.436,0.0680218,0.0499112,242.929,261.435
2016-07-23 17:00,0.119037,289.779,286.55,257.233,289.3,288.167,262.847,0.164328,0.171118,243.418,261.595
2016-07-23 18:00,0.0837985,294.38,289.805,258.691,292.47,291.193,263.2,0.100312,0.0845996,243.147,261.834
2016-07-23 19:00,0.206159,301.74,290.756,259.134,293.892,292.276,264.372,0.198223,0.1852,243.364,262.072
2016-07-23 20:00,1.12155,320.092,290.44,259.244,293.635,292.141,264.022,0.845221,0.90247,243.31,261.993
2016-07-23 21:00,2.56703,332.019,290.86,259.134,293.892,292.276,264.372,3.2856,3.61933,243.472,262.151
2016-07-23 22:00,4.46771,299.013,289.486,258.469,292.34,291.193,263.787,1.6866,2.48504,243.039,261.755
2016-07-23 23:00,-0.487834,289.91,289.805,258.469,292.47,290.921,263.67,-0.135035,-0.274662,243.31,262.23
2016-07-24 00:00,-0.20885,289.779,290.017,258.691,293.119,291.6,263.787,-0.0536814,-0.109188,243.147,261.993
2016-07-24 01:00,-0.0024797,290.041,290.123,258.691,292.989,291.464,263.787,0.0,-0.00250341,242.984,261.755
2016-07-24 02:00,0.00198879,289.779,289.593,258.358,292.6,290.921,263.436,0.0,0.0,242.875,261.355
2016-07-24 03:00,-0.00178576,289.381,289.486,258.358,292.34,290.648,263.67,0.0,0.0,242.266,261.033
2016-07-24 04:00,0.0,289.779,289.486,258.691,292.209,290.784,263.318,0.0,0.0,241.817,260.627
2016-07-24 05:00,0.0,289.647,289.272,258.358,292.079,290.375,263.436,0.0,0.0,241.361,260.299
2016-07-24 06:00,0.0,285.512,286.217,257.006,288.628,287.329,262.373,0.0,0.0,241.704,260.299
2016-07-24 07:00,0.0,290.171,288.951,258.246,291.686,290.101,263.318,0.0,0.0,241.476,260.299
2016-07-24 08:00,0.0,289.247,288.628,257.91,291.029,289.413,263.2,0.0,0.0,242.099,260.463
2016-07-24 09:00,-0.323619,289.779,288.736,257.91,291.16,289.276,262.965,-0.890524,-0.816781,242.322,260.463
2016-07-24 10:00,0.184645,290.939,288.736,257.798,291.292,289.826,263.083,0.312678,0.24053,242.875,260.708
2016-07-24 11:00,0.0464019,290.939,289.165,258.022,291.948,290.511,263.436,0.14242,0.0878353,243.202,260.789
2016-07-24 12:00,0.069122,292.174,288.52,257.572,291.686,290.101,263.436,0.125412,0.0957021,243.147,260.789
2016-07-24 13:00,0.0218242,291.065,289.805,258.358,292.86,291.6,263.67,0.0752341,0.0472133,243.526,260.789
2016-07-24 14:00,0.130902,0.0,287.869,257.459,290.764,289.689,263.436,0.143971,0.132154,244.164,260.952
2016-07-24 15:00,0.0263117,291.19,289.593,258.134,292.34,291.329,263.436,0.0594081,0.0404772,244.058,260.627
2016-07-24 16:00,0.0618097,292.174,288.195,257.91,291.16,289.964,263.67,0.082688,0.0686406,244.217,260.789
2016-07-24 17:00,0.0854157,292.771,287.978,257.685,290.5,289.276,263.2,0.105195,0.092765,244.164,260.545
2016-07-24 18:00,0.140202,294.38,287.76,257.233,290.367,289.276,262.61,0.152975,0.140083,243.74,260.381
2016-07-24 19:00,0.257022,301.39,288.736,257.685,291.292,289.826,263.436,0.244268,0.234767,243.093,260.217
2016-07-24 20:00,0.857306,313.574,288.843,257.572,291.292,289.826,263.318,0.659525,0.695278,243.31,260.299
2016-07-24 21:00,2.5963,326.225,288.52,257.572,290.764,289.413,262.965,1.67924,1.89303,243.093,260.135
2016-07-24 22:00,1.88091,297.349,288.843,257.685,291.292,289.826,262.61,0.906538,1.35844,243.039,259.804
2016-07-24 23:00,-0.444318,289.514,288.412,257.346,290.897,289.413,262.847,-0.117563,-0.242973,242.71,259.804
2016-07-25 00:00,-0.192715,282.581,283.032,254.808,285.757,284.922,261.421,-0.0502066,-0.0972786,242.875,259.554
2016-07-25 01:00,0.0,288.841,287.76,256.778,290.101,288.584,262.255,0.0,0.0,243.202,259.97
2016-07-25 02:00,0.0,289.113,288.087,256.778,290.5,288.999,262.373,0.0,0.0,243.256,260.052
2016-07-25 03:00,-0.00177879,288.841,287.651,257.006,289.968,288.584,262.017,0.0,0.0,243.686,259.887
2016-07-25 04:00,0.0,289.113,287.978,257.12,290.5,288.999,262.255,0.0,0.0,243.31,259.554
2016-07-25 05:00,-0.00186237,286.717,286.661,256.549,288.628,287.748,262.255,0.0,0.0,243.633,259.721
2016-07-25 06:00,0.0,289.779,289.058,257.798,291.948,290.648,263.318,0.0,0.0,243.74,259.887
2016-07-25 07:00,0.0,289.514,288.628,258.022,291.423,289.964,263.083,0.0,0.0,243.579,260.052
2016-07-25 08:00,0.0,288.568,288.195,257.233,290.764,289.826,262.492,0.0,0.0,243.526,259.97
2016-07-25 09:00,-0.216792,288.841,287.869,256.892,290.367,289.137,262.965,-0.795417,-0.729549,243.74,260.052
2016-07-25 11:00,0.0930568,291.315,287.869,257.12,290.234,288.999,262.61,0.192053,0.14092,243.364,260.052
2016-07-25 12:00,0.0613053,291.44,287.978,257.233,290.101,288.861,262.373,0.132279,0.0938353,242.984,259.554
2016-07-25 13:00,0.0358803,290.558,288.52,257.459,290.764,289.689,262.255,0.0937811,0.064572,243.093,259.554
2016-07-25 14:00,0.0310514,290.939,288.412,257.233,290.897,289.826,262.61,0.0754442,0.0531557,242.984,259.887
2016-07-25 15:00,0.0413572,291.809,288.412,257.685,290.764,289.826,263.083,0.0742786,0.0569353,242.71,259.638
2016-07-25 16:00,0.0853147,292.771,287.76,257.12,290.101,289.413,262.61,0.102596,0.0886268,242.099,259.721
2016-07-25 17:00,0.0711983,293.007,288.303,257.572,290.764,289.826,262.847,0.0964536,0.0810272,242.655,259.638
2016-07-25 18:00,0.140265,294.933,287.869,257.233,290.5,289.276,262.847,0.156717,0.144525,242.322,259.721
2016-07-25 19:00,0.281736,298.533,287.651,257.006,289.968,288.999,262.847,0.274105,0.266763,242.266,259.554
2016-07-25 20:00,0.846838,313.514,288.412,257.233,290.632,289.276,262.136,0.646523,0.674821,241.533,258.628
2016-07-25 21:00,2.08341,316.911,287.76,257.346,290.234,288.722,262.255,1.34515,1.5105,241.304,258.286
2016-07-25 22:00,2.43057,296.943,288.195,256.892,290.764,289.137,262.61,1.09758,1.68048,241.246,258.543
2016-07-25 23:00,-0.429087,288.841,287.76,257.006,290.5,288.584,261.66,-0.115949,-0.248853,241.361,257.769
2016-07-26 00:00,-0.150963,289.647,288.951,258.134,291.686,289.551,262.136,-0.0436458,-0.0966475,240.193,257.158
2016-07-26 01:00,-0.00245598,289.779,288.951,257.798,291.817,289.551,262.017,0.0,-0.00247946,239.532,256.45
2016-07-26 02:00,-0.00197218,288.977,288.52,257.798,291.423,289.276,262.136,0.0,0.0,237.333,255.366
2016-07-26 03:00,0.0,289.514,288.951,258.022,291.948,289.964,262.373,0.0,0.0,238.104,256.628
2016-07-26 04:00,0.0,290.041,289.486,258.358,292.47,290.101,262.492,0.0,0.0,239.104,257.595
2016-07-26 05:00,0.0,289.91,289.486,258.58,292.209,290.375,262.728,0.0,0.0,239.774,258.286
2016-07-26 06:00,0.00218199,289.91,289.379,258.469,292.47,290.238,262.847,0.0,0.0,239.532,258.372
2016-07-26 07:00,0.0,289.91,289.593,258.246,292.47,290.648,262.61,0.0,0.0,238.671,258.628
2016-07-26 08:00,0.0,289.779,289.699,258.022,292.6,290.921,262.847,0.0,0.00539525,238.231,258.628
2016-07-26 09:00,-0.195788,290.171,289.911,258.022,292.989,291.057,263.083,-0.718352,-0.527093,237.398,258.457
2016-07-26 10:00,0.0423031,290.171,289.699,257.798,292.6,290.648,262.373,0.209791,0.11592,240.134,259.721
2016-07-26 11:00,0.0291595,290.301,289.165,257.685,291.948,289.964,262.373,0.123447,0.0706519,239.834,258.882
2016-07-26 12:00,0.0138618,290.041,288.951,257.91,291.555,289.413,261.54,0.0804807,0.0459814,238.795,257.855
2016-07-26 13:00,0.00936689,289.779,288.412,257.91,291.16,288.445,261.182,0.0581602,0.0315214,238.483,256.805
2016-07-26 14:00,0.00675307,290.171,288.412,257.798,291.029,288.306,261.062,0.0457425,0.0245435,237.463,255.821
2016-07-26 15:00,0.00376071,290.171,288.628,258.022,291.423,288.445,261.062,0.0371489,0.0189833,237.072,255.183
2016-07-26 16:00,0.00371015,290.171,288.52,258.022,291.16,288.584,261.421,0.0345552,0.0174796,237.072,255.091
2016-07-26 17:00,0.00647446,290.685,288.412,258.134,291.16,288.306,261.182,0.037277,0.0209163,236.94,254.999
2016-07-26 18:00,0.0303816,291.686,288.087,257.91,291.029,288.306,260.822,0.0587978,0.0394355,235.867,253.5
2016-07-26 19:00,0.159387,297.649,287.978,258.022,290.897,288.167,261.421,0.169062,0.148533,235.525,253.5
2016-07-26 20:00,1.08665,318.692,288.52,258.022,291.292,288.584,261.182,0.821199,0.854054,234.968,253.213
2016-07-26 21:00,2.59271,331.24,288.412,257.798,291.292,288.445,261.421,3.31338,3.58784,235.178,253.5
2016-07-26 22:00,1.92216,294.491,287.869,257.798,290.632,287.609,260.701,0.928176,1.24315,235.386,252.828
2016-07-26 23:00,-0.369017,289.514,287.541,257.572,290.234,286.767,260.942,-0.114309,-0.245334,235.799,252.731
2016-07-27 00:00,-0.149952,280.799,276.08,251.552,277.978,274.46,254.392,-0.0464504,-0.099693,235.731,251.85
2016-07-27 01:00,-0.00733106,269.283,263.867,245.859,264.965,263.412,249.971,0.0,0.0,235.108,249.721
2016-07-27 02:00,-0.00196362,268.686,264.482,245.995,266.678,264.795,250.633,0.0,0.0,235.867,249.825
2016-07-27 03:00,0.00176447,287.587,285.095,256.664,286.997,283.773,258.76,0.0,0.0,235.731,252.244
2016-07-27 04:00,0.0,288.705,286.328,256.892,288.763,285.493,259.249,0.0,0.0,236.071,253.117
2016-07-27 05:00,-0.00184678,288.152,286.217,256.778,288.222,285.35,259.977,0.0,0.0,235.731,253.405
2016-07-27 06:00,0.00217172,286.717,284.528,256.205,286.585,283.339,258.515,0.0,0.0,235.593,252.925
2016-07-27 07:00,0.0,288.568,285.882,256.778,287.951,284.779,259.249,0.0,0.0,235.593,252.828
2016-07-27 08:00,0.0,287.871,285.994,256.778,288.087,284.922,259.37,0.0,0.0,235.662,252.731
2016-07-27 09:00,-0.118956,289.381,287.102,257.572,289.032,285.777,259.856,-0.65468,-0.480374,236.609,253.5
2016-07-27 10:00,0.0487023,289.779,286.992,257.006,289.166,286.06,259.492,0.221644,0.129066,237.268,254.256
2016-07-27 12:00,0.0218121,290.301,287.432,257.459,289.568,286.626,260.219,0.0873045,0.048045,238.483,255.183
2016-07-27 13:00,0.0218719,290.301,287.432,257.459,289.701,287.048,260.098,0.0687845,0.0394303,238.857,255.275
2016-07-27 14:00,0.0702609,291.686,280.549,254.099,283.088,279.061,256.66,0.0858025,0.0695684,239.227,254.999
2016-07-27 15:00,0.127898,291.44,268.199,248.252,270.495,267.673,252.075,0.1136,0.11393,239.471,254.162
2016-07-27 16:00,0.0519546,291.563,280.429,253.741,282.517,278.609,256.909,0.0607479,0.0512024,239.894,254.814
2016-07-27 17:00,0.0246109,291.563,287.322,257.233,289.166,285.493,259.37,0.0482564,0.0287692,240.43,256.001
2016-07-27 18:00,0.0173703,291.19,288.195,257.798,290.101,287.188,260.822,0.051476,0.0306887,241.189,257.246
2016-07-27 19:00,0.0613633,292.294,287.102,257.12,288.628,285.493,260.461,0.100944,0.0743399,241.419,256.805
2016-07-27 20:00,0.546751,300.042,282.096,254.808,283.797,281.735,258.147,0.521558,0.518233,241.131,256.45
2016-07-27 21:00,0.977505,296.943,281.029,253.741,283.23,281.293,258.76,1.07492,1.09332,241.246,256.271
2016-07-27 22:00,2.06945,284.888,279.702,253.14,280.931,279.661,258.515,1.28495,1.84162,241.361,256.539
2016-07-27 23:00,-0.354786,289.247,286.772,256.778,288.628,285.777,259.614,-0.105139,-0.24177,241.419,256.716
2016-07-28 00:00,-0.163447,288.841,286.772,256.778,288.897,285.777,260.461,-0.0461302,-0.10634,240.193,255.639
2016-07-28 01:00,-0.00486226,289.113,286.661,256.778,288.493,285.493,259.614,-0.00205843,0.0,239.954,254.443
2016-07-28 02:00,0.0,289.113,286.772,257.12,288.628,285.208,259.249,0.0,0.0,240.134,253.69
2016-07-28 03:00,0.0,289.247,286.661,257.346,288.493,285.493,259.856,0.0,0.0,240.312,253.309
2016-07-28 04:00,0.0,289.247,286.882,257.685,289.032,285.635,259.614,0.0,0.0,240.489,253.405
2016-07-28 05:00,-0.00183888,288.568,286.328,257.12,288.358,285.35,259.977,0.0,0.0,240.489,253.405
2016-07-28 06:00,0.0,288.568,286.217,256.892,288.087,285.35,259.735,0.0,0.0,240.253,253.213
2016-07-28 07:00,0.0,289.113,286.772,257.12,288.628,285.635,259.856,0.0,0.0,240.43,254.162
2016-07-28 08:00,0.0,288.705,286.55,256.664,288.493,285.35,259.856,0.0,0.0,240.841,254.068
2016-07-28 10:00,0.14719,289.381,286.217,256.664,288.493,285.777,259.977,0.311564,0.253853,241.419,255.183
2016-07-28 11:00,0.0762282,290.558,287.651,257.346,289.568,286.907,260.822,0.166321,0.109516,241.246,255.275
2016-07-28 12:00,0.0972928,290.939,286.772,256.434,289.032,286.907,260.581,0.169799,0.1323,242.378,256.628
2016-07-28 13:00,0.0687898,290.939,287.432,256.778,289.701,287.469,261.54,0.113841,0.0852309,242.266,256.982
2016-07-28 14:00,0.0229794,290.429,288.195,257.006,290.5,288.306,261.54,0.0640924,0.0409396,242.984,257.333
2016-07-28 15:00,0.0,0.0,0.0,0.0,0.0,0.0,0.0,0.0,0.0,0.0,0.0
2016-07-28 16:00,0.03712,290.939,288.52,257.233,291.16,289.551,262.61,0.062859,0.0487174,243.633,258.713
2016-07-28 17:00,0.0440561,292.053,288.951,257.346,291.686,289.826,262.373,0.0680218,0.0510181,243.633,258.628
2016-07-28 18:00,0.0767644,293.93,289.379,257.459,292.34,290.511,262.965,0.0981076,0.0833471,243.686,258.967
2016-07-28 19:00,0.235184,301.125,289.593,257.798,292.6,291.057,262.965,0.222906,0.210854,243.899,259.304
2016-07-28 20:00,0.787109,309.655,288.52,257.459,291.555,290.238,262.492,0.623905,0.6473,244.322,259.638
2016-07-28 21:00,1.59321,309.044,286.882,256.434,289.701,288.584,262.255,1.12472,1.22999,244.79,260.381
2016-07-28 22:00,1.52004,293.007,288.843,257.12,291.423,290.101,263.2,0.809361,1.20235,245.253,260.545
2016-07-28 23:00,-0.524254,290.171,289.911,257.572,292.73,291.6,263.67,-0.133165,-0.273454,245.859,260.708
2016-07-29 00:00,-0.223599,287.155,287.869,256.434,290.764,289.826,263.083,-0.0549641,-0.109227,245.91,260.627
2016-07-29 01:00,-0.00483664,289.514,289.379,257.233,292.079,290.784,263.318,0.0,0.0,246.109,260.789
2016-07-29 02:00,0.0,288.568,288.628,256.778,291.423,289.964,262.847,0.0,0.0,246.258,260.789
2016-07-29 03:00,0.0,289.381,289.165,257.12,291.948,290.648,263.083,0.0,0.0,246.554,260.789
2016-07-29 04:00,0.0,288.568,288.303,256.892,291.029,289.551,262.965,0.0,0.0,246.603,260.708
2016-07-29 05:00,0.0,289.779,289.486,257.233,292.209,290.921,263.436,0.0,0.0,246.406,260.789
2016-07-29 06:00,0.0,289.91,289.593,257.572,292.6,291.057,263.436,0.0,0.0,246.505,261.194
2016-07-29 07:00,0.0,289.247,289.165,257.006,291.686,290.511,263.318,0.0,0.0,246.554,261.275
2016-07-29 08:00,-0.00519693,290.301,289.911,257.459,292.989,291.6,263.318,0.0,0.0,246.554,261.194
2016-07-29 09:00,-0.252442,287.3,287.212,255.858,290.234,289.551,262.847,-0.51298,-0.50971,246.847,261.435
2016-07-29 10:00,0.129752,291.19,289.486,257.233,292.34,290.921,263.318,0.282499,0.199607,246.652,261.435
2016-07-29 11:00,0.114653,291.686,288.412,256.778,291.292,290.375,262.965,0.206599,0.17214,246.357,261.515
2016-07-29 12:00,0.0357878,291.44,290.017,257.685,292.989,291.871,263.553,0.107738,0.0662381,246.159,261.595
2016-07-29 13:00,0.026597,290.939,289.911,257.346,292.86,291.735,263.905,0.0808056,0.0521229,245.859,261.914
2016-07-29 14:00,0.0703193,291.315,288.52,257.233,291.686,290.784,263.436,0.112209,0.103757,245.709,261.914
2016-07-29 15:00,0.0476753,291.563,289.486,257.459,292.34,291.193,263.2,0.0764841,0.0582639,245.456,261.914
2016-07-29 16:00,0.0346551,292.053,290.123,257.572,292.6,291.464,263.67,0.0607807,0.0437329,244.997,262.072
2016-07-29 17:00,0.0272217,292.174,290.965,258.246,294.149,293.216,264.488,0.0559751,0.0405685,244.058,262.309
2016-07-29 18:00,0.0637699,294.491,290.86,258.58,293.892,292.679,264.721,0.0871265,0.0731585,243.093,262.072
2016-07-29 19:00,0.214367,301.214,291.07,259.024,293.892,292.948,264.837,0.206796,0.198677,242.211,261.834
2016-07-29 20:00,0.817587,314.628,291.174,258.802,294.149,292.814,264.488,0.629318,0.665648,241.704,261.595
2016-07-29 21:00,2.61642,323.846,290.756,258.691,293.506,292.41,264.372,1.65022,1.8891,241.533,261.675
2016-07-29 22:00,1.71668,295.26,291.07,258.58,294.021,293.082,264.372,0.80147,1.19859,241.189,261.595
2016-07-29 23:00,-0.473244,290.558,291.07,259.024,294.277,292.948,264.488,-0.123851,-0.251914,240.841,261.355
2016-07-30 00:00,-0.200492,289.381,289.699,258.134,292.86,291.871,263.67,-0.0485017,-0.104819,240.607,260.463
2016-07-30 01:00,-0.00240527,287.3,287.541,257.233,290.897,289.413,262.847,0.0,0.0,240.193,258.798
2016-07-30 02:00,-0.00193699,288.291,287.651,257.685,290.5,288.584,261.898,0.0,0.0,240.014,257.595
2016-07-30 03:00,0.0,283.76,284.528,256.434,287.815,287.048,261.898,0.0,0.0,239.834,257.942
2016-07-30 04:00,-0.00170934,289.514,288.52,258.134,291.292,288.999,262.255,0.0,0.0,239.593,256.982
2016-07-30 05:00,-0.00182291,290.041,288.628,258.469,291.555,288.999,261.421,0.0,0.0,239.532,256.894
2016-07-30 06:00,0.0,289.779,288.412,258.134,291.16,288.722,261.66,0.0,0.00216114,239.834,256.716
2016-07-30 07:00,0.00288788,289.247,287.76,258.022,290.367,287.748,261.182,0.0,0.0,239.894,256.628
2016-07-30 08:00,-0.00514909,288.012,286.992,257.685,289.568,287.188,260.942,0.0,0.0,240.371,256.716
2016-07-30 09:00,-0.0938608,290.041,288.087,258.469,290.5,288.027,261.421,-0.437095,-0.331653,239.894,256.539
2016-07-30 10:00,0.112051,290.301,287.76,258.022,289.968,287.469,261.421,0.279349,0.194821,240.134,257.246
2016-07-30 11:00,0.129703,291.563,287.322,257.91,289.568,287.188,260.942,0.204663,0.148799,239.894,256.805
2016-07-30 12:00,0.0457893,291.065,287.76,258.022,289.968,287.888,262.136,0.116309,0.0763751,240.548,257.421
2016-07-30 13:00,0.0720197,292.053,287.432,257.91,289.701,287.748,261.54,0.112679,0.0869337,240.134,256.982
2016-07-30 14:00,0.0432917,291.19,287.869,257.685,290.101,287.888,261.898,0.0778919,0.0546319,240.253,257.07
2016-07-30 15:00,0.0815743,293.124,286.661,257.685,289.166,287.469,262.017,0.0945712,0.0760192,240.371,257.07
2016-07-30 16:00,0.177042,297.248,282.799,255.742,286.585,285.777,261.779,0.154094,0.143737,239.653,257.07
2016-07-30 17:00,0.299565,298.339,281.978,255.393,286.172,285.777,261.54,0.248151,0.251369,239.471,257.158
2016-07-30 18:00,0.364031,301.302,282.214,255.393,286.172,285.635,261.898,0.303313,0.306015,239.714,256.894
2016-07-30 19:00,0.431018,302.596,284.982,256.434,288.222,287.469,262.017,0.363453,0.362319,239.593,257.421
2016-07-30 20:00,0.761793,311.293,288.52,258.246,290.897,289.551,262.255,0.590071,0.59197,239.834,257.942
2016-07-30 21:00,1.6627,310.778,288.087,257.798,290.367,288.999,262.017,1.11858,1.2174,239.834,258.114
2016-07-30 22:00,1.67815,291.931,286.772,257.233,289.434,288.027,262.017,0.821887,1.21251,239.774,258.028
2016-07-30 23:00,-0.533646,288.012,287.432,257.572,289.835,288.722,262.61,-0.136268,-0.282201,239.166,258.114
2016-07-31 00:00,-0.220319,284.087,285.095,256.205,288.222,287.469,262.017,-0.0541578,-0.111213,238.981,257.595
2016-07-31 01:00,-0.002392,286.121,285.658,256.549,288.897,287.748,262.017,0.0,-0.00241487,238.857,257.595
2016-07-31 02:00,-0.00192783,280.982,282.799,255.043,286.033,285.635,261.54,0.0,0.0,239.288,257.682
2016-07-31 03:00,0.0,288.705,287.432,257.233,289.701,288.306,262.373,0.0,0.0,239.227,257.769
2016-07-31 04:00,0.0,278.883,281.742,254.808,285.479,285.208,261.421,0.0,0.0,239.043,257.942
2016-07-31 05:00,0.0,280.613,282.214,254.926,285.757,285.493,261.301,0.0,0.0,239.471,258.286
2016-07-31 06:00,0.0,280.239,281.978,254.572,285.34,284.922,261.54,0.0,0.0,239.834,258.628
2016-07-31 07:00,0.0,283.76,284.528,255.51,287.543,286.343,262.017,0.0,0.0,240.074,258.713
2016-07-31 08:00,-0.00510191,282.059,283.956,255.626,287.407,286.907,261.898,0.0,0.0,239.774,258.713
2016-07-31 09:00,-0.219186,284.249,285.208,256.089,288.358,287.469,262.017,-0.482519,-0.442562,239.532,258.882
2016-07-31 10:00,0.608385,289.381,284.185,255.626,287.543,286.907,261.779,0.589466,0.557213,239.043,258.628
2016-07-31 11:00,0.103452,291.563,288.628,257.346,290.764,288.999,262.492,0.190201,0.131297,239.043,258.882
2016-07-31 12:00,0.0637907,291.686,288.843,257.12,291.029,289.276,262.728,0.124902,0.0825132,240.014,258.798
2016-07-31 13:00,0.0250682,290.685,289.165,256.892,291.555,289.689,262.728,0.0795946,0.049034,237.398,258.713
2016-07-31 14:00,0.0406033,291.686,288.843,257.006,291.423,289.826,262.61,0.0767792,0.0560216,238.483,259.051
2016-07-31 15:00,0.042683,291.686,288.736,257.12,291.555,289.551,263.2,0.0680275,0.0506953,237.268,258.2
2016-07-31 16:00,0.0346768,291.809,289.272,257.572,291.817,289.826,263.436,0.0597701,0.04251,237.463,258.286
2016-07-31 17:00,0.0739525,293.124,288.52,257.346,291.423,289.689,262.255,0.0900784,0.0759693,236.609,258.372
2016-07-31 18:00,0.0798276,294.491,288.951,257.798,291.686,289.689,262.61,0.0983126,0.0805907,236.139,258.114
2016-07-31 19:00,0.200817,300.042,289.486,257.572,292.34,290.101,262.492,0.19837,0.183174,235.247,257.508
2016-07-31 20:00,0.75883,311.547,289.593,258.022,292.6,290.784,263.2,0.599667,0.610435,234.615,257.595
2016-07-31 22:00,1.82528,292.889,285.994,255.974,287.679,285.635,259.249,1.00169,1.43323,231.473,255.183
2016-07-31 23:00,-0.483501,288.012,286.992,256.549,289.434,286.907,260.219,-0.127049,-0.260893,231.156,255.366
