# timestamp,IR_016,IR_039,IR_087,IR_097,IR_108,IR_120,IR_134,VIS006,VIS008,WV_062,WV_073
2014-11-01 00:00,-0.0,275.932,263.867,247.067,262.15,258.04,242.814,-0.00178973,-0.0,222.799,238.165
2014-11-01 01:00,-0.0,222.276,218.474,224.102,218.478,217.29,216.269,-0.0,0.00168183,212.126,214.787
2014-11-01 02:00,-0.00146657,257.103,254.328,242.081,253.669,252.144,241.808,-0.0,-0.0,228.136,241.475
2014-11-01 03:00,-0.0,279.859,268.916,251.552,266.338,259.321,242.527,-0.0,-0.0,224.56,239.523
2014-11-01 04:00,0.00145034,280.239,274.392,253.741,274.778,271.283,251.944,-0.0,-0.0,228.921,245.918
2014-11-01 05:00,-0.0,266.131,266.738,249.924,269.842,269.0,254.009,-0.0,-0.0,231.315,248.987
2014-11-01 06:00,-0.0,276.155,270.468,251.429,271.945,268.835,251.814,-0.0,-0.0,229.178,246.929
2014-11-01 07:00,-0.0,263.255,262.931,247.2,265.138,264.279,250.501,-0.0,-0.0,229.935,247.151
2014-11-01 08:00,-0.0,263.636,264.021,247.859,266.678,266.329,253.497,-0.0,-0.0,232.251,250.238
2014-11-01 09:00,0.407209,264.739,263.245,247.728,265.826,265.48,252.205,0.56419,0.579279,232.86,250.748
2014-11-01 10:00,0.424649,288.568,276.845,255.51,278.128,275.24,256.41,0.38264,0.464106,231.473,249.721
2014-11-01 11:00,0.427732,294.043,275.306,254.572,276.163,272.405,253.881,0.305276,0.413734,229.685,247.808
2014-11-01 12:00,0.361897,297.045,278.35,256.32,278.427,272.565,252.205,0.206589,0.333946,231.315,248.775
2014-11-01 13:00,0.417404,295.476,266.738,250.051,267.354,263.586,248.634,0.333909,0.404976,230.996,246.929
2014-11-01 14:00,0.323348,294.38,272.796,253.02,273.372,269.0,250.765,0.216957,0.299339,232.097,248.348
2014-11-01 15:00,0.248211,297.649,284.528,260.119,283.514,278.156,254.773,0.143427,0.220894,231.943,248.987
2014-11-01 16:00,0.267094,287.444,262.3,247.067,260.524,255.425,240.5,0.190332,0.268427,227.691,242.105
2014-11-01 17:00,0.313359,294.713,269.201,251.056,268.855,264.106,247.687,0.237214,0.312333,231.236,247.371
2014-11-01 18:00,0.204026,298.242,289.272,262.681,289.701,285.208,260.098,0.13927,0.20438,234.897,253.309
2014-11-01 19:00,0.346654,299.485,286.772,261.091,287.543,282.467,258.023,0.223713,0.358503,233.603,251.85
2014-11-01 20:00,0.509678,288.152,273.065,253.501,272.741,270.148,252.335,0.47588,0.556842,231.473,248.455
2014-11-01 21:00,1.12834,286.421,267.618,250.555,265.997,261.299,244.932,0.816042,1.0798,227.959,244.175
2014-11-01 22:00,-0.00852499,270.434,253.411,242.081,248.946,244.328,233.503,-0.0,-0.0,221.484,231.695
2014-11-01 23:00,-0.00977527,262.074,243.049,236.466,238.938,233.969,226.229,-0.00551781,-0.00657915,219.137,228.423
2014-11-02 00:00,-0.00212297,240.898,222.904,226.092,219.508,216.008,215.674,-0.0,-0.0,212.922,216.131
2014-11-02 01:00,-0.0,253.81,233.938,231.973,231.408,228.324,222.511,-0.0,-0.0,218.264,223.793
2014-11-02 02:00,-0.0014714,261.666,255.05,242.942,255.439,252.536,240.207,-0.0,-0.0,227.601,241.854
2014-11-02 03:00,-0.0,251.282,239.317,234.183,237.2,234.461,227.431,-0.0,-0.0,221.031,229.137
2014-11-02 04:00,-0.0,266.466,254.328,242.513,252.465,249.348,239.025,-0.0,0.00146898,223.329,234.694
2014-11-02 05:00,-0.0,240.898,229.373,229.484,226.522,224.19,222.147,-0.0,-0.0,218.009,222.529
2014-11-02 06:00,0.00203299,243.066,233.392,231.098,231.131,228.856,225.883,-0.0,-0.0,221.819,226.76
2014-11-02 07:00,-0.0,242.013,233.116,230.921,230.294,228.056,225.36,-0.0,-0.0,221.031,226.948
2014-11-02 08:00,-0.0,242.013,237.591,233.175,235.155,233.225,229.615,-0.0,-0.0,224.959,231.031
2014-11-02 09:00,0.44981,254.396,240.984,235.173,238.938,236.396,230.44,0.609366,0.78107,226.405,234.236
2014-11-02 10:00,0.313892,267.761,248.784,238.657,246.135,241.698,233.185,0.390455,0.473383,226.499,235.592
2014-11-02 11:00,0.312683,283.093,268.916,250.303,267.016,262.008,245.905,0.24962,0.358514,229.517,243.457
2014-11-02 12:00,0.353103,299.579,289.486,262.995,288.628,282.175,258.023,0.148102,0.302016,230.755,248.882
2014-11-02 13:00,0.305889,301.826,290.017,262.995,289.166,282.904,257.406,0.119184,0.250057,230.916,248.775
2014-11-02 14:00,0.266938,303.592,291.174,263.721,290.367,283.773,258.392,0.109396,0.220268,231.394,248.882
2014-11-02 15:00,0.259716,301.826,287.869,262.261,287.134,280.702,255.909,0.142289,0.230166,231.156,248.882
2014-11-02 16:00,0.237837,302.848,290.545,263.928,290.234,284.492,258.76,0.116533,0.204765,233.75,250.95
2014-11-02 17:00,0.21218,276.594,255.764,242.369,256.406,250.957,239.025,0.48843,0.583717,230.511,241.602
2014-11-02 18:00,0.383683,265.791,216.88,224.507,215.628,214.697,215.873,0.728604,0.808177,214.145,215.332
2014-11-02 19:00,0.573466,270.434,215.64,223.489,214.517,211.983,212.619,0.847932,0.976975,213.388,215.061
2014-11-02 20:00,0.823363,275.932,218.474,224.708,215.993,214.697,213.857,0.811859,0.975034,213.388,215.6
2014-11-02 21:00,1.46559,277.451,223.597,227.248,218.478,216.008,215.074,1.09435,1.4796,212.922,216.131
2014-11-02 22:00,-0.00865468,230.231,219.628,225.107,217.78,215.683,214.671,-0.0,-0.0,213.388,216.909
2014-11-02 23:00,-0.00655803,237.078,221.841,226.481,219.508,217.29,215.674,-0.00832901,-0.00662072,213.234,218.165
2014-11-03 00:00,-0.0,213.142,192.764,214.679,191.784,190.884,196.596,-0.0,-0.0,192.68,193.11
2014-11-03 01:00,-0.0,213.142,204.418,217.809,202.217,201.694,204.422,-0.0,-0.0,203.192,202.271
2014-11-03 02:00,0.00147627,218.393,211.654,221.6,211.028,210.219,209.856,-0.0,-0.0,210.796,210.67
2014-11-03 03:00,-0.0,235.601,231.427,230.027,229.729,227.517,224.481,-0.0,-0.0,222.906,228.782
2014-11-03 04:00,-0.0,225.382,218.082,224.305,217.072,215.683,214.468,-0.0,-0.0,215.873,217.918
2014-11-03 05:00,-0.0,235.601,228.155,228.749,226.221,223.619,220.115,-0.0,-0.0,219.137,224.811
2014-11-03 06:00,-0.0,252.585,239.317,234.017,237.451,234.95,227.94,-0.0,-0.0,221.819,230.011
2014-11-03 07:00,-0.0,251.944,244.598,236.466,244.122,242.805,234.604,-0.0,-0.0,225.254,234.996
2014-11-03 08:00,-0.0,262.869,259.706,245.177,261.069,259.321,246.594,-0.0,-0.0,230.348,244.998
2014-11-03 09:00,0.385518,264.377,257.511,244.349,259.421,256.367,245.072,0.504464,0.530732,230.674,244.175
2014-11-03 10:00,0.508964,282.923,269.343,250.806,271.464,270.148,254.646,0.479909,0.548863,230.916,248.133
2014-11-03 11:00,0.545819,289.647,267.618,249.797,270.657,269.984,254.773,0.477235,0.54429,230.593,248.775
2014-11-03 12:00,0.439036,298.045,270.329,251.799,272.741,270.635,254.519,0.331656,0.411927,230.511,248.775
2014-11-03 13:00,0.314988,298.918,287.651,261.838,288.763,284.349,260.461,0.159104,0.271596,231.315,248.987
2014-11-03 14:00,0.286154,299.579,287.978,261.944,288.897,284.492,260.219,0.151557,0.244634,232.633,249.513
2014-11-03 15:00,0.247728,300.317,289.058,262.681,289.166,284.492,259.614,0.113325,0.207426,231.709,249.617
2014-11-03 16:00,0.248448,299.765,281.86,258.58,282.517,277.396,256.285,0.121519,0.208207,232.709,249.617
2014-11-03 17:00,0.243704,300.134,289.272,262.576,289.968,285.065,260.701,0.126722,0.217954,233.01,250.544
2014-11-03 18:00,0.290037,295.476,281.86,258.913,283.088,280.108,258.882,0.253582,0.323046,233.382,251.152
2014-11-03 19:00,0.426887,296.323,281.86,258.246,282.946,280.108,259.005,0.382811,0.467059,233.677,251.751
2014-11-03 20:00,0.165945,275.251,262.931,246.801,263.217,260.764,246.457,0.351263,0.369965,235.247,247.371
2014-11-03 21:00,0.657193,266.797,203.247,218.502,201.728,200.415,204.893,0.59482,0.766429,201.973,201.84
2014-11-03 22:00,-0.0,218.393,204.988,218.73,203.179,201.694,205.127,-0.0,-0.0,203.894,203.929
2014-11-03 23:00,-0.00990048,225.382,200.125,217.809,198.671,198.206,202.255,-0.00558848,-0.00666342,200.142,200.041
2014-11-04 00:00,-0.0,233.989,221.841,226.674,219.167,214.697,211.992,-0.0,-0.0,215.167,220.075
2014-11-04 01:00,-0.0,230.231,223.597,226.674,220.519,215.683,213.653,-0.0,-0.0,215.873,220.763
2014-11-04 02:00,-0.0,240.898,226.583,229.118,223.443,218.235,215.474,-0.0,-0.0,213.541,220.989
2014-11-04 03:00,-0.0,233.989,220.379,225.897,216.715,213.694,213.241,-0.0,-0.0,211.303,215.867
2014-11-04 04:00,-0.0,225.382,213.031,222.449,210.625,209.859,212.202,-0.0,-0.0,208.838,209.707
2014-11-04 05:00,-0.0,218.393,214.79,222.238,213.763,213.016,213.241,-0.0,-0.0,212.287,214.233
2014-11-04 06:00,-0.00204961,230.231,224.279,226.674,223.758,222.462,220.675,-0.0,-0.0,219.863,222.743
2014-11-04 07:00,-0.0,227.984,222.904,225.897,222.162,221.579,219.362,-0.0,-0.0,219.137,222.313
2014-11-04 08:00,-0.0,233.989,234.477,231.625,234.633,233.722,230.44,-0.0,-0.0,225.835,231.695
2014-11-04 09:00,0.23937,262.475,257.511,243.93,258.491,257.115,245.767,0.434301,0.500577,230.835,245.114
2014-11-04 10:00,0.360731,279.278,267.473,249.924,268.855,267.673,252.853,0.386662,0.445538,231.315,248.241
2014-11-04 12:00,0.51008,294.38,257.854,244.765,260.524,260.045,248.499,0.484317,0.551151,232.328,247.371
2014-11-04 13:00,0.515842,293.472,256.644,243.65,259.236,258.774,248.094,0.561389,0.624383,232.097,246.929
2014-11-04 14:00,0.492693,284.73,253.779,242.081,256.021,255.614,245.767,0.596388,0.654607,231.473,245.46
2014-11-04 15:00,0.414069,282.234,263.867,248.512,265.826,264.623,251.028,0.619742,0.656054,231.076,247.371
2014-11-04 16:00,0.222898,288.43,273.732,253.381,274.933,272.246,254.9,0.144861,0.233543,232.405,249.617
2014-11-04 17:00,0.199751,299.108,290.335,263.411,290.764,285.777,260.822,0.0784039,0.184299,233.01,251.751
2014-11-04 18:00,0.212441,297.749,287.869,262.049,287.543,282.321,258.638,0.0892707,0.198585,231.236,249.303
2014-11-04 19:00,0.811704,296.008,263.712,248.121,265.138,263.933,250.765,0.69082,0.832168,231.709,248.133
2014-11-04 20:00,1.28319,293.24,260.201,246.265,261.971,260.045,247.551,1.18551,1.37533,230.348,246.371
2014-11-04 21:00,1.33512,276.594,255.05,243.084,255.049,252.927,241.808,1.00798,1.32542,228.136,241.602
2014-11-04 22:00,-0.00893291,261.666,255.941,243.65,255.633,253.316,243.808,-0.0,-0.0,228.488,242.105
2014-11-04 23:00,-0.0099656,261.251,259.039,245.177,260.158,258.774,245.905,-0.00562524,-0.00670724,229.769,246.032
2014-11-05 00:00,-0.0,267.444,253.595,241.936,250.83,245.186,231.257,-0.0,-0.0,222.692,235.74
2014-11-05 01:00,-0.00169054,237.078,225.611,227.817,224.384,221.875,219.927,-0.0,-0.0,218.009,221.878
2014-11-05 02:00,-0.0,245.913,243.496,236.306,243.438,242.143,235.691,-0.0,-0.0,226.216,237.327
2014-11-05 03:00,-0.0,242.013,239.559,234.681,240.152,238.747,232.227,-0.0,-0.0,225.546,234.845
2014-11-05 04:00,-0.0014692,239.711,228.769,229.847,225.919,223.043,220.302,-0.0,-0.0,215.593,222.956
2014-11-05 05:00,0.00164875,227.984,218.082,225.107,216.715,214.364,214.671,-0.0,-0.0,212.287,215.332
2014-11-05 06:00,-0.0,233.989,223.597,227.058,221.511,219.165,218.025,-0.0,-0.0,215.452,219.372
2014-11-05 07:00,-0.0,240.898,228.463,228.934,225.919,223.905,221.415,-0.0,-0.0,219.137,222.956
2014-11-05 08:00,-0.0,244.063,240.277,234.515,239.911,237.815,231.419,-0.0,-0.0,224.959,233.773
2014-11-05 09:00,0.300797,260.827,255.409,242.799,256.406,254.855,244.09,0.410324,0.472379,228.921,242.478
2014-11-05 10:00,0.565435,282.059,270.468,251.676,272.899,271.444,254.646,0.543449,0.613267,229.433,249.825
2014-11-05 11:00,0.374786,294.268,287.869,262.049,288.763,285.208,260.461,0.16336,0.355981,231.156,253.405
2014-11-05 12:00,0.292926,295.69,287.76,261.731,287.815,284.061,259.856,0.125388,0.276011,230.348,252.342
2014-11-05 13:00,0.277887,299.203,289.379,262.786,289.3,284.779,259.735,0.108506,0.257392,231.787,254.722
2014-11-05 14:00,0.250382,300.769,290.965,264.339,290.764,286.485,260.701,0.097766,0.228234,233.456,255.457
2014-11-05 15:00,0.243771,287.444,265.092,249.029,260.524,255.614,240.646,0.174647,0.259117,224.359,239.789
2014-11-05 16:00,0.268421,286.864,265.545,248.121,263.393,259.321,243.667,0.215042,0.308658,230.101,244.056
2014-11-05 17:00,0.255,296.427,284.414,260.445,284.641,280.702,257.653,0.17116,0.262773,236.139,256.001
2014-11-05 18:00,0.223081,301.39,293.133,265.658,293.635,289.276,263.318,0.102422,0.217283,240.957,260.299
2014-11-05 19:00,0.255216,297.449,290.44,263.515,291.686,288.445,262.728,0.187751,0.270327,244.058,261.755
2014-11-05 20:00,0.284118,296.84,292.005,264.849,292.86,289.413,264.022,0.191291,0.307569,247.617,262.857
2014-11-05 21:00,0.688304,292.771,287.212,261.838,288.493,285.635,261.182,0.675292,0.860332,245.96,260.052
2014-11-05 22:00,0.00908214,284.087,281.742,258.58,282.946,279.959,259.492,-0.0,-0.0,245.759,259.804
2014-11-05 23:00,-0.00334413,285.357,281.624,258.358,282.374,280.257,259.735,-0.00566294,-0.0067522,244.531,259.22
2014-11-06 00:00,-0.0,285.665,284.185,260.011,285.895,283.339,261.301,-0.00183025,-0.0,242.099,258.967
2014-11-06 01:00,0.00169692,285.97,284.642,260.228,286.31,284.349,262.136,-0.0,-0.0,241.76,259.135
2014-11-06 02:00,-0.0,272.58,274.129,254.454,276.772,276.477,258.392,-0.0,-0.0,243.526,259.387
2014-11-06 03:00,-0.0,283.261,281.624,258.358,283.797,281.146,259.856,-0.0,-0.0,244.479,260.871
2014-11-06 04:00,-0.00147389,274.551,275.694,255.16,278.427,277.548,259.127,-0.0,-0.0,245.253,261.033
2014-11-06 05:00,-0.0,287.155,286.217,261.198,287.815,285.35,262.136,-0.0,-0.0,246.652,261.033
2014-11-06 06:00,-0.00206575,287.871,287.541,262.049,289.434,287.188,263.083,-0.0,-0.0,246.406,260.871
2014-11-06 07:00,-0.0,279.859,281.742,258.802,284.501,283.339,261.301,-0.0,-0.0,245.759,261.033
2014-11-06 08:00,-0.00716619,287.3,286.992,261.519,288.897,286.626,262.136,-0.0,-0.0,245.507,260.545
2014-11-06 09:00,0.670722,279.081,276.336,255.277,278.725,277.243,258.392,0.623304,0.743196,245.304,260.217
2014-11-06 10:00,0.582103,292.414,283.495,259.024,285.201,282.758,260.461,0.428439,0.583826,245.202,260.463
2014-11-06 11:00,0.478033,297.848,281.86,258.246,283.088,280.702,259.37,0.341039,0.464729,245.099,259.887
2014-11-06 12:00,0.349429,300.679,292.314,264.849,292.989,288.861,262.847,0.141738,0.306827,244.739,260.545
2014-11-06 13:00,0.287052,303.098,294.945,266.557,295.297,290.648,262.965,0.104978,0.251701,244.79,260.952
2014-11-06 14:00,0.290249,304.159,293.133,265.355,293.635,289.689,263.67,0.143956,0.250112,244.531,260.952
2014-11-06 15:00,0.231858,296.114,285.321,260.661,286.033,283.629,260.219,0.182433,0.250626,243.793,259.387
2014-11-06 16:00,0.215255,302.68,293.133,265.456,293.635,289.276,262.255,0.113019,0.211243,243.686,259.638
2014-11-06 17:00,0.158359,288.705,279.823,257.346,280.493,278.609,257.9,0.165368,0.223821,243.31,257.682
2014-11-06 18:00,0.428158,264.739,227.845,229.118,228.001,225.597,223.592,0.610841,0.736252,223.118,224.811
2014-11-06 19:00,0.552899,271.798,216.88,223.899,216.355,216.331,217.25,0.816151,0.918372,215.593,216.131
2014-11-06 20:00,0.589234,267.123,225.282,227.817,224.694,224.474,223.053,0.640212,0.722093,219.503,222.096
2014-11-06 21:00,0.729587,258.096,217.285,225.504,213.381,212.673,214.671,0.663163,0.823216,211.135,212.207
2014-11-06 22:00,-0.0,285.97,279.458,256.892,279.17,275.085,252.205,-0.0,-0.0,231.943,249.408
2014-11-06 23:00,-0.00336696,287.01,282.799,259.902,283.514,279.81,256.909,-0.0057016,-0.00679829,235.525,251.652
2014-11-07 00:00,-0.0,279.473,269.201,251.552,268.191,263.412,245.211,-0.0,-0.0,227.51,242.725
2014-11-07 01:00,-0.00170337,265.095,247.563,238.503,244.122,240.576,230.276,-0.0,-0.0,222.04,230.863
2014-11-07 02:00,-0.0,230.231,218.474,224.507,217.427,216.331,216.466,-0.0,-0.0,215.167,216.392
2014-11-07 03:00,-0.00143099,271.531,256.992,244.626,254.066,249.144,235.691,-0.0,0.00144467,222.368,235.146
2014-11-07 04:00,-0.0,283.76,277.098,256.664,276.315,269.494,248.634,-0.0,-0.0,227.238,245.575
2014-11-07 05:00,-0.00165983,274.314,262.931,247.728,261.069,255.235,238.577,-0.0,-0.0,223.849,238.85
2014-11-07 06:00,-0.00207362,268.986,255.764,243.368,253.867,249.55,236.307,-0.0,-0.0,224.156,236.469
2014-11-07 07:00,0.00308769,283.594,280.066,257.233,280.785,277.243,255.027,-0.0,-0.0,229.769,249.721
2014-11-07 08:00,-0.00724031,271.261,265.696,249.286,266.847,263.412,247.687,-0.0,-0.0,228.488,246.707
2014-11-07 09:00,0.240587,285.045,279.945,257.459,280.931,278.004,255.406,0.285186,0.340041,232.405,251.051
2014-11-07 10:00,0.37519,290.429,285.77,260.445,287.27,283.917,258.882,0.208573,0.413211,233.603,253.785
2014-11-07 11:00,0.371095,296.323,290.965,263.825,292.73,289.276,262.965,0.157103,0.354573,233.603,255.366
2014-11-07 12:00,0.331154,300.134,293.336,264.95,294.533,290.784,263.318,0.126449,0.303182,237.203,256.716
2014-11-07 13:00,0.288142,301.653,291.902,264.236,291.948,286.485,260.34,0.109444,0.259632,235.247,253.785
2014-11-07 14:00,0.34827,301.826,280.187,257.572,281.366,277.091,257.034,0.205491,0.313621,233.234,253.309
2014-11-07 15:00,0.228164,297.947,280.549,257.572,278.873,271.926,249.305,0.106995,0.220895,228.575,246.371
2014-11-07 16:00,0.240287,286.121,262.458,246.667,259.974,255.425,238.128,0.17395,0.268055,223.849,237.748
2014-11-07 17:00,0.255708,290.558,270.049,250.681,268.69,263.586,245.489,0.204231,0.296742,226.871,243.457
2014-11-07 18:00,0.170661,275.02,265.545,249.029,266.338,265.82,252.335,0.278392,0.298746,231.236,248.455
2014-11-07 19:00,0.414092,287.155,264.329,248.121,264.965,260.045,243.525,0.475704,0.579809,229.007,245.345
2014-11-07 20:00,0.30838,292.653,277.977,256.32,277.377,272.246,249.971,0.261105,0.335277,227.238,244.294
2014-11-07 21:00,1.29609,291.686,266.442,249.797,263.92,258.224,240.646,0.910038,1.25529,222.906,237.327
2014-11-07 22:00,-0.00940265,249.89,237.591,233.513,235.155,232.221,227.26,-0.0,-0.0,221.93,227.877
2014-11-07 23:00,-0.00678071,286.421,282.916,259.244,284.501,281.441,257.282,-0.00574121,-0.00684553,228.224,248.775
2014-11-08 00:00,-0.00218203,281.526,273.065,253.86,272.741,268.835,248.094,-0.0,-0.00220289,225.156,243.457
2014-11-08 01:00,-0.0,280.05,270.746,251.799,270.495,266.667,246.732,-0.0,-0.0,226.871,242.971
2014-11-08 02:00,-0.0,285.97,282.799,259.024,284.22,280.85,257.406,-0.0,-0.0,231.787,249.617
2014-11-08 03:00,0.00143553,285.045,280.669,258.022,281.221,277.701,255.406,-0.0,-0.0,229.852,247.808
2014-11-08 04:00,-0.0,251.944,237.841,233.849,236.441,232.976,225.883,-0.0,-0.0,218.137,226.948
2014-11-08 05:00,-0.0,259.505,246.942,238.503,244.8,240.123,232.867,-0.0,-0.0,222.585,232.988
2014-11-08 06:00,-0.00208134,246.775,232.56,231.098,229.444,226.974,222.873,-0.0,-0.0,218.891,224.204
2014-11-08 07:00,-0.0,244.063,238.09,234.35,236.695,233.722,227.601,-0.0,-0.0,223.013,231.695
2014-11-08 08:00,-0.0,249.156,237.591,234.017,234.371,230.688,224.834,-0.0,-0.0,219.26,228.96
2014-11-08 09:00,0.787412,258.576,235.011,233.005,230.853,226.426,223.053,0.720037,0.985725,217.752,225.21
2014-11-08 10:00,0.547534,276.155,253.411,242.225,251.242,245.824,233.185,0.492371,0.609951,220.801,232.669
2014-11-08 11:00,0.480696,264.739,230.85,230.207,230.294,228.324,225.185,0.565699,0.658927,221.596,227.323
2014-11-08 12:00,0.408623,265.791,230.85,230.565,228.871,226.974,222.692,0.524462,0.607335,219.26,225.994
2014-11-08 13:00,0.355173,259.954,223.597,227.058,221.511,218.857,216.859,0.498929,0.573166,215.31,219.134
2014-11-08 14:00,0.321339,257.103,218.474,225.306,214.141,211.983,211.781,0.42403,0.494573,210.452,213.092
2014-11-08 15:00,0.350756,276.811,236.576,234.017,233.842,231.203,227.26,0.325693,0.413127,221.819,228.603
2014-11-08 16:00,0.258076,265.095,240.514,235.499,237.951,235.193,228.614,0.331326,0.42414,222.585,231.198
2014-11-08 17:00,0.283053,263.255,234.745,231.973,232.502,230.429,226.229,0.363393,0.459873,221.93,228.242
2014-11-08 18:00,0.367317,262.475,225.937,228.004,223.758,222.169,220.302,0.465849,0.561766,216.695,220.989
2014-11-08 19:00,0.543728,264.739,223.252,226.674,222.162,220.984,219.172,0.734489,0.867386,217.491,221.436
2014-11-08 20:00,0.846264,271.261,220.379,225.701,218.478,216.972,215.674,0.904941,1.09262,214.734,217.918
2014-11-08 21:00,1.22127,262.074,224.616,227.628,223.443,222.462,219.739,1.04281,1.40013,217.491,221.658
2014-11-08 22:00,-0.0,257.103,243.94,237.101,242.049,239.438,230.931,-0.0,-0.0,221.258,230.863
2014-11-08 23:00,-0.00682862,242.013,231.713,231.098,230.574,228.056,224.657,-0.00578178,-0.0068939,219.982,226.76
2014-11-09 00:00,-0.0,258.096,249.781,239.871,249.789,246.035,237.07,-0.0,-0.0,226.311,238.85
2014-11-09 01:00,-0.0,261.251,250.954,240.32,250.415,248.327,237.525,-0.0,-0.0,224.359,237.043
2014-11-09 02:00,-0.0,266.466,259.039,245.04,258.865,256.367,243.525,-0.0,-0.0,225.835,241.854
2014-11-09 03:00,-0.0,258.096,248.985,239.419,248.733,245.612,236.765,-0.0,-0.0,226.592,238.165
2014-11-09 04:00,-0.00148779,276.376,271.437,252.656,272.104,269.329,251.683,-0.0,-0.0,232.86,252.439
2014-11-09 05:00,-0.0,268.073,256.469,243.93,254.263,249.753,236.613,-0.0,-0.0,227.42,240.706
2014-11-09 06:00,-0.0,276.376,269.485,251.18,268.69,265.138,248.094,-0.0,-0.0,231.943,249.093
2014-11-09 07:00,0.00311758,281.346,276.08,255.51,276.163,272.883,252.464,-0.0,-0.0,234.543,253.117
2014-11-09 08:00,-0.00738274,280.239,275.176,254.808,275.396,272.246,252.464,-0.0,-0.0,235.867,254.068
2014-11-09 09:00,0.464522,275.251,261.501,246.667,259.606,255.235,238.727,0.445751,0.609652,230.43,243.937
2014-11-09 10:00,0.365056,286.717,274.785,254.572,275.242,271.283,251.553,0.264481,0.417939,236.408,253.595
2014-11-09 11:00,0.380857,293.587,283.495,259.793,282.946,278.76,254.773,0.182671,0.39561,236.874,254.349
2014-11-09 12:00,0.335319,299.858,290.651,264.441,290.897,286.485,259.37,0.134413,0.320535,239.834,257.942
2014-11-09 13:00,0.283656,300.679,289.911,263.515,289.434,284.349,259.005,0.116102,0.268724,238.857,256.539
2014-11-09 14:00,0.30658,301.913,289.165,263.307,289.701,285.777,260.822,0.183656,0.286267,240.548,258.457
2014-11-09 15:00,0.276897,300.134,288.303,262.995,289.166,285.919,261.421,0.204771,0.283083,241.533,260.052
2014-11-09 16:00,0.255451,300.408,290.229,263.411,290.632,287.048,262.136,0.162472,0.265158,241.704,261.355
2014-11-09 17:00,0.232753,299.579,287.869,262.049,287.407,283.339,258.76,0.142515,0.237633,240.548,259.22
2014-11-09 18:00,0.226259,301.037,292.929,265.355,293.892,290.101,263.318,0.128156,0.234723,241.93,261.834
2014-11-09 19:00,0.250434,299.485,292.005,264.849,292.34,288.584,262.017,0.131431,0.263276,240.253,260.217
2014-11-09 20:00,0.328723,296.531,284.869,260.769,284.501,279.81,255.28,0.255608,0.352183,237.528,256.894
2014-11-09 21:00,1.35215,278.279,238.585,234.845,232.772,229.385,224.657,0.981308,1.34454,218.137,225.994
2014-11-09 22:00,-0.00975537,279.667,268.343,250.429,266.508,262.361,244.932,-0.0,-0.0,230.511,245.804
2014-11-09 23:00,-0.00343883,283.261,275.046,254.217,274.623,271.283,250.501,-0.00291166,-0.00694342,235.038,252.537
2014-11-10 00:00,-0.00220312,285.357,279.336,257.233,279.318,275.551,252.723,-0.0,-0.00222418,237.137,255.366
2014-11-10 01:00,-0.0,286.121,281.978,258.58,282.803,280.406,257.034,-0.0,0.00173962,237.398,257.421
2014-11-10 02:00,-0.0,286.569,284.071,259.683,285.201,283.194,259.249,-0.0,-0.0,238.294,259.135
2014-11-10 03:00,-0.0,282.408,276.08,255.16,275.857,272.565,251.291,-0.0,-0.0,234.827,253.595
2014-11-10 04:00,-0.0,270.151,256.992,244.07,254.461,250.156,236.307,-0.0,-0.0,226.778,240.576
2014-11-10 05:00,0.00167594,285.357,284.3,260.119,286.033,284.061,260.701,-0.0,-0.0,239.41,260.052
2014-11-10 06:00,-0.00209629,284.41,285.321,260.769,287.679,286.343,263.2,-0.0,-0.0,240.841,261.595
2014-11-10 07:00,0.00313188,285.357,286.328,261.412,288.628,287.609,263.67,-0.0,-0.0,241.533,262.23
2014-11-10 08:00,-0.0,287.3,287.978,262.155,290.367,289.276,264.488,-0.0,-0.0,241.015,262.466
2014-11-10 09:00,0.564047,279.081,270.468,251.429,270.495,268.007,249.037,0.503392,0.738731,233.159,249.928
2014-11-10 10:00,0.423963,292.534,289.805,262.995,291.16,288.999,263.318,0.21284,0.443167,240.43,261.194
2014-11-10 11:00,0.378102,297.649,292.827,265.254,294.149,291.057,264.255,0.156347,0.37062,241.533,262.151
2014-11-10 12:00,0.343109,301.478,294.846,266.557,295.803,292.006,264.721,0.135662,0.318612,242.71,262.623
2014-11-10 13:00,0.338543,301.653,289.272,262.89,290.632,287.748,263.318,0.203608,0.328217,243.31,262.388
2014-11-10 14:00,0.312443,303.592,291.174,264.236,292.079,288.722,264.255,0.189693,0.297091,242.82,261.993
2014-11-10 15:00,0.276707,303.917,292.52,265.052,293.119,289.413,262.61,0.156192,0.268744,241.704,261.033
2014-11-10 16:00,0.192923,294.933,284.869,260.553,285.618,283.049,260.219,0.16842,0.237108,239.954,258.372
2014-11-10 17:00,0.212781,301.826,291.279,264.543,291.292,286.485,259.977,0.103426,0.217467,240.607,258.372
2014-11-10 18:00,0.23678,301.913,293.336,265.658,294.405,290.101,263.318,0.131895,0.246906,240.899,260.052
2014-11-10 19:00,0.268332,300.317,292.827,265.456,294.149,290.511,263.67,0.171271,0.291735,240.607,260.299
2014-11-10 20:00,0.383759,296.531,286.55,261.412,286.86,283.194,259.127,0.291022,0.41101,237.849,256.805
2014-11-10 21:00,0.319602,294.713,291.591,264.543,293.377,290.921,264.138,0.465105,0.483985,240.607,261.033
2014-11-10 22:00,-0.00994497,290.685,289.058,263.203,290.5,288.445,263.318,-0.0,-0.0,239.894,259.471
2014-11-10 23:00,-0.00692785,290.301,289.165,262.89,290.897,288.445,262.965,-0.0029329,-0.00349704,241.533,260.381
2014-11-11 00:00,-0.0022139,271.531,273.997,254.217,276.62,276.169,258.27,-0.0,-0.0,243.202,260.463
2014-11-11 01:00,-0.0,285.045,283.38,260.011,284.501,282.028,259.127,-0.0,-0.0,240.841,259.387
2014-11-11 02:00,-0.0,282.923,277.977,256.32,277.978,274.617,253.24,-0.0,-0.0,235.593,254.162
2014-11-11 03:00,-0.0,286.569,285.095,260.769,286.585,284.349,261.301,-0.0,-0.0,236.808,257.942
2014-11-11 04:00,-0.00149689,278.482,271.848,251.922,271.785,269.0,249.971,-0.0,-0.0,231.156,250.544
2014-11-11 05:00,-0.0,275.707,268.054,250.303,267.016,264.106,247.279,-0.0,-0.0,230.593,246.707
2014-11-11 06:00,0.0021035,286.421,287.102,261.731,289.3,288.027,263.436,-0.0,-0.0,235.936,259.387
2014-11-11 07:00,-0.0,286.421,286.661,261.412,289.032,287.469,263.318,-0.0,-0.0,235.799,259.22
2014-11-11 08:00,-0.0,281.165,281.029,257.685,283.656,282.321,260.942,-0.0,-0.0,235.867,258.457
2014-11-11 09:00,0.375693,287.587,287.432,261.731,289.701,288.027,263.2,0.343547,0.500656,236.742,258.286
2014-11-11 10:00,0.396581,292.174,289.699,262.89,291.686,289.551,263.67,0.193234,0.411703,236.808,258.543
2014-11-11 12:00,0.334746,301.826,294.746,265.758,295.93,292.41,264.605,0.127338,0.313457,236.742,258.028
2014-11-11 13:00,0.307456,302.848,292.929,265.153,294.021,290.375,262.965,0.153465,0.294129,234.113,256.36
2014-11-11 14:00,0.263849,297.947,282.096,258.358,281.221,275.706,252.982,0.136295,0.262706,229.178,249.513
2014-11-11 15:00,0.248524,294.043,276.336,254.454,275.396,270.798,250.104,0.15115,0.263857,228.575,247.481
2014-11-11 16:00,0.244245,302.085,289.805,263.099,290.5,286.343,260.098,0.135841,0.241745,231.236,254.999
2014-11-11 17:00,0.240087,304.078,294.746,266.259,296.056,291.871,264.255,0.12108,0.237084,233.01,257.508
2014-11-11 18:00,0.259704,301.478,293.336,265.557,294.661,291.193,263.318,0.152739,0.266897,232.405,256.181
2014-11-11 19:00,0.242898,300.589,294.145,266.159,296.056,292.545,264.721,0.137689,0.266002,232.405,255.183
2014-11-11 20:00,0.222422,290.558,281.148,258.58,281.366,278.307,256.535,0.222054,0.264766,230.916,249.513
2014-11-11 21:00,1.08923,274.551,242.37,236.943,238.693,238.049,231.743,0.889014,1.15908,221.031,229.314
2014-11-11 22:00,-0.0,261.251,242.824,237.101,238.938,233.969,227.431,-0.0,-0.0,220.337,228.423
2014-11-11 23:00,-0.00348957,239.711,226.583,228.378,224.694,223.043,220.86,-0.00295462,-0.00352293,218.891,222.743
2014-11-12 00:00,-0.0,227.984,223.252,226.866,221.838,220.685,220.302,-0.00188377,-0.00224611,215.873,219.608
2014-11-12 01:00,-0.0,249.89,241.682,236.306,240.631,238.978,232.867,-0.0,-0.0,223.329,232.347
2014-11-12 02:00,-0.00152171,270.713,257.854,244.349,256.213,252.536,239.47,-0.0,-0.0,225.058,237.185
2014-11-12 03:00,-0.0,256.589,250.371,240.32,250.623,248.736,240.354,-0.0,0.00146753,226.405,239.121
2014-11-12 04:00,-0.0,225.382,218.474,224.908,217.427,216.972,217.832,-0.0,-0.0,211.636,213.668
2014-11-12 05:00,-0.0,218.393,213.031,222.659,211.825,210.576,211.992,-0.0,-0.0,211.303,211.602
2014-11-12 06:00,0.00211053,245.01,244.16,237.101,244.122,242.585,236.307,-0.0,-0.0,229.601,240.185
2014-11-12 07:00,-0.0,235.601,229.373,229.665,228.001,225.597,221.965,-0.0,-0.0,219.863,225.799
2014-11-12 08:00,-0.0,237.078,231.713,230.743,231.131,228.59,224.304,-0.0,-0.0,221.258,227.877
2014-11-12 09:00,0.62295,249.156,229.072,229.301,228.001,225.597,222.329,0.941876,1.16797,219.014,224.61
2014-11-12 10:00,0.365714,246.775,219.247,224.305,218.478,217.29,218.025,0.698292,0.787398,217.096,219.134
2014-11-12 11:00,0.302607,246.775,223.94,227.058,223.758,223.043,222.329,0.880049,0.980698,219.503,222.529
2014-11-12 12:00,0.30542,255.521,235.011,232.319,235.155,233.722,229.615,0.565087,0.632995,223.118,229.489
2014-11-12 13:00,0.230801,257.605,246.313,238.195,245.914,244.544,237.676,0.561261,0.642125,226.405,236.9
2014-11-12 14:00,0.266129,276.811,251.53,240.913,250.415,247.293,238.278,0.28576,0.365151,228.4,238.303
2014-11-12 15:00,0.342821,260.827,242.597,236.146,243.209,242.364,237.07,0.534128,0.600374,229.093,237.608
2014-11-12 16:00,0.348126,284.249,256.118,243.79,256.213,252.732,242.097,0.323119,0.402179,229.007,241.728
2014-11-12 17:00,0.266021,282.234,255.941,243.93,252.262,246.246,233.185,0.234116,0.314869,222.476,233.617
2014-11-12 18:00,0.462635,266.466,226.261,228.749,224.384,222.753,219.739,0.544191,0.63476,217.229,221.436
2014-11-12 19:00,0.515255,267.761,228.155,229.847,226.522,225.038,222.873,0.603124,0.710844,219.26,223.586
2014-11-12 20:00,0.706721,275.251,227.219,229.301,224.384,222.462,219.739,0.7298,0.850172,215.873,222.313
2014-11-12 21:00,1.36923,271.531,203.838,220.077,203.179,202.529,206.056,1.12666,1.47966,205.233,204.721
2014-11-12 22:00,-0.0,204.719,209.237,221.814,208.131,207.651,209.638,-0.0,-0.0,208.838,209.379
2014-11-12 23:00,-0.00351579,222.276,216.88,223.899,215.993,215.356,215.274,-0.00297681,-0.00709879,214.441,215.867
2014-11-13 00:00,-0.0,239.711,232.28,230.743,230.574,228.324,225.009,-0.0,-0.0,220.57,226.948
2014-11-13 01:00,-0.0,252.585,248.784,239.871,248.946,247.293,238.876,-0.0,-0.0,225.739,239.255
2014-11-13 02:00,-0.0,259.954,255.05,243.084,254.854,252.536,242.384,-0.0,-0.0,224.959,240.964
2014-11-13 03:00,-0.00145812,257.605,240.984,235.985,236.695,231.714,223.949,-0.0,-0.0,218.767,228.603
2014-11-13 04:00,-0.00150581,265.446,248.784,239.871,246.135,241.251,230.604,-0.0,-0.0,221.596,231.364
2014-11-13 05:00,0.00169129,264.377,254.328,242.942,254.263,251.156,238.876,-0.0,-0.0,228.224,239.922
2014-11-13 06:00,-0.0,264.739,259.039,245.587,259.236,256.367,244.652,-0.0,-0.0,231.943,245.46
2014-11-13 07:00,-0.0,275.48,268.63,251.056,269.186,265.309,248.903,-0.0,-0.0,230.266,246.483
2014-11-13 08:00,-0.0,269.283,265.243,249.286,265.997,263.063,247.415,-0.0,-0.0,230.101,246.595
2014-11-13 09:00,0.806099,267.761,259.706,245.859,260.706,258.957,245.905,0.769389,0.932176,229.178,246.032
2014-11-13 10:00,0.632948,283.261,261.982,247.465,264.27,262.712,249.305,0.586355,0.680346,232.097,249.721
2014-11-13 11:00,0.435918,291.315,268.487,251.429,269.021,264.451,247.415,0.346834,0.455566,228.835,244.764
2014-11-13 12:00,0.513564,287.729,257.339,244.626,256.598,253.316,239.47,0.478591,0.539669,225.156,241.221
2014-11-13 13:00,0.469427,296.531,271.162,251.922,272.899,270.96,253.111,0.407684,0.483393,233.159,251.051
2014-11-13 14:00,0.342173,295.69,282.448,258.913,283.938,281.293,258.882,0.293812,0.363754,234.756,253.974
2014-11-13 15:00,0.300666,291.809,277.35,255.974,277.528,273.99,254.009,0.263454,0.336483,232.02,249.408
2014-11-13 16:00,0.235486,297.349,287.432,261.944,288.358,284.779,259.735,0.142707,0.248598,235.038,254.162
2014-11-13 17:00,0.255248,295.368,283.264,259.683,283.797,279.511,257.034,0.171786,0.278832,233.603,251.85
2014-11-13 18:00,0.199927,298.242,291.694,264.441,292.989,289.413,263.318,0.0984172,0.219049,237.072,257.595
2014-11-13 19:00,0.225185,297.449,292.211,264.849,293.506,290.238,263.436,0.109198,0.250072,235.525,256.716
2014-11-13 20:00,0.174113,293.93,290.86,264.133,292.6,289.551,263.318,0.133513,0.218892,235.038,256.628
2014-11-13 21:00,0.435905,288.841,283.032,259.683,284.641,281.882,259.977,0.417221,0.487906,232.633,254.443
2014-11-13 22:00,-0.0,289.247,287.541,262.155,289.568,286.907,262.61,-0.0,-0.0,233.603,256.45
2014-11-13 23:00,-0.00354256,286.271,282.331,259.134,283.23,279.511,256.66,-0.00299948,-0.00357642,232.481,254.443
2014-11-14 00:00,-0.0,276.594,267.18,249.414,266.678,264.279,248.499,-0.0,-0.0,228.224,244.998
2014-11-14 01:00,0.00175035,258.576,246.102,237.258,245.693,243.024,234.291,-0.0,-0.0,225.352,234.389
2014-11-14 02:00,0.00153202,254.396,243.719,236.466,243.438,241.475,233.819,-0.0,-0.0,226.311,234.542
2014-11-14 03:00,0.00146258,258.096,255.05,242.656,255.827,254.855,244.652,-0.0,-0.0,229.007,243.214
2014-11-14 04:00,-0.0,256.062,253.04,241.791,253.867,252.536,243.241,-0.0,-0.0,228.312,241.98
2014-11-14 05:00,-0.0,264.009,263.401,247.728,264.444,263.586,250.501,-0.0,-0.0,229.517,247.699
2014-11-14 06:00,-0.0,265.446,264.788,248.382,267.016,266.329,252.075,-0.0,-0.0,231.552,250.34
2014-11-14 07:00,0.00318421,263.636,259.039,244.626,258.678,257.115,244.932,-0.0,-0.0,227.78,242.725
2014-11-14 08:00,0.0076958,259.954,256.118,243.65,257.55,255.614,244.372,-0.0,-0.0,228.488,245.345
2014-11-14 09:00,0.0579965,285.357,282.916,259.024,284.501,281.882,259.005,0.159593,0.146377,230.755,253.785
2014-11-14 10:00,0.401289,287.587,278.101,255.742,279.17,276.015,256.535,0.308311,0.446388,230.916,252.537
2014-11-14 11:00,0.332666,270.434,249.978,239.115,248.307,245.612,235.382,0.387293,0.468417,225.739,237.043
2014-11-14 12:00,0.53912,292.653,269.059,250.931,270.169,268.67,252.075,0.487906,0.563829,229.348,249.093
2014-11-14 13:00,0.509452,293.356,271.574,252.777,274.312,273.2,256.16,0.491514,0.564401,231.315,252.244
2014-11-14 14:00,0.323895,288.152,270.607,251.676,272.264,270.798,253.368,0.309033,0.370915,230.101,250.646
2014-11-14 15:00,0.267887,259.045,235.011,232.663,234.107,233.722,229.449,0.448707,0.51385,221.145,228.06
2014-11-14 16:00,0.229332,267.123,243.273,236.146,242.515,240.35,231.419,0.442961,0.505253,226.405,236.614
2014-11-14 17:00,0.230118,299.485,284.869,260.661,285.34,282.028,259.005,0.131739,0.236278,230.511,251.85
2014-11-14 18:00,0.281585,296.738,284.869,260.553,285.618,282.175,259.127,0.183398,0.301458,232.097,251.452
2014-11-14 19:00,0.275596,296.323,287.76,262.471,288.628,284.492,259.977,0.188406,0.302963,233.01,253.213
2014-11-14 20:00,0.62743,294.043,279.213,257.459,280.639,277.396,255.784,0.553379,0.686213,233.75,252.537
2014-11-14 21:00,0.335309,291.931,288.736,263.099,290.897,288.306,263.083,0.402199,0.432546,235.108,254.999
2014-11-14 22:00,-0.0,289.381,287.869,262.576,290.234,287.609,262.728,-0.0,-0.0109077,236.341,255.366
2014-11-14 23:00,-0.00356988,284.73,282.331,259.683,284.22,280.998,258.76,-0.00302261,-0.00360401,236.542,253.88
2014-11-15 00:00,-0.0,288.012,286.882,261.838,289.3,286.767,262.136,-0.0,-0.0,236.874,254.629
2014-11-15 01:00,-0.0,287.3,286.217,261.305,288.358,285.35,261.062,-0.0,-0.0,235.455,254.536
2014-11-15 02:00,0.00153718,286.717,285.208,260.769,287.134,284.492,260.098,-0.0,-0.0,235.317,254.162
2014-11-15 03:00,-0.0,282.581,281.505,258.691,283.23,280.108,258.27,-0.0,-0.0,235.593,253.785
2014-11-15 04:00,-0.00151451,281.705,276.971,255.626,276.923,271.121,251.159,-0.0,-0.0,232.481,248.987
2014-11-15 05:00,-0.00170102,259.954,251.912,241.354,251.447,248.736,239.913,-0.0,-0.0,231.787,241.728
2014-11-15 06:00,0.0021304,281.705,277.977,256.205,279.318,275.551,254.646,-0.0,-0.0,233.968,250.442
2014-11-15 07:00,-0.0,261.666,254.69,243.084,255.049,251.354,241.664,-0.0,-0.0,233.01,243.093
2014-11-15 08:00,-0.00774955,265.791,257.339,244.349,256.789,252.536,241.808,-0.0,-0.0,232.557,243.093
2014-11-15 09:00,0.789769,271.798,254.328,242.225,254.263,250.757,241.229,0.64438,0.840809,232.481,242.971
2014-11-15 10:00,0.608278,290.171,256.469,243.65,256.021,251.156,241.664,0.464781,0.610349,233.308,242.848
2014-11-15 11:00,0.422081,297.349,274.524,253.741,273.843,267.171,248.768,0.268494,0.404037,233.968,247.371
2014-11-15 12:00,0.366249,297.848,268.63,250.177,267.69,262.185,246.869,0.258191,0.379523,233.75,246.032
2014-11-15 13:00,0.376593,296.427,258.195,244.765,256.789,251.354,240.06,0.27801,0.397782,232.709,242.602
2014-11-15 14:00,0.250074,297.449,283.611,259.354,283.088,276.323,251.814,0.1207,0.26588,232.481,249.303
2014-11-15 15:00,0.240971,296.84,270.885,252.168,269.679,262.361,246.319,0.161647,0.251501,231.865,245.575
2014-11-15 16:00,0.304351,290.813,262.616,247.2,261.431,255.614,243.383,0.240514,0.339794,231.394,244.056
2014-11-15 17:00,0.437518,290.813,246.523,238.657,247.446,245.399,238.577,0.381504,0.487849,233.01,240.446
2014-11-15 18:00,0.349061,303.674,281.386,258.246,282.374,275.551,253.24,0.219701,0.353958,235.038,251.751
2014-11-15 19:00,0.37458,303.015,287.212,261.519,288.358,283.194,258.392,0.255104,0.392547,235.799,254.256
2014-11-15 20:00,0.341314,296.114,290.335,263.721,292.47,290.101,263.553,0.255963,0.397084,236.004,256.091
2014-11-15 21:00,0.521902,292.653,289.379,263.203,291.555,289.689,264.138,0.496161,0.610084,236.94,257.158
2014-11-15 22:00,0.0110477,286.717,284.869,260.228,286.447,284.061,259.127,-0.0,-0.0,235.038,254.907
2014-11-15 23:00,-0.00359775,287.729,288.951,262.786,291.555,290.784,264.953,-0.00304621,-0.00363215,237.528,258.713
2014-11-16 00:00,-0.0,287.155,288.195,262.049,290.897,289.964,264.721,-0.0,-0.0,237.849,259.638
2014-11-16 01:00,0.00176422,287.01,287.978,261.944,290.764,290.238,264.605,-0.0,-0.0,238.733,261.113
2014-11-16 02:00,-0.0,286.271,287.651,261.519,290.234,289.826,264.721,-0.0,-0.0,239.227,261.595
2014-11-16 03:00,-0.0,285.357,286.661,260.769,288.897,288.445,264.372,-0.0,-0.0,240.312,262.623
2014-11-16 04:00,-0.0,285.045,286.439,260.769,288.763,288.445,264.372,-0.0,-0.0,240.371,263.012
2014-11-16 05:00,-0.0,284.888,286.661,260.984,289.032,288.722,264.721,-0.0,-0.0,241.304,263.552
2014-11-16 06:00,-0.00427317,284.888,286.105,260.445,288.358,287.888,263.787,-0.0,-0.0,241.817,263.706
2014-11-16 07:00,-0.00320716,284.41,285.658,260.337,287.679,287.469,263.905,-0.0,-0.0,242.489,264.314
2014-11-16 08:00,-0.00779992,284.087,285.658,260.119,287.815,287.469,263.436,-0.0,-0.0,243.202,264.839
2014-11-16 09:00,0.412854,284.888,285.882,260.011,288.087,288.027,264.255,0.325455,0.53178,243.31,265.137
2014-11-16 10:00,0.388849,289.514,288.951,261.944,291.029,289.964,264.605,0.185,0.44117,244.426,265.655
2014-11-16 11:00,0.367181,294.823,292.005,263.928,294.149,292.41,265.301,0.149894,0.394962,244.322,265.875
2014-11-16 12:00,0.327413,298.822,294.846,264.95,296.559,294.282,265.993,0.12154,0.337056,244.894,266.166
2014-11-16 13:00,0.277338,301.826,297.107,266.756,299.041,296.258,266.108,0.0998277,0.286753,244.79,266.094
2014-11-16 14:00,0.276555,302.511,293.944,265.153,295.803,293.216,265.069,0.140086,0.286514,245.202,266.456
2014-11-16 15:00,0.258304,302.171,292.929,264.441,294.788,292.141,265.185,0.146789,0.27487,244.164,265.434
2014-11-16 16:00,0.251649,302.932,294.546,265.052,296.433,293.35,265.069,0.125217,0.262484,244.894,266.021
2014-11-16 17:00,0.253087,301.913,293.133,264.339,295.043,292.276,265.069,0.146909,0.271311,245.151,266.021
2014-11-16 18:00,0.283704,300.317,290.86,263.099,292.989,290.511,264.721,0.193214,0.328444,246.159,266.312
2014-11-16 19:00,0.243606,298.242,292.929,264.236,295.17,292.948,265.647,0.166728,0.288973,246.456,266.312
2014-11-16 20:00,0.287772,296.323,294.044,264.95,296.182,294.149,266.795,0.197115,0.34928,246.603,266.888
2014-11-16 21:00,0.360091,292.889,292.108,263.928,294.533,292.948,266.452,0.403978,0.508947,246.505,267.174
2014-11-16 22:00,-0.0,288.841,290.44,262.681,292.86,292.006,266.222,-0.0,-0.0,246.75,267.53
2014-11-16 23:00,-0.0,288.152,289.272,262.049,291.817,291.464,265.762,-0.00307027,-0.00366083,246.456,266.888
2014-11-17 00:00,0.00228162,287.871,289.486,262.366,292.079,291.6,266.108,-0.0,-0.0,246.847,267.246
2014-11-17 01:00,-0.0,287.01,288.843,261.519,291.029,290.784,265.647,-0.0,-0.0,247.57,266.888
2014-11-17 02:00,-0.0,286.569,287.978,261.412,290.5,290.101,265.185,-0.0,-0.0,248.417,267.174
2014-11-17 03:00,-0.00147578,285.818,287.651,261.305,290.101,289.826,264.953,-0.0,-0.0,249.199,267.388
2014-11-17 04:00,0.00152294,284.888,286.55,260.445,288.763,288.306,264.255,-0.0,-0.0,248.695,266.673
2014-11-17 05:00,-0.0,284.57,286.217,260.553,288.628,288.027,264.721,-0.0,-0.0,249.154,266.601
2014-11-17 06:00,-0.0,283.924,285.658,260.011,287.951,287.748,263.787,-0.0,-0.0,248.787,266.239
2014-11-17 07:00,-0.0,283.093,284.071,259.574,285.34,283.339,260.098,-0.0,-0.0,246.847,264.464
2014-11-17 08:00,-0.00784677,282.581,283.264,259.024,284.079,281.293,259.005,-0.0,-0.0,246.159,263.782
2014-11-17 09:00,0.381483,284.888,284.071,259.024,285.061,283.194,259.492,0.346927,0.527771,246.307,264.086
2014-11-17 10:00,0.377254,289.381,286.992,260.876,287.951,284.779,259.735,0.203552,0.448071,245.91,264.086
2014-11-17 11:00,0.367004,295.151,290.965,263.099,292.47,289.964,262.728,0.15907,0.401388,246.208,264.615
2014-11-17 12:00,0.325716,299.108,294.646,265.153,296.433,293.483,265.185,0.125604,0.341852,246.603,264.914
2014-11-17 13:00,0.273256,301.478,295.738,266.059,297.309,293.617,264.488,0.103207,0.286686,246.505,264.765
2014-11-17 14:00,0.240251,303.346,297.204,266.954,298.549,294.679,264.255,0.0858658,0.247423,246.406,264.989
2014-11-17 15:00,0.219805,304.239,297.107,267.052,299.041,294.944,263.905,0.0827148,0.228951,245.557,264.914
2014-11-17 16:00,0.238358,302.848,294.346,265.456,296.182,292.948,263.905,0.119072,0.253872,245.151,264.464
2014-11-17 17:00,0.21241,302.764,296.523,266.855,298.672,295.208,265.185,0.0904751,0.230227,245.048,264.464
2014-11-17 18:00,0.217029,301.74,296.327,266.358,298.178,294.812,265.762,0.0964406,0.240859,244.79,264.086
2014-11-17 19:00,0.265188,301.037,295.144,266.159,297.309,294.016,265.301,0.147404,0.304509,245.202,264.162
2014-11-17 20:00,0.283027,297.248,294.446,265.658,296.559,294.016,266.108,0.201514,0.353918,244.945,263.934
2014-11-17 21:00,0.398358,293.124,291.591,263.928,293.635,291.735,264.488,0.472205,0.563033,244.635,263.167
2014-11-17 22:00,-0.0,288.977,289.272,262.576,291.555,290.101,264.138,-0.0,-0.0,244.531,262.779
2014-11-17 23:00,-0.00365512,288.291,288.52,261.944,290.764,289.413,264.605,-0.0,-0.00369006,244.374,262.388
2014-11-18 00:00,-0.0,287.587,287.541,261.412,289.835,288.584,263.67,-0.0,-0.0,244.058,261.834
2014-11-18 01:00,-0.0,287.155,287.212,261.412,289.434,288.167,263.553,-0.0,-0.0,244.111,261.834
2014-11-18 02:00,-0.0,273.831,275.694,255.16,278.725,277.548,259.127,-0.0,-0.0,244.217,261.515
2014-11-18 03:00,-0.0014801,276.811,277.852,255.858,280.493,279.511,260.34,-0.0,-0.0,243.899,261.675
2014-11-18 04:00,-0.00152705,285.97,286.661,260.876,288.897,287.609,263.083,-0.0,-0.0,243.579,261.914
2014-11-18 05:00,-0.00171473,285.818,286.328,260.876,288.493,286.907,263.553,-0.0,-0.0,243.418,261.675
2014-11-18 06:00,-0.0,284.888,285.546,260.337,287.815,286.626,262.965,-0.0,-0.0,242.266,260.952
2014-11-18 07:00,-0.0,285.202,285.994,260.553,288.628,287.888,263.436,-0.0,-0.0,240.957,261.355
2014-11-18 08:00,-0.0,284.57,285.882,260.228,288.358,287.469,263.083,-0.0,-0.0,240.014,260.871
2014-11-18 09:00,0.39303,284.249,282.916,258.469,285.34,284.061,261.779,0.415972,0.495984,239.41,259.804
2014-11-18 10:00,0.358388,290.171,284.755,259.354,286.86,284.636,261.421,0.253393,0.384194,239.954,259.887
2014-11-18 11:00,0.441125,293.587,282.682,258.691,284.641,282.904,261.062,0.343916,0.504868,239.593,259.135
2014-11-18 12:00,0.404656,298.822,288.412,261.838,289.835,286.767,261.779,0.256625,0.441076,240.014,259.387
2014-11-18 13:00,0.279905,302.596,295.837,266.458,297.184,293.082,264.605,0.0975196,0.275821,239.532,259.887
2014-11-18 14:00,0.240187,304.239,297.397,267.348,298.795,294.812,265.185,0.0858429,0.241265,239.774,260.135
2014-11-18 15:00,0.23017,304.794,296.815,267.249,298.549,294.547,264.372,0.0935053,0.233544,239.471,259.387
2014-11-18 16:00,0.232235,301.74,291.902,264.441,293.892,290.375,263.2,0.13008,0.242871,239.227,258.2
2014-11-18 17:00,0.205667,304.398,298.358,268.324,300.869,297.17,266.222,0.0771498,0.222089,238.42,258.882
2014-11-18 18:00,0.202826,303.264,299.213,269.0,302.191,299.232,267.251,0.0780603,0.229585,238.168,258.967
2014-11-18 19:00,0.230121,301.302,298.358,268.421,301.472,299.104,267.365,0.111095,0.273079,238.357,259.051
2014-11-18 21:00,0.348259,293.702,292.314,264.95,295.17,292.948,264.953,0.405447,0.501013,237.268,257.07
2014-11-18 22:00,-0.0118581,290.429,290.545,263.928,293.506,292.006,265.532,-0.0,-0.0,237.913,257.333
2014-11-18 23:00,-0.0036846,289.381,289.272,263.203,292.209,290.511,264.138,-0.0,-0.0,237.333,256.45
2014-11-19 00:00,-0.0,286.717,285.658,260.661,288.628,286.343,261.779,-0.0,-0.0,237.463,256.982
2014-11-19 01:00,-0.00178522,288.012,289.699,263.307,292.73,291.871,265.762,-0.0,-0.0,237.657,258.114
2014-11-19 02:00,-0.0015577,287.587,288.628,262.786,292.079,291.6,265.185,-0.0,-0.0,238.168,258.028
2014-11-19 03:00,-0.00148437,287.444,288.412,262.681,291.555,290.511,264.721,-0.0,-0.0,237.592,257.421
2014-11-19 04:00,-0.00153108,286.864,287.869,262.471,290.764,289.964,264.605,-0.0,-0.0,236.408,257.246
2014-11-19 05:00,-0.0,286.717,287.212,262.155,290.234,289.137,263.787,-0.0,-0.0,236.609,256.982
2014-11-19 06:00,-0.0,285.665,285.882,261.305,288.763,287.329,262.965,-0.0,-0.0,235.455,256.091
2014-11-19 07:00,-0.0,285.665,285.882,261.091,288.897,287.469,262.847,-0.0,-0.0,235.317,255.73
2014-11-19 08:00,-0.0,271.798,272.796,253.381,276.01,275.396,257.282,-0.0,-0.0,235.525,254.999
2014-11-19 09:00,0.404812,287.3,286.772,261.412,289.568,287.469,262.728,0.319115,0.507329,234.968,255.548
2014-11-19 10:00,0.642368,292.889,281.505,258.469,283.797,281.588,259.37,0.390727,0.626146,235.247,254.999
2014-11-19 11:00,0.37553,296.008,291.07,264.031,292.86,289.551,262.373,0.157132,0.387936,235.799,256.091
2014-11-19 12:00,0.322407,299.579,292.929,265.355,294.277,290.511,263.436,0.126936,0.323861,235.247,255.457
2014-11-19 13:00,0.278534,301.39,294.145,265.959,295.424,291.057,263.2,0.105445,0.275789,235.108,255.457
2014-11-19 14:00,0.249786,302.341,293.742,265.758,294.533,290.101,262.61,0.105236,0.249737,234.257,254.907
2014-11-19 15:00,0.273068,293.472,276.336,255.51,276.468,273.042,252.723,0.233174,0.320256,231.709,249.721
2014-11-19 16:00,0.224934,298.533,288.195,262.366,289.166,0.0,260.701,0.161228,0.0,232.251,253.021
2014-11-19 17:00,0.221045,296.635,283.032,259.574,281.366,277.243,254.646,0.170644,0.273041,229.263,246.258
2014-11-19 18:00,0.4433,265.446,217.285,224.305,215.993,214.697,214.671,0.713018,0.819195,214.879,216.131
2014-11-19 19:00,0.519323,268.986,222.198,226.481,221.511,220.081,219.551,0.719215,0.833169,217.881,220.763
2014-11-19 20:00,0.805053,275.707,218.082,224.708,217.427,215.683,215.474,0.86215,1.02798,214.879,216.652
2014-11-19 21:00,1.01917,270.151,224.616,227.248,222.806,221.579,220.115,0.855678,1.11538,218.517,221.436
2014-11-19 22:00,-0.0,227.984,223.94,226.866,223.443,221.579,220.675,-0.0,-0.0,218.264,221.213
2014-11-19 23:00,-0.00371459,270.151,261.822,246.667,261.431,258.224,245.072,-0.00314514,-0.0,228.575,242.602
2014-11-20 00:00,-0.0,287.729,285.546,260.661,287.679,284.061,260.098,-0.0,-0.0,230.755,249.303
2014-11-20 01:00,-0.00179224,232.213,229.97,229.665,228.583,226.974,223.949,-0.0,0.00180938,220.57,225.011
2014-11-20 02:00,-0.0,239.711,236.318,232.663,235.93,234.461,231.419,-0.0,-0.0,224.156,231.364
2014-11-20 03:00,-0.0,250.598,245.89,237.728,245.693,243.679,236.613,-0.0,-0.0,226.778,238.027
2014-11-20 04:00,-0.0,261.251,256.118,243.65,256.98,254.089,242.956,-0.0,-0.0,228.312,242.725
2014-11-20 05:00,-0.0,245.913,245.248,237.415,246.355,245.186,238.278,-0.0,-0.0,228.136,239.121
2014-11-20 06:00,-0.00215892,249.89,243.496,236.466,242.747,241.027,233.344,-0.0,-0.0,223.746,235.74
2014-11-20 07:00,0.00324584,273.831,264.329,247.859,264.27,259.864,242.097,-0.0,-0.0,227.238,242.848
2014-11-20 08:00,-0.0,258.096,254.509,242.799,255.049,251.552,238.876,-0.0,-0.0,226.871,241.728
2014-11-20 09:00,0.486334,277.451,270.885,252.534,272.899,269.821,252.853,0.458838,0.533067,230.996,248.669
2014-11-20 10:00,0.409557,288.43,277.35,256.32,278.873,274.46,254.009,0.290538,0.446997,232.709,248.882
2014-11-20 11:00,0.648387,298.339,268.916,251.429,271.945,270.148,253.881,0.524958,0.628137,237.592,252.439
2014-11-20 12:00,0.317569,297.848,288.195,262.471,288.628,284.492,259.856,0.143314,0.32386,239.471,253.974
2014-11-20 13:00,0.277179,300.134,290.86,264.236,291.292,286.343,260.461,0.112242,0.278477,238.919,253.405
2014-11-20 14:00,0.277488,301.214,282.799,259.464,283.372,276.938,255.784,0.140969,0.275268,238.919,253.974
2014-11-20 15:00,0.263669,296.531,281.624,258.469,282.66,279.959,258.27,0.200629,0.276744,237.528,253.785
2014-11-20 16:00,0.224781,301.999,291.174,264.543,291.817,287.048,260.822,0.111776,0.241339,237.137,253.88
2014-11-20 17:00,0.319516,269.283,229.373,228.564,0.0,224.474,219.172,0.458588,0.54024,214.293,219.372
2014-11-20 18:00,0.398126,264.377,221.117,225.701,219.508,217.922,217.445,0.563982,0.652367,215.452,217.418
2014-11-20 19:00,0.545943,270.434,209.237,221.6,207.702,206.895,208.761,0.678079,0.792296,207.105,208.027
2014-11-20 20:00,0.854561,274.787,207.704,220.517,205.946,204.955,208.096,0.916503,1.0864,207.697,207.326
2014-11-20 21:00,1.1881,270.151,214.358,222.868,212.997,212.329,212.411,0.998829,1.29303,213.078,213.668
2014-11-20 22:00,-0.0,218.393,214.358,222.868,212.609,211.635,212.411,-0.0,-0.0,211.47,212.8
2014-11-20 23:00,-0.0037451,230.231,221.117,225.107,219.847,218.547,217.639,-0.0,-0.0,216.83,219.843
2014-11-21 00:00,-0.0,249.156,237.841,234.183,235.93,232.725,226.229,-0.0,-0.0,219.863,228.782
2014-11-21 01:00,-0.0,260.827,250.954,241.791,248.307,244.544,234.291,-0.0,-0.0,221.596,234.389
2014-11-21 02:00,-0.00156782,263.636,253.595,241.791,251.447,248.736,238.278,-0.0,0.00158281,223.118,233.617
2014-11-21 03:00,-0.0,240.898,235.8,232.319,235.155,233.969,228.782,-0.0,-0.0,223.224,230.694
2014-11-21 04:00,0.00153888,251.282,242.824,235.985,241.344,239.208,231.743,-0.0,-0.0,223.118,233.617
2014-11-21 05:00,-0.0,243.066,238.09,233.849,237.451,236.396,231.419,-0.0,-0.0,223.952,232.022
2014-11-21 06:00,-0.0,258.576,255.23,242.369,255.439,254.281,244.09,-0.0,-0.0,229.007,242.971
2014-11-21 07:00,0.00325391,283.594,280.429,258.022,282.231,278.76,257.406,-0.0,-0.0,229.517,247.371
2014-11-21 08:00,-0.007996,283.76,281.267,258.58,283.23,279.061,256.909,-0.0,-0.0,229.433,247.371
2014-11-21 09:00,0.484575,275.932,267.473,250.177,267.857,264.623,248.094,0.527515,0.712846,228.4,243.818
2014-11-21 10:00,0.711884,285.512,253.226,241.646,253.269,251.156,241.808,0.549659,0.759651,229.348,240.185
2014-11-21 11:00,0.508687,293.816,250.175,239.871,250.207,247.708,240.06,0.425159,0.544407,230.266,240.446
2014-11-21 12:00,0.348224,296.738,282.096,259.244,282.087,275.24,251.422,0.167895,0.377594,228.575,245.918
2014-11-21 13:00,0.283874,299.297,283.841,260.011,283.372,276.784,253.625,0.141719,0.291995,230.266,247.151
2014-11-21 14:00,0.264176,302.511,288.412,262.995,288.628,282.758,258.515,0.117456,0.264266,231.943,249.721
2014-11-21 15:00,0.310017,297.749,265.243,249.286,266.167,261.299,248.229,0.206454,0.300087,231.943,246.929
2014-11-21 16:00,0.326846,292.889,268.916,251.305,270.169,268.007,252.723,0.247556,0.32997,232.328,248.987
2014-11-21 17:00,0.446317,293.93,265.394,249.414,267.857,265.99,251.028,0.370206,0.467612,231.473,248.025
2014-11-21 18:00,0.573225,301.302,265.394,249.158,267.69,265.65,252.075,0.450403,0.564816,231.943,249.303
2014-11-21 19:00,0.414292,290.041,264.175,248.252,260.524,253.703,236.765,0.335529,0.480889,223.952,236.469
2014-11-21 20:00,0.853144,282.408,239.317,234.681,235.155,230.429,223.233,0.765004,0.937577,217.881,225.408
2014-11-21 21:00,1.29352,272.836,222.552,226.866,219.847,217.29,215.674,1.02502,1.33937,213.693,216.909
2014-11-21 22:00,-0.0,239.711,224.279,227.438,221.511,219.472,217.055,-0.0,-0.0,214.879,218.653
2014-11-21 23:00,-0.0037761,252.585,240.277,235.173,238.199,235.435,229.116,-0.0,-0.0,220.337,230.011
2014-11-22 00:00,-0.0,263.255,249.781,239.721,247.229,243.896,234.916,-0.0,-0.0,223.642,233.617
2014-11-22 01:00,-0.0018063,258.096,245.248,237.884,242.978,239.667,231.419,-0.0,-0.0,222.15,232.347
2014-11-22 02:00,-0.0,258.096,243.273,236.625,240.392,236.157,228.614,-0.0,-0.0,221.258,229.664
2014-11-22 03:00,-0.00299371,261.666,252.29,241.646,251.036,247.708,235.691,-0.0,-0.0,222.585,236.179
2014-11-22 04:00,-0.0,256.062,240.514,235.01,237.951,234.95,228.109,-0.0,-0.0,219.744,227.877
2014-11-22 05:00,-0.0,270.151,258.195,245.04,256.213,252.536,238.727,-0.0,-0.0,224.46,235.887
2014-11-22 06:00,-0.0,258.096,250.566,240.469,248.307,244.973,236.307,-0.0,-0.0,225.449,236.179
2014-11-22 07:00,-0.0,248.394,237.086,232.663,234.633,232.221,227.089,-0.0,-0.0,220.686,228.603
2014-11-22 08:00,-0.0,239.711,230.85,229.118,230.012,228.056,224.834,-0.0,-0.0,220.916,226.379
2014-11-22 09:00,0.690399,258.096,243.94,236.784,242.978,239.438,232.547,0.736545,0.906098,222.04,234.389
2014-11-22 10:00,0.505283,273.338,249.385,239.57,247.662,243.243,234.134,0.527752,0.618094,222.692,235.295
2014-11-22 11:00,0.663804,279.473,245.248,238.349,244.122,240.123,231.094,0.822726,0.901616,221.819,234.389
2014-11-22 12:00,0.445022,263.636,222.552,226.092,219.508,216.972,215.674,0.554277,0.63973,213.234,217.669
2014-11-22 14:00,0.259321,258.096,220.379,225.306,218.824,216.652,215.873,0.589257,0.659981,215.593,218.41
2014-11-22 15:00,0.232143,258.576,227.219,228.378,225.919,224.19,220.302,0.464853,0.540205,218.264,223.586
2014-11-22 16:00,0.233988,259.045,235.8,233.005,234.107,232.474,229.283,0.473672,0.55279,222.368,229.314
2014-11-22 17:00,0.364184,261.666,217.685,223.694,215.993,215.027,214.872,0.551965,0.635891,213.388,215.061
2014-11-22 18:00,0.418109,269.865,226.583,227.817,224.384,221.875,218.601,0.57107,0.654726,217.752,221.436
2014-11-22 19:00,0.588725,268.382,229.373,229.665,228.293,227.246,224.481,0.733346,0.834109,221.145,225.21
2014-11-22 20:00,0.886162,288.291,244.598,237.415,241.58,234.95,225.535,0.82985,1.00212,220.57,229.664
2014-11-22 21:00,1.0691,276.155,240.039,235.173,235.672,230.17,223.053,0.801558,1.07932,217.491,224.811
2014-11-22 22:00,-0.0131628,262.074,244.598,236.784,241.815,238.282,228.109,-0.0,-0.0,220.337,229.137
2014-11-22 23:00,-0.00380758,246.775,235.275,232.491,233.31,231.714,226.746,-0.0,-0.00384398,220.916,227.323
2014-11-23 00:00,-0.0,237.078,225.282,227.438,223.125,220.685,217.639,-0.0,-0.0,216.963,220.763
2014-11-23 01:00,-0.00181332,218.393,209.734,220.298,208.556,208.026,210.289,-0.0,-0.0,208.464,208.371
2014-11-23 02:00,-0.0015778,213.142,208.223,218.957,207.269,206.128,208.096,-0.0,-0.0,207.697,207.678
2014-11-23 04:00,0.0015463,233.989,228.769,228.934,228.293,226.701,223.77,-0.0,-0.0,221.371,225.994
2014-11-23 05:00,-0.0,245.01,235.011,232.146,233.31,231.459,225.709,-0.0,-0.0,220.101,227.877
2014-11-23 06:00,-0.0,245.913,239.559,234.017,238.938,236.635,230.604,-0.0,-0.0,225.156,234.542
2014-11-23 07:00,-0.00326801,264.739,262.931,247.728,264.792,263.759,250.236,-0.0,-0.0,229.093,245.69
2014-11-23 08:00,-0.0,262.074,259.706,245.587,260.706,259.321,246.319,-0.0,-0.0,227.51,244.412
2014-11-23 09:00,0.634057,261.666,244.16,236.784,241.344,238.282,230.44,0.665233,0.848852,222.476,232.185
2014-11-23 10:00,0.538556,276.594,262.458,247.332,263.04,260.942,246.457,0.559061,0.629356,226.311,243.937
2014-11-23 11:00,0.596286,279.278,261.501,246.399,262.685,261.121,247.551,0.789675,0.833519,227.601,244.881
2014-11-23 12:00,0.514476,279.473,258.195,244.765,259.051,257.671,245.072,0.673209,0.716405,225.643,240.964
2014-11-23 13:00,0.467393,277.451,254.69,242.513,255.827,254.664,242.956,0.65541,0.694947,227.329,242.105
2014-11-23 14:00,0.394378,277.451,267.18,250.177,269.515,269.0,254.264,0.635162,0.674539,230.348,248.882
2014-11-23 15:00,0.37363,286.421,267.473,250.051,270.006,269.0,253.497,0.399861,0.459203,230.43,249.093
2014-11-23 16:00,0.219595,299.391,288.843,263.825,289.3,285.208,261.062,0.103518,0.222892,232.481,251.552
2014-11-23 17:00,0.239507,293.007,279.702,258.358,280.931,278.458,258.515,0.236771,0.301918,233.234,250.646
2014-11-23 18:00,0.207167,294.38,284.982,261.305,284.641,280.85,258.638,0.145744,0.252208,231.787,249.198
2014-11-23 19:00,0.403959,275.48,240.514,235.337,235.414,232.725,225.535,0.476823,0.548449,216.287,225.011
2014-11-23 20:00,0.850284,273.338,209.237,220.298,208.131,207.274,208.54,0.967823,1.14455,208.464,208.371
2014-11-23 21:00,1.29347,270.151,236.832,232.834,235.93,234.706,229.946,1.12919,1.48428,225.739,232.022
2014-11-23 22:00,-0.0,272.58,270.189,252.412,271.785,269.0,252.205,-0.0,-0.0,230.755,248.241
2014-11-23 23:00,-0.00383953,260.827,259.206,245.859,259.606,257.486,245.767,-0.0,-0.0,229.769,245.918
2014-11-24 00:00,-0.00236562,262.074,258.195,245.451,258.491,255.992,243.099,-0.0,-0.0,228.048,244.175
2014-11-24 01:00,-0.0,259.505,255.587,244.07,255.439,252.536,240.5,-0.0,-0.0,228.048,243.336
2014-11-24 02:00,-0.0,264.377,263.401,247.991,264.792,263.063,249.705,-0.0,-0.0,231.473,248.669
2014-11-24 03:00,-0.0,268.073,267.909,251.056,270.169,269.329,254.392,-0.0,-0.0,231.865,249.825
2014-11-24 04:00,-0.0,265.095,265.696,249.669,268.358,268.007,253.881,-0.0,0.00156468,233.603,250.544
2014-11-24 05:00,-0.0,267.761,266.293,250.051,269.021,268.339,254.137,-0.0,-0.0,232.935,250.544
2014-11-24 06:00,-0.0,267.123,266.738,250.051,268.855,268.173,253.497,-0.0,-0.0,232.86,251.152
2014-11-24 07:00,-0.00327402,266.466,259.706,246.13,259.974,257.301,245.072,-0.0,-0.0,226.778,242.848
2014-11-24 08:00,-0.0,280.799,277.852,256.664,279.17,276.169,255.909,-0.0,-0.0,230.266,249.825
2014-11-24 09:00,0.523352,274.787,262.931,246.934,262.329,259.139,244.512,0.501426,0.667395,226.499,242.354
2014-11-24 10:00,0.387462,278.279,260.036,245.451,259.051,255.992,243.667,0.371806,0.473125,226.871,241.98
2014-11-24 11:00,0.316838,283.594,265.394,249.029,264.965,261.654,247.279,0.260866,0.379429,228.048,244.53
2014-11-24 12:00,0.309749,266.131,245.248,236.784,245.024,243.679,236.153,0.331928,0.420204,227.238,237.748
2014-11-24 13:00,0.371025,294.823,267.909,250.429,268.855,264.795,249.572,0.27105,0.389447,230.184,247.808
2014-11-24 14:00,0.389536,283.924,258.365,245.04,260.341,259.684,248.903,0.320629,0.401782,230.996,247.261
2014-11-24 15:00,0.251719,296.738,277.727,257.12,278.873,274.147,254.646,0.138485,0.254125,231.076,249.928
2014-11-24 16:00,0.258603,295.151,276.591,256.434,277.978,274.617,255.532,0.167735,0.263471,230.916,250.34
2014-11-24 17:00,0.327189,296.427,279.823,258.134,281.655,278.609,258.147,0.251846,0.35904,232.097,251.252
2014-11-24 18:00,0.0927587,290.939,282.566,260.228,282.087,277.396,256.41,0.0952764,0.142771,230.43,248.775
2014-11-24 19:00,0.545662,272.322,216.88,223.489,214.89,213.356,212.411,0.619934,0.729162,211.47,212.8
2014-11-24 20:00,0.724927,274.551,221.481,226.092,220.184,218.547,217.055,0.773801,0.925768,217.229,219.608
2014-11-24 21:00,1.11538,280.613,207.704,219.855,203.652,202.113,204.185,0.977875,1.24583,205.874,205.868
2014-11-24 22:00,-0.0,225.382,214.79,222.659,211.825,208.766,208.318,-0.0,-0.0,211.964,213.952
2014-11-24 23:00,-0.0,235.601,222.904,225.897,220.852,218.547,216.859,-0.0,-0.0,217.096,220.535
2014-11-25 00:00,-0.00237788,204.719,196.665,214.927,194.798,193.954,198.195,-0.0,0.00240062,196.585,197.08
2014-11-25 01:00,-0.0,204.719,202.646,217.576,201.233,200.845,202.5,-0.0,-0.0,203.192,202.271
2014-11-25 02:00,-0.0,204.719,207.178,219.183,207.269,206.128,207.423,-0.0,0.00160276,207.502,207.678
2014-11-25 03:00,-0.00150872,247.601,235.8,232.663,233.842,230.17,223.77,-0.0,-0.0,222.476,230.354
2014-11-25 04:00,-0.0,222.276,213.479,221.814,211.825,210.219,210.289,-0.0,-0.0,211.47,212.8
2014-11-25 05:00,-0.0,225.382,216.058,222.659,214.141,211.284,211.146,-0.0,-0.0,212.607,214.787
2014-11-25 06:00,-0.0,204.719,202.646,217.106,200.733,200.415,203.468,-0.0,-0.0,201.465,201.84
2014-11-25 07:00,-0.0,218.393,208.223,218.957,207.269,206.128,208.54,-0.0,-0.0,208.838,208.371
2014-11-25 08:00,-0.0,225.382,210.224,220.077,208.556,207.274,206.97,-0.0,-0.0,209.388,209.707
2014-11-25 09:00,0.550941,246.775,208.223,219.855,207.269,205.349,206.056,0.828003,1.01508,207.304,208.027
2014-11-25 10:00,0.402465,256.062,210.224,220.298,209.808,207.651,207.872,0.756564,0.853629,209.748,210.032
2014-11-25 11:00,0.391339,268.073,232.56,230.921,230.294,226.701,222.147,0.596053,0.659938,219.503,227.136
2014-11-25 12:00,0.326007,275.707,255.764,243.93,255.827,253.122,241.808,0.621751,0.679429,229.007,243.577
2014-11-25 13:00,0.290718,272.836,253.595,242.656,254.066,251.552,240.5,0.588719,0.645152,230.916,244.175
2014-11-25 14:00,0.285816,294.043,274.392,254.808,274.778,269.657,251.291,0.194009,0.310464,230.996,247.917
2014-11-25 15:00,0.253968,288.012,265.846,249.797,263.04,256.742,239.47,0.195396,0.291518,224.76,238.303
2014-11-25 16:00,0.21695,288.012,274.916,255.043,274.0,269.821,249.705,0.227858,0.288442,230.43,246.483
2014-11-25 17:00,0.312628,259.505,216.471,223.283,212.609,211.635,211.992,0.595031,0.648187,208.838,211.295
2014-11-25 18:00,0.370387,265.446,208.734,219.855,206.833,204.955,208.096,0.741602,0.819883,207.502,208.371
2014-11-25 19:00,0.597509,274.787,198.787,216.392,197.056,195.415,200.006,0.899582,1.0107,199.867,198.603
2014-11-25 20:00,0.856651,281.526,202.034,218.041,199.715,198.656,201.266,1.0332,1.19771,203.662,202.696
2014-11-25 21:00,1.19973,275.02,210.224,220.736,208.977,206.513,208.318,1.06198,1.35276,209.926,210.032
2014-11-25 22:00,-0.0,213.142,208.223,219.632,206.833,205.349,208.318,-0.0,-0.0,207.891,206.606
2014-11-25 23:00,-0.00390477,222.276,216.471,222.868,213.763,211.635,211.146,-0.0,-0.0,211.964,214.511
2014-11-26 00:00,-0.0,227.984,212.119,221.17,210.218,208.397,208.761,-0.0,-0.0,208.838,211.295
2014-11-26 01:00,0.00183424,225.382,216.88,223.076,214.89,213.356,212.411,-0.0,-0.0,212.287,214.511
2014-11-26 02:00,-0.00159238,222.276,217.685,223.076,215.993,214.364,213.653,-0.0,-0.0,213.845,216.131
2014-11-26 03:00,-0.0,235.601,228.155,228.378,227.118,225.874,221.965,-0.0,-0.0,219.624,225.011
2014-11-26 04:00,-0.0,235.601,227.533,228.192,226.522,224.474,221.415,-0.0,-0.0,218.264,223.377
2014-11-26 05:00,0.00174504,230.231,219.628,223.694,217.072,215.356,215.474,-0.0,-0.0,212.126,216.131
2014-11-26 06:00,-0.0,218.393,217.285,222.449,215.628,214.697,214.265,-0.0,0.00220522,213.541,215.6
2014-11-26 07:00,-0.0,249.89,236.318,231.973,234.107,230.946,224.304,-0.0,-0.0033153,219.014,227.323
2014-11-26 08:00,-0.00808869,227.984,221.481,224.507,220.519,219.777,219.551,-0.0,-0.0,217.229,219.372
2014-11-26 09:00,0.303316,244.063,232.56,229.484,231.408,230.946,226.574,0.536981,0.612431,222.04,228.242
2014-11-26 10:00,0.303022,251.282,241.451,234.183,241.344,239.895,234.291,0.907376,0.999832,227.78,236.614
2014-11-26 11:00,0.444096,255.521,211.184,220.298,210.625,209.859,209.42,0.746474,0.845886,209.926,210.032
2014-11-26 12:00,0.308396,258.096,219.628,224.507,217.78,216.008,215.274,0.585123,0.660179,214.734,217.418
2014-11-26 13:00,0.284091,255.521,222.552,225.701,220.852,219.472,218.601,0.457251,0.535733,215.024,218.41
2014-11-26 14:00,0.254465,253.81,226.261,227.058,225.615,224.19,221.598,0.563656,0.631896,220.686,223.999
2014-11-26 15:00,0.317667,264.009,242.597,235.823,241.344,239.895,233.026,0.519285,0.57118,225.739,235.887
2014-11-26 16:00,0.317527,263.255,220.006,224.708,216.715,216.331,215.274,0.47149,0.538257,211.303,213.382
2014-11-26 17:00,0.322617,262.475,221.841,225.701,220.852,218.857,217.445,0.619525,0.685275,216.83,220.075
2014-11-26 18:00,0.456114,267.444,215.218,222.449,213.763,211.983,212.827,0.80574,0.90565,213.234,214.511
2014-11-26 19:00,0.560276,272.58,218.474,224.507,215.993,214.364,213.447,0.644762,0.764798,213.388,215.6
2014-11-26 20:00,0.845969,287.155,236.06,233.005,230.574,225.318,219.739,0.747423,0.919038,216.83,222.313
2014-11-26 21:00,1.21246,277.661,216.058,223.489,214.517,212.673,212.411,1.0071,1.28603,212.765,214.233
2014-11-26 22:00,0.014798,218.393,213.031,220.736,212.219,211.635,211.57,-0.0,-0.0,212.126,212.8
2014-11-26 23:00,-0.0,225.382,224.616,225.897,224.384,223.332,221.598,-0.00333432,-0.00397567,220.101,222.956
2014-11-27 00:00,-0.0,252.585,248.784,238.657,248.733,247.708,239.47,-0.0,-0.0,227.959,238.986
2014-11-27 01:00,-0.0,265.446,259.206,245.587,259.791,257.671,246.182,-0.0,0.00185874,228.748,242.602
2014-11-27 02:00,-0.00159712,275.48,269.908,252.534,271.945,269.0,253.24,-0.0,-0.0,231.315,248.562
2014-11-27 03:00,-0.0,267.444,265.092,249.414,267.185,265.82,251.814,-0.0,-0.0,230.511,248.455
2014-11-27 04:00,-0.0,260.827,261.017,246.801,262.685,261.477,248.499,-0.0,-0.0,229.093,246.483
2014-11-27 05:00,0.00174809,262.475,258.703,246.13,260.158,258.774,245.767,-0.0,-0.0,227.959,244.53
2014-11-27 06:00,-0.0,278.279,270.329,252.777,270.006,265.138,246.457,-0.0,-0.0,226.871,243.336
2014-11-27 07:00,-0.0,249.89,234.477,232.319,230.853,225.318,221.598,-0.0,-0.0,216.963,223.377
2014-11-27 08:00,-0.0,257.605,236.832,232.834,231.683,227.246,221.415,-0.0,-0.0,216.424,222.956
2014-11-27 09:00,0.442018,254.396,234.745,231.274,232.23,228.856,224.834,0.514602,0.641476,219.137,226.948
2014-11-27 10:00,0.418017,259.045,242.142,235.173,241.107,238.978,233.344,0.563789,0.657295,223.746,233.773
2014-11-27 11:00,0.542956,277.869,251.339,240.32,251.856,250.757,241.374,0.580211,0.66308,228.575,241.728
2014-11-27 12:00,0.54119,285.357,255.587,243.368,257.55,257.115,247.006,0.607319,0.681731,231.236,246.258
2014-11-27 13:00,0.538861,287.444,249.978,239.871,251.856,251.156,242.956,0.589042,0.660393,230.101,242.971
2014-11-27 14:00,0.397998,283.261,260.692,246.667,263.04,262.537,249.971,0.438079,0.496774,230.916,247.808
2014-11-27 15:00,0.251522,283.261,268.054,250.931,269.021,267.171,251.683,0.210019,0.297223,230.101,247.481
2014-11-27 16:00,0.277078,286.717,270.049,252.412,271.464,269.329,252.853,0.231594,0.319175,229.263,247.917
2014-11-27 17:00,0.237193,292.653,277.098,257.006,278.128,274.617,255.153,0.195373,0.28501,232.02,250.135
2014-11-27 18:00,0.205724,297.848,282.566,260.337,282.374,277.853,256.785,0.13064,0.222962,232.557,250.238
2014-11-27 19:00,0.639311,271.798,225.282,227.628,225.31,223.619,221.046,0.80446,0.937352,219.382,221.878
2014-11-27 20:00,0.948195,279.081,220.379,224.507,219.167,217.922,217.445,1.1978,1.42512,217.491,218.653
2014-11-27 21:00,0.778738,294.268,272.391,254.808,270.169,263.759,245.211,0.595341,0.763284,226.871,242.848
2014-11-27 22:00,0.0152709,269.576,262.774,248.121,261.611,256.928,241.664,-0.0,-0.0154169,228.136,243.214
2014-11-27 23:00,-0.00397166,232.213,220.379,225.306,216.715,214.03,213.857,-0.0033628,-0.00400963,211.47,215.332
2014-11-28 00:00,-0.0,249.156,239.074,234.681,236.441,232.976,227.089,-0.0,-0.0,219.624,229.489
2014-11-28 01:00,-0.0,256.589,255.409,243.368,255.827,254.664,243.949,-0.0,-0.0,229.093,244.881
2014-11-28 02:00,-0.0,252.585,249.978,240.021,249.789,247.915,239.47,-0.0,-0.0,226.311,240.706
2014-11-28 03:00,-0.00151984,249.89,245.463,237.728,244.349,241.921,234.604,-0.0,-0.0,226.499,238.165
2014-11-28 04:00,0.00156293,218.393,213.479,221.386,211.028,210.219,211.992,-0.0,-0.0,209.023,210.353
2014-11-28 05:00,-0.0,213.142,204.418,218.502,204.12,202.529,204.893,-0.0,-0.0,204.573,205.109
2014-11-28 06:00,-0.0,213.142,204.418,217.809,204.12,202.529,204.422,-0.0,-0.0,204.573,205.109
2014-11-28 07:00,-0.0,213.142,211.654,220.954,210.218,208.397,209.201,-0.0,-0.0,209.926,210.353
2014-11-28 08:00,-0.0,232.213,224.95,226.674,223.125,219.777,217.832,-0.0,-0.0,217.096,221.878
2014-11-28 09:00,0.554061,240.898,212.119,220.736,211.825,210.931,210.073,0.797508,0.992859,210.102,212.207
2014-11-28 10:00,0.35558,255.521,217.685,223.076,215.628,214.364,213.857,0.639772,0.717959,215.024,216.392
2014-11-28 11:00,0.33088,251.944,214.358,221.386,213.381,212.329,213.447,0.732857,0.82294,212.607,213.668
2014-11-28 12:00,0.258634,253.81,230.85,229.665,230.294,228.856,225.185,0.737705,0.811061,223.434,227.877
2014-11-28 13:00,0.22125,249.156,233.938,231.274,233.577,232.725,229.615,0.740245,0.812236,224.56,230.354
2014-11-28 14:00,0.213488,249.156,231.427,229.665,231.131,230.17,227.94,0.670955,0.730605,223.434,228.603
2014-11-28 15:00,0.221336,257.103,235.538,232.319,235.414,234.706,231.905,0.610292,0.657486,225.643,232.022
2014-11-28 16:00,0.194077,252.585,240.75,235.173,240.392,240.35,236.765,0.603192,0.666647,226.963,234.694
2014-11-28 17:00,0.257544,278.075,253.226,242.225,254.263,253.51,244.372,0.467742,0.514811,229.769,242.602
2014-11-28 18:00,0.256705,258.576,238.585,233.513,237.702,236.872,232.707,0.520366,0.579297,223.952,231.53
2014-11-28 19:00,0.449168,269.576,251.339,240.766,251.447,250.757,242.527,0.710798,0.833658,229.601,242.23
2014-11-28 20:00,0.467044,261.251,250.76,240.021,250.415,250.357,242.671,0.654796,0.774621,231.076,242.105
2014-11-28 21:00,0.439586,289.779,281.029,260.011,281.799,279.211,259.005,0.454206,0.511484,231.63,248.882
2014-11-28 22:00,-0.0315475,280.799,278.101,258.134,279.613,276.015,254.264,-0.0,-0.0,230.755,248.882
2014-11-28 23:00,-0.0,280.982,276.971,257.459,278.873,276.015,257.282,-0.0,-0.0,230.348,248.775
2014-11-29 00:00,-0.0,266.797,267.909,250.931,270.169,269.494,254.264,-0.0,-0.0,230.835,248.987
2014-11-29 01:00,-0.0,265.791,264.329,249.029,265.654,264.279,249.705,-0.0,-0.0,228.312,245.804
2014-11-29 02:00,-0.00160638,271.798,264.94,249.414,266.338,263.586,249.572,-0.0,-0.0,230.916,247.481
2014-11-29 03:00,-0.0,262.074,260.528,246.801,261.971,260.225,248.499,-0.0,-0.0,229.517,245.804
2014-11-29 04:00,-0.0,266.466,263.867,248.642,265.138,262.888,248.364,-0.0,-0.0,229.178,245.345
2014-11-29 05:00,-0.0,270.989,260.692,246.801,260.341,256.742,242.527,-0.0,-0.0,226.216,240.706
2014-11-29 06:00,-0.0,259.045,251.53,241.5,251.652,248.121,238.128,-0.0,-0.0,225.156,238.303
2014-11-29 07:00,-0.0,246.775,240.75,235.499,241.344,239.895,233.503,-0.0,0.00332477,226.027,235.592
2014-11-29 08:00,0.00809155,239.711,237.086,232.491,237.702,236.635,231.257,-0.0,-0.0,224.76,233.146
2014-11-29 09:00,0.44488,251.944,245.032,236.943,247.012,246.035,239.765,0.494392,0.575452,228.835,240.053
2014-11-29 10:00,0.459973,281.165,257.511,244.21,259.236,257.301,246.319,0.420867,0.49433,228.921,244.412
2014-11-29 11:00,0.537389,277.451,258.365,244.626,259.974,259.502,247.687,0.670438,0.75068,228.835,245.69
2014-11-29 12:00,0.29601,280.982,265.092,249.414,265.482,262.185,247.959,0.304044,0.387022,228.048,243.577
2014-11-29 13:00,0.201214,260.827,247.563,239.115,246.135,244.544,238.128,0.363451,0.44284,226.685,236.757
2014-11-29 14:00,0.31363,292.174,277.727,257.12,277.828,273.832,254.264,0.292105,0.359251,228.921,246.032
2014-11-29 15:00,0.295439,289.779,278.35,257.685,279.613,276.938,257.406,0.329607,0.385988,231.156,248.455
2014-11-29 16:00,0.274388,278.883,261.822,247.465,263.393,261.299,246.594,0.370517,0.433427,231.552,246.929
2014-11-29 17:00,0.36275,290.041,265.545,249.669,267.185,265.138,251.291,0.367043,0.44154,231.236,247.699
2014-11-29 18:00,0.479349,290.685,270.329,252.899,272.741,271.283,255.28,0.598585,0.636111,231.63,250.032
2014-11-29 19:00,0.410713,287.871,264.635,249.158,263.393,259.139,243.667,0.402396,0.501516,227.055,240.316
2014-11-29 20:00,0.736097,268.986,226.261,228.004,224.072,223.043,221.598,0.7995,0.950237,216.695,218.895
2014-11-29 21:00,0.888607,270.151,240.514,235.499,238.199,235.917,230.111,0.7586,0.963828,221.031,228.603
2014-11-29 22:00,-0.0163089,238.442,230.85,229.847,229.444,228.59,225.883,-0.0,-0.0,221.484,226.57
2014-11-29 23:00,-0.0,237.078,228.769,228.564,227.414,227.246,225.185,-0.0,-0.0,219.503,224.408
2014-11-30 00:00,-0.0,233.989,231.997,230.207,231.683,230.429,227.26,-0.0,-0.0,223.952,228.603
2014-11-30 01:00,-0.00186152,225.382,222.198,225.504,221.838,221.283,220.115,-0.0,-0.0,218.391,220.763
2014-11-30 02:00,-0.0,225.382,221.481,224.908,220.519,219.777,219.362,-0.0,-0.0,216.963,219.608
2014-11-30 03:00,-0.0,247.601,244.38,236.784,244.349,242.585,236.46,-0.0,0.00154137,226.592,237.608
2014-11-30 04:00,0.00156872,243.066,244.16,236.784,244.349,243.679,237.525,-0.0,-0.0,227.78,237.748
2014-11-30 05:00,-0.0,247.601,246.733,238.503,247.446,246.457,239.322,-0.0,-0.0,227.78,239.922
2014-11-30 06:00,0.00219527,237.078,232.839,230.565,232.772,231.714,227.601,-0.0,-0.0,224.156,229.664
2014-11-30 07:00,-0.0,232.213,230.85,229.118,230.294,229.121,225.709,-0.0,-0.0,223.118,227.694
2014-11-30 08:00,-0.0,235.601,230.559,229.118,230.574,229.909,226.402,-0.0,-0.0,223.434,228.603
2014-11-30 09:00,0.279324,257.103,249.185,238.963,248.52,246.876,239.47,0.437531,0.52169,227.78,239.121
2014-11-30 10:00,0.590808,282.059,258.703,245.04,260.706,259.321,247.687,0.547428,0.633969,230.184,246.595
2014-11-30 11:00,0.588484,293.587,258.195,245.04,260.341,258.408,247.551,0.541031,0.634013,230.674,245.918
2014-11-30 12:00,0.440294,284.087,264.329,248.771,266.508,265.99,251.944,0.448177,0.532749,231.552,248.775
2014-11-30 13:00,0.458965,287.444,267.909,251.18,270.169,269.0,253.881,0.431783,0.517545,232.175,249.825
2014-11-30 14:00,0.370373,290.813,265.092,249.414,267.522,266.329,253.111,0.349346,0.425068,234.756,250.544
2014-11-30 15:00,0.333608,292.889,260.692,246.667,261.971,260.225,248.499,0.290312,0.368372,235.662,249.198
2014-11-30 16:00,0.173758,285.665,271.437,253.02,271.785,268.173,249.838,0.208171,0.297139,236.874,250.442
2014-11-30 17:00,0.231297,277.661,243.719,237.415,235.414,229.909,221.965,0.237183,0.320425,216.56,224.61
2014-11-30 18:00,0.406281,266.131,207.704,219.632,206.392,205.74,207.648,0.710928,0.805139,207.105,207.678
2014-11-30 19:00,0.551888,273.586,206.1,218.73,205.497,203.757,205.361,0.848705,0.962732,205.663,206.606
2014-11-30 20:00,0.85528,278.075,225.611,226.866,225.003,223.043,220.675,1.05957,1.25125,221.371,224.408
2014-11-30 21:00,1.31773,283.76,234.745,233.005,232.23,227.517,222.147,1.13411,1.44728,221.708,228.96
2014-11-30 22:00,-0.0,253.81,249.978,240.913,249.368,246.035,236.153,-0.0,-0.0,225.739,239.789
2014-11-30 23:00,-0.00407473,246.775,237.591,233.344,235.93,232.976,226.746,-0.0,-0.0,219.26,229.664
