# timestamp,IR_016,IR_039,IR_087,IR_097,IR_108,IR_120,IR_134,VIS006,VIS008,WV_062,WV_073
2016-09-01 00:00,-0.0046751,291.44,291.174,261.198,294.021,292.276,264.488,0.0,-0.0023599,232.557,257.595
2016-09-01 01:00,-0.00178473,283.924,282.566,255.974,284.361,283.049,260.098,0.0,0.0,231.473,255.366
2016-09-01 02:00,0.0,290.685,289.805,259.902,292.34,290.238,263.787,0.0,0.0,233.159,257.421
2016-09-01 03:00,0.0,291.19,290.756,260.876,293.377,291.6,264.255,0.0,0.0,232.784,257.246
2016-09-01 04:00,0.0,290.041,290.017,260.228,292.989,291.057,264.372,0.0,0.0,233.677,257.942
2016-09-01 05:00,-0.00158851,288.152,284.528,256.664,286.585,283.917,258.882,0.0,0.0,232.86,255.911
2016-09-01 06:00,0.0,289.91,289.486,260.337,292.079,290.511,264.372,0.0,0.0,234.185,258.028
2016-09-01 07:00,0.0,290.041,290.335,260.445,293.248,291.6,264.488,0.0,0.0,235.038,258.372
2016-09-01 08:00,0.0,291.065,290.965,260.769,293.892,292.276,264.953,0.0,0.0,234.827,258.628
2016-09-01 09:00,-0.0987857,291.315,290.651,260.337,293.248,291.735,264.138,-0.418208,-0.349055,234.257,257.855
2016-09-01 10:00,0.103161,291.809,290.017,259.793,292.47,291.057,264.138,0.252333,0.18515,234.615,257.855
2016-09-01 11:00,0.0859635,292.174,289.699,259.464,291.948,290.511,263.787,0.173745,0.125979,236.341,258.114
2016-09-01 12:00,0.319722,295.476,286.992,257.572,289.701,288.861,263.787,0.336774,0.3247,239.043,259.135
2016-09-01 13:00,0.0744962,293.124,289.272,258.246,291.292,290.648,264.255,0.123577,0.0982313,239.593,259.051
2016-09-01 14:00,0.0494338,292.534,289.272,258.134,291.292,290.784,264.138,0.0984169,0.0768827,240.253,258.967
2016-09-01 16:00,0.0854929,293.816,288.52,257.459,290.5,289.826,263.553,0.117763,0.103057,240.899,259.22
2016-09-01 17:00,0.117119,295.26,288.843,257.572,290.897,290.375,263.787,0.139997,0.129367,241.015,258.967
2016-09-01 18:00,0.188229,297.449,288.951,258.022,291.029,290.375,264.022,0.192065,0.188404,241.304,259.135
2016-09-01 19:00,0.365915,301.302,289.058,258.469,290.897,290.511,264.372,0.320442,0.333527,241.246,259.22
2016-09-01 20:00,0.824781,303.264,287.322,257.346,289.3,288.999,263.436,0.617976,0.693888,241.246,258.882
2016-09-01 21:00,1.26739,299.297,287.76,257.572,289.568,288.999,263.67,0.734999,0.98154,241.874,258.798
2016-09-01 22:00,-0.0125327,288.152,287.432,257.572,289.434,288.999,263.083,0.0,-0.0126525,241.533,258.286
2016-09-02 00:00,0.0,287.155,285.546,257.233,287.679,285.493,261.062,0.0,0.0,241.704,257.855
2016-09-02 01:00,-0.00177354,290.813,289.593,259.793,291.817,290.511,263.436,0.0,0.0,241.246,258.457
2016-09-02 02:00,0.0,284.249,282.682,256.32,284.501,282.028,259.735,0.0,0.0,240.957,257.158
2016-09-02 03:00,0.0,285.202,284.3,257.12,286.585,284.061,260.701,0.0,0.00144691,240.134,256.716
2016-09-02 04:00,0.0,285.045,282.566,256.32,284.781,281.882,259.127,0.0,0.0,239.166,255.73
2016-09-02 05:00,0.0,283.76,280.066,255.043,282.66,279.211,257.406,0.0,0.0,238.42,255.639
2016-09-02 06:00,-0.0018945,280.799,278.474,254.454,280.931,277.396,256.66,0.0,0.0,238.357,255.366
2016-09-02 07:00,0.0,286.569,287.322,258.913,290.101,288.999,263.083,0.0,0.0,238.483,256.982
2016-09-02 08:00,-0.00472389,284.249,285.433,258.358,288.222,286.626,261.779,0.0,0.0,238.546,256.45
2016-09-02 09:00,-0.140723,288.152,287.978,259.464,290.367,288.722,263.436,-0.436884,-0.37885,238.483,257.07
2016-09-02 10:00,0.374274,292.053,287.212,259.574,290.367,288.861,263.905,0.424155,0.395291,238.733,257.07
2016-09-02 11:00,0.0805614,292.294,290.229,260.984,292.86,291.329,264.605,0.181113,0.131813,238.857,257.421
2016-09-02 12:00,0.241958,296.008,288.195,260.119,291.16,289.689,264.488,0.26455,0.255811,239.834,257.508
2016-09-02 13:00,0.155215,295.151,288.951,259.902,291.686,290.375,264.372,0.188112,0.173598,240.014,257.769
2016-09-02 14:00,0.0374459,292.414,290.44,261.091,292.86,291.464,264.372,0.0826604,0.0567057,240.014,257.942
2016-09-02 15:00,0.0986737,293.472,289.058,259.683,291.555,290.375,263.905,0.129605,0.114943,238.857,257.769
2016-09-02 16:00,0.0613465,293.587,289.699,259.902,291.817,290.921,264.372,0.0908985,0.0761259,238.546,257.682
2016-09-02 17:00,0.0994263,294.823,289.486,259.683,291.686,290.511,264.255,0.121599,0.110136,238.357,257.421
2016-09-02 18:00,0.238867,297.749,288.52,259.574,291.029,289.964,263.67,0.229579,0.224857,238.104,256.091
2016-09-02 19:00,0.359342,300.858,289.272,260.011,291.555,290.511,263.787,0.31315,0.320347,238.294,256.36
2016-09-02 20:00,0.802558,303.592,288.303,259.354,290.764,289.964,263.67,0.601226,0.660188,238.546,256.181
2016-09-02 21:00,1.27542,298.822,288.303,259.354,290.632,289.826,263.436,0.724965,0.981467,238.608,256.271
2016-09-02 22:00,-0.0120304,289.647,288.52,259.024,290.764,289.964,263.905,0.0,0.0,238.483,255.911
2016-09-02 23:00,-0.541461,288.568,287.869,259.134,290.101,289.551,263.905,-0.182126,-0.325736,238.357,256.001
2016-09-03 00:00,-0.00229922,289.381,288.195,259.244,290.234,289.413,263.2,0.0,0.0,238.357,255.821
2016-09-03 01:00,-0.00176247,289.779,288.736,259.464,290.897,289.689,263.436,0.0,0.0,237.849,256.36
2016-09-03 02:00,-0.0015195,290.558,289.593,260.119,291.817,290.921,264.022,0.0,0.0,237.528,256.001
2016-09-03 03:00,0.0,289.779,288.951,260.119,291.423,290.648,263.787,0.0,0.0,236.808,256.181
2016-09-03 04:00,0.0,289.91,289.165,259.902,291.555,290.648,264.255,0.0,0.0,237.006,256.181
2016-09-03 05:00,0.0,289.113,288.951,260.119,291.423,290.511,263.905,0.0,0.0,237.268,256.271
2016-09-03 06:00,0.00188683,289.779,289.379,260.011,291.686,290.648,264.138,0.0,0.0,237.137,256.36
2016-09-03 07:00,0.0,289.91,289.699,260.769,292.079,291.329,264.488,0.0,0.0,237.721,256.716
2016-09-03 08:00,0.0,290.558,290.017,260.876,292.47,291.193,264.372,0.0,0.0,237.849,257.333
2016-09-03 09:00,-0.134022,289.647,289.379,260.553,291.948,290.784,264.721,-0.416079,-0.360808,237.977,257.421
2016-09-03 10:00,0.312401,291.809,288.951,260.445,291.555,290.648,264.721,0.391866,0.350431,237.785,257.421
2016-09-03 11:00,0.1475,294.268,289.805,260.769,292.209,291.193,264.488,0.221499,0.185435,237.268,257.508
2016-09-03 12:00,0.104902,293.93,290.017,261.305,292.47,291.193,265.069,0.158262,0.130937,236.94,257.246
2016-09-03 13:00,0.0594033,293.007,290.44,261.519,293.119,291.871,265.069,0.104462,0.0799616,237.137,257.158
2016-09-03 14:00,0.0468549,293.24,290.545,261.625,293.377,292.276,265.069,0.0827445,0.063521,237.528,257.508
2016-09-03 15:00,0.115263,294.933,289.486,261.198,292.47,291.6,264.953,0.123332,0.113808,238.168,258.114
2016-09-03 16:00,0.0819306,294.156,289.805,261.091,292.47,291.464,265.185,0.104056,0.0930531,238.231,258.543
2016-09-03 17:00,0.107958,295.042,289.911,260.876,292.6,291.464,265.185,0.125393,0.113182,238.483,259.135
2016-09-03 18:00,0.163548,296.738,290.335,261.091,292.86,291.871,265.647,0.172752,0.163477,238.733,259.554
2016-09-03 19:00,0.335838,299.672,290.017,260.876,292.47,291.6,264.953,0.309391,0.311328,238.733,259.721
2016-09-03 20:00,0.703366,302.764,290.756,261.198,293.248,292.545,265.532,0.53909,0.595668,239.349,260.381
2016-09-03 21:00,1.17425,297.146,289.699,260.876,292.209,291.6,265.185,0.691306,0.916894,239.593,260.952
2016-09-03 22:00,-0.0115626,290.813,291.07,261.412,293.377,292.545,265.993,0.0,0.0,239.227,261.033
2016-09-03 23:00,-0.545459,290.301,290.651,261.091,292.989,292.41,265.993,-0.189075,-0.32523,239.41,261.113
2016-09-04 00:00,-0.0022804,290.429,290.756,261.198,293.119,292.545,265.185,0.0,0.0,239.349,261.033
2016-09-04 01:00,-0.00175151,0.0,290.123,261.091,292.47,292.006,265.416,0.0,0.0,240.312,261.275
2016-09-04 02:00,-0.00151167,289.247,290.017,260.769,292.209,291.735,265.301,0.0,0.0,239.653,261.113
2016-09-04 03:00,0.0,289.91,290.44,261.198,292.86,292.141,265.878,0.0,0.0,240.193,261.275
2016-09-04 04:00,0.0,288.012,288.951,260.445,291.423,290.921,264.721,0.0,0.0,240.665,261.355
2016-09-04 05:00,0.00156958,290.813,290.86,261.305,293.248,292.276,265.878,0.0,0.0,240.957,262.23
2016-09-04 06:00,0.0,291.065,291.07,261.944,293.377,292.545,265.416,0.0,0.0,241.131,262.545
2016-09-04 07:00,0.0,291.065,291.174,261.519,293.635,292.41,266.337,0.0,0.0,240.489,262.545
2016-09-04 08:00,0.0,290.429,290.86,261.625,293.119,292.141,265.878,0.0,0.0,240.489,262.701
2016-09-04 09:00,-0.127963,291.563,291.694,262.049,294.149,293.216,266.222,-0.361152,-0.344496,240.371,263.012
2016-09-04 10:00,0.139503,292.534,291.383,261.944,293.892,292.545,266.222,0.265764,0.193651,240.665,262.935
2016-09-04 11:00,0.119889,293.587,290.86,261.625,293.248,291.871,265.878,0.195938,0.151998,240.665,263.012
2016-09-04 12:00,0.0343709,292.534,291.694,262.155,294.149,292.545,265.301,0.0921558,0.0578325,240.841,263.09
2016-09-04 13:00,0.00914798,291.931,291.902,262.576,294.533,292.948,266.108,0.0568009,0.0307848,240.371,262.857
2016-09-04 14:00,0.0120612,292.053,291.487,262.049,293.892,292.141,265.416,0.0476569,0.0257059,240.43,262.545
2016-09-04 15:00,0.0380484,292.771,290.651,261.731,292.86,291.193,265.416,0.0633571,0.0422533,240.312,262.545
2016-09-04 16:00,0.0102588,292.294,291.279,262.049,293.248,291.329,265.416,0.0369161,0.0194192,240.43,262.623
2016-09-04 17:00,0.0138733,292.414,291.383,262.261,293.635,291.6,265.647,0.039938,0.0252106,240.724,263.012
2016-09-04 18:00,0.0292459,292.771,291.383,262.049,293.635,291.6,265.416,0.0605304,0.0393673,240.193,263.012
2016-09-04 19:00,0.0721915,294.156,291.487,261.731,293.764,291.871,265.301,0.109664,0.0835995,240.371,262.935
2016-09-04 20:00,0.235571,295.583,291.487,261.625,293.635,291.735,265.878,0.256446,0.220836,240.548,263.322
2016-09-04 21:00,0.245618,292.534,291.174,261.838,293.248,291.6,265.762,0.35194,0.305189,240.014,263.244
2016-09-04 22:00,-0.0111262,290.558,290.44,261.519,292.86,291.193,265.069,0.0,0.0,239.954,263.167
2016-09-04 23:00,-0.49149,288.568,288.52,260.337,290.897,289.826,264.605,-0.174413,-0.317415,239.227,263.244
2016-09-05 00:00,0.0,291.315,291.279,261.838,293.506,291.871,265.647,0.0,0.0,238.608,262.857
2016-09-05 01:00,-0.00174066,291.686,292.211,262.366,294.661,293.082,265.993,0.0,0.0,239.043,262.779
2016-09-05 02:00,0.0,291.315,291.902,262.155,294.661,293.216,265.878,0.0,0.0,239.653,262.857
2016-09-05 03:00,-0.00141388,291.19,291.487,261.625,294.149,292.276,265.185,0.0,-0.00142739,240.014,262.857
2016-09-05 04:00,0.0,291.315,291.279,261.838,293.635,291.871,265.532,0.0,0.0,239.894,262.545
2016-09-05 05:00,0.0,289.113,289.593,260.769,291.948,290.511,265.301,0.0,0.0,240.489,262.935
2016-09-05 06:00,0.0,290.685,290.756,261.731,293.119,291.464,265.301,0.0,0.0,241.304,263.322
2016-09-05 07:00,0.0,291.315,291.07,261.625,293.377,291.6,265.185,0.0,0.0,241.76,263.629
2016-09-05 08:00,0.0,288.012,288.52,260.337,291.029,289.551,264.605,0.0,0.0,241.647,263.629
2016-09-05 09:00,-0.0408182,291.563,291.383,261.838,293.506,291.6,265.185,-0.345607,-0.288459,240.957,263.476
2016-09-05 10:00,0.0175211,291.686,291.279,261.625,293.377,291.6,264.837,0.182966,0.094339,240.134,263.244
2016-09-05 11:00,0.0279333,292.053,290.545,261.305,292.86,290.784,264.721,0.113525,0.0620407,239.653,263.167
2016-09-05 12:00,0.0363233,292.414,290.86,261.838,293.248,291.193,265.647,0.0922646,0.0579008,238.671,262.545
2016-09-05 13:00,0.0503654,293.24,290.756,261.838,292.86,291.193,265.069,0.0878731,0.0600918,237.268,261.675
2016-09-05 14:00,0.00804966,291.809,291.487,262.576,293.764,292.006,265.416,0.0443016,0.0230254,238.041,261.914
2016-09-05 15:00,0.0101599,292.053,291.279,262.261,293.377,291.329,265.185,0.0376355,0.019232,236.542,261.275
2016-09-05 16:00,0.0346848,292.889,290.651,261.838,293.119,291.329,264.837,0.0543843,0.0402039,235.731,260.789
2016-09-05 17:00,0.0152975,292.414,290.756,262.155,292.73,290.375,264.488,0.043567,0.0266755,234.615,260.299
2016-09-05 18:00,0.096194,292.653,289.165,261.519,291.423,289.413,264.488,0.117339,0.110281,234.329,260.135
2016-09-05 19:00,0.189986,292.653,287.869,260.553,289.701,287.888,263.787,0.220506,0.200423,233.896,259.804
2016-09-05 20:00,0.77139,295.476,284.414,258.913,286.997,286.343,263.318,0.67903,0.713581,233.823,258.713
2016-09-05 21:00,1.50967,291.931,284.982,259.134,287.543,285.919,262.61,1.0061,1.36678,233.159,258.114
2016-09-05 22:00,-0.0107185,290.685,289.272,261.519,291.029,289.137,264.022,0.0,-0.010821,233.01,258.028
2016-09-05 23:00,-0.549461,291.315,290.335,262.049,292.079,289.826,264.138,-0.1873,-0.309775,232.86,257.595
2016-09-06 00:00,-0.00224346,291.315,290.545,262.049,292.73,290.511,264.372,0.0,0.0,232.097,256.628
2016-09-06 01:00,-0.00172994,291.19,290.545,262.576,293.248,291.057,264.372,0.0,0.0,232.557,256.45
2016-09-06 02:00,0.0,291.19,290.965,262.681,293.892,291.735,264.837,0.0,0.0,231.394,256.001
2016-09-06 03:00,0.0,291.563,290.86,262.89,293.635,291.329,264.837,0.0,0.0,231.552,255.366
2016-09-06 04:00,0.0,291.065,290.229,262.261,292.989,290.784,264.488,0.0,0.0,231.473,255.366
2016-09-06 05:00,0.00155738,286.717,287.102,260.337,289.701,288.445,264.138,0.0,0.0,231.236,255.091
2016-09-06 06:00,0.00186451,291.19,290.651,262.471,293.635,291.329,264.605,0.0,0.0,231.473,254.629
2016-09-06 07:00,0.0,290.939,290.86,262.681,293.892,292.006,265.069,0.0,0.0,231.63,254.814
2016-09-06 08:00,0.0,291.44,291.07,262.786,294.277,292.276,264.953,0.0,0.0,231.315,254.907
2016-09-06 09:00,-0.156564,291.44,290.965,262.995,294.021,291.871,265.069,-0.364547,-0.316121,231.473,254.629
2016-09-06 10:00,0.0938947,291.809,290.545,262.576,293.377,291.193,263.787,0.228564,0.148113,231.552,254.256
2016-09-06 11:00,0.0307848,291.809,290.756,263.203,293.764,291.735,264.605,0.11374,0.0649837,231.709,254.256
2016-09-06 12:00,0.0114845,291.686,291.07,263.203,293.892,291.6,265.069,0.0745498,0.0386475,231.865,254.162
2016-09-06 13:00,0.00611139,291.686,291.07,263.307,293.764,291.6,265.069,0.051745,0.0262217,232.405,254.349
2016-09-06 14:00,0.0147747,291.686,290.229,262.786,292.73,290.375,264.022,0.0489015,0.0284758,232.557,254.722
2016-09-06 15:00,0.00890238,291.315,289.379,262.366,291.423,288.722,263.436,0.0376882,0.0192589,233.01,254.349
2016-09-06 16:00,0.205914,289.647,280.429,257.346,283.514,282.904,261.54,0.196141,0.197489,232.557,254.068
2016-09-06 17:00,0.277433,290.429,279.823,257.006,282.803,282.028,260.942,0.265593,0.267418,232.405,253.785
2016-09-06 18:00,0.0359964,293.007,288.303,261.944,289.835,286.767,262.136,0.0664976,0.0479034,232.328,254.162
2016-09-06 19:00,0.622455,296.84,278.101,255.858,281.076,279.661,260.098,0.565196,0.602402,232.784,253.213
2016-09-06 20:00,0.988467,300.947,281.742,258.246,284.921,283.049,261.062,0.839839,0.897432,232.86,253.405
2016-09-06 21:00,0.321754,290.171,285.433,260.228,286.585,283.629,260.098,0.357562,0.32483,232.328,251.949
2016-09-06 22:00,-0.0206737,289.647,286.439,260.876,287.951,284.636,259.977,0.0,0.0,232.557,252.731
2016-09-06 23:00,-0.609462,284.57,281.267,257.91,283.088,280.85,259.735,-0.184936,-0.309422,232.709,252.634
2016-09-07 00:00,0.0,289.779,287.102,261.091,288.628,285.635,261.421,0.0,0.0,232.251,252.342
2016-09-07 01:00,-0.0034387,288.977,286.217,260.661,288.087,285.35,261.66,0.0,0.0,232.709,252.439
2016-09-07 02:00,0.0,284.249,283.841,259.134,286.585,284.779,260.942,0.0,0.0,232.633,252.828
2016-09-07 03:00,-0.00140136,289.91,287.212,261.091,288.897,285.919,261.898,0.0,0.0,233.01,252.439
2016-09-07 04:00,0.0,289.514,287.212,261.091,289.166,286.202,261.54,0.0,0.0,234.185,253.309
2016-09-07 05:00,0.0,286.569,285.77,260.119,288.358,286.202,262.373,0.0,0.0,234.401,253.309
2016-09-07 06:00,0.0,286.569,285.095,259.574,286.997,284.922,261.779,0.0,0.0,234.756,253.974
2016-09-07 07:00,0.00254392,282.581,282.331,258.022,285.201,283.629,261.66,0.0,0.0,234.472,253.595
2016-09-07 08:00,-0.00457631,290.429,287.978,261.519,289.568,286.767,262.136,0.0,0.0,234.756,253.595
2016-09-07 09:00,-0.075204,289.91,287.869,261.091,289.835,286.626,261.898,-0.286538,-0.26573,234.756,253.5
2016-09-07 10:00,0.0412779,291.19,288.736,261.519,290.632,287.609,262.373,0.194721,0.107158,234.472,253.309
2016-09-07 11:00,0.0364523,291.44,288.087,261.305,289.835,286.485,260.942,0.121082,0.0736015,233.53,252.342
2016-09-07 12:00,0.0574943,292.771,288.412,261.198,290.764,287.888,262.136,0.103851,0.0696528,233.603,252.634
2016-09-07 13:00,0.0152954,291.686,289.593,262.049,292.47,289.826,262.61,0.0608676,0.0339715,233.677,252.925
2016-09-07 14:00,0.010758,291.686,290.017,262.366,292.989,290.511,263.2,0.0466827,0.024437,233.456,252.828
2016-09-07 15:00,0.0127361,291.809,290.229,262.366,293.119,290.648,263.318,0.0398996,0.0231442,234.113,253.213
2016-09-07 16:00,0.0116045,291.686,289.911,261.944,292.47,289.964,263.083,0.0349351,0.0195257,233.896,252.828
2016-09-07 17:00,0.00838617,292.053,290.123,262.155,292.989,290.511,263.318,0.0355028,0.0183437,234.472,252.828
2016-09-07 18:00,0.0295587,292.534,289.379,261.519,291.686,288.999,262.017,0.058397,0.0397883,233.382,251.949
2016-09-07 19:00,0.101446,293.356,286.992,260.337,288.763,285.35,259.614,0.131583,0.122028,231.787,250.135
2016-09-07 21:00,1.36163,296.219,285.77,259.354,287.679,284.492,259.614,0.871271,1.10182,233.896,251.452
2016-09-07 22:00,0.00997913,288.568,286.105,259.683,287.951,284.636,259.127,0.0,0.0,232.784,250.646
2016-09-07 23:00,-0.473118,291.315,289.379,261.198,291.817,288.445,262.136,-0.153166,-0.263405,233.603,251.152
2016-09-08 00:00,0.0,290.939,289.058,260.876,291.686,288.861,262.61,0.0,0.0,233.159,251.051
2016-09-08 01:00,0.0,290.558,289.379,261.091,291.948,289.276,262.373,0.0,0.0,234.401,252.439
2016-09-08 02:00,0.0,288.152,283.611,258.022,284.361,279.661,255.027,0.0,0.0,231.473,248.455
2016-09-08 03:00,-0.00139522,290.041,287.869,259.793,289.568,286.626,260.461,0.0,0.0,233.159,250.748
2016-09-08 04:00,-0.00141413,289.779,287.869,260.337,290.101,287.188,261.062,0.0,0.0,234.472,251.949
2016-09-08 05:00,-0.00154552,290.301,288.843,260.769,291.423,288.999,262.136,0.0,0.0,236.071,253.117
2016-09-08 06:00,0.0,290.685,289.165,260.769,291.423,288.445,262.136,0.0,0.0,236.408,253.785
2016-09-08 07:00,0.0,290.939,289.379,260.553,291.686,289.137,262.61,0.0,0.00255728,236.874,254.629
2016-09-08 08:00,-0.00454851,291.19,290.123,260.984,292.73,290.648,263.67,0.0,0.0,237.463,255.911
2016-09-08 09:00,-0.0361839,291.065,289.699,260.769,291.948,289.551,262.847,-0.275731,-0.255708,237.268,256.091
2016-09-08 10:00,0.0651826,291.19,289.165,260.553,291.16,288.584,262.965,0.210725,0.125629,237.268,256.894
2016-09-08 11:00,0.0786669,292.174,289.165,260.553,291.16,288.722,262.847,0.14273,0.0907645,237.463,257.421
2016-09-08 12:00,0.111299,293.702,288.303,259.902,290.5,288.445,263.436,0.162478,0.114301,236.542,256.539
2016-09-08 13:00,0.234287,295.69,286.661,259.134,289.701,288.167,263.2,0.23986,0.22416,235.108,255.548
2016-09-08 14:00,0.0821318,291.686,288.303,259.793,290.764,288.722,262.728,0.109441,0.108744,235.386,255.366
2016-09-08 15:00,0.0905625,291.19,288.087,259.464,290.5,288.722,262.492,0.127439,0.112032,234.897,255.639
2016-09-08 16:00,0.0142108,292.174,290.017,260.769,292.6,290.375,263.083,0.040472,0.0234763,235.799,255.911
2016-09-08 17:00,0.0448434,293.587,290.017,260.445,292.209,289.964,263.436,0.0605129,0.0424426,235.936,256.181
2016-09-08 18:00,0.0774682,293.472,289.593,260.984,292.079,290.101,263.67,0.0921082,0.0732167,235.178,255.821
2016-09-08 19:00,0.0586114,293.24,290.229,261.091,292.989,290.784,264.022,0.0974144,0.072321,234.686,255.366
2016-09-08 20:00,0.224227,294.823,290.229,260.984,292.86,290.375,263.2,0.249182,0.21576,233.968,254.907
2016-09-08 21:00,0.828562,293.007,289.486,260.553,291.948,289.413,262.847,0.564878,0.640941,233.308,254.722
2016-09-08 22:00,-0.00964333,290.813,289.593,260.661,291.817,289.137,262.728,0.0,0.0,233.085,255.183
2016-09-08 23:00,-0.353871,286.569,285.882,258.469,288.222,286.626,261.421,-0.142539,-0.235857,233.01,255.366
2016-09-09 00:00,0.00218993,290.558,289.058,260.337,291.16,288.999,263.2,0.0,0.0,233.085,255.457
2016-09-09 02:00,-0.0014738,290.171,289.379,260.661,291.555,289.413,262.965,0.0,0.0,232.784,255.548
2016-09-09 03:00,-0.00138915,290.041,289.379,260.228,291.948,290.101,263.318,0.0,0.0,232.784,254.722
2016-09-09 04:00,0.00140855,290.429,290.017,260.553,292.989,290.648,263.67,0.0,0.0,232.405,254.814
2016-09-09 05:00,0.00153973,291.065,290.545,260.661,293.506,291.329,263.436,0.0,0.0,232.328,254.349
2016-09-09 06:00,-0.0018432,290.685,290.123,260.553,293.119,290.784,263.436,0.0,0.0,232.251,254.068
2016-09-09 07:00,0.00252239,288.841,288.303,259.683,290.897,288.999,262.965,0.0,0.0,232.328,253.5
2016-09-09 08:00,0.00452123,290.301,289.486,260.337,292.079,289.551,262.61,0.0,0.0,231.076,253.021
2016-09-09 09:00,,,,,,,,,-0.246438,,
2016-09-09 13:00,0.0383279,292.653,289.699,260.119,292.34,290.101,263.083,0.0765871,0.0510765,233.085,253.974
2016-09-09 15:00,0.0166076,292.053,289.805,260.337,292.73,290.375,263.318,0.0432667,0.0257945,234.401,254.814
2016-09-09 16:00,0.00647234,291.563,290.545,260.445,293.119,290.784,263.553,0.0317847,,235.038,255.548
2016-09-09 17:00,0.0519895,293.007,0.0,0.0,0.0,0.0,0.0,,0.0524865,235.455,256.181
2016-09-09 18:00,,292.653,0.0,0.0,0.0,,,,,,
2016-09-09 19:00,0.0851557,293.93,290.017,260.011,292.6,290.375,263.083,0.116471,0.0903785,236.341,256.001
2016-09-09 20:00,0.286821,295.69,289.593,259.902,292.209,289.826,262.61,0.29382,0.25739,236.341,256.181
2016-09-09 21:00,0.758682,292.294,289.379,259.902,291.817,289.413,262.61,0.547908,0.608242,236.274,256.45
2016-09-09 22:00,-0.00932769,290.685,289.272,259.354,291.292,289.137,262.492,0.0,0.0,236.808,256.271
2016-09-09 23:00,-0.325766,286.421,285.546,257.233,288.358,286.767,261.779,-0.137913,-0.219253,236.408,256.001
2016-09-10 00:00,0.0,289.647,287.978,258.802,290.5,288.306,262.492,0.0,0.00219337,237.463,256.091
2016-09-10 01:00,0.0,282.923,282.096,255.393,285.895,284.061,261.062,0.0,0.0,238.42,256.091
2016-09-10 02:00,0.0,290.171,288.951,259.134,291.16,288.722,263.083,0.0,0.0,238.671,256.181
2016-09-10 03:00,0.0,290.813,289.593,259.793,291.948,289.413,262.728,0.0,0.0,239.349,256.45
2016-09-10 04:00,-0.00140304,289.113,288.303,258.802,291.029,288.999,262.492,0.0,0.0,238.294,256.271
2016-09-10 05:00,0.0,289.91,288.951,258.913,291.292,288.861,262.728,0.0,0.0,237.785,256.628
2016-09-10 06:00,0.0,288.291,287.212,258.134,289.701,287.609,261.779,0.0,0.0,237.592,256.45
2016-09-10 07:00,-0.00251189,289.514,288.412,258.58,290.632,288.584,262.373,0.0,0.0,237.849,256.716
2016-09-10 08:00,-0.00898889,290.041,289.379,259.354,291.686,289.276,262.965,0.0,0.0,237.977,256.894
2016-09-10 09:00,-0.0336542,290.429,288.843,258.913,291.423,288.999,262.728,-0.256454,-0.271807,238.857,257.246
2016-09-10 10:00,0.460827,289.247,286.661,257.685,289.032,287.469,262.136,0.557402,0.561904,238.608,257.158
2016-09-10 11:00,0.0733442,292.294,289.486,259.354,291.948,289.689,262.965,0.145697,0.0939807,238.168,256.805
2016-09-10 12:00,0.0500282,292.889,289.272,259.354,291.555,289.413,262.136,0.0977511,0.0582767,238.231,256.539
2016-09-10 13:00,0.0291652,292.174,289.593,259.464,292.079,289.689,262.847,0.0714831,0.0433912,237.333,256.628
2016-09-10 14:00,0.0161995,291.809,290.123,260.011,292.6,290.511,263.083,0.0502924,0.029983,237.203,256.271
2016-09-10 15:00,0.0473439,292.771,289.593,259.793,292.34,290.375,263.436,0.0660877,0.0503801,238.041,256.628
2016-09-10 16:00,0.0285368,291.931,289.699,259.793,292.6,290.511,263.318,0.0505208,0.0353573,238.357,256.805
2016-09-10 17:00,0.0211349,292.534,290.335,260.119,293.119,290.921,264.138,0.0465267,0.0298717,238.795,257.421
2016-09-10 18:00,0.0548117,293.816,290.44,260.119,292.989,291.193,263.67,0.0801609,0.0586893,239.043,257.595
2016-09-10 19:00,0.123004,295.26,290.229,260.119,292.86,290.921,263.2,0.146922,0.119745,238.981,257.158
2016-09-10 20:00,0.229099,296.427,290.545,260.445,293.248,291.329,263.787,0.248534,0.205992,238.919,257.07
2016-09-10 21:00,0.521431,292.053,289.699,259.902,292.47,290.238,263.318,0.441495,0.491321,238.608,256.45
2016-09-10 22:00,0.0,289.779,289.272,259.683,292.34,290.101,263.318,-0.00764621,0.0,238.42,255.639
2016-09-10 23:00,-0.231293,288.012,286.55,257.91,289.166,287.188,261.898,-0.11069,-0.179358,238.483,255.639
2016-09-11 00:00,0.00215554,290.813,289.486,260.011,292.209,289.964,262.965,0.0,0.0,238.671,255.639
2016-09-11 01:00,-0.00167829,290.041,288.951,260.011,291.555,288.999,262.136,0.0,0.0,238.294,254.814
2016-09-11 02:00,0.0,289.247,288.195,259.574,291.029,288.306,262.017,0.0,0.0,238.608,254.907
2016-09-11 03:00,0.0,289.514,288.52,259.683,291.16,288.445,262.373,0.0,0.0,238.546,254.722
2016-09-11 04:00,-0.00139761,290.558,289.272,260.119,291.686,288.861,262.017,0.0,0.0,238.608,254.443
2016-09-11 05:00,-0.00152839,290.939,289.058,260.011,291.686,288.584,261.898,0.0,0.0,238.981,254.162
2016-09-11 06:00,-0.00182955,289.514,287.76,259.793,289.968,287.329,262.255,0.0,0.00184704,239.227,254.162
2016-09-11 07:00,-0.00250156,288.012,286.661,258.913,288.897,286.626,261.421,0.0,0.0,239.471,254.256
2016-09-11 08:00,0.0,288.841,287.102,259.464,289.568,287.048,261.182,0.0,0.0,239.774,254.536
2016-09-11 09:00,-0.0325197,289.381,287.541,259.574,289.701,287.188,261.062,-0.220275,-0.196983,239.834,254.814
2016-09-11 10:00,0.240604,290.939,286.55,259.244,288.897,286.485,260.942,0.341229,0.297557,240.548,254.999
2016-09-11 11:00,0.0621904,291.563,288.195,260.011,290.5,287.609,261.182,0.148396,0.0998852,240.489,254.536
2016-09-11 12:00,0.0423918,291.686,288.195,260.011,290.5,288.027,261.66,0.107679,0.0719768,241.073,255.183
2016-09-11 13:00,0.0399616,291.931,288.195,260.011,290.101,287.748,261.898,0.0871912,0.0589637,241.189,255.366
2016-09-11 14:00,0.0256848,291.931,289.165,260.445,291.686,289.413,263.083,0.0629527,0.0409426,241.304,255.73
2016-09-11 15:00,0.0358873,292.294,288.736,260.119,291.029,288.999,262.61,0.0618566,0.045288,241.189,256.091
2016-09-11 16:00,0.0337967,292.174,288.951,260.337,291.292,288.999,262.965,0.060533,0.0446182,240.665,255.911
2016-09-11 17:00,0.199229,293.702,286.217,259.024,288.628,287.188,261.898,0.198595,0.191148,240.014,255.73
2016-09-11 18:00,0.276813,293.93,286.105,259.134,288.897,287.188,263.083,0.285206,0.28451,240.312,256.091
2016-09-11 19:00,0.267391,296.531,287.651,259.793,289.835,287.469,262.255,0.269434,0.249868,240.43,256.001
2016-09-11 20:00,0.54656,297.749,287.76,259.902,289.968,287.609,262.136,0.481159,0.4787,241.015,255.911
2016-09-11 21:00,0.831832,292.414,287.322,260.119,289.434,287.188,261.66,0.5512,0.681564,240.782,256.091
2016-09-11 22:00,-0.00875069,284.41,284.528,258.134,286.86,285.35,261.301,0.0,0.0,241.189,256.539
2016-09-11 23:00,-0.1987,290.171,287.541,260.119,289.701,287.329,262.61,-0.0981392,-0.153793,241.76,257.421
2016-09-12 00:00,0.0,284.087,282.331,257.459,284.22,282.467,260.581,0.0,0.00215919,242.211,257.595
2016-09-12 01:00,-0.00166837,290.301,287.651,260.769,289.032,286.343,261.66,0.0,0.0,243.31,258.286
2016-09-12 02:00,-0.0014522,290.429,288.303,261.305,289.835,286.907,261.779,0.0,-0.00146608,242.929,258.2
2016-09-12 03:00,-0.00137145,277.869,268.199,249.924,269.021,263.933,248.094,0.0,0.0,239.043,251.751
2016-09-12 04:00,0.0,277.026,264.635,247.728,261.611,255.235,239.322,0.0,0.0,231.315,243.336
2016-09-12 05:00,0.0,258.576,240.039,234.183,237.951,232.976,224.834,0.0,0.0,225.254,233.928
2016-09-12 06:00,-0.00182289,233.989,221.117,225.504,217.78,215.683,214.265,0.0,0.0,213.388,217.418
2016-09-12 07:00,0.0,238.442,223.597,226.674,221.511,218.857,217.445,0.0,0.0,216.012,220.535
2016-09-12 08:00,0.0,232.213,220.006,224.305,218.13,216.008,216.071,0.0,0.0,214.588,217.164
2016-09-12 09:00,-0.125838,232.213,214.358,221.17,210.625,209.133,209.42,-0.186457,-0.222322,208.274,210.353
2016-09-12 10:00,0.380898,265.791,239.317,233.513,233.577,229.121,222.147,0.470961,0.512719,221.145,229.838
2016-09-12 11:00,0.456096,265.095,227.533,228.749,219.847,217.607,215.474,0.563673,0.597735,209.569,214.233
2016-09-12 12:00,0.316476,259.954,224.95,227.058,221.511,219.165,216.466,0.457492,0.490941,216.963,221.213
2016-09-12 13:00,0.300111,252.585,213.479,221.386,211.428,209.859,211.57,0.491267,0.537596,210.796,211.906
2016-09-12 14:00,0.280231,249.89,208.223,219.855,207.269,206.513,208.318,0.612092,0.666958,208.464,207.678
2016-09-12 15:00,0.265765,249.89,207.178,219.409,205.946,205.349,207.423,0.652239,0.714185,207.502,206.968
2016-09-12 16:00,0.298318,254.396,210.707,220.517,209.394,208.397,209.856,0.643045,0.690455,209.926,209.047
2016-09-12 17:00,0.351428,256.062,207.704,219.409,206.392,205.349,208.096,0.679095,0.745341,207.105,206.606
2016-09-12 18:00,0.458759,259.045,213.479,222.027,212.219,211.284,211.358,0.710233,0.784304,212.287,213.092
2016-09-12 19:00,0.622587,266.131,213.479,222.238,211.825,210.576,211.992,0.792597,0.886688,210.624,212.505
2016-09-12 20:00,0.889576,273.338,216.88,223.283,213.381,211.284,211.358,0.858589,1.02004,212.287,214.511
2016-09-12 21:00,0.955056,256.062,213.031,222.027,211.028,209.859,210.932,0.702244,0.976873,210.452,211.602
2016-09-12 22:00,-0.00848663,218.393,208.734,220.298,208.131,207.274,208.096,0.0,0.0,209.206,209.379
2016-09-12 23:00,-0.170152,248.394,225.937,227.438,223.125,219.165,215.674,-0.0775748,-0.11562,215.873,221.213
2016-09-13 00:00,0.0,242.013,218.474,224.708,212.997,209.497,210.289,0.0,0.0,208.652,213.382
2016-09-13 01:00,0.0,233.989,213.031,222.238,209.808,207.651,208.096,0.0,0.0,208.652,210.353
2016-09-13 02:00,0.0,218.393,206.1,218.957,205.946,204.955,206.743,0.0,0.0,206.498,206.239
2016-09-13 03:00,0.0,230.231,210.707,220.954,208.556,207.651,209.201,0.0,0.0,209.926,210.67
2016-09-13 04:00,0.0,244.063,220.006,224.908,214.517,209.859,209.638,0.0,0.0,210.796,214.511
2016-09-13 05:00,0.0,258.576,235.011,231.799,229.158,223.619,218.601,0.0,0.0,217.36,224.61
2016-09-13 06:00,0.0,254.966,234.208,231.274,228.583,224.19,218.601,0.0,0.0,215.593,222.529
2016-09-13 07:00,-0.00248139,273.088,257.854,244.626,254.066,249.144,234.916,0.0,0.0,226.592,240.446
2016-09-13 08:00,0.0,277.451,263.712,247.597,260.341,254.472,237.07,0.0,0.0,229.935,245.804
2016-09-13 09:00,-0.0304657,270.713,251.721,240.617,247.446,241.698,229.283,-0.103181,-0.092271,223.952,236.033
2016-09-13 10:00,0.340342,275.48,255.764,242.656,253.069,248.121,233.026,0.447688,0.472444,226.122,239.922
2016-09-13 12:00,0.257044,289.381,278.35,255.742,278.278,275.551,253.625,0.335459,0.300475,234.897,254.722
2016-09-13 13:00,0.215762,290.429,280.669,257.12,281.366,279.061,257.034,0.332749,0.289396,236.609,257.158
2016-09-13 14:00,0.215571,282.923,274.261,253.381,274.778,272.883,253.881,0.38571,0.3723,235.662,254.068
2016-09-13 15:00,0.237939,286.569,280.669,257.685,282.231,280.998,259.735,0.336497,0.320718,238.231,258.798
2016-09-13 16:00,0.177563,279.278,273.466,253.14,274.623,274.147,256.66,0.341586,0.341385,235.038,253.785
2016-09-13 17:00,0.27572,287.871,274.785,254.099,277.377,275.706,257.53,0.375448,0.380228,236.808,255.366
2016-09-13 18:00,0.147947,295.583,286.439,261.412,287.815,285.493,262.017,0.152313,0.128994,237.657,257.07
2016-09-13 19:00,0.469884,277.869,254.328,242.081,254.066,252.536,240.793,0.791911,0.869689,233.308,246.371
2016-09-13 20:00,0.944351,279.081,236.06,232.491,233.31,230.429,222.873,0.946954,1.0805,219.26,225.604
2016-09-13 21:00,1.74578,272.58,229.97,228.564,227.414,225.038,219.739,1.42258,2.04075,222.259,228.96
2016-09-13 22:00,-0.00823726,218.393,208.734,219.632,208.977,207.274,207.423,0.0,-0.008316,207.891,208.711
2016-09-13 23:00,-0.103473,230.231,203.838,218.502,202.701,201.694,204.658,-0.0574946,-0.0816114,205.233,204.721
2016-09-14 00:00,0.0,213.142,204.418,218.272,203.179,202.529,204.422,0.0,0.0,205.015,204.721
2016-09-14 01:00,-0.00164895,213.142,210.707,220.736,209.394,208.397,210.073,0.0,0.0,209.569,210.353
2016-09-14 02:00,-0.00143829,222.276,216.88,223.076,215.993,214.697,215.873,0.0,0.0,213.388,215.061
2016-09-14 03:00,0.0,240.898,227.533,227.628,226.221,224.474,221.598,0.0,0.0,219.26,223.999
2016-09-14 04:00,0.0,256.589,238.585,233.005,235.155,231.714,225.009,0.0,0.0,221.596,228.96
2016-09-14 05:00,0.0,243.066,227.845,227.817,226.221,224.756,221.415,0.0,0.00152649,218.642,223.167
2016-09-14 06:00,-0.00180987,245.913,233.392,230.387,231.683,230.429,226.746,0.0,0.0,222.04,227.509
2016-09-14 07:00,-0.00247154,268.073,259.039,244.488,257.739,255.803,242.814,0.0,0.0,226.499,240.706
2016-09-14 08:00,0.0,286.271,280.909,257.346,281.076,277.243,255.784,0.0,0.0,231.315,252.634
2016-09-14 09:00,-0.088595,277.026,266.59,247.991,264.965,260.942,245.628,-0.125022,-0.14907,228.312,244.998
2016-09-14 10:00,0.274939,282.234,274.655,253.02,274.312,271.605,252.075,0.393158,0.376259,231.709,251.751
2016-09-14 11:00,0.48658,291.19,279.336,256.549,281.366,279.81,259.37,0.508358,0.488359,233.53,256.628
2016-09-14 12:00,0.541996,297.749,283.495,259.354,285.618,283.629,260.701,0.483491,0.480734,232.86,256.181
2016-09-14 13:00,0.373495,295.151,280.429,257.233,282.087,279.661,257.653,0.352827,0.34902,230.835,253.405
2016-09-14 14:00,0.23084,292.771,283.032,259.024,284.501,282.028,259.735,0.256386,0.226192,231.156,254.162
2016-09-14 15:00,0.372378,284.888,277.224,255.51,278.725,276.938,256.909,0.468028,0.45919,231.473,253.021
2016-09-14 16:00,0.28004,289.381,276.336,254.926,277.828,275.706,255.406,0.302481,0.288002,231.473,252.047
2016-09-14 17:00,0.387744,291.19,275.306,254.454,276.772,274.46,255.406,0.409171,0.390012,231.473,250.849
2016-09-14 18:00,0.435581,291.686,272.931,253.02,275.396,274.147,256.035,0.453145,0.482356,233.085,253.117
2016-09-14 19:00,0.0923279,280.239,279.091,257.006,281.076,279.361,258.392,0.196388,0.177327,232.175,253.021
2016-09-14 20:00,0.116164,274.787,271.574,252.045,273.215,270.96,253.881,0.18402,0.155105,231.709,251.352
2016-09-14 22:00,-0.00800152,263.636,254.145,242.081,252.059,249.753,239.765,0.0,0.0,223.952,236.757
2016-09-14 23:00,-0.0766998,251.282,232.56,231.098,229.158,226.426,223.233,-0.0514121,-0.0580748,218.391,224.408
2016-09-15 00:00,0.0,248.394,235.8,232.319,232.502,230.17,225.709,0.0,0.0,217.622,225.408
2016-09-15 01:00,0.0,270.434,261.662,246.533,260.158,256.742,241.953,0.0,0.0,225.352,241.475
2016-09-15 02:00,0.0,271.798,262.931,247.2,262.329,258.591,244.231,0.0,0.0,225.835,241.221
2016-09-15 03:00,0.0,275.02,271.437,252.168,272.582,270.148,250.896,0.0,0.00136745,227.959,246.258
2016-09-15 04:00,0.0,274.551,269.626,251.056,269.842,266.329,249.037,0.0,0.0,227.51,245.114
2016-09-15 05:00,0.0,285.512,281.029,257.459,282.517,279.361,257.653,0.0,0.00152115,231.315,250.238
2016-09-15 06:00,0.0,281.883,277.977,255.974,278.873,275.551,254.646,0.0,0.0,230.511,249.617
2016-09-15 07:00,0.0,281.883,280.066,257.12,281.943,279.511,257.53,0.0,0.0,232.784,252.244
2016-09-15 08:00,-0.0043672,288.291,285.095,259.902,286.033,282.175,259.249,0.0,0.0,234.185,253.213
2016-09-15 09:00,-0.0573027,289.779,286.992,260.984,288.358,285.208,261.062,-0.194072,-0.173551,235.662,254.536
2016-09-15 10:00,0.104426,290.429,287.212,260.876,288.897,285.635,261.779,0.244449,0.161238,237.072,255.73
2016-09-15 11:00,0.139751,292.053,286.882,260.661,288.493,285.635,261.779,0.198017,0.158363,237.657,255.457
2016-09-15 12:00,0.0445934,291.44,287.651,261.198,289.166,286.202,261.66,0.0968553,0.0645934,238.483,255.911
2016-09-15 13:00,0.0309133,291.315,288.412,261.412,290.101,287.609,262.492,0.0745965,0.0483736,239.593,256.628
2016-09-15 14:00,0.0244808,291.065,289.058,261.838,291.16,288.445,263.083,0.0575774,0.0384453,239.593,257.333
2016-09-15 15:00,0.0245276,291.315,288.951,261.519,291.292,288.999,263.318,0.0513722,0.0325817,239.894,257.855
2016-09-15 16:00,0.0472203,290.813,288.412,260.876,290.632,288.584,263.436,0.0777416,0.0701834,239.834,259.304
2016-09-15 17:00,0.0357483,291.809,289.805,261.305,291.948,289.964,264.255,0.0641682,0.0490824,240.43,260.299
2016-09-15 18:00,0.044084,292.889,290.123,261.944,292.209,290.375,264.372,0.0703449,0.0530642,240.134,261.275
2016-09-15 19:00,0.0770644,293.356,290.545,261.944,292.86,290.921,264.022,0.111309,0.0823777,240.371,260.789
2016-09-15 20:00,0.189625,294.043,290.651,261.838,293.119,290.921,264.721,0.231199,0.179951,240.193,260.299
2016-09-15 21:00,0.490281,292.414,290.965,262.366,293.506,291.735,264.837,0.390701,0.40762,239.349,259.721
2016-09-15 22:00,-0.00777847,291.19,290.756,261.944,293.506,291.735,265.301,0.0,0.0,239.043,259.304
2016-09-15 23:00,-0.0663387,291.686,290.965,262.261,293.764,291.871,265.185,-0.0427953,-0.0446486,238.981,259.721
2016-09-16 00:00,0.0,291.065,290.965,262.155,293.892,291.735,265.069,0.0,0.0,239.227,259.804
2016-09-16 01:00,0.0,290.429,290.651,261.944,293.248,291.464,264.837,-0.00138022,0.0,238.483,259.721
2016-09-16 02:00,0.0,290.558,290.44,261.838,292.989,290.921,264.605,0.0,0.0,238.981,259.22
2016-09-16 03:00,-0.00134902,290.171,289.911,261.198,292.86,291.057,264.022,0.0,0.0,238.357,258.028
2016-09-16 04:00,0.0,290.558,290.545,261.198,293.377,291.735,264.837,0.0,0.0,236.207,256.628
2016-09-16 05:00,0.00150155,289.91,289.486,260.661,292.47,290.511,264.721,0.0,0.0,237.657,257.595
2016-09-16 06:00,0.00179727,283.428,284.3,257.685,287.543,286.767,263.436,0.0,0.0,237.657,257.855
2016-09-16 07:00,0.0,290.171,289.165,259.902,291.292,289.276,263.553,0.0,0.0,238.795,258.286
2016-09-16 08:00,-0.00434293,283.428,283.38,257.12,286.033,284.922,262.017,0.0,0.0,239.166,257.769
2016-09-16 09:00,-0.63985,265.446,256.644,241.646,256.021,254.089,243.808,-0.54176,-0.954908,228.921,240.576
2016-09-16 10:00,0.203824,290.939,287.651,259.793,289.032,286.202,261.54,0.329467,0.23695,239.288,255.73
2016-09-16 11:00,0.0257294,290.813,287.76,259.793,289.568,286.485,261.182,0.123449,0.0634953,238.671,254.443
2016-09-16 12:00,0.0854523,292.889,288.628,260.011,290.632,288.167,262.61,0.134838,0.0882299,239.227,255.821
2016-09-16 13:00,0.0278648,291.931,289.805,260.876,292.209,289.689,263.553,0.0707792,0.0421967,239.104,256.805
2016-09-16 14:00,0.0367818,291.931,289.805,261.091,292.6,290.375,263.787,0.0668999,0.0467606,240.014,257.421
2016-09-16 15:00,0.0155211,291.931,290.335,261.198,293.377,291.329,264.605,0.0438056,0.02481,240.134,258.286
2016-09-16 16:00,0.0170929,291.931,290.651,260.984,293.506,291.6,264.372,0.0423043,0.0265481,239.774,258.372
2016-09-16 17:00,0.0286887,292.414,290.86,261.198,293.506,291.735,263.905,0.0546541,0.0376519,239.653,258.798
2016-09-16 18:00,0.105583,294.602,290.335,260.876,292.989,291.329,264.605,0.121118,0.104873,239.834,258.713
2016-09-16 19:00,0.0981107,293.702,290.229,261.091,292.6,290.784,264.022,0.129435,0.101352,241.874,259.804
2016-09-16 20:00,0.241869,294.38,290.017,260.769,292.34,290.238,263.905,0.260051,0.220926,240.665,259.721
2016-09-16 21:00,0.66759,292.294,289.805,260.553,291.686,289.551,263.553,0.488168,0.520796,242.82,260.708
2016-09-16 22:00,-0.00756722,290.301,289.165,260.011,290.897,288.722,263.318,0.0,0.0,243.147,260.708
2016-09-16 23:00,-0.0593373,289.779,288.412,259.793,290.234,288.027,262.847,-0.042308,-0.0472931,243.472,260.381
2016-09-17 00:00,0.0,290.301,289.272,260.011,291.029,288.445,262.847,0.0,0.0,242.042,259.471
2016-09-17 01:00,0.0,290.685,289.486,260.661,291.423,288.999,262.965,0.0,0.0,242.042,259.22
2016-09-17 02:00,0.0,290.301,289.058,260.337,291.16,288.861,262.847,0.0,0.0,240.841,258.798
2016-09-17 03:00,0.0,285.818,285.77,258.358,288.358,286.907,262.373,0.0,0.0,241.704,259.22
2016-09-17 04:00,0.0,289.91,288.736,260.119,291.029,288.722,262.847,0.0,0.0,240.607,259.304
2016-09-17 05:00,0.0,290.171,289.379,260.228,291.686,289.689,263.083,0.0,0.0,239.471,259.135
2016-09-17 06:00,0.0,289.247,288.843,260.011,291.292,289.551,264.488,0.0,0.00180824,238.671,259.387
2016-09-17 07:00,0.0,290.041,289.699,260.445,291.948,290.101,263.436,0.0,0.0,238.608,259.721
2016-09-17 08:00,-0.00431901,290.301,289.593,260.445,292.079,289.964,263.787,0.0,0.0,238.231,259.804
2016-09-17 09:00,-0.0540636,289.91,289.486,260.876,292.079,290.238,263.318,-0.183102,-0.163741,238.42,260.135
2016-09-17 10:00,0.118011,291.686,290.123,260.553,292.73,290.921,263.905,0.278724,0.188115,238.546,259.97
2016-09-17 11:00,0.137558,292.889,289.805,260.553,292.47,290.921,264.255,0.201396,0.153338,238.608,260.217
2016-09-17 12:00,0.0642005,292.771,290.335,260.876,293.119,291.329,264.138,0.120248,0.084455,237.006,259.638
2016-09-17 13:00,0.0279092,291.686,290.545,260.984,293.119,291.464,264.605,0.0774562,0.0485254,238.357,260.299
2016-09-17 14:00,0.0327506,291.931,290.229,260.876,292.86,291.193,264.372,0.0704801,0.0482179,235.593,258.628
2016-09-17 15:00,0.05832,292.414,289.699,260.661,292.079,290.648,264.138,0.0822991,0.0641111,235.178,258.286
2016-09-17 16:00,0.0553595,292.294,289.699,260.769,292.34,290.648,263.905,0.0792373,0.0625421,235.662,258.628
2016-09-17 17:00,0.0777088,293.24,289.486,0.0,291.948,290.238,263.67,0.101131,0.0842629,235.108,258.628
2016-09-17 18:00,0.0684204,293.587,290.017,260.661,292.6,290.784,264.022,0.102828,0.0811626,235.455,258.713
2016-09-17 20:00,0.404285,296.219,290.229,260.661,292.73,290.921,263.553,0.378513,0.361055,238.608,259.471
2016-09-17 21:00,0.784529,291.686,289.486,260.445,291.948,290.101,263.67,0.501584,0.581899,238.733,259.471
2016-09-17 22:00,-0.00736698,290.429,289.699,260.337,292.34,290.511,263.787,0.0,0.0,239.166,259.471
2016-09-17 23:00,-0.064846,290.939,289.805,260.769,291.948,289.964,264.022,-0.0418324,-0.0436439,240.665,259.97
2016-09-18 00:00,0.0,290.301,289.805,260.661,292.34,290.101,264.022,0.0,0.0,239.834,259.804
2016-09-18 01:00,0.0,290.429,290.017,260.769,292.47,290.648,264.022,0.0,0.0,240.074,260.299
2016-09-18 02:00,-0.00141172,290.301,290.017,260.661,292.34,290.648,264.255,0.0,0.0,238.857,259.97
2016-09-18 03:00,0.0,290.041,289.805,260.984,292.209,290.101,264.255,0.0,0.0,237.203,259.304
2016-09-18 04:00,0.0,290.041,289.593,260.769,291.948,289.964,263.787,0.0,0.0,235.936,258.798
2016-09-18 05:00,-0.00149141,289.381,289.165,260.553,291.423,289.413,263.553,0.0,0.0,235.108,257.942
2016-09-18 06:00,0.0,290.813,289.911,261.091,292.079,289.826,263.905,0.0,0.0,234.041,256.894
2016-09-18 07:00,0.00243363,288.705,288.412,260.769,290.632,288.722,263.083,0.0,0.0,232.709,256.271
2016-09-18 08:00,0.0,290.301,289.486,261.412,291.555,289.413,263.2,0.0,0.0,232.935,256.181
2016-09-18 09:00,-0.0262841,290.301,289.379,261.412,291.555,289.137,263.67,0.0,-0.132677,233.085,256.271
2016-09-18 10:00,0.131179,291.563,289.058,261.519,291.16,288.722,263.2,0.259162,0.176578,232.709,256.091
2016-09-18 11:00,0.0689509,291.44,288.951,261.519,291.029,288.584,262.847,0.155682,0.0986142,233.456,256.181
2016-09-18 12:00,0.380048,293.816,285.095,259.024,287.27,285.635,262.373,0.414197,0.399422,232.935,256.001
2016-09-18 13:00,0.113374,293.007,288.087,260.984,290.5,288.306,263.436,0.142018,0.128569,232.633,255.73
2016-09-18 14:00,0.127132,292.534,287.869,260.876,289.968,288.027,262.965,0.144681,0.132487,232.709,256.091
2016-09-18 15:00,0.0194798,291.563,289.486,262.049,291.555,289.137,262.965,0.0450823,0.0249103,233.308,256.539
2016-09-18 16:00,0.179712,287.729,279.702,256.434,282.231,281.588,261.062,0.217055,0.193437,233.085,256.45
2016-09-18 17:00,0.0952889,291.315,287.76,260.553,290.367,288.861,263.553,0.122244,0.112233,233.308,257.07
2016-09-18 18:00,0.0618567,292.771,289.486,261.519,291.686,289.551,263.787,0.0916544,0.0745907,233.159,257.246
2016-09-18 19:00,0.161894,294.491,288.52,261.412,290.764,288.306,262.965,0.184072,0.170446,233.159,256.716
2016-09-18 20:00,0.433072,295.69,288.736,261.412,290.764,288.584,263.2,0.390016,0.369643,233.75,256.628
2016-09-18 21:00,0.677994,290.685,289.058,261.838,291.555,289.413,263.553,0.473597,0.547581,234.113,257.246
2016-09-18 22:00,-0.00717702,290.301,289.379,261.625,291.423,289.137,263.787,0.0,0.0,234.686,256.982
2016-09-18 23:00,-0.0641265,290.171,288.412,261.412,290.764,288.445,263.083,-0.0465393,-0.0400769,235.247,257.158
2016-09-19 00:00,-0.00202887,289.91,287.541,261.198,289.032,286.485,262.017,0.0,0.0,236.139,257.246
2016-09-19 01:00,0.0,288.841,286.105,260.011,287.543,285.493,261.54,0.0,-0.00161833,236.274,257.508
2016-09-19 02:00,0.0,283.261,281.86,257.346,283.372,282.028,260.942,0.0,-0.00141878,236.207,257.333
2016-09-19 03:00,-0.00133311,285.97,282.682,257.685,284.361,282.175,260.461,0.0,0.0,237.268,257.333
2016-09-19 04:00,-0.00135707,282.408,278.968,255.393,280.785,279.511,259.735,0.0,0.0,237.398,257.333
2016-09-19 05:00,0.0,289.647,287.651,260.553,289.166,286.626,261.898,0.0,0.0,237.977,258.286
2016-09-19 06:00,0.0017791,288.43,286.439,260.011,288.222,285.919,262.136,0.0,0.0,238.546,258.967
2016-09-19 07:00,0.0,286.717,285.994,259.574,287.815,286.06,262.492,0.0,0.0,238.795,258.798
2016-09-19 08:00,0.0,288.568,285.546,259.244,286.86,284.349,260.461,0.0,0.0,238.357,258.713
2016-09-19 09:00,-0.102291,288.705,286.105,259.793,287.679,285.777,261.66,-0.173219,-0.154903,237.268,258.457
2016-09-19 10:00,0.289025,291.563,288.412,261.091,290.101,287.888,262.373,0.372395,0.291788,236.139,257.682
2016-09-19 11:00,0.311078,293.702,287.102,260.337,289.3,287.469,263.083,0.307287,0.299512,236.341,258.457
2016-09-19 13:00,0.0840093,289.247,281.386,256.892,282.374,279.361,256.909,0.126454,0.100518,233.823,254.162
2016-09-19 14:00,0.0821694,292.889,287.869,260.769,289.568,287.188,262.728,0.104359,0.0843375,236.341,258.372
2016-09-19 15:00,0.0273291,291.686,288.303,261.091,289.701,287.188,262.136,0.0561959,0.0354733,236.675,258.2
2016-09-19 16:00,0.116585,293.007,286.992,260.553,288.897,286.202,262.728,0.128999,0.113687,236.274,257.07
2016-09-19 17:00,0.0811215,293.587,288.087,261.412,289.701,287.048,262.373,0.0968956,0.081897,236.274,257.158
2016-09-19 18:00,0.105294,294.043,287.869,261.412,289.434,286.626,261.54,0.124229,0.102815,235.525,256.45
2016-09-19 19:00,0.388918,296.943,285.208,259.683,287.134,284.061,259.977,0.349015,0.333858,235.247,255.366
2016-09-19 20:00,0.658057,294.491,285.208,259.793,286.585,284.205,260.581,0.56393,0.559663,234.041,253.785
2016-09-19 21:00,0.738342,290.813,286.992,261.091,288.493,285.35,261.182,0.472677,0.545415,234.968,253.785
2016-09-19 22:00,-0.00699667,284.73,280.789,257.572,281.655,278.156,256.285,0.0,0.0,231.236,250.032
2016-09-19 23:00,-0.0573842,268.986,252.479,241.207,251.856,247.085,235.382,-0.0537015,-0.0396382,226.122,237.327
2016-09-20 00:00,0.0,273.088,260.692,245.859,259.051,255.235,241.664,0.0,0.0,228.048,241.093
2016-09-20 01:00,0.0,254.396,243.719,236.784,243.209,241.698,233.819,0.0,0.0,225.931,236.9
2016-09-20 02:00,0.0,277.026,265.243,248.252,263.745,259.139,244.09,0.0,0.0,226.216,239.255
2016-09-20 03:00,0.0,262.074,247.769,238.963,244.349,240.802,231.419,0.0,0.00134067,221.708,232.022
2016-09-20 04:00,0.0,264.377,250.954,240.469,248.946,245.399,235.846,0.0,0.0,225.058,235.146
2016-09-20 05:00,0.0,257.605,247.769,238.349,247.229,244.973,236.613,0.0,0.00149576,225.931,237.608
2016-09-20 06:00,-0.00177324,264.377,250.954,240.617,250.415,247.293,237.676,0.0,0.0,224.76,237.185
2016-09-20 07:00,0.0,242.013,237.591,232.663,236.186,234.95,229.781,0.0,0.0,223.434,230.354
2016-09-20 08:00,0.0,262.475,260.528,246.13,261.069,260.225,247.823,0.0,0.0,230.184,245.804
2016-09-20 09:00,-0.124474,249.89,237.339,234.017,234.633,231.714,226.574,-0.147549,-0.175929,219.744,229.664
2016-09-20 10:00,0.467732,265.791,258.365,244.488,258.678,257.856,246.319,0.71178,0.778498,231.315,244.998
2016-09-20 11:00,0.531388,293.356,273.333,254.336,275.242,272.724,255.28,0.459707,0.460663,232.557,249.198
2016-09-20 12:00,0.271931,278.883,251.721,241.936,247.878,244.112,233.819,0.306439,0.310081,222.04,233.304
2016-09-20 13:00,0.408321,293.816,265.092,249.158,266.847,264.106,250.104,0.567411,0.575856,229.769,245.918
2016-09-20 14:00,0.157786,286.121,271.848,253.02,271.945,268.173,249.305,0.184713,0.174532,226.778,242.602
2016-09-20 15:00,0.27649,269.576,247.357,238.657,246.794,244.328,235.227,0.34453,0.35155,224.359,234.389
2016-09-20 16:00,0.15143,269.865,253.226,240.766,252.059,249.348,238.577,0.228314,0.236022,225.546,236.325
2016-09-20 17:00,0.204948,270.713,250.371,240.021,248.093,245.399,234.916,0.268293,0.270007,223.118,232.508
2016-09-20 18:00,0.346837,268.382,232.28,231.274,229.444,226.426,223.233,0.428753,0.474457,219.014,223.793
2016-09-20 19:00,0.525343,268.382,226.583,228.192,224.384,222.462,219.739,0.593738,0.674795,217.752,221.213
2016-09-20 20:00,0.448552,262.475,235.8,232.491,234.107,233.969,228.782,0.485856,0.554831,223.224,229.489
2016-09-20 21:00,0.614713,250.598,234.208,231.799,233.577,232.725,228.949,0.487947,0.698163,224.054,230.183
2016-09-20 22:00,0.0,253.206,241.913,235.499,240.152,238.282,232.547,0.0,0.0,223.952,233.617
2016-09-20 23:00,-0.047802,251.282,242.37,235.823,240.87,240.123,233.344,-0.0607108,-0.0392104,225.058,233.146
2016-09-21 00:00,0.0,269.283,260.036,245.587,260.341,256.928,243.525,0.0,0.0,227.238,242.105
2016-09-21 01:00,0.0,282.581,276.336,255.16,277.226,274.147,253.753,0.0,0.0,227.601,245.804
2016-09-21 02:00,-0.00139291,288.705,285.433,260.445,286.997,283.629,259.005,0.0,0.0,227.51,248.775
2016-09-21 03:00,0.0,286.717,281.742,257.91,282.66,279.061,257.034,0.0,0.0,227.78,247.808
2016-09-21 04:00,0.0,286.271,282.331,258.246,283.514,280.257,257.9,0.0,0.0,228.048,248.775
2016-09-21 05:00,0.0,287.729,285.546,260.445,286.997,284.492,260.581,0.0,0.0,229.178,252.925
2016-09-21 06:00,-0.00176746,266.797,254.328,242.656,247.662,246.876,236.46,0.0,0.0,219.624,231.859
2016-09-21 07:00,0.0,286.121,282.682,259.134,284.501,281.293,258.023,0.0,0.0,229.348,252.439
2016-09-21 08:00,-0.0042264,284.249,283.726,259.244,285.618,284.205,262.017,0.0,0.0,231.236,254.999
2016-09-21 09:00,-0.0242474,290.301,289.379,262.471,291.423,289.137,263.905,-0.102651,-0.122396,231.552,256.001
2016-09-21 10:00,0.108109,291.44,289.699,262.681,291.817,289.413,263.553,0.263839,0.179765,232.709,256.36
2016-09-21 11:00,0.0492296,291.44,289.272,262.155,290.897,288.167,262.255,0.149567,0.0964768,232.328,256.001
2016-09-21 12:00,0.107812,292.653,287.212,261.091,288.897,286.343,261.66,0.149374,0.122695,231.236,254.999
2016-09-21 13:00,0.0655757,290.558,283.841,259.134,284.921,281.588,257.777,0.10708,0.0851176,229.852,253.405
2016-09-21 14:00,0.050864,288.705,281.742,258.134,282.231,279.211,255.027,0.084969,0.0693922,228.488,251.751
2016-09-21 15:00,0.0849609,288.152,278.35,255.858,278.278,274.929,252.853,0.106244,0.0976493,228.048,250.646
2016-09-21 16:00,0.0412897,289.91,285.321,260.011,286.31,283.629,259.127,0.0710475,0.0564756,230.674,254.999
2016-09-21 17:00,0.205659,288.705,280.187,257.233,281.799,279.81,258.27,0.275399,0.262108,230.348,254.443
2016-09-21 18:00,0.0818929,292.053,286.328,260.445,287.951,285.065,259.977,0.106221,0.0879529,231.236,255.275
2016-09-21 19:00,0.158258,294.491,288.52,261.838,290.5,288.027,262.965,0.171996,0.147848,231.63,256.45
2016-09-21 20:00,0.307157,294.602,289.058,262.366,291.029,288.722,263.553,0.291277,0.281151,231.709,256.271
2016-09-21 21:00,0.370518,290.813,288.628,261.944,290.367,288.027,262.492,0.313717,0.394842,230.916,255.548
2016-09-21 22:00,-0.00666243,289.514,287.978,261.412,289.701,287.188,261.54,0.0,0.0,230.835,255.639
2016-09-21 23:00,-0.0443377,287.729,283.611,259.793,284.079,280.108,255.909,-0.0650705,-0.0387933,229.178,252.634
2016-09-22 00:00,0.00198599,288.841,285.882,260.769,287.407,284.205,259.856,0.0,0.0,230.755,255.183
2016-09-22 01:00,-0.00157727,279.081,279.336,256.549,281.655,280.85,260.219,0.0,0.0,231.473,256.36
2016-09-22 02:00,0.00138686,278.482,278.35,256.32,280.639,279.511,259.614,0.0,0.0,231.076,255.457
2016-09-22 03:00,-0.00131798,285.97,284.869,259.683,286.447,284.636,261.301,0.0,0.0,231.63,256.271
2016-09-22 04:00,0.0,285.357,281.978,258.58,282.946,280.108,257.034,0.0,0.0,230.266,253.974
2016-09-22 05:00,0.0,290.429,289.911,262.89,292.34,290.238,264.022,0.0,0.0,232.633,257.421
2016-09-22 06:00,-0.00176178,290.558,289.911,262.681,292.34,290.511,264.022,0.0,0.0,233.234,257.855
2016-09-22 07:00,0.0,289.381,289.272,262.155,292.079,290.375,264.138,0.0,0.0,233.308,258.114
2016-09-22 08:00,-0.00420392,290.171,290.123,263.099,292.6,291.057,264.953,0.0,0.0,233.968,258.457
2016-09-22 09:00,-0.0472559,289.779,290.017,262.681,292.34,291.057,264.953,-0.14004,-0.143123,234.041,258.798
2016-09-22 10:00,0.0703916,291.315,290.756,263.307,293.506,291.871,265.301,0.238402,0.148589,233.677,258.543
2016-09-22 11:00,0.0522718,291.809,290.965,263.307,293.892,292.276,265.416,0.147528,0.0967478,233.603,258.713
2016-09-22 12:00,0.0451776,292.294,290.86,262.995,293.764,291.871,265.532,0.0997873,0.0634566,233.456,258.2
2016-09-22 13:00,0.0156427,291.563,290.965,263.411,293.764,291.735,265.416,0.0635745,0.034743,233.75,258.2
2016-09-22 14:00,0.0110195,291.563,290.756,263.203,293.506,291.735,265.416,0.0478172,0.0250309,233.308,257.942
2016-09-22 15:00,0.00655032,291.563,290.965,263.099,294.021,292.276,265.416,0.0343861,0.0185162,232.784,257.421
2016-09-22 16:00,0.006678,291.44,291.174,262.995,294.021,292.41,265.301,0.0339255,0.0175288,234.615,257.942
2016-09-22 17:00,0.0204921,292.174,290.86,262.995,293.892,292.276,265.069,0.0483338,0.031032,234.329,257.769
2016-09-22 18:00,0.0910404,293.93,290.229,262.261,293.119,291.6,264.488,0.108214,0.0901432,233.75,257.595
2016-09-22 19:00,0.11658,295.042,290.335,262.471,292.86,290.648,263.553,0.145041,0.115293,233.677,257.508
2016-09-22 20:00,0.485724,284.73,275.176,253.02,275.087,273.517,254.009,0.471018,0.523897,232.633,249.721
2016-09-22 21:00,1.55199,279.473,268.487,249.542,268.855,266.835,249.971,0.807214,1.343,231.394,247.151
2016-09-22 22:00,-0.00650746,286.717,285.321,259.354,286.997,284.779,260.942,0.0,0.0,234.257,256.36
2016-09-23 00:00,0.0,278.684,277.727,255.16,278.725,278.004,258.147,0.0,0.0,233.677,252.731
2016-09-23 01:00,-0.001569,269.576,263.712,246.667,264.27,262.361,246.732,0.0,0.0,232.557,246.258
2016-09-23 02:00,0.0,272.836,267.618,249.029,268.191,266.667,250.633,0.0,0.0,233.01,247.59
2016-09-23 03:00,-0.00131311,259.505,254.509,241.5,254.263,252.927,243.383,0.0,0.0,232.175,242.105
2016-09-23 04:00,-0.00133873,278.482,275.046,252.777,276.163,274.304,255.406,0.0,0.0,233.308,250.646
2016-09-23 05:00,-0.00146748,287.871,286.882,259.574,289.3,287.048,262.136,0.0,0.0,234.756,255.275
2016-09-23 06:00,0.00175618,290.171,289.272,260.876,291.423,288.999,263.436,0.0,0.0,236.808,257.333
2016-09-23 07:00,0.0,289.779,289.272,260.337,291.423,289.413,263.318,0.0,0.0,238.168,257.942
2016-09-23 08:00,-0.00418167,290.041,289.486,261.091,291.686,289.689,263.436,0.0,0.0,237.203,257.246
2016-09-23 09:00,0.0,290.171,289.699,261.519,292.209,290.101,264.138,-0.117019,-0.116273,237.333,257.682
2016-09-23 10:00,0.135247,291.563,289.805,261.625,292.34,290.648,264.138,0.267199,0.182054,238.608,259.304
2016-09-23 11:00,0.0990213,292.294,290.017,262.049,292.6,290.784,263.787,0.172614,0.12349,238.546,259.135
2016-09-23 12:00,0.127947,294.602,289.699,261.944,292.34,290.375,264.138,0.161665,0.133144,237.657,258.372
2016-09-23 13:00,0.0407505,292.174,290.229,262.155,292.73,291.057,264.372,0.0875855,0.0553808,238.168,258.713
2016-09-23 14:00,0.126983,291.19,287.651,260.445,290.234,288.999,263.2,0.160106,0.146312,238.671,259.387
2016-09-23 15:00,0.0380804,291.315,289.699,261.944,292.34,290.375,263.67,0.0611498,0.0477241,238.357,259.887
2016-09-23 16:00,0.0642894,291.563,289.272,261.198,291.817,290.101,263.67,0.0827846,0.0703126,238.168,259.638
2016-09-23 17:00,0.0337863,291.931,290.123,261.519,292.34,290.375,264.022,0.0572137,0.0400414,239.288,260.545
2016-09-23 18:00,0.0580573,293.007,289.911,261.305,292.079,290.101,264.488,0.0819283,0.0621645,240.253,261.595
2016-09-23 19:00,0.0742968,293.124,290.229,261.838,292.47,290.511,263.905,0.113638,0.0798462,240.43,261.675
2016-09-23 20:00,0.151533,293.124,290.651,262.049,293.119,291.329,264.138,0.203146,0.157231,239.954,261.515
2016-09-23 21:00,0.408388,291.19,290.229,261.731,292.34,290.375,264.372,0.406802,0.412292,239.288,260.789
2016-09-23 22:00,0.0,287.871,287.432,260.119,289.701,288.167,263.436,0.0,-0.00642073,238.608,260.217
2016-09-23 23:00,-0.0405256,290.685,289.805,261.198,291.948,290.375,263.905,-0.0808806,-0.0350683,238.795,260.545
2016-09-24 00:00,0.0,290.301,290.017,261.519,292.34,290.375,264.022,0.0,0.0,238.42,260.627
2016-09-24 01:00,0.0,289.247,288.628,260.553,290.897,0.0,263.905,0.0,0.0,237.721,260.627
2016-09-24 02:00,-0.00137508,290.813,290.229,261.519,292.47,290.648,264.022,0.0,0.0,237.657,260.545
2016-09-24 03:00,-0.00130834,290.685,290.335,261.519,292.47,290.511,263.905,0.0,0.0,237.657,260.789
2016-09-24 04:00,0.0,290.813,290.756,261.731,293.248,291.6,264.372,0.0,0.0,239.41,262.072
2016-09-24 05:00,-0.00146293,289.91,290.229,261.198,292.86,291.193,264.372,0.0,0.0,241.131,262.779
2016-09-24 06:00,0.0,290.685,291.07,261.838,293.506,291.871,264.837,0.0,0.0,241.476,262.935
2016-09-24 07:00,0.00238063,290.939,291.383,261.731,294.021,292.545,265.185,0.0,0.0,241.93,263.167
2016-09-24 08:00,0.0,291.065,291.07,261.519,293.377,292.006,264.953,0.0,0.0,242.211,263.858
2016-09-24 09:00,0.0,289.779,289.699,260.876,292.209,290.921,264.721,-0.0951043,-0.0907179,240.782,263.322
2016-09-24 10:00,0.20745,291.931,290.335,260.445,292.6,290.784,263.905,0.318362,0.235613,239.41,262.466
2016-09-24 11:00,0.122685,292.414,289.805,260.661,292.47,290.648,265.185,0.200335,0.153348,238.671,262.23
2016-09-24 12:00,0.0295908,291.563,290.123,260.661,292.209,290.375,263.905,0.0985478,0.061739,236.675,261.435
2016-09-24 13:00,0.0581079,292.053,288.087,259.244,290.101,288.306,262.847,0.0930808,0.0745183,236.139,260.952
2016-09-24 14:00,0.034579,287.01,280.909,255.277,281.076,279.211,257.653,0.0749517,0.0558553,234.686,257.855
2016-09-24 15:00,0.213233,264.009,238.83,232.491,237.451,235.193,229.283,0.278618,0.30829,225.156,230.694
2016-09-24 16:00,0.182677,272.322,255.05,241.207,253.669,251.354,239.322,0.249067,0.256294,228.136,239.121
2016-09-24 17:00,0.209355,288.291,280.187,254.808,282.374,281.441,259.492,0.217206,0.227729,235.455,258.882
2016-09-24 18:00,0.0300561,292.053,289.272,259.574,291.16,289.137,263.436,0.0718544,0.0481925,235.867,260.299
2016-09-24 19:00,0.572236,290.813,281.029,255.277,283.656,283.194,261.54,0.631705,0.667897,236.742,259.887
2016-09-24 20:00,0.900711,298.144,285.546,257.798,287.951,286.907,262.61,0.708415,0.814511,236.742,259.887
2016-09-24 21:00,0.655237,290.813,288.736,259.464,290.632,288.861,263.436,0.466022,0.635041,237.137,259.887
2016-09-24 22:00,-0.00621942,287.729,286.882,258.469,289.3,287.469,263.436,0.0,0.0,237.203,259.97
2016-09-24 23:00,-0.040114,290.041,288.951,259.683,291.16,288.999,263.436,-0.070355,-0.0347121,237.913,259.887
2016-09-25 00:00,0.0,288.291,287.541,259.134,289.968,288.027,263.553,0.0,0.0,238.041,260.135
2016-09-25 01:00,-0.00155293,280.982,281.505,256.32,284.641,284.061,261.898,0.0,0.0,239.043,260.217
2016-09-25 02:00,-0.00136935,286.569,285.546,258.58,288.222,286.485,262.136,0.0,0.0,239.043,259.887
2016-09-25 03:00,0.0,290.558,289.165,260.876,291.292,288.999,262.965,0.0,0.0,238.795,258.798
2016-09-25 04:00,0.00133004,280.239,280.549,256.892,283.514,282.904,261.182,0.0,0.0,239.532,258.967
2016-09-25 05:00,-0.00145846,278.684,279.823,255.51,282.374,281.735,260.942,0.0,0.0,240.014,258.457
2016-09-25 06:00,0.0,271.531,269.767,250.051,272.104,270.96,254.773,0.0,0.0,238.041,255.911
2016-09-25 07:00,0.0,272.58,271.023,250.429,273.057,272.565,255.909,0.0,0.0,237.657,256.716
2016-09-25 08:00,-0.00413781,281.883,279.823,256.089,281.943,280.257,259.614,0.0,0.0,237.398,256.805
2016-09-25 09:00,-0.0219171,289.91,287.651,260.445,288.897,285.919,261.421,-0.111343,-0.0885066,237.072,257.421
2016-09-25 10:00,0.0391602,290.685,287.869,260.661,289.3,286.767,262.017,0.232098,0.125193,235.799,257.769
2016-09-25 11:00,0.0673911,291.065,288.087,260.661,289.434,286.767,261.66,0.153814,0.0916997,234.968,257.942
2016-09-25 12:00,0.0474525,293.356,287.102,260.337,289.032,286.343,262.492,0.100445,0.0638749,233.75,257.421
2016-09-25 13:00,0.108588,289.647,284.869,258.913,286.722,285.208,261.54,0.158566,0.14458,233.085,256.091
2016-09-25 14:00,0.0110892,290.558,287.978,260.769,289.568,286.907,261.898,0.0504672,0.0265887,233.159,255.457
2016-09-25 15:00,0.0897242,287.871,280.909,257.12,283.23,280.85,259.127,0.122892,0.114559,232.557,253.309
2016-09-25 16:00,0.0511915,290.685,286.439,260.011,288.087,285.208,261.66,0.0752813,0.058481,232.02,253.88
2016-09-25 17:00,0.0725097,291.931,286.992,260.553,288.628,285.777,261.54,0.0877055,0.0687211,231.787,253.021
2016-09-25 18:00,0.0764047,292.174,287.432,260.876,289.166,286.343,261.301,0.100799,0.0807228,231.787,253.309
2016-09-25 19:00,0.240835,295.368,285.095,259.464,286.997,284.636,261.182,0.245109,0.213666,232.02,253.595
2016-09-25 20:00,0.528269,294.933,286.992,260.445,288.493,285.635,262.017,0.480281,0.432775,232.175,253.974
2016-09-25 21:00,0.345956,284.73,280.308,256.664,281.943,279.661,259.005,0.439381,0.49479,232.405,253.5
2016-09-25 22:00,0.0,265.791,267.18,248.771,269.679,269.657,254.392,0.0,0.0,233.968,253.405
2016-09-25 23:00,-0.0397131,268.073,268.199,249.414,270.332,270.148,255.28,-0.0648483,-0.0315015,234.686,253.405
2016-09-26 00:00,0.0,271.798,268.773,250.051,271.303,270.635,254.773,0.0,0.0,234.401,253.405
2016-09-26 01:00,0.0,267.123,267.18,248.771,269.186,268.835,254.137,0.0,0.0,234.543,253.213
2016-09-26 02:00,-0.00136374,271.531,269.626,249.924,271.303,270.96,254.9,0.0,0.0,234.401,253.69
2016-09-26 03:00,-0.00129905,283.594,279.336,255.626,281.076,279.061,258.392,0.0,0.0,235.386,256.271
2016-09-26 04:00,-0.00132581,285.045,280.669,256.549,282.66,280.257,258.882,0.0,0.0,235.247,255.821
2016-09-26 05:00,0.0,289.247,286.439,259.793,287.815,285.208,261.062,0.0,0.00146797,235.178,256.001
2016-09-26 06:00,0.0,290.429,288.412,260.984,290.101,287.188,262.136,0.0,0.0,235.108,256.45
2016-09-26 07:00,0.00236384,290.813,288.951,261.198,290.897,288.306,262.61,0.0,0.0,235.317,257.158
2016-09-26 08:00,0.0,290.171,288.628,261.305,290.367,287.609,262.492,0.0,0.0,235.178,257.158
2016-09-26 09:00,-0.02139,290.171,288.628,261.091,290.367,287.748,262.255,-0.108665,-0.107973,235.662,257.158
2016-09-26 10:00,0.111726,291.19,288.843,261.412,291.029,288.722,262.847,0.2671,0.172508,234.401,256.805
2016-09-26 11:00,0.223389,292.653,288.412,260.984,290.367,288.306,263.436,0.271271,0.213654,233.603,256.805
2016-09-26 12:00,0.0217999,291.44,289.805,261.944,291.817,289.551,263.67,0.0889338,0.0480182,233.75,257.246
2016-09-26 13:00,0.0220796,291.44,289.911,261.944,292.34,290.238,264.372,0.0694378,0.0382127,233.159,257.855
2016-09-26 14:00,0.0333417,291.931,289.699,262.049,292.079,290.238,263.905,0.0646947,0.0434781,232.784,256.982
2016-09-26 15:00,0.0052911,291.315,290.017,262.366,292.209,289.689,263.2,0.0369597,0.0173605,233.456,256.805
2016-09-26 16:00,0.00945816,291.19,289.699,262.049,292.079,289.551,263.553,0.0343209,0.0177331,232.935,256.539
2016-09-26 17:00,0.0608996,293.007,287.432,260.769,289.701,287.048,262.017,0.0792318,0.0584826,233.677,256.36
2016-09-26 18:00,0.321455,295.796,279.458,256.664,282.517,280.998,260.219,0.279736,0.293878,234.329,256.001
2016-09-26 19:00,0.186291,293.702,288.628,261.412,290.897,288.445,263.2,0.197165,0.173224,235.247,255.911
2016-09-26 20:00,0.263592,293.24,288.736,261.519,290.764,288.167,262.255,0.290138,0.248371,235.731,256.091
2016-09-26 21:00,0.192145,290.301,287.869,261.198,289.701,287.188,261.898,0.379608,0.387964,235.799,256.091
2016-09-26 22:00,0.0,290.171,288.303,261.412,290.234,287.469,262.017,0.0,0.0,235.731,255.821
2016-09-26 23:00,-0.0337053,288.841,286.328,260.553,288.628,285.635,261.182,-0.0689674,-0.0255207,236.139,255.911
2016-09-27 00:00,0.0,290.429,288.843,261.519,291.029,288.306,262.61,0.0,0.0,235.386,256.181
2016-09-27 01:00,-0.0015375,290.041,288.951,261.731,291.16,288.445,262.847,0.0,0.0,235.108,256.001
2016-09-27 02:00,0.0,290.429,289.058,262.261,291.555,288.861,262.965,0.0,0.0,235.178,256.181
2016-09-27 03:00,0.0,288.291,285.546,259.902,287.679,284.922,260.219,0.0,0.0,233.308,253.785
2016-09-27 04:00,0.0,289.91,288.628,261.731,291.16,288.861,262.61,0.0,0.0,235.178,256.001
2016-09-27 05:00,0.0,289.779,288.195,261.091,290.367,288.027,261.779,0.0,0.0,233.896,254.907
2016-09-27 06:00,0.0,290.301,289.486,261.519,292.079,290.375,263.436,0.0,0.0,235.038,256.805
2016-09-27 07:00,-0.00235559,289.247,288.52,260.553,291.029,289.826,263.67,0.0,0.0,235.867,257.246
2016-09-27 08:00,0.00409469,289.647,288.736,260.876,290.897,289.551,263.553,0.0,0.0,235.936,257.508
2016-09-27 09:00,0.0,288.152,284.982,258.469,286.172,283.917,259.37,-0.070723,-0.0632449,234.185,254.536
2016-09-27 10:00,0.185334,290.558,287.651,260.337,289.701,288.306,261.898,0.330658,0.260612,235.593,257.07
2016-09-27 11:00,0.179884,283.924,272.256,250.806,270.981,267.506,246.869,0.269659,0.253054,230.835,248.775
2016-09-27 12:00,0.0794638,289.91,284.528,258.246,285.895,284.061,259.37,0.154748,0.120335,234.329,254.999
2016-09-27 13:00,0.0932554,285.665,274.524,252.29,274.778,271.765,251.028,0.149889,0.129253,231.315,250.34
2016-09-27 14:00,0.123925,284.57,271.023,250.303,270.332,267.171,247.415,0.165054,0.151818,229.769,247.808
2016-09-27 15:00,0.058351,289.91,284.528,257.798,285.895,283.917,259.614,0.0976886,0.0803302,234.041,255.639
2016-09-27 16:00,0.0691189,291.931,287.212,259.683,289.166,287.469,261.898,0.102128,0.0861984,235.178,256.982
2016-09-27 17:00,0.0805152,293.472,290.545,261.625,292.86,291.871,265.301,0.107308,0.0918219,235.386,258.713
2016-09-27 18:00,0.150782,294.602,289.379,261.305,291.686,290.375,263.787,0.171742,0.159472,235.317,258.028
2016-09-27 19:00,0.311228,296.84,289.486,261.305,291.686,290.375,263.318,0.296979,0.29176,235.178,257.942
2016-09-27 20:00,0.838141,298.339,286.992,259.683,289.032,287.609,262.017,0.630383,0.697626,234.329,257.158
2016-09-27 21:00,0.432029,290.813,290.123,261.838,292.6,291.057,264.255,0.335315,0.399813,235.455,258.286
2016-09-27 22:00,-0.00583603,288.152,285.994,259.354,287.407,285.777,259.977,0.0,0.0,233.603,255.183
2016-09-27 23:00,-0.0250348,288.152,284.528,258.358,286.172,284.349,259.005,-0.0565252,-0.0252741,231.552,253.309
2016-09-28 00:00,0.0,273.088,261.662,244.765,258.678,255.235,239.618,0.0,0.0,223.849,237.608
2016-09-28 01:00,0.0,289.514,288.195,260.769,290.234,288.584,262.61,0.0,0.0,233.896,256.271
2016-09-28 02:00,-0.00270567,287.587,285.321,258.913,287.27,285.208,260.34,0.0,0.0,233.085,254.443
2016-09-28 03:00,0.0,281.346,273.065,251.429,273.215,270.148,250.104,0.0,0.0,228.662,246.595
2016-09-28 04:00,0.0,285.97,281.505,256.892,281.799,278.911,255.658,0.0,0.0,231.076,251.452
2016-09-28 05:00,0.0,288.977,287.541,260.445,289.835,288.027,262.728,0.0,0.0,233.603,255.183
2016-09-28 06:00,-0.00172943,284.57,280.187,256.089,281.076,278.458,256.535,0.0,0.0,231.709,251.85
2016-09-28 07:00,0.0,288.977,288.195,261.091,290.632,289.137,262.847,0.0,0.0,233.75,254.629
2016-09-28 08:00,0.0,289.779,288.736,260.984,291.292,288.999,263.2,0.0,0.0,233.75,253.88
2016-09-28 09:00,-0.0407835,289.381,288.303,260.876,290.632,288.445,262.017,-0.0690627,-0.0823468,233.968,254.068
2016-09-28 10:00,0.146691,290.939,288.412,260.876,290.632,288.445,262.61,0.321799,0.228871,234.756,254.162
2016-09-28 11:00,0.272213,292.053,285.095,259.024,286.585,283.773,259.005,0.320671,0.286764,233.75,252.828
2016-09-28 12:00,0.0577547,291.315,287.869,260.984,289.835,287.048,261.182,0.128154,0.0844444,234.543,254.349
2016-09-28 13:00,0.0285155,290.685,287.651,260.769,289.434,286.343,261.062,0.0804802,0.0495796,234.329,253.405
2016-09-28 14:00,0.039079,288.568,282.096,257.572,283.23,279.81,256.16,0.0791752,0.0563609,232.02,249.617
2016-09-28 15:00,0.0505258,288.012,279.945,256.089,280.493,277.091,254.773,0.0821829,0.0644322,231.709,249.513
2016-09-28 16:00,0.141384,288.841,281.267,257.006,282.517,279.959,257.034,0.174961,0.155088,232.784,251.751
2016-09-28 17:00,0.0778332,289.779,279.336,256.205,278.576,272.883,250.633,0.103921,0.0876439,231.394,249.721
2016-09-28 18:00,0.13352,292.534,286.992,260.011,288.763,286.202,261.182,0.149717,0.129332,236.341,256.805
2016-09-28 19:00,0.316138,291.19,284.071,258.469,286.172,284.061,260.942,0.349872,0.306595,237.528,257.769
2016-09-28 20:00,0.280556,293.356,288.195,260.553,289.835,287.329,262.492,0.283524,0.25126,237.268,257.942
2016-09-28 21:00,0.164357,288.841,287.102,260.011,288.897,286.485,262.136,0.278322,0.331857,238.42,258.628
2016-09-28 22:00,-0.00571979,289.779,288.195,260.984,289.835,287.329,262.492,0.0,0.0,239.41,259.304
2016-09-28 23:00,-0.0192867,287.01,286.328,259.244,288.087,285.777,262.017,-0.0583216,-0.0222527,236.874,258.028
2016-09-29 00:00,0.0,289.647,287.869,260.228,289.835,287.188,262.373,0.0,0.0,237.721,258.457
2016-09-29 01:00,-0.00152269,290.429,288.843,260.553,290.5,287.888,262.728,0.0,0.0,238.483,258.967
2016-09-29 02:00,0.0,288.568,287.212,259.902,289.166,286.907,262.255,0.0,0.0,238.608,258.798
2016-09-29 03:00,-0.00128577,290.429,288.843,260.876,290.897,288.445,262.728,0.0,0.0,239.714,258.882
2016-09-29 04:00,0.0,290.171,289.272,260.661,291.686,289.276,262.61,0.0,0.0,239.774,259.304
2016-09-29 05:00,0.0,288.841,288.195,260.119,290.5,288.306,262.61,0.0,0.0,239.774,259.471
2016-09-29 06:00,0.00172431,289.247,287.978,259.902,289.968,287.469,262.255,0.0,0.0,240.014,259.304
2016-09-29 07:00,-0.00233935,289.779,288.52,260.553,290.5,288.027,262.255,0.0,0.0,240.665,259.471
2016-09-29 08:00,-0.00405218,288.43,285.658,258.913,287.27,284.779,260.701,0.0,0.0,240.899,259.304
2016-09-29 09:00,-0.0597545,288.012,287.102,259.793,288.628,286.202,261.898,-0.0843234,-0.100543,240.489,258.543
2016-09-29 10:00,0.376221,290.939,287.76,260.553,289.701,287.188,262.373,0.466442,0.393383,240.899,259.135
2016-09-29 11:00,0.0326601,291.315,289.593,261.625,291.292,288.722,263.083,0.155864,0.0779345,240.841,259.22
2016-09-29 12:00,0.0279532,290.813,289.379,261.731,291.555,289.276,262.728,0.0946718,0.0564409,240.782,258.543
2016-09-29 13:00,0.033346,291.686,288.52,260.445,290.632,288.027,262.136,0.0779797,0.0577111,242.655,258.713
2016-09-29 14:00,0.0167884,290.685,288.087,260.445,290.234,287.188,261.301,0.0544899,0.031073,241.476,254.536
2016-09-29 15:00,0.0173313,290.685,287.76,259.793,289.701,286.767,261.062,0.0462808,0.0269185,240.43,253.785
2016-09-29 16:00,0.0300023,291.19,287.541,259.683,289.835,286.626,261.301,0.0531152,0.0344195,240.371,253.88
2016-09-29 17:00,0.115705,290.939,286.882,258.913,289.568,287.048,261.66,0.12723,0.122879,240.134,255.73
2016-09-29 18:00,0.077993,292.414,288.736,259.793,291.555,289.551,262.728,0.10443,0.0842319,238.168,256.36
2016-09-29 19:00,0.225794,280.799,273.732,251.676,274.933,272.724,254.009,0.32713,0.314068,235.662,251.352
2016-09-29 20:00,0.0597216,291.19,288.628,260.228,290.367,287.609,261.301,0.140029,0.102033,239.166,257.855
2016-09-29 21:00,1.53018,255.521,246.313,236.943,247.229,246.246,237.07,1.05268,2.02757,231.787,237.185
2016-09-29 22:00,-0.00560881,288.705,287.432,259.024,289.3,287.469,262.136,0.0,0.0,240.43,258.713
2016-09-29 23:00,-0.0163774,279.081,279.091,254.454,281.51,280.702,259.492,-0.036978,-0.0220453,241.304,258.713
2016-09-30 00:00,0.0,289.247,288.628,259.793,290.764,288.722,263.083,0.0,0.0,240.841,259.22
2016-09-30 01:00,-0.00151552,289.647,288.628,260.119,290.764,288.445,262.492,0.0,0.0,239.714,258.543
2016-09-30 02:00,0.0,290.041,289.379,260.876,291.817,289.689,263.318,0.0,0.0,238.608,258.713
2016-09-30 03:00,-0.00128153,289.91,289.805,261.198,292.34,290.375,263.67,0.0,0.0,238.168,259.051
2016-09-30 04:00,-0.00130968,288.705,287.869,260.011,289.968,288.027,262.136,0.0,0.0,237.849,258.286
2016-09-30 05:00,-0.00143724,288.977,287.322,259.793,288.897,286.343,261.301,0.0,0.0,238.041,258.114
2016-09-30 06:00,0.0,289.779,288.628,260.445,290.632,288.167,262.373,0.0,0.0,237.785,257.595
2016-09-30 07:00,-0.00233135,290.041,288.736,260.553,291.029,288.445,262.373,0.0,0.0,236.808,256.45
2016-09-30 08:00,0.0,288.43,287.541,259.902,290.234,288.027,261.66,0.0,0.0,236.341,255.639
2016-09-30 09:00,-0.0194602,287.444,287.212,259.464,289.835,288.027,262.136,-0.0659076,-0.0589386,235.386,255.73
2016-09-30 10:00,0.22343,290.685,288.951,260.445,291.555,289.551,263.083,0.361157,0.266577,235.936,256.181
2016-09-30 11:00,0.0834318,291.563,289.058,260.661,291.686,289.413,262.136,0.171558,0.120328,235.178,254.349
2016-09-30 12:00,0.0600585,291.686,289.058,261.091,291.948,289.551,262.255,0.116958,0.0768013,234.401,253.88
2016-09-30 13:00,0.0095504,291.19,289.593,261.305,292.6,290.238,262.728,0.0592996,0.0305321,233.75,253.405
2016-09-30 14:00,0.0462821,285.202,278.721,254.808,280.054,277.091,254.9,0.0866863,0.0707947,230.996,248.775
2016-09-30 15:00,0.0374308,290.813,287.978,260.011,290.632,288.306,261.54,0.0599895,0.043187,232.097,251.652
2016-09-30 16:00,0.00957674,291.065,289.165,260.445,292.209,289.689,262.136,0.0359096,0.0193366,232.784,251.452
2016-09-30 17:00,0.125216,291.44,286.772,259.464,289.568,287.329,261.421,0.144341,0.130983,231.315,250.544
2016-09-30 18:00,0.175046,293.124,286.661,259.354,289.434,287.048,260.822,0.176001,0.160152,231.943,250.646
2016-09-30 19:00,0.154251,288.43,283.148,257.572,284.781,282.613,258.76,0.205541,0.191466,231.076,249.198
2016-09-30 20:00,0.373186,294.602,288.628,260.661,291.029,288.306,261.54,0.351523,0.32495,231.943,250.34
2016-09-30 21:00,0.285651,289.91,288.52,260.337,291.029,288.445,261.898,0.483721,0.519088,232.175,250.544
2016-09-30 22:00,-0.00550281,287.3,286.328,258.913,288.763,286.485,260.701,0.0,0.0,231.943,250.34
2016-09-30 23:00,-0.0162276,282.581,279.091,254.69,281.221,278.307,255.909,-0.0297698,-0.0191132,231.943,249.513
