# timestamp,IR_016,IR_039,IR_087,IR_097,IR_108,IR_120,IR_134,VIS006,VIS008,WV_062,WV_073
2016-02-01 00:00,-0.00376102,287.155,286.328,257.572,289.166,286.907,260.34,-0.00159222,-0.00189849,229.685,249.513
2016-02-01 01:00,0.0,286.569,286.439,257.233,289.434,287.188,260.098,0.0,0.0,229.852,250.032
2016-02-01 02:00,0.0,287.155,286.439,257.346,289.166,286.767,259.977,0.0,0.0,230.511,250.135
2016-02-01 03:00,0.0,286.864,285.433,256.778,288.087,285.635,259.492,0.0,0.0,229.263,248.669
2016-02-01 04:00,0.0,286.271,284.982,256.089,287.679,285.065,258.882,0.0,0.0,228.921,248.348
2016-02-01 05:00,0.0,286.864,286.661,257.12,289.434,287.048,260.461,0.0,0.0,230.593,249.721
2016-02-01 06:00,0.00136888,286.864,285.994,257.006,288.763,286.485,259.37,0.0,0.00138197,229.178,249.303
2016-02-01 07:00,-0.00166951,281.346,276.336,251.429,278.427,273.2,252.075,0.0,0.0,230.835,247.59
2016-02-01 08:00,-0.00230529,284.73,282.799,254.808,285.34,281.146,256.785,0.0,0.0,230.018,248.133
2016-02-01 09:00,0.0,285.97,284.982,256.32,287.543,284.492,258.515,0.0,0.0,230.018,248.455
2016-02-01 10:00,0.0,287.01,286.882,257.233,289.968,287.888,260.098,-0.086429,-0.103053,229.433,248.987
2016-02-01 11:00,0.110785,288.152,286.661,257.12,290.234,288.027,260.219,0.304855,0.209708,229.007,248.562
2016-02-01 12:00,0.0218172,287.587,286.992,257.459,290.5,288.306,260.34,0.142503,0.0786634,230.43,248.775
2016-02-01 13:00,0.0256261,287.587,285.994,257.006,289.434,286.767,259.492,0.101255,0.0603659,229.685,248.025
2016-02-01 14:00,0.20463,289.647,268.343,247.067,269.35,264.451,246.869,0.229055,0.222342,230.018,244.056
2016-02-01 15:00,0.0751642,287.01,279.702,253.14,281.51,278.004,253.497,0.110047,0.0948534,228.048,244.647
2016-02-01 16:00,0.27081,281.165,264.329,245.04,263.217,259.502,242.527,0.287921,0.293594,224.959,239.39
2016-02-01 17:00,0.170554,296.323,270.329,248.121,270.332,262.361,245.072,0.144408,0.140728,229.348,243.214
2016-02-01 18:00,0.065264,286.271,279.458,253.261,281.366,277.548,253.368,0.0975158,0.0794531,228.488,244.764
2016-02-01 20:00,0.178282,288.152,283.495,255.16,285.757,282.904,257.158,0.215106,0.188986,230.101,247.808
2016-02-01 21:00,0.108724,284.41,280.549,253.501,282.374,278.76,253.497,0.207126,0.219526,228.662,245.918
2016-02-01 22:00,0.0,286.271,284.869,255.626,287.951,285.777,259.614,0.0,0.0,230.835,249.408
2016-02-01 23:00,0.0,287.444,286.217,256.205,289.3,286.626,259.492,-0.00239275,0.0,230.101,249.093
2016-02-02 00:00,-0.00188619,287.3,286.105,256.434,289.3,286.626,259.127,0.0,-0.00190423,230.184,248.348
2016-02-02 01:00,-0.00147586,285.202,284.414,255.043,287.27,284.779,259.249,0.0,0.0,230.593,248.882
2016-02-02 02:00,-0.00127239,287.01,285.77,255.742,288.222,285.635,259.614,0.0,0.0,231.076,249.617
2016-02-02 03:00,0.0,286.864,285.208,255.277,287.543,284.636,259.127,0.0,0.00119076,231.236,250.032
2016-02-02 04:00,-0.00116406,286.864,285.658,255.393,288.222,285.35,259.127,0.0,0.00117519,230.348,249.721
2016-02-02 05:00,0.0,287.01,285.433,254.926,287.951,285.208,259.005,0.0,0.0,230.266,249.408
2016-02-02 06:00,0.0,285.357,283.264,253.86,285.618,282.613,257.406,0.0,0.0,229.685,248.241
2016-02-02 07:00,0.00167144,281.346,276.845,250.303,277.226,273.675,251.422,0.0,0.0,227.601,244.881
2016-02-02 08:00,0.0,256.589,241.218,231.098,237.702,234.461,226.918,0.0,0.00233177,220.801,226.57
2016-02-02 09:00,0.0,272.58,260.854,241.061,259.236,255.614,238.727,0.0,0.0,223.224,235.146
2016-02-02 10:00,-0.0209573,233.989,226.583,223.899,224.384,223.332,220.86,-0.0887228,-0.105788,216.963,219.134
2016-02-02 11:00,0.417912,263.636,247.973,234.515,247.229,244.328,234.604,0.556872,0.622486,224.258,232.347
2016-02-02 12:00,0.328506,256.589,234.477,227.817,233.31,231.968,227.431,0.47757,0.528757,223.849,228.96
2016-02-02 13:00,0.329525,249.89,224.616,223.694,224.072,223.619,220.86,0.525616,0.579499,219.982,222.313
2016-02-02 14:00,0.226251,255.521,236.832,229.118,235.93,234.95,228.949,0.413841,0.437647,222.692,229.137
2016-02-02 15:00,0.18872,260.827,253.779,238.04,254.854,253.896,243.383,0.41466,0.445607,229.178,242.602
2016-02-02 16:00,0.186943,284.41,271.162,247.859,272.741,269.984,251.422,0.240021,0.242874,230.184,245.46
2016-02-02 17:00,0.115907,288.841,276.08,251.056,277.226,273.359,252.335,0.140987,0.128551,230.674,246.707
2016-02-02 18:00,0.370404,287.3,253.226,238.657,253.669,250.557,239.765,0.336253,0.381655,229.263,240.576
2016-02-02 19:00,0.624637,278.075,244.38,234.017,245.693,245.399,237.07,0.621703,0.718121,228.835,238.85
2016-02-02 20:00,0.678562,262.074,237.841,230.387,237.451,236.635,230.931,0.708844,0.862983,225.931,232.988
2016-02-02 21:00,0.178652,256.062,245.248,234.515,244.575,242.364,234.604,0.25931,0.309188,226.592,234.694
2016-02-02 22:00,-0.0063179,244.063,234.208,228.934,233.041,231.714,227.26,0.0,0.0063783,223.746,228.242
2016-02-02 23:00,-0.00284108,248.394,240.277,231.625,239.426,237.815,232.066,0.0,-0.00286824,225.449,232.669
2016-02-03 00:00,-0.00189192,266.131,256.118,239.419,254.657,252.341,238.577,-0.00160189,-0.00191001,227.42,238.578
2016-02-03 01:00,0.0,265.095,255.764,239.57,256.213,253.703,241.519,0.0,0.0,229.178,240.316
2016-02-03 02:00,-0.00254833,251.944,246.942,234.845,246.794,245.612,237.525,0.0,0.0,229.093,237.327
2016-02-03 03:00,0.0,246.775,236.576,230.027,235.672,234.216,228.278,0.0,0.0,225.352,230.524
2016-02-03 04:00,0.0,237.078,230.559,226.866,230.012,228.856,226.402,0.0,0.0,224.054,226.379
2016-02-03 05:00,0.00122226,230.231,226.902,225.306,226.82,226.701,224.304,0.0,0.0,224.359,225.604
2016-02-03 06:00,0.0,225.382,223.252,223.899,223.758,223.332,222.692,0.0,0.0,222.368,222.529
2016-02-03 07:00,0.0,233.989,233.116,228.192,233.577,232.474,228.949,0.0,0.00168956,226.122,228.242
2016-02-03 08:00,0.0,265.095,254.509,237.884,254.461,250.957,239.47,0.0,0.0,229.263,237.608
2016-02-03 09:00,0.0,249.89,243.496,232.663,243.895,242.585,234.916,0.0,0.0,229.935,235.146
2016-02-03 10:00,-0.0215622,286.271,284.528,255.51,286.997,283.773,257.777,-0.0730269,-0.0870735,234.827,249.303
2016-02-03 11:00,0.609872,290.171,264.175,244.21,265.826,261.121,246.457,0.527853,0.588338,235.455,246.818
2016-02-03 12:00,0.277299,259.505,246.733,234.017,245.024,244.758,236.918,0.498273,0.550567,231.473,234.845
2016-02-03 13:00,0.287813,288.841,266.145,244.903,267.522,264.795,248.903,0.34045,0.34184,234.257,247.261
2016-02-03 14:00,0.266598,250.598,231.427,226.866,231.131,230.17,227.089,0.509709,0.571286,224.959,226.57
2016-02-03 15:00,0.231456,259.505,249.781,236.625,250.415,249.753,240.207,0.633955,0.677483,230.593,242.23
2016-02-03 16:00,0.30061,253.206,224.279,224.507,225.31,224.474,222.873,0.708022,0.793371,223.746,223.793
2016-02-03 17:00,0.303888,251.282,231.14,227.628,231.131,230.17,226.918,0.6921,0.769444,226.311,229.137
2016-02-03 18:00,0.349447,249.89,226.902,225.701,227.118,226.426,224.126,0.693058,0.782268,224.054,225.408
2016-02-03 19:00,0.501332,258.576,230.559,227.248,230.853,230.17,227.431,0.77392,0.892108,225.931,228.242
2016-02-03 20:00,0.492311,254.966,236.576,230.387,236.695,235.917,231.257,0.608658,0.716936,227.329,232.022
2016-02-03 21:00,0.288707,240.898,231.713,227.628,231.408,230.429,227.601,0.366672,0.46149,224.661,227.694
2016-02-03 22:00,0.00640459,243.066,240.039,231.274,239.426,238.978,232.707,0.0,0.00646582,226.871,233.304
2016-02-03 23:00,-0.00571261,257.605,249.583,235.662,249.157,247.085,237.373,0.0,0.0,228.224,238.441
2016-02-04 00:00,-0.00189769,245.913,244.38,234.017,245.914,244.758,237.222,0.0,0.0,228.4,238.578
2016-02-04 01:00,0.0,242.013,241.218,233.005,241.344,240.123,234.291,0.0,0.0,227.329,236.179
2016-02-04 02:00,0.0,268.686,264.635,244.903,266.338,264.795,249.171,0.0,0.0,228.575,243.577
2016-02-04 03:00,0.0,244.063,241.913,231.973,241.815,240.35,233.819,0.0,0.0,227.055,234.694
2016-02-04 04:00,0.0,254.966,252.666,238.195,253.069,252.341,241.808,0.0,0.0,229.517,241.348
2016-02-04 05:00,0.0,261.251,246.942,235.01,245.693,243.024,233.503,0.0,0.0,226.216,233.773
2016-02-04 06:00,-0.00137274,243.066,235.011,228.749,233.31,232.221,227.77,0.0,0.0,224.76,229.137
2016-02-04 07:00,0.00167588,237.078,234.477,228.749,234.895,233.969,229.283,0.0,0.0,225.835,230.524
2016-02-04 08:00,0.0,244.063,239.317,230.743,239.426,238.978,232.547,0.0,0.0,227.147,233.617
2016-02-04 09:00,-0.0041168,232.213,228.155,226.092,228.583,227.517,225.009,0.0,0.0,222.692,225.604
2016-02-04 10:00,-0.0222386,245.01,242.142,231.973,241.58,240.35,233.976,-0.0941469,-0.0898047,226.778,234.996
2016-02-04 11:00,0.428817,251.282,231.713,227.438,230.294,228.856,225.535,0.663753,0.750839,223.952,227.509
2016-02-04 12:00,0.343024,266.797,249.978,236.146,248.307,245.824,235.691,0.495301,0.525639,226.778,234.694
2016-02-04 13:00,0.271729,259.954,247.973,234.681,248.093,246.457,237.373,0.454795,0.469971,229.178,237.608
2016-02-04 14:00,0.411074,273.831,248.177,235.173,248.307,247.293,238.577,0.480027,0.517026,231.552,241.093
2016-02-04 15:00,0.375945,255.521,228.769,226.287,229.444,228.324,225.535,0.637933,0.704411,224.156,226.76
2016-02-04 16:00,0.250729,278.279,266.738,244.903,267.185,265.138,247.823,0.319081,0.325228,229.852,244.53
2016-02-04 17:00,0.310597,256.589,236.06,229.665,236.441,235.917,230.931,0.528703,0.594469,227.601,232.988
2016-02-04 18:00,0.377828,252.585,231.997,227.058,232.23,231.459,228.446,0.646211,0.732365,225.643,229.489
2016-02-04 19:00,0.475278,260.827,233.938,228.192,233.577,232.725,227.94,0.63237,0.713385,224.56,229.137
2016-02-04 20:00,0.409307,271.531,254.328,238.503,254.854,252.927,241.519,0.430464,0.495864,227.055,240.053
2016-02-04 21:00,0.227605,240.898,233.938,228.192,233.842,232.976,228.278,0.289069,0.390627,224.661,229.314
2016-02-04 22:00,-0.0064933,249.156,245.032,233.005,245.248,244.328,236.765,0.0,0.0,227.691,237.043
2016-02-04 23:00,-0.00287166,245.913,240.984,231.274,240.152,238.978,232.387,0.0,0.0,224.86,232.508
2016-02-05 00:00,-0.00190351,249.156,231.997,227.628,229.729,227.517,223.233,-0.0016117,-0.0019217,219.382,223.377
2016-02-05 01:00,-0.00148471,235.601,221.841,223.076,220.184,219.165,218.41,0.0,0.0,217.36,218.41
2016-02-05 02:00,0.00127783,230.231,225.611,224.708,224.694,223.619,221.598,0.0,0.0,219.982,222.743
2016-02-05 03:00,0.0,230.231,226.583,224.908,225.919,225.038,222.147,0.0,0.0,220.801,223.793
2016-02-05 04:00,0.00116732,227.984,224.279,223.694,224.072,223.905,222.147,0.0,0.0,221.371,223.167
2016-02-05 05:00,0.0,218.393,214.358,219.855,215.26,214.03,214.872,0.0,0.0,213.995,213.952
2016-02-05 06:00,-0.00137427,230.231,227.219,224.305,227.414,226.701,224.304,0.0,0.0,222.585,225.799
2016-02-05 07:00,0.0,227.984,224.616,223.283,224.384,223.905,221.782,0.0,0.0,221.484,223.377
2016-02-05 08:00,-0.00232532,264.377,258.195,238.963,258.491,255.803,243.241,0.0,0.0,228.224,240.835
2016-02-05 09:00,0.0,270.989,266.145,242.942,266.508,263.759,247.823,0.0,0.0,230.593,244.294
2016-02-05 10:00,-0.0689894,266.466,255.764,238.503,253.469,250.156,236.613,-0.136298,-0.162514,224.661,233.773
2016-02-05 11:00,0.251672,281.346,273.732,247.728,275.242,272.724,250.501,0.414965,0.401175,228.921,244.647
2016-02-05 12:00,0.277004,272.836,257.854,239.267,255.633,253.316,238.876,0.355674,0.371845,225.058,235.592
2016-02-05 13:00,0.222225,270.434,251.721,236.306,250.83,247.501,235.537,0.323063,0.328058,224.959,232.829
2016-02-05 14:00,0.19273,287.444,277.852,250.177,279.318,276.323,253.111,0.226725,0.198016,229.852,245.804
2016-02-05 15:00,0.209546,273.586,256.118,238.657,255.633,253.51,238.128,0.279179,0.292436,226.216,238.578
2016-02-05 16:00,0.343499,258.096,221.117,223.283,220.852,220.081,218.982,0.513775,0.568296,218.517,219.608
2016-02-05 17:00,0.371993,256.589,220.379,222.449,219.847,219.472,218.792,0.580847,0.653554,217.752,219.372
2016-02-05 18:00,0.428462,260.827,222.198,223.489,222.162,221.283,219.362,0.569626,0.639351,219.26,220.763
2016-02-05 19:00,0.452083,266.797,235.8,229.484,233.842,231.459,226.056,0.486403,0.534573,221.031,225.011
2016-02-05 20:00,0.417629,287.01,273.997,249.158,274.312,270.635,249.171,0.407729,0.413017,225.546,241.221
2016-02-05 21:00,0.820825,251.282,235.011,228.564,233.041,231.459,227.431,0.603545,0.9159,221.708,225.994
2016-02-05 22:00,0.0,285.97,284.071,255.16,286.86,283.917,258.023,0.0,0.0,228.748,248.775
2016-02-05 23:00,0.0,265.791,250.76,236.784,246.355,242.143,231.905,0.0,0.0,222.04,229.838
2016-02-06 00:00,-0.00190936,267.444,253.226,238.503,251.447,247.293,234.447,-0.00161665,-0.00192761,223.329,233.304
2016-02-06 01:00,-0.00148773,262.475,247.357,235.173,246.575,243.243,231.581,0.0,0.0,223.329,231.695
2016-02-06 02:00,0.0,281.165,276.336,250.681,277.528,274.617,251.683,0.0,0.0,227.959,245.575
2016-02-06 03:00,-0.00118476,285.665,284.3,255.16,286.86,284.349,258.882,0.0,0.0,229.178,248.669
2016-02-06 04:00,0.0,285.512,284.414,254.808,287.134,284.636,258.882,0.0,0.0,229.178,249.198
2016-02-06 05:00,-0.00122582,245.913,233.116,227.817,230.012,228.856,224.657,0.0,0.0,219.744,224.204
2016-02-06 06:00,0.00137592,280.427,274.785,248.771,274.778,271.444,249.971,0.0,0.0,227.238,243.577
2016-02-06 07:00,0.00168111,256.062,244.815,232.834,242.283,240.123,230.931,0.0,0.0,222.585,230.011
2016-02-06 08:00,0.0,277.026,269.908,246.667,269.186,266.498,246.594,0.0,0.0,227.147,242.602
2016-02-06 09:00,0.0,276.594,269.485,245.859,269.021,262.008,244.372,0.0,0.0,227.78,241.728
2016-02-06 10:00,-0.0238481,250.598,236.318,228.749,234.633,232.474,226.574,-0.121153,-0.120381,221.484,227.136
2016-02-06 11:00,0.346861,249.156,236.06,228.934,235.414,234.461,229.283,0.543043,0.59464,224.46,231.031
2016-02-06 12:00,0.305523,254.396,234.208,227.817,233.041,231.459,226.746,0.486637,0.531378,222.259,228.242
2016-02-06 13:00,0.204464,271.261,251.147,236.784,248.093,244.328,233.026,0.287944,0.292778,223.434,233.773
2016-02-06 14:00,0.266631,254.966,235.8,229.118,234.895,233.969,228.782,0.429943,0.464635,224.86,230.354
2016-02-06 15:00,0.334511,260.395,239.559,231.098,239.183,237.581,230.768,0.544372,0.585568,224.959,231.364
2016-02-06 16:00,0.336032,256.589,227.845,225.504,227.708,226.974,223.949,0.455484,0.5005,221.93,224.811
2016-02-06 17:00,0.161911,273.088,259.373,241.207,258.304,256.18,242.241,0.232103,0.241143,227.055,237.468
2016-02-06 18:00,0.390708,284.249,254.145,238.963,254.461,252.341,240.06,0.394125,0.43785,229.093,241.348
2016-02-06 19:00,0.136454,288.568,282.682,255.043,284.361,281.441,256.909,0.168051,0.160301,229.433,248.025
2016-02-06 20:00,0.45109,292.174,282.214,255.277,285.201,282.904,258.023,0.396215,0.425609,229.517,249.513
2016-02-06 21:00,0.041118,284.57,283.611,255.974,286.447,284.061,259.492,0.226295,0.166044,230.184,250.238
2016-02-06 22:00,0.0,286.121,285.882,257.346,288.358,286.06,260.098,0.0,0.0,231.473,250.95
2016-02-06 23:00,-0.00290272,287.155,286.439,257.572,289.032,286.767,260.461,0.0,-0.00293047,230.266,251.552
2016-02-07 00:00,-0.00191526,274.314,275.951,251.429,278.873,278.76,257.777,0.0,-0.00193357,230.835,251.252
2016-02-07 01:00,-0.00149079,283.261,282.566,255.742,285.479,284.205,259.977,0.0,0.0,231.552,252.146
2016-02-07 02:00,-0.00128166,277.869,278.598,253.86,281.51,280.702,259.005,0.0,0.0,231.787,252.537
2016-02-07 03:00,0.0,286.421,285.994,257.798,288.763,287.048,260.942,0.0,0.0,231.473,252.925
2016-02-07 04:00,-0.00116981,280.982,280.789,255.51,283.797,282.321,259.492,0.0,0.0,232.709,253.213
2016-02-07 05:00,0.0,287.444,287.541,258.691,290.234,288.306,261.301,0.0,0.0,233.085,253.69
2016-02-07 06:00,0.0,286.271,286.772,258.246,289.701,288.027,261.54,0.0,0.0,233.085,253.69
2016-02-07 07:00,-0.00168403,286.864,287.322,258.802,290.367,288.584,261.66,0.0,0.0,233.823,252.731
2016-02-07 08:00,-0.00233784,286.421,286.661,258.58,289.701,287.609,261.062,0.0,0.0,233.968,252.731
2016-02-07 09:00,0.0,280.427,281.148,255.16,284.361,282.904,259.614,0.0,0.00422484,234.543,252.244
2016-02-07 10:00,-0.0496172,287.444,287.76,259.024,290.897,288.999,261.421,-0.189049,-0.17532,235.731,252.634
2016-02-07 11:00,0.0646527,288.012,287.76,259.244,291.029,289.137,261.54,0.268232,0.169704,236.004,253.309
2016-02-07 12:00,0.126238,290.558,287.102,258.802,290.367,288.167,261.182,0.203592,0.154755,236.139,253.69
2016-02-07 13:00,0.0207617,288.291,287.76,259.354,291.029,289.137,261.779,0.096684,0.0544965,237.137,254.162
2016-02-07 14:00,0.0101458,288.291,288.087,259.683,291.423,289.689,262.492,0.0629962,0.0341425,237.463,254.722
2016-02-07 15:00,0.0091687,288.012,288.087,259.574,291.16,289.413,261.898,0.0491665,0.0246836,238.104,255.183
2016-02-07 16:00,0.00900332,288.291,288.087,260.011,291.16,289.551,262.492,0.0444681,0.0242384,238.104,255.457
2016-02-07 17:00,0.0175545,288.841,288.195,260.119,291.292,289.413,262.255,0.0486437,0.0290001,238.041,255.639
2016-02-07 18:00,0.0334751,289.381,287.978,259.793,291.029,289.413,262.255,0.0692837,0.0469377,239.043,256.271
2016-02-07 19:00,0.101047,291.065,287.322,259.464,290.234,288.445,261.898,0.135638,0.109477,239.166,256.271
2016-02-07 20:00,0.175194,290.813,287.978,259.902,290.897,288.999,262.255,0.222504,0.185291,239.593,257.07
2016-02-07 21:00,0.451233,288.43,288.303,260.228,291.292,289.551,262.61,0.39867,0.435741,239.894,257.333
2016-02-07 22:00,0.0,287.444,288.195,260.228,290.897,289.137,262.61,0.0,0.0,239.774,257.246
2016-02-07 23:00,-0.00291842,287.587,287.869,260.228,290.632,289.137,262.728,0.0,0.0,239.954,257.07
2016-02-08 00:00,-0.0019212,287.587,287.869,260.011,290.764,289.276,262.373,-0.00162668,-0.00193956,239.834,257.158
2016-02-08 01:00,0.0,287.3,287.869,260.228,291.029,288.999,262.61,0.0,0.00150817,240.43,257.333
2016-02-08 02:00,0.0,286.717,287.541,259.574,290.5,288.999,262.847,0.0,0.0,240.782,257.595
2016-02-08 03:00,0.0,287.444,288.195,259.902,291.16,289.413,262.492,0.0,0.0,240.899,258.372
2016-02-08 04:00,0.0,287.444,288.087,259.464,290.897,289.276,262.61,0.0,0.0,241.59,258.967
2016-02-08 05:00,0.00122861,287.444,288.303,259.574,291.029,289.413,262.492,0.0,0.0,242.099,260.052
2016-02-08 06:00,0.0,287.871,288.52,259.793,291.292,289.689,263.318,0.0,0.0,242.929,261.595
2016-02-08 07:00,0.0,287.587,288.52,259.683,291.029,289.689,262.728,0.0,0.0,243.953,262.466
2016-02-08 08:00,-0.00234475,286.569,287.869,259.244,289.968,288.445,262.492,0.0,0.0,244.058,262.779
2016-02-08 09:00,0.0,284.73,285.095,258.134,287.543,286.202,261.898,0.0,0.0,244.894,263.09
2016-02-08 10:00,-0.0258965,286.864,287.432,259.244,290.234,288.584,262.373,-0.219265,-0.183008,244.894,263.167
2016-02-08 11:00,0.102164,288.291,287.651,259.464,289.968,288.445,262.728,0.281133,0.199836,244.894,263.322
2016-02-08 12:00,0.456876,294.602,278.598,254.572,281.51,281.293,259.614,0.422233,0.446171,245.048,263.012
2016-02-08 13:00,0.208654,291.809,284.3,257.685,286.86,285.635,261.779,0.246634,0.237761,245.658,263.858
2016-02-08 14:00,0.16836,293.24,283.956,257.572,286.86,285.208,261.301,0.191017,0.178468,245.91,264.389
2016-02-08 15:00,0.0410881,289.514,286.328,258.913,288.897,287.329,262.61,0.0721554,0.0522352,245.608,264.314
2016-02-08 16:00,0.0134484,288.705,288.195,260.228,290.632,288.999,262.847,0.0506076,0.0316795,245.405,264.615
2016-02-08 17:00,0.0190644,288.841,288.736,260.769,291.292,289.964,263.787,0.0524608,0.0320777,244.894,264.914
2016-02-08 18:00,0.0277525,288.977,289.379,261.091,292.079,290.921,264.138,0.0642278,0.0429606,244.058,264.914
2016-02-08 19:00,0.0710041,290.429,289.165,261.412,291.817,290.648,264.488,0.114019,0.0889857,243.686,264.914
2016-02-08 20:00,0.169247,291.065,289.272,261.198,291.817,290.511,264.488,0.220194,0.183367,241.93,264.086
2016-02-08 21:00,0.262731,288.568,288.843,261.091,291.292,290.101,263.67,0.34957,0.378917,240.724,263.012
2016-02-08 23:00,-0.00293424,284.888,284.982,258.913,287.134,285.777,261.898,0.0,0.0,239.894,261.993
2016-02-09 00:00,-0.00192718,288.012,288.628,261.305,291.029,289.551,263.787,-0.00163174,-0.0019456,238.041,262.151
2016-02-09 01:00,0.0,287.871,288.843,261.625,291.423,290.101,263.2,0.0,0.0,237.072,262.151
2016-02-09 02:00,0.0,287.587,288.628,261.625,291.292,289.826,263.905,0.0,0.0,236.408,261.755
2016-02-09 03:00,-0.00118925,284.41,283.611,258.022,284.921,283.049,259.735,0.0,0.0,233.823,257.07
2016-02-09 04:00,0.0,287.3,287.432,260.553,289.701,288.306,262.373,0.0,0.0,234.827,260.381
2016-02-09 05:00,0.0,280.427,274.655,253.14,275.703,273.675,251.814,0.0,0.0,233.159,254.907
2016-02-09 06:00,0.0,288.152,289.486,261.519,292.209,291.193,264.255,0.0,0.0,238.104,262.857
2016-02-09 07:00,0.0016905,287.3,288.628,261.091,291.292,290.238,263.905,0.0,0.0,238.168,262.623
2016-02-09 08:00,0.0,287.3,288.628,260.769,291.16,290.101,263.2,0.0,0.0,238.546,263.012
2016-02-09 09:00,0.0,286.717,287.978,260.553,290.367,289.413,262.965,0.0,0.0,237.913,262.623
2016-02-09 10:00,-0.10854,287.587,288.087,260.553,290.632,288.861,263.318,-0.252726,-0.219155,238.168,262.151
2016-02-09 11:00,0.296322,288.841,285.994,259.464,288.628,287.329,262.61,0.400364,0.362804,237.977,261.914
2016-02-09 12:00,0.35596,290.939,281.624,257.006,284.501,283.484,261.66,0.364181,0.356368,239.166,261.914
2016-02-09 13:00,0.0513874,289.779,287.978,260.661,290.5,288.999,263.2,0.121827,0.0809307,238.919,262.388
2016-02-09 14:00,0.0134096,288.705,288.843,261.519,291.423,289.964,263.553,0.0638658,0.0355368,238.041,262.701
2016-02-09 15:00,0.00909269,288.43,289.058,261.625,291.817,290.648,263.67,0.0474757,0.0260089,237.203,262.388
2016-02-09 16:00,0.00595201,288.705,289.379,261.944,292.209,291.057,264.255,0.0415764,0.0210312,235.247,261.834
2016-02-09 17:00,0.0221425,289.514,288.951,261.412,291.555,290.375,263.787,0.0495482,0.0271443,234.401,261.595
2016-02-09 18:00,0.0147258,288.841,288.951,261.519,291.686,290.375,264.138,0.0514319,0.0315916,234.329,261.113
2016-02-09 19:00,0.0389213,289.514,288.951,261.625,291.555,289.964,264.022,0.0906251,0.0564842,233.677,260.381
2016-02-09 20:00,0.220635,291.931,288.195,261.198,290.5,289.137,263.318,0.252541,0.226869,234.257,260.545
2016-02-09 21:00,0.32383,288.977,288.628,261.519,291.16,289.689,263.67,0.350349,0.381414,233.968,260.381
2016-02-09 22:00,0.0,288.291,288.52,261.731,291.16,289.689,263.905,0.0,0.0,234.041,260.463
2016-02-09 23:00,-0.00295016,284.57,283.726,259.024,286.722,285.493,262.136,-0.0024979,-0.00297836,233.603,260.052
2016-02-10 00:00,-0.0019332,281.165,280.187,256.778,283.23,282.467,261.301,-0.00163684,-0.00195168,233.53,259.721
2016-02-10 01:00,-0.0015002,284.888,284.185,259.354,286.86,285.493,261.779,0.0,0.0,233.159,259.721
2016-02-10 02:00,0.0,286.421,286.217,260.553,288.897,287.329,262.728,0.0,0.0,232.557,259.638
2016-02-10 03:00,-0.00119085,287.871,288.412,261.625,290.897,289.413,263.083,0.0,0.0,233.01,259.721
2016-02-10 04:00,0.0,287.871,288.195,261.838,290.897,289.413,263.553,0.0,0.0,233.308,259.887
2016-02-10 05:00,0.00123175,288.152,288.736,261.838,291.686,290.238,264.022,0.0,0.0,233.01,259.887
2016-02-10 06:00,0.0,287.3,287.651,261.305,290.234,289.137,263.083,0.0,0.0,233.234,258.713
2016-02-10 07:00,0.00169406,285.818,286.328,260.553,289.166,288.027,262.965,0.0,0.0,233.677,259.638
2016-02-10 08:00,0.0,284.087,284.185,259.354,287.134,285.919,262.017,0.0,0.0,234.041,259.471
2016-02-10 09:00,0.0,284.249,284.642,259.024,287.134,285.919,262.017,0.0,0.0,234.185,259.721
2016-02-10 10:00,-0.0285536,282.581,283.148,258.58,286.033,285.35,262.492,-0.290115,-0.259439,234.185,259.804
2016-02-10 11:00,0.205384,290.558,286.882,260.445,289.701,288.445,263.2,0.353067,0.282747,234.543,259.97
2016-02-10 12:00,0.0265171,288.841,288.843,262.049,291.686,290.238,263.67,0.137207,0.0773374,235.038,260.217
2016-02-10 13:00,0.0143153,288.568,289.058,262.155,292.079,290.648,264.022,0.0883082,0.045421,234.897,260.217
2016-02-10 14:00,0.0116815,288.568,288.951,262.155,291.555,290.238,263.787,0.0635834,0.0336949,235.247,260.299
2016-02-10 15:00,0.00754563,288.705,289.058,262.366,291.948,290.784,264.255,0.0485554,0.0243768,235.731,260.545
2016-02-10 16:00,0.00740889,288.841,289.058,262.261,291.817,290.511,263.787,0.0426571,0.0224392,235.525,260.299
2016-02-10 17:00,0.0157458,288.841,288.52,262.155,291.292,289.964,263.905,0.0493281,0.030203,236.004,260.217
2016-02-10 18:00,0.0274714,289.647,288.736,262.366,291.423,289.964,264.022,0.065128,0.0425255,235.867,260.052
2016-02-10 19:00,0.062843,290.558,288.628,262.049,291.16,289.826,263.787,0.114604,0.0829649,235.525,259.97
2016-02-10 20:00,0.400441,291.931,287.102,261.305,289.701,288.584,263.318,0.404123,0.404269,235.525,259.97
2016-02-10 21:00,0.31107,288.291,288.52,261.944,291.16,289.826,263.67,0.365809,0.383831,235.936,260.299
2016-02-10 22:00,-0.00706958,288.012,288.736,262.049,291.555,290.238,264.605,0.0,0.0,236.004,260.299
2016-02-10 23:00,0.0,287.871,287.869,261.838,290.632,289.137,263.436,-0.00251147,-0.00299455,235.662,260.135
2016-02-11 00:00,-0.00193927,286.271,286.992,260.876,289.568,288.167,263.083,-0.00164198,-0.00195781,235.455,260.052
2016-02-11 01:00,0.0,287.729,288.736,262.576,291.423,290.375,264.605,0.0,0.0,235.386,260.052
2016-02-11 02:00,0.0,288.43,289.379,262.366,292.209,291.057,264.837,0.0,0.0,235.178,260.135
2016-02-11 03:00,0.0,286.717,288.087,262.049,290.897,289.826,263.905,0.0,0.0,235.731,259.638
2016-02-11 04:00,0.0,287.587,288.628,262.261,291.555,290.648,264.721,0.0,0.0,235.525,259.97
2016-02-11 05:00,0.0,287.3,288.303,261.944,291.292,289.964,264.255,0.0,0.0,235.108,259.304
2016-02-11 06:00,0.0,287.01,287.978,261.625,290.764,289.689,264.022,0.0,0.0,235.386,259.554
2016-02-11 07:00,0.0,287.01,287.651,261.305,290.367,288.999,263.67,0.0,0.0,235.799,259.887
2016-02-11 08:00,0.00236817,283.261,283.611,258.913,286.722,285.35,262.136,0.0,0.0,236.408,260.463
2016-02-11 09:00,0.0,286.569,287.432,260.984,290.101,288.722,262.847,0.0,0.0,237.268,260.952
2016-02-11 10:00,-0.0603808,287.587,288.087,261.091,290.632,289.276,263.787,-0.306746,-0.274311,237.006,261.194
2016-02-11 11:00,0.116709,288.705,288.628,261.625,291.16,290.101,264.372,0.317255,0.229448,236.742,260.952
2016-02-11 12:00,0.0555975,288.841,288.843,261.519,291.423,290.648,263.905,0.178387,0.121121,236.609,260.952
2016-02-11 13:00,0.0834155,290.429,286.772,260.661,289.434,288.306,262.965,0.156759,0.127346,236.675,260.789
2016-02-11 14:00,0.0348887,288.977,288.412,261.625,290.897,289.551,263.67,0.0942472,0.0637354,237.006,260.789
2016-02-11 15:00,0.196869,294.268,281.148,258.022,284.781,284.205,262.017,0.190865,0.195717,237.006,260.627
2016-02-11 16:00,0.0280363,289.381,288.736,261.625,291.16,289.689,264.138,0.0649679,0.044691,236.808,261.113
2016-02-11 17:00,0.0438935,290.041,288.628,261.625,291.423,290.238,264.255,0.0756564,0.0585566,236.94,260.952
2016-02-11 18:00,0.0601345,290.558,288.951,262.049,291.686,290.375,264.022,0.0956599,0.0772664,236.94,260.545
2016-02-11 19:00,0.148911,292.294,288.736,261.838,291.292,290.238,263.787,0.174889,0.155184,237.072,260.545
2016-02-11 20:00,0.444556,295.26,288.412,261.519,291.029,289.826,264.255,0.383187,0.388157,237.592,260.789
2016-02-11 21:00,0.681902,289.647,287.869,261.838,290.5,289.413,263.905,0.464709,0.570886,237.398,260.708
2016-02-11 22:00,0.0,287.587,288.412,261.731,290.897,289.413,263.787,0.0,0.0,237.203,260.463
2016-02-11 23:00,-0.00298232,287.587,288.195,261.625,290.632,289.413,264.138,-0.00252513,-0.00301083,237.528,260.299
2016-02-12 00:00,-0.00194537,287.155,288.087,261.625,290.5,289.413,263.905,-0.00164715,-0.00196397,237.268,260.299
2016-02-12 01:00,0.0,286.421,287.322,261.625,290.234,288.999,263.553,0.0,0.0,237.203,260.217
2016-02-12 02:00,-0.00129199,286.271,287.102,261.305,289.701,288.445,263.67,0.0,0.0,237.333,260.052
2016-02-12 03:00,0.0,283.261,283.38,259.464,286.172,285.065,262.136,0.0,0.0,237.528,259.721
2016-02-12 04:00,0.0,285.665,286.439,260.876,289.032,287.329,263.318,0.0,0.0,237.333,259.721
2016-02-12 05:00,0.00123526,286.121,286.328,260.445,289.166,287.748,262.847,0.0,0.0,237.268,259.721
2016-02-12 06:00,0.0,280.799,280.789,257.572,283.656,282.904,261.54,0.0,0.0,237.006,259.304
2016-02-12 07:00,0.00170183,287.3,287.869,261.198,290.5,289.137,263.2,0.0,0.0,237.268,260.381
2016-02-12 08:00,0.00237689,287.729,288.736,261.731,291.686,290.648,264.138,0.0,0.0,237.463,260.217
2016-02-12 09:00,0.0,287.587,288.52,261.731,291.292,289.964,264.022,0.0,0.0,237.333,260.381
2016-02-12 10:00,-0.06419,287.444,288.303,261.198,291.029,289.689,264.022,-0.326097,-0.291616,237.721,260.545
2016-02-12 11:00,0.594003,285.97,278.226,255.974,281.076,280.702,260.461,0.600451,0.648635,237.528,259.721
2016-02-12 12:00,0.0813644,288.841,287.541,260.984,290.101,288.445,262.847,0.196832,0.140815,237.592,259.721
2016-02-12 13:00,0.224659,291.931,285.77,260.011,288.087,286.767,262.255,0.262193,0.237023,237.785,259.97
2016-02-12 14:00,0.292745,293.007,279.213,256.664,282.231,281.293,260.581,0.287078,0.287195,237.721,259.638
2016-02-12 15:00,0.053875,289.779,288.195,261.838,290.632,289.137,263.67,0.0899647,0.0634551,237.785,260.463
2016-02-12 16:00,0.0852283,290.939,287.76,261.412,290.764,289.551,263.787,0.104511,0.08901,237.721,261.113
2016-02-12 17:00,0.0655515,291.065,288.412,261.519,291.16,289.826,263.787,0.0885394,0.0709051,237.977,261.113
2016-02-12 18:00,0.0743423,290.685,288.628,261.731,291.423,290.101,263.787,0.102862,0.0842058,238.546,261.275
2016-02-12 19:00,0.12173,291.563,288.951,261.731,291.555,290.511,263.905,0.157634,0.137351,238.671,261.675
2016-02-12 20:00,0.352999,293.816,288.736,261.838,291.423,290.375,264.022,0.342541,0.336353,238.483,261.755
2016-02-12 21:00,0.577228,289.647,288.951,262.261,291.948,290.784,263.905,0.434434,0.534184,238.981,261.914
2016-02-12 22:00,-0.00727915,288.012,289.165,262.261,291.948,290.784,264.372,0.0,0.0,238.857,262.151
2016-02-12 23:00,-0.00299855,288.012,289.165,262.261,292.209,291.057,264.488,0.0,-0.00302722,238.919,262.23
2016-02-13 00:00,-0.00195152,287.587,288.951,262.049,291.948,290.921,264.605,-0.00165235,-0.00197018,238.857,261.993
2016-02-13 01:00,0.0,287.729,288.843,262.366,291.555,290.648,264.605,0.0,0.0,238.795,262.23
2016-02-13 02:00,0.0,287.3,288.412,262.576,291.292,290.511,264.138,0.0,0.0,238.483,261.993
2016-02-13 03:00,0.00119598,286.569,288.087,261.625,291.029,289.826,264.022,0.0,0.0,239.043,261.914
2016-02-13 04:00,-0.00117884,286.421,287.978,261.731,290.897,289.826,263.787,0.0,0.0,238.919,261.993
2016-02-13 05:00,0.0,287.587,288.412,261.519,291.029,289.551,264.138,0.0,0.0,238.919,262.23
2016-02-13 06:00,-0.00139101,284.249,285.546,260.011,287.951,286.767,262.492,0.0,0.0,239.714,262.466
2016-02-13 07:00,0.00170604,281.526,281.978,257.91,284.501,283.773,261.54,0.0,0.0,239.894,262.623
2016-02-13 08:00,0.0,287.3,288.303,261.305,290.367,288.999,263.787,0.0,0.0,240.548,262.935
2016-02-13 09:00,0.0,287.155,287.651,261.198,289.968,288.584,262.847,0.0,0.0,240.607,263.012
2016-02-13 10:00,-0.137335,286.271,286.661,260.445,288.897,287.609,262.61,-0.377914,-0.311958,240.782,263.476
2016-02-13 11:00,0.215279,289.514,287.978,260.769,290.234,288.722,263.2,0.35949,0.283746,240.607,263.858
2016-02-13 12:00,0.0865629,289.381,288.303,261.305,290.764,289.413,263.553,0.188118,0.133999,240.489,263.782
2016-02-13 13:00,0.0724801,290.429,288.412,261.519,291.029,289.826,263.905,0.131261,0.0995966,240.782,263.858
2016-02-13 14:00,0.083971,289.91,287.978,261.412,290.632,289.689,263.2,0.121285,0.0980716,240.665,263.629
2016-02-13 15:00,0.0208637,288.841,288.951,261.944,291.555,290.238,263.67,0.0593047,0.0346037,240.957,263.629
2016-02-13 16:00,0.0234138,289.113,288.736,261.731,291.423,289.964,263.2,0.0557561,0.0369337,240.957,263.322
2016-02-13 17:00,0.113439,290.429,286.661,260.553,289.434,288.445,263.2,0.128942,0.123936,240.899,263.244
2016-02-13 18:00,0.0342824,289.514,289.165,261.944,291.817,290.784,264.138,0.0687478,0.0473612,240.841,263.012
2016-02-13 19:00,0.087772,291.19,288.736,262.155,291.292,289.964,263.787,0.128547,0.105375,240.014,262.701
2016-02-13 20:00,0.239647,292.294,288.52,261.838,291.029,289.689,263.67,0.262783,0.237972,239.954,262.701
2016-02-13 21:00,0.696734,289.647,287.978,261.838,290.632,289.276,263.67,0.498157,0.609608,239.593,262.388
2016-02-13 22:00,-0.00738735,286.271,287.322,261.091,289.701,288.722,263.083,0.0,0.0,239.166,262.151
2016-02-13 23:00,-0.00301488,279.278,280.909,257.798,283.938,283.629,261.182,-0.0025527,-0.0030437,239.834,262.23
2016-02-14 00:00,-0.00391543,280.982,281.978,258.469,284.781,283.917,261.182,-0.00165759,-0.00197643,239.894,262.151
2016-02-14 01:00,0.0,280.982,281.386,258.134,283.938,283.629,260.942,0.0,0.0,239.774,261.595
2016-02-14 02:00,-0.00129645,280.239,281.386,258.134,283.938,283.339,260.942,0.0,0.0,239.471,260.871
2016-02-14 03:00,0.0,275.48,277.977,256.32,281.221,281.441,260.461,0.0,0.0,239.288,260.463
2016-02-14 04:00,0.0,282.234,283.032,258.802,285.618,284.636,261.54,0.0,0.0,239.043,260.871
2016-02-14 05:00,-0.00123914,276.811,278.226,255.974,281.51,281.293,259.735,0.0,0.0,239.653,260.708
2016-02-14 06:00,0.0,286.717,286.992,261.198,289.835,288.306,262.373,0.0,0.0,239.774,260.952
2016-02-14 07:00,-0.00171048,286.421,286.439,260.876,289.3,287.609,262.492,0.0,0.0,240.074,261.595
2016-02-14 08:00,0.0,275.707,277.977,256.089,280.931,280.85,259.856,0.0,0.0,240.43,260.708
2016-02-14 09:00,-0.00440109,280.239,281.742,258.358,284.501,283.484,261.062,0.0,0.0,239.834,260.381
2016-02-14 10:00,-0.25898,279.859,280.429,257.346,283.656,282.758,260.461,-0.46988,-0.48556,239.593,260.381
2016-02-14 11:00,0.106179,288.568,288.303,261.731,291.029,289.413,262.965,0.299673,0.202478,239.532,260.708
2016-02-14 12:00,0.0601626,288.841,288.303,261.731,290.764,289.137,263.083,0.169798,0.112799,239.774,260.789
2016-02-14 13:00,0.0640861,290.041,287.541,261.198,289.968,288.584,262.255,0.130567,0.0909826,239.41,260.871
2016-02-14 14:00,0.252414,293.356,283.264,258.58,286.31,285.493,261.66,0.263679,0.251518,239.41,260.708
2016-02-14 15:00,0.0474888,288.841,287.651,261.091,290.234,288.861,262.728,0.0942391,0.0734124,239.043,260.545
2016-02-14 16:00,0.0553781,289.514,287.651,260.876,290.367,288.861,262.847,0.0863736,0.0691487,238.671,259.804
2016-02-14 17:00,0.0402283,289.247,287.869,261.091,290.5,288.999,262.61,0.0733626,0.0531091,238.168,258.882
2016-02-14 18:00,0.0664368,290.171,287.651,261.305,290.234,288.584,262.136,0.106423,0.0851995,237.268,257.942
2016-02-14 19:00,0.146189,291.44,287.432,260.984,290.5,288.999,262.373,0.189659,0.164249,237.072,256.982
2016-02-14 20:00,0.4904,295.042,286.661,260.337,289.568,287.888,261.779,0.428402,0.42829,236.341,256.539
2016-02-14 21:00,0.583961,286.569,284.755,259.574,287.543,286.202,261.421,0.481761,0.574427,236.071,256.271
2016-02-14 22:00,0.0,285.357,285.321,259.354,288.087,286.485,261.54,0.0,0.0,235.867,256.45
2016-02-14 23:00,-0.00303131,286.271,286.105,260.011,288.897,287.329,260.701,-0.0025666,-0.00306029,236.341,256.091
2016-02-15 00:00,-0.00196395,286.421,286.439,259.902,289.166,287.888,261.898,-0.00166287,-0.00198272,235.867,256.45
2016-02-15 01:00,-0.0015167,286.121,286.105,260.011,289.166,287.609,261.66,0.0,0.0,235.867,256.091
2016-02-15 02:00,0.0,286.569,286.661,260.228,289.3,287.748,261.66,0.0,0.0,235.867,256.001
2016-02-15 03:00,0.0,286.271,286.328,260.337,289.434,287.748,261.66,0.0,0.0,236.475,255.457
2016-02-15 04:00,0.0,286.421,286.772,260.119,289.568,287.888,261.898,0.0,0.0,236.609,255.821
2016-02-15 05:00,0.00124122,286.717,286.882,260.876,289.701,287.888,261.779,0.0,0.00125309,236.004,255.457
2016-02-15 06:00,-0.00139653,285.97,286.328,260.876,289.032,287.048,260.701,0.0,0.0,235.247,255.091
2016-02-15 08:00,0.00240595,287.01,286.992,261.305,290.101,288.167,261.421,0.0,0.0,234.686,253.974
2016-02-15 09:00,0.0,285.045,285.77,260.661,288.897,287.329,260.942,0.0,0.0,234.472,254.162
2016-02-15 10:00,-0.160847,287.155,287.102,261.519,290.234,288.306,261.779,-0.47666,-0.405961,234.113,253.5
2016-02-15 11:00,0.11636,288.152,287.432,261.838,290.764,288.722,261.301,0.295565,0.199703,234.185,253.5
2016-02-15 12:00,0.0455081,287.871,287.212,261.412,290.367,288.722,261.421,0.158943,0.100501,233.896,252.439
2016-02-15 13:00,0.0418324,287.444,285.433,260.445,288.087,286.06,259.492,0.113005,0.0784314,233.677,251.652
2016-02-15 14:00,0.274114,285.97,266.145,248.642,268.024,265.99,250.633,0.28597,0.299795,233.823,248.775
2016-02-15 15:00,0.25714,280.799,262.616,246.399,264.095,262.888,249.305,0.251505,0.26855,233.823,248.348
2016-02-15 16:00,0.181416,284.888,267.909,249.669,269.679,267.506,251.683,0.194157,0.191942,233.085,248.669
2016-02-15 17:00,0.24958,287.01,265.092,247.859,267.016,265.309,250.501,0.238712,0.255076,232.328,248.133
2016-02-15 18:00,0.0553967,289.381,285.882,259.793,289.166,287.048,260.098,0.0877564,0.0649466,232.251,250.646
2016-02-15 19:00,0.126568,291.19,285.321,259.134,288.222,285.635,259.735,0.156778,0.137243,231.787,250.135
2016-02-15 20:00,0.119552,288.568,287.212,259.793,290.367,288.027,260.942,0.169797,0.132376,231.709,250.34
2016-02-15 21:00,0.391526,287.155,284.982,258.802,287.815,285.919,259.614,0.368339,0.409909,231.236,249.198
2016-02-15 22:00,0.00761073,275.932,271.984,250.806,272.741,270.473,251.553,0.0,0.0,230.835,244.412
2016-02-15 23:00,-0.00609565,282.234,281.386,256.089,284.361,282.321,258.023,-0.00258059,-0.00307696,231.156,248.775
2016-02-16 00:00,0.0,282.234,280.789,255.742,283.514,281.588,257.53,-0.00333637,-0.00397812,231.076,248.241
2016-02-16 01:00,0.0,284.73,283.841,257.459,286.722,284.636,259.37,0.0,0.0,232.02,249.928
2016-02-16 02:00,0.0,286.121,285.546,258.58,288.763,286.485,259.977,0.0,0.0,233.085,249.928
2016-02-16 03:00,0.0,285.665,284.869,257.685,287.815,285.635,259.492,0.0,0.0,233.456,250.238
2016-02-16 04:00,-0.00118432,281.526,281.386,255.51,284.22,282.758,258.76,0.0,0.0,233.159,250.135
2016-02-16 05:00,0.0,283.76,283.148,256.664,286.172,284.205,259.37,0.0,0.0,233.677,250.544
2016-02-16 06:00,0.00139949,285.202,284.642,257.685,287.679,285.777,259.977,0.0,0.00141287,233.896,250.95
2016-02-16 07:00,0.0,278.279,279.213,254.572,282.231,281.293,258.76,0.0,0.0,234.756,250.748
2016-02-16 08:00,-0.00483326,282.923,282.096,257.12,284.781,283.049,258.882,0.0,0.0,235.317,250.544
2016-02-16 09:00,0.0,285.665,284.755,258.802,287.27,285.065,259.977,0.0,0.0,236.071,251.452
2016-02-16 10:00,-0.264963,285.97,285.321,259.244,287.815,285.208,259.37,-0.56086,-0.445827,236.808,251.751
2016-02-16 11:00,0.166388,288.152,285.433,259.244,288.222,286.06,259.614,0.296335,0.208526,237.721,252.146
2016-02-16 12:00,0.129884,289.514,285.658,259.354,288.493,286.343,260.219,0.212774,0.171034,238.857,252.925
2016-02-16 13:00,0.172376,290.813,284.982,259.354,287.815,285.777,260.098,0.208022,0.168023,239.593,253.405
2016-02-16 14:00,0.0438539,288.291,285.433,259.464,287.951,285.493,260.461,0.0948905,0.0672296,240.193,253.88
2016-02-16 15:00,0.0235464,288.012,285.77,260.119,288.358,285.493,259.977,0.0635482,0.0386286,239.41,253.69
2016-02-16 16:00,0.0245718,288.012,286.105,260.553,288.628,286.202,260.219,0.0575195,0.0379397,239.043,254.068
2016-02-16 17:00,0.0168749,288.568,286.661,260.769,289.166,286.626,260.701,0.0506572,0.0278774,239.288,255.091
2016-02-16 18:00,0.426849,288.841,281.86,257.572,285.061,284.349,259.977,0.429177,0.443498,239.41,255.548
2016-02-16 19:00,0.442721,291.563,282.214,258.802,285.201,284.205,259.977,0.41431,0.406963,239.166,255.275
2016-02-16 20:00,0.561837,290.558,282.799,258.802,285.757,284.205,260.461,0.521012,0.540198,238.168,255.73
2016-02-16 21:00,0.295305,287.155,286.328,261.305,288.897,286.767,261.062,0.381005,0.369111,236.742,255.73
2016-02-16 22:00,-0.00772597,284.249,284.528,260.011,287.134,285.635,260.822,0.0,0.0,236.004,255.639
2016-02-16 23:00,0.0,287.587,287.102,261.412,290.101,288.306,261.66,-0.00259465,-0.00309373,236.207,255.821
2016-02-17 00:00,-0.00395309,287.3,287.102,261.412,289.701,287.748,261.66,-0.00334708,-0.00199544,235.247,254.629
2016-02-17 01:00,-0.0015236,287.01,286.661,260.876,289.166,287.048,260.701,0.0,0.0,234.472,254.256
2016-02-17 02:00,0.0,286.421,286.217,260.769,288.897,286.485,260.942,0.0,0.0,234.543,253.785
2016-02-17 03:00,0.0,286.271,285.994,260.553,288.628,286.343,260.942,0.0,0.0,235.038,253.974
2016-02-17 04:00,-0.00118629,286.421,286.328,260.119,289.032,286.907,260.581,0.0,0.0,235.662,253.69
2016-02-17 05:00,-0.00124569,285.202,284.755,259.244,287.543,285.493,260.34,0.0,0.0,236.408,254.536
2016-02-17 06:00,-0.0014026,285.202,284.869,258.691,287.679,285.635,260.34,0.0,0.0,238.981,255.73
2016-02-17 07:00,0.0017252,287.3,286.328,259.354,289.032,286.485,260.701,0.0,0.0,241.304,256.894
2016-02-17 08:00,0.0,284.888,284.414,257.91,286.997,285.065,260.461,0.0,0.0,241.361,256.716
2016-02-17 09:00,0.0,285.512,284.755,258.022,287.27,285.065,260.219,0.0,0.0,241.817,256.716
2016-02-17 10:00,-0.0982365,285.045,284.3,257.91,286.722,284.492,259.735,-0.582237,-0.396702,242.544,256.894
2016-02-17 11:00,0.32248,287.155,284.528,258.246,286.722,284.779,259.856,0.502975,0.485489,242.544,257.246
2016-02-17 12:00,0.487697,286.864,279.823,255.626,282.517,281.588,259.492,0.571935,0.594226,243.093,257.595
2016-02-17 13:00,0.100503,288.568,284.755,258.358,286.86,284.349,260.098,0.161849,0.11738,243.472,257.682
2016-02-17 14:00,0.140664,286.717,282.448,257.459,284.641,282.904,259.37,0.182073,0.164861,243.418,257.769
2016-02-17 15:00,0.0615518,286.569,284.071,258.246,286.033,284.061,259.977,0.0943048,0.075456,243.846,257.942
2016-02-17 16:00,0.0676581,287.444,284.755,258.913,286.722,284.492,259.614,0.0950704,0.0697582,244.058,258.028
2016-02-17 17:00,0.0320803,288.152,285.658,259.024,287.679,285.065,260.219,0.0620853,0.0400982,244.687,258.2
2016-02-17 18:00,0.0725797,289.247,285.433,259.134,287.407,284.922,260.098,0.0989245,0.0768478,244.842,258.882
2016-02-17 19:00,0.0926673,289.247,285.321,259.244,287.27,284.779,260.219,0.133384,0.102908,245.253,258.798
2016-02-17 20:00,0.185637,290.301,286.328,259.793,288.222,285.777,260.461,0.221333,0.175937,245.202,258.882
2016-02-17 21:00,0.218458,287.729,286.439,259.464,288.493,286.202,260.581,0.323693,0.289467,244.842,259.051
2016-02-17 22:00,0.0,286.421,286.217,259.354,288.493,286.06,260.701,0.0,0.0,244.322,259.135
2016-02-17 23:00,-0.00308113,287.587,286.882,259.683,289.3,287.188,261.301,-0.00260879,-0.00311059,243.899,258.798
2016-02-18 00:00,-0.00198291,285.97,285.994,259.024,288.222,286.202,260.701,-0.00167893,-0.00200187,243.31,258.798
2016-02-18 01:00,0.0,287.444,286.328,259.354,288.628,286.202,260.219,0.0,0.0,243.147,258.372
2016-02-18 02:00,0.0,286.717,285.994,258.802,288.222,285.919,260.461,0.0,0.0,243.093,258.114
2016-02-18 03:00,-0.00120571,287.155,286.217,259.024,288.358,285.919,260.461,0.0,0.0,242.765,257.421
2016-02-18 04:00,0.0,286.717,285.882,258.802,287.951,285.35,259.856,0.0,0.0,242.984,257.682
2016-02-18 05:00,0.0,281.165,281.267,255.626,283.372,282.028,259.249,0.0,0.0,242.211,257.246
2016-02-18 06:00,-0.00140585,283.261,281.86,256.089,284.501,282.467,258.638,0.0,0.0,240.957,256.45
2016-02-18 07:00,0.0,283.76,283.148,256.778,285.34,283.049,259.37,0.0,0.0,240.489,255.73
2016-02-18 08:00,0.0,284.57,284.071,257.12,286.172,283.629,259.249,0.0,0.0,240.193,255.457
2016-02-18 09:00,0.0,275.48,275.565,252.412,277.978,276.784,256.035,0.0,0.0,239.593,254.999
2016-02-18 10:00,-0.388614,286.121,284.869,257.12,287.134,284.061,259.492,-0.799095,-0.728611,238.608,254.536
2016-02-18 11:00,0.189657,288.705,285.433,257.798,288.087,285.065,259.249,0.321165,0.230891,236.341,253.974
2016-02-18 14:00,0.209231,288.43,280.549,254.454,282.803,280.406,256.41,0.23439,0.225855,233.085,251.949
2016-02-18 15:00,0.0481613,287.729,283.956,256.205,286.447,284.061,258.147,0.0815562,0.0589354,232.935,253.5
2016-02-18 16:00,0.0616504,286.421,280.549,254.572,282.231,279.211,255.784,0.0898313,0.0680294,231.315,252.146
2016-02-18 17:00,0.0334682,287.871,284.414,256.892,286.722,284.205,259.005,0.0656914,0.0476106,232.709,254.068
2016-02-18 18:00,0.132156,287.155,278.845,253.741,280.347,277.396,254.9,0.155163,0.13342,229.935,250.544
2016-02-18 19:00,0.257998,288.291,281.742,255.043,283.938,282.175,258.392,0.292562,0.290697,230.348,253.021
2016-02-18 20:00,0.28921,289.647,283.611,256.32,285.757,283.629,259.249,0.321198,0.32231,229.601,252.439
2016-02-18 21:00,0.63708,272.836,265.545,245.723,265.482,263.759,247.959,0.528177,0.710168,226.311,242.23
2016-02-18 22:00,-0.00796375,272.061,264.788,245.04,264.792,262.361,246.732,0.0,0.0,227.147,243.093
2016-02-18 23:00,-0.00309792,285.818,284.528,256.549,286.447,284.061,259.614,-0.00262301,-0.00312754,229.007,251.751
2016-02-19 00:00,-0.00397865,285.665,283.38,256.089,285.618,283.049,258.76,-0.00168436,-0.00401668,228.488,250.748
2016-02-19 01:00,0.0,275.02,269.343,247.991,269.679,267.84,250.236,0.0,0.0,227.78,244.175
2016-02-19 02:00,0.0,282.753,279.091,253.98,280.639,278.156,255.406,0.0,0.0,227.601,247.699
2016-02-19 03:00,0.0,282.923,277.977,253.14,278.873,276.015,253.24,0.0,0.0,227.42,245.575
2016-02-19 04:00,-0.00119047,270.713,260.201,243.509,259.236,256.742,241.374,0.0,0.0,226.122,239.523
2016-02-19 05:00,-0.00125055,242.013,232.839,229.847,231.131,229.647,225.185,0.0,0.0,221.93,227.136
2016-02-19 06:00,-0.00140925,249.89,236.832,231.625,234.371,232.474,227.601,0.0,0.0,221.031,227.136
2016-02-19 07:00,0.0,271.798,262.141,244.21,260.888,258.04,242.097,0.0,0.0,224.76,238.85
2016-02-19 08:00,0.0,268.986,255.409,241.207,253.069,248.736,235.691,0.0,0.0,224.054,237.888
2016-02-19 09:00,-0.00461374,281.165,274.785,251.922,274.933,271.605,249.572,0.0,0.0,228.312,248.348
2016-02-19 10:00,-0.256295,278.075,276.845,252.534,279.318,278.307,257.653,-0.542512,-0.517491,229.685,251.751
2016-02-19 11:00,0.516947,278.279,273.732,250.806,276.163,276.015,256.785,0.684485,0.721761,229.935,252.439
2016-02-19 12:00,0.441823,282.059,273.199,251.056,275.857,275.551,256.909,0.612573,0.638404,230.184,252.342
2016-02-19 13:00,0.370366,280.799,273.599,251.056,276.163,275.706,256.16,0.531449,0.562827,229.685,251.352
2016-02-19 14:00,0.200267,286.121,276.591,253.261,278.873,277.548,256.285,0.22247,0.208651,228.835,250.442
2016-02-19 15:00,0.161327,285.512,280.066,254.572,281.943,280.257,257.9,0.205508,0.192215,228.662,251.352
2016-02-19 16:00,0.242759,275.707,265.394,246.667,265.654,264.451,248.229,0.317988,0.327253,227.601,246.371
2016-02-19 17:00,0.334821,263.636,221.841,225.107,220.852,219.165,217.639,0.445122,0.495561,217.36,219.134
2016-02-19 18:00,0.30872,272.58,244.598,235.499,241.815,238.282,230.44,0.356444,0.386047,222.15,231.364
2016-02-19 19:00,0.439818,270.989,238.83,232.834,235.672,232.976,226.918,0.486827,0.543466,219.982,227.136
2016-02-19 20:00,0.674116,268.382,232.839,229.847,231.408,229.121,225.009,0.668529,0.78584,220.454,225.799
2016-02-19 21:00,0.671651,256.589,236.06,231.45,234.895,233.225,227.431,0.514005,0.717191,221.708,228.06
2016-02-19 22:00,-0.00808636,271.261,260.692,243.65,259.051,255.803,240.5,0.0,0.0,224.56,238.85
2016-02-19 23:00,-0.0031148,267.444,255.587,240.766,255.439,252.341,238.727,-0.0026373,-0.00314458,225.739,239.121
2016-02-20 00:00,-0.00399157,282.059,275.436,251.676,275.857,272.246,249.838,-0.00168983,-0.00402972,224.56,244.881
2016-02-20 01:00,0.0,276.155,265.846,246.265,265.138,260.764,241.808,0.0,0.0,222.799,239.523
2016-02-20 02:00,0.0,248.394,238.338,232.663,237.2,235.435,229.116,0.0,0.0,222.259,229.838
2016-02-20 03:00,0.0,264.739,251.339,238.657,249.998,247.085,234.447,0.0,0.0,223.013,234.996
2016-02-20 04:00,-0.00119268,267.444,255.409,241.061,253.269,246.876,234.447,0.0,0.0,222.476,235.444
2016-02-20 05:00,0.0,271.261,259.706,242.369,257.55,249.55,234.604,0.0,0.0,222.799,236.179
2016-02-20 06:00,0.0,249.89,240.039,232.663,239.183,236.396,229.781,0.0,0.0,222.259,230.694
2016-02-20 07:00,0.0,271.798,262.616,242.942,261.791,258.224,241.953,0.0,0.0,225.835,240.185
2016-02-20 08:00,0.0,260.395,244.815,234.183,242.515,239.438,229.946,0.0,0.0,221.596,229.838
2016-02-20 09:00,-0.00466307,282.059,278.721,250.303,279.907,277.243,254.137,0.0,0.0,227.691,246.032
2016-02-20 10:00,-0.760855,266.797,252.666,236.943,248.946,245.824,233.976,-0.9019,-1.07538,220.454,229.137
2016-02-20 11:00,0.379503,257.605,239.317,232.319,237.451,236.157,229.946,0.541661,0.602062,222.15,229.664
2016-02-20 12:00,0.369993,253.81,228.463,227.628,227.414,225.874,222.873,0.512838,0.575513,220.101,223.999
2016-02-20 13:00,0.310183,252.585,222.198,225.897,220.852,219.777,218.601,0.515415,0.571496,216.012,218.165
2016-02-20 14:00,0.271123,249.156,221.481,225.306,221.182,220.384,219.739,0.510431,0.56836,218.009,220.535
2016-02-20 15:00,0.188163,276.155,252.479,238.503,251.036,247.501,235.227,0.257359,0.27033,224.76,236.469
2016-02-20 16:00,0.179213,267.761,245.032,235.173,242.283,238.978,229.615,0.251694,0.265645,221.596,229.314
2016-02-20 17:00,0.223313,266.466,246.942,235.985,246.135,244.112,234.447,0.343663,0.385394,225.546,235.74
2016-02-20 18:00,0.303847,264.009,238.338,231.799,236.695,234.461,227.94,0.390336,0.428394,221.031,226.187
2016-02-20 19:00,0.346285,274.787,254.69,239.721,254.066,250.757,238.128,0.424366,0.455393,224.959,236.469
2016-02-20 20:00,0.380456,286.569,269.767,247.991,269.515,264.967,246.732,0.397191,0.406467,227.691,241.602
2016-02-20 21:00,1.2583,284.087,265.995,246.934,266.167,262.185,244.512,0.841664,1.25762,228.4,242.848
2016-02-20 22:00,0.0,246.775,248.177,236.466,247.878,247.708,239.025,0.0,0.0,229.007,237.468
2016-02-20 23:00,-0.00626353,271.261,264.94,245.587,266.167,263.759,247.415,-0.00265166,-0.0031617,232.481,247.917
2016-02-21 00:00,-0.00400458,268.382,263.088,244.488,264.618,263.586,249.438,-0.00169533,-0.00202143,234.615,249.198
2016-02-21 01:00,-0.00153798,280.799,276.336,251.922,277.978,275.396,254.519,0.0,0.0,234.968,251.252
2016-02-21 02:00,-0.0013137,278.075,272.662,249.542,274.156,271.444,252.723,0.0,0.0,235.178,250.849
2016-02-21 03:00,-0.00121231,276.376,275.565,251.799,277.828,276.169,255.28,0.0,0.0,234.472,250.849
2016-02-21 04:00,0.00119497,270.713,268.199,247.597,270.169,269.165,250.501,0.0,0.0,233.75,249.928
2016-02-21 05:00,0.0,253.206,253.411,239.57,254.263,253.316,243.949,0.0,0.0,233.085,244.294
2016-02-21 06:00,-0.00141649,280.799,278.474,252.899,280.931,278.76,256.41,0.0,0.0,234.827,252.634
2016-02-21 07:00,0.0,281.346,279.091,253.741,281.366,279.361,256.66,0.0,0.0,234.756,253.021
2016-02-21 08:00,0.0,277.451,277.852,252.412,280.493,278.76,257.158,0.0,0.0,234.329,251.949
2016-02-21 09:00,-0.00471488,278.482,277.977,252.656,279.907,278.911,257.53,0.0,0.0,235.038,253.213
2016-02-21 10:00,-0.28242,280.239,279.58,253.02,281.655,280.257,257.653,-1.11592,-0.950401,234.827,253.785
2016-02-21 11:00,0.251184,268.073,264.94,245.859,266.678,265.82,249.838,0.55658,0.615078,234.113,249.928
2016-02-21 13:00,0.399102,283.76,272.796,250.303,275.242,274.929,255.784,0.453823,0.0,235.108,0.0
2016-02-21 14:00,0.0619158,288.012,283.841,256.32,286.033,283.773,259.127,0.100815,0.073727,235.108,254.349
2016-02-21 15:00,0.0374784,287.155,283.726,256.434,286.172,283.917,258.76,0.0683477,0.0465682,235.038,254.068
2016-02-21 16:00,0.0340015,288.43,285.994,257.459,288.493,286.06,259.977,0.059977,0.0414778,235.108,254.162
2016-02-21 17:00,0.0796491,288.152,281.029,254.69,283.656,281.588,257.9,0.0941598,0.0788934,235.038,253.5
2016-02-21 18:00,0.0799737,289.514,283.841,256.089,286.447,284.061,258.882,0.103042,0.0842486,234.897,253.88
2016-02-21 19:00,0.135957,287.155,283.611,256.434,286.172,283.917,259.735,0.205288,0.185297,234.543,253.309
2016-02-21 20:00,0.197857,289.779,285.658,257.12,287.951,285.493,259.856,0.251287,0.214544,234.257,252.925
2016-02-21 21:00,0.0736221,287.01,285.882,257.798,288.222,285.35,259.614,0.228564,0.173427,234.472,252.244
2016-02-21 22:00,-0.0083392,286.271,285.433,257.233,287.815,285.208,259.492,0.0,0.0,233.896,251.949
2016-02-21 23:00,-0.00314881,287.155,285.77,258.022,288.222,285.635,259.37,-0.0026661,-0.00317892,233.53,251.152
2016-02-22 00:00,-0.00200884,287.155,285.321,257.572,287.543,284.492,259.37,-0.00340177,-0.00405609,233.308,250.95
2016-02-22 01:00,-0.0015417,279.667,274.261,252.045,275.857,272.565,253.24,0.0,0.0,233.308,249.617
2016-02-22 02:00,0.0,283.093,279.458,255.16,281.799,278.307,255.784,0.0,0.0,233.677,249.825
2016-02-22 03:00,0.0,286.864,285.77,257.798,288.087,285.208,259.492,0.0,0.0,233.53,250.544
2016-02-22 04:00,-0.00119733,286.271,285.095,257.572,287.543,284.779,259.249,0.0,0.0,232.097,250.34
2016-02-22 05:00,0.0,268.686,258.703,242.656,257.361,254.855,241.519,0.0,0.0,228.921,239.255
2016-02-22 06:00,-0.00142033,275.707,269.626,248.382,269.842,267.171,248.499,0.0,0.0,229.935,243.698
2016-02-22 07:00,0.0,276.376,270.049,249.542,271.945,269.0,250.896,0.0,0.0,230.593,247.699
2016-02-22 08:00,0.0,285.512,282.916,255.742,284.501,281.441,256.66,0.0,0.0,231.076,248.455
2016-02-22 09:00,0.00476928,277.661,271.299,249.286,271.785,268.835,249.438,0.0,0.0,229.935,244.998
2016-02-22 10:00,-2.48557,258.096,250.76,238.349,250.623,249.348,239.618,-3.05157,-4.1404,229.433,238.303
2016-02-22 11:00,0.55315,259.954,244.598,234.681,243.438,242.143,235.072,0.767204,0.882864,227.51,234.082
2016-02-22 12:00,0.296937,253.81,240.514,233.513,239.911,238.978,232.707,0.505118,0.545047,226.963,233.304
2016-02-22 13:00,0.253103,251.282,237.841,231.973,238.199,237.109,232.227,0.464321,0.501367,226.592,233.304
2016-02-22 14:00,0.279726,249.156,226.261,227.058,226.221,225.318,223.413,0.667713,0.7419,222.476,224.408
2016-02-22 15:00,0.258408,249.89,227.533,227.817,227.118,226.426,224.657,0.624777,0.694226,223.434,225.994
2016-02-22 16:00,0.268129,247.601,221.117,225.107,221.182,220.384,220.302,0.684658,0.765062,219.624,220.535
2016-02-22 17:00,0.302366,250.598,219.247,224.305,219.167,218.235,218.982,0.726214,0.811498,218.391,218.895
2016-02-22 18:00,0.346206,252.585,231.427,229.301,231.683,230.946,227.089,0.782662,0.882526,225.449,229.489
2016-02-22 19:00,0.525184,257.103,231.713,228.749,231.957,230.688,227.431,0.74621,0.857885,225.254,229.314
2016-02-22 20:00,0.33807,287.444,275.565,251.552,276.468,272.883,251.028,0.350879,0.359651,228.4,244.764
2016-02-22 21:00,0.670699,281.883,271.299,249.029,272.104,268.505,249.037,0.557739,0.725476,228.921,244.175
2016-02-22 22:00,-0.00846953,284.73,282.448,254.926,284.641,281.293,256.66,0.0,0.0,231.473,249.825
2016-02-22 23:00,-0.00633191,287.01,285.321,256.32,287.679,284.779,258.147,-0.00268061,-0.00639244,236.071,251.751
2016-02-23 00:00,-0.00201545,287.01,284.642,255.858,286.31,282.904,257.653,-0.00170648,-0.00406943,236.542,251.751
2016-02-23 01:00,0.0,276.155,271.162,248.382,273.057,270.473,252.464,0.0,0.0,236.675,251.152
2016-02-23 02:00,-0.00131912,286.421,284.414,256.089,286.447,283.194,258.023,0.0,0.0,236.139,252.047
2016-02-23 03:00,0.0,286.717,285.321,256.778,287.134,284.349,259.127,0.0,0.0,236.542,253.021
2016-02-23 04:00,0.0,285.512,284.071,256.205,286.172,283.194,258.392,0.0,0.0,235.936,251.949
2016-02-23 05:00,0.0,274.314,274.129,250.303,275.857,274.46,254.392,0.0,0.0,236.004,250.95
2016-02-23 06:00,0.0,285.512,283.611,255.626,285.757,282.904,257.653,0.0,0.0,236.207,252.047
2016-02-23 07:00,0.0,281.346,278.226,252.899,280.493,278.156,255.909,0.0,0.0,235.799,252.439
2016-02-23 08:00,-0.00250617,284.888,282.916,255.51,284.781,282.175,257.53,0.0,0.0,235.799,253.309
2016-02-23 09:00,-0.00482638,285.818,284.869,256.778,287.27,284.492,259.005,0.0,0.0,234.968,253.309
2016-02-23 10:00,-1.66159,286.717,285.321,257.006,287.543,284.779,259.005,-3.28269,-2.60941,234.543,253.117
2016-02-23 11:00,0.145399,288.152,285.208,257.233,287.543,285.065,259.005,0.285789,0.199214,234.185,253.213
2016-02-23 12:00,0.0401837,287.871,285.658,257.233,288.087,285.35,258.882,0.131557,0.0784311,233.677,252.925
2016-02-23 13:00,0.0114415,287.155,286.105,257.91,288.493,286.06,259.37,0.0791145,0.0385029,232.784,252.828
2016-02-23 14:00,0.00471965,287.3,285.882,258.246,288.493,286.202,259.37,0.0559457,0.0270003,231.943,252.634
2016-02-23 15:00,0.0171574,286.864,284.528,257.006,286.86,284.205,258.147,0.0544768,0.031756,230.755,251.152
2016-02-23 16:00,0.040767,287.729,284.982,257.572,287.679,284.922,259.249,0.074986,0.0610255,230.996,251.452
2016-02-23 17:00,0.0417482,287.01,283.495,256.549,285.479,282.904,257.777,0.0732212,0.0541894,231.236,250.544
2016-02-23 18:00,0.0827354,285.665,282.566,255.858,284.921,282.904,258.76,0.169292,0.144431,232.251,250.849
2016-02-23 19:00,0.291507,289.381,281.386,255.16,283.372,281.441,257.9,0.341748,0.332778,231.394,250.135
2016-02-23 20:00,0.331861,292.053,283.148,256.549,285.479,282.467,257.653,0.351232,0.32775,231.156,249.408
2016-02-23 21:00,0.620135,287.729,282.799,256.664,284.921,282.467,258.147,0.505254,0.567001,230.43,248.455
2016-02-23 22:00,-0.00860252,286.421,284.869,257.12,286.997,284.349,258.638,0.0,0.0,229.852,248.241
2016-02-23 23:00,-0.00318318,286.717,283.841,257.006,286.172,282.467,257.53,-0.00269519,-0.00321361,230.43,248.241
2016-02-24 00:00,-0.00404421,259.954,253.411,239.721,255.049,253.896,242.956,-0.00342422,-0.00408287,230.101,243.818
2016-02-24 01:00,0.0015493,283.594,280.066,254.808,281.366,277.548,254.646,0.0,0.0,229.685,247.917
2016-02-24 02:00,0.0,283.261,279.823,254.69,281.366,277.243,254.264,0.0,0.0,229.178,247.917
2016-02-24 03:00,-0.0012195,285.818,284.071,256.892,286.172,283.339,258.27,0.0,0.0,229.007,248.241
2016-02-24 04:00,0.0,280.239,274.785,251.552,275.242,271.926,251.028,0.0,0.0,227.055,244.294
2016-02-24 05:00,-0.00126452,278.883,270.329,248.771,269.842,265.82,245.628,0.0,0.00127661,227.329,242.725
2016-02-24 06:00,0.00142848,287.01,285.095,257.459,287.815,284.922,258.882,0.0,0.0,229.178,248.775
2016-02-24 07:00,0.00176802,286.864,285.546,257.572,288.358,285.635,259.127,0.0,0.0,229.852,249.408
2016-02-24 08:00,0.0,283.261,280.549,255.043,283.23,279.061,256.035,0.0,0.0,230.996,248.882
2016-02-24 10:00,-0.731486,286.864,285.658,257.685,288.358,285.635,259.37,-5.57413,-3.69239,232.328,250.34
2016-02-24 11:00,0.327588,289.514,284.642,257.006,287.543,285.208,259.614,0.385715,0.320384,231.943,250.646
2016-02-24 12:00,0.24724,290.041,284.071,256.892,286.722,284.779,259.735,0.315131,0.276442,232.175,251.051
2016-02-24 13:00,0.142233,288.568,284.071,257.12,286.86,284.636,259.005,0.191079,0.160823,232.097,250.544
2016-02-24 14:00,0.175404,285.202,280.187,254.572,283.088,281.293,258.147,0.238684,0.234,232.557,250.544
2016-02-24 15:00,0.0128163,287.444,285.546,258.022,287.951,285.208,259.005,0.0506405,0.0258776,232.557,250.34
2016-02-24 16:00,0.0210059,287.587,285.095,257.685,287.543,284.922,259.005,0.0545426,0.0339307,231.552,250.032
2016-02-24 17:00,0.0519841,286.864,284.185,256.892,286.722,284.061,258.392,0.0918025,0.0734735,231.943,250.032
2016-02-24 18:00,0.0497766,287.01,284.755,257.685,286.997,284.492,259.127,0.110451,0.0918408,232.709,250.95
2016-02-24 19:00,0.0713919,288.43,285.546,258.022,287.951,285.35,259.735,0.119006,0.0855883,234.113,251.751
2016-02-24 20:00,0.171842,289.514,285.77,257.685,288.222,285.777,259.37,0.233404,0.191556,235.455,252.537
2016-02-24 21:00,0.274575,287.729,285.658,257.798,288.222,285.493,259.127,0.377784,0.3465,236.475,253.309
2016-02-24 22:00,-0.00873823,287.155,285.994,257.572,288.628,285.919,259.977,0.0,0.0,236.071,253.405
2016-02-24 23:00,-0.00320049,286.121,285.095,257.12,287.679,284.636,259.37,-0.00270985,-0.00646218,236.274,253.309
2016-02-25 00:00,-0.00202881,287.01,285.882,257.233,287.951,285.35,259.249,-0.00171779,-0.00409641,236.408,253.595
2016-02-25 01:00,0.0,286.717,285.321,256.892,287.543,285.065,258.515,0.0,0.0,235.593,252.731
2016-02-25 02:00,-0.00132479,285.97,284.869,256.434,286.997,284.492,258.392,0.0,-0.00133746,236.207,253.213
2016-02-25 03:00,0.00122204,286.569,285.546,256.434,288.087,285.208,259.127,0.0,0.00123372,235.455,252.634
2016-02-25 04:00,0.0,280.982,280.669,253.501,282.803,281.146,257.53,0.0,0.0,234.827,252.342
2016-02-25 05:00,0.00126764,273.586,274.129,249.797,276.468,275.396,255.784,0.0,0.0,234.257,251.352
2016-02-25 06:00,0.0,284.249,281.978,254.099,284.361,281.588,257.406,0.0,0.0,233.53,250.34
2016-02-25 07:00,-0.00177516,282.923,280.669,253.02,282.66,279.959,256.785,0.0,0.0,233.896,249.617
2016-02-25 08:00,0.0,285.97,284.528,255.16,286.447,283.773,257.653,0.0,0.0,234.472,250.544
2016-02-25 09:00,-0.00494915,284.888,283.032,254.454,285.479,282.904,257.777,0.0,0.0,234.756,250.748
2016-02-25 10:00,-24736.8,284.249,282.916,254.217,285.479,282.758,257.777,-26809.1,-30966.9,235.386,251.051
2016-02-25 11:00,0.221996,287.729,283.956,254.454,286.585,283.773,257.282,0.346024,0.280148,236.874,250.646
2016-02-25 12:00,0.313943,291.809,275.436,249.797,277.377,274.773,252.594,0.303789,0.287647,236.609,248.025
2016-02-25 13:00,0.0245182,287.3,284.982,253.98,287.407,284.636,258.023,0.0910224,0.0571213,237.528,250.646
2016-02-25 14:00,0.118489,286.271,282.682,252.899,285.201,283.049,258.023,0.178208,0.166841,237.006,250.748
2016-02-25 15:00,0.0553155,287.01,284.185,253.741,286.86,284.349,258.392,0.0864656,0.0644357,236.609,250.238
2016-02-25 16:00,0.0209266,287.155,285.208,254.336,287.951,285.065,258.27,0.050793,0.0323941,237.072,250.544
2016-02-25 17:00,0.0325516,287.729,284.869,254.69,287.679,284.922,258.023,0.060134,0.0418254,236.542,249.928
2016-02-25 18:00,0.0444438,287.3,284.755,255.16,287.543,284.922,258.392,0.0796029,0.0586744,236.341,250.238
2016-02-25 19:00,0.0799172,288.977,285.321,255.393,287.679,284.922,258.515,0.125933,0.0963692,236.542,249.928
2016-02-25 20:00,0.117273,288.152,285.208,255.393,288.222,285.35,258.76,0.174518,0.125569,236.139,250.032
2016-02-25 21:00,0.694117,287.01,283.726,253.98,286.447,283.773,258.147,0.578229,0.632938,236.475,250.646
2016-02-25 22:00,0.0,286.121,285.095,254.808,287.679,285.208,259.005,0.0,0.0,236.274,250.544
2016-02-25 23:00,-0.0032179,286.569,285.208,255.277,287.951,285.208,258.882,-0.00272459,-0.00324866,236.475,251.352
2016-02-26 00:00,0.0,285.97,284.755,254.926,287.407,284.922,259.127,0.0,0.0,236.609,251.751
2016-02-26 01:00,-0.00155712,286.569,285.546,255.16,288.358,285.635,259.127,0.0,0.0,237.268,252.634
2016-02-26 02:00,0.0,286.569,285.321,255.16,288.358,285.493,259.37,0.0,0.0,237.072,252.731
2016-02-26 03:00,0.0,282.753,283.032,253.98,285.757,284.061,259.127,0.0,0.0,237.592,253.021
2016-02-26 04:00,0.0,286.271,286.217,255.858,289.166,286.907,260.219,0.0,0.0,237.203,253.117
2016-02-26 05:00,0.0,284.249,284.3,255.043,287.27,285.35,259.127,0.0,0.0,237.592,252.731
2016-02-26 06:00,0.0,284.41,283.956,254.808,286.86,284.779,258.515,0.0,0.0,237.398,252.828
2016-02-26 07:00,0.0,283.924,283.264,254.454,285.757,283.484,257.9,0.0,0.0,237.398,252.731
2016-02-26 08:00,0.0,285.357,285.208,255.742,287.815,285.493,259.614,0.0,0.0,236.808,252.731
2016-02-26 09:00,0.0,285.818,285.321,256.434,288.087,285.777,259.127,0.0,0.0,237.203,252.925
2016-02-26 10:00,2.15723,287.01,285.658,257.12,288.222,285.777,259.37,6.69726,5.08166,237.333,252.925
2016-02-26 11:00,0.0447595,287.444,285.994,257.346,288.763,286.202,259.492,0.214754,0.130541,238.041,253.309
2016-02-26 12:00,0.107338,288.705,285.433,257.006,288.222,285.919,259.856,0.183982,0.137437,239.104,254.536
2016-02-26 13:00,0.0450158,288.012,285.77,257.006,288.222,285.919,259.249,0.10164,0.0624885,239.471,254.629
2016-02-26 14:00,0.0356978,287.871,285.658,257.459,288.222,285.777,259.37,0.0801628,0.0548421,240.074,255.457
2016-02-26 15:00,0.0127146,287.3,285.658,257.346,287.951,285.208,259.249,0.0526308,0.0313771,240.489,256.091
2016-02-26 16:00,0.041697,285.045,281.978,255.742,284.079,282.028,258.023,0.0764936,0.0575306,239.894,255.73
2016-02-26 17:00,0.0810748,288.705,284.642,257.346,286.997,284.636,259.127,0.0961042,0.0788734,239.349,256.091
2016-02-26 18:00,0.028942,288.152,285.994,258.022,288.087,285.635,259.492,0.0634251,0.0412499,239.834,256.539
2016-02-26 19:00,0.0463917,288.841,286.217,258.358,288.628,286.06,260.461,0.0897824,0.062447,239.166,256.45
2016-02-26 20:00,0.148185,290.171,286.439,259.024,288.763,286.485,260.219,0.197164,0.163849,237.977,255.639
2016-02-26 21:00,0.241206,288.012,286.439,259.134,288.897,286.202,259.856,0.334193,0.298856,236.609,255.275
2016-02-26 22:00,0.0,287.444,286.55,259.134,288.763,286.343,260.34,0.0,0.0,235.662,254.722
2016-02-26 23:00,-0.00323539,286.717,285.994,259.024,288.493,286.202,260.461,-0.0027394,-0.00326632,235.867,254.443
2016-02-27 00:00,0.0,286.121,285.882,259.134,288.493,286.202,260.822,0.0,0.0,236.408,254.722
2016-02-27 01:00,0.0,286.271,286.105,259.244,288.628,286.626,260.822,0.0,0.0,237.398,255.548
2016-02-27 02:00,-0.00133071,285.045,285.208,258.58,287.815,285.777,260.219,0.0,0.0,237.592,256.181
2016-02-27 03:00,0.00122732,286.421,285.994,259.464,288.628,286.343,260.581,0.0,0.0,238.357,256.181
2016-02-27 04:00,0.0,285.045,284.755,258.58,287.134,285.35,260.34,0.0,0.0,238.981,255.911
2016-02-27 05:00,-0.0012742,282.059,281.029,256.434,283.514,281.588,258.638,0.0,0.0,237.977,255.821
2016-02-27 06:00,-0.00144186,285.665,285.321,258.58,287.679,285.208,260.34,0.0,0.0,237.977,256.36
2016-02-27 07:00,-0.00179021,286.271,286.105,259.134,288.628,286.767,260.581,0.0,0.0,236.675,256.271
2016-02-27 08:00,0.00256988,284.57,284.755,258.691,287.134,285.493,259.977,0.0,0.0,235.455,255.73
2016-02-27 09:00,0.0,286.864,286.328,259.683,289.032,286.907,260.461,0.0,0.0,235.108,255.821
2016-02-27 10:00,1.60393,283.76,284.185,258.358,286.585,284.922,259.977,4.37592,4.31803,234.686,255.366
2016-02-27 11:00,0.0931443,288.012,286.328,259.683,288.897,286.626,260.581,0.232445,0.138577,233.896,255.091
2016-02-27 13:00,0.0205192,287.729,286.772,260.119,289.701,287.469,261.182,0.0852883,0.0451971,233.308,254.256
2016-02-27 14:00,0.0123613,287.871,287.322,260.445,290.101,288.027,261.301,0.0588728,0.0311986,233.382,254.629
2016-02-27 15:00,0.015479,288.012,287.102,260.228,289.835,287.888,261.54,0.0512327,0.0284127,232.784,253.595
2016-02-27 16:00,0.012463,287.871,286.992,260.445,289.701,287.609,261.66,0.0445545,0.0251643,232.633,253.88
2016-02-27 17:00,0.073433,283.76,275.694,253.621,276.468,273.517,252.335,0.105699,0.0948928,230.755,247.917
2016-02-27 18:00,0.037306,288.568,285.658,259.793,288.222,286.343,260.098,0.0674811,0.0479342,232.633,252.244
2016-02-27 19:00,0.0439724,289.381,287.432,261.305,290.367,288.445,261.779,0.0856321,0.0554909,234.185,253.88
2016-02-27 20:00,0.105105,289.779,286.882,260.661,289.835,287.748,260.942,0.175017,0.137942,233.896,254.349
2016-02-27 21:00,0.408313,289.113,287.102,260.445,289.701,287.748,261.66,0.400305,0.401369,233.603,254.068
2016-02-27 22:00,-0.0091622,285.818,285.095,259.244,287.543,285.065,259.614,0.0,0.0,233.896,253.974
2016-02-27 23:00,-0.00650596,283.76,281.505,257.12,283.23,280.702,256.785,-0.00275429,-0.00328408,233.01,250.849
2016-02-28 00:00,-0.00204927,283.76,283.264,258.246,285.34,283.194,258.638,0.0,0.0,235.038,254.349
2016-02-28 01:00,0.0,287.587,287.212,260.769,289.434,287.329,260.822,0.0,0.0,235.662,255.366
2016-02-28 02:00,0.00133376,286.717,286.439,260.445,289.166,287.048,261.54,0.0,0.0,235.936,255.821
2016-02-28 03:00,0.0,287.01,286.661,260.119,288.897,286.907,260.942,0.0,0.0,235.867,256.271
2016-02-28 04:00,0.0,287.444,287.102,260.661,289.434,287.188,261.421,0.0,0.0,235.108,255.911
2016-02-28 05:00,0.0,286.864,286.661,260.553,289.3,287.188,261.301,0.0,0.0,234.329,255.457
2016-02-28 06:00,-0.00144663,287.155,286.882,260.228,289.3,287.329,261.54,0.0,0.0,233.308,254.907
2016-02-28 07:00,0.0,287.01,286.772,260.228,289.434,287.329,261.898,0.0,0.0,233.159,254.907
2016-02-28 08:00,0.0,286.569,286.772,260.228,289.434,287.329,261.54,0.0,0.0,233.01,254.814
2016-02-28 09:00,0.0,286.864,286.55,260.011,289.166,287.188,261.062,0.0,0.0,232.175,254.629
2016-02-28 10:00,4.35965,286.271,285.77,259.574,288.087,286.485,260.581,4.09037,4.75819,231.473,254.162
2016-02-28 11:00,0.241628,289.113,285.994,259.793,288.628,286.907,261.182,0.384622,0.31712,231.076,253.595
2016-02-28 13:00,0.0129862,288.012,287.651,260.445,290.632,288.722,261.66,0.076968,0.0393311,231.473,253.88
2016-02-28 14:00,0.115373,275.251,261.982,245.177,261.069,258.408,242.384,0.170626,0.159961,227.42,240.576
2016-02-28 15:00,0.147179,266.797,250.954,238.81,248.946,246.457,235.691,0.218375,0.227832,225.546,233.773
2016-02-28 16:00,0.173847,270.151,251.721,239.57,250.83,248.736,235.691,0.25,0.271621,227.329,239.789
2016-02-28 17:00,0.0482903,285.512,280.909,256.434,282.231,280.108,256.16,0.0842526,0.0694346,228.748,249.093
2016-02-28 18:00,0.167224,281.883,268.63,248.9,268.191,265.309,246.732,0.198796,0.196108,226.311,241.348
2016-02-28 19:00,0.0612747,289.514,287.76,260.876,290.632,288.861,262.373,0.103762,0.0795349,230.018,253.785
2016-02-28 20:00,0.14614,289.381,286.105,259.574,289.032,286.907,261.062,0.197389,0.168613,228.921,252.634
2016-02-28 21:00,1.15918,287.155,277.098,254.572,277.978,275.396,253.625,0.767334,1.01068,227.42,248.025
2016-02-28 22:00,0.00930935,284.73,282.331,257.459,284.079,281.735,257.53,0.0,0.0,228.4,250.34
2016-02-28 23:00,-0.00654133,284.888,281.86,256.892,283.088,280.998,256.66,-0.00276927,-0.00660386,227.691,249.721
2016-02-29 00:00,0.0,270.151,260.036,244.21,259.236,256.367,241.664,0.0,0.0,226.216,240.576
2016-02-29 01:00,-0.00156928,264.739,252.101,239.57,249.998,247.085,236.153,0.0,0.0,224.76,235.74
2016-02-29 02:00,-0.00133688,265.791,254.328,241.061,252.667,249.753,237.827,0.0,0.0,226.311,238.303
2016-02-29 03:00,0.0,267.123,255.05,241.207,253.069,250.156,237.373,0.0,0.0,224.959,237.888
2016-02-29 04:00,0.0,254.966,242.597,234.515,241.107,238.978,230.931,0.0,0.0,224.959,231.198
2016-02-29 05:00,0.0,245.913,236.576,231.45,234.895,233.225,228.782,0.0,0.0,224.46,230.183
2016-02-29 06:00,0.0,245.913,237.841,231.625,236.441,235.193,229.946,0.0,0.0,225.546,231.364
2016-02-29 07:00,0.00180635,240.898,236.318,230.921,236.948,235.677,230.604,0.0,0.0,227.055,232.022
2016-02-29 08:00,0.0,238.442,235.8,230.387,235.155,233.969,229.781,0.0,0.0,226.778,231.031
2016-02-29 09:00,0.0,251.944,247.973,236.784,247.878,246.457,237.222,0.0,0.00528293,228.748,236.9
2016-02-29 10:00,1.57802,244.063,235.8,230.743,235.672,234.461,229.615,2.15262,2.56667,226.685,231.53
2016-02-29 11:00,0.347773,256.589,243.94,234.681,244.8,242.805,234.604,0.512277,0.557908,229.007,238.165
2016-02-29 13:00,0.367167,265.446,249.978,237.728,249.998,249.348,239.913,0.585829,0.627729,232.405,239.922
2016-02-29 14:00,0.378289,287.871,251.339,239.267,252.667,250.957,241.519,0.416256,0.454576,235.525,242.971
2016-02-29 15:00,0.114497,278.684,268.916,247.728,269.186,266.835,250.236,0.166697,0.157881,237.268,247.808
2016-02-29 16:00,0.13198,278.684,268.343,247.332,268.358,266.329,249.171,0.176933,0.170715,238.294,247.699
2016-02-29 17:00,0.357243,282.408,269.908,248.121,272.582,271.444,252.982,0.403714,0.421013,238.981,250.646
2016-02-29 18:00,0.508176,287.871,273.199,250.051,276.01,275.396,255.909,0.5528,0.579287,239.532,253.213
2016-02-29 19:00,0.466182,295.69,281.029,254.336,283.656,281.882,258.515,0.407627,0.404661,240.899,255.366
2016-02-29 20:00,0.974673,290.558,276.08,251.552,279.17,278.609,257.9,0.901341,0.977012,243.256,255.366
2016-02-29 21:00,0.910075,284.087,278.968,253.261,281.366,280.406,258.27,0.656727,0.751725,245.099,256.539
2016-02-29 22:00,0.0,274.787,276.591,251.799,279.613,278.911,258.147,0.0,-0.00954996,246.258,257.508
2016-02-29 23:00,-0.0065769,276.155,277.098,252.412,279.76,279.361,258.27,-0.00556865,-0.00331988,247.617,258.713
