# timestamp,IR_016,IR_039,IR_087,IR_097,IR_108,IR_120,IR_134,VIS006,VIS008,WV_062,WV_073
2013-12-01 00:00,-0.0,273.088,258.703,245.314,255.244,246.666,232.387,-0.0,0.00259974,222.15,235.444
2013-12-01 01:00,-0.00191688,258.096,247.357,239.419,245.914,240.576,229.615,-0.0,-0.0,221.145,233.617
2013-12-01 02:00,-0.0,243.066,230.85,230.743,227.414,224.19,221.23,-0.0,-0.0,218.391,223.793
2013-12-01 03:00,-0.0,246.775,236.832,234.183,235.672,231.459,226.056,-0.0,-0.0,221.371,230.524
2013-12-01 04:00,-0.0,218.393,217.685,224.305,217.072,215.683,215.274,-0.0,-0.0,215.024,216.652
2013-12-01 05:00,-0.0,225.382,220.379,225.306,219.847,219.165,218.218,-0.0,-0.0,217.36,218.653
2013-12-01 06:00,-0.00209764,235.601,232.56,231.098,232.502,231.714,228.614,-0.0,-0.0,224.258,229.838
2013-12-01 07:00,-0.0,240.898,239.799,234.681,239.669,238.747,233.344,-0.0,-0.0,225.931,234.542
2013-12-01 08:00,-0.0,265.446,258.871,245.177,259.051,256.742,244.932,-0.0,-0.0,227.238,241.854
2013-12-01 09:00,0.270451,285.512,281.624,258.913,282.946,279.81,257.158,0.374712,0.49643,228.748,247.371
2013-12-01 10:00,0.422759,284.41,273.865,253.741,273.057,269.165,250.896,0.326053,0.528218,226.405,242.725
2013-12-01 11:00,0.455696,289.514,256.992,243.79,256.598,252.732,241.808,0.370008,0.504878,229.517,241.093
2013-12-01 12:00,0.341274,296.943,289.379,263.411,290.367,286.06,261.182,0.128109,0.356417,230.018,249.825
2013-12-01 13:00,0.47097,300.317,282.799,260.011,284.781,282.175,260.219,0.359241,0.453293,231.709,249.928
2013-12-01 14:00,0.328372,300.589,275.176,255.393,277.377,273.2,255.406,0.180876,0.301934,233.234,250.032
2013-12-01 15:00,0.290235,295.26,272.796,254.099,272.899,266.835,250.765,0.257537,0.335203,232.405,246.707
2013-12-01 16:00,0.261751,298.144,286.439,261.625,287.134,283.629,260.098,0.236532,0.303358,232.097,250.442
2013-12-01 17:00,0.266553,275.251,260.692,245.859,259.606,259.139,246.457,0.478121,0.530551,228.224,241.602
2013-12-01 18:00,0.390129,272.836,243.719,237.415,244.122,241.251,232.547,0.679201,0.780341,227.78,236.614
2013-12-01 19:00,0.716055,295.583,253.779,243.084,255.633,254.089,244.652,1.02832,1.19607,233.308,246.145
2013-12-01 20:00,0.49803,289.647,263.712,248.252,264.27,262.361,248.364,0.616124,0.731841,232.784,246.258
2013-12-01 21:00,0.435396,270.713,249.385,240.617,247.662,246.876,239.322,0.530249,0.632241,228.136,238.027
2013-12-01 22:00,-0.0986464,218.393,213.479,222.659,212.219,212.329,214.265,-0.0278413,-0.0995895,209.569,210.032
2013-12-01 23:00,-0.00455979,230.231,227.533,229.301,225.31,222.462,220.675,-0.00386077,-0.0,218.264,222.956
2013-12-02 00:00,0.00258869,257.103,244.16,238.195,242.049,236.872,228.614,-0.0,-0.0,222.799,232.669
2013-12-02 01:00,-0.0,260.395,256.118,244.349,255.827,252.732,240.207,-0.0,-0.0,226.685,241.728
2013-12-02 02:00,-0.0,257.605,251.721,242.081,251.652,248.532,236.918,-0.0,-0.0,225.835,239.789
2013-12-02 03:00,0.00153132,262.074,258.871,245.723,259.606,257.671,245.35,-0.0,-0.0,230.674,244.881
2013-12-02 04:00,-0.0,253.206,253.411,242.369,253.669,251.75,242.671,-0.0,-0.0,230.43,243.457
2013-12-02 05:00,-0.0,254.966,253.04,241.791,253.269,251.552,241.808,-0.0,-0.0,229.935,243.093
2013-12-02 06:00,-0.0,249.89,248.985,239.721,248.52,247.293,240.354,-0.0,-0.0,228.136,239.523
2013-12-02 07:00,-0.00303294,253.206,248.583,240.021,248.093,245.186,235.382,-0.0,-0.0,225.156,238.714
2013-12-02 08:00,0.00651397,248.394,242.597,236.625,241.344,238.747,230.44,-0.0,-0.0,222.906,234.694
2013-12-02 09:00,0.770531,253.206,241.913,236.306,241.344,238.282,231.257,0.947043,1.20449,222.906,233.928
2013-12-02 10:00,0.499294,256.062,234.208,231.973,233.842,230.946,225.883,0.724717,0.821757,221.484,229.664
2013-12-02 11:00,0.402522,262.475,240.514,235.499,239.426,237.109,230.768,0.731167,0.79384,222.692,233.146
2013-12-02 12:00,0.408904,275.02,233.116,231.625,233.31,230.946,227.77,0.804994,0.87829,222.15,229.137
2013-12-02 13:00,0.250046,254.396,225.611,228.192,225.003,223.043,220.115,0.638631,0.694894,217.096,222.529
2013-12-02 14:00,0.288158,266.797,232.56,231.45,231.408,228.59,224.481,0.476594,0.539914,220.219,227.323
2013-12-02 15:00,0.262346,286.864,256.819,244.349,255.244,248.941,235.537,0.229008,0.336341,225.254,237.748
2013-12-02 16:00,0.213523,292.294,281.029,258.469,281.221,276.784,255.153,0.138076,0.274785,229.601,246.707
2013-12-02 17:00,0.35969,283.093,262.931,247.991,264.095,262.008,249.171,0.372939,0.473978,229.685,245.575
2013-12-02 18:00,0.475566,294.933,264.635,249.158,266.508,265.138,250.896,0.39525,0.497785,231.076,248.775
2013-12-02 19:00,0.385829,299.391,284.755,261.198,286.31,282.175,258.76,0.27014,0.389517,231.156,250.032
2013-12-02 20:00,0.410325,298.436,288.951,263.515,290.632,286.907,262.255,0.277471,0.436489,233.01,253.595
2013-12-02 21:00,1.01432,304.478,281.267,259.134,281.799,275.551,254.646,0.833859,1.08951,232.481,250.849
2013-12-02 22:00,-0.0704706,286.271,283.38,260.119,285.34,282.758,260.461,-0.0298337,-0.0711443,232.481,253.405
2013-12-02 23:00,-0.00460311,288.43,286.439,261.412,287.679,285.35,261.54,-0.0,-0.0,233.968,255.275
2013-12-03 00:00,-0.00260221,285.97,284.982,260.984,287.27,284.636,261.54,-0.0,-0.0,233.677,256.628
2013-12-03 01:00,-0.00193078,283.924,281.86,258.913,283.656,280.998,258.76,-0.0,-0.0,231.865,255.639
2013-12-03 02:00,-0.00164169,285.045,283.264,260.228,285.061,282.613,258.882,-0.0,-0.0,229.601,255.091
2013-12-03 03:00,-0.0,273.088,261.501,247.465,258.491,254.664,240.646,-0.0,-0.0,224.156,239.39
2013-12-03 04:00,-0.0,274.314,263.556,247.991,262.685,258.04,240.354,-0.0,-0.0,225.058,243.336
2013-12-03 05:00,-0.0,269.283,258.534,245.177,257.17,254.855,241.519,-0.0,-0.0,224.76,239.656
2013-12-03 06:00,-0.00210061,286.717,286.105,261.944,287.815,285.777,261.779,-0.0,-0.0,230.996,256.091
2013-12-03 07:00,-0.0,275.48,264.94,248.512,263.217,258.591,241.374,-0.0,-0.0,222.585,239.922
2013-12-03 08:00,0.00650142,280.05,271.437,253.02,270.819,265.82,245.905,-0.0,-0.0,223.952,245.46
2013-12-03 09:00,0.704764,272.322,259.206,245.587,256.598,253.896,241.374,0.681968,0.965608,223.434,239.656
2013-12-03 10:00,0.412266,283.261,271.711,252.534,271.303,267.506,247.687,0.30276,0.509641,227.238,247.699
2013-12-03 11:00,0.391424,294.38,287.322,262.049,287.951,284.349,259.249,0.172655,0.423561,234.401,256.894
2013-12-03 12:00,0.338569,299.013,292.005,265.153,292.86,289.413,262.61,0.126932,0.348608,239.349,260.627
2013-12-03 13:00,0.305189,299.579,289.058,263.099,289.166,284.922,259.127,0.129201,0.309494,238.294,258.543
2013-12-03 14:00,0.299227,300.679,291.279,264.849,292.34,289.689,263.67,0.173729,0.308252,242.6,262.701
2013-12-03 15:00,0.266967,301.39,291.591,264.747,292.73,289.276,263.67,0.140538,0.278893,243.74,262.701
2013-12-03 16:00,0.245082,290.558,280.066,258.022,281.076,278.76,258.27,0.253183,0.338582,242.378,259.135
2013-12-03 17:00,0.195433,274.787,266.886,249.669,267.185,266.835,253.881,0.37685,0.437881,240.253,254.999
2013-12-03 18:00,0.399061,268.073,212.578,222.449,210.218,207.274,206.743,0.806484,0.895444,212.448,213.092
2013-12-03 19:00,0.66416,281.526,199.463,218.041,198.14,197.752,202.009,1.00407,1.12623,203.429,200.502
2013-12-03 20:00,0.855194,280.427,200.774,218.502,199.196,197.752,203.228,1.049,1.21481,203.192,200.956
2013-12-03 21:00,1.20135,280.613,213.031,223.283,210.625,208.026,209.42,1.09125,1.36591,211.135,211.906
2013-12-03 22:00,-0.0,227.984,217.685,224.908,215.26,213.016,212.827,-0.0321188,-0.0382969,212.287,214.787
2013-12-03 23:00,-0.00464683,246.775,229.97,230.743,225.919,221.283,216.859,-0.0,-0.0,215.873,222.743
2013-12-04 00:00,-0.00261568,239.711,229.072,230.207,225.919,222.462,219.172,-0.0,-0.0,215.593,223.377
2013-12-04 01:00,-0.0019376,230.231,220.75,225.504,218.13,215.356,215.074,-0.0,-0.0,214.145,217.918
2013-12-04 02:00,-0.0,265.095,247.15,239.721,243.895,238.515,227.77,-0.0,-0.0,218.642,229.314
2013-12-04 03:00,-0.00153752,233.989,217.285,224.507,214.89,212.673,211.57,-0.0,-0.0,210.624,212.8
2013-12-04 04:00,-0.0,218.393,214.79,223.694,213.763,212.673,213.035,-0.0,-0.0,213.234,213.952
2013-12-04 05:00,-0.0,237.078,225.937,228.004,224.384,223.332,220.86,-0.0,-0.0,219.744,222.743
2013-12-04 06:00,-0.0,247.601,240.277,235.173,239.669,238.747,233.026,-0.0,-0.0,226.122,233.304
2013-12-04 07:00,-0.0,281.526,278.101,257.12,277.377,271.283,251.422,-0.0,-0.0,226.592,246.483
2013-12-04 08:00,-0.00648616,284.087,280.669,258.691,280.785,275.861,253.753,-0.0,-0.0,227.87,248.025
2013-12-04 09:00,1.30213,282.753,278.968,257.685,280.201,276.631,256.285,0.907953,1.28881,227.329,249.198
2013-12-04 10:00,0.438762,289.647,283.495,260.119,284.361,280.554,257.282,0.235759,0.502585,227.238,248.987
2013-12-04 11:00,0.36155,293.24,285.208,260.769,285.895,282.175,257.53,0.168965,0.398189,227.959,249.198
2013-12-04 12:00,0.327128,294.602,283.726,259.793,283.938,279.361,255.658,0.145628,0.348981,227.147,247.59
2013-12-04 13:00,0.286129,299.765,290.229,264.133,291.423,287.048,0.0,0.109485,0.295808,228.835,250.748
2013-12-04 14:00,0.252889,297.248,284.642,260.228,284.501,279.661,255.027,0.108612,0.270107,226.963,246.818
2013-12-04 15:00,0.243735,291.065,271.437,252.168,269.515,264.279,244.512,0.138562,0.278873,223.952,239.789
2013-12-04 16:00,0.260204,286.271,264.175,248.252,261.971,257.301,240.354,0.196496,0.312389,223.434,237.748
2013-12-04 17:00,0.278382,282.923,260.854,246.265,258.304,254.855,240.938,0.248504,0.352258,223.013,237.185
2013-12-04 18:00,0.331528,279.473,253.595,242.369,251.242,247.915,235.691,0.326257,0.440391,222.15,233.773
2013-12-04 19:00,0.474199,281.526,240.514,234.681,236.695,230.17,219.927,0.637407,0.754423,217.096,225.21
2013-12-04 20:00,0.736637,276.376,233.666,231.973,230.853,228.324,223.053,0.790032,0.964029,220.337,225.994
2013-12-04 21:00,1.29203,277.661,217.685,224.908,216.355,215.356,214.062,1.13303,1.42667,215.167,215.867
2013-12-04 22:00,-0.0,225.382,216.471,224.102,215.26,213.694,214.062,-0.0347641,-0.0414509,213.845,215.061
2013-12-04 23:00,0.00469091,232.213,224.279,226.674,222.162,220.685,220.302,-0.0,-0.0,216.695,219.843
2013-12-05 00:00,-0.0,271.261,256.992,244.349,255.244,250.357,236.613,-0.0,-0.0,223.329,235.74
2013-12-05 01:00,-0.0,232.213,224.616,227.628,221.511,220.685,219.739,-0.0,-0.0,213.541,216.392
2013-12-05 02:00,0.00165016,222.276,218.082,224.102,215.993,215.356,215.474,-0.0,-0.0,212.287,213.092
2013-12-05 03:00,-0.0,262.475,244.16,237.101,239.426,235.193,226.574,-0.0,-0.0,219.624,227.694
2013-12-05 04:00,-0.00156037,276.594,266.145,249.924,263.393,256.742,239.765,-0.0,-0.0,227.329,241.475
2013-12-05 05:00,0.00171912,284.57,280.789,258.913,281.655,278.156,255.784,-0.0,-0.0,233.085,251.152
2013-12-05 06:00,-0.00210237,285.357,283.032,260.337,284.079,280.554,257.282,-0.0,-0.0,234.113,252.828
2013-12-05 07:00,-0.0,285.818,284.414,260.984,286.31,283.339,259.492,-0.0,-0.0,234.185,253.5
2013-12-05 08:00,-0.00646824,285.818,284.3,261.091,286.033,283.194,259.856,-0.0,-0.0,234.543,254.068
2013-12-05 09:00,0.570787,285.818,283.38,260.228,285.201,282.758,259.005,0.483284,0.759593,234.041,252.731
2013-12-05 10:00,0.355484,290.301,286.772,262.049,288.493,285.635,260.461,0.197075,0.427241,236.341,254.722
2013-12-05 11:00,0.383354,296.427,290.545,264.95,291.686,287.469,261.421,0.161297,0.417885,237.203,255.091
2013-12-05 12:00,0.349444,300.042,293.031,266.159,294.661,290.238,262.61,0.128641,0.356193,238.42,256.628
2013-12-05 13:00,0.298716,302.341,295.541,267.74,297.184,293.483,264.837,0.100236,0.300182,240.193,258.114
2013-12-05 14:00,0.263967,303.836,297.01,268.615,299.164,295.602,265.532,0.0838126,0.261555,240.899,259.135
2013-12-05 15:00,0.237917,304.478,297.107,268.711,298.918,294.944,266.108,0.073699,0.23199,242.655,260.052
2013-12-05 16:00,0.237823,304.319,295.738,267.838,297.309,293.216,264.953,0.0872908,0.231817,242.544,259.554
2013-12-05 17:00,0.237845,303.015,293.539,266.557,294.021,288.861,261.301,0.0937656,0.233766,240.665,257.855
2013-12-05 18:00,0.233726,302.511,294.646,267.642,295.424,289.964,262.017,0.0848125,0.238892,239.043,257.158
2013-12-05 19:00,0.242915,300.858,295.045,267.642,296.684,292.545,264.488,0.0981633,0.261957,240.134,258.457
2013-12-05 20:00,0.279717,298.63,293.336,267.052,294.916,291.464,264.138,0.144861,0.315291,241.015,258.628
2013-12-05 21:00,0.39941,297.749,291.487,265.658,292.86,289.276,262.728,0.304362,0.449311,241.647,258.628
2013-12-05 22:00,-0.447137,292.174,289.911,264.645,292.209,289.276,263.787,-0.227154,-0.40627,240.253,258.2
2013-12-05 23:00,-0.0,290.041,288.412,263.618,290.234,287.609,262.965,-0.0,-0.0,240.665,258.798
2013-12-06 00:00,-0.0,290.041,288.951,264.133,291.029,288.584,263.905,-0.0,-0.0,240.724,258.798
2013-12-06 01:00,-0.00195092,289.514,288.628,263.515,290.897,288.722,263.318,-0.0,-0.0,241.361,259.051
2013-12-06 02:00,-0.0,284.57,278.845,258.022,279.17,275.396,253.753,-0.0,-0.0,236.675,251.552
2013-12-06 03:00,0.00154323,285.045,279.702,258.58,280.054,275.861,254.264,-0.0,-0.0,236.94,252.244
2013-12-06 04:00,-0.00156237,279.278,273.732,255.043,274.778,270.798,252.594,-0.0,-0.0,238.42,253.021
2013-12-06 05:00,-0.0,286.569,281.86,260.011,282.374,278.609,255.784,-0.0,-0.0,238.357,253.785
2013-12-06 06:00,-0.0,280.427,274.655,255.51,275.55,271.605,251.159,-0.0,-0.0,236.94,251.552
2013-12-06 07:00,0.00302839,282.059,274.785,255.16,274.933,271.283,250.369,-0.0,-0.0,235.662,250.135
2013-12-06 08:00,-0.00644774,282.234,276.845,256.089,277.528,274.617,253.625,-0.0,-0.0,234.543,250.135
2013-12-06 09:00,0.290538,283.261,277.977,257.12,279.022,274.46,252.982,0.380178,0.453305,236.274,251.949
2013-12-06 10:00,0.44159,290.558,279.091,258.134,279.907,275.085,254.264,0.312776,0.475818,236.675,252.342
2013-12-06 11:00,0.395851,295.902,287.541,262.995,288.087,283.773,258.882,0.169578,0.413908,237.006,253.5
2013-12-06 12:00,0.34817,299.203,287.432,262.681,286.997,281.293,256.41,0.144535,0.354911,235.386,251.652
2013-12-06 13:00,0.311331,299.485,284.185,261.305,283.088,277.396,254.392,0.163294,0.318479,234.615,249.928
2013-12-06 14:00,0.306841,296.635,279.58,258.134,278.576,273.2,251.028,0.225645,0.340629,234.401,248.775
2013-12-06 15:00,0.29361,293.93,274.785,255.043,274.623,269.165,248.499,0.300677,0.392489,236.071,249.093
2013-12-06 16:00,0.256449,273.338,243.94,237.415,241.815,237.815,228.782,0.462031,0.535533,222.368,230.354
2013-12-06 17:00,0.34574,269.576,207.704,220.517,205.497,203.757,206.743,0.653602,0.737436,205.015,205.868
2013-12-06 18:00,0.375387,270.713,199.463,217.576,196.503,195.891,199.751,0.575547,0.662841,198.438,198.106
2013-12-06 19:00,0.488221,278.075,204.988,220.736,199.715,197.752,201.763,0.582767,0.655949,200.945,201.402
2013-12-06 20:00,0.862339,284.57,200.125,218.957,0.0,196.363,200.006,0.888072,1.04797,202.713,200.502
2013-12-06 21:00,1.43391,288.705,207.178,221.386,203.652,201.694,203.708,1.18541,1.47611,207.105,206.606
2013-12-06 22:00,-0.0,213.142,204.418,219.409,200.733,199.981,202.743,-0.0415255,-0.0495128,203.662,202.696
2013-12-06 23:00,-0.0,204.719,202.646,218.502,201.233,200.845,203.228,-0.0,-0.0,203.894,203.524
2013-12-07 00:00,-0.0,218.393,198.095,216.869,195.943,194.933,199.495,-0.0,-0.0,199.589,197.598
2013-12-07 01:00,-0.0,213.142,203.247,218.73,201.728,200.845,203.947,-0.0,-0.0,202.713,202.271
2013-12-07 02:00,-0.0,218.393,212.119,222.238,210.218,209.133,209.638,-0.0,-0.0,209.748,211.295
2013-12-07 03:00,-0.0,225.382,217.285,224.708,215.26,214.03,213.035,-0.0,-0.0,213.845,215.061
2013-12-07 04:00,-0.00156422,230.231,224.279,227.817,222.806,220.685,219.172,-0.0,-0.0,216.963,221.878
2013-12-07 05:00,-0.0,232.213,226.902,228.934,225.615,223.619,220.675,-0.0,-0.0,218.642,223.586
2013-12-07 06:00,-0.00210292,237.078,228.463,229.301,227.118,224.474,220.675,-0.0,-0.0,217.491,223.999
2013-12-07 07:00,-0.0,265.446,256.992,244.488,257.361,253.316,240.354,-0.0,-0.0,225.156,240.053
2013-12-07 08:00,-0.0,250.598,245.676,237.884,246.355,244.544,235.382,-0.0,-0.0,224.76,237.468
2013-12-07 09:00,0.808191,254.396,242.824,235.985,242.283,240.123,230.931,0.866773,1.08789,223.642,233.928
2013-12-07 10:00,0.707357,280.613,259.039,246.265,261.611,260.584,248.229,0.656645,0.752837,228.575,247.04
2013-12-07 11:00,0.396632,290.685,283.38,259.793,283.938,280.702,258.638,0.217888,0.44571,230.674,249.408
2013-12-07 12:00,0.38245,296.008,286.439,261.625,287.543,283.629,259.37,0.189133,0.391231,231.076,251.949
2013-12-07 13:00,0.285374,294.713,284.414,260.661,284.641,279.661,256.035,0.126066,0.313154,230.018,249.617
2013-12-07 14:00,0.244581,294.38,282.448,259.464,281.655,276.477,253.625,0.102508,0.266673,227.87,247.261
2013-12-07 15:00,0.232094,284.087,261.501,247.067,258.116,252.341,238.278,0.167036,0.288204,222.799,236.614
2013-12-07 16:00,0.395616,278.883,245.89,238.503,245.914,243.024,233.185,0.425151,0.504565,223.849,235.887
2013-12-07 17:00,0.400675,266.466,241.218,235.173,239.426,237.815,231.905,0.556201,0.62768,223.952,233.461
2013-12-07 18:00,0.49633,284.249,246.733,238.81,246.135,242.143,231.419,0.529284,0.638396,224.86,236.325
2013-12-07 19:00,0.410054,283.261,254.69,243.368,251.652,246.876,234.134,0.365792,0.487898,222.476,234.845
2013-12-07 20:00,0.621612,278.684,239.074,234.845,234.633,231.203,225.883,0.590114,0.741655,218.891,225.994
2013-12-07 21:00,0.608915,282.923,266.59,250.303,266.167,262.361,246.182,0.548678,0.665494,229.093,246.707
2013-12-07 22:00,-0.0,218.393,216.471,224.102,216.355,215.356,215.274,-0.137801,-0.109538,214.879,216.392
2013-12-07 23:00,-0.0,230.231,226.583,228.564,225.919,225.038,222.873,-0.0,-0.0,220.454,223.999
2013-12-08 00:00,0.00266869,233.989,228.155,229.484,227.414,225.874,222.873,-0.0,-0.0,219.503,224.408
2013-12-08 01:00,-0.0,247.601,234.208,232.319,231.683,229.385,224.657,-0.0,-0.0,220.916,226.187
2013-12-08 02:00,-0.0,249.89,241.451,235.662,239.669,237.815,232.547,-0.0,-0.0,224.054,232.022
2013-12-08 03:00,-0.0,262.869,253.411,241.936,252.262,250.357,240.5,-0.0,-0.0,227.147,238.714
2013-12-08 04:00,-0.00156592,280.427,275.306,255.742,273.843,269.165,251.553,-0.0,-0.0,227.78,246.032
2013-12-08 05:00,-0.0,279.667,273.865,254.572,273.372,268.007,249.171,-0.0,0.00173902,228.048,245.575
2013-12-08 06:00,-0.00210274,270.434,266.738,250.555,267.185,265.309,250.104,-0.0,-0.0,228.048,245.46
2013-12-08 07:00,-0.0,267.761,267.033,250.806,268.358,266.835,252.075,-0.0,-0.0,227.87,247.59
2013-12-08 08:00,-0.0,254.396,247.563,239.115,247.012,245.399,237.07,-0.0,-0.0,224.959,236.033
2013-12-08 09:00,0.853491,265.791,260.854,246.667,261.611,260.405,247.415,0.815895,1.11181,228.312,244.175
2013-12-08 10:00,0.406348,290.429,285.433,261.305,286.86,283.629,260.461,0.22454,0.470687,230.184,251.552
2013-12-08 11:00,0.447137,292.771,276.718,255.974,275.703,271.765,253.881,0.262409,0.472907,227.691,247.261
2013-12-08 12:00,0.367699,297.349,287.76,262.681,288.493,285.065,260.822,0.185076,0.366082,229.935,252.146
2013-12-08 13:00,0.357345,299.203,287.541,262.995,288.897,285.208,261.66,0.206771,0.35519,231.076,253.021
2013-12-08 14:00,0.398816,299.391,274.524,254.808,277.377,275.24,256.285,0.287957,0.386572,232.935,253.405
2013-12-08 15:00,0.306355,299.858,280.789,258.469,282.517,278.609,258.023,0.203385,0.311626,232.86,253.309
2013-12-08 16:00,0.271424,291.931,280.429,258.246,281.943,278.911,258.27,0.243682,0.341342,233.823,253.213
2013-12-08 17:00,0.274809,291.315,277.476,256.434,277.978,274.147,254.264,0.263492,0.357246,230.835,250.544
2013-12-08 18:00,0.254266,294.156,277.977,256.664,277.075,272.086,252.075,0.157795,0.285867,227.87,246.371
2013-12-08 19:00,0.259266,298.436,289.379,264.133,289.701,285.35,260.098,0.129857,0.285707,231.473,252.047
2013-12-08 20:00,0.283955,294.043,282.799,259.902,282.803,278.911,256.66,0.263105,0.327236,230.43,250.032
2013-12-08 21:00,0.519728,280.427,265.846,249.924,265.482,263.412,248.768,0.528999,0.602842,228.048,245.69
2013-12-08 22:00,0.0606218,222.276,215.218,223.489,213.381,213.356,215.274,-0.102657,-0.122403,211.47,212.505
2013-12-08 23:00,-0.0,246.775,234.745,232.663,231.131,228.856,224.126,-0.0,-0.0,218.391,226.187
2013-12-09 00:00,-0.0,232.213,224.616,227.628,223.443,222.169,221.23,-0.0,-0.0,217.491,220.763
2013-12-09 01:00,0.00196997,246.775,242.597,236.306,241.815,240.35,233.185,-0.0,0.0019888,225.739,236.179
2013-12-09 02:00,-0.00166565,243.066,236.576,233.344,235.93,233.722,227.94,-0.0,-0.0,222.799,230.354
2013-12-09 03:00,-0.0,256.589,249.185,240.766,246.794,244.758,237.07,-0.0,-0.0,222.585,234.845
2013-12-09 04:00,-0.0,269.283,265.995,249.797,268.191,265.82,250.896,-0.0,-0.0,230.43,248.025
2013-12-09 05:00,-0.0,275.48,265.696,250.051,263.217,259.864,245.211,-0.0,-0.0,224.258,240.576
2013-12-09 06:00,-0.00210225,277.451,266.293,250.555,261.431,254.472,238.876,-0.0,0.00212235,222.692,238.165
2013-12-09 07:00,-0.0,271.531,256.469,245.314,250.207,241.698,229.116,-0.0,-0.0,219.863,233.617
2013-12-09 08:00,0.00637144,258.576,239.559,236.146,232.502,226.974,221.046,-0.0,-0.0,215.734,223.377
2013-12-09 09:00,0.789485,262.475,238.83,233.849,234.633,229.647,222.692,0.763949,1.08169,218.767,226.187
2013-12-09 10:00,0.403685,273.586,252.853,241.646,249.579,245.186,233.819,0.385434,0.567961,224.156,234.996
2013-12-09 11:00,0.339045,288.841,278.474,257.12,278.427,273.675,251.814,0.178665,0.406914,230.916,248.987
2013-12-09 12:00,0.317296,294.602,285.658,261.519,285.895,280.998,257.034,0.130735,0.347737,231.315,251.552
2013-12-09 13:00,0.281693,297.749,288.087,262.89,288.358,283.773,259.856,0.113409,0.299721,233.234,252.828
2013-12-09 14:00,0.261901,298.918,289.486,263.411,289.835,285.35,260.461,0.104658,0.264405,234.041,253.595
2013-12-09 15:00,0.268055,292.771,283.611,259.902,284.921,282.175,259.977,0.233839,0.33505,234.257,253.595
2013-12-09 16:00,0.202307,274.314,266.442,249.414,267.69,266.667,252.853,0.495066,0.558416,234.185,251.352
2013-12-09 17:00,0.198075,264.739,250.566,240.021,247.878,247.293,240.646,0.322682,0.406265,224.258,236.325
2013-12-09 18:00,0.405305,264.009,223.252,226.674,222.806,222.753,220.115,0.522695,0.650901,219.26,220.075
2013-12-09 19:00,0.482581,275.707,245.676,237.572,244.575,241.027,231.905,0.525784,0.680233,224.959,233.146
2013-12-09 20:00,0.981394,287.587,234.477,231.799,233.842,230.429,222.511,1.18771,1.41078,224.054,230.183
2013-12-09 21:00,1.17674,275.48,230.265,230.387,229.729,226.974,223.592,1.08903,1.38138,220.916,225.604
2013-12-09 22:00,-0.0685909,227.984,218.082,224.708,215.993,214.697,214.872,-0.174227,-0.20774,213.078,215.867
2013-12-09 23:00,-0.0,230.231,220.379,226.092,217.78,215.027,214.671,-0.0,-0.0,213.693,216.909
2013-12-10 00:00,0.00269443,242.013,219.247,226.092,213.763,209.859,209.638,-0.0,-0.0,207.304,211.602
2013-12-10 01:00,-0.0,235.601,216.058,224.305,212.219,207.651,207.423,-0.0,-0.00199493,209.388,211.602
2013-12-10 02:00,-0.0,232.213,221.841,226.866,218.13,214.03,212.411,-0.0,-0.0,213.234,217.669
2013-12-10 03:00,-0.0,232.213,229.673,230.387,227.708,225.038,221.415,-0.0,-0.0,219.744,225.604
2013-12-10 04:00,-0.0,233.989,230.559,230.207,229.729,226.974,224.481,-0.0,-0.0,221.819,228.06
2013-12-10 05:00,-0.00172383,222.276,217.685,224.908,216.355,215.356,214.468,-0.0,-0.0,214.588,216.652
2013-12-10 06:00,-0.0,242.013,227.845,229.665,226.82,223.905,220.489,-0.0,-0.0,217.752,223.167
2013-12-10 07:00,-0.0,239.711,228.155,228.934,226.221,223.905,220.115,-0.0,-0.0,217.881,222.529
2013-12-10 08:00,-0.00634136,232.213,227.845,228.934,226.522,225.318,223.233,-0.0,-0.0,219.624,224.204
2013-12-10 09:00,0.636665,248.394,237.086,232.834,236.695,235.677,230.276,0.759589,0.993343,223.434,231.031
2013-12-10 10:00,0.327768,254.966,240.039,234.515,238.938,237.109,231.094,0.507571,0.605201,223.642,232.347
2013-12-10 11:00,0.323181,274.551,252.479,241.061,249.998,245.186,233.344,0.321926,0.434228,222.906,233.146
2013-12-10 12:00,0.290558,255.521,228.463,228.934,226.522,224.474,222.511,0.418657,0.507762,218.642,222.096
2013-12-10 13:00,0.34689,267.444,239.317,234.515,237.451,233.969,227.601,0.410727,0.475777,221.596,228.603
2013-12-10 14:00,0.340365,282.923,253.963,243.368,250.623,244.973,233.185,0.304772,0.384408,220.337,232.022
2013-12-10 15:00,0.32027,278.075,243.94,237.884,239.911,234.216,224.481,0.310472,0.398307,218.009,225.994
2013-12-10 16:00,0.268843,254.966,213.479,223.076,210.625,211.983,213.857,0.535422,0.612449,208.084,208.371
2013-12-10 17:00,0.351937,260.827,212.119,223.076,211.428,209.497,209.856,0.622481,0.711868,210.966,211.295
2013-12-10 18:00,0.442095,267.761,210.224,221.386,208.977,208.397,207.648,0.835211,0.947887,209.748,208.711
2013-12-10 19:00,0.624822,274.787,200.125,217.809,199.715,198.656,201.016,0.990403,1.11856,202.469,200.956
2013-12-10 20:00,0.992972,282.923,209.734,221.814,207.269,205.74,206.056,1.10601,1.30535,209.388,209.707
2013-12-10 21:00,1.34932,288.841,197.389,217.106,195.943,194.446,199.237,1.25258,1.49899,201.72,198.106
2013-12-10 22:00,-0.0788331,204.719,200.774,217.809,199.715,199.981,202.255,-0.200243,-0.23876,201.973,200.956
2013-12-10 23:00,-0.00496062,204.719,199.463,217.106,198.14,197.294,201.266,-0.0,-0.0,200.142,199.092
2013-12-11 00:00,-0.00270705,218.393,210.224,221.17,208.977,208.026,208.982,-0.0,-0.0,209.388,210.032
2013-12-11 01:00,-0.00198196,225.382,221.117,226.092,220.184,218.857,218.41,-0.0,-0.0,216.287,219.608
2013-12-11 02:00,-0.0,227.984,228.155,228.934,226.82,225.318,222.329,-0.0,0.00168858,220.916,225.408
2013-12-11 03:00,-0.00155515,246.775,236.318,233.175,234.371,232.221,226.746,-0.0,-0.0,219.624,228.96
2013-12-11 04:00,-0.00157004,245.913,231.713,230.921,228.871,226.701,222.511,-0.0,-0.0,216.15,223.377
2013-12-11 05:00,-0.0,259.045,250.175,240.766,248.307,246.246,237.222,-0.0,-0.0,225.931,237.043
2013-12-11 06:00,-0.0,213.142,209.237,220.517,207.702,206.895,210.073,-0.0,-0.0,206.292,206.606
2013-12-11 07:00,-0.0,227.984,223.252,226.287,220.519,219.472,220.115,-0.0,-0.0,215.452,219.134
2013-12-11 08:00,-0.0,213.142,214.358,222.027,213.381,212.673,213.653,-0.0,-0.0,212.287,213.092
2013-12-11 09:00,0.744291,237.078,215.218,223.283,214.141,213.016,213.241,1.05872,1.41264,212.607,214.233
2013-12-11 10:00,0.346559,252.585,221.481,225.504,220.184,218.857,216.663,0.616205,0.699744,217.229,220.535
2013-12-11 11:00,0.314419,252.585,229.072,229.301,228.293,226.974,224.657,0.68773,0.7623,221.708,226.57
2013-12-11 12:00,0.273967,265.446,243.719,236.784,245.024,242.143,232.707,0.38325,0.479301,228.136,236.9
2013-12-11 13:00,0.349963,290.301,271.711,253.381,272.264,269.494,253.368,0.333791,0.427321,233.75,248.562
2013-12-11 14:00,0.324585,277.026,259.706,246.13,261.25,260.045,248.364,0.368163,0.447634,0.0,0.0
2013-12-11 15:00,0.366684,277.661,257.166,244.21,259.051,258.774,248.499,0.432301,0.492024,232.935,247.04
2013-12-11 16:00,0.289754,274.787,254.871,242.656,256.598,255.235,243.949,0.355141,0.437606,235.317,247.59
2013-12-11 17:00,0.346598,280.239,260.854,246.399,261.971,261.299,249.438,0.403645,0.485076,236.207,248.987
2013-12-11 18:00,0.588036,293.93,263.712,248.642,266.338,265.99,253.497,0.611101,0.689455,236.274,250.032
2013-12-11 19:00,0.684808,300.042,269.626,252.168,271.785,269.494,254.009,0.578292,0.720618,236.475,250.748
2013-12-11 20:00,0.481089,280.05,265.696,249.669,266.167,265.138,252.464,0.624435,0.731201,236.808,250.135
2013-12-11 21:00,0.160986,289.381,283.956,261.091,285.618,281.882,259.492,0.199916,0.205865,237.657,251.949
2013-12-11 22:00,-2.12674,285.512,280.669,258.802,282.087,278.156,256.535,-0.782915,-1.40026,236.475,251.352
2013-12-11 23:00,-0.0,273.088,268.487,251.552,270.169,268.007,252.853,-0.0,-0.0,235.247,250.135
2013-12-12 00:00,-0.00271948,264.009,259.039,245.995,261.069,259.864,249.572,-0.0,-0.0,234.401,248.455
2013-12-12 01:00,-0.0,273.586,266.442,250.555,268.191,264.967,251.159,-0.0,-0.0,234.185,249.093
2013-12-12 02:00,-0.00167584,283.594,278.968,257.798,280.785,276.631,256.285,-0.0,-0.0,234.897,251.152
2013-12-12 03:00,0.0015571,268.382,259.373,246.533,258.678,255.614,243.949,-0.0,-0.0,230.593,244.412
2013-12-12 04:00,-0.00157109,257.605,252.479,242.513,253.469,252.144,242.814,-0.0,-0.0,232.405,245.69
2013-12-12 05:00,-0.0,262.074,255.764,243.79,256.598,254.664,244.09,-0.0,-0.0,232.709,246.595
2013-12-12 06:00,-0.0,266.131,264.021,249.029,265.997,264.795,251.159,-0.0,-0.0,234.968,250.544
2013-12-12 07:00,-0.00300324,276.811,271.711,253.02,274.0,270.473,253.111,-0.0,-0.0,233.01,251.452
2013-12-12 08:00,-0.0,283.428,280.789,258.469,282.517,279.511,258.023,-0.0,-0.0,232.784,252.047
2013-12-12 09:00,0.368449,285.202,282.682,259.464,284.781,282.028,258.76,0.545939,0.588954,233.456,252.925
2013-12-12 10:00,0.43958,290.429,285.77,261.305,287.679,285.35,261.54,0.287435,0.496509,234.615,253.88
2013-12-12 11:00,0.379665,295.26,290.017,263.618,291.423,288.306,263.083,0.155676,0.424275,234.827,255.091
2013-12-12 12:00,0.391974,292.294,279.336,257.346,279.17,276.631,257.158,0.328998,0.461101,230.835,249.513
2013-12-12 13:00,0.431968,296.219,283.841,259.793,285.479,283.339,260.942,0.406776,0.514371,235.867,256.091
2013-12-12 14:00,0.383545,293.702,278.721,256.892,280.201,278.156,258.515,0.321634,0.435458,235.108,254.999
2013-12-12 15:00,0.26225,295.26,285.433,260.769,286.722,284.349,260.942,0.202396,0.303416,236.874,256.091
2013-12-12 16:00,0.210212,297.947,290.017,263.307,290.764,287.469,262.965,0.106792,0.242876,237.849,256.894
2013-12-12 17:00,0.230013,295.368,287.432,261.838,288.763,286.06,262.136,0.188401,0.292789,238.483,257.333
2013-12-12 18:00,0.162205,290.939,284.414,259.793,286.172,283.339,259.249,0.158,0.239112,236.004,255.821
2013-12-12 19:00,0.25479,298.436,290.86,264.133,290.764,287.329,262.492,0.15606,0.304657,237.268,255.457
2013-12-12 20:00,0.610592,286.864,258.703,245.04,256.98,253.51,239.025,0.813363,0.951213,230.835,243.577
2013-12-12 21:00,0.940746,271.531,198.095,216.392,195.375,194.933,199.751,0.922532,1.11608,197.838,198.603
2013-12-12 22:00,-0.111488,213.142,205.549,220.077,204.12,201.694,204.422,-0.377586,-0.450214,205.233,205.868
2013-12-12 23:00,-0.0,225.382,212.578,222.868,210.625,209.497,210.289,-0.0,-0.0,209.388,210.353
2013-12-13 00:00,-0.0,218.393,213.479,222.868,211.825,208.766,209.201,-0.0,-0.0,210.796,212.505
2013-12-13 01:00,-0.0,225.382,218.862,224.507,217.427,216.008,213.447,-0.0,-0.0,216.15,218.653
2013-12-13 02:00,-0.00167893,213.142,206.1,219.183,205.946,204.559,206.743,-0.0,-0.0,206.084,205.868
2013-12-13 03:00,-0.0,233.989,222.198,225.504,222.485,218.547,215.274,-0.0,-0.0,217.096,222.096
2013-12-13 04:00,-0.0,243.066,230.559,231.274,226.82,222.169,218.218,-0.0,-0.0,217.491,224.811
2013-12-13 05:00,-0.0,249.156,239.559,235.01,237.702,234.706,227.601,-0.0,-0.0,221.596,232.669
2013-12-13 06:00,-0.00209726,240.898,231.427,231.098,229.444,226.151,221.965,-0.0,-0.0,217.752,225.604
2013-12-13 07:00,-0.0,245.913,237.841,234.183,236.695,233.969,228.109,-0.0,-0.0,222.368,231.859
2013-12-13 08:00,-0.0,247.601,240.039,234.515,239.426,237.581,230.44,-0.0,-0.0,225.058,234.694
2013-12-13 09:00,0.793754,262.475,248.985,240.766,248.733,245.612,236.0,0.806484,1.05777,227.51,240.053
2013-12-13 10:00,0.42424,268.073,245.676,238.195,243.895,239.438,229.283,0.466594,0.574005,224.661,235.887
2013-12-13 11:00,0.452452,261.251,228.155,228.934,225.615,223.043,219.551,0.602,0.688792,218.137,224.204
2013-12-13 12:00,0.409656,265.791,233.666,231.274,231.957,229.385,224.304,0.527508,0.610018,221.93,229.489
2013-12-13 13:00,0.365854,263.255,222.904,227.248,220.519,218.235,216.071,0.524494,0.597398,214.293,218.653
2013-12-13 14:00,0.331003,270.989,246.313,238.657,245.248,241.921,232.867,0.492011,0.558182,224.959,236.9
2013-12-13 15:00,0.39918,272.322,242.824,237.258,241.344,239.438,231.743,0.48438,0.548262,223.746,234.236
2013-12-13 16:00,0.382886,280.799,248.985,240.171,248.093,244.328,234.291,0.399306,0.479647,227.691,240.316
2013-12-13 17:00,0.312222,287.155,269.343,250.931,268.524,264.967,248.094,0.288679,0.385813,231.865,247.151
2013-12-13 18:00,0.182011,286.121,272.796,253.261,271.142,267.004,249.037,0.162603,0.244519,230.101,245.575
2013-12-13 19:00,0.277573,284.41,268.054,250.681,266.167,262.537,245.489,0.279277,0.376667,227.42,242.848
2013-12-13 20:00,0.615829,290.429,259.54,245.723,256.789,250.156,234.604,0.514765,0.740768,225.352,238.303
2013-12-13 21:00,0.558109,294.38,278.598,257.459,278.873,272.565,250.633,0.463634,0.605968,229.769,249.303
2013-12-13 22:00,-0.139836,268.986,252.101,241.936,247.662,242.585,231.581,-0.473596,-0.564692,219.137,231.364
2013-12-13 23:00,0.0050965,262.475,244.815,238.04,239.426,233.969,225.535,-0.0,-0.0,216.15,227.136
2013-12-14 00:00,-0.0,271.261,255.409,243.79,251.856,245.399,232.227,-0.0,0.00276993,221.596,234.542
2013-12-14 01:00,-0.0,254.396,233.392,231.625,231.408,226.151,219.362,-0.0,-0.0,216.83,224.61
2013-12-14 02:00,-0.0,261.666,242.142,235.499,239.669,235.435,226.402,-0.0,-0.0,219.014,228.242
2013-12-14 03:00,-0.00156054,267.444,253.595,242.513,252.868,247.708,234.134,-0.0,-0.0,224.86,238.165
2013-12-14 04:00,-0.0,240.898,233.938,231.973,232.502,231.459,226.746,-0.0,-0.0,222.15,227.323
2013-12-14 05:00,-0.0,232.213,228.463,229.484,227.708,226.426,223.592,-0.0,-0.0,220.337,224.61
2013-12-14 06:00,-0.0,254.396,241.218,235.499,238.938,235.677,228.614,-0.0,-0.0,221.031,230.183
2013-12-14 07:00,-0.0,258.576,243.719,236.784,241.58,238.049,230.276,-0.0,0.0030188,221.371,230.863
2013-12-14 08:00,-0.00620035,239.711,233.666,231.625,233.041,231.459,227.601,-0.0,-0.0,223.224,228.423
2013-12-14 09:00,0.658527,253.206,246.733,237.884,245.024,243.896,238.278,0.808482,1.03047,225.254,235.146
2013-12-14 10:00,0.356076,260.827,245.248,236.466,244.575,242.143,233.976,0.502481,0.647951,225.546,234.845
2013-12-14 11:00,0.345637,275.48,259.54,245.587,258.678,255.803,242.671,0.30078,0.472525,226.592,239.255
2013-12-14 12:00,0.300898,292.053,279.823,257.91,279.022,274.147,252.335,0.163574,0.345198,227.78,246.145
2013-12-14 13:00,0.402272,284.57,265.696,249.029,264.792,261.121,245.072,0.412248,0.470537,225.352,240.576
2013-12-14 14:00,0.331156,285.045,273.599,253.86,274.933,271.926,252.594,0.397737,0.46805,228.312,247.699
2013-12-14 15:00,0.292427,288.152,271.984,253.14,272.582,268.173,250.104,0.282969,0.360828,227.78,245.918
2013-12-14 16:00,0.257869,294.713,281.148,258.134,281.221,277.091,256.285,0.188699,0.312165,229.433,248.987
2013-12-14 17:00,0.293212,291.065,277.601,255.393,278.576,274.46,252.853,0.323269,0.427017,231.394,250.646
2013-12-14 18:00,0.347705,288.841,270.189,251.922,270.981,268.007,251.291,0.312574,0.421812,229.852,246.929
2013-12-14 19:00,0.382945,298.533,281.86,259.354,283.088,280.257,259.37,0.302927,0.399311,233.968,253.5
2013-12-14 20:00,0.31313,292.889,276.463,256.32,274.778,269.657,250.765,0.256289,0.342467,230.266,246.483
2013-12-14 21:00,0.991203,282.234,237.841,234.515,232.772,228.59,221.965,0.803913,1.02175,216.695,224.408
2013-12-14 22:00,-0.0,248.394,231.14,230.921,227.118,223.905,219.927,-0.631751,-0.753268,216.56,222.313
2013-12-14 23:00,-0.0,239.711,227.219,229.301,224.694,222.169,220.489,-0.0,-0.0,217.491,221.658
2013-12-15 00:00,-0.0,232.213,218.474,224.908,217.072,215.027,213.653,-0.0,-0.00278179,214.441,216.652
2013-12-15 01:00,0.0020039,239.711,226.583,228.564,224.384,222.462,220.115,-0.0,-0.0,217.36,220.989
2013-12-15 02:00,-0.0,237.078,228.463,229.118,226.82,225.038,222.692,-0.0,-0.0,218.517,223.377
2013-12-15 03:00,-0.0,218.393,202.646,218.272,201.728,201.694,203.228,-0.0,-0.0,201.465,201.84
2013-12-15 04:00,-0.00157322,218.393,212.578,222.238,212.219,210.576,210.718,-0.0,0.00158826,211.303,213.092
2013-12-15 05:00,-0.0,275.251,266.738,250.177,264.444,260.942,246.457,-0.0,-0.0,225.931,240.835
2013-12-15 06:00,-0.0,246.775,236.576,232.834,235.672,233.474,227.94,-0.0,-0.0,223.952,230.354
2013-12-15 07:00,-0.0,276.811,271.574,252.534,271.945,268.505,249.572,-0.0,-0.0,228.575,245.575
2013-12-15 08:00,-0.0,274.787,266.442,250.429,264.965,260.225,243.383,-0.0,-0.0,224.76,240.964
2013-12-15 09:00,1.13034,271.261,258.703,244.903,256.789,252.536,238.727,1.16007,1.31405,223.849,237.185
2013-12-15 10:00,0.512656,273.338,255.941,243.79,251.652,247.501,236.307,0.583742,0.611252,222.259,234.845
2013-12-15 11:00,0.575229,280.239,257.166,244.626,254.263,249.955,237.525,0.617468,0.643904,224.359,238.027
2013-12-15 12:00,0.539429,288.841,263.088,248.512,261.431,257.301,240.646,0.519082,0.551501,224.86,240.835
2013-12-15 13:00,0.477649,287.01,261.662,247.332,259.791,254.664,239.322,0.50318,0.528475,225.156,240.446
2013-12-15 14:00,0.411074,290.813,269.343,251.305,269.186,265.138,246.869,0.386498,0.445974,229.093,245.918
2013-12-15 15:00,0.255299,296.84,282.566,259.464,281.655,277.243,254.9,0.145418,0.275313,230.755,250.238
2013-12-15 16:00,0.248427,294.713,278.598,257.233,277.226,272.405,251.291,0.152079,0.270818,229.263,247.808
2013-12-15 17:00,0.238088,295.796,281.148,259.024,279.318,273.675,251.814,0.125597,0.261758,230.266,248.669
2013-12-15 18:00,0.230009,299.391,290.017,264.441,289.968,284.779,259.37,0.0931403,0.24663,234.543,254.999
2013-12-15 19:00,0.224169,297.248,289.805,264.031,290.632,286.767,261.182,0.103253,0.257091,236.542,256.271
2013-12-15 20:00,0.304021,298.242,284.982,261.838,284.361,278.76,254.9,0.198011,0.338407,234.968,254.068
2013-12-15 21:00,0.403259,294.491,285.994,261.519,286.447,282.904,258.515,0.319551,0.448869,235.247,255.091
2013-12-15 22:00,-0.277761,287.587,284.3,260.984,285.34,281.146,257.653,-0.940717,-1.12166,235.038,254.349
2013-12-15 23:00,0.00518637,286.864,283.148,259.793,284.22,281.146,257.282,-0.0,-0.0,234.401,253.88
2013-12-16 00:00,-0.0,288.291,286.882,261.731,289.032,286.485,262.255,-0.0,-0.0,236.94,257.158
2013-12-16 01:00,0.00200892,287.729,286.55,261.625,288.628,286.202,261.421,-0.0,-0.0,235.317,256.716
2013-12-16 02:00,-0.00168725,286.421,283.841,260.228,285.479,282.758,259.735,-0.0,-0.0,234.329,254.907
2013-12-16 03:00,-0.0,285.665,282.214,258.58,283.372,280.257,258.023,-0.0,-0.0,232.175,252.047
2013-12-16 04:00,-0.0,270.434,257.166,245.177,253.469,247.708,233.819,-0.0,-0.0,222.15,236.614
2013-12-16 05:00,-0.0,273.088,258.195,244.903,255.439,250.156,234.291,-0.0,-0.0,221.93,237.608
2013-12-16 06:00,0.00209039,274.787,261.179,245.859,259.791,255.045,238.128,-0.0,-0.0,223.118,240.316
2013-12-16 07:00,-0.0,259.505,244.38,237.101,241.58,238.282,229.283,-0.0,-0.0,221.596,231.031
2013-12-16 08:00,0.00611888,281.346,274.524,254.099,274.156,270.311,249.171,-0.0,-0.0,225.739,246.595
2013-12-16 09:00,0.858107,277.24,265.243,248.771,263.393,259.139,241.519,0.726557,1.08289,223.013,240.964
2013-12-16 10:00,0.386625,274.551,254.871,242.656,252.465,247.708,233.819,0.372507,0.547347,220.219,234.082
2013-12-16 11:00,0.374108,292.414,283.264,259.574,283.656,279.511,256.285,0.18801,0.436165,228.136,248.669
2013-12-16 12:00,0.344792,298.822,290.756,264.339,291.686,287.748,262.136,0.136527,0.368869,229.601,251.85
2013-12-16 13:00,0.303002,302.171,293.944,266.059,295.297,291.329,263.67,0.116507,0.311512,231.076,253.785
2013-12-16 14:00,0.30201,300.679,287.869,262.89,289.032,284.492,259.127,0.169435,0.312334,230.43,251.452
2013-12-16 15:00,0.261108,292.653,274.916,254.454,273.686,268.505,247.142,0.179812,0.292894,226.122,243.937
2013-12-16 16:00,0.275133,289.91,270.049,251.922,268.855,263.933,244.652,0.235916,0.342497,227.055,244.647
2013-12-16 17:00,0.30636,289.779,272.662,253.381,273.215,269.657,251.422,0.358513,0.452618,228.312,248.669
2013-12-16 18:00,0.318083,282.923,256.644,243.509,254.461,249.753,236.307,0.317629,0.424805,222.15,235.592
2013-12-16 19:00,0.364935,289.779,267.326,250.555,264.27,258.408,241.808,0.298387,0.438857,223.118,240.053
2013-12-16 20:00,0.274298,282.408,270.189,252.412,269.679,267.84,252.205,0.354944,0.39448,231.787,248.669
2013-12-16 21:00,0.75843,279.278,250.76,240.617,247.446,244.544,234.134,0.68555,0.843283,223.224,235.592
2013-12-16 22:00,-1.06929,213.142,202.034,218.041,201.233,200.415,203.947,-2.26342,-2.15903,201.973,201.402
2013-12-16 23:00,-0.00523089,222.276,216.88,224.102,214.141,211.983,212.619,-0.0,-0.0,212.607,214.787
2013-12-17 00:00,-0.0,222.276,214.358,223.076,212.997,211.635,213.035,-0.0,-0.0,211.636,212.8
2013-12-17 01:00,0.00201373,245.913,230.265,229.847,228.001,225.597,222.692,-0.0,-0.0,219.382,223.999
2013-12-17 02:00,-0.0,281.346,274.785,254.69,275.396,271.765,250.896,-0.0,-0.0,228.748,246.818
2013-12-17 03:00,-0.0,270.151,258.365,244.903,256.789,252.536,238.128,-0.0,-0.0,225.058,238.441
2013-12-17 04:00,-0.0,245.913,229.072,229.665,224.384,220.081,217.445,-0.0,-0.0,216.15,221.436
2013-12-17 05:00,-0.0,269.865,256.294,243.509,252.868,247.501,234.291,-0.0,-0.0,221.708,235.444
2013-12-17 06:00,-0.0,266.466,253.226,241.5,251.036,247.708,235.382,-0.0,-0.0,223.849,236.033
2013-12-17 07:00,0.00296664,281.346,275.951,255.742,275.703,271.283,250.633,-0.0,-0.0,227.238,247.04
2013-12-17 08:00,0.00607578,280.982,275.306,254.926,275.087,270.635,249.705,-0.0,-0.0,226.685,246.929
2013-12-17 09:00,0.711784,251.282,235.275,231.973,233.31,230.17,225.709,0.761263,1.05897,220.916,226.948
2013-12-17 10:00,0.442486,254.396,232.28,230.743,229.729,228.056,224.481,0.613068,0.758064,218.642,222.956
2013-12-17 11:00,0.312258,267.123,247.357,238.657,245.024,242.364,233.661,0.377112,0.474087,220.916,230.694
2013-12-17 12:00,0.309306,285.818,271.711,252.412,271.142,267.506,249.171,0.206601,0.390328,228.4,244.647
2013-12-17 13:00,0.282444,261.666,236.06,232.663,235.672,233.969,228.949,0.371087,0.480391,219.863,225.604
2013-12-17 14:00,0.262855,298.822,289.911,263.618,291.029,287.188,261.182,0.11544,0.280249,231.473,253.309
2013-12-17 15:00,0.275043,292.653,277.852,256.32,277.528,273.359,251.814,0.231896,0.337424,228.662,248.241
2013-12-17 16:00,0.299487,279.081,260.692,245.995,260.158,256.928,243.525,0.377896,0.456467,227.601,242.848
2013-12-17 17:00,0.284923,285.202,272.931,253.86,274.156,272.086,254.646,0.392943,0.453451,231.787,251.949
2013-12-17 18:00,0.297648,293.124,279.458,257.346,280.201,278.004,257.282,0.358131,0.416953,231.156,251.652
2013-12-17 19:00,0.364035,288.152,273.065,253.86,274.933,273.517,256.16,0.435146,0.511639,231.943,252.634
2013-12-17 20:00,0.275755,293.356,278.598,257.572,277.828,272.724,251.814,0.244392,0.325223,230.674,249.408
2013-12-17 21:00,1.12278,280.799,227.845,229.847,223.443,221.283,219.172,0.963563,1.18994,214.879,219.843
2013-12-17 22:00,-0.0,259.505,240.039,235.01,235.672,231.459,225.185,-19.5937,-23.3625,216.695,225.994
2013-12-17 23:00,-0.0,238.442,227.845,228.749,225.31,224.19,221.965,-0.0,-0.0,219.382,223.586
2013-12-18 00:00,-0.00278907,273.088,261.662,246.399,259.421,256.367,242.956,-0.0,-0.0,224.054,237.327
2013-12-18 01:00,0.00201833,268.382,251.147,241.207,248.093,242.364,230.44,-0.0,-0.0,220.454,230.863
2013-12-18 02:00,-0.0,268.382,251.53,240.913,248.733,244.112,231.743,-0.0,-0.0,222.585,233.773
2013-12-18 03:00,-0.0,260.395,252.853,242.369,252.868,249.955,239.025,-0.0,-0.0,225.643,241.093
2013-12-18 04:00,-0.0,262.475,255.23,243.368,256.213,252.341,241.084,-0.0,-0.0,230.43,244.53
2013-12-18 05:00,0.00172067,255.521,251.721,241.646,252.262,249.753,239.618,-0.0,-0.0,226.499,240.053
2013-12-18 06:00,-0.0,259.045,254.871,243.509,254.066,250.557,239.618,-0.0,-0.0,227.51,241.475
2013-12-18 07:00,-0.0,222.276,222.552,225.504,221.182,220.685,219.172,-0.0,0.00298605,217.752,219.608
2013-12-18 08:00,-0.0,243.066,243.273,236.784,244.349,243.243,236.765,-0.0,-0.0,230.593,238.303
2013-12-18 09:00,1.69488,268.686,264.94,249.029,266.847,265.309,250.765,1.56854,2.02942,232.251,249.513
2013-12-18 10:00,0.804827,282.923,265.696,249.542,268.855,267.84,252.335,0.791848,0.871531,233.677,251.252
2013-12-18 11:00,0.616668,283.093,261.34,246.399,263.04,262.361,249.171,0.643415,0.713252,232.251,248.455
2013-12-18 12:00,0.604219,288.705,264.635,248.252,266.847,266.498,252.205,0.722933,0.787259,233.159,251.552
2013-12-18 13:00,0.4847,281.165,251.53,241.5,249.789,246.457,236.153,0.544834,0.615885,224.258,238.85
2013-12-18 14:00,0.522291,286.717,267.033,250.051,270.006,269.984,254.264,0.600383,0.653832,231.709,251.652
2013-12-18 15:00,0.444494,284.087,268.916,251.305,271.625,271.605,255.658,0.634788,0.673701,232.481,252.244
2013-12-18 16:00,0.458941,289.381,268.773,251.056,271.142,270.148,254.264,0.507921,0.575044,231.787,251.552
2013-12-18 17:00,0.512135,291.809,269.908,252.045,272.423,271.444,254.519,0.551503,0.619935,230.996,251.252
2013-12-18 18:00,0.257372,299.672,288.303,262.681,289.3,284.922,259.977,0.144475,0.277059,232.251,253.117
2013-12-18 19:00,0.238538,297.449,290.229,263.515,291.292,287.188,260.942,0.126608,0.276761,234.401,253.88
2013-12-18 20:00,0.305447,295.69,288.087,262.471,289.032,285.493,259.977,0.212982,0.370559,233.382,253.021
2013-12-18 21:00,0.690177,283.428,260.036,245.723,256.598,253.51,240.5,0.601434,0.757806,223.642,236.033
2013-12-18 22:00,0.670663,244.063,230.265,229.847,227.708,225.874,222.329,2.83925,2.7083,218.517,223.793
2013-12-18 23:00,0.00531871,273.831,259.706,245.451,256.789,251.354,235.846,-0.0,-0.0,221.596,237.608
2013-12-19 00:00,-0.0,266.131,246.102,238.503,241.58,236.396,225.883,-0.0,-0.0,218.009,227.323
2013-12-19 01:00,-0.0,265.095,246.733,238.195,242.747,238.049,228.278,-0.0,-0.0,218.264,228.603
2013-12-19 02:00,-0.00169402,266.131,247.357,239.419,242.049,235.917,225.36,-0.0,-0.0,216.83,226.948
2013-12-19 03:00,-0.0,269.283,257.683,244.626,255.827,251.947,237.222,-0.0,-0.0,221.484,235.295
2013-12-19 04:00,0.00157365,271.531,257.339,244.07,255.049,249.955,235.691,-0.0,-0.0,222.259,234.694
2013-12-19 05:00,0.00171934,282.923,278.101,256.549,278.725,274.929,253.368,-0.0,-0.0,231.236,247.151
2013-12-19 06:00,-0.0,285.045,282.448,259.134,284.079,281.293,258.27,-0.0,-0.0,234.756,250.238
2013-12-19 07:00,-0.0,272.322,272.12,253.261,274.933,273.832,256.41,-0.0,-0.0,235.178,251.751
2013-12-19 08:00,-0.0,281.165,278.101,256.778,280.493,276.938,256.66,-0.0,-0.0,233.823,250.032
2013-12-19 09:00,0.666641,285.665,283.611,259.683,285.757,282.904,259.249,0.705555,0.967458,233.456,250.442
2013-12-19 10:00,0.366445,290.171,287.541,262.155,289.968,287.329,262.017,0.203015,0.452159,235.525,252.244
2013-12-19 11:00,0.367725,294.491,289.058,262.786,290.897,287.329,261.182,0.156707,0.403202,235.178,252.047
2013-12-19 12:00,0.32939,298.339,291.694,264.441,293.248,289.137,262.61,0.127035,0.349949,236.071,252.731
2013-12-19 13:00,0.284439,299.485,290.651,264.236,291.423,286.343,259.735,0.10625,0.299827,235.038,251.051
2013-12-19 14:00,0.256977,301.913,293.031,265.456,294.149,289.413,261.66,0.0926546,0.264399,236.94,252.731
2013-12-19 15:00,0.246048,302.764,293.031,265.859,294.277,289.826,262.492,0.104164,0.251916,238.608,254.162
2013-12-19 16:00,0.251496,299.672,288.951,263.307,290.5,286.626,261.421,0.148861,0.283286,238.608,254.068
2013-12-19 17:00,0.252105,300.408,289.486,263.721,291.029,286.907,261.182,0.144057,0.268306,238.795,254.349
2013-12-19 18:00,0.329383,299.765,285.321,261.198,287.407,283.484,259.735,0.239218,0.369798,239.653,254.907
2013-12-19 19:00,0.266375,300.679,293.944,266.557,296.182,292.006,263.318,0.141338,0.299399,240.607,256.001
2013-12-19 20:00,0.306794,297.947,291.694,265.052,293.635,289.964,263.318,0.229456,0.374253,241.76,256.716
2013-12-19 21:00,0.844404,303.015,285.77,261.731,287.951,284.349,260.942,0.681112,0.852476,242.6,256.716
2013-12-19 22:00,0.0,270.989,268.487,251.429,270.819,269.0,254.519,1.62826,1.61788,241.647,254.907
2013-12-19 23:00,-0.0,256.589,255.941,243.509,256.98,256.367,246.319,-0.0,-0.0,232.709,248.025
2013-12-20 00:00,-0.0,252.585,247.563,238.81,247.446,245.612,236.46,-0.0,-0.0,229.935,241.348
2013-12-20 01:00,-0.0,253.206,248.583,239.115,248.52,247.293,239.025,-0.0,-0.0,228.748,241.093
2013-12-20 02:00,-0.0,274.787,268.773,251.18,269.679,264.279,249.171,-0.0,-0.0,231.315,246.258
2013-12-20 03:00,-0.0,283.76,279.945,258.134,281.943,277.853,255.909,-0.0,-0.0,236.542,251.352
2013-12-20 04:00,0.00157333,280.613,278.474,257.572,280.785,277.701,257.777,-0.0,-0.0,238.608,253.405
2013-12-20 05:00,0.00171782,285.202,283.38,260.119,285.895,283.194,259.856,-0.0,0.00173424,238.857,253.785
2013-12-20 06:00,-0.0,272.836,265.545,249.669,267.522,262.712,248.768,-0.0,-0.0,237.592,249.408
2013-12-20 07:00,-0.00293859,265.095,259.039,245.451,259.974,257.856,246.869,-0.0,-0.0,235.662,247.151
2013-12-20 08:00,-0.0,254.396,251.147,240.913,253.069,251.552,242.956,-0.0,-0.0,237.528,245.114
2013-12-20 09:00,0.664139,259.505,253.04,241.936,255.244,253.122,243.949,0.749768,0.849285,237.913,246.371
2013-12-20 10:00,0.632854,280.427,253.04,241.646,253.669,251.75,242.527,0.574386,0.712446,237.977,244.764
2013-12-20 11:00,0.46904,288.705,254.328,242.799,255.244,253.703,243.667,0.459188,0.572174,238.671,246.371
2013-12-20 12:00,0.316179,291.686,271.848,252.899,271.625,267.84,251.291,0.225284,0.369785,239.104,250.238
2013-12-20 13:00,0.358728,296.427,263.867,248.252,263.569,259.684,246.732,0.300189,0.404433,238.981,246.818
2013-12-20 14:00,0.465016,276.155,253.226,242.081,255.439,255.045,245.628,0.589551,0.67066,240.074,248.562
2013-12-20 15:00,0.255345,299.672,278.101,257.006,277.678,270.798,252.205,0.121858,0.260129,240.312,249.825
2013-12-20 16:00,0.225785,296.114,281.148,258.134,280.347,275.396,254.646,0.120222,0.249093,240.193,252.146
2013-12-20 17:00,0.284132,300.317,283.264,259.354,284.781,280.702,258.882,0.181744,0.311901,242.82,256.091
2013-12-20 18:00,0.256582,302.764,290.335,263.721,291.555,286.767,261.66,0.132029,0.276209,243.74,258.2
2013-12-20 19:00,0.256881,299.108,292.211,264.95,293.764,290.101,262.965,0.1395,0.293319,243.147,258.798
2013-12-20 20:00,0.639209,304.159,283.726,260.119,284.781,281.441,259.735,0.448499,0.64789,238.546,255.366
2013-12-20 21:00,0.386607,281.705,273.466,253.381,275.857,274.147,256.41,0.41547,0.485377,242.266,256.982
2013-12-20 22:00,0.636581,277.451,277.476,255.858,280.201,278.609,258.882,1.79664,1.71378,238.546,255.366
2013-12-20 23:00,-0.0,268.986,268.054,250.931,271.464,270.148,254.773,-0.0,-0.0,237.072,253.785
2013-12-21 00:00,-0.0,282.234,280.308,258.022,282.231,279.361,258.76,-0.0,-0.0,234.827,254.256
2013-12-21 01:00,-0.0,280.05,279.58,256.778,281.655,279.661,259.005,-0.0,-0.0,235.455,253.785
2013-12-21 02:00,-0.0,261.666,263.867,247.728,265.997,265.65,252.464,-0.0,-0.0,236.071,252.244
2013-12-21 03:00,-0.0,274.073,272.256,252.534,274.778,273.2,255.784,-0.0,-0.0,236.071,253.595
2013-12-21 04:00,-0.0,285.512,285.321,260.228,287.815,285.493,262.136,-0.0,-0.0,237.977,256.36
2013-12-21 05:00,-0.0,286.864,286.661,261.305,289.032,287.188,262.728,-0.0,-0.0,238.919,256.716
2013-12-21 06:00,-0.0,286.421,286.55,261.198,289.032,287.609,262.965,-0.0,-0.0,239.471,257.158
2013-12-21 07:00,-0.0,285.97,286.105,261.091,288.763,287.048,262.847,-0.0024794,-0.0,241.246,257.508
2013-12-21 08:00,-0.0,285.665,286.105,260.661,288.763,287.609,262.965,-0.0,-0.0,239.774,257.246
2013-12-21 09:00,0.568025,285.818,286.439,260.769,288.897,287.329,262.965,0.681339,0.812394,239.894,256.271
2013-12-21 10:00,0.384964,289.647,287.869,261.731,290.367,288.584,262.965,0.201778,0.458045,240.074,256.805
2013-12-21 11:00,0.370067,294.38,290.123,262.89,292.209,289.413,262.965,0.157705,0.403295,239.227,255.091
2013-12-21 12:00,0.334087,298.339,292.108,264.133,294.021,290.511,262.965,0.127512,0.354756,240.193,254.443
2013-12-21 13:00,0.293449,301.39,294.346,265.456,296.056,292.006,263.787,0.104118,0.304718,240.312,254.256
2013-12-21 14:00,0.288021,301.653,292.108,264.339,293.506,289.413,262.728,0.156325,0.303201,240.43,254.162
2013-12-21 15:00,0.275089,300.947,288.52,261.944,290.632,286.343,260.461,0.160192,0.299983,240.489,253.785
2013-12-21 16:00,0.426951,286.717,263.556,248.252,266.678,265.99,252.853,0.626467,0.683545,240.548,251.552
2013-12-21 17:00,0.230569,293.816,276.971,255.277,277.978,275.396,256.035,0.238255,0.302855,241.419,253.021
2013-12-21 18:00,0.372258,262.475,226.261,228.192,226.221,226.151,224.481,0.790972,0.878811,223.538,224.408
2013-12-21 19:00,0.242136,273.338,261.662,246.533,261.25,260.405,248.768,0.356159,0.392548,235.662,246.371
2013-12-21 20:00,0.880302,284.249,250.371,240.32,251.036,249.955,242.097,1.26516,1.45217,240.193,246.032
2013-12-21 21:00,0.132782,279.859,273.732,254.217,274.467,271.926,254.137,0.162394,0.188665,235.317,248.987
2013-12-21 22:00,0.319093,244.063,242.597,236.146,243.209,242.143,236.918,1.0807,0.96643,231.156,237.748
2013-12-21 23:00,-0.0,245.913,246.733,238.04,247.012,246.246,239.025,-0.0,-0.0,232.02,240.446
2013-12-22 00:00,-0.0,254.396,252.101,241.354,253.469,252.144,243.241,-0.0,-0.0,232.02,243.457
2013-12-22 01:00,0.00203448,249.156,250.175,239.871,250.623,250.357,242.241,-0.0,-0.0,231.076,241.854
2013-12-22 02:00,-0.0,273.831,270.885,252.045,272.582,270.635,253.625,-0.0,-0.0,234.185,248.455
2013-12-22 03:00,-0.0,284.087,281.505,258.134,283.797,280.85,258.392,-0.0,-0.0,233.75,249.513
2013-12-22 04:00,-0.0,284.73,282.214,258.469,284.22,281.146,258.882,-0.0,-0.0,235.247,250.442
2013-12-22 05:00,-0.0,265.446,265.243,248.9,268.024,267.004,252.464,-0.0,-0.0,231.552,248.241
2013-12-22 06:00,-0.00206899,256.062,253.595,241.936,253.669,252.732,243.667,-0.0,-0.0,230.593,241.728
2013-12-22 07:00,-0.0,269.576,265.092,247.991,264.618,262.712,249.572,-0.0,-0.0,230.835,243.818
2013-12-22 08:00,-0.0,271.798,268.199,250.303,269.842,267.004,251.553,-0.0,-0.0,232.86,247.261
2013-12-22 09:00,0.662496,265.791,261.179,245.587,261.431,259.684,247.415,0.949274,1.18331,232.784,244.412
2013-12-22 10:00,0.86744,282.581,261.501,246.533,264.444,263.412,249.971,0.781341,0.90834,234.897,247.917
2013-12-22 11:00,0.69831,284.249,260.528,245.723,263.217,263.063,249.971,0.75781,0.851444,234.185,248.133
2013-12-22 12:00,0.582742,289.381,259.039,245.451,261.791,261.477,248.768,0.725426,0.801927,234.897,248.241
2013-12-22 13:00,0.503621,288.291,258.703,244.626,260.524,259.321,247.823,0.524727,0.617184,233.75,247.04
2013-12-22 14:00,0.326354,281.346,258.025,243.79,258.491,255.045,242.814,0.349315,0.447588,232.405,242.971
2013-12-22 15:00,0.426003,282.408,256.644,243.93,259.051,258.408,247.415,0.438339,0.522653,233.823,247.261
2013-12-22 16:00,0.2349,289.91,268.199,250.177,268.524,266.667,251.291,0.216613,0.292323,233.968,248.455
2013-12-22 17:00,0.297237,259.954,234.477,232.146,233.842,232.976,229.781,0.46559,0.550144,226.122,229.664
2013-12-22 18:00,0.351913,262.869,233.938,232.146,233.842,232.976,229.615,0.770637,0.858942,225.546,230.354
2013-12-22 19:00,0.509593,267.444,225.611,227.438,225.615,224.474,224.481,0.868915,0.980865,222.585,223.793
2013-12-22 20:00,0.641947,269.283,236.576,233.175,236.948,236.396,231.581,0.88592,1.02571,228.136,233.461
2013-12-22 21:00,0.678394,272.322,247.769,239.419,247.446,245.399,238.428,0.681836,0.827768,226.963,237.888
2013-12-22 22:00,0.385406,264.739,251.912,241.354,251.447,248.121,237.676,0.870194,0.907877,226.027,236.325
2013-12-22 23:00,-0.0,237.078,235.011,232.491,234.633,234.216,231.257,-0.0,-0.0,225.156,230.354
2013-12-23 00:00,-0.00283858,238.442,237.841,233.175,237.702,237.109,232.547,-0.0,0.00286572,227.87,233.617
2013-12-23 01:00,-0.0,244.063,243.273,236.784,242.978,242.143,236.153,-0.0,-0.0,226.963,235.592
2013-12-23 02:00,-0.0,245.01,244.598,236.943,245.024,244.328,238.278,-0.0,-0.0,228.048,237.185
2013-12-23 03:00,-0.00156797,257.605,258.534,244.07,260.158,259.864,248.094,-0.0,0.00158296,230.996,246.258
2013-12-23 04:00,-0.0,258.576,258.195,244.626,259.236,258.591,248.094,-0.0,-0.0,230.43,244.764
2013-12-23 05:00,0.00171204,263.636,261.982,246.801,263.745,262.537,249.838,-0.0,-0.0,229.935,245.69
2013-12-23 06:00,-0.0,252.585,248.177,238.81,248.733,247.501,240.06,-0.0,-0.0,229.601,239.255
2013-12-23 07:00,-0.0,269.865,267.326,249.669,269.515,267.84,253.111,-0.0,-0.0,230.996,248.133
2013-12-23 08:00,-0.0,255.521,254.328,242.369,255.244,252.927,242.241,-0.0,-0.0,228.748,241.98
2013-12-23 09:00,0.663807,260.827,256.992,243.509,257.55,255.992,244.932,0.889904,1.06108,227.601,242.478
2013-12-23 10:00,0.594729,270.151,255.05,242.369,256.021,254.855,243.949,0.617643,0.727065,228.048,242.23
2013-12-23 11:00,0.574836,283.428,262.141,246.399,264.444,263.759,249.572,0.576535,0.652561,229.517,245.804
2013-12-23 12:00,0.465717,275.932,257.683,243.79,258.678,257.856,246.594,0.506144,0.585957,228.835,243.457
2013-12-23 13:00,0.434168,293.587,269.343,250.429,271.464,269.984,254.009,0.345078,0.448216,229.517,247.699
2013-12-23 14:00,0.305586,264.377,245.89,236.943,245.471,243.679,236.46,0.393325,0.476445,226.871,236.325
2013-12-23 15:00,0.287887,264.377,246.523,237.884,246.575,245.186,237.827,0.418706,0.494555,227.51,237.468
2013-12-23 16:00,0.259214,268.686,247.15,238.195,246.575,244.112,235.537,0.33758,0.43185,226.778,237.468
2013-12-23 17:00,0.337802,277.451,252.101,241.061,251.652,249.753,240.5,0.429548,0.504676,227.601,240.316
2013-12-23 18:00,0.371146,276.155,246.733,238.195,245.914,242.805,233.503,0.456437,0.55278,224.86,233.461
2013-12-23 19:00,0.269165,280.799,269.485,250.177,269.679,267.506,252.205,0.427502,0.49197,230.511,246.929
2013-12-23 20:00,0.385257,268.382,237.841,233.005,237.2,237.109,232.227,0.558585,0.645691,225.931,232.022
2013-12-23 21:00,0.973744,267.123,234.745,231.625,235.155,234.216,229.449,1.17312,1.40855,226.027,231.198
2013-12-23 22:00,0.32397,274.787,267.033,249.158,267.185,264.279,248.499,0.731479,0.763155,229.769,244.53
2013-12-23 23:00,-0.0,227.984,228.769,228.564,228.293,228.056,225.709,-0.0,-0.0,223.329,226.379
2013-12-24 00:00,-0.0,230.231,233.392,230.921,233.041,232.725,228.949,-0.0,-0.0,224.661,229.838
2013-12-24 01:00,-0.0,262.869,262.458,246.667,263.745,263.063,250.501,-0.0,-0.0,231.787,247.917
2013-12-24 02:00,-0.0,261.251,261.34,245.995,262.507,261.831,249.572,-0.0,-0.0,230.835,246.258
2013-12-24 03:00,-0.0,272.061,268.343,250.681,269.186,267.171,252.594,-0.0,-0.0,229.685,246.707
2013-12-24 04:00,-0.0,280.613,279.823,257.459,281.51,277.853,257.034,-0.0,-0.0,229.935,247.917
2013-12-24 05:00,-0.0,274.314,270.746,252.656,272.264,269.165,251.159,-0.0,-0.0,228.312,246.032
2013-12-24 06:00,-0.0,264.009,249.385,239.721,247.012,242.143,232.707,-0.0,0.00207943,222.799,232.185
2013-12-24 07:00,-0.0,250.598,240.514,235.173,239.183,236.872,230.931,-0.0,-0.0,224.86,232.347
2013-12-24 08:00,-0.0,240.898,234.477,231.625,233.31,231.968,228.782,-0.0,-0.0,223.434,228.96
2013-12-24 09:00,0.121275,245.913,241.682,234.681,241.107,239.208,233.503,0.462076,0.367304,226.963,235.74
2013-12-24 10:00,0.449257,258.096,241.451,235.173,240.152,238.747,233.344,0.55869,0.694501,225.931,233.773
2013-12-24 11:00,0.272313,285.665,275.565,254.808,276.468,273.832,255.28,0.24524,0.409875,231.156,248.455
2013-12-24 12:00,0.33257,294.823,284.755,260.337,285.201,281.146,258.147,0.171016,0.355086,232.097,248.987
2013-12-24 13:00,0.319692,293.007,280.429,257.346,280.785,276.631,256.035,0.231505,0.369462,231.473,248.775
2013-12-24 14:00,0.329181,297.349,266.145,249.542,265.31,259.502,245.905,0.256795,0.347264,230.593,243.336
2013-12-24 15:00,0.312283,289.779,259.206,245.04,260.341,257.301,245.489,0.264409,0.349256,230.835,244.881
2013-12-24 16:00,0.125487,292.174,283.726,259.574,284.641,280.554,258.515,0.0895254,0.167743,230.018,248.882
2013-12-24 17:00,0.250961,297.649,284.3,260.337,285.479,281.588,258.882,0.123515,0.260849,230.755,249.617
2013-12-24 18:00,0.24096,297.848,288.303,262.786,288.358,283.917,259.492,0.125276,0.280251,228.835,248.025
2013-12-24 19:00,0.0456369,289.514,285.208,260.984,286.31,283.049,259.977,0.0549887,0.0921464,231.473,250.544
2013-12-24 20:00,0.20824,292.534,288.087,262.681,289.434,285.777,260.822,0.11896,0.263421,232.633,251.352
2013-12-24 21:00,0.649315,293.93,279.213,257.91,280.493,276.784,256.285,0.537557,0.626388,230.593,249.617
2013-12-24 22:00,1.40254,287.3,282.566,259.574,283.372,280.257,257.777,1.02919,1.60474,229.601,248.882
2013-12-24 23:00,-0.0,285.97,282.916,260.011,285.061,282.321,259.735,-0.0,-0.0,232.328,251.051
2013-12-25 00:00,-0.0,271.798,270.746,252.534,272.423,270.473,253.753,-0.0,-0.0,230.996,249.198
2013-12-25 01:00,-0.0,277.026,269.626,251.799,269.679,266.329,248.634,-0.0,-0.0,227.87,244.647
2013-12-25 02:00,-0.0,279.859,278.226,257.006,280.201,277.548,256.285,-0.0,-0.0,231.394,249.408
2013-12-25 03:00,-0.0,280.427,273.599,254.217,274.312,270.473,250.501,-0.0,-0.00158274,229.601,245.69
2013-12-25 04:00,-0.0,275.932,272.796,253.381,274.0,271.605,253.881,-0.0,-0.0,233.01,249.617
2013-12-25 05:00,-0.00170723,268.382,267.473,250.555,269.679,269.0,254.519,-0.0,-0.0,232.251,250.748
2013-12-25 06:00,-0.00205475,271.798,267.18,250.429,268.69,266.498,252.594,-0.0,-0.0,230.916,248.562
2013-12-25 07:00,-0.0,272.322,268.773,251.305,271.142,269.821,254.137,-0.0,-0.0,232.175,250.238
2013-12-25 08:00,-0.0,283.428,280.429,258.691,282.374,279.511,257.777,-0.0,-0.0,232.633,250.442
2013-12-25 09:00,0.403617,284.888,281.978,259.574,283.656,280.406,258.27,0.626527,0.814951,230.916,249.617
2013-12-25 10:00,0.377149,287.3,281.624,259.024,282.66,278.911,256.535,0.21954,0.461665,230.674,249.303
2013-12-25 11:00,0.377604,292.653,286.55,261.944,287.543,283.629,259.614,0.155652,0.42385,230.593,250.135
2013-12-25 12:00,0.366392,289.514,274.785,254.454,274.623,270.148,250.104,0.28511,0.413929,226.778,243.698
2013-12-25 13:00,0.398678,286.717,265.394,249.286,265.31,260.405,242.956,0.373218,0.453509,225.643,240.446
2013-12-25 14:00,0.291125,298.436,287.978,262.576,289.568,285.35,260.701,0.144137,0.303871,231.552,249.928
2013-12-25 15:00,0.299531,289.779,276.08,255.858,276.923,273.675,253.625,0.286051,0.364514,229.685,247.04
2013-12-25 16:00,0.24855,292.771,281.505,258.913,282.946,279.361,256.66,0.228148,0.311899,231.394,249.617
2013-12-25 17:00,0.230976,284.888,263.867,248.121,261.069,255.803,240.354,0.200796,0.317978,225.352,238.441
2013-12-25 18:00,0.285636,278.075,259.039,245.314,257.17,255.045,243.099,0.30499,0.431839,227.055,238.85
2013-12-25 19:00,0.23293,289.514,276.08,256.32,274.623,270.798,251.291,0.17053,0.289968,224.661,241.348
2013-12-25 20:00,0.685006,288.152,264.329,249.029,264.618,261.831,247.006,0.582111,0.736986,225.931,240.706
2013-12-25 21:00,0.668675,294.713,282.448,260.011,283.088,279.361,256.909,0.489329,0.684711,228.575,247.371
2013-12-25 22:00,2.23378,285.202,276.08,255.51,275.703,271.444,250.765,1.47104,2.33866,226.592,244.647
2013-12-25 23:00,-0.0,266.797,261.34,247.332,261.971,260.225,246.457,-0.0,-0.0,226.216,242.354
2013-12-26 00:00,-0.0,280.05,276.208,256.089,278.725,277.243,258.638,-0.0,-0.0,230.835,250.646
2013-12-26 01:00,-0.0,280.799,280.066,258.246,283.23,281.146,260.219,-0.0,-0.0,232.175,251.051
2013-12-26 02:00,-0.0,287.01,285.658,261.838,287.679,284.636,261.062,-0.0,-0.0,233.75,251.252
2013-12-26 03:00,-0.0,285.97,283.495,260.337,284.921,282.028,259.249,-0.0,-0.0,231.394,250.238
2013-12-26 04:00,-0.0,280.799,273.333,254.454,273.215,269.494,249.305,-0.0,-0.0,228.224,244.998
2013-12-26 05:00,-0.0,284.41,281.505,259.683,282.517,279.361,257.282,-0.0,0.00172083,230.511,249.093
2013-12-26 06:00,-0.0,285.665,283.032,261.305,284.641,281.441,258.76,-0.0,-0.0,230.996,249.513
2013-12-26 07:00,-0.00287086,285.665,284.071,261.625,286.033,283.049,259.735,-0.0,-0.0,231.63,250.849
2013-12-26 08:00,-0.00563671,284.888,283.264,260.876,285.201,282.613,259.005,-0.0,-0.0,230.674,250.032
2013-12-26 09:00,0.378751,285.97,284.869,261.305,286.997,284.636,260.942,0.577238,0.688268,230.348,250.135
2013-12-26 10:00,0.403763,289.91,286.55,262.89,288.358,285.208,260.581,0.201097,0.489147,229.517,249.408
2013-12-26 11:00,0.373964,294.713,289.058,264.236,290.367,286.626,260.942,0.149874,0.41781,231.236,250.238
2013-12-26 12:00,0.342666,299.108,291.279,265.658,292.34,287.888,261.779,0.124343,0.356532,230.996,250.544
2013-12-26 13:00,0.302173,301.913,292.929,266.756,293.506,288.722,261.66,0.10353,0.310737,231.236,250.544
2013-12-26 14:00,0.262901,300.947,290.545,265.254,291.423,286.767,261.54,0.120182,0.267907,231.156,250.442
2013-12-26 15:00,0.235693,301.39,291.279,265.557,292.079,287.329,261.182,0.113052,0.24029,230.348,250.238
2013-12-26 16:00,0.212461,303.836,294.346,268.033,294.916,289.551,262.136,0.0638954,0.215664,230.996,250.135
2013-12-26 17:00,0.211028,303.181,294.646,268.13,295.55,290.238,262.136,0.0658282,0.216782,232.175,250.032
2013-12-26 18:00,0.231834,301.125,291.798,266.059,292.989,288.306,261.182,0.10231,0.248235,232.481,250.544
2013-12-26 19:00,0.221935,299.765,293.438,267.348,294.661,290.101,262.492,0.0798995,0.239934,232.633,251.452
2013-12-26 20:00,0.249136,297.749,292.314,266.855,293.892,289.551,262.61,0.10969,0.28673,233.01,251.949
2013-12-26 21:00,0.275153,294.491,290.756,265.658,292.34,288.999,262.61,0.180754,0.340045,233.603,252.634
2013-12-26 22:00,0.521003,290.558,289.058,264.339,291.16,288.306,262.965,0.882265,1.05197,233.677,253.309
2013-12-26 23:00,0.005642,289.514,288.087,264.031,290.897,288.306,262.847,-0.0,-0.0,234.329,253.785
2013-12-27 00:00,-0.00287112,288.705,288.087,263.721,290.5,288.306,263.67,-0.0,-0.0,234.756,254.162
2013-12-27 01:00,-0.0,288.841,287.76,263.618,290.234,288.027,263.318,-0.0,-0.0,236.207,254.814
2013-12-27 02:00,-0.00170387,288.568,287.76,263.411,290.234,288.027,263.083,-0.0,-0.0,236.675,254.722
2013-12-27 03:00,-0.0,288.291,287.651,263.099,290.101,288.167,263.318,-0.0,-0.0,236.408,254.722
2013-12-27 04:00,-0.00156622,287.871,287.322,263.099,289.835,288.027,262.847,-0.0,-0.0,237.203,254.907
2013-12-27 05:00,-0.0,287.01,286.772,262.995,289.434,287.469,262.847,-0.0,-0.0,237.268,255.091
2013-12-27 06:00,-0.0,286.717,286.439,262.786,289.032,287.048,262.728,-0.0,-0.0,237.398,255.183
2013-12-27 07:00,-0.0,286.421,286.217,262.155,289.032,287.329,262.728,-0.0,-0.0,237.398,255.366
2013-12-27 08:00,-0.0,286.271,286.217,262.261,288.897,287.188,263.2,-0.0,-0.0,237.849,255.548
2013-12-27 09:00,0.782619,286.271,286.105,262.261,288.763,286.907,262.61,1.03078,1.31683,237.785,255.366
2013-12-27 10:00,0.387758,290.685,288.195,263.411,290.5,287.888,262.492,0.19861,0.473625,237.977,255.091
2013-12-27 11:00,0.382828,296.219,290.86,265.456,292.47,288.861,262.965,0.152536,0.4168,237.398,254.722
2013-12-27 12:00,0.338121,299.485,292.417,266.159,293.635,289.137,262.255,0.124602,0.355503,236.874,254.162
2013-12-27 13:00,0.298312,302.511,293.438,266.855,294.277,289.826,262.728,0.111993,0.305425,237.268,254.629
2013-12-27 14:00,0.301337,303.346,291.902,266.159,293.248,288.999,262.492,0.143256,0.292996,237.657,255.275
2013-12-27 15:00,0.305376,301.913,289.058,264.031,290.5,286.767,262.373,0.190726,0.30009,237.977,256.181
2013-12-27 16:00,0.0,303.015,291.07,265.355,292.47,288.445,262.61,0.137566,0.2601,238.795,256.982
2013-12-27 17:00,0.270028,301.302,290.44,264.543,291.555,288.167,263.318,0.161818,0.278834,239.41,258.114
2013-12-27 18:00,0.294643,300.408,288.412,263.411,290.101,286.485,262.136,0.209083,0.31729,240.014,258.2
2013-12-27 19:00,0.275513,299.013,288.087,262.995,289.568,286.202,262.136,0.221465,0.316877,240.253,258.457
2013-12-27 20:00,0.233395,298.339,292.211,265.859,293.248,289.276,263.2,0.145058,0.273227,242.378,258.543
2013-12-27 21:00,0.466588,298.822,288.843,263.825,289.968,286.202,262.136,0.411021,0.518629,243.039,258.628
2013-12-27 22:00,0.678464,292.294,289.165,263.825,290.632,287.748,262.728,0.976573,1.16442,242.875,259.051
2013-12-27 23:00,-0.0,278.684,278.35,257.12,280.054,279.211,260.098,-0.0,-0.0,242.544,258.798
2013-12-28 00:00,-0.0,286.717,283.956,260.769,284.641,279.361,256.035,-0.0,-0.0,240.312,256.181
2013-12-28 01:00,-0.0,267.444,258.703,245.995,258.865,253.896,241.519,-0.0,-0.0,236.341,246.145
2013-12-28 02:00,-0.0,270.989,264.021,248.512,264.618,260.405,246.044,-0.0,-0.0,237.072,248.133
2013-12-28 03:00,-0.0,269.283,264.329,248.9,264.792,261.477,248.499,-0.0,-0.0,237.849,249.198
2013-12-28 04:00,-0.0,278.482,272.662,254.454,273.843,269.0,252.464,-0.0,-0.0,236.341,249.408
2013-12-28 05:00,0.00169862,276.594,270.329,253.14,270.981,265.138,248.903,-0.0,-0.0,235.317,248.025
2013-12-28 06:00,-0.0,274.787,269.059,251.676,269.842,264.967,248.903,-0.0,-0.0,235.178,247.59
2013-12-28 07:00,-0.00569076,282.923,279.58,258.134,281.366,276.938,256.035,-0.0,-0.0,235.247,250.849
2013-12-28 08:00,-0.0,259.045,254.69,243.368,255.049,251.947,240.938,-0.0,-0.0,230.835,242.848
2013-12-28 09:00,2.45838,259.045,249.781,240.617,249.368,246.035,236.0,2.51515,3.30917,224.86,237.748
2013-12-28 10:00,0.482534,270.989,254.69,243.509,254.263,250.557,239.025,0.608756,0.672263,226.685,240.576
2013-12-28 11:00,0.449536,259.954,230.85,230.207,228.583,226.974,222.692,0.78676,0.877243,216.83,223.167
2013-12-28 12:00,0.538971,280.427,249.385,239.871,249.579,247.708,237.373,0.688235,0.769217,226.216,238.714
2013-12-28 13:00,0.339527,277.24,253.779,242.369,254.657,251.354,240.06,0.367398,0.453712,226.963,241.093
2013-12-28 14:00,0.46833,283.76,259.54,245.995,261.069,260.045,247.551,0.52104,0.600054,229.178,246.032
2013-12-28 15:00,0.226436,295.796,280.669,258.022,279.613,273.359,251.159,0.121916,0.270804,229.178,246.707
2013-12-28 16:00,0.31206,259.505,204.418,218.957,202.701,202.113,204.893,0.737658,0.822158,204.122,203.113
2013-12-28 17:00,0.357265,262.074,206.643,219.632,205.946,204.955,206.515,0.799006,0.886776,206.702,205.868
2013-12-28 18:00,0.456759,274.073,203.247,218.957,201.728,200.845,204.658,0.780593,0.878402,204.122,203.113
2013-12-28 19:00,0.567264,273.088,207.178,220.298,205.497,204.955,206.286,0.863363,0.978486,206.905,206.968
2013-12-28 20:00,0.772116,278.482,206.643,219.855,204.12,203.757,205.825,0.942908,1.0893,205.449,205.491
2013-12-28 21:00,1.15207,280.05,210.707,221.6,208.556,207.274,208.982,1.08252,1.32384,209.748,210.353
2013-12-28 22:00,0.250052,232.213,216.471,224.507,214.141,212.329,212.202,0.423438,0.504886,211.8,213.668
2013-12-28 23:00,0.00571241,232.213,214.79,223.489,211.825,209.497,210.718,-0.0,0.00576701,209.388,211.295
2013-12-29 00:00,-0.0,227.984,218.474,224.305,215.628,213.356,213.035,-0.0,-0.0,213.388,215.332
2013-12-29 01:00,-0.00205313,237.078,225.937,228.192,224.072,222.169,219.551,-0.0,-0.0,216.424,221.878
2013-12-29 02:00,-0.00170437,232.213,222.904,226.674,221.511,219.472,218.41,-0.0,-0.0,216.56,220.306
2013-12-29 03:00,-0.0,266.466,250.566,241.207,247.662,241.921,230.768,-0.0,-0.0,220.916,232.022
2013-12-29 04:00,0.00156268,250.598,248.177,239.57,248.093,246.246,237.373,-0.0,-0.0,225.931,238.303
2013-12-29 05:00,-0.00169539,259.045,259.206,245.587,260.524,259.502,247.279,-0.0,-0.0,227.42,244.294
2013-12-29 06:00,-0.0,255.521,254.509,243.368,255.439,251.552,240.793,-0.0,-0.0,227.51,241.854
2013-12-29 07:00,0.00283219,258.576,257.683,244.765,259.421,257.856,245.628,-0.0,-0.0,228.575,245.114
2013-12-29 08:00,-0.00547796,256.589,245.89,238.195,243.438,237.345,230.111,-0.0,-0.0,223.952,233.461
2013-12-29 09:00,2.75323,277.869,266.886,249.797,265.826,260.405,242.384,2.22519,3.79029,224.959,239.922
2013-12-29 10:00,0.462154,277.451,258.703,245.177,255.633,249.753,235.382,0.395424,0.608999,218.517,231.695
2013-12-29 11:00,0.368036,274.314,246.942,238.503,242.283,236.157,225.009,0.337228,0.498799,216.424,225.994
2013-12-29 12:00,0.328996,262.869,229.673,229.484,225.919,223.043,218.792,0.354532,0.484891,214.293,218.895
2013-12-29 13:00,0.290571,284.73,262.141,247.332,260.158,253.51,236.307,0.191088,0.358854,221.708,235.146
2013-12-29 14:00,0.290559,279.667,255.05,242.513,252.868,248.327,234.604,0.249156,0.368231,221.93,234.082
2013-12-29 15:00,0.258969,269.576,243.94,236.466,241.58,238.747,229.781,0.273348,0.384546,220.801,229.137
2013-12-29 16:00,0.265555,268.073,238.585,234.017,235.155,232.474,226.402,0.307321,0.405068,220.101,226.76
2013-12-29 17:00,0.296648,274.551,251.912,240.617,251.447,248.327,237.373,0.303282,0.411324,226.027,236.325
2013-12-29 18:00,0.193086,289.514,279.58,257.346,280.347,276.784,255.406,0.172963,0.252847,228.136,247.371
2013-12-29 19:00,0.28999,286.271,262.616,248.121,259.236,253.703,237.827,0.255826,0.361132,221.031,233.617
2013-12-29 20:00,0.631493,275.48,234.208,231.973,230.574,228.856,224.657,0.611962,0.774499,218.891,224.204
2013-12-29 21:00,0.814565,277.451,232.839,231.098,228.871,227.246,222.692,0.725161,0.921034,218.767,223.793
2013-12-29 22:00,0.406813,242.013,229.673,230.027,227.708,226.151,222.329,0.541275,0.645389,219.744,225.011
2013-12-29 23:00,-0.00574556,261.251,248.583,239.871,245.693,239.667,229.946,-0.0,-0.0,221.145,233.146
2013-12-30 00:00,-0.00289077,252.585,232.839,231.098,230.574,225.874,219.927,-0.0,-0.0,216.424,224.408
2013-12-30 01:00,-0.0,232.213,225.282,227.628,222.485,219.472,217.832,-0.0,-0.0,217.622,221.436
2013-12-30 02:00,-0.0,257.605,246.102,238.657,243.209,238.978,230.604,-0.0,-0.0,224.054,233.773
2013-12-30 03:00,-0.0,266.797,254.871,243.93,252.059,246.246,233.344,-0.0,-0.0,219.982,233.773
2013-12-30 04:00,0.00156067,266.466,251.912,241.646,249.368,243.243,230.768,-0.0,-0.0,218.891,231.364
2013-12-30 05:00,0.001692,273.831,260.854,246.934,259.051,253.51,237.676,-0.0,-0.0,222.799,236.325
2013-12-30 06:00,-0.0,277.869,269.908,252.534,269.842,265.65,247.142,-0.0,-0.0,226.216,242.23
2013-12-30 07:00,-0.0,260.827,255.409,243.93,256.598,253.316,242.384,-0.0,-0.0,225.835,241.475
2013-12-30 08:00,-0.0,254.396,252.29,241.646,252.667,249.348,239.47,-0.0,-0.0,226.216,239.789
2013-12-30 09:00,2.91004,260.395,257.166,244.488,258.678,257.486,245.905,2.87458,3.59072,226.499,243.457
2013-12-30 10:00,0.618087,277.026,259.206,245.723,260.888,258.591,245.905,0.598095,0.698281,226.311,242.971
2013-12-30 11:00,0.564277,291.19,264.329,248.512,266.338,265.309,251.159,0.490627,0.577335,229.769,247.371
2013-12-30 12:00,0.439017,298.63,272.662,253.741,274.623,271.283,254.519,0.301552,0.436094,229.517,247.808
2013-12-30 13:00,0.381312,299.203,273.065,254.217,274.156,269.821,252.075,0.246328,0.386383,229.263,247.04
2013-12-30 14:00,0.408259,293.356,265.545,249.542,267.522,266.16,251.422,0.298535,0.394676,229.769,247.151
2013-12-30 15:00,0.275249,299.297,288.087,262.995,288.493,283.917,259.37,0.137668,0.274363,230.593,248.987
2013-12-30 16:00,0.265455,291.931,280.669,258.58,281.51,277.396,256.41,0.234575,0.318314,228.835,247.371
2013-12-30 17:00,0.254584,293.816,282.096,259.354,282.517,278.609,256.909,0.199936,0.297992,229.601,248.025
2013-12-30 18:00,0.237539,280.427,256.118,243.65,252.868,247.293,233.661,0.259095,0.345608,221.819,233.928
2013-12-30 19:00,0.272073,280.05,262.616,247.465,260.706,256.928,242.241,0.305196,0.391892,226.963,241.221
2013-12-30 20:00,0.543449,284.249,245.676,238.81,239.911,234.95,225.185,0.524682,0.642981,217.622,227.323
2013-12-30 21:00,0.980985,279.278,216.471,224.102,212.997,210.576,211.146,0.877614,1.08379,211.135,212.505
2013-12-30 22:00,1.03436,254.966,226.261,228.378,223.125,220.384,217.445,0.783601,1.09921,216.15,220.306
2013-12-30 23:00,-0.00577724,213.142,200.774,217.106,199.196,197.752,201.515,-0.0,-0.0,201.465,201.84
2013-12-31 00:00,-0.0,238.442,221.481,225.701,219.847,216.008,214.062,-0.0,-0.0,213.234,217.164
2013-12-31 01:00,-0.0,225.382,220.379,224.908,219.167,217.29,217.445,-0.0,-0.0,214.879,218.41
2013-12-31 02:00,-0.0,232.213,227.219,228.378,225.31,223.332,220.675,-0.0,-0.0,218.891,223.586
2013-12-31 03:00,0.00156301,257.103,241.451,235.499,238.446,234.461,226.746,-0.0,-0.0,219.26,228.96
2013-12-31 04:00,-0.0,249.156,230.85,230.027,227.118,223.905,219.551,-0.0,-0.0,215.31,220.535
2013-12-31 05:00,-0.00168844,255.521,246.313,238.195,245.024,242.585,233.661,-0.0,0.00170458,226.499,236.757
2013-12-31 06:00,-0.00202016,268.686,259.039,245.451,259.421,255.425,241.519,-0.0,-0.0,226.499,240.316
2013-12-31 07:00,-0.0,263.636,259.039,245.587,259.974,258.224,246.594,-0.0,-0.0,228.835,243.577
2013-12-31 08:00,-0.0,260.395,254.145,242.656,254.657,252.927,242.814,-0.0,-0.0,229.093,241.348
2013-12-31 09:00,2.29968,270.151,259.871,245.587,259.051,255.235,242.384,2.33656,2.786,227.42,239.789
2013-12-31 10:00,0.351265,279.859,270.607,252.045,270.819,268.173,250.501,0.309982,0.454517,229.263,244.412
2013-12-31 11:00,0.360703,281.883,264.175,247.597,260.888,255.425,240.06,0.273146,0.441085,224.959,238.714
2013-12-31 12:00,0.404632,279.473,261.982,246.801,262.507,260.764,246.869,0.414412,0.460231,227.055,242.602
2013-12-31 13:00,0.531669,284.57,268.343,250.806,270.332,268.835,253.625,0.604607,0.659519,229.348,247.481
2013-12-31 14:00,0.508769,288.841,267.18,250.429,270.495,269.821,254.519,0.534537,0.588615,232.02,249.513
2013-12-31 15:00,0.311278,294.491,272.256,253.98,274.623,272.724,255.909,0.207503,0.304873,232.935,250.032
2013-12-31 16:00,0.238705,290.939,282.096,259.354,283.372,280.406,258.638,0.222715,0.317027,231.394,249.928
2013-12-31 17:00,0.229798,284.888,278.598,257.346,279.907,278.004,257.9,0.322549,0.368462,233.159,250.646
2013-12-31 18:00,0.220479,295.368,282.799,260.011,282.087,276.631,254.009,0.121696,0.263441,232.481,248.348
2013-12-31 19:00,0.385682,265.791,210.224,221.17,208.556,209.859,211.146,0.679472,0.759532,207.304,207.326
2013-12-31 20:00,0.723212,277.026,219.247,224.708,216.715,215.683,214.872,0.867658,1.01475,215.167,217.164
2013-12-31 21:00,1.38953,290.685,211.184,220.736,208.131,206.513,207.197,1.21158,1.50966,210.452,210.984
2013-12-31 22:00,2.0019,257.103,205.549,218.502,203.652,202.529,205.361,1.30385,2.02104,205.233,204.721
2013-12-31 23:00,-0.00580736,218.393,206.643,219.632,203.652,201.271,205.127,-0.0,-0.0,205.449,205.109
