# timestamp,IR_016,IR_039,IR_087,IR_097,IR_108,IR_120,IR_134,VIS006,VIS008,WV_062,WV_073
2014-09-01 00:00,-0.0224834,288.291,288.303,259.024,291.686,289.826,262.847,-0.00519181,-0.0144444,232.784,253.785
2014-09-01 01:00,-0.00157171,288.291,288.628,259.244,292.47,290.921,263.083,-0.0,-0.0,234.041,254.536
2014-09-01 02:00,-0.0,287.444,287.869,258.802,291.555,289.689,262.61,-0.0,-0.00135952,233.603,253.595
2014-09-01 03:00,0.00124844,287.3,287.651,259.024,291.686,290.238,263.083,-0.0,-0.0,233.75,253.88
2014-09-01 04:00,-0.0,286.421,286.772,258.134,290.234,288.999,262.136,-0.0,-0.0,233.896,253.5
2014-09-01 05:00,-0.0,286.121,286.882,258.022,290.367,288.722,262.492,-0.0,-0.0,234.615,253.5
2014-09-01 06:00,-0.00150034,286.121,286.55,257.91,290.101,288.306,262.136,-0.0,-0.0,235.593,254.256
2014-09-01 07:00,-0.0,285.665,285.546,257.006,289.032,287.329,261.421,-0.0,-0.0,235.247,253.974
2014-09-01 08:00,-0.0,285.512,285.433,257.12,288.493,286.767,260.581,-0.0,-0.0,234.113,253.213
2014-09-01 09:00,-0.00608256,285.045,285.095,256.778,288.493,287.188,261.182,-0.0,-0.0,232.86,253.309
2014-09-01 10:00,0.484898,284.249,282.916,255.393,285.895,284.061,259.492,0.524608,0.571123,231.709,251.552
2014-09-01 11:00,0.458305,289.113,285.433,256.664,288.087,285.635,259.856,0.261115,0.380527,232.175,251.352
2014-09-01 12:00,0.486316,295.796,289.593,259.134,292.6,289.551,262.373,0.212058,0.360859,232.328,252.439
2014-09-01 13:00,0.381473,298.436,290.123,259.244,292.209,287.888,259.614,0.16832,0.287483,231.552,251.652
2014-09-01 14:00,0.318911,301.913,293.438,261.305,295.297,290.921,262.373,0.132463,0.235395,231.076,252.146
2014-09-01 15:00,0.280697,303.917,294.746,262.366,296.684,291.871,262.61,0.113564,0.20381,231.709,252.731
2014-09-01 16:00,0.25353,303.755,294.746,262.261,296.684,291.871,262.373,0.105591,0.189544,231.709,252.244
2014-09-01 17:00,0.239835,301.913,292.622,261.198,294.916,290.375,262.136,0.143633,0.206694,232.709,252.439
2014-09-01 18:00,0.283697,300.408,290.229,260.119,292.47,288.027,260.701,0.194178,0.260683,231.315,251.452
2014-09-01 19:00,0.290633,295.151,286.439,257.91,288.897,285.208,259.856,0.274255,0.324768,231.473,251.452
2014-09-01 20:00,0.619047,294.156,274.129,250.806,273.843,268.67,244.652,0.584741,0.679153,229.685,245.23
2014-09-01 21:00,0.277458,245.913,218.862,222.868,218.13,216.008,214.265,0.371961,0.46685,212.448,215.061
2014-09-01 22:00,-0.00869676,242.013,228.463,228.564,224.072,223.043,221.598,-0.0,-0.0,214.734,220.763
2014-09-01 23:00,-0.231324,253.81,241.682,233.681,238.693,236.157,229.946,-0.0870496,-0.158934,222.368,231.031
2014-09-02 00:00,-0.0020444,287.871,286.772,257.91,289.701,287.188,260.098,-0.0,-0.0,231.943,251.352
2014-09-02 01:00,-0.0,287.01,285.433,257.346,288.222,285.208,259.735,-0.0,-0.0,233.01,251.051
2014-09-02 02:00,-0.00269404,287.3,286.439,257.91,289.434,287.048,260.822,-0.0,-0.0,234.185,252.146
2014-09-02 03:00,-0.0,287.587,286.55,258.134,289.701,287.048,261.301,-0.0,-0.0,233.896,251.949
2014-09-02 04:00,-0.0,287.3,286.661,258.469,289.835,287.609,261.182,-0.0,-0.0,232.557,251.152
2014-09-02 05:00,-0.0,286.569,285.994,258.134,289.166,287.048,260.822,-0.0,-0.0,232.328,250.849
2014-09-02 06:00,-0.0,286.421,286.105,258.022,289.434,287.469,261.062,-0.0,-0.0,231.394,250.748
2014-09-02 07:00,-0.0,284.249,282.331,255.277,285.201,282.904,257.406,-0.0,-0.0,229.852,248.669
2014-09-02 08:00,-0.0,278.883,276.463,252.656,276.62,269.165,249.037,-0.0,-0.0,230.018,245.345
2014-09-02 09:00,-0.0,266.131,259.706,242.799,260.158,257.856,243.667,-0.0,-0.0,229.935,241.854
2014-09-02 10:00,0.475002,284.087,280.549,254.217,282.087,278.76,256.41,0.550356,0.630977,230.593,248.562
2014-09-02 11:00,0.498831,290.171,280.187,253.98,281.076,273.2,250.369,0.347194,0.460922,230.755,247.371
2014-09-02 12:00,0.410185,292.294,283.495,255.626,284.501,280.85,256.909,0.218597,0.331285,230.101,247.261
2014-09-02 13:00,0.316977,293.816,282.799,254.808,282.946,278.911,255.28,0.173394,0.264275,229.935,247.04
2014-09-02 14:00,0.294976,298.533,287.651,258.246,288.493,283.773,257.282,0.140725,0.22826,230.674,248.882
2014-09-02 15:00,0.280958,303.098,293.133,261.091,294.661,289.551,261.301,0.115445,0.200219,231.473,250.646
2014-09-02 16:00,0.263555,303.917,293.133,261.838,294.533,289.276,261.421,0.11331,0.187493,231.709,250.95
2014-09-02 17:00,0.255083,302.426,292.211,260.984,293.764,288.861,261.062,0.146865,0.20896,230.835,250.849
2014-09-02 18:00,0.259097,299.672,289.486,259.574,291.16,287.048,260.34,0.207906,0.251316,230.511,251.252
2014-09-02 19:00,0.267586,297.549,286.772,258.469,288.897,284.922,259.492,0.262141,0.308098,232.02,251.152
2014-09-02 20:00,0.217453,292.174,284.414,256.778,284.921,281.441,258.27,0.328997,0.316702,232.86,248.241
2014-09-02 22:00,-0.0,290.685,289.272,259.574,291.948,289.137,262.373,-0.0,-0.0,233.085,252.146
2014-09-02 23:00,-0.176832,290.301,288.412,259.574,291.292,288.722,262.017,-0.0789452,-0.155802,233.603,252.634
2014-09-03 00:00,-0.0,289.514,288.303,259.464,291.292,288.722,262.373,-0.0,-0.0,232.709,252.244
2014-09-03 01:00,-0.0,288.705,288.303,259.574,291.555,289.276,262.373,-0.0,-0.0015873,233.456,252.537
2014-09-03 02:00,-0.00134744,287.871,287.978,259.464,291.029,288.999,261.898,-0.0,-0.0,233.085,252.244
2014-09-03 03:00,-0.0,287.871,287.76,259.244,291.029,288.722,262.255,-0.0,-0.0,233.382,252.439
2014-09-03 04:00,-0.0,287.729,287.541,259.024,290.897,288.861,262.61,-0.0,-0.0,233.382,252.731
2014-09-03 05:00,-0.00131664,287.3,287.541,258.802,291.029,288.999,262.492,-0.0,-0.0,233.01,252.828
2014-09-03 06:00,0.00150692,287.01,286.772,258.358,289.835,287.748,261.779,-0.0,-0.0,234.615,253.213
2014-09-03 07:00,-0.00190509,286.864,286.55,258.358,289.835,287.748,261.779,-0.0,0.00192331,233.968,253.309
2014-09-03 08:00,0.00283397,286.717,286.55,258.022,289.568,287.609,261.421,-0.0,-0.0,233.603,253.5
2014-09-03 09:00,-0.0,285.97,285.994,257.91,288.897,287.048,260.942,-0.0,-0.0,233.234,253.213
2014-09-03 12:00,0.622524,296.531,278.474,253.501,280.201,277.548,256.66,0.456136,0.565628,234.401,252.342
2014-09-03 13:00,0.41965,301.39,288.736,259.244,289.968,285.493,259.977,0.220386,0.328919,235.038,253.595
2014-09-03 14:00,0.323427,296.427,279.823,253.741,279.76,274.773,251.159,0.19939,0.285892,232.251,247.59
2014-09-03 15:00,0.307284,305.646,294.945,262.89,295.803,290.511,261.421,0.117312,0.210508,236.274,254.068
2014-09-03 16:00,0.299368,300.317,289.165,259.354,290.5,286.485,260.701,0.209692,0.282997,236.274,254.629
2014-09-03 17:00,0.267332,303.428,292.417,261.412,293.892,289.413,261.421,0.164841,0.233218,238.733,255.911
2014-09-03 18:00,0.290369,276.594,244.16,235.499,239.669,235.435,227.77,0.310178,0.371544,221.484,228.603
2014-09-03 19:00,0.277764,296.943,285.77,257.685,285.895,280.702,256.035,0.257581,0.307126,235.178,252.925
2014-09-03 20:00,0.514985,296.738,0.0,0.0,0.0,0.0,0.0,0.550308,0.605961,0.0,0.0
2014-09-03 21:00,1.94531,270.989,231.14,228.934,231.408,229.385,222.147,1.69526,2.31994,225.058,230.011
2014-09-03 22:00,-0.00876073,248.394,247.769,236.625,248.307,247.501,238.727,-0.0,-0.0,232.557,242.478
2014-09-03 23:00,-0.183395,246.775,242.142,234.183,242.747,241.475,234.134,-0.0817263,-0.152666,232.86,239.255
2014-09-04 00:00,-0.0,261.666,259.706,243.509,260.341,259.139,247.823,-0.0,-0.0,236.341,247.481
2014-09-04 01:00,-0.00157261,240.898,241.451,233.849,241.815,241.475,236.613,-0.0,-0.0,231.865,235.887
2014-09-04 02:00,-0.0,254.396,254.328,240.617,255.439,255.045,245.767,-0.0,-0.0,235.386,246.707
2014-09-04 03:00,0.00125049,237.078,236.06,230.921,235.93,235.677,232.227,-0.0,-0.0,227.601,231.695
2014-09-04 04:00,-0.0,251.944,249.781,237.884,251.036,249.955,239.025,-0.0,-0.0,232.097,243.093
2014-09-04 05:00,-0.0013186,259.505,260.692,243.93,262.507,262.185,249.305,-0.0,-0.0,233.677,249.303
2014-09-04 06:00,-0.00151038,254.396,254.69,240.617,257.17,256.555,246.044,-0.0,-0.0,234.185,247.261
2014-09-04 07:00,-0.0,256.062,257.339,242.369,259.974,259.684,247.551,-0.0,-0.0,237.203,249.198
2014-09-04 08:00,-0.0,258.576,260.036,243.65,262.507,262.185,249.171,-0.0,-0.0,237.528,250.849
2014-09-04 09:00,0.00638872,258.576,257.511,242.081,259.606,259.321,247.551,-0.0,-0.0,238.294,249.513
2014-09-04 10:00,0.763347,268.686,258.195,242.799,260.341,258.957,247.415,0.72019,0.880736,236.071,248.775
2014-09-04 11:00,0.786679,289.113,265.545,246.265,266.678,264.795,249.838,0.575409,0.719353,231.709,247.917
2014-09-04 12:00,0.425303,290.813,281.505,255.393,282.803,278.911,254.773,0.217269,0.369401,228.4,246.483
2014-09-04 13:00,0.276426,268.686,249.385,237.101,248.52,246.246,235.846,0.304115,0.391052,225.156,234.542
2014-09-04 14:00,0.275953,288.012,273.732,250.429,274.312,270.311,249.705,0.175865,0.268107,228.4,244.412
2014-09-04 15:00,0.248689,283.428,267.326,247.067,265.997,262.712,245.767,0.186269,0.262102,229.093,241.728
2014-09-04 16:00,0.20747,294.602,283.38,255.974,283.797,279.211,255.658,0.119406,0.191657,229.517,247.481
2014-09-04 17:00,0.293991,278.883,263.401,245.177,262.863,260.225,246.594,0.258732,0.34505,230.593,241.475
2014-09-04 18:00,0.220477,299.485,288.087,259.354,288.897,282.467,257.158,0.135377,0.195399,230.916,247.917
2014-09-04 19:00,0.239543,290.429,281.148,254.808,282.374,278.004,254.646,0.240035,0.299517,230.184,247.808
2014-09-04 20:00,0.870526,293.816,257.683,242.942,256.213,251.552,239.322,0.77902,0.953871,228.662,239.656
2014-09-04 21:00,0.462816,291.686,287.978,259.902,290.234,287.188,261.182,0.697711,0.695162,230.755,249.721
2014-09-04 22:00,-0.0175849,288.841,287.651,259.464,290.632,288.167,262.017,-0.0,-0.0,231.394,250.238
2014-09-04 23:00,-0.231825,284.249,279.945,254.926,281.221,278.76,256.285,-0.0954169,-0.165779,231.076,248.133
2014-09-05 00:00,-0.0,264.739,256.992,242.656,255.827,254.664,242.671,-0.0,-0.0,229.852,239.121
2014-09-05 01:00,-0.001573,268.686,259.373,242.225,259.791,257.115,242.384,-0.0,-0.0,230.755,243.214
2014-09-05 02:00,-0.0,286.421,284.414,257.798,286.86,284.492,259.492,-0.0,-0.0,233.382,251.552
2014-09-05 03:00,-0.0,277.869,276.845,253.501,278.576,276.323,256.785,-0.0,-0.0,231.709,248.775
2014-09-05 04:00,-0.001243,268.073,261.501,244.07,262.507,259.864,245.072,-0.0,-0.0,231.236,243.698
2014-09-05 05:00,-0.0,279.667,280.789,256.32,285.201,283.339,259.977,-0.0,-0.0,233.677,251.85
2014-09-05 06:00,0.00151396,286.271,285.658,258.691,288.628,286.767,261.421,-0.0,-0.0,234.401,252.731
2014-09-05 07:00,-0.00191935,284.57,284.071,257.798,286.585,284.205,259.735,-0.0,-0.0,234.472,251.652
2014-09-05 08:00,-0.0,285.045,284.869,258.022,287.815,285.777,261.182,-0.0,-0.0,236.542,252.828
2014-09-05 09:00,-0.0,284.57,284.642,257.798,287.543,285.919,260.942,-0.0,-0.0,237.592,253.5
2014-09-05 10:00,0.553057,284.888,284.528,257.572,287.407,285.919,260.942,0.485616,0.537665,238.981,253.69
2014-09-05 11:00,0.577365,290.041,286.439,258.58,288.897,286.626,261.301,0.258198,0.431006,237.849,253.5
2014-09-05 12:00,0.502227,294.933,288.843,259.902,290.897,288.027,261.779,0.201637,0.364203,237.137,254.068
2014-09-05 13:00,0.390423,297.947,290.86,261.305,292.989,289.276,262.373,0.152685,0.282802,236.071,254.162
2014-09-05 14:00,0.327864,301.39,293.336,262.471,295.17,291.193,262.255,0.121294,0.231102,235.178,253.785
2014-09-05 15:00,0.280387,303.181,294.846,263.411,296.684,292.276,262.728,0.102568,0.199247,234.615,253.405
2014-09-05 16:00,0.248645,303.51,295.639,263.928,297.558,292.679,263.083,0.0903894,0.178717,234.543,253.785
2014-09-05 17:00,0.235314,303.836,295.343,263.825,297.434,292.545,262.728,0.0977866,0.176351,234.041,253.405
2014-09-05 18:00,0.250015,302.426,294.044,262.89,295.93,291.057,261.898,0.126444,0.199891,233.01,252.925
2014-09-05 19:00,0.234429,300.679,294.546,263.411,296.809,292.41,262.847,0.155825,0.216763,233.308,253.309
2014-09-05 20:00,0.260933,297.848,293.336,262.366,295.677,291.6,262.728,0.274671,0.299025,233.53,253.595
2014-09-05 21:00,0.369697,293.587,290.965,261.305,293.635,290.648,263.083,0.616558,0.588122,234.472,254.443
2014-09-05 22:00,-0.00882411,289.91,289.058,260.119,292.079,289.689,262.847,-0.0,-0.0,233.677,254.068
2014-09-05 23:00,-0.17722,289.779,288.736,259.793,291.686,289.413,262.728,-0.087303,-0.165902,233.896,254.162
2014-09-06 00:00,0.00204664,288.841,288.412,260.119,291.16,288.999,262.61,-0.0,-0.0,234.756,254.536
2014-09-06 01:00,-0.00157344,288.43,287.869,259.574,290.632,288.584,262.61,-0.0,-0.0,234.113,254.256
2014-09-06 02:00,-0.00269796,288.012,287.541,259.354,290.5,288.306,262.136,-0.0,-0.0,233.896,253.595
2014-09-06 03:00,-0.0,287.444,286.992,259.134,289.968,287.888,262.136,-0.0,-0.0,233.823,253.5
2014-09-06 04:00,-0.0,287.01,286.439,258.802,289.3,287.188,261.421,-0.0,-0.0,233.53,253.309
2014-09-06 05:00,-0.0,286.121,285.994,258.802,289.032,287.329,261.182,-0.0,-0.0,233.085,252.731
2014-09-06 06:00,-0.0,285.045,285.208,258.246,288.222,286.485,261.062,-0.0,-0.0,232.481,252.537
2014-09-06 07:00,-0.0,285.045,285.095,257.798,288.222,286.343,260.822,-0.0,-0.0,232.633,252.634
2014-09-06 08:00,-0.0,284.57,284.642,257.459,287.543,285.919,261.182,-0.0,-0.0,232.175,252.146
2014-09-06 09:00,-0.0,284.41,284.528,257.685,287.543,286.06,261.062,-0.0,-0.0,232.405,252.244
2014-09-06 10:00,0.578984,285.512,284.869,257.572,287.951,286.202,260.942,0.490225,0.545551,233.382,252.731
2014-09-06 11:00,0.606144,291.809,287.869,259.244,290.5,288.027,261.54,0.268507,0.437678,232.935,252.634
2014-09-06 12:00,0.531172,298.045,290.965,260.876,293.377,289.826,262.017,0.208031,0.370887,232.557,252.537
2014-09-06 13:00,0.403908,301.74,293.641,262.576,295.677,291.464,263.318,0.156253,0.284735,233.308,252.731
2014-09-06 14:00,0.338141,303.098,294.546,262.89,296.307,291.735,262.61,0.125725,0.23154,233.603,252.634
2014-09-06 15:00,0.288795,304.636,295.639,263.825,297.683,292.545,262.965,0.104467,0.199846,233.382,252.634
2014-09-06 16:00,0.261261,304.715,295.935,263.928,297.931,293.216,262.728,0.0946411,0.182184,234.185,252.925
2014-09-06 17:00,0.237456,304.319,295.639,263.618,297.184,292.41,263.318,0.0962619,0.175799,235.525,253.117
2014-09-06 18:00,0.282731,302.171,291.902,261.625,293.506,289.276,261.779,0.169979,0.239832,235.731,253.309
2014-09-06 19:00,0.222803,298.339,290.86,260.876,292.73,288.722,261.421,0.183099,0.231549,236.542,253.309
2014-09-06 20:00,0.0456792,292.174,288.303,259.574,290.632,287.048,261.54,0.0803282,0.0780423,236.94,253.117
2014-09-06 21:00,0.57825,250.598,228.155,227.438,228.293,227.787,224.657,0.583758,0.752176,222.476,225.21
2014-09-06 22:00,-0.00885575,254.966,252.29,239.721,252.868,251.947,241.953,-0.0,-0.0,231.394,243.093
2014-09-06 23:00,-0.219274,254.396,231.427,229.847,226.82,222.462,218.41,-0.101021,-0.172539,213.388,219.372
2014-09-07 00:00,-0.00204732,287.587,284.414,257.572,286.31,283.049,257.653,-0.0,-0.0,234.329,250.544
2014-09-07 01:00,-0.00157394,268.686,267.909,248.9,268.69,266.835,251.553,-0.0,-0.0,236.675,249.928
2014-09-07 02:00,-0.0,286.864,284.071,257.459,286.31,282.758,258.638,-0.0,0.0013625,235.936,252.146
2014-09-07 03:00,-0.00125302,287.155,284.869,258.246,286.447,282.904,258.023,-0.0,-0.0,234.756,250.95
2014-09-07 04:00,-0.00124567,286.717,284.528,257.91,286.585,283.194,257.9,-0.0,0.00125758,234.897,250.544
2014-09-07 05:00,-0.0,277.026,278.35,255.16,281.943,279.361,257.034,-0.0,-0.0,235.455,250.849
2014-09-07 06:00,-0.00152147,282.234,279.213,254.69,279.613,276.784,256.16,-0.0,-0.0,234.827,249.825
2014-09-07 07:00,-0.0,257.103,249.781,238.349,246.794,246.035,239.913,-0.0,-0.0,225.058,233.773
2014-09-07 08:00,-0.00291242,285.202,283.148,257.006,285.34,282.175,257.777,-0.0,-0.0,235.525,251.051
2014-09-07 09:00,-0.00674153,282.753,279.58,255.277,280.493,276.323,253.881,-0.0,-0.0,232.02,248.775
2014-09-07 10:00,0.656514,279.473,265.696,247.332,264.792,258.591,240.06,0.633073,0.810076,227.147,241.98
2014-09-07 12:00,0.499291,294.823,282.799,256.892,282.946,277.853,254.264,0.245784,0.36574,232.328,249.198
2014-09-07 13:00,0.391272,298.533,286.105,259.134,286.033,280.406,254.9,0.172974,0.286646,230.916,248.348
2014-09-07 14:00,0.317595,299.485,285.433,258.134,284.501,278.458,253.625,0.14003,0.239365,227.959,246.371
2014-09-07 15:00,0.245819,298.822,285.433,258.246,284.361,279.211,255.153,0.11436,0.182718,229.935,247.151
2014-09-07 16:00,0.299298,299.391,284.869,257.91,285.618,280.702,256.035,0.198869,0.281835,233.75,250.544
2014-09-07 17:00,0.294109,290.041,268.487,248.512,265.482,260.045,242.527,0.238089,0.311404,223.013,236.325
2014-09-07 18:00,0.423687,261.666,217.285,223.489,216.355,216.008,215.274,0.622843,0.730858,215.167,216.652
2014-09-07 19:00,0.559719,270.713,206.643,218.957,205.043,204.559,206.743,0.840873,0.960838,207.502,206.606
2014-09-07 20:00,0.819403,270.434,204.988,218.502,203.652,202.529,205.361,0.996207,1.17722,205.874,205.491
2014-09-07 21:00,1.23645,268.382,206.643,219.409,205.043,203.757,206.056,1.03756,1.40431,206.498,205.868
2014-09-07 22:00,-0.0,218.393,210.707,221.17,209.808,208.397,208.982,-0.0,-0.0,209.388,210.67
2014-09-07 23:00,-0.196855,227.984,214.358,221.6,213.763,213.016,213.447,-0.101099,-0.179189,210.966,212.8
2014-09-08 00:00,0.00204807,225.382,221.117,224.708,221.182,220.384,219.172,-0.0,-0.0,217.752,219.843
2014-09-08 01:00,-0.00157449,243.066,241.682,234.183,241.58,240.802,234.447,-0.0,-0.0,226.311,236.179
2014-09-08 02:00,-0.00135027,245.01,238.585,233.344,237.2,234.461,228.614,-0.0,-0.0,221.371,231.695
2014-09-08 03:00,-0.0,251.282,246.942,237.728,245.914,243.243,236.307,-0.0,-0.0,224.76,237.043
2014-09-08 04:00,-0.0,246.775,245.463,236.625,246.575,245.186,237.222,-0.0,-0.00125903,225.931,238.441
2014-09-08 05:00,-0.0,255.521,253.963,241.207,256.598,254.855,245.072,-0.0,-0.0,230.916,244.998
2014-09-08 06:00,-0.0,266.131,258.025,244.07,257.739,252.341,241.664,-0.0,-0.0,231.552,242.23
2014-09-08 07:00,-0.0,247.601,243.719,235.985,245.693,244.973,238.278,-0.0,-0.0,231.315,239.255
2014-09-08 08:00,-0.00293351,238.442,239.559,233.681,242.747,242.364,236.307,-0.0,-0.0,230.755,236.757
2014-09-08 09:00,-0.00687091,264.377,255.23,241.646,255.244,249.144,238.577,-0.0,-0.0,230.916,241.093
2014-09-08 10:00,0.639272,281.526,271.023,250.303,271.945,264.451,246.732,0.526642,0.645383,230.674,245.46
2014-09-08 11:00,0.645778,286.271,261.34,244.903,260.524,252.341,238.876,0.447365,0.580829,227.055,240.185
2014-09-08 13:00,0.349508,298.144,282.799,256.892,284.22,276.938,254.264,0.176391,0.288537,232.097,249.198
2014-09-08 14:00,0.305978,298.726,292.725,262.155,295.297,291.329,262.728,0.115965,0.235355,232.02,252.342
2014-09-08 15:00,0.238158,298.918,292.827,262.366,295.424,291.057,261.66,0.0934188,0.187458,230.266,250.442
2014-09-08 16:00,0.251478,300.947,294.746,263.307,297.309,293.082,262.255,0.0894742,0.18501,229.769,250.646
2014-09-08 17:00,0.238859,300.858,294.044,263.099,296.433,291.464,261.66,0.0908272,0.179052,230.593,250.646
2014-09-08 18:00,0.229527,299.95,294.245,263.515,296.809,292.545,263.083,0.0999868,0.184706,231.315,251.652
2014-09-08 19:00,0.236701,298.726,293.944,263.099,296.559,292.814,263.436,0.130545,0.206079,232.633,252.047
2014-09-08 20:00,0.265233,296.427,292.622,262.261,295.55,292.141,263.553,0.221618,0.274816,231.552,252.634
2014-09-08 21:00,0.427499,292.653,290.44,261.305,293.377,290.921,262.847,0.51046,0.531182,231.709,251.949
2014-09-08 22:00,-0.00891928,288.841,288.52,260.119,291.686,289.551,262.847,-0.00755194,-0.0,232.481,252.342
2014-09-08 23:00,-0.255147,288.568,287.978,259.902,291.029,289.137,262.373,-0.117587,-0.202156,233.308,252.925
2014-09-09 00:00,-0.00204887,288.012,287.322,259.574,290.5,288.722,262.61,-0.0,-0.0,234.041,253.595
2014-09-09 01:00,-0.0,287.444,287.432,259.902,290.5,288.584,262.492,-0.0,-0.0,235.247,253.785
2014-09-09 02:00,-0.001351,280.239,276.718,254.336,278.427,271.765,250.896,-0.0,-0.0,234.185,249.408
2014-09-09 03:00,-0.00125499,287.01,287.102,259.793,290.234,288.445,263.083,-0.0,-0.0,234.329,253.595
2014-09-09 04:00,-0.0,285.97,285.994,259.244,289.032,287.188,262.255,-0.0,-0.00126054,234.827,253.405
2014-09-09 05:00,-0.00132957,270.713,263.867,246.934,264.618,256.742,242.384,-0.0,-0.0,233.968,244.881
2014-09-09 06:00,-0.00152944,284.41,284.642,258.246,287.543,284.922,259.977,-0.0,-0.0,233.968,253.021
2014-09-09 07:00,-0.0,284.888,285.433,259.134,288.763,288.027,262.847,-0.0,-0.0,233.01,253.69
2014-09-09 08:00,-0.00295522,284.41,284.869,259.024,287.951,286.907,262.136,-0.0,-0.0,233.456,253.88
2014-09-09 09:00,0.00700674,284.249,284.869,258.58,287.951,287.048,262.847,-0.0,-0.0,233.896,253.213
2014-09-09 10:00,0.574311,285.045,285.208,259.024,288.358,287.469,262.136,0.430694,0.596367,234.041,253.309
2014-09-09 12:00,0.521577,295.26,284.414,258.469,285.895,278.156,253.497,0.263421,0.436493,235.386,249.408
2014-09-09 13:00,0.409229,300.317,294.546,264.031,297.683,294.415,264.372,0.153675,0.304238,237.137,252.439
2014-09-09 14:00,0.348141,301.037,290.86,262.155,293.119,286.626,258.392,0.149841,0.272388,236.475,251.552
2014-09-09 15:00,0.28954,302.848,297.397,266.159,300.869,297.3,264.721,0.0998773,0.209758,237.528,253.69
2014-09-09 16:00,0.257311,303.264,297.975,266.458,301.472,297.818,265.301,0.0891778,0.188435,237.592,254.068
2014-09-09 17:00,0.243843,303.181,298.071,266.657,301.832,298.334,265.647,0.0881387,0.182831,238.42,254.814
2014-09-09 18:00,0.235508,301.74,297.879,266.557,301.352,298.076,265.878,0.0940852,0.185854,238.981,255.457
2014-09-09 19:00,0.23819,300.225,297.01,266.259,300.627,297.818,265.993,0.119171,0.203304,240.014,256.805
2014-09-09 20:00,0.260876,297.449,295.343,265.355,298.672,296.389,265.647,0.191432,0.26337,241.246,257.508
2014-09-09 21:00,0.370098,293.24,292.622,263.721,296.056,294.547,265.069,0.451609,0.472539,241.304,257.855
2014-09-09 22:00,-0.0,289.514,290.229,262.155,293.377,292.679,264.837,-0.0,-0.00903691,241.533,258.2
2014-09-09 23:00,-0.197175,288.568,289.379,261.625,292.73,292.006,264.837,-0.104,-0.195797,242.544,259.22
2014-09-10 00:00,-0.00204975,288.012,288.951,261.305,292.079,291.735,264.953,-0.0,-0.0,242.765,259.471
2014-09-10 01:00,-0.0,286.864,288.195,261.305,291.292,290.784,264.953,-0.0,-0.0,243.579,260.299
2014-09-10 02:00,-0.0,286.271,287.978,261.412,291.029,290.648,0.0,-0.0,-0.0,243.039,0.0
2014-09-10 03:00,0.00125606,286.864,288.087,261.305,291.292,290.784,264.837,-0.0,-0.0,242.765,260.871
2014-09-10 04:00,-0.0,286.717,287.978,261.198,290.764,290.648,265.069,-0.0,-0.0,242.6,261.194
2014-09-10 05:00,-0.0,285.818,287.212,260.661,289.968,289.826,265.185,-0.0,-0.0,242.378,260.952
2014-09-10 06:00,-0.0,284.888,286.882,260.445,289.568,289.413,263.787,-0.0,-0.0,241.986,260.789
2014-09-10 07:00,-0.0,284.41,286.217,260.011,289.032,288.999,264.953,-0.0,-0.0,241.874,261.355
2014-09-10 08:00,-0.00297754,284.41,285.882,259.793,288.897,288.861,264.488,-0.0,-0.0,242.042,261.275
2014-09-10 09:00,-0.0,283.594,285.546,259.574,288.222,288.306,264.138,-0.0,-0.0,241.93,261.033
2014-09-10 10:00,0.515414,284.41,285.994,259.902,288.628,288.861,263.553,0.449625,0.551877,242.71,261.435
2014-09-10 11:00,0.57645,291.19,289.272,261.412,292.209,291.329,264.372,0.268282,0.450923,242.875,260.871
2014-09-10 12:00,0.504083,296.84,292.929,263.618,296.182,294.812,265.416,0.213403,0.364483,242.099,260.545
2014-09-10 13:00,0.391669,300.769,295.837,265.658,299.531,297.17,265.993,0.164371,0.288824,241.986,260.545
2014-09-10 14:00,0.32206,302.764,297.397,266.557,300.99,297.947,266.337,0.130841,0.240573,241.419,260.299
2014-09-10 15:00,0.277778,303.755,298.739,267.348,302.191,298.848,266.566,0.110813,0.206281,241.647,260.545
2014-09-10 16:00,0.249824,304.078,299.118,268.033,302.43,299.104,266.909,0.0945114,0.187818,242.099,260.627
2014-09-10 17:00,0.238853,303.836,298.929,267.838,302.43,298.976,266.452,0.101118,0.183723,241.647,260.463
2014-09-10 18:00,0.243118,302.68,298.358,267.446,301.231,298.205,266.566,0.117627,0.195352,242.155,261.033
2014-09-10 19:00,0.241839,300.769,297.3,267.052,300.627,297.559,265.878,0.171856,0.228891,242.433,261.355
2014-09-10 20:00,0.277362,297.848,295.244,265.758,298.549,295.996,265.532,0.361069,0.353517,242.433,261.595
2014-09-10 21:00,0.432431,293.816,292.725,264.441,295.93,294.282,265.416,0.622436,0.633019,242.489,261.515
2014-09-10 22:00,-0.00898372,290.041,290.86,263.307,294.021,292.948,265.532,-0.0076065,-0.0,242.433,261.834
2014-09-10 23:00,-0.242636,289.113,289.699,262.576,292.86,291.871,265.069,-0.115046,-0.19923,243.093,261.993
2014-09-11 00:00,-0.0,287.871,289.272,262.155,292.209,291.329,264.837,-0.0,-0.0,243.147,261.993
2014-09-11 01:00,-0.0,287.3,288.843,262.261,291.686,290.648,264.488,-0.0,-0.0,243.202,261.675
2014-09-11 02:00,-0.0,287.3,288.412,261.838,291.16,290.238,264.605,-0.0,-0.0,243.418,261.675
2014-09-11 03:00,-0.00125719,286.717,287.869,261.731,290.764,289.826,264.022,-0.0,-0.0,243.846,261.834
2014-09-11 04:00,0.00125181,286.271,287.76,261.519,290.367,289.137,263.905,-0.0,-0.0,244.058,261.834
2014-09-11 05:00,0.00133453,282.753,283.264,259.244,285.895,284.061,261.301,-0.0,-0.0,244.111,261.194
2014-09-11 06:00,-0.0,281.346,281.742,258.246,284.501,282.758,260.34,-0.0,-0.0,244.269,260.708
2014-09-11 07:00,-0.0,280.799,281.624,258.134,284.361,283.484,260.942,-0.0,-0.0,244.635,260.708
2014-09-11 08:00,-0.00300049,284.73,285.882,260.228,288.358,287.329,262.728,-0.0,-0.0,244.687,261.113
2014-09-11 09:00,-0.0,281.705,282.916,258.469,285.34,284.205,261.182,-0.0,-0.0,245.253,260.952
2014-09-11 10:00,0.5214,285.97,286.328,260.337,289.166,288.027,262.728,0.454082,0.496305,244.894,261.033
2014-09-11 11:00,0.561874,291.44,289.058,261.625,291.686,290.375,263.787,0.27778,0.399737,244.635,261.355
2014-09-11 12:00,0.495861,297.146,292.211,264.031,295.17,293.082,264.837,0.211831,0.34587,244.531,261.515
2014-09-11 13:00,0.382774,300.317,294.746,265.355,297.683,294.812,265.416,0.164915,0.28042,244.842,261.194
2014-09-11 14:00,0.317782,303.015,296.131,266.358,299.164,295.208,264.488,0.137577,0.235171,244.997,261.113
2014-09-11 15:00,0.287399,303.836,295.244,265.859,297.931,293.35,263.67,0.136316,0.21761,245.151,260.789
2014-09-11 16:00,0.29405,299.858,288.628,261.838,291.686,287.888,261.54,0.23215,0.299536,245.099,260.299
2014-09-11 17:00,0.372822,296.943,277.35,255.974,279.613,277.091,257.53,0.327671,0.415027,244.322,258.372
2014-09-11 18:00,0.506334,302.764,282.799,258.134,284.501,280.998,258.023,0.424523,0.53282,244.583,258.286
2014-09-11 19:00,0.307923,302.68,293.539,265.052,296.433,291.735,262.728,0.297182,0.317388,245.253,259.304
2014-09-11 20:00,0.286841,297.848,294.145,265.254,297.184,294.149,264.488,0.44477,0.415186,245.355,260.052
2014-09-11 21:00,0.504686,294.043,291.694,264.031,294.916,292.545,264.488,0.827358,0.83473,245.507,259.97
2014-09-11 22:00,-0.0090165,289.779,289.805,262.786,292.989,291.193,264.255,-0.0,-0.0,246.357,260.545
2014-09-11 23:00,-0.200758,289.113,288.951,262.261,291.817,290.101,263.318,-0.10144,-0.179794,246.307,260.217
2014-09-12 00:00,-0.00410348,288.43,288.628,262.155,291.555,290.101,263.553,-0.0,-0.0,246.701,260.871
2014-09-12 01:00,0.00157729,287.871,288.195,262.155,291.029,289.689,263.787,-0.0,-0.0,246.258,261.113
2014-09-12 02:00,-0.00135353,286.717,286.772,260.984,289.568,287.469,262.017,-0.0,-0.0,246.798,261.595
2014-09-12 03:00,-0.00125839,287.3,287.322,261.519,289.968,288.584,263.436,-0.0,-0.0,246.993,261.435
2014-09-12 04:00,0.00125351,286.717,287.212,261.412,290.101,288.584,263.318,-0.0,-0.0,246.159,260.463
2014-09-12 05:00,-0.0,286.421,286.772,260.769,289.701,288.445,263.2,-0.0,-0.0,245.91,260.381
2014-09-12 06:00,-0.0,285.97,286.772,260.984,289.568,288.445,263.2,-0.0,-0.0,245.608,260.381
2014-09-12 07:00,-0.0,285.818,286.439,260.553,289.3,287.888,262.61,-0.0,-0.0,245.456,260.381
2014-09-12 08:00,0.00302408,285.512,286.217,260.337,288.897,287.469,262.965,-0.0,-0.0,245.557,260.871
2014-09-12 09:00,0.00745705,285.512,286.661,260.445,289.434,288.306,262.728,-0.0,-0.0,245.507,260.952
2014-09-12 10:00,0.540978,286.569,286.992,260.661,289.835,289.137,263.553,0.421884,0.560522,245.456,261.033
2014-09-12 11:00,0.614694,294.043,290.651,262.786,293.506,291.6,264.488,0.268116,0.485173,244.894,261.113
2014-09-12 12:00,0.514611,299.95,294.346,264.849,297.309,294.016,264.837,0.204599,0.397554,245.405,261.194
2014-09-12 13:00,0.399248,303.592,297.494,266.557,300.263,296.519,265.993,0.154045,0.302724,245.91,261.755
2014-09-12 14:00,0.336456,305.493,299.496,267.935,302.43,298.72,266.108,0.121224,0.247166,247.041,262.857
2014-09-12 15:00,0.291654,306.251,300.433,268.615,303.381,299.616,266.566,0.102145,0.212801,247.331,263.399
2014-09-12 16:00,0.261423,306.101,300.433,268.711,303.381,299.87,266.909,0.0905508,0.193276,247.331,263.476
2014-09-12 18:00,0.256591,304.398,298.929,267.838,301.952,298.334,266.909,0.119769,0.209228,246.603,262.701
2014-09-12 19:00,0.373656,304.872,292.929,263.721,295.424,290.648,262.728,0.241826,0.359885,247.138,261.834
2014-09-12 20:00,0.864701,296.531,271.574,252.168,273.372,272.405,256.035,0.772978,0.935571,247.474,259.721
2014-09-12 21:00,0.810672,296.323,288.951,261.198,291.292,288.445,262.255,0.677363,0.861497,247.57,261.675
2014-09-12 22:00,-0.0,288.291,288.195,261.198,290.764,288.167,262.373,-0.0,-0.0,247.807,261.675
2014-09-12 23:00,-0.236596,289.247,289.486,261.838,292.209,290.101,263.905,-0.104279,-0.170145,247.807,262.072
2014-09-13 00:00,0.00205286,288.841,288.087,261.091,290.897,289.551,262.847,-0.0,-0.0,247.949,261.993
2014-09-13 01:00,-0.00157816,278.482,276.463,255.277,279.613,277.701,258.023,-0.0,-0.0,248.51,260.627
2014-09-13 02:00,-0.0,288.841,288.951,261.944,291.423,289.689,263.67,-0.0,-0.0,248.741,262.701
2014-09-13 03:00,-0.00125964,287.444,287.978,261.519,290.632,289.413,263.787,-0.0,-0.0,248.787,262.545
2014-09-13 04:00,-0.0,286.121,286.772,261.091,289.434,288.445,264.022,-0.0,-0.0,249.108,262.701
2014-09-13 05:00,-0.0,282.408,283.495,259.683,285.895,283.484,260.701,-0.0,-0.0,249.154,262.072
2014-09-13 06:00,-0.0,278.684,279.458,257.346,282.231,278.911,258.638,-0.0,-0.0,248.879,261.435
2014-09-13 07:00,-0.0,283.594,284.755,259.574,287.407,286.202,263.083,-0.0,-0.0,249.199,263.244
2014-09-13 08:00,-0.0,283.76,285.095,259.683,287.679,287.188,263.436,-0.0,-0.0,248.833,263.167
2014-09-13 09:00,-0.0,282.923,284.185,259.024,286.86,286.06,262.728,-0.0,-0.0,248.043,262.309
2014-09-13 10:00,1.09032,283.093,275.436,254.572,277.978,276.015,257.158,0.727,0.976912,247.855,260.627
2014-09-13 12:00,0.504216,299.95,295.045,265.153,298.178,295.734,265.532,0.201235,0.408126,247.996,262.388
2014-09-13 13:00,0.382042,302.848,297.879,266.756,301.231,297.947,266.337,0.14755,0.306187,247.522,261.914
2014-09-13 14:00,0.320763,305.184,299.872,267.74,303.381,299.998,266.795,0.117085,0.24755,247.331,261.435
2014-09-13 15:00,0.278715,306.176,300.898,268.807,304.559,301.264,266.795,0.0984212,0.212034,247.138,261.194
2014-09-13 16:00,0.255334,306.697,301.36,268.615,305.144,301.39,267.137,0.0891508,0.192667,246.603,260.545
2014-09-13 17:00,0.241016,306.176,300.805,268.615,304.559,300.885,266.452,0.08831,0.18498,246.406,259.97
2014-09-13 18:00,0.244422,305.028,299.778,267.838,303.381,299.87,265.993,0.10417,0.197076,246.554,259.97
2014-09-13 19:00,0.246296,302.511,298.358,266.756,302.072,298.72,266.222,0.136003,0.222704,246.652,260.052
2014-09-13 20:00,0.28505,299.485,296.523,265.859,300.02,297.43,266.337,0.220996,0.294709,246.603,259.97
2014-09-13 21:00,0.476859,294.491,292.622,263.721,295.93,294.149,264.837,0.529368,0.567003,247.041,259.97
2014-09-13 22:00,-0.0,289.381,289.593,261.944,292.86,291.6,264.372,-0.0,-0.0,247.283,259.804
2014-09-13 23:00,-0.171942,288.568,288.843,261.519,291.948,290.511,263.67,-0.0824056,-0.150659,247.712,259.804
2014-09-14 00:00,-0.0,288.291,288.412,261.305,291.292,290.238,263.787,-0.0,-0.0,247.807,260.217
2014-09-14 01:00,-0.0015791,288.012,288.628,261.412,291.686,290.511,264.488,-0.0,-0.0,247.617,260.135
2014-09-14 02:00,-0.00135553,287.3,288.195,260.984,291.16,290.375,264.605,-0.0,-0.0,247.09,259.804
2014-09-14 03:00,-0.0,286.421,287.102,260.661,290.234,289.413,264.138,-0.0,-0.0,246.603,258.882
2014-09-14 04:00,-0.0,285.512,286.328,260.011,289.3,288.584,263.553,-0.0,-0.0,246.456,258.713
2014-09-14 05:00,0.00134259,284.57,285.208,259.683,288.222,287.609,263.2,-0.0,-0.0,246.406,258.028
2014-09-14 06:00,-0.0,283.924,284.982,259.464,287.815,287.188,262.847,-0.0,-0.0,246.258,258.457
2014-09-14 07:00,0.00199401,283.261,284.185,259.134,287.27,286.626,262.61,-0.0,-0.0,245.96,257.769
2014-09-14 08:00,-0.0,283.594,284.071,258.913,286.997,286.343,262.492,-0.0,-0.0,245.759,257.508
2014-09-14 09:00,-0.0,283.261,284.071,258.913,286.997,286.202,262.61,-0.0,-0.00787211,245.709,257.682
2014-09-14 10:00,0.535852,284.57,284.642,259.354,287.543,286.626,262.492,0.398375,0.540975,245.658,257.769
2014-09-14 11:00,0.585616,292.414,288.951,261.519,292.079,290.375,262.728,0.261779,0.473706,245.253,257.421
2014-09-14 12:00,0.496183,298.726,293.235,263.825,296.684,294.016,264.488,0.199789,0.389609,244.842,256.982
2014-09-14 13:00,0.38336,302.596,296.523,265.758,300.263,296.91,265.647,0.149594,0.301206,244.531,256.716
2014-09-14 15:00,0.272457,306.4,299.872,267.052,304.089,300.125,265.878,0.104757,0.20995,243.418,255.911
2014-09-14 16:00,0.253227,306.549,300.153,267.544,304.207,300.252,265.993,0.0999825,0.190742,242.875,255.911
2014-09-14 17:00,0.241744,305.95,299.966,267.249,303.854,299.87,265.878,0.104722,0.190136,242.929,255.73
2014-09-14 18:00,0.23887,304.557,298.929,266.756,302.55,298.463,265.647,0.130216,0.203164,241.76,255.183
2014-09-14 19:00,0.245648,302.341,297.59,266.159,301.352,297.818,265.647,0.197138,0.252309,241.419,254.722
2014-09-14 20:00,0.291026,299.203,295.144,264.441,298.426,295.339,264.953,0.400055,0.383678,242.155,255.548
2014-09-14 21:00,0.526411,294.933,291.694,262.366,295.043,292.545,264.138,0.659653,0.680247,242.984,256.091
2014-09-14 22:00,-0.00911825,288.568,287.432,260.011,290.367,287.329,261.66,-0.0,-0.00920541,243.31,256.001
2014-09-14 23:00,-0.15588,289.779,288.628,260.445,291.686,289.413,262.965,-0.0687412,-0.118027,242.155,255.73
2014-09-15 00:00,-0.0,289.113,288.412,260.337,291.555,289.413,263.083,-0.0,-0.0,240.957,254.999
2014-09-15 01:00,-0.00158011,288.152,287.869,260.337,291.029,289.276,262.847,-0.0,-0.0,240.548,254.999
2014-09-15 02:00,-0.00135663,287.871,287.212,260.011,290.632,288.861,262.728,-0.0,-0.0,238.483,254.722
2014-09-15 03:00,-0.0,286.121,284.642,258.358,286.722,284.349,259.614,-0.0,-0.0,234.543,252.439
2014-09-15 04:00,-0.0,286.421,284.982,258.802,287.543,284.636,259.37,-0.0,-0.0,235.038,253.309
2014-09-15 05:00,-0.00134544,258.576,257.166,244.349,259.606,258.224,247.687,-0.0,-0.0,236.071,248.987
2014-09-15 06:00,-0.00155619,271.798,267.18,249.029,269.186,265.48,250.765,-0.0,-0.0,239.288,251.452
2014-09-15 07:00,-0.0,269.865,267.326,249.286,269.35,266.835,250.765,-0.0,-0.0,238.857,252.244
2014-09-15 08:00,-0.0030987,256.062,257.683,243.65,259.236,259.321,248.364,-0.0,-0.0,238.671,250.238
2014-09-15 09:00,-0.00798152,256.589,256.992,243.65,259.051,258.408,247.279,-0.0,-0.0,236.94,248.669
2014-09-15 10:00,1.02932,281.883,263.712,247.067,265.826,262.185,246.732,0.807757,1.03916,236.542,247.371
2014-09-15 11:00,0.754921,292.174,261.34,246.13,261.25,254.472,243.099,0.532658,0.675036,236.609,244.53
2014-09-15 12:00,0.687521,299.579,247.563,238.503,248.733,247.085,240.207,0.546899,0.656516,237.006,241.602
2014-09-15 13:00,0.560429,299.765,253.779,241.646,253.669,250.557,241.808,0.494169,0.557417,237.463,243.577
2014-09-15 14:00,0.613527,291.563,257.339,243.93,259.606,258.957,247.142,0.825889,0.891982,236.94,247.481
2014-09-15 15:00,0.414461,291.931,246.942,238.195,248.52,247.085,239.765,0.66409,0.717676,234.543,241.221
2014-09-15 16:00,0.469582,290.301,254.328,242.081,255.827,254.089,243.667,0.574795,0.61933,233.75,243.818
2014-09-15 17:00,0.51579,290.558,255.587,242.369,257.928,257.671,246.182,0.614728,0.689106,236.542,247.151
2014-09-15 18:00,0.531986,298.533,256.992,243.65,258.304,255.425,245.767,0.437996,0.523891,239.104,246.145
2014-09-15 19:00,0.291883,296.84,286.661,259.574,288.493,283.917,259.005,0.340941,0.352748,240.43,252.925
2014-09-15 20:00,0.433515,298.144,286.439,260.228,288.222,284.492,260.098,0.586713,0.565167,242.378,255.73
2014-09-15 21:00,0.659022,291.809,286.55,260.119,288.763,285.777,261.062,1.00084,1.08775,245.202,258.457
2014-09-15 22:00,-0.0,287.587,286.439,260.228,288.897,286.626,261.301,-0.0,-0.0,245.405,259.051
2014-09-15 23:00,-0.123537,286.864,285.77,260.011,288.087,285.777,261.062,-0.0522992,-0.101743,245.405,259.638
2014-09-16 00:00,-0.00205677,286.569,285.882,260.011,288.358,286.485,261.779,-0.0,-0.0,244.739,259.22
2014-09-16 01:00,-0.0,286.421,286.105,260.445,288.628,286.767,261.66,-0.0,-0.0,244.79,259.97
2014-09-16 02:00,-0.0,286.121,286.217,260.119,288.763,287.048,262.255,-0.0,-0.0,244.531,259.97
2014-09-16 03:00,-0.0,285.665,286.217,260.011,288.897,287.329,262.136,-0.0,-0.0,243.633,260.299
2014-09-16 04:00,-0.0,285.045,285.994,260.011,288.628,287.329,262.373,-0.0,-0.0,242.929,260.381
2014-09-16 05:00,-0.0,285.357,286.217,260.011,288.897,287.748,262.492,-0.0,-0.0,242.765,260.627
2014-09-16 06:00,-0.0,285.357,285.994,260.228,288.628,287.469,262.847,-0.0,-0.0,242.155,260.381
2014-09-16 07:00,-0.0,284.888,285.658,260.011,288.358,287.329,262.136,-0.0,-0.0,242.155,260.381
2014-09-16 08:00,-0.0,284.888,285.433,259.354,287.951,286.626,261.898,-0.0,-0.0,242.765,260.708
2014-09-16 09:00,-0.0,284.41,285.208,259.574,287.679,286.767,262.255,-0.0,-0.0,242.378,260.627
2014-09-16 10:00,0.482967,285.357,285.546,259.244,288.087,286.767,262.136,0.388481,0.475394,242.099,260.052
2014-09-16 11:00,0.568536,290.041,287.102,260.553,289.3,287.748,261.898,0.255732,0.430478,241.647,259.804
2014-09-16 12:00,0.482656,294.491,289.379,261.625,291.686,289.551,262.61,0.195128,0.351186,240.841,260.052
2014-09-16 13:00,0.376087,297.248,291.487,263.203,293.506,290.784,263.318,0.14944,0.279766,241.361,260.135
2014-09-16 14:00,0.308312,299.297,293.336,264.133,295.043,291.871,264.022,0.120392,0.233089,240.899,260.381
2014-09-16 15:00,0.26402,300.947,294.546,264.849,296.307,292.948,264.022,0.101813,0.201887,240.724,260.135
2014-09-16 16:00,0.233428,301.999,295.244,265.355,297.184,293.35,263.436,0.0971655,0.184315,240.665,260.135
2014-09-16 17:00,0.230634,301.653,295.045,265.153,296.809,293.082,263.553,0.106515,0.183449,241.015,259.887
2014-09-16 18:00,0.219739,300.408,294.746,265.153,296.559,292.814,264.022,0.132304,0.198834,240.957,260.135
2014-09-16 19:00,0.233761,298.533,293.438,264.133,295.424,292.006,263.436,0.215919,0.255305,240.957,259.97
2014-09-16 20:00,0.272268,296.219,292.211,263.721,294.149,291.057,263.553,0.417834,0.395127,240.899,260.217
2014-09-16 21:00,0.436551,293.007,290.651,262.681,293.119,290.648,263.318,0.800859,0.807995,241.073,260.299
2014-09-16 22:00,-0.00918998,289.381,289.272,261.944,291.948,290.101,263.436,-0.0,-0.00927783,240.371,260.135
2014-09-16 23:00,-0.110657,288.841,288.951,261.625,291.817,290.101,263.67,-0.0440909,-0.0788575,240.548,260.463
2014-09-17 00:00,-0.0,288.152,288.736,261.412,291.686,290.101,263.318,-0.0,-0.0,241.015,260.627
2014-09-17 01:00,-0.0,287.871,288.628,261.731,291.555,290.375,264.255,-0.0,-0.0,240.724,261.355
2014-09-17 02:00,-0.0,287.587,288.195,261.625,291.029,289.689,263.2,-0.0,-0.0,241.073,261.435
2014-09-17 03:00,-0.00126532,287.01,288.195,261.412,290.897,290.101,264.138,-0.0,-0.0,240.782,261.435
2014-09-17 04:00,0.00126305,286.271,287.651,261.091,290.897,290.101,263.905,-0.0,-0.0,240.074,261.033
2014-09-17 05:00,-0.0013514,285.97,287.432,260.769,290.367,289.276,263.083,-0.0,-0.0,239.834,260.463
2014-09-17 06:00,-0.00156605,285.512,286.772,260.553,289.701,288.999,263.318,-0.0,-0.0,239.774,260.299
2014-09-17 07:00,-0.00202274,285.045,285.658,259.683,288.628,287.188,262.017,-0.0,-0.0,238.919,259.554
2014-09-17 08:00,-0.00315175,283.924,284.414,258.802,287.543,285.919,261.898,-0.0,-0.0,238.919,258.798
2014-09-17 09:00,-0.0,284.888,285.994,260.011,288.897,288.027,262.492,-0.0,-0.0,238.168,258.628
2014-09-17 10:00,0.488462,285.818,286.439,259.902,289.3,288.167,262.017,0.374191,0.422684,238.231,258.798
2014-09-17 11:00,0.586643,292.174,287.869,260.769,290.632,288.306,261.779,0.279585,0.42557,237.721,258.543
2014-09-17 12:00,0.485767,297.248,291.591,262.786,294.021,291.057,263.2,0.197423,0.344377,237.592,258.372
2014-09-17 13:00,0.397138,300.858,291.694,262.786,294.021,290.101,262.017,0.175076,0.288275,237.268,257.855
2014-09-17 14:00,0.337898,301.826,287.978,260.553,289.568,284.779,259.856,0.194689,0.280263,236.874,256.894
2014-09-17 15:00,0.276141,304.398,295.541,264.95,297.184,292.276,262.61,0.116904,0.20514,237.072,257.508
2014-09-17 16:00,0.245734,305.184,296.425,265.456,298.178,292.814,262.965,0.11559,0.191641,237.072,257.595
2014-09-17 17:00,0.387542,305.028,278.721,255.277,280.639,276.169,255.658,0.282098,0.361692,237.333,255.911
2014-09-17 18:00,0.279262,294.156,281.386,257.233,282.517,279.061,257.282,0.263945,0.301601,235.936,255.457
2014-09-17 19:00,0.45575,307.571,288.412,260.876,290.234,285.065,259.37,0.378704,0.445127,236.675,256.181
2014-09-17 20:00,0.80083,300.589,276.208,253.741,278.576,275.551,256.035,0.732651,0.839318,237.592,254.907
2014-09-17 21:00,0.691998,295.583,289.165,261.519,291.029,287.748,261.66,0.839518,0.907154,237.849,258.114
2014-09-17 22:00,-0.00922735,289.247,287.76,260.337,289.434,286.907,261.66,-0.0,-0.0,238.733,258.628
2014-09-17 23:00,-0.0879785,261.251,258.365,243.368,260.524,259.864,245.905,-0.0275894,-0.0493442,234.543,246.258
2014-09-18 00:00,-0.0,282.581,280.909,255.974,283.656,281.146,258.023,-0.0,-0.0,237.137,256.36
2014-09-18 01:00,-0.0,265.095,266.442,247.991,269.35,268.835,253.368,-0.0,-0.0,237.721,255.275
2014-09-18 02:00,-0.00136034,263.636,264.788,247.067,267.354,266.498,252.594,-0.0,-0.0,238.42,254.068
2014-09-18 03:00,-0.0,264.739,265.696,247.728,267.857,266.835,252.205,-0.0,-0.0,237.849,253.309
2014-09-18 04:00,-0.00126517,282.059,278.968,255.277,281.221,277.853,256.41,-0.0,-0.0,238.231,254.722
2014-09-18 05:00,-0.00135451,287.155,285.882,259.244,287.951,285.065,260.581,-0.0,-0.0,237.528,255.548
2014-09-18 06:00,-0.0,272.061,272.391,251.676,275.087,273.99,255.658,-0.0,-0.0,235.317,253.88
2014-09-18 07:00,-0.0,233.989,229.373,228.192,229.158,228.856,224.657,-0.0,-0.0,221.484,225.011
2014-09-18 08:00,0.00317928,232.213,230.265,228.378,230.574,230.17,226.746,-0.0,-0.0,223.224,227.877
2014-09-18 09:00,-0.0,237.078,238.585,232.319,238.938,238.049,233.344,-0.0,-0.0,227.78,234.845
2014-09-18 10:00,0.325294,268.073,263.245,245.995,265.482,264.279,249.838,0.512862,0.486943,231.63,247.59
2014-09-18 11:00,0.0,0.0,0.0,0.0,0.0,0.0,0.0,0.0,0.0,0.0,0.0
2014-09-18 12:00,0.74185,298.242,260.528,244.349,263.393,262.712,249.705,0.671692,0.792233,234.257,250.442
2014-09-18 13:00,0.360842,300.589,285.882,258.691,287.679,283.049,258.515,0.20184,0.296708,235.038,253.88
2014-09-18 14:00,0.314193,303.998,295.442,264.543,297.558,292.545,263.2,0.121781,0.228382,235.178,254.907
2014-09-18 15:00,0.273909,305.416,296.425,264.95,298.549,293.75,263.318,0.108815,0.197894,235.593,255.091
2014-09-18 16:00,0.246308,305.493,296.621,264.95,298.672,293.617,262.728,0.108665,0.187151,234.968,255.639
2014-09-18 17:00,0.240532,305.493,296.621,265.355,298.795,294.016,263.083,0.118898,0.186685,234.543,256.001
2014-09-18 18:00,0.291529,300.408,289.911,261.091,292.079,288.167,261.779,0.230382,0.287776,234.185,255.821
2014-09-18 19:00,0.351012,297.549,285.658,259.024,287.407,284.205,260.461,0.333008,0.377849,235.247,255.821
2014-09-18 20:00,0.321431,299.485,293.336,263.099,295.677,291.735,262.728,0.461232,0.433811,235.317,256.539
2014-09-18 21:00,0.482374,295.796,291.694,262.366,294.021,291.057,263.2,0.643053,0.642407,234.756,256.181
2014-09-18 22:00,-0.00926589,291.563,289.699,261.305,292.47,289.413,262.136,-0.0,-0.0,234.185,254.162
2014-09-18 23:00,-0.0587253,290.939,289.379,261.198,292.34,289.551,262.61,-0.0220989,-0.0296433,232.709,253.88
2014-09-19 00:00,-0.00206163,289.779,289.272,261.091,292.079,289.826,262.61,-0.0,-0.0,233.382,254.443
2014-09-19 01:00,-0.0,289.381,288.951,260.876,292.079,289.826,262.847,-0.0,-0.0,233.382,254.907
2014-09-19 02:00,-0.00136171,288.977,288.412,260.661,291.292,289.276,262.136,-0.0,-0.0,232.405,255.091
2014-09-19 03:00,-0.0,288.841,288.195,260.661,291.16,288.861,262.847,-0.0,-0.0,231.63,254.162
2014-09-19 04:00,-0.0,279.859,277.476,254.926,280.201,276.938,257.158,-0.0,-0.0,231.865,252.342
2014-09-19 05:00,-0.0,275.02,273.865,252.656,276.468,273.675,255.406,-0.0,-0.0,233.968,253.021
2014-09-19 06:00,-0.0,287.444,286.992,259.793,289.568,287.188,261.779,-0.0,0.00159144,234.543,254.162
2014-09-19 07:00,-0.0,282.234,278.35,254.454,280.054,276.784,254.137,-0.0,0.00206248,230.916,250.032
2014-09-19 08:00,-0.00320749,267.444,267.618,249.158,270.332,269.657,253.753,-0.0,-0.0,232.633,251.949
2014-09-19 09:00,-0.0176481,283.261,282.566,257.459,285.061,282.613,259.492,-0.0,-0.0,233.603,253.69
2014-09-19 10:00,1.39736,277.026,265.243,247.597,267.69,267.171,252.335,1.43078,1.82628,233.308,251.252
2014-09-19 11:00,0.460253,292.653,285.433,258.691,287.679,284.349,259.614,0.273369,0.360626,233.968,253.117
2014-09-19 12:00,0.464222,297.549,288.303,260.228,290.101,285.919,260.219,0.218164,0.320323,232.175,252.634
2014-09-19 13:00,0.489009,300.769,281.386,256.778,283.797,281.146,258.638,0.349392,0.406756,231.156,252.537
2014-09-19 14:00,0.38805,291.563,268.343,248.9,268.69,265.65,249.438,0.345048,0.400184,230.266,247.481
2014-09-19 15:00,0.495533,295.042,273.599,252.168,276.315,275.24,256.785,0.495155,0.564274,232.784,252.537
2014-09-19 16:00,0.395538,282.581,265.243,247.465,267.857,267.339,253.111,0.566924,0.622468,234.041,251.452
2014-09-19 17:00,0.282896,303.181,290.545,261.731,291.686,286.485,260.461,0.165556,0.2324,234.041,252.925
2014-09-19 18:00,0.27628,301.565,288.087,260.228,289.3,284.636,260.098,0.221614,0.259348,234.329,253.405
2014-09-19 19:00,0.0,0.0,0.0,0.0,0.0,0.0,0.0,0.0,0.0,0.0,0.0
2014-09-19 20:00,0.570166,301.653,286.439,259.244,288.222,284.492,260.098,0.599877,0.640331,235.662,254.349
2014-09-19 21:00,0.142784,293.587,290.545,262.049,293.248,290.101,262.965,0.371319,0.319186,234.041,254.162
2014-09-19 22:00,-0.0,275.932,263.556,245.723,262.15,258.591,243.949,-0.0,-0.0,225.352,239.39
2014-09-19 23:00,-0.078403,262.074,256.294,242.369,256.406,254.664,242.527,-0.0165959,-0.0230861,226.778,241.475
2014-09-20 00:00,-0.0,286.569,284.528,258.469,287.134,284.061,259.492,-0.0,-0.0,231.473,252.439
2014-09-20 01:00,-0.00158637,289.514,288.195,260.876,291.029,288.722,262.136,-0.0,-0.0,233.382,253.785
2014-09-20 02:00,-0.0,287.587,285.433,258.802,287.679,284.779,259.249,-0.00115419,-0.0,231.787,252.047
2014-09-20 03:00,-0.0,283.428,276.718,254.217,276.772,271.926,249.572,-0.0,-0.0,228.662,247.261
2014-09-20 04:00,0.00126962,268.986,256.644,242.369,255.244,251.947,239.173,-0.0,-0.0,223.849,236.614
2014-09-20 05:00,-0.0,284.888,279.58,255.16,280.639,277.091,253.368,-0.0,-0.0,227.055,248.241
2014-09-20 06:00,-0.0,265.095,261.017,244.21,261.791,259.684,245.905,-0.0,-0.0,226.216,244.647
2014-09-20 07:00,-0.00205337,269.576,259.373,243.509,259.606,255.803,240.793,-0.0,-0.0,224.359,239.523
2014-09-20 08:00,0.00323638,240.898,230.265,228.749,228.871,227.517,224.304,-0.0,-0.0,219.503,225.011
2014-09-20 09:00,-0.0,251.282,240.277,233.005,238.938,237.581,230.276,-0.0,-0.0,223.329,231.695
2014-09-20 10:00,0.576019,265.791,247.357,237.415,242.978,238.747,229.449,0.71827,0.856429,219.014,230.694
2014-09-20 12:00,0.410333,268.382,233.392,230.743,230.853,226.974,221.046,0.490698,0.555188,217.491,224.61
2014-09-20 13:00,0.431633,282.234,242.37,236.306,237.2,230.17,222.511,0.431164,0.496145,215.734,227.323
2014-09-20 14:00,0.489046,280.982,255.764,241.791,254.657,250.957,237.977,0.740173,0.786037,225.835,241.093
2014-09-20 15:00,0.433296,298.822,277.35,254.099,279.466,275.396,253.111,0.364687,0.406193,230.266,250.032
2014-09-20 16:00,0.266808,297.848,281.029,255.858,281.655,277.701,255.909,0.20517,0.240731,231.076,251.252
2014-09-20 17:00,0.39698,300.225,275.694,253.02,278.128,275.24,255.658,0.327924,0.404964,232.02,251.85
2014-09-20 18:00,0.385224,300.042,285.433,258.022,286.86,283.773,259.127,0.34118,0.400297,231.394,252.146
2014-09-20 19:00,0.364047,257.605,200.125,215.909,198.671,198.206,202.255,0.653891,0.739302,199.589,199.57
2014-09-20 20:00,0.867953,284.249,201.41,217.576,199.715,198.206,202.5,0.931435,1.10041,203.192,201.402
2014-09-20 21:00,1.75333,294.043,207.178,219.183,204.584,201.694,204.422,1.33008,1.7087,209.748,207.678
2014-09-20 23:00,-0.0915964,243.066,222.552,226.092,217.78,211.983,210.504,-0.0193886,-0.0198154,210.966,215.061
2014-09-21 00:00,-0.0,235.601,223.252,225.897,220.519,218.235,215.674,-0.0,-0.0,215.593,219.134
2014-09-21 01:00,-0.00158789,250.598,241.913,234.017,240.152,236.872,227.431,-0.0,-0.0,221.031,232.347
2014-09-21 02:00,-0.0,238.442,235.8,231.274,233.31,231.968,228.278,-0.0,-0.0,221.371,229.314
2014-09-21 03:00,-0.0,218.393,218.082,223.694,217.072,216.652,215.674,-0.0,-0.0,214.879,216.652
2014-09-21 04:00,0.00127195,233.989,229.373,228.004,228.583,227.246,224.481,-0.0,-0.0,220.337,226.379
2014-09-21 05:00,-0.0,253.206,243.719,235.662,242.515,240.35,231.905,-0.0,-0.0,222.906,234.389
2014-09-21 06:00,-0.0,269.283,258.871,242.799,258.116,253.896,239.765,-0.0,-0.0,224.258,238.303
2014-09-21 07:00,-0.002064,260.827,249.185,237.572,247.446,243.679,234.134,-0.0,-0.0,224.359,234.542
2014-09-21 08:00,-0.00326596,283.093,280.549,255.043,282.374,279.361,256.535,-0.0,-0.0,229.093,249.721
2014-09-21 09:00,-0.00932065,274.314,266.442,246.533,266.508,263.759,246.319,-0.0,-0.00940975,226.405,243.093
2014-09-21 10:00,0.395354,284.888,281.505,255.742,283.656,281.293,258.638,0.343329,0.429836,228.575,248.775
2014-09-21 12:00,0.581992,296.427,286.439,258.913,288.897,287.048,261.898,0.332666,0.466651,230.266,253.117
2014-09-21 13:00,0.497099,298.63,283.264,256.778,286.447,285.065,260.942,0.399099,0.467745,230.511,254.722
2014-09-21 14:00,0.36295,297.146,286.772,258.802,289.701,287.888,262.017,0.250054,0.337162,230.593,254.814
2014-09-21 15:00,0.322636,297.248,287.212,259.134,289.835,287.888,261.898,0.205698,0.288087,230.511,254.536
2014-09-21 16:00,0.28534,294.156,282.448,256.32,284.079,281.441,257.158,0.187183,0.273794,228.488,252.047
2014-09-21 17:00,0.275946,286.569,267.909,247.859,265.826,262.008,245.35,0.198597,0.282763,224.959,242.105
2014-09-21 18:00,0.246028,299.108,293.843,262.681,296.684,294.149,264.721,0.113006,0.214289,233.159,257.421
2014-09-21 19:00,0.235126,297.045,294.546,263.099,297.309,295.339,265.532,0.11376,0.220418,235.317,258.882
2014-09-21 20:00,0.315338,295.902,292.52,261.731,295.297,293.483,264.138,0.224391,0.3319,235.867,260.217
2014-09-21 21:00,0.312208,291.065,290.965,260.984,293.892,292.814,264.721,0.40931,0.467706,237.849,260.871
2014-09-21 22:00,-0.00938978,287.3,288.951,260.011,291.948,291.193,263.905,-0.0,-0.0,237.463,260.217
2014-09-21 23:00,-0.278465,287.01,287.869,259.354,291.029,290.375,264.605,-0.0221907,-0.0231516,237.203,259.387
2014-09-22 00:00,-0.00206757,285.97,287.651,259.024,290.367,289.826,263.787,-0.0,-0.0,237.977,260.135
2014-09-22 01:00,-0.00158949,284.888,285.658,258.134,288.222,287.469,261.779,-0.0,-0.0,237.463,258.713
2014-09-22 02:00,-0.0,285.045,286.661,258.58,289.434,288.999,263.553,-0.0,-0.0,238.104,259.051
2014-09-22 03:00,-0.0,284.249,285.882,257.91,289.032,288.584,263.318,-0.0,-0.0,237.268,258.028
2014-09-22 04:00,-0.00127436,284.087,285.658,257.91,288.493,288.167,263.2,-0.0,-0.0,236.475,258.543
2014-09-22 05:00,-0.0,283.76,285.433,257.91,288.222,288.027,262.965,-0.0,-0.0,237.137,258.967
2014-09-22 06:00,-0.0,283.428,284.982,257.798,287.951,287.748,262.965,-0.0,-0.0,236.94,258.628
2014-09-22 07:00,-0.0,283.093,284.642,257.346,287.679,287.329,263.2,-0.0,-0.0,236.542,257.855
2014-09-22 08:00,-0.0,283.093,284.755,257.233,287.543,287.609,263.083,-0.0,0.00332775,237.657,258.543
2014-09-22 09:00,-0.0,282.753,284.3,257.006,287.27,287.329,262.728,-0.0,-0.0,237.977,259.135
2014-09-22 10:00,0.51079,284.41,284.982,257.685,288.087,287.469,262.61,0.340998,0.545423,237.849,257.942
2014-09-22 12:00,0.484247,296.531,291.591,261.625,294.149,292.006,263.67,0.183798,0.394051,238.733,257.942
2014-09-22 13:00,0.36503,299.013,293.641,263.099,296.182,293.216,263.553,0.134202,0.295786,239.349,257.421
2014-09-22 14:00,0.303825,301.125,295.442,264.031,297.931,294.547,264.138,0.105926,0.238722,239.714,257.07
2014-09-22 15:00,0.261387,302.256,296.327,264.95,298.918,295.076,264.022,0.0878755,0.204382,239.894,256.982
2014-09-22 16:00,0.243537,302.932,297.204,265.456,299.531,295.471,264.255,0.0803102,0.190222,239.532,256.628
2014-09-22 17:00,0.218835,302.426,296.815,265.254,299.287,295.602,264.721,0.0769118,0.177853,239.894,256.982
2014-09-22 18:00,0.213373,301.39,296.131,265.052,298.549,294.547,264.372,0.0882939,0.18464,240.134,257.595
2014-09-22 19:00,0.224105,299.297,295.045,264.339,297.184,293.617,264.488,0.129455,0.217789,240.899,257.508
2014-09-22 20:00,0.38136,298.242,291.798,262.576,294.021,290.921,262.728,0.322897,0.415401,240.253,256.982
2014-09-22 21:00,0.730575,294.268,289.911,261.519,292.34,289.826,262.847,0.771103,0.889112,240.371,256.894
2014-09-22 22:00,-0.0,289.247,289.272,260.876,291.948,290.238,262.847,-0.0,-0.0,240.841,257.333
2014-09-22 23:00,-0.21327,289.113,288.628,260.445,291.423,289.551,262.728,-0.0250028,-0.0264996,240.782,256.894
2014-09-23 00:00,-0.0,288.291,287.978,260.119,290.632,288.722,263.083,-0.0,-0.0,240.841,256.628
2014-09-23 01:00,-0.00159119,287.871,287.651,260.011,290.234,288.306,262.61,-0.0,-0.0016064,240.841,256.539
2014-09-23 02:00,-0.00136797,287.3,287.322,260.011,289.835,287.888,262.017,-0.0,-0.0,240.782,256.45
2014-09-23 03:00,-0.0,287.587,286.992,259.902,289.835,288.167,262.492,-0.0,-0.0,240.312,256.539
2014-09-23 04:00,-0.0,286.864,286.882,259.683,289.701,288.027,262.136,-0.0,-0.0,239.894,255.911
2014-09-23 05:00,-0.0,286.569,286.439,259.683,289.434,287.609,262.492,-0.0,-0.0,239.532,256.36
2014-09-23 06:00,-0.0,285.665,286.217,259.134,289.166,287.888,262.373,-0.0,-0.0,238.546,256.001
2014-09-23 07:00,-0.0,285.357,286.105,259.024,289.166,288.027,262.136,-0.0,-0.0,238.231,256.181
2014-09-23 08:00,-0.0033272,285.818,286.661,259.354,289.568,288.445,262.847,-0.0,-0.00335901,238.231,256.894
2014-09-23 09:00,-0.0,285.97,286.661,259.024,289.568,288.445,262.728,-0.0,-0.0,238.041,257.942
2014-09-23 10:00,0.533571,287.3,286.992,259.134,289.968,288.445,262.255,0.346898,0.500196,238.168,257.682
2014-09-23 11:00,0.592188,294.156,289.911,260.337,292.209,289.826,262.492,0.245131,0.464994,238.733,257.942
2014-09-23 12:00,0.483187,299.579,292.417,262.155,294.149,290.784,262.847,0.184365,0.368472,237.528,257.246
2014-09-23 13:00,0.363303,301.913,293.944,262.786,295.17,290.921,262.61,0.136265,0.281517,237.137,256.894
2014-09-23 14:00,0.301314,303.674,295.541,0.0,0.0,0.0,0.0,0.110167,0.0,0.0,0.0
2014-09-23 15:00,0.261846,304.078,294.446,263.411,295.55,290.648,262.255,0.0994966,0.201163,237.333,256.001
2014-09-23 16:00,0.237763,304.557,295.935,264.543,297.434,292.41,262.728,0.0865866,0.184544,237.657,255.821
2014-09-23 17:00,0.229288,304.159,295.935,264.236,297.558,292.276,262.255,0.0941627,0.185738,237.203,255.275
2014-09-23 18:00,0.230496,301.826,293.031,262.995,294.661,289.964,261.779,0.138238,0.214923,237.657,254.814
2014-09-23 19:00,0.244485,300.589,293.133,262.995,294.916,290.648,261.54,0.185773,0.246822,237.785,254.999
2014-09-23 20:00,0.290228,298.144,292.108,262.155,294.149,290.101,262.136,0.336121,0.353624,237.785,255.275
2014-09-23 21:00,0.517123,295.042,290.123,261.091,292.209,288.722,261.301,0.833594,0.843339,238.294,255.091
2014-09-23 22:00,-0.0,280.427,278.101,254.69,280.785,278.307,256.909,-0.0,-0.0,237.849,254.256
2014-09-23 23:00,-0.121596,289.779,287.102,259.574,289.434,286.485,261.062,-0.0278257,-0.033178,239.104,255.821
2014-09-24 00:00,-0.0,289.779,288.195,260.119,290.897,288.306,261.421,-0.0,-0.0,238.857,256.091
2014-09-24 01:00,0.00159299,289.247,288.195,260.011,290.764,288.027,262.373,-0.0,-0.0,239.288,255.911
2014-09-24 02:00,-0.0,288.977,287.76,259.793,290.5,287.748,261.421,-0.0,-0.0,238.795,255.821
2014-09-24 03:00,0.00127786,288.43,287.102,259.354,289.701,287.188,261.898,-0.0,-0.0,238.795,256.091
2014-09-24 04:00,-0.0,287.871,286.772,259.134,289.166,286.485,260.942,-0.0,-0.0,238.546,255.911
2014-09-24 05:00,-0.0,272.322,272.256,250.931,274.778,273.2,255.153,-0.0,-0.0,238.919,254.629
2014-09-24 06:00,0.00160415,276.811,275.823,253.14,277.828,275.396,255.153,-0.0,-0.0,238.231,253.974
2014-09-24 07:00,-0.00209711,286.271,283.38,257.233,284.781,281.293,256.66,-0.0,-0.0,237.913,253.69
2014-09-24 08:00,-0.00335886,285.357,282.096,256.434,283.23,279.661,255.909,-0.0,-0.0,237.006,253.213
2014-09-24 09:00,-0.0,285.818,283.956,256.892,285.757,282.758,258.392,-0.0,-0.0,237.721,254.907
2014-09-24 10:00,0.777104,286.864,280.549,255.51,282.231,278.76,257.158,0.532644,0.653777,237.463,254.256
2014-09-24 11:00,0.566552,292.414,282.331,256.089,282.66,278.307,254.519,0.303258,0.456917,234.257,251.949
2014-09-24 12:00,0.49453,290.171,267.909,248.252,267.016,262.537,243.525,0.376846,0.455572,228.835,244.294
2014-09-24 13:00,0.480559,296.427,277.098,253.741,278.278,275.24,254.264,0.409575,0.481951,234.257,252.537
2014-09-24 14:00,0.334314,293.007,276.08,252.656,276.315,272.246,252.594,0.360473,0.469759,234.041,252.047
2014-09-24 15:00,0.301787,300.134,284.071,257.798,283.938,278.609,254.9,0.167114,0.248108,233.53,251.751
2014-09-24 16:00,0.219282,297.549,284.642,257.685,284.22,279.361,255.532,0.150044,0.213656,234.041,252.047
2014-09-24 17:00,0.299966,271.261,220.75,225.897,214.141,210.219,209.201,0.351398,0.416223,206.905,210.984
2014-09-24 18:00,0.466348,272.061,199.463,217.106,197.601,196.363,201.763,0.780247,0.886793,200.945,200.502
2014-09-24 19:00,0.581676,273.831,201.41,217.809,200.227,199.543,203.708,0.838493,0.968204,202.469,202.271
2014-09-24 20:00,0.971403,282.408,198.095,216.392,195.375,194.446,197.401,1.08726,1.27288,200.413,198.603
2014-09-24 21:00,1.54152,272.322,209.734,221.17,207.269,205.349,207.197,1.255,1.63607,207.697,208.371
2014-09-24 22:00,-0.00952897,230.231,218.862,224.305,216.355,214.364,214.671,-0.0,-0.0,212.765,215.332
2014-09-24 23:00,-0.246898,250.598,238.83,233.513,236.948,233.474,226.574,-0.0334477,-0.0365579,223.224,232.669
2014-09-25 00:00,-0.0,260.827,248.583,238.195,245.248,236.872,225.709,-0.0,-0.0,224.054,236.9
2014-09-25 01:00,-0.0,269.283,255.05,241.646,253.069,246.035,233.661,-0.0,-0.0,223.746,236.179
2014-09-25 02:00,-0.0,242.013,221.481,226.287,214.141,210.219,210.289,-0.0,-0.0,208.838,212.8
2014-09-25 03:00,-0.0,213.142,202.646,218.73,201.233,200.415,203.947,-0.0,-0.0,202.222,203.113
2014-09-25 04:00,-0.001282,213.142,201.41,218.041,199.196,198.656,203.708,-0.0,-0.0,201.973,200.956
2014-09-25 05:00,-0.0,222.276,210.707,221.6,208.556,207.274,209.42,-0.0,-0.0,208.464,209.379
2014-09-25 06:00,-0.0,204.719,200.774,217.576,199.715,197.752,201.515,-0.0,-0.0,200.413,200.956
2014-09-25 07:00,-0.00210854,222.276,213.921,222.027,212.997,211.284,211.992,-0.0,-0.0,211.8,213.382
2014-09-25 08:00,-0.0,240.898,231.14,228.934,230.012,226.701,223.233,-0.0,-0.0,218.391,226.379
2014-09-25 09:00,-0.0,261.251,251.147,239.871,250.207,246.035,234.916,-0.0,-0.0,225.156,237.748
2014-09-25 10:00,0.602396,272.322,251.339,239.721,250.415,244.112,231.419,0.601399,0.744308,223.434,235.146
2014-09-25 11:00,0.55759,260.395,224.279,226.674,222.162,218.857,216.269,0.619474,0.728868,214.293,219.372
2014-09-25 12:00,0.479138,277.451,243.049,235.823,240.631,235.677,226.574,0.464631,0.547801,221.484,230.354
2014-09-25 13:00,0.546238,283.261,251.147,239.871,251.242,249.144,238.577,0.570772,0.632745,229.685,241.475
2014-09-25 14:00,0.543834,285.818,255.05,242.225,256.789,255.803,243.241,0.546801,0.625898,233.968,247.04
2014-09-25 15:00,0.291987,293.93,268.916,249.414,267.857,262.537,246.182,0.196705,0.266582,234.041,247.59
2014-09-25 16:00,0.296274,295.476,277.224,254.217,275.242,269.494,249.305,0.200253,0.264446,232.784,248.025
2014-09-25 17:00,0.285598,295.368,279.336,255.393,278.128,272.724,251.159,0.192064,0.264876,233.382,248.882
2014-09-25 18:00,0.31712,287.155,269.908,249.797,269.842,265.99,247.415,0.329222,0.368415,232.557,247.371
2014-09-25 20:00,0.620383,287.444,263.088,245.859,260.706,255.614,239.47,0.6264,0.710045,227.78,240.446
2014-09-25 21:00,0.765834,292.294,282.448,257.346,283.088,279.061,255.28,0.914454,1.01105,237.072,253.88
2014-09-25 22:00,-0.00957945,283.76,275.436,253.261,274.933,270.148,248.634,-0.0,-0.0,233.896,249.408
2014-09-25 23:00,-0.171489,284.888,280.187,255.858,281.655,277.701,255.532,-0.0390923,-0.0399528,238.104,254.907
2014-09-26 00:00,-0.00207741,287.587,284.642,258.246,286.172,282.758,258.638,-0.0,-0.0,237.463,255.73
2014-09-26 01:00,-0.0,287.729,285.208,258.691,286.997,283.773,259.127,-0.0,-0.0,238.041,255.821
2014-09-26 02:00,-0.0,287.444,285.095,258.58,287.134,284.061,260.098,-0.0,-0.0,238.546,256.271
2014-09-26 03:00,-0.00128208,260.395,262.3,245.995,264.27,263.586,250.369,-0.0,-0.0,237.203,253.5
2014-09-26 04:00,0.0012847,274.314,270.329,250.931,272.264,269.0,253.111,-0.0,-0.0,237.849,254.162
2014-09-26 05:00,-0.00276465,272.061,267.033,248.9,268.358,265.309,249.838,-0.0,-0.0,235.455,251.652
2014-09-26 06:00,-0.0,283.428,279.213,256.089,280.201,276.323,253.881,-0.0,-0.0,233.968,251.751
2014-09-26 07:00,0.00212017,283.093,278.721,255.277,279.907,276.477,253.111,-0.0,-0.0,233.308,250.748
2014-09-26 08:00,-0.0,282.923,278.968,255.277,280.201,276.631,253.497,-0.0,-0.0,232.557,250.748
2014-09-26 09:00,-0.0,283.093,278.968,254.926,280.054,276.631,253.881,-0.0,-0.0,232.709,250.646
2014-09-26 10:00,0.612221,280.05,265.243,247.597,263.745,257.486,240.06,0.481341,0.653392,227.055,242.23
2014-09-26 11:00,0.523318,290.301,280.789,255.974,281.221,277.091,253.753,0.275582,0.451006,232.405,251.252
2014-09-26 12:00,0.350009,281.705,257.339,242.942,253.269,247.293,233.503,0.253278,0.359518,221.819,235.444
2014-09-26 13:00,0.34575,289.381,267.033,248.382,262.863,255.614,237.07,0.195608,0.312563,226.592,242.848
2014-09-26 14:00,0.293975,300.947,291.174,262.155,291.555,286.485,259.735,0.115851,0.23524,233.456,254.536
2014-09-26 15:00,0.235427,299.391,287.978,260.445,287.134,281.146,256.035,0.112528,0.207009,230.755,251.552
2014-09-26 16:00,0.309464,279.667,249.185,238.503,245.024,239.667,229.781,0.277057,0.348274,223.224,233.617
2014-09-26 17:00,0.308118,292.653,271.162,251.18,269.679,263.933,246.044,0.245877,0.320698,229.263,246.929
2014-09-26 18:00,0.351416,282.753,260.201,244.21,259.421,255.614,243.241,0.351397,0.417382,224.959,240.053
2014-09-26 19:00,0.300956,297.449,286.661,259.574,287.407,283.049,258.147,0.267121,0.320596,232.633,253.974
2014-09-26 20:00,0.347387,296.84,289.486,261.305,290.632,286.767,261.062,0.408983,0.437549,234.756,255.821
2014-09-26 21:00,0.712124,295.69,285.77,259.244,287.134,283.194,259.005,0.71033,0.807567,234.401,255.091
2014-09-26 22:00,-0.0,290.041,287.541,260.228,289.3,286.06,260.701,-0.0,-0.0,234.756,256.271
2014-09-26 23:00,-0.109035,286.717,284.071,257.572,286.172,283.484,259.37,-0.0447611,-0.0500352,235.386,255.821
2014-09-27 00:00,-0.0,268.686,267.473,248.642,269.679,268.835,253.497,-0.0,-0.0,236.139,254.443
2014-09-27 01:00,-0.0,276.376,269.908,249.797,271.142,267.339,249.971,-0.0,-0.0,232.709,250.95
2014-09-27 02:00,-0.0,254.396,246.942,238.349,247.229,243.461,233.976,-0.0,0.00138863,227.601,240.835
2014-09-27 03:00,-0.0,256.062,235.011,231.45,230.012,225.038,218.792,-0.0,-0.0,215.31,222.529
2014-09-27 04:00,-0.0,264.739,244.38,236.466,240.631,235.435,223.949,-0.0,-0.0,218.642,229.137
2014-09-27 05:00,-0.00138617,252.585,243.273,235.662,241.107,237.109,227.94,-0.0,-0.0,222.585,236.325
2014-09-27 06:00,-0.0,243.066,236.06,232.319,234.107,231.968,227.601,-0.0,-0.0,220.57,229.314
2014-09-27 07:00,-0.002132,263.255,250.371,238.81,248.093,244.544,234.291,-0.0,0.00215238,224.661,236.757
2014-09-27 08:00,-0.00345802,282.234,279.823,255.626,282.231,279.511,258.023,-0.0,-0.0,233.085,254.536
2014-09-27 09:00,-0.0,286.271,284.869,258.358,287.134,284.205,259.614,-0.0,-0.0,234.329,254.629
2014-09-27 10:00,0.544973,281.165,267.764,248.9,266.678,261.477,243.099,0.468637,0.584569,227.147,244.056
2014-09-27 12:00,0.463165,297.449,285.546,258.802,285.618,280.998,256.41,0.210637,0.36754,231.236,251.85
2014-09-27 13:00,0.355167,299.672,287.212,259.464,286.585,281.146,256.535,0.152347,0.279583,232.175,251.85
2014-09-27 14:00,0.333442,301.565,281.624,257.346,281.51,275.861,254.519,0.185168,0.2753,233.382,251.85
2014-09-27 15:00,0.307938,300.947,281.386,256.549,281.51,276.015,254.009,0.199822,0.280303,233.896,251.552
2014-09-27 16:00,0.297298,282.581,261.34,243.65,261.25,257.856,240.207,0.465953,0.514709,231.709,246.929
2014-09-27 17:00,0.344149,261.251,201.41,218.272,200.227,199.543,201.266,0.788943,0.889883,203.429,203.929
2014-09-27 18:00,0.464911,270.434,215.64,223.283,213.381,211.284,209.201,0.662335,0.76891,213.845,215.061
2014-09-27 19:00,0.559171,284.888,235.538,232.834,230.294,224.19,217.639,0.519041,0.627241,214.734,222.529
2014-09-27 20:00,0.904029,284.41,217.685,223.899,214.517,212.329,211.358,0.905119,1.08588,214.441,215.867
2014-09-27 21:00,1.80265,275.707,214.358,222.868,212.609,210.931,212.619,1.41142,1.89816,212.922,213.952
2014-09-27 22:00,-0.019375,225.382,212.578,222.238,211.028,209.133,210.289,-0.0,-0.0,210.102,210.984
2014-09-27 23:00,-0.0926981,256.589,233.392,231.098,229.158,224.19,218.982,-0.047653,-0.0534767,216.424,223.377
2014-09-28 00:00,-0.00208323,225.382,217.285,223.283,213.763,211.635,211.358,-0.0,-0.0,211.303,214.511
2014-09-28 02:00,-0.0,262.869,253.04,241.354,251.447,247.085,235.537,-0.0,-0.0,223.746,238.85
2014-09-28 03:00,-0.0012866,258.096,248.583,239.115,246.575,241.921,232.867,-0.0,-0.0,222.259,236.325
2014-09-28 04:00,-0.0,273.831,260.854,245.587,256.789,249.753,232.227,-0.0,-0.0,220.916,236.9
2014-09-28 05:00,-0.0,270.151,253.411,241.936,248.52,239.895,226.402,-0.0,-0.0,216.963,231.53
2014-09-28 06:00,-0.0,262.074,241.451,235.01,236.948,229.647,219.739,-0.0,-0.0,215.452,225.604
2014-09-28 07:00,-0.00214401,268.073,250.76,240.469,246.355,238.978,225.535,-0.0,-0.0,219.26,230.524
2014-09-28 08:00,-0.00349247,268.382,250.175,238.963,246.355,239.895,226.056,-0.0,-0.0,219.503,231.198
2014-09-28 09:00,0.0116094,268.382,251.721,240.021,248.093,242.143,228.949,-0.0,-0.0,219.137,232.347
2014-09-28 10:00,0.439767,264.739,238.83,232.491,235.155,230.429,223.053,0.470706,0.586376,215.873,225.21
2014-09-28 12:00,0.34982,280.427,251.147,239.721,246.575,239.438,227.26,0.282574,0.395787,217.491,229.838
2014-09-28 13:00,0.2804,274.551,246.102,236.784,242.049,237.109,226.402,0.257199,0.349133,217.752,226.76
2014-09-28 14:00,0.266371,266.131,231.14,229.484,228.001,224.19,218.982,0.326914,0.406093,216.287,221.213
2014-09-28 15:00,0.278112,260.395,223.252,226.481,221.182,218.235,215.674,0.386778,0.461175,214.588,217.669
2014-09-28 16:00,0.271324,260.395,227.845,228.564,225.919,224.19,221.046,0.406033,0.481585,219.014,223.167
2014-09-28 17:00,0.310811,265.791,226.261,228.192,222.485,220.384,218.601,0.378082,0.449435,214.879,219.608
2014-09-28 18:00,0.403766,265.446,221.841,225.897,220.184,218.235,217.055,0.493363,0.585063,216.56,219.372
2014-09-28 19:00,0.415368,274.787,239.559,234.35,235.672,233.722,228.278,0.433927,0.521565,219.624,226.187
2014-09-28 20:00,0.76994,275.251,222.904,226.674,220.519,218.857,218.218,0.76613,0.910172,215.167,217.418
2014-09-28 21:00,0.596933,274.073,252.479,239.57,250.207,247.915,238.128,0.521726,0.660959,226.499,236.757
2014-09-28 22:00,-0.0097454,289.514,287.212,259.574,289.701,286.343,260.822,-0.0,-0.00983857,230.593,250.95
2014-09-28 23:00,-0.0862563,289.647,286.772,259.244,289.3,286.485,261.54,-0.0561793,-0.0602867,230.835,250.748
2014-09-29 00:00,-0.0,288.012,286.882,259.574,289.968,286.767,261.182,-0.0,-0.0,230.511,250.748
2014-09-29 01:00,-0.0016035,288.291,287.432,259.793,290.367,287.609,262.255,-0.0,-0.0,232.097,251.452
2014-09-29 02:00,-0.00137973,287.729,286.882,259.024,289.835,287.048,261.54,-0.0,-0.0,231.394,250.849
2014-09-29 03:00,-0.00128896,284.41,279.945,255.16,281.943,278.307,254.9,-0.0,-0.0,228.048,246.818
2014-09-29 04:00,-0.0,287.729,286.439,259.354,289.166,286.626,260.822,-0.0,-0.0,230.101,250.442
2014-09-29 05:00,-0.0,286.121,284.528,257.685,287.134,284.492,258.392,-0.0,-0.0,230.266,250.442
2014-09-29 06:00,0.00163465,285.202,283.38,257.12,285.895,283.194,257.9,-0.0,-0.0,229.601,248.669
2014-09-29 07:00,-0.0,285.818,284.869,258.134,287.543,285.065,260.098,-0.0,-0.0,229.769,249.093
2014-09-29 08:00,-0.0,285.97,285.546,258.246,288.763,286.343,260.942,-0.0,-0.0,230.835,249.928
2014-09-29 09:00,-0.0,286.271,285.546,258.134,288.628,286.202,260.581,-0.0,-0.0,230.43,250.135
2014-09-29 10:00,0.477424,288.291,286.217,258.802,289.3,286.907,260.822,0.322017,0.432972,231.552,250.849
2014-09-29 12:00,0.437702,299.108,291.591,261.625,293.764,289.826,261.66,0.174301,0.343017,233.456,251.652
2014-09-29 13:00,0.341242,301.999,293.539,263.099,295.55,290.648,261.779,0.131331,0.272471,232.328,251.949
2014-09-29 14:00,0.285581,303.755,294.546,263.618,296.182,291.057,262.136,0.10671,0.223339,231.63,251.652
2014-09-29 15:00,0.245958,304.715,295.144,263.721,296.684,291.329,262.255,0.0924385,0.196367,231.787,251.652
2014-09-29 16:00,0.23164,305.106,295.442,264.133,296.684,291.464,262.492,0.0895371,0.183016,231.865,251.652
2014-09-29 17:00,0.2993,301.214,288.52,260.011,290.5,286.202,260.822,0.21443,0.287122,232.02,251.352
2014-09-29 18:00,0.2465,299.858,288.843,260.228,290.367,286.06,259.977,0.180615,0.244071,232.175,251.352
2014-09-29 19:00,0.195896,294.823,286.772,259.354,288.222,285.35,260.461,0.226973,0.264385,232.328,251.85
2014-09-29 20:00,0.0,296.323,287.978,259.793,289.835,285.777,261.062,0.447306,0.473716,232.709,251.85
2014-09-29 21:00,0.870315,295.69,283.148,256.32,284.781,278.911,253.24,1.17417,1.39037,233.159,250.34
2014-09-29 22:00,-0.0,291.44,288.52,260.228,290.897,287.609,261.182,-0.0,-0.0,233.968,252.634
2014-09-29 23:00,-0.0831204,291.315,288.195,259.683,291.16,288.027,261.779,-0.0591174,-0.067132,233.603,252.925
2014-09-30 00:00,-0.0,282.234,277.476,253.501,279.907,275.861,253.881,-0.0,-0.0,233.382,251.352
2014-09-30 01:00,-0.00160592,282.408,274.655,252.899,270.006,256.928,237.827,-0.0,-0.0,224.661,242.725
2014-09-30 02:00,-0.00138198,280.613,270.746,250.429,269.35,260.764,240.5,-0.0,-0.0,225.835,241.728
2014-09-30 03:00,-0.0012914,279.859,269.908,249.158,270.495,265.99,246.182,-0.00109343,-0.0,226.871,242.354
2014-09-30 04:00,-0.0,266.797,252.29,239.721,251.652,247.501,232.867,-0.0,-0.0,223.642,234.996
2014-09-30 05:00,-0.0,265.446,254.871,241.207,255.633,252.144,238.428,-0.0,-0.0,225.449,239.789
2014-09-30 06:00,-0.00164106,262.475,255.587,241.936,256.213,253.316,241.084,-0.0,0.00165674,226.592,240.964
2014-09-30 07:00,-0.0,257.103,256.294,242.369,258.304,257.671,245.489,-0.0,0.00218931,228.921,244.764
2014-09-30 08:00,-0.00356344,262.869,262.141,245.859,265.138,264.106,250.765,-0.0,0.0035975,229.935,248.241
2014-09-30 09:00,-0.0,257.605,257.511,243.226,258.491,255.045,244.09,-0.0,-0.0,227.691,245.575
2014-09-30 10:00,0.797668,275.02,257.683,243.084,259.791,258.408,246.869,0.775688,0.892998,227.87,246.258
2014-09-30 11:00,0.562027,285.818,259.039,244.07,258.491,252.536,238.428,0.509672,0.592204,223.746,241.854
2014-09-30 12:00,0.415304,290.429,267.764,248.512,265.654,256.928,238.278,0.296116,0.399213,221.819,238.714
2014-09-30 13:00,0.32436,278.684,253.963,240.171,251.242,247.293,236.46,0.278558,0.361766,224.156,235.444
2014-09-30 14:00,0.319377,293.702,270.607,249.669,270.495,265.48,247.687,0.20366,0.296797,227.147,245.114
2014-09-30 15:00,0.251538,295.042,277.476,252.899,276.01,271.121,249.438,0.143044,0.233728,227.51,244.175
2014-09-30 16:00,0.222297,303.015,292.52,261.944,293.248,288.167,260.581,0.106338,0.191457,229.685,251.051
2014-09-30 17:00,0.266227,297.947,285.095,258.022,286.033,281.735,257.653,0.221981,0.282415,228.575,250.34
2014-09-30 18:00,0.402113,266.797,216.471,223.283,215.26,215.027,215.474,0.674261,0.729131,211.636,212.207
2014-09-30 19:00,0.633761,271.798,215.218,223.694,215.26,213.694,213.857,0.92512,1.07606,213.388,215.061
2014-09-30 20:00,0.631561,292.174,265.995,246.399,265.482,258.591,238.278,0.703753,0.839119,227.42,243.336
2014-09-30 22:00,-0.0,260.827,242.37,235.01,239.426,235.917,228.446,-0.0,-0.0,220.801,228.423
2014-09-30 23:00,-0.0833115,269.283,251.339,239.419,249.998,247.085,235.846,-0.0620749,-0.0706506,224.054,234.389
