# timestamp,IR_016,IR_039,IR_087,IR_097,IR_108,IR_120,IR_134,VIS006,VIS008,WV_062,WV_073
2013-08-01 00:00,-0.0749783,285.512,287.322,260.337,289.835,289.689,265.301,-0.0223052,-0.0470537,243.147,264.01
2013-08-01 01:00,-0.00157085,284.41,286.55,260.011,289.032,288.861,264.953,-0.0,-0.00158587,243.579,264.389
2013-08-01 02:00,-0.0,283.924,285.77,259.902,288.222,288.445,264.372,-0.0,-0.0,243.364,264.238
2013-08-01 03:00,-0.0,283.428,285.321,259.574,287.951,288.027,264.022,-0.0,-0.0,243.633,264.238
2013-08-01 04:00,-0.0,283.093,285.208,259.354,287.679,287.748,264.138,-0.0,-0.0,243.633,264.464
2013-08-01 05:00,0.00128989,282.581,284.982,259.354,287.407,287.609,264.721,-0.0,-0.0,243.633,264.464
2013-08-01 06:00,-0.0,282.581,284.642,259.134,287.27,287.469,264.255,-0.0,-0.0,243.579,264.839
2013-08-01 07:00,0.0017781,281.346,283.956,258.58,286.447,286.907,264.022,-0.0,-0.0,243.472,264.314
2013-08-01 08:00,-0.0,280.982,283.495,258.358,286.033,286.343,263.905,-0.0,-0.0,243.147,264.01
2013-08-01 09:00,-0.00452931,280.799,283.148,258.134,285.479,286.06,263.553,-0.0,-0.0,243.256,264.01
2013-08-01 10:00,-0.101442,281.165,283.032,258.022,285.34,285.919,263.905,-0.200411,-0.204823,243.579,263.934
2013-08-01 11:00,0.525036,286.121,286.217,259.902,288.628,288.445,264.488,0.289224,0.491738,243.472,264.01
2013-08-01 12:00,0.497871,293.356,290.756,262.681,293.248,292.006,264.953,0.213344,0.413751,243.633,263.706
2013-08-01 13:00,0.418866,298.918,292.108,263.825,294.277,291.329,264.488,0.195238,0.343849,243.418,263.167
2013-08-01 14:00,0.33378,301.653,296.815,266.657,299.531,296.78,266.337,0.12593,0.261895,243.633,263.706
2013-08-01 15:00,0.299013,303.917,298.644,267.74,301.231,298.076,266.566,0.106041,0.227589,243.472,263.552
2013-08-01 16:00,0.266069,304.159,299.024,267.935,301.592,298.334,267.137,0.0924559,0.200295,243.74,263.629
2013-08-01 17:00,0.284425,303.51,295.738,266.358,298.302,295.208,265.416,0.125947,0.224435,243.953,263.399
2013-08-01 18:00,0.311762,302.511,294.446,265.254,297.06,293.617,264.953,0.156128,0.253329,244.006,263.244
2013-08-01 19:00,0.348463,301.214,292.929,264.236,295.424,292.276,264.605,0.201648,0.308769,244.479,263.167
2013-08-01 20:00,0.594187,299.297,287.102,260.769,289.434,287.048,262.255,0.453496,0.570296,244.006,262.545
2013-08-01 21:00,0.489497,290.939,290.017,262.471,292.6,290.921,264.605,0.444061,0.582423,244.058,263.012
2013-08-01 22:00,-0.0,286.717,287.432,260.769,290.234,288.722,263.787,-0.0,-0.0,243.899,262.935
2013-08-01 23:00,-0.0776993,286.271,287.651,260.876,290.367,289.551,263.905,-0.0236836,-0.0533406,243.633,263.244
2013-08-02 00:00,-0.0729916,286.121,287.651,260.661,290.367,289.826,264.605,-0.0223173,-0.0491262,243.633,263.244
2013-08-02 01:00,-0.00157099,285.665,287.212,260.445,289.835,289.551,264.605,-0.0,-0.0,243.579,263.476
2013-08-02 02:00,-0.0,285.045,287.102,260.445,289.568,289.276,264.488,-0.0,-0.0,243.472,263.858
2013-08-02 03:00,-0.00124604,284.73,286.772,260.228,289.434,289.276,264.837,-0.0,0.00125795,243.418,264.086
2013-08-02 04:00,-0.0,284.41,286.55,260.119,289.166,289.137,264.721,-0.0,-0.0,243.256,264.01
2013-08-02 05:00,-0.0,283.76,285.994,260.011,288.628,288.861,265.185,-0.0,-0.0,243.147,264.314
2013-08-02 06:00,-0.00145061,283.093,285.433,259.464,287.951,288.445,264.837,-0.0,-0.0,243.256,264.765
2013-08-02 07:00,-0.0,282.408,284.982,259.244,287.543,288.027,264.721,-0.0,-0.0,243.472,264.839
2013-08-02 08:00,-0.0,282.059,284.414,258.913,286.997,287.609,264.605,-0.0,-0.0,243.526,264.389
2013-08-02 09:00,-0.0045503,282.408,284.528,258.691,286.997,287.329,264.138,-0.0,-0.0,243.472,264.162
2013-08-02 10:00,-0.0708415,282.234,284.3,258.691,286.722,287.188,264.372,-0.209935,-0.250316,243.793,264.238
2013-08-02 11:00,0.52588,286.569,286.882,260.228,289.434,289.276,264.372,0.28624,0.492986,243.793,264.086
2013-08-02 12:00,0.473865,293.124,290.965,262.681,293.506,292.545,265.069,0.204444,0.414406,243.846,263.934
2013-08-02 13:00,0.385399,298.045,294.546,264.95,297.184,295.339,266.222,0.153351,0.327426,244.111,264.01
2013-08-02 14:00,0.32214,301.565,297.204,266.855,299.776,297.17,266.452,0.121063,0.26435,244.058,264.086
2013-08-02 15:00,0.285449,303.51,299.024,267.838,301.592,298.591,267.137,0.100374,0.225188,244.111,264.162
2013-08-02 16:00,0.266663,304.159,298.358,267.544,301.11,297.689,266.452,0.0973202,0.208871,244.322,264.01
2013-08-02 17:00,0.244318,303.346,299.307,268.13,302.191,299.36,267.592,0.0855037,0.189101,244.322,264.086
2013-08-02 18:00,0.236719,302.171,298.739,267.935,301.832,299.36,267.251,0.0913959,0.189274,243.953,264.314
2013-08-02 19:00,0.239606,299.672,297.59,266.855,300.263,298.076,267.705,0.112003,0.20662,243.899,264.389
2013-08-02 20:00,0.257848,296.323,295.244,265.456,297.931,295.996,266.566,0.172543,0.251916,244.426,264.54
2013-08-02 21:00,0.342745,290.685,290.965,262.995,293.635,292.545,265.532,0.420792,0.467129,244.164,263.782
2013-08-02 22:00,-0.0,287.587,288.628,261.091,291.292,290.511,265.185,-0.0,-0.0,243.039,263.09
2013-08-02 23:00,-0.0778262,286.421,287.978,260.876,290.5,289.826,264.721,-0.0263581,-0.0534277,242.71,262.623
2013-08-03 00:00,-0.0710008,286.121,287.541,260.553,290.101,289.964,265.069,-0.0240465,-0.0511997,242.042,262.466
2013-08-03 01:00,-0.00157111,285.512,287.322,260.553,289.968,289.964,264.372,-0.0,-0.00158613,241.93,262.779
2013-08-03 02:00,-0.0,284.73,286.328,259.902,289.3,289.276,264.953,-0.0,-0.0,241.704,261.993
2013-08-03 03:00,-0.0,283.594,285.882,259.793,288.222,288.027,264.255,-0.0,-0.0,241.704,261.675
2013-08-03 04:00,0.00122852,283.594,285.546,259.683,288.222,287.888,263.905,-0.0,-0.0,241.189,261.194
2013-08-03 05:00,-0.0,283.261,285.208,259.244,287.815,287.888,263.905,-0.0,-0.0,241.419,261.033
2013-08-03 06:00,-0.0,282.753,284.869,259.464,287.407,287.469,263.67,-0.0,-0.0,241.419,261.194
2013-08-03 07:00,0.00178081,282.581,284.642,259.464,287.27,287.609,264.488,-0.0,-0.0,241.361,261.355
2013-08-03 08:00,-0.0,282.408,284.071,258.802,286.997,287.188,263.905,-0.0,-0.0,241.131,261.355
2013-08-03 09:00,-0.0,281.346,284.071,258.58,286.585,286.767,264.488,-0.0,-0.0,241.304,261.194
2013-08-03 10:00,-0.0745371,281.705,283.956,258.58,286.585,286.343,263.787,-0.252442,-0.300999,241.59,261.515
2013-08-03 11:00,0.538902,287.01,286.882,260.445,289.568,289.276,264.721,0.288457,0.500279,241.76,262.072
2013-08-03 12:00,0.492061,294.156,291.591,263.515,294.405,293.216,266.909,0.208314,0.421038,241.76,261.993
2013-08-03 13:00,0.402504,299.013,295.639,265.859,298.795,297.17,267.251,0.157975,0.330161,241.76,262.23
2013-08-03 14:00,0.343166,302.426,298.834,267.935,302.311,300.125,268.609,0.126393,0.270228,241.533,262.466
2013-08-03 15:00,0.303047,304.398,300.34,268.711,304.089,301.516,269.171,0.105268,0.230635,241.304,262.151
2013-08-03 16:00,0.276402,304.872,300.805,269.192,304.324,301.767,269.059,0.0930944,0.205043,240.957,261.675
2013-08-03 17:00,0.249931,304.239,300.153,268.904,303.618,301.138,268.609,0.0879445,0.191698,240.724,261.675
2013-08-03 18:00,0.245249,302.511,299.213,267.935,302.788,300.379,268.722,0.0910472,0.192361,240.724,261.515
2013-08-03 19:00,0.243524,300.134,297.687,266.954,301.11,298.976,267.932,0.111512,0.208222,240.489,261.515
2013-08-03 20:00,0.256286,296.84,295.541,265.658,298.918,297.3,267.478,0.167997,0.258736,240.724,261.755
2013-08-03 21:00,0.352977,290.939,291.591,263.203,294.661,293.883,266.795,0.384255,0.458166,240.489,261.993
2013-08-03 22:00,0.00755217,287.587,289.165,261.625,291.948,291.871,266.337,-0.0,-0.0,239.774,261.755
2013-08-03 23:00,-0.0810679,286.717,288.195,260.769,290.897,290.784,265.185,-0.0264,-0.0535127,239.104,260.952
2013-08-04 00:00,-0.0750949,285.818,287.651,260.769,290.5,290.375,265.301,-0.0223399,-0.0491759,238.671,260.545
2013-08-04 01:00,-0.0015712,285.512,287.212,260.228,289.835,289.964,265.416,-0.0,-0.0,238.546,260.381
2013-08-04 02:00,-0.0,284.888,287.102,260.119,289.835,289.964,265.301,-0.0,-0.0,238.608,260.952
2013-08-04 03:00,-0.0,284.249,286.328,260.119,289.434,289.689,264.953,-0.0,-0.0,238.294,260.135
2013-08-04 04:00,0.00122837,284.249,286.328,259.902,289.166,289.689,265.416,-0.0,-0.0,237.849,260.463
2013-08-04 05:00,-0.00128991,283.594,285.882,259.574,288.493,288.722,265.069,-0.0,-0.0,237.785,260.381
2013-08-04 06:00,-0.0,282.753,284.869,259.134,287.543,288.027,264.372,-0.0,-0.0,238.733,260.627
2013-08-04 07:00,-0.0,282.581,284.528,258.913,287.134,287.609,264.488,-0.0,0.00179941,239.227,260.789
2013-08-04 08:00,-0.00249829,281.705,283.611,258.358,286.31,286.767,264.372,-0.0,-0.0,239.471,260.463
2013-08-04 09:00,-0.0045963,281.165,283.38,258.246,285.895,286.626,264.488,-0.0,-0.0,239.532,260.217
2013-08-04 10:00,-0.118229,281.165,283.148,258.246,285.757,286.06,263.67,-0.266945,-0.278505,239.894,259.721
2013-08-04 11:00,0.557578,287.3,286.992,260.228,289.701,289.551,264.022,0.290523,0.513422,239.593,259.721
2013-08-04 12:00,0.509955,294.933,292.211,263.515,295.17,294.016,266.337,0.214626,0.421498,239.653,259.804
2013-08-04 13:00,0.417319,299.391,295.144,265.557,298.055,295.734,266.795,0.164305,0.328621,239.227,259.304
2013-08-04 14:00,0.353742,302.596,297.107,266.855,300.02,296.78,266.452,0.13167,0.265686,239.593,258.882
2013-08-04 15:00,0.340625,303.015,290.86,263.203,293.635,289.826,263.2,0.15338,0.254785,239.532,257.942
2013-08-04 16:00,0.278451,304.239,297.687,267.249,300.384,296.127,265.532,0.100489,0.20277,238.671,257.246
2013-08-04 17:00,0.255495,303.264,296.327,266.358,298.672,294.016,264.255,0.104056,0.199167,238.733,256.894
2013-08-04 18:00,0.424726,299.108,283.264,258.913,284.781,282.321,259.37,0.313469,0.373765,239.166,256.181
2013-08-04 19:00,0.353791,300.498,292.005,263.825,294.149,290.648,263.2,0.215763,0.307219,239.41,256.805
2013-08-04 20:00,0.513602,297.749,287.76,261.519,290.101,287.329,262.373,0.407035,0.497772,239.954,257.333
2013-08-04 21:00,1.20412,284.57,278.598,255.742,281.221,279.061,259.37,0.837967,1.14902,239.653,256.716
2013-08-04 22:00,-0.0,285.665,285.882,259.793,288.628,286.907,262.373,-0.0,-0.0,240.253,257.333
2013-08-04 23:00,-0.0811934,286.569,286.55,260.119,289.3,287.748,262.847,-0.0264409,-0.0567482,239.774,257.246
2013-08-05 00:00,-0.0812216,285.97,286.217,260.011,288.897,287.609,262.728,-0.0240696,-0.0512488,239.471,257.246
2013-08-05 01:00,-0.00157127,285.665,286.55,259.793,289.568,288.445,263.318,-0.0,-0.0,239.349,257.769
2013-08-05 02:00,-0.0,284.41,284.528,258.802,287.134,286.202,261.898,-0.0,-0.0,236.808,256.091
2013-08-05 03:00,-0.0,276.594,269.767,250.303,270.169,267.506,248.499,-0.0,-0.0,229.178,246.595
2013-08-05 04:00,0.00122825,244.063,232.28,230.387,230.012,228.324,224.304,-0.0,-0.0,219.382,224.204
2013-08-05 05:00,0.00128999,275.707,269.201,250.051,267.857,266.329,249.705,-0.0,-0.0,226.963,244.53
2013-08-05 06:00,-0.0,275.48,269.767,249.797,270.495,267.339,248.094,-0.0,-0.0,229.433,247.04
2013-08-05 07:00,-0.0,275.932,270.607,250.429,271.303,269.329,250.104,-0.0,-0.0,229.769,247.59
2013-08-05 08:00,-0.00250358,282.581,283.495,258.469,286.447,285.919,262.728,-0.0,-0.0,232.935,255.183
2013-08-05 09:00,0.00462141,281.883,283.611,258.469,286.585,286.343,263.318,-0.0,-0.0,233.603,256.001
2013-08-05 11:00,0.521115,287.155,286.217,259.793,289.166,288.306,263.905,0.287311,0.477158,237.913,257.158
2013-08-05 12:00,0.483089,294.043,290.756,262.681,293.892,292.276,265.069,0.208279,0.406921,237.913,257.595
2013-08-05 13:00,0.39457,297.549,293.336,264.441,296.433,294.016,265.301,0.158249,0.32077,237.528,257.158
2013-08-05 14:00,0.33357,300.947,295.935,266.059,299.164,296.258,266.108,0.125366,0.257724,237.785,257.595
2013-08-05 15:00,0.288439,302.68,297.59,266.756,300.99,297.559,266.681,0.103173,0.222679,237.913,257.333
2013-08-05 16:00,0.263795,303.428,298.453,267.249,302.072,298.72,266.909,0.0898555,0.198973,237.913,257.508
2013-08-05 17:00,0.243288,302.932,298.071,267.052,301.712,298.463,266.909,0.0859436,0.183804,237.913,257.682
2013-08-05 18:00,0.23776,301.565,298.071,266.954,301.472,298.463,267.023,0.0919373,0.187112,237.592,257.508
2013-08-05 19:00,0.238937,299.391,296.815,266.159,300.506,298.076,267.251,0.114711,0.206406,237.721,257.855
2013-08-05 20:00,0.253232,296.219,295.045,264.849,298.549,296.78,266.909,0.17637,0.259776,237.785,258.2
2013-08-05 21:00,0.340105,290.558,290.965,262.471,294.277,293.35,265.762,0.411381,0.457809,237.268,258.114
2013-08-05 22:00,-0.00764394,287.3,288.412,260.553,291.423,290.921,264.837,-0.0,-0.00771701,237.072,257.942
2013-08-05 23:00,-0.0813156,286.271,287.432,260.119,290.5,289.964,264.953,-0.0264807,-0.0568336,237.006,258.457
2013-08-06 00:00,-0.0975089,285.665,286.992,259.683,289.701,289.413,264.605,-0.0258002,-0.0492205,236.874,258.372
2013-08-06 01:00,-0.00157133,285.045,286.439,259.902,289.166,288.999,264.022,-0.0,-0.00158635,236.408,258.372
2013-08-06 02:00,-0.00134694,285.045,286.217,259.683,289.166,288.584,264.022,-0.0,-0.0,236.274,258.543
2013-08-06 03:00,-0.0,285.357,286.328,259.574,289.166,288.722,263.787,-0.0,0.00125711,235.936,258.372
2013-08-06 04:00,-0.0,283.76,285.208,258.913,287.951,287.888,264.255,-0.0,-0.0,236.139,258.543
2013-08-06 05:00,-0.0,282.234,284.414,258.691,287.134,287.329,263.787,-0.0,-0.0,236.274,258.882
2013-08-06 06:00,-0.0,281.705,283.841,258.246,286.585,287.188,264.255,-0.0,-0.0,236.071,259.051
2013-08-06 07:00,-0.0017859,281.705,283.495,258.134,286.172,286.485,263.67,-0.0,-0.0,236.071,259.135
2013-08-06 08:00,-0.0,280.613,281.86,257.233,284.22,284.349,262.492,-0.0,-0.0,235.455,258.114
2013-08-06 09:00,-0.0,281.165,283.032,257.346,285.618,286.06,263.318,-0.0,-0.0,235.867,259.304
2013-08-06 10:00,-0.0897459,280.799,282.682,257.346,285.34,285.777,263.436,-0.341945,-0.362415,236.341,259.471
2013-08-06 11:00,0.545192,287.01,286.661,259.902,289.434,289.413,264.953,0.289142,0.514113,235.936,259.304
2013-08-06 12:00,0.506543,294.268,291.694,262.786,294.533,293.75,265.647,0.216938,0.428137,235.867,259.554
2013-08-06 13:00,0.409195,299.108,295.837,265.052,299.287,297.689,267.478,0.160984,0.333824,235.731,260.052
2013-08-06 14:00,0.345741,302.932,298.834,266.855,302.55,300.759,268.384,0.127714,0.27034,235.317,259.97
2013-08-06 15:00,0.298094,304.95,300.805,268.227,304.676,302.769,269.395,0.105382,0.229586,235.108,260.217
2013-08-06 16:00,0.268873,305.106,300.99,268.421,304.793,302.269,268.834,0.0920848,0.204345,234.756,259.804
2013-08-06 17:00,0.252032,304.636,300.712,267.838,304.676,302.144,268.722,0.0883482,0.192857,234.401,259.22
2013-08-06 18:00,0.242444,302.848,299.778,267.642,303.499,301.138,268.722,0.0915853,0.192044,233.968,258.967
2013-08-06 19:00,0.247709,300.498,298.167,266.657,301.832,299.616,268.158,0.114212,0.212937,234.543,259.387
2013-08-06 20:00,0.272044,296.738,295.639,265.153,299.041,297.43,267.251,0.175333,0.262347,234.472,259.304
2013-08-06 21:00,0.413654,290.939,290.86,261.944,294.021,293.082,266.222,0.417594,0.481856,234.185,258.967
2013-08-06 22:00,-0.0,287.01,288.303,260.769,291.292,291.057,265.185,-0.0,-0.0,233.896,259.387
2013-08-06 23:00,-0.100227,285.512,286.661,259.574,289.568,289.276,264.605,-0.0291713,-0.0600787,233.234,258.713
2013-08-07 00:00,-0.0975496,285.045,286.992,259.793,289.701,289.551,264.605,-0.025811,-0.0533445,233.085,259.387
2013-08-07 01:00,-0.0,283.924,284.982,258.691,287.134,287.188,263.67,-0.0,-0.00158638,232.784,257.942
2013-08-07 02:00,-0.0,285.202,286.439,259.683,289.166,288.999,264.721,-0.0,-0.0,233.234,259.22
2013-08-07 03:00,-0.0,284.888,286.661,259.793,289.3,289.137,264.372,-0.0,-0.0,232.784,259.22
2013-08-07 04:00,-0.00122806,284.249,285.994,259.464,288.628,288.722,264.605,-0.0,-0.0,233.01,259.387
2013-08-07 05:00,-0.00129029,283.76,285.546,259.244,288.222,288.306,264.372,-0.0,-0.0,233.308,259.97
2013-08-07 06:00,0.00145337,282.408,284.528,259.024,287.27,287.469,264.255,-0.0,-0.0,233.53,260.381
2013-08-07 07:00,-0.0,281.346,283.148,257.798,285.201,285.635,263.67,-0.0,-0.0,233.085,259.471
2013-08-07 08:00,-0.0,281.705,284.185,258.58,286.86,287.188,264.255,-0.0,-0.0,232.935,260.381
2013-08-07 09:00,-0.00467606,282.234,283.956,258.246,286.31,286.907,264.138,-0.0,-0.0,232.328,259.554
2013-08-07 10:00,-0.0968332,282.581,284.3,258.913,286.585,286.907,263.553,-0.327954,-0.293277,232.02,259.887
2013-08-07 11:00,0.55077,286.864,284.755,258.913,286.033,285.065,261.301,0.300862,0.508204,231.156,257.769
2013-08-07 12:00,0.450614,288.291,279.213,255.277,278.873,277.091,255.28,0.250227,0.422427,228.748,251.85
2013-08-07 13:00,0.363998,282.408,263.401,246.265,261.971,257.856,240.793,0.250736,0.388239,225.058,242.354
2013-08-07 14:00,0.324031,292.653,280.429,255.393,280.201,276.784,252.594,0.165757,0.296461,229.007,251.252
2013-08-07 15:00,0.286231,302.511,298.929,267.544,302.311,300.506,268.946,0.107568,0.228701,232.02,260.052
2013-08-07 16:00,0.308516,273.088,245.676,236.784,241.107,238.515,229.781,0.273963,0.355526,220.916,229.314
2013-08-07 17:00,0.265503,300.134,293.742,263.721,296.559,294.149,263.436,0.117817,0.224444,231.076,257.769
2013-08-07 18:00,0.228512,301.037,298.739,267.151,302.191,300.252,268.722,0.0928077,0.180056,232.557,260.789
2013-08-07 19:00,0.266174,298.918,295.639,265.052,298.302,296.258,265.647,0.130259,0.234204,231.552,259.304
2013-08-07 20:00,0.335048,295.151,292.725,263.099,295.424,293.75,265.185,0.225581,0.346402,231.076,258.628
2013-08-07 21:00,0.672387,283.924,277.098,253.621,277.978,276.323,254.392,0.476631,0.694601,229.433,252.537
2013-08-07 22:00,-0.0,283.594,281.505,256.32,281.655,280.702,258.638,-0.0,-0.0,228.662,253.785
2013-08-07 23:00,-0.106642,280.613,276.591,253.14,278.576,277.091,254.519,-0.0292127,-0.060164,229.685,253.69
2013-08-08 00:00,-0.099621,286.271,288.195,260.445,290.897,291.057,265.416,-0.0275425,-0.055418,232.175,260.463
2013-08-08 01:00,-0.00157138,285.665,287.651,260.337,290.367,290.511,265.647,-0.0,-0.0,232.328,260.708
2013-08-08 02:00,-0.00134659,285.665,287.869,260.228,290.5,290.784,265.878,-0.0,-0.0,232.784,260.871
2013-08-08 03:00,-0.0,285.202,287.102,259.902,289.968,290.238,265.532,-0.0,-0.0,231.63,260.627
2013-08-08 04:00,0.00122801,285.045,286.992,259.902,289.568,290.101,265.878,-0.0,-0.0,232.405,260.545
2013-08-08 05:00,-0.00129051,284.41,286.328,260.011,289.166,289.551,265.532,-0.0,-0.0,231.943,259.387
2013-08-08 06:00,0.00145414,283.261,285.321,258.913,287.951,288.167,265.185,-0.0,-0.0,231.709,258.798
2013-08-08 07:00,-0.0,282.059,284.414,258.58,286.997,287.609,264.488,-0.0,-0.0,231.236,258.628
2013-08-08 08:00,-0.0,281.705,283.726,258.022,286.447,287.329,264.721,-0.0,-0.0,230.755,258.798
2013-08-08 09:00,-0.0047057,281.165,283.38,258.134,285.895,286.767,264.488,-0.0,-0.0,231.473,258.713
2013-08-08 10:00,-0.105454,280.982,282.916,257.459,285.618,286.343,264.488,-0.446437,-0.425847,231.315,258.286
2013-08-08 11:00,0.573596,287.3,286.217,259.354,288.358,288.584,264.953,0.297344,0.555443,230.674,258.028
2013-08-08 12:00,0.502893,294.38,291.694,262.786,294.661,293.883,266.337,0.211669,0.440203,230.916,258.372
2013-08-08 13:00,0.374459,294.043,286.55,259.354,288.358,285.777,259.37,0.176718,0.338789,229.433,254.162
2013-08-08 14:00,0.304163,288.291,272.12,250.681,269.679,265.48,245.489,0.187815,0.305374,226.405,244.53
2013-08-08 15:00,0.291216,272.322,247.973,237.728,245.248,242.805,232.387,0.265936,0.360188,222.476,232.829
2013-08-08 16:00,0.317868,280.427,253.595,241.207,249.579,245.186,232.066,0.246287,0.349668,220.101,232.022
2013-08-08 17:00,0.28843,295.902,282.566,257.006,282.946,278.911,251.814,0.161909,0.278317,229.007,249.721
2013-08-08 18:00,0.403456,271.261,239.074,233.175,234.371,231.968,225.883,0.399584,0.493259,219.014,225.21
2013-08-08 19:00,0.408486,291.686,275.694,252.534,275.857,270.96,247.959,0.286162,0.424665,226.871,246.371
2013-08-08 20:00,0.228769,294.823,292.005,263.099,294.916,293.483,265.301,0.183504,0.243112,230.43,254.999
2013-08-08 21:00,0.768813,291.315,285.546,258.802,287.543,285.635,259.249,0.520762,0.76064,230.674,253.88
2013-08-08 22:00,-0.00777937,269.865,259.54,243.79,258.865,256.367,241.374,-0.0,-0.0,225.156,240.835
2013-08-08 23:00,-0.0973665,283.261,280.669,255.858,282.087,279.959,256.035,-0.0292529,-0.0602468,229.852,253.309
2013-08-09 00:00,-0.0996579,282.059,280.549,255.277,282.517,281.588,258.882,-0.0258307,-0.0513319,229.178,252.828
2013-08-09 01:00,-0.00157138,284.888,286.328,259.354,289.434,289.413,264.488,-0.0,-0.0,230.348,256.36
2013-08-09 02:00,0.00134641,283.261,284.3,258.246,286.585,286.626,262.492,-0.0,-0.0,229.093,254.907
2013-08-09 03:00,0.00124469,268.073,257.511,242.799,255.049,252.144,238.428,-0.0,-0.0,225.254,240.706
2013-08-09 04:00,-0.0,269.576,260.528,244.21,259.236,256.928,241.808,-0.0,-0.0,225.254,241.728
2013-08-09 05:00,-0.0,267.444,259.039,242.513,256.98,255.803,243.241,-0.0,-0.0,226.216,241.221
2013-08-09 06:00,-0.00145499,256.062,244.16,235.337,242.747,240.802,232.227,-0.0,-0.0,224.359,234.236
2013-08-09 07:00,-0.0,255.521,245.463,235.985,244.8,243.243,235.072,-0.0,-0.0,225.546,235.887
2013-08-09 08:00,-0.0,222.276,221.481,224.305,221.838,220.984,219.739,-0.0,-0.0,218.264,219.134
2013-08-09 09:00,-0.00473696,225.382,223.597,224.908,222.485,222.169,221.23,-0.0,-0.0,218.137,219.372
2013-08-09 10:00,-0.348425,266.466,256.819,242.513,255.827,254.089,241.664,-0.442516,-0.58626,224.56,238.165
2013-08-09 11:00,0.474246,270.989,256.644,241.646,254.461,251.947,239.025,0.440718,0.595555,225.156,237.327
2013-08-09 12:00,0.329179,281.165,269.626,248.642,269.842,266.667,247.142,0.264046,0.373137,228.224,245.918
2013-08-09 13:00,0.276877,263.636,244.598,234.845,243.667,241.475,232.867,0.363714,0.43984,225.352,233.461
2013-08-09 14:00,0.277751,273.586,258.871,243.084,257.739,255.235,242.527,0.293256,0.378379,227.601,238.986
2013-08-09 15:00,0.252105,297.749,290.756,262.049,292.079,288.861,261.062,0.113158,0.203919,230.018,250.748
2013-08-09 16:00,0.262907,293.587,282.799,257.346,282.803,279.959,256.535,0.163158,0.256372,229.601,246.818
2013-08-09 17:00,0.28578,293.587,280.066,255.393,281.076,276.784,252.075,0.173411,0.272483,227.959,247.261
2013-08-09 18:00,0.235987,300.225,295.343,264.543,298.302,294.812,264.255,0.106149,0.191711,229.935,253.974
2013-08-09 19:00,0.24937,297.848,293.336,263.618,295.93,292.545,263.436,0.137344,0.219979,230.348,254.722
2013-08-09 20:00,0.187562,291.315,285.546,258.802,287.134,283.917,258.392,0.175703,0.201442,229.601,252.439
2013-08-09 21:00,0.37818,290.685,288.303,260.337,290.632,288.584,262.255,0.384245,0.442883,230.101,254.999
2013-08-09 22:00,-0.00782377,287.729,287.651,259.683,290.5,288.861,262.965,-0.0,-0.0,232.175,257.158
2013-08-09 23:00,-0.122657,287.871,288.195,260.011,290.764,289.551,263.553,-0.0319548,-0.0666773,232.86,257.682
2013-08-10 00:00,-0.101727,286.864,287.651,259.902,290.5,289.826,263.67,-0.0275623,-0.0554578,232.86,258.2
2013-08-10 01:00,-0.0,284.73,286.328,258.913,289.3,288.445,263.553,-0.0,-0.0,232.709,258.2
2013-08-10 02:00,-0.00134624,283.76,285.433,258.802,288.628,288.306,263.436,-0.0,-0.0,232.557,258.028
2013-08-10 03:00,-0.0,282.753,284.642,258.022,287.679,287.469,263.083,-0.0,-0.0,231.865,257.508
2013-08-10 04:00,-0.0,281.705,284.071,257.798,286.86,287.048,262.965,-0.0,-0.0,233.159,258.457
2013-08-10 05:00,-0.00129108,280.05,282.566,257.006,285.34,285.493,262.728,-0.0,-0.0,232.784,258.286
2013-08-10 06:00,-0.00145593,277.026,280.549,256.089,284.079,284.492,262.492,-0.0,-0.0,232.633,258.713
2013-08-10 07:00,-0.0,275.251,279.58,255.393,283.088,283.484,262.136,-0.0,-0.0,233.75,258.967
2013-08-10 08:00,-0.00253524,274.314,278.721,255.16,282.803,283.194,261.898,-0.0,-0.0,233.234,258.713
2013-08-10 09:00,-0.0,275.251,279.091,255.16,282.803,282.904,261.54,-0.0,-0.0,232.784,258.114
2013-08-10 10:00,-0.25943,273.586,277.476,254.099,281.221,281.441,260.581,-0.823722,-0.785731,233.234,255.911
2013-08-10 11:00,0.67994,280.799,275.951,253.02,279.17,279.81,260.219,0.667623,0.651829,234.041,256.36
2013-08-10 12:00,0.694055,289.514,275.694,253.02,279.022,279.361,259.856,0.699358,0.70069,235.247,256.181
2013-08-10 13:00,0.650159,293.702,275.951,253.261,279.17,279.959,260.219,0.685967,0.697269,234.185,255.639
2013-08-10 14:00,0.629708,292.771,274.916,253.02,278.427,278.609,259.249,0.655887,0.667682,232.935,254.536
2013-08-10 15:00,0.570288,293.356,274.785,252.899,278.427,278.458,258.76,0.552025,0.561995,232.405,254.162
2013-08-10 16:00,0.446459,296.008,276.718,254.217,279.907,279.211,259.249,0.340214,0.38462,232.709,254.162
2013-08-10 17:00,0.267326,293.24,286.105,259.574,288.087,284.922,260.701,0.113842,0.207601,232.784,253.5
2013-08-10 18:00,0.466502,296.84,272.527,252.045,274.467,273.359,256.16,0.337449,0.393086,232.328,252.925
2013-08-10 19:00,0.788329,296.427,266.886,248.512,270.169,269.821,254.646,0.651147,0.756924,233.085,253.595
2013-08-10 20:00,0.662705,293.93,275.823,253.381,278.427,276.477,257.158,0.551031,0.657021,232.175,253.974
2013-08-10 21:00,0.491341,278.279,273.199,251.552,274.156,272.246,253.24,0.403411,0.496038,228.921,248.455
2013-08-10 22:00,-0.0,274.073,270.329,249.542,270.657,268.67,250.501,-0.0,-0.0,227.691,246.595
2013-08-10 23:00,-0.100771,272.061,265.696,247.728,264.618,260.584,244.372,-0.0293298,-0.060405,225.352,243.214
2013-08-11 00:00,-0.0814083,275.02,272.931,251.676,274.0,272.246,253.368,-0.0241249,-0.0493119,230.755,250.135
2013-08-11 01:00,-0.0,267.444,258.025,243.509,257.55,253.51,238.128,-0.0,-0.0,224.86,240.835
2013-08-11 02:00,-0.00134608,266.131,262.3,245.177,262.329,261.121,246.869,-0.0,-0.0,230.266,245.575
2013-08-11 03:00,-0.0,277.026,278.35,254.926,281.221,281.146,260.581,-0.0,-0.0,232.02,254.349
2013-08-11 04:00,-0.0,274.787,275.046,252.777,276.923,276.784,257.9,-0.0,-0.0,232.02,252.731
2013-08-11 05:00,-0.0,275.48,276.208,253.501,278.278,278.156,258.515,-0.0,-0.0,232.557,253.88
2013-08-11 06:00,0.00145695,275.932,276.08,253.86,278.278,278.004,258.638,-0.0,-0.0,231.552,253.88
2013-08-11 07:00,0.00179726,275.932,277.727,254.454,280.201,280.406,260.219,-0.0,-0.0,231.865,253.974
2013-08-11 08:00,-0.00254266,274.551,275.694,253.741,277.226,274.46,256.035,-0.0,-0.0,230.835,251.552
2013-08-11 09:00,-0.0,257.103,251.147,239.115,250.623,249.753,239.322,-0.0,-0.0,229.007,240.446
2013-08-11 10:00,-0.516214,260.395,255.23,241.354,255.633,254.089,241.808,-0.749275,-0.818947,230.43,243.093
2013-08-11 11:00,0.474094,276.594,273.466,251.799,274.778,273.832,255.658,0.348848,0.518512,231.315,250.849
2013-08-11 12:00,0.478515,283.093,273.466,252.534,273.686,270.96,251.944,0.294222,0.497467,230.835,247.59
2013-08-11 13:00,0.316338,280.799,271.984,250.806,272.104,269.821,251.159,0.199603,0.325464,231.236,247.371
2013-08-11 14:00,0.27366,272.836,256.469,241.354,256.021,253.122,239.618,0.256985,0.351624,229.769,240.053
2013-08-11 15:00,0.242574,292.653,286.439,259.902,287.27,284.061,258.76,0.107159,0.206866,231.156,250.849
2013-08-11 16:00,0.265385,293.587,285.77,258.913,287.815,284.349,257.282,0.119255,0.229006,231.63,251.252
2013-08-11 17:00,0.267915,293.93,287.322,260.445,288.763,285.919,260.942,0.118759,0.222745,231.236,249.928
2013-08-11 18:00,0.245172,293.24,287.76,260.769,289.3,286.907,261.301,0.12858,0.221656,231.236,250.135
2013-08-11 19:00,0.3817,286.569,272.256,251.552,271.785,268.173,250.501,0.325217,0.402314,231.156,245.23
2013-08-11 20:00,0.477504,283.76,274.392,252.656,275.087,272.724,252.723,0.394278,0.521909,231.394,247.481
2013-08-11 21:00,0.718413,281.346,275.823,253.98,276.772,275.24,255.406,0.558623,0.754884,231.394,248.562
2013-08-11 22:00,-0.0,277.869,275.951,252.899,277.075,275.861,255.532,-0.0,-0.00798689,231.236,249.093
2013-08-11 23:00,-0.107203,279.667,280.308,255.858,282.231,280.998,258.638,-0.0293664,-0.0636636,232.251,252.537
2013-08-12 00:00,-0.0875408,265.095,258.871,244.488,257.55,250.757,240.938,-0.0241323,-0.049327,231.315,242.354
2013-08-12 01:00,-0.00157131,263.636,256.644,243.084,255.244,248.121,237.977,-0.0,-0.0,231.63,242.354
2013-08-12 02:00,0.00134591,258.096,250.371,239.267,248.946,243.461,235.382,-0.0,-0.0,231.076,240.185
2013-08-12 03:00,-0.0,249.156,241.682,234.35,241.58,239.208,233.026,-0.0,-0.0,230.593,236.033
2013-08-12 04:00,-0.0,240.898,238.585,233.005,239.183,238.049,233.344,-0.0,-0.0,229.852,235.146
2013-08-12 05:00,-0.00129185,247.601,245.89,236.146,245.914,245.399,238.278,-0.0,-0.0,230.996,239.39
2013-08-12 06:00,-0.0,248.394,246.523,236.625,246.575,246.035,238.577,-0.0,-0.0,230.916,239.255
2013-08-12 07:00,-0.0,258.576,253.04,240.469,252.465,251.354,242.527,-0.0,-0.0,230.835,241.854
2013-08-12 08:00,-0.0,274.551,273.199,252.045,274.156,272.246,253.497,-0.0,-0.0,233.01,252.925
2013-08-12 09:00,-0.004841,263.636,259.206,243.509,258.678,255.992,243.383,-0.0,-0.0,231.63,245.345
2013-08-12 10:00,-0.601042,270.151,266.293,247.991,266.847,264.279,248.768,-0.727002,-0.780155,232.709,249.825
2013-08-12 11:00,0.50725,283.594,277.098,254.099,278.278,274.773,254.392,0.335095,0.483962,233.234,254.722
2013-08-12 12:00,0.511955,291.19,287.978,260.553,290.5,289.276,263.318,0.220328,0.431184,238.483,261.355
2013-08-12 13:00,0.408877,296.943,293.133,263.825,295.93,294.016,265.878,0.161218,0.333871,244.635,264.464
2013-08-12 14:00,0.345094,300.589,296.229,265.959,299.164,296.78,266.337,0.127222,0.271713,244.997,264.464
2013-08-12 15:00,0.300126,302.68,297.687,266.756,300.384,297.43,266.222,0.106729,0.230276,244.058,264.162
2013-08-12 16:00,0.268815,303.917,299.024,267.838,301.832,298.591,266.681,0.0912922,0.199811,246.009,264.615
2013-08-12 17:00,0.257504,303.264,298.834,267.642,301.712,298.848,267.478,0.0890727,0.191804,244.739,264.238
2013-08-12 18:00,0.249712,302.085,298.262,267.446,301.231,298.463,266.681,0.0972274,0.189535,244.583,264.314
2013-08-12 19:00,0.28687,300.679,294.846,265.153,297.309,294.547,265.185,0.15788,0.241344,244.426,264.01
2013-08-12 20:00,0.270808,296.008,294.446,264.645,297.309,295.208,265.532,0.18277,0.257548,244.635,264.54
2013-08-12 21:00,0.332206,290.301,290.651,262.155,293.248,292.276,265.185,0.391344,0.422873,244.945,264.54
2013-08-12 22:00,-0.0079543,286.271,287.651,260.228,290.5,289.689,264.138,-0.0,-0.0,245.151,264.086
2013-08-12 23:00,-0.116803,285.665,287.102,259.574,289.701,288.999,264.138,-0.0294019,-0.0637405,243.418,263.706
2013-08-13 00:00,-0.0957116,285.045,286.328,259.464,289.032,288.722,264.138,-0.0241392,-0.0513971,244.217,263.244
2013-08-13 01:00,-0.00157126,284.249,285.77,259.024,288.222,288.167,263.67,-0.0,-0.0,243.202,262.701
2013-08-13 02:00,-0.00134576,283.428,285.433,258.469,287.951,287.748,263.436,-0.0,-0.0,243.793,262.779
2013-08-13 03:00,0.00124423,283.76,285.433,258.691,288.087,287.888,263.787,-0.0,-0.0,244.111,263.09
2013-08-13 04:00,-0.0,283.093,285.095,258.58,287.679,287.609,263.787,-0.0,-0.0,244.006,263.476
2013-08-13 05:00,-0.0,282.234,284.642,258.134,287.134,287.188,263.905,-0.0,-0.0,244.374,263.706
2013-08-13 06:00,-0.00145923,281.346,283.726,257.572,286.585,286.767,263.436,-0.0,-0.0,244.479,263.782
2013-08-13 07:00,0.00180289,281.526,283.611,257.685,286.033,286.202,263.083,-0.0,-0.0,244.111,263.322
2013-08-13 08:00,-0.0,281.526,283.38,257.459,286.172,286.202,263.318,-0.0,-0.0,243.364,262.545
2013-08-13 09:00,-0.00487931,281.346,282.799,257.12,285.618,285.777,262.965,-0.0,-0.0,243.039,261.993
2013-08-13 10:00,-0.31,280.613,282.682,257.346,285.479,285.493,262.728,-1.0499,-0.938889,242.929,261.834
2013-08-13 11:00,0.561456,286.569,285.994,258.802,288.897,288.306,263.2,0.288959,0.494581,243.418,261.595
2013-08-13 12:00,0.513964,294.043,290.756,262.261,293.506,291.735,264.138,0.218775,0.413968,244.269,261.675
2013-08-13 13:00,0.408697,299.013,294.245,263.721,297.06,294.415,265.301,0.163738,0.32002,244.997,261.914
2013-08-13 14:00,0.341901,302.085,296.815,265.658,299.654,296.389,265.416,0.129434,0.258877,245.405,262.151
2013-08-13 15:00,0.3034,304.159,298.358,266.458,301.11,297.43,265.532,0.107564,0.221803,245.048,261.834
2013-08-13 16:00,0.272212,303.998,298.167,266.557,300.869,297.17,265.647,0.0971759,0.199055,244.739,261.355
2013-08-13 17:00,0.269069,303.674,296.621,265.758,298.918,294.679,264.138,0.104638,0.198993,244.322,260.789
2013-08-13 18:00,0.38859,294.38,278.35,255.277,280.201,278.458,258.27,0.364381,0.427136,244.058,259.471
2013-08-13 19:00,0.31901,299.391,291.174,262.681,293.892,290.238,262.728,0.217697,0.305235,243.846,260.052
2013-08-13 20:00,0.324001,293.702,286.217,259.464,288.628,286.06,260.581,0.35696,0.437444,243.579,259.887
2013-08-13 21:00,0.882595,289.247,282.799,257.685,284.921,282.467,259.735,0.69908,0.919776,243.579,259.051
2013-08-13 22:00,-0.00799682,285.665,283.956,258.022,286.722,283.773,260.219,-0.0,-0.0,243.418,259.051
2013-08-13 23:00,-0.132742,271.261,269.201,250.429,272.264,270.311,253.881,-0.0347882,-0.0733871,243.793,257.595
2013-08-14 00:00,-0.105922,282.408,281.742,257.12,284.079,282.028,260.098,-0.0293198,-0.0555238,242.929,258.114
2013-08-14 01:00,0.00157121,277.661,276.208,254.099,278.576,276.169,256.41,-0.00133034,-0.0,243.633,257.508
2013-08-14 02:00,-0.0,275.02,273.466,252.777,275.703,273.2,255.28,-0.0,-0.0,243.633,256.982
2013-08-14 03:00,-0.00124417,275.02,272.391,252.045,275.242,272.405,254.646,-0.0,-0.0,242.984,256.982
2013-08-14 04:00,-0.00122834,281.883,280.187,256.434,282.66,280.554,257.777,-0.0,-0.0,242.266,257.246
2013-08-14 05:00,-0.0,281.526,281.029,257.233,283.797,281.441,259.005,-0.0,-0.0,242.099,257.246
2013-08-14 06:00,0.00146051,280.982,280.909,256.664,283.514,282.028,258.882,-0.0,-0.0,241.874,257.421
2013-08-14 07:00,-0.00180594,280.982,281.978,257.233,284.501,283.194,260.219,-0.0,-0.0,241.59,257.595
2013-08-14 08:00,0.00256723,279.081,279.458,255.742,281.943,280.554,259.127,-0.0,-0.0,241.304,256.982
2013-08-14 09:00,-0.0,279.473,280.669,256.549,283.088,282.321,259.977,-0.0,0.00496658,240.724,257.421
2013-08-14 10:00,-0.914577,258.576,259.373,245.04,263.04,263.063,250.104,-1.76999,-1.84664,240.014,253.117
2013-08-14 11:00,0.663063,285.97,276.08,254.099,278.576,275.861,256.16,0.41876,0.54869,239.532,255.548
2013-08-14 12:00,0.805881,294.823,262.141,245.995,264.792,264.795,251.553,0.73192,0.841737,239.714,253.405
2013-08-14 13:00,0.678166,295.583,260.365,245.177,263.569,263.412,250.633,0.730345,0.816774,239.593,253.213
2013-08-14 14:00,0.353445,293.816,278.968,255.974,281.366,278.156,256.66,0.206435,0.310569,240.548,256.181
2013-08-14 15:00,0.293239,293.007,288.087,261.198,290.764,288.306,261.898,0.108388,0.225413,240.899,257.595
2013-08-14 16:00,0.26385,295.042,290.123,262.261,292.86,290.238,262.847,0.0980485,0.201259,241.131,258.713
2013-08-14 17:00,0.247815,295.042,290.965,262.261,294.021,291.735,263.318,0.0923755,0.191965,241.131,259.135
2013-08-14 18:00,0.242409,294.156,290.965,262.681,294.149,292.141,263.787,0.101092,0.19359,241.704,259.97
2013-08-14 19:00,0.40305,297.349,285.882,259.902,289.166,286.907,261.421,0.25695,0.373393,242.155,259.554
2013-08-14 20:00,0.264037,288.568,287.322,260.661,290.234,288.861,262.61,0.203834,0.270482,242.322,259.97
2013-08-14 21:00,0.435117,284.888,284.528,258.58,287.134,286.485,261.779,0.487255,0.566808,243.093,261.113
2013-08-14 22:00,-0.00803881,280.982,282.566,257.459,284.921,284.636,261.779,-0.0,-0.0,243.472,261.275
2013-08-14 23:00,-0.117071,280.239,281.505,256.892,284.079,283.629,261.301,-0.0321484,-0.0734698,244.006,261.755
2013-08-15 00:00,-0.107986,280.05,281.267,256.434,283.372,283.194,261.421,-0.0276021,-0.0575948,245.96,262.623
2013-08-15 01:00,-0.00157116,278.279,280.429,255.974,282.66,282.467,261.182,-0.0,-0.00158618,247.426,263.552
2013-08-15 02:00,-0.0,277.661,279.336,255.277,281.51,281.882,260.701,-0.0,-0.0,250.713,265.875
2013-08-15 03:00,-0.0,275.932,278.226,254.69,280.201,280.257,260.098,-0.0,-0.0,250.008,265.655
2013-08-15 04:00,-0.0,275.932,278.226,254.336,280.054,280.406,260.34,-0.0,-0.0,250.669,266.888
2013-08-15 05:00,-0.0,275.707,277.601,254.217,279.466,279.661,260.461,-0.0,-0.0,250.45,267.103
2013-08-15 06:00,-0.0,275.251,276.718,253.86,278.427,278.76,260.098,-0.0,-0.0,249.199,267.103
2013-08-15 07:00,-0.00180916,274.073,276.08,253.381,277.828,277.853,259.856,-0.0,-0.0,250.45,267.459
2013-08-15 08:00,-0.00257621,273.831,275.436,253.02,276.923,277.396,259.492,-0.0,-0.0,251.403,267.671
2013-08-15 09:00,-0.0,273.338,274.655,252.045,276.163,276.631,259.735,-0.0,-0.0,250.669,266.96
2013-08-15 10:00,-1.076,273.088,274.392,252.412,276.01,276.631,259.127,-2.12577,-2.35361,250.45,266.601
2013-08-15 11:00,0.590223,280.613,278.845,254.808,280.931,281.146,260.942,0.286215,0.563364,249.741,266.529
2013-08-15 12:00,0.531535,288.012,284.185,257.685,286.585,286.202,263.083,0.217993,0.46395,249.741,266.456
2013-08-15 13:00,0.42205,292.414,288.628,260.769,291.423,290.921,264.605,0.161976,0.354407,249.335,266.312
2013-08-15 14:00,0.353465,295.368,291.902,262.366,295.17,294.679,266.108,0.126883,0.286133,249.017,266.456
2013-08-15 15:00,0.297975,297.549,294.346,263.825,297.807,297.17,267.137,0.102926,0.240958,248.417,266.456
2013-08-15 16:00,0.262848,298.436,295.541,264.339,299.041,298.463,267.592,0.0902577,0.207866,248.879,266.745
2013-08-15 17:00,0.251561,297.848,296.131,264.236,299.654,298.976,268.158,0.0894058,0.200664,248.787,266.888
2013-08-15 18:00,0.246911,297.146,295.837,264.339,299.287,298.463,267.592,0.0885067,0.200145,248.925,266.817
2013-08-15 19:00,0.238483,294.043,293.944,262.995,297.309,296.78,267.365,0.103961,0.212158,248.971,266.601
2013-08-15 20:00,0.258795,290.558,291.174,261.412,294.277,294.016,265.878,0.150441,0.257369,248.879,266.745
2013-08-15 21:00,0.290748,285.357,286.55,259.134,289.3,289.276,264.605,0.339957,0.391369,249.108,266.166
2013-08-15 22:00,-0.0,280.427,282.448,256.205,284.641,284.779,262.965,-0.0,-0.0,249.471,266.166
2013-08-15 23:00,-0.101361,279.473,281.267,255.277,283.372,283.629,262.136,-0.0295014,-0.070352,247.665,266.021
2013-08-16 00:00,-0.0957842,279.081,281.029,254.926,283.088,283.194,262.255,-0.0258831,-0.055551,248.231,266.094
2013-08-16 01:00,-0.0015711,278.279,280.669,254.808,282.66,283.194,262.255,-0.0,-0.0,247.949,266.021
2013-08-16 02:00,-0.00134537,278.684,280.549,254.926,282.66,282.758,262.136,-0.0,-0.0,249.017,265.948
2013-08-16 03:00,-0.00124411,278.075,280.308,254.808,282.087,282.613,261.421,-0.0,-0.0,249.471,266.312
2013-08-16 04:00,-0.0,277.661,279.58,254.69,281.51,281.735,261.66,-0.0,-0.0,249.108,266.384
2013-08-16 05:00,-0.0,276.155,278.474,254.217,280.054,280.85,261.182,-0.0,-0.0,248.741,266.021
2013-08-16 06:00,-0.0,276.594,278.101,254.217,279.613,280.257,261.062,-0.0,-0.0,248.741,266.312
2013-08-16 07:00,-0.00181255,275.932,277.727,253.86,279.318,279.959,261.062,-0.0,-0.0,248.649,266.384
2013-08-16 08:00,-0.0025856,275.707,277.35,253.621,279.022,279.81,261.301,-0.0,-0.0,248.649,266.166
2013-08-16 09:00,-0.00500611,275.48,277.727,253.621,279.318,280.108,261.301,-0.0,-0.0,247.949,266.166
2013-08-16 10:00,-0.870736,275.932,277.852,253.621,279.613,280.406,260.942,-3.19475,-3.22322,247.665,266.239
2013-08-16 11:00,0.561452,280.799,277.35,253.381,278.128,277.548,257.158,0.309446,0.529388,243.686,262.151
2013-08-16 12:00,0.546903,291.19,287.869,259.574,290.5,290.238,264.721,0.223387,0.455023,246.505,266.021
2013-08-16 13:00,0.429551,295.796,292.417,262.261,295.424,294.812,266.108,0.164412,0.34851,247.522,266.888
2013-08-16 14:00,0.348602,299.203,296.033,264.441,299.409,298.205,267.705,0.126301,0.276637,245.96,266.384
2013-08-16 15:00,0.292328,300.947,298.167,265.658,301.832,300.379,268.271,0.101256,0.231031,247.234,266.745
2013-08-16 16:00,0.264758,302.341,299.59,266.756,303.263,301.767,269.059,0.0886829,0.204139,246.505,266.239
2013-08-16 17:00,0.247542,302.171,299.778,267.052,303.618,302.018,268.609,0.0838374,0.192117,247.138,266.456
2013-08-16 18:00,0.237016,300.408,298.739,266.557,302.55,301.012,268.834,0.0851374,0.188525,248.51,266.601
2013-08-16 19:00,0.232818,298.242,297.397,265.557,300.748,299.488,268.045,0.10155,0.201805,248.51,266.312
2013-08-16 20:00,0.249777,294.602,294.546,263.721,297.931,296.78,266.795,0.165935,0.252165,249.381,266.239
2013-08-16 21:00,0.341558,288.977,289.911,260.876,292.73,292.276,265.301,0.381739,0.441373,249.875,266.094
2013-08-16 22:00,-0.0081211,284.73,286.661,259.134,289.166,289.276,264.255,-0.0,-0.0,250.186,265.728
2013-08-16 23:00,-0.11098,284.087,285.77,258.134,288.358,288.306,264.138,-0.0322172,-0.0736271,250.406,265.286
2013-08-17 00:00,-0.105997,283.428,284.982,257.798,287.543,287.469,263.787,-0.0258888,-0.0555633,250.362,264.989
2013-08-17 01:00,-0.00157105,282.581,284.414,257.459,286.86,286.907,263.2,-0.0,-0.0,250.318,264.989
2013-08-17 02:00,-0.0,282.234,283.956,257.346,286.447,286.202,263.2,-0.0,0.00135812,249.919,264.389
2013-08-17 03:00,-0.0,281.165,283.032,256.892,285.201,285.35,262.847,-0.0,-0.0,250.669,264.162
2013-08-17 04:00,-0.0,280.239,282.214,256.434,284.361,284.492,262.492,-0.0,-0.0,250.494,264.69
2013-08-17 05:00,0.00129472,279.081,280.909,255.858,283.372,283.629,262.017,-0.0,-0.0,249.964,264.162
2013-08-17 06:00,0.00146488,278.684,280.429,255.742,282.66,283.049,261.182,-0.0,-0.0,249.786,264.086
2013-08-17 07:00,-0.00181611,278.075,280.429,255.16,282.231,282.904,262.017,-0.0,-0.0,249.875,264.389
2013-08-17 08:00,-0.0,277.661,279.702,255.043,281.943,282.467,261.421,-0.0,-0.0,249.017,263.934
2013-08-17 09:00,-0.0,277.24,279.336,254.808,281.51,282.175,261.66,-0.0,-0.0,248.324,264.389
2013-08-17 10:00,-4.7545,277.451,279.58,254.808,281.655,282.175,261.779,-10.0641,-10.3999,246.993,264.01
2013-08-17 11:00,0.590783,284.73,283.956,257.685,286.447,286.343,263.2,0.287734,0.533093,246.258,263.629
2013-08-17 12:00,0.526516,292.174,288.843,260.876,291.817,291.057,264.488,0.214816,0.435154,246.258,263.706
2013-08-17 13:00,0.415482,296.427,292.417,263.411,295.93,294.547,265.647,0.160204,0.336744,245.91,263.399
2013-08-17 14:00,0.346996,299.579,295.837,265.052,299.164,297.3,266.795,0.127086,0.267216,245.405,263.09
2013-08-17 15:00,0.302893,302.341,297.879,266.458,301.472,298.848,267.251,0.104576,0.225631,245.355,262.388
2013-08-17 16:00,0.275345,303.098,298.549,267.052,302.191,299.232,266.795,0.0944807,0.201899,245.456,261.914
2013-08-17 17:00,0.257425,302.848,298.834,267.249,302.55,299.616,266.795,0.0887508,0.189857,245.608,262.23
2013-08-17 18:00,0.246875,301.826,298.262,266.657,301.832,299.104,267.137,0.0923966,0.187829,245.099,261.755
2013-08-17 19:00,0.2436,298.918,296.425,265.557,299.898,297.559,266.566,0.113044,0.203364,244.583,261.675
2013-08-17 20:00,0.256159,294.933,293.843,264.031,297.184,295.339,265.993,0.174806,0.250888,244.426,261.515
2013-08-17 21:00,0.337179,289.381,289.272,261.198,292.47,291.057,264.022,0.411104,0.449331,244.164,260.871
2013-08-17 22:00,-0.0,285.202,286.328,259.354,289.032,288.167,263.2,-0.0,-0.0,244.531,260.627
2013-08-17 23:00,-0.114267,283.261,283.841,257.91,286.31,284.922,261.898,-0.0322499,-0.0704973,244.479,260.135
2013-08-18 00:00,-0.0978643,283.924,284.982,258.58,287.679,286.907,262.492,-0.0258942,-0.0576333,244.111,260.463
2013-08-18 01:00,-0.00157099,283.093,284.528,258.134,287.27,286.626,263.2,-0.0,-0.0,244.79,260.871
2013-08-18 02:00,-0.0,280.613,281.624,257.12,284.361,282.613,260.701,-0.0,-0.0,245.456,260.299
2013-08-18 03:00,-0.0,280.799,281.742,257.006,284.501,282.904,260.822,-0.0,-0.0,245.859,260.545
2013-08-18 04:00,-0.0,273.338,273.599,253.02,276.62,273.99,256.41,-0.0,-0.0,245.96,259.051
2013-08-18 05:00,-0.00129547,276.811,277.727,255.16,280.785,278.609,258.76,-0.0,-0.00130785,245.809,260.135
2013-08-18 06:00,0.00146653,279.859,281.386,256.434,283.797,283.917,261.898,-0.0,-0.0,245.608,261.435
2013-08-18 07:00,0.00181985,277.869,279.702,255.51,282.231,281.882,260.581,-0.0,-0.0,245.859,260.952
2013-08-18 12:00,0.519906,292.534,288.736,261.198,291.686,290.238,263.905,0.217809,0.423728,246.159,261.755
2013-08-18 13:00,0.422877,296.531,292.108,263.203,295.17,293.216,264.721,0.165885,0.329002,246.456,261.914
2013-08-18 14:00,0.350209,299.858,295.144,265.153,298.426,296.127,266.108,0.130578,0.265978,246.258,261.914
2013-08-18 15:00,0.304578,302.171,297.59,266.657,301.472,298.976,266.909,0.107866,0.226182,246.059,262.701
2013-08-18 16:00,0.281517,303.755,299.307,267.642,303.144,300.759,267.705,0.0953439,0.201132,246.258,262.545
2013-08-18 17:00,0.262628,304.478,299.872,267.642,303.736,300.885,267.592,0.0923279,0.190714,246.896,262.857
2013-08-18 18:00,0.251317,302.511,298.739,267.151,302.311,299.616,266.909,0.0965852,0.18894,246.701,262.545
2013-08-18 19:00,0.25197,300.042,297.3,266.059,300.748,298.334,266.795,0.120499,0.207272,247.138,262.857
2013-08-18 20:00,0.266295,296.114,294.446,264.133,297.931,295.734,266.108,0.183599,0.26116,247.138,262.935
2013-08-18 21:00,0.372941,290.301,290.017,261.731,293.248,291.735,264.605,0.428543,0.457186,247.234,262.857
2013-08-18 22:00,-0.0,285.97,287.212,259.793,289.968,289.413,263.905,-0.0,-0.0,247.283,263.09
2013-08-18 23:00,-0.111202,285.512,286.439,259.024,289.032,288.445,263.553,-0.0349716,-0.0769815,247.57,262.857
2013-08-19 00:00,-0.116237,284.73,285.994,258.913,288.628,288.167,263.553,-0.0293526,-0.0597034,247.665,262.701
2013-08-19 01:00,-0.00314188,284.73,285.882,259.134,288.628,288.027,263.083,-0.0,-0.0,247.665,263.167
2013-08-19 02:00,-0.0,284.087,285.546,258.913,288.358,288.027,263.67,-0.0,-0.0,247.76,263.476
2013-08-19 03:00,-0.0,283.76,285.208,258.802,287.815,287.329,263.318,-0.0,-0.0,248.043,263.012
2013-08-19 04:00,-0.00122961,282.581,284.185,258.246,286.722,286.767,262.965,-0.0,-0.0,247.665,263.09
2013-08-19 05:00,-0.0,281.526,283.264,257.798,285.895,285.919,262.728,-0.0,-0.0,247.712,262.857
2013-08-19 06:00,-0.0,281.346,283.032,257.685,285.618,285.635,262.847,-0.0,-0.0,246.993,262.545
2013-08-19 07:00,-0.0,280.613,282.448,257.572,285.061,284.922,262.728,-0.0,-0.0,246.258,262.309
2013-08-19 08:00,-0.0,280.05,281.86,257.006,284.501,284.205,261.779,-0.0,-0.0,246.109,262.309
2013-08-19 09:00,-0.0,280.613,282.331,257.006,284.781,284.922,262.61,-0.0,-0.0,246.208,262.701
2013-08-19 10:00,2.76141,280.427,281.86,257.233,284.22,284.349,262.61,4.1566,4.64635,246.554,262.857
2013-08-19 11:00,0.570363,286.421,285.546,258.913,287.951,287.329,263.2,0.288893,0.493556,246.554,262.779
2013-08-19 12:00,0.513337,293.124,289.805,261.625,292.47,290.921,264.488,0.218459,0.420565,246.554,262.623
2013-08-19 13:00,0.410872,297.045,293.133,263.618,296.182,294.016,265.416,0.163326,0.321324,246.406,262.545
2013-08-19 14:00,0.33259,300.408,296.131,265.658,299.041,296.519,265.878,0.127263,0.258285,246.406,262.545
2013-08-19 15:00,0.288741,303.51,298.358,267.052,301.472,298.334,266.795,0.106187,0.219362,246.109,262.701
2013-08-19 16:00,0.264627,304.557,299.402,267.642,302.788,299.232,266.909,0.0949818,0.196012,245.91,262.623
2013-08-19 17:00,0.30452,301.478,289.058,260.876,291.16,288.167,262.61,0.195645,0.270354,245.608,261.595
2013-08-19 18:00,0.38537,301.913,285.882,259.464,288.763,285.919,261.54,0.269153,0.358575,245.859,261.355
2013-08-19 19:00,0.350916,301.125,292.622,263.515,294.661,292.006,264.138,0.220381,0.283886,245.809,261.595
2013-08-19 20:00,0.389915,298.726,290.651,262.049,294.021,291.193,263.553,0.326935,0.43186,246.009,262.388
2013-08-19 21:00,0.710554,292.534,289.165,261.519,292.079,290.238,263.787,0.612766,0.730631,246.307,262.623
2013-08-19 22:00,-0.00824011,278.883,279.091,255.858,282.231,280.108,259.735,-0.0,-0.0,246.258,261.595
2013-08-19 23:00,-0.146289,278.684,277.852,254.808,281.221,278.609,258.392,-0.0376973,-0.0802649,246.505,261.355
2013-08-20 00:00,-0.11014,279.081,278.474,255.974,281.221,279.061,259.005,-0.0293581,-0.0638328,246.406,261.355
2013-08-20 01:00,-0.0,277.869,278.226,255.043,281.51,279.211,259.005,-0.0,-0.0,246.701,261.834
2013-08-20 02:00,-0.0,284.249,285.321,258.691,287.815,286.907,263.318,-0.0,-0.0,246.701,262.857
2013-08-20 03:00,-0.00124432,283.924,285.658,259.134,288.087,287.609,263.553,-0.0,-0.0,246.406,263.167
2013-08-20 04:00,0.00122999,283.261,284.982,258.691,287.543,287.329,263.67,-0.0,-0.0,246.406,263.399
2013-08-20 05:00,0.00129715,283.093,284.755,258.469,287.134,286.907,263.905,-0.0,0.00130955,246.159,263.476
2013-08-20 06:00,0.00147011,282.581,284.3,258.469,286.86,286.907,263.787,-0.0,-0.0,246.357,263.858
2013-08-20 07:00,-0.0,281.346,283.956,258.134,286.31,286.626,263.436,-0.0,-0.0,246.159,263.629
2013-08-20 08:00,-0.00262743,281.165,283.264,257.459,285.618,285.777,263.083,-0.0,0.00265254,246.456,263.782
2013-08-20 09:00,-0.0,280.799,283.148,257.798,285.479,285.635,262.61,-0.0,-0.0,246.307,263.552
2013-08-20 10:00,1.96597,281.526,282.799,257.572,285.479,285.493,262.492,2.57254,2.88693,246.554,263.322
2013-08-20 11:00,0.572913,288.012,286.882,259.793,289.3,288.445,264.138,0.289349,0.487065,246.357,263.09
2013-08-20 12:00,0.528151,295.476,291.487,262.681,294.149,292.276,264.837,0.223592,0.409325,246.357,263.244
2013-08-20 13:00,0.418158,299.485,294.346,264.645,297.06,294.016,265.185,0.175403,0.321458,246.258,262.779
2013-08-20 14:00,0.346954,302.932,297.3,266.259,300.263,297.3,266.337,0.13206,0.258686,246.505,263.167
2013-08-20 15:00,0.303527,305.028,298.929,267.348,301.952,298.463,267.023,0.111898,0.219925,246.554,263.244
2013-08-20 16:00,0.293711,304.159,294.945,264.747,297.683,293.617,264.605,0.13708,0.235769,246.603,262.935
2013-08-20 17:00,0.317139,299.203,285.208,258.691,287.679,285.065,260.942,0.251739,0.307857,246.701,262.072
2013-08-20 18:00,0.348588,302.68,290.229,261.944,293.248,289.276,262.255,0.214245,0.314406,246.456,261.914
2013-08-20 19:00,0.284743,300.679,291.487,262.89,293.764,290.511,263.436,0.21169,0.266431,246.456,262.072
2013-08-20 20:00,0.421944,298.144,289.379,261.519,291.555,288.722,262.965,0.354069,0.418371,246.554,262.072
2013-08-20 21:00,0.988312,291.809,284.982,258.913,287.407,284.779,261.66,0.726697,0.958375,246.847,261.993
2013-08-20 22:00,-0.00827857,271.261,271.848,252.168,275.087,273.2,256.535,-0.0,-0.0,246.944,260.627
2013-08-20 23:00,-0.111409,276.155,275.565,254.336,278.128,276.169,258.023,-0.0350367,-0.0771248,247.138,261.113
2013-08-21 00:00,-0.10608,284.888,285.321,259.244,287.543,286.202,262.373,-0.0276361,-0.0576658,247.379,262.935
2013-08-21 01:00,-0.00157086,285.818,286.772,260.011,289.3,288.167,263.67,-0.0,-0.0,247.855,263.629
2013-08-21 02:00,-0.0,285.818,286.992,260.011,289.434,288.999,264.372,-0.0,-0.0,248.371,264.464
2013-08-21 03:00,-0.0,284.087,285.77,259.244,288.358,288.027,263.787,-0.0,-0.0,248.184,264.615
2013-08-21 04:00,-0.0,283.093,285.095,258.58,287.407,287.329,263.67,-0.0,-0.0,248.417,264.69
2013-08-21 05:00,-0.0,282.408,284.3,258.913,286.722,286.907,263.553,-0.0,-0.0,248.324,264.839
2013-08-21 06:00,-0.00147205,281.883,283.956,258.358,286.31,286.343,264.255,-0.0,-0.0,248.184,264.839
2013-08-21 07:00,-0.0,281.165,283.495,258.022,285.895,285.919,263.436,-0.0,-0.0,248.277,265.063
2013-08-21 08:00,-0.00263898,281.526,283.032,257.91,285.618,285.635,263.553,-0.0,-0.0,248.184,264.839
2013-08-21 09:00,-0.0,281.165,283.032,257.91,285.34,285.35,263.083,-0.0,-0.0,247.949,264.765
2013-08-21 10:00,1.37841,281.346,283.032,257.91,285.201,285.635,262.965,1.90979,2.02412,248.137,264.69
2013-08-21 11:00,0.580229,288.012,286.992,260.011,289.434,288.861,264.022,0.293928,0.495657,248.043,264.69
2013-08-21 12:00,0.524157,295.583,291.591,262.995,294.405,292.814,265.647,0.224143,0.411575,248.09,264.54
2013-08-21 13:00,0.431059,300.947,296.033,265.859,299.041,296.78,266.566,0.174414,0.323496,247.712,264.54
2013-08-21 14:00,0.354835,303.264,298.358,266.954,301.712,298.848,267.251,0.134124,0.265472,247.57,264.765
2013-08-21 15:00,0.309507,305.261,300.06,268.421,303.499,300.885,268.271,0.112661,0.226319,247.474,264.839
2013-08-21 16:00,0.291172,306.326,301.083,268.904,304.559,301.516,268.384,0.103931,0.206057,247.09,264.615
2013-08-21 17:00,0.267381,305.95,300.898,268.711,304.324,301.264,268.497,0.0977598,0.19325,247.041,264.765
2013-08-21 18:00,0.255656,304.078,299.778,268.033,303.144,300.125,267.365,0.105992,0.1958,246.75,264.54
2013-08-21 19:00,0.260596,301.125,298.071,266.756,301.352,299.232,267.705,0.132778,0.216523,246.406,264.464
2013-08-21 20:00,0.281215,297.649,295.639,265.153,298.918,297.17,266.681,0.203182,0.272547,246.505,264.54
2013-08-21 21:00,0.42425,292.294,291.694,263.099,294.788,293.483,265.647,0.457179,0.506179,246.701,264.54
2013-08-21 22:00,-0.0,288.152,289.379,261.519,292.079,291.329,265.301,-0.0,-0.0,246.993,264.914
2013-08-21 23:00,-0.15611,287.155,288.52,260.876,291.029,290.648,265.647,-0.0404627,-0.0868422,247.09,265.063
2013-08-22 00:00,-0.122421,286.421,287.541,260.337,290.234,290.101,264.721,-0.0328236,-0.0659152,247.283,264.989
2013-08-22 01:00,-0.0,285.818,286.992,260.337,289.835,289.551,264.488,-0.0,-0.0,247.09,265.063
2013-08-22 02:00,-0.0,285.512,286.992,260.119,289.568,289.276,264.488,-0.0,-0.0,246.798,264.989
2013-08-22 03:00,0.00124462,285.202,286.661,259.902,289.032,288.722,264.837,-0.0,-0.0,247.138,264.69
2013-08-22 04:00,-0.0,285.512,287.102,260.228,289.434,289.137,264.605,-0.0,-0.0,247.234,264.765
2013-08-22 05:00,-0.0,283.093,285.208,259.134,287.679,287.609,264.488,-0.0,-0.0,247.807,265.212
2013-08-22 06:00,0.00147409,282.234,283.956,258.58,286.585,286.626,264.255,-0.0,-0.0,247.949,265.286
2013-08-22 07:00,-0.0,281.526,283.611,258.358,286.033,286.202,263.436,-0.0,-0.0,247.426,264.914
2013-08-22 08:00,-0.0,281.165,283.264,257.91,285.479,285.919,263.553,-0.0,-0.0,246.75,264.69
2013-08-22 09:00,-0.0,281.165,283.148,257.685,285.34,285.635,263.436,-0.0,-0.0,246.357,264.389
2013-08-22 10:00,1.05635,281.346,283.032,257.798,285.201,285.635,263.436,1.54489,1.64814,245.557,263.858
2013-08-22 11:00,0.567655,287.871,286.772,260.337,289.568,288.861,263.905,0.285894,0.498976,245.304,263.934
2013-08-22 12:00,0.509665,295.368,291.798,263.099,294.533,292.814,265.532,0.217991,0.416404,245.355,263.629
2013-08-22 13:00,0.403963,299.95,295.738,265.456,298.426,296.127,265.993,0.162186,0.31975,245.253,263.629
2013-08-22 14:00,0.335828,303.015,298.549,267.249,301.472,298.72,266.909,0.12949,0.259452,245.253,263.858
2013-08-22 15:00,0.293828,304.715,300.34,268.421,303.499,300.632,267.705,0.106099,0.221023,245.151,264.389
2013-08-22 16:00,0.273009,306.101,301.268,269.096,304.442,301.39,268.045,0.0975192,0.198101,245.658,264.989
2013-08-22 17:00,0.260367,305.874,301.268,269.192,304.676,301.642,268.045,0.0935642,0.187973,246.009,264.914
2013-08-22 18:00,0.245963,304.398,300.246,268.13,303.499,300.506,267.932,0.101153,0.189783,246.109,264.839
2013-08-22 19:00,0.243532,301.653,298.549,267.151,301.712,299.232,267.592,0.126442,0.20643,245.91,264.839
2013-08-22 20:00,0.264979,298.045,296.033,265.658,298.918,296.65,266.795,0.205398,0.259977,245.253,264.01
2013-08-22 21:00,0.266993,292.414,291.383,263.099,294.149,292.679,265.185,0.430596,0.410736,245.253,263.476
2013-08-22 22:00,-0.0167073,288.43,289.272,261.731,291.948,291.193,264.837,-0.0,-0.0,245.304,263.399
2013-08-22 23:00,-0.146678,287.729,288.843,261.091,291.423,290.784,265.069,-0.045897,-0.0901357,245.405,263.858
2013-08-23 00:00,-0.114278,286.864,288.195,260.984,290.897,290.238,264.488,-0.0311012,-0.063866,245.202,263.858
2013-08-23 01:00,-0.0,285.97,287.651,260.661,290.101,289.689,264.138,-0.0,-0.0,245.96,263.858
2013-08-23 02:00,-0.00134504,285.512,286.882,260.011,289.434,289.137,264.138,-0.0,-0.00135789,246.208,264.01
2013-08-23 03:00,-0.0,282.059,283.38,258.469,286.31,284.492,261.421,-0.0,-0.0,246.059,262.935
2013-08-23 04:00,0.0012314,284.41,286.217,260.119,288.493,288.167,263.67,-0.0,-0.0,245.608,263.629
2013-08-23 05:00,-0.00130016,282.923,284.528,259.244,286.997,286.343,262.847,-0.0,-0.0,244.79,262.935
2013-08-23 06:00,-0.0,278.482,280.066,257.006,283.23,281.441,259.735,-0.0,-0.0,244.058,261.834
2013-08-23 07:00,-0.0,284.249,286.105,259.683,288.493,288.584,264.372,-0.0,-0.0,242.322,262.545
2013-08-23 08:00,-0.00266349,283.261,285.658,259.244,288.087,288.027,264.255,-0.0,-0.0,242.042,262.935
2013-08-23 09:00,-0.0,283.76,285.77,259.683,288.358,288.445,264.488,-0.0,-0.0,239.894,262.779
2013-08-23 10:00,1.08585,283.924,285.77,259.354,288.358,288.445,264.837,1.24774,1.48774,238.041,262.857
2013-08-23 11:00,0.622899,289.647,287.432,260.228,289.835,289.137,263.905,0.310721,0.536231,235.799,260.545
2013-08-23 12:00,0.537058,297.848,293.944,264.747,297.184,295.339,266.337,0.222948,0.423752,235.247,260.708
2013-08-23 13:00,0.420526,301.913,297.204,266.657,300.506,297.947,266.909,0.164457,0.321741,234.756,260.217
2013-08-23 14:00,0.351512,304.557,299.402,267.935,302.788,299.36,267.705,0.131539,0.259817,235.317,260.381
2013-08-23 15:00,0.306961,306.251,300.06,268.421,303.381,299.743,266.681,0.112949,0.223009,234.827,259.97
2013-08-23 16:00,0.281898,307.499,301.268,268.807,304.559,300.759,267.365,0.10075,0.200216,234.257,259.135
2013-08-23 17:00,0.256422,306.4,300.246,268.518,303.618,299.998,267.023,0.0996163,0.190348,232.935,258.028
2013-08-23 18:00,0.315125,285.665,265.394,247.597,263.217,258.957,242.527,0.262369,0.332277,225.546,239.255
2013-08-23 19:00,0.489832,274.787,251.912,239.871,250.83,248.532,237.525,0.48451,0.603123,227.42,237.468
2013-08-23 20:00,0.769018,273.338,249.185,238.503,249.998,247.085,236.153,0.729765,0.930144,226.405,236.033
2013-08-23 21:00,0.226396,292.414,292.211,263.203,295.424,293.883,265.416,0.34078,0.34284,232.251,258.028
2013-08-23 22:00,-0.0,288.705,289.379,261.412,292.47,291.6,264.255,-0.0,-0.0,232.709,257.682
2013-08-23 23:00,-0.1468,287.587,288.303,260.445,291.292,290.375,264.138,-0.0459352,-0.0934324,232.633,257.07
2013-08-24 00:00,-0.116338,276.376,275.565,254.099,279.318,276.784,256.785,-0.0345626,-0.0679976,232.251,254.349
2013-08-24 01:00,-0.00157082,272.836,271.574,251.799,274.623,272.086,255.406,-0.0,-0.0,232.02,253.405
2013-08-24 02:00,-0.00134508,275.02,273.865,253.14,276.468,274.304,256.035,-0.0,-0.0,231.473,252.828
2013-08-24 03:00,-0.0,282.753,281.624,257.233,283.797,281.735,258.638,-0.0,-0.0,230.43,252.828
2013-08-24 04:00,-0.0,266.466,256.118,242.081,254.263,251.354,239.322,-0.0,-0.0,226.311,238.303
2013-08-24 05:00,-0.0,262.869,252.101,240.469,250.415,248.532,237.827,-0.0,-0.0,225.931,236.469
2013-08-24 06:00,-0.0,245.913,236.318,232.491,235.155,234.216,229.781,-0.0,0.00149261,223.329,228.603
2013-08-24 07:00,-0.00184603,269.283,261.822,245.723,261.611,258.591,243.808,-0.0,-0.0,228.488,244.764
2013-08-24 08:00,-0.00267644,269.283,263.401,246.533,263.92,261.831,247.279,-0.0,-0.0,227.959,244.53
2013-08-24 09:00,-0.0,256.589,251.339,239.721,253.069,251.156,239.025,-0.0,-0.0,227.42,242.354
2013-08-24 10:00,1.36196,264.739,263.401,247.067,265.654,264.623,250.896,1.37282,1.70236,230.593,250.544
2013-08-24 11:00,0.852852,285.202,262.774,246.801,266.167,265.65,252.075,0.649494,0.755183,231.076,251.452
2013-08-24 12:00,0.520006,292.174,283.611,257.798,284.22,282.028,258.392,0.258478,0.433563,229.769,250.135
2013-08-24 13:00,0.43313,301.826,296.327,266.259,299.531,296.389,265.762,0.173046,0.325586,231.552,255.548
2013-08-24 14:00,0.367039,305.339,297.879,267.446,301.11,296.78,264.837,0.142823,0.268056,231.473,255.183
2013-08-24 15:00,0.312841,307.427,299.966,268.324,302.788,298.334,265.993,0.113693,0.220649,231.552,255.457
2013-08-24 16:00,0.296364,307.21,298.453,267.544,300.99,296.389,265.185,0.113517,0.209438,231.394,255.639
2013-08-24 17:00,0.302108,304.557,293.843,264.95,296.433,292.276,263.67,0.162894,0.242783,231.787,255.911
2013-08-24 18:00,0.481507,296.008,275.306,253.86,279.022,276.784,257.53,0.438712,0.535426,232.175,254.162
2013-08-24 19:00,0.590661,297.749,275.694,253.741,278.725,276.169,256.66,0.531006,0.690703,232.328,253.69
2013-08-24 20:00,0.906112,306.251,280.187,256.892,282.946,278.307,256.785,0.698312,0.896105,232.481,253.309
2013-08-24 21:00,0.908593,295.796,287.978,260.876,290.764,287.329,261.898,0.790381,1.03037,232.557,254.629
2013-08-24 22:00,-0.00842636,288.152,287.76,260.445,290.764,288.722,262.965,-0.0,-0.0,232.557,254.814
2013-08-24 23:00,-0.178857,287.729,287.76,260.769,291.029,289.137,263.553,-0.054085,-0.103181,232.633,255.457
2013-08-25 00:00,-0.130647,286.271,286.661,259.902,289.701,288.306,263.083,-0.038025,-0.0741912,232.251,255.275
2013-08-25 01:00,-0.0,285.512,286.105,259.793,289.032,287.748,263.083,-0.0,-0.0,231.865,255.183
2013-08-25 02:00,-0.0,285.818,286.439,260.011,289.3,287.888,263.318,-0.0,-0.0,232.251,255.091
2013-08-25 03:00,-0.0,284.57,285.095,259.134,287.815,286.626,262.492,-0.0,-0.0,231.865,254.999
2013-08-25 04:00,0.00123258,284.249,284.982,259.134,287.951,286.907,262.728,-0.0,0.00124436,232.175,255.183
2013-08-25 05:00,-0.0,280.239,280.669,257.006,283.656,281.293,259.37,-0.0,-0.0,232.481,254.443
2013-08-25 06:00,-0.00148083,278.883,278.226,255.626,281.221,278.76,258.76,-0.0,-0.0,233.01,254.162
2013-08-25 07:00,-0.0,282.408,282.799,257.685,285.479,283.917,260.701,-0.0,-0.0,233.382,254.999
2013-08-25 08:00,-0.00268988,282.408,283.264,258.134,285.895,284.922,261.779,-0.0,-0.0,233.823,254.814
2013-08-25 09:00,-0.0,281.883,282.566,257.798,285.34,284.349,261.779,-0.0,-0.0,234.185,254.999
2013-08-25 10:00,0.945008,278.883,276.845,254.572,279.76,277.396,257.406,1.1296,1.23464,233.53,253.595
2013-08-25 11:00,0.521835,287.155,285.208,259.024,287.543,285.919,261.898,0.282616,0.422408,233.085,254.722
2013-08-25 12:00,0.510874,293.124,287.978,260.876,290.5,288.027,262.373,0.226059,0.391354,232.86,255.183
2013-08-25 13:00,0.404556,296.427,290.651,262.576,292.86,289.964,263.083,0.167322,0.304906,232.709,254.999
2013-08-25 14:00,0.334222,298.918,292.211,263.825,294.149,290.511,263.2,0.132937,0.249532,232.709,254.999
2013-08-25 15:00,0.288793,300.589,293.133,264.236,295.043,291.057,263.318,0.112022,0.211125,233.01,254.814
2013-08-25 16:00,0.265732,300.858,293.031,264.133,294.788,290.375,262.965,0.104759,0.194462,232.557,254.443
2013-08-25 17:00,0.259109,301.125,293.235,264.236,294.916,290.648,263.083,0.107791,0.189007,232.405,254.814
2013-08-25 18:00,0.246877,299.485,293.133,264.133,295.17,291.329,263.905,0.116291,0.191316,231.865,255.183
2013-08-25 19:00,0.265858,296.008,290.86,263.099,293.119,289.689,262.492,0.153916,0.220226,232.175,254.999
2013-08-25 20:00,0.298254,292.889,289.379,262.155,291.817,288.861,263.318,0.249413,0.286236,232.251,255.183
2013-08-25 21:00,0.258731,287.587,286.55,260.119,288.763,286.767,262.255,0.35468,0.335834,231.63,254.722
2013-08-25 22:00,-0.00846185,282.408,281.029,256.549,282.803,280.998,258.882,-0.0,-0.0,230.266,252.439
2013-08-25 23:00,-0.163016,283.76,283.956,258.58,286.722,285.35,261.66,-0.0541275,-0.119397,232.405,254.999
2013-08-26 00:00,-0.112293,282.923,283.38,258.246,286.172,285.065,261.779,-0.0380313,-0.080387,232.557,255.091
2013-08-26 01:00,-0.00314177,281.346,281.978,257.233,284.501,283.339,260.461,-0.0,-0.0,231.63,254.443
2013-08-26 02:00,-0.0,280.427,280.669,256.664,283.23,281.882,260.34,-0.0,-0.0,231.709,255.183
2013-08-26 03:00,-0.0,279.859,280.308,256.549,282.803,281.588,259.614,-0.0,-0.0,232.405,255.183
2013-08-26 04:00,-0.0,280.239,281.505,257.12,284.361,283.773,261.66,-0.0,-0.0,233.085,255.548
2013-08-26 05:00,-0.0,279.859,280.669,256.549,283.372,282.613,261.182,-0.0,-0.0,232.481,254.722
2013-08-26 06:00,-0.0,274.787,273.997,252.899,275.857,274.617,255.658,-0.0,-0.0,231.552,251.652
2013-08-26 07:00,-0.0,279.081,280.549,256.778,283.372,282.758,261.66,-0.0,-0.0,233.677,255.639
2013-08-26 08:00,-0.0,277.661,279.458,256.205,282.374,282.175,261.54,-0.0,-0.0,233.75,254.999
2013-08-26 09:00,-0.0,273.586,277.224,255.16,280.785,280.998,260.581,-0.0,-0.0,233.677,254.814
2013-08-26 10:00,1.31049,274.073,275.823,253.621,278.873,278.911,259.492,1.60274,1.51902,233.159,254.349
2013-08-26 11:00,0.542733,279.278,271.162,250.931,273.686,272.883,254.392,0.628419,0.608801,232.175,251.051
2013-08-26 12:00,0.593548,282.234,267.473,249.029,268.855,268.007,252.205,0.60393,0.619796,231.156,247.808
2013-08-26 13:00,0.407803,293.007,284.3,259.134,286.585,284.205,261.182,0.207172,0.320004,233.75,255.275
2013-08-26 14:00,0.357405,295.26,286.217,260.228,288.087,285.065,261.182,0.167682,0.270226,234.686,255.639
2013-08-26 15:00,0.310278,296.114,286.439,260.011,288.358,284.922,261.301,0.140353,0.228854,235.455,254.999
2013-08-26 16:00,0.277351,294.602,286.328,260.011,288.087,284.779,260.34,0.119788,0.205052,234.827,254.349
2013-08-26 17:00,0.337307,297.649,282.331,257.798,284.641,282.028,259.492,0.19461,0.256152,234.543,253.974
2013-08-26 18:00,0.550976,297.848,277.977,255.277,280.931,279.661,259.005,0.426901,0.481028,234.897,253.69
2013-08-26 19:00,0.819637,295.583,266.442,248.9,270.006,269.657,254.519,0.711239,0.816043,235.247,253.117
2013-08-26 20:00,1.14754,295.26,265.696,248.771,268.69,268.173,254.646,0.956097,1.12149,235.455,253.021
2013-08-26 21:00,1.37853,283.428,269.201,250.681,272.104,270.473,253.753,1.00193,1.36708,235.525,253.405
2013-08-26 22:00,-0.0,273.088,272.796,252.534,275.396,273.675,255.909,-0.00719422,-0.0,235.731,253.595
2013-08-27 00:00,-0.106185,273.338,273.599,252.412,275.857,274.617,256.535,-0.0380376,-0.0824619,236.475,254.256
2013-08-27 01:00,-0.00157095,270.434,271.848,251.799,275.087,274.46,256.41,-0.0,-0.0,236.808,254.162
2013-08-27 02:00,-0.0013454,260.827,263.245,247.067,266.167,265.99,253.24,-0.0,-0.0,237.137,253.117
2013-08-27 03:00,-0.001246,275.251,276.336,254.572,279.17,278.156,258.147,-0.0,-0.0,237.006,254.256
2013-08-27 04:00,0.00123397,271.261,274.524,253.741,278.278,277.701,258.147,-0.0,-0.0,237.072,254.443
2013-08-27 05:00,-0.0,272.836,274.785,253.86,277.978,277.091,258.023,-0.0,-0.0,237.006,253.974
2013-08-27 06:00,-0.0,273.338,275.176,254.217,278.576,278.004,259.37,-0.0,-0.0,237.203,254.162
2013-08-27 07:00,-0.0,270.713,273.199,253.02,276.468,276.784,258.27,-0.0,-0.0,237.463,254.536
2013-08-27 08:00,-0.00271825,273.088,275.176,253.86,277.828,277.396,258.392,-0.0,-0.0,237.849,254.999
2013-08-27 09:00,-0.0,270.713,272.796,252.412,275.857,275.551,257.653,-0.0,-0.0,238.231,255.183
2013-08-27 10:00,1.16085,272.061,271.299,251.552,274.467,274.46,256.785,1.1649,1.21535,238.104,254.814
2013-08-27 11:00,0.645378,287.729,271.984,252.29,275.242,274.617,256.909,0.546441,0.586855,237.785,254.349
2013-08-27 12:00,0.624354,296.427,272.931,252.777,275.857,275.24,257.158,0.468713,0.551213,236.874,253.974
2013-08-27 13:00,0.433114,292.294,286.328,260.553,289.166,287.188,261.66,0.173215,0.342361,236.408,253.974
2013-08-27 14:00,0.358805,294.491,288.628,261.838,291.817,289.551,262.847,0.136905,0.276729,236.542,253.88
2013-08-27 15:00,0.311832,296.427,291.174,263.721,294.916,293.082,264.138,0.111107,0.239315,235.317,253.595
2013-08-27 16:00,0.284698,297.248,292.52,264.339,296.307,294.812,265.069,0.0992573,0.214156,235.038,254.068
2013-08-27 17:00,0.26772,297.146,292.005,263.825,295.677,293.75,264.022,0.096968,0.204211,234.968,253.974
2013-08-27 18:00,0.255563,295.476,291.279,263.099,294.788,293.082,264.372,0.0979579,0.200477,235.525,254.256
2013-08-27 19:00,0.254954,293.124,290.017,262.471,293.377,291.735,263.436,0.114621,0.214113,235.525,254.349
2013-08-27 20:00,0.273804,289.91,288.628,261.412,291.817,290.921,263.436,0.160735,0.257994,235.662,254.907
2013-08-27 21:00,0.374569,285.665,285.095,259.683,288.087,287.469,262.965,0.347838,0.426943,235.799,255.73
2013-08-27 22:00,-0.00853122,280.05,281.267,257.233,283.938,283.773,260.942,-0.0,-0.0,235.799,255.911
2013-08-27 23:00,-0.176068,279.278,280.066,256.778,282.66,282.467,260.822,-0.0650517,-0.135738,236.004,256.091
2013-08-28 00:00,-0.132754,277.451,278.845,255.858,281.076,281.146,260.34,-0.0449611,-0.0907235,235.247,256.091
2013-08-28 01:00,-0.00157104,277.24,277.727,255.277,279.907,279.959,259.856,-0.0,-0.0,235.593,256.271
2013-08-28 02:00,-0.0,275.932,277.098,255.043,279.318,279.511,259.735,-0.0,-0.0,235.525,256.539
2013-08-28 03:00,-0.0,275.02,276.591,254.572,278.576,278.609,259.735,-0.0,-0.0,236.071,256.805
2013-08-28 04:00,-0.0,274.073,275.306,254.217,277.377,277.091,258.515,-0.0,-0.0,235.455,256.716
2013-08-28 05:00,0.00130655,274.314,275.436,254.099,277.226,277.396,259.005,-0.0,-0.0,236.004,257.333
2013-08-28 06:00,0.00148853,273.338,274.785,253.86,276.62,276.477,259.005,-0.0,-0.0,235.317,256.716
2013-08-28 07:00,-0.00186727,273.088,274.261,253.501,276.01,276.169,258.392,-0.0,-0.0,235.386,256.716
2013-08-28 08:00,-0.0,272.836,273.333,252.899,274.933,274.773,257.9,-0.0,-0.0,234.827,256.716
2013-08-28 09:00,-0.00573536,272.322,273.065,252.899,274.778,274.929,258.515,-0.0,-0.0,235.799,257.942
2013-08-28 10:00,0.92466,272.322,267.18,251.552,273.215,273.2,257.53,0.815529,1.16687,235.525,257.421
2013-08-28 11:00,0.614239,281.705,278.474,255.742,280.493,279.81,259.249,0.294454,0.583634,236.207,259.22
2013-08-28 12:00,0.554314,290.301,285.433,259.574,288.222,287.748,263.318,0.227235,0.481115,237.398,261.275
2013-08-28 13:00,0.419639,293.93,290.123,261.731,293.248,292.545,265.416,0.164465,0.35705,237.913,262.779
2013-08-28 14:00,0.344859,296.427,293.336,263.928,296.559,296.127,267.023,0.127178,0.283167,237.463,263.244
2013-08-28 15:00,0.300725,299.108,295.935,265.254,299.898,299.104,268.497,0.104705,0.241177,237.006,263.706
2013-08-28 16:00,0.276699,300.317,297.783,266.557,301.592,301.012,268.946,0.0930058,0.213368,237.528,264.01
2013-08-28 17:00,0.260871,300.589,298.453,267.151,302.43,301.516,269.506,0.0878498,0.200517,238.231,264.615
2013-08-28 18:00,0.240941,298.822,297.59,266.358,301.472,300.885,269.283,0.0874303,0.194595,238.104,264.69
2013-08-28 19:00,0.247326,296.323,296.033,265.254,299.654,299.232,268.497,0.102801,0.211101,238.483,265.063
2013-08-28 20:00,0.258124,292.174,292.929,263.618,296.182,296.127,266.909,0.144676,0.253251,238.041,264.839
2013-08-28 21:00,0.287296,286.569,288.303,260.984,291.029,291.057,265.185,0.354744,0.410893,237.398,264.086
2013-08-28 22:00,-0.00856516,281.705,283.611,258.134,285.757,285.919,263.436,-0.0,-0.0,237.657,264.162
2013-08-28 23:00,-0.237067,280.799,282.682,257.91,284.641,284.922,262.847,-0.0759497,-0.14554,237.333,264.162
2013-08-29 00:00,-0.140949,279.859,281.267,257.346,283.514,283.773,262.255,-0.0466987,-0.086615,236.675,263.322
2013-08-29 01:00,-0.0,278.075,280.066,256.32,281.799,282.175,262.373,-0.0,-0.00158618,235.662,262.623
2013-08-29 02:00,-0.0,278.075,279.702,256.205,281.51,281.588,261.54,-0.0,-0.0,234.897,262.23
2013-08-29 03:00,-0.00124684,277.869,279.336,256.089,281.221,281.588,261.062,-0.0,0.00125876,235.247,262.072
2013-08-29 04:00,-0.0,277.24,278.721,255.626,280.493,280.85,261.301,-0.0,-0.0,234.543,261.914
2013-08-29 05:00,-0.0,276.155,277.35,255.393,279.17,279.361,261.182,-0.0,-0.0,234.329,261.675
2013-08-29 06:00,-0.00149131,275.02,276.08,254.454,277.978,278.004,260.098,-0.0,-0.0,234.113,261.515
2013-08-29 07:00,-0.0,275.02,276.208,254.336,277.678,278.004,260.461,-0.0,-0.0,233.308,261.113
2013-08-29 08:00,-0.0,274.551,275.565,254.454,277.226,277.548,260.219,-0.0,-0.0,233.085,260.952
2013-08-29 09:00,-0.0,274.073,275.306,253.741,276.62,277.091,260.219,-0.0,-0.0,232.557,260.708
2013-08-29 10:00,0.801631,274.551,275.046,253.381,276.468,277.243,259.249,0.767271,1.0556,232.709,260.299
2013-08-29 11:00,0.646222,285.512,282.799,257.798,284.921,285.065,262.373,0.294332,0.58491,232.405,261.194
2013-08-29 12:00,0.557494,293.24,289.593,261.412,292.34,292.006,265.647,0.227585,0.472369,232.481,261.914
2013-08-29 13:00,0.424524,297.449,293.944,264.133,297.434,296.91,267.478,0.165066,0.353166,232.405,261.914
2013-08-29 14:00,0.349345,300.947,298.071,266.756,301.832,301.264,269.171,0.129166,0.2803,232.328,261.834
2013-08-29 15:00,0.303703,303.592,300.898,268.227,305.144,304.381,269.953,0.10665,0.237373,232.097,261.435
2013-08-29 16:00,0.279843,305.261,302.64,269.0,306.882,305.853,270.619,0.0938388,0.21119,231.865,261.113
2013-08-29 17:00,0.258505,304.872,302.459,269.288,307.226,305.853,270.951,0.0888012,0.196851,231.709,260.545
2013-08-29 18:00,0.252152,303.346,301.36,268.615,305.958,304.75,270.175,0.0929509,0.193952,231.156,259.804
2013-08-29 19:00,0.250963,300.225,298.834,267.348,303.144,301.516,268.497,0.113834,0.205857,231.865,258.114
2013-08-29 20:00,0.271555,296.427,295.541,265.557,299.409,297.818,267.478,0.171678,0.252219,232.097,257.246
2013-08-29 21:00,0.344015,290.558,290.545,262.786,293.892,293.216,265.532,0.391717,0.431135,232.86,256.805
2013-08-29 22:00,-0.00859863,285.045,286.55,260.228,289.568,288.999,263.905,-0.0,-0.0,233.085,256.36
2013-08-29 23:00,-0.250063,284.888,285.433,259.354,288.358,287.748,263.553,-0.0814339,-0.148883,233.085,255.911
2013-08-30 00:00,-0.138932,283.594,284.869,259.134,287.27,287.048,263.2,-0.0467073,-0.0886937,233.234,255.548
2013-08-30 01:00,-0.00157131,282.753,284.3,258.913,286.722,286.202,262.965,-0.0,-0.0,232.935,255.821
2013-08-30 02:00,-0.0,282.408,283.495,258.358,286.172,285.919,262.728,-0.0,-0.0,231.315,254.629
2013-08-30 03:00,-0.0,281.165,282.682,258.358,285.34,285.065,262.136,-0.0,-0.0,231.787,254.443
2013-08-30 04:00,0.00123645,281.165,282.566,258.134,285.201,285.065,262.61,-0.0,-0.0,231.315,254.536
2013-08-30 05:00,-0.00130961,280.613,282.096,257.459,284.501,284.349,262.255,-0.0,-0.0,231.709,254.536
2013-08-30 06:00,0.00149421,280.239,281.742,257.346,284.079,284.061,262.255,-0.0,-0.0,231.943,254.814
2013-08-30 07:00,-0.0,279.859,281.386,257.233,283.797,283.917,262.136,-0.0,-0.0,232.02,254.629
2013-08-30 08:00,-0.00276462,279.859,281.029,256.892,283.656,283.773,262.017,-0.0,-0.0,232.02,254.536
2013-08-30 09:00,-0.0,279.081,280.789,256.664,283.23,283.339,261.779,-0.0,-0.0,232.405,254.162
2013-08-30 10:00,0.667399,280.239,281.148,256.892,283.797,283.773,262.255,0.645812,0.737948,232.097,254.349
2013-08-30 11:00,0.611309,288.568,286.439,259.683,289.3,288.722,263.553,0.286725,0.483954,231.709,254.162
2013-08-30 12:00,0.540835,295.902,291.591,262.366,295.043,293.483,265.185,0.223735,0.406387,231.236,253.69
2013-08-30 13:00,0.423907,300.408,295.541,265.153,299.287,296.91,265.647,0.16719,0.312739,231.473,253.88
2013-08-30 14:00,0.34923,304.398,298.453,267.052,302.55,299.616,266.452,0.13499,0.255996,230.755,253.405
2013-08-30 15:00,0.309445,305.261,297.494,266.458,300.99,297.559,264.605,0.122742,0.220934,229.093,250.646
2013-08-30 16:00,0.28987,306.845,298.739,267.348,302.55,298.076,264.953,0.111029,0.204849,229.093,251.452
2013-08-30 17:00,0.284132,304.872,295.738,265.254,298.426,294.016,261.779,0.127143,0.211049,227.959,249.825
2013-08-30 18:00,0.249619,300.134,290.545,261.731,291.948,287.888,258.392,0.156343,0.224388,228.136,248.562
2013-08-30 19:00,0.359547,294.268,279.702,255.16,279.466,274.773,250.765,0.279847,0.367493,226.405,244.53
2013-08-30 20:00,0.454389,295.151,286.661,259.574,288.763,285.635,258.882,0.399998,0.476937,228.312,248.669
2013-08-30 21:00,0.470335,292.771,290.123,261.625,292.989,290.784,263.553,0.577436,0.641022,228.662,251.452
2013-08-30 22:00,-0.0,283.76,279.945,255.51,281.51,279.661,255.28,-0.0,-0.0,228.488,248.669
2013-08-30 23:00,-0.176454,287.01,285.994,258.913,288.763,287.609,262.017,-0.0733433,-0.145751,229.935,252.244
2013-08-31 00:00,-0.157351,286.421,286.105,259.024,289.032,287.748,262.728,-0.0519072,-0.0949003,229.517,252.439
2013-08-31 01:00,-0.00314298,284.249,283.726,257.572,285.618,285.065,260.942,-0.0,-0.0,228.748,250.95
2013-08-31 02:00,-0.00134632,275.707,270.746,250.051,272.104,270.96,252.594,-0.0,-0.0,228.312,246.707
2013-08-31 03:00,-0.00124786,275.02,268.63,248.642,268.524,266.835,247.959,-0.0,-0.0,226.311,243.214
2013-08-31 04:00,-0.0,274.314,265.243,247.067,265.138,262.361,245.072,-0.0,-0.0,225.254,242.105
2013-08-31 05:00,0.00131125,284.087,284.755,258.358,287.815,286.907,262.255,-0.0,-0.0,229.007,252.731
2013-08-31 06:00,-0.0,280.982,280.909,255.974,283.088,282.175,259.614,-0.0,-0.0,229.093,250.849
2013-08-31 07:00,0.00188526,276.811,272.931,250.931,273.057,270.96,251.291,-0.0,-0.0,226.592,245.69
2013-08-31 08:00,-0.0,276.811,273.865,251.552,275.55,274.147,254.137,-0.0,-0.0,228.224,247.151
2013-08-31 09:00,-0.0,281.526,282.448,257.12,285.34,284.922,261.301,-0.0,-0.0,229.517,250.849
2013-08-31 10:00,0.962777,258.096,245.463,236.625,244.122,241.251,235.072,0.963397,1.20761,227.601,235.444
2013-08-31 11:00,0.212663,279.859,274.916,251.676,276.01,273.675,252.594,0.246207,0.289183,228.835,247.808
2013-08-31 12:00,0.343068,276.155,264.175,245.723,263.92,262.185,246.319,0.338196,0.435408,228.662,240.446
2013-08-31 13:00,0.414281,301.037,295.045,264.133,298.302,294.944,264.605,0.17386,0.31459,229.007,250.748
2013-08-31 14:00,0.293195,297.449,288.195,260.337,289.434,286.343,259.37,0.153556,0.245648,229.007,247.151
2013-08-31 15:00,0.242951,296.531,284.982,258.134,285.479,280.998,256.285,0.158688,0.23266,228.136,245.804
2013-08-31 16:00,0.253066,266.131,249.781,238.657,249.789,248.121,238.876,0.32257,0.395724,228.224,238.578
2013-08-31 17:00,0.315462,259.954,236.06,232.319,235.93,234.216,228.614,0.448481,0.525858,225.643,230.863
2013-08-31 18:00,0.381743,265.791,240.75,234.35,240.152,238.049,232.387,0.492046,0.576367,225.449,232.022
2013-08-31 19:00,0.574262,264.739,231.997,230.027,232.772,231.459,227.77,0.706724,0.817944,225.931,229.664
2013-08-31 20:00,0.750754,265.095,235.275,231.274,235.93,234.95,230.276,0.872895,1.0553,227.78,232.988
2013-08-31 21:00,1.81862,280.427,256.469,241.791,256.598,253.896,241.808,1.32267,1.84777,231.315,242.602
2013-08-31 22:00,-0.00866439,277.451,272.391,251.429,274.312,271.121,251.553,-0.0,-0.0,232.784,247.481
2013-08-31 23:00,-0.173369,282.234,278.721,255.16,280.785,275.706,253.881,-0.0733957,-0.149097,233.159,247.699
