# timestamp,IR_016,IR_039,IR_087,IR_097,IR_108,IR_120,IR_134,VIS006,VIS008,WV_062,WV_073
2016-07-01 00:00,-0.122986,288.43,286.217,256.892,288.358,286.343,261.062,-0.0337727,-0.0704704,230.916,250.442
2016-07-01 01:00,0.0,284.41,283.495,255.51,285.757,284.349,260.581,0.0,0.0,231.156,250.442
2016-07-01 02:00,-0.00394942,285.512,283.611,255.51,286.31,284.492,260.581,0.0,0.0,230.835,250.34
2016-07-01 03:00,0.0,288.012,285.77,256.434,287.951,285.777,260.822,0.0,0.0,230.835,250.032
2016-07-01 04:00,0.0,286.121,284.642,255.858,286.997,285.35,260.581,0.0,0.0,231.076,249.825
2016-07-01 05:00,0.0,287.155,285.095,255.858,287.679,285.635,260.701,0.0,0.0,230.593,249.928
2016-07-01 06:00,0.00252836,281.165,281.148,254.217,283.938,283.049,260.34,0.0,0.0,230.835,249.721
2016-07-01 07:00,-0.00376405,280.613,281.148,253.98,283.797,282.613,259.37,0.0,0.0,230.266,249.513
2016-07-01 08:00,-0.00919463,280.427,281.029,254.454,284.079,283.049,260.219,0.0,0.0,230.593,249.825
2016-07-01 09:00,0.573364,281.526,280.429,254.217,283.514,282.613,260.219,0.656036,0.641423,230.916,250.032
2016-07-01 10:00,0.173272,290.301,285.546,256.549,287.951,285.919,260.822,0.268966,0.220743,231.315,249.825
2016-07-01 11:00,0.346491,292.653,282.916,255.277,285.201,283.917,260.461,0.346714,0.318003,232.02,250.238
2016-07-01 12:00,0.0656176,291.19,285.994,257.12,288.222,285.777,260.701,0.121628,0.0913105,233.01,250.748
2016-07-01 13:00,0.284429,294.602,280.909,254.69,284.079,283.049,260.34,0.271701,0.27095,232.935,250.748
2016-07-01 14:00,0.115652,291.809,285.321,256.778,287.543,285.493,260.219,0.136432,0.11807,232.481,250.95
2016-07-01 15:00,0.192583,291.931,282.096,255.626,284.921,283.629,260.701,0.192327,0.1857,232.405,250.849
2016-07-01 16:00,0.21012,292.889,281.978,255.51,285.061,283.773,260.701,0.213701,0.203343,232.633,251.352
2016-07-01 17:00,0.321502,291.315,281.386,255.16,284.641,283.629,260.822,0.343081,0.342011,231.865,251.051
2016-07-01 18:00,0.195811,297.045,285.994,257.12,288.087,286.06,261.182,0.196638,0.180826,231.709,251.552
2016-07-01 19:00,0.406469,303.264,285.208,256.778,287.27,284.922,260.219,0.355362,0.345461,231.394,250.748
2016-07-01 20:00,0.518818,303.917,285.546,256.892,288.222,286.06,260.822,0.452939,0.466786,230.996,250.544
2016-07-01 21:00,1.64107,313.214,286.992,257.006,289.166,287.048,261.062,0.993104,1.12314,231.156,250.95
2016-07-01 22:00,0.144868,288.291,286.439,256.778,288.628,286.626,261.301,0.408865,0.48751,230.348,250.544
2016-07-01 23:00,-0.327311,287.729,285.882,256.32,288.222,285.919,261.062,-0.0904925,-0.175335,230.511,250.442
2016-07-02 00:00,-0.129583,288.291,286.105,256.32,288.087,285.777,260.461,-0.0365726,-0.0704426,230.348,249.825
2016-07-02 01:00,-0.00236525,288.152,285.994,256.32,288.358,286.06,260.34,0.0,0.0,230.266,249.928
2016-07-02 02:00,-0.00197289,287.01,284.869,255.16,287.27,284.922,259.856,0.0,0.0,230.184,249.825
2016-07-02 03:00,-0.00182656,288.012,286.105,255.626,287.951,285.493,260.219,0.0,0.0,230.755,250.032
2016-07-02 04:00,0.00184555,288.291,286.217,255.626,287.951,285.493,260.219,0.0,0.0,231.394,250.135
2016-07-02 05:00,0.0,288.568,285.77,255.626,287.679,285.208,260.098,0.0,0.0,231.473,249.928
2016-07-02 06:00,0.0,285.202,283.495,254.572,285.479,283.194,259.005,0.0,0.0,231.394,249.928
2016-07-02 07:00,-0.00374928,265.791,265.995,245.314,268.855,268.173,252.723,0.0,0.0,231.552,248.882
2016-07-02 08:00,-0.00910706,263.636,263.556,244.903,267.185,266.498,251.291,0.0,0.0,231.787,248.455
2016-07-02 09:00,0.472202,275.02,273.065,249.542,276.01,274.929,255.406,0.559738,0.540278,232.097,249.408
2016-07-02 10:00,0.629443,283.594,270.468,248.121,273.529,272.405,254.773,0.648654,0.685628,232.405,249.617
2016-07-02 11:00,0.208776,293.93,277.977,251.552,280.347,276.631,256.285,0.226102,0.208321,232.405,249.928
2016-07-02 12:00,0.0585896,291.19,285.994,255.393,287.951,285.35,260.34,0.111241,0.082451,232.328,250.646
2016-07-02 13:00,0.0262728,290.301,286.882,255.742,288.897,286.202,260.701,0.0704428,0.0471536,232.709,251.051
2016-07-02 14:00,0.0454984,291.19,286.772,255.626,289.3,286.907,261.062,0.0726442,0.05512,233.896,251.552
2016-07-02 15:00,0.0617347,291.19,286.55,255.742,289.166,286.907,261.54,0.083633,0.0685573,234.041,251.949
2016-07-02 16:00,0.0857861,291.931,286.328,255.51,288.763,286.485,261.062,0.100005,0.085351,233.677,252.146
2016-07-02 17:00,0.0783677,293.24,287.102,256.089,289.568,287.329,261.66,0.096719,0.0817987,233.677,252.537
2016-07-02 18:00,0.179052,297.045,286.661,255.858,289.166,286.907,261.421,0.178583,0.165445,234.472,252.634
2016-07-02 19:00,0.357136,294.933,283.956,254.454,286.585,284.779,260.822,0.361584,0.352919,235.038,253.405
2016-07-02 20:00,0.733368,301.74,284.071,254.69,286.722,285.065,261.182,0.593647,0.60749,235.247,253.213
2016-07-02 21:00,1.80033,312.729,287.651,256.434,290.101,288.027,262.017,1.11132,1.23877,236.475,253.69
2016-07-02 22:00,0.384355,289.514,287.651,256.549,290.101,288.027,262.017,0.528828,0.67905,237.463,254.256
2016-07-02 23:00,-0.273824,288.841,287.651,256.205,290.234,288.027,262.728,-0.0848219,-0.175305,237.913,254.536
2016-07-03 00:00,-0.139464,289.381,287.869,256.32,290.367,288.306,262.61,-0.0393614,-0.0771035,237.785,254.722
2016-07-03 01:00,0.0,289.381,287.869,256.32,290.367,288.306,262.136,0.0,0.0,237.268,254.814
2016-07-03 02:00,0.0,288.291,286.992,256.32,289.701,287.748,262.373,0.0,0.0,236.808,254.814
2016-07-03 03:00,-0.00182419,289.247,287.76,257.006,290.101,288.027,262.373,0.0,0.0,237.072,254.629
2016-07-03 04:00,0.0,286.121,285.208,255.974,287.951,286.06,261.421,0.0,0.0,238.041,254.999
2016-07-03 05:00,0.00203527,285.357,284.869,255.974,287.543,286.06,261.54,0.0,0.0,237.785,255.091
2016-07-03 06:00,0.00251525,288.705,287.432,257.346,290.234,287.888,262.136,0.0,0.0,237.528,255.091
2016-07-03 07:00,-0.00373396,289.113,287.978,257.572,290.632,288.584,262.017,0.0,0.0,237.657,255.457
2016-07-03 08:00,-0.00901809,288.705,287.76,257.572,290.367,288.445,262.373,0.0,-0.0091043,237.398,255.548
2016-07-03 09:00,0.239977,289.647,288.087,258.022,290.632,288.861,262.61,0.433468,0.355331,237.072,254.907
2016-07-03 11:00,0.423223,293.356,280.187,254.454,283.797,283.194,260.581,0.385115,0.395346,236.475,254.907
2016-07-03 12:00,0.0497684,290.685,287.76,258.246,290.367,288.445,262.965,0.112872,0.0897216,236.475,255.275
2016-07-03 13:00,0.108083,292.414,285.882,257.572,288.897,287.469,262.492,0.136034,0.116489,235.593,255.183
2016-07-03 14:00,0.0416139,291.809,287.869,258.691,290.764,288.722,262.728,0.0682666,0.0512017,234.472,254.349
2016-07-03 15:00,0.0246974,291.19,288.951,259.683,291.686,289.689,263.787,0.0533238,0.0361536,233.968,253.974
2016-07-03 16:00,0.0696211,292.294,288.412,259.354,291.423,289.826,263.67,0.0852642,0.0727969,234.257,254.162
2016-07-03 17:00,0.0491367,293.356,289.272,259.902,292.34,290.375,264.138,0.0719636,0.0589914,233.823,254.068
2016-07-03 18:00,0.139555,298.918,289.379,260.119,292.079,290.375,263.318,0.145132,0.133232,232.784,253.974
2016-07-03 19:00,0.40608,307.571,289.165,260.011,291.948,290.238,263.905,0.343828,0.341317,233.53,254.068
2016-07-03 20:00,1.07389,314.915,289.272,260.337,292.079,290.375,264.022,0.827426,0.861903,233.75,254.722
2016-07-03 21:00,1.52253,305.416,289.058,260.119,291.948,290.375,264.255,1.04662,1.16676,233.968,255.73
2016-07-03 22:00,0.431317,289.779,0.0,260.445,292.47,290.784,264.488,0.527504,0.628969,0.0,256.539
2016-07-03 23:00,-0.320386,289.514,289.058,260.337,291.686,290.101,263.905,-0.0904234,-0.18194,234.686,256.539
2016-07-04 00:00,-0.136028,288.152,287.869,259.244,290.367,288.861,263.553,-0.0365188,-0.0736884,235.038,256.539
2016-07-04 01:00,-0.00236079,279.667,281.029,255.858,284.501,284.349,262.255,0.0,0.0,235.247,256.716
2016-07-04 02:00,-0.0019684,280.427,282.096,256.549,285.201,284.779,262.255,0.0,0.0,235.247,256.716
2016-07-04 03:00,-0.00182158,280.982,282.214,256.892,285.201,284.922,262.017,0.0,0.0,234.968,256.45
2016-07-04 04:00,-0.00183946,281.883,282.096,256.892,285.34,284.922,262.492,0.0,0.0,234.472,256.36
2016-07-04 05:00,-0.00203096,281.705,282.214,256.892,285.201,284.636,262.255,0.0,0.0,234.041,255.821
2016-07-04 06:00,0.0,280.982,282.214,257.006,285.061,284.492,261.898,0.0,0.00253219,234.615,256.181
2016-07-04 07:00,-0.00371811,280.799,282.096,256.892,284.921,284.205,261.66,0.0,0.0,235.178,256.091
2016-07-04 08:00,0.0,282.408,283.148,257.346,286.033,285.208,261.66,0.0,0.0,234.968,256.36
2016-07-04 09:00,0.292902,288.568,286.661,259.244,289.166,287.329,262.728,0.440889,0.361414,235.178,256.181
2016-07-04 10:00,0.20867,291.065,286.661,259.574,289.166,287.609,262.847,0.275621,0.235944,235.662,256.628
2016-07-04 11:00,0.470353,290.041,283.495,257.459,286.447,285.35,262.373,0.536498,0.531437,236.207,256.805
2016-07-04 12:00,0.434185,294.491,283.841,257.798,286.997,286.202,262.61,0.438437,0.420371,236.609,257.246
2016-07-04 13:00,0.173925,294.38,285.433,258.58,288.087,286.626,263.083,0.178199,0.160832,236.274,257.158
2016-07-04 14:00,0.0351244,291.19,287.869,260.011,290.367,288.722,263.2,0.0616825,0.0420269,235.799,257.158
2016-07-04 15:00,0.028406,291.19,289.272,261.091,291.292,289.551,264.022,0.0533312,0.0374055,235.731,257.595
2016-07-04 16:00,0.0298366,291.686,289.272,261.305,291.686,289.826,264.372,0.0515778,0.0376522,234.756,257.158
2016-07-04 18:00,0.124348,298.436,289.593,261.731,291.948,290.101,263.905,0.133533,0.119413,233.896,256.894
2016-07-04 19:00,0.381369,304.636,288.195,261.198,290.897,289.137,263.905,0.337292,0.331647,233.382,256.716
2016-07-04 20:00,1.26386,319.797,289.593,261.838,291.948,290.238,264.138,0.936062,0.983371,233.456,256.271
2016-07-04 21:00,2.44068,316.964,289.486,261.838,292.209,290.238,264.255,1.53076,1.71872,233.382,256.45
2016-07-04 22:00,0.383427,289.91,289.379,261.519,292.209,290.511,264.255,0.527552,0.629025,233.159,256.36
2016-07-04 23:00,-0.240048,290.301,289.593,261.838,292.34,290.784,264.488,-0.0790409,-0.161562,233.308,256.36
2016-07-05 00:00,-0.155766,283.261,284.755,258.913,287.951,287.329,263.2,-0.0420916,-0.0803006,233.677,256.716
2016-07-05 01:00,-0.00235795,289.647,289.486,261.838,292.34,290.648,264.372,0.0,0.0,233.823,257.07
2016-07-05 02:00,-0.00196572,288.977,289.058,261.838,292.079,290.238,264.721,0.0,0.0,233.823,257.158
2016-07-05 03:00,0.0,290.041,289.593,262.049,292.47,290.648,264.488,0.0,0.0,233.234,256.716
2016-07-05 04:00,0.0,289.514,289.272,261.944,292.209,290.511,264.372,0.0,0.0,233.75,257.158
2016-07-05 05:00,0.0,289.381,289.165,261.838,291.948,290.375,264.721,0.0,0.0,234.113,257.246
2016-07-05 06:00,0.0,290.171,289.911,262.261,292.73,290.921,264.721,0.0,0.0,234.113,257.595
2016-07-05 07:00,0.0,290.813,290.123,262.471,292.989,291.057,265.185,0.0,0.0,234.041,257.769
2016-07-05 08:00,-0.00883681,290.041,290.229,262.471,293.119,291.464,264.372,0.0,0.0,233.968,257.855
2016-07-05 09:00,0.0828128,290.558,290.545,262.786,293.248,291.735,264.837,0.336564,0.200651,233.603,258.114
2016-07-05 10:00,0.171796,291.563,289.165,261.944,292.079,290.648,264.605,0.227059,0.186129,232.86,258.028
2016-07-05 11:00,0.0488373,291.686,289.911,262.261,292.47,290.921,264.837,0.117849,0.0788866,233.308,258.372
2016-07-05 12:00,0.131828,295.151,287.651,261.091,290.764,288.999,264.721,0.156869,0.134887,232.86,258.114
2016-07-05 13:00,0.0175502,291.19,290.44,262.576,293.248,291.464,265.301,0.0582006,0.0339595,232.935,257.769
2016-07-05 14:00,0.00780819,291.065,290.545,262.89,293.506,291.6,265.647,0.0396671,0.0197071,233.308,257.855
2016-07-05 15:00,0.00617605,291.065,290.545,263.099,293.506,291.871,265.532,0.034513,0.0174582,233.677,258.114
2016-07-05 16:00,0.0236198,291.931,290.545,262.89,293.119,291.735,265.762,0.0473656,0.0326308,233.896,258.286
2016-07-05 17:00,0.0199133,292.414,290.651,262.89,293.377,291.871,265.069,0.0427134,0.0268049,234.041,258.882
2016-07-05 18:00,0.147053,298.339,289.805,262.366,292.6,291.193,265.185,0.146331,0.134685,233.53,259.051
2016-07-05 19:00,0.432186,309.113,290.44,262.681,292.989,291.6,265.185,0.365931,0.371537,233.308,258.967
2016-07-05 20:00,1.33844,321.577,290.44,262.576,292.989,291.329,265.301,0.999263,1.08045,232.86,258.286
2016-07-05 21:00,2.45991,318.281,290.86,262.681,293.506,291.871,265.532,1.57273,1.8499,232.405,258.2
2016-07-05 22:00,0.384472,290.429,290.44,262.576,293.377,291.871,265.301,0.488298,0.582221,231.473,257.942
2016-07-05 23:00,-0.259681,289.113,289.165,261.412,291.817,290.375,264.837,-0.0789283,-0.174776,231.709,257.769
2016-07-06 00:00,-0.155563,289.381,289.593,261.519,292.209,290.648,265.069,-0.0420366,-0.0801956,232.175,257.595
2016-07-06 01:00,-0.00235471,290.041,290.017,261.625,292.6,291.057,265.069,0.0,0.0,232.405,257.421
2016-07-06 02:00,0.0,289.381,288.843,261.091,291.555,289.826,264.488,0.0,0.0,232.405,257.158
2016-07-06 03:00,0.0,290.429,290.44,262.049,293.119,291.329,265.069,0.0,0.0,232.633,257.158
2016-07-06 04:00,-0.00183248,290.301,290.545,261.838,293.119,291.6,265.069,0.0,0.0,232.935,257.333
2016-07-06 05:00,0.0,290.558,290.545,262.261,293.377,291.735,265.185,0.0,0.0,232.86,257.246
2016-07-06 06:00,0.0,289.381,289.486,261.519,292.209,290.511,264.255,0.0,-0.00251706,232.557,256.894
2016-07-06 07:00,0.0,288.012,287.322,260.553,290.234,288.584,264.138,0.0,0.0,232.86,256.982
2016-07-06 08:00,-0.00874492,288.705,287.651,260.119,290.367,288.722,264.022,0.0,0.0,233.085,257.158
2016-07-06 09:00,0.11809,290.429,289.805,261.625,292.47,290.648,264.488,0.342812,0.238439,233.308,257.508
2016-07-06 10:00,0.0546947,290.813,289.379,261.198,292.079,290.238,264.372,0.156741,0.114683,233.456,257.595
2016-07-06 11:00,0.555405,292.414,280.066,256.32,283.372,282.758,262.373,0.569699,0.607647,232.481,256.982
2016-07-06 12:00,0.108792,292.771,288.087,260.337,290.764,289.276,264.255,0.143456,0.126036,232.097,257.333
2016-07-06 13:00,0.0,0.0,0.0,0.0,0.0,0.0,0.0,0.0,0.0,0.0,0.0
2016-07-06 14:00,0.0442618,291.315,288.951,260.661,291.686,290.238,264.605,0.0694415,0.0538847,232.328,257.333
2016-07-06 15:00,0.0481794,291.563,289.272,260.337,291.948,290.101,264.372,0.0742649,0.0523815,233.159,256.982
2016-07-06 16:00,0.0770724,291.809,288.087,259.683,290.632,289.276,264.488,0.096833,0.0828291,233.159,256.894
2016-07-06 17:00,0.086277,291.931,287.76,259.683,290.367,288.861,263.787,0.0944038,0.0683414,233.456,256.36
2016-07-06 18:00,0.269781,293.816,284.185,257.685,287.134,286.06,262.492,0.296437,0.313673,234.329,256.36
2016-07-06 19:00,0.528268,295.26,281.742,256.205,284.781,284.205,262.492,0.482428,0.516176,234.897,256.628
2016-07-06 20:00,0.852682,298.726,283.264,256.892,285.757,285.065,262.255,0.733316,0.806693,232.784,256.271
2016-07-06 21:00,2.78089,314.915,289.486,260.769,291.817,290.101,264.022,1.67455,1.92064,234.401,256.716
2016-07-06 22:00,0.241598,290.301,289.379,260.119,292.209,290.101,263.905,0.490946,0.536597,234.615,256.894
2016-07-06 23:00,-0.272494,288.705,288.52,259.464,291.292,289.413,264.022,-0.0900373,-0.174453,234.185,256.894
2016-07-07 00:00,-0.152019,287.444,287.102,258.802,289.701,288.167,263.2,-0.041972,-0.0834088,234.185,256.982
2016-07-07 01:00,-0.00235108,288.012,286.992,259.024,289.968,288.167,264.022,0.0,0.0,233.75,256.805
2016-07-07 02:00,-0.00195953,290.041,289.486,260.337,291.948,290.101,264.372,0.0,0.0,232.86,256.894
2016-07-07 03:00,0.0,286.569,286.992,258.913,289.434,288.306,263.553,0.0,0.0,233.085,256.894
2016-07-07 04:00,0.0,289.647,289.165,260.119,291.948,289.826,264.255,0.0,0.0,232.175,256.539
2016-07-07 05:00,0.0,289.779,289.272,260.337,292.079,290.238,264.138,0.0,0.0,232.097,256.805
2016-07-07 06:00,0.0,282.059,282.448,256.434,285.618,285.065,262.255,0.0,0.00250906,233.01,257.421
2016-07-07 07:00,-0.00366774,281.705,283.148,256.778,285.618,285.208,262.61,0.0,0.0,232.935,257.942
2016-07-07 08:00,-0.00865245,278.075,279.702,255.277,282.803,282.613,261.66,0.0,0.0,232.097,256.628
2016-07-07 09:00,0.29233,290.429,288.951,260.553,291.555,289.826,264.488,0.436791,0.329845,232.481,257.158
2016-07-07 11:00,0.357937,291.44,283.032,257.233,285.895,285.208,262.728,0.357035,0.341559,232.481,257.246
2016-07-07 12:00,0.0946308,291.19,288.195,259.793,290.367,288.722,263.905,0.134547,0.0991406,231.236,256.982
2016-07-07 13:00,0.0893299,290.939,287.651,259.574,290.101,288.445,263.905,0.123993,0.106446,230.348,256.36
2016-07-07 14:00,0.309938,287.3,281.505,256.205,284.501,283.629,262.373,0.383712,0.414133,230.184,256.271
2016-07-07 15:00,0.0728958,289.779,284.982,257.91,287.679,285.919,262.61,0.100427,0.089808,230.835,256.001
2016-07-07 16:00,0.062153,290.685,284.528,257.572,286.86,284.922,260.942,0.0736748,0.0614922,229.769,254.256
2016-07-07 17:00,0.0437955,291.44,286.55,258.469,288.358,285.919,261.182,0.060679,0.0468938,229.517,254.349
2016-07-07 18:00,0.100008,293.93,287.212,259.464,289.3,287.188,262.847,0.118034,0.105553,229.348,253.974
2016-07-07 19:00,0.314989,298.822,282.799,256.664,284.501,282.613,259.249,0.306626,0.302767,229.178,252.439
2016-07-07 20:00,1.27874,313.692,281.267,255.974,281.655,279.061,256.285,0.980565,1.0934,227.147,248.241
2016-07-07 21:00,2.38462,309.856,288.736,260.228,291.292,289.413,263.67,1.57699,1.78909,230.511,254.349
2016-07-07 22:00,0.194864,290.558,289.272,260.553,291.686,289.276,263.905,0.37123,0.393454,230.101,253.974
2016-07-07 23:00,-0.338188,290.558,289.165,260.228,291.686,289.413,263.67,-0.0954478,-0.180752,230.593,253.595
2016-07-08 00:00,-0.125359,289.514,287.322,259.354,289.434,286.767,261.54,-0.0363115,-0.0799311,229.433,252.439
2016-07-08 01:00,-0.0046941,290.041,288.628,260.119,291.16,288.861,262.965,0.0,0.0,229.685,253.117
2016-07-08 02:00,-0.00195602,288.152,285.994,258.246,288.493,286.202,261.779,0.0,0.0,228.662,251.949
2016-07-08 03:00,0.0,288.705,287.541,259.244,290.101,287.748,262.373,0.0,0.0,229.093,252.244
2016-07-08 04:00,0.0,284.888,280.187,254.454,281.366,278.76,256.785,0.0,0.0,227.238,247.699
2016-07-08 05:00,0.0,288.977,286.328,258.358,288.628,286.06,261.062,0.0,0.0,228.575,251.452
2016-07-08 06:00,0.0,290.429,288.951,260.011,291.423,289.276,263.2,0.0,0.0,229.007,252.439
2016-07-08 07:00,0.0,290.171,288.951,259.793,291.555,289.276,263.436,0.0,0.0,230.018,252.634
2016-07-08 08:00,0.0,289.113,288.087,259.683,290.897,288.722,262.847,0.0,0.0,230.348,253.021
2016-07-08 09:00,0.105247,290.429,288.951,260.011,291.817,289.689,263.318,0.356449,0.230215,230.266,253.117
2016-07-08 10:00,0.0339414,290.558,289.486,260.445,292.34,290.238,263.2,0.136506,0.0728149,230.43,253.117
2016-07-08 11:00,0.0122829,290.813,289.699,260.337,292.34,290.375,264.138,0.0790393,0.042161,230.755,253.213
2016-07-08 12:00,0.00893751,290.939,289.593,260.337,292.34,290.375,263.787,0.060539,0.030678,230.674,253.309
2016-07-08 13:00,0.0351687,291.809,289.379,260.011,292.209,290.101,264.022,0.066999,0.0429018,230.348,253.5
2016-07-08 14:00,0.0755563,290.685,287.978,259.134,290.897,288.999,263.67,0.10699,0.0920603,229.601,253.309
2016-07-08 15:00,0.0605479,290.429,288.087,259.683,291.029,289.551,263.67,0.0931155,0.0810865,229.517,252.925
2016-07-08 16:00,0.0223744,291.686,289.699,260.445,292.6,290.648,264.022,0.0463084,0.0313726,229.517,252.731
2016-07-08 17:00,0.0398085,292.174,289.165,259.793,291.686,289.826,263.787,0.0629175,0.0482269,228.748,252.731
2016-07-08 18:00,0.101502,296.323,289.379,259.902,291.948,289.826,263.67,0.111596,0.0963546,228.662,252.731
2016-07-08 19:00,0.445037,309.181,289.486,260.119,291.817,289.551,263.083,0.376812,0.376948,229.007,252.342
2016-07-08 20:00,1.54127,323.271,290.017,260.228,292.6,290.511,264.255,1.11208,1.19609,229.007,252.731
2016-07-08 21:00,1.5267,307.355,289.699,260.337,292.47,290.511,264.372,1.02477,1.1509,229.348,252.634
2016-07-08 22:00,1.87175,289.113,282.096,255.742,283.088,279.661,255.784,0.875814,1.641,227.055,248.669
2016-07-08 23:00,-0.297599,287.871,284.414,257.006,286.585,283.917,259.005,-0.0839923,-0.166914,226.963,249.408
2016-07-09 00:00,-0.118525,290.685,290.123,259.902,292.86,291.329,264.255,-0.0362392,-0.0797719,228.575,252.439
2016-07-09 01:00,-0.00234263,290.558,289.911,259.902,293.119,291.193,264.255,0.0,0.0,228.921,252.342
2016-07-09 02:00,-0.00195224,290.558,290.017,260.119,293.119,291.057,263.553,0.0,0.0,229.517,252.047
2016-07-09 03:00,0.0,289.647,289.379,259.683,292.6,290.784,263.67,0.0,0.0,229.433,251.949
2016-07-09 04:00,-0.0018204,285.202,283.032,256.32,284.501,279.361,255.153,0.0,0.0,229.433,248.562
2016-07-09 05:00,0.0,289.779,288.843,259.244,291.817,289.551,262.728,0.0,0.0,229.852,251.252
2016-07-09 06:00,0.0,290.041,289.165,259.574,292.209,290.101,263.2,0.0,0.0,230.43,251.552
2016-07-09 07:00,0.0,289.514,288.736,259.574,291.817,289.826,263.2,0.0,0.0,230.511,251.751
2016-07-09 08:00,0.0,290.041,288.951,259.574,291.817,289.826,263.083,0.0,0.0,230.018,251.552
2016-07-09 09:00,0.55512,289.381,288.195,259.244,291.16,289.551,262.847,0.591315,0.578505,230.593,251.652
2016-07-09 10:00,0.0681745,290.939,289.272,259.574,291.948,289.964,263.553,0.169562,0.103239,231.236,251.85
2016-07-09 11:00,0.0541546,291.809,288.195,259.464,291.16,289.276,263.318,0.1188,0.0795233,231.394,251.751
2016-07-09 12:00,0.0411589,291.44,289.165,260.011,291.948,289.826,263.553,0.092426,0.0596186,231.315,252.047
2016-07-09 13:00,0.0161293,291.315,289.379,260.011,291.948,289.964,263.318,0.055868,0.0325669,231.787,251.652
2016-07-09 14:00,0.0169406,291.19,289.165,259.793,291.686,289.551,263.318,0.047444,0.0289427,231.709,251.85
2016-07-09 15:00,0.0865072,290.558,287.76,259.244,290.5,288.584,263.436,0.120332,0.106049,231.236,251.85
2016-07-09 16:00,0.0372895,290.939,288.412,259.574,291.029,288.999,263.083,0.0631459,0.0489398,231.473,251.949
2016-07-09 17:00,0.0291892,292.534,289.165,259.793,291.817,289.689,263.67,0.052799,0.037505,231.236,251.751
2016-07-09 18:00,0.106028,296.943,289.165,259.683,291.555,289.413,262.492,0.116706,0.102454,231.076,251.452
2016-07-09 19:00,0.424223,308.491,288.951,259.683,291.817,289.551,263.553,0.359189,0.35214,231.315,251.85
2016-07-09 21:00,2.75876,319.944,289.486,259.683,292.209,290.238,263.553,1.66785,1.88212,231.943,252.244
2016-07-09 22:00,0.149856,290.171,288.843,259.574,291.817,289.964,263.553,0.338355,0.353007,231.943,252.439
2016-07-09 23:00,-0.243933,290.558,289.272,259.683,292.209,290.375,263.436,-0.0781493,-0.166395,232.02,252.731
2016-07-10 00:00,-0.151112,290.041,289.165,259.683,291.817,289.964,263.083,-0.0417217,-0.0862278,232.328,252.828
2016-07-10 01:00,-0.00233783,289.779,288.951,259.464,291.686,289.689,263.436,0.0,0.0,232.175,253.117
2016-07-10 02:00,0.0,290.429,289.272,259.683,291.948,289.964,262.965,0.0,0.0,232.935,253.213
2016-07-10 03:00,0.0,290.558,289.486,259.902,292.209,290.375,263.318,0.0,0.0,233.159,253.405
2016-07-10 04:00,0.00181598,290.171,289.165,259.683,292.079,290.375,263.905,0.0,0.0,233.382,253.117
2016-07-10 05:00,-0.00200021,289.779,289.165,259.902,292.079,289.964,263.553,0.0,0.0,233.159,252.925
2016-07-10 06:00,0.0,289.113,288.195,259.244,291.16,289.276,262.61,0.0,0.0,233.382,252.828
2016-07-10 07:00,-0.00361374,289.647,288.951,259.902,291.817,289.826,263.2,0.0,0.0,233.308,252.828
2016-07-10 08:00,-0.00837336,289.91,288.951,259.683,291.686,289.826,263.083,0.0,0.0,233.75,252.731
2016-07-10 09:00,0.292723,289.91,288.951,260.119,291.948,289.689,263.318,0.464715,0.369401,233.75,253.117
2016-07-10 10:00,0.0770308,291.19,289.272,260.011,292.079,290.238,263.67,0.177548,0.116651,233.823,253.117
2016-07-10 11:00,0.0863312,292.294,288.951,259.793,291.948,289.826,263.318,0.142016,0.102098,234.041,253.213
2016-07-10 12:00,0.0322475,291.686,289.486,260.228,292.47,290.511,264.022,0.0773611,0.047025,234.041,253.595
2016-07-10 13:00,0.0792297,292.174,288.843,259.464,291.948,289.964,263.905,0.109322,0.0903558,234.472,253.974
2016-07-10 14:00,0.127747,291.809,287.322,259.134,290.5,289.137,263.083,0.143481,0.13818,234.401,253.974
2016-07-10 15:00,0.107528,290.939,287.651,259.024,290.5,288.999,263.436,0.139182,0.132264,234.897,254.162
2016-07-10 16:00,0.0186443,291.809,290.229,260.769,293.248,291.464,264.605,0.0410438,0.0263515,234.827,254.349
2016-07-10 17:00,0.057045,293.007,289.911,260.553,292.989,291.329,264.488,0.075258,0.0616082,234.543,254.443
2016-07-10 18:00,0.149931,294.602,288.303,259.574,291.555,290.101,264.138,0.170544,0.168182,234.827,254.256
2016-07-10 19:00,0.382701,306.549,289.805,260.228,292.86,291.193,264.488,0.33361,0.331165,234.968,254.068
2016-07-10 20:00,1.34837,321.2,289.911,260.445,292.6,290.648,264.138,1.01229,1.06627,235.108,253.213
2016-07-10 21:00,2.7611,315.256,288.52,260.011,291.292,289.137,262.965,1.79275,1.99542,235.038,252.828
2016-07-10 22:00,0.457353,289.647,288.52,259.793,291.029,288.999,263.083,0.559347,0.718239,235.867,252.537
2016-07-10 23:00,-0.341616,285.818,285.433,257.91,287.951,286.485,262.017,-0.094561,-0.179073,236.341,253.595
2016-07-11 00:00,-0.15402,289.113,288.087,259.574,290.764,288.861,263.553,-0.0443944,-0.0827087,237.072,254.536
2016-07-11 01:00,-0.00233265,285.818,285.433,257.798,288.087,286.343,262.492,0.0,0.0,238.104,255.091
2016-07-11 02:00,0.0,287.3,286.328,258.246,289.032,287.329,262.492,0.0,0.0,238.104,255.366
2016-07-11 03:00,-0.00179691,279.859,280.789,255.16,283.514,283.049,261.301,0.0,0.0,238.104,255.548
2016-07-11 04:00,0.00362271,289.91,288.843,259.574,291.029,288.861,262.965,0.0,0.0,238.357,255.639
2016-07-11 05:00,0.0,289.514,288.843,259.793,291.686,289.551,263.787,0.0,0.0,238.919,256.091
2016-07-11 06:00,-0.00245105,282.923,283.38,256.892,286.31,285.208,262.373,0.0,0.0,238.857,256.45
2016-07-11 07:00,0.0,277.451,278.721,254.099,281.51,281.293,260.822,0.0,0.0,239.349,256.628
2016-07-11 08:00,0.0,278.482,279.702,254.572,282.66,282.028,261.301,0.0,0.0,240.312,256.982
2016-07-11 09:00,0.280602,287.729,285.546,257.685,287.951,286.202,262.492,0.459332,0.339942,240.371,257.07
2016-07-11 10:00,0.266501,289.113,284.414,257.233,286.86,285.493,262.255,0.312993,0.282067,240.074,257.595
2016-07-11 11:00,0.316374,289.647,282.214,255.858,284.921,284.349,261.66,0.339027,0.321894,240.489,258.028
2016-07-11 12:00,0.295933,290.429,282.096,256.089,284.921,284.349,262.136,0.296124,0.286087,241.419,258.967
2016-07-11 13:00,0.00293626,290.558,289.486,260.228,291.817,289.964,263.787,0.0435072,0.0192681,241.647,259.135
2016-07-11 14:00,-0.00260789,290.813,290.017,260.337,292.47,290.238,264.022,0.0309134,0.0118477,241.704,259.887
2016-07-11 15:00,0.245983,287.587,282.448,256.32,285.479,284.922,262.373,0.276303,0.292012,241.476,260.135
2016-07-11 16:00,0.0546886,291.315,287.541,258.913,289.568,287.888,263.318,0.0694572,0.051447,241.304,259.887
2016-07-11 17:00,0.0145914,292.053,289.486,260.228,291.817,289.413,263.787,0.0370636,0.022766,241.189,259.804
2016-07-11 18:00,0.089342,296.114,289.165,260.011,291.555,289.276,264.255,0.100006,0.0840811,241.419,260.217
2016-07-11 19:00,0.409072,308.211,289.486,260.228,291.423,289.276,263.436,0.347956,0.342566,242.042,260.627
2016-07-11 20:00,0.509423,300.225,287.541,259.024,289.701,288.027,263.318,0.454029,0.443916,241.986,260.789
2016-07-11 21:00,0.493417,296.323,288.843,259.902,290.5,288.445,263.67,0.503035,0.498134,242.099,260.952
2016-07-11 22:00,0.311218,290.171,288.52,260.011,290.632,288.445,263.2,0.483097,0.57602,241.59,260.708
2016-07-11 23:00,-0.314095,290.429,289.272,260.337,291.16,289.137,263.67,-0.0831074,-0.171761,242.042,260.545
2016-07-12 00:00,-0.166682,287.871,287.322,259.134,289.835,288.306,263.905,-0.044276,-0.0857876,242.266,260.952
2016-07-12 01:00,0.0,290.558,289.911,260.769,292.34,290.238,264.721,0.0,0.0,242.155,261.113
2016-07-12 02:00,0.0,290.171,290.017,260.876,292.47,290.511,264.372,0.0,0.0,242.322,261.595
2016-07-12 03:00,0.0,290.685,290.545,260.984,293.377,292.006,264.721,0.0,0.0,242.489,262.072
2016-07-12 04:00,-0.00180655,290.429,290.44,260.876,292.989,291.6,265.185,0.0,0.0,242.655,262.545
2016-07-12 05:00,0.0,284.888,284.528,257.685,287.407,286.485,263.318,0.0,0.0,242.655,262.466
2016-07-12 06:00,0.0,280.613,282.096,256.32,284.501,284.636,262.728,0.0,0.0,242.6,262.466
2016-07-12 07:00,0.0,289.514,289.165,260.337,291.423,289.689,264.255,0.0,0.0,241.93,262.151
2016-07-12 08:00,-0.0081875,288.43,288.087,259.683,290.234,288.999,264.488,0.0,0.0,241.704,261.435
2016-07-12 09:00,0.191437,290.558,290.123,260.984,292.34,290.921,264.721,0.421433,0.309228,241.533,261.755
2016-07-12 10:00,0.319506,290.685,288.303,260.011,290.632,289.551,264.605,0.4131,0.387945,241.647,261.914
2016-07-12 11:00,0.0173374,290.939,291.174,261.625,293.764,292.141,265.416,0.0880773,0.0475085,241.361,261.914
2016-07-12 12:00,0.166985,293.007,288.843,260.876,291.292,290.238,264.953,0.197636,0.183083,240.841,261.595
2016-07-12 13:00,0.155717,293.702,285.095,258.802,288.087,287.329,263.553,0.165429,0.177969,240.724,261.194
2016-07-12 14:00,0.0873914,291.19,288.951,260.876,291.292,289.826,264.255,0.111543,0.0987614,240.607,261.355
2016-07-12 15:00,0.0185435,291.563,290.335,261.625,292.86,291.193,265.185,0.0418686,0.026209,240.782,261.275
2016-07-12 16:00,0.0435016,292.414,289.805,261.412,292.47,291.057,264.837,0.0589324,0.046427,240.782,261.033
2016-07-12 17:00,0.0397914,293.472,290.86,262.155,293.635,292.41,265.762,0.0583983,0.0428499,241.131,261.675
2016-07-12 18:00,0.118103,297.549,290.335,261.944,292.989,291.464,265.185,0.124356,0.113117,241.304,261.755
2016-07-12 19:00,0.427924,309.044,290.651,261.944,293.248,291.6,265.301,0.363919,0.367308,241.59,261.993
2016-07-12 20:00,1.11839,313.335,288.52,260.445,290.764,289.276,265.069,0.903793,0.934132,241.986,262.545
2016-07-12 21:00,1.46209,302.848,287.102,259.683,289.3,288.167,264.255,1.04159,1.25212,242.544,263.934
2016-07-12 22:00,0.1594,290.429,290.44,261.198,292.34,290.921,264.721,0.494867,0.590054,243.202,264.765
2016-07-12 23:00,-0.241061,290.041,290.229,260.876,292.47,290.784,265.185,-0.0772293,-0.164436,242.875,264.389
2016-07-13 00:00,-0.123836,289.91,290.123,260.661,292.6,290.921,264.372,-0.0386295,-0.0822497,243.472,264.086
2016-07-13 01:00,-0.00464238,290.429,290.545,261.198,292.989,291.329,265.185,0.0,0.0,243.579,263.09
2016-07-13 02:00,-0.00193455,290.558,290.651,261.198,293.119,291.193,264.605,0.0,0.0,243.418,262.151
2016-07-13 03:00,0.00178795,289.91,289.699,260.661,292.079,290.238,264.372,0.0,0.0,243.31,261.275
2016-07-13 04:00,0.00180157,290.041,289.805,260.553,292.6,290.511,264.372,0.0,0.0,243.579,260.708
2016-07-13 06:00,0.0,290.171,289.058,260.445,291.423,289.276,263.553,0.0,0.0,243.31,259.387
2016-07-13 07:00,-0.00355692,275.932,271.437,251.305,272.899,269.984,254.137,0.0,0.0,242.929,255.639
2016-07-13 08:00,-0.00809505,268.073,264.482,247.2,266.508,265.138,252.335,0.0,0.0,242.82,254.536
2016-07-13 09:00,0.823526,271.798,262.458,246.265,264.618,263.586,251.422,0.730482,0.851193,242.322,253.69
2016-07-13 10:00,0.667932,288.705,264.482,247.465,266.338,265.138,251.944,0.613277,0.683074,242.433,253.974
2016-07-13 11:00,0.513753,292.653,276.208,253.741,278.725,276.323,258.023,0.54847,0.548732,242.544,257.421
2016-07-13 12:00,0.267832,293.124,281.505,256.434,284.079,282.321,260.942,0.28613,0.272207,242.266,258.372
2016-07-13 13:00,0.418928,289.514,280.187,255.742,282.946,282.467,260.822,0.45925,0.465968,242.266,258.372
2016-07-13 14:00,0.360109,290.041,281.386,256.205,284.361,283.484,261.779,0.367873,0.389896,242.71,259.304
2016-07-13 15:00,0.205237,287.155,282.214,256.434,285.061,283.917,262.255,0.227162,0.224673,242.82,259.135
2016-07-13 16:00,0.243606,287.01,280.909,256.205,283.656,283.194,262.373,0.260983,0.257228,242.655,259.135
2016-07-13 17:00,0.343509,289.113,281.029,255.742,283.797,283.339,262.136,0.37844,0.393657,242.765,258.798
2016-07-13 18:00,0.466327,289.113,280.308,255.51,282.946,282.758,261.421,0.556363,0.574725,242.6,259.051
2016-07-13 19:00,0.580655,290.429,280.066,255.16,282.66,282.467,261.54,0.71192,0.749887,242.984,259.387
2016-07-13 20:00,1.03031,295.476,280.909,255.742,283.656,283.484,261.66,0.995041,1.08892,242.765,259.387
2016-07-13 21:00,1.48971,293.124,280.909,255.858,283.797,283.194,262.136,1.18437,1.3816,242.875,259.387
2016-07-13 22:00,0.546378,280.613,281.148,256.089,283.938,283.629,262.136,0.647664,0.717081,242.82,259.304
2016-07-13 23:00,-0.272334,282.234,281.624,256.664,284.781,284.061,261.779,-0.0878418,-0.176745,243.039,259.22
2016-07-14 00:00,-0.136445,284.249,283.38,257.233,286.033,284.922,262.61,-0.0412601,-0.0852737,243.202,259.554
2016-07-14 01:00,0.0,279.081,280.549,255.858,283.938,283.484,262.373,0.0,-0.00233705,243.418,259.554
2016-07-14 02:00,-0.00192951,279.859,281.505,256.089,284.361,284.061,262.255,0.0,0.0,243.526,260.135
2016-07-14 03:00,0.0,278.883,280.909,255.858,283.797,283.773,262.017,0.0,0.0,243.793,260.217
2016-07-14 04:00,0.0,279.859,280.669,255.742,283.797,283.484,261.898,0.0,0.0,243.793,259.887
2016-07-14 05:00,-0.00197568,284.249,283.841,257.459,286.172,284.922,262.255,0.0,0.00199457,244.006,259.471
2016-07-14 06:00,0.0,290.041,288.736,259.793,290.5,288.584,263.2,0.0,0.0,243.953,259.887
2016-07-14 07:00,0.0,289.779,288.52,259.793,290.5,288.445,263.318,0.0,0.0,243.953,260.299
2016-07-14 08:00,0.00800309,289.514,288.412,259.354,290.367,288.445,263.2,0.0,0.0,243.953,259.638
2016-07-14 09:00,0.180908,290.171,288.52,259.024,290.367,288.445,263.436,0.425486,0.324689,243.899,259.304
2016-07-14 10:00,0.0653564,290.813,288.52,259.244,290.234,288.861,262.965,0.188146,0.127564,244.164,259.387
2016-07-14 11:00,0.335752,293.472,282.331,256.205,284.921,284.636,262.255,0.330608,0.321385,244.058,259.471
2016-07-14 12:00,0.318515,295.042,282.448,256.089,285.34,284.636,262.61,0.300159,0.287042,244.322,260.052
2016-07-14 13:00,0.097073,293.007,286.992,258.358,288.897,287.609,262.728,0.120797,0.100971,244.79,260.545
2016-07-14 14:00,0.030018,291.19,288.195,258.802,289.701,288.306,263.905,0.0685133,0.0461163,244.479,260.217
2016-07-14 15:00,0.064298,292.889,287.651,258.358,289.3,288.027,263.083,0.0848023,0.066161,244.583,260.135
2016-07-14 16:00,0.114345,293.702,285.994,257.798,288.087,287.188,262.847,0.118915,0.10791,244.635,260.299
2016-07-14 17:00,0.0795733,293.93,288.087,258.802,289.835,288.722,263.083,0.0976932,0.0830118,244.322,259.887
2016-07-14 18:00,0.158972,297.045,287.651,258.469,289.3,288.306,263.436,0.165367,0.152849,244.217,259.22
2016-07-14 19:00,0.39218,306.771,288.087,258.691,289.701,288.306,263.318,0.34004,0.333113,244.111,259.051
2016-07-14 20:00,0.926164,300.858,282.566,255.974,285.479,285.065,262.136,0.738722,0.799508,244.217,259.051
2016-07-14 21:00,1.70501,313.094,288.087,259.134,289.835,288.445,263.318,1.05809,1.21054,244.426,258.882
2016-07-14 22:00,0.225684,289.514,287.76,258.358,289.568,288.445,263.318,0.477715,0.626563,244.635,258.967
2016-07-14 23:00,-0.29673,289.247,287.76,258.358,289.835,288.722,263.2,-0.087388,-0.175832,244.687,258.798
2016-07-15 00:00,-0.171608,289.381,287.978,258.913,290.101,288.861,263.67,-0.0466058,-0.0882588,244.687,258.882
2016-07-15 01:00,0.0,289.113,287.869,258.58,289.701,288.445,263.318,0.0,0.0,244.79,258.798
2016-07-15 02:00,-0.00192423,289.113,287.432,257.91,289.032,287.188,262.61,0.0,0.0,244.79,258.713
2016-07-15 03:00,-0.00177823,276.594,276.208,253.02,278.725,276.323,257.777,0.0,0.0,244.997,256.982
2016-07-15 04:00,-0.00179109,284.57,284.3,256.664,286.722,285.777,262.728,0.0,0.0,245.048,259.304
2016-07-15 05:00,-0.00196912,288.977,287.541,258.358,289.434,287.329,262.255,0.0,0.0,244.945,258.967
2016-07-15 06:00,0.00241331,287.155,285.77,257.572,287.679,285.493,262.017,0.0,0.00243638,245.202,258.713
2016-07-15 07:00,0.0,288.43,286.882,258.358,288.763,286.343,261.66,0.0,0.0,245.253,258.882
2016-07-15 08:00,-0.00791173,287.01,285.994,257.798,287.951,286.202,262.492,0.0,0.0,245.507,258.967
2016-07-15 09:00,0.515638,285.512,283.495,256.778,286.447,285.35,262.492,0.611226,0.624681,245.709,259.721
2016-07-15 10:00,0.599686,286.271,281.86,256.089,284.641,284.636,262.492,0.652296,0.671705,245.91,260.217
2016-07-15 11:00,0.256699,293.356,287.322,258.802,289.568,288.167,263.553,0.289092,0.259153,246.009,260.463
2016-07-15 12:00,0.20357,292.771,286.328,258.802,288.493,287.748,263.436,0.25778,0.214609,246.159,261.113
2016-07-15 13:00,0.0161884,291.065,290.229,260.553,292.47,290.921,264.488,0.0598111,0.0341721,246.406,261.914
2016-07-15 14:00,0.171022,293.124,286.328,258.358,289.032,288.167,263.787,0.14812,0.159477,246.652,262.935
2016-07-15 15:00,0.0296792,292.174,290.229,260.661,292.73,291.193,265.185,0.0492116,0.0324598,246.554,263.167
2016-07-15 16:00,0.0136718,291.686,290.651,260.984,292.989,291.6,265.185,0.0378846,0.0213311,246.701,263.322
2016-07-15 17:00,0.128639,292.414,288.412,259.464,290.632,289.413,264.372,0.177414,0.171374,246.652,263.09
2016-07-15 18:00,0.124151,296.943,290.229,260.445,292.6,291.193,265.185,0.130757,0.116167,246.993,263.782
2016-07-15 19:00,0.371509,307.786,290.545,260.337,292.6,290.921,264.721,0.320943,0.316041,246.701,263.858
2016-07-15 20:00,0.856921,308.561,289.165,259.793,291.292,290.238,264.488,0.695986,0.70782,246.554,263.706
2016-07-15 21:00,1.06476,302.256,289.379,260.011,291.423,290.238,265.069,0.832846,0.844598,245.96,263.476
2016-07-15 22:00,0.234126,288.568,288.52,259.464,290.897,289.413,264.605,0.545143,0.590909,245.709,262.779
2016-07-15 23:00,-0.275834,290.558,289.911,260.445,292.079,290.238,264.255,-0.0869018,-0.174854,245.809,262.701
2016-07-16 00:00,-0.132283,289.647,289.379,259.354,291.292,289.413,264.372,-0.0409771,-0.0879462,245.809,262.779
2016-07-16 01:00,-0.00230134,290.171,289.593,259.902,291.817,289.964,264.022,0.0,-0.00232334,245.608,262.857
2016-07-16 02:00,0.0,283.924,285.095,257.12,287.543,286.626,263.436,0.0,0.0,245.809,262.545
2016-07-16 04:00,0.0,290.558,290.123,259.902,292.6,290.648,264.255,0.0,0.0,245.91,263.012
2016-07-16 05:00,0.0,290.558,290.229,260.119,292.47,290.648,264.837,0.0,0.0,246.059,262.857
2016-07-16 06:00,0.0,290.558,290.123,259.902,292.47,290.921,264.721,0.0,0.0,246.258,263.09
2016-07-16 07:00,0.0,289.647,289.272,259.354,291.817,290.238,264.255,0.0,0.0,246.456,263.476
2016-07-16 08:00,0.00782108,289.113,288.843,259.024,291.292,289.689,264.022,0.0,0.0,246.847,263.706
2016-07-16 09:00,0.317761,289.647,288.736,259.024,291.029,289.551,264.605,0.520159,0.427732,247.09,264.389
2016-07-16 10:00,0.145125,292.053,290.44,259.793,292.6,291.193,264.837,0.23086,0.168711,245.96,264.01
2016-07-16 11:00,0.0399586,291.563,290.756,260.011,293.119,291.6,265.301,0.105728,0.0655534,245.658,263.782
2016-07-16 12:00,0.0468903,292.771,290.229,260.011,292.73,291.193,265.532,0.0962008,0.0728285,245.304,263.782
2016-07-16 13:00,0.0515387,292.534,290.335,260.228,292.73,291.464,265.416,0.0822884,0.0624377,244.894,264.238
2016-07-16 14:00,0.070518,292.771,289.699,259.902,292.209,291.193,264.721,0.0906669,0.0777839,244.479,263.167
2016-07-16 15:00,0.0123677,291.686,290.965,260.337,293.635,292.276,265.762,0.0418868,0.0262204,244.269,262.545
2016-07-16 16:00,0.0285868,292.534,290.651,260.228,293.377,292.141,265.878,0.0494611,0.0363887,243.953,262.309
2016-07-16 17:00,0.0490681,293.587,290.44,260.228,293.119,291.735,264.837,0.0662488,0.0562313,243.418,261.595
2016-07-16 18:00,0.10296,297.649,290.44,260.445,293.119,291.6,264.953,0.110252,0.0993581,242.984,261.033
2016-07-16 19:00,0.333876,306.4,290.229,260.445,292.86,291.464,264.721,0.290678,0.287555,242.266,259.638
2016-07-16 20:00,0.967802,314.338,289.486,260.228,291.817,290.101,264.022,0.746597,0.776215,241.874,259.471
2016-07-16 21:00,2.11438,313.692,289.165,260.337,291.686,289.551,263.787,1.34268,1.50858,241.704,258.798
2016-07-16 22:00,0.549295,289.247,288.303,259.464,290.632,289.137,263.553,0.568439,0.677778,241.647,258.967
2016-07-16 23:00,-0.306074,289.779,288.628,259.574,290.764,288.861,263.083,-0.0809851,-0.160937,241.476,258.628
2016-07-17 00:00,-0.176787,288.705,287.651,259.134,289.835,288.027,262.965,-0.0462663,-0.090861,241.476,258.713
2016-07-17 01:00,0.0,289.381,287.76,259.024,289.835,288.027,262.965,0.0,0.0,241.476,258.543
2016-07-17 02:00,0.0,288.43,287.541,258.913,289.434,287.888,263.318,-0.00161973,0.0,241.533,258.286
2016-07-17 03:00,0.0,290.171,288.843,259.354,290.764,288.999,263.787,0.0,0.0,241.476,258.286
2016-07-17 04:00,-0.00177999,289.647,288.412,259.464,290.5,288.861,263.553,0.0,-0.001797,241.533,258.713
2016-07-17 05:00,0.0,288.43,287.651,258.691,289.701,288.167,263.67,0.0,0.0,242.378,259.135
2016-07-17 06:00,0.0,286.421,286.328,257.685,288.628,287.609,262.965,0.0,0.0,242.6,259.22
2016-07-17 07:00,0.00347808,288.977,287.869,258.58,289.968,288.445,263.787,0.0,0.0,243.039,259.051
2016-07-17 08:00,-0.00773123,289.247,287.978,258.691,289.701,288.584,263.905,0.0,0.0,243.147,259.135
2016-07-17 09:00,0.631602,285.045,284.071,256.778,286.722,285.919,262.965,0.719183,0.681616,243.364,259.304
2016-07-17 10:00,0.583238,287.871,282.682,255.858,285.479,285.065,262.373,0.609801,0.620038,242.929,259.304
2016-07-17 11:00,0.0900941,292.053,288.52,258.802,290.5,288.861,263.436,0.156803,0.111168,244.058,259.471
2016-07-17 12:00,0.240122,293.816,284.869,257.572,287.543,286.626,262.61,0.246114,0.220546,243.472,259.387
2016-07-17 13:00,0.137025,293.587,287.978,258.802,289.835,288.722,263.436,0.159682,0.14131,243.364,259.721
2016-07-17 14:00,0.0914381,291.931,285.433,257.572,286.997,285.208,262.136,0.109495,0.0962684,243.039,258.798
2016-07-17 15:00,0.0494762,292.771,288.52,259.244,290.367,288.445,263.2,0.0754045,0.0574415,242.544,259.22
2016-07-17 16:00,0.0472313,292.889,288.843,259.793,290.897,289.137,263.318,0.0705099,0.0552117,242.875,259.471
2016-07-17 17:00,0.0848753,294.713,288.736,259.574,290.5,288.999,263.67,0.0976898,0.0830089,242.378,258.967
2016-07-17 18:00,0.196852,296.943,287.651,259.464,289.835,288.167,263.436,0.194881,0.188033,243.039,259.135
2016-07-17 19:00,0.313227,302.764,288.628,259.902,290.5,288.584,263.905,0.285978,0.272408,242.82,259.554
2016-07-17 20:00,0.77224,307.427,286.661,259.134,289.032,287.329,263.083,0.606012,0.641083,242.655,259.554
2016-07-17 21:00,0.866398,296.531,286.55,258.802,288.763,287.188,263.083,0.668851,0.71518,242.378,258.882
2016-07-17 22:00,0.960126,286.569,285.546,258.134,287.815,286.626,262.61,0.65035,0.904685,242.378,258.372
2016-07-17 23:00,-0.29146,289.113,287.978,259.024,290.101,288.306,263.2,-0.0804713,-0.159916,241.986,258.2
2016-07-18 00:00,-0.153675,288.291,287.432,258.246,289.3,287.888,263.083,-0.0406614,-0.0872686,241.93,258.114
2016-07-18 01:00,0.0,286.569,286.105,257.685,288.222,287.329,262.492,0.0,0.0,241.986,257.942
2016-07-18 02:00,0.0,289.247,288.195,258.913,290.367,288.861,263.67,0.0,0.0,242.042,258.114
2016-07-18 03:00,0.0,288.977,287.978,258.58,290.101,288.999,263.318,0.0,0.0,241.874,257.682
2016-07-18 04:00,-0.00177421,286.717,286.439,258.246,288.763,287.888,263.436,0.0,0.0,241.533,257.855
2016-07-18 05:00,0.00194853,286.271,286.439,257.798,288.493,287.469,262.847,0.0,0.0,240.899,257.855
2016-07-18 06:00,0.0,281.883,282.916,256.664,286.033,285.635,262.492,0.0,0.0,240.899,257.682
2016-07-18 07:00,0.0,287.444,286.992,258.022,289.3,288.445,263.318,0.0,0.0,240.899,257.769
2016-07-18 08:00,-0.00764226,284.249,285.095,257.346,287.543,286.907,262.847,0.0,0.0,241.131,257.508
2016-07-18 09:00,0.29139,290.301,288.628,259.134,290.897,289.551,264.138,0.493439,0.429949,240.841,257.421
2016-07-18 10:00,0.115426,291.315,288.843,259.244,291.029,289.826,263.905,0.229293,0.174795,241.015,257.682
2016-07-18 11:00,0.0626957,291.686,289.165,259.354,291.686,290.511,264.372,0.144389,0.103804,241.015,257.682
2016-07-18 12:00,0.0415698,291.809,289.593,259.683,292.079,290.921,264.488,0.101,0.0711617,241.189,258.2
2016-07-18 13:00,0.0339072,291.809,289.593,260.011,292.34,291.193,264.488,0.0786382,0.0550678,241.189,258.114
2016-07-18 14:00,0.0339722,292.174,289.593,259.793,292.079,291.329,264.837,0.0696979,0.0514455,241.073,258.628
2016-07-18 15:00,0.0321631,292.174,290.017,259.683,292.47,291.193,265.185,0.0617968,0.0449593,240.899,258.628
2016-07-18 16:00,0.0534477,293.24,289.593,259.683,292.079,290.784,264.605,0.0736694,0.0589781,240.841,258.372
2016-07-18 17:00,0.0702896,295.151,289.699,259.902,292.209,291.193,264.953,0.0875868,0.0763171,240.43,258.2
2016-07-18 18:00,0.145386,298.726,289.593,259.793,291.948,290.784,264.837,0.148744,0.137603,240.548,258.2
2016-07-18 19:00,0.341663,304.398,289.379,259.574,291.817,290.511,264.255,0.302072,0.297287,240.312,258.457
2016-07-18 20:00,0.657206,300.042,286.55,258.469,289.434,288.584,263.553,0.586102,0.611823,240.312,258.372
2016-07-18 21:00,0.991684,301.74,289.058,259.574,291.423,290.101,263.905,0.701157,0.794739,240.074,257.942
2016-07-18 22:00,0.135141,286.864,286.882,258.802,289.568,288.584,263.436,0.572119,0.613949,240.014,257.855
2016-07-18 23:00,-0.25174,285.045,285.546,258.58,288.763,287.888,262.728,-0.0799303,-0.171549,239.593,257.246
2016-07-19 00:00,-0.130717,288.977,288.52,259.902,291.16,289.276,263.083,-0.0404918,-0.0869046,239.954,257.158
2016-07-19 01:00,0.0,287.729,287.102,259.134,289.434,288.027,262.492,0.0,0.0,239.532,256.805
2016-07-19 02:00,0.0019009,283.924,284.185,257.346,286.997,286.06,262.61,0.0,0.0,240.014,256.45
2016-07-19 03:00,-0.00175667,285.512,284.185,257.233,286.31,284.349,261.062,0.0,0.0,239.894,256.001
2016-07-19 04:00,0.0,279.473,276.463,252.777,277.828,275.706,256.535,0.0,0.0,239.043,254.162
2016-07-19 05:00,0.0,283.924,280.909,254.808,282.946,280.108,258.147,0.0,0.0,238.857,254.629
2016-07-19 06:00,0.00237292,283.76,281.978,256.205,283.797,281.441,259.37,0.0,0.0,239.288,254.907
2016-07-19 07:00,-0.0068756,283.261,283.841,256.892,286.585,286.06,262.136,0.0,0.0,239.104,255.183
2016-07-19 08:00,-0.00755427,289.514,288.303,259.244,290.632,288.999,263.083,0.0,0.0,239.104,255.821
2016-07-19 09:00,0.508052,285.818,285.095,257.572,287.407,286.485,262.373,0.625697,0.582851,238.546,255.457
2016-07-19 10:00,0.392545,290.558,285.546,257.91,287.951,286.907,262.965,0.419236,0.382787,238.795,254.999
2016-07-19 11:00,0.110574,292.414,287.869,259.134,290.101,288.584,262.373,0.178735,0.142076,238.857,254.814
2016-07-19 12:00,0.141127,292.771,287.651,258.802,289.835,288.027,262.492,0.193025,0.160742,240.074,255.366
2016-07-19 13:00,0.051627,292.053,288.087,259.134,290.5,288.722,262.847,0.0974164,0.0714796,240.014,255.457
2016-07-19 14:00,0.0562004,292.294,288.087,259.024,290.234,288.999,263.318,0.0885298,0.0725714,239.653,255.457
2016-07-19 15:00,0.0494875,292.889,288.195,259.683,290.5,288.861,263.2,0.0764692,0.0599526,239.288,255.457
2016-07-19 16:00,0.0857687,293.587,287.432,259.354,289.968,288.306,262.965,0.102089,0.0903533,238.981,255.275
2016-07-19 17:00,0.167113,296.635,285.994,258.134,288.628,287.469,262.61,0.167322,0.153982,239.288,254.999
2016-07-19 18:00,0.275675,300.589,284.869,258.246,287.951,286.767,262.61,0.243674,0.249256,239.227,255.183
2016-07-19 19:00,0.360705,304.872,288.195,259.574,290.367,288.722,262.965,0.313403,0.306956,239.043,255.183
2016-07-19 20:00,0.792784,310.972,288.087,259.354,290.367,288.722,263.2,0.60732,0.637023,238.733,254.814
2016-07-19 21:00,1.69245,310.32,284.642,257.233,286.722,283.917,260.581,1.11166,1.34619,238.357,254.536
2016-07-19 22:00,0.287491,289.113,287.541,259.354,289.968,288.306,262.373,0.547691,0.653039,238.608,254.443
2016-07-19 23:00,-0.274949,287.444,285.994,258.134,288.493,286.626,261.66,-0.0793632,-0.157714,238.671,254.162
2016-07-20 00:00,-0.126971,289.647,287.76,258.913,290.101,288.306,262.61,-0.0376271,-0.0833199,238.733,253.88
2016-07-20 01:00,-0.00227027,290.041,288.412,259.244,290.897,289.137,262.965,0.0,0.0,238.795,253.974
2016-07-20 02:00,-0.00189455,288.841,287.651,259.024,290.101,288.445,262.728,0.0,0.0,238.919,254.256
2016-07-20 03:00,-0.00175088,289.647,288.195,259.464,290.764,289.137,262.965,0.0,0.0,239.043,254.536
2016-07-20 04:00,0.0,289.779,288.303,259.574,290.897,289.137,263.083,0.0,0.0,239.043,254.536
2016-07-20 05:00,0.00193415,289.381,288.303,259.464,290.632,289.276,263.2,0.0,0.0,239.227,254.629
2016-07-20 06:00,0.0,284.888,285.208,258.469,288.358,287.188,262.492,0.0,0.0,239.104,254.536
2016-07-20 07:00,0.00341753,282.059,283.148,257.459,286.033,285.208,261.898,0.0,0.0,239.227,254.722
2016-07-20 08:00,0.0,286.717,285.321,258.022,287.543,285.777,261.66,0.0,0.0,240.014,254.536
2016-07-20 09:00,0.285832,289.113,287.322,259.464,289.835,288.167,262.492,0.524363,0.4088,239.894,255.183
2016-07-20 10:00,0.327204,291.44,284.528,258.134,287.27,285.493,261.54,0.352945,0.325807,239.954,255.183
2016-07-20 11:00,0.115841,293.124,287.541,259.464,289.968,288.167,263.083,0.179106,0.137287,240.371,256.181
2016-07-20 12:00,0.237273,296.531,284.071,258.134,287.134,286.202,262.61,0.233104,0.224913,240.074,256.45
2016-07-20 13:00,0.109215,293.124,287.978,260.119,290.367,288.999,263.67,0.136209,0.114729,239.834,256.45
2016-07-20 14:00,0.0352983,291.686,289.058,260.553,291.423,289.551,264.138,0.0719502,0.0514738,240.371,256.894
2016-07-20 15:00,0.044544,292.174,288.951,260.228,291.423,289.964,263.905,0.0691448,0.0524648,240.253,257.421
2016-07-20 16:00,0.0795581,292.174,288.087,260.119,290.764,289.413,263.787,0.097885,0.0878485,240.312,257.855
2016-07-20 17:00,0.0676463,293.007,289.272,260.769,291.817,290.648,264.488,0.0920909,0.0776666,239.894,257.942
2016-07-20 18:00,0.125747,297.649,289.486,260.661,291.948,290.375,264.488,0.133408,0.120831,240.074,258.798
2016-07-20 19:00,0.381681,302.511,286.772,259.244,289.434,288.167,263.905,0.339167,0.349086,239.894,258.543
2016-07-20 20:00,1.02329,314.915,289.593,260.769,292.209,290.648,264.022,0.779548,0.812284,240.074,259.22
2016-07-20 21:00,1.94045,311.357,289.593,260.984,292.079,290.648,264.837,1.25947,1.41339,240.193,259.22
2016-07-20 22:00,0.308522,285.202,286.328,259.244,288.763,288.027,264.138,0.653063,0.700811,240.312,259.471
2016-07-20 23:00,-0.341123,284.41,285.321,258.246,288.222,287.048,263.787,-0.0892741,-0.169061,240.548,259.804
2016-07-21 00:00,-0.180106,288.291,288.52,260.011,291.16,289.689,264.255,-0.0454811,-0.0893188,240.724,260.135
2016-07-21 01:00,-0.00226174,290.041,290.017,260.661,292.209,290.375,264.138,0.0,0.0,241.361,260.381
2016-07-21 02:00,0.0,287.871,287.76,260.011,290.101,288.445,263.787,0.0,0.0,241.817,260.627
2016-07-21 03:00,0.0,288.43,287.651,259.683,289.835,288.306,263.436,0.0,0.0,242.378,261.275
2016-07-21 04:00,0.0,288.705,287.978,259.793,289.701,288.167,263.318,0.0,0.0,242.433,261.113
2016-07-21 05:00,0.0,283.594,283.611,257.798,285.618,284.779,262.373,0.0,0.0,242.655,261.194
2016-07-21 06:00,0.0,279.859,279.336,255.626,282.517,281.735,261.779,0.0,0.0,242.655,261.194
2016-07-21 07:00,0.0,282.408,280.789,256.434,283.797,282.175,261.182,0.0,0.0,243.039,261.435
2016-07-21 08:00,0.0,284.41,283.726,257.798,286.31,284.636,262.017,0.0,0.0,243.579,261.755
2016-07-21 09:00,0.664129,279.081,278.35,255.043,281.366,280.998,260.701,0.728929,0.79464,243.793,261.834
2016-07-21 10:00,0.324287,291.19,284.755,258.469,286.722,285.208,262.728,0.33559,0.291011,243.633,261.993
2016-07-21 11:00,0.381049,290.813,281.386,256.434,284.079,283.194,262.017,0.401689,0.443287,243.472,261.675
2016-07-21 12:00,0.375323,289.381,278.35,254.572,281.076,280.702,261.66,0.376123,0.404538,242.929,261.435
2016-07-21 13:00,0.0605443,291.809,288.195,260.337,290.101,288.306,263.553,0.092523,0.0715587,242.82,261.194
2016-07-21 14:00,0.317771,286.569,277.476,254.69,280.347,280.108,260.701,0.280128,0.306286,242.984,261.113
2016-07-21 15:00,0.27101,289.514,276.591,254.217,279.76,279.661,260.701,0.244132,0.257359,243.093,260.952
2016-07-21 16:00,0.200152,291.686,277.852,254.926,280.785,280.406,261.182,0.183152,0.181985,243.256,261.435
2016-07-21 17:00,0.0477555,293.356,289.486,260.769,291.292,289.276,264.022,0.0673908,0.048212,243.74,262.23
2016-07-21 18:00,0.10911,296.635,289.805,261.305,291.686,289.551,264.022,0.120611,0.100973,244.217,262.545
2016-07-21 19:00,0.332755,305.95,290.017,261.305,292.079,290.101,264.488,0.292949,0.282492,244.217,263.012
2016-07-21 20:00,1.1464,317.603,290.123,261.305,291.948,289.826,264.488,0.863057,0.898044,244.739,263.167
2016-07-21 21:00,1.83952,306.101,286.882,259.574,289.032,287.329,263.67,1.27751,1.46586,244.374,263.09
2016-07-21 22:00,0.334623,289.514,288.951,261.091,291.292,289.413,264.255,0.637481,0.760099,244.687,263.244
2016-07-21 23:00,-0.233843,289.647,289.379,260.661,291.423,289.689,264.022,-0.067735,-0.155315,244.997,263.629
2016-07-22 00:00,-0.122643,290.558,290.335,261.198,292.73,290.921,264.953,-0.0372764,-0.0825435,244.842,263.629
2016-07-22 01:00,-0.00450586,289.113,289.379,260.769,291.948,290.648,264.837,0.0,-0.00227447,244.687,263.399
2016-07-22 02:00,-0.00188127,290.301,290.335,261.198,292.73,291.329,265.301,0.0,0.0,244.687,263.476
2016-07-22 03:00,0.0,290.685,290.44,261.198,292.73,290.784,264.721,0.0,0.0,244.479,263.244
2016-07-22 04:00,-0.0017498,288.43,289.058,260.445,291.423,289.826,264.837,0.0,0.0,244.635,263.167
2016-07-22 05:00,-0.00191931,287.729,287.541,259.354,289.568,287.888,263.787,0.0,0.0,244.583,263.012
2016-07-22 06:00,0.00234137,287.587,287.212,259.464,289.568,287.748,263.436,0.0,0.0,244.945,262.857
2016-07-22 07:00,0.0,289.91,289.486,260.337,291.817,290.101,264.138,0.0,0.0,244.739,262.857
2016-07-22 08:00,0.0,290.041,289.805,260.445,291.948,290.101,264.488,0.0,0.0,245.253,262.857
2016-07-22 09:00,0.483215,289.381,288.736,260.119,291.029,289.551,264.255,0.646007,0.641888,245.507,262.857
2016-07-22 10:00,0.0362077,290.939,289.699,260.553,292.079,290.101,264.372,0.149453,0.0913845,245.709,262.857
2016-07-22 11:00,0.0151724,290.939,290.017,260.769,292.079,289.964,264.138,0.089925,0.0485052,245.658,262.857
2016-07-22 12:00,0.0127054,291.065,289.911,260.553,291.948,289.964,264.138,0.0660826,0.0348157,245.355,262.857
2016-07-22 13:00,0.00738746,290.813,289.911,260.769,291.948,289.964,264.255,0.0500396,0.0238659,245.099,262.701
2016-07-22 14:00,0.0562463,292.771,288.628,260.553,290.764,288.999,264.255,0.0730967,0.056784,244.842,262.857
2016-07-22 15:00,0.0136141,291.563,290.017,260.876,291.817,289.826,264.488,0.0387728,0.0212411,244.583,262.545
2016-07-22 16:00,0.099463,292.053,283.841,257.798,286.447,285.35,262.847,0.101058,0.10669,244.635,262.545
2016-07-22 17:00,0.214928,289.247,280.789,255.974,283.372,283.049,262.373,0.208939,0.215644,244.479,262.623
2016-07-22 18:00,0.0924684,296.635,290.017,260.984,292.079,290.375,264.721,0.103963,0.0857005,244.426,262.779
2016-07-22 19:00,0.327306,306.025,290.335,261.091,292.34,290.375,264.721,0.288343,0.276954,244.479,262.701
2016-07-22 20:00,1.21045,318.23,289.911,260.661,292.079,289.964,264.488,0.910243,0.948635,244.635,262.857
2016-07-22 21:00,2.34541,310.648,289.379,260.337,291.686,289.826,264.837,1.50257,1.65015,244.479,262.545
2016-07-22 22:00,0.275752,289.779,289.058,260.445,291.292,289.413,264.372,0.700436,0.835163,244.739,262.623
2016-07-22 23:00,-0.231935,288.705,288.52,259.902,290.897,289.137,264.138,-0.0723502,-0.16021,244.531,262.701
2016-07-23 00:00,-0.140809,288.152,288.52,259.574,291.029,289.551,264.488,-0.0423903,-0.0884521,244.531,262.857
2016-07-23 01:00,0.0,287.587,287.541,259.134,289.835,288.306,264.255,0.0,0.0,244.479,262.857
2016-07-23 02:00,-0.00187436,280.05,280.549,255.626,283.372,282.758,261.779,0.0,0.0,244.374,262.545
2016-07-23 03:00,-0.00173265,281.165,283.264,256.778,284.921,284.349,263.083,0.0,0.0,244.739,262.545
2016-07-23 04:00,0.0017434,290.685,290.44,260.984,292.73,290.784,264.721,0.0,0.00176007,244.894,263.012
2016-07-23 05:00,0.0,290.685,290.44,260.661,292.86,291.193,264.953,0.0,0.0,244.635,263.012
2016-07-23 06:00,0.00233068,290.558,290.965,261.412,293.635,292.141,265.416,0.0,0.0,244.006,263.167
2016-07-23 07:00,-0.00335647,289.514,290.123,260.553,292.86,291.464,264.953,0.0,0.0,244.058,263.167
2016-07-23 08:00,0.0,289.381,289.593,260.553,292.209,290.921,265.301,0.0,0.0,243.472,263.09
2016-07-23 09:00,0.526604,290.301,290.335,261.198,293.119,291.735,265.993,0.624224,0.55822,243.256,263.167
2016-07-23 10:00,0.0363851,0.0,291.383,261.519,294.277,292.948,266.452,0.150185,0.0918324,242.984,263.322
2016-07-23 11:00,0.0177377,291.44,291.279,261.305,294.021,292.679,266.337,0.0901107,0.0511635,242.489,262.935
2016-07-23 12:00,0.0581421,293.124,290.335,261.198,293.248,291.735,266.108,0.0984576,0.071538,242.433,262.779
2016-07-23 13:00,0.0221743,291.686,290.756,261.091,293.506,292.141,266.108,0.0600798,0.0388029,242.378,262.388
2016-07-23 14:00,0.0444858,292.653,290.229,260.769,292.989,291.6,266.108,0.0686851,0.0501947,242.322,262.388
2016-07-23 15:00,0.0445613,291.931,289.699,261.091,292.73,291.464,265.416,0.0628834,0.0512356,242.433,261.914
2016-07-23 16:00,0.0397892,292.534,290.123,260.876,292.73,291.193,265.762,0.0589566,0.0451908,242.489,261.515
2016-07-23 17:00,0.0597121,293.702,289.593,260.984,292.34,291.057,265.069,0.0775224,0.0629621,242.875,261.113
2016-07-23 18:00,0.109181,296.635,289.805,260.553,292.34,290.921,264.837,0.12069,0.107163,242.655,260.871
2016-07-23 19:00,0.331341,303.015,288.951,260.337,291.423,290.238,265.069,0.29818,0.296279,242.489,260.789
2016-07-23 20:00,0.767631,308.976,288.951,260.011,291.292,289.826,264.721,0.613205,0.643525,242.71,260.708
2016-07-23 21:00,1.9599,311.293,288.843,260.119,291.292,289.964,264.255,1.22251,1.41556,243.256,260.627
2016-07-23 22:00,1.33448,290.429,289.379,260.228,291.555,290.238,264.721,0.782239,1.13997,243.202,260.545
2016-07-23 23:00,-0.308637,289.647,288.736,259.464,290.897,289.137,263.905,-0.0768595,-0.158848,243.579,260.463
2016-07-24 00:00,-0.168101,290.041,288.843,259.464,291.16,289.689,264.138,-0.0421722,-0.0879969,243.418,260.627
2016-07-24 01:00,-0.00223451,285.818,284.755,257.459,286.86,286.06,262.965,0.0,0.0,243.633,260.627
2016-07-24 02:00,-0.00186728,284.249,284.071,256.778,286.033,285.35,262.965,0.0,0.0,243.633,260.381
2016-07-24 03:00,0.0,278.684,279.823,255.277,282.66,282.467,261.779,0.0,0.0,243.793,260.545
2016-07-24 04:00,0.0,289.91,288.628,259.024,290.632,289.137,263.787,0.0,0.0,243.846,260.463
2016-07-24 05:00,0.0019041,289.113,287.978,259.244,290.234,288.584,263.905,0.0,0.0,243.74,260.299
2016-07-24 06:00,0.0,288.841,287.432,258.691,289.835,288.584,263.436,0.0,0.00234209,243.899,259.721
2016-07-24 07:00,0.0,289.91,288.412,259.244,290.5,289.276,263.905,0.0,0.0,243.899,259.97
2016-07-24 08:00,0.0,288.291,287.869,258.913,289.835,288.722,264.255,0.0,0.0,244.006,260.545
2016-07-24 09:00,0.300272,289.779,288.195,259.134,290.367,288.999,263.787,0.577817,0.468492,244.058,260.299
2016-07-24 10:00,0.118834,291.315,288.52,259.464,290.897,289.413,264.022,0.236061,0.184569,244.058,260.381
2016-07-24 11:00,0.195516,292.174,288.303,259.024,290.234,289.276,264.721,0.25154,0.215329,243.74,261.194
2016-07-24 12:00,0.0909405,293.587,287.432,258.802,289.968,288.306,263.553,0.141679,0.119353,243.899,260.871
2016-07-24 13:00,0.202633,299.108,284.185,257.685,287.27,286.06,263.553,0.185345,0.179186,243.899,261.113
2016-07-24 14:00,0.0994656,0.0,288.412,259.574,290.5,289.551,264.837,0.115245,0.100416,244.479,261.515
2016-07-24 15:00,0.0507577,292.771,289.486,259.793,291.686,290.375,264.721,0.0786154,0.0599917,244.687,262.151
2016-07-24 16:00,0.0596909,293.24,289.272,260.119,291.817,290.648,265.416,0.078969,0.0652833,244.322,262.23
2016-07-24 17:00,0.0676867,294.156,289.805,260.119,292.079,290.921,264.953,0.0854035,0.0723534,244.531,262.623
2016-07-24 18:00,0.183559,296.531,288.628,259.683,291.029,290.101,264.837,0.18753,0.182251,244.635,261.993
2016-07-24 19:00,0.324039,304.078,289.486,260.228,291.423,290.238,264.605,0.288804,0.27931,244.531,261.675
2016-07-24 20:00,0.855983,312.79,289.272,259.902,291.029,289.826,264.721,0.639629,0.658412,244.479,261.435
2016-07-24 21:00,1.0947,301.826,288.303,259.354,290.234,289.137,264.372,0.762794,0.872501,244.635,261.194
2016-07-24 22:00,0.351271,289.91,288.843,259.464,290.5,289.551,264.255,0.793122,0.945678,244.635,260.871
2016-07-24 23:00,-0.227936,290.041,288.628,259.574,290.5,289.276,264.488,-0.0660239,-0.151391,244.269,260.463
2016-07-25 00:00,-0.126952,287.444,286.772,258.58,288.897,287.609,263.318,-0.036704,-0.081276,244.426,259.887
2016-07-25 01:00,0.0,289.381,288.087,259.134,289.835,288.306,263.083,0.0,-0.00224618,244.058,259.804
2016-07-25 02:00,0.0,288.977,287.651,258.691,289.568,288.027,263.2,0.0,0.0,244.374,259.887
2016-07-25 03:00,-0.00171986,289.514,287.869,258.802,289.568,288.027,263.436,0.0,0.0017363,244.426,259.554
2016-07-25 04:00,-0.00173031,288.977,287.978,259.244,289.701,287.888,263.083,0.0,0.0,244.79,259.638
2016-07-25 05:00,0.0,288.977,288.087,259.244,289.835,288.306,263.553,0.0,0.0,244.583,259.804
2016-07-25 06:00,0.0,289.381,288.303,259.683,290.101,288.584,263.2,0.0,0.0,244.426,259.554
2016-07-25 07:00,0.0,289.779,288.412,259.683,290.367,288.861,263.553,0.0,0.0,244.374,259.721
2016-07-25 08:00,0.0,289.247,287.869,259.354,289.835,288.306,263.553,0.0,0.0,243.899,259.887
2016-07-25 09:00,0.708542,282.753,283.726,257.346,286.585,286.202,262.847,0.887883,0.858378,243.899,260.135
2016-07-25 11:00,0.587751,292.889,282.448,256.664,285.618,285.635,262.136,0.577358,0.585664,244.217,260.463
2016-07-25 12:00,0.296769,297.349,284.414,257.459,287.134,286.485,263.436,0.300603,0.281225,244.111,260.627
2016-07-25 13:00,0.180542,295.368,286.328,258.58,288.493,287.748,263.318,0.200478,0.174798,244.322,260.871
2016-07-25 14:00,0.299786,297.848,282.916,257.459,286.033,285.635,263.083,0.272672,0.269612,244.635,260.871
2016-07-25 15:00,0.0396217,292.414,289.058,259.902,290.764,289.413,263.787,0.0765306,0.0600008,244.531,260.627
2016-07-25 16:00,0.0696488,293.24,288.843,259.793,290.632,289.413,263.905,0.0926696,0.0753371,244.583,260.627
2016-07-25 17:00,0.0796493,293.93,288.628,259.902,290.5,289.137,264.022,0.103406,0.0897919,244.945,260.545
2016-07-25 18:00,0.127487,296.531,289.058,259.902,290.764,289.276,263.905,0.141354,0.128705,244.635,260.627
2016-07-25 19:00,0.335717,303.674,288.736,259.902,290.632,289.276,263.436,0.300311,0.291056,244.322,260.135
2016-07-25 20:00,0.879443,313.033,288.628,259.574,290.367,289.137,263.553,0.65702,0.673446,244.531,260.217
2016-07-25 21:00,1.11092,300.134,285.882,258.358,288.087,286.767,262.61,0.797959,0.930184,244.058,259.721
2016-07-25 22:00,0.274894,289.113,287.76,259.134,289.568,288.167,262.492,0.814632,0.971325,243.418,259.051
2016-07-25 23:00,-0.225853,289.113,287.541,258.802,289.434,287.748,262.847,-0.070453,-0.150008,240.724,257.508
2016-07-26 00:00,-0.123174,282.059,281.742,255.858,284.501,283.917,261.54,-0.0391092,-0.0870459,241.419,257.682
2016-07-26 01:00,-0.00221508,284.73,283.726,257.006,286.033,285.208,262.136,0.0,-0.00223625,241.419,256.982
2016-07-26 02:00,0.0,279.278,279.702,255.043,282.517,282.321,260.942,0.0,0.0,242.82,257.942
2016-07-26 03:00,0.00171329,278.279,278.845,254.336,281.655,281.146,260.581,0.0,0.0,243.147,257.769
2016-07-26 04:00,0.0,283.428,282.331,255.858,284.921,283.773,260.942,0.0,0.0,242.765,257.595
2016-07-26 05:00,0.0,288.977,287.102,258.134,288.897,287.048,262.017,0.0,0.0,241.419,256.805
2016-07-26 06:00,0.0,276.376,278.35,253.98,281.655,281.441,260.098,0.0,0.0,242.82,257.07
2016-07-26 07:00,0.0,290.041,288.52,259.024,290.5,288.584,263.67,0.0,0.0,243.202,258.798
2016-07-26 08:00,0.0,275.932,278.101,253.501,281.366,280.998,260.219,0.0,0.0,243.202,258.2
2016-07-26 09:00,0.589435,284.57,282.331,255.858,284.501,283.484,260.461,0.773564,0.743837,244.739,258.2
2016-07-26 10:00,0.48928,286.271,278.845,254.454,282.231,280.85,259.977,0.492438,0.517258,243.31,256.271
2016-07-26 11:00,0.0560906,290.685,287.76,258.691,289.434,287.048,261.898,0.138158,0.095236,242.6,255.548
2016-07-26 12:00,0.0364502,291.44,287.76,259.134,289.701,287.188,261.898,0.09413,0.0643976,243.364,256.36
2016-07-26 13:00,0.0577444,291.809,285.321,257.798,287.27,284.349,260.219,0.101545,0.0702546,242.875,254.814
2016-07-26 14:00,0.0327367,291.19,286.661,259.244,288.493,285.35,260.581,0.0654146,0.0462694,240.43,252.925
2016-07-26 15:00,0.162227,295.26,279.213,255.16,281.655,278.609,257.53,0.146794,0.130022,240.014,252.146
2016-07-26 16:00,0.031098,291.563,285.994,259.024,287.815,283.917,259.614,0.0579274,0.0414418,240.253,251.85
2016-07-26 17:00,0.103571,294.823,279.58,255.626,280.639,276.938,256.41,0.111303,0.10188,240.43,250.95
2016-07-26 18:00,0.147291,294.38,279.58,255.393,278.576,275.706,255.406,0.155567,0.142567,240.312,249.513
2016-07-26 19:00,0.467058,299.672,267.764,249.158,269.515,265.65,250.369,0.456544,0.488774,240.43,249.721
2016-07-26 20:00,0.58662,303.264,283.264,257.572,285.201,280.85,258.023,0.485139,0.515101,240.074,251.751
2016-07-26 21:00,1.99589,307.427,286.439,259.574,289.032,285.35,261.062,1.29993,1.39498,240.014,251.949
2016-07-26 22:00,4.0357,287.729,281.742,256.434,282.946,278.458,256.035,1.56613,3.22547,239.349,249.928
2016-07-26 23:00,-0.312031,283.428,274.655,252.412,275.857,270.473,251.814,-0.0797573,-0.166422,239.894,249.303
2016-07-27 00:00,-0.168402,276.811,264.175,246.667,265.826,261.121,246.182,-0.0440719,-0.0927337,239.714,247.151
2016-07-27 01:00,-0.00220502,283.428,275.823,253.14,276.468,271.926,252.594,0.0,0.0,240.371,249.721
2016-07-27 02:00,-0.00184511,286.421,281.029,255.742,282.231,278.156,256.16,0.0,0.0,240.253,251.252
2016-07-27 03:00,-0.00170661,289.514,286.772,258.58,288.358,285.208,260.581,0.0,0.0,240.665,253.021
2016-07-27 04:00,-0.00171686,289.647,287.322,259.354,289.166,286.485,260.942,0.0,0.0,240.899,253.117
2016-07-27 05:00,-0.00188069,289.381,286.992,259.024,288.763,286.202,261.301,0.0,0.0,240.607,253.021
2016-07-27 06:00,0.0,289.381,287.212,258.58,289.166,286.485,261.54,0.0,0.0,241.304,253.69
2016-07-27 07:00,0.0,289.779,287.432,259.024,289.568,286.907,261.66,0.0,0.0,241.704,254.443
2016-07-27 08:00,0.0,288.705,287.212,258.358,289.166,286.767,261.898,0.0,0.0,241.704,254.256
2016-07-27 09:00,0.184187,290.041,287.432,258.58,289.568,287.048,261.66,0.493843,0.371895,241.59,254.256
2016-07-27 10:00,0.398935,285.818,281.267,255.51,283.797,282.758,260.581,0.447751,0.440213,241.647,254.536
2016-07-27 12:00,0.421421,286.421,280.066,254.926,282.803,282.613,260.701,0.611686,0.629887,241.59,255.366
2016-07-27 13:00,0.333313,291.931,280.909,255.393,284.079,283.484,260.822,0.351201,0.348464,241.76,255.548
2016-07-27 14:00,0.213501,292.174,282.566,256.434,285.34,284.636,262.373,0.20517,0.194385,241.419,256.001
2016-07-27 15:00,0.0235332,291.19,288.951,259.354,291.292,289.276,263.2,0.0524355,0.035012,242.099,256.628
2016-07-27 16:00,0.0273711,291.686,289.058,259.793,291.555,289.826,263.67,0.0526705,0.038937,242.266,257.07
2016-07-27 17:00,0.0451593,292.771,288.736,259.683,291.555,289.413,262.728,0.0686004,0.0563183,241.93,256.539
2016-07-27 18:00,0.10939,296.531,289.058,259.683,291.686,289.964,263.553,0.122207,0.110436,242.266,256.716
2016-07-27 19:00,0.323115,303.917,289.165,259.683,291.817,290.375,263.553,0.286455,0.285908,242.82,257.421
2016-07-27 20:00,0.801242,309.856,288.843,259.464,291.555,289.964,263.436,0.625156,0.648777,243.418,257.942
2016-07-27 21:00,1.27806,303.836,288.195,258.913,290.897,289.413,263.318,0.856686,0.989212,243.364,258.114
2016-07-27 22:00,0.439127,288.705,288.412,259.134,290.897,289.689,263.67,1.11542,1.55164,243.633,258.798
2016-07-27 23:00,-0.291502,288.291,287.978,258.58,290.5,289.276,263.787,-0.0789807,-0.170688,244.894,259.804
2016-07-28 00:00,-0.170461,288.152,287.869,258.58,290.5,289.276,263.787,-0.0438141,-0.0952643,245.405,259.887
2016-07-28 01:00,0.0,289.91,289.486,259.024,292.079,290.648,263.905,0.0,-0.00221572,246.208,260.463
2016-07-28 02:00,0.0,288.841,288.52,258.691,291.16,289.964,264.372,0.0,0.0,246.406,260.871
2016-07-28 03:00,-0.00169984,288.977,288.843,259.024,291.423,289.964,263.787,0.0,0.0,246.208,260.871
2016-07-28 04:00,0.00171001,288.291,288.303,258.913,291.029,289.826,264.138,0.0,0.00172636,245.759,260.627
2016-07-28 05:00,0.0,289.514,289.272,259.354,291.817,290.511,264.022,0.0,0.0,245.557,260.545
2016-07-28 06:00,0.0,289.381,289.272,259.793,291.817,290.648,264.255,0.0,0.0,245.253,260.299
2016-07-28 07:00,0.0,289.91,289.593,259.902,292.209,290.921,264.022,0.0,0.0,244.842,260.052
2016-07-28 08:00,0.0,289.514,288.951,259.464,291.686,290.101,264.255,0.0,0.0,245.759,260.545
2016-07-28 10:00,0.0839134,291.315,289.699,259.793,292.209,290.511,264.255,0.197359,0.145899,247.283,261.113
2016-07-28 11:00,0.0460786,291.563,290.017,260.011,292.6,291.193,264.372,0.123546,0.0775318,246.944,261.033
2016-07-28 12:00,0.0237399,291.44,290.335,259.793,293.119,291.735,264.837,0.0819484,0.0516209,246.798,261.194
2016-07-28 13:00,0.0222323,291.563,290.44,260.011,292.86,291.464,265.185,0.0665115,0.0404006,246.993,261.515
2016-07-28 14:00,0.0222731,291.44,290.229,260.228,292.989,291.735,265.301,0.0576852,0.0396813,246.554,261.275
2016-07-28 15:00,0.0,0.0,0.0,0.0,0.0,0.0,0.0,0.0,0.0,0.0,0.0
2016-07-28 16:00,0.058486,292.414,289.165,259.574,291.686,290.511,264.488,0.0779677,0.0665828,247.426,262.151
2016-07-28 17:00,0.132865,293.472,288.843,259.354,291.16,290.101,263.905,0.14962,0.135476,247.76,262.23
2016-07-28 18:00,0.13378,296.635,289.805,259.574,292.34,291.057,264.953,0.148026,0.141198,247.996,262.309
2016-07-28 19:00,0.26831,301.999,290.017,260.119,292.6,291.193,265.069,0.254568,0.247822,247.76,262.623
2016-07-28 20:00,0.814132,312.546,290.651,260.445,293.119,292.006,265.301,0.619696,0.650337,247.902,262.935
2016-07-28 21:00,1.37712,305.261,289.272,259.793,291.948,291.057,265.301,0.934617,1.07111,247.712,262.701
2016-07-28 22:00,0.968297,290.939,290.756,260.445,293.635,292.545,265.647,1.63971,2.28096,247.379,262.857
2016-07-28 23:00,-0.294353,290.685,290.86,260.445,293.506,292.276,265.532,-0.0733024,-0.157324,246.896,262.779
2016-07-29 00:00,-0.163385,290.939,290.756,260.445,293.248,292.006,265.185,-0.0409889,-0.0855278,246.009,262.935
2016-07-29 01:00,-0.00436851,290.301,290.651,260.553,293.119,292.141,265.762,0.0,0.0,245.96,263.244
2016-07-29 02:00,0.0,290.813,290.756,260.661,293.506,292.141,265.416,0.0,-0.00184711,246.009,263.167
2016-07-29 03:00,0.0,290.685,290.965,260.876,293.506,292.141,265.185,0.0,0.0,245.709,263.322
2016-07-29 04:00,0.0,290.685,290.86,261.198,293.635,292.545,265.647,0.0,0.00171938,245.507,263.09
2016-07-29 05:00,-0.00186478,290.685,290.651,260.984,293.506,292.141,265.301,0.0,0.0,245.151,263.552
2016-07-29 06:00,0.0,288.568,288.736,259.793,291.423,290.511,264.953,0.0,0.0,244.997,263.244
2016-07-29 07:00,-0.00323496,290.813,290.965,261.091,293.635,292.41,265.416,0.0,0.0,244.531,263.012
2016-07-29 08:00,0.00673961,290.429,290.229,260.553,292.86,291.057,264.721,0.0,0.0,243.793,261.275
2016-07-29 09:00,0.703233,285.97,282.331,257.006,284.641,281.882,260.34,0.765549,0.743764,242.984,258.028
2016-07-29 10:00,0.0468508,291.065,289.911,261.091,292.47,290.511,264.138,0.174542,0.104057,242.655,258.286
2016-07-29 11:00,0.0230856,291.065,289.911,261.091,292.47,290.375,263.905,0.102077,0.0595606,242.211,257.942
2016-07-29 12:00,0.0219354,291.315,289.699,260.984,292.209,290.101,263.67,0.0773859,0.0461355,241.533,257.855
2016-07-29 13:00,0.0296581,292.174,289.272,261.198,291.948,289.551,263.67,0.0665454,0.0434154,240.899,257.508
2016-07-29 14:00,0.0353849,292.053,288.412,260.769,290.632,288.167,262.965,0.0610303,0.0436616,240.371,256.982
2016-07-29 15:00,0.0210639,291.44,288.736,260.769,290.897,288.167,263.318,0.0461605,0.0312724,239.714,256.181
2016-07-29 16:00,0.0211592,291.563,288.195,260.984,290.234,287.888,262.728,0.0474232,0.0301573,239.349,255.73
2016-07-29 17:00,0.0704437,293.702,287.869,260.337,289.835,287.469,262.847,0.0855281,0.0684335,239.471,255.639
2016-07-29 18:00,0.1217,296.323,287.869,260.769,289.835,287.329,262.61,0.132668,0.113648,239.593,255.73
2016-07-29 19:00,0.390589,298.822,286.439,259.574,288.897,286.907,262.847,0.382334,0.373164,239.532,255.911
2016-07-29 20:00,0.698041,300.947,286.55,259.354,288.897,287.048,262.255,0.602665,0.593736,239.834,256.181
2016-07-29 21:00,1.48868,306.623,288.52,260.553,290.367,288.027,262.61,0.972749,1.04006,240.014,256.982
2016-07-29 22:00,1.26732,289.91,288.195,260.661,290.101,287.888,263.2,3.21912,3.83832,239.834,257.333
2016-07-29 23:00,-0.222776,289.779,288.412,260.228,290.367,288.167,262.492,-0.0677113,-0.155704,239.894,257.508
2016-07-30 00:00,-0.141328,289.113,288.087,260.011,290.234,288.306,262.965,-0.0356439,-0.085,240.193,257.855
2016-07-30 01:00,0.0,289.113,288.303,260.228,290.367,288.584,263.318,0.0,-0.00219436,239.593,257.246
2016-07-30 02:00,-0.00182169,289.779,288.736,259.902,290.897,289.137,263.67,0.0,0.0,238.981,257.769
2016-07-30 03:00,0.0,288.291,288.195,259.683,290.5,288.999,264.138,0.0,0.0,239.166,257.942
2016-07-30 04:00,0.00169613,286.121,286.772,259.134,289.568,288.306,263.905,0.0,0.0,238.483,257.942
2016-07-30 05:00,-0.00185676,289.514,288.412,259.902,290.764,289.137,263.905,0.0,0.0,238.795,258.028
2016-07-30 06:00,-0.00225444,283.261,284.755,258.691,287.815,287.188,263.553,0.0,0.0,238.733,258.114
2016-07-30 07:00,0.0,281.705,284.071,257.798,287.27,286.767,263.553,0.0,0.0,238.671,258.457
2016-07-30 08:00,-0.00666547,283.093,284.528,257.91,287.679,287.329,263.2,0.0,0.0,238.357,258.628
2016-07-30 09:00,0.631462,285.357,284.982,258.246,288.222,287.469,263.67,0.861393,0.779164,238.857,259.135
2016-07-30 10:00,0.555597,291.315,283.611,257.572,286.997,286.767,263.787,0.514276,0.50862,238.608,258.882
2016-07-30 11:00,0.339267,296.943,285.321,258.58,288.493,287.469,263.787,0.326428,0.308778,238.231,258.882
2016-07-30 12:00,0.087827,293.472,289.805,260.445,292.209,290.784,264.837,0.130135,0.101597,238.104,258.713
2016-07-30 13:00,0.357562,301.39,284.185,258.358,287.679,287.329,263.787,0.298978,0.29807,238.357,258.882
2016-07-30 14:00,0.068168,294.043,288.628,260.337,291.686,290.238,264.372,0.0932363,0.0741134,238.608,259.22
2016-07-30 15:00,0.0235468,291.931,290.335,260.876,292.73,291.329,264.488,0.0556139,0.0387858,238.483,258.882
2016-07-30 16:00,0.0311239,292.534,290.44,260.984,292.989,291.735,264.837,0.0590298,0.0439901,238.357,259.051
2016-07-30 17:00,0.0491973,293.702,290.545,261.091,293.119,291.735,265.185,0.0754299,0.0604066,238.42,259.051
2016-07-30 18:00,0.117221,296.943,290.229,260.876,292.86,291.735,265.416,0.128897,0.113731,238.357,259.304
2016-07-30 19:00,0.356775,299.95,289.272,260.445,291.948,290.921,265.069,0.326312,0.321663,238.733,259.721
2016-07-30 20:00,0.738513,309.655,290.545,260.661,292.86,291.6,265.069,0.571634,0.584218,239.288,259.97
2016-07-30 21:00,1.03739,297.749,287.978,259.683,290.764,290.238,264.953,0.777183,0.882806,239.593,260.299
2016-07-30 22:00,-348.845,289.91,289.805,260.661,292.34,291.329,264.953,-886.1,-1056.54,240.074,260.052
2016-07-30 23:00,-0.305204,290.685,290.229,260.876,292.73,291.329,265.301,-0.0765677,-0.165473,239.834,259.97
2016-07-31 00:00,-0.152385,289.381,289.272,260.119,291.817,290.648,264.605,-0.0404783,-0.0874789,239.593,259.97
2016-07-31 01:00,-0.00432544,284.249,285.658,258.469,289.166,288.722,263.905,0.0,0.0,239.349,259.638
2016-07-31 02:00,-0.00181364,287.587,287.76,259.683,290.764,289.826,264.372,0.0,0.0,238.857,259.22
2016-07-31 03:00,-0.00167898,288.841,289.272,260.553,291.948,290.648,264.488,0.0,0.0,238.546,259.135
2016-07-31 04:00,-0.0016891,282.059,284.071,257.91,287.679,287.469,263.905,0.0,0.0,238.42,259.051
2016-07-31 05:00,0.0,286.569,287.102,259.683,290.367,289.276,264.255,0.0,0.0,238.733,258.882
2016-07-31 06:00,0.0,284.57,285.77,258.469,289.166,288.445,264.022,0.0,0.0,238.919,259.304
2016-07-31 07:00,-0.00319514,281.705,283.726,257.346,287.134,286.767,263.318,0.0,0.0,238.919,259.135
2016-07-31 08:00,0.0,285.665,286.217,258.246,289.032,287.888,263.436,0.0,0.0,238.608,258.798
2016-07-31 09:00,0.589327,283.594,284.185,257.006,287.27,286.485,263.2,0.904405,0.855256,239.774,259.387
2016-07-31 10:00,0.671935,286.864,282.096,255.16,285.34,285.208,262.847,0.693128,0.702244,241.304,260.052
2016-07-31 11:00,0.592322,292.174,281.148,254.336,284.641,284.492,262.373,0.569114,0.584984,237.528,259.638
2016-07-31 12:00,0.540292,298.144,280.187,253.98,284.22,284.205,261.779,0.485378,0.504779,234.897,259.051
2016-07-31 13:00,0.108362,293.356,288.087,257.798,290.367,288.584,263.553,0.142023,0.118389,233.01,257.855
2016-07-31 14:00,0.182271,294.491,285.321,256.778,288.087,287.048,262.965,0.185416,0.173423,232.481,256.982
2016-07-31 15:00,0.0433853,291.686,288.303,258.58,290.367,288.445,262.728,0.0650721,0.0438,231.787,256.091
2016-07-31 16:00,0.226643,291.809,282.214,255.393,285.757,285.065,261.898,0.210877,0.212466,231.552,255.639
2016-07-31 17:00,0.319258,297.045,280.669,254.69,284.641,284.061,262.136,0.264683,0.279335,230.916,254.814
2016-07-31 18:00,0.0837947,295.796,289.593,258.691,292.079,290.238,263.787,0.0980383,0.0845957,230.511,254.256
2016-07-31 19:00,0.252205,303.098,290.44,259.244,293.506,291.464,264.255,0.231336,0.217967,230.511,254.349
2016-07-31 20:00,0.605219,305.416,289.486,258.022,292.6,291.057,264.255,0.510098,0.524515,230.184,254.443
2016-07-31 22:00,-1.8146,290.171,289.593,257.798,292.34,290.511,263.553,-2.5607,-3.66389,230.674,254.349
2016-07-31 23:00,-0.240408,290.301,290.017,257.91,292.6,290.648,263.67,-0.0710068,-0.158041,231.156,254.349
