# timestamp,IR_016,IR_039,IR_087,IR_097,IR_108,IR_120,IR_134,VIS006,VIS008,WV_062,WV_073
2015-09-01 00:00,-0.00371616,286.864,289.272,263.928,291.029,291.329,266.795,-0.0,-0.00187584,245.507,266.817
2015-09-01 01:00,-0.00148404,286.121,288.628,263.721,290.632,290.648,266.795,-0.0,-0.0,245.456,266.456
2015-09-01 02:00,-0.0,285.665,288.195,263.721,290.101,290.375,266.337,-0.0,-0.0,245.456,266.673
2015-09-01 03:00,-0.0,285.202,287.869,262.995,289.701,290.101,266.337,-0.0,-0.0,246.059,266.817
2015-09-01 04:00,0.00125094,285.045,287.651,263.307,289.434,289.826,266.566,-0.0,-0.0,246.009,266.888
2015-09-01 05:00,-0.0,284.73,287.212,262.786,289.032,289.276,266.681,-0.0,-0.0,245.91,266.673
2015-09-01 06:00,-0.00159045,283.594,286.217,262.155,287.951,288.445,265.878,-0.0,-0.0,246.109,266.384
2015-09-01 07:00,-0.0,283.261,285.882,262.049,287.407,288.027,265.532,-0.0,-0.0,245.91,266.529
2015-09-01 08:00,-0.0,282.923,285.658,261.625,287.27,288.027,265.416,-0.0,0.0033656,245.809,266.456
2015-09-01 09:00,0.00973445,283.093,285.546,261.519,287.27,287.888,265.762,-0.0,-0.0,245.405,266.456
2015-09-01 10:00,0.546091,286.121,287.651,262.89,289.434,289.551,266.222,0.368187,0.541102,245.304,266.673
2015-09-01 11:00,0.549578,295.902,294.245,266.855,296.307,295.076,268.045,0.293738,0.492413,245.456,266.601
2015-09-01 12:00,0.468637,303.264,299.496,270.428,301.832,299.743,269.283,0.238811,0.409596,245.96,266.601
2015-09-01 13:00,0.365374,307.999,304.081,273.661,306.305,303.763,270.619,0.181643,0.316413,246.059,266.817
2015-09-01 14:00,0.296042,311.165,307.325,275.539,309.725,306.584,271.172,0.14376,0.250525,246.059,266.96
2015-09-01 15:00,0.256852,312.668,308.097,276.417,310.398,307.069,271.502,0.123776,0.219308,246.009,266.96
2015-09-01 16:00,0.23537,312.361,307.84,276.33,310.174,306.948,271.502,0.109022,0.194289,246.208,266.384
2015-09-01 17:00,0.223991,311.036,307.239,275.715,309.725,306.462,271.832,0.105078,0.186406,246.406,266.312
2015-09-01 18:00,0.223007,308.07,304.881,274.561,307.341,304.257,270.508,0.116669,0.192191,246.456,266.094
2015-09-01 19:00,0.241204,304.715,302.64,273.207,305.027,302.769,270.397,0.151591,0.223427,246.75,266.312
2015-09-01 20:00,0.278378,299.858,299.024,270.805,301.352,299.743,269.395,0.250909,0.303704,246.603,266.239
2015-09-01 21:00,0.588298,293.356,294.145,267.642,296.182,295.076,267.819,0.630941,0.752301,246.652,265.875
2015-09-01 22:00,0.00567974,290.558,292.314,266.458,294.277,293.483,267.251,-0.0,-0.00573404,246.944,266.166
2015-09-01 23:00,-0.124926,290.041,291.694,265.859,293.635,293.082,267.932,-0.062085,-0.120636,247.283,266.529
2015-09-02 00:00,-0.0,289.381,291.07,265.456,292.989,292.545,266.681,-0.0,-0.0,247.522,266.239
2015-09-02 01:00,-0.0,289.113,290.965,265.355,292.86,292.41,267.023,-0.0,-0.0,247.712,266.529
2015-09-02 02:00,-0.0,288.152,290.335,265.153,291.948,291.6,267.251,-0.0,-0.0,247.902,266.817
2015-09-02 03:00,-0.0,287.871,290.017,264.747,291.686,291.735,267.137,-0.0,-0.0,248.043,267.246
2015-09-02 04:00,-0.0,287.3,289.593,264.645,291.423,291.464,267.023,-0.0,0.00126412,248.51,267.53
2015-09-02 05:00,-0.0,287.01,289.486,264.339,291.16,291.464,267.592,-0.0,-0.0,248.371,267.742
2015-09-02 06:00,-0.0,286.717,289.058,264.339,290.897,290.921,267.251,-0.0,-0.0,248.043,267.388
2015-09-02 07:00,-0.0,285.512,287.76,263.411,289.434,289.689,266.452,-0.0,-0.0,248.231,267.246
2015-09-02 08:00,-0.00335988,284.249,286.55,262.576,288.222,288.584,266.566,-0.0,-0.0,247.902,267.103
2015-09-02 09:00,-0.0,283.76,286.217,262.049,287.679,288.167,266.108,-0.0,-0.0,247.855,267.317
2015-09-02 10:00,0.500875,286.121,287.978,263.099,289.568,289.689,266.337,0.365882,0.495748,248.137,267.174
2015-09-02 11:00,0.519972,295.69,294.044,266.756,296.056,295.076,268.271,0.281996,0.452892,247.902,266.888
2015-09-02 12:00,0.452488,302.68,299.213,270.05,301.472,299.616,269.618,0.233521,0.385028,247.76,266.817
2015-09-02 13:00,0.353447,306.991,302.822,272.108,305.377,302.769,270.508,0.180687,0.297916,247.665,266.673
2015-09-02 14:00,0.297638,309.789,305.499,274.022,307.913,304.996,270.84,0.145579,0.259641,248.09,266.456
2015-09-02 15:00,0.254515,312.113,307.239,275.096,309.725,306.219,271.282,0.124458,0.211604,248.09,266.239
2015-09-02 16:00,0.233183,311.674,307.067,274.829,309.613,306.219,271.061,0.112153,0.197802,248.51,266.601
2015-09-02 17:00,0.227802,310.32,306.286,274.471,308.822,305.853,271.282,0.113684,0.197995,248.603,266.601
2015-09-02 18:00,0.231352,307.786,304.616,273.48,306.997,304.134,270.84,0.125489,0.204368,248.371,266.601
2015-09-02 19:00,0.252813,304.319,301.911,271.738,304.089,301.767,269.953,0.167887,0.240216,248.557,266.384
2015-09-02 20:00,0.312991,299.95,298.167,269.67,300.506,298.463,268.722,0.283939,0.33404,248.695,266.384
2015-09-02 21:00,0.574849,292.771,293.133,266.458,295.297,294.149,267.478,0.616517,0.735103,248.695,266.094
2015-09-02 22:00,-0.00569058,289.514,290.756,265.052,292.73,291.871,266.909,-0.0,-0.0,248.879,265.875
2015-09-02 23:00,-0.179321,289.514,290.86,264.95,292.86,292.141,266.566,-0.0782159,-0.131662,248.741,265.801
2015-09-03 00:00,-0.0,289.247,290.86,264.849,292.86,292.41,266.222,-0.0,-0.0,249.062,266.094
2015-09-03 01:00,-0.00148456,288.568,290.545,264.849,292.47,291.871,266.909,-0.0,-0.0,248.879,266.094
2015-09-03 03:00,-0.0,287.871,289.805,264.747,291.817,291.329,266.681,-0.0,-0.0,249.199,266.094
2015-09-03 04:00,-0.00125343,287.01,289.058,264.236,291.029,290.648,266.108,-0.0,-0.0,249.471,266.094
2015-09-03 05:00,-0.0,285.357,287.541,262.995,289.434,289.413,265.647,-0.0,-0.0,249.561,266.166
2015-09-03 06:00,-0.0015984,285.045,287.432,263.099,289.166,289.413,265.532,-0.0,-0.0,249.651,266.529
2015-09-03 07:00,-0.0,283.924,286.328,262.261,288.087,288.445,265.647,-0.0,-0.0,249.381,265.948
2015-09-03 08:00,0.0033869,282.753,285.546,261.731,287.27,287.748,264.721,-0.0,-0.0,249.426,265.875
2015-09-03 09:00,-0.0,282.581,285.095,261.198,286.86,287.329,265.185,-0.0,-0.0,248.787,265.434
2015-09-03 10:00,0.515324,285.818,287.102,262.261,288.763,288.861,265.185,0.363603,0.500981,248.137,264.914
2015-09-03 11:00,0.554841,296.635,294.145,266.259,296.307,295.076,267.705,0.304647,0.475275,246.603,264.69
2015-09-03 12:00,0.477205,304.794,300.433,270.239,302.788,300.632,268.609,0.248227,0.393191,246.406,264.615
2015-09-03 13:00,0.37481,307.857,303.093,271.83,305.726,302.769,269.841,0.192377,0.308073,245.608,264.389
2015-09-03 14:00,0.299222,310.254,305.147,277.027,307.684,297.43,270.286,0.151036,0.246894,245.608,264.314
2015-09-03 15:00,0.260334,312.175,306.98,274.561,309.838,306.462,270.73,0.126285,0.213543,245.557,264.839
2015-09-03 16:00,0.235142,312.729,307.926,275.184,310.734,307.431,271.282,0.112936,0.190189,246.059,265.212
2015-09-03 17:00,0.227083,311.293,306.807,274.382,309.388,306.219,271.502,0.112052,0.185225,245.859,265.063
2015-09-03 18:00,0.232446,308.976,304.881,272.934,307.341,304.381,270.508,0.125105,0.196467,246.159,264.389
2015-09-03 19:00,0.261887,304.95,301.728,270.992,304.089,301.516,269.059,0.169442,0.236954,246.456,263.858
2015-09-03 20:00,0.25828,298.339,296.327,267.838,298.549,296.91,267.478,0.211144,0.224784,246.406,263.934
2015-09-03 21:00,0.374814,291.809,291.902,264.95,294.149,292.814,266.222,0.539502,0.643275,246.009,263.09
2015-09-03 22:00,-0.0,289.113,290.123,263.411,292.209,291.329,265.647,-0.0,-0.0,246.109,262.466
2015-09-03 23:00,-0.141348,289.113,289.058,263.203,291.029,289.826,265.069,-0.0690454,-0.123489,246.307,261.914
2015-09-04 00:00,-0.0,284.41,284.528,260.661,286.722,284.779,262.255,-0.0,-0.0,246.159,261.194
2015-09-04 01:00,-0.00148488,285.512,285.882,261.519,288.087,285.777,262.373,-0.0,-0.0,246.307,261.834
2015-09-04 02:00,-0.0,280.982,280.549,258.691,283.372,281.293,260.822,-0.0,-0.0,246.009,260.871
2015-09-04 03:00,-0.0,282.923,283.148,260.337,284.921,282.321,261.301,-0.0,-0.0,245.658,260.627
2015-09-04 04:00,-0.00125477,279.859,280.669,258.246,282.517,281.146,260.701,-0.0,-0.0,245.759,260.381
2015-09-04 05:00,-0.0,283.594,283.841,260.553,286.447,285.208,263.083,-0.0,-0.0,244.842,260.952
2015-09-04 06:00,-0.0,281.346,281.267,258.802,283.938,281.735,261.062,-0.0,-0.0,244.217,259.721
2015-09-04 07:00,-0.0,260.827,264.94,249.669,267.522,267.506,254.137,-0.0,-0.0,243.899,256.45
2015-09-04 08:00,-0.0,279.667,279.702,257.91,282.087,279.661,259.127,-0.0,-0.0,243.039,258.713
2015-09-04 09:00,-0.0,283.093,284.414,260.769,286.31,285.635,262.965,-0.0,-0.0,243.686,260.789
2015-09-04 10:00,0.463895,287.3,286.772,261.731,288.897,288.027,263.67,0.353501,0.430863,241.476,259.804
2015-09-04 11:00,0.532377,296.427,293.539,266.259,295.803,294.282,266.337,0.27891,0.44341,241.76,260.299
2015-09-04 12:00,0.456942,302.764,297.879,268.324,300.506,297.818,267.592,0.232135,0.375485,241.073,260.135
2015-09-04 13:00,0.356354,307.283,301.819,270.805,304.324,301.138,268.271,0.18299,0.293138,240.43,259.638
2015-09-04 14:00,0.287903,310.907,305.058,272.934,308.027,304.381,269.953,0.146745,0.238597,240.607,260.463
2015-09-04 15:00,0.256657,312.607,306.46,273.752,309.275,305.241,270.064,0.129243,0.208652,241.246,260.299
2015-09-04 16:00,0.245315,312.237,305.762,273.389,308.822,304.381,269.618,0.126481,0.206153,240.665,260.299
2015-09-04 17:00,0.241366,310.583,303.813,272.015,306.882,302.769,269.171,0.138359,0.21189,240.548,260.381
2015-09-04 18:00,0.274861,307.427,300.526,269.67,303.499,299.488,267.365,0.179487,0.24847,239.471,259.471
2015-09-04 19:00,0.312785,304.398,298.167,268.227,300.748,297.17,266.681,0.252323,0.320748,237.592,258.286
2015-09-04 20:00,0.328215,299.579,294.846,266.159,297.558,295.208,265.993,0.364273,0.389563,235.178,256.181
2015-09-04 21:00,0.660395,292.653,292.005,264.747,294.661,292.679,265.647,0.714477,0.851905,233.968,255.821
2015-09-04 22:00,-0.00571202,289.91,290.123,263.618,292.34,290.784,264.605,-0.0,-0.0,233.159,255.091
2015-09-04 23:00,-0.182206,290.041,290.017,263.618,292.34,291.057,265.185,-0.0805907,-0.137275,233.01,255.091
2015-09-05 00:00,-0.0,288.977,289.699,263.307,291.948,290.921,264.605,-0.0,-0.0,234.543,255.457
2015-09-05 01:00,-0.00148525,288.568,289.058,263.099,291.686,290.375,264.953,-0.0,-0.0,235.178,254.629
2015-09-05 02:00,-0.00130701,288.152,288.52,262.576,290.897,289.689,264.837,-0.0,-0.0,235.867,254.629
2015-09-05 03:00,-0.00123918,287.729,288.303,262.366,290.764,289.551,264.488,-0.0,0.00125103,235.867,255.091
2015-09-05 04:00,0.00125618,286.717,287.541,261.625,289.835,289.276,264.372,-0.0,-0.0,236.207,255.275
2015-09-05 05:00,0.0013641,285.357,286.55,261.305,288.763,287.888,263.905,-0.0,-0.0,236.207,254.999
2015-09-05 06:00,-0.0,283.594,284.3,260.445,286.997,285.493,263.083,-0.0,-0.0,236.004,254.068
2015-09-05 07:00,-0.0,283.594,284.982,260.661,287.679,286.767,263.905,-0.0,-0.0,236.139,253.88
2015-09-05 08:00,-0.00344366,283.594,284.755,260.228,287.27,286.343,263.2,-0.0,-0.0,236.139,253.595
2015-09-05 09:00,-0.0,283.428,284.414,260.119,286.997,286.202,262.728,-0.0,-0.0,236.609,253.117
2015-09-05 10:00,0.541498,286.864,286.105,261.091,288.493,287.048,262.492,0.351506,0.464674,236.742,252.925
2015-09-05 11:00,0.59925,294.043,283.495,259.134,285.618,282.758,259.856,0.40981,0.518553,237.333,252.731
2015-09-05 12:00,0.462274,302.596,295.343,266.358,297.558,293.75,264.255,0.230555,0.360143,237.592,253.405
2015-09-05 13:00,0.349577,306.326,299.118,268.904,301.352,296.91,265.532,0.180649,0.286643,237.721,253.5
2015-09-05 14:00,0.293797,309.722,301.728,270.711,304.207,299.232,266.337,0.152153,0.239012,237.592,253.5
2015-09-05 15:00,0.251666,311.229,303.003,271.086,305.261,300.379,266.566,0.128762,0.205159,237.977,254.068
2015-09-05 16:00,0.234937,310.713,302.822,271.086,305.261,299.998,266.909,0.121434,0.193056,237.657,253.405
2015-09-05 17:00,0.310867,305.646,293.641,265.153,295.17,290.648,262.847,0.245494,0.328927,238.104,253.213
2015-09-05 18:00,0.447785,290.939,268.773,251.552,271.303,269.984,254.646,0.489848,0.546096,237.785,252.047
2015-09-05 19:00,0.557346,293.124,273.065,253.501,274.778,272.883,256.16,0.555059,0.634558,238.231,252.342
2015-09-05 20:00,0.225317,297.349,292.929,265.254,295.17,291.871,263.905,0.415218,0.383579,238.168,253.785
2015-09-05 21:00,0.0718804,291.809,289.805,263.411,292.079,289.137,262.847,0.517318,0.471689,238.168,253.595
2015-09-05 22:00,-0.0,288.291,286.217,261.198,287.407,284.779,261.301,-0.0,-0.0,237.913,252.634
2015-09-05 23:00,-0.149645,269.865,268.773,251.676,271.625,269.657,254.773,-0.0737187,-0.131848,237.333,251.751
2015-09-06 00:00,0.00185987,289.381,288.195,262.261,290.632,288.306,262.728,-0.0,-0.0,237.977,253.021
2015-09-06 01:00,-0.0,288.291,287.651,262.155,290.101,287.469,262.728,-0.0,-0.0,237.463,252.731
2015-09-06 02:00,-0.0,286.421,285.433,261.091,287.951,285.493,261.182,-0.0,-0.0,236.542,252.244
2015-09-06 03:00,-0.0,269.576,269.767,252.412,272.423,271.121,255.406,-0.0,-0.0,235.178,251.352
2015-09-06 04:00,-0.0,284.249,283.841,259.902,285.895,283.629,260.942,-0.0,0.00126968,235.799,252.047
2015-09-06 05:00,-0.0,271.798,271.437,252.777,274.156,272.246,256.16,-0.0,-0.0,236.808,251.949
2015-09-06 06:00,0.00161133,282.059,280.308,258.134,283.088,279.511,258.638,-0.0,-0.0,237.268,253.021
2015-09-06 07:00,-0.0,284.57,284.755,260.228,287.134,285.35,261.898,-0.0,-0.0,237.977,253.213
2015-09-06 08:00,0.00347344,274.073,272.12,253.501,275.396,271.283,254.519,-0.0,-0.0,238.168,252.634
2015-09-06 09:00,0.0112324,278.883,278.474,256.778,280.639,277.396,257.034,-0.0,-0.0,238.168,253.309
2015-09-06 10:00,0.430397,287.01,283.032,259.683,285.618,283.194,259.977,0.349542,0.407908,237.657,253.595
2015-09-06 11:00,0.53437,295.583,290.965,264.031,293.248,290.238,263.436,0.281402,0.411188,237.203,253.69
2015-09-06 12:00,0.459141,302.426,295.442,267.052,297.683,293.883,264.488,0.232542,0.353468,237.592,254.256
2015-09-06 13:00,0.349401,305.646,297.975,268.324,300.263,295.996,264.721,0.181096,0.27527,238.357,254.068
2015-09-06 14:00,0.288284,307.786,299.59,269.384,302.072,297.3,265.301,0.152706,0.229391,237.849,253.5
2015-09-06 15:00,0.252079,310.32,301.819,270.805,304.324,299.104,266.222,0.133965,0.200342,236.742,252.925
2015-09-06 16:00,0.234163,310.778,302.822,271.645,305.842,300.632,266.795,0.125645,0.189671,234.686,252.537
2015-09-06 17:00,0.229461,310.122,302.822,271.459,305.726,300.885,267.023,0.131205,0.189536,234.686,252.925
2015-09-06 18:00,0.221452,306.025,297.879,268.518,300.384,295.471,265.069,0.176918,0.214554,234.827,252.537
2015-09-06 19:00,0.332904,305.569,295.442,266.756,297.683,292.276,263.318,0.335756,0.358327,235.386,252.731
2015-09-06 20:00,0.479714,300.679,293.539,265.758,295.93,292.276,263.905,0.476974,0.515402,235.662,252.925
2015-09-06 21:00,0.0704633,291.686,290.86,264.236,293.377,291.193,264.022,0.417628,0.355685,234.257,252.634
2015-09-06 22:00,-0.0,287.3,285.77,260.984,288.087,285.919,261.062,-0.0,-0.0,233.085,250.238
2015-09-06 23:00,-0.193275,289.514,288.412,262.786,291.029,288.861,262.847,-0.0875851,-0.145655,235.936,252.047
2015-09-07 00:00,-0.0,270.151,262.616,247.067,263.217,261.831,247.823,-0.0,-0.0,233.677,244.647
2015-09-07 01:00,-0.00148614,242.013,245.032,237.884,247.229,246.246,239.618,-0.0,-0.00150035,233.53,240.185
2015-09-07 02:00,-0.0,262.475,258.025,245.723,259.421,255.803,244.512,-0.0,-0.0,232.86,246.032
2015-09-07 03:00,-0.0,258.096,260.692,246.801,263.92,263.759,251.553,-0.0,-0.0,235.386,249.617
2015-09-07 04:00,-0.0,260.395,261.34,246.533,263.393,262.361,250.896,-0.0,-0.0,235.799,249.617
2015-09-07 05:00,-0.00136909,280.427,275.823,255.277,278.128,274.304,255.406,-0.0,-0.0,237.657,251.652
2015-09-07 06:00,-0.0,280.982,279.58,257.572,282.374,279.211,257.777,-0.0,-0.0,237.785,252.146
2015-09-07 07:00,-0.0,270.989,268.63,251.676,271.464,268.505,252.464,-0.0,-0.0,237.721,250.95
2015-09-07 08:00,-0.00350417,260.827,254.328,242.656,254.461,250.357,241.374,-0.0,-0.0,237.137,243.698
2015-09-07 09:00,-0.0,266.466,260.365,246.399,260.706,255.992,244.231,-0.0,-0.0,237.977,245.69
2015-09-07 10:00,0.496084,275.707,262.141,247.332,264.27,261.654,248.229,0.427275,0.500826,239.288,249.408
2015-09-07 11:00,0.935157,291.686,249.978,240.469,251.036,250.156,242.241,0.720807,0.862709,238.981,244.175
2015-09-07 12:00,0.566411,299.95,279.213,257.459,280.785,275.706,254.646,0.359685,0.458302,239.894,251.252
2015-09-07 13:00,0.341106,305.646,298.071,268.615,300.748,295.996,264.953,0.180165,0.268934,241.533,254.068
2015-09-07 14:00,0.282821,308.351,299.966,269.765,302.072,296.91,264.953,0.152059,0.224137,242.266,255.183
2015-09-07 15:00,0.251159,310.778,301.452,270.523,303.736,298.334,265.993,0.139131,0.202308,242.489,254.907
2015-09-07 16:00,0.329746,302.256,276.845,256.549,277.075,271.283,253.497,0.242429,0.290429,243.418,253.309
2015-09-07 17:00,0.219859,307.21,298.834,269.384,300.869,295.734,264.837,0.159741,0.203964,244.687,256.45
2015-09-07 18:00,0.42382,259.045,228.155,229.118,228.001,226.974,227.089,0.818715,0.920462,225.254,226.57
2015-09-07 19:00,0.705312,279.278,245.248,238.04,245.693,242.143,234.76,0.810025,0.931338,229.007,236.614
2015-09-07 20:00,0.223609,271.531,263.867,248.382,266.167,264.623,250.501,0.3007,0.309849,232.557,248.669
2015-09-07 21:00,0.0691183,286.121,282.331,259.354,284.079,280.998,258.147,0.351134,0.348895,232.097,250.34
2015-09-07 22:00,-0.0057441,227.984,226.583,228.192,226.522,225.874,223.77,-0.0,-0.00579901,222.585,224.204
2015-09-07 23:00,-0.160694,232.213,218.862,224.507,219.508,218.235,219.362,-0.080713,-0.140232,219.503,220.075
2015-09-08 00:00,-0.0,233.989,232.56,231.098,231.683,231.203,229.283,-0.0,-0.0,224.56,229.314
2015-09-08 01:00,-0.0,222.276,218.862,224.102,218.478,218.235,218.982,-0.0,-0.0,216.963,217.669
2015-09-08 02:00,-0.0,222.276,223.94,226.866,223.758,223.043,222.147,-0.0,-0.0,221.145,222.956
2015-09-08 03:00,-0.0,254.396,250.954,240.913,252.059,250.757,240.5,-0.0,-0.0,231.865,244.175
2015-09-08 04:00,-0.0,277.661,273.997,254.69,275.55,272.405,254.773,-0.0,-0.0,244.164,254.629
2015-09-08 05:00,-0.0,286.717,286.217,262.049,288.493,286.907,262.492,-0.0,-0.0,245.709,258.028
2015-09-08 06:00,-0.0,286.271,285.994,261.731,288.358,286.485,262.847,-0.0,-0.0,245.709,258.628
2015-09-08 07:00,-0.0,285.97,286.105,261.731,288.358,286.485,262.965,-0.0,-0.0,240.957,258.457
2015-09-08 08:00,-0.0,285.512,284.869,261.091,287.27,285.35,261.779,-0.0,-0.0,233.234,254.162
2015-09-08 09:00,-0.0120006,286.271,285.658,261.838,288.358,286.485,262.847,-0.0,-0.0,238.608,255.73
2015-09-08 10:00,0.366656,287.871,286.772,262.155,289.166,287.329,263.083,0.317503,0.386987,244.058,256.894
2015-09-08 11:00,0.398946,292.414,288.628,263.618,290.632,287.888,262.728,0.248611,0.370539,240.782,256.539
2015-09-08 12:00,0.401275,296.84,290.545,264.543,292.079,289.137,263.436,0.220668,0.327847,242.929,259.051
2015-09-08 13:00,0.324818,299.858,292.725,266.159,294.149,290.511,263.67,0.177875,0.272453,238.104,256.894
2015-09-08 14:00,0.395693,299.203,279.091,258.246,280.054,277.396,258.392,0.313572,0.362514,244.479,257.682
2015-09-08 15:00,0.33278,300.498,284.071,261.091,284.921,281.146,259.492,0.243444,0.292958,244.217,258.286
2015-09-08 16:00,0.216417,288.291,280.669,258.58,280.785,279.661,260.098,0.246229,0.271742,244.269,257.855
2015-09-08 17:00,0.290303,298.63,287.212,262.89,287.543,283.629,261.062,0.259594,0.309526,244.583,258.882
2015-09-08 18:00,0.344486,281.526,266.886,250.555,268.024,267.673,255.28,0.46157,0.485816,246.505,256.716
2015-09-08 19:00,0.60591,295.151,273.199,254.217,275.55,273.832,257.9,0.605739,0.660836,243.147,257.942
2015-09-08 20:00,0.895503,279.278,252.853,242.656,253.069,251.552,242.527,0.8137,0.952574,231.315,244.175
2015-09-08 21:00,0.339192,280.427,271.984,253.261,272.104,268.173,250.369,0.40207,0.513651,231.236,247.808
2015-09-08 22:00,-0.0,225.382,226.261,228.004,227.118,225.318,223.949,-0.0,-0.0,223.013,225.21
2015-09-08 23:00,-0.177133,232.213,223.252,226.674,222.806,222.169,221.598,-0.0830649,-0.134808,219.382,221.658
2015-09-09 00:00,-0.0,233.989,232.839,230.921,233.041,231.968,227.94,-0.0,-0.0,227.42,230.863
2015-09-09 01:00,-0.00148725,254.396,251.912,241.5,252.262,250.757,242.097,-0.0,-0.0,232.935,242.848
2015-09-09 02:00,-0.0,233.989,229.373,230.207,227.708,225.038,222.147,-0.0,-0.0,219.982,224.204
2015-09-09 03:00,-0.0,239.711,238.09,234.183,237.951,236.396,231.581,-0.0,-0.0,226.499,233.928
2015-09-09 04:00,-0.00126249,240.898,237.339,234.017,235.672,234.706,231.419,-0.0,-0.0,224.359,230.524
2015-09-09 05:00,-0.0,244.063,239.559,234.515,237.951,236.872,233.185,-0.0,-0.0,223.538,231.031
2015-09-09 06:00,0.00325095,244.063,237.086,232.663,237.702,235.435,228.614,-0.0,-0.0,225.546,233.617
2015-09-09 07:00,-0.0,257.605,258.365,245.587,260.524,259.502,248.364,-0.0,0.00218226,231.943,247.261
2015-09-09 08:00,-0.0035686,237.078,231.713,230.565,231.957,230.688,226.229,-0.0,-0.0,222.906,227.694
2015-09-09 09:00,-0.0,225.382,220.75,225.701,220.852,219.777,219.739,-0.0,-0.0,218.009,220.306
2015-09-09 10:00,0.48737,245.01,233.392,231.625,233.31,231.714,228.278,0.694636,0.795446,223.849,229.664
2015-09-09 11:00,0.483331,275.02,254.145,242.799,255.439,254.855,245.072,0.719506,0.797307,236.94,247.59
2015-09-09 12:00,0.692412,290.301,250.175,240.766,251.856,251.354,243.808,0.767188,0.869122,236.808,245.345
2015-09-09 13:00,0.602927,294.713,250.76,241.5,253.269,253.122,244.792,0.692915,0.771008,237.463,245.918
2015-09-09 14:00,0.473975,278.075,255.409,244.349,257.55,257.115,247.279,0.616219,0.680951,236.542,247.699
2015-09-09 15:00,0.515951,283.261,251.339,242.081,253.669,253.51,244.512,0.614292,0.680228,237.657,246.032
2015-09-09 17:00,0.509499,286.121,243.719,237.101,244.8,244.328,238.577,0.540178,0.608299,234.615,239.523
2015-09-09 18:00,0.593199,272.061,238.585,235.01,239.426,238.978,233.344,0.793122,0.888472,230.018,235.592
2015-09-09 19:00,0.225652,279.667,269.767,253.02,269.842,267.506,252.723,0.271181,0.308645,233.896,248.562
2015-09-09 20:00,0.979305,290.813,252.479,242.656,253.469,251.354,242.814,0.89551,1.07655,236.139,244.412
2015-09-09 21:00,0.532935,256.062,252.853,242.656,254.461,254.472,245.767,0.648651,0.773418,238.981,247.59
2015-09-09 22:00,-0.00576582,261.251,262.774,248.642,265.654,265.309,252.853,-0.0,-0.0,239.774,253.595
2015-09-09 23:00,-0.125429,265.095,260.201,246.934,261.611,260.584,249.305,-0.0646436,-0.121122,238.733,250.646
2015-09-10 00:00,-0.0,254.396,255.941,244.07,257.361,257.301,247.142,-0.0,-0.0,237.592,248.882
2015-09-10 01:00,-0.0014879,250.598,251.53,241.5,253.469,252.927,244.372,-0.0,-0.0,236.808,246.145
2015-09-10 02:00,-0.0,250.598,252.666,242.369,254.657,254.281,245.489,-0.0,-0.0,236.609,246.818
2015-09-10 03:00,-0.00124443,249.156,248.985,240.617,250.83,249.753,242.097,-0.0,-0.0,234.897,243.457
2015-09-10 04:00,0.00126424,248.394,248.784,240.617,250.623,249.955,241.664,-0.0,-0.0,233.085,243.214
2015-09-10 05:00,-0.0,251.944,252.101,242.513,254.066,253.703,244.512,-0.0,-0.0,236.139,246.258
2015-09-10 06:00,-0.00163046,257.103,259.373,246.533,261.791,261.654,250.104,-0.0,-0.0,236.94,250.646
2015-09-10 07:00,-0.00217227,259.505,261.017,247.332,263.92,263.237,250.633,-0.0,-0.0,234.615,249.513
2015-09-10 08:00,-0.0,256.589,257.166,244.903,259.606,258.957,248.499,-0.0,-0.0,231.315,246.483
2015-09-10 09:00,-0.0,245.913,246.102,238.195,247.012,245.612,238.278,-0.0109216,-0.0130223,230.996,239.922
2015-09-10 10:00,0.522843,249.89,241.682,235.499,241.107,239.895,234.447,0.93904,1.11167,228.136,234.845
2015-09-10 11:00,0.63792,281.883,251.147,241.791,252.868,251.75,242.956,0.794303,0.890261,233.456,243.577
2015-09-10 12:00,0.412287,270.989,250.371,240.469,250.415,249.753,243.241,0.940104,1.01584,232.251,242.23
2015-09-10 13:00,0.612686,294.043,244.16,237.728,246.355,245.612,239.025,0.727348,0.796192,235.386,240.964
2015-09-10 14:00,0.5586,287.444,259.706,246.667,262.329,262.008,251.159,0.662152,0.721843,237.849,250.544
2015-09-10 15:00,0.506193,287.01,260.201,246.934,262.329,262.185,250.501,0.591972,0.648463,239.104,252.146
2015-09-10 16:00,0.501335,286.717,259.706,246.934,262.329,261.831,250.765,0.572422,0.633677,239.894,253.309
2015-09-10 17:00,0.543374,286.421,256.992,245.04,259.051,258.591,248.499,0.638368,0.709124,237.528,250.748
2015-09-10 18:00,0.628652,289.381,259.54,246.934,261.431,260.225,248.903,0.663853,0.736278,234.329,249.928
2015-09-10 19:00,0.5831,265.095,238.585,234.845,237.451,235.677,231.094,0.686277,0.771871,223.013,231.53
2015-09-10 20:00,0.689576,262.074,233.666,231.973,231.408,229.385,226.056,0.745435,0.897575,221.031,226.187
2015-09-10 21:00,0.687207,245.913,221.481,226.481,219.847,218.857,218.025,0.637272,0.858962,215.593,218.41
2015-09-10 22:00,-0.0057769,244.063,225.937,228.564,223.443,221.283,219.172,-0.0,-0.0,216.56,219.608
2015-09-10 23:00,-0.10095,266.466,248.985,240.32,246.355,241.921,231.094,-0.0508226,-0.0936519,224.156,234.082
2015-09-11 00:00,-0.00186301,261.666,250.371,241.061,247.446,244.328,235.537,-0.0,-0.0,225.739,236.614
2015-09-11 01:00,-0.0,240.898,230.559,230.921,228.871,226.974,223.77,-0.0,-0.0,219.863,225.604
2015-09-11 02:00,-0.0,246.775,235.011,233.175,231.957,229.647,225.36,-0.0,-0.00132399,219.26,226.57
2015-09-11 03:00,-0.0,235.601,226.583,228.564,224.694,223.043,221.046,0.0010547,-0.0,218.767,223.377
2015-09-11 04:00,-0.00126606,233.989,223.252,227.628,222.162,219.777,217.832,-0.0,-0.00127816,216.56,220.535
2015-09-11 05:00,0.00138012,232.213,224.279,228.378,221.511,218.857,217.639,-0.0,-0.0,216.012,220.763
2015-09-11 06:00,-0.0,235.601,231.997,231.098,230.574,228.856,226.229,-0.0,-0.0,222.476,227.877
2015-09-11 07:00,-0.00218321,225.382,221.841,226.092,221.182,220.384,219.172,-0.0,-0.0,217.36,220.763
2015-09-11 08:00,-0.0,227.984,227.845,229.301,227.414,225.874,225.009,-0.0,-0.0,221.371,225.408
2015-09-11 09:00,-0.0,246.775,245.676,238.04,246.135,245.186,239.765,-0.0,-0.0,229.178,239.656
2015-09-11 11:00,0.832737,286.121,251.53,242.369,252.667,250.156,242.527,0.851858,0.946956,230.755,242.478
2015-09-11 12:00,0.419714,257.103,242.142,235.985,241.344,240.576,236.0,0.889286,0.966178,226.592,235.74
2015-09-11 13:00,0.537996,285.045,262.3,248.382,264.27,263.933,251.944,0.797835,0.859702,232.784,248.669
2015-09-11 14:00,0.474258,285.512,258.534,246.265,260.888,260.045,248.229,0.770134,0.827003,230.593,246.929
2015-09-11 15:00,0.393789,298.533,275.951,256.778,278.128,275.551,257.53,0.354608,0.370961,232.633,250.032
2015-09-11 16:00,0.462262,297.649,256.469,245.451,256.789,252.536,244.372,0.456062,0.488324,232.784,242.105
2015-09-11 17:00,0.516869,291.931,260.692,247.465,263.217,260.942,246.319,0.646502,0.699699,232.709,247.151
2015-09-11 18:00,0.616384,290.939,262.774,248.642,265.31,264.623,252.335,0.744068,0.812516,233.382,249.617
2015-09-11 19:00,0.400519,285.357,264.635,250.806,265.997,264.623,252.853,0.484164,0.482295,232.02,248.025
2015-09-11 20:00,0.427854,284.888,271.984,254.808,274.778,272.246,255.027,0.417151,0.488664,232.86,249.721
2015-09-11 21:00,0.353801,233.989,223.94,227.438,223.125,222.753,221.598,0.435727,0.519538,219.624,221.658
2015-09-11 22:00,-0.00578817,278.279,275.951,256.892,277.678,275.396,257.653,-0.0,-0.0,235.662,251.452
2015-09-11 23:00,-0.0928253,238.442,230.559,230.565,230.012,229.385,227.26,-0.0462324,-0.0826877,223.849,227.694
2015-09-12 00:00,-0.0,254.396,255.409,244.21,256.213,255.614,246.457,-0.0,-0.0,237.333,248.133
2015-09-12 01:00,-0.00297873,262.475,263.401,249.542,266.167,265.309,252.335,-0.0,-0.0,239.288,252.731
2015-09-12 02:00,-0.0,258.096,260.036,247.2,262.863,262.537,250.896,-0.0,-0.0,238.919,251.85
2015-09-12 03:00,-0.0,259.045,260.365,247.465,262.863,262.361,251.028,-0.0,-0.0,238.981,251.85
2015-09-12 04:00,-0.0,259.045,258.871,246.667,261.069,260.405,249.971,-0.0,-0.0,238.168,250.849
2015-09-12 05:00,0.0013831,256.062,258.365,245.995,260.706,260.045,249.572,-0.0,-0.0,238.795,251.252
2015-09-12 06:00,-0.0,258.096,256.992,245.451,259.051,258.224,248.499,-0.0,-0.0,239.653,250.442
2015-09-12 07:00,-0.00219443,284.087,282.799,260.876,284.501,281.882,260.219,-0.0,-0.0,240.665,256.001
2015-09-12 08:00,-0.0,275.48,273.732,255.393,274.933,271.444,254.9,-0.0,-0.0,240.193,253.974
2015-09-12 09:00,-0.0139605,266.131,263.401,249.669,265.654,262.888,250.369,-0.0118204,-0.014094,240.548,252.537
2015-09-12 10:00,0.860239,276.811,258.534,245.995,261.069,260.764,250.236,0.792255,0.937026,240.134,252.146
2015-09-12 11:00,0.9685,293.816,268.343,252.656,271.142,269.0,255.406,0.762937,0.866368,240.957,255.548
2015-09-12 12:00,0.632513,297.045,278.721,258.358,281.799,279.81,260.34,0.482675,0.516542,241.015,257.682
2015-09-12 13:00,0.586011,296.84,280.429,259.244,283.656,282.613,261.66,0.512267,0.534051,241.817,258.028
2015-09-12 14:00,0.358754,299.391,284.185,262.155,286.722,283.773,261.898,0.255671,0.283873,241.817,257.682
2015-09-12 15:00,0.337301,297.947,285.095,262.471,287.27,284.779,261.898,0.27448,0.298125,241.817,257.508
2015-09-12 16:00,0.289865,300.769,285.882,262.89,286.585,283.194,261.182,0.222808,0.24274,242.266,257.508
2015-09-12 17:00,0.405603,303.917,276.208,257.572,277.828,274.147,257.53,0.323586,0.351828,242.155,256.894
2015-09-12 18:00,0.286295,299.858,289.699,265.052,291.292,287.469,262.728,0.267687,0.280166,242.322,257.421
2015-09-12 19:00,0.466796,301.565,287.432,263.618,288.897,285.208,261.779,0.476727,0.493121,243.31,258.028
2015-09-12 20:00,0.973347,297.349,278.968,258.358,281.655,279.959,259.249,0.875184,0.973956,243.579,258.457
2015-09-12 21:00,1.26499,283.76,280.909,259.464,283.23,280.85,259.735,0.749743,0.957809,243.472,258.457
2015-09-12 22:00,-0.00579967,278.883,279.823,258.58,282.231,280.85,260.701,-0.0,-0.0,243.364,258.882
2015-09-12 23:00,-0.0819611,271.798,271.023,253.261,273.215,271.926,256.909,-0.0370114,-0.0634375,243.579,257.07
2015-09-13 00:00,0.00186475,277.661,277.476,257.459,278.873,274.46,257.282,-0.0,-0.0,242.544,255.73
2015-09-13 01:00,-0.0,278.684,278.101,257.572,279.76,277.701,258.392,-0.0,-0.0,241.986,256.805
2015-09-13 02:00,0.0013134,261.666,260.528,247.465,263.393,261.831,250.369,-0.0,-0.0,241.361,252.342
2015-09-13 03:00,-0.0,272.061,271.299,253.741,273.372,271.765,256.785,-0.0,-0.0,240.899,254.162
2015-09-13 04:00,-0.0,256.062,257.166,245.723,259.974,259.864,249.971,-0.0,-0.0,241.189,251.452
2015-09-13 05:00,-0.0,262.869,261.179,247.859,263.217,261.121,250.104,-0.0,-0.0,241.647,251.949
2015-09-13 06:00,-0.0,253.206,256.118,244.626,259.051,258.957,248.499,-0.0,-0.0,241.533,251.051
2015-09-13 07:00,0.00220592,254.396,255.764,244.488,258.491,258.224,249.037,-0.0,-0.0,241.59,250.849
2015-09-13 08:00,-0.00370983,262.475,259.54,246.667,261.25,259.139,248.364,-0.0,-0.0,241.704,250.849
2015-09-13 09:00,-0.0,266.131,266.145,250.429,268.191,264.967,251.159,-0.0123329,-0.0147051,241.704,253.405
2015-09-13 10:00,0.663313,284.57,264.788,249.542,265.997,262.712,250.369,0.542905,0.639892,241.073,251.949
2015-09-13 11:00,0.816322,293.007,257.339,245.04,259.421,258.224,248.364,0.590971,0.692388,240.899,250.34
2015-09-13 13:00,0.340423,302.341,283.726,261.198,284.501,277.701,257.158,0.218846,0.270487,238.919,253.69
2015-09-13 14:00,0.354556,301.74,286.772,262.786,288.222,283.773,260.581,0.244133,0.288306,239.593,256.001
2015-09-13 15:00,0.299523,302.341,286.105,262.576,286.447,280.257,257.777,0.191589,0.235043,238.671,254.536
2015-09-13 16:00,0.318287,301.125,288.52,264.339,290.632,287.329,262.847,0.237921,0.274273,239.41,256.36
2015-09-13 17:00,0.334394,300.317,286.992,263.099,289.434,286.343,262.61,0.278185,0.306632,238.608,256.36
2015-09-13 18:00,0.444959,302.511,276.845,257.12,279.17,276.169,257.777,0.379713,0.417379,238.857,255.548
2015-09-13 19:00,0.568726,299.858,285.321,262.155,288.087,285.35,262.017,0.499826,0.542669,239.227,256.36
2015-09-13 20:00,0.356253,293.93,289.486,264.543,291.292,288.027,262.492,0.479715,0.459323,239.714,256.894
2015-09-13 21:00,0.466573,289.113,288.303,264.031,290.234,287.888,263.318,0.711084,0.847859,240.312,257.07
2015-09-13 22:00,-0.0,287.01,287.102,263.618,289.568,287.469,262.965,-0.0,-0.0,240.134,256.982
2015-09-13 23:00,-0.0683508,286.864,286.882,262.995,289.166,287.609,263.553,-0.0300937,-0.0469229,240.074,257.769
2015-09-14 00:00,0.00186574,286.271,286.439,262.995,288.897,287.188,263.436,-0.0,-0.0,240.782,258.028
2015-09-14 01:00,-0.0,285.512,286.328,262.786,288.628,287.469,263.083,-0.0,-0.0,240.371,257.855
2015-09-14 02:00,-0.00131447,283.594,284.642,261.731,286.722,284.922,262.373,-0.0,-0.0,241.304,257.942
2015-09-14 03:00,-0.00124972,284.57,285.546,262.261,287.951,286.907,263.787,-0.0,-0.0,240.899,258.967
2015-09-14 04:00,-0.00127195,284.41,285.321,262.155,287.951,286.907,262.965,-0.0,-0.0,240.489,258.967
2015-09-14 05:00,-0.0,283.924,285.433,262.155,287.951,287.048,263.905,-0.0,-0.0,244.217,260.789
2015-09-14 06:00,-0.0,283.428,284.642,261.731,287.407,286.343,263.553,-0.0,-0.0,238.608,258.114
2015-09-14 07:00,0.00221769,283.093,284.982,261.731,287.543,286.767,263.787,-0.0,-0.0,239.714,258.543
2015-09-14 08:00,-0.0,283.093,284.642,261.731,287.407,286.767,263.67,-0.0,-0.0,239.954,258.713
2015-09-14 09:00,-0.0,283.261,284.869,261.519,287.543,287.188,264.138,-0.0128953,-0.0307515,240.724,259.135
2015-09-14 10:00,0.417709,285.97,286.55,262.786,289.166,288.306,263.905,0.298793,0.378078,240.665,259.387
2015-09-14 11:00,0.474794,293.472,289.911,264.645,292.34,290.511,264.721,0.239169,0.361017,241.361,259.638
2015-09-14 12:00,0.409631,299.95,294.346,267.446,296.433,293.617,265.532,0.196988,0.303134,241.704,259.804
2015-09-14 13:00,0.312105,302.932,296.815,269.096,298.549,295.076,266.108,0.152712,0.23592,242.266,260.627
2015-09-14 14:00,0.256961,305.339,298.834,270.334,300.384,296.65,266.566,0.124491,0.195603,242.099,260.627
2015-09-14 15:00,0.218994,306.991,299.872,270.899,301.472,297.17,266.681,0.109267,0.17108,241.647,260.545
2015-09-14 16:00,0.201822,307.571,300.712,271.459,302.311,297.818,266.337,0.103429,0.158175,242.322,260.627
2015-09-14 17:00,0.193684,306.475,300.153,271.086,301.832,297.43,266.566,0.112205,0.160251,242.984,260.952
2015-09-14 18:00,0.195697,304.794,299.213,270.899,301.11,297.3,267.251,0.143505,0.178164,243.686,261.275
2015-09-14 19:00,0.22258,301.74,297.107,269.384,299.164,295.602,267.137,0.222907,0.239205,244.687,261.914
2015-09-14 20:00,0.273781,297.749,294.346,267.838,296.433,293.75,266.452,0.416533,0.388685,244.739,262.23
2015-09-14 21:00,0.52024,292.053,291.798,266.059,294.277,292.41,265.878,0.647774,0.772373,244.531,262.072
2015-09-14 22:00,-0.00582355,289.647,290.756,265.153,293.377,292.006,266.108,-0.0,-0.0,244.479,262.23
2015-09-14 23:00,-0.03557,289.779,290.229,264.849,292.86,291.735,265.762,-0.0162169,-0.0276231,245.202,262.701
2015-09-15 00:00,-0.0,288.841,290.017,264.543,292.34,291.057,265.301,-0.0,-0.0,245.253,262.388
2015-09-15 01:00,-0.0,289.113,289.911,264.747,292.34,290.921,265.532,-0.0,-0.0,244.426,262.072
2015-09-15 02:00,-0.0013156,288.568,289.165,264.133,291.423,290.101,264.953,-0.0,-0.0,243.74,261.033
2015-09-15 03:00,-0.0,285.045,284.414,261.305,286.722,284.349,261.898,-0.0,-0.0,242.82,258.882
2015-09-15 04:00,0.00127405,287.444,288.412,264.133,291.029,289.689,265.416,-0.0,-0.0,244.583,260.135
2015-09-15 05:00,-0.0,287.3,288.52,263.928,291.029,290.101,265.069,-0.0,-0.0,245.658,260.627
2015-09-15 06:00,-0.0,287.3,288.52,264.236,291.16,290.238,265.185,-0.0,-0.0,245.91,260.708
2015-09-15 07:00,-0.0,286.421,287.978,263.825,291.029,290.101,264.837,-0.0,-0.0,245.91,261.194
2015-09-15 08:00,-0.0,286.121,287.76,263.618,290.764,289.826,265.301,-0.0,-0.0,245.96,261.113
2015-09-15 09:00,-0.0,286.271,287.651,263.515,290.234,289.413,264.488,-0.0135148,-0.0161143,246.258,261.033
2015-09-15 10:00,0.478775,289.647,289.165,264.645,291.948,290.375,265.069,0.304034,0.390946,246.258,261.515
2015-09-15 11:00,0.505918,296.427,292.827,266.657,294.916,293.216,265.993,0.246937,0.381564,246.456,262.388
2015-09-15 12:00,0.416907,301.565,296.131,268.807,298.178,295.339,266.566,0.200755,0.309186,246.701,263.012
2015-09-15 13:00,0.319966,305.028,298.644,270.805,300.869,297.17,267.251,0.15462,0.23636,246.554,262.23
2015-09-15 14:00,0.257321,307.714,300.898,272.2,302.669,298.463,267.137,0.124003,0.192072,246.603,261.755
2015-09-15 15:00,0.226058,308.976,301.728,272.843,303.499,298.976,267.478,0.107802,0.167885,246.554,260.789
2015-09-15 16:00,0.223734,308.351,299.872,271.923,301.712,297.43,266.452,0.124422,0.176422,246.307,261.194
2015-09-15 17:00,0.210595,306.326,298.453,271.273,299.776,295.339,266.222,0.132811,0.177418,246.357,260.952
2015-09-15 18:00,0.177772,304.398,298.549,271.086,299.654,295.734,266.108,0.123957,0.156598,246.603,260.789
2015-09-15 19:00,0.269742,300.769,294.145,268.13,296.056,292.41,264.255,0.244559,0.28196,246.554,260.708
2015-09-15 20:00,0.238766,298.726,296.033,269.765,297.807,294.944,266.452,0.292414,0.288397,246.798,261.355
2015-09-15 21:00,0.120461,293.472,293.336,267.838,295.803,293.617,266.566,0.382479,0.334436,245.96,260.463
2015-09-15 22:00,-0.005836,291.563,291.591,267.052,294.277,292.141,265.762,-0.0,-0.0,246.159,259.638
2015-09-15 23:00,-0.0219073,290.558,290.756,266.259,293.248,291.464,264.953,-0.011593,-0.0165875,246.505,260.052
2015-09-16 00:00,-0.00186799,289.647,290.335,266.159,292.86,291.6,265.301,-0.0,-0.0,247.041,260.871
2015-09-16 01:00,-0.0,288.705,289.805,265.557,292.34,290.784,265.185,-0.0,-0.0,245.456,259.638
2015-09-16 02:00,-0.0,288.012,289.379,265.456,291.948,290.784,264.837,-0.0,-0.0,245.91,259.387
2015-09-16 03:00,-0.0,287.01,288.087,264.95,290.764,289.551,264.953,-0.0,-0.0,245.91,259.638
2015-09-16 04:00,-0.0,286.864,287.978,264.747,290.897,289.689,264.605,-0.0,-0.0,244.164,258.2
2015-09-16 05:00,0.00139594,286.569,287.978,264.747,290.764,289.964,264.605,-0.0,-0.0,244.217,258.028
2015-09-16 06:00,-0.0,286.717,288.087,264.441,290.764,289.413,264.953,-0.0,-0.0,244.479,257.942
2015-09-16 07:00,-0.0,286.421,286.882,263.825,289.3,287.609,264.138,-0.0,-0.0,244.269,257.508
2015-09-16 08:00,-0.0,286.717,288.087,264.645,290.764,289.413,264.255,-0.0,-0.0,244.479,258.713
2015-09-16 09:00,0.0167709,287.01,287.978,264.339,290.5,289.137,264.721,-0.0283997,-0.0338624,244.322,259.051
2015-09-16 10:00,0.475173,289.779,289.165,264.95,291.555,289.826,264.837,0.291542,0.396287,244.426,259.387
2015-09-16 11:00,0.501082,296.943,292.211,266.756,294.277,291.871,264.837,0.244576,0.380892,244.426,259.638
2015-09-16 12:00,0.410357,301.913,295.639,269.0,297.309,294.016,265.416,0.196167,0.307241,245.202,260.217
2015-09-16 13:00,0.316888,305.416,298.739,271.179,300.384,296.127,266.222,0.151252,0.236802,245.405,260.789
2015-09-16 14:00,0.261778,307.786,300.433,272.108,301.952,297.43,266.452,0.123522,0.196834,246.009,260.708
2015-09-16 15:00,0.225313,309.113,301.083,272.66,302.072,297.17,266.337,0.105254,0.168639,246.307,260.627
2015-09-16 16:00,0.211206,308.769,299.966,271.738,300.869,295.996,265.993,0.108414,0.161251,246.406,260.545
2015-09-16 17:00,0.25205,306.251,296.327,269.67,297.558,292.814,264.138,0.165577,0.216436,246.307,260.627
2015-09-16 18:00,0.325103,304.398,289.379,265.456,289.032,284.779,261.54,0.229632,0.284332,245.91,259.135
2015-09-16 19:00,0.314288,297.248,285.433,263.307,286.585,283.629,261.898,0.286267,0.312485,245.304,258.628
2015-09-16 20:00,0.0637461,293.124,292.108,267.052,294.021,291.329,264.605,0.147528,0.111549,244.217,258.543
2015-09-16 21:00,0.118569,291.065,290.965,265.658,292.209,290.101,264.721,0.326274,0.299256,244.79,258.798
2015-09-16 22:00,-0.00584887,288.012,288.195,264.747,290.101,287.888,263.67,-0.0,-0.0,245.507,258.372
2015-09-16 23:00,-0.0191857,288.705,289.058,264.95,291.423,289.689,264.837,-0.0116032,-0.0138351,245.709,259.471
2015-09-17 00:00,0.00186925,287.871,288.843,264.95,291.029,289.689,265.069,-0.0,-0.0,245.608,259.554
2015-09-17 01:00,-0.00149423,287.444,288.412,264.645,290.632,289.413,264.255,-0.0,-0.0,243.418,258.798
2015-09-17 02:00,-0.0,283.261,279.336,258.802,280.054,277.396,256.16,-0.0,-0.0,236.675,250.748
2015-09-17 03:00,-0.0,287.01,287.541,264.543,290.101,288.445,264.605,-0.0,-0.0,241.874,257.595
2015-09-17 04:00,-0.0,287.155,287.76,263.928,289.968,288.584,264.721,-0.0,-0.0,241.419,257.682
2015-09-17 05:00,-0.0,286.864,287.651,263.928,289.968,288.722,264.138,-0.0,-0.0,242.765,257.942
2015-09-17 06:00,-0.0,286.421,287.651,264.031,290.101,289.276,264.255,-0.0,-0.0,243.953,259.304
2015-09-17 07:00,-0.00225466,283.428,281.505,260.337,282.803,280.85,259.127,-0.0,-0.0,240.371,255.548
2015-09-17 08:00,-0.0,285.045,284.642,262.366,286.585,284.922,261.421,-0.0,-0.0,243.364,258.543
2015-09-17 09:00,-0.0706798,285.512,285.658,263.099,287.543,285.919,262.255,-0.0299222,-0.0535166,244.635,259.554
2015-09-17 10:00,0.471717,289.647,288.195,264.441,290.234,288.306,263.787,0.290993,0.394588,245.099,260.052
2015-09-17 11:00,0.499266,297.146,292.314,267.151,294.277,291.464,264.488,0.244737,0.383187,245.507,260.708
2015-09-17 12:00,0.413656,303.015,296.327,269.288,298.055,294.282,265.878,0.196598,0.311238,245.405,260.627
2015-09-17 13:00,0.315395,305.722,298.834,270.899,300.384,295.865,266.337,0.15054,0.238807,245.507,260.871
2015-09-17 14:00,0.260776,308.561,301.083,272.66,302.788,297.818,266.795,0.123049,0.198823,245.608,260.871
2015-09-17 15:00,0.224581,310.254,302.822,273.752,304.559,299.36,266.681,0.104912,0.172,245.557,260.708
2015-09-17 16:00,0.207971,310.32,303.093,273.752,304.793,299.87,267.932,0.0991891,0.159462,245.099,260.627
2015-09-17 17:00,0.197939,309.453,302.459,273.48,304.324,299.616,267.023,0.101536,0.161907,245.608,260.789
2015-09-17 18:00,0.209844,306.623,299.966,271.645,302.072,297.818,267.137,0.135092,0.182086,245.048,260.871
2015-09-17 19:00,0.199496,303.346,298.358,270.711,300.141,296.389,266.909,0.170924,0.206198,245.048,261.275
2015-09-17 20:00,0.279576,299.95,296.523,269.765,298.549,295.471,266.681,0.312035,0.32929,245.355,261.113
2015-09-17 21:00,0.525266,293.24,292.622,267.151,294.788,292.679,265.532,0.592989,0.677589,245.759,261.595
2015-09-17 22:00,-0.0,290.813,291.07,266.059,293.119,291.193,265.762,-0.0,-0.0,245.456,261.595
2015-09-17 23:00,-0.0384072,290.041,290.229,265.355,292.34,291.057,265.647,-0.011614,-0.013848,245.253,261.515
2015-09-18 00:00,0.00187061,289.113,289.911,265.456,291.948,290.784,265.762,-0.0,-0.0,245.709,262.072
2015-09-18 01:00,-0.0,288.977,289.593,264.95,291.686,290.648,265.301,-0.0,-0.0,245.658,262.388
2015-09-18 02:00,-0.0013194,288.152,288.951,264.747,291.292,290.101,265.069,-0.0,-0.0,245.405,262.23
2015-09-18 03:00,-0.00125606,287.587,288.52,264.236,290.764,289.551,265.301,-0.0,-0.0,245.304,261.993
2015-09-18 04:00,-0.0,285.97,286.55,263.099,288.493,286.626,263.2,-0.0,-0.0,245.355,261.675
2015-09-18 05:00,-0.0,287.3,287.978,263.825,290.101,288.861,264.488,-0.0,-0.0,244.997,261.993
2015-09-18 06:00,0.00167524,287.444,288.195,263.928,290.101,288.722,265.069,-0.0,-0.0,244.426,261.755
2015-09-18 07:00,-0.0,285.512,286.439,263.203,288.628,287.329,263.905,-0.0,-0.0,244.374,261.595
2015-09-18 08:00,-0.00391128,285.818,286.772,262.89,288.358,287.188,264.138,-0.0,-0.0,244.111,261.275
2015-09-18 09:00,-0.0,286.271,287.541,263.618,289.701,288.722,264.372,-0.0474341,-0.0377053,244.426,261.275
2015-09-18 10:00,0.488198,290.558,289.911,265.153,292.209,290.921,265.416,0.301638,0.426261,243.953,261.675
2015-09-18 11:00,0.50328,299.108,294.945,268.033,297.184,294.812,266.452,0.249798,0.402969,244.687,262.701
2015-09-18 12:00,0.413048,304.078,299.118,270.428,301.352,298.463,267.932,0.197029,0.328899,244.894,263.09
2015-09-18 13:00,0.318543,307.714,302.185,272.476,304.442,301.012,268.609,0.151142,0.250124,245.048,263.012
2015-09-18 14:00,0.26385,310.32,304.616,274.112,306.997,303.018,269.618,0.121439,0.20217,245.253,263.552
2015-09-18 15:00,0.223861,311.674,306.199,275.184,308.596,304.504,270.175,0.103486,0.174047,245.658,263.782
2015-09-18 16:00,0.207387,312.484,306.894,275.715,309.613,305.486,270.397,0.094465,0.159014,245.048,263.706
2015-09-18 17:00,0.195994,312.175,307.84,276.067,310.622,307.19,272.16,0.0915154,0.155675,245.304,264.54
2015-09-18 18:00,0.198957,309.249,305.937,275.007,308.936,305.853,271.282,0.101074,0.165927,244.997,264.765
2015-09-18 19:00,0.215583,305.339,302.731,272.934,305.493,302.769,270.064,0.138404,0.19851,244.945,263.476
2015-09-18 20:00,0.236456,300.317,299.307,270.617,302.072,299.998,269.618,0.228808,0.264294,245.151,263.782
2015-09-18 21:00,0.430975,293.702,294.546,267.74,297.184,296.258,268.497,0.559522,0.609133,245.355,264.765
2015-09-18 22:00,-0.0,289.91,291.902,265.658,293.764,293.617,267.932,-0.0,-0.0,246.307,265.655
2015-09-18 23:00,-0.0494297,289.514,291.279,265.254,292.989,293.216,268.271,-0.0139507,-0.0138617,247.138,267.032
2015-09-19 00:00,-0.00187207,288.841,291.279,264.95,292.989,293.483,268.271,-0.0,-0.0,247.522,268.441
2015-09-19 01:00,0.00149671,288.705,291.591,265.052,293.119,293.883,268.722,-0.0,-0.0,247.902,269.063
2015-09-19 02:00,-0.0,288.568,291.174,264.645,292.6,293.082,268.045,-0.0,-0.0,247.712,269.201
2015-09-19 03:00,-0.0,286.717,289.911,264.031,291.292,292.006,268.045,-0.0,-0.0,248.277,269.063
2015-09-19 04:00,-0.00128321,286.121,288.628,263.515,290.101,290.648,267.592,-0.0,-0.0,248.741,268.441
2015-09-19 05:00,-0.0,285.357,288.303,263.203,289.835,290.375,267.023,-0.0,-0.0,247.712,267.388
2015-09-19 06:00,-0.0,285.202,287.869,262.89,289.568,289.826,267.137,-0.0,-0.0,247.57,267.032
2015-09-19 07:00,-0.0,284.57,287.322,262.366,289.166,289.964,266.681,-0.0,0.00230249,247.902,267.53
2015-09-19 08:00,-0.0039551,284.41,287.102,262.155,288.763,289.551,266.795,-0.0,-0.0,248.833,267.812
2015-09-19 09:00,-0.0396045,284.888,287.541,262.576,289.166,289.551,266.909,-0.033533,-0.0599746,249.108,267.671
2015-09-19 10:00,0.510467,290.301,291.383,265.153,293.506,293.483,267.705,0.295436,0.476206,249.154,267.317
2015-09-19 11:00,0.518698,299.95,297.879,269.0,300.384,299.87,270.175,0.249921,0.448435,249.471,268.163
2015-09-19 12:00,0.424026,305.261,302.003,271.459,304.91,303.267,270.619,0.197462,0.356084,249.381,267.317
2015-09-19 13:00,0.317077,307.571,304.26,273.207,307.226,305.241,271.282,0.147852,0.265984,249.108,266.601
2015-09-19 14:00,0.262866,310.778,307.325,275.45,310.734,308.154,272.16,0.119844,0.217747,248.925,266.529
2015-09-19 15:00,0.223155,312.113,308.862,276.067,312.286,309.827,273.25,0.100988,0.182561,248.51,266.673
2015-09-19 16:00,0.202886,312.729,309.115,276.242,312.727,310.302,273.467,0.0919873,0.166504,249.651,267.103
2015-09-19 17:00,0.195503,311.165,309.452,275.979,312.617,311.011,274.975,0.0888519,0.163993,250.097,268.511
2015-09-19 18:00,0.195033,308.351,307.583,275.007,310.734,309.351,273.683,0.0949887,0.170761,250.274,268.58
2015-09-19 19:00,0.21269,304.715,303.093,272.66,306.19,304.257,271.282,0.130061,0.202794,250.142,266.529
2015-09-19 20:00,0.252542,299.858,299.496,270.428,302.191,300.885,270.286,0.224518,0.276202,250.274,266.96
2015-09-19 21:00,0.452666,293.007,294.245,267.151,296.307,295.734,268.384,0.574908,0.68549,250.142,267.103
2015-09-19 22:00,-0.00589035,289.91,291.798,265.456,293.764,293.617,268.045,-0.0,-0.00594666,250.097,267.388
2015-09-19 23:00,-0.0659757,289.247,291.174,264.849,292.989,292.948,268.158,-0.0162929,-0.0166516,249.964,267.53
2015-09-20 00:00,-0.0,289.647,291.383,265.254,293.377,293.216,267.592,-0.0,-0.0,249.875,267.103
2015-09-20 01:00,-0.00149806,289.514,291.279,265.254,293.248,293.216,268.045,-0.0,-0.0,249.83,267.317
2015-09-20 02:00,-0.0,287.3,289.593,264.031,291.423,291.6,267.705,-0.0,-0.0,249.516,267.246
2015-09-20 03:00,-0.0,285.818,288.303,263.203,289.968,290.238,267.478,-0.0,-0.0,249.108,266.96
2015-09-20 04:00,-0.00128568,284.41,286.882,262.155,288.358,288.861,266.452,-0.0,-0.0,249.335,267.032
2015-09-20 05:00,-0.0,284.087,286.217,261.838,287.815,288.027,266.337,-0.0,-0.0,249.29,266.094
2015-09-20 06:00,-0.00168777,284.249,286.105,261.731,287.951,288.027,265.993,-0.0,-0.0,248.879,265.875
2015-09-20 07:00,-0.0,283.594,285.994,261.944,287.679,287.888,265.185,-0.0,-0.0,249.017,266.021
2015-09-20 08:00,-0.00400014,284.087,286.217,262.049,287.951,288.167,265.993,-0.0,-0.0,249.561,266.166
2015-09-20 09:00,-0.0210777,283.594,285.882,261.625,287.543,288.167,266.222,-0.0535393,-0.0851167,249.426,266.094
2015-09-20 10:00,0.500194,289.647,289.805,263.928,291.817,291.871,266.566,0.294851,0.473015,249.516,266.166
2015-09-20 11:00,0.516815,299.485,296.815,268.13,299.287,298.334,268.834,0.254858,0.450086,248.51,266.239
2015-09-20 12:00,0.419561,304.95,301.636,271.459,304.676,303.018,270.73,0.197897,0.359746,248.879,266.888
2015-09-20 13:00,0.315638,308.14,304.97,273.571,308.141,305.975,271.612,0.148472,0.267855,249.108,267.103
2015-09-20 14:00,0.2619,311.611,308.011,275.539,311.512,309.113,273.467,0.120541,0.22237,249.154,267.317
2015-09-20 15:00,0.225018,313.692,310.29,276.592,313.712,311.011,273.791,0.100674,0.187156,248.833,267.459
2015-09-20 16:00,0.204945,313.988,310.539,276.679,314.039,311.482,274.223,0.091737,0.171322,248.51,267.103
2015-09-20 17:00,0.19789,312.237,309.368,275.715,313.056,310.775,273.358,0.0898472,0.166485,248.464,266.817
2015-09-20 18:00,0.199743,309.856,307.067,274.471,310.622,308.514,272.706,0.110804,0.18253,248.137,266.384
2015-09-20 19:00,0.219247,305.646,303.723,272.476,307.112,305.119,271.941,0.153699,0.230863,247.76,266.239
2015-09-20 20:00,0.276921,301.037,298.739,269.479,301.952,300.632,269.953,0.465384,0.470183,247.57,265.581
2015-09-20 21:00,0.390044,292.771,293.235,265.959,295.55,295.076,268.384,0.566142,0.646912,247.283,265.286
2015-09-20 22:00,-0.0,289.647,290.965,264.339,293.119,292.679,267.478,-0.0,-0.0,247.522,265.948
2015-09-20 23:00,-0.0605454,288.841,290.335,264.031,292.34,292.276,267.137,-0.0186413,-0.0194486,247.331,265.875
2015-09-21 00:00,-0.0,288.43,290.017,263.721,292.079,291.871,267.251,-0.0,-0.0,247.379,265.801
2015-09-21 01:00,-0.0,287.01,288.628,263.203,290.632,290.375,266.909,-0.0,-0.0,247.76,265.507
2015-09-21 02:00,-0.00132383,285.202,287.651,262.681,289.568,289.137,266.681,-0.0,-0.0,247.949,265.434
2015-09-21 03:00,-0.00126152,285.357,287.102,262.261,288.763,288.861,266.222,-0.0,-0.0,247.902,264.914
2015-09-21 04:00,-0.00128822,285.045,286.661,262.049,288.493,288.584,266.337,-0.0,-0.0,247.379,265.137
2015-09-21 05:00,0.00141401,284.41,286.217,261.731,287.951,288.167,265.878,-0.0,-0.0,247.138,265.212
2015-09-21 06:00,-0.0,284.249,286.105,261.731,287.951,288.027,266.108,-0.0,-0.0,247.041,264.69
2015-09-21 07:00,-0.0,284.57,286.328,261.625,288.358,288.584,265.647,-0.0,-0.0,247.283,264.839
2015-09-21 08:00,-0.0,284.888,286.55,261.731,288.358,288.306,265.878,-0.0,-0.0,247.807,265.286
2015-09-21 09:00,-0.0,283.76,285.658,260.984,287.407,287.609,265.185,-0.0572293,-0.0682373,248.417,265.728
2015-09-21 10:00,0.496551,289.647,289.805,263.618,291.948,291.871,266.909,0.2943,0.476233,248.464,265.801
2015-09-21 11:00,0.512172,299.108,296.327,267.544,298.918,297.559,268.609,0.252568,0.443201,248.787,265.655
2015-09-21 12:00,0.418976,304.95,300.99,270.617,304.089,302.269,270.397,0.199948,0.351843,248.51,266.021
2015-09-21 13:00,0.314224,308.491,304.881,272.476,308.141,305.853,271.392,0.150378,0.26359,248.649,266.456
2015-09-21 14:00,0.263628,311.42,307.669,274.471,311.29,308.874,272.597,0.123504,0.216161,249.062,266.745
2015-09-21 15:00,0.224329,313.692,309.956,275.273,313.603,311.011,273.575,0.102524,0.185296,249.29,267.174
2015-09-21 16:00,0.203095,314.28,310.788,276.155,314.365,311.599,274.115,0.0925938,0.168235,249.199,267.174
2015-09-21 17:00,0.19598,312.912,309.031,274.918,312.507,309.589,273.25,0.0932633,0.164637,248.417,265.655
2015-09-21 18:00,0.201002,309.789,306.286,273.207,309.613,306.826,271.832,0.10764,0.176908,248.649,265.286
2015-09-21 19:00,0.216372,305.646,303.364,271.83,306.536,304.381,271.502,0.145366,0.208943,248.787,265.286
2015-09-21 20:00,0.267688,300.858,299.59,269.575,302.55,300.759,270.286,0.254983,0.304028,249.017,265.948
2015-09-21 21:00,0.521295,293.472,293.641,265.658,296.056,294.812,268.045,0.603993,0.747869,249.381,265.581
2015-09-21 22:00,-0.0059209,289.779,291.07,264.339,292.989,292.545,267.137,-0.0,0.0059775,249.875,265.728
2015-09-21 23:00,-0.217671,288.568,289.911,263.515,292.079,291.6,266.681,-0.0186635,-0.0222534,249.875,265.728
2015-09-22 00:00,0.00187711,287.3,288.951,263.099,290.897,290.648,266.681,-0.0,-0.0,249.919,266.166
2015-09-22 01:00,-0.0,286.717,288.52,263.203,290.632,290.511,267.251,-0.0,-0.0,250.142,266.094
2015-09-22 02:00,-0.0,287.3,288.951,263.099,290.764,290.648,266.795,-0.0,-0.0,249.875,266.601
2015-09-22 03:00,-0.00126348,286.717,288.52,262.681,290.5,290.511,266.795,-0.0,0.00127556,249.741,266.312
2015-09-22 04:00,0.00129084,286.121,288.087,262.366,289.968,289.826,266.108,-0.0,-0.0,249.516,266.312
2015-09-22 05:00,-0.0,285.357,287.322,262.261,289.166,289.276,266.108,-0.0,-0.0,249.561,266.166
2015-09-22 06:00,0.00170083,284.41,286.439,261.412,288.222,288.445,266.222,-0.0,-0.0,249.471,265.801
2015-09-22 07:00,-0.0,284.249,286.217,261.305,288.087,288.167,265.762,-0.0,-0.0,249.381,265.434
2015-09-22 08:00,-0.0,284.73,286.882,261.305,288.763,288.722,265.762,-0.0,-0.0,249.741,265.728
2015-09-22 09:00,-0.0,283.924,285.658,260.661,287.407,287.609,266.108,-0.0819563,-0.0977205,249.471,265.875
2015-09-22 10:00,0.480898,289.647,289.593,263.203,291.686,291.329,267.023,0.288631,0.448622,249.471,265.801
2015-09-22 11:00,0.499268,299.297,296.229,267.052,298.795,297.689,268.834,0.245608,0.42238,248.879,266.021
2015-09-22 12:00,0.405162,305.028,301.083,269.86,304.207,302.144,270.175,0.195571,0.338314,249.381,266.094
2015-09-22 13:00,0.312836,308.561,304.527,271.83,307.799,305.119,271.612,0.152273,0.2609,249.741,266.094
2015-09-22 14:00,0.257353,311.293,306.98,273.298,310.174,307.069,271.832,0.123063,0.212697,249.426,265.875
2015-09-22 15:00,0.226195,312.546,308.097,274.112,311.401,308.514,272.27,0.105443,0.187304,249.561,265.801
2015-09-22 16:00,0.20256,313.514,309.2,275.096,312.837,309.589,272.488,0.0956484,0.169103,249.696,265.655
2015-09-22 17:00,0.198368,312.175,307.84,274.292,311.179,308.154,271.832,0.0990829,0.167127,249.426,265.137
2015-09-22 18:00,0.200547,309.317,305.499,272.934,308.709,305.731,270.84,0.113202,0.179968,249.426,264.839
2015-09-22 19:00,0.2229,305.339,302.55,271.459,305.493,302.893,270.064,0.156943,0.217924,249.561,264.69
2015-09-22 20:00,0.279363,300.498,298.834,269.288,301.472,299.104,268.834,0.27537,0.315709,249.786,264.464
2015-09-22 21:00,0.648469,293.472,293.031,265.758,295.297,293.883,267.137,0.663445,0.818336,250.23,264.54
2015-09-22 22:00,-0.0,290.685,290.756,264.543,292.86,292.141,266.909,-0.0,-0.0,250.625,264.389
2015-09-22 23:00,-0.0882818,290.301,290.123,264.441,292.209,291.329,266.337,-0.0210229,-0.0222814,251.189,264.615
2015-09-23 00:00,-0.0,289.91,290.335,264.441,292.34,291.735,266.681,-0.0,-0.0,251.531,264.839
2015-09-23 01:00,-0.00150264,288.012,288.52,263.411,290.5,289.137,264.953,-0.0,-0.0,251.531,264.314
2015-09-23 02:00,-0.0,287.444,288.195,263.203,290.367,289.551,265.647,-0.0,-0.0,251.446,264.54
2015-09-23 03:00,-0.0,287.444,289.165,263.618,291.16,290.784,266.337,-0.0,-0.0,251.531,265.728
2015-09-23 04:00,-0.0,287.155,288.843,263.307,290.764,290.784,266.337,-0.0,-0.0,251.573,265.801
2015-09-23 05:00,-0.0,286.717,288.303,262.995,290.367,290.375,266.566,-0.0,-0.0,251.488,266.166
2015-09-23 06:00,-0.0,285.512,287.102,262.155,289.166,288.861,265.647,-0.0,-0.0,251.016,265.434
2015-09-23 07:00,-0.0,285.665,287.869,262.471,289.701,289.826,266.108,-0.0,-0.0,250.8,265.728
2015-09-23 08:00,-0.00414278,285.202,286.661,261.944,288.897,288.861,265.762,-0.0,-0.0,250.538,264.914
2015-09-23 09:00,-0.0261334,284.41,285.882,261.412,287.951,288.445,265.416,-0.0885085,-0.105533,251.016,264.989
2015-09-23 10:00,0.459893,289.381,289.272,263.307,291.555,291.057,266.337,0.283193,0.428111,251.275,264.989
2015-09-23 11:00,0.48385,299.203,295.442,266.855,297.931,296.258,267.932,0.241123,0.407528,251.403,265.063
2015-09-23 12:00,0.40094,305.569,300.526,269.86,303.263,300.632,268.946,0.196035,0.330659,251.488,265.063
2015-09-23 13:00,0.305455,309.249,303.813,271.738,306.651,303.515,270.397,0.149062,0.253688,251.701,265.434
2015-09-23 14:00,0.253792,311.547,306.024,272.934,308.936,305.241,270.619,0.122631,0.207925,251.954,265.875
2015-09-23 15:00,0.224258,312.607,307.239,273.571,310.174,306.826,271.282,0.106203,0.182912,251.828,266.094
2015-09-23 16:00,0.203332,313.395,308.097,274.202,311.179,307.793,271.392,0.0986907,0.167358,251.912,266.888
2015-09-23 17:00,0.197904,312.361,306.98,273.207,310.062,306.341,271.282,0.106084,0.168173,251.912,266.021
2015-09-23 18:00,0.232595,309.923,303.723,271.366,306.305,302.519,269.73,0.147704,0.20892,251.403,265.36
2015-09-23 19:00,0.308991,306.623,299.59,269.288,302.191,298.72,267.819,0.253694,0.309582,251.785,264.914
2015-09-23 20:00,0.303435,300.679,297.107,267.74,0.0,296.91,266.795,0.408253,0.407048,251.573,264.464
2015-09-23 21:00,0.585387,294.268,292.929,265.355,295.424,293.35,266.795,0.608293,0.75216,251.275,263.934
2015-09-23 22:00,-0.00595422,285.357,283.032,260.011,285.618,284.061,261.54,-0.0,-0.0,251.146,262.545
2015-09-23 23:00,-0.171274,290.171,290.017,263.825,292.34,291.057,265.993,-0.02339,-0.0251001,251.446,263.858
2015-09-24 00:00,-0.0,289.113,289.593,263.825,291.817,291.057,265.762,-0.0,-0.0,251.317,263.552
2015-09-24 01:00,-0.0,288.568,288.843,263.203,291.029,289.689,264.837,-0.0,-0.0,251.103,262.779
2015-09-24 02:00,0.00132891,288.568,288.628,263.099,290.632,289.276,265.185,-0.0,-0.0,250.93,262.388
2015-09-24 03:00,-0.0,286.121,285.994,261.519,287.951,285.635,262.373,-0.0,-0.0,250.886,261.993
2015-09-24 04:00,-0.0,267.123,268.199,251.305,269.679,269.329,255.28,-0.0,-0.0,250.318,258.967
2015-09-24 05:00,-0.0,262.475,264.482,249.029,267.016,266.498,253.368,-0.0,-0.0,250.008,258.2
2015-09-24 06:00,-0.0,259.505,262.141,247.465,264.792,264.623,252.464,-0.0,-0.0,249.471,257.333
2015-09-24 07:00,0.0023505,264.377,265.545,250.051,269.021,267.506,253.753,-0.0,-0.0,249.199,258.114
2015-09-24 08:00,-0.0,270.434,268.199,251.056,270.169,268.339,254.009,-0.0,-0.0,248.879,257.333
2015-09-24 09:00,-0.0284018,267.761,267.18,250.681,269.021,266.329,253.24,-0.144287,-0.143367,248.417,256.539
2015-09-24 10:00,0.703514,287.01,273.997,254.454,275.857,273.832,256.16,0.570845,0.680646,249.245,260.299
2015-09-24 11:00,0.589333,300.679,291.07,264.031,291.948,288.027,263.2,0.304034,0.464904,249.017,260.217
2015-09-24 12:00,0.394915,306.101,298.644,268.324,300.506,296.258,266.222,0.194919,0.315551,249.245,261.595
2015-09-24 13:00,0.305644,309.588,301.452,270.145,303.144,298.205,266.681,0.153497,0.248063,249.786,262.388
2015-09-24 14:00,0.252914,312.05,302.912,270.899,304.207,298.72,266.795,0.128934,0.201859,249.964,262.701
2015-09-24 15:00,0.217288,313.094,303.454,271.273,304.793,298.976,266.337,0.113382,0.174727,249.154,263.012
2015-09-24 16:00,0.215733,311.737,301.268,269.479,301.832,296.389,266.108,0.125784,0.178671,249.83,263.167
2015-09-24 17:00,0.228699,310.972,299.118,268.615,300.02,294.547,265.069,0.161166,0.206507,249.108,262.388
2015-09-24 18:00,0.230379,307.786,298.167,268.033,299.287,294.016,264.488,0.199396,0.230859,248.833,261.275
2015-09-24 19:00,0.485772,299.858,278.968,256.434,278.576,273.99,253.881,0.468648,0.532856,239.653,251.152
2015-09-24 20:00,0.418519,301.037,292.005,264.133,293.377,288.999,262.255,0.557853,0.543838,243.31,258.2
2015-09-24 21:00,0.10481,290.171,285.994,260.661,287.815,284.492,261.898,0.377157,0.34389,243.147,258.543
2015-09-24 22:00,0.00597205,281.705,279.58,257.233,280.931,278.307,259.492,-0.0,-0.0,248.231,259.804
2015-09-24 23:00,-0.243443,291.563,288.736,262.155,290.234,287.469,262.61,-0.0281076,-0.0307212,238.546,255.821
2015-09-25 00:00,-0.0,270.989,269.485,251.676,271.464,270.148,255.532,-0.0,-0.0,245.96,256.539
2015-09-25 01:00,-0.00150613,289.514,289.058,262.576,291.16,288.722,263.905,-0.0,-0.0,247.617,259.97
2015-09-25 02:00,-0.0,289.247,289.593,263.203,292.209,290.375,264.488,-0.0,-0.0,247.949,261.355
2015-09-25 03:00,-0.0,289.113,289.699,263.307,292.209,290.648,265.185,-0.0,-0.0,247.949,261.675
2015-09-25 04:00,-0.0,288.705,289.486,263.099,292.34,291.193,265.647,-0.0,-0.0,246.896,261.755
2015-09-25 05:00,0.00143005,288.152,288.951,262.681,291.555,290.648,265.301,-0.0,-0.0,246.75,261.515
2015-09-25 06:00,-0.0,287.444,287.869,261.838,290.367,288.999,264.255,-0.0,-0.0,245.96,260.708
2015-09-25 07:00,-0.0,283.261,283.956,260.011,286.447,284.779,262.61,-0.0,-0.0,246.109,260.545
2015-09-25 08:00,-0.0,287.587,288.087,261.944,290.5,289.413,264.837,-0.0,0.00428489,245.859,261.515
2015-09-25 09:00,-0.0310966,283.594,283.495,259.244,285.895,284.349,262.61,-0.157976,-0.156969,246.009,261.194
2015-09-25 10:00,0.610248,291.931,286.55,260.769,288.493,286.343,262.847,0.404582,0.482403,246.059,260.871
2015-09-25 11:00,0.543576,297.649,286.105,260.769,287.679,284.779,262.017,0.377401,0.452737,246.159,260.627
2015-09-25 12:00,0.439229,303.592,289.911,262.89,291.555,286.767,261.898,0.261587,0.349481,245.859,260.052
2015-09-25 13:00,0.484878,302.596,275.951,254.926,276.772,274.304,256.285,0.392861,0.45939,245.608,258.372
2015-09-25 14:00,0.529183,296.84,269.059,251.18,270.981,269.657,254.9,0.508396,0.592862,245.608,257.769
2015-09-25 15:00,0.255717,310.648,297.3,267.249,298.055,292.276,263.787,0.146121,0.211108,245.608,260.135
2015-09-25 16:00,0.206175,312.361,302.368,270.145,303.736,298.076,265.993,0.116742,0.173021,245.456,260.545
2015-09-25 17:00,0.205506,311.101,301.636,269.86,303.263,297.689,266.452,0.128401,0.181716,244.894,259.887
2015-09-25 18:00,0.229882,304.872,294.945,265.758,296.433,291.464,263.083,0.200408,0.245832,244.006,259.051
2015-09-25 19:00,0.815539,294.933,261.662,246.801,263.745,263.933,251.814,0.842429,0.959774,245.151,255.548
2015-09-25 20:00,0.776614,303.346,282.331,258.913,283.797,279.511,258.882,0.682041,0.775697,243.633,256.894
2015-09-25 21:00,0.0774038,258.576,260.365,246.265,263.393,262.888,251.422,0.349534,0.312575,242.322,254.068
2015-09-25 22:00,-0.00599073,286.421,283.264,259.024,285.34,282.758,261.54,-0.0,-0.0,242.155,258.372
2015-09-25 23:00,-0.132986,275.707,262.616,246.801,262.329,259.864,247.142,-0.0328413,-0.0363612,228.662,242.23
2015-09-26 00:00,0.0018855,277.451,268.199,249.414,265.482,261.654,246.732,-0.0,-0.0,227.87,243.698
2015-09-26 01:00,-0.0,259.045,244.598,236.466,242.049,239.895,233.026,-0.0,-0.0,222.15,230.863
2015-09-26 02:00,0.00133268,279.859,271.848,251.429,271.945,269.0,250.236,-0.0,-0.0,230.593,248.455
2015-09-26 03:00,-0.0,288.705,286.882,260.984,288.763,285.919,261.182,-0.0,-0.0,232.328,254.814
2015-09-26 04:00,-0.0,284.087,280.187,257.006,281.076,276.631,255.027,-0.0,-0.0,231.156,251.85
2015-09-26 05:00,-0.0,257.103,256.118,243.368,257.361,255.803,245.072,-0.0,-0.0,230.916,247.261
2015-09-26 06:00,-0.0,225.382,226.902,227.628,225.919,224.756,221.23,-0.0,-0.0,220.916,224.408
2015-09-26 07:00,-0.0,257.605,250.76,240.171,250.207,247.708,237.827,-0.0,-0.0,226.216,239.121
2015-09-26 08:00,-0.0,279.278,273.466,252.656,274.467,270.473,250.104,-0.0,-0.0,228.835,248.025
2015-09-26 09:00,-0.0343477,282.581,277.35,254.808,278.427,275.085,253.881,-0.0872464,-0.138704,228.835,248.775
2015-09-26 10:00,0.367624,283.093,273.599,252.168,274.312,270.96,250.104,0.339999,0.416817,228.136,247.371
2015-09-26 11:00,0.552526,290.041,274.785,253.14,274.933,271.283,251.291,0.415335,0.514271,229.769,250.238
2015-09-26 12:00,0.414595,291.809,274.916,253.501,274.778,270.473,250.633,0.335366,0.401741,228.835,248.025
2015-09-26 13:00,0.307548,291.686,273.466,251.922,272.264,266.835,247.006,0.231467,0.302989,228.224,244.998
2015-09-26 14:00,0.255159,296.219,278.721,255.043,277.528,271.765,249.171,0.173725,0.239008,230.018,248.025
2015-09-26 15:00,0.222339,303.346,291.487,262.89,291.817,286.485,258.515,0.126566,0.19276,234.827,255.457
2015-09-26 16:00,0.204384,305.569,295.442,265.153,296.056,290.784,262.492,0.118633,0.180384,234.968,257.333
2015-09-26 17:00,0.217778,303.181,290.229,261.944,289.968,284.492,257.653,0.150866,0.208438,233.677,254.256
2015-09-26 18:00,0.246385,299.95,286.661,259.683,285.201,280.108,255.909,0.214369,0.262464,233.968,253.309
2015-09-26 19:00,0.197612,298.822,291.487,263.515,292.6,288.861,262.61,0.21456,0.234707,236.071,257.855
2015-09-26 20:00,0.222379,296.427,290.123,261.944,290.632,287.188,261.182,0.338221,0.324285,237.849,257.769
2015-09-26 21:00,0.406463,292.889,288.951,262.049,290.5,287.609,262.255,0.40868,0.538583,238.857,257.855
2015-09-26 22:00,-0.00601031,290.813,288.951,262.049,291.292,289.137,263.318,-0.0,-0.0,236.475,256.539
2015-09-26 23:00,-0.0832473,288.705,284.869,259.793,286.31,283.484,259.735,-0.0375922,-0.0420215,234.257,253.213
2015-09-27 00:00,-0.0,279.081,275.436,253.98,274.623,270.798,253.24,-0.0,-0.0,234.756,251.252
2015-09-27 01:00,-0.00151,287.155,284.528,259.683,285.618,282.467,259.614,-0.0,-0.0,238.733,256.45
2015-09-27 02:00,-0.0,287.587,285.208,259.683,286.722,284.349,260.461,-0.0,-0.00134744,237.006,255.275
2015-09-27 03:00,0.00127433,277.026,272.527,252.899,272.104,267.84,250.369,-0.0,-0.0,234.257,250.95
2015-09-27 04:00,-0.00130503,256.062,255.941,243.368,256.98,255.614,245.767,-0.0,-0.0,230.511,246.929
2015-09-27 05:00,-0.0,257.605,252.853,241.646,253.269,251.156,240.5,-0.0,-0.0,228.488,243.457
2015-09-27 06:00,-0.0,253.206,253.963,242.369,255.049,253.703,243.667,-0.0,-0.0,230.835,245.23
2015-09-27 07:00,0.00239554,280.613,275.565,254.454,276.163,272.246,252.335,-0.0,-0.0,231.156,247.808
2015-09-27 08:00,-0.0,264.739,262.458,246.934,264.095,261.654,248.094,-0.0,-0.0,232.175,247.808
2015-09-27 09:00,-0.115033,282.581,280.669,256.892,282.517,279.511,257.777,-0.194797,-0.232265,233.456,251.751
2015-09-27 10:00,1.10615,284.888,267.033,249.414,268.69,267.84,253.497,1.12953,1.36925,234.329,251.152
2015-09-27 11:00,0.457113,296.323,288.412,261.625,289.968,286.626,261.421,0.255761,0.36163,234.615,254.814
2015-09-27 12:00,0.379209,302.848,294.446,265.052,295.677,291.464,263.67,0.188593,0.291772,235.247,255.275
2015-09-27 13:00,0.295936,305.874,297.01,266.458,298.302,293.617,264.605,0.151594,0.237518,238.857,257.942
2015-09-27 14:00,0.246456,308.491,298.929,268.033,299.776,294.415,265.069,0.126536,0.202491,241.361,259.387
2015-09-27 15:00,0.217968,310.32,300.246,268.421,301.11,295.602,265.301,0.115611,0.182111,241.874,259.22
2015-09-27 16:00,0.209022,307.643,296.229,266.059,296.433,291.057,263.553,0.138977,0.185129,242.155,258.713
2015-09-27 17:00,0.196137,309.385,299.966,268.227,301.11,295.602,265.532,0.131421,0.180917,242.211,259.887
2015-09-27 18:00,0.223826,306.475,296.718,266.557,297.931,293.082,263.905,0.20387,0.243084,242.655,259.387
2015-09-27 19:00,0.505681,261.251,224.279,226.287,223.443,223.905,221.965,0.799362,0.915649,220.337,222.313
2015-09-27 20:00,0.488537,257.103,234.477,231.799,234.107,233.722,231.743,0.618727,0.708726,226.027,231.198
2015-09-27 21:00,1.00041,291.19,286.328,260.119,288.087,285.493,260.461,0.741163,1.06047,238.919,256.716
2015-09-28 00:00,0.00189048,287.587,285.321,259.683,287.27,283.917,260.34,-0.0,-0.0,232.633,251.352
2015-09-28 01:00,-0.0,252.585,253.226,241.936,255.049,254.089,243.808,-0.0,-0.0,229.852,244.056
2015-09-28 02:00,-0.0,258.096,259.373,245.314,261.431,260.225,248.499,-0.0,-0.0,230.674,247.699
2015-09-28 03:00,-0.0,238.442,237.841,232.834,237.2,236.635,232.387,-0.0,-0.0,225.156,232.347
2015-09-28 04:00,-0.00130809,225.382,223.94,225.701,223.125,222.462,221.415,-0.0,-0.0,219.26,221.658
2015-09-28 05:00,-0.0,232.213,228.769,228.564,228.871,228.324,225.535,-0.0,-0.0,222.476,225.604
2015-09-28 06:00,-0.0,237.078,233.116,230.207,233.577,232.725,228.949,-0.0,-0.0,225.254,230.354
2015-09-28 07:00,-0.00241106,251.944,247.357,237.415,247.878,246.035,237.977,-0.0,-0.0,229.093,239.39
2015-09-28 08:00,-0.0,253.206,255.23,242.656,257.361,257.115,246.869,-0.0,-0.0,231.709,245.69
2015-09-28 09:00,-0.0867443,283.428,280.066,257.006,283.23,279.661,257.034,-0.183616,-0.218934,231.156,249.198
2015-09-28 10:00,0.601172,286.271,267.033,248.771,268.358,263.933,247.959,0.49513,0.606919,231.076,245.918
2015-09-28 11:00,0.837925,292.653,259.373,244.903,260.888,258.04,246.319,0.671302,0.781687,231.394,245.575
2015-09-28 12:00,0.767187,297.549,259.706,245.314,261.791,259.321,247.959,0.648026,0.732006,231.394,246.818
2015-09-28 13:00,0.551181,301.037,257.511,244.349,259.051,255.425,243.949,0.467932,0.526693,231.865,245.46
2015-09-28 14:00,0.3698,302.511,277.224,254.926,278.427,273.2,254.392,0.244513,0.320567,232.405,249.408
2015-09-28 15:00,0.272347,300.408,283.032,258.802,286.172,280.554,256.41,0.212613,0.268644,232.86,250.032
2015-09-28 16:00,0.424735,300.134,251.53,241.207,251.036,246.457,238.876,0.330376,0.393923,231.943,240.053
2015-09-28 17:00,0.271751,299.013,284.528,259.464,284.641,279.361,257.406,0.228899,0.272927,233.456,249.513
2015-09-28 18:00,0.590562,304.239,259.706,245.859,260.158,256.367,245.489,0.491431,0.565458,233.968,246.483
2015-09-28 19:00,0.601766,307.064,279.336,257.006,280.201,273.359,254.009,0.523232,0.602846,233.968,248.882
2015-09-28 20:00,0.474738,286.421,273.466,253.86,275.55,273.359,256.035,0.550963,0.570174,234.472,250.34
2015-09-28 21:00,0.664727,269.283,260.201,246.265,261.431,258.591,247.006,0.625359,0.770501,233.456,246.145
2015-09-28 22:00,-0.0060524,240.898,241.218,235.01,242.747,242.585,236.613,-0.0,-0.0,232.86,238.027
2015-09-28 23:00,-0.0751794,252.585,247.15,238.81,248.52,247.501,239.765,-0.0447938,-0.0505987,233.234,242.23
2015-09-29 00:00,-0.0,237.078,238.83,234.183,241.107,240.35,235.382,-0.0,-0.0,232.86,236.9
2015-09-29 01:00,-0.0,250.598,247.15,238.503,247.878,245.612,237.676,-0.0,-0.0,232.86,239.922
2015-09-29 02:00,-0.0,260.827,258.195,244.903,259.051,256.928,246.457,-0.0,-0.0,233.234,245.69
2015-09-29 03:00,-0.0,248.394,250.175,240.766,252.465,252.341,244.372,-0.0,-0.0,232.097,243.336
2015-09-29 04:00,-0.0,249.89,250.175,240.469,251.242,250.557,242.384,-0.0,-0.0,228.575,241.093
2015-09-29 05:00,-0.00144746,239.711,235.275,232.146,236.186,234.461,229.283,-0.0,-0.0,226.592,233.146
2015-09-29 06:00,-0.0,232.213,231.427,229.484,231.131,230.946,227.77,-0.0,-0.0,223.849,229.137
2015-09-29 07:00,-0.0,227.984,226.261,227.058,226.221,225.597,223.233,-0.0,-0.0,221.819,224.811
2015-09-29 08:00,-0.0,222.276,223.94,225.701,223.758,223.332,221.965,-0.0,-0.0,220.219,222.743
2015-09-29 09:00,-0.0,230.231,227.845,227.628,227.708,227.517,226.056,-0.25342,-0.251804,222.368,225.994
2015-09-29 10:00,0.435425,239.711,223.94,226.287,223.758,222.753,222.692,0.764657,0.890029,219.503,222.313
2015-09-29 11:00,0.352514,245.913,227.533,227.628,227.708,227.246,225.36,0.726136,0.81269,222.15,225.21
2015-09-29 12:00,0.269566,247.601,233.392,230.743,233.842,232.976,228.949,0.650796,0.724489,225.931,230.863
2015-09-29 13:00,0.224595,249.89,237.591,232.663,237.702,237.109,232.387,0.63761,0.696529,226.592,233.146
2015-09-29 14:00,0.220137,253.206,236.06,232.491,235.672,234.461,230.768,0.649606,0.70223,224.56,231.198
2015-09-29 15:00,0.267887,254.966,222.904,225.897,221.838,220.984,220.489,0.672018,0.734611,218.767,220.763
2015-09-29 16:00,0.246338,255.521,235.011,232.146,234.371,233.969,229.946,0.679757,0.747368,225.449,231.031
2015-09-29 17:00,0.306307,256.062,229.072,228.749,228.293,228.056,224.657,0.719754,0.795783,223.118,226.57
2015-09-29 18:00,0.386716,258.096,229.072,228.564,228.583,228.056,225.883,0.754951,0.8422,223.538,226.76
2015-09-29 19:00,0.508064,261.251,230.559,229.665,230.294,229.385,226.574,0.786051,0.892949,224.054,228.242
2015-09-29 20:00,0.709882,265.446,236.832,232.834,236.695,236.157,230.931,0.863587,1.06677,227.87,234.542
2015-09-29 21:00,1.11466,254.396,233.116,230.743,233.041,231.968,226.918,0.902743,1.29655,225.931,231.364
2015-09-29 22:00,-0.0,235.601,234.208,230.921,234.107,232.976,229.781,-0.0,-0.0,224.56,230.354
2015-09-29 23:00,-0.072529,242.013,224.616,226.287,224.384,223.619,222.329,-0.0496006,-0.0563249,221.93,223.999
2015-09-30 01:00,-0.00303305,240.898,237.841,233.175,237.951,237.109,232.227,-0.00128404,-0.00153102,227.601,233.928
2015-09-30 02:00,-0.0,240.898,237.841,233.175,238.446,237.581,232.867,-0.0,-0.0,228.575,235.295
2015-09-30 03:00,0.0012817,258.096,250.954,239.721,250.623,247.293,236.613,-0.0,-0.0,228.136,238.441
2015-09-30 04:00,-0.0,237.078,233.938,231.098,234.107,232.725,228.782,-0.0,-0.0,226.592,232.022
2015-09-30 05:00,-0.0,253.81,242.142,235.823,240.631,237.345,230.768,-0.0,-0.0,225.931,232.508
2015-09-30 06:00,-0.0,247.601,246.102,237.572,247.012,245.399,237.676,-0.0,-0.0,229.263,239.656
2015-09-30 07:00,-0.0,256.062,256.644,243.509,259.236,258.774,247.551,-0.0,-0.0,230.916,246.032
2015-09-30 08:00,-0.0,253.206,253.779,241.5,255.244,254.664,245.35,-0.0,-0.0,230.511,244.056
2015-09-30 09:00,-0.0586429,251.282,253.226,241.791,255.633,255.235,245.767,-0.397223,-0.296018,231.394,245.114
2015-09-30 10:00,0.772284,284.73,254.871,242.656,258.116,257.856,247.279,0.680764,0.790347,231.236,246.371
2015-09-30 11:00,0.741322,295.151,260.201,245.587,262.329,260.225,247.823,0.52159,0.632458,231.787,246.818
2015-09-30 12:00,0.425823,298.242,285.546,260.119,286.722,281.293,256.535,0.217861,0.334769,231.63,250.544
2015-09-30 13:00,0.304153,299.765,285.994,260.445,287.679,282.175,258.515,0.179525,0.270154,233.085,250.95
2015-09-30 14:00,0.237634,303.674,295.045,265.658,296.684,291.871,262.728,0.115445,0.196644,232.557,251.85
2015-09-30 15:00,0.210024,305.339,296.815,266.855,298.549,293.617,264.138,0.103119,0.175647,233.382,251.552
2015-09-30 16:00,0.492833,293.816,266.293,249.158,269.021,268.67,253.753,0.459332,0.511686,233.53,250.849
2015-09-30 17:00,0.242576,304.794,290.545,262.89,292.73,286.06,259.492,0.173334,0.233571,231.473,250.544
2015-09-30 18:00,0.444927,299.579,271.162,252.656,272.264,270.311,255.532,0.369584,0.394734,230.593,248.562
2015-09-30 19:00,0.516168,292.174,270.607,251.922,271.303,268.173,251.944,0.466305,0.51645,229.093,246.818
2015-09-30 20:00,1.07368,296.635,266.59,249.542,268.191,265.138,248.499,0.940074,1.04699,228.4,244.998
2015-09-30 21:00,0.786927,291.315,285.994,260.769,288.222,284.492,259.37,0.68648,0.866672,230.835,249.198
2015-09-30 22:00,-0.00609878,281.883,274.655,253.501,275.857,272.086,251.159,-0.0,-0.0,228.488,243.577
2015-09-30 23:00,-0.0726703,286.569,282.566,258.246,284.921,281.588,258.638,-0.0496972,-0.0564346,232.02,250.238
