# timestamp,IR_016,IR_039,IR_087,IR_097,IR_108,IR_120,IR_134,VIS006,VIS008,WV_062,WV_073
2016-09-01 00:00,-0.00776724,288.43,283.611,256.664,285.061,281.735,256.909,0.0,-0.00261383,229.263,249.408
2016-09-01 01:00,-0.00189672,290.429,288.303,258.913,290.5,287.469,261.421,0.0,0.0,230.755,253.117
2016-09-01 02:00,0.0,289.381,287.432,258.58,289.835,287.048,261.421,0.0,0.0,230.996,253.405
2016-09-01 03:00,0.0,290.813,289.165,259.354,291.817,289.137,262.255,0.0,0.0,232.405,254.443
2016-09-01 04:00,0.0,288.291,284.528,256.892,286.585,283.629,257.9,0.0,0.0,229.769,251.152
2016-09-01 05:00,0.0,279.667,270.746,249.029,270.332,267.171,247.279,0.0,0.0,226.122,244.056
2016-09-01 06:00,0.00181136,289.91,287.541,258.358,290.234,287.748,261.182,0.0,0.0,231.943,253.88
2016-09-01 07:00,0.00238873,290.685,290.123,259.683,293.248,291.193,263.083,0.0,0.0,236.207,256.271
2016-09-01 08:00,0.0,288.568,285.658,257.12,287.407,284.636,258.882,0.0,0.0,234.756,253.69
2016-09-01 09:00,0.0,290.939,290.651,260.119,293.635,291.871,263.787,-0.0251802,-0.0300235,237.072,257.595
2016-09-01 10:00,0.0552382,291.315,290.965,260.445,294.021,292.006,263.905,0.273939,0.151366,236.742,257.769
2016-09-01 11:00,0.21241,293.472,289.805,259.793,292.86,291.329,263.553,0.276481,0.236844,236.071,257.246
2016-09-01 12:00,0.0329225,291.19,288.951,259.024,291.555,288.999,262.017,0.101049,0.0602425,234.472,255.548
2016-09-01 13:00,0.0207413,291.563,290.123,259.902,293.119,291.057,263.083,0.0729481,0.0418791,235.386,257.07
2016-09-01 14:00,0.0205998,291.065,288.628,259.134,291.16,288.999,261.779,0.0616276,0.0388205,235.386,256.805
2016-09-01 16:00,0.0317155,288.291,282.331,255.277,283.656,280.998,255.027,0.0601518,0.0461069,232.251,251.552
2016-09-01 17:00,0.0538474,290.939,285.433,256.892,287.543,285.208,259.005,0.0763674,0.0638755,234.686,254.907
2016-09-01 18:00,0.0430714,291.809,287.978,258.58,290.367,288.167,260.581,0.0716345,0.0559069,235.038,255.457
2016-09-01 19:00,0.118148,294.602,288.52,258.802,291.16,288.999,261.898,0.144314,0.127099,234.897,255.091
2016-09-01 20:00,0.484872,299.579,289.593,259.134,292.6,291.057,263.67,0.42503,0.431918,236.408,256.181
2016-09-01 21:00,1.21127,300.225,289.805,259.134,292.86,291.329,263.318,0.824585,0.977048,234.897,255.73
2016-09-01 22:00,-0.0333843,289.514,288.736,257.91,291.686,290.648,263.2,-0.0282664,-0.0674069,236.609,256.539
2016-09-02 00:00,-0.00256527,290.041,288.951,257.798,291.686,290.648,262.847,0.0,0.0,236.341,256.091
2016-09-02 01:00,0.0,290.301,289.379,257.685,292.079,290.784,262.61,0.0,0.0,236.071,256.181
2016-09-02 02:00,0.0,289.779,288.736,257.346,291.423,290.511,262.728,0.0,0.0,236.139,256.091
2016-09-02 03:00,-0.00145447,289.381,288.303,257.346,290.897,290.238,263.083,0.0,0.0,235.662,255.821
2016-09-02 04:00,-0.00144387,288.705,287.978,256.778,290.367,289.826,262.61,0.0,0.0,235.525,255.639
2016-09-02 05:00,-0.0015452,287.729,287.541,256.892,289.968,289.276,262.728,0.0,0.0,235.799,256.091
2016-09-02 06:00,0.0,289.514,288.52,256.892,290.632,290.101,262.255,0.0,0.0,236.071,256.091
2016-09-02 07:00,0.0,289.247,288.087,257.12,290.234,289.551,262.373,0.0,0.0,236.408,256.091
2016-09-02 08:00,-0.00392465,288.841,287.76,257.12,290.234,289.276,262.373,0.0,0.0,237.203,256.181
2016-09-02 09:00,-0.0146096,289.647,288.52,257.459,290.764,289.689,262.136,-0.0247399,-0.0294986,236.207,255.911
2016-09-02 10:00,0.174878,291.315,288.843,257.685,291.029,289.689,262.61,0.376904,0.2889,235.317,255.73
2016-09-02 11:00,0.212902,293.587,287.76,257.006,290.101,289.137,262.136,0.287884,0.243809,234.827,255.548
2016-09-02 12:00,0.319352,295.69,286.55,256.892,289.166,288.722,262.728,0.329707,0.309924,234.827,255.275
2016-09-02 13:00,0.0686752,291.931,288.843,257.459,291.029,290.101,262.373,0.127112,0.0967419,234.756,255.275
2016-09-02 14:00,0.0467402,291.931,288.951,257.798,291.292,290.101,262.965,0.0989372,0.0735563,235.178,255.821
2016-09-02 15:00,0.081809,293.24,288.628,257.233,291.16,290.101,262.136,0.11256,0.0967864,235.799,255.73
2016-09-02 16:00,0.0597175,292.534,289.272,257.685,291.555,290.238,262.61,0.092519,0.0756811,236.274,255.73
2016-09-02 17:00,0.113317,294.268,288.52,257.459,291.029,289.826,262.61,0.133639,0.118486,236.742,256.091
2016-09-02 18:00,0.175887,296.635,288.628,257.459,291.16,290.101,262.255,0.181581,0.171338,237.137,256.45
2016-09-02 19:00,0.352159,299.95,288.52,257.685,291.16,289.964,262.373,0.316294,0.318205,236.808,256.45
2016-09-02 20:00,0.773208,304.557,287.978,257.572,290.764,289.689,262.492,0.593831,0.647114,237.463,256.36
2016-09-02 21:00,1.38917,301.478,288.628,257.685,291.292,290.238,262.255,0.882154,1.07688,237.849,256.45
2016-09-02 22:00,-0.0601146,288.568,288.628,257.459,291.292,290.238,262.61,-0.0254495,-0.0606892,237.913,256.45
2016-09-02 23:00,-0.750916,290.685,289.593,257.798,291.948,290.784,262.847,-0.224624,-0.399475,238.231,256.982
2016-09-03 00:00,0.0,286.121,287.212,257.12,290.367,289.551,262.017,0.0,0.0,238.357,256.894
2016-09-03 01:00,-0.00187121,289.91,289.593,258.134,291.948,290.648,262.965,0.0,0.0,238.671,257.07
2016-09-03 02:00,0.0,288.977,288.628,258.022,291.686,290.238,262.492,0.0,0.0,238.671,257.07
2016-09-03 03:00,-0.00144754,290.429,289.486,257.91,292.079,290.648,262.728,0.0,0.0,239.043,257.158
2016-09-03 04:00,0.0,289.514,289.272,258.022,291.948,290.375,262.61,0.0,0.0,239.471,257.246
2016-09-03 05:00,0.0,289.514,288.843,258.022,291.686,290.375,262.373,0.0,0.0,239.593,257.333
2016-09-03 06:00,0.0,289.91,289.165,257.798,291.686,290.238,262.847,0.0,0.0,238.733,256.628
2016-09-03 07:00,-0.00236719,285.512,286.55,256.778,289.568,288.584,261.898,0.0,0.0,238.857,256.539
2016-09-03 08:00,-0.00390133,288.977,288.628,258.022,291.555,290.238,262.373,0.0,0.0,238.546,256.36
2016-09-03 09:00,0.0,288.705,288.628,258.022,291.423,290.238,262.965,-0.036476,-0.0434922,238.168,255.911
2016-09-03 10:00,0.184175,291.19,289.165,258.469,291.948,290.511,262.61,0.386461,0.291029,237.398,255.457
2016-09-03 11:00,0.162439,292.889,289.272,258.58,291.948,290.648,262.61,0.253499,0.202578,237.592,256.36
2016-09-03 12:00,0.103153,293.124,289.058,259.024,291.817,290.648,262.965,0.17468,0.131216,236.675,255.639
2016-09-03 13:00,0.0927287,293.702,289.272,259.134,292.079,290.784,262.965,0.136721,0.109756,235.936,256.091
2016-09-03 14:00,0.049542,292.534,289.805,259.574,292.6,291.193,263.2,0.0897202,0.0652981,235.038,255.275
2016-09-03 15:00,0.0371159,292.174,290.017,259.464,292.86,291.193,263.787,0.0736885,0.054268,235.178,255.091
2016-09-03 16:00,0.0432691,292.414,290.017,259.354,292.86,291.464,262.847,0.0754268,0.0565306,234.827,255.275
2016-09-03 17:00,0.070301,293.816,289.911,259.574,292.6,291.464,263.905,0.0972984,0.0846217,235.247,255.275
2016-09-03 18:00,0.126904,295.796,289.911,259.683,292.6,291.464,263.318,0.142829,0.128117,235.525,255.73
2016-09-03 19:00,0.265835,298.822,290.017,259.574,292.6,291.6,263.553,0.258182,0.248643,235.593,255.821
2016-09-03 20:00,0.706937,304.159,289.911,259.354,292.47,291.464,264.255,0.539687,0.582071,234.897,255.911
2016-09-03 21:00,1.56797,303.998,289.486,259.134,291.948,290.648,263.083,0.931462,1.16169,235.386,255.821
2016-09-03 22:00,-0.0273088,288.43,288.628,258.691,291.423,290.375,262.965,-0.0231223,0.0,235.525,255.821
2016-09-03 23:00,-0.659506,289.113,288.951,258.691,291.686,290.921,263.083,-0.232355,-0.39323,235.386,255.821
2016-09-04 00:00,0.0,289.91,289.486,258.691,291.948,291.057,263.436,0.0,0.0,235.525,256.181
2016-09-04 01:00,-0.00185866,0.0,289.805,259.134,292.47,291.6,264.138,0.0,0.0,236.207,256.271
2016-09-04 02:00,-0.0015641,288.705,289.058,258.913,291.817,290.648,263.553,0.0,-0.00157905,236.874,256.539
2016-09-04 03:00,-0.00144069,289.381,289.593,259.464,292.34,291.193,263.67,0.0,0.0,237.072,256.805
2016-09-04 04:00,0.0,288.43,289.272,259.354,292.209,291.329,263.787,0.0,0.0,236.542,257.682
2016-09-04 05:00,0.0,289.113,289.805,259.793,292.47,292.006,264.255,0.0,0.00154725,235.525,257.508
2016-09-04 06:00,-0.00178912,290.301,290.44,260.119,293.377,292.141,264.372,0.0,0.0,235.178,258.114
2016-09-04 07:00,0.00235669,290.685,291.07,260.661,293.892,292.814,264.605,0.0,0.00237922,235.038,258.372
2016-09-04 08:00,0.0,290.939,291.174,260.769,294.149,293.216,264.372,0.0,0.0,234.686,258.713
2016-09-04 09:00,0.0,290.558,290.965,260.228,294.149,292.814,264.721,-0.0239114,-0.0427661,234.257,258.713
2016-09-04 10:00,0.153273,291.686,290.651,260.228,293.635,292.545,264.605,0.348346,0.244323,233.677,258.457
2016-09-04 11:00,0.127704,293.472,290.229,260.119,293.119,291.871,263.67,0.205441,0.151487,233.085,258.2
2016-09-04 12:00,0.049581,292.653,290.44,260.337,293.248,291.735,264.022,0.115445,0.0750824,233.75,258.882
2016-09-04 13:00,0.0880277,292.771,290.017,260.337,292.34,290.648,263.787,0.117898,0.0888692,233.382,258.882
2016-09-04 14:00,0.0413303,292.174,290.017,260.119,292.73,291.057,263.2,0.073488,0.0528522,233.823,258.967
2016-09-04 15:00,0.0166597,291.809,290.335,260.553,293.119,291.193,264.372,0.0444873,0.0271691,234.472,259.638
2016-09-04 16:00,0.0369672,292.174,289.911,260.119,292.73,290.648,264.138,0.0572035,0.0398944,234.257,259.387
2016-09-04 17:00,0.102977,293.24,289.058,259.793,291.948,290.375,263.787,0.105546,0.0943861,235.108,259.304
2016-09-04 18:00,0.0403646,292.653,290.44,260.769,293.119,291.329,264.138,0.0670387,0.0470197,234.615,259.554
2016-09-04 19:00,0.0628467,293.587,290.545,260.445,293.248,291.464,263.553,0.106424,0.0773267,235.593,259.97
2016-09-04 20:00,0.0847064,293.007,290.86,260.876,293.506,291.464,264.022,0.168173,0.115004,234.615,259.554
2016-09-04 21:00,0.245087,292.889,290.965,260.876,293.635,291.735,264.138,0.376804,0.299521,235.178,259.471
2016-09-04 22:00,-0.0500029,291.315,290.651,260.445,293.248,291.193,263.787,0.0,0.0,235.455,259.22
2016-09-04 23:00,-0.649288,291.19,290.545,260.337,293.248,290.921,263.318,-0.217687,-0.387138,235.662,258.967
2016-09-05 00:00,0.0,291.065,290.123,260.011,292.47,290.101,263.436,0.0,0.0,236.071,258.967
2016-09-05 01:00,-0.00184625,290.685,289.699,260.011,291.817,289.689,263.2,0.0,0.0,236.207,259.051
2016-09-05 02:00,-0.0015556,290.813,289.486,260.119,291.555,289.137,263.318,0.0,0.0,235.867,258.882
2016-09-05 03:00,0.0,290.558,289.486,259.902,291.292,288.722,262.492,0.0,0.00144762,236.207,259.135
2016-09-05 04:00,-0.00142535,290.685,289.165,259.464,291.16,288.722,262.492,0.0,0.0,237.006,259.304
2016-09-05 05:00,0.0,290.301,289.272,259.793,291.16,288.861,262.965,0.0,0.0,237.333,259.554
2016-09-05 06:00,0.0,290.171,288.951,259.683,291.029,288.722,262.965,0.0,0.0,236.475,258.798
2016-09-05 07:00,0.0,290.171,289.272,259.793,291.423,289.413,263.2,0.0,0.0,235.108,257.942
2016-09-05 08:00,0.0,290.558,289.272,259.793,291.292,289.137,263.083,0.0,0.0,235.525,258.2
2016-09-05 09:00,0.0,290.558,289.486,259.793,291.555,289.137,263.083,-0.0235208,-0.028045,235.247,257.942
2016-09-05 10:00,0.0487636,290.813,289.058,259.574,291.16,288.722,262.61,0.295898,0.164099,235.936,258.286
2016-09-05 11:00,0.0256019,291.065,288.736,259.244,290.5,288.445,262.61,0.138191,0.0710783,236.341,258.372
2016-09-05 12:00,0.0972312,294.602,286.992,258.358,289.032,286.767,262.136,0.143632,0.0939837,236.139,257.855
2016-09-05 13:00,0.0112161,291.065,288.736,259.354,290.367,287.748,261.898,0.0651199,0.0323523,235.731,257.682
2016-09-05 14:00,0.005517,291.44,289.058,259.683,290.632,288.306,262.61,0.0478801,0.0236714,235.731,257.421
2016-09-05 15:00,0.00384971,291.19,289.058,259.354,290.5,287.888,261.898,0.038028,0.018137,235.455,256.894
2016-09-05 16:00,0.00638456,291.686,289.272,259.464,290.764,288.027,262.255,0.0367594,0.0180477,235.867,256.716
2016-09-05 17:00,0.0312357,292.889,288.951,259.574,290.764,288.167,262.61,0.057494,0.0370186,235.108,256.45
2016-09-05 18:00,0.0560701,293.472,288.951,259.464,290.764,288.027,262.017,0.0962676,0.07233,234.756,256.45
2016-09-05 19:00,0.132225,294.602,288.843,259.574,290.5,288.027,262.373,0.170439,0.133489,235.108,256.36
2016-09-05 20:00,0.215005,294.933,288.843,259.793,290.632,288.027,262.847,0.279302,0.217061,235.525,256.805
2016-09-05 21:00,0.500356,293.587,287.76,259.134,289.568,287.329,262.61,0.523989,0.432027,235.867,257.07
2016-09-05 22:00,-0.023038,290.813,288.087,259.574,289.568,287.188,261.66,-0.0195063,-0.0232583,236.408,257.07
2016-09-05 23:00,-0.729428,288.012,285.321,257.91,287.27,285.493,261.54,-0.23251,-0.381196,237.398,258.028
2016-09-06 00:00,-0.00247316,288.43,286.55,258.358,288.493,286.626,262.017,0.0,0.0,238.041,258.713
2016-09-06 01:00,-0.00183398,289.91,288.087,259.024,290.101,287.609,262.255,0.0,0.0,238.733,259.471
2016-09-06 02:00,0.0,289.91,288.843,259.464,291.029,288.584,262.728,0.0,0.0,239.288,259.97
2016-09-06 03:00,-0.00142721,291.065,289.911,260.119,292.079,289.551,263.083,0.0,0.0,238.608,260.135
2016-09-06 04:00,0.0,290.685,289.699,260.119,292.209,289.964,263.083,0.0,0.0,237.785,258.713
2016-09-06 05:00,0.0,291.065,290.123,260.228,292.6,290.375,263.318,0.0,0.0,237.785,259.387
2016-09-06 06:00,-0.00177482,290.939,290.545,260.661,293.635,291.464,263.787,0.0,0.00179179,236.341,258.628
2016-09-06 07:00,0.0,291.315,290.651,260.661,293.764,291.735,264.255,0.0,0.0,235.525,258.286
2016-09-06 08:00,0.0,291.065,290.86,260.337,293.764,291.735,263.787,0.0,0.0,234.897,258.028
2016-09-06 09:00,-0.0136676,290.939,290.44,260.661,293.764,291.735,264.022,-0.0231447,-0.0275966,233.823,257.246
2016-09-06 10:00,0.0327539,291.563,290.651,260.769,293.635,291.464,264.488,0.277327,0.148802,234.041,257.333
2016-09-06 11:00,0.189272,293.472,289.379,260.119,292.079,290.375,262.728,0.255323,0.200797,234.257,257.246
2016-09-06 12:00,0.0165736,291.315,289.699,260.228,292.079,289.689,263.083,0.0912136,0.0481047,233.823,257.246
2016-09-06 13:00,0.030479,291.686,289.486,260.337,291.817,289.689,263.318,0.0828526,0.0502043,233.603,257.07
2016-09-06 14:00,0.0220941,291.686,289.486,260.011,291.817,289.276,263.2,0.0631364,0.0390344,233.603,256.716
2016-09-06 15:00,0.0642511,291.686,288.951,259.793,291.16,288.861,262.965,0.0892181,0.0700545,233.234,256.805
2016-09-06 16:00,0.00767502,291.19,288.951,260.011,291.029,288.584,261.779,0.0389906,0.0206624,232.86,256.181
2016-09-06 17:00,0.047645,291.809,288.628,259.574,291.029,288.584,262.255,0.0680033,0.050849,232.86,256.271
2016-09-06 18:00,0.125013,293.356,288.195,259.793,290.897,288.584,262.373,0.137603,0.123053,233.234,256.45
2016-09-06 19:00,0.186433,294.823,287.76,259.464,290.367,288.167,262.136,0.198155,0.182208,233.085,256.091
2016-09-06 20:00,0.237632,296.427,290.017,260.445,292.86,290.648,263.083,0.264079,0.221911,232.86,255.548
2016-09-06 21:00,0.733004,295.902,290.123,260.445,292.989,290.784,263.318,0.592164,0.60423,232.709,255.73
2016-09-06 22:00,0.0,290.558,289.486,260.119,291.948,289.276,262.965,0.0,-0.0215521,232.097,255.091
2016-09-06 23:00,-0.70989,291.19,289.379,260.228,291.817,289.413,262.728,-0.228976,-0.379668,231.943,255.457
2016-09-07 00:00,0.0,290.041,288.951,259.464,291.292,288.722,262.255,0.0,0.0,233.308,255.821
2016-09-07 01:00,-0.00182186,289.247,287.541,259.683,289.568,286.626,262.017,0.0,0.0,233.085,254.629
2016-09-07 02:00,0.0,278.684,280.429,255.51,283.797,283.194,260.701,0.0,0.0,232.86,254.256
2016-09-07 03:00,0.0014206,290.685,288.195,259.793,289.835,286.907,261.66,0.0,0.00143418,232.328,254.068
2016-09-07 04:00,-0.00141338,289.779,287.432,259.464,289.3,286.343,261.062,0.0,0.0,232.784,254.162
2016-09-07 05:00,0.0,287.3,285.321,258.691,287.27,284.492,260.581,0.0,0.0,232.251,253.88
2016-09-07 06:00,0.0,288.705,286.772,259.244,288.493,285.777,260.581,0.0,0.0,232.557,253.69
2016-09-07 07:00,0.00232618,287.444,285.77,258.58,287.543,285.065,260.942,0.0,0.0,232.175,253.213
2016-09-07 08:00,0.00381241,290.171,287.978,259.902,289.701,286.343,261.182,0.0,0.0,231.63,252.439
2016-09-07 09:00,-0.0134535,289.91,287.76,259.902,289.835,286.767,261.062,-0.011391,-0.0271641,231.315,251.352
2016-09-07 10:00,0.247522,290.939,287.541,259.354,289.568,286.907,261.062,0.384223,0.274877,230.755,250.95
2016-09-07 11:00,0.28943,280.982,261.662,244.21,263.569,260.225,239.913,0.517348,0.54868,228.048,244.881
2016-09-07 12:00,0.19295,273.338,263.867,245.587,264.792,262.361,248.499,0.428629,0.421008,231.315,245.114
2016-09-07 13:00,0.202367,254.396,238.338,233.005,237.451,236.157,231.094,0.63642,0.703706,224.258,230.011
2016-09-07 14:00,0.210153,289.381,272.391,251.552,273.686,271.283,252.594,0.216567,0.214953,231.552,247.59
2016-09-07 15:00,0.0527618,291.065,285.658,258.58,287.134,284.061,259.614,0.0730028,0.0545654,230.835,250.748
2016-09-07 16:00,0.0256301,291.315,286.55,259.134,288.222,284.922,260.461,0.0477421,0.0297564,231.865,250.849
2016-09-07 17:00,0.0122813,291.19,287.541,259.354,289.3,286.06,260.34,0.0392835,0.0206645,232.328,251.751
2016-09-07 18:00,0.214811,293.24,285.994,258.802,288.358,285.777,260.34,0.212415,0.197869,232.557,251.949
2016-09-07 19:00,0.127578,294.713,287.978,259.574,290.234,287.188,260.942,0.148528,0.120748,232.175,251.252
2016-09-07 21:00,0.701119,293.702,288.52,259.793,291.292,288.584,261.779,0.593636,0.60373,230.511,250.34
2016-09-07 22:00,-0.019879,289.647,288.303,259.902,291.292,288.445,261.062,0.0,0.0,230.43,250.442
2016-09-07 23:00,-0.461978,287.155,285.77,258.246,288.628,286.485,260.942,-0.190292,-0.323535,231.236,250.646
2016-09-08 00:00,0.0,288.152,286.882,258.691,289.166,287.188,261.062,0.0,0.0,232.097,251.552
2016-09-08 01:00,-0.00180989,287.3,286.217,257.798,289.032,286.907,261.66,0.0,0.0,233.896,252.828
2016-09-08 02:00,-0.00153067,289.647,288.736,259.134,291.423,288.999,261.898,0.0,0.0,234.113,253.213
2016-09-08 03:00,-0.00141406,290.939,289.805,259.683,292.86,290.375,262.61,0.0,0.0,234.401,253.88
2016-09-08 04:00,-0.00140752,290.813,290.229,260.119,293.119,290.648,262.61,0.0,0.0,234.257,254.256
2016-09-08 05:00,-0.0015084,290.685,289.486,259.902,292.34,289.964,262.136,0.0,0.0,235.038,253.974
2016-09-08 06:00,-0.00176096,290.558,289.272,259.793,292.079,289.689,262.136,0.0,0.0,234.756,253.974
2016-09-08 07:00,0.0,289.381,288.412,259.024,291.16,288.861,261.779,0.0,0.0,234.543,253.595
2016-09-08 08:00,0.0037912,289.647,288.412,259.134,291.16,288.722,261.898,0.0,0.0,234.329,253.5
2016-09-08 09:00,-0.0132467,290.429,289.165,259.464,291.817,289.276,261.779,-0.0224319,-0.0267467,234.041,253.309
2016-09-08 10:00,0.340877,291.19,288.52,259.024,291.16,288.861,261.898,0.457569,0.386104,234.472,254.068
2016-09-08 11:00,0.135405,293.007,288.843,259.574,291.555,289.137,261.421,0.201997,0.159482,234.472,253.785
2016-09-08 12:00,0.0332457,291.44,289.486,259.793,292.079,289.551,262.255,0.0985218,0.0545407,233.085,253.88
2016-09-08 13:00,0.0112566,291.315,289.911,259.902,292.6,290.238,262.017,0.0639935,0.0324692,232.557,254.162
2016-09-08 14:00,0.0138435,291.44,289.805,260.011,292.6,290.101,262.61,0.0539177,0.0293492,232.935,253.974
2016-09-08 15:00,0.0180431,291.315,289.272,259.244,292.079,289.689,262.61,0.0469225,0.0260223,233.382,254.162
2016-09-08 16:00,0.030814,291.44,288.736,259.354,291.686,289.137,261.898,0.0554416,0.0401819,232.251,254.907
2016-09-08 17:00,0.0150479,291.686,290.123,259.902,292.86,290.784,263.2,0.0428563,0.0248593,233.603,255.73
2016-09-08 18:00,0.0188809,291.809,290.229,259.902,292.989,290.784,262.847,0.0546203,0.0333574,233.159,254.907
2016-09-08 19:00,0.19236,294.491,288.843,259.134,291.686,289.964,262.373,0.203589,0.180039,233.53,254.814
2016-09-08 20:00,0.326484,295.26,288.736,259.464,291.686,289.413,262.728,0.348101,0.317397,232.633,254.722
2016-09-08 21:00,0.485131,292.771,288.951,259.354,291.555,289.137,261.54,0.488149,0.48267,231.473,254.068
2016-09-08 22:00,-0.0185909,290.429,289.379,259.354,291.948,289.276,261.898,0.0,0.0,232.02,254.256
2016-09-08 23:00,-0.4141,290.939,288.087,258.802,290.367,287.188,260.219,-0.177045,-0.293883,231.473,253.213
2016-09-09 00:00,0.0,287.871,284.982,257.233,286.997,284.205,259.249,0.0,0.0,231.076,251.552
2016-09-09 02:00,0.0,288.841,286.105,257.798,287.951,284.779,259.735,0.0,0.0,229.601,251.051
2016-09-09 03:00,0.0,289.91,287.432,258.691,289.3,286.343,259.856,0.0,0.0,230.101,251.051
2016-09-09 04:00,0.0,290.301,287.869,258.802,290.234,287.188,260.701,0.0,0.00141513,229.769,250.646
2016-09-09 05:00,0.0,290.301,287.541,258.358,289.568,286.343,259.856,0.0,0.0,230.348,250.544
2016-09-09 06:00,-0.00175418,289.91,286.772,257.798,288.493,285.065,259.37,0.0,0.0,229.852,249.408
2016-09-09 07:00,0.0,282.753,277.224,252.534,278.576,275.706,254.264,0.0,0.0,229.685,247.261
2016-09-09 08:00,0.0,285.665,282.799,255.858,285.061,282.467,258.27,0.0,0.0,230.348,248.775
2016-09-09 09:00,,,,,,,,,-0.0131716,,
2016-09-09 13:00,0.0080508,291.19,290.44,258.913,293.377,291.329,262.847,0.0627127,0.032511,233.01,255.548
2016-09-09 15:00,0.0490498,291.931,289.379,258.246,292.47,290.648,262.847,0.0721317,0.0534281,234.185,256.894
2016-09-09 16:00,0.012864,291.563,290.335,258.58,293.119,291.193,262.847,0.0424787,,232.02,254.629
2016-09-09 17:00,0.00960047,291.563,0.0,0.0,0.0,0.0,0.0,,0.0249229,232.481,254.536
2016-09-09 18:00,,292.414,0.0,0.0,0.0,,,,,,
2016-09-09 19:00,0.147049,295.26,288.951,257.798,291.817,289.551,262.255,0.179084,0.148454,233.823,254.722
2016-09-09 20:00,0.256241,292.174,287.212,257.233,289.701,288.027,261.66,0.351267,0.307965,234.543,254.722
2016-09-09 21:00,0.453405,290.558,287.76,257.233,290.234,288.445,262.136,0.548424,0.530396,235.936,254.907
2016-09-09 22:00,-0.0174529,289.247,287.978,257.006,290.632,288.445,261.421,0.0,0.0,237.913,255.548
2016-09-09 23:00,-0.403964,290.813,288.628,257.233,290.897,288.584,261.421,-0.174438,-0.273243,237.785,254.907
2016-09-10 00:00,0.0,290.685,289.272,257.572,291.817,289.276,261.54,0.0,0.0,235.525,254.068
2016-09-10 01:00,0.0,290.429,289.272,258.022,292.209,289.689,262.017,0.0,0.0,235.108,253.595
2016-09-10 02:00,-0.00151456,289.91,289.165,257.798,292.34,289.964,261.54,0.0,0.0,235.731,254.068
2016-09-10 03:00,0.0,288.568,287.651,257.12,290.5,288.306,260.822,0.0,0.0,236.004,254.162
2016-09-10 04:00,-0.00139602,290.429,289.058,257.798,291.555,289.137,261.182,0.0,0.0,235.662,254.162
2016-09-10 05:00,-0.00149681,290.171,288.951,257.798,291.292,288.722,261.301,0.0,0.0,235.936,254.722
2016-09-10 06:00,-0.00174751,290.301,288.951,257.798,291.555,288.722,261.182,0.0,0.0,234.401,254.349
2016-09-10 07:00,0.0,290.041,288.736,257.798,291.16,288.584,261.062,0.0,0.0,234.543,253.785
2016-09-10 08:00,0.00374988,289.647,288.303,257.572,290.897,288.167,261.062,0.0,0.00378572,234.257,253.309
2016-09-10 09:00,0.0,290.301,288.736,257.233,291.16,288.306,261.421,-0.0108831,-0.025953,234.756,253.5
2016-09-10 10:00,0.135112,290.558,288.628,257.346,291.16,288.584,261.062,0.336047,0.230181,234.897,253.785
2016-09-10 11:00,0.401817,290.939,284.869,255.16,287.543,285.777,260.098,0.521301,0.487444,235.455,254.068
2016-09-10 12:00,0.0604468,291.563,288.087,257.233,290.367,288.027,260.822,0.121774,0.0862763,235.936,254.349
2016-09-10 13:00,0.138658,291.315,285.882,255.626,288.358,286.343,260.581,0.185659,0.172538,235.731,254.536
2016-09-10 14:00,0.0430306,291.065,287.869,257.12,290.367,288.027,260.581,0.0787443,0.0546527,236.475,254.907
2016-09-10 15:00,0.0504209,291.44,287.978,256.892,290.5,288.445,261.421,0.0711522,0.0535134,235.731,254.349
2016-09-10 16:00,0.00773383,290.813,288.736,257.346,291.292,288.861,261.182,0.038198,0.0208207,234.543,253.5
2016-09-10 17:00,0.0398778,291.563,287.978,257.233,290.5,287.888,260.822,0.0698575,0.0485884,234.827,253.5
2016-09-10 18:00,0.069728,292.053,287.651,256.892,290.101,287.609,260.942,0.100634,0.0767941,236.675,254.068
2016-09-10 19:00,0.0749343,293.24,288.52,257.233,291.029,288.167,260.822,0.116605,0.0817845,236.675,254.256
2016-09-10 20:00,0.280172,295.476,288.628,257.798,291.292,288.445,261.301,0.299785,0.257984,237.006,254.349
2016-09-10 21:00,0.648773,293.472,288.195,257.346,291.029,288.584,261.301,0.549316,0.528446,237.657,255.183
2016-09-10 22:00,0.0,290.301,288.52,257.12,291.029,288.445,260.822,0.0,-0.0165981,237.592,254.907
2016-09-10 23:00,-0.274678,290.041,287.541,256.778,290.367,287.748,261.062,-0.138193,-0.229077,237.657,254.907
2016-09-11 00:00,-0.0023655,289.647,288.195,256.664,290.632,288.167,261.66,0.0,0.0,237.463,255.275
2016-09-11 01:00,-0.00177493,289.514,288.087,256.778,290.367,287.888,261.062,0.0,0.0,237.333,255.911
2016-09-11 02:00,-0.00150666,284.249,283.495,254.099,286.033,284.205,259.249,-0.00127568,0.0,237.072,255.639
2016-09-11 03:00,-0.00139496,288.705,287.322,256.32,289.568,287.329,261.301,0.0,0.0,236.341,255.366
2016-09-11 04:00,0.0,290.429,288.736,256.664,290.897,288.167,260.942,0.0,0.00140368,236.139,255.457
2016-09-11 05:00,0.0,287.871,287.432,256.434,289.835,287.469,261.301,0.0,0.0,236.675,255.639
2016-09-11 06:00,0.0,288.43,287.212,256.664,289.835,287.609,260.942,0.0,0.0,236.874,256.36
2016-09-11 07:00,-0.00228776,290.171,289.272,257.459,291.948,289.413,261.66,0.0,0.0,237.333,256.181
2016-09-11 08:00,0.0,289.647,289.165,257.685,292.34,290.101,261.898,0.0,0.0,236.94,256.36
2016-09-11 09:00,0.0126663,286.121,286.105,255.626,289.032,287.469,261.182,-0.0214492,-0.0255749,235.455,255.366
2016-09-11 10:00,0.383028,290.429,287.322,256.549,289.968,288.027,260.822,0.504481,0.438248,235.038,254.907
2016-09-11 11:00,0.217682,292.053,288.087,256.892,290.897,288.584,260.822,0.291597,0.249284,235.799,255.548
2016-09-11 12:00,0.0605457,292.294,289.593,257.572,292.47,290.511,261.779,0.12374,0.0822018,235.593,255.183
2016-09-11 13:00,0.0548942,292.653,289.165,257.685,292.47,290.511,262.373,0.0970587,0.0717187,235.386,254.999
2016-09-11 14:00,0.0389216,291.563,289.272,257.685,292.209,290.101,262.017,0.0776793,0.0519238,235.662,255.183
2016-09-11 15:00,0.0168347,291.315,288.843,257.233,291.555,289.551,261.54,0.0504369,0.0287618,235.108,255.091
2016-09-11 16:00,0.0426235,291.44,288.736,257.006,291.292,288.999,261.301,0.0688976,0.0521587,235.593,255.091
2016-09-11 17:00,0.0496366,291.686,288.843,257.006,291.555,289.413,262.017,0.0793848,0.0612469,235.178,254.814
2016-09-11 18:00,0.076349,293.007,288.951,257.572,291.686,289.413,262.136,0.107741,0.0818963,235.038,254.629
2016-09-11 19:00,0.0916384,294.268,289.699,257.685,292.6,290.238,261.66,0.127593,0.0966262,235.799,254.722
2016-09-11 20:00,0.233098,294.491,288.412,257.685,291.16,288.999,261.54,0.281572,0.244739,234.897,254.536
2016-09-11 21:00,0.861633,295.69,288.951,258.022,291.817,289.137,261.421,0.659148,0.694369,236.071,254.536
2016-09-11 22:00,-0.0155355,288.152,287.102,257.006,290.234,287.748,260.701,0.0,0.0,236.874,254.256
2016-09-11 23:00,-0.262879,290.685,288.412,257.685,291.029,288.306,261.182,-0.129561,-0.194093,238.168,254.907
2016-09-12 00:00,0.0,289.647,288.195,257.572,290.632,288.027,260.701,0.0,0.0,239.471,255.366
2016-09-12 01:00,-0.00176361,282.059,282.566,254.926,285.479,284.061,260.098,0.0,0.0,240.43,256.271
2016-09-12 02:00,0.0,284.888,284.185,256.089,286.997,284.922,260.219,0.0,0.0,240.607,255.911
2016-09-12 03:00,-0.00138876,288.705,287.541,258.358,290.101,287.469,261.062,0.0,0.0,240.841,256.091
2016-09-12 04:00,0.0,288.012,287.102,258.358,289.701,287.469,261.182,0.0,0.0,240.899,256.271
2016-09-12 05:00,0.0,288.012,286.661,257.685,288.897,286.767,260.701,0.0,0.0,240.724,256.539
2016-09-12 06:00,0.00173448,288.43,287.322,258.246,289.434,287.329,260.942,0.0,0.0,239.653,256.36
2016-09-12 07:00,0.0,288.841,287.212,258.022,289.568,287.188,261.062,0.0,0.0,238.546,255.73
2016-09-12 08:00,0.0,289.514,287.978,258.469,290.367,288.027,261.301,0.0,0.0,238.546,255.911
2016-09-12 09:00,0.0,288.705,287.541,258.022,289.701,287.748,260.942,0.0,0.0,237.977,255.911
2016-09-12 10:00,0.145868,290.685,288.087,258.58,290.764,288.167,261.66,0.348724,0.24255,236.94,255.821
2016-09-12 11:00,0.41373,291.686,283.841,256.32,286.31,284.492,259.735,0.452361,0.427551,237.006,255.275
2016-09-12 12:00,0.0543737,291.686,287.978,258.58,289.968,287.748,261.421,0.132802,0.0865628,236.742,255.73
2016-09-12 13:00,0.0371874,291.563,288.303,259.024,290.5,288.306,261.66,0.0917216,0.0603951,236.542,255.821
2016-09-12 14:00,0.128074,290.813,286.328,257.798,288.763,286.767,261.301,0.179161,0.165839,236.808,256.091
2016-09-12 15:00,0.136204,290.041,283.032,256.32,285.34,283.629,260.34,0.166945,0.151912,236.874,256.001
2016-09-12 16:00,0.0129435,290.685,287.322,258.58,289.032,286.202,260.822,0.0460287,0.0248277,236.94,255.639
2016-09-12 17:00,0.0912512,291.931,281.624,255.742,283.514,281.293,258.515,0.0983338,0.0935193,238.231,255.821
2016-09-12 18:00,0.113361,293.007,286.661,258.469,288.628,286.202,260.822,0.135186,0.114444,237.913,256.45
2016-09-12 19:00,0.118775,294.156,287.322,259.024,288.897,285.777,260.34,0.149116,0.115775,238.104,256.271
2016-09-12 20:00,0.423628,296.943,287.102,259.354,288.493,285.777,260.701,0.395882,0.367486,238.041,256.628
2016-09-12 21:00,1.27181,294.491,283.841,257.233,285.061,282.175,258.76,0.906123,1.11173,237.592,255.639
2016-09-12 22:00,0.0,268.382,267.18,247.859,269.186,268.505,253.368,0.0,0.0,237.977,254.068
2016-09-12 23:00,-0.208862,266.466,265.243,246.934,267.69,267.506,253.111,-0.101521,-0.148382,238.357,254.443
2016-09-13 00:00,0.0,279.081,278.845,254.454,280.931,279.81,258.638,0.0,0.0,238.857,256.45
2016-09-13 01:00,0.0,289.381,286.772,258.691,288.358,285.493,260.942,0.0,0.0,238.795,256.271
2016-09-13 02:00,0.00149119,284.57,279.336,255.043,281.655,278.458,257.158,0.0,0.0,238.104,255.821
2016-09-13 03:00,0.0,285.97,284.642,257.572,286.997,284.922,260.942,0.0,0.00139587,237.849,256.628
2016-09-13 04:00,-0.00137938,287.155,285.546,258.358,287.134,284.922,261.062,0.0,0.0,237.913,256.539
2016-09-13 05:00,-0.00148006,286.271,284.185,257.572,286.172,284.205,260.581,0.0,0.0,238.483,257.246
2016-09-13 06:00,-0.00172812,275.48,275.951,252.899,278.427,277.853,257.9,0.0,0.0,238.733,256.982
2016-09-13 07:00,-0.00226946,284.249,283.495,257.346,285.34,283.629,260.942,0.0,0.0,238.981,257.682
2016-09-13 08:00,0.0,290.685,287.322,259.244,288.493,285.919,261.062,0.0,0.0,239.043,257.942
2016-09-13 09:00,-0.0123085,290.685,287.869,259.354,288.763,286.485,261.301,0.0,-0.0124261,239.834,258.628
2016-09-13 10:00,0.596909,288.012,285.321,258.022,286.997,285.493,261.062,0.754441,0.689951,239.834,258.713
2016-09-13 12:00,0.40432,292.653,285.77,258.469,287.679,286.06,262.017,0.482464,0.442024,239.104,258.457
2016-09-13 13:00,0.124681,292.889,286.882,259.134,288.628,286.767,262.136,0.160408,0.129143,239.104,258.713
2016-09-13 14:00,0.195192,291.44,286.439,258.913,288.358,286.485,261.66,0.213668,0.197058,239.894,258.882
2016-09-13 15:00,0.00779677,291.065,288.628,260.011,290.101,287.609,262.373,0.0429098,0.0196782,239.653,259.554
2016-09-13 16:00,0.0272403,291.563,288.303,259.793,290.101,287.748,262.492,0.054915,0.0366676,239.894,259.22
2016-09-13 17:00,0.0485273,292.174,288.736,260.011,290.764,288.584,262.492,0.0786541,0.0587894,239.471,259.135
2016-09-13 18:00,0.0448783,293.124,289.058,260.337,290.897,288.861,263.318,0.080068,0.055016,239.41,259.135
2016-09-13 19:00,0.197717,293.816,288.303,260.119,290.632,288.861,263.2,0.235416,0.201686,239.714,259.554
2016-09-13 20:00,0.294706,296.427,289.272,260.661,291.423,289.137,263.2,0.295139,0.252735,239.41,259.804
2016-09-13 21:00,0.74858,294.38,289.911,260.984,292.209,290.101,263.318,0.586622,0.570822,239.227,260.135
2016-09-13 22:00,0.0,289.779,289.379,260.445,291.948,290.238,263.787,-0.0118414,-0.0141191,238.795,260.052
2016-09-13 23:00,-0.133474,291.563,290.123,260.769,292.47,290.648,264.138,-0.0742653,-0.1001,237.913,259.804
2016-09-14 00:00,0.0,288.705,288.628,260.119,291.16,289.964,264.138,0.0,0.0,237.592,259.721
2016-09-14 01:00,0.0,289.647,289.272,260.553,291.686,290.101,264.255,0.0,0.0,237.528,259.638
2016-09-14 02:00,0.0,290.939,290.123,260.769,292.47,290.921,263.787,0.0,0.0,238.041,259.804
2016-09-14 03:00,0.0,290.939,290.44,261.305,292.86,291.193,263.553,0.0,0.0,238.357,259.471
2016-09-14 04:00,0.0,290.685,290.44,261.198,293.119,291.329,264.255,0.0,0.0,238.42,259.304
2016-09-14 05:00,0.00147465,291.19,290.651,261.305,292.989,291.193,264.022,0.0,0.0,238.546,259.97
2016-09-14 06:00,0.0,290.939,290.44,260.984,292.989,291.193,264.022,0.0,0.0,239.653,260.545
2016-09-14 07:00,-0.00226053,290.939,290.651,260.876,292.989,291.464,263.787,0.0,0.0,239.714,260.708
2016-09-14 08:00,0.0,290.813,290.651,260.984,293.119,291.464,264.022,0.0,0.0,239.471,260.299
2016-09-14 09:00,-0.0121372,290.939,290.651,260.876,293.377,291.329,264.022,0.0,0.0,239.104,260.052
2016-09-14 10:00,0.113399,291.19,290.44,260.984,293.119,291.464,264.605,0.332358,0.211353,239.532,260.217
2016-09-14 11:00,0.0294821,291.315,290.545,260.661,293.248,291.6,264.138,0.149775,0.0826777,239.593,260.135
2016-09-14 12:00,0.0209866,291.44,290.44,260.661,292.989,291.464,264.138,0.0977314,0.0529681,239.532,260.217
2016-09-14 13:00,0.0129737,291.686,290.756,260.876,293.377,291.735,264.721,0.0686553,0.0360189,239.593,260.299
2016-09-14 14:00,0.00977497,291.563,290.965,260.661,293.635,292.006,264.488,0.050841,0.0281955,239.227,260.381
2016-09-14 15:00,0.0221309,291.686,290.44,260.337,293.119,291.329,264.138,0.058419,0.0394278,238.546,260.627
2016-09-14 16:00,0.0182007,291.686,290.545,260.661,292.989,291.6,263.905,0.0440299,0.027562,238.104,260.627
2016-09-14 17:00,0.0264194,292.294,290.965,260.769,293.892,292.276,264.255,0.0506251,0.0350946,239.41,261.755
2016-09-14 18:00,0.0177002,292.174,291.591,261.091,294.405,292.948,264.953,0.05041,0.0308654,239.774,261.435
2016-09-14 19:00,0.0393592,292.771,291.279,260.769,294.021,292.41,264.488,0.0841905,0.0564662,238.919,261.113
2016-09-14 20:00,0.14403,294.156,291.383,260.661,294.149,292.545,264.255,0.20054,0.155101,239.104,261.515
2016-09-14 22:00,-0.0133176,287.587,287.432,258.58,289.835,288.722,262.492,0.0,0.0,239.288,260.708
2016-09-14 23:00,-0.10154,290.685,288.736,259.134,290.632,288.722,261.66,-0.0668683,-0.0759336,238.795,260.299
2016-09-15 00:00,-0.00228567,287.3,283.841,256.32,285.201,282.467,257.282,0.0,0.0,237.072,257.246
2016-09-15 01:00,0.0,291.19,290.651,260.553,292.86,290.921,263.67,0.0,0.0,240.312,261.675
2016-09-15 02:00,0.0,290.171,289.165,259.574,291.292,288.999,262.728,0.0,0.0,240.014,261.033
2016-09-15 03:00,0.0,290.558,289.805,259.902,292.079,290.101,262.965,0.0,0.0,240.43,261.834
2016-09-15 04:00,0.0,290.685,289.911,260.119,292.47,290.375,262.847,0.0,0.00138178,240.489,261.755
2016-09-15 05:00,0.0,290.939,290.44,260.337,293.119,291.329,263.553,0.0,0.0,239.593,261.194
2016-09-15 06:00,0.0,290.939,290.651,260.553,293.248,291.6,264.255,0.0,0.0,239.043,260.789
2016-09-15 07:00,0.00225173,289.779,288.195,259.024,289.968,288.306,261.66,0.0,0.0,237.268,258.798
2016-09-15 08:00,0.0,291.065,291.279,260.661,294.021,292.41,264.138,0.0,0.0,239.104,260.708
2016-09-15 09:00,0.0,291.315,291.174,260.769,293.892,292.276,264.837,-0.0101354,-0.0120849,239.349,260.871
2016-09-15 10:00,0.114361,291.563,290.651,260.337,293.377,292.006,263.787,0.335178,0.222027,239.227,260.871
2016-09-15 11:00,0.121551,291.44,287.978,259.464,290.101,287.609,261.421,0.205835,0.152563,238.104,258.286
2016-09-15 12:00,0.103024,290.558,285.095,257.459,286.86,284.349,258.76,0.156658,0.133725,237.463,256.894
2016-09-15 13:00,0.0146186,291.065,289.486,260.228,292.079,289.964,262.847,0.0701394,0.0377158,238.919,258.882
2016-09-15 14:00,0.0111896,290.939,288.951,260.011,291.16,288.722,262.017,0.0532925,0.0296535,237.849,258.286
2016-09-15 15:00,0.0234764,289.247,283.495,256.892,284.361,280.998,257.406,0.0618409,0.0421348,234.756,253.785
2016-09-15 16:00,0.0495148,286.864,276.463,253.261,275.703,271.765,251.159,0.0860547,0.0723512,231.156,249.721
2016-09-15 17:00,0.165957,282.923,262.616,245.723,260.524,254.664,237.977,0.204278,0.204149,227.959,243.457
2016-09-15 18:00,0.345732,277.24,243.496,235.823,240.152,236.872,228.278,0.374805,0.407754,222.15,232.829
2016-09-15 19:00,0.381337,288.012,267.18,247.728,267.354,264.279,247.279,0.379336,0.399708,230.101,247.371
2016-09-15 20:00,0.575538,288.568,266.442,247.067,265.654,262.008,243.525,0.585863,0.639797,230.43,247.371
2016-09-15 21:00,0.345245,284.888,278.598,253.86,280.054,277.396,254.646,0.434912,0.535569,233.159,253.213
2016-09-15 22:00,-0.0254181,251.282,246.313,236.466,247.012,245.399,236.765,0.0,0.0,228.921,240.706
2016-09-15 23:00,-0.0853148,251.944,250.175,238.81,250.623,249.955,241.229,-0.0565325,-0.056172,229.517,241.093
2016-09-16 00:00,0.0,275.251,274.261,251.922,275.857,274.304,254.519,0.0,0.0,230.266,248.348
2016-09-16 01:00,0.0,260.827,249.781,238.503,247.662,245.612,235.227,0.0,0.0,222.906,232.669
2016-09-16 02:00,-0.00146882,250.598,242.597,235.337,241.58,240.802,233.503,0.0,0.0,224.156,231.53
2016-09-16 03:00,0.0,267.444,261.017,244.21,261.791,259.864,245.35,0.0,0.0,228.4,244.294
2016-09-16 04:00,-0.00136348,273.586,268.054,247.859,268.358,266.16,249.971,0.0,0.0,229.178,246.595
2016-09-16 05:00,0.0,278.883,277.35,254.217,279.022,276.323,256.035,0.0,0.0,230.511,249.928
2016-09-16 06:00,0.0,284.41,281.505,256.089,282.946,280.702,258.023,0.0,0.0,229.769,249.093
2016-09-16 07:00,0.00224306,275.48,275.046,252.777,277.075,276.323,256.16,0.0,0.0,231.076,248.775
2016-09-16 08:00,0.00363382,288.841,285.095,258.469,286.722,283.339,258.27,0.0,0.0,231.076,249.825
2016-09-16 09:00,-0.0118081,259.045,246.102,236.943,246.575,243.679,235.691,-0.00999791,-0.023842,228.921,236.614
2016-09-16 10:00,0.603365,289.91,278.598,254.099,278.278,273.2,252.335,0.608534,0.555386,229.852,244.647
2016-09-16 11:00,0.606244,293.587,267.618,247.991,267.185,261.831,245.489,0.527254,0.552166,229.517,241.602
2016-09-16 12:00,0.0884738,286.421,279.458,255.043,280.347,277.091,255.153,0.173008,0.138233,230.593,249.093
2016-09-16 13:00,0.0667051,291.44,286.105,258.246,287.679,284.779,259.614,0.110203,0.0837678,232.097,251.352
2016-09-16 14:00,0.0224169,291.19,287.76,259.134,289.166,286.626,260.701,0.0640587,0.0353612,233.234,253.405
2016-09-16 15:00,0.0705646,290.939,287.76,258.469,289.835,287.469,261.54,0.0984719,0.0831124,234.401,255.639
2016-09-16 16:00,0.0352641,291.44,288.412,258.691,290.367,288.027,261.54,0.0608219,0.0435126,235.455,257.07
2016-09-16 17:00,0.0251783,291.686,288.951,259.134,291.16,288.861,262.136,0.0532961,0.033892,236.542,257.682
2016-09-16 18:00,0.0713759,292.771,289.058,258.913,291.686,289.689,262.728,0.0947713,0.0802466,235.662,257.595
2016-09-16 19:00,0.115299,294.602,289.911,259.244,292.73,290.921,263.083,0.145548,0.122751,235.178,256.894
2016-09-16 20:00,0.369169,296.531,290.017,259.244,293.119,291.6,263.553,0.354067,0.336418,234.897,256.271
2016-09-16 21:00,0.58097,292.889,290.229,259.244,293.377,291.735,263.436,0.50659,0.525246,234.827,256.001
2016-09-16 22:00,-0.0121526,289.647,290.017,258.913,293.377,292.141,263.67,0.0,0.0,235.247,256.45
2016-09-16 23:00,-0.084165,290.685,289.379,258.802,292.6,291.193,262.847,-0.0588689,-0.0591092,236.742,256.894
2016-09-17 00:00,0.0,289.647,289.593,258.913,292.86,291.057,262.965,0.0,0.0,237.463,256.894
2016-09-17 01:00,0.0,289.779,289.058,258.58,292.079,289.964,262.61,0.0,0.0,237.528,256.091
2016-09-17 02:00,-0.00292318,286.864,286.661,257.233,289.434,287.748,262.255,0.0,0.0,236.874,255.457
2016-09-17 03:00,0.0,290.558,289.058,258.691,291.686,289.137,261.779,0.0,0.0,238.041,255.73
2016-09-17 04:00,0.0,290.685,289.486,258.913,292.34,289.826,262.017,0.0,0.0,238.857,255.821
2016-09-17 05:00,0.0,289.113,288.52,258.469,291.292,288.999,261.898,0.0,0.0,239.349,256.271
2016-09-17 06:00,-0.00170364,290.429,289.486,258.691,292.34,289.689,261.779,0.0,0.00171993,239.288,256.181
2016-09-17 07:00,0.0,290.429,289.272,259.134,292.34,289.826,261.898,0.0,0.0,239.349,256.181
2016-09-17 08:00,0.0,287.729,287.651,257.798,290.367,288.445,262.017,0.0,0.0,239.532,256.628
2016-09-17 09:00,-0.0116498,289.247,288.303,257.91,291.16,288.999,261.779,-0.00986388,-0.0117612,239.166,256.628
2016-09-17 10:00,0.286439,290.939,289.272,258.022,291.686,289.551,261.779,0.454738,0.352434,239.166,257.682
2016-09-17 11:00,0.0693986,291.809,289.486,258.246,292.079,289.826,262.492,0.179077,0.113434,238.104,257.682
2016-09-17 12:00,0.0232171,291.315,289.805,258.58,292.47,290.101,262.492,0.101863,0.0554013,238.168,258.114
2016-09-17 13:00,0.0554102,292.053,288.628,258.134,291.16,288.999,261.898,0.099351,0.067457,235.386,257.07
2016-09-17 14:00,0.129121,291.809,287.102,257.572,289.835,287.748,261.779,0.155672,0.13744,233.085,255.911
2016-09-17 15:00,0.0693949,287.729,280.187,253.501,282.087,279.361,255.406,0.11197,0.0978173,229.769,248.455
2016-09-17 16:00,0.0209475,291.686,289.272,258.358,291.948,289.413,262.136,0.0509915,0.0330433,231.709,255.091
2016-09-17 17:00,0.0448992,291.809,288.951,0.0,291.686,289.276,261.779,0.0724681,0.055244,233.085,255.366
2016-09-17 18:00,0.166151,292.414,287.541,257.572,290.367,288.722,262.373,0.188952,0.175962,235.525,256.45
2016-09-17 20:00,0.356567,294.933,287.869,257.346,289.968,287.888,261.66,0.37179,0.333311,236.274,256.716
2016-09-17 21:00,0.00893827,262.869,264.635,245.451,265.482,265.99,252.205,0.219473,0.162427,237.268,250.849
2016-09-17 22:00,-0.0116422,277.661,276.336,251.429,278.278,277.243,256.035,0.0,0.0,238.231,255.457
2016-09-17 23:00,-0.090268,290.041,287.76,257.459,289.434,287.048,260.942,-0.0580866,-0.0546786,238.733,258.114
2016-09-18 00:00,0.0,282.234,281.742,254.336,283.514,282.175,258.882,0.0,0.0,239.104,256.805
2016-09-18 01:00,0.0,281.526,280.308,253.621,282.517,280.998,258.882,0.0,0.0,238.608,255.639
2016-09-18 02:00,-0.00145448,287.3,285.77,256.089,287.679,285.777,260.098,0.0,0.0,237.721,256.181
2016-09-18 03:00,0.0,289.247,287.76,257.346,289.568,287.048,261.421,0.0,0.0,236.808,256.716
2016-09-18 04:00,0.0,288.43,286.661,256.664,288.763,286.485,260.461,0.0,0.0,235.731,255.821
2016-09-18 05:00,0.0,289.514,287.978,257.685,290.234,287.748,261.54,0.0,0.0,233.677,255.366
2016-09-18 06:00,0.0,288.841,287.212,257.006,288.763,286.485,260.701,0.0,0.0,234.041,254.722
2016-09-18 07:00,0.0,288.152,285.994,256.434,287.951,285.35,260.219,0.0,0.0,235.662,254.722
2016-09-18 08:00,0.0,286.271,284.869,255.742,286.86,284.636,259.492,0.0,0.0,236.874,255.275
2016-09-18 09:00,-0.0114953,288.705,287.322,257.233,289.3,286.485,260.34,0.0,-0.0116052,237.006,256.001
2016-09-18 10:00,0.270952,290.685,287.541,257.459,289.434,286.907,260.701,0.443535,0.337369,235.867,255.639
2016-09-18 11:00,0.222096,292.053,287.432,257.233,289.701,287.888,261.182,0.280669,0.227565,234.615,255.548
2016-09-18 12:00,0.0951707,292.414,288.087,257.91,290.367,288.306,261.421,0.15758,0.119567,233.823,255.183
2016-09-18 13:00,0.0440794,291.686,288.951,258.246,291.423,289.137,261.779,0.0981429,0.0659271,233.677,255.639
2016-09-18 14:00,0.0182782,290.939,290.017,258.913,292.73,291.057,262.61,0.063095,0.0383253,233.308,255.548
2016-09-18 15:00,0.017056,291.19,290.229,259.024,293.119,291.057,263.083,0.0544327,0.0344382,232.405,256.091
2016-09-18 16:00,0.0196866,291.44,290.229,259.134,293.506,291.464,263.083,0.0533396,0.0331247,232.02,256.091
2016-09-18 17:00,0.0492627,292.653,289.593,258.802,292.6,290.648,262.847,0.0750791,0.0554174,231.156,255.639
2016-09-18 18:00,0.07852,293.007,289.058,258.58,291.948,289.413,262.136,0.110805,0.087528,231.552,255.366
2016-09-18 19:00,0.127338,293.702,288.303,258.358,290.897,288.445,262.017,0.177897,0.156408,231.552,254.814
2016-09-18 20:00,0.507236,295.26,284.528,256.205,286.447,284.205,259.492,0.514241,0.555882,231.787,253.785
2016-09-18 21:00,2.09369,290.685,272.931,250.429,275.857,274.147,255.406,1.45254,2.03922,234.472,253.213
2016-09-18 22:00,0.0,288.568,285.994,257.346,288.087,285.208,259.856,0.0,0.0,233.308,253.405
2016-09-18 23:00,-0.0748322,289.779,287.76,258.58,289.968,287.609,261.182,-0.0663775,-0.050365,232.02,254.162
2016-09-19 00:00,0.0,290.171,288.628,258.802,291.029,288.027,261.182,0.0,0.0022327,231.473,254.256
2016-09-19 01:00,-0.00337817,290.041,289.058,258.913,291.16,288.584,261.66,0.0,0.0,230.996,255.091
2016-09-19 02:00,-0.00289497,284.087,282.799,255.626,285.618,283.773,260.219,0.0,0.0,230.593,254.068
2016-09-19 03:00,-0.00134792,289.113,287.212,258.246,289.166,286.767,260.461,0.0,0.0,230.101,253.021
2016-09-19 04:00,-0.00134832,289.91,288.843,259.134,291.292,288.861,262.255,0.0,0.0,231.076,254.722
2016-09-19 05:00,-0.00144885,288.841,287.322,258.469,289.701,287.469,261.66,0.0,0.0,230.593,254.443
2016-09-19 06:00,-0.00169198,290.041,288.52,259.024,290.5,288.027,261.66,0.0,0.0,230.674,254.256
2016-09-19 07:00,0.0,286.864,285.77,257.572,288.493,286.485,261.66,0.0,0.0,230.266,254.536
2016-09-19 08:00,0.0,290.171,288.736,259.464,291.292,288.999,262.136,0.0,0.0,229.852,254.814
2016-09-19 09:00,0.0113444,288.43,287.212,258.802,289.568,287.609,261.421,-0.00960526,-0.0114528,230.101,254.814
2016-09-19 10:00,0.683606,281.883,276.336,253.02,279.318,278.609,257.9,0.710005,0.726948,229.517,253.595
2016-09-19 11:00,0.126362,291.809,284.414,257.459,285.618,282.321,258.76,0.205535,0.137642,230.674,253.595
2016-09-19 13:00,0.240423,287.587,281.624,255.742,283.372,281.882,259.127,0.391898,0.389675,232.02,254.443
2016-09-19 14:00,0.116916,291.563,286.328,258.469,288.087,285.493,260.822,0.150277,0.125144,232.251,255.457
2016-09-19 15:00,0.190638,289.381,284.982,257.685,287.134,285.208,260.701,0.244903,0.236262,233.308,255.911
2016-09-19 16:00,0.106576,280.427,264.635,246.13,263.569,259.684,242.956,0.139255,0.138146,227.601,243.457
2016-09-19 17:00,0.163793,282.234,272.796,250.806,273.215,270.798,251.553,0.247478,0.255166,229.935,249.303
2016-09-19 18:00,0.187288,286.569,274.261,251.18,275.087,271.444,250.765,0.221173,0.204006,226.405,244.53
2016-09-19 19:00,0.264825,285.818,267.18,247.465,265.826,261.654,244.372,0.271242,0.273825,225.835,240.964
2016-09-19 20:00,0.698333,283.261,253.963,240.913,250.83,248.327,235.072,0.639836,0.725444,222.692,234.236
2016-09-19 21:00,1.27676,286.121,264.175,246.667,259.791,257.671,241.808,0.88741,1.18315,225.352,240.053
2016-09-19 22:00,0.0,281.705,275.306,252.534,275.087,271.765,251.553,0.0,0.0,228.312,247.699
2016-09-19 23:00,-0.0809018,288.977,286.661,258.691,288.493,285.635,260.461,-0.0625429,-0.0461642,232.935,255.366
2016-09-20 00:00,0.0,288.568,286.882,258.913,288.763,286.343,260.822,0.0,0.0,233.75,255.911
2016-09-20 01:00,-0.00335828,289.514,287.978,259.574,289.701,287.048,261.54,0.0,0.0,234.185,256.982
2016-09-20 02:00,0.0,287.3,284.982,257.91,286.86,283.917,259.492,0.0,0.0,233.823,256.271
2016-09-20 03:00,0.0,285.665,284.982,257.685,286.86,284.922,260.822,0.0,0.0,234.615,257.07
2016-09-20 04:00,0.00134344,285.97,285.546,258.469,287.679,285.777,261.301,0.0,0.0,234.329,256.894
2016-09-20 05:00,0.0,287.587,286.328,258.58,288.087,286.06,260.822,0.0,0.0,234.827,256.628
2016-09-20 06:00,0.00168629,289.647,287.102,259.354,288.628,285.635,260.219,0.0,0.0,235.178,254.999
2016-09-20 07:00,0.0,279.667,275.176,253.02,276.923,274.773,255.658,0.0,0.0,234.615,253.021
2016-09-20 08:00,0.0,266.797,260.201,245.04,261.069,259.321,246.732,0.0,0.0,232.02,247.151
2016-09-20 09:00,-0.0111968,262.869,254.69,242.513,254.854,253.122,241.808,-0.00948028,0.0,229.517,243.336
2016-09-20 10:00,0.671632,262.869,242.824,235.662,242.747,240.35,232.547,0.69331,0.789513,226.311,237.185
2016-09-20 11:00,0.353625,281.705,264.482,246.667,262.863,259.139,243.099,0.392628,0.380582,226.499,239.255
2016-09-20 12:00,0.218758,289.381,270.468,250.681,270.819,266.16,247.551,0.255355,0.240147,227.78,242.848
2016-09-20 13:00,0.183522,263.636,245.248,237.101,243.209,241.475,234.134,0.296902,0.311,223.013,230.354
2016-09-20 14:00,0.0508072,287.587,278.968,255.277,278.873,274.929,252.853,0.105156,0.079789,228.662,246.258
2016-09-20 15:00,0.27142,273.088,253.226,241.061,254.263,252.927,242.527,0.34137,0.360476,227.329,240.835
2016-09-20 16:00,0.360126,270.434,240.039,234.845,240.152,238.978,232.867,0.494794,0.542024,222.692,232.988
2016-09-20 17:00,0.324406,257.103,225.611,228.004,225.615,224.756,222.329,0.605722,0.669316,219.982,223.167
2016-09-20 18:00,0.394368,257.103,223.252,226.674,222.806,221.875,220.86,0.733485,0.819597,218.264,220.763
2016-09-20 19:00,0.517996,263.255,224.279,227.248,223.758,223.043,221.598,0.795279,0.909191,219.137,222.313
2016-09-20 20:00,0.835719,266.131,218.474,224.708,218.13,216.972,217.055,0.955985,1.12609,215.167,216.909
2016-09-20 21:00,1.35004,266.466,226.902,228.378,226.82,225.318,222.873,1.10136,1.52212,220.801,225.994
2016-09-20 22:00,-0.0206764,227.984,225.282,227.628,224.694,223.905,221.965,0.0,0.0,219.014,221.658
2016-09-20 23:00,-0.0590373,253.206,243.049,235.985,242.747,241.027,233.976,-0.0793908,-0.0455778,226.027,235.444
2016-09-21 00:00,0.0,260.827,256.118,242.656,256.213,254.089,243.383,0.0,0.0,227.42,242.602
2016-09-21 01:00,0.0,255.521,254.328,241.936,256.789,255.614,244.932,0.0,0.0,227.87,243.214
2016-09-21 02:00,0.0,262.475,260.854,245.723,262.507,261.831,248.768,0.0,0.0,228.662,245.46
2016-09-21 03:00,0.0,256.589,249.583,238.503,248.093,247.708,239.47,0.0,0.0,225.835,236.033
2016-09-21 04:00,0.0,232.213,231.427,230.027,232.23,231.459,228.109,0.0,0.0,223.849,229.137
2016-09-21 05:00,-0.00143911,264.009,260.854,245.995,261.069,259.684,244.792,0.0,0.0,226.405,242.23
2016-09-21 06:00,0.0,268.382,261.662,245.587,263.393,261.121,246.732,0.0,0.0,228.4,244.647
2016-09-21 07:00,0.00220162,222.276,221.117,225.504,221.182,220.685,219.362,0.0,0.0,217.622,219.372
2016-09-21 08:00,-0.00354452,242.013,231.713,230.387,230.853,229.385,226.574,0.0,0.0,220.916,225.604
2016-09-21 09:00,-0.0110523,243.066,230.559,229.665,229.729,227.787,224.481,-0.00935793,-0.0111579,219.503,228.242
2016-09-21 10:00,0.510895,243.066,221.117,225.504,220.184,219.472,218.601,0.873012,1.03156,216.83,219.608
2016-09-21 11:00,0.461911,268.073,245.248,237.258,244.8,243.243,233.976,0.742521,0.824519,222.259,232.988
2016-09-21 12:00,0.334186,267.761,242.597,235.823,242.049,239.895,233.026,0.636198,0.689804,224.661,235.887
2016-09-21 13:00,0.328352,269.283,239.317,234.35,237.702,234.461,228.614,0.479576,0.498894,221.371,230.183
2016-09-21 14:00,0.278576,261.251,236.832,233.344,235.414,232.976,228.949,0.463359,0.48967,221.819,229.314
2016-09-21 15:00,0.233725,264.739,237.086,233.005,235.414,233.225,228.109,0.367838,0.381268,221.371,227.323
2016-09-21 16:00,0.2923,269.865,253.226,241.5,253.069,251.156,239.913,0.397551,0.424615,226.405,240.706
2016-09-21 17:00,0.334013,260.827,228.769,229.118,228.293,227.517,225.185,0.547564,0.608405,221.031,225.799
2016-09-21 18:00,0.28176,276.155,256.294,242.799,256.021,252.536,240.354,0.335395,0.341344,223.118,236.179
2016-09-21 19:00,0.361274,285.202,260.854,245.314,259.791,255.425,241.953,0.371831,0.377832,224.359,238.714
2016-09-21 20:00,0.845158,278.684,242.142,235.823,239.183,236.396,229.116,0.794455,0.922889,221.145,229.664
2016-09-21 21:00,1.00002,272.836,243.719,236.146,240.392,237.581,230.111,0.743036,0.988976,219.744,227.877
2016-09-21 22:00,-0.00996648,258.096,241.913,235.173,239.183,237.109,229.449,0.0,0.0,221.145,229.664
2016-09-21 23:00,-0.048011,251.282,239.317,234.183,238.446,237.109,230.44,-0.0900125,-0.0484699,221.708,229.838
2016-09-22 00:00,0.00215974,249.156,240.039,234.017,237.951,236.872,230.768,0.0,0.0,222.15,229.489
2016-09-22 01:00,-0.00331957,258.576,247.973,238.195,246.355,244.112,235.227,0.0,0.0,224.258,233.928
2016-09-22 02:00,0.0,282.753,277.977,254.217,278.725,276.169,255.406,0.0,0.0,228.224,248.025
2016-09-22 03:00,-0.0013318,275.48,273.199,252.168,274.933,273.517,254.519,0.0,0.0,225.739,246.145
2016-09-22 04:00,0.00133391,274.551,272.796,251.922,274.933,273.359,253.24,0.0,0.0,228.575,248.025
2016-09-22 05:00,0.0,283.76,282.096,257.346,285.061,283.484,260.219,0.0,0.0,230.184,251.949
2016-09-22 06:00,0.0,276.594,278.226,255.16,281.51,281.146,259.735,0.0,0.00169118,231.076,252.537
2016-09-22 07:00,0.0,277.451,278.35,255.393,282.087,281.441,259.977,0.0,0.0,232.328,253.213
2016-09-22 08:00,-0.00352732,283.924,281.624,257.346,283.938,281.293,257.9,0.0,0.0,231.63,252.731
2016-09-22 09:00,-0.0218214,284.73,279.458,255.51,279.907,276.323,253.625,-0.00923805,-0.011015,228.662,249.198
2016-09-22 10:00,0.318941,289.514,284.071,258.022,285.201,281.882,257.53,0.476553,0.388282,229.852,252.342
2016-09-22 11:00,0.204875,288.43,279.213,254.926,279.613,276.323,254.264,0.281529,0.233959,228.136,249.408
2016-09-22 12:00,0.12374,291.809,285.994,258.913,287.679,285.065,259.735,0.186057,0.148615,231.076,254.068
2016-09-22 13:00,0.195759,291.19,285.095,258.691,286.86,284.922,260.098,0.228427,0.210917,230.184,253.69
2016-09-22 14:00,0.0892685,288.568,281.978,256.664,282.946,280.108,257.034,0.123573,0.105857,229.178,251.552
2016-09-22 15:00,0.121759,281.346,266.886,247.991,265.654,262.008,244.09,0.165846,0.160335,225.449,244.881
2016-09-22 16:00,0.104769,290.939,286.328,259.354,288.358,286.767,261.54,0.122394,0.108448,230.511,256.181
2016-09-22 17:00,0.0584718,292.414,288.736,260.661,290.897,288.999,262.847,0.0772808,0.0604706,231.865,257.07
2016-09-22 18:00,0.0482819,292.653,289.272,260.445,291.423,289.276,262.255,0.0789411,0.0571475,232.097,257.246
2016-09-22 19:00,0.154607,293.93,286.105,258.802,287.679,284.922,259.735,0.173311,0.147291,232.251,256.001
2016-09-22 20:00,0.614096,293.472,272.796,250.931,271.142,267.004,246.594,0.531771,0.560083,226.216,246.145
2016-09-22 21:00,1.01572,293.356,288.195,259.683,290.101,288.027,261.779,0.689799,0.779755,234.401,258.372
2016-09-22 22:00,-0.00962109,290.041,289.699,261.091,291.948,290.101,263.083,0.0,0.0,235.178,258.967
2016-09-23 00:00,0.00214318,290.558,290.335,260.876,293.119,291.329,263.787,0.0,0.00216367,236.808,259.387
2016-09-23 01:00,-0.00165038,290.558,290.756,260.769,293.377,291.6,264.721,0.0,0.0,236.742,259.304
2016-09-23 02:00,0.0,291.065,291.174,260.769,294.277,292.679,264.255,0.0,0.0,236.341,259.804
2016-09-23 03:00,0.0,290.429,290.335,260.445,293.119,291.329,263.2,0.0,0.0,235.386,258.967
2016-09-23 04:00,0.0,290.813,290.86,260.876,293.892,292.141,264.255,0.0,0.0,235.936,259.471
2016-09-23 05:00,0.0014297,290.685,290.651,260.661,293.764,292.006,264.138,0.0,0.0,235.867,258.713
2016-09-23 06:00,0.0,290.301,290.86,261.198,293.764,292.141,264.372,0.0,0.0,236.742,258.543
2016-09-23 07:00,-0.00218585,291.315,291.279,261.305,294.533,293.082,264.605,0.0,0.0,237.721,259.22
2016-09-23 08:00,0.0,290.939,290.756,260.984,293.764,291.735,263.905,0.0,0.0,237.977,259.387
2016-09-23 09:00,0.0,290.558,290.335,260.769,292.989,290.784,263.787,0.0,0.0,238.981,259.471
2016-09-23 10:00,0.104231,290.939,290.017,260.445,292.86,290.784,263.67,0.353008,0.229587,239.471,259.554
2016-09-23 11:00,0.0808895,291.686,290.123,260.661,293.119,291.193,263.787,0.188345,0.119092,239.41,259.135
2016-09-23 12:00,0.109062,293.702,289.058,259.902,291.817,289.964,263.318,0.157526,0.120899,240.193,259.721
2016-09-23 13:00,0.0181327,290.939,289.805,260.445,292.079,290.101,263.2,0.0753689,0.0399404,239.653,259.554
2016-09-23 14:00,0.0454374,291.686,289.272,260.337,291.686,289.964,263.083,0.0757413,0.0544727,240.43,260.627
2016-09-23 15:00,0.0411229,291.686,289.165,259.793,291.423,289.689,263.318,0.067391,0.0482121,240.312,260.789
2016-09-23 16:00,0.0319161,291.19,289.379,259.793,291.555,289.689,262.965,0.0585505,0.0402765,240.489,260.708
2016-09-23 17:00,0.0472248,292.053,289.272,259.793,291.292,289.276,262.847,0.0763353,0.0563447,240.253,260.789
2016-09-23 18:00,0.0568657,292.771,289.272,260.011,291.423,289.137,262.847,0.0849672,0.0624748,239.471,260.708
2016-09-23 19:00,0.127141,294.043,288.736,260.011,290.5,288.445,262.373,0.155907,0.121717,239.166,259.97
2016-09-23 20:00,0.518879,294.268,281.742,255.974,283.088,280.406,257.777,0.475198,0.47395,235.662,255.457
2016-09-23 21:00,1.49403,286.717,277.35,253.98,280.347,279.511,258.147,0.995253,1.36414,237.977,258.628
2016-09-23 22:00,-0.0092995,282.923,279.823,255.393,282.517,280.998,258.515,0.0,-0.0093884,236.874,257.246
2016-09-23 23:00,-0.0568848,277.451,274.129,252.168,276.923,276.323,255.909,-0.0906622,-0.0472942,235.247,255.183
2016-09-24 00:00,0.0,278.684,276.591,253.621,279.318,278.307,257.034,0.0,0.0,235.867,256.805
2016-09-24 01:00,0.0,285.202,283.264,257.12,285.757,0.0,261.062,0.0,0.0,237.977,259.22
2016-09-24 02:00,0.0,289.647,288.736,259.793,290.632,288.445,262.61,0.0,0.0,237.592,259.638
2016-09-24 03:00,0.0,289.514,288.843,260.011,291.16,288.999,262.492,0.0,0.0,238.168,259.638
2016-09-24 04:00,0.00132472,290.301,289.486,259.902,291.948,289.826,263.436,0.0,0.0,237.657,259.471
2016-09-24 05:00,0.0,290.041,289.593,260.119,291.817,289.689,263.083,0.0,0.0,237.721,259.554
2016-09-24 06:00,0.0,290.171,289.699,260.337,292.079,289.964,262.965,0.0,0.0,238.357,259.887
2016-09-24 07:00,-0.00217812,288.705,288.843,259.683,291.16,289.551,262.847,0.0,0.0,238.546,260.299
2016-09-24 08:00,0.0,290.939,289.805,259.902,292.34,290.375,263.436,0.0,0.0,239.774,260.871
2016-09-24 09:00,0.0,289.91,289.379,259.793,291.686,289.689,262.965,-0.00900512,-0.0107372,239.471,261.355
2016-09-24 10:00,0.287218,290.813,288.951,259.354,291.029,289.137,262.61,0.462056,0.376953,240.253,261.595
2016-09-24 11:00,0.554739,291.809,283.38,256.549,286.033,284.779,261.421,0.5728,0.611265,240.607,261.755
2016-09-24 12:00,0.437311,292.889,280.549,254.926,283.23,282.758,260.701,0.510029,0.515073,241.131,261.755
2016-09-24 13:00,0.160237,293.124,284.869,257.233,287.543,286.343,262.017,0.187424,0.171775,241.647,262.23
2016-09-24 14:00,0.0725715,291.931,288.195,259.024,290.367,288.999,262.728,0.10482,0.0732652,241.93,262.545
2016-09-24 15:00,0.00797821,290.813,290.229,259.902,292.86,290.784,263.2,0.0427825,0.0214786,242.099,262.466
2016-09-24 16:00,0.00933502,291.065,290.44,260.119,292.86,290.921,263.67,0.0395197,0.0201948,242.489,262.935
2016-09-24 17:00,0.0114885,291.19,290.335,259.464,292.6,290.784,263.436,0.0425571,0.0246465,242.6,263.012
2016-09-24 18:00,0.0218438,291.931,290.229,259.902,292.73,291.057,263.553,0.0583307,0.0356234,242.544,263.167
2016-09-24 19:00,0.057379,292.889,290.335,259.683,292.73,290.784,263.67,0.106508,0.0757514,242.984,263.476
2016-09-24 20:00,0.189287,294.268,290.229,259.793,292.73,291.057,263.2,0.241916,0.191097,242.82,263.09
2016-09-24 21:00,0.868131,292.653,289.911,259.244,292.34,290.648,263.318,0.609314,0.668855,242.042,262.623
2016-09-24 22:00,0.0,288.977,289.272,259.354,291.948,290.238,263.2,0.0,0.0,241.817,262.935
2016-09-24 23:00,-0.0495953,289.779,289.058,259.024,291.423,290.101,262.847,-0.081185,-0.0400555,242.099,263.012
2016-09-25 00:00,0.0,290.558,290.335,259.683,292.73,291.329,263.553,0.0,0.0,242.378,263.244
2016-09-25 01:00,-0.00163211,290.429,290.335,259.464,292.86,291.193,263.67,0.0,0.0,242.6,263.322
2016-09-25 02:00,-0.00140802,290.558,290.44,259.793,292.989,291.193,263.787,0.0,0.0,242.71,263.476
2016-09-25 03:00,0.0,290.558,290.335,259.354,292.989,291.464,263.905,0.0,0.0,242.82,263.244
2016-09-25 04:00,0.0,290.558,290.335,259.464,293.119,291.329,264.022,0.0,0.0,242.929,263.476
2016-09-25 05:00,0.0,290.558,290.44,259.464,293.377,291.464,263.67,0.0,0.0,242.489,263.244
2016-09-25 06:00,0.0,290.041,290.123,259.134,292.86,291.193,263.553,0.0,0.0,243.093,263.782
2016-09-25 07:00,-0.00217049,290.685,290.965,259.683,293.892,292.545,264.022,0.0,0.0,242.489,263.858
2016-09-25 08:00,0.00347679,290.813,291.279,259.902,294.149,292.679,264.837,0.0,-0.00351003,241.93,263.552
2016-09-25 09:00,0.0,289.91,290.44,259.464,293.377,292.141,263.787,-0.00889179,0.0,241.476,263.476
2016-09-25 10:00,0.164494,291.315,290.86,259.574,293.635,292.276,264.255,0.376867,0.263753,242.042,263.552
2016-09-25 11:00,0.0475314,291.315,290.965,259.793,294.021,292.545,264.488,0.169603,0.106254,241.817,263.322
2016-09-25 12:00,0.0193416,291.19,290.965,259.793,293.892,292.814,264.255,0.100078,0.0564097,241.647,263.322
2016-09-25 13:00,0.00827775,290.939,291.279,260.119,294.277,292.948,264.372,0.0658823,0.0317562,242.266,263.476
2016-09-25 14:00,0.0099828,291.315,291.174,260.337,294.021,292.545,264.488,0.051922,0.0273552,242.655,263.706
2016-09-25 15:00,0.0093306,291.44,291.383,260.228,294.149,292.814,264.953,0.0417582,0.0201853,242.378,263.858
2016-09-25 16:00,0.0427967,292.174,290.229,259.574,293.119,291.735,263.787,0.0634128,0.0472564,241.704,262.935
2016-09-25 17:00,0.0504414,292.653,290.229,259.793,293.119,291.6,263.553,0.0719945,0.0552884,241.476,262.935
2016-09-25 18:00,0.0641517,292.414,290.335,259.683,293.248,291.871,264.022,0.090052,0.0732866,239.653,262.466
2016-09-25 19:00,0.0599932,292.414,290.545,260.445,293.635,291.871,263.436,0.109118,0.0807556,234.543,259.804
2016-09-25 20:00,0.318051,295.151,290.335,260.119,293.248,291.464,263.083,0.333556,0.29555,233.603,258.543
2016-09-25 21:00,0.487731,292.174,290.651,260.337,293.506,291.871,263.67,0.433105,0.432345,232.935,258.372
2016-09-25 22:00,0.0,290.301,290.335,260.445,293.248,291.464,263.787,0.0,0.0,233.823,258.2
2016-09-25 23:00,-0.0457476,290.558,290.44,260.011,293.248,291.6,263.2,-0.0857691,-0.0362882,233.308,258.028
2016-09-26 00:00,0.00209563,290.301,290.44,260.228,293.377,291.6,263.67,0.0,0.0,231.943,256.982
2016-09-26 01:00,0.0,290.171,290.123,259.902,292.73,291.193,263.553,0.0,0.0,232.097,256.894
2016-09-26 02:00,-0.00140187,289.779,289.911,259.683,292.86,291.193,263.553,0.0,0.0,233.234,257.942
2016-09-26 03:00,-0.00131162,290.301,290.44,260.337,293.248,291.464,263.436,0.0,0.0,234.329,258.967
2016-09-26 04:00,0.0,290.813,291.174,260.011,294.277,292.814,263.787,0.0,0.0,236.004,260.135
2016-09-26 05:00,0.0,290.939,291.591,260.661,294.788,293.617,264.605,0.0,0.0,238.041,260.871
2016-09-26 06:00,0.0,291.065,291.694,260.661,294.661,293.082,264.721,0.0,0.0,238.294,260.789
2016-09-26 07:00,0.0,290.813,291.174,260.337,294.149,292.814,264.255,0.0,0.0,238.168,260.135
2016-09-26 08:00,0.0,289.113,289.593,259.464,292.86,291.464,263.905,0.0,0.0,238.041,259.638
2016-09-26 09:00,0.0103701,290.429,290.651,260.011,293.764,292.006,263.67,0.00878037,-0.0104693,235.593,257.855
2016-09-26 10:00,0.0684761,290.685,290.335,259.683,293.377,291.735,263.905,0.339589,0.197516,231.943,254.349
2016-09-26 11:00,0.184035,292.414,289.058,259.244,292.079,290.375,262.492,0.248161,0.199557,231.865,253.785
2016-09-26 12:00,0.0323194,291.19,289.911,259.793,293.119,291.193,263.2,0.107635,0.0609062,232.86,254.907
2016-09-26 13:00,0.0165929,291.065,290.229,259.902,293.119,291.6,263.905,0.0744607,0.0418788,232.02,256.45
2016-09-26 14:00,0.00857612,291.315,290.86,259.793,293.764,292.141,263.787,0.0496195,0.0245313,232.481,257.595
2016-09-26 15:00,0.00668135,291.19,290.756,259.793,293.506,291.735,264.022,0.0418624,0.0215847,232.86,257.855
2016-09-26 16:00,0.00536522,291.315,291.07,260.011,293.892,292.41,263.905,0.0363418,0.0189578,232.633,258.114
2016-09-26 17:00,0.0289279,292.294,290.545,260.119,293.506,291.735,263.787,0.053885,0.0379658,233.159,258.2
2016-09-26 18:00,0.0220513,292.053,290.86,260.228,293.635,291.871,263.905,0.0617572,0.0359618,234.113,258.798
2016-09-26 19:00,0.246106,294.933,289.486,259.793,292.6,291.193,263.436,0.253842,0.234907,233.603,257.682
2016-09-26 20:00,0.460916,295.583,289.911,260.119,293.119,291.6,263.67,0.436716,0.428392,233.75,257.07
2016-09-26 21:00,0.322635,291.44,290.017,260.228,292.73,290.648,262.847,0.399256,0.363303,233.456,256.091
2016-09-26 22:00,-0.00845683,290.429,290.229,260.337,292.86,290.921,262.61,0.0,0.0,234.329,256.628
2016-09-26 23:00,-0.041992,290.685,290.123,260.337,292.86,290.784,263.083,-0.0984587,-0.0293493,234.686,257.595
2016-09-27 00:00,0.00208048,290.429,290.017,260.119,292.86,290.784,262.728,0.0,0.0,234.329,257.421
2016-09-27 01:00,0.0,290.429,289.911,260.119,292.47,290.511,262.728,0.0,0.0,234.472,256.628
2016-09-27 02:00,-0.00139583,289.247,288.843,260.011,291.555,289.413,262.492,0.0,0.0,233.75,255.911
2016-09-27 03:00,0.0,290.301,289.805,260.228,292.34,290.101,263.083,0.0,0.0,233.234,256.001
2016-09-27 04:00,0.0,290.301,290.017,260.661,292.47,290.238,263.083,0.0,0.0,233.308,256.628
2016-09-27 05:00,0.00141182,288.705,286.105,258.469,287.679,284.636,258.638,0.0,-0.00142531,232.251,254.722
2016-09-27 06:00,0.0,289.779,288.087,259.793,290.367,288.167,260.942,0.0,0.0,232.709,255.457
2016-09-27 07:00,-0.00215552,290.301,289.486,260.337,292.34,290.238,262.847,0.0,0.0,232.481,256.181
2016-09-27 08:00,0.0,287.587,284.414,257.12,285.757,283.049,257.53,0.0,0.0,230.018,251.751
2016-09-27 09:00,-0.0102407,289.779,288.52,259.683,291.292,288.722,261.66,-0.00867077,0.0,230.755,255.183
2016-09-27 10:00,0.0593567,290.939,290.229,260.445,292.989,291.329,263.553,0.351801,0.219722,231.552,256.181
2016-09-27 11:00,0.0821143,291.065,289.593,260.553,292.47,290.648,262.847,0.191197,0.124349,231.63,255.639
2016-09-27 12:00,0.0712923,292.053,290.123,260.876,292.989,291.6,263.318,0.137189,0.0959651,231.63,255.821
2016-09-27 13:00,0.00665261,290.685,289.486,260.011,291.948,290.101,262.017,0.0704094,0.033581,231.552,255.639
2016-09-27 14:00,0.11175,287.871,281.742,255.626,283.23,281.146,257.158,0.157697,0.141745,229.007,251.652
2016-09-27 15:00,0.0549269,290.301,286.992,258.691,289.166,286.767,260.219,0.085073,0.0676244,230.43,254.162
2016-09-27 16:00,0.0282513,288.841,283.264,256.778,284.501,281.588,256.41,0.0603703,0.0448193,229.348,251.751
2016-09-27 17:00,0.0290341,290.685,288.087,259.683,290.632,288.306,261.062,0.0577704,0.0410364,231.076,254.536
2016-09-27 18:00,0.0545422,291.686,288.843,259.793,291.555,288.999,261.421,0.0880322,0.0671088,230.018,254.256
2016-09-27 19:00,0.146443,290.558,283.264,256.892,285.201,282.904,256.785,0.185036,0.159215,228.4,250.748
2016-09-27 20:00,0.425849,294.823,286.328,258.691,288.222,285.777,259.735,0.407596,0.407489,230.101,253.309
2016-09-27 21:00,1.46531,294.156,289.379,260.011,292.209,290.375,262.847,0.812475,1.11276,230.674,254.162
2016-09-27 22:00,-0.0082109,288.841,287.322,259.024,289.568,287.609,260.461,-0.00695215,0.0,230.43,253.405
2016-09-27 23:00,-0.0287434,290.041,289.272,260.119,292.079,290.375,262.492,-0.0648987,-0.0290182,231.473,255.183
2016-09-28 00:00,0.0,289.381,289.272,260.228,291.948,290.648,263.2,0.0,0.0,231.709,255.275
2016-09-28 01:00,0.0,287.871,284.3,256.892,285.479,283.484,257.53,0.0,0.0,230.266,252.537
2016-09-28 02:00,0.0,287.3,285.546,257.685,287.951,285.919,259.735,0.0,0.0,229.769,252.146
2016-09-28 03:00,0.0,289.113,289.486,260.228,292.34,291.057,263.787,0.0,0.0,231.787,255.639
2016-09-28 04:00,-0.00130732,290.041,290.017,260.445,292.73,291.464,264.138,0.0,0.0,231.943,256.001
2016-09-28 05:00,0.0,289.779,289.486,260.119,292.47,291.329,263.2,0.0,0.0,233.159,255.457
2016-09-28 06:00,0.0,289.647,289.165,259.902,292.079,290.511,263.905,0.0,0.0,232.784,255.639
2016-09-28 07:00,-0.00214816,288.291,288.087,259.134,290.764,289.413,262.492,0.0,0.0,232.935,255.366
2016-09-28 08:00,0.0,288.841,288.195,259.354,291.029,289.689,262.728,0.0,0.00346043,233.01,255.091
2016-09-28 09:00,0.0,289.514,288.951,259.683,291.686,289.964,262.373,0.0,0.0,232.86,254.907
2016-09-28 10:00,0.14011,290.558,289.272,259.683,291.948,290.238,263.083,0.37284,0.262692,232.709,254.907
2016-09-28 11:00,0.106493,291.065,288.52,259.024,291.029,289.413,261.66,0.247233,0.176873,233.01,254.536
2016-09-28 12:00,0.138644,292.653,288.195,259.134,290.632,289.137,262.255,0.216437,0.170588,233.677,254.999
2016-09-28 13:00,0.176717,292.889,287.212,258.58,289.701,288.167,261.898,0.214557,0.193554,233.085,254.443
2016-09-28 14:00,0.157973,292.771,286.882,258.358,289.701,288.167,261.898,0.193337,0.168182,233.456,254.629
2016-09-28 15:00,0.0685021,292.294,288.195,258.802,290.764,288.861,262.136,0.102354,0.0800051,233.53,254.443
2016-09-28 16:00,0.095806,291.563,287.102,258.58,289.701,288.027,261.779,0.13139,0.114431,232.633,254.256
2016-09-28 17:00,0.0772272,291.563,286.439,258.134,288.222,285.777,259.735,0.111036,0.0912049,232.405,252.731
2016-09-28 18:00,0.224373,292.534,283.148,256.205,284.781,282.028,257.406,0.242184,0.228247,231.552,251.252
2016-09-28 19:00,0.317643,288.291,279.945,254.926,281.655,279.661,256.035,0.370764,0.366491,231.709,251.552
2016-09-28 20:00,0.333672,291.931,284.3,257.12,286.172,283.339,258.023,0.352356,0.325507,232.175,252.731
2016-09-28 21:00,1.33049,289.647,274.785,252.412,274.467,268.67,247.551,0.885125,1.19244,228.575,246.818
2016-09-28 22:00,-0.00798004,287.729,283.495,256.549,284.641,280.998,256.41,0.0,0.0,232.02,252.731
2016-09-28 23:00,-0.0221085,287.729,284.755,257.346,286.585,283.484,258.882,-0.0561576,-0.0255083,233.382,254.907
2016-09-29 00:00,-0.00205122,289.113,287.432,258.802,289.701,287.048,260.701,0.0,0.0,234.543,256.628
2016-09-29 01:00,0.0,289.113,286.772,258.246,288.628,285.493,259.735,0.0,0.0,234.686,256.271
2016-09-29 02:00,-0.00138412,285.818,282.448,255.974,283.372,280.554,256.785,0.0,0.0,234.686,255.639
2016-09-29 03:00,0.0,284.087,276.463,252.777,276.163,272.405,250.501,0.0,0.0,232.709,252.047
2016-09-29 04:00,0.0,289.647,286.882,258.246,288.087,285.35,259.492,0.0,0.0,236.139,258.286
2016-09-29 05:00,0.0,289.647,287.651,258.691,289.3,286.626,260.701,0.0,0.0,237.072,258.628
2016-09-29 06:00,0.0,285.97,282.682,255.974,283.938,281.293,257.653,0.0,0.0,235.662,257.246
2016-09-29 07:00,0.0,289.113,286.328,258.469,287.543,284.779,259.37,0.0,0.00216136,235.731,257.855
2016-09-29 08:00,0.0,290.041,288.087,259.244,289.701,287.188,261.66,0.0,0.0,237.006,259.051
2016-09-29 09:00,0.0,288.012,285.658,258.022,287.27,284.492,259.492,0.0,0.0,235.799,257.942
2016-09-29 10:00,0.334219,290.429,287.322,258.469,289.166,286.767,260.461,0.497364,0.388537,235.593,258.372
2016-09-29 11:00,0.338054,293.24,288.087,258.913,290.632,288.999,262.255,0.376772,0.337803,236.341,260.135
2016-09-29 12:00,0.0977605,291.44,286.55,258.134,288.222,285.493,259.614,0.15635,0.116241,235.799,258.457
2016-09-29 13:00,0.0635075,288.977,282.566,255.974,282.66,279.661,256.035,0.114619,0.0860485,233.308,253.69
2016-09-29 14:00,0.107973,289.647,282.799,255.742,284.079,281.441,257.282,0.137741,0.124993,236.742,256.805
2016-09-29 15:00,0.0686849,287.729,279.58,253.86,280.054,276.631,254.264,0.0992063,0.0802186,234.756,253.974
2016-09-29 16:00,0.0257174,290.685,287.869,258.802,289.968,287.609,260.822,0.0584483,0.0355286,237.463,258.114
2016-09-29 17:00,0.035103,290.813,289.058,259.244,291.555,289.276,262.136,0.0656353,0.0590643,237.463,258.286
2016-09-29 18:00,0.0395885,291.809,288.736,259.244,291.029,288.584,261.66,0.0772405,0.0521308,239.288,258.372
2016-09-29 19:00,0.239932,291.563,284.755,257.006,287.27,285.35,260.581,0.294084,0.279136,240.607,258.114
2016-09-29 20:00,0.455563,294.491,287.102,258.246,289.434,287.048,261.062,0.437154,0.39093,240.548,258.2
2016-09-29 21:00,0.726406,289.647,286.992,258.469,289.166,286.767,261.062,0.566808,0.632694,240.489,257.942
2016-09-29 22:00,-0.00776306,290.171,288.628,259.244,290.764,288.306,261.421,0.0,0.0,240.014,258.372
2016-09-29 23:00,-0.0218683,290.171,288.303,259.574,290.632,288.167,261.421,-0.0502573,-0.0189234,239.834,257.682
2016-09-30 00:00,-0.00203711,290.558,288.843,259.134,290.764,288.167,261.66,0.0,0.0,239.774,258.457
2016-09-30 01:00,0.0,290.301,289.058,259.134,291.423,289.276,262.136,0.0,0.0,239.714,258.114
2016-09-30 02:00,0.0,289.647,289.165,259.024,291.686,289.413,262.492,0.0,0.0,239.104,258.028
2016-09-30 03:00,0.0,290.041,289.805,259.574,292.47,290.648,262.728,0.0,0.0,238.294,257.246
2016-09-30 04:00,0.0,289.381,288.736,259.354,291.686,289.551,262.255,0.0,0.0,237.849,256.45
2016-09-30 05:00,0.00139921,288.568,287.432,259.024,289.968,287.469,261.062,0.0,0.0,238.104,255.366
2016-09-30 06:00,0.0,287.3,285.658,257.346,288.358,285.493,259.614,0.0,0.0,237.528,254.443
2016-09-30 07:00,-0.00213371,282.753,281.505,255.277,284.361,282.758,259.249,0.0,0.0,237.333,255.091
2016-09-30 08:00,0.0,282.923,281.029,254.454,283.088,281.441,259.005,0.0,0.0,237.849,255.457
2016-09-30 09:00,0.0,287.3,285.321,256.892,287.407,285.065,259.977,0.0,0.0,237.721,254.907
2016-09-30 10:00,0.215315,288.705,284.642,256.32,286.447,283.484,258.882,0.40802,0.310533,237.913,255.457
2016-09-30 11:00,0.405321,292.053,281.742,254.572,284.361,282.904,259.856,0.398916,0.384714,237.849,256.45
2016-09-30 12:00,0.0239668,290.558,288.412,258.469,290.632,288.167,261.421,0.101463,0.0571903,238.795,256.982
2016-09-30 13:00,0.0234569,291.19,289.165,258.246,291.817,289.551,261.54,0.0794435,0.0473622,239.166,258.028
2016-09-30 14:00,0.047628,291.19,288.843,258.358,291.817,289.826,262.136,0.0794311,0.0582828,238.357,257.333
2016-09-30 15:00,0.109385,290.171,286.661,257.233,289.434,287.329,261.182,0.166938,0.148604,238.483,256.36
2016-09-30 16:00,0.0380183,290.813,287.869,257.572,290.234,288.167,261.66,0.0643801,0.0438648,237.849,256.805
2016-09-30 17:00,0.0601974,291.315,288.087,258.022,290.764,288.584,261.182,0.0882634,0.0622551,237.657,256.271
2016-09-30 18:00,0.0778426,291.315,287.102,257.346,289.701,287.469,261.301,0.117172,0.0873186,237.333,256.36
2016-09-30 19:00,0.140393,293.124,288.303,257.798,290.897,288.306,260.822,0.171485,0.139411,237.006,256.271
2016-09-30 20:00,0.407542,294.38,287.541,257.459,290.101,287.748,261.062,0.393896,0.372623,236.071,255.548
2016-09-30 21:00,1.36281,267.444,255.05,240.32,254.066,253.122,241.808,0.951007,1.46655,229.433,237.888
2016-09-30 22:00,-0.00755886,287.729,287.102,257.798,289.835,287.609,261.421,0.0,0.0,236.475,255.366
2016-09-30 23:00,-0.0154538,287.587,286.328,257.233,288.897,286.907,260.701,-0.0314033,-0.0218421,237.268,256.181
