# timestamp,IR_016,IR_039,IR_087,IR_097,IR_108,IR_120,IR_134,VIS006,VIS008,WV_062,WV_073
2016-07-01 00:00,-0.106368,281.526,281.148,254.099,283.797,282.758,259.977,-0.0319573,-0.0692803,230.43,249.928
2016-07-01 01:00,-0.00481792,285.202,283.264,255.043,285.618,283.917,260.34,0.0,0.0,230.266,249.617
2016-07-01 02:00,-0.00199396,287.444,285.208,255.858,287.407,285.208,260.098,0.0,0.0,230.018,249.513
2016-07-01 03:00,-0.0018357,287.871,285.321,255.974,287.407,285.35,259.735,0.0,0.0,230.101,249.513
2016-07-01 04:00,0.0,287.729,285.546,255.974,287.679,285.635,260.219,0.0,0.0,230.184,249.513
2016-07-01 05:00,0.0,281.346,281.148,254.099,283.938,282.758,259.977,0.0,0.0,230.101,249.513
2016-07-01 06:00,0.0,286.121,284.071,255.277,286.585,284.636,260.098,0.0,0.0,230.018,249.617
2016-07-01 07:00,0.0,287.871,285.546,256.089,287.815,285.635,260.34,0.0,0.0,229.601,249.303
2016-07-01 08:00,0.0,285.357,283.495,255.277,286.033,284.061,259.37,0.0,0.0,230.593,248.775
2016-07-01 09:00,0.426357,285.512,282.916,255.043,285.618,283.773,259.614,0.580732,0.524005,231.236,249.303
2016-07-01 10:00,0.336561,288.568,283.611,255.277,285.757,283.917,259.856,0.434755,0.40512,232.02,249.825
2016-07-01 11:00,0.121656,290.685,285.546,256.549,287.27,285.208,260.098,0.199706,0.147884,232.02,249.617
2016-07-01 12:00,0.203476,292.174,281.505,254.69,284.361,282.467,259.492,0.225645,0.207239,231.943,250.135
2016-07-01 13:00,0.0603758,290.939,285.321,256.778,287.407,285.065,259.977,0.105981,0.0787929,232.251,249.928
2016-07-01 14:00,0.057476,290.685,285.994,256.778,287.679,285.635,260.219,0.0917995,0.0698943,232.251,250.646
2016-07-01 15:00,0.0358544,290.685,286.328,256.892,288.358,286.06,260.822,0.0711839,0.0536716,232.175,250.849
2016-07-01 16:00,0.0446651,291.065,286.439,257.006,288.493,286.06,260.098,0.0756357,0.0601228,231.394,250.748
2016-07-01 17:00,0.100365,293.24,285.882,256.434,287.951,285.777,260.701,0.11405,0.0973243,230.755,250.544
2016-07-01 18:00,0.390467,291.686,281.386,254.217,284.079,283.049,259.37,0.432333,0.424522,230.835,250.646
2016-07-01 19:00,0.446004,298.63,283.264,254.808,286.033,284.349,260.098,0.410674,0.418374,230.511,250.748
2016-07-01 20:00,0.909409,297.549,281.386,253.741,284.079,283.339,259.492,0.80761,0.857423,229.601,250.34
2016-07-01 21:00,1.48961,297.248,280.909,253.381,283.656,282.758,259.977,1.08798,1.2396,230.101,250.135
2016-07-01 22:00,0.434338,279.081,279.702,252.534,282.803,281.882,259.127,0.472825,0.563772,229.517,249.721
2016-07-01 23:00,-0.345616,278.684,279.213,251.922,282.231,281.293,259.005,-0.0975442,-0.181729,229.517,249.408
2016-07-02 00:00,-0.109757,271.531,271.023,247.728,273.686,273.042,254.264,-0.0348493,-0.0692541,230.101,248.562
2016-07-02 01:00,-0.00240734,283.76,281.386,252.656,282.803,281.146,258.147,0.0,-0.00243035,230.184,249.198
2016-07-02 02:00,0.0,283.594,280.549,252.168,281.799,279.661,257.158,0.0,0.0,230.348,249.617
2016-07-02 03:00,0.0,288.841,285.77,254.808,287.679,285.208,259.249,0.0,0.0,230.266,249.513
2016-07-02 04:00,-0.00184279,283.594,282.566,253.14,284.361,282.758,259.005,0.0,0.0,230.835,248.987
2016-07-02 05:00,-0.00202432,279.473,275.694,250.177,278.128,276.015,255.532,0.0,0.0,230.266,248.133
2016-07-02 06:00,0.0,286.864,284.642,254.572,286.585,284.061,259.249,0.0,0.0,230.835,248.775
2016-07-02 07:00,-0.00363636,288.152,284.869,254.69,286.86,284.061,259.005,0.0,0.0,231.315,249.408
2016-07-02 08:00,-0.0083619,272.836,270.468,247.332,273.215,271.605,253.625,0.0,0.0,231.709,249.513
2016-07-02 09:00,0.321112,284.41,279.702,251.676,282.374,279.959,257.406,0.431818,0.381391,233.159,250.95
2016-07-02 10:00,0.385552,288.291,283.032,253.14,285.061,283.484,259.977,0.454824,0.397985,234.185,252.537
2016-07-02 11:00,0.457735,289.779,280.789,252.168,283.372,282.321,259.856,0.528687,0.527409,235.247,252.925
2016-07-02 12:00,0.365961,292.534,281.029,252.29,283.797,282.613,259.37,0.372441,0.351259,235.867,253.595
2016-07-02 13:00,0.340405,294.043,280.669,252.29,283.656,282.467,260.219,0.325651,0.322831,236.609,253.69
2016-07-02 14:00,0.15028,291.563,283.264,253.741,285.895,284.205,260.461,0.153797,0.135886,236.207,254.162
2016-07-02 15:00,0.0717206,291.686,284.869,254.572,287.27,285.35,260.942,0.0921355,0.0699094,237.006,254.907
2016-07-02 16:00,0.0496269,291.563,287.102,255.393,288.897,286.626,261.301,0.0745837,0.056364,237.463,255.091
2016-07-02 17:00,0.060736,292.534,287.322,255.974,289.434,287.188,261.66,0.0804914,0.0653155,237.528,255.73
2016-07-02 18:00,0.175652,296.008,286.105,255.277,288.493,286.626,261.421,0.179232,0.166721,237.268,256.001
2016-07-02 19:00,0.456932,303.917,285.546,254.808,287.815,286.06,261.301,0.386884,0.386292,237.333,256.36
2016-07-02 20:00,0.814788,314.046,287.322,255.626,289.434,287.329,261.898,0.634601,0.656479,237.849,256.091
2016-07-02 21:00,1.84475,313.154,287.541,255.974,289.568,287.609,261.54,1.16743,1.28639,238.294,256.36
2016-07-02 22:00,0.494684,287.3,285.77,254.926,287.951,286.343,261.421,0.471204,0.593053,238.919,256.539
2016-07-02 23:00,-0.359968,285.357,284.185,254.217,286.722,285.065,261.182,-0.097531,-0.196241,239.104,257.07
2016-07-03 00:00,-0.119974,287.155,285.658,254.808,287.951,286.343,261.54,-0.0377303,-0.0726724,239.104,256.628
2016-07-03 01:00,0.0,283.594,283.264,253.381,286.033,284.922,261.182,0.0,0.0,239.593,256.628
2016-07-03 02:00,-0.00199004,286.271,285.208,254.454,287.951,286.06,261.421,0.0,0.0,239.532,256.716
2016-07-03 03:00,-0.00183123,289.381,287.651,255.974,290.101,288.027,262.373,0.0,0.0,237.913,255.911
2016-07-03 04:00,0.0,289.381,288.087,256.434,290.632,288.445,261.779,0.0,0.0,237.528,255.183
2016-07-03 05:00,0.0,289.113,287.76,256.549,290.5,288.306,262.373,0.0,0.0,237.849,254.999
2016-07-03 06:00,0.0,289.113,287.869,256.892,290.632,288.445,262.136,0.0,0.0,237.333,254.349
2016-07-03 07:00,0.00362194,287.729,286.992,256.32,289.835,287.888,262.017,0.0,0.0,237.398,254.722
2016-07-03 08:00,-0.00828662,286.271,285.658,255.51,288.222,286.485,261.182,0.0,0.0,238.041,255.275
2016-07-03 09:00,0.250439,289.647,287.869,257.006,290.632,288.167,262.136,0.456715,0.369525,238.231,255.548
2016-07-03 11:00,0.104692,291.44,287.76,257.12,290.5,288.445,261.779,0.162512,0.123309,237.072,254.814
2016-07-03 12:00,0.039707,290.939,288.303,257.685,290.897,288.722,261.898,0.0947469,0.0637741,236.071,254.629
2016-07-03 13:00,0.0265435,290.813,288.52,257.572,291.292,289.276,262.136,0.0724173,0.0476396,235.867,254.629
2016-07-03 14:00,0.0235313,290.813,288.195,257.685,290.764,288.306,262.255,0.0597716,0.0382739,235.386,254.256
2016-07-03 15:00,0.0185514,290.813,288.951,258.022,291.555,289.551,263.2,0.0481694,0.0312145,234.615,253.974
2016-07-03 16:00,0.0260536,291.44,288.736,258.469,291.423,289.826,262.61,0.0525226,0.0375752,234.041,253.117
2016-07-03 17:00,0.0805271,293.472,287.978,258.691,291.029,289.276,262.728,0.0938902,0.0786314,233.085,252.634
2016-07-03 18:00,0.130572,298.339,288.736,259.354,291.423,289.413,262.728,0.137241,0.122729,233.01,252.828
2016-07-03 19:00,0.389891,307.571,289.165,259.793,291.817,290.238,263.083,0.331692,0.324266,232.935,253.5
2016-07-03 20:00,0.955251,313.214,287.76,259.024,290.632,288.999,263.787,0.777871,0.806287,233.456,253.974
2016-07-03 21:00,1.9431,313.988,289.272,259.574,292.079,290.101,263.553,1.26308,1.40531,233.968,254.536
2016-07-03 22:00,0.524661,290.171,0.0,259.574,292.34,290.648,263.553,0.470361,0.591992,0.0,255.275
2016-07-03 23:00,-0.359759,289.247,288.951,259.354,291.948,290.375,264.022,-0.0974745,-0.188863,233.896,255.366
2016-07-04 00:00,-0.113022,288.841,288.843,259.793,291.555,290.101,263.905,-0.0347985,-0.0726108,234.827,256.181
2016-07-04 01:00,0.0,290.041,289.805,260.119,292.73,291.329,264.372,0.0,-0.0024258,234.615,256.181
2016-07-04 02:00,0.0,290.301,289.805,260.011,292.47,290.648,264.138,0.0,0.0,234.185,256.001
2016-07-04 03:00,0.00182863,289.91,289.165,259.793,291.817,290.101,263.67,0.0,0.0,234.329,255.911
2016-07-04 04:00,0.0,285.202,284.528,257.459,287.679,286.485,262.61,0.0,0.0,234.113,255.821
2016-07-04 05:00,0.0020161,280.05,281.386,255.626,284.501,284.061,261.898,0.0,0.0,234.257,255.366
2016-07-04 06:00,0.0,280.427,281.624,256.434,284.501,284.205,261.54,0.0,0.0,233.677,255.639
2016-07-04 07:00,0.0,282.059,282.214,256.434,285.618,284.922,261.898,0.0,0.0,234.257,255.548
2016-07-04 08:00,0.0,283.76,283.264,257.006,286.447,285.35,262.255,0.0,0.0,234.686,256.001
2016-07-04 09:00,0.275319,288.568,287.212,259.134,289.568,287.888,262.847,0.466224,0.377219,235.247,256.091
2016-07-04 10:00,0.323215,289.113,285.208,258.134,287.951,286.626,262.255,0.384611,0.348352,236.071,256.271
2016-07-04 11:00,0.469573,290.301,282.682,256.778,286.033,285.208,261.66,0.511787,0.516929,236.341,256.539
2016-07-04 12:00,0.363202,293.702,284.185,257.233,286.997,286.06,262.017,0.38249,0.377619,237.137,256.716
2016-07-04 13:00,0.249386,291.44,285.433,258.022,287.951,286.626,261.898,0.309861,0.327749,237.006,257.158
2016-07-04 14:00,0.223632,292.653,284.414,257.685,287.543,286.343,262.492,0.200422,0.194083,236.408,257.246
2016-07-04 15:00,0.0766908,291.19,286.882,259.134,289.434,287.748,263.2,0.0994956,0.0849166,235.799,256.982
2016-07-04 16:00,0.238198,291.686,284.3,258.022,287.543,286.767,262.965,0.237397,0.237971,235.799,257.246
2016-07-04 18:00,0.23256,297.349,285.321,258.913,288.493,287.329,262.965,0.221046,0.216607,234.257,256.805
2016-07-04 19:00,0.586457,299.108,283.841,258.246,287.134,286.767,262.728,0.524837,0.545223,232.86,256.091
2016-07-04 20:00,0.766952,300.858,279.58,255.742,280.785,278.609,256.535,0.644959,0.684741,230.674,253.117
2016-07-04 21:00,1.4482,304.636,286.772,260.119,289.568,288.306,263.083,1.05734,1.16964,232.097,255.639
2016-07-04 22:00,0.678883,281.705,283.148,258.022,286.585,286.202,262.728,0.574809,0.685372,232.784,255.911
2016-07-04 23:00,-0.280324,281.346,283.032,258.022,286.585,286.06,262.965,-0.0852026,-0.181413,232.251,255.73
2016-07-05 00:00,-0.14027,289.247,288.412,260.876,291.16,289.413,263.67,-0.0405543,-0.0794401,232.251,255.639
2016-07-05 01:00,-0.00239995,289.91,289.165,261.198,291.817,289.964,263.553,0.0,0.0,232.251,255.457
2016-07-05 02:00,-0.00198494,289.113,288.52,261.091,291.292,289.551,264.022,0.0,0.0,231.787,255.091
2016-07-05 03:00,0.0,289.247,288.843,261.305,291.817,290.101,263.553,0.0,0.0,231.943,255.275
2016-07-05 04:00,-0.00366684,289.647,289.379,261.519,292.209,290.238,263.67,0.0,0.0,232.02,254.907
2016-07-05 05:00,-0.00201163,288.841,288.736,261.091,291.555,289.551,263.67,0.0,0.0,232.251,254.999
2016-07-05 06:00,-0.00246281,289.381,289.272,261.731,292.079,290.375,264.138,0.0,0.0,232.405,255.457
2016-07-05 07:00,0.0,289.91,289.165,261.412,292.079,290.511,264.022,0.0,0.0,232.481,255.639
2016-07-05 08:00,0.0,290.041,289.911,262.155,292.86,291.329,264.372,0.0,0.0,232.02,255.457
2016-07-05 09:00,0.482258,288.152,287.541,260.984,290.632,289.276,264.022,0.612491,0.568013,231.943,255.275
2016-07-05 10:00,0.0350905,290.685,290.123,262.261,292.989,291.193,264.488,0.148555,0.0752801,231.787,255.457
2016-07-05 11:00,0.0150171,290.685,290.229,262.261,293.377,291.735,264.488,0.0932428,0.0505354,231.552,255.639
2016-07-05 12:00,0.135682,293.93,288.412,261.412,291.423,289.964,264.372,0.15777,0.142458,232.02,255.639
2016-07-05 13:00,0.0162434,291.563,290.017,262.155,292.86,291.193,264.837,0.0587639,0.0342882,232.175,255.821
2016-07-05 14:00,0.0117745,290.939,290.017,262.049,292.86,291.057,264.605,0.0443086,0.0250949,232.405,256.001
2016-07-05 15:00,0.00742279,291.19,289.911,262.049,292.6,290.784,264.488,0.0377092,0.0237302,231.865,256.001
2016-07-05 16:00,0.0471424,291.686,289.272,261.731,292.209,290.648,265.069,0.0672259,0.0551077,232.633,256.091
2016-07-05 17:00,0.211149,294.268,285.994,259.902,289.166,287.888,264.488,0.213418,0.219829,233.159,256.36
2016-07-05 18:00,0.134998,297.848,289.593,261.944,292.209,290.375,264.837,0.138433,0.124174,232.328,256.716
2016-07-05 19:00,0.408147,306.475,289.272,261.519,292.079,290.921,264.837,0.356573,0.361479,232.328,256.539
2016-07-05 20:00,1.65844,328.066,290.86,262.576,293.506,292.141,265.301,1.23861,1.33733,231.394,256.181
2016-07-05 21:00,2.23562,312.113,286.55,260.337,288.897,287.048,262.255,1.5312,1.73947,229.769,253.405
2016-07-05 22:00,0.30906,289.91,289.805,261.731,292.47,290.648,264.605,0.471025,0.530425,231.394,256.271
2016-07-05 23:00,-0.344506,289.514,289.379,261.305,292.079,290.511,264.953,-0.0972308,-0.195637,231.315,256.628
2016-07-06 00:00,-0.140085,288.705,288.951,260.876,291.686,290.375,264.837,-0.0405009,-0.0793355,232.175,256.805
2016-07-06 01:00,-0.00239665,287.155,287.432,259.683,290.101,288.584,263.787,0.0,0.0,232.328,256.716
2016-07-06 02:00,-0.00198196,287.01,287.432,260.119,290.101,288.861,263.67,0.0,0.0,232.405,256.539
2016-07-06 03:00,0.0,289.647,289.593,261.091,292.34,290.784,264.488,0.0,0.0,232.481,256.982
2016-07-06 04:00,0.0,289.779,289.699,260.984,292.209,290.648,264.372,0.0,0.0,232.709,256.894
2016-07-06 05:00,0.0,287.3,287.322,259.793,289.835,288.167,263.787,0.0,0.0,232.709,256.716
2016-07-06 06:00,0.0,290.558,290.335,261.519,292.989,291.057,264.605,0.0,0.0,232.251,257.158
2016-07-06 07:00,0.0,290.429,290.545,261.625,293.635,292.006,265.185,0.0,0.0,232.481,257.421
2016-07-06 08:00,0.0,290.429,290.017,260.769,292.6,290.921,264.488,0.0,0.0,233.308,257.769
2016-07-06 09:00,0.10276,289.91,289.486,260.769,291.948,290.101,264.837,0.40023,0.269729,233.234,257.682
2016-07-06 10:00,0.37445,289.647,284.185,257.685,286.997,285.777,262.61,0.414025,0.413609,232.86,257.508
2016-07-06 11:00,0.102829,291.44,288.736,260.119,290.764,288.861,263.787,0.161389,0.121536,232.251,257.07
2016-07-06 12:00,0.0326017,291.44,289.379,260.661,291.948,290.101,264.138,0.081278,0.0511986,231.236,256.628
2016-07-06 13:00,0.0,0.0,0.0,0.0,0.0,0.0,0.0,0.0,0.0,0.0,0.0
2016-07-06 14:00,0.00785253,290.813,290.335,261.091,293.119,291.329,264.837,0.0387842,0.0184977,231.552,256.716
2016-07-06 15:00,0.00494924,291.19,290.229,260.661,292.989,291.193,264.721,0.0324765,0.0149897,231.865,256.894
2016-07-06 16:00,0.0062028,291.19,290.017,260.445,292.73,290.511,264.372,0.0315114,0.0175339,231.943,257.246
2016-07-06 17:00,0.0131948,291.686,290.335,260.553,292.989,291.193,264.255,0.0368677,0.0199814,231.787,256.539
2016-07-06 18:00,0.0644831,295.902,289.911,260.661,292.6,290.648,264.372,0.0812618,0.0650996,232.251,255.911
2016-07-06 19:00,0.459949,311.036,289.593,260.553,292.34,290.511,264.372,0.381587,0.381962,233.085,255.457
2016-07-06 20:00,1.68399,330.989,289.805,260.553,292.47,290.375,263.553,1.48101,1.60535,233.53,255.183
2016-07-06 21:00,3.06112,330.809,289.805,260.661,292.47,290.648,264.022,2.79678,3.22933,233.159,255.091
2016-07-06 22:00,0.651141,290.939,289.593,260.553,292.47,290.511,263.67,0.498813,0.594759,233.456,255.639
2016-07-06 23:00,-0.358169,290.301,289.593,260.119,292.34,290.238,264.138,-0.0970435,-0.19526,233.823,255.821
2016-07-07 00:00,-0.153513,287.587,286.992,258.802,289.701,287.888,262.965,-0.0433264,-0.0826563,233.53,255.911
2016-07-07 01:00,0.0,286.864,285.882,258.358,288.897,287.329,263.318,0.0,-0.00241582,233.234,255.911
2016-07-07 02:00,-0.0039574,286.421,285.433,258.246,288.358,287.048,262.965,0.0,0.0,232.935,255.821
2016-07-07 03:00,-0.0018194,286.271,282.331,256.205,284.361,281.441,258.638,0.0,0.0,230.511,252.047
2016-07-07 04:00,0.0,289.247,288.195,259.464,291.029,288.999,263.318,0.0,0.0,232.02,255.911
2016-07-07 05:00,0.00200198,277.026,275.951,252.777,278.278,277.701,258.023,0.0,0.0,231.315,253.595
2016-07-07 06:00,0.00244771,285.97,285.095,258.246,287.815,286.343,262.61,0.0,0.0,233.382,256.805
2016-07-07 07:00,-0.0035595,286.864,286.105,258.469,288.763,287.329,262.965,0.0,0.0,233.234,256.894
2016-07-07 08:00,0.0,289.91,288.843,260.011,291.686,289.689,263.787,0.0,0.0,232.935,257.158
2016-07-07 09:00,0.357706,289.113,288.087,259.464,290.764,289.137,263.787,0.498843,0.424853,233.53,258.286
2016-07-07 11:00,0.278972,290.429,284.071,257.346,287.134,286.06,262.61,0.287276,0.291788,234.686,258.286
2016-07-07 12:00,0.0543999,292.653,288.087,259.683,290.764,288.861,263.436,0.0997974,0.0750573,233.968,257.333
2016-07-07 13:00,0.0576684,291.44,288.843,260.011,291.16,289.137,263.787,0.0851355,0.0567269,232.784,256.805
2016-07-07 14:00,0.0274937,291.065,288.951,260.011,291.555,289.551,263.436,0.055426,0.0383305,231.394,256.001
2016-07-07 15:00,0.0111373,290.939,289.593,260.228,292.209,290.101,264.138,0.0387676,0.0237369,231.394,256.091
2016-07-07 16:00,0.0260512,290.301,286.439,258.469,288.358,285.777,260.701,0.0483164,0.0350669,230.101,254.162
2016-07-07 17:00,0.0211087,290.939,287.76,259.683,289.968,287.329,261.421,0.0469159,0.0319658,230.593,254.722
2016-07-07 18:00,0.0674671,294.043,288.412,260.011,290.764,288.445,262.847,0.0863212,0.0711393,230.43,254.443
2016-07-07 19:00,0.387516,305.646,285.658,258.134,287.407,284.636,259.856,0.332819,0.331321,229.852,253.213
2016-07-07 20:00,1.69404,326.184,289.486,260.119,291.948,289.826,263.318,1.30415,1.37608,231.315,255.183
2016-07-07 21:00,1.84158,308.838,287.978,259.574,290.5,288.445,262.136,1.31412,1.46626,230.348,254.068
2016-07-07 22:00,0.592079,288.568,287.651,259.464,290.367,288.584,263.318,0.448543,0.566279,230.593,254.349
2016-07-07 23:00,-0.321586,288.291,285.433,257.91,287.407,284.636,260.219,-0.090762,-0.173152,228.575,251.552
2016-07-08 00:00,-0.11578,289.247,287.432,258.802,289.835,287.609,261.779,-0.0374825,-0.0825086,228.835,252.439
2016-07-08 01:00,-0.00238882,290.041,288.628,259.683,291.16,288.861,262.965,0.0,0.0,229.348,252.634
2016-07-08 02:00,0.0,288.568,286.882,258.246,289.166,286.626,260.942,0.0,0.0,228.048,251.85
2016-07-08 03:00,0.0,288.841,285.994,257.798,288.222,285.635,260.34,0.0,0.0,228.224,251.252
2016-07-08 04:00,0.00182206,290.041,288.628,259.464,291.292,288.999,263.318,0.0,0.0,228.921,252.146
2016-07-08 05:00,0.0,289.381,287.978,259.134,290.367,288.027,262.373,0.0,0.0,228.662,252.439
2016-07-08 06:00,0.00243976,289.91,288.736,259.464,291.423,289.137,262.965,0.0,0.0,229.517,253.213
2016-07-08 07:00,-0.00354283,287.01,285.321,257.685,288.087,286.202,262.373,0.0,-0.0035767,230.348,253.405
2016-07-08 08:00,0.0,278.684,278.721,254.099,282.087,281.441,260.822,0.0,0.0,230.674,253.595
2016-07-08 09:00,0.172522,290.301,288.628,259.354,290.897,288.584,262.728,0.456483,0.326572,229.769,253.595
2016-07-08 10:00,0.102225,290.301,288.52,259.464,291.16,288.861,262.965,0.19945,0.157047,230.348,253.595
2016-07-08 11:00,0.130965,291.931,287.651,259.134,290.5,288.584,262.492,0.164199,0.137302,230.511,253.309
2016-07-08 12:00,0.063541,291.563,288.52,259.464,291.16,288.999,262.847,0.106063,0.0751453,230.511,253.595
2016-07-08 13:00,0.0739833,292.053,288.951,259.683,291.948,290.101,263.67,0.103985,0.0806658,230.018,253.117
2016-07-08 14:00,0.00654843,290.813,289.805,260.011,292.6,290.921,263.67,0.0410297,0.0198331,229.852,253.213
2016-07-08 15:00,0.00618824,291.065,290.017,260.337,292.989,291.057,264.255,0.0345812,0.0174927,229.601,253.117
2016-07-08 16:00,0.0111646,291.44,290.229,260.119,293.119,291.193,264.138,0.034661,0.0200378,229.852,253.5
2016-07-08 17:00,0.0171486,291.686,289.165,259.464,291.686,289.413,262.373,0.0402083,0.0266346,228.575,252.439
2016-07-08 18:00,0.0674536,294.38,287.212,258.469,289.166,286.343,260.581,0.0875731,0.0711251,227.959,250.95
2016-07-08 19:00,0.452314,304.239,283.841,256.32,285.201,283.049,259.249,0.39553,0.398622,227.329,250.032
2016-07-08 20:00,1.35506,315.086,280.669,254.572,282.087,279.061,256.035,1.0679,1.15492,227.87,248.882
2016-07-08 21:00,1.18695,288.705,265.092,246.399,266.338,263.759,247.551,0.980869,1.20788,227.601,245.575
2016-07-08 22:00,0.345119,285.045,278.598,253.14,279.466,276.938,254.392,0.318776,0.348418,227.329,247.481
2016-07-08 23:00,-0.263667,276.376,268.63,247.728,268.69,266.16,248.634,-0.0844716,-0.172662,226.871,242.971
2016-07-09 00:00,-0.122343,267.444,256.819,241.5,257.17,254.664,241.808,-0.0402841,-0.0857727,227.601,242.725
2016-07-09 01:00,-0.00238431,274.314,264.329,244.349,263.92,260.764,245.072,0.0,-0.0024071,225.643,236.325
2016-07-09 02:00,-0.00197134,289.779,289.379,259.464,291.948,290.238,263.083,0.0,0.0,229.263,252.439
2016-07-09 03:00,0.0,289.647,289.272,259.244,292.47,290.784,264.255,0.0,0.0,230.511,252.634
2016-07-09 04:00,0.0,290.429,289.805,259.354,293.119,291.464,263.905,0.0,0.0,229.517,252.439
2016-07-09 05:00,0.0,290.171,289.699,259.464,292.86,290.921,263.787,0.0,0.0,229.935,251.85
2016-07-09 06:00,0.0,289.91,289.165,259.024,292.34,290.375,263.436,0.0,0.0,229.769,251.85
2016-07-09 07:00,-0.00352581,290.171,289.486,259.024,292.47,290.648,263.67,0.0,0.0,230.266,251.85
2016-07-09 08:00,-0.00781643,290.041,289.593,259.024,292.6,290.648,263.553,0.0,0.0,230.835,252.047
2016-07-09 09:00,0.132757,290.558,289.699,259.024,292.86,291.193,263.905,0.449622,0.312728,230.835,252.047
2016-07-09 10:00,0.12948,291.44,289.165,259.134,292.47,290.648,263.2,0.20792,0.153255,230.996,251.949
2016-07-09 11:00,0.0378583,291.44,289.699,259.244,292.6,290.648,263.67,0.106849,0.0637004,231.552,252.047
2016-07-09 12:00,0.0109055,290.813,289.593,259.354,292.73,290.784,263.905,0.0661746,0.0348642,231.473,252.439
2016-07-09 13:00,0.0162871,291.065,289.699,259.464,292.34,290.511,263.318,0.0589221,0.0343804,231.473,252.731
2016-07-09 14:00,0.0301332,291.315,289.165,259.354,292.34,290.238,263.67,0.0587926,0.0396799,231.315,252.537
2016-07-09 15:00,0.0433234,290.939,288.736,258.691,291.292,289.413,263.318,0.0691715,0.0537347,231.236,252.342
2016-07-09 16:00,0.0223287,291.44,288.951,259.134,291.817,289.826,262.728,0.0472642,0.0338132,231.236,252.146
2016-07-09 17:00,0.0857326,291.19,287.322,258.246,290.101,288.584,262.61,0.115027,0.106526,230.593,251.85
2016-07-09 18:00,0.0779328,295.476,289.272,258.913,291.948,289.964,263.2,0.0926337,0.0771648,230.674,251.452
2016-07-09 19:00,0.418877,308.838,289.165,259.024,291.817,289.689,263.2,0.353093,0.346164,230.755,251.352
2016-07-09 21:00,1.23034,304.078,288.736,259.244,291.423,289.689,263.083,0.876822,0.949562,230.996,251.152
2016-07-09 22:00,0.158233,290.301,288.843,258.913,291.555,289.551,262.847,0.321542,0.319492,231.076,251.252
2016-07-09 23:00,-0.269906,288.841,287.432,258.134,290.101,288.167,262.492,-0.0902087,-0.186438,231.552,251.652
2016-07-10 00:00,-0.169538,290.301,288.628,259.024,291.292,289.276,262.728,-0.0459352,-0.0890025,231.63,251.552
2016-07-10 01:00,-0.00237939,290.041,288.843,258.913,291.16,288.999,262.017,0.0,0.0,231.315,251.352
2016-07-10 02:00,-0.00196726,290.171,288.736,258.913,291.292,289.137,262.847,0.0,0.0,231.552,251.452
2016-07-10 03:00,-0.00180813,289.647,288.52,259.024,291.16,288.999,262.61,0.0,0.0,231.865,251.85
2016-07-10 04:00,-0.00181346,289.247,288.087,259.134,291.029,288.861,262.847,0.0,0.0,231.787,251.85
2016-07-10 05:00,0.0,290.301,289.058,259.574,291.817,289.551,262.847,0.0,0.0,232.097,251.85
2016-07-10 06:00,0.0,289.91,288.951,259.464,291.686,289.551,263.083,0.0,0.0,232.633,252.244
2016-07-10 07:00,0.0,289.647,288.736,259.354,291.817,289.689,263.2,0.0,0.0,232.633,252.342
2016-07-10 08:00,-0.00773647,289.514,288.951,259.134,291.555,289.413,262.965,0.0,0.0,233.085,252.439
2016-07-10 09:00,0.113637,290.685,289.486,259.574,292.47,290.375,263.553,0.423353,0.298282,233.085,252.634
2016-07-10 10:00,0.0403695,290.813,289.486,259.683,292.47,290.511,263.553,0.155713,0.095096,233.53,252.634
2016-07-10 11:00,0.055644,291.44,289.272,259.574,292.209,290.511,263.553,0.117784,0.079157,233.968,253.213
2016-07-10 12:00,0.0363941,291.563,289.379,259.574,292.47,290.511,264.022,0.0832001,0.0551131,233.896,253.88
2016-07-10 13:00,0.019261,291.19,289.699,259.902,292.73,290.784,264.022,0.0577062,0.034403,234.041,254.068
2016-07-10 14:00,0.0301435,291.065,289.486,259.574,292.47,290.784,263.787,0.0554835,0.0383703,234.543,254.162
2016-07-10 15:00,0.0185695,291.563,290.017,260.119,293.119,291.464,264.255,0.0440239,0.0274957,234.041,254.536
2016-07-10 16:00,0.0099237,291.44,290.756,260.228,293.635,292.006,264.488,0.0346598,0.0187848,233.968,254.814
2016-07-10 17:00,0.036927,292.653,290.017,260.228,293.119,291.6,264.372,0.0558322,0.0412743,234.113,254.443
2016-07-10 18:00,0.067432,296.008,290.651,260.337,293.764,292.006,264.488,0.0850075,0.0680766,234.113,254.068
2016-07-10 19:00,0.342848,302.68,288.951,259.574,292.079,290.784,263.67,0.312257,0.308706,234.543,253.974
2016-07-10 20:00,1.303,320.866,290.229,260.337,292.989,291.6,264.138,0.986306,1.07078,234.472,253.974
2016-07-10 21:00,2.2534,313.154,289.699,259.793,292.34,290.238,263.2,1.47725,1.70861,234.257,252.925
2016-07-10 22:00,0.159913,290.429,289.058,259.683,291.817,289.276,262.847,0.406194,0.419748,235.108,252.634
2016-07-10 23:00,-0.325511,284.57,284.185,257.346,287.27,285.493,260.701,-0.0898726,-0.178599,235.936,252.731
2016-07-11 00:00,-0.128528,290.171,287.978,259.244,290.234,287.469,261.66,-0.0372295,-0.0785372,236.475,252.537
2016-07-11 01:00,-0.00237408,279.667,280.187,255.277,283.372,282.028,260.34,0.0,0.0,236.274,252.925
2016-07-11 02:00,0.0,287.587,285.994,258.246,288.628,286.485,261.421,0.0,0.0,236.542,253.117
2016-07-11 03:00,0.0,290.429,288.412,259.464,290.897,288.027,262.847,0.0,0.0,237.072,253.309
2016-07-11 04:00,0.0,287.871,287.102,258.691,289.835,287.609,262.255,0.0,0.0,237.006,253.309
2016-07-11 05:00,0.0,289.91,288.303,259.574,291.029,288.445,262.017,0.0,0.0,237.913,253.595
2016-07-11 06:00,-0.00241444,289.514,288.195,259.134,290.632,288.167,262.017,0.0,0.0,237.398,253.405
2016-07-11 07:00,-0.00349078,289.779,288.412,259.464,290.897,288.167,261.66,0.0,0.0,238.041,253.69
2016-07-11 08:00,0.00765642,289.779,288.087,259.354,290.367,287.609,261.779,0.0,0.0,237.785,253.88
2016-07-11 09:00,0.140236,287.729,284.982,257.459,287.543,285.35,261.182,0.455162,0.330346,238.104,254.256
2016-07-11 10:00,0.563321,282.753,278.474,253.621,281.51,280.998,260.34,0.625776,0.632402,238.483,254.999
2016-07-11 11:00,0.240796,292.889,283.38,256.434,285.895,284.205,261.182,0.263973,0.227745,238.795,255.457
2016-07-11 12:00,0.147568,292.053,283.956,256.892,286.447,284.636,261.421,0.171222,0.150818,239.349,256.001
2016-07-11 13:00,0.0103781,290.813,288.087,258.802,290.101,287.748,262.136,0.0514672,0.0284383,240.014,256.894
2016-07-11 14:00,0.00393306,290.301,288.736,259.244,290.897,288.722,262.965,0.0377414,0.0145591,240.724,257.333
2016-07-11 15:00,0.0160956,291.19,289.058,259.574,291.555,289.413,263.2,0.0429811,0.0274992,240.724,257.595
2016-07-11 16:00,0.00992359,291.065,289.272,259.683,291.555,289.413,263.553,0.0378103,0.0250461,240.841,257.421
2016-07-11 17:00,0.105496,290.813,286.772,258.358,289.3,287.748,262.965,0.147383,0.134462,240.665,257.508
2016-07-11 18:00,0.175303,295.368,287.102,258.358,289.568,287.748,263.083,0.159846,0.157314,241.361,258.286
2016-07-11 19:00,0.407687,308.07,288.628,259.244,290.764,288.445,262.492,0.346757,0.33488,241.476,258.114
2016-07-11 20:00,1.67856,326.917,288.951,259.354,291.029,288.584,263.318,1.33517,1.37095,241.304,258.628
2016-07-11 21:00,2.67444,313.454,288.195,258.802,290.101,287.888,262.61,1.67214,1.80641,242.099,259.721
2016-07-11 22:00,0.421026,288.568,287.102,258.469,289.166,286.907,262.373,0.521012,0.588532,241.76,259.554
2016-07-11 23:00,-0.281872,289.647,287.869,258.691,289.3,287.048,262.255,-0.0835313,-0.177854,241.76,259.97
2016-07-12 00:00,-0.138299,280.427,281.978,255.626,284.921,284.205,261.779,-0.0399844,-0.0851346,241.817,260.135
2016-07-12 01:00,-0.00236839,283.261,283.264,256.549,285.479,284.636,261.898,0.0,0.0,241.76,260.052
2016-07-12 02:00,0.0,289.779,288.52,259.244,290.234,287.748,262.492,0.0,0.0,241.76,260.217
2016-07-12 03:00,0.0,290.171,288.412,259.464,289.968,287.888,263.2,0.0,0.0,241.647,260.299
2016-07-12 04:00,0.0,286.717,285.994,258.246,288.222,286.907,262.61,0.0,0.0,241.304,260.463
2016-07-12 05:00,0.00197413,289.91,289.272,259.902,291.423,289.689,263.553,0.0,0.00199301,241.76,260.789
2016-07-12 06:00,-0.00240555,290.429,290.335,260.553,292.989,291.193,264.488,0.0,0.0,241.817,261.355
2016-07-12 07:00,0.00347283,290.685,290.86,260.769,293.506,292.276,264.837,0.0,0.00350602,241.59,261.914
2016-07-12 08:00,0.0,290.041,290.123,260.337,292.6,291.193,264.605,0.0,0.0,241.986,262.072
2016-07-12 09:00,0.0481321,290.939,290.545,260.337,292.73,290.784,264.605,0.427911,0.267257,242.322,262.151
2016-07-12 10:00,0.34413,289.91,286.661,258.469,289.032,288.167,263.436,0.35655,0.315421,242.211,262.466
2016-07-12 11:00,0.0838253,291.809,288.52,259.683,290.897,289.276,264.138,0.1441,0.117964,241.93,262.23
2016-07-12 12:00,0.187866,291.931,288.195,259.574,290.764,289.276,264.022,0.24246,0.235697,241.246,261.435
2016-07-12 13:00,0.0148353,291.686,290.229,260.876,292.6,290.921,264.488,0.0552686,0.0299543,241.073,261.275
2016-07-12 14:00,0.0616382,291.931,289.699,260.553,292.209,290.921,264.721,0.0866114,0.0701713,241.015,261.435
2016-07-12 15:00,0.0123828,291.315,290.756,261.519,293.506,292.006,264.953,0.0377441,0.021252,241.015,261.595
2016-07-12 16:00,0.0583007,291.931,289.486,260.876,291.948,290.511,264.605,0.0745698,0.0651195,240.665,261.515
2016-07-12 17:00,0.0685669,292.294,288.951,260.553,291.423,290.238,264.721,0.0893161,0.079872,241.015,261.595
2016-07-12 18:00,0.0883928,296.943,290.545,261.198,292.86,291.329,264.953,0.101481,0.0862128,240.43,261.595
2016-07-12 19:00,0.431777,310.122,290.651,261.412,293.119,291.464,264.953,0.360878,0.362942,240.607,261.275
2016-07-12 20:00,1.61386,325.394,290.44,261.091,293.119,291.735,265.301,1.21192,1.28711,240.489,260.952
2016-07-12 21:00,3.06371,324.757,290.756,261.412,293.119,291.464,265.301,2.32778,2.65527,240.782,261.033
2016-07-12 22:00,0.52583,290.939,290.756,261.412,293.506,292.006,264.721,0.500872,0.564035,240.371,261.194
2016-07-12 23:00,-0.294601,289.381,289.911,260.876,292.6,291.464,264.953,-0.0950241,-0.191197,240.548,261.355
2016-07-13 00:00,-0.151344,290.041,290.123,260.445,292.6,291.057,264.953,-0.0427142,-0.0882791,240.782,262.388
2016-07-13 01:00,-0.00236232,284.249,285.208,257.91,287.679,286.767,263.318,0.0,0.0,241.015,263.09
2016-07-13 02:00,0.0,290.171,290.229,260.553,292.47,290.648,264.022,0.0,0.0,241.361,263.09
2016-07-13 03:00,0.0,289.779,290.017,260.661,292.6,291.057,264.372,0.0,0.0,241.419,262.857
2016-07-13 04:00,0.0,290.813,290.651,260.984,293.248,291.6,265.069,0.0,0.0,241.419,261.755
2016-07-13 06:00,-0.00239646,290.171,289.805,260.661,292.34,290.511,264.138,0.0,0.0,241.476,260.381
2016-07-13 07:00,0.00345462,290.301,289.805,261.198,292.47,290.511,263.67,0.0,0.0,241.419,259.554
2016-07-13 08:00,0.0,290.429,289.699,261.091,292.34,290.238,264.255,0.0,0.0,241.533,259.135
2016-07-13 09:00,0.124061,290.558,289.486,260.661,291.686,289.689,263.787,0.462185,0.300592,241.361,258.882
2016-07-13 10:00,0.0500485,290.558,289.165,260.769,291.555,289.137,263.67,0.165652,0.101054,241.874,258.967
2016-07-13 11:00,0.0305479,290.939,289.058,260.661,291.16,288.722,263.67,0.10777,0.0591098,242.042,259.304
2016-07-13 12:00,0.0383472,291.686,288.736,260.337,290.897,288.861,263.318,0.0881289,0.057149,242.042,259.387
2016-07-13 13:00,0.345883,290.301,280.308,255.393,282.946,282.613,261.421,0.35696,0.365674,241.817,259.387
2016-07-13 14:00,0.040668,291.931,287.869,259.793,289.835,287.329,262.965,0.0644241,0.0423812,241.817,258.967
2016-07-13 15:00,0.017338,290.429,287.212,259.464,289.3,287.048,262.373,0.0461374,0.0275059,241.647,258.286
2016-07-13 16:00,0.110399,289.113,282.214,256.892,284.921,283.917,262.255,0.120782,0.115211,241.704,258.543
2016-07-13 17:00,0.23074,288.43,281.386,256.089,284.22,283.484,261.898,0.248953,0.244925,241.76,258.628
2016-07-13 18:00,0.277149,293.007,282.566,256.664,285.201,284.205,261.779,0.293009,0.294922,241.704,258.628
2016-07-13 19:00,0.359526,292.653,283.148,257.006,285.757,284.492,262.492,0.414249,0.404123,241.76,258.457
2016-07-13 20:00,0.813763,298.436,280.909,255.858,283.797,283.339,261.66,0.722137,0.784678,241.817,258.028
2016-07-13 21:00,1.68922,295.796,280.669,255.742,283.514,283.049,261.66,1.30905,1.53195,242.042,258.543
2016-07-13 22:00,0.701874,281.165,281.148,255.974,283.938,283.339,261.779,0.594275,0.80981,242.099,259.051
2016-07-13 23:00,-0.376861,280.982,281.386,255.974,284.501,283.629,261.54,-0.100453,-0.204323,242.211,258.882
2016-07-14 00:00,-0.170979,280.613,281.386,255.974,284.361,283.773,261.779,-0.0482559,-0.0913837,242.155,258.798
2016-07-14 01:00,-0.00235588,283.428,282.916,256.549,285.479,284.922,262.373,0.0,0.0,242.155,258.798
2016-07-14 02:00,0.0,282.923,282.096,256.32,285.061,284.061,262.017,0.0,-0.00196695,242.433,258.967
2016-07-14 03:00,0.0,279.859,280.909,255.858,284.079,283.629,261.421,0.0,0.0,242.655,259.135
2016-07-14 04:00,0.0,280.239,280.669,255.742,283.797,283.049,261.898,0.0,0.0,242.929,259.721
2016-07-14 05:00,0.0,282.753,283.032,256.549,285.618,284.636,262.136,0.0,0.0,242.875,260.052
2016-07-14 06:00,0.0,281.165,281.386,255.974,284.22,283.484,261.421,0.0,0.0,242.82,259.887
2016-07-14 07:00,0.0,279.473,281.029,255.51,283.797,283.339,261.421,0.0,0.0,242.875,260.217
2016-07-14 08:00,-0.00741703,282.408,282.682,256.434,285.479,284.779,262.017,0.0,0.0,242.875,260.217
2016-07-14 09:00,0.256163,290.301,288.736,259.793,290.764,288.445,264.022,0.520544,0.387918,243.202,260.381
2016-07-14 10:00,0.0777252,290.685,289.165,259.902,291.292,289.276,263.905,0.185816,0.124626,243.579,261.033
2016-07-14 11:00,0.0714331,291.931,289.165,259.683,291.16,289.413,263.67,0.133925,0.090145,243.472,260.789
2016-07-14 12:00,0.0255943,291.44,289.272,260.011,291.555,289.551,263.787,0.0835869,0.0535236,243.364,260.708
2016-07-14 13:00,0.0297081,291.315,289.165,259.793,291.16,289.276,263.67,0.0691731,0.0449882,243.686,261.033
2016-07-14 14:00,0.0236212,291.19,288.628,259.244,290.632,289.137,263.318,0.0577778,0.0384201,243.793,260.463
2016-07-14 15:00,0.0210559,291.315,288.736,259.024,290.632,288.861,263.787,0.0534839,0.0350118,243.579,260.217
2016-07-14 16:00,0.161258,291.44,285.208,257.233,287.407,286.626,263.436,0.203755,0.200368,243.31,259.804
2016-07-14 17:00,0.147667,293.93,285.658,257.572,287.815,286.626,262.61,0.162984,0.15174,243.202,259.387
2016-07-14 18:00,0.128834,297.449,287.541,258.358,289.434,288.027,262.847,0.144599,0.128553,243.202,258.967
2016-07-14 19:00,0.383662,306.918,287.541,258.358,289.434,287.888,262.965,0.332693,0.321839,242.875,258.543
2016-07-14 20:00,0.947255,300.947,282.214,255.626,284.781,284.922,261.66,0.782154,0.843029,242.875,258.457
2016-07-14 21:00,1.5392,305.874,285.208,256.892,287.407,286.485,262.373,1.05635,1.20163,243.418,258.628
2016-07-14 22:00,1.19243,285.97,283.38,256.089,285.895,285.493,262.492,0.605776,0.894271,243.364,258.713
2016-07-14 23:00,-0.374795,288.012,286.55,257.91,288.628,287.609,262.965,-0.0999028,-0.196196,243.579,258.967
2016-07-15 00:00,-0.177081,280.799,281.86,255.626,284.781,284.922,262.373,-0.0452631,-0.0877002,243.846,258.882
2016-07-15 01:00,-0.00234908,282.234,282.799,255.858,285.479,285.208,262.017,0.0,0.0,243.953,258.543
2016-07-15 02:00,0.00194297,281.705,282.566,255.858,285.34,284.922,262.255,0.0,0.0,243.686,258.286
2016-07-15 03:00,0.0,289.247,287.541,258.134,289.568,288.167,262.61,0.0,0.0,243.74,258.713
2016-07-15 04:00,-0.00178869,289.779,288.412,258.58,290.101,288.445,262.61,0.0,0.0,244.058,258.882
2016-07-15 05:00,0.0019552,288.705,287.651,258.358,289.3,287.748,262.965,0.0,0.00197389,244.058,258.628
2016-07-15 06:00,0.0,281.883,282.331,255.51,284.921,284.349,261.898,0.0,0.00240044,244.217,259.135
2016-07-15 07:00,-0.00341755,287.871,286.661,257.572,288.222,286.485,261.898,0.0,0.0,244.269,258.628
2016-07-15 08:00,0.00733783,281.165,281.148,255.277,283.656,282.613,260.942,0.0,0.0,244.739,258.713
2016-07-15 09:00,0.979935,280.982,278.845,254.099,281.366,280.406,259.977,0.964257,1.09625,244.687,258.372
2016-07-15 10:00,0.528382,289.779,281.267,255.16,283.797,282.904,260.701,0.501844,0.496325,244.945,259.051
2016-07-15 11:00,0.104826,292.294,287.651,258.469,289.701,288.027,263.436,0.168853,0.126478,245.253,259.721
2016-07-15 12:00,0.300163,292.771,285.095,257.233,287.543,286.485,262.61,0.334731,0.325206,245.658,259.804
2016-07-15 13:00,0.0312129,291.563,288.951,259.024,291.16,289.551,263.318,0.0755084,0.0510183,245.809,260.217
2016-07-15 14:00,0.0354428,291.563,289.058,259.134,291.292,289.964,264.022,0.0666874,0.0477088,245.658,260.708
2016-07-15 15:00,0.032207,292.053,289.379,259.574,291.686,290.101,264.022,0.0566369,0.0400183,246.009,261.755
2016-07-15 16:00,0.0545802,292.053,288.951,259.244,291.423,289.826,264.372,0.0766715,0.0626159,245.91,261.993
2016-07-15 17:00,0.0448261,293.124,289.805,259.902,292.079,290.648,264.488,0.0658617,0.0532408,246.406,262.545
2016-07-15 18:00,0.112356,296.84,290.017,260.011,292.34,290.648,264.372,0.123037,0.108893,246.554,263.167
2016-07-15 19:00,0.363339,307.786,290.545,260.337,292.86,291.329,264.372,0.315486,0.308796,246.406,263.244
2016-07-15 20:00,0.780724,300.769,284.185,257.006,286.997,286.202,263.553,0.656616,0.714377,246.406,263.552
2016-07-15 21:00,1.32673,300.858,284.528,257.459,287.27,286.767,263.436,1.03818,1.20403,246.701,264.238
2016-07-15 22:00,0.522219,289.91,289.165,259.793,291.423,289.964,264.488,0.501117,0.632654,246.208,263.552
2016-07-15 23:00,-0.365682,290.041,289.379,259.354,291.686,290.238,264.138,-0.0993128,-0.195037,246.505,263.167
2016-07-16 00:00,-0.179769,285.045,285.208,257.459,287.951,286.907,263.2,-0.047918,-0.0974655,246.258,262.857
2016-07-16 01:00,-0.00234193,289.647,288.843,259.244,290.897,289.137,263.553,0.0,0.0,245.759,262.151
2016-07-16 02:00,-0.00193739,289.247,288.52,259.244,290.764,288.861,263.67,0.0,0.0,245.253,262.072
2016-07-16 04:00,0.0,290.429,289.699,259.574,291.948,289.964,264.022,0.0,0.0,245.507,262.545
2016-07-16 05:00,0.0,289.647,289.165,258.913,291.16,289.276,263.905,0.0,0.0,245.405,262.151
2016-07-16 06:00,0.0,281.346,283.032,256.32,285.757,285.065,262.847,0.0,0.0,245.809,262.23
2016-07-16 07:00,-0.00339873,290.301,289.165,259.354,291.16,288.999,263.67,0.0,0.0,245.608,262.151
2016-07-16 08:00,0.00725911,290.041,289.272,259.354,291.555,289.551,263.905,0.0,0.0,245.809,262.466
2016-07-16 09:00,0.383941,290.171,289.379,259.354,291.686,289.964,264.138,0.603724,0.498357,245.859,262.935
2016-07-16 10:00,0.0923507,291.065,289.593,259.464,291.817,290.238,264.255,0.191573,0.125865,246.652,263.322
2016-07-16 11:00,0.0230608,291.19,290.229,259.464,292.73,291.057,264.372,0.0997972,0.0569097,246.505,264.01
2016-07-16 12:00,0.368303,294.043,285.994,257.346,288.628,288.167,264.372,0.409583,0.412522,245.151,264.01
2016-07-16 13:00,0.279602,294.043,285.882,257.233,288.897,287.888,263.787,0.303478,0.307799,244.635,262.779
2016-07-16 14:00,0.0157572,291.563,290.965,260.011,293.248,291.735,265.069,0.0478073,0.026513,244.79,263.934
2016-07-16 15:00,0.00867217,291.563,290.965,260.119,293.506,292.141,265.762,0.0367135,0.0187609,244.006,263.782
2016-07-16 16:00,0.0148858,291.809,290.756,260.119,293.119,291.871,265.185,0.039912,0.0262992,243.74,262.466
2016-07-16 17:00,0.0329601,293.24,290.86,259.793,293.377,292.276,265.069,0.0546983,0.0412613,243.579,262.309
2016-07-16 18:00,0.125845,296.943,290.123,259.244,292.47,291.464,265.532,0.13446,0.125536,243.202,261.515
2016-07-16 19:00,0.348592,306.549,290.017,259.574,292.73,291.464,264.837,0.303002,0.303254,242.544,260.708
2016-07-16 20:00,0.99556,315.817,289.486,259.683,292.209,290.784,264.605,0.756654,0.796675,242.211,259.887
2016-07-16 21:00,1.44974,305.261,287.869,259.244,290.5,288.999,263.436,1.01613,1.1292,241.76,259.135
2016-07-16 22:00,0.499385,289.91,288.628,259.244,290.897,289.137,263.436,0.483233,0.576182,241.304,258.543
2016-07-16 23:00,-0.260528,288.841,288.087,259.464,290.632,288.722,263.083,-0.0812696,-0.173039,241.015,258.028
2016-07-17 00:00,-0.152549,288.568,287.651,258.58,290.101,288.445,263.083,-0.0421183,-0.0870475,241.015,258.372
2016-07-17 01:00,-0.00466885,288.977,287.978,258.691,290.101,288.306,263.318,0.0,0.0,240.841,258.028
2016-07-17 02:00,0.0,290.041,288.736,259.134,291.029,288.861,263.2,0.0,0.0,240.899,257.942
2016-07-17 03:00,0.00177469,289.779,288.412,259.244,290.5,288.584,263.2,0.0,-0.00179165,240.899,258.2
2016-07-17 04:00,-0.00177761,289.91,288.628,258.802,290.632,288.722,262.61,0.0,0.0,241.131,257.855
2016-07-17 05:00,0.0,289.779,288.52,258.913,290.5,288.722,263.318,0.0,0.0,241.304,258.286
2016-07-17 06:00,0.0,289.514,288.195,258.802,290.367,288.999,263.2,0.0,0.0,241.533,258.628
2016-07-17 07:00,-0.00337976,288.705,287.651,258.469,289.701,288.306,263.318,0.0,0.0,241.533,258.628
2016-07-17 08:00,-0.00718094,286.569,286.328,257.459,288.628,287.469,263.2,0.0,0.0,241.817,258.628
2016-07-17 09:00,0.398205,289.113,287.651,257.91,289.701,288.584,263.2,0.626154,0.516873,241.76,258.457
2016-07-17 10:00,0.148505,291.44,288.303,258.358,290.367,288.999,262.61,0.247548,0.192091,241.93,258.543
2016-07-17 11:00,0.125827,292.534,287.541,258.246,289.701,288.167,263.083,0.186985,0.150362,242.042,258.628
2016-07-17 12:00,0.271497,295.26,284.982,257.12,287.679,286.767,263.2,0.276472,0.275944,242.099,258.457
2016-07-17 13:00,0.306558,292.889,284.755,257.233,287.134,286.485,262.965,0.379263,0.402635,241.533,258.114
2016-07-17 14:00,0.235116,294.933,283.726,257.006,286.585,285.919,262.965,0.207969,0.202886,241.647,258.114
2016-07-17 15:00,0.0792981,293.472,287.322,258.469,289.434,288.167,263.318,0.0965161,0.0813071,241.131,258.028
2016-07-17 16:00,0.0843554,293.356,287.432,258.58,289.434,287.609,262.492,0.099783,0.0851618,241.533,257.942
2016-07-17 17:00,0.0922895,294.491,288.195,258.913,290.101,288.445,262.965,0.106049,0.0945028,241.59,258.114
2016-07-17 18:00,0.151327,298.045,288.412,259.134,290.367,288.445,263.2,0.1535,0.140673,241.246,258.372
2016-07-17 19:00,0.328296,303.836,288.412,259.024,290.367,288.861,263.553,0.292102,0.282749,240.899,257.942
2016-07-17 20:00,0.768876,310.122,288.303,259.244,290.367,288.445,262.847,0.597863,0.604612,240.841,258.028
2016-07-17 21:00,1.46782,307.064,287.322,258.802,289.434,287.609,262.136,1.01054,1.11261,241.189,258.2
2016-07-17 22:00,0.439816,289.91,288.303,258.913,290.367,288.445,262.728,0.465489,0.592027,240.724,258.286
2016-07-17 23:00,-0.265583,289.247,288.087,258.802,290.367,288.722,262.492,-0.080722,-0.171873,240.782,257.769
2016-07-18 00:00,-0.128811,287.871,287.102,258.022,289.3,287.469,262.728,-0.0391511,-0.0866947,241.015,257.595
2016-07-18 01:00,-0.00232659,285.357,285.321,257.12,287.815,286.485,262.965,0.0,0.0,241.59,257.421
2016-07-18 02:00,0.0,288.152,287.212,258.358,289.166,287.748,262.61,0.0,0.0,241.419,257.682
2016-07-18 03:00,0.0,289.381,287.978,258.134,289.968,288.722,262.728,0.0,0.0,241.704,257.682
2016-07-18 04:00,-0.00177185,288.568,287.651,257.91,289.968,288.861,262.847,0.0,0.0,241.874,257.769
2016-07-18 05:00,0.0,288.291,287.541,258.246,289.568,288.306,262.965,0.0,0.0,241.874,257.769
2016-07-18 06:00,0.0,286.717,286.217,257.12,288.628,287.469,262.728,0.0,0.0,242.211,257.682
2016-07-18 07:00,0.0,289.381,288.412,258.358,290.5,289.137,263.318,0.0,0.0,242.042,257.421
2016-07-18 08:00,0.0,289.779,288.412,258.246,290.764,289.137,263.2,0.0,0.0,242.042,257.508
2016-07-18 09:00,0.32506,290.429,288.843,258.802,291.029,289.826,263.67,0.575475,0.507167,241.93,257.508
2016-07-18 10:00,0.242546,291.19,287.651,257.91,289.835,288.722,263.67,0.319893,0.282536,241.93,257.595
2016-07-18 11:00,0.0772054,291.931,289.058,258.802,291.423,290.375,264.138,0.154708,0.111719,241.704,257.855
2016-07-18 12:00,0.0422397,291.686,289.593,259.244,291.948,290.921,264.255,0.104183,0.0741626,241.59,257.682
2016-07-18 13:00,0.0327588,291.563,289.699,259.134,292.079,291.057,264.372,0.0819497,0.0571243,241.59,257.942
2016-07-18 14:00,0.0289055,291.563,289.805,259.134,292.47,291.329,264.372,0.0656355,0.0464257,241.704,258.2
2016-07-18 15:00,0.0297405,291.809,289.805,259.354,292.34,291.057,264.488,0.0608547,0.0450372,240.899,258.457
2016-07-18 16:00,0.04342,292.771,289.486,259.134,292.209,290.921,264.255,0.0682753,0.0538545,240.724,257.942
2016-07-18 17:00,0.098885,294.823,288.736,258.691,291.292,290.375,264.138,0.111634,0.0998304,240.489,258.114
2016-07-18 18:00,0.142355,298.918,289.805,259.134,292.209,290.921,264.837,0.147176,0.137665,240.548,258.114
2016-07-18 19:00,0.333984,305.722,289.699,259.134,292.209,290.921,264.605,0.290639,0.286601,239.954,258.2
2016-07-18 20:00,0.811503,312.361,289.272,259.354,291.948,290.648,264.255,0.620605,0.650123,239.834,258.372
2016-07-18 21:00,1.08584,300.317,287.541,258.246,290.234,289.689,264.488,0.792707,0.911078,240.253,258.286
2016-07-18 22:00,0.528856,289.113,288.195,259.024,290.897,289.689,263.905,0.447781,0.610184,240.312,258.2
2016-07-18 23:00,-0.34482,288.705,288.412,259.024,291.16,289.689,264.255,-0.0973195,-0.191123,240.253,258.286
2016-07-19 00:00,-0.171015,288.152,287.541,258.691,290.367,289.413,263.67,-0.0473379,-0.0962855,240.371,258.372
2016-07-19 01:00,-0.00231843,281.526,283.38,256.892,286.997,286.767,263.2,0.0,0.0,240.193,258.2
2016-07-19 02:00,0.0,288.152,287.978,258.913,290.632,289.413,263.436,-0.00162506,0.0,240.371,258.2
2016-07-19 03:00,-0.00176351,287.587,287.322,258.802,289.835,288.306,263.553,0.0,0.0,240.014,257.421
2016-07-19 04:00,0.0,283.428,281.505,255.16,283.797,281.441,259.37,0.0,0.0,240.014,256.091
2016-07-19 05:00,-0.00192782,281.883,279.945,254.336,281.51,279.361,258.76,0.0,0.0,239.834,254.999
2016-07-19 06:00,-0.00233833,285.357,282.214,255.858,284.079,281.882,259.005,0.0,0.0,240.074,254.443
2016-07-19 07:00,-0.00334145,287.444,285.433,257.12,287.679,285.493,261.062,0.0,0.0,239.954,255.275
2016-07-19 08:00,-0.00702657,287.3,286.217,257.91,288.628,287.188,262.373,0.0,0.0,240.074,255.548
2016-07-19 09:00,0.461373,288.841,286.105,257.685,288.087,286.202,261.66,0.677116,0.621045,239.774,255.183
2016-07-19 10:00,0.281294,291.315,287.322,258.246,289.701,288.306,262.728,0.341378,0.298182,239.714,255.639
2016-07-19 11:00,0.141853,292.174,287.432,258.58,289.968,288.445,263.2,0.203089,0.164039,239.471,256.001
2016-07-19 12:00,0.1287,293.24,287.322,258.469,289.835,288.445,262.847,0.166568,0.137355,239.227,255.73
2016-07-19 13:00,0.220508,294.268,285.77,258.022,288.493,287.188,263.083,0.224549,0.210583,239.227,255.366
2016-07-19 14:00,0.216855,293.124,285.77,257.572,288.493,287.329,262.847,0.228123,0.240158,239.471,255.548
2016-07-19 15:00,0.118977,292.414,287.212,258.58,289.568,288.445,263.083,0.138515,0.128873,239.714,256.001
2016-07-19 16:00,0.050866,292.534,288.412,259.134,290.632,288.999,263.083,0.0808841,0.0613722,239.41,255.73
2016-07-19 17:00,0.0712013,294.043,288.52,259.464,290.897,289.413,263.318,0.0915455,0.0772066,239.894,255.821
2016-07-19 18:00,0.146875,297.947,288.412,258.913,290.764,289.137,263.436,0.149738,0.139201,239.894,255.73
2016-07-19 19:00,0.361976,305.339,287.869,258.691,290.234,288.722,262.728,0.311199,0.309215,239.834,255.548
2016-07-19 20:00,0.849074,313.574,288.52,258.802,290.632,289.137,263.083,0.636812,0.658767,239.166,255.548
2016-07-19 21:00,1.641,313.094,288.52,259.134,290.764,289.276,263.553,1.02056,1.1631,239.471,255.366
2016-07-19 22:00,0.703169,289.647,287.541,258.358,290.101,288.584,262.492,0.496143,0.709891,239.653,255.183
2016-07-19 23:00,-0.248278,289.514,288.195,258.691,290.5,289.137,263.083,-0.0795414,-0.169359,239.593,255.091
2016-07-20 00:00,-0.130961,288.012,286.992,258.134,289.434,288.306,262.728,-0.0415818,-0.089244,239.714,255.091
2016-07-20 01:00,-0.00230996,289.647,288.412,258.691,290.764,289.276,262.61,0.0,-0.00233204,239.954,255.275
2016-07-20 02:00,0.0,289.647,288.303,258.691,290.632,289.137,262.61,0.0,-0.00193113,239.834,255.366
2016-07-20 03:00,0.0,288.568,287.541,258.469,289.968,288.306,262.728,0.0,0.0,239.532,255.091
2016-07-20 04:00,0.0,288.152,287.102,258.134,289.434,288.167,262.847,0.0,0.0,240.074,255.457
2016-07-20 05:00,0.0,287.871,286.772,258.022,289.3,287.329,261.779,0.0,0.0,239.593,255.183
2016-07-20 06:00,0.0,287.01,285.658,257.798,288.358,286.767,261.54,0.0,0.0,239.894,255.366
2016-07-20 07:00,-0.00332216,284.41,284.869,257.459,287.543,286.485,261.54,0.0,0.0,240.607,255.73
2016-07-20 08:00,0.0,288.43,287.102,258.691,289.835,288.306,263.318,0.0,-0.00701696,240.489,256.271
2016-07-20 09:00,0.673641,284.41,284.071,257.233,286.86,286.06,262.017,0.896297,0.87439,240.841,256.45
2016-07-20 10:00,0.353431,290.813,285.882,257.91,288.358,287.188,262.847,0.391019,0.352052,241.189,256.894
2016-07-20 11:00,0.0749583,291.44,288.303,259.134,290.764,288.999,262.965,0.153196,0.109598,241.361,257.07
2016-07-20 12:00,0.316586,295.902,284.869,257.798,287.815,286.907,262.255,0.305456,0.297314,241.361,256.894
2016-07-20 13:00,0.238527,295.69,284.528,257.91,287.407,286.202,262.136,0.233516,0.222746,241.189,257.333
2016-07-20 14:00,0.0762503,292.053,287.869,259.134,290.101,288.584,262.965,0.101294,0.0796336,241.76,257.421
2016-07-20 15:00,0.0359457,291.809,288.628,259.902,291.029,289.413,263.787,0.0650684,0.0475516,241.704,257.855
2016-07-20 16:00,0.0893313,292.534,288.087,259.683,290.632,289.413,263.2,0.10295,0.0926904,241.59,258.372
2016-07-20 17:00,0.0461528,293.24,289.486,260.228,292.209,290.648,264.138,0.069223,0.0545815,241.419,258.713
2016-07-20 18:00,0.137911,296.008,288.843,259.793,291.555,290.375,264.138,0.144692,0.130149,241.533,259.22
2016-07-20 19:00,0.330587,305.493,290.017,260.553,292.73,291.464,264.721,0.289343,0.283123,241.59,260.052
2016-07-20 20:00,0.991787,315.594,289.911,260.445,292.34,290.921,265.069,0.757547,0.792008,241.76,260.217
2016-07-20 21:00,2.35073,316.695,289.805,260.337,292.47,290.784,264.953,1.50099,1.69164,242.378,260.789
2016-07-20 22:00,0.486574,287.587,287.541,259.354,290.101,289.137,263.787,0.480645,0.654967,242.322,261.194
2016-07-20 23:00,-0.319538,289.514,289.593,260.445,292.34,290.648,264.372,-0.0845476,-0.174738,242.82,261.993
2016-07-21 00:00,-0.156418,287.871,288.087,259.464,290.897,289.551,264.372,-0.0413872,-0.0855366,243.202,262.309
2016-07-21 01:00,-0.00460236,289.91,289.911,260.445,292.209,290.648,264.372,0.0,0.0,243.579,262.466
2016-07-21 02:00,-0.00190619,290.301,290.123,260.661,292.47,290.784,264.721,0.0,0.0,243.364,262.701
2016-07-21 03:00,-0.00175171,290.041,289.911,260.553,292.079,290.511,264.372,0.0,0.0,243.793,262.545
2016-07-21 04:00,0.0,288.705,288.628,259.793,290.764,289.413,264.022,0.0,0.0,243.899,262.466
2016-07-21 05:00,0.0,288.43,288.628,260.011,290.764,289.276,263.67,0.0,-0.00193165,244.217,262.935
2016-07-21 06:00,0.0,290.041,289.593,260.553,291.948,289.964,263.553,0.0,0.0,244.111,262.857
2016-07-21 07:00,0.0,289.647,289.593,260.337,292.079,290.101,263.905,0.0,0.0,244.111,262.701
2016-07-21 08:00,0.0,289.647,289.486,260.011,291.817,289.964,264.488,0.0,0.0,244.635,262.857
2016-07-21 09:00,0.134104,290.301,290.017,260.445,292.209,290.375,264.488,0.567729,0.372312,244.739,262.935
2016-07-21 10:00,0.0900009,291.065,289.486,260.228,291.948,289.964,263.905,0.192514,0.133901,244.687,262.857
2016-07-21 11:00,0.0440369,291.44,289.911,260.553,291.948,290.101,264.138,0.111858,0.0706096,244.269,262.857
2016-07-21 12:00,0.0552796,292.771,287.541,259.244,290.101,288.167,263.436,0.101411,0.0744107,244.374,262.779
2016-07-21 13:00,0.159607,295.042,283.956,257.685,286.722,284.922,262.728,0.154084,0.153603,244.426,262.779
2016-07-21 14:00,0.406348,283.428,277.977,254.099,280.639,280.554,260.461,0.470986,0.519096,244.322,262.466
2016-07-21 15:00,0.121488,293.472,284.071,257.459,286.722,284.922,262.492,0.124906,0.10638,244.322,262.701
2016-07-21 16:00,0.0210937,291.44,289.379,260.337,291.423,289.137,263.436,0.0430741,0.026306,244.531,262.779
2016-07-21 17:00,0.0369262,292.653,287.76,259.464,289.968,288.027,263.436,0.0591808,0.0439362,244.426,263.012
2016-07-21 18:00,0.20392,296.219,281.029,256.32,284.079,282.904,261.062,0.180276,0.196787,244.531,262.935
2016-07-21 19:00,0.540769,295.476,278.968,254.808,281.366,280.998,260.942,0.484617,0.542187,244.894,263.09
2016-07-21 20:00,0.995743,296.943,277.601,254.336,280.347,280.257,261.062,0.88536,1.02648,244.842,263.09
2016-07-21 21:00,1.69145,299.297,277.476,254.336,280.347,280.406,261.421,1.28769,1.59935,244.687,263.244
2016-07-21 22:00,0.591629,283.76,283.032,257.233,285.201,284.061,262.373,0.536712,0.767938,245.253,263.629
2016-07-21 23:00,-0.330089,289.647,289.486,260.119,291.555,289.964,264.372,-0.0950252,-0.186617,245.253,264.238
2016-07-22 00:00,-0.152412,288.291,288.52,259.793,290.632,289.276,264.372,-0.0439309,-0.0916667,245.304,263.934
2016-07-22 01:00,0.0,289.779,289.699,260.445,292.209,290.511,264.605,0.0,0.0,245.099,264.238
2016-07-22 02:00,0.0,289.91,289.911,260.661,292.47,290.784,264.837,0.0,0.0,244.635,263.858
2016-07-22 03:00,0.0,290.301,290.229,260.876,292.6,291.057,264.605,0.0,0.0,244.739,263.552
2016-07-22 04:00,0.0,290.685,290.545,260.984,293.248,291.6,265.185,0.0,0.0,244.479,263.322
2016-07-22 05:00,0.0,289.91,290.017,260.553,292.47,290.784,264.721,0.0,0.0,244.269,262.779
2016-07-22 06:00,-0.00230753,289.647,289.593,260.337,292.079,289.964,264.022,0.0,0.0,244.531,262.466
2016-07-22 07:00,-0.0032834,289.247,288.951,259.902,291.423,289.689,263.787,0.0,0.0,244.79,262.466
2016-07-22 08:00,0.0,289.514,288.303,259.464,290.632,288.584,263.787,0.0,0.0,244.739,262.151
2016-07-22 09:00,2.35304,275.251,274.655,252.29,276.923,277.091,258.76,1.93284,2.65918,244.79,260.627
2016-07-22 10:00,0.519019,289.381,280.066,255.393,282.803,281.882,261.182,0.475738,0.480716,244.687,261.515
2016-07-22 11:00,0.0389407,291.065,289.486,260.228,291.817,289.689,263.67,0.109903,0.0681424,244.687,262.388
2016-07-22 12:00,0.106991,292.653,288.843,259.683,291.16,289.551,264.372,0.149941,0.122912,244.531,262.309
2016-07-22 13:00,0.0507453,291.686,289.593,260.011,291.948,290.238,264.605,0.0871957,0.0662982,244.479,262.466
2016-07-22 14:00,0.024993,291.44,289.593,260.228,292.079,290.238,264.022,0.0512332,0.0345279,243.846,261.993
2016-07-22 15:00,0.0297564,291.931,289.486,260.011,291.948,290.375,264.605,0.0514392,0.0362994,243.846,262.388
2016-07-22 16:00,0.124092,289.647,286.439,258.358,288.763,287.609,263.787,0.143944,0.145323,244.479,262.466
2016-07-22 17:00,0.0211035,292.414,290.123,260.445,292.209,290.511,264.372,0.0424372,0.0266315,244.217,262.309
2016-07-22 18:00,0.080992,295.151,289.699,260.445,292.079,290.238,264.721,0.099054,0.0832805,244.217,262.072
2016-07-22 19:00,0.353311,302.511,284.869,257.91,287.679,286.343,263.318,0.308595,0.315388,244.164,262.151
2016-07-22 20:00,0.999838,304.95,280.669,255.742,283.797,283.484,262.136,0.806461,0.897831,244.322,262.23
2016-07-22 21:00,2.71594,317.708,289.699,260.011,291.423,289.413,263.787,1.78166,2.01567,244.217,262.466
2016-07-22 22:00,0.132733,290.685,289.699,260.228,291.686,289.964,264.372,0.449538,0.491339,244.058,262.309
2016-07-22 23:00,-0.314139,288.841,288.52,259.793,290.897,289.137,263.67,-0.0886603,-0.178392,244.531,262.072
2016-07-23 00:00,-0.180675,283.76,284.414,257.006,286.31,285.35,262.255,-0.0464396,-0.0944584,244.269,262.151
2016-07-23 01:00,0.0,285.357,285.095,257.685,287.679,286.202,262.965,0.0,0.0,244.479,262.388
2016-07-23 02:00,-0.00189233,282.581,283.264,256.778,285.479,285.065,263.083,0.0,0.0,244.217,262.309
2016-07-23 03:00,-0.00173933,289.113,289.165,259.793,291.555,290.101,264.488,0.0,0.0,244.269,262.466
2016-07-23 04:00,0.0,290.429,289.911,260.445,292.209,290.101,264.372,0.0,0.0,244.583,262.466
2016-07-23 05:00,0.0,286.271,286.217,258.58,288.087,286.626,263.2,0.0,0.0,244.79,262.466
2016-07-23 06:00,0.0,283.924,283.726,257.233,286.585,285.35,262.847,0.0,0.0,245.253,262.779
2016-07-23 07:00,0.0,285.818,285.994,258.58,288.493,287.188,263.905,0.0,0.0,244.894,262.935
2016-07-23 08:00,0.0,290.813,290.44,260.337,292.86,291.193,264.837,0.0,0.0,244.945,263.09
2016-07-23 09:00,0.922048,288.43,288.412,259.683,291.292,289.964,264.953,0.936836,0.968097,244.894,263.012
2016-07-23 10:00,0.282413,0.0,289.486,260.228,291.948,290.784,265.185,0.336388,0.304443,244.374,263.244
2016-07-23 11:00,0.0182118,291.065,290.965,261.091,293.892,292.41,265.532,0.0925194,0.0499046,244.269,263.167
2016-07-23 12:00,0.0277003,291.931,290.756,260.876,293.635,292.141,266.108,0.0766157,0.0466085,244.111,263.322
2016-07-23 13:00,0.020907,291.809,290.756,261.091,293.635,292.006,265.878,0.0594278,0.0361832,243.418,263.399
2016-07-23 14:00,0.0105264,291.315,291.174,261.412,294.149,292.814,265.762,0.0423352,0.0239108,242.433,262.466
2016-07-23 15:00,0.0297608,292.294,290.335,260.553,293.248,291.735,265.532,0.0524967,0.0375566,241.986,262.388
2016-07-23 16:00,0.0446778,292.414,290.017,260.661,292.86,291.735,265.878,0.0619969,0.0488637,241.647,262.072
2016-07-23 17:00,0.0382563,293.007,290.335,260.661,293.119,291.6,264.953,0.0603152,0.0439492,241.189,261.113
2016-07-23 18:00,0.106526,296.219,289.699,260.337,292.47,290.784,264.721,0.118143,0.103,241.189,260.789
2016-07-23 19:00,0.323795,303.836,289.272,260.011,291.948,290.375,264.372,0.293064,0.287438,241.476,260.627
2016-07-23 20:00,0.980357,315.538,289.911,260.661,292.079,290.648,264.022,0.734118,0.776884,242.099,260.627
2016-07-23 21:00,2.04922,314.858,288.951,259.683,291.292,290.101,264.255,1.29402,1.50324,242.544,260.545
2016-07-23 22:00,0.465612,290.041,289.165,259.902,291.555,289.826,264.372,0.47308,0.658088,242.984,260.627
2016-07-23 23:00,-0.272391,290.301,289.486,259.793,291.948,290.375,264.138,-0.082369,-0.170235,243.364,260.708
2016-07-24 00:00,-0.134792,289.91,289.058,259.464,291.686,290.238,264.488,-0.0407602,-0.0810005,243.472,260.545
2016-07-24 01:00,-0.00454625,290.301,289.486,259.793,292.079,290.511,264.488,0.0,-0.00229485,243.633,260.789
2016-07-24 02:00,-0.00188513,289.779,289.165,259.574,291.686,290.101,264.255,0.0,0.0,243.953,260.952
2016-07-24 03:00,-0.00173295,286.271,286.105,258.022,288.493,287.188,263.553,0.0,0.0,243.899,260.708
2016-07-24 04:00,0.0,288.841,287.541,258.469,289.568,288.306,263.553,0.0,0.0,243.899,260.299
2016-07-24 05:00,0.0,283.261,282.096,255.974,284.781,284.205,262.136,0.0,0.00190899,243.899,260.463
2016-07-24 06:00,0.0,287.871,286.55,258.022,288.628,287.048,263.083,0.0,0.0,243.899,260.217
2016-07-24 07:00,0.0,278.883,279.823,254.808,282.66,282.321,261.301,0.0,0.0,244.006,259.97
2016-07-24 08:00,0.00665516,287.587,286.55,258.022,288.222,287.329,263.553,0.0,0.0,244.217,260.135
2016-07-24 09:00,0.388383,289.91,288.195,258.802,290.367,288.999,263.67,0.723456,0.588144,244.322,260.217
2016-07-24 10:00,0.307965,291.563,287.432,258.469,289.835,288.861,264.138,0.354461,0.320624,244.006,260.545
2016-07-24 11:00,0.0756123,291.563,288.951,259.354,291.292,290.101,263.905,0.158948,0.115819,243.899,260.952
2016-07-24 12:00,0.046217,291.44,289.058,259.244,291.292,290.238,263.905,0.1127,0.0802532,243.899,260.708
2016-07-24 13:00,0.0403432,291.563,288.951,259.134,291.555,290.101,263.905,0.0898243,0.066373,244.322,260.789
2016-07-24 14:00,0.0526471,0.0,288.736,259.024,290.897,289.826,264.488,0.088038,0.0690955,244.164,261.033
2016-07-24 15:00,0.0396871,291.931,289.058,259.354,291.292,290.238,264.138,0.0724565,0.0563435,244.058,261.033
2016-07-24 16:00,0.0347537,292.294,289.379,259.683,291.817,290.511,264.372,0.0662082,0.0501227,243.846,261.355
2016-07-24 17:00,0.0646522,293.816,289.272,259.574,291.555,290.375,264.953,0.0849043,0.0719305,244.269,261.675
2016-07-24 18:00,0.118575,296.635,289.593,259.793,291.817,290.648,264.837,0.132168,0.115163,244.479,261.675
2016-07-24 19:00,0.366892,300.225,287.651,258.691,290.101,289.137,264.837,0.348492,0.351598,244.374,262.072
2016-07-24 20:00,0.887022,313.395,289.593,259.793,291.817,290.784,264.953,0.666101,0.687617,244.269,262.072
2016-07-24 21:00,1.77217,313.633,289.272,259.574,291.555,290.238,264.721,1.08253,1.23095,243.846,261.515
2016-07-24 22:00,0.19715,289.247,288.951,259.134,291.029,289.826,264.605,0.459049,0.497588,243.953,261.355
2016-07-24 23:00,-0.289113,290.041,288.843,259.244,290.897,289.689,264.022,-0.0815973,-0.181613,243.633,260.789
2016-07-25 00:00,-0.137248,284.73,285.208,257.798,287.815,287.329,263.2,-0.0405377,-0.0870031,243.526,260.545
2016-07-25 01:00,-0.00226324,284.888,285.208,257.346,287.815,287.048,263.2,0.0,0.0,243.147,260.381
2016-07-25 02:00,-0.00187777,286.421,286.217,257.91,288.493,287.469,263.318,0.0,0.0,243.472,259.97
2016-07-25 03:00,0.0,280.05,282.331,256.434,285.618,285.493,262.965,0.0,0.0,243.74,260.052
2016-07-25 04:00,0.0,280.613,283.032,256.434,285.757,285.635,262.61,0.0,0.0,243.633,259.97
2016-07-25 05:00,0.0,280.239,282.448,256.434,285.34,284.922,262.61,0.0,0.0,243.418,260.052
2016-07-25 06:00,0.0,282.408,284.071,257.233,286.447,285.919,262.847,0.0,0.0,243.256,259.554
2016-07-25 07:00,0.0,283.428,283.956,257.12,286.86,286.343,262.492,0.0,0.0,243.633,259.554
2016-07-25 08:00,0.0,282.923,284.642,257.346,286.86,286.485,263.318,0.0,0.0,243.526,259.97
2016-07-25 09:00,0.369195,289.779,288.736,259.134,290.632,289.413,263.083,0.764125,0.621207,243.579,259.804
2016-07-25 11:00,0.0862274,291.563,288.951,259.464,291.029,289.551,264.022,0.168141,0.123983,243.74,260.217
2016-07-25 12:00,0.0499679,291.19,288.951,259.354,291.029,289.551,263.787,0.119088,0.0840759,243.846,260.627
2016-07-25 13:00,0.222759,297.045,285.882,258.134,288.493,287.888,263.318,0.213926,0.203758,243.899,260.627
2016-07-25 14:00,0.0381801,291.809,289.058,259.683,291.029,289.689,264.138,0.0791455,0.0584822,243.418,260.299
2016-07-25 15:00,0.0508573,292.414,289.058,259.464,291.029,289.551,263.787,0.0829708,0.0638663,244.058,260.381
2016-07-25 16:00,0.0732412,293.587,288.628,259.464,290.5,289.413,263.553,0.105107,0.0864737,244.269,260.708
2016-07-25 17:00,0.357646,290.301,283.148,256.664,285.757,285.635,262.847,0.473782,0.499628,244.79,261.113
2016-07-25 18:00,0.465498,295.26,282.566,257.006,285.618,285.35,262.373,0.471692,0.488139,244.739,260.463
2016-07-25 19:00,0.479061,299.765,284.3,257.798,286.722,286.06,262.965,0.445077,0.455412,244.426,260.381
2016-07-25 20:00,0.957451,302.341,282.566,256.778,285.479,285.065,261.779,0.794996,0.870478,243.846,259.97
2016-07-25 21:00,1.31942,303.51,285.433,257.798,287.679,286.626,262.373,0.91556,1.05661,243.31,259.471
2016-07-25 22:00,0.210111,283.76,283.956,257.233,286.722,286.06,261.779,0.489226,0.583328,242.765,258.967
2016-07-25 23:00,-0.299033,279.473,281.148,255.742,283.938,283.629,261.301,-0.0808057,-0.179851,242.984,259.22
2016-07-26 00:00,-0.161865,279.473,280.909,254.808,283.514,283.484,261.301,-0.0456835,-0.0929205,243.093,258.713
2016-07-26 01:00,-0.0022531,279.081,280.549,255.043,283.23,283.194,260.942,0.0,-0.00227464,242.82,258.372
2016-07-26 02:00,-0.00187024,279.081,280.187,254.217,282.66,282.613,260.219,0.0,-0.00188812,243.147,258.628
2016-07-26 03:00,0.00171982,278.684,279.58,253.741,282.231,281.882,259.492,0.0,0.0,244.164,259.051
2016-07-26 04:00,0.0,278.482,280.308,254.808,283.088,283.049,260.701,0.0,0.0,244.217,259.387
2016-07-26 05:00,0.0,277.24,275.046,251.305,279.022,276.015,255.027,0.0,0.0,243.953,258.028
2016-07-26 06:00,0.0,277.24,279.091,253.741,281.799,281.441,260.219,0.0,0.0,244.006,258.114
2016-07-26 07:00,0.0,277.661,279.823,254.099,282.374,282.321,261.062,0.0,0.0,245.355,259.22
2016-07-26 08:00,0.0,277.869,279.458,253.621,281.943,281.735,260.34,0.0,0.0,245.96,259.638
2016-07-26 09:00,0.0,277.451,279.091,253.501,282.087,281.441,259.856,0.478499,0.263325,246.307,259.721
2016-07-26 10:00,0.233435,252.585,248.177,237.728,248.733,248.736,240.646,0.39118,0.446784,235.731,244.056
2016-07-26 11:00,0.264476,253.81,247.357,237.415,248.093,247.501,239.618,0.634103,0.716417,234.897,241.602
2016-07-26 12:00,0.550231,286.271,270.885,249.797,272.582,271.765,255.406,0.688623,0.729433,234.543,250.135
2016-07-26 13:00,0.197452,263.255,256.294,241.646,257.928,257.115,245.628,0.402757,0.425861,236.341,246.258
2016-07-26 14:00,0.243633,289.381,273.732,252.168,274.778,272.405,254.519,0.284337,0.276541,236.874,249.408
2016-07-26 15:00,0.383355,279.473,252.101,240.32,254.263,253.703,244.372,0.398117,0.428352,236.542,245.918
2016-07-26 16:00,0.316601,280.982,253.779,241.207,255.633,254.281,245.072,0.315371,0.333415,237.006,246.595
2016-07-26 17:00,0.427699,289.779,256.469,243.084,258.491,256.928,246.319,0.453783,0.478432,238.42,248.241
2016-07-26 18:00,0.297463,277.451,258.365,243.226,259.791,256.928,243.949,0.544428,0.620331,236.071,245.575
2016-07-26 19:00,0.610135,286.121,258.195,243.65,259.051,257.856,247.006,0.736195,0.849545,238.608,248.669
2016-07-26 20:00,1.06539,315.312,283.726,257.572,286.585,282.613,258.638,0.823525,0.853502,239.288,252.146
2016-07-26 21:00,0.832618,300.134,286.992,259.244,288.897,286.202,261.54,0.658541,0.709709,239.653,253.021
2016-07-26 22:00,0.112851,289.113,286.217,259.024,288.358,285.493,260.942,0.477752,0.512683,240.074,253.021
2016-07-26 23:00,-0.359022,288.977,286.55,258.691,287.815,285.065,260.581,-0.0853288,-0.178048,239.471,252.731
2016-07-27 00:00,-0.18301,288.841,286.217,258.58,288.358,285.065,260.701,-0.042746,-0.0923797,239.834,253.595
2016-07-27 01:00,0.0,288.705,287.212,258.802,289.3,286.767,261.779,0.0,0.0,240.193,253.88
2016-07-27 02:00,0.0,287.444,284.869,257.572,287.134,284.779,260.34,0.0,-0.00188038,240.193,253.595
2016-07-27 03:00,0.0,283.594,282.096,256.089,282.946,281.146,258.392,0.0,0.0,240.193,253.117
2016-07-27 04:00,0.00171457,281.526,280.308,254.926,280.931,279.661,258.638,0.0,0.0,240.43,252.634
2016-07-27 05:00,0.0,286.271,282.214,255.858,283.656,280.406,257.9,0.0,0.0,240.134,251.452
2016-07-27 06:00,-0.00225467,288.012,285.546,257.91,286.722,284.205,260.098,0.0,0.0,240.782,253.309
2016-07-27 07:00,-0.00318641,288.012,286.439,258.134,288.763,286.202,261.062,0.0,0.0,240.489,254.256
2016-07-27 08:00,0.0,289.113,287.432,258.358,289.3,286.343,261.301,0.0,0.0,240.957,254.443
2016-07-27 09:00,0.369916,288.568,286.439,257.91,288.628,285.777,260.461,0.822168,0.653541,240.665,254.536
2016-07-27 10:00,0.141787,290.685,287.541,258.58,289.701,287.048,261.779,0.235961,0.167822,241.533,255.457
2016-07-27 12:00,0.0204004,290.429,287.978,259.024,289.968,287.329,261.779,0.0785136,0.0430632,241.131,255.275
2016-07-27 13:00,0.0254433,290.558,287.978,259.024,290.101,287.469,262.136,0.0658956,0.0423072,241.189,255.366
2016-07-27 14:00,0.050058,288.977,285.658,257.346,288.087,285.777,260.942,0.122691,0.126341,241.073,255.457
2016-07-27 15:00,0.215909,291.315,282.916,255.974,285.618,284.492,261.421,0.259506,0.249291,241.59,255.457
2016-07-27 16:00,0.232215,286.864,280.789,254.926,283.514,282.904,260.822,0.319633,0.30464,241.59,255.639
2016-07-27 17:00,0.334071,287.3,280.187,254.572,282.803,282.467,260.34,0.396894,0.401251,241.533,255.366
2016-07-27 18:00,0.401341,293.816,280.909,255.16,284.22,283.484,261.182,0.388178,0.38545,241.647,255.911
2016-07-27 19:00,0.584626,294.491,281.148,254.69,283.797,283.629,261.301,0.57882,0.607186,242.266,257.246
2016-07-27 20:00,0.565714,303.181,287.322,258.246,289.701,288.027,262.847,0.478989,0.490682,242.544,257.942
2016-07-27 21:00,1.25325,304.636,288.195,258.691,290.632,288.722,263.2,0.865875,0.976755,242.544,258.114
2016-07-27 22:00,0.244741,289.91,288.736,259.134,291.029,288.999,262.728,0.518054,0.555931,242.544,257.595
2016-07-27 23:00,-0.361546,289.91,288.628,259.024,290.897,288.861,262.847,-0.089725,-0.182501,242.875,257.942
2016-07-28 00:00,-0.185049,290.041,289.165,258.913,291.817,289.689,263.083,-0.0424898,-0.091826,243.418,258.713
2016-07-28 01:00,-0.00223213,289.779,288.843,259.024,291.423,289.964,263.083,0.0,-0.00225347,244.269,259.304
2016-07-28 02:00,0.0,289.247,288.843,258.58,291.423,289.964,263.436,0.0,0.0,244.531,259.554
2016-07-28 03:00,0.0,289.647,288.951,258.691,291.555,290.375,263.318,0.0,0.0,244.842,259.721
2016-07-28 04:00,0.00170773,285.512,285.882,257.12,288.222,287.329,262.965,0.0,0.00172406,245.658,260.381
2016-07-28 05:00,0.0,290.041,289.486,259.134,292.209,290.784,264.372,0.0,0.0,245.91,260.789
2016-07-28 06:00,0.0,290.041,289.593,259.134,292.079,290.784,264.488,0.0,0.0,245.91,260.463
2016-07-28 07:00,0.0,289.647,289.272,258.802,292.209,290.648,263.905,0.0,0.0,246.109,260.952
2016-07-28 08:00,0.0,285.512,286.105,257.233,289.032,288.027,263.67,0.0,0.0,246.554,261.194
2016-07-28 10:00,0.113054,291.315,289.593,259.024,292.209,290.921,264.372,0.220578,0.163758,246.993,261.675
2016-07-28 11:00,0.0420765,291.315,290.017,259.024,292.6,291.057,264.138,0.122465,0.0796477,246.406,260.952
2016-07-28 12:00,0.0241348,291.19,290.017,259.574,292.73,291.193,263.787,0.0848833,0.0506052,246.357,260.871
2016-07-28 13:00,0.196169,294.38,286.772,257.685,289.568,288.445,263.436,0.211741,0.207115,246.456,261.033
2016-07-28 14:00,0.0250363,291.563,290.335,259.683,293.119,291.735,264.721,0.0591319,0.0399089,246.307,261.113
2016-07-28 15:00,0.0,0.0,0.0,0.0,0.0,0.0,0.0,0.0,0.0,0.0,0.0
2016-07-28 16:00,0.0360191,292.414,290.123,259.683,292.73,291.193,264.605,0.0599431,0.0463948,246.406,261.435
2016-07-28 17:00,0.0673638,293.472,289.911,259.574,292.6,291.193,264.488,0.0883512,0.0746752,246.993,261.435
2016-07-28 18:00,0.117315,296.531,289.805,259.574,292.34,291.057,264.721,0.128621,0.118437,247.331,261.595
2016-07-28 19:00,0.28797,302.171,289.593,259.464,292.209,290.511,264.138,0.269156,0.266181,247.426,261.834
2016-07-28 20:00,0.867826,313.275,290.017,259.683,292.47,290.921,264.488,0.664915,0.69606,247.996,262.466
2016-07-28 21:00,2.01177,314.397,288.951,259.134,291.555,290.375,264.255,1.23376,1.43036,247.474,262.151
2016-07-28 22:00,0.268431,287.01,286.992,258.022,289.835,288.722,264.138,0.568201,0.677494,247.331,262.309
2016-07-28 23:00,-0.259026,288.291,288.087,258.469,290.764,289.551,263.787,-0.0731057,-0.168109,246.993,262.309
2016-07-29 00:00,-0.134035,290.558,290.123,259.354,292.73,291.6,265.185,-0.0369494,-0.0849663,246.701,262.545
2016-07-29 01:00,0.0,290.429,290.123,259.574,293.248,291.871,265.069,0.0,-0.00224256,246.357,262.23
2016-07-29 02:00,0.0,290.939,290.651,260.011,293.377,292.141,264.721,0.0,0.0,246.009,262.309
2016-07-29 03:00,0.0,290.685,290.545,259.574,293.377,292.006,264.372,0.0,0.0,246.109,262.466
2016-07-29 04:00,0.0,288.43,288.736,259.024,291.423,290.238,264.255,0.0,0.0,246.456,262.935
2016-07-29 05:00,-0.00185196,290.171,290.44,260.011,292.989,291.871,264.837,0.0,0.0,246.701,263.167
2016-07-29 06:00,-0.00223324,285.97,286.439,257.91,289.701,288.584,264.138,0.0,0.0,246.554,263.012
2016-07-29 07:00,0.0,282.923,284.3,256.664,288.087,287.469,264.022,0.0,0.0,246.059,263.322
2016-07-29 08:00,-0.006309,287.444,288.52,259.024,290.897,290.238,264.953,0.0,0.0,245.658,263.399
2016-07-29 09:00,0.529989,288.977,288.412,259.244,290.897,289.964,264.372,0.942357,0.85609,244.739,263.09
2016-07-29 10:00,0.0741264,291.315,290.44,260.228,293.248,291.735,265.301,0.209209,0.154659,244.111,261.914
2016-07-29 11:00,0.258266,293.24,288.087,259.024,291.029,289.689,264.372,0.285614,0.276698,243.74,261.275
2016-07-29 12:00,0.0836299,292.534,289.379,260.553,292.079,289.826,264.022,0.127457,0.0994391,242.378,258.457
2016-07-29 13:00,0.0389553,292.414,289.593,260.769,292.6,290.511,264.022,0.0773841,0.0529411,242.042,258.286
2016-07-29 14:00,0.0540417,292.889,288.951,260.661,291.817,290.238,263.553,0.0770058,0.0598811,241.015,257.769
2016-07-29 15:00,0.0558603,292.414,288.951,260.445,291.686,289.826,263.67,0.0735729,0.0563943,240.724,257.246
2016-07-29 16:00,0.0409963,292.414,288.843,260.661,291.292,288.861,263.2,0.0589044,0.0438966,240.074,256.982
2016-07-29 17:00,0.0409612,293.124,288.951,261.091,291.292,288.861,263.436,0.062651,0.0466886,239.774,255.911
2016-07-29 18:00,0.108361,296.114,288.412,260.876,290.897,288.445,262.847,0.115961,0.100281,239.834,255.639
2016-07-29 19:00,0.359466,298.822,286.661,259.464,289.032,286.907,262.017,0.339234,0.32888,239.349,255.548
2016-07-29 20:00,0.712506,301.565,286.105,259.354,288.493,286.626,262.017,0.605537,0.603472,239.471,255.457
2016-07-29 21:00,0.811672,293.356,284.755,258.358,287.27,285.777,262.255,0.704422,0.717002,239.653,255.73
2016-07-29 22:00,0.44792,286.864,285.77,258.802,288.222,286.485,262.255,0.632088,0.829037,239.894,256.181
2016-07-29 23:00,-0.274499,286.421,285.321,258.469,288.087,286.202,262.255,-0.0774726,-0.17859,240.371,256.716
2016-07-30 00:00,-0.133188,289.381,287.76,259.464,289.835,287.609,262.61,-0.0393383,-0.0906828,239.714,256.628
2016-07-30 01:00,-0.00442063,289.779,287.76,259.902,289.968,287.609,262.373,0.0,0.0,239.954,256.628
2016-07-30 02:00,0.0,288.568,287.212,259.244,289.3,287.329,262.847,0.0,0.0,239.41,256.805
2016-07-30 03:00,0.0,284.888,285.658,258.022,288.358,287.188,262.373,0.0,0.0,239.834,257.158
2016-07-30 04:00,0.0,281.526,283.495,257.12,286.585,285.777,262.492,0.0,0.0,239.834,257.595
2016-07-30 05:00,-0.00184401,282.408,283.841,257.346,287.134,286.202,262.017,0.0,0.0,239.894,258.114
2016-07-30 06:00,0.0,279.859,282.566,256.434,285.895,285.635,262.492,0.0,-0.00224375,239.227,257.942
2016-07-30 07:00,0.0,290.041,288.628,259.464,290.897,288.999,264.022,0.0,0.0,239.227,258.028
2016-07-30 08:00,0.00624312,282.234,283.956,257.572,286.86,286.626,262.728,0.0,0.0,238.981,257.855
2016-07-30 09:00,0.914885,282.923,283.611,257.572,287.134,286.343,262.965,1.30719,1.21227,238.919,257.508
2016-07-30 10:00,0.62104,288.568,282.096,256.778,285.757,285.493,262.965,0.576314,0.576819,238.608,258.028
2016-07-30 11:00,0.464804,295.796,283.726,257.233,286.997,286.06,262.373,0.436034,0.437253,238.483,257.942
2016-07-30 12:00,0.145107,295.69,287.76,259.354,290.367,288.861,264.022,0.166967,0.138982,238.42,258.028
2016-07-30 13:00,0.0284825,291.686,289.699,260.337,291.948,290.511,264.488,0.079964,0.0529694,238.608,258.114
2016-07-30 14:00,0.0224143,291.563,290.017,260.553,292.6,291.193,265.069,0.0613998,0.0412638,238.795,258.2
2016-07-30 15:00,0.0223489,291.809,290.44,260.661,292.989,291.464,264.953,0.0525633,0.0350973,238.795,258.2
2016-07-30 16:00,0.0273375,292.174,290.229,260.553,292.989,291.464,264.721,0.0547103,0.0401438,238.733,258.114
2016-07-30 17:00,0.043621,293.007,290.335,260.661,292.989,291.6,264.953,0.07051,0.0533793,238.857,258.2
2016-07-30 18:00,0.0994013,296.219,290.545,260.445,293.248,291.735,264.721,0.114768,0.100351,238.608,258.628
2016-07-30 19:00,0.277451,302.764,290.756,260.553,293.248,291.735,265.185,0.255552,0.244144,238.483,258.713
2016-07-30 20:00,0.692953,303.917,289.165,260.011,292.079,290.784,264.605,0.57313,0.578029,239.104,259.135
2016-07-30 21:00,1.2356,305.493,290.335,260.337,292.6,291.464,264.837,0.825707,0.922675,238.919,259.471
2016-07-30 22:00,0.338253,289.647,289.805,260.337,292.34,291.057,264.721,0.644397,0.768346,239.41,259.387
2016-07-30 23:00,-0.265396,289.381,289.593,260.337,292.079,290.784,264.721,-0.0766059,-0.164414,239.288,259.471
2016-07-31 00:00,-0.138479,287.871,288.087,259.574,290.897,289.551,264.372,-0.0390832,-0.0900949,238.919,258.967
2016-07-31 01:00,-0.00219912,288.291,288.303,259.574,291.029,289.689,264.605,0.0,0.0,238.857,258.798
2016-07-31 02:00,0.0,286.717,286.992,258.691,290.101,289.137,264.022,0.0,0.0,239.166,259.051
2016-07-31 03:00,0.0,290.685,290.123,260.337,292.47,290.921,264.605,0.0,0.0,239.104,259.051
2016-07-31 04:00,0.0,287.871,288.087,259.574,290.764,289.551,264.022,0.0,0.0,239.227,259.304
2016-07-31 05:00,0.0,290.171,289.911,260.228,292.34,290.784,263.787,0.0,0.0,239.227,259.051
2016-07-31 06:00,0.0,289.381,288.843,259.793,291.555,289.826,264.022,0.0,0.0,239.532,258.882
2016-07-31 07:00,0.0,290.429,289.486,259.683,291.817,290.101,263.553,0.0,0.0,239.166,259.051
2016-07-31 08:00,0.0,285.202,285.321,257.572,288.222,287.329,263.553,0.0,0.0,238.795,259.051
2016-07-31 09:00,1.30358,280.982,282.331,255.974,285.757,285.35,262.61,1.57678,1.44138,238.795,258.882
2016-07-31 10:00,0.569437,290.558,282.916,255.393,286.033,285.777,262.61,0.520205,0.509324,241.015,260.299
2016-07-31 11:00,0.529295,294.043,282.682,254.926,285.895,285.635,262.61,0.495209,0.520996,239.41,259.97
2016-07-31 12:00,0.338929,294.491,284.3,255.858,287.27,286.485,262.728,0.346888,0.359089,236.207,259.304
2016-07-31 13:00,0.101992,294.602,286.772,257.346,289.701,287.888,263.2,0.124455,0.107509,234.686,258.457
2016-07-31 14:00,0.266415,295.476,283.38,255.626,286.722,285.919,262.728,0.292575,0.308907,234.615,258.2
2016-07-31 15:00,0.0149027,291.19,289.165,259.024,291.555,289.689,263.553,0.0452147,0.0275827,233.603,256.982
2016-07-31 16:00,0.0186442,291.809,288.736,258.802,291.16,289.137,263.436,0.0452533,0.0301159,233.085,256.716
2016-07-31 17:00,0.242002,291.065,282.096,255.393,285.34,284.779,262.373,0.241853,0.24031,232.709,256.181
2016-07-31 18:00,0.245678,298.726,285.095,257.12,288.222,286.626,262.728,0.218225,0.213029,231.473,255.457
2016-07-31 19:00,0.407371,302.085,284.982,256.892,288.358,286.907,262.373,0.34651,0.360094,231.156,254.536
2016-07-31 20:00,0.818269,312.237,290.229,259.574,292.989,291.057,263.905,0.633767,0.650039,230.996,254.629
2016-07-31 22:00,0.392462,290.301,289.699,258.802,292.86,290.921,263.787,0.664594,0.891481,230.674,254.162
2016-07-31 23:00,-0.292172,278.684,273.333,250.177,273.057,266.329,248.229,-0.0858263,-0.186611,230.101,246.371
