# timestamp,IR_016,IR_039,IR_087,IR_097,IR_108,IR_120,IR_134,VIS006,VIS008,WV_062,WV_073
2015-10-01 00:00,-0.0,272.061,265.394,247.991,265.654,264.279,249.572,-0.0,-0.0,232.251,245.114
2015-10-01 01:00,0.00158945,270.151,261.662,245.859,263.04,258.224,244.932,-0.0,-0.0,230.916,244.056
2015-10-01 02:00,0.00137438,281.705,276.08,253.381,276.772,273.359,252.594,-0.0,-0.0,230.184,246.707
2015-10-01 03:00,-0.0,237.078,224.279,226.481,221.182,220.081,219.927,-0.0,-0.0,215.873,218.653
2015-10-01 04:00,-0.0,279.667,272.662,252.168,273.215,270.148,249.572,-0.0,-0.0,226.871,244.53
2015-10-01 05:00,-0.0,285.045,282.799,257.91,285.34,282.758,258.638,-0.0,-0.0,230.674,250.544
2015-10-01 06:00,-0.0,285.357,284.071,259.134,286.997,284.492,260.219,-0.0,-0.0,230.674,250.748
2015-10-01 07:00,-0.0,285.202,284.3,259.024,287.134,284.779,260.701,-0.0,-0.0,230.184,251.051
2015-10-01 08:00,0.00372036,284.249,283.38,258.469,286.033,284.061,259.492,-0.0,-0.0,230.184,251.352
2015-10-01 09:00,-0.0,284.57,284.071,258.913,286.997,284.779,261.182,-0.0125975,-0.0150207,231.394,252.537
2015-10-01 10:00,0.478911,286.864,284.869,259.024,287.407,285.35,260.581,0.296555,0.432975,231.076,252.244
2015-10-01 11:00,0.540732,292.771,287.432,260.337,289.568,286.767,261.182,0.230169,0.435528,231.236,252.537
2015-10-01 12:00,0.413716,294.823,285.994,259.683,287.951,284.205,258.023,0.179258,0.343157,231.943,250.748
2015-10-01 13:00,0.337834,301.037,292.622,263.721,294.405,290.101,261.898,0.134002,0.273465,233.603,252.731
2015-10-01 14:00,0.283226,304.078,295.639,265.456,297.558,292.679,262.847,0.109818,0.229816,233.456,253.5
2015-10-01 15:00,0.491602,297.146,265.394,248.642,268.855,268.173,253.625,0.422561,0.497558,233.01,252.439
2015-10-01 16:00,0.465136,292.889,261.982,246.667,264.965,264.967,252.075,0.398076,0.464519,232.02,250.95
2015-10-01 17:00,0.4957,295.69,262.3,246.667,265.138,264.967,251.683,0.426589,0.499071,231.63,251.252
2015-10-01 18:00,0.525611,303.098,266.738,249.414,268.358,266.16,251.814,0.41411,0.49697,231.236,251.051
2015-10-01 19:00,0.761674,304.557,265.545,248.382,265.997,263.063,249.438,0.636074,0.752102,230.43,248.987
2015-10-01 20:00,1.0774,286.121,245.676,237.258,244.122,241.251,234.604,0.943587,1.12169,224.86,235.146
2015-10-01 21:00,0.993865,270.713,258.534,244.349,260.524,259.684,247.687,0.850362,1.08786,229.007,246.707
2015-10-01 22:00,-0.00898212,245.01,239.074,233.344,238.693,237.581,232.547,-0.0,-0.0,225.739,232.829
2015-10-01 23:00,-0.0904303,282.234,273.065,251.676,272.582,269.657,250.369,-0.065629,-0.0652105,229.433,245.804
2015-10-02 00:00,0.00205733,276.811,269.343,249.924,269.515,266.667,249.572,-0.0,-0.0,228.921,244.056
2015-10-02 01:00,-0.0,288.43,286.55,260.337,289.032,286.767,261.062,-0.0,-0.0,230.348,251.85
2015-10-02 02:00,-0.0,288.568,286.992,260.445,289.434,286.907,261.301,-0.0,-0.0,230.835,251.252
2015-10-02 03:00,-0.0,268.382,259.54,245.314,259.236,258.224,245.767,-0.0,-0.0,227.959,239.789
2015-10-02 04:00,-0.0,284.57,279.336,255.51,282.087,278.156,253.881,-0.0,-0.0,229.601,248.669
2015-10-02 05:00,-0.0,278.279,271.437,250.303,271.303,268.007,248.499,-0.0,-0.0,229.093,244.998
2015-10-02 06:00,-0.00166861,276.594,275.176,254.099,278.427,276.323,256.285,-0.0,-0.0,230.916,250.135
2015-10-02 07:00,-0.0,286.717,285.77,259.902,288.628,286.202,261.062,-0.0,-0.0,230.266,250.544
2015-10-02 08:00,-0.0,283.261,278.968,255.626,280.493,278.004,255.909,-0.00318345,-0.0,229.769,247.371
2015-10-02 09:00,-0.015557,286.121,283.264,258.134,285.201,282.758,258.638,-0.0131721,-0.0314114,229.601,249.198
2015-10-02 10:00,0.391979,289.113,286.328,260.119,288.897,286.343,261.182,0.302256,0.36746,230.593,250.34
2015-10-02 11:00,0.509745,295.26,289.272,261.519,291.423,287.888,261.301,0.220761,0.396315,231.63,250.646
2015-10-02 12:00,0.419209,299.765,291.694,263.203,293.506,288.861,261.062,0.173383,0.327652,230.996,250.544
2015-10-02 13:00,0.341047,303.51,0.0,0.0,294.788,289.551,261.301,0.141174,0.270855,230.43,250.238
2015-10-02 14:00,0.277066,306.025,295.837,265.456,297.184,291.464,262.373,0.112827,0.22244,230.101,250.032
2015-10-02 15:00,0.243304,292.889,280.789,257.459,282.231,279.959,258.638,0.265915,0.299518,230.916,249.513
2015-10-02 16:00,0.29272,300.498,283.611,258.58,285.757,280.998,257.034,0.255259,0.347297,230.348,249.513
2015-10-02 17:00,0.274384,283.594,265.092,248.382,265.826,263.759,248.634,0.326165,0.373892,228.575,241.348
2015-10-02 19:00,0.52479,291.809,263.712,247.991,264.618,262.888,248.768,0.56424,0.607596,229.852,244.53
2015-10-02 20:00,0.634604,302.764,280.789,257.685,281.221,276.938,255.658,0.648193,0.691517,230.511,247.699
2015-10-02 21:00,0.61271,264.009,253.04,242.225,253.867,251.552,241.808,0.624295,0.712924,228.662,240.964
2015-10-02 22:00,-0.00903729,238.442,236.318,232.319,236.441,235.435,231.905,-0.0,-0.0,227.238,231.859
2015-10-02 23:00,-0.0841694,264.377,261.822,246.13,264.618,264.106,250.896,-0.0685251,-0.0686329,232.633,247.699
2015-10-03 00:00,-0.0,253.206,252.666,241.5,255.244,252.732,242.814,-0.0,-0.0,233.53,243.336
2015-10-03 01:00,-0.00159464,281.526,277.35,255.277,280.347,277.091,256.66,-0.0,0.00160988,234.329,250.442
2015-10-03 02:00,-0.0,284.57,280.789,257.12,282.374,278.458,255.153,-0.0,-0.0,232.328,249.617
2015-10-03 03:00,-0.0,287.729,285.77,260.228,287.951,285.065,259.492,-0.0,-0.0,232.481,251.051
2015-10-03 04:00,-0.0,286.121,283.032,258.358,284.781,282.175,258.392,-0.0,-0.0,231.787,249.928
2015-10-03 05:00,-0.0,285.512,282.799,258.358,284.22,281.882,258.515,-0.0,-0.0,230.266,248.987
2015-10-03 06:00,-0.0,273.088,270.746,251.676,274.0,270.635,253.497,-0.0,-0.0,230.674,250.032
2015-10-03 07:00,-0.0,262.475,260.854,245.995,261.431,260.225,248.094,-0.0,-0.0,228.312,245.575
2015-10-03 08:00,-0.00380005,258.576,254.69,242.081,255.633,253.703,242.241,-0.0,-0.0,226.963,242.725
2015-10-03 09:00,-0.0,262.869,259.54,245.587,260.524,257.856,244.652,-0.0137972,-0.016451,227.691,244.53
2015-10-03 10:00,0.836764,285.665,271.984,252.412,272.582,269.329,252.075,0.61557,0.747823,229.263,247.371
2015-10-03 11:00,0.825034,290.429,257.339,244.626,259.606,258.591,246.457,0.701015,0.80066,228.748,246.483
2015-10-03 12:00,0.636056,289.647,251.339,240.617,252.262,250.357,240.207,0.655694,0.729436,227.329,242.478
2015-10-03 13:00,0.499778,282.408,248.784,238.963,251.242,249.348,239.322,0.551004,0.615832,229.178,243.818
2015-10-03 14:00,0.573488,295.042,265.092,248.512,268.191,268.007,253.368,0.618101,0.673252,232.633,250.849
2015-10-03 15:00,0.261262,264.009,238.09,233.513,238.446,235.917,230.768,0.701372,0.763777,227.238,235.887
2015-10-03 16:00,0.308307,257.103,213.479,222.027,212.997,211.635,212.827,0.7324,0.81153,211.964,212.8
2015-10-03 17:00,0.327803,254.396,216.471,223.899,215.993,215.356,215.474,0.728711,0.814403,214.145,215.867
2015-10-03 18:00,0.435018,261.666,211.184,221.17,210.218,209.497,210.932,0.768803,0.870368,209.926,210.353
2015-10-03 19:00,0.631791,267.123,215.218,222.449,213.763,213.016,212.619,0.939659,1.06795,214.145,215.061
2015-10-03 20:00,0.974413,271.531,223.252,226.481,222.806,221.579,220.489,1.21062,1.40967,219.624,222.096
2015-10-03 21:00,1.07197,269.576,240.039,234.515,238.938,237.581,231.094,0.898905,1.15506,224.959,233.773
2015-10-03 22:00,-0.00909532,232.213,221.841,225.701,220.519,218.857,218.218,-0.0,-0.00918227,215.167,219.608
2015-10-03 23:00,-0.0876234,240.898,217.285,223.489,215.993,214.697,215.074,-0.0659472,-0.0655267,214.293,216.652
2015-10-04 00:00,0.00206475,222.276,214.358,222.659,212.997,211.983,212.619,-0.0,-0.0,211.47,212.8
2015-10-04 01:00,-0.00159741,222.276,218.474,224.102,217.427,216.008,216.071,-0.0,-0.0,215.593,217.418
2015-10-04 02:00,-0.0,225.382,220.75,225.306,219.847,218.857,218.601,-0.0,-0.0,216.15,219.372
2015-10-04 03:00,-0.0,227.984,225.282,227.438,224.694,223.619,222.511,-0.0,0.00130972,218.891,222.529
2015-10-04 04:00,-0.0,232.213,228.155,228.749,227.414,225.597,223.592,-0.0,-0.0,219.26,225.011
2015-10-04 05:00,-0.0,233.989,229.673,228.934,228.583,226.701,224.481,-0.0,-0.0,220.219,225.604
2015-10-04 06:00,-0.0,232.213,225.611,227.438,225.003,222.753,221.046,-0.0,-0.0,218.264,222.313
2015-10-04 07:00,-0.0,227.984,222.552,225.897,221.182,219.777,218.025,-0.0,-0.0,216.695,220.535
2015-10-04 08:00,-0.00384096,243.066,235.538,232.146,234.107,231.714,226.402,-0.0,-0.0,220.101,228.96
2015-10-04 09:00,-0.0,268.382,261.179,245.314,260.888,258.957,245.072,-0.0289587,-0.0172644,226.685,241.221
2015-10-04 10:00,0.416934,252.585,242.824,235.337,242.283,241.475,235.382,0.723116,0.855418,225.739,235.592
2015-10-04 11:00,0.354394,280.613,261.179,245.587,260.158,253.896,238.128,0.331779,0.430502,223.849,237.327
2015-10-04 12:00,0.323071,282.923,265.394,247.2,262.329,257.486,241.229,0.237934,0.347389,222.799,236.033
2015-10-04 13:00,0.3234,276.155,254.145,241.646,252.262,248.121,237.07,0.287832,0.37053,223.746,234.694
2015-10-04 14:00,0.288512,264.009,228.155,228.749,225.003,222.462,219.739,0.351989,0.421017,217.491,221.213
2015-10-04 15:00,0.29026,275.707,248.38,238.503,245.693,242.143,232.387,0.258312,0.325455,220.454,230.354
2015-10-04 16:00,0.296439,264.009,230.265,229.484,227.118,224.474,221.965,0.341689,0.42376,218.264,222.313
2015-10-04 17:00,0.218112,297.649,284.869,258.691,286.033,280.108,254.392,0.128817,0.21476,229.685,248.882
2015-10-04 19:00,0.342219,302.426,286.55,259.574,287.815,282.904,257.406,0.289756,0.362242,230.674,251.152
2015-10-04 20:00,0.540962,295.583,279.945,256.434,280.931,276.169,254.137,0.514579,0.586588,229.348,248.133
2015-10-04 21:00,1.6878,289.381,265.696,248.121,265.482,261.831,245.628,1.37709,1.72459,227.42,242.354
2015-10-04 22:00,-0.0091564,267.123,266.738,249.542,270.006,269.329,253.497,-0.0,-0.00924393,231.709,251.352
2015-10-04 23:00,-0.107374,289.647,286.661,260.011,289.3,286.626,261.66,-0.0633636,-0.0624121,231.076,251.949
2015-10-05 00:00,-0.0,285.97,282.331,257.459,283.656,279.511,256.285,-0.0,-0.0,228.835,247.917
2015-10-05 01:00,-0.00160029,284.888,281.86,257.346,283.797,281.146,257.777,-0.0,-0.0,229.517,248.348
2015-10-05 02:00,-0.0,286.121,284.755,259.024,287.134,284.205,259.735,-0.0,-0.0,229.433,249.408
2015-10-05 03:00,0.00130008,286.271,285.095,259.244,287.951,285.493,260.581,-0.0,-0.0,229.517,249.825
2015-10-05 04:00,-0.0,273.088,263.867,246.801,263.04,259.502,243.667,-0.0,-0.0,226.499,239.523
2015-10-05 05:00,-0.0,281.165,275.951,253.02,276.315,273.359,250.501,-0.0,-0.0,229.348,245.804
2015-10-05 06:00,-0.0,286.271,284.414,259.244,287.543,285.635,260.581,-0.0,-0.0,230.674,249.408
2015-10-05 07:00,-0.00227007,285.045,283.495,258.58,286.172,283.629,258.882,-0.0,-0.0,230.916,248.775
2015-10-05 08:00,-0.0,275.932,271.711,251.429,272.741,268.835,251.553,-0.0,-0.0,230.43,245.23
2015-10-05 09:00,-0.0,254.966,248.38,238.81,247.446,246.035,238.128,-0.0304523,-0.0363097,228.4,236.179
2015-10-05 10:00,0.600356,288.291,282.331,257.346,284.501,280.554,256.909,0.363086,0.559472,231.076,247.808
2015-10-05 11:00,0.517328,282.581,260.854,245.859,259.974,254.855,243.383,0.471901,0.591526,229.348,240.316
2015-10-05 12:00,0.262472,262.869,247.769,238.657,246.794,245.824,237.525,0.376832,0.455075,229.178,237.043
2015-10-05 13:00,0.241278,264.739,248.177,238.657,248.093,0.0,238.428,0.319757,0.396391,229.433,237.748
2015-10-05 14:00,0.268057,268.382,242.37,235.01,239.911,237.581,231.581,0.334355,0.418469,224.86,230.011
2015-10-05 15:00,0.271076,292.294,273.865,251.305,272.423,266.667,243.525,0.197178,0.297302,230.101,241.98
2015-10-05 16:00,0.212542,305.028,296.229,265.859,297.807,292.545,262.61,0.0841914,0.179439,236.207,253.213
2015-10-05 17:00,0.198885,304.478,296.131,265.959,297.558,292.276,262.373,0.0898869,0.17501,237.268,254.162
2015-10-05 18:00,0.195426,302.932,295.442,265.658,296.809,291.871,262.255,0.116093,0.189338,238.231,254.256
2015-10-05 19:00,0.206988,301.037,294.044,264.849,295.55,291.057,261.898,0.187524,0.242401,240.899,255.275
2015-10-05 20:00,0.2331,298.436,293.235,264.849,295.297,291.057,262.492,0.360897,0.369802,243.364,257.158
2015-10-05 21:00,0.426302,294.713,290.756,263.203,292.6,288.861,262.017,0.782056,0.748036,243.093,256.894
2015-10-05 22:00,-0.0,290.939,289.058,262.576,291.292,288.306,262.136,-0.0,-0.0,243.899,257.682
2015-10-05 23:00,-0.123979,291.809,289.486,262.576,291.555,288.999,262.492,-0.063536,-0.0592881,244.217,258.372
2015-10-06 00:00,-0.00207291,290.813,289.486,262.786,291.817,288.999,262.492,-0.0,-0.0,243.526,258.114
2015-10-06 01:00,-0.0,290.301,289.593,262.786,291.948,289.551,262.492,-0.0,-0.0,243.579,258.882
2015-10-06 02:00,0.00138704,289.91,289.272,262.89,291.948,289.551,262.61,-0.0,-0.0,243.633,259.135
2015-10-06 03:00,-0.0,289.647,289.165,262.366,291.555,289.413,263.2,-0.0,-0.0,244.583,260.299
2015-10-06 04:00,-0.0,289.381,288.843,262.366,291.292,289.413,263.083,-0.0,-0.0,242.82,258.628
2015-10-06 05:00,-0.0,288.841,288.628,262.366,291.292,289.413,263.436,-0.0,-0.0,242.6,259.051
2015-10-06 06:00,-0.0016962,288.841,288.52,262.155,291.029,289.413,263.2,-0.0,-0.0,241.817,259.135
2015-10-06 07:00,-0.0,288.291,288.628,262.471,291.686,290.238,263.787,-0.0,-0.0,240.548,259.471
2015-10-06 08:00,-0.0,287.871,288.412,262.366,291.555,290.375,264.022,-0.0,-0.0,240.014,258.967
2015-10-06 09:00,-0.0189518,287.729,287.978,262.049,291.029,289.413,263.553,-0.032093,-0.057399,240.134,258.543
2015-10-06 10:00,0.479229,289.91,288.951,262.366,291.686,290.238,262.847,0.274164,0.464196,239.774,257.942
2015-10-06 11:00,0.518948,295.796,291.902,264.645,294.661,292.41,264.372,0.208892,0.438022,239.471,258.372
2015-10-06 12:00,0.422035,300.769,295.144,266.557,297.807,294.547,264.953,0.160241,0.355377,239.774,258.798
2015-10-06 13:00,0.331489,304.078,297.687,267.935,299.898,295.996,264.837,0.1239,0.277375,239.532,258.882
2015-10-06 14:00,0.27642,306.549,299.59,269.288,301.832,297.689,265.185,0.0993586,0.229042,239.532,258.967
2015-10-06 15:00,0.243393,308.351,300.805,270.334,303.025,298.463,265.762,0.0863872,0.19732,239.043,258.713
2015-10-06 16:00,0.21831,308.976,301.268,270.617,303.736,298.976,266.222,0.0808687,0.184081,238.42,258.713
2015-10-06 17:00,0.232048,307.857,298.834,269.0,300.869,296.127,264.721,0.113569,0.204475,239.166,259.051
2015-10-06 18:00,0.281593,303.917,292.725,265.456,294.533,290.921,262.965,0.202461,0.274756,239.714,258.882
2015-10-06 19:00,0.262348,303.181,295.639,267.052,297.309,293.483,263.67,0.236122,0.310736,240.134,258.967
2015-10-06 20:00,0.448293,300.225,290.756,264.645,292.6,289.826,262.728,0.50328,0.566561,240.548,259.135
2015-10-06 21:00,1.51053,294.491,283.495,260.119,285.479,283.773,260.461,1.33012,1.65713,241.817,260.052
2015-10-06 22:00,-0.0,282.408,281.148,259.024,283.514,282.028,260.461,-0.0,-0.0,242.655,260.299
2015-10-06 23:00,-0.0752532,289.247,286.661,261.731,288.628,286.06,261.898,-0.0775682,-0.0561537,244.058,261.113
2015-10-07 00:00,-0.0,293.007,292.005,265.254,294.661,292.41,265.069,-0.0,-0.0,243.202,261.033
2015-10-07 01:00,-0.00160641,292.174,291.591,264.95,294.149,292.141,264.837,-0.0,-0.0,243.953,261.113
2015-10-07 02:00,-0.00138983,291.686,291.07,264.441,293.506,291.6,264.372,-0.0,-0.0,243.526,260.299
2015-10-07 03:00,-0.0,290.685,290.545,263.825,293.119,291.329,264.488,-0.0,-0.0,243.364,260.135
2015-10-07 04:00,0.0013189,290.171,289.805,263.721,292.47,290.648,264.488,-0.0,-0.0,242.655,259.387
2015-10-07 05:00,-0.0,288.841,288.628,262.786,291.029,288.999,263.083,-0.0,-0.00144791,242.099,259.721
2015-10-07 06:00,-0.0,288.705,288.736,262.786,291.16,289.689,263.905,-0.0,0.00171959,241.986,259.887
2015-10-07 07:00,-0.00229761,287.871,288.412,262.471,291.029,289.551,263.67,-0.0,-0.0,240.43,260.052
2015-10-07 08:00,-0.0,286.717,286.217,261.198,288.493,286.626,261.182,-0.0,-0.0,238.981,258.457
2015-10-07 09:00,-0.240243,278.279,269.059,251.056,267.354,264.106,244.652,-0.118658,-0.262751,230.348,246.371
2015-10-07 10:00,0.362558,288.568,284.3,260.228,285.201,282.028,256.535,0.247736,0.378867,235.799,256.982
2015-10-07 11:00,0.492465,294.602,288.412,262.471,289.835,287.048,261.301,0.233503,0.440353,235.178,257.07
2015-10-07 12:00,0.355956,280.239,249.583,240.617,244.8,239.667,229.615,0.322118,0.420202,221.371,231.859
2015-10-07 13:00,0.269313,299.485,290.335,263.825,290.632,286.767,259.37,0.131021,0.247854,234.329,255.548
2015-10-07 14:00,0.273052,305.339,297.494,267.642,299.409,295.339,264.721,0.10789,0.229718,236.341,259.22
2015-10-07 15:00,0.234247,306.176,298.071,268.227,299.776,295.471,265.069,0.0913804,0.196866,236.004,258.543
2015-10-07 16:00,0.219112,306.845,298.071,268.033,299.409,294.944,264.488,0.094333,0.188713,235.178,258.2
2015-10-07 17:00,0.235641,305.874,296.327,266.756,298.055,293.75,264.372,0.125832,0.214916,235.247,258.028
2015-10-07 18:00,0.229267,304.715,295.343,266.259,296.684,292.814,263.318,0.16221,0.23463,235.799,257.855
2015-10-07 19:00,0.241208,302.341,293.843,265.557,295.803,291.735,263.083,0.246124,0.293465,236.475,257.769
2015-10-07 20:00,0.271528,299.108,292.725,264.849,294.533,290.921,263.318,0.490645,0.471359,236.004,257.595
2015-10-07 21:00,0.599371,297.146,291.798,264.031,293.764,290.784,263.553,0.905018,0.947992,236.004,258.543
2015-10-07 22:00,-0.00935972,283.093,282.799,258.469,285.201,283.484,261.062,-0.0,-0.0,237.333,258.543
2015-10-07 23:00,-0.0820402,283.594,282.916,259.134,285.895,284.492,261.182,-0.0611277,-0.0496947,236.139,257.855
2015-10-08 00:00,-0.00208183,287.871,286.772,260.769,289.032,286.626,262.492,-0.0,-0.0,235.525,257.246
2015-10-08 01:00,-0.00160965,290.171,289.593,262.89,292.079,290.511,263.318,-0.0,-0.0,236.609,257.942
2015-10-08 02:00,-0.0,289.247,289.165,262.576,291.948,290.101,264.022,-0.0,-0.0,235.662,258.028
2015-10-08 03:00,-0.0,288.705,288.843,262.471,291.817,290.101,263.553,-0.0,-0.0,233.53,256.982
2015-10-08 04:00,0.0013224,287.01,286.55,261.412,288.897,287.609,262.492,-0.0,-0.0,232.709,255.911
2015-10-08 05:00,-0.0,285.665,284.071,259.683,286.033,284.636,260.219,-0.0,-0.0,231.865,255.73
2015-10-08 06:00,-0.00171048,258.576,247.15,238.657,245.693,243.679,235.537,-0.0,-0.0,226.216,236.033
2015-10-08 07:00,-0.0,248.394,239.317,234.35,238.446,237.815,231.419,-0.0,-0.0,226.405,233.304
2015-10-08 08:00,-0.0,272.58,265.092,248.512,265.138,263.412,247.415,-0.0,-0.0,228.048,244.056
2015-10-08 09:00,-0.169626,272.58,264.482,248.121,264.965,262.888,246.869,-0.0718109,-0.171247,228.662,244.764
2015-10-08 10:00,0.406301,261.666,247.563,237.728,246.355,243.679,233.661,0.471035,0.612122,226.499,236.9
2015-10-08 11:00,0.39103,275.48,256.819,244.07,254.854,251.156,240.646,0.390206,0.507558,226.311,237.748
2015-10-08 12:00,0.29054,268.382,252.666,240.469,252.059,249.55,238.278,0.361858,0.465523,228.224,238.986
2015-10-08 13:00,0.283213,255.521,234.477,231.973,233.842,233.225,229.116,0.387942,0.464059,224.959,229.137
2015-10-08 14:00,0.248971,292.174,277.727,254.926,277.528,273.517,252.075,0.161396,0.260514,229.685,246.258
2015-10-08 15:00,0.26676,306.475,293.641,265.456,294.533,285.919,257.158,0.104644,0.219896,230.018,250.135
2015-10-08 17:00,0.273978,308.14,290.545,263.928,290.897,281.588,255.153,0.139186,0.229373,230.996,249.198
2015-10-08 18:00,0.445182,311.42,273.065,253.14,270.981,258.774,241.953,0.305264,0.395632,229.769,243.214
2015-10-08 19:00,0.302452,299.672,286.992,260.661,288.358,283.629,258.023,0.324027,0.386353,229.852,248.882
2015-10-08 20:00,0.465565,274.073,259.206,245.177,259.791,258.957,246.869,0.54516,0.616687,230.755,244.412
2015-10-08 21:00,0.535034,278.482,269.908,251.056,270.495,269.0,252.982,0.637573,0.760209,230.755,248.455
2015-10-08 22:00,-0.00943483,288.152,282.799,258.246,283.938,280.257,256.909,-0.0,-0.0,229.601,248.455
2015-10-08 23:00,-0.0625441,288.012,284.414,259.244,286.447,283.194,259.127,-0.0864018,-0.0498489,232.175,250.238
2015-10-09 00:00,-0.0,289.647,287.869,261.198,290.367,287.748,261.182,-0.0,-0.0,231.865,251.252
2015-10-09 01:00,-0.0,288.705,286.882,260.661,289.434,286.343,260.822,-0.0,-0.0,231.394,251.051
2015-10-09 02:00,-0.0,289.247,287.322,260.876,290.101,287.329,261.062,-0.0,-0.0,230.916,250.032
2015-10-09 03:00,-0.0,288.012,285.77,260.445,288.358,284.922,259.977,-0.0,-0.0,231.315,249.303
2015-10-09 04:00,-0.00132596,288.012,285.994,260.553,288.358,285.35,259.977,-0.0,-0.0,231.473,249.617
2015-10-09 05:00,-0.00144355,284.888,280.429,257.459,281.51,278.004,254.9,-0.0,-0.0,230.755,247.808
2015-10-09 06:00,-0.0,271.798,270.885,251.676,272.582,271.121,254.264,-0.0,-0.0,232.86,249.303
2015-10-09 07:00,-0.0023257,239.711,240.277,234.515,240.152,239.208,234.134,-0.0,-0.0,228.224,234.845
2015-10-09 08:00,-0.0,254.396,252.479,241.207,253.269,252.927,242.241,-0.0,-0.0,230.184,242.971
2015-10-09 09:00,-0.0225191,282.234,279.091,256.549,281.51,278.609,256.909,-0.0572006,-0.0909374,233.308,250.34
2015-10-09 10:00,0.221261,287.587,283.264,258.802,285.479,281.882,258.023,0.296624,0.31645,232.405,249.721
2015-10-09 11:00,0.365999,274.314,254.69,242.656,252.868,248.121,236.613,0.354496,0.447876,225.254,236.033
2015-10-09 12:00,0.393683,299.672,290.965,262.89,292.209,288.027,261.421,0.162716,0.333403,233.382,251.452
2015-10-09 13:00,0.396052,301.39,274.261,254.572,275.396,272.565,254.392,0.276527,0.36254,232.175,249.408
2015-10-09 14:00,0.259953,303.592,293.031,264.339,293.119,287.469,260.822,0.110598,0.224573,232.86,251.051
2015-10-09 15:00,0.261292,304.636,290.229,262.786,290.5,284.922,259.977,0.123024,0.215716,233.159,250.849
2015-10-09 16:00,0.151677,295.151,284.755,260.119,284.921,281.293,258.638,0.15244,0.197945,230.755,248.987
2015-10-09 17:00,0.334867,258.576,218.474,225.504,217.427,217.29,216.466,0.704875,0.791969,215.452,216.909
2015-10-09 18:00,0.380247,263.255,222.198,227.438,221.511,220.384,220.115,0.567064,0.633484,218.264,220.075
2015-10-09 19:00,0.431216,301.39,283.726,259.134,285.201,280.702,256.785,0.332076,0.441558,234.543,251.051
2015-10-09 20:00,1.14904,308.769,269.343,251.056,270.169,265.65,249.305,0.956161,1.1567,232.86,248.241
2015-10-09 21:00,1.80793,279.667,238.338,234.515,236.441,234.461,229.116,1.35606,1.82521,224.56,229.664
2015-10-09 22:00,-0.00951397,225.382,218.474,225.107,217.427,216.331,216.269,-0.00805546,-0.0,215.31,216.652
2015-10-09 23:00,-0.0561417,232.213,218.474,224.708,217.78,216.972,216.663,-0.0727007,-0.0466763,215.873,216.392
2015-10-10 00:00,-0.0,213.142,207.704,220.517,206.833,206.128,208.54,-0.0,-0.0,207.891,207.678
2015-10-10 01:00,-0.00161649,225.382,215.218,223.489,214.141,212.329,212.411,-0.0,-0.0,211.964,213.668
2015-10-10 02:00,-0.0,232.213,214.79,224.305,211.028,208.397,208.761,-0.0,-0.0,208.084,210.67
2015-10-10 03:00,-0.0,247.601,230.85,232.491,227.414,218.857,215.074,-0.0,-0.0,213.078,220.763
2015-10-10 04:00,-0.00132958,225.382,220.75,226.481,219.167,216.652,216.663,-0.0,-0.0,216.424,218.653
2015-10-10 05:00,0.00144831,246.775,239.317,235.337,235.93,231.968,227.431,-0.0,-0.0,222.368,230.183
2015-10-10 06:00,-0.00172505,255.521,252.853,241.791,252.465,251.354,241.953,-0.0,-0.0,228.4,241.093
2015-10-10 07:00,-0.0,252.585,252.29,241.791,255.049,253.703,243.525,-0.0,-0.0,229.852,243.336
2015-10-10 08:00,-0.0,260.827,261.501,246.801,264.095,263.063,249.171,-0.0,-0.0,228.748,246.258
2015-10-10 09:00,-0.0239902,243.066,243.496,236.943,246.575,246.246,239.913,-0.0609373,-0.048439,230.916,239.922
2015-10-10 10:00,0.659065,278.482,262.3,247.332,263.04,259.502,244.372,0.650181,0.732512,224.56,241.221
2015-10-10 11:00,0.569876,277.869,251.912,241.646,251.242,247.915,237.07,0.610717,0.694836,224.156,238.441
2015-10-10 12:00,0.527502,278.075,244.598,237.572,243.895,241.251,233.026,0.701405,0.755688,223.118,234.694
2015-10-10 13:00,0.552362,283.76,255.05,243.368,255.439,252.927,241.374,0.713374,0.77029,227.691,241.602
2015-10-10 14:00,0.367641,287.01,248.38,239.57,249.789,248.532,241.084,0.689188,0.750126,229.433,240.964
2015-10-10 15:00,0.25708,254.966,240.039,235.173,240.152,239.667,235.072,0.656101,0.703579,227.959,234.996
2015-10-10 16:00,0.452955,289.247,247.563,239.267,249.789,249.348,241.664,0.694081,0.750544,232.784,242.848
2015-10-10 17:00,0.472802,298.436,248.583,240.766,250.83,247.708,239.47,0.597662,0.658839,230.835,241.854
2015-10-10 18:00,0.618591,288.705,257.511,244.765,259.974,259.502,248.229,0.675862,0.756975,231.473,246.929
2015-10-10 19:00,0.887363,299.108,254.145,243.368,256.406,254.855,244.09,0.850233,0.982741,229.517,243.698
2015-10-10 20:00,0.876502,270.434,235.538,233.175,235.672,234.706,230.931,1.03398,1.19973,226.592,232.185
2015-10-10 21:00,1.20808,262.869,229.673,230.207,229.729,229.121,225.535,1.09712,1.39667,223.013,226.76
2015-10-10 22:00,-0.00959736,232.213,229.673,229.665,229.444,228.856,226.229,-0.0,-0.0,222.368,227.136
2015-10-10 23:00,-0.0530175,258.096,255.05,242.942,256.021,255.045,244.932,-0.0897796,-0.0468337,229.007,244.175
2015-10-11 00:00,-0.0020967,256.589,256.469,243.79,257.361,256.928,246.319,-0.0,-0.0,229.433,244.412
2015-10-11 01:00,-0.0,246.775,245.676,238.04,246.794,245.612,238.278,-0.0,-0.0,230.184,240.053
2015-10-11 02:00,-0.00140188,252.585,250.76,241.207,252.868,251.552,240.938,-0.0,-0.0,231.473,242.602
2015-10-11 03:00,-0.00131818,246.775,247.973,239.57,249.789,249.753,241.084,-0.0,-0.0,231.709,241.602
2015-10-11 04:00,-0.00133326,247.601,244.598,238.04,245.024,243.024,236.46,-0.0,-0.0,227.51,238.027
2015-10-11 05:00,-0.0,237.078,229.97,230.565,229.444,226.974,225.185,-0.0,-0.0,219.982,225.799
2015-10-11 06:00,-0.0,242.013,233.392,231.973,232.23,230.17,226.574,-0.0,-0.0,218.009,225.799
2015-10-11 07:00,-0.00235425,252.585,253.963,242.369,255.633,254.855,244.372,-0.0,-0.0,228.921,244.294
2015-10-11 08:00,-0.0041462,254.396,255.23,242.799,257.361,256.742,246.732,-0.0,-0.0,229.935,245.69
2015-10-11 09:00,-0.0256441,259.505,260.036,245.314,262.507,261.831,248.229,-0.0868514,-0.0776678,230.266,247.59
2015-10-11 10:00,0.981999,279.473,258.871,245.451,261.25,260.942,248.768,1.05318,1.2137,230.996,248.241
2015-10-11 11:00,0.713569,287.155,259.373,245.314,261.611,260.942,249.037,0.89122,1.01848,231.394,249.093
2015-10-11 12:00,0.560325,288.705,257.339,244.626,259.791,258.957,247.959,0.685804,0.750508,230.018,247.481
2015-10-11 13:00,0.599054,291.563,258.534,245.04,261.25,260.942,248.634,0.774502,0.844915,230.266,248.025
2015-10-11 14:00,0.549439,288.152,263.401,247.859,265.997,265.48,251.291,0.661316,0.724865,230.266,249.825
2015-10-11 15:00,0.480263,283.428,260.201,245.995,262.685,262.008,248.903,0.594,0.646882,230.184,248.025
2015-10-11 16:00,0.511107,294.602,259.54,246.399,263.04,263.063,250.369,0.672016,0.728096,231.315,250.032
2015-10-11 17:00,0.550451,291.931,263.556,247.859,266.338,266.329,252.205,0.703602,0.762428,231.709,252.146
2015-10-11 18:00,0.522409,276.376,252.101,241.936,252.667,251.947,242.814,0.712999,0.784021,228.662,243.457
2015-10-11 19:00,0.797657,294.933,255.409,243.509,256.789,255.992,245.072,0.765425,0.848643,228.575,246.145
2015-10-11 20:00,1.00157,293.24,262.3,247.332,264.095,262.361,248.903,0.911768,1.03097,228.136,246.929
2015-10-11 21:00,0.724396,265.446,254.871,242.513,255.439,254.664,244.652,0.719658,0.887336,228.224,242.725
2015-10-11 22:00,-0.0,251.944,248.38,239.115,248.093,246.457,238.278,-0.0,-0.0,225.156,238.027
2015-10-11 23:00,-0.0465532,249.89,246.313,238.349,246.575,245.399,238.577,-0.12388,-0.0469982,226.216,238.303
2015-10-12 00:00,-0.0,258.096,255.23,243.226,256.789,255.235,243.949,-0.00177981,-0.00212216,228.136,244.294
2015-10-12 01:00,-0.00162381,248.394,247.973,239.115,248.733,247.708,238.876,-0.0,-0.0,227.691,240.706
2015-10-12 02:00,-0.00140511,245.913,238.09,233.849,237.2,234.706,229.449,-0.0,-0.0,220.916,230.694
2015-10-12 03:00,-0.0,240.898,234.208,231.625,232.772,230.429,226.746,-0.0,-0.0,220.686,227.323
2015-10-12 04:00,-0.0,249.156,239.074,234.35,237.451,233.474,227.77,-0.0,0.00134979,220.57,229.137
2015-10-12 05:00,-0.0,253.81,247.973,239.419,248.093,245.824,236.46,-0.0,-0.0,224.156,236.614
2015-10-12 06:00,-0.0,250.598,246.313,238.195,245.471,243.461,236.153,-0.0,-0.00175651,224.156,236.033
2015-10-12 07:00,-0.0,255.521,251.721,240.766,252.262,250.357,240.06,-0.0,-0.0,227.601,240.316
2015-10-12 08:00,-0.0,253.206,252.666,241.354,253.669,252.732,243.525,-0.0,-0.0,228.748,243.093
2015-10-12 09:00,-0.0550308,270.434,270.607,251.799,273.686,271.444,254.519,-0.139784,-0.138892,234.185,252.244
2015-10-12 10:00,0.902598,280.799,261.982,246.13,264.618,264.451,250.369,0.818816,0.958563,235.867,251.652
2015-10-12 11:00,0.708764,297.649,264.021,247.332,266.167,264.967,250.765,0.570219,0.668933,235.455,251.252
2015-10-12 12:00,0.616858,300.042,263.556,247.067,265.482,264.623,251.028,0.511379,0.61346,236.071,251.652
2015-10-12 13:00,0.629399,299.203,264.175,247.332,267.69,267.339,251.814,0.584963,0.64576,234.756,251.751
2015-10-12 14:00,0.467234,294.602,267.473,249.542,270.006,269.0,253.625,0.406475,0.467813,233.823,251.452
2015-10-12 15:00,0.467159,288.291,259.54,245.314,262.15,261.299,247.959,0.472596,0.535324,233.456,248.133
2015-10-12 16:00,0.397369,299.108,256.992,243.509,257.739,251.156,239.173,0.307375,0.370213,233.308,242.971
2015-10-12 17:00,0.345122,290.813,270.189,250.681,272.423,270.148,252.853,0.330427,0.388624,237.785,251.552
2015-10-12 18:00,0.386086,257.605,238.585,233.513,239.183,238.747,234.76,0.677523,0.771695,231.63,235.444
2015-10-12 19:00,0.628695,278.075,242.37,236.146,245.248,244.544,236.153,0.834767,0.964422,233.234,239.523
2015-10-12 20:00,1.39018,307.786,275.823,253.261,279.76,278.76,257.406,1.23233,1.33429,239.104,254.536
2015-10-12 21:00,1.20631,286.864,279.336,255.043,282.803,281.735,259.249,1.02138,1.10185,244.842,258.543
2015-10-12 22:00,-0.00977786,276.594,278.721,254.217,281.655,280.998,259.249,-0.0,-0.0,244.945,259.051
2015-10-12 23:00,-0.0467232,268.073,269.626,249.542,272.104,271.605,255.406,-0.107378,-0.0438006,243.526,257.333
2015-10-13 00:00,-0.00210764,276.594,277.224,253.741,280.054,278.911,257.777,-0.00178453,-0.0,243.579,257.855
2015-10-13 01:00,-0.0,268.986,270.746,250.555,274.312,273.517,256.285,-0.0,-0.0,242.544,257.595
2015-10-13 02:00,-0.0,265.095,267.764,248.642,270.819,270.798,255.28,-0.0,-0.0,242.6,256.982
2015-10-13 03:00,-0.0,280.613,279.458,254.926,282.087,280.554,257.9,-0.0,-0.0,242.71,257.595
2015-10-13 04:00,-0.0013408,270.434,271.574,251.429,275.087,274.46,256.909,-0.0,-0.0,242.266,257.682
2015-10-13 05:00,0.00146294,270.713,272.662,252.045,276.01,274.929,256.909,-0.0,-0.0,241.533,257.508
2015-10-13 06:00,-0.0,281.883,281.624,256.778,284.361,282.758,260.219,-0.0,-0.0,241.189,257.158
2015-10-13 07:00,-0.0,284.41,284.755,258.246,287.543,286.06,260.822,-0.0,-0.0,240.014,256.982
2015-10-13 08:00,-0.0,284.249,284.755,258.246,287.679,286.343,261.779,-0.0,-0.0,240.607,257.421
2015-10-13 09:00,-0.0296477,284.087,284.528,258.022,287.407,286.06,261.301,-0.125513,-0.149655,240.665,257.07
2015-10-13 10:00,0.45621,286.864,285.546,258.469,288.222,286.767,261.301,0.264034,0.454741,240.782,257.333
2015-10-13 11:00,0.47481,292.174,287.869,260.553,290.234,287.609,261.54,0.196442,0.413984,241.189,258.028
2015-10-13 12:00,0.385083,296.635,289.593,261.305,291.423,288.167,261.421,0.16613,0.335078,242.211,258.372
2015-10-13 13:00,0.309374,299.579,292.725,263.099,294.277,290.375,261.779,0.117382,0.265187,242.6,259.22
2015-10-13 14:00,0.259957,301.74,293.641,263.825,294.916,290.648,262.728,0.107342,0.223658,243.039,259.471
2015-10-13 15:00,0.268845,303.015,290.335,262.471,292.079,287.888,261.54,0.140475,0.234738,243.418,259.804
2015-10-13 16:00,0.297512,300.225,284.071,259.244,285.895,282.904,259.735,0.225987,0.28676,243.472,259.22
2015-10-13 17:00,0.269024,301.999,287.978,261.091,289.166,285.35,260.34,0.178411,0.255541,244.058,259.638
2015-10-13 18:00,0.217588,302.426,292.827,264.236,294.021,290.101,262.373,0.151333,0.222806,244.635,260.708
2015-10-13 19:00,0.199643,299.579,293.843,264.543,295.297,291.329,263.2,0.174212,0.240627,245.048,261.033
2015-10-13 20:00,0.234251,297.449,292.827,264.133,294.788,291.464,263.436,0.311283,0.338312,244.945,261.515
2015-10-13 21:00,0.407999,294.38,290.965,263.411,292.86,290.238,263.436,0.731074,0.699272,244.894,261.675
2015-10-13 22:00,-0.00987549,290.685,289.379,262.049,291.423,288.861,263.2,-0.0,-0.0,244.842,261.914
2015-10-13 23:00,-0.0435505,290.041,288.951,262.049,291.16,288.999,262.136,-0.0992766,-0.0439669,245.202,262.072
2015-10-14 00:00,-0.00211343,288.977,288.628,262.155,291.029,289.551,263.2,-0.00178943,-0.00213363,244.997,262.151
2015-10-14 01:00,-0.0,288.43,288.736,262.261,291.292,289.826,263.553,-0.0,-0.0,244.997,262.935
2015-10-14 02:00,-0.0,288.012,288.628,261.944,291.16,289.826,263.2,-0.0,-0.0,244.945,262.935
2015-10-14 03:00,-0.0,287.871,288.52,262.049,291.292,290.238,263.436,-0.0,-0.0,245.304,263.012
2015-10-14 04:00,-0.0,287.729,288.195,261.731,291.029,289.826,263.553,-0.0,-0.0,245.099,262.779
2015-10-14 05:00,-0.0,287.155,287.978,261.838,290.897,289.964,263.553,-0.0,-0.0,245.405,262.623
2015-10-14 06:00,-0.0,286.717,287.76,261.838,290.764,289.689,263.436,-0.0,-0.0,245.456,263.012
2015-10-14 07:00,-0.0,286.569,287.651,261.731,290.5,289.551,264.022,-0.0,-0.0,245.809,262.701
2015-10-14 08:00,-0.0,286.421,287.432,261.731,290.367,289.689,263.67,-0.0,-0.0,246.009,263.012
2015-10-14 09:00,-0.032097,285.97,287.322,261.519,290.367,289.413,263.436,-0.163059,-0.162019,246.059,263.09
2015-10-14 10:00,0.449719,289.381,288.52,262.049,291.292,290.101,263.905,0.269918,0.448271,246.307,263.012
2015-10-14 11:00,0.466428,295.26,291.279,264.133,293.506,291.057,263.787,0.195192,0.419468,246.896,263.322
2015-10-14 13:00,0.311379,303.998,296.425,267.151,297.807,294.016,264.372,0.117038,0.268818,246.505,263.399
2015-10-14 14:00,0.260639,305.722,297.783,267.935,299.164,294.679,264.372,0.0984416,0.224434,246.944,263.629
2015-10-14 15:00,0.229654,306.4,298.739,268.711,300.506,296.258,265.993,0.0890364,0.200122,246.798,264.01
2015-10-14 16:00,0.204119,305.493,298.071,268.227,299.654,295.339,265.185,0.0910706,0.190029,246.993,263.706
2015-10-14 17:00,0.256688,302.764,292.005,264.95,294.149,290.375,263.436,0.175887,0.252463,247.234,264.01
2015-10-14 18:00,0.21878,299.765,291.279,264.543,293.119,289.964,262.728,0.186554,0.244368,246.456,262.857
2015-10-14 19:00,0.363929,285.512,268.773,249.797,269.35,266.667,249.705,0.482003,0.552138,242.82,254.162
2015-10-14 20:00,0.804394,283.594,243.049,234.681,241.815,238.515,230.768,0.941976,1.11334,231.236,237.468
2015-10-14 21:00,0.526518,295.583,292.108,265.153,294.277,291.464,263.67,0.859761,0.854279,245.809,261.435
2015-10-14 22:00,-0.0,281.705,281.386,258.913,283.938,282.028,260.461,-0.0,-0.0,245.709,261.834
2015-10-14 23:00,-0.0369957,283.76,283.148,259.902,285.061,283.484,261.062,-0.0996678,-0.0373493,243.472,260.627
2015-10-15 00:00,-0.00211943,290.685,290.229,264.031,292.989,290.921,264.372,-0.00179452,-0.00213969,246.159,262.623
2015-10-15 01:00,-0.0,289.779,290.017,263.825,292.6,290.784,264.022,-0.0,-0.0,246.603,263.934
2015-10-15 02:00,-0.0,289.381,289.593,263.411,291.686,289.964,263.436,-0.0,-0.0,247.09,264.314
2015-10-15 03:00,-0.0,289.247,289.593,263.515,292.079,290.648,264.255,-0.0,-0.0,246.944,264.086
2015-10-15 04:00,-0.0,288.568,289.379,263.411,291.817,290.511,264.605,-0.0,-0.0,246.258,263.552
2015-10-15 05:00,-0.00147295,288.291,288.951,263.411,291.686,290.784,264.138,-0.0,-0.0,245.709,263.399
2015-10-15 06:00,-0.0,287.871,288.736,262.995,291.423,290.101,264.022,-0.0,-0.0,246.059,263.552
2015-10-15 07:00,-0.0,287.729,288.412,262.681,291.029,290.101,263.787,-0.0,-0.0,244.997,263.09
2015-10-15 08:00,-0.0,287.444,288.412,262.681,291.029,290.238,264.022,-0.0,-0.0,244.583,263.09
2015-10-15 09:00,-0.0349365,287.444,288.628,262.681,291.16,289.826,263.905,-0.207065,-0.211623,244.269,263.244
2015-10-15 10:00,0.454763,290.558,289.379,263.307,291.948,290.238,264.255,0.280466,0.419434,245.202,263.399
2015-10-15 11:00,0.471538,297.045,292.622,264.849,294.788,292.006,264.488,0.212031,0.39805,244.79,263.322
2015-10-15 12:00,0.38385,301.653,294.145,266.059,296.182,292.276,263.67,0.178676,0.319566,244.687,263.09
2015-10-15 13:00,0.313398,304.478,297.204,268.13,299.041,294.679,265.069,0.13022,0.263662,244.687,263.167
2015-10-15 14:00,0.261334,306.025,298.644,268.711,300.384,296.127,265.416,0.105778,0.222648,245.151,263.858
2015-10-15 15:00,0.370384,299.765,283.148,259.683,284.781,283.049,260.461,0.325862,0.398285,245.809,262.935
2015-10-15 16:00,0.268458,300.858,287.432,262.576,289.3,286.343,262.61,0.209739,0.27472,245.151,263.012
2015-10-15 17:00,0.262894,300.408,288.412,263.099,289.835,287.048,262.61,0.206932,0.278744,245.099,262.466
2015-10-15 18:00,0.258698,304.872,292.622,265.658,294.277,290.101,263.2,0.209858,0.273683,245.202,262.072
2015-10-15 19:00,0.280012,302.426,293.539,266.059,295.677,291.6,263.436,0.298934,0.350289,245.809,262.623
2015-10-15 20:00,0.339513,300.408,292.827,265.859,294.661,291.193,263.787,0.558504,0.538621,246.258,262.857
2015-10-15 21:00,0.596171,297.549,293.539,265.758,295.803,293.216,264.488,0.954344,0.95923,246.652,263.399
2015-10-15 22:00,-0.0201739,292.889,291.591,264.849,294.277,292.006,264.255,-0.0,-0.0,246.505,263.322
2015-10-15 23:00,-0.0371469,291.809,291.07,264.441,293.635,291.6,264.255,-0.0972159,-0.0340927,246.75,263.858
2015-10-16 00:00,-0.00212565,290.939,290.545,264.133,293.248,291.329,263.905,-0.00179978,-0.00214597,246.554,263.629
2015-10-16 01:00,-0.0,290.171,290.44,264.133,292.989,291.464,264.488,-0.0,-0.0,246.208,263.476
2015-10-16 02:00,-0.0,290.041,290.44,263.825,293.248,291.871,265.185,-0.0,-0.0,246.406,263.552
2015-10-16 03:00,-0.0,289.247,289.699,263.721,292.86,291.464,264.255,-0.0,-0.0,246.258,263.012
2015-10-16 04:00,0.00135253,286.421,286.772,261.625,289.701,287.609,262.728,-0.0,-0.0,245.96,261.515
2015-10-16 05:00,0.00147802,282.923,282.799,259.464,285.757,283.049,260.098,-0.0,-0.0,246.258,261.435
2015-10-16 06:00,-0.0,288.152,288.52,262.366,291.292,289.276,262.965,-0.0,-0.0,246.159,262.23
2015-10-16 07:00,-0.0,284.087,283.841,260.228,286.997,284.349,261.301,-0.0,-0.0,246.109,261.113
2015-10-16 08:00,-0.0,286.271,286.992,261.519,289.835,287.329,262.136,-0.0,-0.0,246.456,262.072
2015-10-16 09:00,-0.0382638,287.871,287.76,262.049,290.897,289.276,263.553,-0.259183,-0.231777,246.258,261.755
2015-10-16 10:00,0.448721,290.939,289.911,263.307,292.6,290.784,264.372,0.295502,0.425047,245.859,262.072
2015-10-16 11:00,0.460768,297.045,293.133,265.153,296.056,293.617,264.837,0.210761,0.392991,246.059,262.623
2015-10-16 12:00,0.380582,302.085,296.033,266.756,298.302,294.944,265.069,0.162654,0.323843,246.208,262.701
2015-10-16 13:00,0.30675,305.569,297.783,267.935,299.898,295.734,265.069,0.129862,0.260016,246.159,262.466
2015-10-16 14:00,0.338366,305.722,293.235,264.95,294.661,290.511,262.136,0.214332,0.324906,245.759,261.194
2015-10-16 15:00,0.415481,297.248,272.931,253.621,275.396,273.675,256.66,0.397672,0.472948,245.405,258.967
2015-10-16 16:00,0.421537,296.635,270.746,252.168,272.899,270.798,254.773,0.415713,0.485835,245.202,257.595
2015-10-16 17:00,0.309978,286.864,266.59,249.797,268.524,266.835,251.553,0.414348,0.45676,242.6,254.162
2015-10-16 18:00,0.371179,257.605,230.559,230.743,230.012,229.909,226.918,0.674386,0.738526,223.329,226.187
2015-10-16 19:00,0.483981,268.382,237.591,234.35,236.948,236.396,231.581,0.601819,0.686912,225.931,232.185
2015-10-16 20:00,0.467377,275.251,261.662,247.332,261.791,260.764,248.499,0.466685,0.530419,230.348,245.345
2015-10-16 21:00,2.15925,295.69,261.017,247.597,257.739,250.156,235.227,1.59385,2.09605,224.156,237.327
2015-10-16 22:00,-0.0,273.338,255.764,244.07,252.868,247.085,233.344,-0.0,-0.0,222.476,234.996
2015-10-16 23:00,-0.0271304,269.865,256.469,242.942,255.439,251.552,237.373,-0.0803993,-0.0273897,224.258,237.468
2015-10-17 00:00,-0.00426418,280.05,271.711,252.534,271.785,268.505,247.551,-0.0,-0.00215247,228.312,246.032
2015-10-17 01:00,-0.0,282.408,274.392,253.98,274.156,270.311,249.705,-0.0,-0.0,227.78,246.818
2015-10-17 02:00,-0.00142257,285.045,281.742,258.358,283.088,280.554,257.158,-0.0,0.00143616,230.101,252.047
2015-10-17 03:00,-0.0,278.279,270.607,252.656,270.981,267.171,248.634,-0.0,-0.0,227.238,246.929
2015-10-17 04:00,-0.00135654,267.444,262.616,247.859,263.04,260.584,246.182,-0.0,-0.0,229.685,247.261
2015-10-17 05:00,-0.0,280.427,276.845,255.742,278.128,274.773,253.497,-0.0,-0.0,233.159,251.051
2015-10-17 06:00,0.0017778,272.836,271.711,253.501,273.843,269.657,253.368,-0.0,-0.0,236.341,253.595
2015-10-17 07:00,-0.0,274.073,271.574,253.02,274.0,269.984,253.368,-0.0,-0.0,237.203,254.162
2015-10-17 08:00,-0.00442992,284.57,282.214,258.469,284.361,281.293,257.406,-0.0,-0.0,235.317,253.213
2015-10-17 09:00,-0.126634,283.924,283.148,259.354,285.618,282.758,259.005,-0.285922,-0.298304,234.615,254.349
2015-10-17 10:00,0.58515,289.779,275.565,254.69,278.427,276.631,257.034,0.490815,0.601785,235.108,253.785
2015-10-17 11:00,0.473888,297.248,293.438,265.153,296.307,293.75,264.837,0.209537,0.427919,234.686,256.091
2015-10-17 12:00,0.388213,302.341,297.975,268.033,301.592,299.104,266.452,0.152883,0.344528,235.593,257.942
2015-10-17 13:00,0.310264,306.326,300.99,269.67,304.91,301.642,267.705,0.119742,0.273894,235.799,257.595
2015-10-17 14:00,0.262766,309.317,303.454,271.366,307.456,303.887,268.609,0.0978067,0.22555,236.609,257.942
2015-10-17 15:00,0.296942,308.976,296.327,267.052,300.141,295.865,264.488,0.164899,0.268224,236.274,256.716
2015-10-17 16:00,0.371008,301.037,278.721,257.006,281.221,278.609,258.392,0.341941,0.413853,236.071,254.256
2015-10-17 17:00,0.443854,303.346,277.852,256.32,279.318,276.477,256.66,0.372465,0.466713,236.675,254.256
2015-10-17 18:00,0.446244,297.649,270.049,252.168,273.686,271.605,255.027,0.440588,0.503511,237.137,253.5
2015-10-17 19:00,0.282936,300.042,290.229,262.89,292.73,289.413,260.942,0.319985,0.365212,237.592,255.911
2015-10-17 20:00,0.623324,299.95,281.267,258.246,283.797,280.998,259.249,0.633865,0.733082,238.294,255.639
2015-10-17 21:00,0.822543,281.346,268.343,251.305,270.819,269.329,254.137,0.81252,0.941127,239.532,254.443
2015-10-17 22:00,-0.0103222,291.315,288.412,262.366,291.16,288.167,262.017,-0.0,-0.0,239.104,257.158
2015-10-17 23:00,-0.0238432,276.155,265.545,250.051,264.618,259.139,244.652,-0.063448,-0.0240711,229.935,245.46
2015-10-18 00:00,-0.0,263.636,247.357,238.963,244.575,239.667,231.094,-0.00181088,-0.0021592,223.849,234.236
2015-10-18 01:00,-0.00164879,254.966,253.963,242.225,255.049,254.089,243.808,-0.0,-0.0,232.251,246.929
2015-10-18 02:00,0.00142631,271.531,259.706,246.265,258.678,255.235,242.241,-0.0,-0.0,228.835,242.848
2015-10-18 03:00,-0.0,269.576,250.954,241.354,249.368,245.399,233.976,-0.0,-0.0,222.476,233.146
2015-10-18 04:00,0.0013606,253.81,235.275,231.973,232.23,229.121,223.233,-0.0,-0.0,221.031,226.57
2015-10-18 05:00,-0.0,267.123,248.985,240.021,247.446,243.024,230.44,-0.0,-0.0,224.156,235.74
2015-10-18 06:00,-0.0,280.239,269.767,251.552,268.524,263.412,242.527,-0.0,-0.0,227.959,244.647
2015-10-18 07:00,-0.0,273.586,260.854,246.265,256.98,253.122,237.827,-0.0,-0.0,223.642,237.185
2015-10-18 08:00,-0.0,285.045,281.742,258.358,283.514,280.702,256.66,-0.0,-0.0,233.234,252.342
2015-10-18 09:00,-0.0939291,288.152,287.978,261.731,290.764,288.861,262.61,-0.278354,-0.284481,234.615,255.73
2015-10-18 10:00,0.561703,291.19,283.611,259.683,285.34,280.108,257.53,0.347548,0.512546,233.159,252.537
2015-10-18 11:00,0.560233,297.045,281.86,258.469,284.22,280.406,258.147,0.352436,0.478371,235.108,254.907
2015-10-18 12:00,0.37244,300.498,293.843,265.456,296.307,292.41,263.67,0.164527,0.317874,235.525,256.181
2015-10-18 13:00,0.309467,304.478,297.783,267.74,300.506,296.65,265.301,0.125528,0.261566,235.317,256.45
2015-10-18 14:00,0.259702,307.499,300.06,268.904,302.907,298.463,265.647,0.102973,0.21998,235.386,256.181
2015-10-18 15:00,0.230431,309.317,300.619,269.479,303.499,298.591,265.878,0.0934881,0.193862,235.247,256.181
2015-10-18 16:00,0.214981,306.771,295.738,266.657,298.055,292.948,262.847,0.127519,0.202321,235.525,256.001
2015-10-18 17:00,0.460298,298.63,271.711,252.656,273.686,271.605,255.784,0.416458,0.496563,235.593,253.88
2015-10-18 18:00,0.248203,306.101,293.742,265.557,295.803,290.511,262.017,0.210153,0.269253,236.139,255.821
2015-10-18 19:00,0.16337,302.426,294.846,265.959,296.433,292.814,263.787,0.206633,0.221945,236.874,256.982
2015-10-18 20:00,0.88072,279.473,239.317,235.499,236.186,234.461,229.946,0.816207,0.982903,222.692,228.242
2015-10-18 21:00,0.199113,285.665,273.333,252.168,272.741,267.673,245.211,0.24522,0.246702,230.593,246.145
2015-10-18 22:00,-0.0104496,267.761,249.781,241.354,243.667,239.208,229.615,-0.0,-0.0,219.137,231.198
2015-10-18 23:00,-0.0239514,259.045,251.339,241.936,249.579,246.876,236.46,-0.0405593,-0.0276347,227.42,240.706
2015-10-19 00:00,-0.0,268.073,257.683,245.177,255.827,251.552,238.428,-0.0,-0.0,229.348,242.725
2015-10-19 01:00,-0.0,262.869,251.912,242.656,248.946,244.544,234.447,-0.0,-0.0,226.405,238.986
2015-10-19 02:00,-0.0,280.05,268.343,250.429,266.678,260.405,241.953,-0.0,-0.0,227.691,243.457
2015-10-19 03:00,-0.0,277.451,268.487,251.18,268.191,263.237,244.932,-0.0,-0.0,230.835,247.04
2015-10-19 04:00,-0.0,273.088,265.394,249.158,265.826,260.942,245.35,-0.0,-0.0,231.943,249.093
2015-10-19 05:00,0.00149346,284.73,278.721,256.089,278.873,273.517,251.683,-0.0,-0.0,232.405,250.544
2015-10-19 06:00,-0.0,283.428,277.601,255.393,278.278,273.517,250.633,-0.0,-0.0,231.473,250.032
2015-10-19 07:00,0.00247152,284.73,280.187,256.778,280.785,277.396,253.881,-0.0,-0.0,232.097,251.552
2015-10-19 08:00,-0.0,284.249,279.945,257.006,281.221,277.548,254.264,-0.0,-0.0,231.473,251.751
2015-10-19 09:00,-0.31674,285.818,282.448,258.358,284.079,280.85,256.285,-0.402275,-0.532947,232.709,253.405
2015-10-19 10:00,0.448267,290.685,287.432,260.876,289.968,287.329,260.701,0.302734,0.43639,234.897,256.539
2015-10-19 11:00,0.453039,297.045,291.694,263.203,294.405,291.735,262.965,0.216044,0.391656,235.317,257.246
2015-10-19 12:00,0.380126,300.858,293.944,264.645,296.559,293.216,263.553,0.166999,0.324024,235.317,257.246
2015-10-19 14:00,0.260461,305.339,292.827,264.031,294.277,288.722,259.249,0.119901,0.223381,233.677,253.88
2015-10-19 15:00,0.274388,301.653,283.148,258.022,282.803,277.396,251.159,0.173482,0.254027,231.943,249.513
2015-10-19 16:00,0.303198,291.44,263.401,246.399,261.611,255.992,237.525,0.27212,0.333033,224.661,238.714
2015-10-19 17:00,0.282346,295.26,270.049,250.681,269.515,262.888,242.671,0.286875,0.326145,230.43,245.804
2015-10-19 18:00,0.372486,299.108,274.129,253.02,273.215,267.339,247.687,0.36621,0.427326,230.593,246.258
2015-10-19 19:00,0.706506,296.323,261.179,245.995,262.507,260.764,247.687,0.685115,0.792511,235.593,250.95
2015-10-19 20:00,0.220256,271.798,265.696,249.286,267.354,266.329,251.944,0.254059,0.277146,238.041,254.256
2015-10-19 21:00,1.4607,296.84,268.199,250.051,264.444,257.671,238.876,1.07743,1.40229,226.122,239.39
2015-10-19 22:00,0.010584,271.531,250.954,241.061,245.693,240.35,227.77,-0.00896148,-0.0106852,219.744,230.524
2015-10-19 23:00,-0.0171884,267.761,246.102,238.349,241.58,236.396,225.883,-0.0291068,-0.0277644,220.337,229.137
2015-10-20 00:00,-0.00215275,257.605,234.477,233.005,228.001,223.043,217.639,-0.0,-0.00217333,214.293,220.306
2015-10-20 01:00,-0.00165812,263.255,241.682,236.466,235.155,229.385,221.965,-0.0,-0.0,217.096,225.408
2015-10-20 02:00,-0.0,270.151,248.583,240.766,241.815,233.722,223.233,-0.0,-0.0,217.36,228.782
2015-10-20 03:00,-0.0,263.636,242.597,236.625,237.451,232.221,222.511,-0.0,-0.0,216.963,226.57
2015-10-20 04:00,-0.00136886,261.251,241.218,236.146,236.186,231.203,222.873,-0.0,-0.0,217.881,226.57
2015-10-20 05:00,0.00149867,271.261,254.145,242.799,250.83,244.328,230.111,-0.0,-0.0,222.15,235.295
2015-10-20 06:00,-0.0,277.24,266.293,249.414,265.138,260.225,241.519,-0.0,-0.0,226.963,242.354
2015-10-20 07:00,-0.0,264.009,245.89,237.572,242.049,237.815,228.109,-0.0,-0.0,219.863,229.489
2015-10-20 08:00,-0.0,277.026,267.18,248.771,266.167,263.063,243.949,-0.0,-0.0,227.959,244.056
2015-10-20 09:00,-0.18026,281.526,274.785,253.02,276.163,273.517,250.765,-0.305251,-0.363965,230.916,248.987
2015-10-20 10:00,0.379809,279.859,268.054,249.286,268.358,264.967,244.932,0.384114,0.473974,228.575,243.937
2015-10-20 11:00,0.3885,288.705,274.916,252.899,272.264,268.339,248.229,0.265347,0.381755,227.959,244.53
2015-10-20 12:00,0.360996,295.476,280.187,256.205,279.613,274.304,251.159,0.205787,0.322951,231.473,248.562
2015-10-20 13:00,0.299367,300.317,287.432,260.119,287.815,282.758,256.909,0.157663,0.260293,233.75,251.949
2015-10-20 14:00,0.2524,302.256,288.736,261.091,288.763,283.629,257.282,0.134635,0.222961,232.935,251.85
2015-10-20 15:00,0.257206,303.51,289.593,261.838,290.897,286.06,259.249,0.16004,0.236717,233.677,253.309
2015-10-20 16:00,0.219201,304.95,293.539,264.339,295.17,290.921,262.492,0.152784,0.211515,235.178,255.548
2015-10-20 17:00,0.217689,303.264,292.005,263.307,292.989,288.445,261.779,0.175434,0.222418,234.329,254.349
2015-10-20 18:00,0.407248,273.831,221.481,226.092,215.993,214.364,213.857,0.464526,0.522847,209.206,210.353
2015-10-20 19:00,0.614679,278.684,204.988,219.632,203.652,201.694,205.361,0.746656,0.853771,204.349,202.696
2015-10-20 20:00,1.06898,288.012,206.643,221.17,204.12,203.351,206.97,1.01016,1.19804,206.905,205.491
2015-10-20 21:00,1.64126,279.278,210.224,222.659,208.131,206.128,207.648,1.36711,1.74651,208.838,209.379
2015-10-20 22:00,0.0107259,222.276,208.734,221.386,206.392,204.955,207.872,-0.0,-0.0,206.292,206.968
2015-10-20 23:00,-0.0207261,257.605,231.997,232.146,226.522,221.283,216.663,-0.0321727,-0.0209242,212.922,220.075
2015-10-21 00:00,-0.00216009,269.283,248.985,240.469,243.667,235.677,224.126,-0.0,-0.00218074,217.229,228.96
2015-10-21 01:00,-0.0,275.707,259.871,245.587,256.789,249.753,234.291,-0.0,-0.0,223.538,237.468
2015-10-21 02:00,-0.0,281.346,270.746,251.799,269.186,262.712,242.814,-0.0,-0.0,225.643,242.725
2015-10-21 03:00,-0.00135374,280.239,267.473,250.429,265.654,258.774,239.025,-0.0,-0.0,224.054,240.446
2015-10-21 04:00,-0.0,277.869,266.442,249.542,264.27,256.928,239.322,-0.0,-0.0,223.538,239.121
2015-10-21 05:00,-0.00150391,280.05,269.059,250.931,267.857,261.477,241.374,-0.0,-0.0,224.156,240.706
2015-10-21 06:00,-0.00180868,281.526,272.391,252.656,272.104,266.498,245.072,-0.0,-0.0,226.592,242.848
2015-10-21 07:00,-0.00250115,282.059,272.931,252.168,273.215,268.505,247.142,-0.0,-0.0,226.216,244.056
2015-10-21 08:00,-0.0,263.255,250.371,241.061,247.012,243.461,233.503,-0.0,-0.00467074,220.801,232.022
2015-10-21 09:00,-0.347386,276.155,265.243,248.121,264.965,260.225,242.814,-0.411784,-0.49099,225.546,240.053
2015-10-21 10:00,0.391253,287.729,280.549,256.892,281.943,277.853,253.24,0.322439,0.373927,228.136,247.917
2015-10-21 11:00,0.432914,293.007,282.682,257.685,283.938,279.211,254.519,0.253092,0.351203,228.136,248.241
2015-10-21 12:00,0.363406,298.533,286.55,259.574,287.543,282.175,255.658,0.193064,0.294943,228.575,250.032
2015-10-21 13:00,0.314398,297.349,280.308,256.434,280.054,273.99,249.838,0.17545,0.269793,226.122,245.804
2015-10-21 14:00,0.254463,299.579,282.448,257.572,282.231,276.323,252.205,0.145058,0.221286,226.311,246.258
2015-10-21 15:00,0.291452,296.323,277.601,254.926,278.128,273.675,252.723,0.243738,0.297856,227.42,247.371
2015-10-21 17:00,0.268459,297.649,280.549,257.12,281.366,277.091,253.753,0.241718,0.288212,228.488,248.775
2015-10-21 18:00,0.317619,298.242,275.565,254.099,273.057,265.309,244.512,0.302705,0.356283,225.546,242.848
2015-10-21 19:00,0.35683,299.013,281.505,257.346,281.076,275.551,251.422,0.449796,0.469528,227.601,247.481
2015-10-21 20:00,0.93537,299.013,261.501,245.04,256.598,247.085,228.782,1.0148,1.12357,223.013,236.614
2015-10-21 21:00,1.42262,300.498,283.032,258.469,283.797,278.609,253.753,1.74731,2.02134,231.156,251.152
2015-10-21 22:00,-0.0,230.231,217.685,224.507,216.355,214.697,213.857,-0.0,-0.0,213.388,215.867
2015-10-21 23:00,-0.0173581,277.869,258.025,244.488,256.406,249.348,232.867,-0.0235154,-0.0210289,223.849,237.043
2015-10-22 00:00,-0.00216765,218.393,205.549,219.183,205.497,204.955,206.97,-0.0,-0.00218838,205.663,205.868
2015-10-22 01:00,-0.0,213.142,208.734,220.954,205.946,204.559,206.286,-0.0,-0.0,205.015,205.109
2015-10-22 02:00,-0.0,256.589,233.116,231.625,228.583,223.332,218.792,-0.0,-0.0,214.293,220.306
2015-10-22 03:00,-0.0,254.966,235.275,232.319,232.502,228.59,222.511,-0.0,-0.0,217.752,224.61
2015-10-22 04:00,-0.0,283.924,277.098,254.69,278.576,275.24,252.075,-0.0,-0.0,228.921,248.455
2015-10-22 05:00,-0.00150918,287.871,285.658,259.574,288.628,285.919,259.735,-0.0,-0.0,230.511,252.439
2015-10-22 06:00,-0.0,288.705,287.869,260.984,291.029,288.999,262.255,-0.0,-0.0,231.315,253.117
2015-10-22 07:00,0.00251593,288.43,288.087,261.091,291.555,290.101,263.318,-0.0,-0.0,231.63,253.309
2015-10-22 08:00,0.00467616,288.012,287.978,261.091,291.292,289.137,262.965,-0.0,-0.0,231.63,253.213
2015-10-22 09:00,-0.327978,288.152,287.978,261.305,291.16,289.551,262.492,-0.624822,-0.662228,232.328,252.925
2015-10-22 10:00,0.433534,291.315,288.736,261.412,291.817,289.276,262.61,0.288414,0.359522,232.709,253.117
2015-10-22 11:00,0.441056,296.84,290.965,262.576,293.635,290.511,262.492,0.214946,0.331366,233.085,253.69
2015-10-22 12:00,0.372945,302.256,293.944,264.236,295.93,291.871,263.2,0.168412,0.285072,233.382,253.785
2015-10-22 13:00,0.307998,305.028,295.244,265.355,297.06,292.545,263.318,0.136427,0.238965,233.823,254.068
2015-10-22 14:00,0.260308,306.549,296.229,265.758,298.302,293.483,263.2,0.117122,0.210745,233.603,253.974
2015-10-22 15:00,0.254048,306.991,294.846,264.747,296.684,291.871,262.965,0.139362,0.21072,234.257,254.349
2015-10-22 16:00,0.264493,306.101,292.929,263.515,294.661,290.238,262.728,0.179975,0.241417,234.329,253.88
2015-10-22 17:00,0.236706,303.998,291.902,263.203,293.377,288.999,262.373,0.19599,0.24293,233.456,253.974
2015-10-22 18:00,0.25891,303.998,292.827,264.031,294.788,290.375,262.847,0.251648,0.293865,234.185,254.256
2015-10-22 19:00,0.352097,300.498,288.087,261.412,290.101,286.767,261.421,0.409915,0.43625,234.615,254.629
2015-10-22 20:00,0.379186,299.858,291.279,263.099,293.119,289.137,262.017,0.695623,0.650779,235.178,254.907
2015-10-22 21:00,0.712677,298.144,291.383,263.099,293.248,289.689,262.373,1.15533,1.20208,235.317,255.183
2015-10-22 22:00,-0.0,292.771,288.195,261.198,289.968,286.06,259.614,-0.0,-0.0,234.472,253.88
2015-10-22 23:00,-0.0209372,287.155,277.852,254.926,278.128,273.517,249.705,-0.0206821,-0.0176145,230.266,248.348
2015-10-23 00:00,-0.0,239.711,222.904,226.287,220.519,218.235,217.055,-0.00184195,-0.00219625,213.078,216.131
2015-10-23 01:00,0.00167306,257.605,239.799,234.35,237.702,234.461,226.056,-0.0,-0.0,219.982,227.323
2015-10-23 02:00,-0.0,262.475,248.38,238.349,244.8,241.698,232.707,-0.0,-0.0,222.368,230.183
2015-10-23 03:00,-0.0,288.291,285.882,259.902,288.358,285.919,260.461,-0.0,-0.0,234.257,253.69
2015-10-23 04:00,0.00138155,286.864,283.956,259.464,284.501,278.911,253.368,-0.0,-0.0,233.677,252.925
2015-10-23 05:00,-0.00151447,285.045,279.213,256.664,278.725,271.444,248.499,-0.0,-0.0,231.709,248.882
2015-10-23 06:00,-0.00182417,280.05,271.437,252.045,269.515,260.942,240.207,-0.0,-0.0,228.575,244.412
2015-10-23 07:00,-0.00253068,278.883,267.764,250.931,263.393,253.316,235.072,-0.0,-0.0,224.959,241.093
2015-10-23 08:00,-0.0,278.482,266.145,249.924,261.791,252.536,235.846,-0.0,-0.0,224.661,240.053
2015-10-23 09:00,-0.497407,275.932,260.854,247.465,255.049,243.243,228.446,-0.589615,-0.703026,221.596,236.325
2015-10-23 10:00,0.418879,286.421,267.618,250.681,264.27,254.664,236.0,0.39359,0.469297,223.849,240.576
2015-10-23 11:00,0.382834,276.811,240.984,235.01,236.441,228.856,219.927,0.393296,0.474099,217.752,226.379
2015-10-23 12:00,0.3382,285.818,256.294,243.65,250.83,242.805,229.449,0.281856,0.364672,219.744,232.669
2015-10-23 13:00,0.30592,292.771,269.343,251.056,265.826,257.301,237.827,0.19758,0.288734,222.476,238.441
2015-10-23 14:00,0.263638,299.013,280.669,257.346,279.466,271.765,247.959,0.155193,0.238275,226.685,245.345
2015-10-23 15:00,0.248923,303.015,286.217,259.793,286.447,279.361,252.853,0.14824,0.22004,229.093,248.348
2015-10-23 16:00,0.227961,295.69,281.505,257.459,282.803,279.361,257.034,0.225694,0.277629,230.996,251.452
2015-10-23 17:00,0.244225,262.869,236.318,233.513,236.441,234.706,228.614,0.597133,0.652658,227.601,234.845
2015-10-23 18:00,0.484901,273.338,202.646,219.183,201.728,199.981,204.893,0.858689,0.960541,204.349,202.271
2015-10-23 19:00,0.690764,281.346,201.41,218.272,200.733,199.981,204.185,0.941538,1.07225,203.429,201.84
2015-10-23 20:00,1.13046,285.97,208.223,220.517,206.392,205.349,206.515,1.21578,1.43056,208.838,208.027
2015-10-23 21:00,1.5223,277.24,213.479,223.076,211.428,209.497,210.289,1.26708,1.62368,212.448,213.668
2015-10-23 22:00,-0.0224027,213.142,206.643,220.954,206.392,205.349,208.096,-0.0,-0.0,206.498,206.606
2015-10-23 23:00,-0.0140324,227.984,211.654,221.814,210.625,209.133,210.073,-0.0148515,-0.0141665,210.102,210.353
2015-10-24 00:00,-0.0,225.382,215.64,224.102,214.141,212.329,213.241,-0.00184875,-0.00220435,212.448,214.233
2015-10-24 01:00,-0.0,233.989,226.902,228.749,225.31,222.169,220.675,-0.0,-0.0,217.752,223.793
2015-10-24 02:00,-0.00145052,243.066,232.56,231.45,228.293,224.474,219.362,-0.0,-0.0,217.229,225.21
2015-10-24 03:00,-0.00136557,262.475,244.598,237.415,240.392,234.216,225.36,-0.0,-0.0,218.009,227.509
2015-10-24 04:00,-0.0,270.151,252.29,242.513,248.52,240.123,227.431,-0.0,0.0013991,216.963,228.782
2015-10-24 05:00,-0.00151977,274.787,262.3,247.067,261.611,256.18,239.025,-0.0,-0.0,223.538,236.9
2015-10-24 06:00,-0.0,281.526,273.466,253.501,273.686,267.171,244.372,-0.0,-0.0,224.959,242.23
2015-10-24 07:00,0.00254538,283.428,278.721,255.858,280.201,276.015,253.111,-0.0,-0.0,226.405,244.998
2015-10-24 08:00,-0.00477564,278.883,271.023,251.552,272.582,268.67,248.364,-0.0,-0.0,226.499,242.105
2015-10-24 09:00,-1.50695,283.76,279.336,256.434,280.785,276.631,253.111,-1.16961,-1.9017,228.748,244.998
2015-10-24 10:00,0.591792,289.247,261.017,246.801,261.25,253.316,239.173,0.458243,0.571917,228.312,240.835
2015-10-24 11:00,0.431917,291.931,279.823,256.664,281.655,275.861,251.553,0.234481,0.397572,228.748,245.804
2015-10-24 12:00,0.381383,298.242,288.412,261.305,290.5,285.35,257.9,0.156973,0.338683,229.007,247.481
2015-10-24 13:00,0.308137,301.565,291.07,262.786,293.119,287.609,258.882,0.121432,0.263775,229.348,247.808
2015-10-24 14:00,0.260708,304.95,293.944,264.849,295.803,289.689,259.37,0.0976355,0.217646,229.852,248.455
2015-10-24 15:00,0.221225,306.475,296.425,265.859,298.302,292.276,261.54,0.0845921,0.184916,230.511,249.617
2015-10-24 16:00,0.205987,306.845,295.935,265.052,297.558,291.057,259.614,0.0826147,0.179985,230.348,249.721
2015-10-24 17:00,0.20347,305.184,293.438,264.133,294.916,288.999,259.735,0.104913,0.190931,229.685,249.303
2015-10-24 18:00,0.229097,301.39,290.545,262.471,292.6,288.027,260.701,0.188803,0.255958,230.593,250.849
2015-10-24 19:00,0.26099,300.042,287.978,260.984,289.434,284.636,258.638,0.286767,0.335893,229.852,249.303
2015-10-24 20:00,0.320058,283.924,275.565,253.741,277.226,275.24,256.535,0.462281,0.494179,231.865,251.252
2015-10-24 21:00,0.433997,297.248,290.965,262.995,292.989,288.999,261.779,0.670083,0.678697,232.86,252.342
2015-10-24 22:00,-0.0113782,292.653,289.058,261.412,291.16,287.188,261.062,-0.0,-0.0,232.633,252.146
2015-10-24 23:00,-0.0176365,292.174,288.628,261.198,290.764,287.329,260.581,-0.0149328,-0.0178051,233.308,251.949
2015-10-25 00:00,-0.0,288.43,283.726,258.58,286.447,282.613,258.638,-0.00185574,-0.0,232.784,251.652
2015-10-25 01:00,-0.00168363,287.3,281.742,257.233,282.946,279.211,256.66,-0.0,-0.0,232.557,249.617
2015-10-25 02:00,-0.0,284.73,280.066,256.778,282.087,277.548,256.285,-0.0,-0.0,232.709,250.442
2015-10-25 03:00,-0.0,285.512,280.789,257.12,283.23,279.361,256.66,-0.0,-0.0,233.75,251.152
2015-10-25 04:00,-0.00139019,287.155,283.148,258.358,284.921,280.85,257.53,-0.0,-0.0,233.603,251.751
2015-10-25 05:00,-0.0,285.665,280.066,256.664,280.785,275.551,252.464,-0.0,-0.0,231.315,248.669
2015-10-25 06:00,-0.0,275.48,268.487,250.177,269.35,263.759,246.457,-0.0,-0.0,229.852,246.258
2015-10-25 07:00,-0.0,259.505,255.764,243.084,256.406,254.281,241.953,-0.0,-0.0,229.263,243.818
2015-10-25 08:00,-0.0,258.096,256.118,243.368,256.98,255.235,242.814,-0.0,-0.0,228.835,243.577
2015-10-25 09:00,-3.37267,269.283,265.092,247.332,264.965,262.888,248.768,-3.28398,-5.44786,231.394,246.818
2015-10-25 10:00,0.616273,288.977,268.343,249.797,270.819,268.007,251.422,0.504829,0.627223,233.01,249.198
2015-10-25 11:00,0.586884,298.822,270.746,250.931,271.625,268.173,251.422,0.417664,0.528648,233.968,248.987
2015-10-25 12:00,0.422609,301.565,276.08,254.572,277.978,273.675,254.264,0.268366,0.37154,233.308,250.238
2015-10-25 13:00,0.324542,299.672,278.721,255.626,279.76,275.551,255.406,0.214791,0.304752,233.53,250.032
2015-10-25 14:00,0.354167,300.947,272.391,252.656,274.312,270.148,252.205,0.244773,0.315859,233.896,250.238
2015-10-25 15:00,0.386039,294.38,269.767,250.681,271.625,269.329,252.982,0.35703,0.419708,233.968,250.442
2015-10-25 16:00,0.401838,296.635,264.329,248.642,267.522,265.82,252.075,0.424785,0.476127,233.603,249.721
2015-10-25 17:00,0.272246,283.261,267.18,249.542,269.35,268.505,253.625,0.372787,0.403725,233.085,250.442
2015-10-25 18:00,0.50782,295.368,268.054,250.429,270.981,269.494,252.982,0.486784,0.552704,233.085,250.849
2015-10-25 19:00,0.186884,290.685,279.091,255.626,278.427,273.99,253.881,0.198635,0.248885,229.769,247.04
2015-10-25 20:00,0.506511,291.809,272.662,252.168,272.104,267.004,246.869,0.540049,0.621831,228.575,243.457
2015-10-25 21:00,0.597738,292.889,281.267,257.006,281.799,277.243,255.658,0.541745,0.62895,233.308,249.198
2015-10-25 22:00,-0.0,271.798,263.712,248.121,263.04,258.04,242.527,-0.0,-0.0116757,227.238,243.093
2015-10-25 23:00,-0.0141887,277.24,260.528,246.13,256.021,247.708,232.066,-0.0120135,-0.0143243,221.819,234.694
2015-10-26 00:00,-0.00220023,274.787,258.025,244.349,254.657,248.121,232.066,-0.0,-0.0,221.371,233.461
2015-10-26 01:00,-0.0016891,258.096,236.06,233.005,232.502,226.426,219.739,-0.0,-0.0,215.873,223.586
2015-10-26 02:00,-0.0,256.062,238.585,234.017,236.186,231.714,225.36,-0.0,-0.0,218.009,226.379
2015-10-26 03:00,-0.0,251.282,231.427,230.207,228.583,224.19,220.675,-0.0,-0.0,216.424,222.956
2015-10-26 04:00,-0.0,262.869,253.226,241.5,251.856,247.708,237.373,-0.0,-0.0,225.449,238.303
2015-10-26 05:00,-0.00153041,267.761,261.501,245.859,262.507,259.684,244.932,-0.0,-0.0,227.87,244.294
2015-10-26 06:00,-0.0,257.605,249.781,240.021,248.307,244.973,234.76,-0.0,0.001865,223.746,236.757
2015-10-26 07:00,0.00257456,268.382,262.931,246.667,263.745,260.225,244.792,-0.0,-0.0,227.51,243.093
2015-10-26 08:00,-0.00487494,262.475,256.469,243.226,258.304,256.18,242.671,-0.0,-0.0,227.147,241.602
2015-10-26 09:00,-4.29942,258.096,253.779,241.646,255.439,254.089,242.671,-4.28272,-5.61714,227.78,242.23
2015-10-26 10:00,0.739798,272.58,251.721,240.913,253.867,252.536,240.938,0.773524,0.872184,226.592,241.093
2015-10-26 11:00,0.624751,285.357,261.501,245.723,263.92,263.237,249.305,0.784931,0.849442,230.996,247.59
2015-10-26 12:00,0.67793,289.247,260.036,245.177,262.507,261.831,248.903,0.896693,0.985835,230.018,246.929
2015-10-26 13:00,0.585632,295.476,261.822,246.265,264.965,263.759,249.971,0.679104,0.724043,230.43,248.348
2015-10-26 14:00,0.442369,280.05,257.166,243.65,258.116,256.18,243.383,0.541727,0.591679,225.546,241.98
2015-10-26 15:00,0.376058,291.686,264.021,247.332,265.997,263.412,248.903,0.34151,0.395222,227.601,245.46
2015-10-26 16:00,0.248743,299.579,282.096,257.12,283.23,278.609,257.034,0.160756,0.230498,231.63,250.135
2015-10-26 17:00,0.320035,297.248,274.524,252.534,275.396,271.765,252.594,0.29741,0.351989,230.916,248.455
2015-10-26 18:00,0.266468,295.796,276.718,253.98,277.528,271.926,250.896,0.296526,0.332042,228.921,247.151
2015-10-26 19:00,0.569393,290.171,248.583,239.267,245.471,239.208,231.257,0.634967,0.751093,222.368,233.617
2015-10-26 20:00,0.847359,290.939,239.799,235.662,234.107,229.647,223.77,0.796589,0.927796,219.863,228.242
2015-10-26 21:00,2.04866,285.665,252.853,241.207,252.262,249.753,239.47,1.62178,2.14391,226.685,239.255
2015-10-26 22:00,-0.0117631,259.505,256.992,244.07,259.051,256.928,245.211,-0.0,-0.0,229.093,244.764
2015-10-26 23:00,-0.0107031,255.521,254.145,242.225,256.98,256.18,245.767,-0.0120831,-0.0144073,230.018,244.294
2015-10-27 00:00,-0.0,261.666,260.365,245.177,262.507,261.477,249.171,-0.0,-0.0,231.156,247.261
2015-10-27 01:00,-0.00169468,277.24,269.908,249.669,270.981,267.673,250.633,-0.0,-0.0,228.835,246.483
2015-10-27 02:00,-0.00146366,284.249,278.968,255.16,280.054,275.085,253.111,-0.0,-0.0,227.329,245.918
2015-10-27 03:00,-0.00137785,277.451,265.243,247.859,264.444,258.774,241.084,-0.0,-0.0,221.93,237.043
2015-10-27 04:00,-0.0,271.531,259.54,244.07,257.55,253.316,239.173,-0.0,-0.0,222.585,234.996
2015-10-27 05:00,-0.0,260.827,248.784,239.115,247.012,244.973,234.604,-0.0,-0.0,222.368,232.347
2015-10-27 06:00,-0.0,240.898,230.265,229.847,228.871,226.701,223.233,-0.0,-0.0,219.863,225.21
2015-10-27 07:00,-0.0,260.827,253.779,240.913,254.066,252.732,242.241,-0.0,-0.0,228.048,240.446
2015-10-27 08:00,-0.0,285.818,282.448,256.664,284.921,281.882,258.147,-0.0,-0.0,228.4,247.481
2015-10-27 09:00,-1.96442,286.569,284.185,257.346,287.134,284.061,259.614,-4.15818,-3.9664,230.101,248.562
2015-10-27 10:00,0.403618,288.841,284.755,257.798,286.86,283.339,258.882,0.254223,0.387599,231.315,248.987
2015-10-27 11:00,0.40899,293.702,284.642,258.246,285.618,280.406,256.16,0.199702,0.359704,230.593,248.025
2015-10-27 12:00,0.357396,298.144,288.52,260.119,289.568,284.492,259.249,0.151303,0.302446,231.787,248.882
2015-10-27 13:00,0.336069,300.947,281.742,255.974,282.66,276.938,255.28,0.186511,0.292239,231.709,248.987
2015-10-27 14:00,0.311968,302.085,285.208,257.798,285.618,279.661,256.285,0.173278,0.269597,233.53,249.928
2015-10-27 15:00,0.315171,293.816,271.848,251.429,273.372,270.635,253.881,0.275884,0.32895,234.686,250.544
2015-10-27 16:00,0.244852,301.999,284.642,258.134,284.641,278.911,256.785,0.136178,0.220534,233.896,249.825
2015-10-27 17:00,0.198798,302.426,290.545,260.984,291.555,285.35,258.638,0.103413,0.187581,234.756,251.252
2015-10-27 18:00,0.225015,295.796,284.869,257.572,285.34,281.146,258.392,0.208542,0.270144,235.247,252.146
2015-10-27 19:00,0.607783,296.219,270.329,250.051,271.945,268.67,251.159,0.611831,0.697537,234.756,250.238
2015-10-27 20:00,0.512136,290.301,267.909,249.286,270.006,267.673,251.291,0.633355,0.698777,234.543,250.442
2015-10-27 21:00,0.815462,277.026,243.273,236.306,240.87,238.978,233.026,0.774142,0.947994,223.952,234.694
2015-10-27 22:00,-0.0,222.276,217.685,224.305,216.355,216.331,215.674,-0.0,-0.0,213.995,215.867
2015-10-27 23:00,-0.0071779,227.984,208.223,220.517,206.392,204.559,206.97,-0.012155,-0.014493,206.292,206.239
2015-10-28 00:00,-0.0022179,233.989,218.862,225.107,216.715,213.356,212.619,-0.0,-0.0,212.287,215.332
2015-10-28 01:00,-0.0,274.551,261.501,245.859,258.304,251.354,236.765,-0.0,-0.0,223.849,237.748
2015-10-28 02:00,-0.00146819,264.009,249.781,239.57,245.471,239.208,228.949,-0.0,-0.0,221.258,233.304
2015-10-28 03:00,-0.0,233.989,220.75,226.092,214.89,212.329,211.992,-0.0,-0.0,209.206,213.382
2015-10-28 04:00,-0.0,225.382,215.218,224.507,212.219,210.219,210.932,-0.0,-0.0,209.748,212.505
2015-10-28 05:00,-0.00154106,267.444,252.666,241.061,249.998,242.585,230.44,-0.0,-0.0,222.692,234.236
2015-10-28 06:00,-0.00186265,262.074,246.942,236.943,244.122,239.667,230.111,-0.0,-0.0,221.596,231.859
2015-10-28 07:00,-0.0,247.601,236.318,232.834,235.155,231.968,227.94,-0.0,0.0,0.0,230.011
2015-10-28 08:00,-0.0,233.989,228.769,228.378,228.001,226.974,223.233,-0.0,-0.0,221.93,226.187
2015-10-28 09:00,-11.2581,258.576,250.954,239.115,251.036,249.348,240.207,-38.1287,-34.097,227.42,238.85
2015-10-28 10:00,0.624834,276.376,265.995,247.465,267.522,265.99,250.896,0.67784,0.768796,229.517,244.53
2015-10-28 11:00,0.847369,291.065,269.626,249.797,273.215,272.405,254.646,0.967203,1.08006,229.348,247.59
2015-10-28 12:00,0.700869,296.738,276.08,252.777,279.318,277.853,257.282,0.784327,0.802853,230.755,248.775
2015-10-28 13:00,0.494792,291.44,269.626,250.303,271.785,269.329,252.594,0.737621,0.768496,230.755,246.483
2015-10-28 14:00,0.483524,291.44,268.487,249.286,271.945,270.148,251.944,0.599326,0.637861,231.156,247.808
2015-10-28 15:00,0.382259,295.26,272.662,251.552,275.396,273.675,255.28,0.317646,0.372771,231.709,249.408
2015-10-28 16:00,0.352474,293.124,271.711,251.18,273.843,271.926,254.773,0.301485,0.352213,230.266,248.775
2015-10-28 17:00,0.385428,303.346,258.025,243.79,257.17,250.557,239.173,0.283488,0.353738,230.43,241.728
2015-10-28 18:00,0.378003,304.794,274.261,252.534,274.156,266.835,248.768,0.273781,0.358627,232.633,246.032
2015-10-28 19:00,0.590683,298.144,274.916,252.412,276.62,273.2,254.264,0.562019,0.64619,233.159,249.303
2015-10-28 20:00,0.377262,292.294,284.869,258.022,286.86,283.484,260.34,0.502706,0.536963,235.455,251.552
2015-10-28 21:00,0.855351,292.414,285.882,258.913,288.222,285.065,260.701,0.965632,1.02801,234.827,251.152
2015-10-28 22:00,-0.0121945,289.247,286.661,259.354,289.032,285.919,260.581,-0.0,-0.0,235.247,251.652
2015-10-28 23:00,-0.0108326,270.151,258.365,243.65,259.236,253.122,240.646,-0.00917197,-0.0145816,234.472,243.093
2015-10-29 00:00,0.00222709,249.156,242.597,236.146,243.209,241.475,236.153,-0.00188567,-0.0,232.328,236.9
2015-10-29 01:00,-0.0,267.761,257.683,243.509,256.021,248.941,238.428,-0.0,-0.0,232.02,241.221
2015-10-29 02:00,-0.00147278,282.408,280.429,255.742,281.366,274.46,252.723,-0.0,-0.0,233.75,249.617
2015-10-29 03:00,-0.00138626,287.155,285.208,258.58,287.27,284.061,260.098,-0.0,-0.0,234.543,253.69
2015-10-29 04:00,-0.0,285.512,284.414,258.358,287.543,285.35,260.942,-0.0,-0.0,233.603,254.629
2015-10-29 05:00,-0.00154638,287.155,285.994,259.244,288.493,285.919,260.581,-0.0,-0.0,232.328,254.068
2015-10-29 06:00,-0.00187024,287.01,286.105,259.134,288.763,286.767,262.017,-0.0,-0.0,233.085,255.639
2015-10-29 07:00,-0.0,287.01,285.433,258.469,287.815,285.35,260.461,-0.0,-0.0,231.943,254.722
2015-10-29 08:00,-0.0,285.97,283.956,257.685,286.172,283.773,258.882,-0.0,-0.0,231.315,254.814
2015-10-29 09:00,4.93607,286.864,285.882,258.691,288.358,286.343,261.301,6.79146,8.09779,232.02,256.805
2015-10-29 10:00,0.431031,290.041,286.992,259.244,289.032,286.767,261.301,0.241935,0.420483,232.251,257.595
2015-10-29 11:00,0.433359,294.933,289.058,260.337,290.632,287.609,261.779,0.181353,0.387214,231.943,256.894
2015-10-29 12:00,0.357495,298.242,288.951,260.337,289.568,285.065,259.37,0.150607,0.315139,231.787,255.457
2015-10-29 13:00,0.334961,301.125,290.123,261.625,291.029,287.188,261.182,0.163255,0.288433,233.382,257.769
2015-10-29 14:00,0.403251,290.558,278.35,254.217,280.347,279.361,259.249,0.467888,0.54909,234.401,258.2
2015-10-29 15:00,0.275437,294.491,283.032,256.778,284.361,281.441,259.127,0.256233,0.338935,231.943,256.181
2015-10-29 16:00,0.238317,292.653,283.611,257.459,284.781,282.321,259.37,0.23423,0.288956,232.481,256.001
2015-10-29 17:00,0.228126,282.408,273.333,252.045,274.933,273.99,256.16,0.365456,0.412196,231.865,253.213
2015-10-29 18:00,0.324382,270.713,251.147,240.617,252.262,252.144,240.06,0.49797,0.564679,228.224,240.185
2015-10-29 19:00,0.447481,266.131,228.769,229.665,229.444,229.647,226.918,0.692669,0.78212,221.484,224.811
2015-10-29 20:00,0.979651,274.551,245.89,237.101,247.229,246.035,238.428,1.0564,1.29381,230.348,239.789
2015-10-29 21:00,0.845837,276.155,249.583,239.115,248.093,245.612,238.128,0.743451,0.935249,227.329,239.523
2015-10-29 22:00,-0.0124298,230.231,222.904,226.866,221.511,220.081,216.466,-0.0,-0.0,216.963,220.075
2015-10-29 23:00,-0.0145341,232.213,212.119,222.027,210.625,209.497,211.57,-0.00922947,-0.0110047,211.47,212.505
2015-10-30 00:00,-0.00223651,222.276,216.058,223.694,215.628,215.027,214.671,-0.0,-0.00225789,213.541,215.332
2015-10-30 01:00,-0.0,225.382,216.058,223.899,214.89,213.694,214.671,-0.0,-0.0,212.922,215.061
2015-10-30 02:00,-0.0,225.382,220.379,225.504,219.508,218.857,218.41,-0.0,0.00149156,216.83,219.134
2015-10-30 03:00,-0.0,225.382,218.474,224.908,217.78,216.652,216.071,-0.0,-0.0,214.734,217.164
2015-10-30 04:00,-0.00141222,230.231,224.616,227.248,223.758,222.169,221.046,-0.0,-0.0,218.391,221.436
2015-10-30 05:00,0.0015517,235.601,228.463,229.301,227.118,225.874,223.413,-0.0,-0.0,219.863,224.408
2015-10-30 06:00,0.00187778,233.989,226.261,228.004,225.003,223.619,222.147,-0.0,-0.0,218.767,222.956
2015-10-30 07:00,-0.0026316,233.989,228.463,228.934,228.293,226.701,224.834,-0.0,-0.0,220.916,225.408
2015-10-30 08:00,-0.0,257.605,248.177,238.04,248.093,246.246,237.373,-0.0,-0.0,226.592,237.327
2015-10-30 09:00,2.08459,250.598,243.94,235.985,243.667,242.364,235.227,3.78218,4.50968,226.685,235.444
2015-10-30 10:00,0.514315,275.02,246.942,238.349,246.355,244.328,238.278,0.553495,0.645401,227.601,236.757
2015-10-30 11:00,0.416976,280.239,252.479,240.32,251.242,245.824,237.373,0.384575,0.488616,227.329,237.888
2015-10-30 12:00,0.243623,277.24,261.34,244.765,261.25,257.671,245.211,0.223956,0.328522,228.224,241.728
2015-10-30 13:00,0.27262,282.923,267.033,248.121,267.185,263.759,249.171,0.234396,0.334811,229.348,243.698
2015-10-30 14:00,0.376656,295.042,271.299,251.429,273.843,270.96,253.625,0.361015,0.416651,229.935,248.455
2015-10-30 15:00,0.289311,290.685,265.243,248.642,265.138,261.121,246.594,0.23696,0.30519,227.42,243.698
2015-10-30 16:00,0.293093,294.156,279.091,255.16,279.907,276.015,253.753,0.250187,0.321257,227.959,247.699
2015-10-30 17:00,0.236917,294.602,277.35,254.808,277.678,273.359,252.982,0.200597,0.256173,228.136,246.818
2015-10-30 18:00,0.355681,274.314,240.277,235.499,236.695,233.225,226.056,0.352415,0.435481,218.767,226.57
2015-10-30 19:00,0.481919,278.075,233.938,231.625,229.158,225.597,220.86,0.476325,0.567945,216.963,222.529
2015-10-30 20:00,0.889984,276.376,216.471,224.507,214.89,214.03,215.274,0.906857,1.07509,214.588,215.061
2015-10-30 21:00,1.4656,272.836,217.285,223.694,216.355,215.683,216.859,1.25441,1.62436,214.734,215.867
2015-10-30 22:00,-0.0,262.475,254.69,242.942,255.049,251.75,239.765,-0.0,-0.0,226.871,241.221
2015-10-30 23:00,-0.00731374,244.063,232.56,231.45,230.574,225.874,221.046,-0.00619253,-0.00738365,221.484,228.423
2015-10-31 00:00,-0.00224615,225.382,213.031,223.283,211.428,207.274,208.096,-0.0,-0.0,211.8,213.668
2015-10-31 01:00,-0.0,227.984,218.082,224.708,217.072,214.697,214.265,-0.0,-0.0,214.145,217.164
2015-10-31 02:00,-0.0,237.078,222.198,226.866,218.13,214.697,212.619,-0.0,-0.0,211.8,216.392
2015-10-31 03:00,-0.0,227.984,216.058,224.102,214.141,213.016,213.447,-0.0,-0.0,211.8,214.233
2015-10-31 04:00,-0.0,227.984,216.058,224.507,214.517,212.673,213.241,-0.0,-0.0,211.8,214.787
2015-10-31 05:00,-0.0,233.989,216.88,224.708,213.381,211.284,212.619,-0.0,-0.0,209.023,212.505
2015-10-31 06:00,-0.0,218.393,207.178,221.17,204.584,203.351,206.286,-0.0,-0.0,203.192,204.328
2015-10-31 07:00,-0.0,213.142,208.734,221.17,207.269,205.349,209.42,-0.0,-0.0,207.891,208.027
2015-10-31 08:00,-0.0,213.142,209.237,221.386,207.702,206.513,208.096,-0.0,-0.0,208.084,209.379
2015-10-31 09:00,1.98679,227.984,209.734,221.386,208.977,207.274,208.761,2.69154,3.40984,209.023,209.707
2015-10-31 10:00,0.415197,253.81,214.358,223.076,211.428,209.859,210.504,0.589951,0.688973,209.748,210.984
2015-10-31 11:00,0.33645,244.063,206.1,219.855,205.043,204.159,207.423,0.714273,0.806707,206.292,205.868
2015-10-31 12:00,0.295233,245.913,200.125,217.342,199.715,199.102,202.255,0.724922,0.808256,201.72,200.041
2015-10-31 13:00,0.255388,249.156,210.707,221.814,209.808,208.397,208.982,0.723562,0.784823,211.135,210.67
2015-10-31 14:00,0.219773,245.913,210.224,221.386,209.394,208.397,209.856,0.694915,0.762144,209.206,209.379
2015-10-31 15:00,0.224132,250.598,214.358,223.489,212.609,211.983,212.827,0.646225,0.714552,212.126,213.382
2015-10-31 16:00,0.236622,249.89,214.79,223.694,213.381,212.329,212.827,0.59497,0.661153,211.47,213.092
2015-10-31 17:00,0.293537,255.521,218.862,225.504,217.427,216.008,216.466,0.577,0.64621,214.145,217.164
2015-10-31 18:00,0.380841,267.444,240.514,235.173,238.693,236.157,229.781,0.53487,0.607237,220.801,230.694
2015-10-31 19:00,0.555452,287.155,255.409,242.799,253.867,250.757,239.765,0.545083,0.640022,223.952,237.888
2015-10-31 20:00,0.791778,273.831,240.277,235.01,239.911,237.581,232.066,0.908531,1.07094,224.054,233.304
2015-10-31 21:00,1.09465,273.088,254.871,242.942,255.827,254.472,244.512,0.980184,1.24028,229.178,242.105
2015-10-31 22:00,-0.0129444,284.087,279.945,256.32,281.366,278.004,256.16,-0.0,-0.0,229.433,247.59
2015-10-31 23:00,-0.0073619,279.081,274.655,253.02,275.703,273.675,255.658,-0.00623331,-0.0111484,229.685,248.025
