# timestamp,IR_016,IR_039,IR_087,IR_097,IR_108,IR_120,IR_134,VIS006,VIS008,WV_062,WV_073
2015-09-01 00:00,-0.00200952,290.813,291.694,264.645,294.405,293.35,266.222,-0.0,-0.0,244.842,264.914
2015-09-01 01:00,-0.0,289.647,290.965,264.236,293.377,292.545,265.532,-0.0,-0.0,245.304,265.212
2015-09-01 02:00,-0.0,288.977,290.229,263.721,292.73,291.735,265.993,-0.0,-0.0,245.709,265.655
2015-09-01 03:00,-0.0,288.291,289.699,263.618,292.079,291.329,265.416,-0.0,-0.0,245.859,265.212
2015-09-01 04:00,-0.0,287.871,289.058,262.995,291.555,290.648,264.953,-0.0,-0.0,245.557,264.914
2015-09-01 05:00,-0.0,287.871,288.736,263.099,291.423,290.648,265.069,-0.0,-0.0,245.759,264.69
2015-09-01 06:00,-0.00151276,287.729,288.736,262.995,291.292,290.784,265.069,-0.0,0.00152722,245.507,264.615
2015-09-01 07:00,0.00191936,287.587,288.736,263.099,291.029,290.648,264.488,-0.0,-0.0,244.739,264.615
2015-09-01 08:00,0.00287295,287.01,288.52,262.681,291.029,290.375,265.185,-0.0,-0.0,244.479,264.765
2015-09-01 09:00,-0.0,286.421,287.869,262.366,290.367,290.101,264.488,-0.0,-0.00655438,244.426,264.389
2015-09-01 10:00,0.584474,287.155,288.628,262.366,291.029,290.511,265.416,0.494873,0.653283,244.635,264.54
2015-09-01 11:00,0.610739,293.93,292.52,264.95,295.297,294.282,265.878,0.263762,0.537954,244.479,265.063
2015-09-01 12:00,0.53471,300.769,297.397,267.642,300.384,298.463,267.932,0.207253,0.446252,244.374,265.286
2015-09-01 13:00,0.407896,305.106,301.268,270.711,304.559,302.018,268.497,0.152499,0.335141,244.687,265.434
2015-09-01 14:00,0.334009,307.571,303.723,272.292,306.997,304.134,269.953,0.118677,0.267955,244.687,265.581
2015-09-01 15:00,0.284874,308.7,304.793,272.934,307.913,305.119,269.73,0.0990443,0.227855,245.048,265.728
2015-09-01 16:00,0.255991,308.7,304.793,273.116,308.141,305.119,270.064,0.0869306,0.204539,245.048,265.434
2015-09-01 17:00,0.234621,307.427,304.26,272.934,307.799,305.119,269.841,0.0831861,0.190972,245.405,265.507
2015-09-01 18:00,0.227617,305.722,303.003,272.015,306.421,304.01,269.506,0.0912899,0.195238,245.809,265.581
2015-09-01 19:00,0.227353,302.68,300.99,271.086,304.324,301.767,269.395,0.127697,0.220436,246.059,265.581
2015-09-01 20:00,0.243281,299.203,298.549,269.384,301.712,299.87,268.497,0.21847,0.286541,246.258,265.728
2015-09-01 21:00,0.310674,295.26,295.639,267.74,298.672,297.43,267.478,0.482253,0.509671,246.652,265.875
2015-09-01 22:00,-0.0,292.294,293.539,266.458,296.433,295.865,267.478,-0.0,-0.0,246.798,266.456
2015-09-01 23:00,-0.174661,291.686,292.622,265.557,295.424,295.076,266.795,-0.0765832,-0.138545,246.75,266.384
2015-09-02 00:00,-0.0,290.171,291.902,265.153,294.661,294.149,266.566,-0.0,-0.0,246.944,266.601
2015-09-02 01:00,-0.00155526,289.247,291.174,264.339,293.764,293.35,266.795,-0.0,-0.0,247.474,266.96
2015-09-02 02:00,-0.0,288.977,290.651,264.236,293.377,292.948,266.566,-0.0,-0.0,247.234,267.317
2015-09-02 03:00,-0.0,288.291,290.335,263.721,292.6,292.545,265.993,-0.0,-0.0,247.665,267.388
2015-09-02 04:00,-0.00123996,287.3,289.805,263.307,292.209,292.276,266.222,-0.0,-0.0,247.807,267.671
2015-09-02 05:00,-0.00131994,287.3,289.272,262.995,291.817,292.006,266.452,-0.0,-0.0,247.665,267.53
2015-09-02 06:00,0.00151604,286.569,288.951,262.576,291.292,291.193,265.762,-0.0,-0.0,247.665,267.6
2015-09-02 07:00,-0.0,286.421,288.951,262.786,291.16,291.464,265.878,-0.0,-0.0,247.474,267.53
2015-09-02 08:00,-0.0,285.512,287.869,262.155,290.367,290.648,265.647,-0.0,-0.0,247.379,267.953
2015-09-02 09:00,-0.0,285.202,287.432,261.519,289.701,289.826,265.762,-0.0,-0.0,247.234,267.742
2015-09-02 10:00,0.571145,285.818,287.76,261.731,290.101,290.648,265.532,0.483587,0.636253,247.283,267.53
2015-09-02 11:00,0.607197,293.356,292.005,264.339,294.788,294.547,267.023,0.260484,0.531268,247.57,267.671
2015-09-02 12:00,0.533067,299.672,297.3,267.642,300.263,299.232,268.722,0.205703,0.445294,247.522,267.6
2015-09-02 13:00,0.405627,303.917,300.898,270.239,304.442,302.644,269.506,0.15165,0.335049,247.57,267.246
2015-09-02 14:00,0.320618,306.251,302.912,271.366,306.421,303.887,269.395,0.116881,0.262243,247.712,266.96
2015-09-02 15:00,0.282389,308.14,304.349,272.015,307.913,305.241,270.175,0.100978,0.226964,247.712,266.601
2015-09-02 16:00,0.24964,308.211,304.438,272.108,308.027,305.119,270.175,0.091247,0.203825,247.996,266.239
2015-09-02 17:00,0.233865,307.355,303.902,272.015,307.456,304.996,269.841,0.0903434,0.197734,248.137,266.384
2015-09-02 18:00,0.223502,305.569,302.731,271.086,306.19,303.887,270.175,0.102564,0.204969,247.996,266.021
2015-09-02 19:00,0.233368,303.098,300.712,269.86,304.089,302.018,268.834,0.144394,0.231068,248.137,265.728
2015-09-02 20:00,0.257064,299.765,298.453,268.421,301.472,299.616,268.271,0.24564,0.311426,248.277,265.875
2015-09-02 21:00,0.43636,295.583,294.945,266.358,297.931,296.65,267.478,0.543331,0.583056,248.324,266.094
2015-09-02 22:00,-0.00804772,292.414,293.235,265.052,295.93,295.076,267.023,-0.0,-0.0,248.417,266.021
2015-09-02 23:00,-0.159159,291.19,292.005,264.543,294.661,293.883,266.108,-0.0792705,-0.148078,248.417,266.021
2015-09-03 00:00,-0.0020102,289.247,290.651,263.928,293.377,292.545,265.993,-0.0,-0.0,248.603,266.094
2015-09-03 01:00,-0.0015555,288.568,289.699,263.411,292.209,291.6,266.108,-0.0,-0.0,248.925,266.166
2015-09-03 03:00,-0.00249228,287.587,289.272,262.89,291.555,290.921,265.532,-0.0,-0.0,249.062,265.801
2015-09-03 04:00,-0.0,286.864,288.52,262.576,291.16,290.511,265.416,-0.0,-0.0,249.017,265.655
2015-09-03 05:00,0.00132182,286.569,288.195,262.471,290.764,290.375,264.837,-0.0,-0.0,248.51,265.507
2015-09-03 06:00,-0.0,286.864,288.195,261.944,290.764,290.375,264.953,-0.0,-0.0,247.949,265.137
2015-09-03 07:00,0.00193316,286.569,287.869,261.838,290.632,290.101,264.605,-0.0,-0.0,247.138,265.063
2015-09-03 08:00,-0.0,285.97,287.76,261.731,290.101,289.964,264.721,-0.0,-0.00293843,246.009,264.162
2015-09-03 09:00,-0.00671926,285.97,287.432,260.876,289.701,289.276,264.372,-0.0,-0.0,245.608,263.552
2015-09-03 10:00,0.521654,286.717,287.76,260.876,290.367,289.826,264.488,0.457458,0.583067,245.048,263.322
2015-09-03 11:00,0.599686,293.472,291.487,263.515,294.277,292.948,265.647,0.270802,0.50048,244.842,263.399
2015-09-03 12:00,0.522065,300.042,296.229,266.557,299.287,297.17,266.566,0.212096,0.423063,245.355,263.629
2015-09-03 13:00,0.399885,304.478,299.966,268.518,303.263,300.506,267.705,0.158202,0.322613,245.405,263.858
2015-09-03 14:00,0.33099,307.571,302.731,274.022,305.958,295.865,268.609,0.122609,0.261058,245.658,264.162
2015-09-03 15:00,0.284023,308.351,303.364,270.805,306.536,303.142,268.045,0.106367,0.226082,246.208,264.086
2015-09-03 16:00,0.259651,308.7,303.274,270.617,306.536,303.142,268.271,0.0966862,0.203119,246.505,264.162
2015-09-03 17:00,0.23749,307.283,302.731,270.617,306.074,302.519,268.158,0.0949898,0.192691,245.91,263.244
2015-09-03 18:00,0.236428,305.493,301.36,269.575,304.793,301.264,267.251,0.110893,0.207779,245.405,263.012
2015-09-03 19:00,0.237118,303.015,299.778,269.096,303.025,300.125,267.023,0.143946,0.223576,245.809,263.167
2015-09-03 20:00,0.263444,299.95,297.3,267.348,300.263,297.559,267.023,0.250939,0.295513,245.91,262.623
2015-09-03 21:00,0.42,295.26,293.944,264.95,296.809,294.944,265.647,0.549585,0.578203,245.608,262.309
2015-09-03 22:00,-0.0,289.779,289.911,262.995,292.6,290.784,263.905,-0.0,-0.0,245.809,262.072
2015-09-03 23:00,-0.212338,288.705,288.412,261.838,291.292,288.861,262.255,-0.0951811,-0.157624,244.894,261.355
2015-09-04 00:00,-0.0,287.155,287.76,261.625,290.101,287.888,262.728,-0.0,-0.0,243.899,260.381
2015-09-04 01:00,-0.0,285.357,286.105,260.984,288.763,286.626,262.373,-0.0,-0.0,243.093,260.052
2015-09-04 02:00,-0.0,281.526,281.505,258.58,284.22,281.735,259.735,-0.0,-0.0,242.929,259.22
2015-09-04 03:00,-0.00124685,278.279,277.977,256.549,280.931,278.609,258.27,-0.0,-0.0,241.874,257.942
2015-09-04 04:00,-0.00124223,282.059,282.331,259.134,284.921,282.904,260.34,-0.0,-0.0,241.93,258.372
2015-09-04 05:00,0.00132378,283.428,283.611,259.683,286.31,284.636,261.66,-0.0,-0.0,240.957,258.028
2015-09-04 06:00,-0.0,284.087,284.642,259.793,287.27,286.202,262.61,-0.0,-0.0,241.419,258.798
2015-09-04 07:00,-0.00194037,284.087,284.982,260.119,287.679,286.626,262.728,-0.0,-0.0,240.724,258.372
2015-09-04 08:00,-0.0,282.923,283.841,259.354,286.172,285.208,262.492,-0.0,-0.0,240.253,258.028
2015-09-04 09:00,-0.00684134,283.093,283.611,259.134,286.722,285.208,261.54,-0.0,-0.0,239.471,257.769
2015-09-04 10:00,0.317992,286.121,286.772,260.553,289.434,288.722,263.083,0.388907,0.410208,238.733,257.855
2015-09-04 11:00,0.596256,293.007,290.229,262.681,293.248,291.735,264.138,0.270813,0.506281,237.721,257.07
2015-09-04 12:00,0.539094,299.485,294.245,264.849,297.434,294.016,264.721,0.226258,0.441028,236.742,256.805
2015-09-04 13:00,0.409831,303.098,295.935,266.059,299.164,295.076,264.372,0.176442,0.32609,237.398,256.001
2015-09-04 14:00,0.32803,306.697,300.712,268.711,304.324,300.759,266.681,0.124548,0.261369,234.686,254.722
2015-09-04 15:00,0.285649,308.769,302.094,269.67,305.726,301.264,267.251,0.104805,0.222464,233.456,253.595
2015-09-04 16:00,0.275017,308.14,299.59,268.324,302.788,297.947,265.185,0.112413,0.22157,232.02,252.537
2015-09-04 17:00,0.275956,306.697,297.204,266.954,300.869,296.389,264.255,0.141421,0.240471,231.473,252.047
2015-09-04 18:00,0.334074,302.596,287.76,261.944,290.101,287.048,261.421,0.257014,0.309875,231.156,251.152
2015-09-04 19:00,0.31222,303.181,293.742,264.849,296.809,292.545,263.318,0.262468,0.328713,231.709,251.751
2015-09-04 20:00,0.357292,300.134,291.902,263.618,294.405,290.648,262.255,0.373518,0.404876,233.823,252.342
2015-09-04 21:00,0.542832,280.05,274.655,253.621,276.923,275.085,256.285,0.609257,0.675468,233.085,251.051
2015-09-04 22:00,-0.00809673,279.859,277.601,255.51,280.201,278.911,256.909,-0.0,-0.0,233.234,251.352
2015-09-04 23:00,-0.18747,290.685,289.058,261.944,292.079,289.551,262.61,-0.0952384,-0.164027,233.456,252.439
2015-09-05 00:00,0.00201105,290.171,288.951,261.519,291.686,289.413,262.728,-0.0,-0.0,234.041,252.537
2015-09-05 01:00,-0.0,289.779,288.628,261.625,291.817,289.413,262.847,-0.0,-0.00157098,234.401,252.925
2015-09-05 02:00,-0.0,288.152,287.651,260.984,290.632,288.722,262.492,-0.0,-0.0,236.004,253.405
2015-09-05 03:00,-0.0,287.444,287.212,260.769,290.234,288.445,262.492,-0.0,-0.0,236.139,253.021
2015-09-05 04:00,-0.00124346,287.587,287.102,260.769,290.234,288.306,262.61,-0.0,-0.0,236.408,253.021
2015-09-05 05:00,0.00132582,286.569,286.105,260.337,288.897,286.626,261.54,-0.0,-0.0,236.274,252.439
2015-09-05 06:00,-0.0,279.473,279.213,256.664,281.366,279.061,258.023,-0.0,-0.0,236.139,251.652
2015-09-05 07:00,-0.0,280.613,279.702,256.892,282.231,280.257,258.638,-0.0,-0.0,235.455,251.552
2015-09-05 08:00,-0.00295067,280.05,279.213,256.549,281.943,279.511,258.147,-0.0,-0.0,235.317,251.652
2015-09-05 09:00,-0.0,285.512,284.982,259.683,288.358,286.485,261.301,-0.0,-0.0,235.317,251.552
2015-09-05 10:00,0.33578,286.121,285.882,260.119,289.166,287.609,261.421,0.426457,0.440687,235.317,251.352
2015-09-05 11:00,0.499253,291.065,287.322,260.876,290.764,287.748,261.062,0.260895,0.405583,235.178,251.051
2015-09-05 12:00,0.507421,297.248,291.279,263.307,294.277,291.057,262.728,0.207005,0.393518,235.662,251.051
2015-09-05 13:00,0.369582,300.408,293.235,264.236,295.93,291.6,262.255,0.156462,0.2964,236.341,251.051
2015-09-05 14:00,0.322171,303.998,294.746,265.254,297.309,292.276,262.255,0.136391,0.255765,236.609,251.652
2015-09-05 15:00,0.27236,305.798,297.107,266.855,299.531,294.282,262.965,0.112435,0.214773,237.072,251.949
2015-09-05 16:00,0.25518,305.722,296.033,266.059,298.055,292.814,262.373,0.116604,0.203097,237.203,251.652
2015-09-05 17:00,0.377896,300.947,283.726,258.691,286.585,282.028,257.406,0.295446,0.393202,236.341,251.051
2015-09-05 18:00,0.28236,303.998,292.314,264.133,295.297,289.689,260.581,0.193263,0.26799,236.94,251.552
2015-09-05 19:00,0.491384,302.171,279.213,257.12,281.366,277.548,256.285,0.444293,0.491592,238.104,251.751
2015-09-05 20:00,0.58492,281.526,263.088,247.332,265.826,265.48,251.814,0.67674,0.722551,238.919,251.352
2015-09-05 21:00,1.2524,297.146,286.439,260.445,288.897,284.492,259.005,1.10282,1.39081,239.043,253.405
2015-09-05 22:00,-0.00812104,290.939,288.303,261.731,290.764,287.329,261.421,-0.0,-0.0,239.593,253.88
2015-09-05 23:00,-0.218849,265.791,267.909,250.303,271.142,270.96,255.406,-0.103238,-0.170441,240.074,253.785
2015-09-06 00:00,0.00201154,290.041,287.76,261.519,290.101,287.469,261.301,-0.0,-0.0,239.471,254.536
2015-09-06 01:00,-0.00155648,288.291,287.212,260.984,289.701,287.188,261.421,-0.0,-0.0,239.41,254.443
2015-09-06 02:00,-0.0,287.729,286.55,260.984,289.166,286.907,261.66,-0.0,-0.0,238.733,253.595
2015-09-06 03:00,-0.0,282.234,281.029,257.459,283.797,280.85,258.392,-0.0,-0.0,237.721,253.117
2015-09-06 04:00,-0.0,284.41,282.916,259.024,285.895,283.049,259.005,-0.0,-0.0,237.463,252.439
2015-09-06 05:00,-0.0,274.314,272.256,253.261,276.315,274.304,255.532,-0.0,-0.0,237.268,252.146
2015-09-06 06:00,-0.0,286.121,285.208,260.119,287.951,285.208,260.581,-0.0,-0.0,236.874,252.439
2015-09-06 07:00,-0.00195546,285.512,284.982,260.119,287.679,285.208,261.182,-0.0,-0.0,237.463,252.731
2015-09-06 08:00,-0.00297162,285.202,285.095,259.793,287.679,285.635,261.182,-0.0,-0.0,236.274,252.244
2015-09-06 09:00,-0.0,276.594,275.694,254.572,278.278,275.861,256.535,-0.0,-0.0,236.139,252.047
2015-09-06 10:00,0.207846,285.97,284.869,259.902,288.087,286.343,260.461,0.406114,0.371242,235.593,251.949
2015-09-06 11:00,0.566392,291.686,287.212,261.305,290.234,287.888,261.421,0.274036,0.420103,234.472,251.751
2015-09-06 12:00,0.505965,297.045,290.86,263.307,293.764,290.511,262.847,0.211292,0.3675,233.75,251.352
2015-09-06 13:00,0.39504,300.947,292.929,264.441,295.297,290.921,262.017,0.175966,0.294778,233.01,251.552
2015-09-06 14:00,0.330945,304.319,296.229,266.657,298.918,294.282,263.553,0.141957,0.251686,233.01,251.051
2015-09-06 15:00,0.407664,301.565,264.175,248.252,263.04,258.04,246.319,0.284593,0.355687,232.557,244.998
2015-09-06 16:00,0.336404,301.999,279.823,256.892,279.318,270.473,247.551,0.232424,0.308375,231.865,245.918
2015-09-06 17:00,0.277137,301.913,283.264,258.802,283.088,275.396,253.24,0.189432,0.244813,233.01,246.707
2015-09-06 18:00,0.473721,298.63,268.343,250.806,267.185,264.106,249.572,0.372551,0.440807,233.159,245.804
2015-09-06 19:00,0.552008,306.845,281.386,257.685,284.079,278.307,255.153,0.433598,0.530428,233.234,248.455
2015-09-06 20:00,0.300504,299.485,290.965,263.825,293.377,289.137,261.301,0.321877,0.332618,233.603,249.721
2015-09-06 21:00,0.422522,291.686,286.328,260.984,287.951,284.349,259.735,0.462969,0.476745,233.823,249.408
2015-09-06 22:00,0.0081453,270.713,265.995,249.924,267.354,263.586,250.104,-0.0,-0.0,234.041,247.699
2015-09-06 23:00,-0.184575,256.589,255.587,243.65,258.678,258.224,247.415,-0.0927081,-0.170548,235.178,247.151
2015-09-07 00:00,-0.0,271.261,265.846,249.669,270.169,266.16,250.501,-0.0,-0.0,236.742,249.093
2015-09-07 01:00,-0.0,288.152,286.439,260.984,289.166,286.343,260.942,-0.0,-0.0,236.675,250.748
2015-09-07 02:00,-0.00134083,278.482,273.199,253.741,274.778,267.506,251.291,-0.0,-0.0,236.341,246.707
2015-09-07 03:00,-0.0,285.97,284.071,259.574,286.31,282.175,259.005,-0.0,-0.0,236.542,249.617
2015-09-07 04:00,-0.00124611,272.58,269.908,251.056,271.142,269.0,252.464,-0.0,-0.0,238.104,250.032
2015-09-07 05:00,0.00133014,280.05,277.476,255.858,280.493,276.631,256.285,-0.0,-0.0,239.043,251.352
2015-09-07 06:00,-0.0,273.586,269.343,250.931,271.945,268.339,252.335,-0.0,-0.0,239.653,250.544
2015-09-07 07:00,-0.0,259.505,259.373,245.451,261.971,261.121,249.171,-0.0,-0.0,240.253,250.646
2015-09-07 08:00,-0.0,264.009,261.662,246.265,264.095,262.008,248.634,-0.0,-0.0,241.533,250.95
2015-09-07 09:00,-0.0144924,286.121,285.321,259.793,287.679,285.065,260.461,-0.0,-0.0,242.489,254.722
2015-09-07 10:00,0.503399,286.864,286.105,260.228,288.628,286.485,261.182,0.413311,0.43121,241.76,255.73
2015-09-07 11:00,0.563362,292.889,288.52,261.519,290.764,287.888,260.942,0.26106,0.380446,243.686,257.158
2015-09-07 12:00,0.499976,299.013,291.591,263.515,293.764,289.964,262.492,0.205892,0.339563,243.74,257.07
2015-09-07 13:00,0.389473,302.848,294.145,265.355,295.93,290.921,262.61,0.164883,0.279376,244.111,257.158
2015-09-07 14:00,0.310616,302.426,288.52,262.366,289.434,285.208,260.098,0.207695,0.266694,244.217,257.246
2015-09-07 15:00,0.348304,304.239,286.882,261.198,288.493,283.773,259.127,0.203817,0.272889,244.687,257.682
2015-09-07 16:00,0.256157,305.028,295.144,266.059,296.433,291.193,262.255,0.136265,0.204448,244.479,257.769
2015-09-07 17:00,0.28349,302.68,291.487,264.031,292.73,288.445,262.136,0.201041,0.254239,244.945,258.114
2015-09-07 18:00,0.268958,299.672,288.52,262.155,290.632,286.202,261.062,0.244806,0.295288,245.202,258.543
2015-09-07 19:00,0.302835,300.858,292.314,264.339,294.533,290.648,262.728,0.31443,0.343668,245.759,259.887
2015-09-07 20:00,0.0469079,290.813,288.52,262.576,289.166,286.767,262.255,0.128316,0.109284,244.997,257.508
2015-09-07 21:00,0.357659,291.686,288.843,262.366,290.632,287.888,262.61,0.78318,0.784412,247.09,260.545
2015-09-07 22:00,-0.0,290.429,288.736,262.366,290.632,288.306,263.083,-0.0,-0.0,248.277,262.151
2015-09-07 23:00,-0.162782,290.301,288.412,262.261,290.367,287.748,262.492,-0.0848167,-0.161178,247.712,260.463
2015-09-08 00:00,-0.00201269,289.91,288.628,262.366,290.5,288.306,262.728,-0.0,-0.0,247.283,260.545
2015-09-08 01:00,-0.00155739,288.291,287.322,261.519,289.434,286.767,262.017,-0.0,-0.0,246.993,260.871
2015-09-08 02:00,0.00134146,277.451,277.977,256.778,281.366,279.959,259.856,-0.0,-0.0,247.379,260.052
2015-09-08 03:00,-0.00125023,225.382,227.219,228.378,226.82,226.701,224.834,-0.0,0.00126218,223.434,224.61
2015-09-08 04:00,-0.0,286.121,285.208,260.553,287.543,285.493,261.182,-0.0,-0.0,246.009,258.628
2015-09-08 05:00,0.00133242,286.717,286.217,260.876,288.763,286.626,262.136,-0.0,-0.0,246.701,259.135
2015-09-08 06:00,-0.0,277.026,272.527,252.412,271.464,269.494,253.753,-0.0,-0.0,236.139,247.699
2015-09-08 07:00,-0.0,256.589,259.706,245.723,261.069,260.584,250.104,-0.0,-0.0,241.986,251.751
2015-09-08 08:00,-0.00301544,276.811,275.694,254.336,278.278,276.015,256.909,-0.0,-0.0,240.548,255.275
2015-09-08 09:00,-0.00739542,279.667,279.58,257.346,282.087,280.406,259.492,-0.0,-0.0,247.186,259.554
2015-09-08 10:00,0.699864,287.3,284.3,260.011,286.31,283.917,260.942,0.518502,0.632955,247.138,260.381
2015-09-08 11:00,1.0192,291.686,271.711,251.922,274.0,273.359,255.909,0.824746,0.964401,243.953,258.2
2015-09-08 12:00,0.715157,298.045,274.524,254.454,277.828,276.631,257.777,0.546307,0.640001,245.608,259.304
2015-09-08 13:00,0.598038,301.125,275.046,254.69,277.828,276.015,257.282,0.461764,0.545438,246.896,259.051
2015-09-08 14:00,0.41764,290.429,272.662,252.412,273.057,271.605,255.28,0.395217,0.459565,246.75,257.508
2015-09-08 15:00,0.285374,300.769,290.756,263.203,291.423,286.907,260.822,0.133859,0.233999,246.896,259.804
2015-09-08 16:00,0.364925,301.478,282.448,258.691,283.938,280.702,258.76,0.268237,0.337375,247.041,258.967
2015-09-08 17:00,0.289813,301.478,290.335,262.681,291.16,286.767,260.942,0.172498,0.262167,247.57,260.381
2015-09-08 18:00,0.248081,300.858,293.031,264.95,294.021,289.689,262.847,0.156118,0.225069,248.787,261.515
2015-09-08 19:00,0.434223,302.256,287.76,261.625,289.3,285.919,261.062,0.356458,0.427248,249.786,262.23
2015-09-08 20:00,0.762423,298.726,279.336,256.664,280.785,278.458,257.9,0.709487,0.806018,248.971,260.463
2015-09-08 21:00,0.22035,292.653,288.628,262.155,289.166,285.493,260.581,0.29022,0.308968,235.038,255.821
2015-09-08 22:00,-0.00819396,240.898,233.392,231.799,231.957,229.647,226.574,-0.0,-0.0,221.708,228.06
2015-09-08 23:00,-0.172289,232.213,222.198,226.092,222.162,221.283,218.982,-0.0901783,-0.161286,218.137,220.535
2015-09-09 00:00,-0.00201336,225.382,223.94,227.248,224.072,223.043,221.965,-0.0,-0.0,220.57,222.956
2015-09-09 01:00,-0.00155793,227.984,225.611,227.438,225.003,223.332,221.415,-0.0,-0.0,220.57,223.586
2015-09-09 02:00,0.00134215,218.393,217.685,224.102,218.13,217.607,218.025,-0.0,-0.0,216.15,216.909
2015-09-09 03:00,-0.0,262.074,259.373,245.995,261.25,259.684,247.687,-0.0,-0.0,232.784,246.258
2015-09-09 04:00,-0.0,222.276,221.841,226.092,221.838,220.685,219.927,-0.0,-0.0,218.137,219.608
2015-09-09 05:00,-0.0,227.984,220.379,225.897,219.508,217.607,216.859,-0.0,-0.0,216.695,219.134
2015-09-09 06:00,-0.00154226,253.81,251.721,242.081,254.657,253.316,242.956,-0.0,-0.0,234.756,246.145
2015-09-09 07:00,-0.00197971,261.251,263.401,247.991,266.167,265.82,251.422,-0.0,-0.0,237.913,251.552
2015-09-09 08:00,-0.0,255.521,256.819,244.349,259.236,258.591,247.823,-0.0,-0.0,237.528,248.025
2015-09-09 09:00,-0.0,253.206,253.779,242.225,255.633,254.855,244.792,-0.0,-0.0,238.041,247.261
2015-09-09 10:00,0.711934,262.869,252.29,241.5,254.854,254.089,244.372,0.803725,0.930134,237.006,246.483
2015-09-09 11:00,0.594593,269.576,253.04,242.081,254.854,253.896,244.792,0.796066,0.892913,235.455,245.804
2015-09-09 12:00,0.67861,287.155,252.666,242.225,254.854,254.281,245.072,0.773689,0.86598,235.386,245.69
2015-09-09 13:00,0.378524,283.261,253.04,242.369,254.461,253.51,245.489,0.682484,0.747225,235.386,245.804
2015-09-09 14:00,0.391366,280.613,252.101,241.791,253.669,252.927,243.383,0.722432,0.788761,236.475,245.345
2015-09-09 15:00,0.501898,296.008,256.819,245.04,259.791,258.774,247.551,0.582055,0.623937,236.341,248.133
2015-09-09 17:00,0.479209,285.512,259.54,246.399,262.685,262.361,249.971,0.603167,0.66142,238.981,251.552
2015-09-09 18:00,0.606771,288.012,259.54,245.995,261.971,261.654,249.971,0.687833,0.764448,237.006,251.352
2015-09-09 19:00,0.872608,304.398,254.509,243.368,257.739,256.367,244.932,0.87097,0.965272,236.341,247.481
2015-09-09 20:00,1.17576,292.414,259.706,246.265,262.507,262.008,250.369,1.1412,1.31004,236.408,250.032
2015-09-09 21:00,0.413192,262.074,256.469,244.07,257.928,257.301,247.006,0.555642,0.65025,235.038,248.133
2015-09-09 22:00,-0.00821848,248.394,249.781,239.721,249.368,249.348,242.384,-0.0,-0.0,229.517,241.221
2015-09-09 23:00,-0.150466,256.062,255.409,243.084,257.55,256.742,246.594,-0.0769706,-0.136081,232.251,247.371
2015-09-10 00:00,-0.00201409,254.396,255.23,243.084,257.55,257.486,247.142,-0.0,-0.0,235.731,248.669
2015-09-10 01:00,-0.00155853,260.827,263.245,247.991,265.997,265.48,252.594,-0.0,-0.0,236.408,252.342
2015-09-10 02:00,-0.00134289,257.103,257.511,244.626,260.524,259.502,248.094,-0.0,-0.0,235.593,248.455
2015-09-10 03:00,-0.00125226,249.156,250.175,240.617,252.059,251.354,242.671,-0.0,-0.0,236.874,245.114
2015-09-10 04:00,-0.0,222.276,215.218,223.283,214.89,214.364,215.074,-0.0,-0.0,213.541,214.511
2015-09-10 05:00,-0.0,218.393,215.218,223.283,215.628,215.356,215.873,-0.0,-0.0,213.845,213.952
2015-09-10 06:00,0.00154649,244.063,244.815,237.884,246.794,245.612,238.278,-0.0,-0.0,233.308,240.706
2015-09-10 07:00,-0.00198824,258.576,257.854,244.903,260.158,259.502,247.823,-0.0,-0.0,237.785,249.928
2015-09-10 08:00,-0.0,258.096,256.644,243.93,259.236,258.04,247.279,-0.0,-0.0,238.608,249.513
2015-09-10 09:00,-0.0,264.009,265.995,249.669,269.186,268.835,252.982,-0.0,-0.0,239.894,254.722
2015-09-10 10:00,0.923626,273.338,263.867,248.512,266.847,266.667,252.853,0.838702,1.02705,241.246,253.974
2015-09-10 11:00,0.925451,291.19,267.033,250.177,270.006,269.494,254.264,0.708951,0.823072,242.042,255.821
2015-09-10 12:00,0.531412,296.114,277.852,256.434,280.347,277.396,257.406,0.368993,0.457926,241.246,255.73
2015-09-10 13:00,0.363057,296.943,284.071,260.011,286.172,282.028,258.515,0.216318,0.30544,239.894,255.275
2015-09-10 14:00,0.46561,302.085,276.971,256.549,279.17,276.323,258.27,0.33358,0.403529,242.378,257.333
2015-09-10 15:00,0.484103,299.858,266.886,250.429,270.169,270.148,254.519,0.363721,0.426968,243.039,257.769
2015-09-10 16:00,0.362567,287.587,255.764,243.65,254.263,249.55,237.676,0.314856,0.372737,231.473,243.698
2015-09-10 17:00,0.336606,295.151,278.598,257.006,280.785,278.609,259.005,0.326064,0.364303,244.006,259.387
2015-09-10 18:00,0.308386,286.569,267.909,250.429,270.169,267.84,251.683,0.447415,0.511597,243.793,255.821
2015-09-10 19:00,0.390168,297.045,281.505,259.244,282.946,280.406,259.977,0.397167,0.422665,245.608,260.463
2015-09-10 20:00,0.800386,304.636,281.386,258.802,282.66,279.361,259.127,0.665584,0.76475,245.048,260.381
2015-09-10 21:00,0.361978,275.251,258.703,245.859,255.827,252.144,240.793,0.357567,0.462889,228.048,241.475
2015-09-10 22:00,-0.0,227.984,216.058,223.489,214.517,213.694,214.265,-0.0,-0.0,212.765,213.092
2015-09-10 23:00,-0.15685,230.231,211.654,222.659,211.028,209.497,212.202,-0.0717145,-0.114012,210.102,211.295
2015-09-11 00:00,-0.0,213.142,207.704,221.17,206.392,205.74,208.54,-0.0,-0.0,207.304,207.326
2015-09-11 01:00,-0.00155919,213.142,203.247,219.409,202.217,201.271,204.422,-0.0,-0.0,203.192,203.113
2015-09-11 02:00,-0.0,213.142,203.838,219.409,201.728,201.694,204.422,-0.0,-0.0,203.662,203.524
2015-09-11 03:00,-0.00125337,213.142,204.418,220.077,202.701,202.529,206.743,-0.0,-0.0,203.894,203.929
2015-09-11 04:00,-0.0,218.393,209.237,221.6,207.269,206.128,208.318,-0.0,-0.0,208.084,209.047
2015-09-11 05:00,-0.00133975,213.142,214.79,223.489,213.763,212.329,214.062,-0.0,-0.0,211.964,213.952
2015-09-11 06:00,-0.0,230.231,222.552,227.817,218.824,215.027,214.872,-0.0,-0.0,214.441,218.165
2015-09-11 07:00,-0.0,256.589,247.769,239.871,245.693,241.698,233.661,-0.0,-0.0,222.692,234.389
2015-09-11 08:00,-0.0,235.601,230.85,230.027,230.294,229.385,226.574,-0.0,-0.0,222.692,227.509
2015-09-11 09:00,-0.0,232.213,226.583,228.564,226.522,225.597,223.949,-0.0,-0.0,222.799,225.21
2015-09-11 11:00,0.838426,283.76,243.273,236.943,245.024,244.112,237.373,0.706821,0.85377,231.787,238.85
2015-09-11 12:00,0.662267,296.114,247.973,240.021,250.623,249.55,241.374,0.571955,0.652997,233.01,242.602
2015-09-11 13:00,0.239084,246.775,237.591,234.35,237.2,236.872,233.344,0.54501,0.612708,225.931,232.829
2015-09-11 14:00,0.186875,267.123,254.871,243.084,251.242,250.357,240.793,0.287466,0.328358,225.931,235.74
2015-09-11 15:00,0.225274,247.601,227.219,229.301,227.708,226.426,224.481,0.609243,0.675593,222.906,225.799
2015-09-11 16:00,0.475267,293.472,255.409,244.488,257.17,255.045,244.372,0.468542,0.509214,238.231,247.04
2015-09-11 17:00,0.398214,295.583,259.706,246.13,260.524,258.774,245.905,0.362454,0.410635,237.977,248.241
2015-09-11 18:00,0.621752,295.796,264.482,249.158,266.678,264.795,251.422,0.606669,0.656228,237.333,250.34
2015-09-11 19:00,0.695154,298.533,262.458,248.121,264.095,262.361,249.971,0.657069,0.732696,238.483,250.544
2015-09-11 20:00,0.812116,287.871,260.036,246.533,262.507,262.008,250.236,0.83841,0.938546,238.104,250.442
2015-09-11 21:00,1.71331,276.155,255.05,243.368,256.98,256.367,246.732,1.34921,1.82646,240.074,249.617
2015-09-11 22:00,-0.00826831,256.589,258.534,245.314,260.706,260.764,249.037,-0.0,-0.0,239.954,251.652
2015-09-11 23:00,-0.109879,259.045,258.871,245.723,261.611,261.477,249.572,-0.0531624,-0.0950822,240.253,252.244
2015-09-12 00:00,-0.00201579,260.827,260.528,246.399,263.04,262.888,249.971,-0.0,-0.0,240.548,253.309
2015-09-12 01:00,-0.0,262.074,264.021,248.382,266.847,267.171,253.111,-0.0,-0.0,241.304,256.36
2015-09-12 02:00,-0.0,263.636,266.738,250.303,270.006,269.984,255.153,-0.0,-0.0,241.76,257.246
2015-09-12 03:00,-0.00125453,261.666,264.175,248.771,266.847,266.835,252.853,-0.0,-0.0,241.246,256.271
2015-09-12 04:00,0.00125388,262.869,265.995,249.797,268.69,268.339,253.881,-0.0,-0.0,241.015,256.45
2015-09-12 05:00,0.00134237,279.667,280.909,258.246,284.22,282.613,260.098,-0.0,-0.0,240.014,257.682
2015-09-12 06:00,0.00155529,278.883,280.909,258.469,283.797,282.321,260.34,-0.0,-0.0,240.074,256.805
2015-09-12 07:00,-0.0,277.869,279.945,257.572,282.946,281.146,259.977,-0.0,-0.0,239.41,256.36
2015-09-12 08:00,-0.00311093,279.081,279.58,257.572,281.655,279.81,259.37,-0.0,-0.0,240.193,256.271
2015-09-12 09:00,-0.00807626,268.686,269.059,251.799,271.464,268.505,253.625,-0.0,-0.0,240.253,254.349
2015-09-12 10:00,0.704631,280.982,278.101,256.892,280.639,278.307,258.882,0.732679,0.736328,240.607,256.539
2015-09-12 11:00,0.688816,290.685,273.199,253.86,275.55,272.086,255.153,0.528543,0.608476,240.899,254.999
2015-09-12 12:00,0.545775,295.368,282.214,259.354,285.061,282.904,260.581,0.332197,0.382818,241.131,257.158
2015-09-12 13:00,0.492288,300.317,271.984,253.381,273.686,270.148,253.24,0.37739,0.448302,241.189,255.091
2015-09-12 14:00,0.511379,301.913,264.021,249.158,265.826,263.933,251.159,0.398104,0.468943,241.419,253.213
2015-09-12 15:00,0.554567,289.779,258.365,245.859,261.25,261.299,249.572,0.608181,0.69717,241.419,252.439
2015-09-12 16:00,0.385355,297.146,277.727,256.892,279.466,276.477,257.034,0.316223,0.347737,242.099,256.001
2015-09-12 17:00,0.460901,301.39,276.463,255.858,278.725,275.085,255.784,0.377036,0.410902,242.155,255.639
2015-09-12 18:00,0.56704,301.74,276.591,255.974,279.17,276.784,257.406,0.487131,0.527267,243.147,256.628
2015-09-12 19:00,0.821935,303.674,271.299,252.656,274.156,271.926,255.027,0.802998,0.842999,243.686,255.821
2015-09-12 20:00,1.0049,297.649,268.63,251.552,270.981,268.835,253.111,0.89294,1.0647,243.579,255.275
2015-09-12 21:00,1.68956,280.239,260.201,246.667,263.217,263.063,250.765,1.22906,1.6937,243.256,253.974
2015-09-12 22:00,-0.00829377,272.322,275.565,255.277,278.725,278.004,258.515,-0.0,-0.0,242.489,257.333
2015-09-12 23:00,-0.116251,272.836,272.12,253.86,275.396,272.246,255.153,-0.0478845,-0.0824706,241.361,255.639
2015-09-13 00:00,-0.0,256.589,259.373,246.265,263.217,263.063,251.028,-0.0,-0.0,240.665,253.5
2015-09-13 01:00,-0.00156071,256.062,259.039,245.995,262.507,262.712,251.159,-0.0,-0.0,241.189,253.117
2015-09-13 02:00,-0.00134548,261.666,263.556,248.642,266.678,265.82,253.111,-0.0,-0.0,243.147,255.911
2015-09-13 03:00,-0.0,274.787,275.176,255.16,278.128,275.24,256.785,-0.0,-0.0,242.765,256.45
2015-09-13 04:00,-0.00125563,256.589,258.871,246.13,262.329,261.831,250.765,-0.0,-0.0,242.82,253.974
2015-09-13 05:00,0.00134506,256.589,258.365,245.451,261.611,261.654,250.369,-0.0,-0.0,242.099,253.213
2015-09-13 06:00,-0.0,258.096,257.511,245.314,260.888,260.764,250.104,-0.0,-0.0,241.704,252.047
2015-09-13 07:00,-0.0,263.255,263.401,248.252,265.31,263.412,251.422,-0.0,-0.0,239.593,251.552
2015-09-13 08:00,-0.00313649,280.799,279.213,257.006,282.231,279.661,257.53,-0.0,-0.0,238.608,255.548
2015-09-13 09:00,-0.00827042,258.576,259.039,245.723,262.329,261.299,249.572,-0.0,-0.0,238.357,250.95
2015-09-13 10:00,0.309496,279.667,278.968,257.12,282.374,280.108,258.515,0.393075,0.38456,239.653,256.001
2015-09-13 11:00,1.06041,292.174,264.788,249.286,267.69,266.16,252.335,0.780737,0.880785,238.981,252.342
2015-09-13 13:00,0.590647,298.533,269.059,251.429,271.625,269.657,254.009,0.523915,0.559547,239.653,254.162
2015-09-13 14:00,0.509238,296.427,281.267,258.134,284.641,283.773,261.301,0.413205,0.452699,237.463,256.181
2015-09-13 15:00,0.390771,298.726,282.682,259.574,285.895,284.492,261.421,0.272936,0.328091,237.203,256.36
2015-09-13 16:00,0.280228,299.485,288.843,263.307,290.897,287.888,262.61,0.144812,0.232435,237.398,256.716
2015-09-13 17:00,0.226271,298.533,292.005,265.052,293.635,289.826,262.61,0.105371,0.194169,239.104,257.595
2015-09-13 18:00,0.218284,297.248,291.694,264.645,293.764,290.511,262.728,0.151217,0.22204,238.294,257.855
2015-09-13 19:00,0.223973,295.042,290.86,264.236,292.989,289.826,262.965,0.281694,0.307339,237.977,257.508
2015-09-13 20:00,0.247805,292.174,289.593,263.411,291.686,289.137,262.492,0.47958,0.464609,238.104,257.333
2015-09-13 21:00,0.283609,288.705,287.432,261.838,289.835,287.748,262.61,0.810443,0.847031,237.657,257.158
2015-09-13 22:00,-0.0,286.717,286.439,261.519,289.032,287.188,262.965,-0.00704429,-0.0,240.548,258.882
2015-09-13 23:00,-0.0723248,286.421,285.994,261.305,288.493,287.329,262.373,-0.0319499,-0.0603178,244.945,260.708
2015-09-14 00:00,-0.0,285.202,285.546,260.984,288.087,286.907,261.898,-0.0,-0.0,244.79,260.708
2015-09-14 01:00,-0.0,284.73,285.208,260.876,288.087,286.626,262.136,-0.0,-0.0,240.312,258.286
2015-09-14 02:00,-0.00134647,284.888,285.095,260.984,287.815,286.767,262.255,-0.0,-0.0,239.41,257.595
2015-09-14 03:00,-0.00125706,284.249,284.755,260.876,287.543,286.626,262.373,-0.0,-0.0,239.894,257.682
2015-09-14 04:00,-0.0,283.924,284.414,260.553,287.407,286.202,261.779,-0.0,-0.0,240.074,257.246
2015-09-14 05:00,-0.0,280.982,280.909,258.469,283.372,281.441,259.977,-0.0,-0.0,239.834,256.539
2015-09-14 06:00,-0.00156456,280.799,281.386,258.691,284.22,282.028,259.856,-0.0,-0.0,239.288,256.539
2015-09-14 07:00,-0.0,283.093,284.185,260.011,286.997,286.06,262.61,-0.0,-0.0,239.288,257.158
2015-09-14 08:00,-0.0,283.428,283.841,259.902,286.997,286.202,262.255,-0.0,-0.0,238.857,256.982
2015-09-14 09:00,-0.0,283.093,284.3,259.902,287.134,286.202,262.847,-0.0,-0.0,238.608,257.158
2015-09-14 10:00,0.504978,283.924,284.755,259.902,287.679,286.907,262.255,0.388695,0.486633,239.532,257.595
2015-09-14 11:00,0.585562,290.171,286.992,261.305,289.968,288.584,262.965,0.249382,0.435405,241.015,258.372
2015-09-14 12:00,0.492756,295.151,290.123,263.203,292.989,290.648,264.022,0.193969,0.364373,239.653,257.942
2015-09-14 13:00,0.371982,298.339,292.725,264.747,295.677,292.545,264.837,0.15051,0.289131,240.724,258.713
2015-09-14 14:00,0.305685,301.125,294.746,265.959,297.683,293.883,264.721,0.125237,0.241766,242.266,259.471
2015-09-14 15:00,0.26747,303.098,296.523,267.446,299.654,295.996,265.416,0.108793,0.214433,240.957,259.804
2015-09-14 16:00,0.2374,303.755,297.494,267.935,300.506,296.65,265.647,0.108832,0.199945,241.246,259.97
2015-09-14 17:00,0.221416,303.181,297.3,268.13,300.263,296.258,265.532,0.122992,0.202176,240.899,259.638
2015-09-14 18:00,0.217721,301.826,296.621,267.348,299.654,296.127,265.416,0.166189,0.229794,242.099,260.135
2015-09-14 19:00,0.225565,299.391,295.343,266.954,298.426,295.208,265.069,0.271787,0.299979,242.765,260.217
2015-09-14 20:00,0.264709,296.219,293.235,265.658,296.056,293.35,265.069,0.546874,0.5131,243.147,260.381
2015-09-14 21:00,0.46949,292.414,290.965,264.339,294.021,291.735,264.488,0.884475,0.971656,243.899,260.952
2015-09-14 22:00,-0.0,289.381,289.379,263.307,292.209,290.511,263.787,-0.0,-0.0,243.472,260.627
2015-09-14 23:00,-0.0566524,289.647,289.058,262.89,291.817,289.964,263.905,-0.0239837,-0.0381293,243.74,261.993
2015-09-15 00:00,-0.0,288.977,288.843,262.89,291.555,289.964,264.488,-0.0,-0.0,243.633,262.466
2015-09-15 01:00,-0.00156251,288.152,288.412,262.786,291.16,289.689,264.138,-0.0,-0.0,243.953,262.388
2015-09-15 02:00,0.00134753,287.729,288.195,262.681,291.16,289.964,264.605,-0.0,-0.0,244.322,262.466
2015-09-15 03:00,-0.0,287.155,288.195,262.681,291.029,289.689,264.721,-0.0,-0.0,244.79,262.466
2015-09-15 04:00,-0.00125935,286.864,287.869,262.155,290.764,289.551,264.138,-0.0,-0.0,245.202,262.151
2015-09-15 05:00,-0.00135071,286.717,287.541,262.155,290.5,289.413,263.553,-0.0,-0.0,245.048,261.834
2015-09-15 06:00,-0.0,286.271,287.651,261.944,290.367,288.999,264.022,-0.0,-0.0,244.531,261.515
2015-09-15 07:00,-0.0,286.569,287.651,262.261,290.764,289.826,264.022,-0.0,-0.0,244.842,261.113
2015-09-15 08:00,-0.0,286.271,287.869,262.049,291.029,290.238,264.605,-0.0,-0.0,245.099,260.952
2015-09-15 09:00,-0.00869237,286.271,287.541,262.049,290.5,289.826,263.787,-0.0,-0.0,245.405,260.871
2015-09-15 10:00,0.509604,287.871,288.195,262.366,291.16,290.375,264.255,0.365821,0.469738,246.109,261.275
2015-09-15 11:00,0.589407,293.356,290.651,263.721,293.635,291.735,264.837,0.246589,0.43753,246.208,261.515
2015-09-15 12:00,0.4872,299.203,294.546,266.458,297.184,295.076,265.647,0.188992,0.368351,245.96,261.993
2015-09-15 13:00,0.373357,303.181,297.107,268.13,299.776,296.519,265.993,0.144196,0.286001,246.109,262.23
2015-09-15 14:00,0.307239,305.184,298.167,268.807,300.263,296.127,265.185,0.115221,0.233694,246.059,261.355
2015-09-15 15:00,0.274386,305.874,297.783,268.615,299.654,295.076,264.837,0.113948,0.215012,245.709,261.595
2015-09-15 16:00,0.302067,291.686,277.35,256.549,279.318,277.548,258.023,0.319977,0.380204,245.96,259.304
2015-09-15 17:00,0.2827,293.472,278.968,257.685,281.221,278.156,256.16,0.300096,0.360658,245.658,258.372
2015-09-15 18:00,0.287913,260.395,244.16,237.884,244.349,243.461,236.613,0.675607,0.759052,235.662,238.441
2015-09-15 19:00,0.22932,282.923,272.391,253.501,273.843,271.605,254.009,0.318724,0.384398,244.894,254.999
2015-09-15 20:00,0.0774184,292.889,288.951,263.618,291.16,287.888,261.779,0.151957,0.152764,245.658,258.372
2015-09-15 21:00,0.0582938,287.729,283.495,260.337,284.501,282.321,259.735,0.227044,0.188324,244.479,254.814
2015-09-15 22:00,-0.0,287.729,285.658,261.305,286.31,284.205,260.098,-0.0,-0.0,237.463,251.949
2015-09-15 23:00,-0.040954,290.041,288.736,263.515,291.423,289.276,263.318,-0.0160042,-0.022263,246.505,258.457
2015-09-16 00:00,-0.00202021,289.514,288.843,263.721,291.423,289.276,263.436,-0.0,-0.0,246.059,258.882
2015-09-16 01:00,-0.00156353,289.381,289.272,264.133,291.817,290.101,264.022,-0.0,-0.0,247.949,262.23
2015-09-16 02:00,-0.0,288.841,288.52,263.411,291.16,289.137,262.965,-0.0,-0.0,247.76,262.151
2015-09-16 03:00,-0.0,289.779,289.486,264.031,291.817,289.964,264.372,-0.0,-0.0,247.379,262.151
2015-09-16 04:00,-0.0,289.247,289.593,264.339,292.209,290.648,264.721,-0.0,-0.0,247.234,262.23
2015-09-16 05:00,-0.0,288.705,289.272,263.825,291.948,290.375,264.022,-0.0,-0.0,247.426,262.072
2015-09-16 06:00,-0.0,288.568,289.058,263.825,291.817,290.238,264.255,-0.0,-0.0,247.617,262.701
2015-09-16 07:00,-0.0,288.012,288.951,263.515,291.555,290.238,264.372,-0.0,-0.0,247.09,262.623
2015-09-16 08:00,-0.0,287.729,288.087,263.203,290.897,289.276,264.138,-0.0,-0.0,247.138,262.701
2015-09-16 09:00,-0.00892183,287.444,287.869,262.681,290.367,288.861,262.965,-0.0,-0.0,246.701,262.23
2015-09-16 10:00,0.471058,288.841,288.412,262.995,291.029,289.137,263.67,0.353521,0.399904,246.554,262.623
2015-09-16 11:00,0.555454,294.823,291.07,264.543,293.377,291.057,264.138,0.240957,0.398073,246.109,262.779
2015-09-16 12:00,0.477467,300.679,294.145,265.959,296.056,292.679,264.837,0.185892,0.337852,245.96,262.935
2015-09-16 13:00,0.361695,302.932,295.541,266.657,296.684,292.814,264.255,0.146226,0.264818,246.109,263.012
2015-09-16 14:00,0.300406,304.794,296.913,267.74,298.178,294.016,265.185,0.117121,0.225695,245.809,263.012
2015-09-16 15:00,0.307307,303.098,292.108,265.052,293.506,290.101,263.318,0.188532,0.269492,245.91,262.935
2015-09-16 16:00,0.279006,302.596,290.965,264.236,292.989,289.276,262.728,0.179935,0.255349,246.059,262.466
2015-09-16 17:00,0.235656,303.917,296.327,267.249,298.055,294.016,264.721,0.130644,0.203922,246.059,262.623
2015-09-16 18:00,0.229756,302.596,295.144,267.052,297.06,292.948,264.605,0.168133,0.228638,245.91,262.23
2015-09-16 19:00,0.196379,299.108,293.031,265.557,294.916,291.6,264.022,0.211953,0.23965,245.759,262.072
2015-09-16 20:00,0.242104,297.947,294.446,266.657,296.684,293.75,265.185,0.353531,0.364856,244.164,260.052
2015-09-16 21:00,1.01916,289.514,273.199,254.217,272.423,268.505,251.553,0.960984,1.1926,228.488,243.818
2015-09-16 22:00,-0.0,284.087,280.909,258.802,283.372,280.702,258.392,-0.0,-0.0,238.357,254.443
2015-09-16 23:00,-0.0378412,287.3,284.869,261.198,286.997,284.779,261.421,-0.01602,-0.0191015,240.782,256.45
2015-09-17 00:00,0.00202156,284.087,284.071,260.119,285.479,283.194,260.461,-0.0,-0.0,243.686,258.114
2015-09-17 01:00,-0.0,281.165,276.591,256.434,279.022,276.938,258.76,-0.0,-0.0,244.687,256.271
2015-09-17 02:00,-0.00134984,285.665,283.956,260.119,286.172,283.049,260.581,-0.0,-0.0,244.583,257.769
2015-09-17 03:00,-0.0,288.291,287.541,262.576,290.234,287.888,263.083,-0.0,-0.0,244.945,258.798
2015-09-17 04:00,-0.0,288.012,288.195,262.995,291.029,289.276,263.787,-0.0,-0.0,245.048,259.471
2015-09-17 05:00,-0.0,288.012,288.087,262.89,290.897,288.999,263.436,-0.0,-0.0,245.099,260.135
2015-09-17 06:00,0.00157937,287.444,287.869,262.786,290.5,288.861,263.318,-0.0,-0.0,245.507,260.952
2015-09-17 07:00,-0.0,287.155,287.541,262.155,290.101,288.445,263.083,-0.0,-0.0,245.507,260.708
2015-09-17 08:00,-0.0,286.864,287.102,261.944,289.701,287.888,263.083,-0.0,-0.0,245.507,260.871
2015-09-17 09:00,-0.0,282.234,282.214,259.134,284.641,283.049,260.34,-0.0,-0.0,245.355,260.627
2015-09-17 10:00,0.590356,287.444,283.495,259.902,286.172,283.917,260.581,0.499853,0.575087,244.894,260.299
2015-09-17 11:00,0.549381,294.268,289.379,263.099,291.292,288.584,262.255,0.264165,0.424534,244.997,260.871
2015-09-17 12:00,0.476346,300.498,293.641,265.658,295.297,291.329,263.083,0.188217,0.354797,245.253,261.275
2015-09-17 13:00,0.411762,301.74,288.195,262.576,289.434,286.06,261.421,0.275891,0.368237,245.405,261.194
2015-09-17 14:00,0.413319,301.999,285.77,261.091,287.679,284.061,260.701,0.298111,0.393386,245.557,261.113
2015-09-17 15:00,0.245278,304.715,294.945,266.657,295.803,291.057,263.553,0.116475,0.200457,245.355,261.194
2015-09-17 16:00,0.194993,295.69,285.882,261.305,286.722,284.205,260.942,0.201422,0.244103,245.456,260.708
2015-09-17 17:00,0.237835,304.95,296.033,267.348,297.683,292.814,263.905,0.122009,0.199149,245.304,261.033
2015-09-17 18:00,0.227555,303.346,296.229,267.446,298.055,293.216,263.905,0.151087,0.219814,245.355,260.627
2015-09-17 19:00,0.400405,298.918,283.726,260.553,286.447,282.467,259.37,0.408285,0.462911,242.6,258.628
2015-09-17 20:00,0.150441,295.26,288.195,262.576,289.835,286.202,260.581,0.234021,0.240182,239.349,257.333
2015-09-17 21:00,0.73632,294.491,289.593,263.411,291.423,288.306,262.847,0.944903,1.08019,239.166,257.421
2015-09-17 22:00,-0.0,289.514,288.52,263.099,290.632,288.027,262.61,-0.0,-0.0,239.593,258.028
2015-09-17 23:00,-0.0441943,289.779,288.736,262.995,291.029,288.861,262.492,-0.0160368,-0.0159346,238.231,258.543
2015-09-18 00:00,-0.0,289.113,288.52,262.786,290.897,288.861,263.2,-0.0,0.00204236,239.288,259.051
2015-09-18 01:00,-0.0,288.841,288.412,262.995,291.029,288.861,263.436,-0.0,-0.0,239.043,258.967
2015-09-18 02:00,0.0013511,288.291,288.52,262.89,291.16,289.551,263.553,-0.0,-0.0,240.074,259.387
2015-09-18 03:00,-0.00126288,288.291,288.303,262.786,291.16,289.276,263.67,-0.0,-0.0,241.647,259.721
2015-09-18 04:00,-0.00126546,287.729,287.978,262.681,290.764,289.276,263.67,-0.0,-0.0,240.724,259.554
2015-09-18 05:00,-0.0013598,287.3,287.432,262.366,290.234,288.584,263.2,-0.0,-0.0,241.189,259.304
2015-09-18 06:00,-0.0,287.01,286.992,262.576,289.835,288.306,262.847,-0.0,-0.0,242.322,259.638
2015-09-18 07:00,0.00206433,286.717,286.882,262.261,289.434,288.027,262.492,-0.0,-0.0,242.71,259.554
2015-09-18 08:00,-0.0,286.569,286.992,261.944,289.3,287.748,262.965,-0.0,-0.0,243.039,259.887
2015-09-18 09:00,-0.00942253,286.717,286.772,262.049,289.434,287.748,262.61,-0.0,-0.0095126,243.147,259.804
2015-09-18 10:00,0.85256,287.3,280.549,258.469,283.372,280.998,259.977,0.543519,0.749324,243.899,259.638
2015-09-18 11:00,0.533387,294.823,290.335,264.133,292.73,289.689,262.61,0.249952,0.430111,244.058,259.887
2015-09-18 12:00,0.46474,299.297,292.929,265.658,294.661,291.057,262.965,0.195857,0.371525,244.111,259.721
2015-09-18 13:00,0.366174,303.917,296.718,268.033,298.918,294.415,264.488,0.140678,0.284991,244.058,259.804
2015-09-18 14:00,0.303566,306.771,298.549,269.479,300.384,295.208,264.721,0.115018,0.2337,244.531,260.217
2015-09-18 15:00,0.346649,300.042,284.528,260.337,286.31,283.339,260.34,0.288031,0.364327,244.531,259.887
2015-09-18 16:00,0.340902,301.478,283.726,261.091,286.585,283.049,259.492,0.285349,0.367716,245.202,260.135
2015-09-18 17:00,0.281873,302.341,289.593,263.825,291.029,287.048,261.182,0.196128,0.27048,244.945,260.135
2015-09-18 18:00,0.462176,294.043,272.931,254.099,275.087,273.359,255.784,0.47429,0.565519,244.79,258.114
2015-09-18 19:00,0.279177,294.38,281.029,259.244,282.803,280.85,260.098,0.312747,0.318702,244.531,258.2
2015-09-18 20:00,0.781462,299.858,277.727,256.089,279.318,276.169,256.41,0.726647,0.880505,244.635,257.942
2015-09-18 21:00,0.320024,284.249,278.226,257.346,280.054,278.156,259.005,0.445154,0.450008,244.842,258.457
2015-09-18 22:00,-0.0,282.581,281.029,259.134,284.079,281.441,259.735,-0.0,-0.0,245.355,260.463
2015-09-18 23:00,-0.0632049,286.864,285.095,260.984,287.134,284.779,261.421,-0.0160546,-0.0191427,246.059,260.871
2015-09-19 00:00,-0.00202459,291.315,290.965,264.543,293.377,291.193,264.605,-0.0,-0.0,246.798,261.755
2015-09-19 01:00,-0.0,290.558,290.545,264.543,293.248,291.6,264.953,-0.0,-0.0,247.331,262.072
2015-09-19 02:00,-0.00135243,289.779,289.699,264.031,292.34,290.511,264.605,-0.0,-0.0,246.652,261.834
2015-09-19 03:00,-0.0,288.841,288.736,262.786,291.029,289.137,263.436,-0.0,-0.0,246.847,261.755
2015-09-19 04:00,-0.0,288.291,288.628,263.203,290.764,289.276,263.436,-0.0,0.00127975,246.798,261.194
2015-09-19 05:00,-0.0,288.841,289.165,263.307,291.555,289.964,264.022,-0.0,-0.0,246.456,261.033
2015-09-19 06:00,-0.0,288.43,288.951,263.411,291.555,289.964,264.953,-0.0,-0.0,246.505,261.194
2015-09-19 07:00,-0.00207483,288.152,289.058,263.099,291.555,290.101,264.488,-0.0,-0.0,246.258,261.275
2015-09-19 08:00,-0.0,288.152,288.412,262.576,291.029,289.826,264.138,-0.0,-0.0,246.258,261.194
2015-09-19 09:00,-0.009696,287.729,288.303,262.155,290.764,289.826,263.905,-0.0,-0.0,246.847,261.914
2015-09-19 10:00,0.554216,289.381,288.951,262.995,291.555,289.826,264.372,0.362231,0.549698,247.283,261.914
2015-09-19 11:00,0.690332,297.549,292.314,264.543,294.405,292.276,264.488,0.283821,0.572958,247.474,261.435
2015-09-19 12:00,0.492994,302.848,298.262,268.421,301.472,298.72,266.795,0.185715,0.41335,247.665,262.545
2015-09-19 13:00,0.375623,306.771,302.003,270.899,305.493,302.519,268.609,0.138632,0.31277,247.855,263.167
2015-09-19 14:00,0.313429,308.838,303.992,272.015,307.799,304.504,269.618,0.109893,0.255092,247.996,263.167
2015-09-19 15:00,0.269451,309.923,304.704,272.384,308.482,304.996,269.283,0.0927857,0.219964,247.996,262.545
2015-09-19 16:00,0.254628,310.122,304.616,272.292,308.368,304.75,269.506,0.0930225,0.208782,248.09,262.701
2015-09-19 17:00,0.190685,305.106,299.778,269.192,303.854,300.506,267.819,0.122563,0.16581,248.09,261.515
2015-09-19 18:00,0.216691,305.569,300.712,269.67,305.61,303.142,269.618,0.223477,0.263173,247.855,262.623
2015-09-19 19:00,0.224952,303.346,300.526,269.384,304.676,302.769,269.395,0.224932,0.270361,248.371,262.779
2015-09-19 20:00,0.26787,299.672,297.01,267.446,301.231,298.976,268.045,0.406482,0.421451,248.09,262.309
2015-09-19 21:00,0.499598,295.368,293.742,265.859,297.06,295.734,266.795,0.682582,0.779486,248.51,262.466
2015-09-19 22:00,-0.0,291.065,291.279,264.236,294.661,293.35,265.993,-0.0,-0.0,248.741,262.779
2015-09-19 23:00,-0.126558,290.301,290.756,263.618,293.635,292.814,265.762,-0.0187524,-0.0191652,249.381,262.935
2015-09-20 00:00,-0.0,289.247,290.335,263.515,293.248,292.276,265.532,-0.0,-0.0,249.426,263.476
2015-09-20 01:00,-0.0,289.381,290.651,263.411,293.119,292.545,266.795,-0.0,-0.0,249.741,264.464
2015-09-20 02:00,-0.00135383,288.977,290.229,263.307,292.86,292.679,266.681,-0.0,-0.0,249.335,265.801
2015-09-20 03:00,-0.0,288.012,288.52,261.944,290.764,290.101,264.953,-0.0,-0.0,248.417,265.063
2015-09-20 04:00,-0.0,286.717,286.661,260.876,288.493,288.027,263.2,-0.0,-0.0,246.307,263.012
2015-09-20 05:00,-0.0,286.121,286.328,260.769,288.493,288.027,262.847,-0.0,-0.0,246.896,262.935
2015-09-20 06:00,-0.0,286.717,287.978,261.198,290.5,290.375,265.647,-0.0,-0.0,248.231,264.238
2015-09-20 07:00,0.00208554,285.818,286.992,260.769,289.032,288.999,264.721,-0.0,-0.0,247.426,263.934
2015-09-20 08:00,-0.0,285.818,286.992,260.769,289.835,289.551,265.069,-0.0,-0.0,247.76,264.162
2015-09-20 09:00,0.00998657,285.818,286.992,260.769,289.434,289.826,265.069,-0.0,-0.0,248.09,264.69
2015-09-20 10:00,0.537763,287.729,288.412,261.305,290.897,291.057,265.301,0.343489,0.571477,247.807,265.137
2015-09-20 11:00,0.617398,296.531,293.843,264.441,297.184,296.519,267.251,0.244691,0.553676,247.665,264.989
2015-09-20 12:00,0.491841,302.426,298.929,267.151,302.788,301.138,268.271,0.186256,0.425309,247.522,264.314
2015-09-20 13:00,0.378604,307.064,303.003,269.575,307.456,305.609,270.508,0.136612,0.320939,247.186,264.01
2015-09-20 14:00,0.309473,309.588,305.058,270.617,309.613,306.826,270.619,0.112964,0.256888,246.258,263.476
2015-09-20 15:00,0.264728,310.778,305.85,271.179,310.286,307.431,270.064,0.0935751,0.219256,245.405,263.476
2015-09-20 16:00,0.242317,310.122,305.323,270.899,309.725,306.826,269.953,0.0851235,0.201693,245.253,262.779
2015-09-20 17:00,0.251297,308.07,300.526,268.227,304.442,300.759,267.365,0.112852,0.220059,244.687,260.545
2015-09-20 18:00,0.240566,307.355,301.636,269.096,305.726,302.018,268.271,0.126616,0.231379,246.109,261.355
2015-09-20 19:00,0.215876,303.917,300.526,268.227,304.559,301.642,268.834,0.164684,0.250307,245.048,261.755
2015-09-20 20:00,0.232431,297.947,293.742,264.133,296.559,293.883,264.255,0.273169,0.325713,242.984,259.554
2015-09-20 21:00,0.507604,294.823,291.487,263.203,294.405,292.41,264.372,0.525296,0.660499,243.633,261.113
2015-09-20 22:00,-0.00852226,289.514,287.322,260.876,289.835,288.445,262.965,-0.0,-0.0,241.76,259.22
2015-09-20 23:00,-0.253432,289.779,289.165,261.838,292.079,290.784,264.837,-0.021458,-0.0255854,242.155,260.381
2015-09-21 00:00,-0.0,288.977,288.951,261.731,291.555,290.648,264.721,-0.0,-0.0,240.841,260.217
2015-09-21 01:00,-0.0,287.155,285.882,259.793,288.222,287.048,262.373,-0.0,-0.0,238.919,258.2
2015-09-21 02:00,-0.0,285.665,284.185,259.024,286.585,284.779,260.219,-0.0,-0.0,239.471,258.286
2015-09-21 03:00,-0.00126795,284.888,284.185,258.58,286.447,285.065,261.66,-0.0,-0.0,240.074,258.628
2015-09-21 04:00,-0.0,283.261,282.214,257.233,283.656,282.467,257.9,-0.0,-0.0,240.957,257.942
2015-09-21 05:00,-0.0,286.121,286.772,260.553,289.568,288.999,264.138,-0.0,-0.0,242.71,261.755
2015-09-21 06:00,-0.0,285.512,286.772,260.337,289.568,289.276,264.837,-0.0,-0.0,242.489,261.755
2015-09-21 07:00,-0.0,284.888,286.55,260.445,289.166,289.276,264.605,-0.0,-0.0,242.211,261.675
2015-09-21 08:00,-0.0,284.249,285.882,260.011,288.763,288.584,264.488,-0.0,-0.0,241.533,261.194
2015-09-21 09:00,-0.0,284.57,285.77,259.354,288.358,288.027,264.138,-0.0,-0.0,241.246,261.113
2015-09-21 10:00,0.50395,287.3,287.322,260.553,290.367,290.238,264.255,0.341355,0.527269,241.704,261.355
2015-09-21 11:00,0.591503,295.796,292.725,263.411,295.803,294.415,266.337,0.244909,0.511849,241.817,261.275
2015-09-21 12:00,0.484538,302.596,297.879,266.657,301.832,299.743,267.023,0.185052,0.41007,241.874,261.515
2015-09-21 13:00,0.367264,306.991,302.368,269.192,306.767,304.01,268.722,0.14,0.312992,242.155,262.072
2015-09-21 14:00,0.3083,309.317,304.26,270.145,308.368,305.609,269.953,0.113696,0.254531,242.433,262.23
2015-09-21 15:00,0.26517,310.32,305.058,270.334,309.388,306.097,269.171,0.0965323,0.219854,242.322,262.072
2015-09-21 16:00,0.237795,309.789,305.058,270.617,309.388,306.219,269.841,0.0892431,0.198543,242.099,262.072
2015-09-21 17:00,0.228519,309.044,304.616,270.145,308.936,305.731,270.064,0.0914665,0.191554,242.322,261.993
2015-09-21 18:00,0.215688,306.771,302.822,269.384,307.341,304.134,269.395,0.109848,0.199741,242.099,261.355
2015-09-21 19:00,0.232436,304.159,300.619,268.13,304.559,301.39,268.722,0.16972,0.245422,242.211,261.033
2015-09-21 20:00,0.262923,300.947,298.167,266.557,301.712,299.232,267.932,0.322208,0.363229,242.489,261.355
2015-09-21 21:00,0.481861,296.635,294.446,264.236,297.931,295.996,266.681,0.711611,0.757983,242.929,261.515
2015-09-21 22:00,-0.00855539,291.686,291.591,262.89,294.661,293.216,266.108,-0.0,-0.00863717,243.147,261.675
2015-09-21 23:00,-0.171292,290.685,290.44,262.049,293.506,292.141,265.647,-0.0241721,-0.0256191,243.31,261.755
2015-09-22 00:00,-0.0,288.841,289.272,261.519,291.948,290.511,264.837,-0.0,-0.0,243.686,261.595
2015-09-22 01:00,0.00157134,288.841,289.058,261.305,291.817,290.648,265.416,-0.0,-0.0,244.842,261.993
2015-09-22 02:00,-0.0,287.871,288.951,261.412,291.555,290.921,264.837,-0.0,-0.0,244.739,261.914
2015-09-22 03:00,-0.0,288.43,289.165,261.412,291.948,291.193,265.647,-0.0,-0.0,244.426,262.23
2015-09-22 04:00,-0.00127459,287.871,288.951,261.519,291.817,291.193,264.953,-0.0,-0.0,244.479,262.072
2015-09-22 05:00,-0.0,287.871,288.52,261.198,291.423,290.784,265.301,-0.0,-0.0,244.635,261.914
2015-09-22 06:00,-0.0,287.444,288.303,261.198,291.16,290.648,264.953,-0.0,-0.0,244.894,262.151
2015-09-22 07:00,-0.0,287.3,288.303,261.198,291.292,290.648,265.532,-0.0,-0.0,245.151,262.779
2015-09-22 08:00,-0.0,286.717,287.76,260.769,290.632,290.101,265.185,-0.0,-0.0,245.202,263.012
2015-09-22 09:00,-0.0,286.569,287.432,260.769,290.367,289.551,264.605,-0.0,-0.0,244.635,262.466
2015-09-22 10:00,0.516589,288.705,288.195,260.769,291.16,290.648,264.605,0.339358,0.476568,244.531,262.388
2015-09-22 11:00,0.575816,295.26,292.108,263.099,295.297,294.016,265.878,0.242409,0.454664,246.009,263.167
2015-09-22 12:00,0.475301,301.302,296.523,265.758,300.02,297.947,267.137,0.185607,0.370225,246.357,263.476
2015-09-22 13:00,0.368706,305.722,300.34,267.935,304.442,301.642,268.609,0.144703,0.297146,246.456,263.782
2015-09-22 14:00,0.303053,308.491,302.912,269.575,307.112,303.887,269.059,0.120206,0.245311,246.993,263.476
2015-09-22 15:00,0.263066,309.52,303.364,270.05,307.57,303.763,268.722,0.108125,0.212722,247.138,263.244
2015-09-22 16:00,0.232026,309.385,303.634,270.145,307.684,304.257,268.609,0.103112,0.196713,247.186,263.012
2015-09-22 17:00,0.232112,308.63,302.55,269.86,306.651,303.391,268.609,0.12283,0.206434,247.379,262.701
2015-09-22 18:00,0.213583,306.549,302.094,269.479,306.305,303.018,268.384,0.15344,0.222159,247.186,262.935
2015-09-22 19:00,0.227651,303.836,299.966,268.421,303.972,301.264,268.045,0.237788,0.27923,247.331,263.012
2015-09-22 20:00,0.265651,300.679,297.687,267.249,301.352,298.976,267.592,0.446931,0.431891,247.09,262.857
2015-09-22 21:00,0.512085,296.219,293.944,265.153,297.184,295.339,266.795,0.820035,0.865381,247.186,262.623
2015-09-22 22:00,-0.0171798,291.809,291.798,264.236,294.916,293.483,265.647,-0.0,-0.0,247.379,262.623
2015-09-22 23:00,-0.162001,288.841,287.541,262.155,290.632,288.027,263.083,-0.0268953,-0.0288617,247.855,261.755
2015-09-23 00:00,-0.0,276.594,274.655,254.926,277.528,274.617,256.66,-0.0,-0.0,248.09,259.721
2015-09-23 01:00,-0.0,287.01,286.55,261.198,289.166,286.626,262.728,-0.0,-0.0,248.51,261.914
2015-09-23 02:00,-0.0,287.155,286.882,261.412,289.568,287.469,262.965,-0.0,-0.00137147,248.51,262.309
2015-09-23 03:00,-0.0,288.43,289.165,262.155,291.948,290.921,265.185,-0.0,-0.0,248.371,263.399
2015-09-23 04:00,-0.0,288.012,288.951,262.155,291.555,290.921,265.185,-0.0,-0.0,248.371,263.629
2015-09-23 05:00,-0.0,287.444,288.303,262.049,291.16,290.511,265.301,-0.0,-0.0,248.51,263.167
2015-09-23 06:00,0.00161213,287.444,288.195,261.944,290.897,289.964,265.069,-0.0,-0.0,248.184,263.09
2015-09-23 07:00,-0.0,287.3,288.087,261.944,290.764,289.964,264.372,-0.0,-0.0,248.043,262.857
2015-09-23 08:00,-0.0,286.864,287.541,261.731,290.367,289.826,264.721,-0.0,-0.0,247.996,262.466
2015-09-23 09:00,0.0109761,286.864,287.541,261.519,290.234,289.276,264.255,-0.0,-0.0,247.855,262.151
2015-09-23 10:00,0.493916,288.841,288.303,261.944,291.029,290.101,264.488,0.337493,0.463646,248.043,262.701
2015-09-23 11:00,0.560475,296.008,292.52,264.133,295.55,294.149,265.532,0.239973,0.44045,247.57,263.167
2015-09-23 12:00,0.462132,301.653,296.718,266.855,300.141,297.689,266.909,0.186163,0.35762,247.665,263.476
2015-09-23 13:00,0.359126,305.95,300.246,268.615,303.854,300.506,267.705,0.146701,0.284641,247.426,263.629
2015-09-23 14:00,0.297858,307.643,301.175,268.904,304.793,301.264,268.384,0.125522,0.236171,247.331,263.706
2015-09-23 15:00,0.258439,308.7,302.64,269.67,306.305,302.644,268.946,0.111027,0.209499,247.186,263.706
2015-09-23 16:00,0.235245,308.976,302.64,270.05,306.536,302.519,268.158,0.112581,0.197482,247.379,263.399
2015-09-23 17:00,0.239831,306.697,298.644,267.642,301.952,297.559,266.108,0.159884,0.225425,247.331,262.935
2015-09-23 18:00,0.250241,304.478,297.204,266.657,300.384,296.258,265.993,0.222814,0.277081,247.186,262.545
2015-09-23 19:00,0.231385,303.181,298.262,267.249,301.832,298.591,266.909,0.301958,0.319321,246.701,262.23
2015-09-23 20:00,0.805097,310.517,289.486,262.576,0.0,286.485,260.822,0.847723,0.948259,246.847,260.135
2015-09-23 21:00,0.619284,297.045,293.031,264.747,295.93,293.082,264.605,0.992514,1.07178,246.896,261.033
2015-09-23 22:00,-0.00862585,293.007,291.591,263.825,294.533,292.276,264.255,-0.0,-0.00870831,247.617,261.515
2015-09-23 23:00,-0.178146,292.053,290.44,263.099,293.377,291.057,264.255,-0.0323219,-0.038539,247.474,261.033
2015-09-24 00:00,-0.00203428,290.685,288.843,262.366,291.948,289.137,261.898,-0.0,-0.0,245.048,258.286
2015-09-24 01:00,-0.0,290.301,289.699,262.786,292.73,290.921,264.372,-0.0,-0.0,244.842,258.543
2015-09-24 02:00,-0.00136019,289.779,289.272,262.261,292.34,290.511,263.787,-0.0,-0.0,245.91,259.554
2015-09-24 03:00,-0.00127365,289.247,288.843,262.049,291.948,289.826,264.022,-0.0,-0.0,245.557,259.554
2015-09-24 04:00,-0.0,288.705,288.412,261.731,291.555,289.689,263.553,-0.0,-0.0,245.557,259.554
2015-09-24 05:00,-0.0,288.152,287.651,260.984,290.5,288.722,263.905,-0.0,-0.0,245.202,259.471
2015-09-24 06:00,-0.0,287.444,286.772,260.661,289.434,287.048,262.136,-0.0,-0.0,244.894,258.798
2015-09-24 07:00,-0.0,274.314,273.732,253.02,276.163,275.24,256.41,-0.0,-0.0,244.426,256.716
2015-09-24 08:00,-0.0,287.01,286.661,260.445,289.166,287.188,262.847,-0.0,-0.0,241.59,256.539
2015-09-24 09:00,-0.0,286.717,286.328,260.119,289.3,287.609,262.492,-0.0,-0.0,241.476,256.36
2015-09-24 10:00,0.472481,288.568,287.102,260.661,289.835,287.748,262.492,0.350042,0.400337,241.476,256.45
2015-09-24 11:00,0.526553,294.602,289.379,261.519,291.555,288.584,262.373,0.253617,0.375612,241.647,256.36
2015-09-24 12:00,0.499731,300.042,280.549,257.006,282.803,277.853,256.66,0.299782,0.392168,241.015,254.814
2015-09-24 13:00,0.348082,301.565,287.212,260.445,288.628,283.194,259.37,0.209756,0.303922,240.841,255.183
2015-09-24 14:00,0.29136,303.015,290.017,262.155,291.292,284.349,259.37,0.149164,0.233948,239.288,252.925
2015-09-24 15:00,0.261467,305.339,292.52,263.618,294.149,287.888,260.942,0.120364,0.207586,238.919,252.537
2015-09-24 16:00,0.257585,305.569,293.944,263.928,295.677,290.101,262.136,0.141439,0.216277,240.074,253.595
2015-09-24 17:00,0.259898,304.715,290.965,262.786,292.209,286.343,260.219,0.173483,0.237393,238.671,251.652
2015-09-24 18:00,0.4865,304.159,263.245,247.465,262.329,256.742,245.072,0.369636,0.44724,237.592,244.881
2015-09-24 19:00,0.576119,270.713,230.265,229.665,229.729,228.324,223.592,0.88055,1.01785,223.538,225.011
2015-09-24 20:00,0.754872,275.02,215.64,223.694,214.517,213.356,214.872,0.897713,1.03575,213.234,213.668
2015-09-24 21:00,1.73563,270.989,247.15,237.884,247.229,245.612,238.577,1.47886,1.96294,229.007,238.85
2015-09-24 22:00,-0.0,269.576,270.189,250.806,273.215,271.444,254.9,-0.0,-0.0,239.104,254.162
2015-09-24 23:00,-0.162493,284.249,280.669,256.089,282.374,279.959,257.777,-0.0377677,-0.0418157,240.548,255.183
2015-09-25 00:00,-0.00203663,274.073,271.299,251.552,273.686,271.926,254.773,-0.0,-0.0,241.533,255.183
2015-09-25 01:00,-0.00157646,288.291,286.328,260.011,288.897,286.202,261.421,-0.0,-0.0,241.476,256.894
2015-09-25 02:00,-0.0,282.408,281.148,257.346,283.372,279.81,259.127,-0.0,-0.0,241.76,256.539
2015-09-25 03:00,0.00127569,282.059,279.336,256.32,281.799,278.458,257.653,-0.0,-0.0,239.653,255.183
2015-09-25 04:00,-0.0,265.791,264.021,248.121,266.508,265.138,251.159,-0.0,-0.0,235.108,251.949
2015-09-25 05:00,-0.00138393,270.434,267.618,250.303,270.332,267.339,252.982,-0.0,-0.0,234.472,251.949
2015-09-25 06:00,-0.0,284.888,281.978,257.798,284.641,280.85,257.653,-0.0,-0.0,235.731,254.068
2015-09-25 07:00,-0.0,283.428,282.096,257.572,284.501,280.702,257.53,-0.0,-0.0,236.808,255.091
2015-09-25 08:00,-0.0,277.451,278.968,255.858,281.51,280.257,259.37,-0.0,-0.0,236.139,255.091
2015-09-25 09:00,-0.0117525,269.283,267.909,249.797,270.332,267.84,252.594,-0.0,-0.0,236.475,252.925
2015-09-25 10:00,0.9126,281.883,260.528,245.859,264.27,263.759,251.028,0.758775,0.863223,236.808,252.342
2015-09-25 11:00,0.59012,268.986,254.871,241.936,255.633,255.425,245.35,1.12092,1.26087,234.329,245.46
2015-09-25 12:00,0.4263,267.123,248.583,238.503,249.157,248.327,241.664,0.834265,0.915562,231.236,241.093
2015-09-25 13:00,0.270037,250.598,236.576,232.834,236.441,235.917,232.227,0.76786,0.836766,227.78,232.829
2015-09-25 14:00,0.212003,250.598,240.984,234.845,241.344,240.576,234.76,0.620828,0.687076,229.852,236.325
2015-09-25 15:00,0.513791,290.939,263.245,247.067,266.338,265.99,251.814,0.654682,0.715452,232.328,248.669
2015-09-25 16:00,0.244207,251.944,234.477,231.45,234.633,234.216,229.946,0.537385,0.593239,225.156,230.524
2015-09-25 17:00,0.268906,255.521,231.14,230.027,231.131,230.688,227.94,0.657491,0.731325,223.538,228.242
2015-09-25 18:00,0.379361,257.103,233.116,230.921,232.772,232.474,229.449,0.785318,0.884443,225.546,229.838
2015-09-25 19:00,0.147941,292.771,288.087,260.661,290.632,286.907,260.098,0.191471,0.226166,234.686,252.439
2015-09-25 20:00,0.831533,301.037,270.746,250.931,270.657,265.99,247.823,0.683776,0.80839,232.784,247.59
2015-09-25 21:00,1.10204,291.44,273.466,252.045,271.785,267.004,247.006,0.812995,1.09054,228.224,245.69
2015-09-25 22:00,-0.00870273,279.859,267.618,249.158,265.826,260.584,242.097,-0.0,-0.0,223.538,241.728
2015-09-25 23:00,-0.0957414,273.088,255.587,241.936,253.069,247.293,233.503,-0.0432342,-0.0451064,219.982,233.928
2015-09-26 00:00,-0.00203911,271.798,263.712,246.801,263.217,258.408,242.097,-0.0,-0.0,225.643,242.602
2015-09-26 01:00,-0.00157837,278.279,268.63,249.286,267.185,262.361,243.949,-0.0,-0.0,223.642,240.446
2015-09-26 02:00,-0.00136383,257.605,248.177,239.115,245.914,241.698,232.066,-0.0,-0.0,221.258,234.542
2015-09-26 03:00,-0.0,268.986,256.819,243.368,254.854,249.348,236.0,-0.0,-0.0,222.906,238.165
2015-09-26 04:00,-0.0,284.57,279.213,255.626,280.054,275.706,252.205,-0.0,-0.0,230.835,248.882
2015-09-26 05:00,-0.0,285.357,280.789,256.778,282.231,278.156,255.153,-0.0,-0.0,232.097,249.513
2015-09-26 06:00,-0.00163002,267.123,249.385,239.57,245.693,239.438,227.77,-0.0,0.0016456,220.101,230.863
2015-09-26 07:00,-0.0,238.442,225.282,227.058,220.852,218.547,216.071,-0.0,-0.0,213.995,218.41
2015-09-26 08:00,-0.0,267.123,253.04,240.021,249.998,246.876,235.691,-0.0,-0.0,223.538,234.389
2015-09-26 09:00,-0.0,230.231,227.533,227.628,227.708,227.246,224.481,-0.0,-0.0,222.04,225.799
2015-09-26 10:00,0.521154,244.063,225.937,226.866,225.615,225.038,222.692,0.814634,0.987516,219.624,223.167
2015-09-26 11:00,0.395834,252.585,231.427,229.665,231.131,229.909,226.056,0.717435,0.814846,222.906,228.06
2015-09-26 12:00,0.391757,261.251,243.94,235.823,242.978,241.698,236.0,0.836019,0.912076,224.76,234.694
2015-09-26 13:00,0.2704,249.89,229.072,229.118,228.871,227.787,225.185,0.717104,0.781301,222.476,226.57
2015-09-26 14:00,0.239519,254.396,241.451,234.35,241.815,240.576,234.76,0.640303,0.706408,226.871,235.74
2015-09-26 15:00,0.461823,281.165,244.815,236.466,245.914,244.973,238.727,0.483973,0.568148,228.048,237.608
2015-09-26 16:00,0.24613,296.219,270.746,251.305,271.142,265.138,248.499,0.167578,0.238236,230.511,243.818
2015-09-26 17:00,0.272407,299.203,273.997,252.899,274.623,269.329,252.464,0.213262,0.268102,230.674,246.145
2015-09-26 18:00,0.200508,296.219,286.992,259.244,289.568,284.636,257.406,0.181993,0.24291,231.473,250.238
2015-09-26 19:00,0.303676,290.685,273.199,251.056,273.215,267.673,246.044,0.291048,0.355546,228.921,243.457
2015-09-26 20:00,0.88389,275.02,233.666,230.207,232.772,229.909,223.053,1.03445,1.22998,222.04,227.694
2015-09-26 21:00,1.44137,286.421,266.145,247.2,266.678,262.361,243.667,1.33052,1.65209,227.055,242.602
2015-09-26 22:00,-0.00874388,286.569,282.331,256.205,285.479,282.467,257.282,-0.0,-0.00882746,231.076,251.751
2015-09-26 23:00,-0.0959079,288.152,285.546,258.246,288.493,286.202,261.062,-0.048723,-0.0516399,232.481,253.595
2015-09-27 00:00,-0.00204175,288.012,287.102,259.134,290.5,288.861,263.083,-0.0,-0.0,234.329,253.88
2015-09-27 01:00,-0.00158037,285.202,282.448,256.549,285.201,282.904,259.005,-0.0,-0.0,233.382,252.828
2015-09-27 02:00,-0.00136578,286.271,284.642,257.685,286.86,284.922,260.34,-0.0,-0.0,231.943,252.925
2015-09-27 03:00,0.00127999,286.864,286.55,258.802,289.568,287.748,262.017,-0.0,-0.0,232.557,255.457
2015-09-27 04:00,-0.0,287.01,286.882,259.024,289.701,288.167,263.436,-0.0,-0.0,233.603,255.091
2015-09-27 05:00,-0.0,287.155,286.772,258.913,290.101,288.445,262.017,-0.0,-0.0,233.234,253.595
2015-09-27 06:00,-0.0,285.512,285.208,258.358,288.358,286.626,261.66,-0.0,-0.0,232.709,252.537
2015-09-27 07:00,-0.0,286.121,285.433,258.469,288.628,286.907,261.66,-0.0,-0.0,233.159,252.342
2015-09-27 08:00,-0.0,282.234,280.549,255.858,283.23,280.702,258.392,-0.0,-0.0,233.456,251.051
2015-09-27 09:00,-0.0,281.883,280.066,255.51,282.946,280.257,258.27,-0.0107058,-0.0,233.234,250.442
2015-09-27 10:00,0.430361,287.444,285.321,258.022,288.763,286.485,260.942,0.324635,0.394977,233.603,251.152
2015-09-27 11:00,0.493203,292.534,287.432,259.244,290.5,287.748,261.421,0.233438,0.374212,234.615,251.552
2015-09-27 12:00,0.419244,296.531,287.432,259.464,290.234,285.777,260.098,0.203563,0.322955,235.867,252.342
2015-09-27 13:00,0.329571,299.95,291.798,261.944,294.277,289.826,261.898,0.149349,0.260866,235.867,252.925
2015-09-27 14:00,0.278926,302.256,292.725,262.471,295.043,290.101,261.66,0.130572,0.223378,236.274,253.021
2015-09-27 15:00,0.270514,302.848,290.965,261.731,292.989,287.609,260.34,0.149145,0.228642,237.072,253.309
2015-09-27 16:00,0.227805,303.346,293.133,262.995,295.17,290.101,261.779,0.132874,0.201874,237.785,254.068
2015-09-27 17:00,0.331903,303.592,282.448,257.459,284.781,279.361,256.285,0.234763,0.306119,237.592,253.117
2015-09-27 18:00,0.217699,301.214,292.827,262.89,295.043,290.375,262.136,0.196523,0.237556,237.137,253.88
2015-09-27 19:00,0.486102,305.95,287.102,259.793,289.166,284.061,258.638,0.432963,0.501372,236.94,253.5
2015-09-27 20:00,0.289298,297.248,291.174,262.366,293.892,289.964,262.61,0.510068,0.484481,237.592,254.629
2015-09-27 21:00,0.591974,294.491,289.593,261.944,292.47,288.999,262.017,0.911315,0.923614,237.137,254.068
2015-09-28 00:00,-0.0,262.475,261.179,245.995,263.745,262.888,251.159,-0.0,-0.0,236.004,251.051
2015-09-28 01:00,-0.0,257.605,257.683,244.349,261.611,261.121,249.572,-0.0,-0.0,235.108,249.721
2015-09-28 02:00,-0.0,284.249,280.429,256.434,282.803,279.211,257.034,-0.0,-0.0,234.756,250.95
2015-09-28 03:00,-0.0,284.57,281.742,257.12,284.641,280.998,257.282,-0.0,-0.0,234.543,251.152
2015-09-28 04:00,-0.0,254.396,255.587,243.226,258.678,258.224,247.687,-0.0,-0.0,233.896,247.917
2015-09-28 05:00,-0.0,251.282,253.595,241.791,256.598,256.367,245.628,-0.0,-0.0,233.968,247.261
2015-09-28 06:00,-0.0,270.434,266.293,248.382,267.522,264.279,249.971,-0.0,-0.0,234.041,248.348
2015-09-28 07:00,-0.0,259.045,256.294,243.65,258.491,256.367,245.489,-0.0,-0.0,234.185,245.575
2015-09-28 08:00,-0.0,252.585,254.871,242.081,257.928,256.555,244.932,-0.0,-0.0,231.473,246.032
2015-09-28 09:00,-0.0,254.966,255.409,242.656,257.361,255.045,244.932,-0.0111261,-0.0132661,230.674,243.818
2015-09-28 10:00,0.687769,273.088,252.101,240.617,253.069,251.552,242.384,0.718211,0.840928,232.251,242.725
2015-09-28 11:00,1.03193,291.19,254.69,242.081,257.361,256.555,245.767,0.901999,1.06324,233.01,245.804
2015-09-28 12:00,0.780277,298.63,243.719,236.784,246.355,243.679,237.07,0.648952,0.743862,231.63,238.165
2015-09-28 13:00,0.603948,294.268,253.411,241.354,256.406,256.18,244.372,0.654856,0.731044,234.185,245.69
2015-09-28 14:00,0.533249,286.864,254.871,242.225,257.17,256.555,245.767,0.716291,0.786606,234.329,246.371
2015-09-28 15:00,0.534492,297.749,251.147,240.766,254.066,253.122,244.09,0.616153,0.670069,233.75,244.412
2015-09-28 16:00,0.48102,290.429,254.509,242.656,257.361,257.115,246.594,0.641384,0.707397,234.401,246.258
2015-09-28 17:00,0.535618,294.156,253.779,242.369,256.598,255.614,246.044,0.541208,0.632925,233.896,245.804
2015-09-28 18:00,0.321087,288.705,268.199,250.303,268.524,266.16,251.422,0.43417,0.50478,235.038,248.348
2015-09-28 19:00,0.881947,306.251,258.365,244.903,261.25,261.121,248.768,0.759189,0.877658,233.896,247.699
2015-09-28 20:00,0.997932,300.947,263.245,247.465,265.138,263.759,250.765,0.870813,0.976631,233.308,247.59
2015-09-28 21:00,1.06886,275.48,259.206,245.451,261.611,260.405,247.551,0.877849,1.14382,233.308,246.595
2015-09-28 22:00,-0.00883225,269.576,261.822,245.723,261.791,258.957,245.489,-0.0,-0.0,232.633,243.698
2015-09-28 23:00,-0.0866425,257.605,244.815,236.784,244.8,241.698,235.227,-0.0624919,-0.0680329,231.943,237.043
2015-09-29 00:00,-0.00204749,245.01,245.032,236.146,245.248,244.544,237.07,-0.0,-0.0,231.709,239.523
2015-09-29 01:00,-0.0,245.01,242.597,235.823,242.283,241.475,236.0,-0.0,-0.0,228.488,234.996
2015-09-29 02:00,-0.0,227.984,226.583,227.438,226.82,225.874,223.77,-0.0,-0.0,223.224,225.799
2015-09-29 03:00,-0.00128458,232.213,229.673,228.749,230.012,229.647,226.918,-0.0,-0.0,223.952,227.509
2015-09-29 04:00,-0.00129332,232.213,232.56,230.387,232.502,231.714,228.278,-0.0,-0.0,225.352,229.664
2015-09-29 05:00,0.00139949,233.989,231.427,229.847,231.408,230.946,227.77,-0.0,0.00141287,225.058,229.314
2015-09-29 06:00,0.00164887,227.984,224.616,226.866,224.694,224.19,223.413,-0.0,-0.0,221.484,222.956
2015-09-29 07:00,-0.0,243.066,243.273,235.173,243.895,243.024,235.537,-0.0,-0.0,228.748,238.027
2015-09-29 08:00,0.00364361,240.898,237.086,231.799,237.2,235.677,230.44,-0.0,-0.0,227.78,232.829
2015-09-29 09:00,-0.0,249.156,243.496,234.845,243.438,241.251,233.026,-0.011579,-0.0,228.312,236.033
2015-09-29 10:00,0.485454,251.282,237.339,232.491,237.2,236.157,231.257,0.638682,0.753991,225.643,232.022
2015-09-29 11:00,0.529332,260.827,235.538,232.146,234.895,234.216,231.094,0.631532,0.734789,224.46,229.314
2015-09-29 12:00,0.263189,267.123,247.563,237.258,246.355,244.112,234.291,0.337589,0.408472,227.87,235.887
2015-09-29 13:00,0.314518,264.739,235.011,231.274,233.041,230.429,224.834,0.37672,0.458475,223.538,227.509
2015-09-29 14:00,0.253087,282.581,263.556,244.765,261.431,256.555,239.765,0.235717,0.322745,229.348,240.576
2015-09-29 15:00,0.228975,266.466,244.598,235.985,242.515,240.576,233.026,0.333715,0.386536,226.027,233.146
2015-09-29 16:00,0.329996,273.831,250.566,238.963,251.036,248.121,238.278,0.370054,0.441233,230.101,239.922
2015-09-29 17:00,0.364478,259.505,224.95,226.866,224.694,223.905,223.233,0.58151,0.66041,221.371,222.096
2015-09-29 18:00,0.331599,277.451,256.294,242.225,254.657,251.156,239.322,0.380651,0.45226,229.348,239.39
2015-09-29 19:00,0.806753,302.596,261.501,246.13,264.444,262.712,249.438,0.734529,0.852544,234.897,249.721
2015-09-29 20:00,0.815826,283.093,242.142,236.146,239.183,235.435,228.278,0.750949,0.878305,221.371,227.694
2015-09-29 21:00,0.297178,290.939,285.658,259.244,287.407,283.917,258.392,0.458309,0.471459,236.542,253.405
2015-09-29 22:00,-0.00887976,287.155,281.978,257.233,283.23,279.511,256.035,-0.0,-0.00896464,234.041,249.513
2015-09-29 23:00,-0.0900344,259.954,251.147,240.32,253.069,250.357,242.384,-0.0680643,-0.0746638,232.328,242.105
2015-09-30 01:00,-0.0,278.279,271.299,250.303,271.785,269.329,249.305,-0.0,-0.00160219,230.184,245.918
2015-09-30 02:00,-0.0,259.505,251.147,239.419,250.415,248.121,238.727,-0.0,-0.0,228.048,238.85
2015-09-30 03:00,-0.0,281.346,275.823,253.741,276.772,272.883,251.422,-0.0,-0.0,228.921,247.481
2015-09-30 04:00,-0.0,261.251,257.683,244.07,259.974,258.591,246.044,-0.0,-0.0,232.251,247.481
2015-09-30 05:00,-0.0,254.966,255.587,242.656,258.491,258.04,245.35,-0.0,-0.0,229.935,247.04
2015-09-30 06:00,-0.0,253.81,254.328,241.936,256.789,255.992,245.211,-0.0,-0.0,229.769,245.69
2015-09-30 07:00,-0.00220392,248.394,245.89,237.101,246.135,245.186,236.46,-0.0,-0.0,225.739,238.027
2015-09-30 08:00,-0.0,239.711,232.56,230.027,231.957,229.909,226.574,-0.0,-0.0,220.916,228.242
2015-09-30 09:00,-0.0285063,258.096,251.53,240.766,251.856,249.144,239.47,-0.0,-0.0,226.778,240.835
2015-09-30 10:00,0.547804,270.151,251.53,240.766,249.998,246.035,235.846,0.587511,0.693144,220.801,232.508
2015-09-30 11:00,0.465007,268.382,243.94,236.784,241.815,238.282,230.931,0.474484,0.565751,222.368,230.524
2015-09-30 12:00,0.48827,270.434,242.824,235.823,243.438,242.364,235.846,0.611858,0.682226,225.643,235.592
2015-09-30 13:00,0.496578,299.672,274.916,253.381,277.226,274.617,255.28,0.358354,0.453506,230.755,249.198
2015-09-30 14:00,0.276164,297.947,286.328,259.574,287.543,282.758,258.392,0.145018,0.247975,231.709,249.513
2015-09-30 15:00,0.278272,291.315,271.023,250.931,268.524,262.537,243.808,0.170106,0.264555,226.685,239.39
2015-09-30 16:00,0.364413,292.771,257.511,244.07,256.406,251.552,239.025,0.277693,0.338719,227.51,238.986
2015-09-30 17:00,0.468218,291.19,262.458,246.533,263.393,261.831,247.959,0.413676,0.479544,230.43,246.032
2015-09-30 18:00,0.641197,288.841,247.357,238.81,249.998,248.121,238.428,0.769221,0.851323,227.87,240.964
2015-09-30 19:00,0.961905,304.239,254.509,242.225,257.361,254.472,242.384,0.986185,1.11043,230.511,244.764
2015-09-30 20:00,1.16135,301.913,251.339,240.766,252.465,250.357,239.913,1.06049,1.21335,229.348,241.348
2015-09-30 21:00,2.46587,284.888,246.523,237.884,248.307,247.501,239.322,1.78449,2.32987,229.601,240.576
2015-09-30 22:00,-0.0,251.282,246.313,237.258,245.914,244.328,237.373,-0.0,-0.0,224.359,233.928
2015-09-30 23:00,-0.0902272,265.791,258.534,244.488,260.158,258.04,246.869,-0.06821,-0.0748237,231.865,244.881
