# timestamp,IR_016,IR_039,IR_087,IR_097,IR_108,IR_120,IR_134,VIS006,VIS008,WV_062,WV_073
2014-03-01 00:00,-0.00236454,277.451,277.852,257.685,280.785,278.609,258.515,-0.0,-0.00238714,239.41,253.974
2014-03-01 01:00,-0.0,285.665,284.3,261.731,286.31,283.629,261.182,-0.0,-0.0,241.704,255.821
2014-03-01 02:00,-0.0,283.428,282.096,260.228,284.361,282.028,260.701,-0.0,-0.00145717,240.43,254.629
2014-03-01 03:00,-0.0,271.261,273.065,254.69,275.703,275.085,257.653,-0.0,-0.0,240.014,255.821
2014-03-01 04:00,0.00130359,246.775,243.049,236.625,242.283,242.364,236.0,-0.0,-0.0,229.263,236.179
2014-03-01 05:00,-0.00276864,273.088,271.574,253.14,273.529,272.086,255.658,-0.0,-0.0,243.147,253.5
2014-03-01 06:00,-0.0,272.322,272.256,254.217,274.778,273.675,256.909,-0.0,-0.0,243.202,256.181
2014-03-01 07:00,-0.0,274.073,275.823,256.32,278.873,277.853,258.76,-0.0,0.00208504,244.997,257.769
2014-03-01 08:00,0.0032575,285.512,284.528,261.305,286.31,284.205,261.421,-0.0,-0.0,245.507,258.628
2014-03-01 09:00,-0.00940459,273.831,271.984,253.501,274.0,272.246,255.658,-0.0,-0.0,245.759,257.158
2014-03-01 10:00,0.586072,280.613,273.065,254.336,275.396,273.832,256.285,0.545036,0.640173,246.505,258.457
2014-03-01 11:00,0.477558,292.534,286.105,262.049,287.407,284.922,262.017,0.284136,0.491896,246.208,259.051
2014-03-01 12:00,0.384217,295.902,289.699,264.543,290.367,286.907,262.492,0.15329,0.420383,247.474,260.381
2014-03-01 13:00,0.340006,297.649,288.195,263.411,289.032,286.343,262.255,0.203593,0.372634,246.652,260.545
2014-03-01 14:00,0.284326,295.476,286.328,262.366,287.407,284.922,261.898,0.216444,0.33708,247.996,261.755
2014-03-01 15:00,0.239547,299.672,290.965,265.557,291.817,287.888,262.61,0.123325,0.269788,248.371,262.309
2014-03-01 16:00,0.212946,296.427,288.412,264.236,289.434,286.767,262.61,0.13296,0.251012,246.75,260.952
2014-03-01 17:00,0.286575,261.666,230.559,230.743,227.414,226.974,224.657,0.384184,0.463157,219.014,221.436
2014-03-01 18:00,0.359168,257.103,219.628,224.102,220.519,220.984,219.551,0.752392,0.859554,218.391,218.41
2014-03-01 19:00,0.0861948,277.869,273.997,254.808,274.933,274.147,256.41,0.13988,0.152283,242.155,257.682
2014-03-01 20:00,0.40591,282.059,271.023,253.02,273.215,272.565,256.909,0.582476,0.641295,244.322,259.051
2014-03-01 21:00,0.252132,291.065,288.195,263.825,290.367,287.748,262.728,0.26092,0.401612,244.583,260.708
2014-03-01 22:00,-0.0621432,268.686,268.199,251.429,269.842,269.165,255.027,-0.0526166,-0.0941059,243.31,257.333
2014-03-01 23:00,-0.00419754,225.382,204.418,219.183,204.12,203.351,205.361,-0.0071081,-0.00847533,203.429,203.524
2014-03-02 00:00,-0.0,268.986,257.339,245.04,254.263,249.955,235.072,-0.0,-0.0,228.575,241.728
2014-03-02 01:00,-0.0017202,249.156,228.769,229.484,226.221,222.169,216.269,-0.0,-0.0,215.873,221.878
2014-03-02 02:00,-0.0,286.421,285.77,262.261,288.493,286.907,263.2,-0.0,-0.0,239.774,256.716
2014-03-02 03:00,-0.0,284.57,282.096,260.011,283.797,280.85,257.282,-0.0,-0.0,237.528,253.405
2014-03-02 04:00,0.00130007,286.121,285.882,262.366,288.897,287.048,262.847,-0.0,-0.0,237.849,254.256
2014-03-02 05:00,0.00138069,285.045,285.321,261.838,288.222,286.626,262.61,-0.0,-0.0,237.913,255.366
2014-03-02 06:00,-0.0,285.045,285.321,261.305,288.087,286.907,262.847,-0.0,-0.0,238.483,256.894
2014-03-02 07:00,-0.0,284.249,285.095,261.412,288.222,287.048,263.083,-0.0,-0.0,237.977,257.07
2014-03-02 08:00,-0.0,282.059,281.86,259.683,283.938,282.028,258.638,-0.0,-0.0,234.257,253.88
2014-03-02 09:00,-0.0092966,281.883,283.38,260.445,286.722,285.35,261.898,-0.0,-0.0,234.968,256.001
2014-03-02 10:00,0.621727,284.73,283.956,260.553,287.543,286.485,263.318,0.69092,0.637478,235.867,256.805
2014-03-02 11:00,0.560212,296.008,284.185,260.984,287.679,287.048,263.436,0.463363,0.526337,236.071,256.805
2014-03-02 13:00,0.306855,297.848,290.123,264.339,292.73,290.511,264.372,0.146795,0.346963,236.139,257.158
2014-03-02 14:00,0.24952,298.339,292.211,266.059,294.533,291.6,264.488,0.110612,0.292791,235.731,256.894
2014-03-02 15:00,0.255625,298.436,289.911,264.747,292.079,289.551,264.022,0.136805,0.276328,236.139,256.716
2014-03-02 16:00,0.257441,296.219,287.76,263.307,290.234,287.748,263.436,0.184673,0.296,236.274,256.539
2014-03-02 17:00,0.182653,294.38,288.303,263.515,289.968,287.748,263.083,0.123722,0.230181,235.731,256.271
2014-03-02 18:00,0.210934,298.045,291.279,265.557,292.989,289.826,263.905,0.103271,0.239026,234.329,256.181
2014-03-02 19:00,0.210903,296.427,290.017,264.645,291.686,288.861,263.318,0.137362,0.251135,233.603,256.091
2014-03-02 20:00,0.413669,290.429,276.208,256.434,275.857,272.246,252.205,0.361479,0.492581,229.935,249.408
2014-03-02 21:00,0.346459,291.065,282.682,259.574,283.514,280.406,257.777,0.317391,0.389909,230.511,252.342
2014-03-02 22:00,-0.028833,276.155,270.885,253.02,270.169,267.171,249.171,-0.0,-0.0291086,226.499,246.595
2014-03-02 23:00,-0.00830653,249.156,235.275,232.491,233.577,231.459,226.918,-0.00703313,-0.0125789,222.15,228.603
2014-03-03 00:00,-0.0,282.059,276.336,255.858,276.772,273.99,253.368,-0.0,-0.0,226.592,245.46
2014-03-03 01:00,-0.0,280.05,272.796,253.98,272.264,268.67,249.705,-0.0,-0.0,223.746,241.348
2014-03-03 02:00,0.00143358,281.883,275.951,255.974,276.62,272.883,251.159,-0.0,-0.0,226.499,244.764
2014-03-03 03:00,0.00131322,280.427,273.732,254.454,273.529,269.984,249.838,-0.0,-0.0,225.449,243.336
2014-03-03 04:00,-0.0,285.202,283.495,260.876,285.757,283.049,259.614,-0.0,-0.0,229.601,250.442
2014-03-03 05:00,-0.0,285.512,283.032,260.769,284.921,281.882,258.76,-0.0,-0.0,229.433,249.617
2014-03-03 06:00,0.00158919,279.278,272.931,255.16,271.785,265.82,245.905,-0.0,-0.0,225.254,242.602
2014-03-03 07:00,-0.0,278.883,271.437,253.621,269.842,263.933,244.792,-0.0,-0.0,224.258,241.854
2014-03-03 08:00,-0.0,276.376,271.574,253.86,272.104,268.007,248.499,-0.0,0.00326004,226.405,244.764
2014-03-03 09:00,-0.0,277.869,270.607,253.14,269.842,264.623,245.767,-0.0,-0.0,224.56,242.105
2014-03-03 10:00,0.540179,275.48,258.871,245.587,257.739,251.156,236.307,0.515579,0.664327,223.746,237.888
2014-03-03 11:00,0.571941,282.753,245.032,237.258,243.895,241.251,233.819,0.539291,0.67583,224.959,235.592
2014-03-03 13:00,0.307408,296.427,288.087,263.411,289.3,285.777,260.098,0.123634,0.352244,229.517,249.198
2014-03-03 14:00,0.242088,298.144,290.335,264.747,291.292,287.469,261.301,0.09307,0.276109,229.601,250.032
2014-03-03 15:00,0.263315,299.858,289.379,264.339,290.367,285.635,259.977,0.139087,0.284123,229.935,250.544
2014-03-03 16:00,0.235248,295.042,282.331,260.119,282.231,277.396,255.532,0.153685,0.264019,227.87,247.917
2014-03-03 17:00,0.236096,294.933,279.702,258.691,278.278,272.883,250.633,0.142176,0.268943,227.055,245.46
2014-03-03 18:00,0.260468,287.729,264.788,249.542,261.25,254.472,238.128,0.186422,0.316712,222.15,236.614
2014-03-03 19:00,0.398133,278.279,242.824,236.943,238.446,234.216,225.36,0.373873,0.49877,217.36,225.994
2014-03-03 20:00,0.576343,282.581,244.38,237.728,239.183,234.461,224.834,0.506062,0.65189,216.15,224.61
2014-03-03 21:00,1.0829,274.314,221.841,226.481,219.167,216.652,214.671,0.892502,1.14559,212.922,216.392
2014-03-03 22:00,0.0268678,246.775,226.583,228.749,223.758,221.283,218.025,-0.0,-0.0,215.593,219.843
2014-03-03 23:00,-0.0123284,262.475,244.16,237.101,242.747,239.438,230.44,-0.00695898,-0.00829753,222.692,231.53
2014-03-04 00:00,-0.0,262.869,250.566,241.354,249.579,245.612,234.447,-0.0,-0.0,220.57,234.082
2014-03-04 01:00,-0.0,222.276,209.237,221.386,207.702,206.513,209.42,-0.0,-0.00172204,208.652,209.707
2014-03-04 02:00,-0.0,213.142,199.463,216.631,199.196,198.656,201.016,-0.00120974,-0.0,201.207,199.57
2014-03-04 03:00,0.00130945,218.393,214.358,222.449,213.381,211.983,213.241,-0.0,-0.0,212.607,213.382
2014-03-04 04:00,-0.00129325,222.276,215.64,223.076,215.26,214.364,214.062,-0.0,0.00130561,214.145,214.511
2014-03-04 05:00,-0.0,227.984,225.282,227.248,223.443,222.169,221.046,-0.0,-0.0,217.752,221.878
2014-03-04 06:00,-0.0,266.131,256.294,244.488,255.633,252.144,239.913,-0.0,-0.0,225.739,239.255
2014-03-04 07:00,-0.0,284.087,281.505,259.574,283.372,279.81,257.282,-0.0,-0.0,229.433,247.699
2014-03-04 08:00,-0.0,285.045,283.611,260.661,286.033,283.049,259.856,-0.0,-0.0,229.769,248.987
2014-03-04 09:00,-0.0,284.57,282.916,260.228,284.921,282.028,258.638,-0.0,-0.0,229.935,248.775
2014-03-04 10:00,0.407071,285.818,282.214,260.011,284.22,281.146,258.515,0.327854,0.501174,228.921,248.669
2014-03-04 11:00,0.371763,289.91,281.86,259.574,281.655,277.243,255.28,0.201564,0.464207,229.348,247.151
2014-03-04 13:00,0.401901,298.045,280.429,259.683,280.785,275.396,253.368,0.271188,0.39797,231.076,247.917
2014-03-04 14:00,0.327709,297.349,283.726,261.412,284.22,279.959,257.158,0.226416,0.346722,232.557,249.825
2014-03-04 15:00,0.335176,294.043,281.386,259.464,282.374,279.061,256.785,0.306332,0.375028,232.633,250.34
2014-03-04 17:00,0.293599,290.939,278.968,257.91,280.639,278.004,257.777,0.342882,0.411391,233.677,251.751
2014-03-04 18:00,0.337737,261.251,238.83,235.173,240.392,238.515,232.547,0.60003,0.700873,231.076,238.027
2014-03-04 19:00,0.288911,294.491,283.841,261.412,284.781,280.702,257.777,0.235389,0.355877,233.968,251.552
2014-03-04 20:00,0.596154,285.045,247.357,240.021,241.344,235.677,225.009,0.532047,0.675051,217.491,227.877
2014-03-04 21:00,1.01108,282.234,234.477,233.005,228.293,223.332,219.172,0.816494,1.04435,215.452,222.529
2014-03-04 22:00,-0.0251305,255.521,232.839,231.973,228.583,223.905,218.218,-0.0,-0.0,215.167,221.878
2014-03-04 23:00,-0.0081324,230.231,211.184,221.814,208.977,207.651,208.096,-0.00688569,-0.00821015,207.891,208.711
2014-03-05 00:00,-0.0,222.276,210.224,221.17,208.977,208.026,208.982,-0.0,-0.0,209.206,209.379
2014-03-05 01:00,-0.0,227.984,220.006,225.306,219.167,217.922,216.859,-0.0,-0.0,216.424,218.165
2014-03-05 02:00,-0.0,233.989,228.463,229.847,226.221,223.619,221.415,-0.0,-0.0,219.26,224.61
2014-03-05 03:00,-0.0,247.601,230.559,230.387,226.522,223.619,220.302,-0.0,-0.0,216.012,220.535
2014-03-05 04:00,-0.00128995,247.601,240.984,235.662,239.911,237.815,231.905,-0.0,-0.0,225.643,233.304
2014-03-05 05:00,-0.0,281.883,273.865,255.742,273.686,268.007,247.959,-0.0,-0.0,226.499,243.698
2014-03-05 06:00,-0.0,269.865,260.528,246.265,259.606,255.045,241.374,-0.0,0.00159626,226.778,240.576
2014-03-05 07:00,-0.0,251.944,243.049,236.943,242.515,240.35,234.604,-0.0,-0.0,226.685,235.295
2014-03-05 08:00,-0.00320293,278.279,270.189,253.02,269.515,265.309,247.415,-0.0,-0.0,225.931,241.98
2014-03-05 09:00,0.00900263,280.05,271.848,254.217,270.981,266.498,247.279,-0.0,-0.0,226.122,242.23
2014-03-05 10:00,0.391399,281.883,271.023,253.381,270.819,265.65,246.457,0.382381,0.547118,226.871,242.725
2014-03-05 11:00,0.402513,290.429,279.091,258.246,279.318,274.929,253.881,0.24383,0.469132,229.433,246.595
2014-03-05 12:00,0.371431,294.156,281.505,259.902,281.51,276.477,254.9,0.175289,0.418012,230.184,247.261
2014-03-05 13:00,0.303914,296.738,284.982,262.261,284.22,278.458,255.784,0.129315,0.342641,231.473,248.562
2014-03-05 14:00,0.294145,297.649,282.566,261.091,281.799,275.706,253.625,0.170111,0.331425,231.943,248.455
2014-03-05 15:00,0.299424,291.19,273.865,255.742,273.057,267.339,248.094,0.267891,0.359806,229.935,245.918
2014-03-05 16:00,0.22301,274.314,258.871,246.13,258.491,256.18,244.09,0.435508,0.493859,228.921,242.971
2014-03-05 17:00,0.353935,267.123,202.646,219.183,200.733,199.543,202.743,0.730394,0.823497,201.973,202.271
2014-03-05 18:00,0.438663,269.283,199.463,217.342,197.601,195.415,200.006,0.769798,0.872559,199.307,199.092
2014-03-05 19:00,0.534623,277.026,209.237,221.386,207.269,205.74,206.97,0.786369,0.904468,208.464,208.711
2014-03-05 20:00,0.735244,284.41,0.0,223.489,209.808,207.274,208.982,0.821648,0.960588,209.926,210.67
2014-03-05 21:00,1.10943,279.667,212.119,222.449,210.218,208.397,208.982,0.959448,1.20389,211.636,210.984
2014-03-05 22:00,-0.0,244.063,226.261,228.749,222.485,219.165,216.663,-0.0,-0.0,214.293,219.134
2014-03-05 23:00,-0.00804693,249.89,243.496,237.101,242.747,240.576,234.447,-0.00681332,-0.00812386,225.546,235.592
2014-03-06 00:00,-0.00229567,257.103,253.226,243.226,253.469,251.156,240.938,-0.0,-0.0,226.871,241.602
2014-03-06 01:00,-0.00169153,233.989,223.252,226.866,222.162,219.777,217.639,-0.0,-0.0,215.734,219.843
2014-03-06 02:00,-0.0,245.01,235.011,231.973,234.107,231.459,225.009,-0.0,-0.0,223.434,232.669
2014-03-06 03:00,-0.0,251.282,242.37,236.943,241.58,238.049,231.743,-0.0,-0.0,223.329,232.988
2014-03-06 04:00,-0.0,256.062,249.583,241.207,249.368,246.246,236.613,-0.0,-0.0,224.56,238.578
2014-03-06 05:00,-0.0,268.382,260.201,246.667,260.158,257.486,244.932,-0.0,-0.0,226.122,241.602
2014-03-06 06:00,-0.0,261.666,247.357,239.267,245.471,241.027,231.419,-0.0,-0.0,223.013,234.694
2014-03-06 07:00,-0.0,264.377,247.973,239.871,245.693,241.475,231.419,-0.0,-0.0,221.93,232.669
2014-03-06 08:00,-0.00319057,277.661,269.767,252.29,268.358,264.623,247.551,-0.0,-0.0,225.835,242.971
2014-03-06 09:00,-0.0,274.551,264.021,249.029,262.685,258.957,243.808,-0.0,-0.0,225.546,240.835
2014-03-06 10:00,0.42602,275.932,261.662,247.728,260.158,255.425,239.765,0.429417,0.593938,224.56,240.185
2014-03-06 11:00,0.390776,261.666,228.769,229.301,223.758,220.384,216.859,0.442086,0.570219,214.293,220.075
2014-03-06 12:00,0.30921,277.661,246.102,239.57,240.392,233.225,223.77,0.289367,0.41896,218.517,229.489
2014-03-06 13:00,0.27203,272.836,245.89,238.195,241.815,238.049,228.782,0.252575,0.385419,222.04,231.695
2014-03-06 14:00,0.239424,290.171,271.711,253.741,268.855,262.888,244.09,0.133662,0.296165,230.593,247.151
2014-03-06 15:00,0.24655,295.151,281.029,259.574,280.639,276.323,254.264,0.141911,0.283239,234.401,252.634
2014-03-06 16:00,0.241503,289.647,277.224,257.459,277.226,273.675,253.111,0.233983,0.312953,235.867,253.309
2014-03-06 17:00,0.218742,294.823,281.386,260.011,280.931,276.323,255.027,0.134599,0.251648,235.867,252.925
2014-03-06 18:00,0.242533,293.124,277.476,257.91,276.468,271.283,250.369,0.168463,0.281506,235.386,251.949
2014-03-06 19:00,0.218068,296.943,288.195,264.441,288.493,285.208,261.182,0.125678,0.259003,237.977,257.07
2014-03-06 20:00,0.582387,287.729,256.644,244.488,253.269,248.327,234.134,0.516149,0.681368,225.643,238.85
2014-03-06 21:00,1.09061,285.202,253.226,242.513,251.447,247.085,234.291,0.918314,1.1862,225.931,239.255
2014-03-06 22:00,0.0222027,249.156,231.427,230.921,228.001,226.151,221.782,-0.0,-0.0,213.541,216.909
2014-03-06 23:00,-0.0119439,218.393,206.1,219.183,205.043,204.955,206.515,-0.0101129,-0.00803871,206.498,205.868
2014-03-07 01:00,-0.0,222.276,206.1,219.409,205.043,204.559,207.872,-0.0,-0.0,206.292,205.491
2014-03-07 02:00,-0.0,245.01,234.208,232.319,231.683,229.385,225.009,-0.0,-0.0,221.819,227.877
2014-03-07 03:00,0.00129854,222.276,218.474,224.507,218.13,217.29,216.859,-0.0,-0.0,216.287,218.41
2014-03-07 04:00,-0.0,251.944,245.248,238.503,243.667,240.576,232.707,-0.0,-0.0,227.601,238.303
2014-03-07 05:00,-0.0,230.231,214.358,223.489,210.218,207.274,207.648,-0.0,-0.0,208.464,212.207
2014-03-07 06:00,0.00157362,249.89,238.09,235.823,232.23,226.426,220.302,-0.0,-0.0,219.863,229.664
2014-03-07 07:00,0.00202957,284.73,280.549,259.134,281.51,278.004,256.285,-0.0,-0.0,229.517,248.882
2014-03-07 08:00,-0.0,283.594,281.148,259.683,281.943,279.061,257.9,-0.0,-0.0,232.784,250.34
2014-03-07 09:00,-0.0,280.05,276.971,256.664,277.828,274.929,255.909,-0.0,-0.0,232.02,248.455
2014-03-07 10:00,0.369035,270.713,268.343,251.429,271.303,270.96,255.28,0.468692,0.486402,234.113,251.051
2014-03-07 11:00,0.477803,265.446,252.853,241.646,253.269,252.144,242.814,0.703089,0.788426,229.517,241.602
2014-03-07 12:00,0.22632,257.605,250.371,240.021,251.652,250.757,241.374,0.704351,0.776021,232.86,244.294
2014-03-07 13:00,0.476966,294.602,266.442,250.429,268.855,267.84,253.368,0.447116,0.534681,238.42,254.162
2014-03-07 14:00,0.311035,297.549,283.148,260.769,284.501,281.735,260.461,0.199747,0.336628,240.134,256.181
2014-03-07 15:00,0.251896,296.531,287.869,264.133,289.166,286.343,262.492,0.163824,0.285017,239.166,256.539
2014-03-07 16:00,0.21313,295.69,286.772,263.411,287.815,285.065,261.898,0.153949,0.272302,239.471,256.982
2014-03-07 17:00,0.237157,253.81,232.28,230.921,233.041,232.221,227.94,0.657459,0.736293,227.601,232.022
2014-03-07 18:00,0.391933,263.255,199.463,217.106,197.601,196.363,202.009,0.83024,0.913447,199.867,199.092
2014-03-07 19:00,0.530093,268.986,212.119,222.027,211.028,209.859,211.146,0.877399,0.994136,211.636,213.092
2014-03-07 20:00,0.822117,276.811,213.921,222.868,212.997,211.983,211.781,1.06501,1.2256,213.078,213.952
2014-03-07 21:00,1.01635,270.989,213.479,222.659,212.997,212.329,212.619,0.984958,1.23622,213.541,213.092
2014-03-07 22:00,-0.02096,nan,204.988,219.183,204.584,203.757,205.593,-0.0,-0.0,204.795,204.721
2014-03-07 23:00,-0.00787942,222.276,204.418,218.272,204.12,203.351,205.825,-0.0066715,-0.0119321,205.233,205.491
2014-03-08 00:00,-0.0,213.142,203.838,218.272,203.652,202.941,204.893,-0.0,-0.0,204.795,203.929
2014-03-08 01:00,-0.0,204.719,210.224,220.736,209.808,209.497,209.638,-0.0,-0.0,209.748,210.353
2014-03-08 02:00,-0.0,239.711,232.839,231.45,230.853,228.324,224.657,-0.0,-0.0,219.26,227.323
2014-03-08 03:00,-0.00129504,245.913,243.049,236.784,243.209,242.143,235.072,-0.0,-0.0,226.027,236.757
2014-03-08 04:00,-0.00128052,253.206,249.781,240.766,249.789,248.532,240.06,-0.0,-0.0,226.405,240.185
2014-03-08 05:00,-0.00136092,256.062,252.479,241.936,253.469,251.354,240.938,-0.0,-0.0,228.048,241.475
2014-03-08 06:00,-0.0,256.062,252.666,242.081,254.263,252.927,243.099,-0.0,-0.0,227.78,242.725
2014-03-08 07:00,0.00202435,268.986,264.482,249.029,267.016,265.138,251.028,-0.0,-0.0,234.897,250.135
2014-03-08 08:00,-0.0,284.249,283.032,260.445,285.201,283.484,259.977,-0.0,-0.0,236.274,254.256
2014-03-08 09:00,0.00874817,280.982,276.971,256.778,277.377,275.085,254.519,-0.0,-0.0,238.483,254.722
2014-03-08 10:00,0.403993,286.271,285.77,261.838,288.222,286.907,263.2,0.324518,0.564722,246.307,262.623
2014-03-08 11:00,0.393478,291.686,288.195,263.411,290.367,288.722,263.553,0.221172,0.494046,248.649,264.839
2014-03-08 12:00,0.335151,289.647,280.308,258.469,280.493,277.548,255.406,0.174762,0.408502,242.765,257.855
2014-03-08 13:00,0.2886,297.349,291.174,265.355,292.6,290.375,264.488,0.128747,0.341485,248.277,264.989
2014-03-08 14:00,0.246922,295.26,286.105,262.155,286.585,283.629,259.005,0.125217,0.294606,244.635,261.675
2014-03-08 16:00,0.263086,295.151,286.55,262.681,288.222,286.343,262.965,0.208449,0.31799,247.426,265.137
2014-03-08 17:00,0.222445,297.146,289.911,264.645,291.686,289.276,264.022,0.135304,0.262,246.505,264.69
2014-03-08 18:00,0.200274,297.649,291.487,265.456,292.6,289.689,263.67,0.106446,0.242036,246.847,265.212
2014-03-08 19:00,0.184895,295.26,290.965,265.254,292.079,289.551,264.488,0.115848,0.237062,247.712,265.212
2014-03-08 20:00,0.206998,295.042,291.487,265.658,292.6,290.238,264.605,0.144885,0.275849,247.474,265.137
2014-03-08 21:00,0.280099,292.771,289.911,264.95,291.686,289.826,264.488,0.310943,0.38332,247.234,265.434
2014-03-08 22:00,-0.0,287.587,287.102,262.89,289.166,287.469,264.022,-0.0,-0.0,247.522,265.063
2014-03-08 23:00,-0.0116962,284.41,284.414,261.198,286.997,285.777,262.965,-0.00660211,-0.011808,247.996,265.434
2014-03-09 00:00,-0.00225572,287.587,287.212,262.995,289.032,287.329,263.553,-0.0,-0.0,245.557,264.389
2014-03-09 01:00,-0.0,287.01,287.432,263.203,289.434,288.167,264.138,-0.0,-0.0,246.208,264.989
2014-03-09 02:00,-0.0,278.482,279.091,258.358,281.655,280.702,260.581,-0.0,-0.0,245.405,263.322
2014-03-09 03:00,-0.0,282.753,282.331,260.337,284.501,282.758,261.182,-0.0,-0.0,245.405,263.476
2014-03-09 04:00,-0.0,284.41,284.3,261.305,287.134,285.777,262.847,-0.0,-0.0,244.842,263.629
2014-03-09 05:00,-0.0,286.717,287.102,262.681,289.3,288.167,264.138,-0.0,-0.0,246.109,263.934
2014-03-09 06:00,-0.0,286.121,287.212,263.099,289.701,288.861,264.138,-0.0,-0.0,245.253,263.858
2014-03-09 07:00,-0.0,286.121,286.992,262.89,289.434,288.722,264.255,-0.0,-0.0,246.059,263.934
2014-03-09 08:00,-0.0,285.97,286.992,262.576,289.568,288.999,264.488,-0.0,-0.0,246.009,263.858
2014-03-09 09:00,0.00867104,285.512,286.772,262.261,289.032,288.167,264.022,-0.0,-0.0,245.507,263.322
2014-03-09 10:00,0.397738,287.01,287.432,263.099,289.835,288.722,264.488,0.301315,0.581176,245.809,263.012
2014-03-09 11:00,0.411419,292.174,289.911,264.339,291.817,289.964,264.605,0.182602,0.532588,245.709,263.244
2014-03-09 12:00,0.387135,296.427,291.902,265.456,293.635,290.921,265.069,0.149152,0.461145,245.557,262.935
2014-03-09 13:00,0.307829,298.436,293.031,266.458,294.277,291.193,264.372,0.11189,0.354719,244.426,262.388
2014-03-09 14:00,0.250045,299.579,293.641,267.052,294.916,291.735,264.953,0.0918543,0.292505,243.899,262.545
2014-03-09 15:00,0.237031,299.297,291.383,265.859,292.989,289.826,264.022,0.118968,0.275069,242.71,261.194
2014-03-09 16:00,0.193535,300.408,294.044,267.642,295.424,292.006,264.605,0.0706671,0.229578,241.817,260.627
2014-03-09 17:00,0.211514,299.203,292.005,266.259,293.506,290.511,264.372,0.104197,0.244596,242.765,260.708
2014-03-09 18:00,0.187757,299.013,293.539,267.151,294.788,291.871,265.185,0.0720351,0.211765,244.997,261.675
2014-03-09 19:00,0.15232,295.476,290.756,265.658,292.209,289.826,264.372,0.114814,0.196908,244.583,261.515
2014-03-09 20:00,0.380885,287.3,268.487,251.922,266.508,263.063,245.211,0.346034,0.451888,232.481,246.707
2014-03-09 21:00,0.0253248,291.065,290.44,265.557,292.34,290.238,264.837,0.128655,0.108659,240.607,259.804
2014-03-09 22:00,-0.0188199,287.444,284.071,261.091,284.781,282.613,259.492,-0.0,-0.0,238.231,256.181
2014-03-09 23:00,-0.00771678,289.647,289.272,264.339,291.686,290.101,264.721,-0.00980068,-0.0116858,239.043,259.554
2014-03-10 00:00,-0.0,288.705,287.869,264.031,289.968,288.027,263.436,-0.0,-0.0,242.042,0.0
2014-03-10 01:00,-0.0,288.291,286.217,262.366,288.087,286.202,261.301,-0.0,-0.0,243.202,259.97
2014-03-10 02:00,-0.0,266.131,260.036,246.667,258.304,256.928,245.489,-0.0,-0.00141471,230.101,240.053
2014-03-10 03:00,-0.00128826,233.989,229.673,229.847,228.293,227.787,225.009,-0.0,-0.0,221.93,224.811
2014-03-10 04:00,-0.00127463,238.442,240.514,235.662,240.87,240.123,236.0,-0.0,-0.0,232.251,236.614
2014-03-10 05:00,-0.00135508,286.569,285.433,262.049,287.951,286.202,262.255,-0.0,-0.0,241.647,258.457
2014-03-10 06:00,-0.0,284.57,284.869,262.155,287.543,286.06,262.965,-0.0,-0.0,241.419,257.855
2014-03-10 07:00,-0.00201453,287.01,286.772,263.307,289.3,287.609,263.083,-0.0,-0.0,241.073,258.457
2014-03-10 08:00,-0.0,287.155,286.882,263.307,289.3,287.748,263.436,-0.0,-0.0,240.899,258.286
2014-03-10 09:00,-0.0,287.01,286.772,262.995,289.434,287.609,263.2,-0.0,-0.0,240.489,257.158
2014-03-10 10:00,0.412424,288.291,287.102,263.203,289.3,287.329,263.083,0.295476,0.576508,241.189,257.333
2014-03-10 11:00,0.426144,292.534,288.412,264.236,289.835,287.188,0.0,0.186045,0.514245,242.655,257.421
2014-03-10 12:00,0.324392,289.779,279.213,258.469,278.576,275.24,254.009,0.18079,0.397966,234.185,249.408
2014-03-10 13:00,0.274177,279.278,262.616,247.991,261.791,259.139,244.09,0.228188,0.368016,228.575,242.105
2014-03-10 14:00,0.27175,275.932,246.313,239.267,242.747,238.515,229.781,0.245804,0.370704,221.708,230.354
2014-03-10 15:00,0.244876,274.551,249.583,240.469,247.012,243.461,232.227,0.236363,0.338687,222.585,231.859
2014-03-10 16:00,0.231579,273.338,247.15,239.871,243.438,240.123,231.905,0.301815,0.369661,222.476,231.53
2014-03-10 17:00,0.325229,258.096,220.75,225.701,220.852,220.081,218.982,0.761896,0.853939,219.26,220.306
2014-03-10 18:00,0.425409,266.797,213.921,222.868,213.763,212.673,213.653,0.797659,0.896103,213.693,213.668
2014-03-10 19:00,0.544994,270.434,212.578,223.076,211.825,211.635,212.827,0.892866,1.00808,211.8,212.207
2014-03-10 20:00,0.826306,279.859,219.628,225.504,219.167,217.922,217.832,0.979485,1.13395,217.752,218.895
2014-03-10 21:00,1.12111,277.661,220.006,225.701,218.478,216.972,216.859,0.987433,1.2294,216.287,218.895
2014-03-10 22:00,-0.0,227.984,221.841,226.866,220.852,219.472,218.41,-0.0,-0.0,217.36,220.075
2014-03-10 23:00,-0.0114561,235.601,229.072,229.665,229.444,228.856,226.574,-0.00969982,-0.00771038,223.434,226.948
2014-03-11 00:00,0.00222979,230.231,229.072,230.387,229.444,228.59,226.056,-0.0,-0.0,223.538,227.323
2014-03-11 01:00,-0.00165739,242.013,234.477,232.834,233.31,230.429,225.535,-0.0,-0.0,220.57,228.782
2014-03-11 02:00,-0.0,258.096,258.025,245.995,260.706,259.864,248.229,-0.0,-0.0,230.835,246.818
2014-03-11 03:00,-0.0,245.01,240.039,235.985,238.446,237.345,231.581,-0.0,-0.0,222.368,232.022
2014-03-11 04:00,-0.0,227.984,223.252,226.674,222.485,221.875,221.23,-0.0,-0.0,218.891,221.436
2014-03-11 05:00,-0.00135231,235.601,226.261,228.378,224.694,223.619,221.598,-0.0,-0.0,219.863,223.167
2014-03-11 06:00,-0.0,245.913,236.832,233.344,235.414,233.969,229.283,-0.0,-0.0,223.434,230.183
2014-03-11 07:00,-0.00200991,230.231,229.072,229.665,228.583,227.787,225.883,-0.0,-0.0,222.368,226.57
2014-03-11 08:00,-0.0,244.063,243.273,236.943,243.438,242.585,236.307,-0.0,-0.0,227.78,237.748
2014-03-11 09:00,-0.0,263.255,262.931,248.382,264.618,263.586,250.896,-0.0,-0.0,228.748,246.032
2014-03-11 10:00,0.865357,271.531,244.38,238.04,247.012,246.457,239.322,0.741742,0.895201,229.852,238.986
2014-03-11 11:00,0.397534,286.864,280.066,258.913,280.201,277.396,256.285,0.240423,0.5531,230.835,247.481
2014-03-11 12:00,0.617383,291.931,263.401,248.771,266.167,265.65,252.594,0.761454,0.828969,231.63,248.455
2014-03-11 13:00,0.538552,285.665,260.365,246.801,262.507,262.537,251.028,0.635744,0.699719,232.175,248.241
2014-03-11 14:00,0.448962,293.124,263.867,249.286,266.338,265.48,252.335,0.426247,0.513599,231.787,248.775
2014-03-11 15:00,0.397553,287.155,261.982,248.121,264.444,263.759,251.683,0.384398,0.452142,231.473,248.348
2014-03-11 16:00,0.371911,279.473,255.05,244.21,256.213,254.855,244.792,0.522769,0.586513,229.007,243.937
2014-03-11 17:00,0.421563,280.05,255.587,244.349,256.98,255.803,244.512,0.414789,0.497176,228.748,244.056
2014-03-11 18:00,0.274778,296.219,284.185,261.944,285.061,281.146,258.515,0.188875,0.301267,231.394,250.442
2014-03-11 19:00,0.345098,284.73,266.293,251.305,264.618,261.654,246.732,0.323954,0.427922,225.449,239.523
2014-03-11 20:00,0.524994,272.836,239.559,235.662,236.948,234.95,229.781,0.590292,0.678188,221.484,230.011
2014-03-11 21:00,1.36461,290.171,216.058,223.283,214.89,213.694,213.447,1.24429,1.57636,215.452,215.332
2014-03-11 22:00,-0.0,230.231,227.219,228.934,225.919,224.756,222.329,-0.0,-0.0,220.219,223.999
2014-03-11 23:00,-0.0113389,232.213,224.616,227.438,223.443,222.169,221.598,-0.00960064,-0.0114473,218.642,221.436
2014-03-12 00:00,-0.00221706,218.393,216.471,224.102,215.628,214.697,215.074,-0.0,-0.0,214.734,215.6
2014-03-12 01:00,-0.00165083,225.382,219.628,224.908,218.478,217.29,217.25,-0.0,-0.0,217.36,218.895
2014-03-12 02:00,-0.0,225.382,224.95,227.817,224.694,223.905,221.598,-0.0,-0.0,219.014,223.586
2014-03-12 03:00,-0.0,227.984,228.155,228.749,227.708,226.701,224.481,-0.0,-0.0,221.484,225.408
2014-03-12 04:00,-0.0,251.944,247.563,239.115,247.446,245.399,236.918,-0.0,-0.0,225.835,238.165
2014-03-12 05:00,-0.0,243.066,237.086,233.849,236.441,234.95,230.768,-0.0,-0.0,222.906,231.031
2014-03-12 06:00,-0.0,230.231,225.282,227.628,224.384,223.905,223.053,-0.0,-0.0,219.503,222.529
2014-03-12 07:00,-0.0,235.601,232.56,230.921,231.131,230.688,227.601,-0.0,-0.0,221.819,227.509
2014-03-12 08:00,-0.0,230.231,223.94,226.866,223.443,222.753,221.965,-0.0,0.00315598,219.014,221.878
2014-03-12 09:00,-0.0,232.213,227.845,228.749,228.583,227.517,223.949,-0.0,-0.0,222.692,226.57
2014-03-12 10:00,0.291388,247.601,240.75,235.499,241.107,240.123,233.503,0.566536,0.610137,226.871,235.74
2014-03-12 11:00,0.254754,256.062,251.721,241.646,252.262,252.144,243.808,0.825902,0.910313,230.593,242.602
2014-03-12 12:00,0.237226,275.48,256.469,244.903,258.116,257.486,247.279,0.613055,0.674747,232.709,246.595
2014-03-12 13:00,0.431741,279.667,255.587,244.07,257.55,256.928,247.142,0.509922,0.592212,232.633,246.371
2014-03-12 14:00,0.488491,282.408,252.101,242.369,254.066,253.703,244.792,0.670558,0.739069,232.633,244.998
2014-03-12 15:00,0.437782,280.982,258.365,245.859,260.158,259.684,248.499,0.518521,0.579772,233.308,247.151
2014-03-12 16:00,0.292421,279.473,260.365,247.465,262.329,261.477,249.438,0.32806,0.385011,233.823,248.455
2014-03-12 17:00,0.321952,284.249,263.088,248.9,264.792,263.586,251.683,0.291207,0.370717,234.615,249.928
2014-03-12 18:00,0.400341,287.729,263.245,248.9,264.965,263.933,251.814,0.332691,0.441591,233.75,249.825
2014-03-12 19:00,0.318548,296.943,281.148,259.902,282.517,278.307,256.909,0.218644,0.361555,233.456,251.152
2014-03-12 20:00,0.0881862,291.065,285.546,263.307,286.31,282.321,259.37,0.115614,0.143595,232.709,250.646
2014-03-12 21:00,0.568128,285.045,271.023,253.02,271.142,265.99,247.823,0.588558,0.802983,231.473,246.371
2014-03-12 22:00,-0.0,232.213,224.95,227.628,225.003,223.905,221.782,-0.0,-0.0,219.624,222.529
2014-03-12 23:00,-0.0149651,227.984,216.058,223.694,215.993,215.356,214.671,-0.00950317,-0.0113311,214.293,215.332
2014-03-13 00:00,-0.0,218.393,216.88,223.899,215.993,215.683,215.474,-0.0,-0.0,213.845,215.6
2014-03-13 01:00,-0.0,232.213,227.219,229.118,226.82,225.318,223.592,-0.0,-0.0,220.916,224.811
2014-03-13 02:00,-0.0,227.984,225.937,228.004,225.003,224.19,223.592,-0.0,-0.0,219.503,222.743
2014-03-13 03:00,-0.0,222.276,223.252,227.058,223.125,222.753,221.415,-0.0,-0.0,218.009,220.989
2014-03-13 04:00,-0.0,233.989,227.533,228.934,227.118,226.426,223.949,-0.0,-0.0,221.819,225.408
2014-03-13 05:00,-0.0,230.231,225.937,228.378,226.522,224.474,223.77,-0.0,0.00135991,222.585,225.604
2014-03-13 06:00,-0.00155408,242.013,240.039,235.01,240.392,239.667,234.134,-0.0,-0.0,227.51,234.996
2014-03-13 07:00,-0.00200125,249.156,247.973,239.419,248.52,247.708,240.207,-0.0,-0.0,229.263,240.835
2014-03-13 08:00,0.00311685,256.589,252.29,241.646,252.465,251.552,243.099,-0.0,-0.0,227.691,241.093
2014-03-13 09:00,-0.0,242.013,239.799,234.845,240.392,239.438,234.604,-0.0,-0.0,227.959,234.542
2014-03-13 10:00,0.316134,247.601,241.682,236.146,242.515,241.475,235.691,0.65533,0.792387,229.601,237.043
2014-03-13 11:00,0.649146,284.41,255.409,243.79,256.598,255.803,245.767,0.657848,0.757219,231.156,244.412
2014-03-13 12:00,0.545893,292.771,251.53,242.081,253.469,252.341,244.231,0.507727,0.601213,231.315,243.214
2014-03-13 13:00,0.438928,288.705,251.339,241.646,253.469,252.536,243.667,0.533568,0.607713,232.328,244.294
2014-03-13 14:00,0.442839,282.581,249.781,240.617,251.242,251.156,242.814,0.562427,0.64637,232.935,243.457
2014-03-13 15:00,0.215689,292.653,276.08,256.549,276.315,271.283,252.464,0.126271,0.2725,235.038,248.669
2014-03-13 16:00,0.213768,294.156,274.261,255.742,274.467,269.657,252.464,0.115838,0.240475,236.139,249.303
2014-03-13 17:00,0.25808,294.491,273.333,255.393,273.529,270.311,254.137,0.175691,0.277567,238.231,250.032
2014-03-13 18:00,0.197949,293.702,283.726,261.944,284.501,281.293,259.614,0.141139,0.235902,238.671,252.342
2014-03-13 19:00,0.215976,296.323,284.528,262.155,285.618,282.321,260.219,0.187679,0.24673,239.043,253.021
2014-03-13 20:00,0.888941,293.24,269.343,252.777,271.785,271.283,255.532,0.840071,0.952443,236.341,251.552
2014-03-13 21:00,0.0613185,266.466,266.886,250.806,267.185,267.673,253.753,0.248054,0.213227,239.349,250.442
2014-03-13 22:00,-0.0,222.276,224.279,226.866,223.443,224.19,223.413,-0.0,-0.0157091,220.801,221.436
2014-03-13 23:00,-0.0148143,279.667,274.261,255.043,276.468,273.517,255.027,-0.00940742,-0.0112169,233.896,249.825
2014-03-14 01:00,-0.00163799,275.02,267.909,251.429,265.654,262.712,248.229,-0.0,-0.00165365,228.4,240.706
2014-03-14 02:00,-0.0,266.131,260.854,247.332,261.069,259.139,246.594,-0.0,-0.0,230.266,243.336
2014-03-14 03:00,-0.0,265.095,264.94,249.542,266.338,265.309,251.683,-0.0,-0.0,232.481,247.917
2014-03-14 04:00,0.00126379,262.869,261.982,247.991,264.095,263.063,249.438,-0.0,-0.0,233.01,247.371
2014-03-14 05:00,-0.0,267.761,266.738,250.806,269.186,268.505,254.392,-0.0,-0.0,234.401,249.721
2014-03-14 06:00,-0.0,280.613,277.35,256.892,279.907,275.24,254.137,-0.0,0.00156608,234.329,249.408
2014-03-14 07:00,-0.0,281.165,277.852,257.459,279.907,276.477,255.909,-0.0,-0.0,236.274,249.721
2014-03-14 08:00,-0.003108,277.869,271.984,254.217,272.104,269.494,250.765,-0.0,-0.0,228.835,244.175
2014-03-14 09:00,-0.0,284.249,283.726,261.091,286.033,284.492,261.421,-0.0,-0.0,230.755,250.646
2014-03-14 10:00,0.220211,282.059,276.718,256.205,277.377,274.617,254.009,0.270356,0.366822,229.601,247.261
2014-03-14 11:00,0.381366,287.01,279.58,258.691,279.613,277.243,256.41,0.228603,0.517891,230.511,246.929
2014-03-14 12:00,0.373102,293.93,286.661,263.203,288.222,284.492,259.977,0.163217,0.443631,231.865,250.442
2014-03-14 13:00,0.268639,292.653,284.185,261.838,284.361,281.441,258.76,0.122374,0.328303,231.236,248.562
2014-03-14 14:00,0.259326,298.242,290.44,265.658,292.209,288.445,263.553,0.127895,0.296893,232.633,252.342
2014-03-14 15:00,0.207541,284.57,269.201,251.429,269.35,265.138,245.767,0.199782,0.29558,230.996,244.647
2014-03-14 16:00,0.215551,297.947,290.017,265.355,291.029,287.888,262.847,0.120288,0.25965,233.01,251.552
2014-03-14 17:00,0.191231,296.219,289.058,264.645,291.029,287.329,262.61,0.132175,0.250845,233.456,252.342
2014-03-14 18:00,0.206182,292.534,279.945,258.58,281.076,277.701,257.777,0.197345,0.298655,234.897,251.751
2014-03-14 19:00,0.121882,292.534,288.52,264.031,289.568,286.343,261.898,0.0854602,0.188416,236.874,252.828
2014-03-14 20:00,0.306453,280.05,265.243,249.669,264.27,261.477,247.415,0.337805,0.431968,232.02,242.848
2014-03-14 21:00,0.535067,266.131,252.853,242.799,251.652,252.144,243.099,0.688386,0.764673,230.511,238.986
2014-03-14 22:00,-0.0149042,222.276,222.904,226.092,222.806,223.043,221.965,-0.0,-0.0,219.982,221.658
2014-03-14 23:00,-0.0146663,275.251,266.442,250.303,267.185,263.759,247.142,-0.00931343,-0.0111049,230.348,243.457
2014-03-15 00:00,-0.0,285.512,283.726,260.984,286.033,283.484,259.614,-0.0,-0.0,232.175,250.032
2014-03-15 01:00,-0.0,284.888,284.755,261.412,287.27,285.35,262.136,-0.0,-0.0,232.784,251.252
2014-03-15 02:00,-0.0,286.271,285.546,262.366,288.358,286.06,262.492,-0.0,-0.0,233.01,251.552
2014-03-15 03:00,-0.0012726,286.271,285.882,262.155,288.358,286.485,262.61,-0.0,-0.0,232.935,251.751
2014-03-15 04:00,0.00126128,286.121,285.882,262.366,288.763,286.907,263.2,-0.0,-0.0,233.968,252.244
2014-03-15 05:00,-0.0,284.249,283.032,260.661,284.921,282.028,260.34,-0.0,0.00135496,232.557,249.408
2014-03-15 06:00,0.00154854,285.97,285.77,262.155,288.628,287.188,262.728,-0.0,-0.0,232.784,251.552
2014-03-15 07:00,-0.00199332,285.357,284.982,261.731,288.087,286.06,262.255,-0.0,-0.0,232.935,251.152
2014-03-15 08:00,-0.0,285.512,284.869,261.519,287.679,285.919,261.898,-0.0,-0.0,233.234,250.95
2014-03-15 09:00,-0.0,285.045,284.755,261.519,287.679,285.919,261.898,-0.0,-0.0,234.686,251.452
2014-03-15 10:00,0.378094,286.421,285.433,261.944,288.358,285.919,261.779,0.310716,0.561336,235.108,251.552
2014-03-15 11:00,0.402986,291.065,287.978,263.411,290.367,287.469,262.017,0.183507,0.505984,235.867,252.439
2014-03-15 12:00,0.384404,296.114,290.545,264.95,292.47,289.137,262.728,0.149542,0.448913,236.071,253.117
2014-03-15 13:00,0.292846,298.045,291.902,265.658,293.764,290.101,262.965,0.106646,0.341741,235.867,252.925
2014-03-15 14:00,0.239804,299.108,292.622,265.959,294.277,290.101,263.2,0.0850732,0.281318,236.408,253.785
2014-03-15 15:00,0.25385,296.219,286.992,262.576,288.897,285.919,262.136,0.178238,0.297531,237.463,255.091
2014-03-15 16:00,0.200164,298.144,290.545,264.747,292.209,288.861,263.436,0.100855,0.241749,238.608,256.091
2014-03-15 17:00,0.199665,299.108,292.108,265.557,293.764,290.238,263.787,0.0872903,0.23978,240.014,257.855
2014-03-15 18:00,0.190495,298.436,292.417,265.456,294.277,290.784,263.67,0.088901,0.242288,240.548,258.2
2014-03-15 19:00,0.178052,288.43,280.669,258.913,282.231,280.257,259.37,0.215598,0.276397,242.378,258.457
2014-03-15 20:00,0.113695,254.396,252.101,241.646,251.242,251.947,244.652,0.431961,0.438526,234.472,243.577
2014-03-15 21:00,0.0212744,283.093,281.624,258.469,282.803,280.85,260.098,0.108078,0.0930703,240.43,258.028
2014-03-15 22:00,-0.0,287.01,285.994,261.519,288.493,286.767,261.898,-0.0,-0.0,241.59,258.628
2014-03-15 23:00,-0.0145211,261.666,261.662,247.332,264.444,263.759,251.159,-0.00922121,-0.0109949,240.782,252.925
2014-03-16 00:00,-0.0,230.231,225.937,227.817,226.221,225.318,223.592,-0.0,-0.0,222.15,224.204
2014-03-16 01:00,-0.0,238.442,237.841,234.017,236.948,237.345,233.185,-0.0,-0.0,227.329,232.347
2014-03-16 02:00,-0.0,283.594,281.148,258.58,282.803,280.108,258.515,-0.0,-0.0,232.784,251.949
2014-03-16 03:00,-0.0,286.121,285.433,260.984,287.407,285.35,261.779,-0.0,-0.0,234.185,255.457
2014-03-16 04:00,-0.0,285.97,285.77,261.198,288.087,286.343,262.61,-0.0,-0.0,236.742,256.805
2014-03-16 05:00,-0.0,285.818,285.658,261.412,288.358,286.907,263.318,-0.0,-0.0,240.074,259.471
2014-03-16 06:00,-0.0,285.202,285.433,260.876,288.087,286.626,262.728,-0.0,-0.0,240.371,259.304
2014-03-16 07:00,-0.00198962,280.05,280.308,257.91,282.946,281.293,260.461,-0.0,-0.0,240.014,258.713
2014-03-16 08:00,-0.0,285.202,285.321,260.661,287.951,286.485,262.728,-0.0,-0.0,239.532,258.967
2014-03-16 09:00,-0.00821893,283.76,284.982,260.337,288.087,286.485,263.083,-0.0,-0.0,240.489,258.628
2014-03-16 10:00,0.359385,286.271,286.105,261.091,288.493,287.048,262.847,0.332818,0.555568,242.042,259.97
2014-03-16 11:00,0.387374,290.685,288.52,262.471,290.764,288.999,263.787,0.181257,0.524867,241.76,260.545
2014-03-16 12:00,0.372858,294.823,290.756,263.825,292.73,290.238,264.138,0.144622,0.466848,242.433,260.789
2014-03-16 13:00,0.284033,296.943,292.314,264.645,294.277,291.464,264.721,0.105549,0.356843,242.544,260.545
2014-03-16 14:00,0.232288,297.749,293.133,265.153,295.043,292.006,264.605,0.0807175,0.290086,241.817,260.217
2014-03-16 15:00,0.285497,297.146,287.541,261.944,289.3,287.048,263.318,0.19969,0.315796,242.6,260.381
2014-03-16 16:00,0.19948,297.549,290.651,263.825,292.34,289.276,264.022,0.104259,0.241167,242.71,259.804
2014-03-16 17:00,0.21733,295.69,287.978,262.049,289.434,286.767,262.492,0.154083,0.272276,245.608,260.627
2014-03-16 18:00,0.290657,286.569,272.391,252.656,274.312,272.724,256.16,0.404214,0.469801,245.557,258.628
2014-03-16 19:00,0.173244,294.491,291.07,263.928,292.47,289.689,263.905,0.0831218,0.229314,245.759,261.194
2014-03-16 20:00,0.417501,298.045,286.105,260.445,288.222,285.065,261.421,0.318646,0.51054,245.557,260.463
2014-03-16 21:00,0.550332,293.93,284.869,260.553,287.27,284.779,261.898,0.508883,0.67987,242.82,259.135
2014-03-16 22:00,-0.0,288.152,287.102,261.838,289.701,287.329,263.2,-0.0,-0.0,240.489,257.769
2014-03-16 23:00,-0.0143787,286.421,285.546,260.661,287.951,286.202,262.136,-0.00913079,-0.0108871,238.919,256.982
2014-03-17 00:00,-0.00215597,287.155,287.102,261.838,289.434,287.748,262.847,-0.0,-0.0,240.193,258.457
2014-03-17 01:00,-0.0016195,280.799,280.789,257.572,283.372,281.882,260.581,-0.0,-0.0,242.322,258.967
2014-03-17 02:00,-0.00137268,282.234,281.742,258.691,284.22,282.175,260.822,-0.0,-0.0,240.489,257.07
2014-03-17 03:00,-0.0,285.665,284.3,260.011,286.86,284.349,261.062,-0.0,-0.0,239.894,256.45
2014-03-17 04:00,-0.0,272.061,272.12,253.14,275.087,273.832,256.535,-0.0,-0.0,239.227,256.181
2014-03-17 05:00,0.00133759,286.421,285.546,260.984,287.815,285.777,261.779,-0.0,-0.0,238.294,256.716
2014-03-17 06:00,0.00154347,285.357,284.869,260.553,287.407,285.208,261.898,-0.0,-0.0,236.609,256.181
2014-03-17 07:00,-0.0,285.818,285.208,260.445,287.679,285.635,261.898,-0.0,0.00200508,235.455,255.091
2014-03-17 08:00,-0.0,285.665,285.321,260.337,287.815,286.06,262.136,-0.0,-0.0,235.317,254.629
2014-03-17 09:00,-0.0081649,280.239,280.909,257.685,283.656,282.321,260.942,-0.0,-0.0,235.525,254.536
2014-03-17 10:00,0.408302,286.717,285.77,260.661,288.087,286.202,262.017,0.326502,0.572507,236.071,254.162
2014-03-17 11:00,0.41257,291.315,287.651,261.838,289.434,286.626,261.421,0.190539,0.523224,236.139,253.595
2014-03-17 12:00,0.392586,295.583,289.593,263.411,291.029,287.188,261.898,0.153824,0.457476,236.94,254.162
2014-03-17 13:00,0.295751,297.449,290.545,263.825,291.555,287.469,262.136,0.113824,0.351269,237.849,255.091
2014-03-17 14:00,0.251664,279.859,262.931,247.067,263.217,261.477,247.687,0.43984,0.513573,233.823,245.46
2014-03-17 15:00,0.220253,253.81,247.973,239.115,249.789,248.736,240.5,0.686951,0.78014,235.247,243.698
2014-03-17 16:00,0.287709,251.944,233.116,230.921,233.842,233.474,230.604,0.613711,0.715551,226.778,230.183
2014-03-17 17:00,0.269274,263.636,243.94,236.306,243.438,241.698,234.76,0.530503,0.624588,229.348,236.757
2014-03-17 18:00,0.358385,259.954,239.074,235.01,238.938,238.282,233.819,0.562076,0.651871,229.769,234.996
2014-03-17 19:00,0.220657,285.665,273.065,253.14,273.686,269.657,250.633,0.237634,0.345874,232.02,245.918
2014-03-17 20:00,0.068212,288.841,285.208,261.305,287.134,284.061,260.942,0.0954213,0.104793,234.756,250.646
2014-03-17 21:00,0.754656,275.48,253.411,242.369,250.83,248.941,240.06,0.595115,0.754401,227.78,235.295
2014-03-17 22:00,0.0132167,277.026,271.023,252.412,270.819,269.165,252.464,-0.0,-0.0,230.101,242.848
2014-03-17 23:00,-0.0106793,279.278,274.261,254.336,274.623,272.405,253.881,-0.00904217,-0.0143752,229.769,244.764
2014-03-18 00:00,-0.0021443,277.451,273.065,253.261,274.778,272.086,253.368,-0.0,-0.0,230.018,246.818
2014-03-18 01:00,-0.00161355,283.594,280.066,257.798,281.943,278.76,256.41,-0.0,-0.00162897,229.852,248.455
2014-03-18 02:00,0.00136892,267.123,263.401,247.859,263.04,260.942,247.006,-0.0,-0.0,225.254,240.706
2014-03-18 03:00,-0.00126412,245.913,243.719,237.258,243.438,242.364,235.846,-0.0,-0.0,227.329,236.9
2014-03-18 04:00,-0.0,237.078,237.339,233.344,237.951,237.345,233.026,-0.0,-0.0,225.352,233.304
2014-03-18 05:00,0.00133545,253.81,253.04,242.369,254.854,253.316,244.372,-0.0,-0.0,229.601,244.056
2014-03-18 06:00,-0.0,251.944,253.226,242.225,255.827,255.235,245.489,-0.0,-0.0,228.4,244.175
2014-03-18 07:00,-0.0,262.869,260.036,246.265,263.04,261.654,249.037,-0.0,-0.0,229.093,246.707
2014-03-18 08:00,0.00307629,282.234,279.213,257.459,281.799,278.609,256.785,-0.0,-0.0,230.835,248.882
2014-03-18 09:00,-0.0,284.249,282.916,259.574,285.479,283.339,259.614,-0.0,0.00819062,230.835,249.617
2014-03-18 10:00,0.332147,285.202,283.726,259.902,286.172,283.773,260.461,0.290926,0.508764,231.236,250.34
2014-03-18 11:00,0.451624,290.813,282.214,259.134,284.079,280.554,258.27,0.231751,0.525024,232.935,250.442
2014-03-18 12:00,0.646897,298.242,259.871,246.13,261.611,260.405,248.903,0.491004,0.600243,234.686,248.775
2014-03-18 13:00,0.496175,287.871,259.373,245.314,260.888,260.405,249.037,0.464403,0.558532,235.178,248.241
2014-03-18 14:00,0.437062,287.155,260.692,246.801,263.04,261.831,249.838,0.390618,0.501161,236.071,249.721
2014-03-18 15:00,0.254494,295.583,273.333,254.454,274.312,270.148,253.497,0.13309,0.27204,236.675,250.748
2014-03-18 16:00,0.252619,297.848,276.591,256.778,277.978,273.2,255.027,0.128964,0.270036,237.268,251.85
2014-03-18 17:00,0.179242,297.449,291.279,265.557,292.73,288.445,262.255,0.0591433,0.223533,238.357,253.213
2014-03-18 18:00,0.180702,297.248,291.694,265.859,293.377,289.137,263.2,0.0642856,0.226887,240.253,254.629
2014-03-18 19:00,0.192703,296.219,291.279,265.658,292.989,289.413,262.965,0.0824045,0.251533,239.593,254.814
2014-03-18 20:00,0.221411,294.38,290.756,265.052,292.6,289.137,263.318,0.116534,0.289981,236.004,254.629
2014-03-18 21:00,0.27987,291.686,288.52,263.721,290.764,287.748,263.2,0.320224,0.374182,236.808,254.907
2014-03-18 22:00,-0.0127329,288.012,286.772,262.681,289.032,286.767,262.373,-0.0,-0.0,234.756,254.068
2014-03-18 23:00,-0.0105768,281.883,281.386,258.913,283.938,282.321,261.062,-0.00895537,-0.0106779,234.827,253.785
2014-03-19 00:00,-0.0,285.202,284.185,260.769,286.585,284.349,261.421,-0.0,-0.0,234.185,253.595
2014-03-19 01:00,-0.0016077,285.818,284.755,261.305,287.134,284.636,261.54,-0.0,-0.0,233.308,252.537
2014-03-19 02:00,-0.0,285.357,284.414,261.198,287.134,284.492,261.301,-0.0,-0.0,232.481,252.634
2014-03-19 03:00,-0.00126145,278.279,273.065,253.86,273.372,270.798,252.723,-0.0,-0.0,230.266,245.804
2014-03-19 04:00,-0.0,285.97,285.095,261.625,287.815,285.35,261.54,-0.0,-0.0,232.481,251.652
2014-03-19 05:00,-0.0,285.512,284.185,260.769,286.172,283.484,260.701,-0.0,-0.0,232.175,251.252
2014-03-19 06:00,0.00153885,266.131,261.822,247.859,262.685,260.225,247.142,-0.0,-0.0,228.224,244.881
2014-03-19 07:00,-0.0,280.799,275.823,255.742,276.772,273.517,253.497,-0.0,-0.0,228.488,247.261
2014-03-19 08:00,-0.0,278.279,270.468,252.168,270.981,267.339,247.687,-0.0,-0.0,226.685,244.056
2014-03-19 09:00,0.00806329,272.58,261.822,246.667,261.791,258.408,242.241,-0.0,-0.0,224.76,240.316
2014-03-19 10:00,0.312275,273.338,260.365,245.723,260.706,256.555,240.646,0.411293,0.525434,225.156,240.185
2014-03-19 11:00,0.302123,284.57,275.306,255.043,276.163,272.724,252.075,0.220924,0.426323,227.51,245.918
2014-03-19 12:00,0.392493,295.368,288.303,263.618,289.968,286.343,260.942,0.159942,0.472528,230.835,250.748
2014-03-19 13:00,0.300314,297.947,291.383,265.658,293.248,288.999,262.728,0.108975,0.356122,231.865,251.352
2014-03-19 14:00,0.24069,299.013,292.314,266.259,293.892,289.276,263.318,0.0835774,0.289405,233.085,251.949
2014-03-19 15:00,0.210125,299.579,292.52,266.756,293.764,289.276,262.847,0.0730713,0.250015,234.756,252.439
2014-03-19 16:00,0.248388,295.583,285.994,262.366,287.407,284.205,260.942,0.192434,0.308438,235.108,252.439
2014-03-19 22:00,-0.0,273.088,272.527,254.336,274.623,273.517,256.66,-0.0,-0.0123998,236.207,253.213
2014-03-19 23:00,-0.0104764,262.869,261.501,247.2,261.069,260.584,249.572,-0.00887038,-0.0105766,230.101,245.46
2014-03-20 00:00,-0.0,222.276,219.628,224.305,218.824,218.547,218.41,-0.0,-0.0,215.452,216.909
2014-03-20 01:00,-0.00160197,230.231,227.845,229.665,227.118,226.701,225.009,-0.0,-0.0,221.258,223.999
2014-03-20 02:00,-0.0,239.711,234.208,232.146,232.23,229.909,225.883,-0.0,-0.0,219.26,227.136
2014-03-20 03:00,-0.0,237.078,234.477,232.663,233.041,231.203,227.089,-0.0,-0.0,223.538,230.011
2014-03-20 04:00,-0.0,247.601,244.815,238.349,244.8,243.679,236.918,-0.0,-0.0,225.058,236.469
2014-03-20 05:00,-0.00133144,249.156,247.15,239.419,247.878,246.666,239.025,-0.0,-0.0,229.093,240.576
2014-03-20 06:00,-0.0,272.061,263.088,248.9,263.393,259.502,246.319,-0.0,-0.0,228.136,243.457
2014-03-20 07:00,0.00197651,285.045,282.096,260.011,283.088,279.81,258.392,-0.0,-0.0,230.43,248.455
2014-03-20 08:00,-0.0,275.02,269.343,252.045,270.332,266.498,250.236,-0.0,-0.0,230.101,245.345
2014-03-20 09:00,-0.0,279.081,275.565,256.32,277.377,273.99,254.264,-0.0,-0.0,230.43,247.917
2014-03-20 10:00,0.794174,270.434,263.401,248.642,265.997,265.48,252.335,0.751535,0.848929,231.473,248.882
2014-03-20 12:00,0.555549,296.219,275.306,255.858,276.468,272.883,255.027,0.383077,0.537491,231.236,248.455
2014-03-20 13:00,0.359968,300.134,273.732,255.742,275.087,271.121,254.009,0.223868,0.371449,230.996,248.133
2014-03-20 14:00,0.225012,297.248,290.017,265.557,290.764,286.343,261.421,0.0826341,0.276428,232.251,250.34
2014-03-20 15:00,0.194377,297.749,290.965,266.458,291.817,287.048,261.779,0.0679552,0.241813,232.175,250.748
2014-03-20 16:00,0.213004,295.476,285.994,262.681,287.27,283.049,260.098,0.171913,0.309356,233.234,251.452
2014-03-20 17:00,0.163235,296.323,287.212,263.099,288.087,282.321,256.285,0.0775327,0.233125,234.686,251.652
2014-03-20 18:00,0.150096,289.91,281.742,260.228,282.087,278.609,257.653,0.116712,0.247397,234.756,251.552
2014-03-20 19:00,0.547401,267.761,216.88,224.507,217.427,215.683,214.265,0.836938,0.984007,215.167,216.392
2014-03-20 20:00,0.682479,276.594,242.142,237.101,239.669,236.396,229.283,0.704259,0.873557,221.93,230.011
2014-03-20 21:00,0.815895,273.586,242.37,236.943,239.426,235.917,229.781,0.643868,0.855683,222.585,230.183
2014-03-20 22:00,-0.0,235.601,218.474,225.107,214.89,211.983,211.358,-0.0,-0.0,210.966,213.092
2014-03-20 23:00,-0.0103782,225.382,208.223,220.517,206.833,203.757,205.825,-0.00878722,-0.0104774,208.274,208.371
2014-03-21 00:00,-0.00211047,222.276,215.218,223.489,214.89,213.016,212.827,-0.0,-0.0,213.845,215.332
2014-03-21 02:00,-0.00135814,232.213,225.282,228.749,224.072,222.169,220.86,-0.0,-0.0,218.264,222.529
2014-03-21 03:00,0.00125633,251.944,244.38,238.195,243.209,240.35,232.707,-0.0,-0.0,223.746,235.444
2014-03-21 04:00,-0.0,243.066,236.318,234.017,235.93,234.216,229.449,-0.0,-0.0,223.118,230.011
2014-03-21 05:00,-0.0,262.869,259.706,247.2,260.888,258.04,245.489,-0.0,-0.0,228.921,244.53
2014-03-21 06:00,-0.00153466,250.598,250.954,242.081,252.465,251.156,242.384,-0.0,-0.0,228.048,242.354
2014-03-21 07:00,-0.0,265.791,262.3,248.771,263.745,261.654,247.687,-0.0,-0.0,226.963,245.23
2014-03-21 08:00,0.00305601,257.103,253.411,243.084,253.867,251.354,240.5,-0.0,-0.0,224.359,240.576
2014-03-21 09:00,-0.0,249.156,244.38,238.195,245.248,243.243,235.227,-0.0,-0.0,223.849,236.614
2014-03-21 10:00,0.766568,270.151,258.534,246.13,259.606,257.301,244.652,0.728935,0.88105,226.027,242.725
2014-03-21 11:00,0.546233,280.427,257.339,244.765,258.491,256.18,244.09,0.500548,0.586357,226.871,242.971
2014-03-21 12:00,0.457848,293.472,269.485,253.02,268.358,263.759,248.499,0.284045,0.492046,227.42,243.336
2014-03-21 13:00,0.274627,280.239,256.118,244.903,252.262,246.876,234.291,0.205489,0.364297,220.916,231.695
2014-03-21 14:00,0.263622,290.041,269.059,252.534,267.016,260.405,244.652,0.162229,0.326504,225.835,239.523
2014-03-21 15:00,0.228851,287.155,271.437,254.099,269.35,264.279,247.415,0.200156,0.298319,225.739,240.964
2014-03-21 17:00,0.223749,281.165,260.036,246.399,257.55,252.536,237.977,0.223278,0.337488,225.449,238.165
2014-03-21 18:00,0.229214,291.931,276.591,257.685,275.55,269.657,249.705,0.17063,0.302846,227.42,244.881
2014-03-21 19:00,0.376341,278.883,244.16,237.884,238.693,233.722,224.657,0.402501,0.49392,218.264,226.57
2014-03-21 20:00,0.71038,273.586,208.734,220.517,207.269,206.513,208.318,0.85665,0.999694,206.905,207.678
2014-03-21 21:00,0.90068,264.377,206.643,219.409,205.497,205.349,206.743,0.851918,1.07313,206.292,207.326
2014-03-21 22:00,-0.0114694,222.276,213.479,222.449,212.219,211.284,211.146,-0.0,-0.0,211.303,213.092
2014-03-21 23:00,-0.0102822,235.601,223.597,226.674,222.485,220.984,219.172,-0.00870589,-0.0103805,218.391,222.096
2014-03-22 01:00,-0.00159085,252.585,249.583,241.061,249.998,247.915,239.322,-0.0,-0.0,226.592,241.348
2014-03-22 02:00,0.00135472,254.966,251.147,242.513,250.623,247.501,237.977,-0.0,-0.0,227.42,241.093
2014-03-22 03:00,-0.00125389,266.797,263.712,249.797,263.745,260.764,247.551,-0.0,-0.0,227.691,245.23
2014-03-22 04:00,-0.00124591,259.954,257.166,245.587,258.304,256.18,243.949,-0.0,-0.0,227.959,243.698
2014-03-22 05:00,0.00132778,284.249,278.721,258.802,279.318,274.929,253.625,-0.0,-0.0,229.093,246.145
2014-03-22 06:00,-0.0,277.026,271.984,254.572,273.057,269.0,251.683,-0.0,-0.0,230.348,246.818
2014-03-22 07:00,-0.0,274.787,266.886,251.552,265.997,262.008,245.35,-0.0,-0.0,228.224,242.23
2014-03-22 08:00,-0.0,259.045,255.587,244.488,256.021,253.703,241.953,-0.0,-0.0,229.348,243.577
2014-03-22 09:00,-0.0,251.282,245.676,238.657,244.8,241.698,233.026,-0.0,-0.0,224.959,236.614
2014-03-22 10:00,0.678802,254.966,226.583,229.118,223.125,219.777,217.055,0.806653,0.961812,213.693,220.306
2014-03-22 11:00,0.523869,264.377,230.559,230.743,226.82,223.619,220.302,0.90768,0.994709,216.695,223.167
2014-03-22 12:00,0.357526,256.589,210.707,221.386,209.394,208.397,209.856,0.816798,0.901292,209.023,210.032
2014-03-22 13:00,0.329732,255.521,214.79,223.283,213.381,211.983,211.992,0.750815,0.819284,211.47,213.092
2014-03-22 14:00,0.347394,258.576,213.479,222.868,211.825,210.219,211.358,0.627494,0.704181,209.926,211.602
2014-03-22 15:00,0.31774,257.605,212.119,222.238,209.808,208.397,209.42,0.574359,0.622462,207.105,209.379
2014-03-22 16:00,0.29828,252.585,203.247,217.809,201.728,201.271,203.228,0.703542,0.769278,202.954,201.84
2014-03-22 17:00,0.316792,264.009,215.64,223.899,215.26,213.694,212.827,0.74583,0.81507,213.995,215.061
2014-03-22 18:00,0.369316,264.377,216.471,223.694,214.517,213.016,212.827,0.702592,0.778453,213.078,214.787
2014-03-22 19:00,0.430416,265.446,240.984,235.823,240.87,239.438,233.976,0.774418,0.873084,224.258,234.694
2014-03-22 20:00,0.518441,270.989,248.985,240.469,248.52,246.666,237.827,0.672901,0.774126,226.216,238.578
2014-03-22 21:00,1.01474,277.026,245.248,239.115,242.747,239.438,231.419,0.781711,1.00764,219.744,230.863
2014-03-22 22:00,-0.0,253.81,240.75,236.466,238.693,235.193,228.278,-0.0,-0.011208,221.258,232.347
2014-03-22 23:00,-0.0135843,233.989,226.583,228.004,225.31,223.905,221.782,-0.00862637,-0.0102856,219.744,224.204
2014-03-23 00:00,-0.00208894,249.89,243.94,236.943,243.667,242.585,236.153,-0.0,-0.0,226.311,236.033
2014-03-23 01:00,-0.0,273.088,264.94,250.429,265.138,259.684,245.628,-0.0,-0.0,229.007,243.937
2014-03-23 02:00,-0.0,259.045,251.339,241.061,251.036,248.532,238.876,-0.0,-0.0,225.739,238.714
2014-03-23 03:00,-0.0,258.096,250.954,241.354,251.242,248.941,240.646,-0.0,-0.0,230.184,238.986
2014-03-23 04:00,-0.0,278.279,275.436,256.892,277.678,272.883,252.982,-0.0,-0.0,231.63,247.481
2014-03-23 05:00,-0.0,280.613,281.86,261.091,285.061,282.613,260.822,-0.0,-0.0,231.315,249.198
2014-03-23 06:00,-0.0,281.883,282.214,261.519,284.501,281.735,259.492,-0.0,-0.0,230.916,249.303
2014-03-23 07:00,-0.0,280.05,281.029,260.553,284.079,281.588,259.856,-0.0,-0.0,232.935,250.238
2014-03-23 08:00,-0.0,265.791,260.201,246.801,261.611,259.502,247.823,-0.0,-0.0,232.86,246.818
2014-03-23 09:00,-0.0,251.944,252.101,241.646,254.066,253.51,245.211,-0.0,-0.0,233.382,245.575
2014-03-23 10:00,0.769635,265.446,250.954,241.936,253.269,252.927,244.372,0.743287,0.849836,232.935,245.575
2014-03-23 11:00,0.671953,291.44,277.098,257.798,280.054,277.853,257.653,0.607264,0.601049,233.085,250.748
2014-03-23 12:00,0.772143,296.323,281.267,260.553,284.22,282.028,260.461,0.727412,0.71742,233.603,252.146
2014-03-23 13:00,0.52313,297.449,283.032,261.519,285.479,283.194,260.822,0.479618,0.555672,233.01,252.828
2014-03-23 14:00,0.42888,291.809,267.764,251.676,269.186,267.506,254.137,0.387418,0.466073,233.159,251.949
2014-03-23 15:00,0.335067,289.514,266.886,251.552,268.524,267.171,253.497,0.265501,0.348482,233.75,252.146
2014-03-23 16:00,0.406084,294.043,273.466,255.858,276.468,274.46,256.785,0.36512,0.42012,233.53,253.405
2014-03-23 17:00,0.446756,293.356,262.141,249.029,264.792,264.106,252.075,0.383947,0.463217,233.234,251.252
2014-03-23 18:00,0.397389,298.436,272.12,254.69,273.057,270.148,254.519,0.283895,0.409023,234.257,252.146
2014-03-23 19:00,0.38092,295.796,284.3,262.471,286.31,283.629,261.421,0.322524,0.433137,235.038,255.091
2014-03-23 20:00,0.771055,300.858,283.38,262.261,285.895,283.773,262.136,0.578543,0.727797,234.185,255.275
2014-03-23 21:00,0.964103,292.294,277.098,258.58,278.873,275.861,257.777,0.765737,1.01639,234.756,254.443
2014-03-23 22:00,-0.0107574,281.165,277.35,257.91,279.022,276.169,257.777,-0.0,-0.0,235.799,254.349
2014-03-23 23:00,-0.0100965,277.026,272.662,255.16,274.312,271.765,256.035,-0.00854868,-0.010193,236.274,254.629
2014-03-24 00:00,-0.00207848,279.278,275.046,256.664,276.468,274.46,257.158,-0.0,-0.0,236.207,254.722
2014-03-24 01:00,-0.0,283.261,280.429,260.119,282.231,279.511,259.735,-0.0,-0.0015953,236.341,255.366
2014-03-24 02:00,0.00134814,286.569,285.095,262.786,287.134,284.636,261.898,-0.0,-0.0,236.675,256.001
2014-03-24 03:00,-0.00124924,286.864,285.658,263.307,287.815,285.493,262.61,-0.0,-0.0,236.808,256.36
2014-03-24 04:00,0.00124222,286.717,285.546,263.203,287.815,285.493,262.61,-0.0,-0.0,236.004,255.275
2014-03-24 05:00,0.00132446,286.271,285.433,263.203,287.543,285.35,262.136,-0.0,-0.0,235.178,254.629
2014-03-24 06:00,0.00152917,267.444,263.556,249.414,265.826,264.279,251.159,-0.0,-0.0,235.247,250.95
2014-03-24 07:00,-0.00196587,268.986,265.995,250.555,268.191,266.667,253.368,-0.0,-0.0,236.071,252.342
2014-03-24 08:00,0.00303836,271.261,266.59,251.429,269.35,267.171,253.111,-0.0,-0.0,236.475,252.146
2014-03-24 09:00,-0.00784113,281.165,278.721,258.691,280.493,277.853,258.023,-0.0,-0.0,236.874,253.117
2014-03-24 10:00,0.485749,285.97,283.38,261.731,285.479,283.339,260.461,0.401001,0.563952,237.657,254.536
2014-03-24 11:00,0.702307,292.889,284.185,262.155,286.86,284.492,262.136,0.479264,0.574977,237.268,255.091
2014-03-24 12:00,0.725343,298.533,283.495,262.049,286.172,284.061,261.66,0.525897,0.592693,237.463,255.091
2014-03-24 13:00,0.489084,300.858,283.726,262.366,285.479,282.321,259.249,0.329651,0.436912,236.675,254.256
2014-03-24 14:00,0.286218,297.449,286.55,264.031,286.997,282.321,258.76,0.150738,0.31384,236.341,254.068
2014-03-24 15:00,0.268817,297.848,283.956,262.786,285.061,280.554,258.147,0.13957,0.285469,236.874,254.349
2014-03-24 16:00,0.22072,297.848,286.882,264.441,287.815,283.339,259.977,0.102519,0.245749,237.785,254.999
2014-03-24 17:00,0.21681,296.219,288.52,265.254,289.835,286.626,262.61,0.142525,0.258308,239.532,256.539
2014-03-24 18:00,0.288505,294.491,284.414,262.89,286.447,283.773,261.54,0.242956,0.335346,238.795,257.07
2014-03-24 19:00,0.248124,295.796,288.736,265.758,289.835,286.343,262.136,0.158846,0.303446,238.733,257.421
2014-03-24 21:00,0.332807,291.315,287.322,264.95,288.897,285.777,262.017,0.363357,0.44209,236.675,255.73
2014-03-24 22:00,-0.0104342,285.665,281.148,260.984,282.231,278.609,255.28,-0.0,-0.0,234.686,252.634
2014-03-24 23:00,-0.0100069,287.587,284.982,263.099,286.86,283.917,260.461,-0.00847281,-0.0101025,236.408,255.091
2014-03-25 00:00,-0.0,285.512,281.86,260.984,282.803,279.81,258.023,-0.0,0.00208801,234.615,253.213
2014-03-25 02:00,-0.0,269.865,264.788,250.429,265.138,261.121,247.415,-0.0,-0.0,233.382,248.025
2014-03-25 03:00,-0.00124703,259.045,245.463,238.503,243.667,240.576,231.905,-0.0,-0.0,226.963,235.295
2014-03-25 04:00,0.00124049,271.531,263.556,249.286,262.507,258.591,243.525,-0.0,-0.0,226.963,242.23
2014-03-25 05:00,-0.00132292,263.255,248.583,240.617,245.693,241.251,231.257,-0.0,-0.0,221.031,232.829
2014-03-25 06:00,-0.00152754,268.073,254.871,243.93,252.262,246.246,234.76,-0.0,-0.0,223.434,236.9
2014-03-25 07:00,-0.0,253.81,236.576,234.183,232.772,228.056,222.873,-0.0,-0.0,218.264,225.799
2014-03-25 08:00,-0.0,268.986,255.941,244.349,253.669,250.557,238.577,-0.0,-0.0,223.329,234.694
2014-03-25 09:00,-0.00780125,235.601,225.282,227.817,224.072,223.043,220.675,-0.0,-0.0,218.009,220.763
2014-03-25 10:00,0.551859,272.322,256.644,245.04,255.049,250.557,236.46,0.539943,0.767607,223.224,235.295
2014-03-25 11:00,0.396253,281.883,266.886,251.056,265.31,260.764,243.383,0.299877,0.516867,225.156,239.121
2014-03-25 12:00,0.339154,264.377,247.769,239.721,247.662,245.824,237.07,0.534589,0.630956,226.405,237.468
2014-03-25 13:00,0.401648,279.859,245.032,238.81,242.515,239.438,232.867,0.409729,0.496682,224.86,233.304
2014-03-25 14:00,0.435287,292.771,259.706,247.332,259.974,256.742,245.211,0.416225,0.478263,230.996,242.971
2014-03-25 15:00,0.359887,297.449,281.742,261.091,283.372,279.661,257.777,0.282104,0.378734,231.394,250.238
2014-03-25 16:00,0.303688,295.368,284.414,262.155,286.31,282.904,260.098,0.256061,0.358967,231.394,251.352
2014-03-25 17:00,0.240617,297.947,283.611,262.155,284.641,279.661,257.406,0.139635,0.270211,232.633,251.252
2014-03-25 18:00,0.224054,293.356,285.882,263.411,287.407,283.773,260.581,0.1645,0.298958,232.02,251.452
2014-03-25 19:00,0.170515,283.924,271.711,254.69,270.981,267.004,249.305,0.197656,0.247971,229.348,245.804
2014-03-25 20:00,0.760764,275.48,209.734,221.17,207.702,207.274,208.761,0.849828,1.00361,209.388,208.027
2014-03-25 21:00,1.10662,268.382,209.734,221.17,208.131,207.274,208.982,0.929356,1.20803,209.023,209.047
2014-03-25 22:00,-0.0101305,225.382,218.862,224.507,218.13,217.607,217.25,-0.0,-0.0,216.56,217.918
2014-03-25 23:00,-0.0099194,245.913,237.086,234.35,235.93,233.722,228.109,-0.00839874,-0.0100142,221.371,231.031
2014-03-26 00:00,-0.0020582,252.585,240.277,236.146,238.446,234.461,228.446,-0.0,-0.0,222.259,230.694
2014-03-26 04:00,-0.00123884,270.434,262.3,248.642,261.971,257.856,242.671,-0.0,-0.0,224.56,239.789
2014-03-26 05:00,-0.00132146,259.954,253.411,243.368,253.269,251.156,241.229,-0.0,-0.0,227.691,240.964
2014-03-26 06:00,-0.0,251.944,249.185,240.32,249.998,248.327,240.354,-0.0,-0.0,227.959,240.706
2014-03-26 07:00,0.0019614,250.598,249.978,241.354,251.036,250.156,241.519,-0.0,-0.0,227.42,241.348
2014-03-26 08:00,-0.0,249.89,249.385,240.766,251.036,250.156,242.097,-0.0,-0.0,228.312,241.728
2014-03-26 09:00,-0.0,253.206,243.049,236.784,241.58,238.515,231.257,-0.0,-0.0,223.329,233.461
2014-03-26 10:00,0.445864,269.283,258.195,245.723,258.865,255.614,243.383,0.461403,0.587664,227.329,242.602
2014-03-26 11:00,0.439929,289.91,283.264,261.519,284.501,280.85,258.023,0.217532,0.529408,228.748,247.808
2014-03-26 12:00,0.397869,293.587,285.208,262.995,285.895,282.028,257.9,0.168438,0.455661,229.685,248.562
2014-03-26 13:00,0.317,297.045,288.52,265.153,289.701,285.635,261.779,0.141049,0.360851,231.552,251.051
2014-03-26 14:00,0.294657,298.726,288.628,265.355,290.101,286.343,261.421,0.15622,0.325275,230.674,250.849
2014-03-26 15:00,0.306106,294.933,283.726,261.944,285.201,282.028,259.37,0.242981,0.343798,229.007,249.617
2014-03-26 16:00,0.212017,294.156,286.105,263.825,287.543,284.205,261.301,0.15909,0.269156,232.405,251.252
2014-03-26 17:00,0.232049,297.349,288.195,264.747,289.701,285.919,261.66,0.153963,0.294547,232.175,251.452
2014-03-26 18:00,0.21725,295.476,284.185,262.366,285.201,281.293,259.492,0.150622,0.273363,233.01,250.849
2014-03-26 19:00,0.196115,292.174,281.505,260.769,281.221,276.631,255.027,0.153943,0.255737,230.674,247.917
2014-03-26 20:00,0.154976,290.813,284.869,262.471,285.201,281.146,258.392,0.158555,0.234687,232.86,251.152
2014-03-26 21:00,1.08217,272.58,242.142,236.625,238.938,236.396,230.768,0.869284,1.12987,222.476,229.489
2014-03-26 22:00,-0.00984476,233.989,222.552,226.674,221.182,219.472,218.41,-0.0,-0.0,216.287,219.372
2014-03-26 23:00,-0.0131121,227.984,216.88,223.694,216.355,214.697,215.274,-0.00832646,-0.00992805,214.879,216.131
2014-03-27 00:00,-0.0,222.276,210.224,221.386,208.977,208.397,210.073,-0.0,-0.0,208.838,209.047
2014-03-27 01:00,-0.0,218.393,219.247,224.908,218.824,217.922,217.055,-0.0,-0.0,216.15,217.918
2014-03-27 02:00,-0.00133894,238.442,231.14,230.921,230.574,229.385,225.36,-0.0,-0.0,221.819,228.06
2014-03-27 03:00,-0.00124284,222.276,217.685,223.694,217.427,216.331,216.269,-0.0,-0.0,215.593,216.392
2014-03-27 04:00,-0.0,222.276,213.479,222.027,212.997,212.329,213.241,-0.0,-0.0,213.234,213.952
2014-03-27 05:00,-0.0,225.382,220.006,225.107,219.847,218.857,218.41,-0.0,-0.0,216.695,218.41
2014-03-27 06:00,-0.0,237.078,231.713,230.565,231.131,229.121,226.574,-0.0,-0.0,222.585,228.06
2014-03-27 07:00,-0.0,253.206,245.676,238.04,245.024,243.243,235.846,-0.0,-0.0,226.122,235.74
2014-03-27 08:00,-0.0,252.585,246.102,238.195,245.693,244.112,237.676,-0.0,-0.0,226.592,237.185
2014-03-27 09:00,-0.0,271.531,267.618,252.045,269.515,266.16,250.236,-0.0,-0.0,229.601,245.804
2014-03-27 10:00,0.712992,275.707,268.199,252.29,271.303,269.657,253.881,0.730782,0.820834,229.769,248.348
2014-03-27 11:00,0.745332,294.043,266.442,250.806,269.35,268.007,253.368,0.634063,0.731061,230.184,248.241
2014-03-27 12:00,0.677894,296.008,273.333,255.51,275.857,274.617,257.158,0.603034,0.677877,230.674,249.928
2014-03-27 13:00,0.416786,299.485,283.032,261.731,285.479,282.613,260.34,0.293848,0.415859,231.552,251.352
2014-03-27 14:00,0.487399,287.729,267.033,251.429,269.35,268.835,253.881,0.486332,0.574301,231.156,249.198
2014-03-27 15:00,0.413205,291.563,269.908,253.381,272.741,271.444,255.027,0.401851,0.497228,230.101,249.408
2014-03-27 16:00,0.401258,282.059,265.545,250.429,268.358,267.84,253.368,0.61909,0.671299,231.156,248.987
2014-03-27 17:00,0.376007,280.239,260.692,247.067,262.329,262.008,250.896,0.523686,0.580405,230.755,247.371
2014-03-27 18:00,0.453997,287.3,263.556,249.286,265.482,264.451,251.422,0.472797,0.558948,230.511,247.151
2014-03-27 19:00,0.61681,295.368,264.788,250.555,266.167,262.888,248.364,0.560551,0.691204,230.266,245.23
2014-03-27 20:00,0.375087,298.144,282.799,261.625,284.361,279.661,257.9,0.306539,0.4116,230.266,248.775
2014-03-27 21:00,0.0951629,288.568,285.882,263.721,287.951,284.636,261.062,0.201436,0.192145,229.685,249.408
2014-03-27 22:00,-0.00957569,287.155,284.528,262.681,286.447,283.339,259.977,-0.0,-0.0,229.935,249.303
2014-03-27 23:00,-0.00975079,268.686,254.871,245.04,251.856,247.501,236.46,-0.00825598,-0.00984401,221.031,232.508
2014-03-28 00:00,-0.00203879,258.096,249.781,240.766,249.157,247.293,237.676,-0.0,0.00205828,225.931,237.185
2014-03-28 01:00,-0.0,253.81,244.38,237.884,243.209,241.251,234.134,-0.0,-0.0,224.156,233.773
2014-03-28 02:00,-0.0,251.282,241.682,236.306,240.631,238.978,232.547,-0.0,-0.0,223.642,233.146
2014-03-28 03:00,-0.0,277.026,268.054,252.29,267.185,263.237,246.044,-0.0,-0.0,224.959,241.093
2014-03-28 04:00,-0.0,273.088,264.175,249.924,263.393,258.774,244.231,-0.0,-0.0,224.46,239.523
2014-03-28 05:00,-0.0,259.954,253.04,243.084,252.465,249.753,240.06,-0.0,-0.0,226.027,238.85
2014-03-28 06:00,-0.0,261.666,250.954,241.936,250.207,247.293,236.918,-0.0,-0.0,225.156,236.033
2014-03-28 07:00,-0.0,268.382,258.871,246.667,258.304,252.732,240.207,-0.0,0.00197614,226.216,240.446
2014-03-28 08:00,-0.0,281.165,277.35,257.91,278.725,275.551,254.646,-0.0,-0.0,228.048,247.917
2014-03-28 09:00,-0.0,273.338,269.201,252.777,270.495,267.673,250.501,-0.0,-0.0,226.963,245.804
2014-03-28 10:00,0.366396,275.02,266.886,251.429,266.847,264.279,248.499,0.406504,0.484694,227.329,245.575
2014-03-28 11:00,0.397099,280.05,265.092,250.177,262.329,258.04,242.527,0.300199,0.547652,226.027,239.922
2014-03-28 12:00,0.339937,286.271,270.049,253.501,267.522,262.888,245.35,0.202205,0.425725,226.871,242.848
2014-03-28 13:00,0.458592,291.19,276.718,257.572,277.978,275.706,256.16,0.461265,0.568049,230.755,250.135
2014-03-28 14:00,0.340623,294.602,283.726,261.944,285.34,282.175,260.701,0.275509,0.40259,232.02,252.925
2014-03-28 15:00,0.323361,294.268,280.549,259.793,282.517,280.257,259.614,0.258579,0.354952,232.481,253.213
2014-03-28 16:00,0.290149,293.93,283.032,261.519,284.921,282.321,260.581,0.24134,0.349701,232.328,253.88
2014-03-28 17:00,0.331001,289.381,273.466,255.393,274.933,273.2,256.035,0.346269,0.422539,231.473,252.439
2014-03-28 18:00,0.303614,295.151,281.978,260.876,282.946,279.061,258.147,0.226114,0.351451,230.996,252.047
2014-03-28 19:00,0.273167,295.26,283.264,261.838,283.23,278.76,257.158,0.18398,0.319652,230.755,250.95
2014-03-28 20:00,0.339419,287.3,275.306,257.006,274.467,271.283,252.075,0.309707,0.415854,228.662,246.145
2014-03-28 21:00,0.578135,289.113,282.566,261.731,283.656,280.85,259.127,0.5061,0.643017,231.394,251.552
2014-03-28 22:00,-0.0,287.3,284.869,263.099,286.447,283.194,260.34,-0.0,-0.0,230.916,251.652
2014-03-28 23:00,-0.0128929,283.594,281.505,260.769,283.938,281.293,260.219,-0.00818727,-0.00976208,230.511,251.352
2014-03-29 00:00,0.0020294,270.713,268.63,252.29,271.303,269.657,253.881,-0.0,-0.0,229.093,249.617
2014-03-29 01:00,-0.00155564,233.989,231.997,231.799,231.408,230.946,227.601,-0.0,-0.0,222.906,226.76
2014-03-29 02:00,-0.00133325,222.276,219.247,225.504,218.478,217.607,216.269,-0.0,-0.0,215.31,218.41
2014-03-29 03:00,-0.0,204.719,206.643,219.855,205.497,204.955,207.197,-0.0,-0.0,205.874,206.606
2014-03-29 04:00,-0.0,213.142,212.119,222.659,211.428,210.576,211.781,-0.0,-0.0,210.966,212.207
2014-03-29 05:00,-0.0,232.213,226.261,228.934,225.919,224.19,222.147,-0.0,-0.0,220.219,224.204
2014-03-29 06:00,0.00152195,227.984,222.904,227.058,222.162,220.984,219.927,-0.0,-0.0,218.137,220.535
2014-03-29 07:00,0.00195562,233.989,229.97,230.027,229.729,228.856,225.535,-0.0,-0.0,223.746,227.694
2014-03-29 08:00,-0.0,233.989,231.14,230.921,230.294,229.647,226.402,-0.0,-0.0,222.476,227.694
2014-03-29 09:00,-0.0,253.206,244.815,237.728,244.122,242.143,234.916,-0.0,-0.0,225.449,234.996
2014-03-29 10:00,0.459447,259.045,245.463,238.349,244.575,242.143,233.661,0.551101,0.695758,223.642,232.829
2014-03-29 11:00,0.270475,273.831,259.373,246.13,257.739,254.472,240.207,0.295303,0.438334,225.449,238.027
2014-03-29 12:00,0.332314,288.43,278.226,258.134,278.427,273.675,253.881,0.210114,0.459665,229.007,246.595
2014-03-29 13:00,0.198955,270.434,258.871,246.667,258.491,256.555,245.35,0.258205,0.373725,228.921,242.602
2014-03-29 14:00,0.195798,260.395,246.942,239.57,245.471,244.328,237.827,0.336266,0.406554,225.449,234.389
2014-03-29 15:00,0.218817,275.707,257.166,245.04,253.069,249.955,238.278,0.260471,0.336561,221.596,232.508
2014-03-29 16:00,0.234721,259.954,239.074,235.337,238.446,236.872,230.768,0.41268,0.480404,223.329,231.364
2014-03-29 17:00,0.254059,260.395,243.94,236.943,244.122,242.143,233.185,0.61394,0.693211,227.87,237.327
2014-03-29 18:00,0.190099,291.686,283.38,262.471,284.361,280.554,258.392,0.151488,0.267715,231.552,249.928
2014-03-29 19:00,0.145816,283.428,276.591,257.233,277.377,274.617,255.784,0.201068,0.233434,234.329,250.849
2014-03-29 20:00,0.722569,266.466,201.41,216.392,201.233,202.113,204.658,1.04316,1.22028,198.732,198.106
2014-03-29 21:00,1.38348,276.594,200.774,217.106,200.227,199.543,201.266,1.45355,1.95742,207.105,205.491
2014-03-29 22:00,-0.0,256.589,245.463,238.963,241.815,238.282,231.581,-0.0,-0.0,223.118,232.988
2014-03-29 23:00,-0.022378,237.078,224.279,228.004,222.162,220.081,218.41,-0.00812032,-0.0161371,217.881,221.878
2014-03-30 00:00,-0.0,237.078,230.265,230.565,229.158,226.701,224.304,-0.0,-0.0,221.596,227.136
2014-03-30 01:00,-0.00155109,230.231,221.841,226.866,220.519,218.547,218.41,-0.0,-0.0,215.167,218.165
2014-03-30 02:00,0.00133054,242.013,238.83,235.173,238.693,236.872,230.931,-0.0,-0.0,224.959,233.928
2014-03-30 03:00,-0.0,251.944,249.185,241.354,249.579,247.501,238.876,-0.0,-0.0,227.055,240.446
2014-03-30 04:00,-0.00123295,269.283,259.54,247.2,259.606,255.614,243.667,-0.0,-0.0,227.329,241.728
2014-03-30 05:00,0.00131641,250.598,242.37,236.943,241.58,239.667,233.185,-0.0,-0.0,223.642,234.389
2014-03-30 06:00,-0.0,252.585,242.597,237.415,241.58,238.282,231.905,-0.0,-0.0,222.906,233.146
2014-03-30 07:00,-0.00195393,247.601,241.682,236.306,240.87,239.438,233.661,-0.0,-0.0,224.959,234.694
2014-03-30 08:00,-0.0,264.377,259.706,246.801,261.069,258.774,245.767,-0.0,-0.0,227.691,244.881
2014-03-30 09:00,-0.0,268.686,258.534,245.995,258.116,254.472,240.938,-0.0,-0.0,224.46,239.39
2014-03-30 10:00,0.605975,267.444,259.871,246.934,260.888,259.321,246.869,0.709576,0.807012,226.405,243.093
2014-03-30 11:00,0.496571,282.234,263.867,249.414,264.965,262.361,248.094,0.465818,0.555417,227.42,244.998
2014-03-30 12:00,0.569233,288.841,258.025,245.859,259.606,257.856,246.457,0.505792,0.58997,227.959,243.818
2014-03-30 13:00,0.533151,280.239,254.328,243.79,255.827,254.472,243.383,0.571889,0.648869,227.51,243.698
2014-03-30 14:00,0.483268,283.594,257.339,245.995,258.865,257.671,246.594,0.470501,0.546941,226.778,244.53
2014-03-30 15:00,0.337008,279.278,254.871,244.765,254.263,251.947,241.374,0.312676,0.388461,224.959,240.185
2014-03-30 16:00,0.339806,284.249,256.469,245.314,257.17,255.235,244.372,0.302971,0.384637,228.4,244.53
2014-03-30 17:00,0.380579,285.818,255.05,245.177,255.633,253.896,243.949,0.314063,0.409275,228.488,243.937
2014-03-30 18:00,0.309854,290.558,271.437,254.69,271.142,266.498,249.305,0.236526,0.345233,228.835,245.69
2014-03-30 19:00,0.280995,291.809,278.968,259.683,278.873,274.304,252.982,0.188204,0.328138,229.007,246.818
2014-03-30 20:00,0.61917,290.429,265.846,251.676,263.569,257.856,240.793,0.510004,0.662458,224.359,239.789
2014-03-30 21:00,0.958273,287.3,272.391,255.858,273.057,268.835,250.633,0.784911,0.956918,229.935,246.929
2014-03-30 22:00,-0.0,264.009,260.201,247.2,260.706,258.224,245.905,-0.0,-0.0,233.01,247.371
2014-03-30 23:00,-0.0348831,260.395,256.644,245.587,257.928,256.367,245.211,-0.0134252,-0.025612,232.784,246.818
2014-03-31 00:00,-0.0,260.827,253.779,243.65,254.066,251.552,241.229,-0.0,-0.0,230.184,243.577
2014-03-31 01:00,-0.00154666,251.944,242.37,237.258,241.344,238.978,231.905,-0.0,-0.0,224.959,235.295
2014-03-31 02:00,-0.0,265.791,259.373,247.332,260.341,257.486,244.09,-0.0,-0.0,229.935,244.53
2014-03-31 03:00,-0.00123539,261.666,258.025,246.801,258.865,256.928,245.35,-0.0,-0.0,230.018,244.764
2014-03-31 04:00,-0.00123166,256.589,252.29,243.084,252.667,250.757,240.938,-0.0,-0.0,226.405,240.446
2014-03-31 05:00,-0.0,233.989,229.373,230.027,227.708,226.701,223.949,-0.0,-0.0,219.624,223.586
2014-03-31 06:00,-0.00151968,244.063,238.585,235.499,237.702,233.474,227.77,-0.0,-0.0,223.329,232.185
2014-03-31 07:00,-0.0,259.045,248.784,242.513,245.471,235.917,228.109,-0.0,-0.0,222.04,234.845
2014-03-31 08:00,-0.0,253.81,249.583,240.913,250.623,248.327,239.618,-0.0,-0.0,228.4,241.093
2014-03-31 09:00,-0.0,249.156,246.733,239.419,247.878,246.457,238.577,-0.0,-0.0,227.055,239.523
2014-03-31 10:00,1.08121,269.283,245.248,238.81,245.024,241.475,233.661,0.992663,1.22305,225.156,237.468
2014-03-31 11:00,0.864289,285.202,247.563,239.721,249.157,247.293,239.322,0.743938,0.86531,227.147,240.446
2014-03-31 12:00,0.518871,284.73,256.294,245.451,255.827,250.957,238.727,0.518369,0.624652,224.46,239.656
2014-03-31 13:00,0.472371,290.301,255.941,245.859,255.633,251.156,239.173,0.447173,0.543121,226.499,241.728
2014-03-31 15:00,0.423579,287.444,258.703,246.801,260.341,258.408,246.182,0.391547,0.469475,229.263,245.804
2014-03-31 16:00,0.294516,288.43,259.871,247.465,259.236,255.803,243.383,0.226398,0.323413,226.685,242.602
2014-03-31 17:00,0.227078,287.155,268.63,252.412,267.185,262.537,245.905,0.189922,0.296346,225.835,241.602
2014-03-31 18:00,0.19363,281.705,264.329,249.414,261.431,257.856,243.099,0.21313,0.298109,225.449,238.578
2014-03-31 19:00,0.223776,279.473,262.616,248.642,259.606,256.555,243.099,0.253819,0.319691,224.258,236.9
2014-03-31 20:00,0.76864,269.865,224.279,227.058,223.125,220.081,218.601,0.88694,1.06441,216.695,219.608
2014-03-31 21:00,0.559171,278.883,264.482,249.797,263.393,260.225,244.652,0.482554,0.618797,225.254,240.185
2014-03-31 22:00,-0.0,266.797,255.764,244.488,255.244,252.927,241.664,-0.0,-0.0,227.601,239.922
2014-03-31 23:00,-0.0440468,282.923,280.187,259.683,281.799,279.211,258.882,-0.0213111,-0.0381153,230.018,248.882
