# timestamp,IR_016,IR_039,IR_087,IR_097,IR_108,IR_120,IR_134,VIS006,VIS008,WV_062,WV_073
2014-11-01 00:00,-0.0,256.589,247.15,238.81,245.024,241.475,231.743,-0.0,-0.0,221.819,234.236
2014-11-01 01:00,-0.00173336,257.103,240.75,235.173,236.948,233.225,225.535,-0.0,-0.0,216.83,226.379
2014-11-01 02:00,0.00148963,262.869,245.463,237.884,242.049,238.282,228.949,-0.0,-0.0,219.382,228.242
2014-11-01 03:00,-0.0,245.01,235.275,232.319,232.502,230.429,225.709,-0.0,-0.0,218.767,225.994
2014-11-01 04:00,-0.0,239.711,233.392,231.799,230.294,227.517,225.009,-0.0,-0.0,217.881,225.799
2014-11-01 05:00,-0.0,254.396,251.912,240.913,252.262,250.557,240.354,-0.0,-0.0,226.685,241.98
2014-11-01 06:00,0.00187174,253.81,248.177,238.81,248.093,245.612,235.846,-0.0,-0.0,223.538,236.757
2014-11-01 07:00,-0.0,264.009,265.092,248.121,268.024,267.506,252.594,-0.0,-0.0,231.236,249.513
2014-11-01 08:00,-0.0,262.074,259.039,244.626,259.791,257.856,245.211,-0.0,-0.0,226.963,243.818
2014-11-01 09:00,-11.2285,258.096,248.38,238.81,247.446,244.544,233.661,-12.0424,-15.8701,221.819,236.033
2014-11-01 10:00,0.678879,268.073,244.16,237.101,242.747,238.515,228.614,0.758077,0.869127,220.101,232.988
2014-11-01 11:00,0.624755,275.251,244.16,237.258,242.978,238.978,231.094,0.718052,0.792842,221.258,233.146
2014-11-01 12:00,0.365896,280.982,253.963,241.791,251.652,246.666,233.185,0.323144,0.445393,221.031,233.773
2014-11-01 13:00,0.470785,282.581,257.339,243.93,258.678,256.555,243.525,0.541827,0.604779,226.499,241.348
2014-11-01 14:00,0.386863,274.073,252.29,240.913,252.262,249.753,238.727,0.459211,0.524935,225.254,239.39
2014-11-01 15:00,0.251144,283.594,258.365,243.93,254.657,249.144,235.072,0.183692,0.292827,221.031,232.988
2014-11-01 16:00,0.243118,282.234,258.871,244.765,256.789,251.552,236.765,0.21392,0.308006,223.746,235.592
2014-11-01 17:00,0.239237,283.924,273.599,252.777,274.623,272.405,253.368,0.328891,0.364884,228.835,246.483
2014-11-01 18:00,0.158815,284.087,270.189,250.555,270.006,265.99,247.551,0.197897,0.254113,227.055,242.602
2014-11-01 19:00,0.524661,269.283,200.774,218.502,200.733,199.981,204.893,0.826168,0.92449,201.465,200.041
2014-11-01 20:00,0.841772,284.41,223.94,227.248,219.847,215.683,213.653,0.823933,1.00652,213.845,217.164
2014-11-01 21:00,1.9147,286.569,221.117,226.287,218.478,215.683,214.872,1.51476,1.99271,215.31,217.418
2014-11-01 22:00,-0.0,246.775,230.265,230.743,226.522,223.905,220.489,-0.0,-0.0,216.695,221.658
2014-11-01 23:00,-0.0113598,267.444,250.175,239.721,246.575,242.143,231.419,-0.00961836,-0.0114684,220.57,231.364
2014-11-02 00:00,-0.00228977,239.711,224.95,227.817,222.485,221.283,219.739,-0.0,-0.0,215.452,219.134
2014-11-02 01:00,-0.0,258.096,240.75,235.01,237.451,234.461,226.918,-0.0,-0.0,220.337,227.877
2014-11-02 02:00,-0.0,249.89,237.591,233.513,236.695,234.461,228.949,-0.0,-0.0,223.538,230.183
2014-11-02 03:00,-0.00140207,265.446,257.166,243.65,256.406,252.732,240.938,-0.0,-0.0,228.048,239.922
2014-11-02 04:00,-0.0,275.02,270.746,251.799,271.625,267.673,249.171,-0.0,-0.0,228.488,245.23
2014-11-02 05:00,-0.0,271.261,266.442,249.029,268.024,264.451,248.499,-0.0,-0.0,228.748,245.345
2014-11-02 06:00,-0.0,274.551,269.626,251.056,270.169,266.835,249.171,-0.0,-0.0,227.959,244.998
2014-11-02 07:00,0.00262317,283.594,278.226,255.742,278.427,273.675,251.422,-0.0,-0.0,227.87,244.998
2014-11-02 08:00,-0.00500965,281.883,273.865,253.381,272.264,265.99,245.628,-0.0,-0.0,226.405,241.98
2014-11-02 09:00,72.5161,278.883,267.18,249.414,265.138,257.856,238.876,65.4926,97.6125,225.156,239.255
2014-11-02 10:00,0.4447,285.665,272.931,252.29,271.785,266.16,244.932,0.3186,0.547622,227.238,242.478
2014-11-02 11:00,0.390259,294.268,285.658,259.024,286.86,283.194,258.882,0.186397,0.426822,232.02,250.032
2014-11-02 12:00,0.318057,295.151,283.956,258.358,284.361,279.511,256.16,0.140568,0.342269,231.943,248.348
2014-11-02 13:00,0.289996,299.108,284.755,259.134,285.201,279.661,257.282,0.129921,0.301295,232.709,249.928
2014-11-02 14:00,0.306939,298.918,277.601,255.393,278.576,274.147,254.137,0.177816,0.293564,232.097,249.617
2014-11-02 15:00,0.239132,295.368,282.799,257.798,283.23,278.76,255.658,0.161579,0.267582,231.552,249.513
2014-11-02 16:00,0.261936,287.587,267.033,248.642,264.618,258.591,241.808,0.239927,0.319732,225.931,240.446
2014-11-02 17:00,0.227409,287.3,274.655,253.14,274.778,270.635,251.159,0.2861,0.354102,229.852,248.348
2014-11-02 18:00,0.354571,273.831,243.719,237.258,242.283,238.515,230.276,0.670099,0.740087,222.04,234.082
2014-11-02 19:00,0.448189,266.466,209.237,222.238,208.131,208.397,210.504,0.785133,0.881544,208.084,208.371
2014-11-02 20:00,1.03184,288.012,199.463,218.502,197.601,196.363,201.515,1.18083,1.36593,202.469,200.041
2014-11-02 21:00,1.91607,285.202,213.031,223.283,212.219,209.859,211.781,1.73998,2.25186,214.293,214.233
2014-11-02 22:00,-0.0,230.231,228.463,228.934,227.708,226.426,223.949,-0.0,-0.0,222.368,226.379
2014-11-02 23:00,-0.0114391,257.605,243.719,236.625,243.438,239.667,230.604,-0.00645699,-0.00769898,222.799,233.461
2014-11-03 00:00,-0.0,251.282,239.799,235.01,236.441,230.946,224.126,-0.0,-0.0,219.137,230.354
2014-11-03 01:00,-0.0,257.605,242.142,235.985,239.426,235.193,227.601,-0.0,-0.0,219.503,228.782
2014-11-03 02:00,-0.00149933,253.206,242.597,236.146,241.344,238.747,231.094,-0.0,-0.0,222.692,232.185
2014-11-03 03:00,0.00140642,256.589,244.16,236.943,242.515,238.747,229.781,-0.0,0.00141987,220.916,232.508
2014-11-03 04:00,-0.0,253.206,243.94,237.258,242.978,239.895,230.931,-0.0,-0.0,220.454,232.347
2014-11-03 05:00,-0.0015619,251.282,243.94,236.625,242.747,240.35,232.227,-0.0,-0.0,221.031,233.146
2014-11-03 06:00,-0.0,235.601,229.97,229.301,229.729,228.056,224.304,-0.0,-0.0,221.258,227.136
2014-11-03 07:00,-0.0,239.711,233.392,231.274,231.957,230.17,225.709,-0.0,-0.0,219.863,227.694
2014-11-03 08:00,-0.0,238.442,229.072,228.934,228.001,226.426,222.147,-0.0,-0.0,219.014,223.999
2014-11-03 09:00,3.55946,237.078,228.155,228.192,227.708,227.246,223.592,6.02759,7.18698,220.686,225.408
2014-11-03 10:00,0.286518,256.062,247.769,237.728,248.093,246.457,237.373,0.481076,0.563805,226.778,239.255
2014-11-03 11:00,0.364229,290.813,282.214,257.346,282.946,278.76,255.658,0.198554,0.433194,227.691,246.032
2014-11-03 12:00,0.31578,294.38,283.495,257.91,283.514,278.307,254.137,0.147718,0.354025,227.51,245.69
2014-11-03 13:00,0.364174,297.045,269.767,250.681,270.332,265.82,250.104,0.254772,0.363397,230.184,246.371
2014-11-03 14:00,0.305403,296.219,276.971,254.572,277.828,273.832,254.009,0.190259,0.304563,230.266,247.808
2014-11-03 15:00,0.228329,296.323,285.546,259.244,285.34,280.998,257.53,0.1435,0.255464,229.935,248.025
2014-11-03 16:00,0.241473,292.534,282.566,258.246,283.938,280.554,258.27,0.215534,0.297821,230.996,249.093
2014-11-03 17:00,0.21561,295.26,284.642,259.134,285.201,281.146,257.777,0.18147,0.273384,233.234,250.238
2014-11-03 18:00,0.0821651,283.924,271.984,251.676,270.006,267.004,250.501,0.159376,0.17495,227.959,242.725
2014-11-03 19:00,0.607213,273.338,209.734,221.814,208.977,206.895,209.856,0.789959,0.914661,209.023,208.711
2014-11-03 20:00,1.09895,288.841,216.88,224.708,215.993,212.673,211.781,1.13363,1.35467,215.31,217.164
2014-11-03 21:00,1.64216,292.053,225.282,228.192,221.838,218.857,217.445,1.28016,1.62864,216.287,221.213
2014-11-03 22:00,-0.0,232.213,220.75,226.287,217.072,214.364,214.671,-0.0,-0.0,212.765,217.418
2014-11-03 23:00,-0.0115208,247.601,230.265,230.743,227.414,223.905,220.115,-0.00650308,-0.00775394,215.593,222.956
2014-11-04 00:00,-0.00231091,250.598,235.275,232.491,233.577,230.429,224.481,-0.0,-0.0,218.517,226.948
2014-11-04 01:00,-0.0,249.156,236.576,232.834,235.414,232.221,225.185,-0.0,0.00176927,219.982,228.782
2014-11-04 02:00,0.00150427,263.636,249.185,239.267,247.662,242.585,231.257,-0.0,-0.0,221.708,233.146
2014-11-04 03:00,-0.0,249.89,243.94,236.625,242.978,240.576,233.503,-0.0,-0.0,223.952,234.996
2014-11-04 04:00,-0.0,249.89,235.8,233.005,232.502,230.17,225.36,-0.0,-0.0,220.101,226.379
2014-11-04 05:00,-0.00156701,239.711,232.56,231.098,231.408,229.385,225.185,-0.0,-0.0,221.258,227.509
2014-11-04 06:00,-0.0,251.282,245.032,237.572,245.471,243.896,236.307,-0.0,-0.0,224.359,234.845
2014-11-04 07:00,-0.0,263.255,259.54,245.04,261.971,260.584,247.279,-0.0,-0.0,228.575,245.575
2014-11-04 08:00,-0.0050933,275.48,271.437,251.552,273.372,270.96,252.464,-0.0,-0.0,228.835,248.025
2014-11-04 09:00,2.25817,269.865,266.738,249.029,269.515,267.84,252.982,4.09711,4.23383,230.184,248.775
2014-11-04 10:00,0.617933,276.811,265.545,247.991,268.024,267.004,251.814,0.625391,0.677451,231.552,248.775
2014-11-04 12:00,0.576574,288.43,267.033,248.9,270.006,269.494,253.881,0.597325,0.661221,233.677,249.721
2014-11-04 13:00,0.483156,282.408,265.092,247.597,267.522,267.339,252.982,0.625523,0.684869,231.787,249.198
2014-11-04 14:00,0.401877,276.594,263.867,247.465,266.508,266.329,251.683,0.454742,0.512157,232.86,249.721
2014-11-04 15:00,0.219906,286.421,272.662,252.29,273.686,271.765,254.392,0.163293,0.267122,232.935,250.135
2014-11-04 16:00,0.240069,292.534,283.148,258.58,284.921,282.028,259.856,0.229429,0.304754,233.823,252.244
2014-11-04 17:00,0.214096,286.717,279.458,256.32,281.221,279.361,259.005,0.263771,0.313212,233.968,252.731
2014-11-04 18:00,0.311775,295.042,281.505,257.685,283.372,280.257,258.147,0.271558,0.365959,233.823,252.244
2014-11-04 19:00,0.375072,293.007,279.702,256.205,280.493,276.938,252.853,0.394116,0.508761,232.935,249.928
2014-11-04 20:00,0.203588,285.818,280.066,256.549,281.655,279.661,259.37,0.312279,0.324685,234.756,252.537
2014-11-04 21:00,1.42394,275.707,230.85,230.387,230.574,227.787,223.053,1.33288,1.72651,221.484,225.011
2014-11-04 22:00,-0.0156199,265.791,251.912,241.354,250.207,245.824,232.227,-0.0,-0.0,224.661,235.592
2014-11-04 23:00,-0.0116048,267.123,251.339,240.913,247.229,241.475,230.276,-0.00655053,-0.00781052,221.93,233.617
2014-11-05 00:00,-0.0,253.81,236.06,233.513,232.23,227.787,220.675,-0.0,-0.0,217.491,225.604
2014-11-05 01:00,-0.0,254.966,250.566,240.021,249.368,247.293,237.977,-0.0,-0.0,227.42,239.922
2014-11-05 02:00,-0.0,233.989,229.373,230.027,228.001,225.318,221.598,-0.0,-0.0,219.137,224.811
2014-11-05 03:00,-0.0,253.81,238.338,233.849,234.633,231.203,224.657,-0.0,-0.0,215.167,224.204
2014-11-05 04:00,-0.00143351,245.913,228.463,229.847,225.003,220.384,217.832,-0.0,0.00144721,213.995,220.306
2014-11-05 05:00,-0.0,232.213,216.88,225.107,214.141,211.983,212.411,-0.0,-0.0,211.636,213.668
2014-11-05 06:00,-0.0,227.984,222.198,226.287,221.838,220.081,218.982,-0.0,-0.0,217.491,220.535
2014-11-05 07:00,-0.00266075,250.598,237.841,232.491,235.414,233.474,228.446,-0.0,0.00268619,220.57,228.423
2014-11-05 08:00,-0.00513385,264.739,249.781,238.81,247.229,242.143,231.419,-0.0,-0.0,221.708,232.829
2014-11-05 09:00,2.47252,270.713,259.373,244.488,258.865,254.281,238.876,2.66443,3.40385,223.013,240.316
2014-11-05 10:00,0.49929,268.382,250.175,239.871,248.946,245.612,233.026,0.585343,0.673699,223.746,237.327
2014-11-05 11:00,0.719838,289.381,274.916,253.261,276.01,273.99,253.497,0.731382,0.781849,233.677,253.785
2014-11-05 12:00,0.302654,282.581,264.175,246.667,262.15,257.486,240.793,0.237111,0.368764,227.78,243.937
2014-11-05 13:00,0.304469,284.249,261.982,245.451,259.791,255.425,238.727,0.247101,0.349874,229.178,244.998
2014-11-05 14:00,0.287522,270.434,237.086,233.344,232.502,229.385,223.592,0.29696,0.382857,219.137,226.187
2014-11-05 15:00,0.270258,278.883,246.313,238.503,241.58,236.635,226.229,0.231812,0.332155,224.359,232.669
2014-11-05 16:00,0.29567,295.26,278.721,255.51,279.17,275.085,251.683,0.230236,0.323671,239.41,256.45
2014-11-05 17:00,0.212588,289.113,274.524,253.501,273.529,269.821,250.765,0.209274,0.271507,237.137,254.068
2014-11-05 18:00,0.217479,287.871,268.343,250.555,264.444,258.774,242.241,0.194229,0.263169,231.63,246.258
2014-11-05 19:00,0.205356,296.219,291.591,263.928,292.47,288.999,262.017,0.10725,0.263508,243.31,261.755
2014-11-05 20:00,0.775873,270.989,239.799,234.35,238.446,237.345,231.581,0.766419,0.982079,225.546,232.022
2014-11-05 21:00,1.71977,277.869,245.676,237.884,245.471,243.461,235.227,1.4022,1.85053,227.055,235.592
2014-11-05 22:00,-0.0160561,247.601,236.576,233.175,235.672,234.216,229.781,-0.0,-0.0162096,224.56,229.489
2014-11-05 23:00,-0.00779422,290.813,288.736,261.944,290.234,287.748,261.779,-0.00659935,-0.00786873,236.004,258.028
2014-11-06 00:00,-0.0,289.113,286.882,260.445,286.86,284.205,259.856,-0.0,-0.0,239.653,259.304
2014-11-06 01:00,-0.0,289.113,287.651,261.519,289.434,286.626,261.421,-0.0,-0.0,240.134,257.333
2014-11-06 02:00,-0.0,281.883,282.096,258.358,285.201,283.484,260.822,-0.0,-0.0,240.724,256.628
2014-11-06 03:00,-0.0,289.247,288.843,261.412,290.764,288.584,262.728,-0.0,-0.0,243.633,260.871
2014-11-06 04:00,0.00143791,282.234,282.916,258.246,285.895,284.205,260.942,-0.0,-0.0,241.817,259.135
2014-11-06 05:00,0.00157709,279.473,279.823,256.32,282.517,281.146,260.219,-0.0,-0.0,242.765,261.355
2014-11-06 06:00,-0.0,269.576,266.738,248.642,267.185,265.82,250.369,-0.0,-0.0,235.662,250.95
2014-11-06 07:00,0.00267278,248.394,243.496,235.173,241.815,240.35,233.026,-0.0,-0.0,227.42,236.614
2014-11-06 08:00,-0.0,245.913,236.06,231.274,233.842,233.225,227.94,-0.0,-0.0,218.517,225.799
2014-11-06 09:00,9.42037,239.711,222.552,226.092,221.182,220.685,220.489,13.4414,21.3104,213.995,217.164
2014-11-06 10:00,0.482373,245.01,213.921,222.238,213.381,213.356,213.447,0.970514,1.12344,211.636,212.8
2014-11-06 11:00,0.373967,253.206,216.88,223.694,215.993,214.364,215.474,0.790544,0.890098,214.734,215.6
2014-11-06 12:00,0.35436,257.103,223.94,227.438,221.838,220.685,219.362,0.539771,0.626059,216.424,220.075
2014-11-06 13:00,0.294368,253.81,221.117,226.092,220.184,219.472,218.601,0.455755,0.542004,216.83,218.165
2014-11-06 14:00,0.256339,252.585,218.082,225.107,217.072,216.652,216.663,0.377464,0.467571,213.995,216.652
2014-11-06 15:00,0.238352,255.521,226.902,228.564,224.694,223.332,220.86,0.298245,0.389988,218.137,221.878
2014-11-06 16:00,0.271694,255.521,218.862,225.107,217.78,216.972,217.639,0.428945,0.513847,214.734,216.652
2014-11-06 17:00,0.29552,253.81,222.904,227.058,222.162,221.579,220.86,0.473353,0.572151,218.391,220.989
2014-11-06 18:00,0.391194,266.466,229.373,229.847,227.708,226.701,224.481,0.487389,0.594653,221.145,225.604
2014-11-06 19:00,0.528527,270.713,224.95,228.192,221.838,220.685,219.551,0.54965,0.680507,215.734,219.843
2014-11-06 20:00,0.731799,274.551,225.937,228.749,223.758,222.462,221.415,0.731143,0.898374,217.096,221.658
2014-11-06 21:00,1.74988,278.684,228.463,229.484,226.82,225.874,223.77,1.48162,1.9362,220.686,225.21
2014-11-06 22:00,-0.0,262.475,248.784,239.115,246.355,244.328,234.604,-0.0,-0.0166825,222.368,232.829
2014-11-06 23:00,-0.00785352,258.096,245.032,237.258,243.438,241.251,233.026,-0.00332478,-0.00792859,223.746,232.347
2014-11-07 00:00,-0.00234431,286.864,284.869,259.683,286.722,284.636,260.461,-0.0,-0.0,228.4,250.544
2014-11-07 01:00,-0.0,288.012,287.869,261.519,290.764,288.722,262.255,-0.0,-0.0,228.4,252.342
2014-11-07 02:00,-0.0,286.271,284.642,259.683,286.997,284.922,259.492,-0.0,-0.0,229.263,251.751
2014-11-07 03:00,-0.0,287.729,287.869,261.198,290.897,289.413,262.492,-0.0,-0.0,234.185,255.73
2014-11-07 04:00,-0.0,287.729,288.303,261.519,291.423,290.238,263.2,-0.0,-0.0,237.849,257.158
2014-11-07 05:00,-0.0,287.729,287.978,261.519,291.16,289.551,263.318,-0.0,-0.0,240.724,257.595
2014-11-07 06:00,-0.00191331,287.01,286.992,260.769,289.701,287.748,262.61,-0.0,-0.0,240.841,257.508
2014-11-07 07:00,-0.0,286.864,287.212,260.984,290.234,288.445,262.728,-0.0,-0.0,240.724,257.769
2014-11-07 08:00,-0.0,286.864,287.432,260.876,290.234,288.445,262.847,-0.0,-0.0,239.954,256.982
2014-11-07 09:00,0.863378,286.864,287.212,260.769,289.968,288.167,262.728,1.82755,2.03381,240.074,257.333
2014-11-07 10:00,0.342207,289.91,288.843,261.412,291.423,289.413,262.373,0.209261,0.489427,239.714,257.769
2014-11-07 11:00,0.353415,293.816,290.651,262.471,292.47,289.826,262.728,0.154849,0.42915,239.532,257.855
2014-11-07 12:00,0.315756,297.349,292.108,263.203,293.248,289.826,262.847,0.120455,0.352054,238.981,257.333
2014-11-07 13:00,0.257699,299.108,292.622,263.411,293.506,289.689,262.373,0.0972382,0.288441,239.349,257.769
2014-11-07 14:00,0.227691,299.013,290.229,262.261,289.968,285.35,259.614,0.0901065,0.252355,235.108,254.907
2014-11-07 15:00,0.249916,289.113,274.392,252.777,273.215,269.657,249.572,0.21359,0.309162,229.093,249.093
2014-11-07 16:00,0.276216,268.686,238.585,234.183,235.414,232.221,225.185,0.322201,0.404522,218.137,227.136
2014-11-07 17:00,0.135466,285.665,267.326,249.286,264.444,259.139,241.519,0.147161,0.201272,224.054,241.98
2014-11-07 18:00,0.372804,268.073,230.559,230.565,228.001,225.038,221.598,0.423805,0.544309,218.891,223.377
2014-11-07 19:00,0.429901,278.279,240.984,235.337,238.199,233.225,225.709,0.438414,0.553605,219.982,228.782
2014-11-07 20:00,0.822146,277.451,219.628,225.897,218.13,216.652,216.071,0.814596,0.985999,215.734,217.669
2014-11-07 21:00,1.66136,280.799,213.031,223.076,210.218,209.133,210.718,1.35392,1.74713,210.624,211.906
2014-11-07 22:00,-0.0,256.062,236.832,233.513,232.772,228.324,222.329,-0.0,-0.0,218.009,225.604
2014-11-07 23:00,-0.0118717,246.775,229.97,230.027,227.414,225.874,222.873,-0.00670117,-0.00799013,218.767,223.167
2014-11-08 00:00,-0.0,249.89,234.208,231.973,232.772,230.429,226.056,-0.0,-0.0,221.484,226.948
2014-11-08 01:00,-0.0,262.869,248.583,238.657,247.229,244.112,234.291,-0.0,-0.0,225.352,234.389
2014-11-08 02:00,-0.00152446,263.255,248.583,238.963,246.355,242.805,233.026,-0.0,-0.0,223.118,232.347
2014-11-08 03:00,-0.00142844,244.063,231.427,230.387,229.729,227.787,224.657,-0.0,-0.0,219.982,224.811
2014-11-08 04:00,0.00144666,243.066,229.97,230.207,227.708,225.038,221.598,-0.0,-0.0,218.517,223.793
2014-11-08 05:00,0.00158699,258.576,238.338,234.515,234.107,229.909,222.692,-0.0,-0.0,218.009,225.604
2014-11-08 06:00,-0.00191987,239.711,226.583,228.749,224.072,221.283,219.362,-0.0,-0.0,216.424,220.535
2014-11-08 07:00,-0.0,259.954,244.16,236.784,242.283,237.345,227.94,-0.0,-0.0,220.454,230.011
2014-11-08 08:00,-0.0,275.251,264.021,248.771,262.15,254.855,238.278,-0.0,-0.0,223.013,239.656
2014-11-08 09:00,1.23456,270.151,250.371,241.646,243.895,234.95,223.053,1.35889,1.74491,217.36,230.524
2014-11-08 10:00,0.539393,271.798,232.28,232.491,224.072,216.331,211.992,0.548845,0.673522,210.102,217.918
2014-11-08 11:00,0.441538,257.605,209.734,221.386,205.497,203.351,206.743,0.547199,0.654942,205.449,206.239
2014-11-08 12:00,0.337931,248.394,202.646,219.183,201.233,200.845,205.361,0.730722,0.822287,203.192,203.524
2014-11-08 13:00,0.312072,251.944,201.41,218.73,199.715,198.206,201.763,0.696717,0.782694,201.207,201.402
2014-11-08 14:00,0.283187,253.81,200.125,218.73,198.671,197.294,202.255,0.718275,0.797757,202.222,200.956
2014-11-08 15:00,0.25561,253.81,196.665,217.576,195.943,194.933,200.766,0.767414,0.834531,199.307,198.603
2014-11-08 16:00,0.294952,255.521,199.463,218.041,198.14,197.294,201.515,0.754221,0.833522,201.207,199.57
2014-11-08 17:00,0.328107,259.505,204.418,219.632,202.701,201.694,206.515,0.795589,0.876442,204.573,204.328
2014-11-08 18:00,0.424173,264.009,212.578,222.449,210.625,209.497,210.289,0.848893,0.953781,211.47,211.602
2014-11-08 19:00,0.606225,270.151,213.921,223.283,212.997,211.635,213.241,0.828043,0.96807,212.607,213.382
2014-11-08 20:00,0.844937,274.314,220.006,225.897,218.13,216.331,215.674,0.946501,1.12856,215.31,217.669
2014-11-08 21:00,1.53346,277.451,222.904,227.058,222.162,220.685,217.639,1.32156,1.70707,217.229,221.213
2014-11-08 22:00,-0.0,244.063,234.208,231.973,233.577,231.459,226.229,-0.0,0.0177394,220.916,228.603
2014-11-08 23:00,-0.00797708,285.818,283.841,259.024,285.757,283.339,259.492,-0.00675418,-0.00402667,230.266,253.5
2014-11-09 00:00,-0.0,269.576,261.34,245.177,261.25,256.928,241.953,-0.0,-0.0,227.329,243.937
2014-11-09 01:00,-0.0,258.576,241.218,234.681,237.2,232.725,224.657,-0.0,-0.0,219.863,229.489
2014-11-09 02:00,-0.0,249.156,230.85,230.207,227.414,224.19,220.489,-0.0,-0.0,216.56,223.377
2014-11-09 03:00,-0.0,263.255,244.16,237.415,239.183,234.216,223.413,-0.0,-0.0,218.891,229.838
2014-11-09 04:00,-0.0,258.576,238.09,233.849,232.502,227.787,219.739,-0.0,-0.0,216.56,226.187
2014-11-09 05:00,-0.00159185,267.123,251.721,241.061,247.662,242.364,230.604,-0.0,-0.0,222.906,235.887
2014-11-09 06:00,-0.0,258.096,240.984,235.337,234.633,230.429,224.481,-0.0,0.00194472,217.622,226.948
2014-11-09 07:00,-0.0,267.761,254.509,241.936,251.652,246.666,233.661,-0.0,-0.0,224.46,238.986
2014-11-09 08:00,0.00528555,285.202,285.994,260.011,288.628,287.329,262.136,-0.0,-0.0,235.593,260.627
2014-11-09 09:00,0.65333,273.586,277.098,255.16,280.639,280.554,259.492,1.29074,1.20922,236.139,260.627
2014-11-09 10:00,0.744476,286.569,273.599,253.02,276.772,275.861,257.034,0.750032,0.827703,235.867,259.22
2014-11-09 11:00,0.73625,297.146,273.466,253.02,276.923,276.477,257.53,0.662994,0.750746,236.004,259.554
2014-11-09 12:00,0.528024,296.008,276.591,254.217,279.022,277.091,256.785,0.489586,0.613469,235.867,258.628
2014-11-09 13:00,0.493643,295.583,278.226,255.277,280.639,279.511,258.638,0.454672,0.542128,236.808,259.638
2014-11-09 14:00,0.216276,296.943,290.545,262.471,291.16,288.167,261.301,0.0847588,0.252031,237.785,260.381
2014-11-09 15:00,0.187485,297.449,291.591,263.203,292.34,288.999,262.61,0.0714343,0.221217,237.333,260.545
2014-11-09 16:00,0.183465,297.649,290.651,262.786,291.029,287.329,260.822,0.0721578,0.213898,236.475,258.713
2014-11-09 17:00,0.188758,294.043,280.909,257.233,279.613,273.99,250.236,0.100428,0.22919,231.787,252.047
2014-11-09 18:00,0.208817,295.042,280.308,257.459,277.828,271.121,247.551,0.120378,0.249687,229.685,250.748
2014-11-09 19:00,0.534475,281.883,234.745,232.663,228.871,224.474,220.86,0.486358,0.637515,216.424,223.377
2014-11-09 20:00,0.488691,296.738,274.392,253.98,271.945,265.138,243.241,0.408877,0.566345,228.921,247.808
2014-11-09 21:00,0.853005,297.848,282.448,258.246,282.087,277.701,253.368,0.802487,0.984183,234.543,254.814
2014-11-09 22:00,-0.0,288.568,285.321,259.464,286.447,283.049,258.27,-0.0,-0.0183315,235.936,257.421
2014-11-09 23:00,-0.00804138,288.152,284.642,259.134,285.618,282.904,257.653,-0.00680862,-0.00405912,236.808,257.158
2014-11-10 00:00,-0.0,285.818,280.429,256.549,280.931,277.396,253.625,-0.00201485,-0.0,234.686,254.814
2014-11-10 01:00,-0.0,280.982,274.129,252.168,274.156,270.96,250.369,-0.0,-0.0,232.02,251.152
2014-11-10 02:00,-0.00153478,287.444,285.994,259.793,287.815,285.919,261.062,-0.0,-0.0,233.896,257.333
2014-11-10 03:00,-0.0,288.012,287.978,260.984,290.367,288.584,262.255,-0.0,-0.0,235.593,259.051
2014-11-10 04:00,-0.0,284.73,281.148,257.12,282.231,279.511,256.035,-0.0,-0.0,234.401,254.999
2014-11-10 05:00,-0.0,279.667,271.574,251.18,271.142,267.673,247.551,-0.0,-0.0,230.43,248.882
2014-11-10 06:00,-0.0,287.3,287.212,260.661,289.3,287.609,262.373,-0.0,-0.0,235.317,258.114
2014-11-10 07:00,-0.0,287.01,287.322,260.769,289.835,288.027,262.373,-0.0,-0.0,236.071,258.457
2014-11-10 08:00,-0.0,280.239,271.574,251.799,270.981,266.16,245.211,-0.0,-0.0,227.51,246.595
2014-11-10 09:00,1.47057,280.05,270.468,250.681,269.842,265.82,245.767,1.41114,1.9795,229.433,247.481
2014-11-10 10:00,0.478776,270.713,244.598,237.258,241.107,235.435,224.657,0.480891,0.644471,219.382,230.524
2014-11-10 11:00,0.341727,292.053,281.505,257.12,281.799,278.307,256.16,0.208158,0.404561,234.041,255.457
2014-11-10 12:00,0.287122,290.558,278.35,255.043,277.528,273.359,250.633,0.155236,0.342253,232.935,252.244
2014-11-10 13:00,0.245964,290.171,274.785,253.14,273.215,268.505,248.094,0.134894,0.290642,230.755,248.669
2014-11-10 14:00,0.233447,295.26,281.267,257.233,279.17,274.147,251.553,0.116086,0.26436,231.552,251.652
2014-11-10 15:00,0.237729,295.26,283.38,258.246,282.803,279.061,255.28,0.152699,0.277834,232.251,254.443
2014-11-10 16:00,0.248383,286.569,270.189,250.681,269.35,265.82,247.823,0.22733,0.314044,228.921,248.025
2014-11-10 17:00,0.261195,291.19,277.476,255.393,278.128,274.929,254.519,0.330112,0.391036,233.603,254.999
2014-11-10 18:00,0.128658,286.121,273.732,252.656,272.423,268.67,248.634,0.160271,0.223944,228.575,247.371
2014-11-10 19:00,0.664195,275.932,216.471,224.908,215.993,215.683,215.274,0.841952,0.986658,216.15,216.652
2014-11-10 20:00,0.694011,299.297,263.712,248.382,259.606,252.144,239.173,0.57055,0.718089,225.739,240.576
2014-11-10 21:00,2.41009,303.181,237.339,235.173,229.158,220.685,215.074,1.7742,2.29119,218.642,225.799
2014-11-10 22:00,0.0187927,286.569,280.789,257.798,280.931,274.617,251.291,-0.0,-0.0,229.601,248.133
2014-11-10 23:00,-0.00405368,266.466,251.147,240.617,248.946,245.186,234.291,-0.00343224,-0.00409243,224.054,234.389
2014-11-11 00:00,-0.0,222.276,213.479,223.489,212.219,211.284,211.57,-0.0,-0.00241472,210.278,210.984
2014-11-11 01:00,0.00180055,235.601,229.673,229.484,229.158,227.517,224.657,-0.0,-0.0,222.259,227.136
2014-11-11 02:00,-0.0,239.711,233.938,232.319,233.041,231.714,228.614,-0.0,-0.0,222.04,227.509
2014-11-11 03:00,-0.00144174,260.827,242.142,235.823,239.183,234.95,226.402,-0.0,-0.0,218.891,225.994
2014-11-11 04:00,-0.0,264.009,245.89,238.04,242.978,239.438,229.449,-0.0,-0.0,219.014,228.782
2014-11-11 05:00,-0.0,278.883,270.746,251.799,270.657,266.835,246.869,-0.0,-0.0,225.931,243.214
2014-11-11 06:00,-0.0,267.761,251.912,240.913,250.207,246.246,233.503,-0.0,-0.0,220.801,232.829
2014-11-11 07:00,-0.0,264.009,247.357,238.195,244.349,240.35,230.276,-0.0,-0.0,220.101,230.524
2014-11-11 08:00,-0.0,266.131,249.185,239.267,247.229,242.805,231.257,-0.0,-0.0,221.93,233.146
2014-11-11 09:00,2.42173,265.791,252.29,240.766,251.447,248.327,237.222,2.05047,2.89763,224.258,237.327
2014-11-11 10:00,0.374202,286.421,278.721,255.043,278.873,275.551,252.723,0.26535,0.500558,230.266,249.721
2014-11-11 12:00,0.366392,285.512,264.329,247.597,263.04,258.774,241.374,0.297054,0.411769,225.449,240.964
2014-11-11 13:00,0.275156,284.087,262.774,246.13,260.158,255.235,238.727,0.197496,0.331369,223.746,238.303
2014-11-11 14:00,0.253081,293.124,275.694,254.217,274.0,268.007,247.006,0.142159,0.281674,227.329,244.412
2014-11-11 15:00,0.308992,295.69,283.956,258.913,286.033,283.629,259.614,0.27847,0.350939,230.593,252.244
2014-11-11 16:00,0.205657,287.444,272.12,251.799,272.741,270.473,250.896,0.268199,0.362743,229.852,247.371
2014-11-11 17:00,0.171837,247.601,219.628,226.092,219.508,220.081,220.675,0.507612,0.567985,215.31,216.909
2014-11-11 18:00,0.301242,284.41,264.635,248.252,263.04,259.139,243.099,0.298822,0.392079,227.238,242.354
2014-11-11 19:00,0.299147,292.653,279.823,256.32,280.493,276.477,254.392,0.246875,0.370818,230.266,249.928
2014-11-11 20:00,0.378539,290.813,282.331,257.91,284.361,282.175,259.37,0.376354,0.503753,232.175,253.88
2014-11-11 21:00,0.238328,293.93,289.486,262.155,291.029,287.888,262.492,0.381163,0.380961,232.633,255.366
2014-11-11 22:00,-0.0,282.581,272.931,252.656,272.582,269.0,249.305,-0.0,-0.0,227.959,245.46
2014-11-11 23:00,-0.00817504,266.797,250.76,240.766,247.662,242.364,231.905,-0.0034609,-0.0041266,225.156,235.146
2014-11-12 00:00,0.00240425,262.869,242.597,236.466,238.446,232.976,224.481,-0.0,-0.0,219.014,226.948
2014-11-12 01:00,0.00180774,257.605,233.116,232.834,227.118,223.332,218.601,-0.0,-0.0,213.388,220.075
2014-11-12 02:00,-0.0,263.255,240.039,236.146,233.842,226.974,219.739,-0.0,-0.0,214.588,223.999
2014-11-12 03:00,-0.0,250.598,224.95,229.118,219.847,215.356,213.241,-0.0,-0.0,211.964,216.392
2014-11-12 04:00,0.00146387,245.913,223.597,228.192,219.167,215.356,213.035,-0.0,-0.0,212.287,216.392
2014-11-12 05:00,0.00160603,264.377,246.523,238.349,241.58,236.396,227.26,-0.0,-0.0,218.767,228.603
2014-11-12 06:00,-0.0,270.151,255.587,243.084,252.868,247.085,233.344,-0.0,-0.0,222.799,236.033
2014-11-12 07:00,-0.0,258.576,249.385,240.32,247.878,244.112,233.661,-0.0,-0.0,222.799,235.887
2014-11-12 08:00,-0.0,244.063,231.997,231.098,229.444,227.517,223.413,-0.0,-0.0,219.014,225.604
2014-11-12 09:00,0.581864,232.213,223.94,227.438,223.125,222.169,221.046,1.05571,1.25877,219.503,222.096
2014-11-12 10:00,0.400997,260.827,246.313,237.884,245.471,243.024,235.691,0.718527,0.82849,226.685,236.9
2014-11-12 11:00,0.414366,254.966,210.224,221.814,208.556,207.651,208.982,0.579202,0.68566,208.274,209.047
2014-11-12 12:00,0.335049,277.451,243.273,236.943,238.938,232.976,223.77,0.342177,0.44984,219.982,229.489
2014-11-12 13:00,0.281999,256.062,216.88,224.708,214.517,213.356,213.857,0.534274,0.620128,211.135,213.668
2014-11-12 14:00,0.260369,257.103,222.552,227.058,221.511,219.472,218.982,0.701065,0.77238,217.096,220.306
2014-11-12 15:00,0.262037,254.966,214.358,223.489,214.141,213.016,213.241,0.777523,0.844409,213.078,213.952
2014-11-12 16:00,0.310635,265.446,204.988,220.736,203.179,202.113,205.127,0.749039,0.823956,203.192,203.113
2014-11-12 17:00,0.373857,273.088,208.734,222.659,207.702,205.349,207.648,0.761214,0.839592,208.838,208.711
2014-11-12 18:00,0.448257,271.261,209.237,222.659,207.702,206.513,208.982,0.690411,0.791949,208.838,209.047
2014-11-12 19:00,0.691356,278.279,232.839,232.319,231.957,229.909,224.481,0.794887,0.943969,221.371,227.694
2014-11-12 20:00,0.839571,296.008,267.909,250.303,266.338,262.361,246.319,0.788237,0.997513,226.592,241.98
2014-11-12 21:00,1.06054,293.124,270.189,251.676,268.855,262.712,245.072,0.809274,1.03764,225.931,239.922
2014-11-12 22:00,-0.0,275.251,263.088,247.859,261.431,255.235,239.765,-0.0,-0.0,223.224,237.043
2014-11-12 23:00,-0.00412222,249.156,230.265,230.027,228.583,224.756,220.302,-0.00349028,-0.00416163,216.83,222.529
2014-11-13 00:00,-0.00241684,282.923,276.08,254.808,277.075,272.086,250.633,-0.0,-0.0,229.178,246.818
2014-11-13 01:00,-0.0,277.451,267.909,250.177,268.024,261.477,243.949,-0.0,-0.0,226.122,241.475
2014-11-13 02:00,-0.0,272.322,263.867,247.597,263.04,260.045,245.628,-0.0,-0.0,228.224,242.23
2014-11-13 03:00,-0.0,278.279,273.333,253.261,273.372,268.835,247.959,-0.0,-0.0,228.488,244.764
2014-11-13 04:00,-0.0,276.376,273.065,252.656,273.843,270.311,249.572,-0.0,-0.0,227.42,244.294
2014-11-13 05:00,-0.0,277.451,273.865,253.621,275.087,271.444,250.765,-0.0,-0.0,229.601,246.929
2014-11-13 06:00,-0.0,270.713,261.822,246.667,261.25,257.486,241.664,-0.0,-0.0,223.224,238.578
2014-11-13 07:00,-0.0,265.791,251.339,241.646,247.229,240.123,228.278,-0.0,-0.0,219.744,231.198
2014-11-13 08:00,-0.0,269.865,263.088,246.801,263.217,259.864,243.099,-0.0,-0.0,227.42,242.478
2014-11-13 09:00,0.856452,279.278,270.607,250.806,270.819,267.004,247.823,1.05477,1.33626,227.42,243.336
2014-11-13 10:00,0.390561,282.234,268.773,249.797,267.185,261.654,243.383,0.354308,0.521033,225.546,241.602
2014-11-13 11:00,0.369824,291.44,283.148,258.022,283.797,279.361,256.535,0.20737,0.447536,231.63,251.452
2014-11-13 12:00,0.640354,295.583,270.885,251.18,274.312,273.675,256.16,0.621103,0.695266,232.935,253.69
2014-11-13 13:00,0.57213,292.534,269.059,249.924,271.945,271.444,255.027,0.562402,0.632542,233.53,253.5
2014-11-13 14:00,0.509425,292.414,268.63,249.669,271.945,271.605,254.9,0.482504,0.556634,234.113,254.629
2014-11-13 15:00,0.377663,295.151,266.145,248.512,268.524,266.835,250.765,0.292047,0.382454,231.315,251.352
2014-11-13 16:00,0.420198,295.796,266.442,249.029,268.69,267.004,250.765,0.352783,0.428981,229.935,249.303
2014-11-13 17:00,0.301084,300.317,281.86,257.91,282.946,279.061,256.66,0.181783,0.303962,230.184,251.652
2014-11-13 18:00,0.359261,291.19,268.916,250.303,268.524,264.106,246.044,0.297953,0.401343,226.405,244.764
2014-11-13 19:00,0.24876,293.587,285.882,259.902,286.997,284.205,259.977,0.212221,0.30441,231.394,253.021
2014-11-13 20:00,0.0995268,291.686,287.978,260.984,289.3,286.626,261.062,0.134831,0.180861,230.348,252.925
2014-11-13 21:00,0.6409,290.041,280.187,256.205,281.221,278.004,255.406,0.542649,0.699312,229.178,249.198
2014-11-13 22:00,-0.021048,273.831,262.458,245.859,262.507,258.224,242.527,-0.0,-0.0212492,227.238,242.971
2014-11-13 23:00,-0.00415777,281.526,273.865,252.534,274.156,270.311,249.438,-0.00352038,-0.00419752,226.499,245.918
2014-11-14 00:00,-0.0,267.444,264.482,247.597,266.338,265.65,250.765,-0.0,-0.0,227.42,247.481
2014-11-14 01:00,-0.0,272.58,264.635,247.991,264.095,261.477,246.594,-0.0,-0.0,226.311,243.698
2014-11-14 02:00,-0.0,254.966,244.16,236.625,242.283,239.895,231.419,-0.0,-0.0,223.224,233.773
2014-11-14 03:00,-0.0,261.666,260.036,245.314,261.069,260.225,247.823,-0.0,-0.0,228.4,246.145
2014-11-14 04:00,-0.00147225,264.377,262.774,246.399,264.095,262.712,248.499,-0.0,-0.0,229.093,248.455
2014-11-14 05:00,-0.0,258.096,250.566,239.57,250.623,248.941,239.47,-0.0,-0.0,227.959,239.39
2014-11-14 06:00,0.00195632,276.155,268.343,249.414,268.358,265.82,248.229,-0.0,-0.0,229.093,246.929
2014-11-14 07:00,-0.0,282.923,279.091,255.742,280.054,277.701,255.532,-0.0,-0.0027841,229.685,250.544
2014-11-14 08:00,-0.0,279.278,273.466,252.412,274.156,271.121,251.159,-0.0,-0.0,228.312,246.929
2014-11-14 09:00,0.735882,285.512,283.726,258.134,285.618,283.339,259.249,0.872298,1.11438,228.224,250.95
2014-11-14 10:00,0.398855,280.239,267.18,249.158,265.482,261.654,244.512,0.294515,0.524405,223.952,241.475
2014-11-14 11:00,0.345006,279.473,261.017,245.723,256.98,252.341,238.128,0.265183,0.449584,220.57,234.082
2014-11-14 12:00,0.300178,285.818,269.767,249.797,268.69,263.237,243.241,0.16944,0.364006,226.499,244.175
2014-11-14 13:00,0.256669,296.008,289.379,261.838,290.5,286.343,260.461,0.0968497,0.302779,230.835,251.652
2014-11-14 14:00,0.221946,297.749,290.965,262.576,292.209,287.748,261.301,0.0783004,0.253943,231.865,252.146
2014-11-14 15:00,0.201017,298.436,290.86,263.099,291.686,287.329,260.822,0.0732258,0.227716,233.53,252.047
2014-11-14 16:00,0.200526,298.533,290.123,262.261,291.555,287.748,260.822,0.0898864,0.228642,232.02,252.047
2014-11-14 17:00,0.225914,298.822,289.379,262.261,291.029,287.329,260.581,0.122506,0.252419,231.315,251.652
2014-11-14 18:00,0.245529,296.114,287.432,261.412,289.3,286.06,260.942,0.170544,0.289436,232.86,252.731
2014-11-14 19:00,0.257578,295.902,288.52,261.305,290.234,286.907,261.66,0.186252,0.322677,232.935,253.117
2014-11-14 20:00,0.662579,299.203,281.148,257.572,283.797,281.882,260.34,0.620941,0.708933,234.041,253.88
2014-11-14 21:00,0.729802,281.165,272.931,253.02,276.163,276.015,257.9,0.758852,0.814335,235.247,253.974
2014-11-14 22:00,-0.0,274.314,275.694,253.98,279.022,278.307,258.515,-0.0,-0.0221522,235.386,253.974
2014-11-14 23:00,-0.00419418,288.152,286.882,260.661,289.032,286.767,260.701,-0.00355121,-0.00423428,235.178,254.068
2014-11-15 00:00,-0.0,282.581,279.702,256.32,281.943,279.361,257.158,-0.0,-0.0,232.328,250.646
2014-11-15 01:00,-0.00182967,286.271,285.208,259.354,287.679,285.065,260.581,-0.0,-0.0,232.633,252.244
2014-11-15 02:00,-0.0,285.202,283.956,259.024,286.585,284.492,259.614,-0.0,-0.0,232.405,251.352
2014-11-15 03:00,-0.00145935,284.888,283.611,258.691,286.31,283.773,259.735,-0.0,-0.0,232.02,251.051
2014-11-15 04:00,-0.0,283.76,282.916,258.358,285.201,282.613,259.37,-0.0,-0.0,231.865,250.135
2014-11-15 05:00,0.0016195,262.869,259.706,245.723,261.611,260.405,248.229,-0.0,-0.0,232.784,247.917
2014-11-15 06:00,-0.0,262.074,259.706,245.314,261.431,260.584,248.364,-0.0,-0.0,232.86,247.917
2014-11-15 07:00,-0.0,272.58,267.764,250.177,268.855,263.063,247.142,-0.0,-0.0,231.552,247.261
2014-11-15 08:00,-0.0,265.446,258.534,244.765,258.491,252.536,241.084,-0.0,-0.0,230.916,243.457
2014-11-15 09:00,1.61216,259.954,248.784,239.115,249.579,246.876,238.876,1.48371,1.98139,230.916,241.728
2014-11-15 10:00,0.749681,276.155,245.463,237.415,246.794,244.973,237.977,0.705282,0.850286,231.473,241.221
2014-11-15 11:00,0.542772,295.902,259.206,245.177,259.606,253.896,241.664,0.407811,0.560302,232.097,244.056
2014-11-15 12:00,0.336272,293.93,282.916,258.358,283.23,278.004,254.009,0.157692,0.389975,231.236,247.808
2014-11-15 13:00,0.244044,295.476,287.541,261.091,288.358,282.758,255.658,0.103906,0.292837,232.481,249.617
2014-11-15 14:00,0.266252,298.918,273.466,253.02,271.464,264.279,247.551,0.132547,0.275019,232.86,245.575
2014-11-15 15:00,0.197427,298.242,291.07,262.681,292.86,288.027,259.614,0.0722056,0.234695,233.308,251.949
2014-11-15 16:00,0.188612,299.391,293.742,264.339,295.803,291.6,261.898,0.0668734,0.223738,233.677,253.309
2014-11-15 17:00,0.185124,299.108,293.742,264.133,295.803,292.141,263.083,0.0751515,0.221457,234.257,253.595
2014-11-15 18:00,0.201128,298.436,292.005,263.515,294.277,290.784,262.61,0.099442,0.241585,235.662,254.722
2014-11-15 19:00,0.277602,297.549,290.651,262.576,292.989,290.511,263.67,0.188989,0.333278,236.207,255.457
2014-11-15 20:00,0.24811,296.219,292.622,263.618,295.297,292.545,263.553,0.169492,0.347258,235.593,255.183
2014-11-15 21:00,0.398834,294.268,290.545,262.366,293.119,290.784,263.2,0.380574,0.517689,235.867,255.275
2014-11-15 22:00,-0.0687742,289.113,289.272,261.944,292.079,290.648,263.553,-0.0388207,-0.0694317,236.742,256.181
2014-11-15 23:00,-0.00846292,288.012,288.628,261.305,291.555,290.101,263.67,-0.0,-0.00427191,236.874,256.45
2014-11-16 00:00,-0.0,287.3,288.303,260.984,291.423,290.511,264.138,-0.0,-0.0,237.463,258.457
2014-11-16 01:00,-0.0,286.717,287.432,260.337,290.5,289.551,263.905,-0.0,-0.0,237.137,258.628
2014-11-16 02:00,-0.0,286.121,286.992,260.011,289.701,288.999,263.553,-0.0,-0.0,237.849,259.051
2014-11-16 03:00,-0.0,285.357,286.439,259.464,289.166,288.584,263.318,-0.0,-0.0,237.721,259.887
2014-11-16 04:00,-0.00148043,284.57,285.546,258.913,288.222,287.748,262.61,-0.0,-0.0,237.785,259.554
2014-11-16 05:00,-0.0016238,284.249,285.658,259.134,288.358,287.888,263.083,-0.0,-0.0,238.357,260.299
2014-11-16 06:00,-0.0,283.594,284.982,258.802,287.543,287.469,263.083,-0.0,-0.0,238.981,260.871
2014-11-16 07:00,-0.0,283.261,284.414,258.134,286.722,286.485,262.136,-0.0,-0.0,239.288,261.275
2014-11-16 08:00,-0.00549852,282.408,283.264,257.572,285.479,284.922,261.062,-0.0,-0.0,239.41,261.755
2014-11-16 09:00,1.00833,282.753,283.264,257.459,285.34,284.779,260.942,1.08142,1.62875,239.954,262.935
2014-11-16 10:00,0.351039,287.155,286.992,259.244,289.166,288.306,262.255,0.203364,0.531593,242.099,264.765
2014-11-16 11:00,0.356731,292.653,290.756,261.519,292.989,291.6,264.022,0.157228,0.471144,242.266,265.212
2014-11-16 12:00,0.324103,296.323,292.725,262.786,294.788,292.814,263.2,0.128451,0.396819,241.704,264.839
2014-11-16 13:00,0.269086,298.822,295.837,264.339,298.302,295.996,265.416,0.0968001,0.32796,242.211,265.948
2014-11-16 14:00,0.231676,300.769,297.204,265.456,299.654,297.17,265.416,0.0792987,0.276191,242.042,265.801
2014-11-16 15:00,0.198517,301.653,298.644,266.358,301.231,298.72,266.681,0.0642674,0.244034,243.093,266.456
2014-11-16 16:00,0.184963,301.125,298.262,265.959,300.869,297.947,266.452,0.0598502,0.224791,242.71,266.239
2014-11-16 17:00,0.18495,300.947,297.783,265.758,300.384,297.43,266.222,0.0622098,0.225085,242.765,265.581
2014-11-16 18:00,0.183242,300.042,296.815,265.758,299.164,296.389,265.532,0.073231,0.232352,242.433,265.36
2014-11-16 19:00,0.198352,298.533,296.229,265.153,298.795,296.389,265.993,0.0950626,0.266367,242.6,265.434
2014-11-16 20:00,0.224585,296.323,295.343,265.153,297.931,295.865,265.993,0.147371,0.325927,242.984,265.434
2014-11-16 21:00,0.287986,293.472,293.336,263.928,295.93,294.547,266.108,0.291545,0.442429,243.093,265.655
2014-11-16 22:00,-0.0240076,288.977,290.335,261.838,292.73,291.871,265.069,-0.0406544,-0.0727113,243.74,265.655
2014-11-16 23:00,-0.00426959,288.012,289.165,261.198,291.555,291.329,264.605,-0.00361506,-0.00431041,243.846,265.212
2014-11-17 00:00,-0.002469,286.864,288.412,260.876,291.029,290.375,264.721,-0.0,-0.0,244.111,265.137
2014-11-17 01:00,-0.0,286.421,287.869,260.445,290.5,289.826,264.138,-0.0,-0.0,244.269,264.989
2014-11-17 02:00,-0.00157151,286.121,287.651,260.011,290.101,289.689,264.022,-0.0,-0.0,243.472,264.615
2014-11-17 03:00,-0.0,285.512,287.102,260.011,289.701,289.413,264.721,-0.0,-0.0,242.322,263.782
2014-11-17 04:00,0.00148444,284.57,286.55,259.902,289.032,288.999,263.553,-0.0,0.00149863,242.155,263.782
2014-11-17 05:00,0.001628,284.087,286.217,259.464,288.763,288.722,264.138,-0.0,-0.0,242.155,263.934
2014-11-17 06:00,-0.0,283.594,285.658,259.024,288.222,288.167,263.436,-0.0,-0.0,241.986,263.476
2014-11-17 07:00,-0.0,282.923,284.3,258.358,286.033,285.35,261.301,-0.0,-0.0,240.899,262.466
2014-11-17 08:00,-0.0,282.059,283.956,257.91,285.757,284.922,261.66,-0.0,0.00557511,241.073,262.309
2014-11-17 09:00,0.77833,282.753,284.071,258.022,285.895,285.208,261.301,0.933599,1.50606,241.073,262.23
2014-11-17 10:00,0.35971,287.587,286.772,259.902,288.897,287.609,261.421,0.206948,0.530755,240.782,261.515
2014-11-17 11:00,0.36877,293.007,290.756,261.838,292.34,289.137,261.66,0.167491,0.483244,240.607,261.113
2014-11-17 12:00,0.324036,297.146,293.742,263.618,296.182,293.483,263.553,0.126965,0.398477,240.665,261.113
2014-11-17 13:00,0.270437,299.108,295.343,264.95,297.184,293.082,262.847,0.102686,0.329316,240.607,260.463
2014-11-17 14:00,0.227929,300.589,296.815,265.658,299.164,295.734,263.67,0.0813677,0.278618,240.607,260.545
2014-11-17 15:00,0.201947,301.39,297.783,266.557,300.506,297.689,265.069,0.0681975,0.245124,240.665,260.871
2014-11-17 16:00,0.188386,301.826,298.739,266.954,301.952,299.488,267.023,0.0618086,0.229413,240.841,261.435
2014-11-17 17:00,0.179715,301.565,298.929,267.249,302.55,300.252,266.681,0.0610801,0.224875,241.015,262.072
2014-11-17 18:00,0.182973,300.498,298.549,266.855,302.072,299.87,267.251,0.0694054,0.236444,240.724,261.914
2014-11-17 19:00,0.199745,299.108,297.783,266.756,301.11,299.36,267.023,0.0916746,0.269501,240.312,261.914
2014-11-17 20:00,0.234796,297.045,296.815,265.959,300.384,298.976,267.478,0.137267,0.330163,240.43,262.857
2014-11-17 21:00,0.278613,293.587,293.944,264.441,297.434,296.519,267.023,0.283081,0.43129,241.015,262.623
2014-11-17 22:00,-0.0252063,288.841,290.651,262.366,293.892,293.617,265.993,-0.0426843,-0.0763418,240.782,262.23
2014-11-17 23:00,-0.00430859,287.587,289.272,261.731,292.47,292.41,265.647,-0.00364807,-0.00434977,241.647,262.23
2014-11-18 00:00,-0.0,286.864,288.52,261.198,291.686,291.6,265.647,-0.0,-0.0,241.304,262.466
2014-11-18 01:00,-0.00185205,285.97,287.869,260.984,290.764,290.921,265.301,-0.0,-0.0,241.647,262.309
2014-11-18 02:00,0.00157677,285.665,287.102,260.337,289.968,290.101,264.255,-0.0,-0.0,241.015,261.595
2014-11-18 03:00,-0.00147231,285.202,286.439,260.228,289.3,288.722,263.436,-0.0,-0.0,240.489,260.952
2014-11-18 04:00,-0.0,284.57,285.994,259.902,288.763,288.167,263.436,-0.0,-0.0,239.774,260.708
2014-11-18 05:00,-0.0,284.087,285.658,259.574,288.358,288.167,262.965,-0.0,-0.0,238.981,260.135
2014-11-18 06:00,-0.0,283.76,285.546,259.464,288.358,288.027,263.083,-0.0,-0.0,238.671,259.804
2014-11-18 07:00,-0.0,283.594,285.095,259.464,288.087,287.748,262.965,-0.0,-0.0,238.919,259.471
2014-11-18 08:00,-0.0,283.428,284.755,258.691,287.679,287.048,262.728,-0.0,-0.0,238.483,259.051
2014-11-18 09:00,0.188782,283.428,284.869,258.802,287.543,287.188,262.136,0.852488,0.825876,238.104,259.051
2014-11-18 10:00,0.465187,288.012,282.331,257.459,284.921,283.773,260.461,0.405572,0.56263,237.849,258.114
2014-11-18 11:00,0.42724,294.043,286.328,259.683,288.763,286.626,261.779,0.256321,0.500337,237.528,258.628
2014-11-18 12:00,0.399829,296.635,286.772,260.011,289.166,286.06,261.182,0.27433,0.481946,237.721,258.028
2014-11-18 13:00,0.295502,299.108,289.699,262.049,291.686,288.861,261.421,0.160506,0.327878,237.398,258.028
2014-11-18 14:00,0.226657,300.858,295.244,265.153,296.935,292.948,263.083,0.0834393,0.262402,237.785,257.855
2014-11-18 15:00,0.228719,301.913,291.694,263.099,293.506,289.276,261.779,0.0968279,0.243864,237.785,257.508
2014-11-18 16:00,0.224757,302.764,293.031,263.825,294.788,290.648,262.61,0.103619,0.236409,237.398,257.07
2014-11-18 17:00,0.207366,302.085,293.843,264.339,295.803,291.6,262.847,0.0974234,0.234878,237.463,257.158
2014-11-18 18:00,0.20609,300.225,293.031,264.339,294.916,291.464,262.965,0.115093,0.24495,236.808,257.07
2014-11-18 19:00,0.217889,299.858,293.944,264.645,296.182,292.679,263.436,0.127721,0.274495,236.542,257.158
2014-11-18 21:00,0.355145,295.476,292.005,263.618,294.149,291.193,263.436,0.466605,0.550174,237.137,257.682
2014-11-18 22:00,-0.0,290.558,289.486,262.261,292.079,289.826,263.2,-0.0224709,-0.0267932,237.203,257.682
2014-11-18 23:00,-0.0,288.705,287.76,261.198,290.367,288.167,262.492,-0.00368181,-0.00439001,236.408,257.855
2014-11-19 00:00,-0.0,289.247,288.628,262.261,291.16,289.413,262.965,-0.0,-0.0,235.593,256.805
2014-11-19 01:00,-0.0,288.43,288.087,261.519,290.897,288.999,262.965,-0.0,-0.0,236.004,256.271
2014-11-19 02:00,-0.0,287.871,287.76,261.519,290.764,288.722,262.61,-0.0,-0.0,236.742,256.628
2014-11-19 03:00,-0.00147656,287.587,287.651,261.198,290.632,288.861,262.61,-0.0,-0.0,236.207,256.001
2014-11-19 04:00,-0.0,287.01,287.322,260.984,290.234,288.445,262.255,-0.0,-0.0,235.799,255.457
2014-11-19 05:00,-0.0,287.01,286.882,260.769,289.968,288.306,262.373,-0.0,-0.0,235.386,255.548
2014-11-19 06:00,-0.0,286.569,287.102,260.876,290.5,288.861,263.2,-0.0,-0.0,235.867,255.548
2014-11-19 07:00,-0.00279828,286.421,286.772,260.769,290.234,288.861,262.847,-0.0,-0.0,234.401,254.999
2014-11-19 08:00,0.00556432,284.249,283.495,258.691,286.033,284.061,259.492,-0.0,-0.0,232.481,252.828
2014-11-19 09:00,0.306798,286.121,286.105,259.793,289.434,287.609,261.898,0.831249,0.929192,232.557,254.722
2014-11-19 10:00,0.0920271,287.3,286.105,260.119,288.628,286.767,260.581,0.148046,0.185814,233.085,254.722
2014-11-19 11:00,0.37102,294.933,290.123,262.261,292.209,289.137,261.54,0.167405,0.441102,231.943,254.536
2014-11-19 12:00,0.404992,299.765,282.448,258.134,284.501,280.554,257.406,0.258274,0.412343,231.865,253.117
2014-11-19 13:00,0.38191,298.822,281.386,257.346,282.803,280.108,257.282,0.267895,0.392597,232.328,253.5
2014-11-19 14:00,0.381818,288.568,269.485,250.806,269.021,266.498,249.971,0.358741,0.445153,227.51,247.371
2014-11-19 15:00,0.230982,251.282,225.611,227.438,224.694,223.619,222.511,0.475102,0.542932,219.382,223.167
2014-11-19 16:00,0.231688,253.81,225.282,227.628,224.384,0.0,221.965,0.622366,0.0,219.26,222.313
2014-11-19 17:00,0.296866,258.576,230.265,229.118,229.444,227.787,223.592,0.682405,0.767753,222.04,228.242
2014-11-19 18:00,0.38822,265.095,217.685,223.899,217.78,216.331,215.274,0.826707,0.928259,216.56,218.165
2014-11-19 19:00,0.620509,299.203,265.092,248.642,267.354,264.795,250.236,0.630776,0.708966,229.517,246.929
2014-11-19 20:00,0.180112,293.24,285.208,259.574,286.997,283.629,259.127,0.251039,0.260162,234.615,252.244
2014-11-19 21:00,1.16881,289.647,253.963,242.081,248.52,243.679,231.419,0.907588,1.19221,220.801,231.695
2014-11-19 22:00,-0.0,227.984,223.252,227.438,221.838,221.283,219.551,-0.0237329,-0.0,218.264,220.763
2014-11-19 23:00,-0.00438914,242.013,224.616,227.817,220.519,218.547,217.445,-0.0,-0.0,212.922,215.867
2014-11-20 00:00,-0.0,232.213,217.685,225.107,214.517,213.016,213.241,-0.0,-0.0,211.636,212.8
2014-11-20 01:00,-0.0,222.276,212.119,222.238,210.218,208.397,208.761,-0.0,-0.0,209.206,210.984
2014-11-20 02:00,-0.0,245.01,228.463,229.484,225.919,221.579,216.859,-0.0,-0.0,215.452,221.658
2014-11-20 03:00,-0.0,240.898,235.8,232.146,236.186,233.722,227.94,-0.0,-0.0,224.661,232.829
2014-11-20 04:00,-0.0,245.01,244.598,236.943,246.135,245.824,238.278,-0.0,-0.0,228.136,239.121
2014-11-20 05:00,-0.0,245.913,242.597,236.306,243.209,242.143,235.072,-0.0,-0.0,225.643,236.325
2014-11-20 06:00,-0.0,252.585,247.973,239.115,248.093,245.824,236.307,-0.0,-0.0,225.449,239.523
2014-11-20 07:00,-0.00280503,251.944,244.598,237.101,245.024,242.805,236.46,-0.0,-0.0,227.238,237.608
2014-11-20 08:00,-0.0,264.377,256.469,243.084,256.789,253.51,240.5,-0.0,-0.0,233.823,244.294
2014-11-20 09:00,0.841553,273.338,259.039,244.626,256.98,251.354,235.227,0.916125,1.21371,227.055,238.165
2014-11-20 10:00,0.367863,278.883,261.982,246.667,259.421,253.122,238.727,0.342616,0.464224,226.963,239.121
2014-11-20 11:00,0.349039,292.771,284.982,259.464,286.033,281.882,258.023,0.181865,0.409051,239.954,253.69
2014-11-20 12:00,0.306781,295.26,286.772,260.228,287.134,282.467,257.53,0.135713,0.353213,238.671,252.828
2014-11-20 13:00,0.260654,291.686,276.463,254.454,274.778,268.835,247.279,0.148704,0.306769,234.185,247.04
2014-11-20 14:00,0.278332,283.594,255.23,242.799,249.368,242.585,229.781,0.235663,0.338186,220.801,232.347
2014-11-20 15:00,0.284565,278.279,252.101,241.5,248.52,243.243,231.257,0.366348,0.436815,222.04,234.996
2014-11-20 16:00,0.246843,260.827,218.862,223.899,217.78,215.027,212.827,0.723544,0.798635,215.452,218.653
2014-11-20 17:00,0.325623,257.605,225.611,228.564,0.0,224.474,223.233,0.606977,0.707164,222.585,224.811
2014-11-20 18:00,0.36433,263.255,210.707,221.814,208.977,208.397,210.932,0.624358,0.709142,206.905,207.678
2014-11-20 19:00,0.63198,276.376,200.774,218.957,199.715,198.656,202.255,0.831675,0.963581,202.222,200.956
2014-11-20 20:00,0.926975,279.473,200.774,218.73,199.196,198.656,202.986,1.07919,1.26728,203.192,202.271
2014-11-20 21:00,1.43158,282.923,203.838,219.409,200.733,199.981,203.468,1.21211,1.51783,204.573,203.113
2014-11-20 22:00,-0.0297058,213.142,200.125,218.502,199.196,197.752,201.515,-0.0251518,-0.0,200.681,200.041
2014-11-20 23:00,-0.0,222.276,210.224,221.6,208.556,207.274,208.54,-0.0,-0.00447305,208.652,209.707
2014-11-21 00:00,-0.0,256.589,246.313,238.195,244.349,239.895,230.276,-0.0,-0.0,222.906,234.542
2014-11-21 01:00,-0.0,251.282,241.218,235.662,239.911,236.157,227.94,-0.0,-0.0,219.863,231.695
2014-11-21 02:00,-0.0,238.442,230.265,230.207,228.583,225.874,221.598,-0.0,-0.0,218.391,225.604
2014-11-21 03:00,-0.0,257.103,246.102,238.657,244.122,239.438,231.905,-0.0,-0.0,224.46,235.146
2014-11-21 04:00,-0.00149978,248.394,241.218,235.337,241.344,237.581,230.931,-0.0,-0.0,224.76,235.146
2014-11-21 05:00,-0.0,233.989,229.072,229.484,226.82,225.038,221.782,-0.0,-0.0,219.863,225.604
2014-11-21 06:00,-0.0,244.063,235.011,232.491,233.577,229.909,224.481,-0.0,-0.0,218.642,227.694
2014-11-21 07:00,-0.0,232.213,224.616,226.674,223.125,220.384,219.362,-0.0,-0.0,216.287,220.989
2014-11-21 08:00,-0.0,232.213,224.95,227.248,223.758,221.579,219.551,-0.0,-0.0,217.622,221.878
2014-11-21 09:00,1.00549,254.966,236.832,232.491,234.107,230.17,224.304,1.10174,1.4928,221.031,228.242
2014-11-21 10:00,0.459658,259.954,239.559,234.017,237.702,234.95,229.116,0.544869,0.719281,223.118,230.863
2014-11-21 11:00,0.344194,277.24,262.3,246.13,260.524,257.115,242.956,0.295562,0.487957,226.122,239.523
2014-11-21 12:00,0.25167,278.684,260.365,245.177,258.304,254.855,240.793,0.211629,0.360231,225.449,237.327
2014-11-21 13:00,0.232797,278.482,263.245,246.533,262.685,259.321,244.372,0.193568,0.340572,227.238,241.854
2014-11-21 14:00,0.227826,296.427,286.328,260.011,286.172,280.702,255.28,0.0959286,0.276005,228.488,247.481
2014-11-21 15:00,0.216868,288.705,271.574,251.429,268.855,263.933,245.628,0.150056,0.269556,223.746,238.85
2014-11-21 16:00,0.276083,264.377,235.275,232.146,233.842,231.714,225.883,0.357105,0.453073,221.031,226.76
2014-11-21 17:00,0.332892,268.686,198.095,217.342,197.056,195.415,199.751,0.728136,0.807088,199.867,198.106
2014-11-21 18:00,0.455465,269.283,203.838,218.957,202.701,200.845,204.893,0.811942,0.921107,205.233,204.721
2014-11-21 19:00,0.369762,266.466,221.841,225.897,220.519,218.857,217.832,0.630849,0.726061,216.287,219.372
2014-11-21 20:00,0.953132,286.121,198.787,217.809,197.056,196.831,202.5,1.09075,1.27837,201.973,200.041
2014-11-21 21:00,1.49896,285.665,213.031,222.868,207.269,205.349,205.825,1.22904,1.53124,207.891,208.711
2014-11-21 22:00,0.0316026,233.989,214.79,223.694,210.625,208.026,206.97,-0.0,-0.0,207.105,210.353
2014-11-21 23:00,-0.0,222.276,208.223,221.17,204.584,203.351,205.361,-0.00378735,-0.00451584,203.662,205.868
2014-11-22 00:00,-0.0,218.393,201.41,218.272,199.715,198.656,202.986,-0.0,-0.0,200.945,201.402
2014-11-22 01:00,-0.0,213.142,207.178,220.517,205.946,204.559,205.127,-0.0,-0.0,206.292,207.678
2014-11-22 02:00,-0.0,230.231,219.247,225.107,216.355,213.016,211.992,-0.0,-0.0,211.636,215.867
2014-11-22 03:00,-0.00148901,242.013,229.072,229.665,225.615,221.579,218.218,-0.0,-0.0,216.424,222.956
2014-11-22 04:00,-0.0,222.276,213.479,222.659,212.219,210.576,211.146,-0.0,-0.0,210.796,212.8
2014-11-22 05:00,-0.00164731,230.231,217.285,223.899,214.89,212.329,212.411,-0.0,-0.0,212.287,215.061
2014-11-22 06:00,-0.0,225.382,213.921,222.868,211.428,209.497,209.856,-0.0,-0.0,209.206,211.602
2014-11-22 07:00,-0.0,237.078,221.481,225.701,217.427,213.694,212.827,-0.0,-0.0,211.636,215.332
2014-11-22 08:00,-0.00561259,254.396,240.039,234.515,237.2,232.474,225.185,-0.0,-0.0,220.101,228.96
2014-11-22 09:00,1.22725,253.206,233.116,231.274,229.158,224.474,219.172,1.28651,1.76997,216.012,224.61
2014-11-22 10:00,0.634279,261.251,233.666,231.45,231.683,227.787,221.046,0.747191,0.872351,214.879,224.408
2014-11-22 11:00,0.537174,272.58,238.338,233.849,236.441,232.221,224.657,0.61608,0.707466,218.009,228.603
2014-11-22 12:00,0.470705,280.613,240.984,235.662,237.451,232.474,225.009,0.459859,0.553535,217.491,227.136
2014-11-22 14:00,0.314026,273.586,236.06,232.663,233.31,227.787,220.489,0.33366,0.433894,218.642,225.408
2014-11-22 15:00,0.399831,287.871,255.23,243.79,255.633,252.927,240.5,0.332614,0.423659,228.312,243.093
2014-11-22 16:00,0.448552,288.977,249.781,240.617,250.415,247.085,236.46,0.48418,0.527523,226.592,239.255
2014-11-22 17:00,0.205349,295.368,282.682,259.024,282.374,277.396,255.406,0.112001,0.236565,232.175,249.617
2014-11-22 18:00,0.273164,291.563,267.618,250.931,264.27,255.992,238.727,0.216525,0.327117,223.849,238.165
2014-11-22 19:00,0.525624,277.661,227.533,228.749,224.072,220.081,216.269,0.565286,0.692637,215.593,219.608
2014-11-22 20:00,0.825888,278.883,217.285,224.305,213.763,211.284,210.504,0.835892,1.01048,211.135,213.092
2014-11-22 21:00,1.1487,284.41,245.248,237.258,241.815,236.872,226.056,0.918019,1.1656,218.009,227.509
2014-11-22 22:00,-0.0675308,268.686,252.29,241.207,249.579,243.679,231.257,-0.0285891,-0.0340882,220.57,232.669
2014-11-22 23:00,-0.0045163,240.898,222.198,226.674,220.184,217.922,215.674,-0.0,-0.00455948,212.765,216.909
2014-11-23 00:00,-0.0,245.01,241.682,235.337,241.344,240.35,233.661,-0.0,-0.0,226.685,235.295
2014-11-23 01:00,-0.00188989,256.589,252.29,241.061,253.069,251.354,240.354,-0.0,-0.0,229.093,242.354
2014-11-23 02:00,-0.0,267.123,261.34,246.533,262.15,259.502,245.628,-0.0,-0.0,229.935,244.764
2014-11-23 04:00,-0.00150698,260.395,247.15,238.963,245.248,239.895,228.949,-0.0,-0.00152139,222.04,233.146
2014-11-23 05:00,-0.0,266.131,258.195,245.04,256.021,250.357,236.0,-0.0,-0.0,222.259,236.614
2014-11-23 06:00,-0.0,255.521,238.585,234.017,234.895,230.688,223.592,-0.0,-0.0,215.593,223.793
2014-11-23 07:00,-0.0,227.984,221.841,225.306,219.508,218.547,215.873,-0.0,-0.0,215.593,218.653
2014-11-23 08:00,-0.0056246,225.382,221.481,224.908,220.519,219.472,218.792,-0.0,-0.0,216.424,219.372
2014-11-23 09:00,1.04353,257.605,240.514,234.35,238.693,235.435,228.109,1.22716,1.63879,221.371,229.137
2014-11-23 10:00,0.482707,277.24,260.365,245.587,260.524,256.18,239.618,0.498234,0.56158,222.368,237.043
2014-11-23 11:00,0.586236,292.534,268.63,250.177,271.464,268.835,251.028,0.521183,0.584442,229.007,246.707
2014-11-23 12:00,0.548476,287.444,269.485,250.931,270.981,268.505,249.705,0.69659,0.729586,227.691,244.647
2014-11-23 13:00,0.365354,292.414,278.968,256.089,280.493,277.243,255.406,0.325875,0.436422,231.156,248.882
2014-11-23 14:00,0.295561,292.653,283.148,258.802,284.781,281.441,258.392,0.274234,0.372984,232.935,251.051
2014-11-23 15:00,0.224932,296.323,286.661,260.769,287.543,283.339,258.392,0.129269,0.260027,231.236,249.825
2014-11-23 16:00,0.211254,296.114,286.661,260.769,287.543,283.629,259.127,0.118252,0.24171,231.552,250.238
2014-11-23 17:00,0.213975,297.146,287.651,261.944,288.897,284.922,259.492,0.11936,0.245247,232.784,251.452
2014-11-23 18:00,0.307578,299.203,282.096,258.358,284.22,280.702,258.27,0.216202,0.341277,233.01,252.146
2014-11-23 19:00,0.601607,297.045,274.916,254.217,278.278,276.631,257.158,0.610633,0.7188,233.159,252.146
2014-11-23 20:00,1.30962,301.565,270.049,250.806,272.899,272.246,255.784,1.17341,1.34963,233.896,251.949
2014-11-23 21:00,1.57699,293.356,269.201,250.681,272.104,271.926,256.16,1.27142,1.57451,235.455,252.439
2014-11-23 22:00,-0.0362524,279.473,276.336,255.277,278.725,277.243,257.653,-0.0613897,-0.0731979,234.686,252.537
2014-11-23 23:00,-0.0,288.152,285.882,260.553,287.407,284.349,260.34,-0.0,-0.00460394,234.472,252.439
2014-11-24 00:00,-0.00256598,287.871,285.208,260.119,286.722,283.629,259.856,-0.0,-0.0,233.896,252.146
2014-11-24 01:00,-0.0,285.045,283.726,259.354,285.618,283.339,259.856,-0.0,-0.0,233.896,251.949
2014-11-24 02:00,-0.0016079,284.57,283.148,259.134,285.061,282.028,259.127,-0.0,-0.0,233.823,251.949
2014-11-24 03:00,-0.0,287.155,284.528,260.011,286.033,283.049,259.492,-0.0,-0.0,233.234,251.85
2014-11-24 04:00,-0.00151044,278.482,276.718,255.51,279.466,276.784,257.034,-0.0,-0.0,232.328,251.552
2014-11-24 05:00,0.00165413,269.283,266.738,249.542,269.35,268.505,253.111,-0.0,-0.00166994,231.943,250.646
2014-11-24 06:00,-0.0,286.421,284.071,259.683,285.757,282.758,258.147,-0.0,-0.0,231.394,251.85
2014-11-24 07:00,-0.0,282.753,279.213,256.778,280.931,277.853,256.66,-0.0,-0.0,230.511,250.442
2014-11-24 08:00,-0.0,285.818,283.841,259.244,285.479,282.613,258.515,-0.0,-0.0,230.755,250.748
2014-11-24 09:00,0.692825,284.249,281.267,258.134,283.088,279.959,258.27,0.928805,1.04917,232.02,250.544
2014-11-24 10:00,0.745121,290.429,272.931,253.261,275.55,272.724,253.497,0.591949,0.687236,232.097,250.238
2014-11-24 11:00,0.52789,294.043,275.306,254.336,278.278,275.396,255.28,0.446964,0.525535,231.552,250.442
2014-11-24 12:00,0.49694,295.796,262.931,247.332,265.482,265.138,251.159,0.40907,0.50169,231.156,249.408
2014-11-24 13:00,0.460298,296.738,264.788,248.252,267.185,266.16,251.683,0.387371,0.468923,230.755,249.408
2014-11-24 14:00,0.289421,297.045,279.213,257.12,280.639,275.861,255.027,0.176229,0.294675,231.315,250.032
2014-11-24 15:00,0.288979,288.705,278.968,256.778,281.51,279.361,257.777,0.289075,0.355266,232.175,250.849
2014-11-24 16:00,0.221708,254.396,235.538,231.973,233.842,233.722,229.946,0.457877,0.518711,223.224,227.323
2014-11-24 17:00,0.354628,260.827,212.578,221.6,211.428,211.284,212.619,0.742138,0.831566,210.966,210.67
2014-11-24 18:00,0.321606,280.239,244.38,236.146,241.815,235.917,223.77,0.394962,0.506033,222.15,231.198
2014-11-24 19:00,0.50286,272.58,220.379,225.306,215.993,214.697,216.071,0.564069,0.670714,211.964,213.382
2014-11-24 20:00,0.856593,278.279,211.654,221.386,209.808,209.133,210.932,0.920366,1.08919,210.102,210.353
2014-11-24 21:00,1.46839,279.473,229.072,229.484,225.003,222.462,218.792,1.253,1.60404,217.622,222.743
2014-11-24 22:00,-0.469681,267.123,257.166,244.626,256.021,252.144,238.577,-0.0994195,-0.2766,224.46,238.714
2014-11-24 23:00,-0.0046052,268.686,253.04,242.081,248.733,242.364,231.743,-0.0,-0.0,219.863,230.524
2014-11-25 00:00,-0.0,227.984,218.082,224.507,215.993,215.027,214.265,-0.0,-0.0,213.234,214.787
2014-11-25 01:00,-0.00190504,246.775,235.8,232.491,233.577,231.203,226.056,-0.0,-0.0,220.337,227.136
2014-11-25 02:00,-0.0,222.276,217.685,223.283,216.715,215.356,215.274,-0.0,-0.0,214.734,215.6
2014-11-25 03:00,-0.0,227.984,223.597,226.287,222.162,221.283,219.551,-0.0,-0.0,217.36,220.535
2014-11-25 04:00,-0.0,232.213,221.841,225.504,218.824,214.697,213.653,-0.0,-0.0,215.167,219.608
2014-11-25 05:00,-0.00165733,260.395,252.29,242.656,249.368,239.895,229.615,-0.0,-0.0,221.258,236.325
2014-11-25 06:00,-0.0,279.473,271.984,252.412,272.423,267.004,248.094,-0.0,-0.0,227.147,244.881
2014-11-25 07:00,-0.0,268.686,263.867,247.991,264.444,260.764,246.182,-0.0,-0.0,228.488,245.46
2014-11-25 08:00,-0.00564231,270.434,262.458,247.067,262.329,257.115,243.383,-0.0,-0.0,227.147,243.818
2014-11-25 09:00,0.692609,282.059,273.865,253.741,273.686,267.84,248.229,0.781908,1.04884,228.4,244.998
2014-11-25 10:00,0.607614,285.665,263.867,247.728,264.965,261.654,247.687,0.526158,0.636658,229.517,245.345
2014-11-25 11:00,0.626063,293.816,276.718,255.393,278.278,274.773,254.392,0.561146,0.644392,230.43,247.917
2014-11-25 12:00,0.510999,291.44,269.767,251.18,271.625,269.329,251.553,0.548136,0.59954,231.236,248.133
2014-11-25 13:00,0.400444,284.087,256.294,243.509,256.406,252.927,239.322,0.461919,0.521187,225.931,240.185
2014-11-25 14:00,0.269742,257.103,208.734,220.517,206.392,204.955,207.648,0.611126,0.678936,205.663,206.239
2014-11-25 15:00,0.287768,262.869,200.125,217.576,198.14,196.363,201.016,0.720106,0.793927,201.465,200.502
2014-11-25 16:00,0.269674,256.589,206.643,219.632,205.946,204.559,207.197,0.698897,0.771776,206.702,207.326
2014-11-25 17:00,0.344259,261.251,198.787,217.106,196.503,194.933,201.266,0.711687,0.797842,198.438,198.106
2014-11-25 18:00,0.445525,263.255,208.223,220.077,207.269,205.74,207.872,0.666269,0.778361,207.304,208.027
2014-11-25 19:00,0.320378,291.44,271.437,252.045,269.679,263.237,242.671,0.274364,0.406612,228.488,242.971
2014-11-25 20:00,0.472292,289.381,258.703,245.859,253.867,247.501,233.661,0.395318,0.501328,220.916,232.022
2014-11-25 21:00,1.21449,288.841,250.175,240.766,245.914,239.438,226.402,0.946615,1.21464,218.264,228.06
2014-11-25 22:00,-0.0,260.827,239.799,234.515,234.895,229.121,221.782,-0.036011,-0.0858754,216.424,225.408
2014-11-25 23:00,-0.00465084,245.913,224.616,227.817,220.519,217.29,214.468,-0.0,-0.0,213.845,217.918
2014-11-26 00:00,-0.0,227.984,213.921,221.6,211.428,208.766,210.718,-0.0,-0.0,208.274,210.032
2014-11-26 01:00,0.00191259,232.213,222.552,226.287,219.847,217.922,216.663,-0.0,-0.0,214.293,219.134
2014-11-26 02:00,-0.00161797,235.601,223.597,226.481,221.511,218.235,215.274,-0.0,-0.0,213.078,219.372
2014-11-26 03:00,-0.0,237.078,223.597,227.058,220.519,216.008,213.447,-0.0,-0.0,212.287,218.41
2014-11-26 04:00,0.00151707,239.711,226.261,228.564,222.806,219.165,217.25,-0.0,-0.0,213.541,220.075
2014-11-26 05:00,-0.0,237.078,226.583,227.817,223.125,220.081,217.25,-0.0,-0.0,214.293,220.075
2014-11-26 06:00,-0.0,242.013,227.219,228.004,224.072,220.984,218.218,-0.0,0.00202826,214.441,220.535
2014-11-26 07:00,-0.0,232.213,217.285,223.694,212.609,210.219,209.201,-0.0,-0.0,207.304,210.67
2014-11-26 08:00,-0.00564798,225.382,212.578,222.238,210.218,208.397,208.761,-0.0,-0.0,209.206,210.984
2014-11-26 09:00,0.926692,238.442,216.88,222.449,214.89,212.673,210.932,1.22598,1.57874,211.636,214.511
2014-11-26 10:00,0.350212,245.913,217.685,222.449,216.355,215.027,214.062,0.710097,0.800162,214.145,216.131
2014-11-26 11:00,0.357336,253.81,216.058,222.238,215.26,213.694,212.411,0.708727,0.778335,213.078,215.061
2014-11-26 12:00,0.288467,245.913,207.178,218.502,205.946,205.349,207.423,0.838036,0.922502,206.084,205.491
2014-11-26 13:00,0.255428,245.01,203.247,218.041,203.179,202.941,204.658,0.723265,0.797565,204.349,204.721
2014-11-26 14:00,0.222966,246.775,210.224,220.298,208.977,208.766,209.42,0.704032,0.769808,208.838,209.379
2014-11-26 15:00,0.198031,248.394,220.006,224.507,218.478,217.607,218.025,0.699293,0.76324,215.452,218.165
2014-11-26 16:00,0.222671,259.954,220.006,225.107,218.824,217.607,216.663,0.71544,0.778515,216.287,219.134
2014-11-26 17:00,0.289974,258.096,229.072,229.118,228.583,227.517,225.535,0.654721,0.733765,221.708,225.799
2014-11-26 18:00,0.353865,260.395,234.745,231.799,234.107,232.474,228.949,0.626137,0.724702,223.538,230.694
2014-11-26 19:00,0.445596,261.666,239.074,233.849,239.426,238.282,232.867,0.706636,0.827807,227.055,235.146
2014-11-26 20:00,0.609934,261.251,227.845,228.378,227.414,226.974,224.657,0.864509,1.01723,221.484,224.811
2014-11-26 21:00,1.03887,269.865,231.713,230.921,231.957,230.688,226.574,1.0698,1.31526,224.054,228.603
2014-11-26 22:00,-0.0465664,283.261,278.35,256.892,279.022,275.396,254.264,-0.0788554,-0.0470116,228.662,246.145
2014-11-26 23:00,-0.00469726,264.009,259.871,245.995,261.971,259.139,244.932,-0.0,-0.0,227.691,244.175
2014-11-27 00:00,-0.0,262.869,258.703,245.314,259.236,257.115,244.09,-0.0,-0.0,225.449,242.602
2014-11-27 01:00,0.00192012,249.156,239.074,234.35,236.948,233.722,227.089,-0.0,-0.0,218.264,228.06
2014-11-27 02:00,-0.00162293,237.078,222.198,225.504,220.184,218.235,215.873,-0.0,-0.0,214.588,218.165
2014-11-27 03:00,0.00150853,246.775,232.56,230.565,230.294,227.517,221.965,-0.0,-0.0,218.264,225.011
2014-11-27 04:00,-0.0,230.231,222.552,225.701,220.184,218.547,217.639,-0.0,-0.0,214.734,218.165
2014-11-27 05:00,-0.00166329,232.213,224.279,226.481,221.838,220.081,218.41,-0.0,-0.0,216.012,220.535
2014-11-27 06:00,-0.00201197,255.521,245.248,236.784,243.895,241.251,233.185,-0.0,-0.0,223.224,234.236
2014-11-27 07:00,-0.0,240.898,235.275,232.319,234.633,232.474,227.089,-0.0,-0.0,223.434,231.031
2014-11-27 08:00,-0.0,265.446,259.373,245.314,260.158,256.555,241.808,-0.0,-0.0,224.258,239.255
2014-11-27 09:00,1.2835,268.073,262.141,246.801,262.863,259.321,244.09,1.28433,1.59026,224.959,241.348
2014-11-27 10:00,0.401441,286.717,279.58,257.233,280.347,276.169,253.753,0.265669,0.535713,226.685,245.23
2014-11-27 11:00,0.289075,287.01,276.718,254.69,276.163,271.444,250.765,0.186681,0.388293,225.643,242.971
2014-11-27 12:00,0.281743,282.408,264.329,246.934,263.04,258.774,241.374,0.207818,0.364707,224.661,238.303
2014-11-27 13:00,0.379809,288.43,261.662,246.265,262.507,259.321,244.652,0.325131,0.422912,227.329,242.971
2014-11-27 14:00,0.314174,266.131,239.074,233.513,237.451,235.193,228.782,0.392235,0.467681,221.93,229.664
2014-11-27 15:00,0.276045,261.666,230.265,229.118,227.414,225.038,221.23,0.369821,0.450363,217.881,223.377
2014-11-27 16:00,0.306911,266.466,225.611,227.438,221.838,219.472,217.25,0.379873,0.468315,215.873,219.608
2014-11-27 17:00,0.361204,268.686,216.058,223.076,213.763,213.016,213.241,0.462994,0.558381,211.8,213.382
2014-11-27 18:00,0.435538,276.594,220.379,225.306,217.78,215.683,214.062,0.489657,0.605681,214.441,216.131
2014-11-27 19:00,0.29147,292.889,274.655,253.86,272.899,266.667,245.489,0.234448,0.351269,228.575,245.46
2014-11-27 20:00,0.353116,295.368,286.55,261.519,287.407,283.484,259.614,0.278597,0.415906,231.63,251.051
2014-11-27 21:00,0.827996,296.427,279.213,257.12,279.17,274.773,253.625,0.696358,0.897623,229.433,247.59
2014-11-27 22:00,-0.0514449,250.598,243.049,235.337,241.58,239.895,231.419,-0.174233,-0.207747,225.835,234.389
2014-11-27 23:00,-0.00474444,269.576,253.779,241.791,250.623,246.035,232.867,-0.0,-0.0,223.224,235.444
2014-11-28 00:00,0.00262353,255.521,240.984,234.845,236.948,235.193,229.946,-0.0,-0.0,218.891,226.948
2014-11-28 01:00,-0.0,259.505,248.985,239.57,248.733,244.973,233.819,-0.0,-0.0,223.538,235.146
2014-11-28 02:00,-0.00162782,255.521,245.248,237.884,244.575,240.576,230.768,-0.0,-0.0,220.686,232.829
2014-11-28 03:00,-0.0,274.314,269.201,251.429,270.981,267.339,250.501,-0.0,-0.0,229.433,247.151
2014-11-28 04:00,-0.0,274.314,271.574,252.777,274.0,271.444,253.368,-0.0,-0.0,229.093,247.917
2014-11-28 05:00,-0.0,272.836,267.909,250.555,270.332,266.498,248.768,-0.0,-0.0,227.87,246.258
2014-11-28 06:00,0.00201462,233.989,230.85,229.118,228.583,228.056,226.056,-0.0,-0.0,218.264,223.586
2014-11-28 07:00,-0.0,204.719,201.41,216.392,199.715,199.543,201.763,-0.0,0.0028682,199.021,199.57
2014-11-28 08:00,-0.0,213.142,206.643,219.409,204.584,202.113,204.422,-0.0,-0.0,203.429,204.721
2014-11-28 09:00,0.766913,230.231,198.787,216.151,197.056,196.363,200.514,1.19879,1.54849,199.021,199.57
2014-11-28 10:00,0.448312,251.944,203.838,218.272,203.179,200.845,203.947,0.872654,1.00318,203.429,203.524
2014-11-28 11:00,0.370309,251.282,203.247,217.342,202.217,200.845,206.056,0.799424,0.898724,203.192,203.113
2014-11-28 12:00,0.323464,252.585,213.479,221.6,212.997,210.931,211.146,0.755723,0.838219,211.303,212.207
2014-11-28 13:00,0.244476,254.396,222.904,226.481,221.511,219.777,218.982,0.721533,0.795442,216.287,219.608
2014-11-28 14:00,0.255084,248.394,209.237,220.517,208.131,207.274,209.201,0.662546,0.73649,208.652,208.027
2014-11-28 15:00,0.243408,251.282,214.358,222.449,213.381,212.673,212.827,0.639972,0.713688,213.078,214.511
2014-11-28 16:00,0.23652,253.81,218.082,224.708,216.355,214.03,213.653,0.627551,0.708068,213.078,215.061
2014-11-28 17:00,0.328303,262.074,218.474,224.305,217.072,216.008,214.872,0.564436,0.648968,212.765,215.332
2014-11-28 18:00,0.452163,272.58,229.97,229.847,227.414,225.318,220.489,0.509648,0.620762,218.642,225.21
2014-11-28 19:00,0.536066,298.533,266.293,249.924,265.997,262.185,247.823,0.418498,0.559536,227.691,244.056
2014-11-28 20:00,0.396842,292.534,274.524,254.454,272.104,266.667,247.687,0.277374,0.446346,225.449,241.602
2014-11-28 21:00,1.26492,283.428,220.75,225.504,216.355,214.364,214.062,1.03375,1.31032,213.388,215.332
2014-11-28 22:00,-0.0,227.984,218.082,223.899,215.993,214.03,214.265,-0.0972968,-0.116012,213.845,216.392
2014-11-28 23:00,-0.0,235.601,223.597,226.287,220.519,217.607,215.074,-0.0,-0.0,214.588,219.134
2014-11-29 00:00,-0.00263804,238.442,220.006,225.306,216.355,214.03,214.062,-0.0,-0.0,211.303,214.511
2014-11-29 01:00,-0.00193505,253.81,234.745,231.625,230.853,227.246,221.046,-0.0,-0.0,214.734,221.658
2014-11-29 02:00,-0.0,237.078,227.219,228.004,225.31,223.905,220.115,-0.0,-0.0,216.83,222.096
2014-11-29 03:00,-0.0,242.013,230.265,229.665,227.708,224.756,221.598,-0.0,-0.0,217.622,223.793
2014-11-29 04:00,-0.0,251.282,243.049,236.306,241.815,238.282,231.257,-0.0,-0.0,221.708,232.508
2014-11-29 05:00,-0.0,233.989,224.616,226.674,222.485,220.984,218.792,-0.0,-0.0,216.012,220.535
2014-11-29 06:00,-0.0,249.89,237.339,233.005,234.895,232.725,226.746,-0.0,-0.0,220.686,228.782
2014-11-29 07:00,-0.0,237.078,226.902,228.749,225.003,222.753,220.489,-0.0,-0.0,216.963,221.658
2014-11-29 08:00,-0.0,242.013,238.338,232.834,237.451,236.635,230.931,-0.0,-0.0,224.661,232.829
2014-11-29 09:00,1.25767,249.89,238.83,233.849,237.702,235.435,230.604,1.52124,2.05569,222.15,231.859
2014-11-29 10:00,0.361183,259.045,251.721,240.469,251.856,250.357,241.519,0.603786,0.710573,226.216,239.656
2014-11-29 11:00,0.508246,272.836,251.721,240.32,252.868,250.957,241.374,0.607036,0.699011,226.592,239.656
2014-11-29 12:00,0.252749,282.923,268.487,250.303,268.358,264.795,248.364,0.221331,0.353036,228.575,244.764
2014-11-29 13:00,0.247395,296.635,288.843,262.681,289.032,284.492,259.249,0.0923085,0.296326,229.935,248.241
2014-11-29 14:00,0.247745,296.114,284.414,260.228,285.061,281.146,258.147,0.142975,0.268779,230.916,248.562
2014-11-29 15:00,0.245716,295.151,284.642,260.228,285.34,282.028,258.76,0.178467,0.282159,231.63,249.303
2014-11-29 16:00,0.244609,291.44,283.032,259.464,284.361,281.293,258.76,0.249721,0.320204,232.633,249.825
2014-11-29 17:00,0.10892,274.073,264.482,248.382,264.095,261.654,245.211,0.246987,0.27048,227.959,243.698
2014-11-29 18:00,0.418412,266.131,206.643,218.502,205.043,204.955,206.743,0.770626,0.869501,204.573,205.491
2014-11-29 19:00,0.62718,273.586,208.223,220.298,207.269,206.513,206.97,0.954631,1.09067,208.652,208.711
2014-11-29 20:00,0.827327,279.081,210.707,220.736,208.556,207.274,208.982,0.882356,1.0494,209.388,210.032
2014-11-29 21:00,1.05058,277.026,216.058,223.489,214.141,212.673,213.241,0.954045,1.17602,213.541,215.061
2014-11-29 22:00,-0.065042,213.142,211.654,221.814,210.218,208.026,210.504,-0.110142,-0.196991,209.748,210.032
2014-11-29 23:00,-0.0,218.393,211.654,221.814,210.218,208.397,209.856,-0.0,-0.0,209.569,210.032
2014-11-30 00:00,-0.0,225.382,216.88,223.489,215.26,213.694,213.241,-0.0,-0.0,213.234,215.061
2014-11-30 01:00,-0.0,237.078,233.666,231.098,232.502,230.946,228.614,-0.0,-0.0,221.596,227.877
2014-11-30 02:00,-0.0,235.601,229.673,228.934,228.001,226.974,224.304,-0.0,-0.0,220.337,225.21
2014-11-30 03:00,-0.0,239.711,237.841,233.681,237.702,236.396,230.931,-0.0,-0.0,224.76,232.347
2014-11-30 04:00,-0.0,237.078,231.14,229.847,230.294,229.121,225.009,-0.0,-0.0,220.916,226.187
2014-11-30 05:00,-0.00167103,264.377,256.992,244.349,257.739,255.235,242.814,-0.0,-0.0,225.449,241.98
2014-11-30 06:00,-0.0,283.76,278.226,256.549,279.17,275.861,253.881,-0.0,-0.0,228.921,248.025
2014-11-30 07:00,-0.0,275.932,270.189,252.045,270.981,267.339,248.364,-0.0,-0.0,230.593,248.025
2014-11-30 08:00,-0.0,262.869,261.822,246.801,264.792,263.586,250.501,-0.0,-0.0,231.63,249.198
2014-11-30 09:00,1.34305,273.831,271.023,252.168,273.215,271.444,253.753,1.34391,1.60241,231.63,249.617
2014-11-30 10:00,0.761062,287.871,274.785,254.69,278.576,277.243,257.406,0.636532,0.702748,232.175,250.849
2014-11-30 11:00,0.644131,295.151,276.208,255.16,280.054,278.76,258.147,0.547467,0.605613,235.108,251.949
2014-11-30 12:00,0.575251,292.053,273.065,253.14,276.163,275.551,256.909,0.570687,0.626231,236.609,252.439
2014-11-30 13:00,0.54681,294.156,263.088,247.597,265.826,265.138,251.944,0.57784,0.628277,237.657,251.252
2014-11-30 14:00,0.430273,297.749,274.129,254.099,276.923,274.773,256.035,0.346565,0.425673,238.357,253.974
2014-11-30 15:00,0.239877,293.702,279.213,257.006,278.576,273.99,252.723,0.174511,0.280965,235.455,251.051
2014-11-30 16:00,0.299487,259.954,209.734,220.298,207.702,206.895,208.54,0.531914,0.621235,206.292,207.326
2014-11-30 17:00,0.352739,263.636,198.095,216.869,197.056,196.363,201.266,0.799614,0.889015,199.307,197.598
2014-11-30 18:00,0.436445,269.283,208.223,220.736,207.269,205.74,207.423,0.764601,0.868189,207.697,207.678
2014-11-30 19:00,0.618389,279.473,222.198,226.481,219.508,216.652,214.872,0.751702,0.876211,216.695,219.843
2014-11-30 20:00,0.828987,291.315,221.841,226.287,215.26,210.576,211.358,0.806964,0.954186,209.023,215.332
2014-11-30 21:00,1.25008,280.427,207.704,220.736,205.946,203.757,207.197,1.07213,1.33275,208.274,208.371
2014-11-30 22:00,-0.0749033,218.393,209.237,220.954,207.269,206.513,206.97,-0.190262,-0.226858,207.697,208.371
2014-11-30 23:00,-0.0,218.393,215.218,222.868,212.219,210.219,210.073,-0.0,-0.0,210.278,212.505
