# timestamp,IR_016,IR_039,IR_087,IR_097,IR_108,IR_120,IR_134,VIS006,VIS008,WV_062,WV_073
2015-07-01 02:00,-0.0,282.923,280.308,257.572,282.517,279.511,255.406,-0.0,-0.0,229.263,250.849
2015-07-01 03:00,-0.0,254.966,241.682,235.337,239.426,237.109,229.449,-0.0,-0.0,222.259,230.011
2015-07-01 04:00,-0.0,259.045,248.583,239.115,247.229,246.035,236.918,-0.0,-0.00125042,224.359,232.508
2015-07-01 05:00,-0.0,235.601,225.937,227.438,224.384,223.043,220.675,-0.0,-0.0,218.517,221.878
2015-07-01 06:00,-0.00147168,249.156,237.086,233.175,236.441,234.216,227.431,-0.0,0.00148575,222.259,229.314
2015-07-01 07:00,-0.0018072,266.797,253.226,242.081,251.447,248.327,234.447,-0.0,-0.0,221.819,234.236
2015-07-01 08:00,-0.0,267.444,255.587,243.226,253.867,250.957,237.977,-0.0,-0.0,222.906,235.74
2015-07-01 09:00,-0.00456623,269.576,266.59,250.051,269.021,267.506,251.291,-0.0,-0.0,229.517,249.303
2015-07-01 10:00,-0.0297775,273.831,268.773,251.305,269.842,267.171,250.236,-0.10085,-0.120249,228.488,246.595
2015-07-01 11:00,0.373286,277.451,265.696,249.158,265.654,261.831,244.09,0.356287,0.465929,226.499,242.602
2015-07-01 12:00,0.349984,277.661,261.822,247.2,260.706,256.18,239.765,0.304487,0.424644,223.849,239.255
2015-07-01 13:00,0.31952,271.261,250.566,241.207,249.368,245.824,234.916,0.281889,0.390248,223.224,234.996
2015-07-01 14:00,0.270876,295.476,290.756,264.543,292.209,288.584,262.017,0.111576,0.275313,232.405,254.999
2015-07-01 15:00,0.257819,296.635,290.651,264.441,291.948,287.888,261.54,0.101401,0.248529,232.328,254.536
2015-07-01 16:00,0.236735,296.531,288.412,263.099,289.968,285.919,260.701,0.118317,0.229039,231.156,254.068
2015-07-01 17:00,0.322678,268.382,239.559,234.845,236.441,233.225,226.746,0.347859,0.432571,220.57,227.323
2015-07-01 18:00,0.407862,286.121,262.458,247.728,261.431,258.04,243.667,0.352383,0.426466,224.959,241.475
2015-07-01 19:00,0.629135,266.466,235.8,233.344,233.842,231.714,225.883,0.673623,0.803194,221.031,228.782
2015-07-01 20:00,0.562261,258.576,225.937,228.378,225.003,223.905,221.782,0.591866,0.715938,218.517,221.878
2015-07-02 01:00,-0.0,280.799,280.909,258.246,283.514,282.028,259.614,-0.0,-0.0,230.916,252.537
2015-07-02 02:00,-0.0,278.279,276.591,255.51,278.427,276.477,255.532,-0.0,-0.00135431,230.018,250.95
2015-07-02 03:00,-0.0,265.095,262.458,247.2,263.569,262.537,247.415,-0.0,-0.0,228.4,246.032
2015-07-02 04:00,0.00123844,266.466,263.867,248.121,265.138,263.586,248.229,-0.0,-0.0,228.4,247.04
2015-07-02 05:00,-0.0,263.636,254.328,242.799,254.263,251.552,239.322,-0.0,-0.0,226.027,239.255
2015-07-02 06:00,-0.0,275.932,270.329,251.676,271.303,268.339,249.171,-0.0,-0.0,226.963,245.23
2015-07-02 07:00,-0.0,278.482,272.796,253.261,273.057,270.311,250.369,-0.0,-0.0,227.87,246.032
2015-07-02 08:00,-0.0,244.063,234.477,231.799,233.041,231.968,227.26,-0.0,-0.0,221.371,226.948
2015-07-02 09:00,-0.0,272.836,264.482,248.121,264.27,261.121,244.09,-0.0,-0.0,225.449,241.728
2015-07-02 10:00,-0.0885411,272.061,263.245,247.465,262.507,259.502,243.241,-0.124946,-0.178775,225.449,241.221
2015-07-02 11:00,0.407724,276.594,261.179,247.067,259.236,254.664,239.322,0.397002,0.514527,222.259,237.043
2015-07-02 12:00,0.375708,267.761,240.984,235.337,238.446,233.969,225.709,0.396959,0.502491,219.503,227.877
2015-07-02 13:00,0.247941,282.581,269.343,251.552,265.997,262.008,244.792,0.183453,0.290902,223.118,239.39
2015-07-02 14:00,0.256082,292.771,281.86,259.464,280.785,273.99,249.838,0.130094,0.271456,227.147,246.258
2015-07-02 15:00,0.254278,284.73,262.3,247.859,257.55,249.348,233.185,0.175896,0.285232,220.219,234.082
2015-07-02 16:00,0.257822,285.97,261.179,248.252,256.213,246.876,230.276,0.164071,0.278523,220.101,233.773
2015-07-02 17:00,0.228898,288.841,270.885,253.14,268.855,261.477,240.207,0.137156,0.252418,223.329,240.446
2015-07-02 18:00,0.257546,286.717,270.885,252.534,269.842,265.138,244.932,0.188168,0.297751,224.959,240.835
2015-07-02 19:00,0.233521,289.381,277.098,256.32,276.315,271.283,248.768,0.183429,0.272679,225.546,244.294
2015-07-03 01:00,-0.0,268.686,253.595,242.513,251.856,247.501,233.344,-0.0,-0.0,220.454,234.236
2015-07-03 02:00,0.00134191,277.026,268.773,251.305,268.524,265.48,246.182,-0.0,-0.0,224.959,242.478
2015-07-03 03:00,-0.0,279.667,273.466,254.217,274.0,270.635,249.572,-0.0,-0.0,226.027,245.804
2015-07-03 04:00,-0.00123828,275.48,268.63,251.305,268.855,266.835,247.551,-0.0,-0.0,225.546,243.577
2015-07-03 05:00,-0.0,280.613,278.598,257.12,280.639,279.211,257.406,-0.0,-0.0,229.685,250.95
2015-07-03 06:00,-0.0,283.261,283.495,260.011,286.31,285.777,261.421,-0.0,-0.0,230.996,254.256
2015-07-03 07:00,-0.0,281.346,279.458,257.572,281.51,279.959,256.785,-0.0,-0.0,230.018,252.244
2015-07-03 08:00,-0.0,283.261,284.528,260.337,287.407,286.907,262.728,-0.0,-0.0,231.156,255.457
2015-07-03 09:00,-0.0,283.093,283.148,259.793,285.757,285.065,261.062,-0.0,-0.0,229.935,253.785
2015-07-03 10:00,-0.117164,283.093,283.264,259.902,286.31,285.493,261.182,-0.124003,-0.177425,230.348,253.5
2015-07-03 11:00,0.340069,286.569,286.55,261.519,289.434,288.584,262.965,0.241866,0.398251,231.236,253.69
2015-07-03 12:00,0.391727,290.301,287.212,262.049,289.434,287.048,261.062,0.193024,0.421404,230.184,252.439
2015-07-03 13:00,0.317038,292.889,288.628,263.099,290.764,288.306,261.301,0.14556,0.335847,230.018,251.949
2015-07-03 14:00,0.274176,296.635,293.235,266.059,295.93,293.35,263.905,0.111429,0.278642,231.394,253.213
2015-07-03 15:00,0.237432,298.045,294.044,266.756,296.809,293.483,264.488,0.0927848,0.234673,230.835,253.117
2015-07-03 16:00,0.214866,297.947,294.245,266.756,296.809,293.75,264.138,0.0805475,0.210296,231.473,254.536
2015-07-03 17:00,0.23558,291.563,281.505,258.134,282.946,278.911,253.753,0.132481,0.253806,229.685,249.513
2015-07-03 18:00,0.207282,296.531,293.235,266.159,295.677,292.41,263.2,0.0982831,0.215542,232.02,253.785
2015-07-03 19:00,0.207606,295.151,291.798,265.153,293.892,290.784,263.2,0.1449,0.237914,231.156,253.785
2015-07-04 01:00,-0.00309731,275.251,271.848,253.14,273.686,270.635,253.111,-0.0,-0.00156346,230.101,249.408
2015-07-04 02:00,-0.0,247.601,240.75,235.337,239.911,238.282,230.931,-0.0,-0.0,223.118,231.53
2015-07-04 03:00,0.00124964,276.811,273.333,253.741,274.623,272.405,253.24,-0.0,-0.0,228.575,247.261
2015-07-04 04:00,-0.0012381,278.279,277.601,256.549,279.76,278.156,257.53,-0.0,-0.0,230.674,251.452
2015-07-04 05:00,-0.0,251.944,236.318,233.681,233.842,230.688,224.834,-0.0,-0.0,220.801,227.136
2015-07-04 06:00,-0.0,262.869,254.328,243.226,252.465,250.757,240.06,-0.0,-0.0,225.156,236.325
2015-07-04 07:00,-0.00180343,243.066,237.591,233.344,236.948,234.95,229.283,-0.0,-0.0,223.118,230.354
2015-07-04 08:00,-0.00251606,239.711,231.14,230.565,229.158,227.246,224.834,-0.0,-0.0,220.337,225.604
2015-07-04 09:00,-0.00454467,258.096,252.479,241.791,251.447,249.55,239.618,-0.0,-0.0,224.156,237.043
2015-07-04 10:00,-0.087324,260.827,262.931,247.859,265.654,265.48,251.028,-0.17252,-0.176318,229.093,246.818
2015-07-04 11:00,0.877836,277.24,261.179,246.801,263.393,262.537,248.768,0.870021,0.968668,228.488,245.804
2015-07-04 12:00,0.760759,288.705,262.616,248.121,265.31,264.106,249.171,0.739258,0.790716,228.835,246.707
2015-07-04 13:00,0.647077,293.24,273.466,254.454,276.468,274.617,256.16,0.627227,0.637495,231.709,250.135
2015-07-04 14:00,0.600852,290.558,271.848,253.261,274.312,272.724,254.264,0.708216,0.713534,229.433,248.348
2015-07-04 15:00,0.57885,293.93,273.065,254.336,276.315,274.617,255.28,0.702166,0.691549,231.709,249.825
2015-07-04 16:00,0.57659,290.813,271.437,253.501,274.156,272.565,255.153,0.683755,0.701169,229.263,248.241
2015-07-04 17:00,0.519537,290.171,275.823,255.974,279.17,278.156,257.653,0.572156,0.584751,231.076,250.135
2015-07-04 18:00,0.603991,267.444,227.219,229.484,225.919,223.619,220.115,0.756589,0.835294,217.229,221.658
2015-07-04 19:00,0.565031,290.939,277.098,256.892,279.907,277.853,256.16,0.554199,0.595848,232.481,250.646
2015-07-05 01:00,-0.00309921,279.081,280.789,258.469,283.656,282.467,259.735,-0.0,-0.0,228.748,250.238
2015-07-05 02:00,-0.00134268,258.096,250.371,240.469,248.307,247.293,237.827,-0.0,-0.0,224.76,234.996
2015-07-05 03:00,0.00124969,262.869,256.118,243.368,255.633,253.703,240.646,-0.0,-0.0,226.216,238.578
2015-07-05 04:00,-0.0,270.434,266.442,249.669,267.185,265.65,248.903,-0.0,-0.0,226.685,242.725
2015-07-05 05:00,-0.0,275.02,274.392,254.454,276.772,274.617,254.519,-0.0,-0.0,228.224,247.04
2015-07-05 06:00,-0.00146881,276.376,276.463,255.51,278.725,277.701,256.785,-0.0,-0.0,227.959,247.261
2015-07-05 07:00,-0.0,270.713,267.909,250.555,269.679,267.506,250.236,-0.0,-0.0,227.78,244.998
2015-07-05 08:00,0.00251387,277.026,276.591,255.626,279.76,278.458,257.282,-0.0,-0.0,229.178,248.133
2015-07-05 09:00,-0.0,268.986,263.245,247.597,262.863,260.584,245.35,-0.0,0.00458227,227.329,239.922
2015-07-05 10:00,-0.0579286,275.48,275.046,254.572,277.377,276.323,256.16,-0.0980961,-0.116965,228.312,246.371
2015-07-05 11:00,0.537675,273.831,268.054,250.429,269.186,267.84,250.633,0.668466,0.707721,227.959,243.577
2015-07-05 12:00,0.30159,264.739,257.166,243.65,257.928,256.555,244.372,0.488978,0.531208,229.263,242.971
2015-07-05 13:00,0.423626,278.482,266.59,249.669,267.69,265.82,248.094,0.45685,0.497454,227.959,243.214
2015-07-05 14:00,0.297398,273.831,264.94,248.642,265.654,264.279,248.499,0.336772,0.37392,229.093,242.848
2015-07-05 15:00,0.240214,291.563,284.414,261.412,286.997,284.061,259.492,0.130449,0.237492,230.101,248.562
2015-07-05 16:00,0.186472,291.19,286.55,262.576,288.628,285.208,259.735,0.0844826,0.196511,230.266,247.699
2015-07-05 17:00,0.164702,291.563,287.432,263.099,289.166,285.777,259.856,0.0786279,0.182197,231.315,248.669
2015-07-05 18:00,0.425164,281.346,260.365,246.265,261.25,259.139,247.687,0.414158,0.514657,230.916,245.23
2015-07-05 19:00,0.342624,303.51,288.303,258.022,290.897,288.999,262.373,0.31539,0.308649,233.823,256.181
2015-07-06 01:00,-0.0,281.346,279.458,258.134,281.51,279.511,256.66,-0.0,-0.0,228.921,247.699
2015-07-06 02:00,-0.00134303,274.073,270.329,253.14,272.104,267.339,249.705,-0.0,-0.0,229.093,245.345
2015-07-06 03:00,-0.0,270.989,264.021,248.642,264.444,261.654,246.044,-0.0,-0.0,226.685,241.475
2015-07-06 04:00,-0.0,233.989,227.533,228.004,226.221,225.038,223.053,-0.0,-0.0,220.337,224.204
2015-07-06 05:00,-0.00130318,230.231,219.628,225.701,218.478,217.607,216.269,-0.0,-0.0,214.293,216.392
2015-07-06 06:00,-0.0,213.142,213.479,221.814,212.997,213.016,213.447,-0.0,-0.0,212.287,213.092
2015-07-06 07:00,-0.00180112,225.382,221.117,225.306,220.184,219.165,219.362,-0.0,-0.0,215.734,217.918
2015-07-06 08:00,-0.0,230.231,231.427,229.484,230.853,230.17,226.402,-0.0,-0.0,223.013,229.137
2015-07-06 09:00,-0.00453382,222.276,219.247,224.507,218.824,216.972,217.639,-0.0,-0.0,216.695,218.895
2015-07-06 10:00,-0.0,227.984,218.474,224.305,217.427,216.331,216.269,-0.0977406,-0.0874057,215.452,217.669
2015-07-06 11:00,0.476321,243.066,220.75,224.908,220.519,220.081,218.792,0.760509,0.879313,217.881,219.372
2015-07-06 12:00,0.71178,290.939,240.514,235.337,241.58,240.123,234.291,0.621666,0.721821,228.048,235.592
2015-07-06 13:00,0.643775,279.473,254.328,242.656,256.021,254.664,243.808,0.795934,0.868071,227.601,242.354
2015-07-06 14:00,0.324412,293.124,272.931,254.099,273.215,268.505,250.369,0.248445,0.344073,230.101,246.032
2015-07-06 15:00,0.431828,295.902,254.145,242.942,252.868,248.327,239.618,0.308192,0.40756,229.348,239.922
2015-07-06 16:00,0.341345,256.589,231.713,230.565,231.131,230.17,227.089,0.553142,0.621615,222.368,227.877
2015-07-06 17:00,0.292074,268.686,249.978,240.617,248.733,246.457,237.977,0.429441,0.50498,225.643,236.469
2015-07-06 18:00,0.370648,259.505,228.769,228.934,227.414,226.151,223.413,0.584067,0.665229,220.454,224.408
2015-07-06 19:00,0.492023,263.636,235.275,232.663,233.31,231.714,229.116,0.630776,0.715622,221.145,225.604
2015-07-06 20:00,0.848713,273.586,218.474,224.708,218.824,217.607,216.663,1.02777,1.19059,216.15,218.41
2015-07-06 21:00,1.31482,248.394,227.845,228.564,227.414,226.151,224.126,1.01205,1.5285,220.916,225.604
2015-07-06 22:00,-0.0,242.013,240.039,234.515,239.669,238.747,233.344,-0.0,-0.0,225.931,234.236
2015-07-06 23:00,-0.0905096,233.989,228.463,229.301,227.414,225.874,224.834,-0.0296649,-0.0589515,221.031,224.811
2015-07-07 00:00,-0.092612,240.898,240.514,235.01,241.107,240.35,234.291,-0.0250259,-0.0497326,226.592,235.444
2015-07-07 01:00,-0.0,233.989,229.373,228.749,228.293,227.517,225.535,-0.00131357,-0.0,221.819,225.604
2015-07-07 02:00,-0.0,222.276,216.058,223.076,215.993,215.356,215.274,-0.0,-0.00135619,215.024,215.332
2015-07-07 03:00,-0.00124971,230.231,227.533,228.934,226.522,225.874,224.304,-0.0,-0.0,220.686,223.586
2015-07-07 04:00,-0.00123747,232.213,228.769,229.118,228.871,227.787,225.185,-0.0,-0.0,223.434,227.136
2015-07-07 05:00,-0.0,232.213,227.845,228.192,227.414,226.426,224.657,-0.0,-0.0,221.708,224.811
2015-07-07 06:00,0.00146741,230.231,225.937,227.438,225.615,224.756,222.511,-0.0,-0.0,220.801,223.586
2015-07-07 07:00,-0.0,227.984,224.616,227.058,223.758,222.753,222.147,-0.0,-0.0,219.503,221.878
2015-07-07 08:00,-0.00250995,235.601,233.116,230.743,232.772,231.714,228.614,-0.0,-0.0,225.739,230.354
2015-07-07 09:00,-0.0,225.382,223.94,226.092,223.443,223.043,221.782,-0.0,-0.0,220.454,222.743
2015-07-07 10:00,-0.028793,235.601,231.713,229.665,231.957,231.203,227.431,-0.0975159,-0.116273,225.156,230.524
2015-07-07 11:00,0.380835,248.394,235.011,232.319,234.633,233.225,228.446,0.610357,0.707161,224.86,230.694
2015-07-07 12:00,0.326747,254.396,235.538,232.146,234.371,233.225,228.278,0.591285,0.669444,224.56,230.863
2015-07-07 13:00,0.338239,248.394,229.97,229.484,230.012,229.385,225.883,0.57654,0.655986,223.538,227.136
2015-07-07 14:00,0.455081,261.666,233.392,231.799,233.577,232.976,228.278,0.573351,0.657906,225.352,230.524
2015-07-07 15:00,0.315571,257.103,229.373,229.118,228.871,228.056,225.185,0.472834,0.547103,222.799,226.379
2015-07-07 16:00,0.319595,258.576,230.85,229.665,230.012,228.324,225.709,0.614373,0.693039,222.799,227.323
2015-07-07 17:00,0.343879,254.966,227.533,228.749,227.118,226.974,225.009,0.691694,0.771872,222.799,225.604
2015-07-07 18:00,0.419062,259.045,238.585,234.35,238.446,237.581,232.867,0.735727,0.844062,227.329,234.694
2015-07-07 19:00,0.490418,257.103,236.06,232.663,236.441,235.677,231.743,0.75071,0.869933,227.329,233.146
2015-07-07 20:00,0.6428,255.521,231.427,230.027,231.408,230.688,227.26,0.797691,0.985802,225.058,229.137
2015-07-07 21:00,0.841478,251.282,241.218,235.499,242.049,240.576,234.447,0.712478,1.04259,228.4,235.74
2015-07-07 22:00,-0.0,254.396,252.479,241.646,252.667,251.354,240.938,-0.0,-0.0,229.935,241.98
2015-07-07 23:00,-0.114116,259.505,258.534,244.626,259.606,258.957,246.869,-0.0322072,-0.0590802,231.473,245.114
2015-07-08 00:00,-0.0710142,244.063,240.514,234.017,240.87,239.667,233.344,-0.023383,-0.0477954,229.007,235.444
2015-07-08 01:00,-0.0,249.89,250.371,239.871,251.242,250.357,242.097,-0.0,-0.0,232.251,241.98
2015-07-08 02:00,-0.0,244.063,240.039,234.017,240.152,238.515,233.185,-0.0,-0.0,227.78,234.389
2015-07-08 03:00,-0.0,253.206,252.666,241.207,254.854,253.703,244.09,-0.0,-0.0,230.835,244.412
2015-07-08 04:00,-0.00123722,255.521,256.294,243.79,259.236,258.408,247.006,-0.0,-0.0,231.076,245.918
2015-07-08 05:00,-0.0,230.231,226.261,227.628,225.919,225.597,224.481,-0.0,-0.00131474,222.476,224.811
2015-07-08 06:00,-0.0,227.984,225.937,227.438,226.221,225.597,223.233,-0.0,-0.0,222.692,224.811
2015-07-08 07:00,-0.00179898,230.231,230.265,228.934,230.294,229.385,227.089,-0.0,-0.0,225.546,228.423
2015-07-08 08:00,-0.0,233.989,231.997,230.027,232.772,231.968,229.283,-0.0,-0.0,228.048,229.838
2015-07-08 09:00,-0.0,240.898,241.682,235.173,241.815,241.251,235.691,-0.0,-0.0,230.674,236.179
2015-07-08 10:00,0.0287653,245.01,244.815,235.985,244.575,243.896,237.676,-0.121778,-0.116161,231.473,238.165
2015-07-08 11:00,0.380471,248.394,236.576,231.973,236.441,235.917,231.094,0.661546,0.747639,228.662,233.146
2015-07-08 12:00,0.329596,248.394,234.745,231.45,235.155,234.461,230.604,0.639419,0.730105,228.748,232.185
2015-07-08 13:00,0.297827,253.206,232.839,230.207,233.31,232.725,229.283,0.600314,0.697833,228.224,231.198
2015-07-08 14:00,0.261776,259.505,242.142,235.499,241.58,240.35,233.976,0.340164,0.429453,230.266,235.444
2015-07-08 15:00,0.247458,277.661,263.245,247.067,263.04,259.864,244.652,0.201141,0.313112,231.787,243.577
2015-07-08 16:00,0.297884,277.661,257.854,243.79,258.116,255.992,241.229,0.283917,0.371395,231.709,242.354
2015-07-08 17:00,0.247371,285.818,273.732,252.534,274.467,271.121,250.501,0.171099,0.288428,233.308,250.135
2015-07-08 18:00,0.176224,285.202,280.429,256.892,282.231,279.511,256.16,0.130124,0.194458,234.401,251.751
2015-07-08 19:00,0.124265,286.271,281.86,258.022,283.23,281.735,258.76,0.149639,0.153331,236.004,253.974
2015-07-08 20:00,0.219557,286.421,284.185,258.913,286.172,283.773,260.219,0.214816,0.300467,238.231,255.639
2015-07-08 21:00,0.735135,279.859,276.591,254.572,278.427,276.477,255.784,0.684682,0.927704,239.532,254.256
2015-07-08 22:00,-0.00628871,278.279,277.727,254.926,280.201,278.458,256.785,-0.0,-0.0,237.528,254.629
2015-07-08 23:00,-0.0997021,282.234,282.566,257.685,284.781,283.629,260.219,-0.0297945,-0.059209,239.471,256.181
2015-07-09 00:00,-0.0849135,279.859,280.066,255.974,281.943,280.406,258.27,-0.02508,-0.0518338,240.489,254.907
2015-07-09 01:00,-0.00155307,278.883,276.845,253.741,278.725,276.784,256.535,-0.0,-0.0,242.042,256.539
2015-07-09 02:00,-0.0,260.827,262.458,245.995,265.31,265.138,250.765,-0.0,-0.0,242.266,254.068
2015-07-09 03:00,-0.0,281.883,282.682,257.798,285.34,284.492,260.822,-0.0,-0.0,243.093,258.028
2015-07-09 04:00,-0.00123696,274.073,273.865,252.899,276.468,274.929,255.406,-0.0,-0.0,243.953,257.07
2015-07-09 05:00,-0.0,262.074,263.245,246.934,266.338,265.99,251.553,-0.0,-0.0,243.093,254.999
2015-07-09 06:00,0.00146605,267.761,266.886,248.771,269.35,268.339,251.944,-0.0,-0.0,244.164,255.366
2015-07-09 07:00,0.00179799,265.095,265.394,248.121,268.524,267.506,252.075,-0.0,-0.0,242.099,254.999
2015-07-09 08:00,-0.0,275.02,274.261,253.261,277.528,276.631,256.285,-0.0,-0.0,239.774,255.548
2015-07-09 09:00,-0.0,281.705,282.799,258.022,285.757,285.065,260.461,-0.0,-0.0,237.398,255.639
2015-07-09 10:00,-0.0575537,268.073,267.18,249.029,269.842,268.835,252.594,-0.170557,-0.174312,242.322,255.275
2015-07-09 11:00,0.698862,285.818,266.145,248.9,269.515,267.84,252.464,0.551511,0.691843,242.984,255.366
2015-07-09 12:00,0.380311,288.568,286.328,260.119,288.493,286.626,261.062,0.178593,0.393626,242.378,257.942
2015-07-09 13:00,0.321843,291.931,288.628,261.625,290.5,288.027,261.182,0.135312,0.313715,241.704,258.2
2015-07-09 14:00,0.272286,293.702,290.44,263.203,292.209,289.413,262.017,0.10605,0.258396,242.042,258.028
2015-07-09 15:00,0.228941,294.823,291.591,263.928,293.119,289.964,262.017,0.0850684,0.216165,242.765,258.967
2015-07-09 16:00,0.204728,295.476,291.798,264.236,293.377,290.238,262.255,0.072914,0.195202,242.433,258.798
2015-07-09 17:00,0.194698,295.042,291.591,264.441,293.248,290.238,262.61,0.0750659,0.187784,242.266,259.051
2015-07-09 18:00,0.188034,294.156,291.383,264.441,293.248,290.101,262.255,0.0761429,0.183641,242.155,258.882
2015-07-09 19:00,0.19814,293.356,290.965,263.721,292.6,289.964,262.61,0.100193,0.202812,241.647,258.713
2015-07-09 20:00,0.213442,291.315,290.017,262.995,291.948,289.689,262.492,0.168399,0.244866,241.874,259.304
2015-07-09 21:00,0.106076,287.444,287.76,261.731,290.234,288.445,262.017,0.419134,0.392663,241.76,259.471
2015-07-09 22:00,-0.00632542,286.271,286.992,261.198,289.434,288.306,262.728,-0.0,-0.0,242.099,259.721
2015-07-09 23:00,-0.0822859,285.818,286.328,260.876,288.763,287.188,262.136,-0.0273709,-0.0563707,241.93,259.471
2015-07-10 00:00,-0.0929101,285.97,286.439,260.876,289.3,288.167,262.136,-0.0267802,-0.0518884,242.099,259.471
2015-07-10 01:00,-0.00155386,285.512,286.55,261.198,289.166,288.027,262.255,-0.0,-0.00156871,241.76,259.721
2015-07-10 02:00,-0.00134413,284.57,285.433,260.445,287.951,286.202,261.54,-0.0,-0.0,241.76,259.638
2015-07-10 03:00,-0.0,284.888,286.105,260.876,288.897,287.748,262.492,-0.0,-0.0,242.099,259.887
2015-07-10 04:00,-0.0,280.982,281.386,258.691,284.781,282.758,259.977,-0.0,-0.0,241.533,259.22
2015-07-10 05:00,0.00130138,285.357,286.105,260.984,288.628,287.469,261.898,-0.0,-0.0,241.304,259.97
2015-07-10 06:00,-0.0,285.357,286.439,260.769,289.166,288.027,262.492,-0.0,-0.0,241.015,260.052
2015-07-10 07:00,-0.00179705,284.73,285.994,260.876,288.628,287.748,262.136,-0.0,-0.0,240.193,259.638
2015-07-10 08:00,-0.0025053,284.73,285.994,260.445,288.763,287.609,262.255,-0.0,-0.0,240.548,259.804
2015-07-10 09:00,-0.0,284.249,285.882,260.553,288.763,288.027,262.847,-0.0,-0.0,240.724,259.97
2015-07-10 10:00,-0.0288282,284.57,285.882,260.337,288.628,287.748,262.255,-0.122044,-0.174623,240.899,259.638
2015-07-10 11:00,0.41318,287.3,287.322,261.091,289.968,288.722,262.847,0.252343,0.464997,239.043,259.387
2015-07-10 12:00,0.389325,291.563,290.017,262.995,292.47,290.784,263.67,0.175628,0.39949,236.808,258.543
2015-07-10 13:00,0.328013,294.713,292.211,264.339,294.533,292.006,263.318,0.133234,0.322198,239.954,259.97
2015-07-10 14:00,0.26642,296.323,293.944,265.254,296.559,294.149,264.372,0.10128,0.261648,240.899,260.545
2015-07-10 15:00,0.22526,297.248,294.546,265.859,297.06,294.282,263.787,0.0793538,0.219114,240.253,259.721
2015-07-10 16:00,0.19785,297.649,294.646,266.059,296.935,294.149,264.605,0.0741477,0.196466,239.894,258.372
2015-07-10 17:00,0.183863,296.943,294.846,266.259,297.683,294.944,265.069,0.0690262,0.18562,241.015,258.628
2015-07-10 18:00,0.183457,296.427,294.945,266.159,297.807,295.339,264.837,0.0724887,0.185211,240.548,257.682
2015-07-10 19:00,0.170019,295.042,293.336,265.153,295.93,293.35,264.138,0.0928741,0.191024,240.957,258.372
2015-07-10 20:00,0.20255,293.356,292.827,264.747,295.424,293.617,264.255,0.159248,0.248304,241.476,260.135
2015-07-10 21:00,0.783096,288.568,287.322,261.625,289.968,288.584,262.373,0.691874,0.893702,241.59,260.135
2015-07-10 22:00,-0.00636269,287.871,287.869,261.625,290.234,288.861,262.965,-0.0,-0.0,241.073,259.804
2015-07-10 23:00,-0.111915,288.43,289.379,262.049,292.079,291.057,264.022,-0.0299237,-0.0624391,241.647,260.871
2015-07-11 00:00,-0.0910271,287.871,288.843,261.944,291.686,290.784,264.022,-0.0251323,-0.0499442,242.71,261.033
2015-07-11 01:00,-0.00155461,287.3,288.195,261.519,291.029,290.101,263.553,-0.00131629,-0.0,242.544,260.952
2015-07-11 02:00,-0.0,286.271,287.651,261.091,290.367,289.551,263.2,-0.0,-0.0,241.476,260.463
2015-07-11 03:00,-0.0,286.271,287.212,260.769,289.968,289.137,263.318,-0.0,-0.0,241.76,260.135
2015-07-11 04:00,-0.0,285.512,286.661,260.337,289.701,288.722,263.083,-0.0,-0.0,240.312,258.372
2015-07-11 05:00,-0.0,285.512,286.772,260.445,289.568,288.445,262.61,-0.0,-0.0,239.41,257.942
2015-07-11 06:00,-0.0,285.97,286.661,260.553,289.701,288.722,262.847,-0.0,-0.0,239.714,258.372
2015-07-11 07:00,0.00179617,282.059,281.624,257.798,284.641,283.049,259.977,-0.0,-0.0,240.014,257.246
2015-07-11 08:00,-0.0025041,279.473,279.945,256.778,282.517,280.702,258.638,-0.0,-0.0,238.231,255.73
2015-07-11 09:00,0.00451984,262.475,264.635,248.252,268.524,268.339,253.625,-0.0,-0.0,238.546,253.974
2015-07-11 10:00,-0.0867612,280.239,278.845,256.205,282.231,280.108,257.777,-0.146921,-0.204378,237.849,254.814
2015-07-11 11:00,0.865186,287.3,269.908,252.045,272.899,270.96,254.392,0.589475,0.798394,237.006,253.309
2015-07-11 12:00,0.751864,297.349,266.442,250.177,269.842,269.329,254.009,0.579956,0.701158,237.333,252.925
2015-07-11 13:00,0.325265,295.368,290.017,263.307,292.209,289.413,261.898,0.161119,0.323906,237.006,255.091
2015-07-11 14:00,0.255112,296.738,293.336,265.254,295.424,292.276,263.083,0.101108,0.250245,236.071,254.814
2015-07-11 15:00,0.219927,297.248,293.843,265.355,296.056,292.814,263.553,0.0792095,0.212088,236.341,256.091
2015-07-11 16:00,0.199071,297.549,292.929,265.052,294.788,291.193,263.2,0.0781101,0.196073,236.408,255.821
2015-07-11 17:00,0.181712,297.146,293.742,265.658,295.803,292.41,263.2,0.0761949,0.186943,236.675,255.911
2015-07-11 18:00,0.243939,293.587,286.105,260.769,287.543,284.492,259.614,0.166956,0.26269,236.004,253.974
2015-07-11 19:00,0.229519,296.219,291.902,264.645,294.277,290.921,262.728,0.124929,0.228955,237.006,256.45
2015-07-11 20:00,0.292439,292.294,284.3,260.228,285.618,282.613,258.023,0.227312,0.271035,234.543,252.342
2015-07-11 21:00,0.360991,288.152,286.882,261.198,289.032,287.048,260.461,0.416796,0.496967,234.041,255.091
2015-07-11 22:00,-0.0,286.271,286.328,260.769,288.763,287.048,261.66,-0.0,-0.0,233.896,254.907
2015-07-11 23:00,-0.12101,287.444,287.869,261.625,290.5,288.999,262.61,-0.0324871,-0.0625734,235.731,256.894
2015-07-12 00:00,-0.0713106,287.01,287.102,260.984,289.434,288.167,261.898,-0.0234805,-0.0479948,235.247,256.716
2015-07-12 01:00,-0.0,286.271,286.772,260.984,289.3,287.888,261.898,-0.0,-0.0,236.742,257.421
2015-07-12 02:00,-0.00134451,285.512,286.217,260.445,288.763,287.609,261.421,-0.0,-0.0,236.742,257.682
2015-07-12 03:00,-0.00124937,283.594,283.841,259.354,286.722,285.35,260.942,-0.0,-0.0,236.139,257.158
2015-07-12 04:00,-0.0,283.594,284.414,259.683,286.997,285.35,261.421,-0.0,-0.0,236.071,257.158
2015-07-12 05:00,-0.0,281.705,281.86,258.022,284.361,283.339,259.614,-0.0,-0.0,235.108,256.982
2015-07-12 06:00,-0.00146412,285.512,285.994,260.553,288.493,287.748,262.136,-0.0,-0.0,234.543,257.333
2015-07-12 07:00,-0.0,285.045,285.882,260.445,288.493,287.609,262.136,-0.0,-0.0,234.756,257.682
2015-07-12 08:00,0.00250309,284.57,285.994,260.119,288.763,287.888,262.728,-0.0,-0.0,234.329,257.682
2015-07-12 10:00,-0.0581098,284.57,286.105,260.228,288.897,288.306,262.965,-0.123004,-0.146663,233.896,257.682
2015-07-12 11:00,0.418037,287.3,287.869,261.198,290.764,289.826,263.553,0.251191,0.462875,234.329,257.942
2015-07-12 12:00,0.40703,292.653,291.174,262.995,293.764,292.006,263.787,0.177701,0.40129,234.615,258.286
2015-07-12 13:00,0.340149,295.583,293.133,264.747,295.803,293.483,264.721,0.134651,0.325561,233.823,257.942
2015-07-12 14:00,0.285353,296.943,293.843,265.254,296.433,293.75,264.605,0.107041,0.262554,233.159,257.333
2015-07-12 15:00,0.232609,298.144,295.244,266.059,297.807,295.076,264.837,0.0846053,0.219949,235.108,258.457
2015-07-12 16:00,0.208344,298.533,295.639,266.259,297.807,294.944,264.837,0.071109,0.195662,235.525,259.051
2015-07-12 17:00,0.198546,297.349,294.044,265.355,296.307,293.617,264.721,0.0862471,0.188243,235.662,258.713
2015-07-12 18:00,0.287848,296.114,288.843,262.155,291.423,289.137,262.61,0.204245,0.313111,236.004,258.2
2015-07-12 19:00,0.247732,296.635,292.725,264.645,294.916,292.141,263.318,0.131384,0.2501,235.455,258.457
2015-07-12 20:00,0.419355,294.933,289.699,262.681,292.079,289.689,262.847,0.318754,0.457041,235.731,258.713
2015-07-12 22:00,-0.0128777,277.661,276.845,255.277,279.613,278.307,257.9,-0.0,-0.0,236.207,257.682
2015-07-12 23:00,-0.0828178,288.152,287.869,261.838,290.101,288.445,262.255,-0.0275478,-0.056735,235.731,257.942
2015-07-13 00:00,-0.0951747,288.012,288.087,262.049,290.5,288.999,262.847,-0.0268614,-0.0520458,235.178,258.286
2015-07-13 01:00,-0.0,284.57,284.071,259.354,286.722,284.922,261.182,-0.0,-0.0,234.329,257.942
2015-07-13 02:00,-0.0,286.717,287.76,262.049,290.234,289.413,263.083,-0.0,-0.0,233.896,258.882
2015-07-13 03:00,-0.00124925,286.271,286.661,261.198,289.166,287.888,262.136,-0.0,-0.0,232.709,258.543
2015-07-13 04:00,-0.0,284.087,281.624,258.246,283.23,281.441,257.406,-0.0,0.00124761,230.593,254.443
2015-07-13 05:00,-0.0,285.97,287.212,261.625,289.701,289.413,263.318,-0.0,-0.0,234.329,259.554
2015-07-13 06:00,-0.00146352,286.121,286.882,261.519,289.434,288.445,263.083,-0.0,-0.0,236.004,259.97
2015-07-13 07:00,-0.0,286.121,287.212,261.625,289.835,288.861,262.492,-0.0,-0.0,236.341,259.721
2015-07-13 08:00,-0.0,286.271,287.541,261.519,290.234,289.137,263.083,-0.0,-0.0,236.742,259.804
2015-07-13 09:00,-0.00451985,286.569,287.651,261.731,290.367,289.276,262.847,-0.0,-0.0,237.072,260.052
2015-07-13 10:00,-0.0584669,286.864,287.978,261.944,290.632,289.689,263.787,-0.148511,-0.147565,237.006,260.381
2015-07-13 11:00,0.457183,289.91,289.486,262.995,292.209,291.057,264.138,0.256166,0.468341,237.006,260.052
2015-07-13 12:00,0.409364,293.472,291.798,264.441,294.277,292.41,264.372,0.177334,0.403666,237.592,260.217
2015-07-13 13:00,0.332883,296.219,293.438,265.456,295.93,293.617,264.255,0.132526,0.320486,237.849,260.299
2015-07-13 14:00,0.281197,297.749,294.145,266.159,296.307,293.617,264.022,0.103783,0.260228,237.849,259.97
2015-07-13 15:00,0.22887,298.045,293.944,265.959,295.677,292.41,263.905,0.0872028,0.219505,237.203,259.22
2015-07-13 16:00,0.196608,297.549,293.336,265.658,295.043,291.735,263.318,0.0818696,0.188726,235.936,259.051
2015-07-13 17:00,0.239394,293.93,284.869,260.337,286.033,282.321,256.66,0.141449,0.241683,233.823,254.999
2015-07-13 18:00,0.276909,290.813,278.968,257.12,279.022,276.323,253.111,0.193386,0.289759,231.552,250.238
2015-07-13 19:00,0.298334,296.943,290.756,264.543,292.86,289.826,262.373,0.174523,0.287496,237.913,258.967
2015-07-13 20:00,0.232094,294.268,292.52,265.153,294.277,291.464,263.905,0.16844,0.27735,237.203,258.882
2015-07-13 21:00,0.0917275,289.91,289.593,263.411,291.948,289.964,263.318,0.388327,0.401285,237.072,258.543
2015-07-13 22:00,-0.00647768,288.705,288.628,263.099,291.029,289.413,262.847,-0.0,-0.0,236.408,258.543
2015-07-13 23:00,-0.0948497,287.871,288.087,262.576,290.5,288.999,262.728,-0.0276062,-0.0568554,236.874,258.286
2015-07-14 00:00,-0.0714499,279.473,270.746,252.656,270.169,265.65,244.932,-0.021846,-0.0480886,228.835,246.371
2015-07-14 01:00,-0.00155665,274.787,262.141,247.859,259.974,254.664,237.676,-0.0,-0.0,224.054,239.922
2015-07-14 02:00,-0.0,278.075,269.201,251.429,268.191,264.451,244.932,-0.0,-0.0,225.739,242.971
2015-07-14 03:00,-0.0012491,268.686,251.147,241.5,248.946,244.112,231.257,-0.0,-0.0,220.454,233.304
2015-07-14 04:00,-0.0,275.251,262.931,248.121,261.971,257.115,239.47,-0.0,-0.0,223.434,240.706
2015-07-14 05:00,-0.0,287.3,287.869,262.681,290.897,289.689,262.965,-0.0,-0.0,232.86,256.539
2015-07-14 06:00,-0.0,287.3,288.195,262.89,291.292,290.101,263.67,-0.0,-0.0,233.308,256.805
2015-07-14 07:00,-0.0,283.924,280.669,258.134,281.799,278.911,255.532,-0.0,-0.0,230.511,251.85
2015-07-14 08:00,-0.0,286.864,287.978,262.576,291.029,290.375,263.787,-0.0,-0.00252556,232.557,256.45
2015-07-14 09:00,-0.0,286.121,287.212,261.625,290.234,289.551,263.318,-0.0,-0.0,233.823,256.894
2015-07-14 10:00,-0.0589164,285.045,285.321,260.769,287.27,286.626,261.182,-0.0997689,-0.0892194,231.394,253.88
2015-07-14 11:00,0.361882,281.705,273.865,253.621,274.467,271.283,250.501,0.306405,0.453294,228.488,246.929
2015-07-14 12:00,0.459099,293.24,290.123,263.721,292.079,289.413,262.728,0.19838,0.444309,232.328,255.275
2015-07-14 13:00,0.369597,296.114,291.07,264.031,292.989,289.413,261.421,0.152743,0.350921,233.085,255.275
2015-07-14 14:00,0.278824,293.24,283.956,260.445,284.501,280.702,255.153,0.130986,0.27241,229.263,250.34
2015-07-14 15:00,0.261012,298.242,292.827,265.758,294.405,290.921,262.492,0.0953056,0.232216,232.405,254.722
2015-07-14 16:00,0.350519,264.377,227.845,229.665,225.615,223.905,221.415,0.379829,0.486977,218.009,221.878
2015-07-14 17:00,0.18897,288.977,274.655,254.454,274.312,269.165,246.869,0.142546,0.221994,227.147,245.23
2015-07-14 18:00,0.20757,291.809,283.956,260.337,282.803,279.361,255.532,0.126267,0.20752,228.224,247.59
2015-07-14 19:00,0.629518,264.739,219.247,225.897,219.847,218.547,217.639,0.720595,0.883749,217.096,218.41
2015-07-14 20:00,0.282465,290.171,281.029,258.58,281.655,277.701,253.368,0.235177,0.318434,228.4,248.775
2015-07-14 21:00,0.236433,278.279,266.145,249.669,265.654,261.477,243.241,0.325305,0.387877,225.156,241.602
2015-07-14 22:00,-0.00651696,247.601,229.072,229.301,225.615,222.753,220.86,-0.0,-0.0,216.287,220.306
2015-07-14 23:00,-0.0801977,253.206,233.392,231.45,229.729,226.974,221.965,-0.0251494,-0.0569749,216.963,222.529
2015-07-15 00:00,-0.101316,282.753,281.505,258.913,283.088,278.76,256.41,-0.0285947,-0.0541506,230.018,249.198
2015-07-15 01:00,-0.00155726,252.585,243.719,236.146,244.8,243.461,236.153,-0.0,-0.0,226.963,236.033
2015-07-15 02:00,-0.0,275.932,269.201,251.18,269.35,265.99,247.823,-0.0,-0.0,226.122,243.818
2015-07-15 03:00,-0.0,261.251,249.583,240.021,247.878,244.544,233.819,-0.0,-0.0,223.329,234.542
2015-07-15 04:00,0.00123514,264.009,252.853,242.369,251.242,247.501,236.46,-0.0,-0.0,224.156,235.74
2015-07-15 05:00,0.0012991,260.827,247.973,239.267,246.135,243.024,232.867,0.00109995,-0.0,222.368,232.829
2015-07-15 06:00,-0.00146238,282.408,280.909,258.469,0.0,0.0,0.0,0.0,0.0,0.0,0.0
2015-07-15 07:00,-0.0,268.073,259.871,245.859,259.236,256.555,242.814,-0.0,-0.0,225.058,239.121
2015-07-15 08:00,-0.00250123,264.377,253.595,241.646,252.262,249.348,236.307,-0.0,-0.0,222.15,234.389
2015-07-15 09:00,-0.00452327,278.075,278.35,256.892,281.799,280.406,259.249,-0.0,-0.0,229.263,251.652
2015-07-15 10:00,-0.0,278.482,279.58,257.685,282.087,280.998,259.614,-0.100696,-0.0900482,230.916,252.537
2015-07-15 11:00,0.681083,289.247,282.799,259.793,285.34,283.917,260.461,0.440984,0.640406,231.236,253.213
2015-07-15 12:00,0.461132,293.356,288.087,262.576,290.367,287.609,261.898,0.224636,0.433654,231.709,253.117
2015-07-15 13:00,0.399517,295.796,287.978,262.576,290.367,287.469,261.66,0.211884,0.383391,230.674,252.439
2015-07-15 14:00,0.326689,293.124,278.721,256.892,280.931,276.015,252.594,0.188457,0.318939,229.433,247.59
2015-07-15 15:00,0.20672,297.449,292.211,265.254,294.021,290.511,262.255,0.0923383,0.205409,232.175,253.405
2015-07-15 16:00,0.232594,298.918,292.108,265.254,293.892,289.689,262.373,0.0991476,0.217004,230.996,252.047
2015-07-15 17:00,0.3444,298.533,273.997,254.808,275.087,269.984,251.028,0.22922,0.313096,231.473,248.348
2015-07-15 18:00,0.319452,285.045,268.916,251.429,269.842,265.309,247.142,0.333421,0.415809,227.329,243.457
2015-07-15 19:00,0.643228,290.939,256.992,244.488,255.049,250.757,237.525,0.549178,0.649377,226.499,240.185
2015-07-15 20:00,0.467885,278.279,265.092,249.414,264.27,262.008,247.279,0.455581,0.524317,228.488,241.475
2015-07-15 21:00,1.00073,262.869,245.032,237.415,245.248,242.364,233.661,0.77469,1.18349,225.449,234.845
2015-07-15 22:00,-0.0131133,268.073,255.764,242.799,254.066,251.552,240.06,-0.0,-0.0,225.643,236.9
2015-07-15 23:00,-0.0982236,283.093,279.58,257.572,280.639,278.004,255.909,-0.0277219,-0.0540887,230.018,249.408
2015-07-16 00:00,-0.0735711,283.924,281.624,259.134,283.088,280.554,256.909,-0.0252537,-0.0501854,228.136,248.882
2015-07-16 01:00,-0.0,240.898,233.938,231.45,231.957,230.688,226.918,-0.0,-0.0,221.258,226.379
2015-07-16 02:00,-0.0,269.865,258.025,244.626,255.633,251.354,237.676,-0.0,-0.0,223.434,236.757
2015-07-16 03:00,-0.0,270.989,261.017,246.265,259.974,257.486,242.241,-0.0,-0.0,225.546,239.121
2015-07-16 04:00,-0.0,265.446,252.29,241.354,249.789,246.035,234.76,-0.0,-0.0,222.259,233.928
2015-07-16 05:00,-0.00129865,281.165,280.909,258.358,283.656,281.588,258.392,-0.0,-0.0,229.263,250.032
2015-07-16 06:00,-0.0,284.249,284.528,260.337,287.407,285.919,261.301,-0.0,0.00147582,230.916,252.342
2015-07-16 07:00,-0.00179275,283.093,282.799,259.134,285.061,283.339,259.614,-0.0,-0.0,230.018,250.849
2015-07-16 08:00,-0.0,282.059,280.549,258.134,282.66,280.554,257.406,-0.0,-0.0,229.433,249.198
2015-07-16 09:00,0.00452631,276.155,270.885,251.922,271.142,269.165,250.369,-0.0,-0.00456957,226.963,243.336
2015-07-16 10:00,-0.150288,281.165,279.702,257.346,281.076,279.061,256.535,-0.152698,-0.242759,228.312,246.818
2015-07-16 11:00,0.359133,275.251,262.3,247.2,260.888,256.742,240.646,0.366019,0.476708,224.156,237.185
2015-07-16 12:00,0.519763,269.865,236.576,233.344,234.895,233.225,229.781,0.512096,0.620138,222.906,230.183
2015-07-16 13:00,0.313173,273.338,250.76,240.32,248.733,243.896,231.743,0.283706,0.406817,222.476,232.347
2015-07-16 14:00,0.29013,285.512,270.746,251.922,270.006,265.138,245.489,0.169834,0.3146,226.311,241.221
2015-07-16 15:00,0.243594,294.933,287.102,262.366,288.628,284.636,257.158,0.103125,0.250841,229.935,248.987
2015-07-16 16:00,0.244828,291.931,274.916,254.808,273.843,266.329,246.732,0.146326,0.2504,226.963,242.971
2015-07-16 17:00,0.2512,292.771,277.601,256.32,276.468,270.473,249.838,0.1389,0.255327,227.691,243.698
2015-07-16 18:00,0.362526,278.482,251.721,240.913,247.229,241.698,229.615,0.322213,0.454962,223.013,233.617
2015-07-16 19:00,0.158165,291.809,285.433,261.412,286.585,282.904,257.53,0.124839,0.189447,228.224,247.371
2015-07-16 20:00,0.590543,266.131,233.392,231.274,230.294,228.056,224.657,0.582691,0.732326,219.503,224.204
2015-07-16 21:00,0.470664,264.377,250.76,240.171,248.946,246.876,237.222,0.492278,0.614917,225.352,234.694
2015-07-16 22:00,-0.0,280.613,274.785,254.217,275.242,272.883,252.594,-0.0,-0.0,227.78,244.647
2015-07-16 23:00,-0.0894783,264.009,255.23,242.656,254.854,253.896,241.808,-0.0252537,-0.0542002,227.691,238.986
2015-07-17 00:00,-0.0796072,286.271,285.321,260.769,288.087,286.485,260.34,-0.0235911,-0.0522393,228.921,249.513
2015-07-17 01:00,-0.0,248.394,235.011,232.319,233.31,231.203,225.709,-0.0,-0.0,221.145,226.379
2015-07-17 02:00,-0.001345,251.944,238.09,233.513,237.451,233.722,226.746,-0.0,-0.00135786,222.799,228.242
2015-07-17 03:00,-0.0,266.466,255.941,243.084,253.669,251.156,239.173,-0.0,0.00126049,225.449,236.614
2015-07-17 04:00,-0.00123447,282.059,280.187,258.022,282.231,280.108,257.034,-0.0,-0.0,229.093,247.261
2015-07-17 05:00,0.00129821,283.261,283.148,259.574,285.895,284.061,259.005,-0.0,-0.0,229.433,248.775
2015-07-17 06:00,-0.0,283.428,284.071,260.011,286.997,285.635,260.942,-0.0,-0.0,230.674,250.544
2015-07-17 07:00,-0.0,277.661,276.971,255.742,278.427,273.359,252.205,-0.0,-0.0,230.674,248.241
2015-07-17 08:00,-0.0,266.131,260.692,246.399,260.341,253.51,242.527,-0.0,-0.0,230.835,242.478
2015-07-17 09:00,-0.0,273.586,271.711,252.534,271.142,266.329,249.171,-0.0,-0.0,230.755,243.937
2015-07-17 10:00,-0.0304392,282.408,282.096,258.913,285.061,283.049,259.37,-0.128864,-0.153651,232.405,250.34
2015-07-17 11:00,0.317835,284.41,278.845,257.346,281.799,277.548,255.153,0.30275,0.367668,232.097,249.928
2015-07-17 12:00,0.433478,292.771,277.35,256.205,278.576,272.086,250.896,0.281918,0.412252,232.097,248.025
2015-07-17 13:00,0.349538,294.823,289.911,263.411,291.423,288.167,260.461,0.147977,0.328619,233.677,250.544
2015-07-17 14:00,0.300162,297.146,292.417,265.658,294.533,290.648,261.898,0.114971,0.272367,233.603,250.95
2015-07-17 15:00,0.24787,297.749,293.336,265.959,295.424,291.6,262.492,0.089161,0.222435,233.823,250.748
2015-07-17 16:00,0.22027,298.436,293.843,266.159,295.93,292.141,262.492,0.075682,0.196593,234.756,251.452
2015-07-17 17:00,0.311859,297.248,285.095,260.876,287.27,283.339,259.614,0.19912,0.294195,235.662,251.751
2015-07-17 18:00,0.30348,296.84,286.439,261.731,288.087,284.492,259.37,0.197788,0.28824,235.455,251.85
2015-07-17 19:00,0.248318,294.713,290.017,263.825,292.209,289.413,261.898,0.160514,0.250691,236.139,253.405
2015-07-17 20:00,0.244917,293.356,290.756,264.339,292.86,289.964,262.728,0.17607,0.265919,236.475,253.309
2015-07-17 21:00,0.509802,288.705,287.76,262.155,290.5,288.445,261.54,0.54524,0.650116,236.408,253.785
2015-07-17 22:00,-0.00663725,283.594,283.956,259.902,286.722,284.779,260.34,-0.0,-0.0,236.675,253.405
2015-07-17 23:00,-0.11357,280.613,280.549,257.91,283.23,281.735,259.614,-0.0328967,-0.0573279,236.94,254.068
2015-07-18 00:00,-0.0737003,281.165,281.029,258.358,284.361,282.467,259.249,-0.0236115,-0.0502736,237.721,253.88
2015-07-18 01:00,-0.00311775,278.482,278.845,257.12,281.51,280.406,258.76,-0.0,-0.0,237.849,253.974
2015-07-18 02:00,-0.00134502,286.271,286.217,261.198,288.358,286.485,261.66,-0.0,-0.0,238.546,254.629
2015-07-18 03:00,-0.00249669,286.717,287.212,261.838,289.701,288.306,262.255,-0.0,-0.0,238.42,255.639
2015-07-18 04:00,-0.0,285.97,286.439,261.198,288.897,288.167,262.136,-0.0,-0.0,239.774,256.36
2015-07-18 05:00,-0.00129778,284.73,285.77,260.876,288.763,287.748,262.61,-0.0,-0.0,240.253,256.894
2015-07-18 06:00,-0.0,284.087,285.658,260.661,288.493,288.167,262.61,-0.0,-0.0,239.471,257.158
2015-07-18 07:00,0.0017919,284.249,285.77,260.553,288.628,288.445,263.318,-0.0,-0.0,240.134,258.2
2015-07-18 08:00,-0.0,283.594,285.208,260.011,288.087,287.609,262.61,-0.0,-0.0,239.714,257.508
2015-07-18 09:00,0.00453512,282.753,284.414,259.902,287.407,287.329,262.847,-0.0,-0.0,238.294,255.73
2015-07-18 10:00,-0.0,282.923,284.414,259.244,287.134,287.188,262.136,-0.104588,-0.124706,237.977,254.907
2015-07-18 11:00,0.448133,286.421,286.55,260.337,289.434,288.584,262.728,0.256676,0.485683,238.42,255.183
2015-07-18 12:00,0.403981,291.686,289.911,262.681,292.73,291.329,263.436,0.182957,0.414166,238.546,255.457
2015-07-18 13:00,0.339911,295.151,292.725,264.339,295.55,293.617,264.721,0.136522,0.327762,238.919,255.821
2015-07-18 14:00,0.279813,296.738,294.245,265.355,297.06,294.679,264.721,0.107141,0.266294,238.546,255.548
2015-07-18 15:00,0.229477,297.349,294.646,265.557,297.434,295.076,264.721,0.0862026,0.223513,238.608,255.73
2015-07-18 16:00,0.208554,297.649,294.846,265.859,297.683,295.208,264.255,0.0741376,0.196083,238.357,255.73
2015-07-18 17:00,0.192027,297.449,294.746,265.658,297.558,294.944,264.488,0.0705031,0.187,238.357,256.001
2015-07-18 18:00,0.201005,296.635,294.346,265.456,296.935,294.547,264.605,0.0791977,0.188863,237.398,255.73
2015-07-18 19:00,0.207427,295.151,293.133,264.543,295.803,293.483,264.255,0.101324,0.206725,237.592,256.091
2015-07-18 20:00,0.24339,292.889,291.694,263.928,294.277,292.276,264.488,0.167195,0.259625,237.785,255.73
2015-07-18 21:00,0.416408,288.43,288.628,262.155,291.292,290.101,263.083,0.46275,0.55176,237.657,255.821
2015-07-18 22:00,-0.00667805,285.97,287.102,261.412,289.835,289.137,262.61,-0.0,-0.0,238.041,256.181
2015-07-18 23:00,-0.10182,285.357,286.55,261.198,289.3,288.584,263.083,-0.0278917,-0.0574432,237.528,256.539
2015-07-19 00:00,-0.0757557,285.045,285.994,260.984,288.763,288.306,262.728,-0.0236313,-0.0503157,237.913,255.911
2015-07-19 01:00,-0.00155934,284.73,285.882,260.553,288.763,288.306,262.61,-0.0,-0.0,237.072,256.36
2015-07-19 02:00,-0.0,284.73,285.77,260.876,288.628,288.027,263.083,-0.0,-0.0,237.203,256.805
2015-07-19 03:00,-0.0,284.41,285.546,260.553,288.222,287.748,262.728,-0.0,-0.0,237.463,257.158
2015-07-19 04:00,-0.0,283.924,285.433,260.769,288.087,287.469,262.728,-0.0,-0.0,236.675,257.07
2015-07-19 05:00,-0.0,284.087,285.095,260.337,287.679,287.329,262.728,-0.0,-0.0,236.139,257.07
2015-07-19 06:00,-0.0,283.428,284.869,260.445,287.407,287.048,262.965,-0.0,-0.0,235.525,256.716
2015-07-19 07:00,0.0017916,283.594,284.982,260.445,287.407,287.048,262.847,-0.0,-0.0,236.341,257.158
2015-07-19 08:00,-0.0025017,283.093,284.755,260.011,287.27,286.767,263.318,-0.0,-0.0,236.071,256.982
2015-07-19 09:00,-0.0,283.428,284.642,260.337,287.134,286.767,262.728,-0.0,-0.0,236.341,257.158
2015-07-19 10:00,-0.0313892,283.093,284.185,259.902,286.722,286.343,262.492,-0.159463,-0.158446,235.936,256.982
2015-07-19 11:00,0.445845,286.569,286.217,261.305,288.897,288.445,263.083,0.255365,0.496441,235.247,256.628
2015-07-19 12:00,0.421411,291.563,289.911,263.618,292.47,291.193,263.553,0.179726,0.419137,235.178,256.181
2015-07-19 13:00,0.334634,294.933,292.725,265.254,295.297,293.082,264.488,0.130628,0.326865,235.178,256.36
2015-07-19 14:00,0.275534,296.84,294.245,266.358,297.06,294.679,264.837,0.100843,0.263811,235.867,256.628
2015-07-19 15:00,0.227274,297.349,295.045,266.557,297.558,294.944,265.185,0.0818863,0.221311,236.274,257.333
2015-07-19 16:00,0.201646,297.349,295.045,266.756,297.807,295.339,265.185,0.0685623,0.193956,236.071,257.595
2015-07-19 18:00,0.176543,295.902,294.546,266.159,297.184,294.812,265.069,0.0688611,0.180234,236.274,258.628
2015-07-19 19:00,0.188043,295.151,293.944,265.859,296.433,294.282,265.301,0.0852139,0.195188,236.808,258.372
2015-07-19 20:00,0.209923,292.889,292.211,265.052,295.043,293.216,265.185,0.139102,0.234966,236.542,258.457
2015-07-19 21:00,0.303171,288.841,289.272,262.89,291.817,290.784,263.905,0.406432,0.433598,236.341,258.628
2015-07-19 22:00,-0.00671915,286.717,287.869,262.155,290.5,289.964,264.488,-0.0,-0.0,236.341,258.882
2015-07-19 23:00,-0.0810172,286.569,287.432,261.944,289.968,289.413,264.022,-0.0254064,-0.0545278,237.657,259.387
2015-07-20 00:00,-0.0977642,285.665,287.212,261.838,289.568,289.137,264.022,-0.0287185,-0.054385,237.398,259.97
2015-07-20 01:00,-0.00155978,285.818,287.102,261.412,289.701,289.137,264.605,-0.0,-0.0,237.398,260.708
2015-07-20 02:00,-0.0,284.57,286.439,261.198,288.763,288.584,263.67,-0.0,-0.0,237.203,260.871
2015-07-20 03:00,-0.00124788,283.924,286.105,261.091,288.493,288.584,263.787,-0.0,-0.0,236.004,260.463
2015-07-20 04:00,-0.00123342,283.924,285.882,260.984,288.358,288.445,264.022,-0.0,-0.0,236.004,260.463
2015-07-20 05:00,-0.0,283.428,284.185,259.902,286.585,286.485,262.492,-0.0,-0.0,234.756,259.304
2015-07-20 06:00,-0.00146005,283.594,285.882,260.661,288.358,288.861,264.255,-0.0,-0.0,235.867,260.545
2015-07-20 07:00,0.00179139,282.923,284.982,260.119,287.679,287.888,264.138,-0.0,-0.0,236.542,260.871
2015-07-20 08:00,-0.00250239,283.093,285.095,260.228,287.679,287.609,264.022,-0.0,-0.0,235.662,260.789
2015-07-20 09:00,-0.00454776,282.923,284.869,260.119,287.27,287.609,263.787,-0.0,-0.0,236.274,261.033
2015-07-20 10:00,-0.0639388,282.753,284.755,259.683,287.134,287.188,263.905,-0.162411,-0.19365,237.333,261.675
2015-07-20 11:00,0.443406,287.155,287.432,261.412,289.568,288.999,263.553,0.259489,0.487143,238.483,261.914
2015-07-20 12:00,0.435533,293.124,291.694,264.133,294.149,292.948,264.837,0.184382,0.427133,238.231,261.834
2015-07-20 13:00,0.355341,296.635,294.546,265.658,296.935,294.944,265.647,0.137592,0.336864,239.894,262.151
2015-07-20 14:00,0.296068,298.144,295.738,266.855,298.302,295.996,265.762,0.109579,0.270262,240.253,262.388
2015-07-20 15:00,0.255606,298.822,295.244,266.855,297.06,293.883,263.787,0.0911965,0.23046,239.954,261.595
2015-07-20 16:00,0.220094,297.045,292.005,264.95,292.989,289.137,260.098,0.0858031,0.207811,237.913,259.471
2015-07-20 17:00,0.197668,297.749,294.746,266.557,296.307,293.082,263.553,0.0715238,0.189324,238.981,261.113
2015-07-20 18:00,0.203635,297.549,295.935,267.052,298.426,295.996,265.647,0.0770019,0.193606,239.894,262.545
2015-07-20 19:00,0.203095,296.219,294.945,266.657,297.434,295.339,265.647,0.0937963,0.207699,239.774,262.701
2015-07-20 20:00,0.226748,293.816,292.929,265.153,295.55,293.617,265.301,0.15359,0.247229,239.834,262.388
2015-07-20 21:00,0.392718,289.113,289.058,262.681,291.423,290.375,264.605,0.457207,0.54515,239.834,262.072
2015-07-20 22:00,-0.00676051,286.421,287.869,261.519,290.234,289.551,264.488,-0.0,-0.0,239.288,261.993
2015-07-20 23:00,-0.0901951,285.97,287.212,261.305,289.568,288.999,264.138,-0.0280016,-0.0546344,239.714,262.388
2015-07-21 00:00,-0.0818668,284.888,286.882,261.091,289.3,289.276,263.67,-0.0270503,-0.0524118,240.134,262.779
2015-07-21 01:00,-0.0,284.73,286.772,261.091,289.166,288.999,264.372,-0.0,-0.0,240.014,263.244
2015-07-21 02:00,-0.0,284.249,286.105,260.769,288.628,288.584,263.905,-0.0,-0.0,239.774,262.701
2015-07-21 03:00,-0.0,283.76,285.77,260.445,288.087,287.888,263.787,-0.0,-0.0,239.774,262.701
2015-07-21 04:00,-0.0,283.76,285.658,260.445,288.087,288.167,263.787,-0.0,-0.0,240.014,262.545
2015-07-21 05:00,-0.0,282.753,284.642,260.011,286.997,286.907,263.083,-0.0,-0.0,240.548,262.309
2015-07-21 06:00,-0.0,283.093,284.869,260.337,287.27,287.048,263.553,-0.0,-0.0,241.361,262.388
2015-07-21 07:00,-0.0,280.427,281.505,258.022,283.514,283.049,261.779,-0.0,-0.0,240.841,261.194
2015-07-21 08:00,-0.0,282.234,283.495,258.913,0.0,285.35,262.136,-0.0,-0.0,240.371,261.515
2015-07-21 09:00,-0.0,282.581,283.956,259.244,286.722,286.485,262.492,-0.0,-0.0,239.894,261.113
2015-07-21 11:00,0.544545,286.864,284.071,259.793,287.27,286.626,262.492,0.411666,0.510483,239.41,260.381
2015-07-21 12:00,0.0,292.414,0.0,259.464,286.86,286.626,262.847,0.614155,0.629015,240.253,261.113
2015-07-21 14:00,0.565735,0.0,0.0,258.58,285.201,284.636,262.136,0.482001,0.54794,241.015,261.515
2015-07-21 15:00,0.402398,294.268,281.624,258.913,283.372,281.588,258.882,0.33528,0.391678,239.41,259.638
2015-07-21 16:00,0.322108,293.702,281.742,258.913,282.946,280.554,258.392,0.256685,0.320405,238.608,258.2
2015-07-21 17:00,0.448052,293.472,281.029,258.58,283.938,283.484,262.255,0.409315,0.459137,241.304,261.515
2015-07-21 18:00,0.297525,294.491,285.77,261.091,287.679,285.493,261.54,0.208538,0.296391,240.014,260.545
2015-07-21 20:00,0.31095,291.809,288.951,263.515,290.897,288.861,263.318,0.25565,0.336671,241.704,262.309
2015-07-21 21:00,0.715943,283.093,284.3,260.661,286.722,285.777,262.728,0.606188,0.722787,241.59,262.309
2015-07-21 22:00,-0.00680209,282.753,284.3,260.769,286.997,285.919,262.373,-0.0,-0.0,241.986,262.388
2015-07-21 23:00,-0.0783195,280.239,283.148,259.464,286.172,285.777,263.318,-0.025505,-0.0547395,242.211,262.623
2015-07-22 00:00,-0.101911,279.081,281.978,258.913,285.34,284.922,262.136,-0.0287627,-0.0544688,242.433,262.779
2015-07-22 01:00,-0.00312106,283.594,285.208,260.661,287.543,287.188,263.318,-0.0,-0.0,242.6,262.701
2015-07-22 02:00,-0.00134488,280.427,283.726,260.337,286.86,286.767,263.083,-0.0,-0.0,242.266,262.779
2015-07-22 03:00,-0.0,279.278,282.799,259.574,286.31,286.06,262.847,-0.0,-0.0,242.211,262.779
2015-07-22 04:00,-0.0,278.279,282.096,259.244,285.757,285.777,262.847,-0.0,-0.0,242.655,263.244
2015-07-22 05:00,-0.00129618,278.482,282.096,259.024,285.479,285.493,263.2,-0.0,0.00130857,242.82,263.399
2015-07-22 06:00,-0.0,278.279,281.505,258.802,285.061,285.065,262.492,-0.0,-0.0,242.655,263.322
2015-07-22 07:00,-0.0,278.075,281.386,258.58,284.781,284.636,262.373,-0.0,-0.0,242.984,263.476
2015-07-22 08:00,-0.0,277.869,281.505,258.58,284.781,284.492,262.373,-0.0,-0.0,242.266,262.935
2015-07-22 09:00,-0.0,277.24,280.909,258.246,284.361,284.492,262.373,-0.0,-0.0,242.211,262.935
2015-07-22 10:00,-0.0333791,277.869,281.148,258.802,285.061,284.492,262.373,-0.226096,-0.235887,242.155,262.623
2015-07-22 11:00,0.438098,285.818,285.77,260.984,288.087,287.188,262.965,0.267293,0.455295,242.433,262.623
2015-07-22 12:00,0.410721,290.301,287.869,262.471,289.701,287.888,262.847,0.196103,0.402176,242.6,262.23
2015-07-22 13:00,0.374704,294.156,286.772,261.944,288.763,286.343,261.898,0.198744,0.35872,243.147,261.914
2015-07-22 14:00,0.308494,294.156,286.217,261.731,288.222,285.635,262.255,0.18508,0.309663,242.984,261.834
2015-07-22 15:00,0.231805,296.008,292.417,265.557,294.277,0.0,263.787,0.0866289,0.217881,242.875,0.0
2015-07-22 17:00,0.221662,296.531,292.52,265.758,294.277,291.464,263.787,0.10095,0.208523,242.266,262.309
2015-07-22 18:00,0.225817,295.583,292.005,265.557,293.892,291.329,264.488,0.116382,0.224011,241.817,262.23
2015-07-22 19:00,0.214484,294.713,292.622,266.059,295.043,292.41,264.605,0.108519,0.211253,242.155,262.623
2015-07-22 20:00,0.232869,292.294,291.798,265.153,294.149,292.41,265.301,0.170628,0.25318,242.489,262.779
2015-07-22 21:00,0.278655,288.012,288.52,262.786,291.292,290.238,263.905,0.43255,0.492308,242.099,262.309
2015-07-22 22:00,-0.00684385,285.512,286.661,261.838,289.166,288.306,262.965,-0.0,-0.0,242.544,262.466
2015-07-22 23:00,-0.0935575,285.202,286.105,261.198,288.493,287.609,262.373,-0.0281085,-0.0578899,242.929,262.623
2015-07-23 00:00,-0.0879873,284.888,285.882,261.198,288.222,287.469,263.318,-0.0253973,-0.0484519,242.82,263.012
2015-07-23 01:00,-0.0,283.261,284.528,260.984,286.86,286.06,262.492,-0.0,-0.0,242.875,263.244
2015-07-23 02:00,-0.00134479,282.923,284.3,260.553,286.722,285.919,262.965,-0.0,-0.0,243.147,263.012
2015-07-23 03:00,0.0,0.0,0.0,0.0,0.0,0.0,0.0,-0.0,0.0,0.0,0.0
2015-07-23 04:00,-0.0,281.705,283.841,0.0,286.31,285.777,262.847,-0.0,-0.0,242.6,263.322
2015-07-23 05:00,-0.0,283.76,285.433,261.519,287.951,287.748,263.67,-0.0,-0.0,242.378,263.167
2015-07-23 07:00,-0.0,282.581,284.755,260.984,287.134,0.0,263.67,-0.0,-0.0,241.986,0.0
2015-07-23 08:00,-0.0,282.234,283.956,260.769,286.447,285.919,262.492,-0.0,-0.0,241.533,262.388
2015-07-23 09:00,0.0,0.0,0.0,0.0,0.0,0.0,0.0,0.0,0.0,0.0,0.0
2015-07-23 10:00,-0.0342286,282.408,0.0,260.337,286.997,287.048,263.436,-0.202869,-0.207335,241.189,262.072
2015-07-23 12:00,0.0,291.931,290.123,264.339,292.34,0.0,263.787,0.190121,0.413012,241.419,262.23
2015-07-23 13:00,0.356316,295.583,292.725,265.658,295.17,0.0,264.721,0.0,0.0,241.131,262.309
2015-07-23 14:00,0.293513,297.248,294.546,266.458,296.684,294.149,265.069,0.0,0.264381,0.0,0.0
2015-07-23 15:00,0.0,298.918,295.442,267.249,297.931,295.076,265.647,0.0877272,0.220468,241.304,262.309
2015-07-23 18:00,0.0,0.0,291.487,265.254,294.277,291.6,263.787,0.130891,0.244966,240.724,261.595
2015-07-23 19:00,0.213582,0.0,293.438,0.0,295.803,293.35,265.069,0.112473,0.218253,240.43,261.595
2015-07-23 20:00,0.24031,293.472,292.005,265.254,294.277,292.006,264.488,0.180863,0.269564,240.193,261.355
2015-07-23 21:00,0.339179,288.568,288.843,263.099,291.423,289.964,264.022,0.497783,0.547875,240.074,261.194
2015-07-23 22:00,0.0,285.512,0.0,261.519,289.032,0.0,0.0,-0.0,-0.0,0.0,261.194
2015-07-23 23:00,-0.0997784,284.57,285.658,261.091,288.358,287.329,263.2,-0.0281607,-0.0579974,240.607,261.194
2015-07-24 00:00,-0.0720399,285.202,286.328,261.412,288.897,288.584,263.553,-0.0220264,-0.0484857,240.957,261.355
2015-07-24 01:00,0.0,284.087,285.882,261.198,0.0,287.888,263.67,-0.0,0.0,0.0,261.355
2015-07-24 02:00,-0.0,284.41,285.994,261.091,288.493,287.748,262.965,-0.0,-0.0,240.782,261.275
2015-07-24 03:00,0.00124682,283.76,285.658,260.661,288.087,287.888,263.2,-0.0,-0.0,240.548,261.033
2015-07-24 04:00,-0.0,0.0,0.0,0.0,0.0,0.0,0.0,-0.0,0.0,0.0,0.0
2015-07-24 05:00,0.00129547,283.428,284.982,0.0,287.543,287.188,263.436,-0.0,-0.0,0.0,261.113
2015-07-24 06:00,0.0,282.581,284.528,260.553,287.27,286.907,0.0,-0.0,-0.0,240.665,260.871
2015-07-24 07:00,-0.0,0.0,0.0,260.553,287.134,287.048,263.2,-0.0,-0.0,240.489,0.0
2015-07-24 08:00,-0.0,282.581,284.3,260.119,286.997,286.626,262.728,-0.0,-0.0,240.782,260.381
2015-07-24 09:00,0.00458522,282.408,284.185,260.228,286.997,0.0,0.0,-0.0,-0.0,240.548,260.217
2015-07-24 11:00,0.438609,285.97,286.439,0.0,289.032,288.584,263.083,0.263726,0.0,240.193,260.217
2015-07-24 12:00,0.425796,291.931,290.545,263.928,0.0,291.735,264.488,0.0,0.411311,239.714,259.97
2015-07-24 13:00,0.346559,295.902,293.031,265.758,295.803,293.75,264.605,0.143093,0.323955,238.795,258.798
2015-07-24 14:00,0.294363,298.144,295.144,267.052,298.055,295.471,265.069,0.11275,0.265337,238.795,258.114
2015-07-24 16:00,0.0,299.297,295.837,267.446,298.426,295.734,264.837,0.076858,0.0,238.795,257.595
2015-07-24 17:00,0.205256,298.144,0.0,0.0,295.55,291.6,262.136,0.0791237,0.187001,238.483,257.246
2015-07-24 18:00,0.0,0.0,0.0,265.254,0.0,289.826,261.062,0.0,0.192925,236.94,256.181
2015-07-24 19:00,0.20749,295.796,292.725,265.959,295.043,292.006,262.492,0.111997,0.209474,237.913,257.246
2015-07-24 20:00,0.221118,293.816,292.005,0.0,294.661,292.276,264.022,0.183475,0.254484,238.231,257.508
2015-07-24 21:00,0.330521,0.0,0.0,0.0,0.0,0.0,263.318,0.46642,0.0,237.785,0.0
2015-07-25 01:00,0.0,0.0,0.0,0.0,288.087,0.0,0.0,0.0,0.0,238.608,257.158
2015-07-25 02:00,0.0,0.0,285.321,0.0,287.951,286.343,262.017,-0.0,-0.0,238.42,256.36
2015-07-25 03:00,0.0,0.0,284.755,260.876,0.0,0.0,261.779,-0.0,-0.0,238.483,256.45
2015-07-25 07:00,-0.0,282.923,283.726,259.793,286.31,285.35,261.779,-0.0,-0.0,238.981,0.0
2015-07-25 08:00,-0.00250953,0.0,0.0,0.0,0.0,0.0,0.0,0.0,0.0,0.0,0.0
2015-07-25 09:00,-0.0,0.0,0.0,0.0,285.895,284.636,261.182,-0.0,0.0,238.733,257.07
2015-07-25 11:00,0.0,285.045,282.682,258.802,0.0,283.484,260.701,0.299232,0.395016,238.795,256.894
2015-07-25 14:00,0.307404,0.0,0.0,264.645,293.892,290.375,262.61,0.0,0.0,0.0,0.0
2015-07-25 15:00,0.258261,297.045,285.433,260.984,287.543,283.629,259.735,0.128787,0.0,238.857,256.628
2015-07-25 20:00,0.0,0.0,290.651,263.825,292.86,0.0,262.728,0.193494,0.266206,0.0,257.158
2015-07-25 22:00,-0.00696989,0.0,284.528,0.0,286.997,284.922,261.421,-0.0,-0.0,0.0,256.628
2015-07-26 02:00,-0.00134441,283.924,0.0,0.0,287.27,286.06,261.779,-0.0,-0.0,237.592,256.181
2015-07-26 04:00,-0.0,0.0,281.267,0.0,283.797,282.758,260.461,-0.0,-0.0,0.0,0.0
2015-07-26 05:00,0.0,0.0,271.711,252.777,0.0,273.832,256.535,-0.0,-0.0,0.0,0.0
2015-07-26 07:00,0.0,271.261,271.848,252.777,274.778,0.0,0.0,0.0,0.0,0.0,0.0
2015-07-26 09:00,-0.0,278.075,277.852,0.0,280.785,0.0,257.653,-0.0,-0.0,0.0,254.256
2015-07-26 10:00,0.0,0.0,0.0,0.0,286.31,285.493,261.421,0.0,0.0,0.0,255.548
2015-07-26 12:00,0.0,292.889,0.0,0.0,0.0,0.0,262.136,0.0,0.0,0.0,0.0
2015-07-26 14:00,0.0,0.0,293.843,0.0,0.0,0.0,263.318,0.0,0.258363,0.0,0.0
2015-07-26 16:00,0.314191,0.0,286.105,260.445,288.763,0.0,0.0,0.226516,0.0,0.0,258.543
2015-07-26 17:00,0.0,298.63,291.902,264.031,0.0,0.0,263.2,0.119324,0.0,234.185,258.543
2015-07-26 18:00,0.0,0.0,293.031,264.645,0.0,292.141,0.0,0.0,0.232604,234.113,258.457
2015-07-26 19:00,0.221155,296.427,294.145,264.95,296.684,0.0,264.488,0.113222,0.212885,237.203,259.387
2015-07-26 22:00,-0.00701201,285.045,0.0,0.0,0.0,285.777,261.54,0.0,0.0,0.0,261.914
2015-07-26 23:00,-0.0759951,0.0,0.0,257.572,0.0,0.0,0.0,-0.0231642,0.0,0.0,0.0
2015-07-27 01:00,-0.0,0.0,0.0,256.549,0.0,0.0,0.0,-0.0,-0.0,246.993,0.0
2015-07-27 02:00,-0.00134424,284.249,284.869,0.0,287.134,0.0,262.255,-0.0,-0.0,0.0,0.0
2015-07-27 03:00,0.0,285.045,286.217,0.0,288.493,287.609,263.2,-0.0,-0.0,0.0,263.244
2015-07-27 05:00,0.0,0.0,0.0,0.0,0.0,0.0,0.0,0.0,0.0,0.0,0.0
2015-07-27 06:00,-0.00145846,283.261,284.071,259.134,286.31,285.208,261.898,-0.0,-0.0,244.79,262.388
2015-07-27 08:00,-0.0,266.797,269.767,251.18,272.741,272.724,256.16,-0.0,-0.0,244.479,260.135
2015-07-27 09:00,-0.0,280.05,280.066,257.12,282.66,280.702,260.098,-0.0,-0.0,244.583,261.355
2015-07-27 10:00,-0.0778862,276.811,277.601,255.858,279.76,278.458,258.638,-0.263784,-0.275208,245.151,261.033
2015-07-27 13:00,0.338595,0.0,292.725,264.441,294.661,292.141,263.905,0.141552,0.314058,244.997,0.0
2015-07-27 16:00,0.206212,299.013,295.343,266.358,0.0,294.149,264.953,0.0827048,0.190965,244.997,0.0
2015-07-27 17:00,0.418088,290.813,277.852,255.626,279.17,278.76,259.127,0.390373,0.450446,245.304,0.0
2015-07-27 19:00,0.286783,299.203,289.272,262.576,291.948,288.445,262.373,0.195122,0.289525,245.507,262.309
2015-07-27 21:00,0.43,289.779,289.379,262.681,291.686,290.101,263.67,0.502777,0.578814,246.505,263.09
2015-07-27 22:00,-0.00705413,287.01,287.212,261.519,289.568,288.306,263.2,-0.0,-0.0,246.944,263.167
2015-07-27 23:00,-0.0974397,283.093,283.264,258.802,285.479,284.061,261.301,-0.0283601,-0.0522597,247.331,262.701
2015-07-28 00:00,-0.0802449,285.97,286.661,260.876,288.897,287.748,262.965,-0.0237801,-0.0486072,248.184,263.629
2015-07-28 01:00,-0.00312398,282.753,283.264,259.024,285.895,284.492,262.017,-0.0,-0.0,248.557,264.086
2015-07-28 03:00,-0.0,286.271,287.432,261.412,289.968,288.861,263.67,-0.0,-0.0,248.787,264.464
2015-07-28 04:00,-0.0,287.01,287.978,262.049,290.367,289.826,264.255,-0.0,-0.0,248.695,264.615
2015-07-28 05:00,-0.00129432,286.271,287.869,261.944,290.234,289.413,264.255,-0.0,-0.0,248.417,264.54
2015-07-28 06:00,-0.0,286.421,287.322,261.625,289.835,289.276,263.905,-0.0,-0.0,248.231,264.238
2015-07-28 07:00,-0.0,286.421,287.651,261.838,290.101,289.413,264.138,-0.0,-0.0,248.371,264.914
2015-07-28 08:00,-0.00251701,286.421,288.087,261.838,290.5,290.101,264.953,-0.0,-0.0,248.371,265.507
2015-07-28 10:00,-0.0811284,285.665,287.212,261.412,289.434,288.999,263.905,-0.240419,-0.286664,248.231,264.839
2015-07-28 11:00,0.505426,288.705,288.736,262.261,291.16,290.238,264.255,0.271379,0.485367,248.695,264.69
2015-07-28 12:00,0.460231,294.156,292.52,264.543,294.916,293.216,265.532,0.196112,0.416042,248.231,264.54
2015-07-28 13:00,0.373138,297.549,294.945,265.959,297.558,295.602,265.878,0.149935,0.329883,248.464,264.615
2015-07-28 14:00,0.307794,299.579,296.913,267.348,299.409,297.04,266.222,0.117128,0.267094,248.324,264.69
2015-07-28 15:00,0.266786,301.302,298.262,268.421,300.99,298.076,266.909,0.0943412,0.22656,248.231,264.839
2015-07-28 16:00,0.233365,301.565,298.358,268.711,300.99,298.334,266.108,0.0837465,0.20127,247.855,264.914
2015-07-28 17:00,0.219053,300.947,298.549,268.421,301.352,298.334,266.681,0.0766988,0.187892,247.902,264.69
2015-07-28 18:00,0.213363,299.391,297.494,267.838,300.141,297.3,266.337,0.0830031,0.190175,247.949,264.69
2015-07-28 19:00,0.226913,0.0,296.033,266.855,298.549,296.127,265.762,0.112254,0.213638,247.949,264.389
2015-07-28 20:00,0.263131,295.26,293.742,265.959,296.559,294.415,265.416,0.178964,0.270001,248.137,264.238
2015-07-28 21:00,0.300129,289.247,289.805,263.411,292.209,291.464,264.605,0.423531,0.464597,247.617,264.238
2015-07-28 22:00,0.0,286.717,287.869,261.944,290.234,289.689,264.022,-0.0,-0.0,247.522,264.238
2015-07-28 23:00,-0.0976021,284.41,284.982,260.337,287.27,286.202,262.255,-0.0284074,-0.055426,247.331,263.706
2015-07-29 00:00,-0.0883182,275.707,276.591,255.626,279.613,277.701,258.392,-0.0237933,-0.0486341,247.379,262.388
2015-07-29 01:00,-0.00312424,285.202,286.882,261.305,288.628,288.306,263.67,-0.0,-0.0,247.283,263.706
2015-07-29 02:00,-0.00134387,285.202,286.217,260.769,288.358,288.027,263.083,-0.0,-0.0,247.331,263.858
2015-07-29 03:00,0.00124534,284.73,286.439,260.984,288.493,288.306,264.255,-0.0,-0.0,247.855,264.314
2015-07-29 04:00,0.00123038,283.76,285.77,260.553,287.679,287.748,263.787,-0.0,-0.0,247.76,264.086
2015-07-29 05:00,-0.0012941,284.249,285.77,260.553,287.951,288.027,263.553,-0.0,-0.0,248.09,264.238
2015-07-29 06:00,-0.00145845,284.249,285.658,260.661,288.087,287.609,263.2,-0.0,0.00147239,247.186,263.782
2015-07-29 07:00,-0.0,284.57,285.77,260.337,288.222,287.888,263.905,-0.0,-0.0,247.09,264.314
2015-07-29 08:00,-0.0,281.526,282.799,258.469,285.618,284.636,261.301,-0.0,-0.0,247.234,263.858
2015-07-29 09:00,-0.00465719,285.202,286.439,260.445,289.032,288.861,264.255,-0.0,-0.0,247.186,264.989
2015-07-29 10:00,-0.0424289,284.249,286.328,260.445,288.493,288.722,264.372,-0.287396,-0.299841,247.331,265.434
2015-07-29 11:00,0.482823,288.977,289.058,262.049,291.292,290.921,264.488,0.269087,0.487439,247.379,265.212
2015-07-29 12:00,0.454964,295.042,293.438,264.849,296.056,294.679,265.878,0.192608,0.423051,247.522,265.36
2015-07-29 13:00,0.356971,298.144,295.837,266.358,298.549,296.258,266.337,0.144012,0.326465,247.379,264.765
2015-07-29 14:00,0.287762,300.042,297.397,267.151,300.141,297.947,266.566,0.110881,0.260939,247.09,264.765
2015-07-29 16:00,0.398964,298.144,278.474,256.434,281.655,279.959,259.614,0.322151,0.404333,247.331,262.857
2015-07-29 17:00,0.397235,299.391,277.977,255.974,280.931,278.911,258.76,0.300202,0.386118,246.993,261.993
2015-07-29 18:00,0.373459,300.134,286.105,260.769,288.087,285.35,261.421,0.239993,0.336426,247.283,262.309
2015-07-29 19:00,0.25894,297.848,293.235,264.747,295.55,292.814,264.255,0.150462,0.253727,247.283,263.706
2015-07-29 20:00,0.248657,295.368,293.641,265.052,295.93,293.483,264.837,0.192388,0.272675,247.76,263.629
2015-07-29 21:00,0.547803,289.779,288.412,261.838,290.764,288.722,262.728,0.513519,0.632045,247.996,262.935
2015-07-29 22:00,-0.00713816,280.05,279.702,256.892,282.231,280.257,259.735,-0.0,-0.0,248.184,261.993
2015-07-29 23:00,-0.0733206,280.427,279.823,256.778,281.943,280.108,259.127,-0.0232801,-0.0524319,247.949,261.834
2015-07-30 00:00,-0.0984059,282.581,281.624,257.91,283.514,281.735,259.614,-0.0272066,-0.0527145,248.043,262.23
2015-07-30 01:00,-0.00156222,282.753,282.566,258.022,284.921,282.904,260.461,-0.0,-0.0,247.712,262.309
2015-07-30 02:00,-0.00134367,274.551,274.392,253.98,277.075,275.24,257.158,-0.0,-0.0,247.665,260.871
2015-07-30 03:00,-0.0,284.73,282.916,258.802,284.921,282.758,260.822,-0.0,-0.0,248.043,262.388
2015-07-30 04:00,-0.0,269.283,271.574,252.29,274.623,274.46,257.282,-0.0,-0.0,247.712,261.515
2015-07-30 05:00,-0.0012939,277.869,278.35,256.089,280.493,279.511,259.614,-0.0,-0.0,247.379,262.072
2015-07-30 06:00,-0.0,283.093,283.38,259.024,285.201,283.339,261.062,-0.0,-0.0,246.896,262.545
2015-07-30 07:00,-0.0,288.152,288.736,262.155,290.897,290.101,264.837,-0.0,-0.0,246.554,264.01
2015-07-30 08:00,0.00252344,287.729,288.52,261.731,290.764,289.964,264.488,-0.0,-0.0,245.91,264.01
2015-07-30 09:00,-0.0,287.155,288.087,261.412,290.367,289.689,264.372,-0.0,-0.0,245.759,264.238
2015-07-30 10:00,-0.133761,286.121,287.102,260.984,289.701,288.999,264.022,-0.302014,-0.360107,245.355,263.706
2015-07-30 12:00,0.440734,295.151,293.133,264.747,295.424,293.75,265.069,0.194149,0.411877,245.048,263.782
2015-07-30 13:00,0.357622,297.848,295.244,265.758,298.055,295.734,266.108,0.14343,0.320925,245.557,263.934
2015-07-30 14:00,0.286732,299.579,296.913,266.954,299.654,297.17,266.222,0.110484,0.260005,245.759,264.238
2015-07-30 15:00,0.247858,300.769,297.879,267.446,300.506,298.076,266.795,0.0923915,0.218752,245.608,264.238
2015-07-30 17:00,0.193034,300.317,297.879,267.544,300.384,297.947,266.681,0.0734102,0.178364,245.355,264.238
2015-07-30 18:00,0.188907,299.108,297.397,267.052,300.02,297.818,266.909,0.0807814,0.183007,244.894,264.464
2015-07-30 19:00,0.204745,297.947,295.837,265.859,298.549,296.127,266.566,0.130553,0.222014,244.997,264.162
2015-07-30 20:00,0.23436,295.26,294.044,264.95,296.684,294.679,265.647,0.306668,0.352749,245.355,264.238
2015-07-30 22:00,-0.0,288.291,289.379,262.366,291.686,291.057,264.953,-0.0,-0.0,245.304,264.314
2015-07-30 23:00,-0.0795563,288.291,289.058,262.261,291.686,290.784,264.953,-0.023317,-0.0525149,245.355,264.314
2015-07-31 00:00,-0.0984546,287.587,288.736,261.944,290.897,290.238,264.953,-0.0255188,-0.0527406,245.608,264.464
2015-07-31 01:00,-0.0,286.421,288.087,261.625,290.234,289.413,264.255,-0.0,-0.0,245.304,264.01
2015-07-31 02:00,0.00134345,287.155,288.412,262.049,290.764,290.238,265.069,-0.0,-0.0,244.687,264.314
2015-07-31 03:00,0.00124474,287.01,288.087,261.625,290.367,289.964,264.488,-0.0,-0.0,244.479,264.389
2015-07-31 04:00,-0.0,285.97,287.869,261.305,290.234,289.964,265.069,-0.0,-0.0,244.997,264.389
2015-07-31 05:00,-0.0,285.202,287.322,260.876,289.835,289.826,265.069,-0.0,-0.0,245.809,264.989
2015-07-31 06:00,-0.00145868,285.045,287.212,260.769,289.3,289.276,265.185,-0.0,-0.0,245.759,264.989
2015-07-31 07:00,-0.0,284.41,286.55,260.769,288.897,289.137,264.605,-0.0,-0.0,245.91,265.655
2015-07-31 08:00,-0.0,284.41,286.328,260.337,288.628,288.722,264.837,-0.0,-0.0,245.658,265.507
2015-07-31 09:00,-0.0,283.76,285.994,260.119,287.815,288.167,264.138,-0.0,-0.0,245.151,265.286
2015-07-31 10:00,-0.0942076,283.924,285.658,260.011,287.815,288.167,264.605,-0.358945,-0.380433,244.687,265.063
2015-07-31 11:00,0.504311,288.568,288.628,261.519,291.029,290.784,265.069,0.279583,0.49701,244.997,265.137
2015-07-31 12:00,0.462121,294.713,293.031,264.441,295.55,294.282,266.222,0.200655,0.430651,245.202,265.212
2015-07-31 13:00,0.389465,298.726,296.523,266.458,298.918,297.43,267.251,0.151654,0.33852,245.557,265.728
2015-07-31 14:00,0.313054,300.225,298.071,267.544,300.869,298.976,268.271,0.117323,0.272871,245.91,0.0
2015-07-31 15:00,0.265649,301.125,299.118,267.935,301.832,299.998,268.045,0.0947052,0.22898,246.456,266.529
2015-07-31 16:00,0.235639,301.302,299.402,268.13,301.832,299.87,267.932,0.0829154,0.200818,246.993,266.817
2015-07-31 17:00,0.216825,300.769,299.024,267.935,301.592,299.743,267.478,0.0772992,0.187627,247.138,266.745
2015-07-31 18:00,0.212926,299.858,298.262,267.642,301.11,298.976,267.365,0.0837032,0.19001,247.09,266.529
2015-07-31 19:00,0.218967,297.947,297.107,266.657,299.776,298.205,267.819,0.106551,0.205815,246.159,266.312
2015-07-31 20:00,0.249885,295.69,295.244,266.059,297.807,296.519,266.909,0.168544,0.260825,245.96,265.948
2015-07-31 21:00,0.374815,290.041,291.383,263.618,293.764,293.35,265.878,0.428429,0.491917,245.859,265.875
2015-07-31 22:00,-0.0,287.587,289.165,262.049,291.686,291.193,265.416,-0.0,-0.0,246.059,266.166
2015-07-31 23:00,-0.0980662,286.569,288.412,261.838,290.764,290.648,265.069,-0.0285424,-0.0618773,246.258,265.948
