# timestamp,IR_016,IR_039,IR_087,IR_097,IR_108,IR_120,IR_134,VIS006,VIS008,WV_062,WV_073
2013-10-01 00:00,-0.0,235.601,231.427,230.207,230.574,227.787,223.949,-0.0,-0.0,219.744,227.136
2013-10-01 01:00,-0.0,249.156,238.585,234.183,234.895,230.946,225.535,-0.0,-0.0,219.863,229.838
2013-10-01 02:00,-0.0,233.989,217.685,224.102,213.763,210.931,210.289,-0.0,-0.0,209.926,213.382
2013-10-01 03:00,-0.00127897,222.276,211.184,221.6,208.977,206.513,207.197,-0.0,-0.0,207.105,209.379
2013-10-01 04:00,-0.00131465,251.944,243.496,236.784,242.515,238.978,230.111,-0.0,-0.0,221.93,233.928
2013-10-01 05:00,-0.0014563,249.89,231.14,229.301,229.158,225.874,220.675,-0.0,-0.0,216.287,222.956
2013-10-01 06:00,-0.0,255.521,237.841,233.175,234.371,229.909,223.949,-0.0,-0.0,217.622,225.604
2013-10-01 07:00,-0.0,245.01,233.392,230.743,230.853,228.056,223.949,-0.0,-0.0,219.382,226.187
2013-10-01 08:00,-0.0,239.711,229.673,228.564,227.414,225.038,222.147,-0.0,-0.0,217.881,223.793
2013-10-01 09:00,-0.550652,267.444,255.05,242.225,253.669,249.144,236.918,-0.652731,-0.778282,223.642,235.444
2013-10-01 10:00,0.430182,266.466,242.824,235.662,240.152,235.677,227.601,0.497073,0.587575,219.26,228.423
2013-10-01 11:00,0.515672,256.062,227.845,227.628,227.708,226.701,223.413,0.724095,0.809252,220.801,225.604
2013-10-01 12:00,0.533849,279.473,233.392,230.921,233.577,231.459,226.574,0.58353,0.661523,222.585,230.354
2013-10-01 13:00,0.484663,275.251,232.839,230.743,231.957,229.385,225.36,0.575734,0.642658,220.916,227.877
2013-10-01 14:00,0.407141,264.739,223.597,225.504,222.485,219.777,218.601,0.542179,0.608745,217.096,221.213
2013-10-01 15:00,0.400432,263.255,224.95,226.481,223.758,221.875,218.982,0.584957,0.647565,217.622,222.096
2013-10-01 16:00,0.40614,280.05,237.591,233.681,236.186,232.725,226.918,0.414803,0.479214,222.906,230.183
2013-10-01 17:00,0.401998,292.771,264.94,248.512,265.654,262.361,248.364,0.377136,0.428466,229.348,246.258
2013-10-01 18:00,0.491335,296.943,264.329,248.252,264.792,260.045,246.869,0.476056,0.542056,229.348,244.764
2013-10-01 19:00,0.742122,309.181,268.773,251.305,269.186,261.299,245.35,0.644063,0.763264,230.996,245.46
2013-10-01 20:00,0.537817,289.779,274.785,255.043,275.857,271.605,254.9,0.490398,0.542959,229.852,247.917
2013-10-01 21:00,0.380913,278.482,271.984,253.261,272.899,265.65,249.037,0.391629,0.466958,230.674,247.151
2013-10-01 22:00,-0.0,259.954,252.479,241.646,251.856,246.457,236.918,-0.0,-0.0,227.42,238.578
2013-10-01 23:00,-0.0797556,253.206,230.85,230.027,230.294,228.324,225.009,-0.0652004,-0.0666356,221.371,224.408
2013-10-02 00:00,-0.0,263.255,250.175,239.721,247.446,244.112,234.604,-0.0,-0.0,222.906,232.829
2013-10-02 01:00,-0.00150847,269.865,262.931,246.934,262.15,259.502,246.044,-0.0,-0.0,226.963,240.316
2013-10-02 02:00,-0.00133759,264.009,258.025,244.903,258.116,255.045,243.383,-0.0,-0.0,228.312,241.854
2013-10-02 03:00,-0.0,272.322,266.738,250.303,267.857,263.933,249.438,-0.0,-0.0,227.601,244.881
2013-10-02 04:00,0.00131789,270.989,264.788,249.286,265.654,261.299,247.415,-0.0,-0.0,227.601,244.175
2013-10-02 05:00,-0.0,259.505,248.38,239.419,246.355,242.585,233.819,-0.0,-0.0,225.156,234.996
2013-10-02 06:00,0.00177773,252.585,241.451,235.173,240.152,238.747,230.931,-0.0,-0.0,224.359,232.669
2013-10-02 07:00,-0.00249286,277.451,271.711,252.534,272.264,269.821,251.159,-0.0,-0.0,227.87,245.114
2013-10-02 08:00,-0.00473068,249.156,242.824,235.823,241.815,239.895,232.867,-0.0,-0.0,222.476,234.542
2013-10-02 09:00,-1.29607,254.966,248.784,240.021,248.52,245.824,237.977,-1.37172,-1.79913,224.156,238.714
2013-10-02 10:00,0.683263,271.798,244.598,237.572,243.667,240.576,232.707,0.684086,0.780424,222.259,235.74
2013-10-02 11:00,0.633599,281.883,248.784,240.171,246.135,240.802,232.066,0.551489,0.639656,221.258,234.236
2013-10-02 12:00,0.374918,281.705,250.566,241.5,246.355,239.208,228.949,0.343018,0.410791,219.624,230.694
2013-10-02 13:00,0.30849,289.779,266.738,249.286,264.095,256.928,239.913,0.235566,0.315805,224.661,238.441
2013-10-02 14:00,0.296767,301.565,284.185,260.119,283.23,275.706,251.814,0.170778,0.246428,227.959,245.69
2013-10-02 15:00,0.335355,300.408,269.908,251.922,270.006,265.65,250.765,0.227573,0.281304,230.996,248.025
2013-10-02 16:00,0.274837,303.428,286.439,261.944,286.447,280.108,257.034,0.176941,0.227597,230.674,249.513
2013-10-02 17:00,0.281002,306.4,291.174,263.928,292.34,286.343,260.34,0.184658,0.241347,232.935,251.751
2013-10-02 18:00,0.214034,302.848,294.945,266.557,296.056,291.057,263.787,0.141268,0.180351,232.633,252.342
2013-10-02 19:00,0.622573,275.02,203.247,218.272,201.233,200.415,203.468,0.746606,0.850494,202.469,202.271
2013-10-02 20:00,0.791933,272.836,202.034,217.809,200.227,199.543,202.5,0.890545,1.05351,202.222,203.113
2013-10-02 21:00,0.935886,244.063,198.787,216.392,198.14,197.294,201.763,0.769773,1.07981,199.867,200.041
2013-10-02 22:00,-0.00591443,222.276,196.665,215.175,195.375,194.933,198.195,-0.0,-0.0,199.589,197.08
2013-10-02 23:00,-0.0881785,239.711,200.125,216.631,199.196,198.656,202.009,-0.065328,-0.069548,201.72,200.502
2013-10-03 00:00,-0.00188267,227.984,222.904,225.897,222.162,220.384,218.601,-0.0,-0.0,219.014,221.658
2013-10-03 01:00,-0.0,248.394,240.514,235.337,239.669,236.872,230.44,-0.0,-0.0,224.46,234.542
2013-10-03 02:00,-0.0,257.103,257.166,244.488,259.974,259.502,247.823,-0.0,-0.0,231.709,248.025
2013-10-03 03:00,-0.00128418,254.966,254.328,242.369,255.827,254.664,244.652,-0.0,-0.0,230.266,245.114
2013-10-03 04:00,0.0013212,256.589,256.992,244.07,259.421,258.774,248.094,-0.0,-0.0,231.63,247.261
2013-10-03 05:00,-0.0,256.062,256.644,243.79,258.865,258.774,248.229,-0.0,-0.0,232.02,247.371
2013-10-03 06:00,-0.0,251.944,254.509,242.513,256.98,257.115,247.551,-0.0,-0.0,233.456,247.371
2013-10-03 07:00,-0.00250949,251.944,254.145,242.513,256.406,256.18,246.869,-0.0,-0.0,232.175,246.371
2013-10-03 08:00,-0.00479436,251.282,253.04,242.369,256.021,255.803,246.319,-0.0,-0.0,231.315,245.918
2013-10-03 09:00,-2.73817,253.81,252.29,241.5,254.854,254.472,245.767,-3.3488,-3.68579,230.101,244.764
2013-10-03 10:00,0.712898,274.551,248.985,239.871,251.242,250.357,241.664,0.749308,0.843801,229.517,242.848
2013-10-03 11:00,0.790171,291.931,251.147,240.766,253.269,252.732,244.792,0.796878,0.909508,229.852,244.294
2013-10-03 12:00,0.657879,294.933,249.385,239.721,251.242,251.156,242.097,0.744197,0.83021,229.263,243.093
2013-10-03 13:00,0.568837,287.729,250.954,240.766,252.868,252.341,243.525,0.726099,0.801955,231.156,244.294
2013-10-03 14:00,0.53165,297.649,256.992,244.349,259.974,258.04,247.687,0.522822,0.592346,231.709,247.371
2013-10-03 15:00,0.308734,298.144,272.527,253.501,273.372,268.835,252.464,0.212456,0.268223,230.43,249.617
2013-10-03 16:00,0.21866,299.108,285.433,260.553,286.447,281.588,259.249,0.12842,0.187574,230.916,251.85
2013-10-03 17:00,0.357225,291.931,263.712,247.859,262.863,259.502,246.869,0.285921,0.339508,228.312,244.764
2013-10-03 18:00,0.538314,295.69,260.528,245.995,261.611,259.139,246.457,0.468608,0.548555,229.093,246.032
2013-10-03 19:00,0.501202,302.68,278.968,256.778,279.907,275.551,256.285,0.395033,0.454695,231.315,251.652
2013-10-03 20:00,0.168598,293.472,288.52,262.366,289.968,286.343,261.779,0.247205,0.228331,230.674,252.439
2013-10-03 21:00,1.0772,276.594,255.23,242.656,252.868,248.941,237.222,0.711855,1.06097,224.86,236.325
2013-10-03 22:00,-0.00593786,283.924,278.35,255.974,278.725,275.551,255.027,-0.0,-0.0,230.101,248.455
2013-10-03 23:00,-0.0883602,288.568,284.982,260.337,286.447,283.629,260.098,-0.0631247,-0.0669036,230.674,251.652
2013-10-04 00:00,-0.0,287.587,286.661,261.519,288.897,286.767,262.61,-0.0,-0.0,233.085,253.021
2013-10-04 01:00,-0.0,284.57,283.611,259.793,286.033,282.758,260.461,-0.0,-0.0,232.709,253.021
2013-10-04 02:00,-0.0,264.009,261.662,247.067,263.745,262.185,249.838,-0.0,-0.0,230.43,248.775
2013-10-04 03:00,-0.00128689,258.096,259.54,245.723,261.791,261.831,250.765,-0.0,-0.0,233.53,250.238
2013-10-04 04:00,-0.0,256.062,257.683,244.765,259.974,259.321,247.959,-0.0,-0.0,233.159,249.198
2013-10-04 05:00,-0.00147036,254.966,256.644,243.93,258.865,258.591,248.634,-0.0,-0.0,232.328,248.348
2013-10-04 06:00,0.00179336,253.81,252.666,241.5,253.469,252.144,242.527,-0.0,-0.0,231.236,244.998
2013-10-04 07:00,-0.0,245.913,239.799,234.183,239.669,237.815,231.743,-0.0,-0.0,225.254,235.146
2013-10-04 08:00,-0.0,268.382,257.854,243.79,257.17,252.732,239.322,-0.0,-0.0,226.216,240.446
2013-10-04 09:00,-21.1673,268.073,261.017,246.399,260.706,257.115,243.949,-23.8964,-30.8672,229.007,245.46
2013-10-04 10:00,0.494547,277.661,257.339,244.349,255.827,249.348,236.153,0.476206,0.548224,223.538,238.027
2013-10-04 11:00,0.509804,269.283,237.841,233.513,235.414,232.221,226.402,0.548027,0.623164,219.26,227.694
2013-10-04 12:00,0.515778,285.512,253.595,241.936,252.262,247.501,235.072,0.502289,0.561584,226.027,239.656
2013-10-04 13:00,0.503888,274.551,245.248,237.415,245.024,242.805,234.604,0.72723,0.786181,223.434,235.444
2013-10-04 14:00,0.502079,287.729,264.94,248.771,266.338,265.309,251.553,0.658758,0.714531,233.01,250.849
2013-10-04 15:00,0.263844,256.062,213.921,222.027,211.825,211.635,211.992,0.594339,0.63928,208.838,210.353
2013-10-04 16:00,0.312826,258.576,201.41,217.106,200.733,199.981,202.743,0.805289,0.876137,201.973,202.271
2013-10-04 17:00,0.352391,259.045,206.643,218.041,204.584,204.159,207.197,0.843216,0.925257,204.573,205.109
2013-10-04 18:00,0.52223,273.338,233.938,230.743,233.041,231.459,226.402,0.827471,0.908653,224.959,231.53
2013-10-04 19:00,0.51171,284.73,258.871,244.765,258.304,253.316,238.876,0.521088,0.558489,224.661,238.027
2013-10-04 20:00,0.64363,291.315,278.845,256.664,280.493,278.004,257.653,0.628267,0.633228,231.076,249.721
2013-10-04 21:00,0.593602,271.798,263.712,247.859,264.095,261.831,248.499,0.524454,0.677443,228.048,242.725
2013-10-04 22:00,0.00596253,263.255,265.394,248.771,268.69,268.339,254.137,-0.0,-0.0,231.63,251.051
2013-10-04 23:00,-0.0857843,280.239,274.392,254.217,276.163,273.832,255.532,-0.0609183,-0.0642548,231.787,250.032
2013-10-05 00:00,-0.0,261.251,261.501,246.934,264.618,263.412,251.814,-0.0,-0.0,232.02,249.513
2013-10-05 01:00,0.00151605,257.605,258.365,244.349,261.431,260.942,248.903,-0.0,-0.0,232.633,248.133
2013-10-05 02:00,-0.0,254.396,255.587,243.368,258.678,258.04,247.551,-0.0,-0.0,232.405,246.818
2013-10-05 03:00,-0.0,264.009,260.692,246.533,262.329,259.864,248.768,-0.0,-0.0,232.86,247.371
2013-10-05 04:00,-0.0,280.613,277.35,255.858,278.873,275.551,256.285,-0.0,-0.0,230.184,249.928
2013-10-05 05:00,0.00147519,259.954,260.201,245.723,262.507,261.477,249.037,-0.0,-0.0,229.093,247.151
2013-10-05 06:00,-0.0,251.944,252.29,240.617,254.461,253.703,244.09,-0.0,-0.0,230.101,244.647
2013-10-05 07:00,-0.00254337,237.078,234.208,230.743,233.31,232.221,228.949,-0.0,-0.0,222.692,229.489
2013-10-05 08:00,-0.00492598,249.156,247.769,238.195,248.733,247.501,239.47,-0.0,-0.0,228.488,240.835
2013-10-05 09:00,4.97811,245.913,238.585,233.344,238.446,236.872,231.743,6.67368,8.79497,224.76,233.461
2013-10-05 10:00,0.545276,275.707,253.411,241.354,254.657,253.703,244.372,0.643929,0.733985,230.43,244.53
2013-10-05 11:00,0.568402,293.356,271.162,252.045,273.372,268.835,251.683,0.43503,0.48112,231.394,248.241
2013-10-05 12:00,0.625604,297.848,277.224,256.205,279.613,277.243,256.66,0.563824,0.57851,231.076,249.928
2013-10-05 13:00,0.422295,298.045,281.148,258.134,282.66,279.511,257.158,0.326149,0.374481,230.755,249.513
2013-10-05 14:00,0.462504,297.749,280.909,257.91,283.656,282.467,260.461,0.393759,0.425764,232.557,251.652
2013-10-05 15:00,0.482422,292.414,278.35,256.778,281.366,280.554,259.977,0.569157,0.584687,232.784,252.146
2013-10-05 16:00,0.496015,295.796,276.971,255.858,280.201,278.911,259.492,0.492458,0.509653,232.481,251.652
2013-10-05 17:00,0.549185,294.491,270.746,252.168,272.582,270.311,252.853,0.527386,0.548821,229.517,247.917
2013-10-05 18:00,0.677186,291.44,260.201,245.859,260.158,257.115,243.099,0.749358,0.788577,226.871,243.214
2013-10-05 19:00,0.848823,302.341,260.036,246.13,260.888,258.408,246.732,0.747913,0.831392,230.266,246.483
2013-10-05 20:00,0.772413,290.041,274.785,254.572,277.075,274.929,256.41,0.692064,0.738538,229.935,249.928
2013-10-05 21:00,0.329504,272.836,273.997,254.099,277.678,276.938,258.882,0.450677,0.460598,230.835,251.452
2013-10-05 22:00,-0.0,273.088,267.033,249.924,266.678,262.361,247.415,-0.0,-0.0,227.691,244.175
2013-10-05 23:00,-0.0887528,259.045,244.598,236.466,243.209,241.027,234.291,-0.0657535,-0.0644009,225.546,233.928
2013-10-06 00:00,-0.0,273.088,264.94,247.859,264.618,261.831,246.594,-0.0,-0.0,227.51,244.53
2013-10-06 01:00,-0.0,258.576,246.523,237.572,244.575,242.585,233.344,-0.0,-0.0,225.352,234.845
2013-10-06 02:00,-0.0,281.346,277.601,256.089,278.128,276.323,256.41,-0.0,0.0013604,229.007,251.051
2013-10-06 03:00,-0.00129251,284.888,284.869,260.337,286.722,285.493,262.61,-0.0,0.00130487,232.251,256.36
2013-10-06 04:00,-0.0,284.73,284.869,260.228,287.134,285.635,262.373,-0.0,-0.0,232.709,256.982
2013-10-06 05:00,-0.0,256.589,243.94,236.625,242.049,239.667,232.227,-0.0,-0.0,224.156,232.988
2013-10-06 06:00,-0.0,279.667,276.08,254.69,276.468,274.617,254.773,-0.0,-0.0,228.921,250.032
2013-10-06 07:00,-0.0,279.278,274.785,253.98,275.396,272.883,253.497,-0.0,-0.0,230.43,251.051
2013-10-06 08:00,-0.0,282.581,282.096,258.358,283.656,282.175,260.34,-0.0,-0.0,233.382,256.001
2013-10-06 09:00,1.53304,280.239,277.224,255.277,278.128,276.477,256.035,1.94703,2.32154,231.943,252.731
2013-10-06 10:00,0.377624,287.587,286.328,260.984,288.222,286.767,262.847,0.235804,0.352642,234.897,256.894
2013-10-06 11:00,0.458613,294.713,288.843,262.89,290.367,288.027,263.318,0.229644,0.370896,235.108,255.911
2013-10-06 12:00,0.378592,299.391,292.725,265.254,294.021,290.511,263.787,0.165447,0.295905,235.178,255.457
2013-10-06 13:00,0.304302,302.426,295.639,267.348,296.935,293.082,264.488,0.128826,0.236868,234.968,255.275
2013-10-06 14:00,0.255424,304.872,297.59,268.421,299.164,294.812,265.069,0.104368,0.195003,234.756,254.814
2013-10-06 15:00,0.222355,305.798,298.358,269.0,299.654,294.944,265.532,0.089996,0.168977,234.686,253.785
2013-10-06 16:00,0.202297,305.722,298.167,268.615,299.287,294.282,265.185,0.0840465,0.15349,235.038,254.068
2013-10-06 17:00,0.194304,304.478,297.107,268.227,298.178,293.483,264.372,0.086959,0.149924,234.113,253.69
2013-10-06 18:00,0.259354,304.398,291.07,264.747,292.6,287.888,262.017,0.155841,0.217913,233.896,253.309
2013-10-06 19:00,0.803488,301.565,268.916,251.18,271.142,269.984,254.9,0.658931,0.771769,233.456,252.342
2013-10-06 20:00,0.554064,295.69,282.916,259.354,283.797,279.81,256.785,0.476024,0.551135,231.236,248.669
2013-10-06 21:00,0.47284,290.301,288.736,263.099,290.632,288.306,263.2,0.611066,0.65323,233.382,253.88
2013-10-06 22:00,-0.0,287.729,286.992,262.049,288.897,287.048,262.847,-0.0,-0.0,235.317,254.999
2013-10-06 23:00,-0.0973046,277.451,273.199,254.099,275.242,272.405,255.784,-0.0682641,-0.0617476,236.94,254.349
2013-10-07 00:00,0.00189632,258.576,261.179,246.399,264.444,264.106,251.814,-0.0,-0.0,236.475,252.439
2013-10-07 01:00,-0.0,257.605,259.373,245.451,262.685,262.537,251.028,-0.0,-0.0,235.455,250.849
2013-10-07 02:00,0.0013502,259.045,260.036,245.723,262.685,262.361,251.291,-0.0,-0.0,235.386,251.152
2013-10-07 03:00,-0.00129543,263.255,261.34,246.533,263.745,262.185,249.971,-0.0,-0.0,235.178,250.95
2013-10-07 04:00,-0.0,265.095,264.175,248.382,266.167,264.623,251.683,-0.0,0.00134786,234.185,250.748
2013-10-07 05:00,-0.00148505,260.827,261.179,246.265,263.217,262.361,250.369,-0.0,-0.0,235.247,250.544
2013-10-07 06:00,-0.00181749,278.883,276.718,255.974,278.576,276.477,257.9,-0.0,-0.0,235.038,251.751
2013-10-07 07:00,-0.00257801,264.377,263.401,247.597,265.482,263.933,251.291,-0.0,-0.0,235.525,251.051
2013-10-07 08:00,-0.00506322,255.521,258.534,244.765,261.25,261.654,250.633,-0.0,-0.0,235.455,250.238
2013-10-07 09:00,2.37607,261.251,258.703,244.765,261.25,260.764,249.572,2.43536,2.90379,234.185,249.617
2013-10-07 10:00,0.442695,274.787,260.528,246.13,260.706,256.928,243.525,0.45374,0.50338,229.178,244.175
2013-10-07 11:00,0.57568,289.514,267.033,250.429,267.69,263.933,246.869,0.462537,0.53914,230.511,245.46
2013-10-07 12:00,0.460343,298.533,274.261,253.98,275.857,272.246,253.368,0.335351,0.4209,232.175,248.775
2013-10-07 13:00,0.568377,294.491,260.201,245.859,262.329,261.477,249.171,0.650459,0.711181,233.603,248.562
2013-10-07 14:00,0.515876,283.093,256.819,243.79,258.304,256.742,245.211,0.676115,0.726827,233.234,246.707
2013-10-07 15:00,0.429127,287.01,262.774,247.597,264.618,264.106,251.553,0.489272,0.532921,237.006,251.751
2013-10-07 16:00,0.397565,286.717,262.931,247.332,264.27,263.063,249.438,0.390773,0.448212,234.543,250.135
2013-10-07 17:00,0.198124,302.596,294.446,266.954,295.043,289.826,263.083,0.0926736,0.158056,235.867,254.256
2013-10-07 18:00,0.193759,301.39,295.045,267.249,295.93,291.464,264.022,0.103242,0.161885,237.721,256.001
2013-10-07 19:00,0.208484,298.726,292.52,265.557,293.506,289.551,262.965,0.159065,0.198913,237.657,256.539
2013-10-07 20:00,0.925913,304.557,279.823,258.134,281.221,278.004,258.023,0.783969,0.951164,237.913,255.366
2013-10-07 21:00,1.44128,288.012,280.429,258.134,282.374,279.511,259.37,0.930762,1.33175,237.592,255.457
2013-10-07 22:00,-0.0,269.865,271.437,252.656,274.312,273.675,256.66,-0.0,-0.0,237.333,254.814
2013-10-07 23:00,-0.128205,271.798,270.049,251.922,273.057,272.565,256.535,-0.0613549,-0.0562742,237.203,254.999
2013-10-08 00:00,-0.0,268.686,269.626,251.676,271.945,270.798,256.035,-0.0,-0.0,236.808,254.256
2013-10-08 01:00,-0.0,272.061,273.065,253.86,276.01,274.147,256.66,-0.0,-0.0,236.274,255.275
2013-10-08 02:00,-0.0,277.24,268.63,251.18,267.185,263.237,247.142,-0.0,-0.0,230.674,246.032
2013-10-08 03:00,-0.00129841,283.594,280.789,258.358,281.51,279.211,257.9,-0.0,-0.0,234.756,253.785
2013-10-08 04:00,-0.0,285.045,284.982,260.661,286.997,285.065,262.255,-0.0,-0.0,236.207,256.271
2013-10-08 05:00,0.00149008,285.357,284.755,260.445,286.585,284.636,261.779,-0.0,-0.0,234.756,255.457
2013-10-08 06:00,-0.0,285.045,283.726,260.228,285.618,283.484,260.942,-0.0,-0.00184316,233.159,253.785
2013-10-08 07:00,0.00259559,283.924,282.566,259.464,284.22,281.293,259.249,-0.0,-0.0,233.53,253.213
2013-10-08 08:00,-0.00513394,266.797,263.401,248.252,265.138,262.361,250.104,-0.0,-0.0,232.557,249.408
2013-10-08 09:00,0.279261,280.799,280.669,258.469,283.23,280.702,259.614,0.945798,0.657837,232.251,252.537
2013-10-08 10:00,0.575245,280.613,265.846,249.029,268.191,266.835,252.075,0.59616,0.627203,230.835,250.646
2013-10-08 11:00,0.749739,295.902,263.712,247.859,266.167,265.48,252.723,0.61007,0.700384,231.787,250.544
2013-10-08 12:00,0.441109,299.108,287.322,261.731,288.222,284.492,260.461,0.235809,0.344036,232.784,253.405
2013-10-08 13:00,0.389975,300.769,284.982,260.553,286.447,282.758,260.098,0.270374,0.335218,232.935,253.5
2013-10-08 14:00,0.436198,300.498,277.098,255.858,279.17,276.631,258.27,0.360764,0.41101,233.159,254.536
2013-10-08 15:00,0.335771,293.702,275.176,254.336,276.163,273.517,256.035,0.34301,0.37337,233.159,253.69
2013-10-08 16:00,0.255377,288.291,267.618,250.177,266.167,263.586,248.634,0.266044,0.307107,230.43,247.917
2013-10-08 17:00,0.338865,261.251,217.685,223.076,216.715,216.331,216.269,0.779944,0.861544,215.31,216.652
2013-10-08 18:00,0.43354,268.073,209.734,220.298,208.556,208.766,209.856,0.840042,0.932604,208.838,209.707
2013-10-08 19:00,0.496148,279.081,250.76,241.207,249.998,247.085,237.373,0.559471,0.650927,227.959,240.053
2013-10-08 20:00,0.951255,275.251,226.261,227.817,225.615,223.905,221.782,0.966511,1.16876,221.145,224.204
2013-10-08 21:00,2.0617,269.865,0.0,244.21,258.116,256.555,244.09,1.35997,2.10561,229.093,243.818
2013-10-08 22:00,-0.0,276.811,270.885,252.412,271.785,269.329,251.553,-0.0,-0.0,232.784,250.34
2013-10-08 23:00,-0.0698584,258.576,249.583,239.871,248.307,247.085,238.577,-0.0733448,-0.0536,227.87,240.576
2013-10-09 00:00,0.00190412,230.231,221.841,224.908,220.852,219.777,217.639,-0.0,-0.0,216.963,219.134
2013-10-09 01:00,-0.0,284.249,284.071,259.683,286.033,284.492,261.66,-0.0,-0.0,235.936,255.911
2013-10-09 02:00,-0.00135582,284.087,284.071,259.683,286.31,284.779,262.492,-0.0,-0.0,238.981,258.457
2013-10-09 03:00,-0.00130147,283.924,283.956,259.683,286.033,284.492,262.728,-0.0,-0.0,239.774,258.713
2013-10-09 04:00,-0.00134243,283.76,284.3,260.119,286.31,285.208,262.965,-0.0,-0.0,241.476,260.627
2013-10-09 05:00,-0.0,283.261,284.3,260.011,286.447,285.493,263.083,-0.0,-0.0,241.419,261.113
2013-10-09 06:00,-0.00183399,281.883,282.331,258.913,284.501,283.484,262.255,-0.0,-0.0,241.93,260.871
2013-10-09 07:00,-0.00261334,282.923,284.3,259.902,286.585,285.635,263.2,-0.0,-0.0,241.874,261.275
2013-10-09 08:00,-0.0,283.76,284.869,260.445,286.86,286.06,263.318,-0.0,-0.0,242.042,262.072
2013-10-09 09:00,1.56072,280.613,282.096,258.58,284.361,283.773,261.54,1.57317,1.7257,242.099,261.755
2013-10-09 10:00,0.609199,290.685,282.214,258.802,285.201,284.922,262.847,0.523507,0.550767,242.984,262.388
2013-10-09 12:00,0.640861,298.533,281.86,259.024,284.781,284.779,262.728,0.650556,0.676554,242.6,262.623
2013-10-09 13:00,0.462032,300.589,283.38,259.683,286.172,285.635,262.965,0.388817,0.438007,242.489,262.545
2013-10-09 14:00,0.387208,299.391,285.095,260.984,287.543,286.626,263.67,0.299015,0.36035,241.419,262.701
2013-10-09 15:00,0.326588,299.203,286.105,261.838,288.493,287.048,263.553,0.235403,0.296616,240.899,262.623
2013-10-09 16:00,0.326147,299.765,286.439,261.944,288.897,287.329,263.436,0.232769,0.300249,240.665,262.935
2013-10-09 17:00,0.254069,300.858,292.417,265.456,294.149,291.464,265.762,0.14731,0.221648,240.841,263.552
2013-10-09 18:00,0.211406,299.579,294.346,266.657,295.93,293.483,265.762,0.109935,0.186539,241.073,264.01
2013-10-09 19:00,0.255557,298.045,292.827,265.658,294.405,292.679,265.993,0.162285,0.234964,240.607,264.238
2013-10-09 20:00,0.229973,293.472,292.211,265.557,294.021,292.545,266.222,0.181053,0.240318,241.476,264.765
2013-10-09 21:00,0.235208,288.977,290.017,263.928,292.079,291.193,266.108,0.47796,0.451167,241.704,264.989
2013-10-09 22:00,-0.0,287.155,288.628,262.786,290.632,290.238,265.878,-0.0,-0.006165,241.59,264.839
2013-10-09 23:00,-0.058841,287.3,288.087,262.576,290.234,289.964,265.185,-0.0735446,-0.0480885,240.957,264.615
2013-10-10 00:00,-0.00190827,285.818,287.869,262.471,290.101,289.689,265.416,-0.0,-0.0,240.43,264.238
2013-10-10 01:00,-0.0,285.512,287.432,262.049,289.701,289.551,265.416,-0.0,-0.0,239.714,264.01
2013-10-10 02:00,-0.00135874,284.888,286.992,261.731,289.166,288.999,265.762,-0.0,-0.0,239.043,263.706
2013-10-10 03:00,-0.00130458,284.73,286.55,262.049,288.897,288.584,265.069,-0.0,-0.0,239.043,263.782
2013-10-10 04:00,-0.0,284.249,286.105,261.198,288.358,288.167,264.953,-0.0,-0.0,237.849,263.706
2013-10-10 05:00,-0.00150032,283.428,285.208,260.876,287.407,287.048,264.255,-0.0,-0.0,237.006,262.857
2013-10-10 06:00,-0.0,283.76,285.321,260.876,287.543,287.609,263.905,-0.0,-0.0,236.874,263.244
2013-10-10 07:00,-0.0,283.261,285.546,261.091,287.815,287.748,264.953,-0.0,-0.0,237.785,263.476
2013-10-10 08:00,-0.0,284.087,285.77,261.091,287.951,288.167,265.301,-0.0,-0.0,237.203,263.476
2013-10-10 09:00,0.495892,284.087,285.994,261.198,288.222,288.027,265.185,0.892225,0.876107,237.528,263.399
2013-10-10 10:00,0.449278,288.977,288.628,262.89,290.897,290.101,265.416,0.239654,0.444502,237.333,263.476
2013-10-10 11:00,0.461696,295.042,292.417,265.456,294.405,293.216,266.909,0.209711,0.417557,237.592,263.552
2013-10-10 12:00,0.384353,298.822,294.846,266.855,296.809,295.076,267.137,0.164168,0.339524,236.874,263.012
2013-10-10 13:00,0.299146,300.947,296.621,268.033,298.426,296.127,266.681,0.126049,0.263724,236.808,262.623
2013-10-10 14:00,0.250397,303.181,299.213,269.575,301.472,298.976,268.384,0.0990802,0.213411,236.274,262.623
2013-10-10 15:00,0.219312,304.636,300.805,270.428,303.144,300.632,268.946,0.0851513,0.185934,236.139,262.623
2013-10-10 16:00,0.199587,305.184,301.36,270.805,303.499,300.759,268.609,0.0771018,0.170012,236.675,262.23
2013-10-10 17:00,0.190239,304.319,300.712,269.86,303.144,300.252,268.609,0.0758689,0.16144,237.463,262.151
2013-10-10 18:00,0.189446,302.68,299.966,269.575,302.311,299.743,268.609,0.0844229,0.164414,238.168,262.466
2013-10-10 19:00,0.177615,298.726,296.913,267.935,299.287,297.3,267.365,0.100258,0.167819,236.071,261.113
2013-10-10 20:00,0.301587,295.151,291.487,264.133,293.119,291.057,263.318,0.238329,0.328827,233.382,258.543
2013-10-10 21:00,0.115356,290.041,291.383,264.031,293.764,293.216,267.251,0.332085,0.302793,235.317,260.871
2013-10-10 22:00,-0.00614002,287.01,287.541,262.155,289.835,289.413,265.069,-0.0,0.00619872,232.784,259.304
2013-10-10 23:00,-0.0533884,287.155,287.76,262.049,290.101,289.826,265.532,-0.078512,-0.0453884,232.86,259.721
2013-10-11 00:00,-0.00191259,284.41,285.095,260.228,287.134,286.767,262.728,-0.0,-0.0,231.315,258.114
2013-10-11 01:00,-0.0,284.41,285.095,260.337,286.997,286.485,263.318,-0.0,-0.0,231.156,258.028
2013-10-11 02:00,0.00136175,277.026,272.256,252.777,271.945,269.821,251.159,-0.0,-0.0,227.42,249.408
2013-10-11 03:00,-0.0,251.282,242.37,235.01,240.87,241.027,233.503,-0.0,0.00132027,224.46,232.508
2013-10-11 04:00,0.00134999,267.761,260.528,245.314,260.524,258.591,244.932,-0.0,-0.0,228.224,244.647
2013-10-11 05:00,-0.0,276.811,273.199,252.777,274.156,272.565,253.368,-0.0,-0.0,229.093,251.152
2013-10-11 06:00,-0.0,282.234,282.682,258.913,284.361,284.349,262.728,-0.0,0.00186847,230.266,256.628
2013-10-11 07:00,-0.0,233.989,232.839,230.207,233.577,232.474,229.781,-0.0,-0.0,225.643,229.489
2013-10-11 08:00,-0.00535422,244.063,239.074,233.513,240.392,239.438,234.76,-0.0,-0.0,227.78,234.542
2013-10-11 09:00,0.799039,248.394,244.815,236.306,245.248,244.758,238.428,1.12758,1.45202,229.178,238.165
2013-10-11 10:00,0.413054,274.314,265.696,248.252,265.138,263.933,249.838,0.413661,0.560487,230.101,246.371
2013-10-11 11:00,0.454212,293.702,288.736,262.681,290.632,288.584,262.965,0.220628,0.424766,231.156,254.162
2013-10-11 12:00,0.365765,299.297,295.045,266.557,297.558,295.734,266.566,0.159188,0.329575,232.709,255.73
2013-10-11 13:00,0.29688,303.015,298.834,268.904,301.832,299.488,268.271,0.122127,0.267202,232.86,255.911
2013-10-11 14:00,0.247309,304.715,300.805,270.145,303.854,301.264,268.946,0.0956631,0.220523,233.382,256.894
2013-10-11 15:00,0.21647,306.101,302.185,271.086,305.027,302.144,269.059,0.0819149,0.191679,233.677,256.091
2013-10-11 16:00,0.199246,306.475,302.64,271.273,305.493,302.269,269.171,0.0748613,0.176007,232.784,255.275
2013-10-11 17:00,0.192686,306.025,302.094,270.805,305.261,302.394,268.946,0.073416,0.172296,232.251,254.999
2013-10-11 18:00,0.189129,303.836,300.34,270.05,303.263,300.379,267.592,0.0814722,0.174188,231.943,254.256
2013-10-11 19:00,0.227247,300.947,296.131,267.348,298.795,295.865,266.108,0.130839,0.222537,232.175,253.785
2013-10-11 20:00,0.212399,296.738,293.843,265.859,296.433,294.149,266.108,0.179838,0.24275,231.473,253.69
2013-10-11 21:00,0.113125,292.053,290.756,263.825,293.377,292.141,265.647,0.229879,0.228413,230.43,253.405
2013-10-11 22:00,-0.0,282.581,277.35,255.393,277.828,276.169,255.153,-0.0,-0.0,226.685,246.145
2013-10-11 23:00,-0.0422736,284.087,280.789,257.572,282.374,281.441,259.492,-0.0954479,-0.0426777,228.488,249.093
2013-10-12 00:00,-0.00191708,285.97,285.095,260.553,286.722,284.779,260.461,-0.0,0.0019354,229.178,250.646
2013-10-12 01:00,-0.00153743,287.155,287.978,262.049,290.632,289.551,264.605,-0.0,-0.0,230.755,252.925
2013-10-12 02:00,-0.0,285.97,286.439,261.305,288.763,287.188,262.847,-0.0,-0.0,230.916,252.146
2013-10-12 03:00,-0.00131102,264.377,255.23,242.799,254.657,248.941,239.173,-0.0,-0.0,227.87,240.316
2013-10-12 04:00,-0.0,251.282,245.463,237.728,245.914,242.364,236.153,-0.0,-0.0,229.007,237.608
2013-10-12 05:00,0.00151078,262.074,252.479,240.913,251.856,247.708,238.128,-0.0,-0.0,229.517,240.053
2013-10-12 06:00,0.00185926,262.074,255.05,242.656,255.244,250.557,240.938,-0.0,-0.0,229.769,242.478
2013-10-12 07:00,-0.0,238.442,237.841,232.834,238.199,237.345,233.503,-0.0,-0.0,227.78,234.082
2013-10-12 08:00,-0.0,264.377,260.528,245.314,260.888,259.684,247.823,-0.0,-0.0,229.348,245.114
2013-10-12 09:00,0.88895,253.206,245.89,237.258,245.914,244.544,237.676,1.1092,1.41702,228.224,237.327
2013-10-12 10:00,0.469961,290.429,288.412,262.786,291.16,289.551,263.905,0.249162,0.447848,229.601,252.439
2013-10-12 11:00,0.641781,300.225,262.141,247.332,263.393,260.045,247.823,0.456855,0.583125,230.184,245.69
2013-10-12 12:00,0.379706,300.408,292.211,265.153,294.277,290.375,263.2,0.173002,0.330047,230.511,250.748
2013-10-12 13:00,0.294648,302.68,296.425,267.74,299.041,295.339,265.532,0.124148,0.26222,231.394,251.152
2013-10-12 14:00,0.185379,288.977,278.845,256.664,278.873,276.784,255.28,0.15696,0.235204,231.156,246.032
2013-10-12 15:00,0.225719,293.124,280.187,257.006,280.931,276.323,253.881,0.184984,0.282713,231.709,247.151
2013-10-12 16:00,0.226265,268.686,257.511,243.226,257.739,255.992,244.932,0.321051,0.401632,231.943,243.214
2013-10-12 17:00,0.215742,301.39,292.314,265.153,293.635,289.137,261.66,0.110532,0.202544,233.234,249.617
2013-10-12 18:00,0.241816,304.636,294.546,266.657,296.433,291.193,263.318,0.123408,0.214029,234.543,251.552
2013-10-12 19:00,0.199567,299.858,294.746,266.954,297.184,293.483,264.837,0.12865,0.199186,235.038,251.949
2013-10-12 20:00,0.9545,309.588,280.187,257.798,280.785,274.304,254.137,0.706729,0.899114,233.75,248.669
2013-10-12 21:00,1.90768,292.414,277.977,256.778,278.873,273.042,253.24,1.27716,1.88113,232.097,248.348
2013-10-12 22:00,-0.0,285.357,282.682,258.802,284.501,279.959,257.034,-0.0,-0.0,233.234,249.617
2013-10-12 23:00,-0.039577,275.02,265.995,249.924,265.482,260.225,245.767,-0.112497,-0.0428093,232.784,244.647
2013-10-13 00:00,-0.00192174,286.717,285.882,261.198,288.087,285.635,262.136,-0.00162714,-0.00194011,231.865,249.928
2013-10-13 01:00,-0.00154092,244.063,243.496,235.662,245.914,245.399,238.577,-0.0,-0.0,232.02,238.986
2013-10-13 02:00,-0.0,284.73,280.909,258.134,282.517,279.061,257.282,-0.0,-0.0,233.01,248.562
2013-10-13 03:00,-0.00131433,286.421,286.105,261.519,288.493,286.485,261.898,-0.0,-0.0,233.896,250.544
2013-10-13 04:00,-0.0,262.475,253.411,242.369,252.465,247.915,239.47,-0.0,-0.0,232.557,240.576
2013-10-13 05:00,-0.0,268.073,260.854,246.934,259.606,253.703,243.525,-0.0,-0.0,233.382,243.093
2013-10-13 06:00,-0.0018678,270.434,268.054,251.056,270.006,268.339,253.497,-0.0,-0.0,234.968,249.721
2013-10-13 07:00,-0.0026857,283.093,279.213,257.685,280.201,277.243,256.16,-0.0,-0.0,231.473,248.133
2013-10-13 08:00,-0.0,280.05,275.565,255.043,276.315,272.405,252.982,-0.0,-0.0,232.251,248.455
2013-10-13 09:00,0.87742,280.799,274.655,254.572,275.396,271.926,251.422,0.84904,1.1389,231.394,247.261
2013-10-13 10:00,0.343244,288.977,286.439,261.944,288.493,285.777,261.421,0.209691,0.346526,235.317,253.405
2013-10-13 11:00,0.529491,301.565,269.626,251.676,270.006,267.171,252.335,0.360256,0.482052,236.139,251.352
2013-10-13 12:00,0.361345,299.765,289.805,264.031,290.234,286.06,260.701,0.169493,0.321982,236.675,253.595
2013-10-13 13:00,0.299414,302.596,294.646,267.249,296.056,291.193,262.847,0.128525,0.260098,237.721,254.907
2013-10-13 14:00,0.306211,302.171,281.267,258.691,282.374,276.169,255.658,0.174609,0.27507,237.849,253.974
2013-10-13 15:00,0.216872,306.326,298.929,269.575,300.627,295.471,264.605,0.0846718,0.189753,236.675,254.629
2013-10-13 16:00,0.196108,305.722,297.204,268.807,298.426,292.679,262.255,0.0830224,0.175428,233.968,252.925
2013-10-13 17:00,0.160526,299.013,288.303,262.576,288.222,282.321,255.909,0.101066,0.163446,231.156,249.198
2013-10-13 18:00,0.267874,295.26,276.336,255.51,274.312,268.505,248.634,0.200208,0.277113,226.871,243.818
2013-10-13 19:00,0.398313,305.416,288.843,263.618,290.234,284.779,259.492,0.260603,0.370134,232.633,252.828
2013-10-13 20:00,0.258682,297.549,291.591,265.052,293.506,289.826,263.553,0.27294,0.301333,232.328,253.88
2013-10-13 21:00,0.391385,285.045,279.336,257.233,279.907,277.396,257.777,0.386616,0.417078,230.835,250.95
2013-10-13 22:00,-0.0,282.408,278.101,256.778,279.318,275.24,255.532,-0.0,0.0063103,230.674,250.442
2013-10-13 23:00,-0.0397039,284.41,282.448,259.574,284.781,281.588,259.127,-0.0960492,-0.0372203,231.315,250.95
2013-10-14 00:00,-0.00192658,265.446,265.846,249.158,268.024,267.84,253.111,-0.00163124,-0.001945,230.511,247.917
2013-10-14 01:00,0.00154452,280.982,276.591,254.926,277.226,274.617,255.28,-0.0,0.00155928,231.315,247.481
2013-10-14 02:00,-0.00137126,275.707,273.199,253.621,275.55,273.2,255.532,-0.0,-0.0,231.156,249.721
2013-10-14 03:00,-0.0013177,275.48,265.995,250.177,266.167,260.764,246.044,-0.0,-0.0,231.076,243.577
2013-10-14 04:00,-0.0,265.446,256.819,243.65,256.021,250.757,240.5,-0.0,-0.0,231.943,241.221
2013-10-14 05:00,-0.0,260.827,252.666,242.081,253.069,250.156,240.793,-0.0,-0.0,232.405,241.221
2013-10-14 06:00,-0.0,285.665,283.726,260.011,285.479,282.321,259.735,-0.0,-0.0,232.405,250.442
2013-10-14 07:00,-0.0,282.581,280.429,258.022,282.231,279.211,257.653,-0.0,-0.0,232.251,249.093
2013-10-14 08:00,-0.0,284.41,284.071,260.228,286.31,284.349,261.421,-0.0,-0.0,231.865,250.95
2013-10-14 09:00,0.0756096,283.924,283.841,260.011,286.31,284.492,261.779,0.480139,0.381662,230.996,250.748
2013-10-14 10:00,0.447149,290.171,287.322,262.261,289.3,286.626,262.492,0.236625,0.42538,230.835,250.646
2013-10-14 11:00,0.439651,297.649,291.798,264.95,293.506,289.551,262.847,0.197074,0.398756,232.02,250.95
2013-10-14 12:00,0.363435,302.511,293.133,265.859,294.533,289.689,262.492,0.161732,0.325952,231.709,250.646
2013-10-14 13:00,0.294454,303.998,296.229,267.74,297.558,292.814,263.787,0.121129,0.260811,231.315,251.152
2013-10-14 14:00,0.246946,306.251,298.071,269.096,299.287,294.016,263.905,0.0992645,0.217829,230.835,251.152
2013-10-14 15:00,0.215284,307.857,299.024,269.479,300.141,294.415,263.67,0.0855397,0.189416,230.266,251.051
2013-10-14 16:00,0.199515,307.786,298.739,269.288,299.776,294.149,263.318,0.0797429,0.178903,230.916,250.442
2013-10-14 17:00,0.200009,306.025,295.738,267.74,296.809,291.057,262.61,0.105552,0.18809,231.473,250.544
2013-10-14 18:00,0.208006,303.264,293.438,266.458,294.916,289.826,262.136,0.135583,0.209995,230.996,250.646
2013-10-14 19:00,0.304892,298.822,287.76,262.471,289.166,284.779,259.977,0.258151,0.323767,231.236,248.882
2013-10-14 21:00,0.0639271,291.809,289.486,263.515,291.423,288.167,262.492,0.30672,0.279666,234.113,251.252
2013-10-14 22:00,-0.00629107,289.647,288.195,262.89,290.234,288.027,262.61,-0.0,-0.0,233.603,251.051
2013-10-14 23:00,-0.0369907,284.087,280.308,258.022,281.799,278.458,257.406,-0.108415,-0.0373443,232.251,249.303
2013-10-15 00:00,-0.0019316,282.059,279.091,257.798,280.931,276.938,257.158,-0.00163549,-0.00195007,231.394,249.408
2013-10-15 01:00,0.00154823,275.251,267.909,250.931,267.69,261.831,247.279,-0.0,-0.0,230.755,244.881
2013-10-15 02:00,-0.0,265.446,261.017,246.265,261.611,258.408,246.869,-0.0,0.00138772,231.156,245.575
2013-10-15 03:00,-0.0,275.02,273.599,253.98,275.242,272.565,254.9,-0.0,-0.0,231.552,248.562
2013-10-15 04:00,-0.0,263.255,263.867,248.382,266.508,264.795,251.814,-0.0,-0.0,231.552,248.562
2013-10-15 05:00,0.00152684,267.444,267.764,250.555,269.842,268.835,254.392,-0.0,-0.0,231.236,248.882
2013-10-15 06:00,-0.0,254.396,254.69,242.942,256.021,254.855,245.905,-0.0,-0.0,231.943,244.647
2013-10-15 07:00,-0.00272253,273.088,265.394,249.414,265.997,261.654,248.229,-0.0,-0.0,231.943,246.483
2013-10-15 08:00,0.00566584,258.096,254.871,242.513,256.213,254.472,245.35,-0.0,-0.0,231.709,244.647
2013-10-15 09:00,0.898861,284.087,278.598,257.12,279.76,275.861,256.285,0.643977,0.872551,231.394,248.562
2013-10-15 10:00,0.425602,291.809,287.102,262.261,289.032,285.493,261.062,0.241439,0.40389,231.865,249.825
2013-10-15 11:00,0.54026,299.672,288.303,263.203,289.434,284.492,259.37,0.259413,0.462785,232.709,249.303
2013-10-15 12:00,0.486833,305.798,260.201,246.399,261.431,258.04,246.594,0.360854,0.460876,232.633,246.483
2013-10-15 13:00,0.290927,305.569,296.815,268.13,298.178,292.679,263.083,0.123164,0.267134,232.557,250.238
2013-10-15 14:00,0.229016,305.416,296.523,268.033,297.807,292.41,262.847,0.103277,0.213614,233.308,250.95
2013-10-15 15:00,0.272543,303.098,280.187,258.246,280.931,275.706,256.285,0.152486,0.237573,233.896,250.442
2013-10-15 16:00,0.233851,305.184,288.843,263.721,289.835,283.629,259.37,0.116286,0.214851,233.234,250.442
2013-10-15 17:00,0.192869,300.589,289.486,263.411,291.16,286.06,260.822,0.158669,0.230618,233.234,250.95
2013-10-15 18:00,0.588394,295.902,264.635,248.642,267.016,266.16,253.111,0.598668,0.660575,233.603,249.721
2013-10-15 19:00,0.304256,303.755,286.661,262.261,287.951,282.467,259.127,0.257613,0.318542,233.603,251.051
2013-10-15 20:00,1.25647,297.248,266.145,249.924,268.855,268.007,254.009,1.07054,1.24853,234.329,250.95
2013-10-15 21:00,0.835159,276.594,268.773,251.552,270.332,268.339,254.009,0.707128,0.906378,234.185,250.135
2013-10-15 22:00,-0.0,268.986,268.63,250.806,271.142,269.494,254.519,-0.0,-0.0,234.686,251.452
2013-10-15 23:00,-0.0342632,259.505,259.206,245.587,261.971,261.654,250.104,-0.106372,-0.0345908,232.097,248.669
2013-10-16 00:00,-0.0019368,245.01,237.591,233.005,237.451,236.157,230.604,-0.00163989,-0.0,221.031,230.183
2013-10-16 01:00,-0.0,248.394,246.942,238.04,247.446,246.876,238.876,-0.0,-0.0,228.224,239.39
2013-10-16 02:00,-0.0,247.601,247.769,238.503,248.307,247.708,240.793,-0.0,-0.0,228.4,240.316
2013-10-16 03:00,-0.00132464,251.282,251.339,240.766,252.465,251.75,243.099,-0.0,-0.0,230.184,242.725
2013-10-16 04:00,-0.0,252.585,253.963,242.225,256.213,255.992,246.594,-0.0,-0.0,230.916,245.23
2013-10-16 05:00,-0.00153228,238.442,239.317,235.01,241.58,240.802,235.382,-0.0,-0.0,229.093,235.887
2013-10-16 06:00,0.0018937,252.585,253.595,241.936,255.633,255.425,246.457,-0.0,-0.0,231.865,245.345
2013-10-16 07:00,0.00274106,249.89,248.177,238.81,249.368,248.121,240.5,-0.0,-0.0,228.835,239.523
2013-10-16 08:00,0.00574666,255.521,256.294,242.799,256.789,255.803,246.182,-0.0,-0.0,230.755,244.294
2013-10-16 09:00,0.414624,247.601,246.102,236.943,246.355,245.824,238.876,0.945165,1.15917,230.593,239.922
2013-10-16 10:00,0.231788,258.096,255.409,242.513,256.213,255.614,246.457,0.610174,0.67223,231.394,244.764
2013-10-16 11:00,0.223386,255.521,250.566,239.721,250.83,250.156,242.956,0.691546,0.761136,232.557,242.725
2013-10-16 12:00,0.339137,295.26,281.505,258.134,282.087,276.631,254.646,0.208963,0.350853,234.041,248.562
2013-10-16 13:00,0.498874,303.51,269.908,252.168,271.303,269.494,254.519,0.367402,0.457604,234.401,250.238
2013-10-16 14:00,0.464579,288.568,264.175,248.512,266.678,266.498,253.24,0.398617,0.47529,234.615,250.748
2013-10-16 15:00,0.190581,303.836,293.235,265.959,293.119,287.609,261.54,0.103517,0.188773,236.609,253.595
2013-10-16 16:00,0.301447,301.125,274.129,254.69,274.933,270.798,254.264,0.198749,0.283126,237.657,253.021
2013-10-16 17:00,0.187122,303.592,292.314,265.456,292.73,287.188,261.301,0.117959,0.183395,237.657,253.785
2013-10-16 18:00,0.496942,307.283,280.909,258.913,282.66,278.156,257.158,0.406827,0.491725,237.398,253.309
2013-10-16 19:00,0.456552,281.705,264.482,248.512,263.745,261.654,247.959,0.533189,0.610771,236.274,246.258
2013-10-16 20:00,1.11011,295.476,265.092,249.158,266.508,265.138,251.814,1.17658,1.36712,238.42,251.949
2013-10-16 21:00,0.409074,270.151,267.909,250.931,270.332,269.494,254.519,0.380999,0.495582,238.795,254.256
2013-10-16 22:00,-0.0,269.865,266.145,249.797,267.354,264.795,249.838,-0.0,-0.0,234.686,250.544
2013-10-16 23:00,-0.0315205,268.073,263.556,248.382,263.745,260.942,246.732,-0.0776388,-0.0347147,232.097,246.595
2013-10-17 00:00,-0.0,230.231,224.616,226.481,223.443,222.462,222.147,-0.0,-0.00196075,219.382,221.436
2013-10-17 01:00,-0.0,227.984,225.611,227.438,224.384,222.753,221.598,-0.0,-0.0,219.137,222.096
2013-10-17 02:00,0.00138147,259.954,258.871,245.859,260.341,258.224,247.006,-0.0,-0.0,229.517,244.998
2013-10-17 03:00,-0.00132819,257.103,256.819,244.903,257.17,254.472,242.671,-0.0,-0.0,228.835,244.056
2013-10-17 04:00,-0.0,232.213,231.997,230.565,232.502,231.968,228.614,-0.0,-0.0,224.56,229.838
2013-10-17 05:00,-0.0,262.869,263.245,247.991,265.826,264.623,251.159,-0.0,-0.0,231.943,249.721
2013-10-17 06:00,-0.0019024,264.739,265.243,249.158,267.522,266.16,251.814,-0.0,-0.0,233.234,251.949
2013-10-17 07:00,-0.0,271.798,270.189,252.168,271.785,269.329,253.111,-0.0,-0.0,233.01,250.34
2013-10-17 08:00,-0.0,259.954,257.683,244.903,259.051,256.742,244.932,-0.0,-0.0,230.348,246.145
2013-10-17 09:00,0.97822,263.636,255.23,242.656,255.827,253.51,243.099,0.953751,1.22698,230.674,245.23
2013-10-17 10:00,0.743043,288.568,264.94,248.9,266.338,264.967,251.944,0.660943,0.758574,232.481,249.513
2013-10-17 11:00,0.743282,298.918,264.94,249.542,267.69,266.667,252.723,0.658744,0.757401,233.896,252.439
2013-10-17 12:00,0.324648,297.045,286.992,262.681,286.722,281.882,257.777,0.162944,0.314236,233.53,253.213
2013-10-17 13:00,0.359815,301.037,288.52,263.618,289.568,285.777,261.779,0.22995,0.32846,236.341,256.271
2013-10-17 14:00,0.400459,300.769,279.458,258.022,280.785,278.156,258.515,0.309675,0.370492,235.799,254.999
2013-10-17 15:00,0.286006,298.726,283.841,260.228,283.656,279.361,256.785,0.205685,0.283907,234.543,253.974
2013-10-17 16:00,0.199847,292.889,278.474,257.233,277.075,272.246,251.291,0.160854,0.230402,233.085,250.544
2013-10-17 17:00,0.357335,262.074,214.79,221.6,213.381,211.983,211.992,0.761006,0.852307,213.078,214.233
2013-10-17 18:00,0.220143,295.796,282.682,259.683,282.231,277.853,255.909,0.153011,0.237175,233.603,249.928
2013-10-17 19:00,0.635129,280.05,229.373,228.934,226.221,222.169,217.639,0.676479,0.808865,216.83,221.878
2013-10-17 20:00,0.854947,278.684,216.471,223.489,213.381,210.931,211.992,0.810217,0.981898,211.135,212.505
2013-10-17 21:00,0.821377,255.521,215.218,222.868,213.381,211.983,212.202,0.644572,0.889905,211.636,213.092
2013-10-17 22:00,-0.0,267.444,252.101,241.646,248.733,241.921,230.604,-0.0,-0.0,222.04,234.082
2013-10-17 23:00,-0.0345135,274.314,261.982,247.859,259.791,254.089,238.428,-0.0827972,-0.0290362,226.592,240.576
2013-10-18 00:00,-0.00194774,274.551,261.501,247.067,258.116,251.354,236.0,-0.00164915,-0.00196636,225.058,237.608
2013-10-18 01:00,0.00156001,280.799,273.065,253.741,272.423,268.505,249.572,-0.0,-0.0,233.01,247.261
2013-10-18 02:00,0.00277005,273.586,266.145,249.414,266.167,261.477,247.415,-0.0,-0.0,231.865,246.707
2013-10-18 03:00,0.0013318,268.382,258.025,245.04,255.827,250.957,239.025,-0.0,-0.0,224.959,237.043
2013-10-18 04:00,-0.00137815,222.276,220.379,224.102,219.847,219.165,218.601,-0.0,-0.0,216.695,218.41
2013-10-18 05:00,-0.0,213.142,211.184,219.855,210.218,209.497,210.718,-0.0,-0.0,208.652,209.047
2013-10-18 06:00,-0.00191113,218.393,210.224,220.517,210.218,209.133,209.201,-0.0,-0.0,212.607,212.505
2013-10-18 07:00,0.00277826,230.231,224.616,226.481,223.758,221.579,219.362,-0.0,-0.0,217.752,221.436
2013-10-18 08:00,-0.0,230.231,226.261,227.248,225.31,222.753,220.86,-0.0,-0.0,218.137,223.586
2013-10-18 09:00,0.6377,238.442,225.282,226.287,224.694,223.332,220.302,0.774696,0.97969,219.382,223.377
2013-10-18 10:00,0.583198,266.466,239.559,234.017,240.152,237.815,231.743,0.644382,0.726571,225.931,234.694
2013-10-18 11:00,0.633744,286.864,252.101,241.5,254.263,251.75,241.229,0.753177,0.804988,229.685,244.056
2013-10-18 12:00,0.565517,291.931,256.819,243.93,259.051,258.04,246.319,0.764139,0.825228,231.156,247.261
2013-10-18 13:00,0.537781,294.491,259.206,245.723,261.069,258.774,246.182,0.549667,0.601241,229.348,246.483
2013-10-18 14:00,0.476444,280.613,264.482,248.252,266.167,265.65,252.075,0.544858,0.619676,232.175,250.238
2013-10-18 15:00,0.211479,292.889,279.336,256.778,278.278,273.832,252.464,0.137582,0.2328,229.852,247.917
2013-10-18 16:00,0.315355,294.043,270.746,252.412,271.142,267.506,250.369,0.251366,0.320857,230.511,247.917
2013-10-18 17:00,0.292815,288.291,268.773,251.056,267.69,263.063,245.489,0.239854,0.323113,230.184,246.483
2013-10-18 18:00,0.375614,295.368,275.306,255.16,274.933,270.311,250.501,0.290256,0.379205,230.755,249.513
2013-10-18 19:00,0.232907,295.583,288.303,262.576,289.032,285.35,259.856,0.146006,0.25096,232.251,253.405
2013-10-18 20:00,1.0353,282.581,206.1,218.73,204.12,202.941,205.361,1.02875,1.23057,205.233,205.868
2013-10-18 21:00,0.333521,233.989,216.471,223.076,214.89,214.364,214.265,0.348837,0.435741,213.078,213.952
2013-10-18 22:00,-0.00647361,233.989,223.252,226.287,223.758,221.875,220.115,-0.0,-0.0,220.101,222.313
2013-10-18 23:00,-0.0202102,284.57,280.429,257.798,281.366,278.458,256.285,-0.0513358,-0.0291477,230.835,248.133
2013-10-19 00:00,-0.00195349,266.131,251.147,240.766,248.52,244.758,233.185,-0.00165401,-0.0,222.04,232.669
2013-10-19 01:00,-0.00156416,266.466,257.854,244.07,256.98,254.855,242.527,-0.0,-0.0,226.405,238.441
2013-10-19 02:00,0.00138866,268.686,256.469,243.509,253.669,250.357,238.577,-0.0,-0.0,225.156,236.325
2013-10-19 03:00,-0.0,263.636,261.662,245.723,262.863,261.121,249.572,-0.0,-0.0,233.75,247.699
2013-10-19 04:00,-0.0,264.739,263.401,247.465,265.31,264.279,250.896,-0.0,-0.0,236.004,252.244
2013-10-19 05:00,-0.0,286.271,286.439,261.091,288.493,287.188,263.2,-0.0,-0.0,235.386,257.508
2013-10-19 06:00,-0.0,286.271,286.328,260.984,288.628,287.048,263.436,-0.0,-0.0,234.615,256.805
2013-10-19 07:00,-0.0,278.075,280.187,257.346,283.088,282.758,261.898,-0.0,-0.0,235.386,258.457
2013-10-19 08:00,-0.0119904,285.97,286.661,260.769,288.628,287.469,264.372,-0.0,-0.0,236.475,260.627
2013-10-19 09:00,0.391141,286.121,286.882,260.984,288.897,287.609,263.787,0.441571,0.552832,238.42,261.675
2013-10-19 10:00,0.389458,290.939,288.736,262.049,290.234,288.584,263.436,0.215208,0.422153,239.043,262.623
2013-10-19 11:00,0.495492,297.045,289.911,262.786,291.292,288.861,264.022,0.2894,0.453912,239.653,263.09
2013-10-19 12:00,0.380859,298.918,288.736,262.261,289.3,285.493,260.942,0.230941,0.372746,238.795,261.113
2013-10-19 13:00,0.367781,300.134,287.76,261.519,289.3,287.329,263.553,0.290485,0.390693,240.724,263.476
2013-10-19 14:00,0.294003,296.427,285.882,260.661,287.407,285.493,262.847,0.237426,0.329238,241.015,263.09
2013-10-19 15:00,0.297051,299.013,287.432,261.519,288.897,286.343,262.728,0.236361,0.323978,241.986,262.935
2013-10-19 16:00,0.218964,299.108,289.911,262.786,290.897,288.167,263.436,0.164566,0.237202,241.59,263.167
2013-10-19 17:00,0.228483,300.589,292.005,263.825,292.86,290.101,264.372,0.149698,0.244398,241.246,263.244
2013-10-19 18:00,0.209616,300.408,294.646,265.758,296.182,293.216,266.681,0.133111,0.22154,241.189,263.629
2013-10-19 19:00,0.232407,295.796,290.017,263.307,291.292,288.999,264.138,0.206239,0.286518,240.014,261.515
2013-10-19 20:00,0.61487,295.26,285.433,260.553,287.543,285.065,262.492,0.570034,0.715039,237.849,259.135
2013-10-19 21:00,0.691555,291.065,287.76,262.261,289.835,287.609,263.318,0.683129,0.833921,236.274,257.421
2013-10-19 22:00,-0.0,278.279,271.848,252.534,271.464,265.99,249.838,-0.0,-0.0,235.593,249.198
2013-10-19 23:00,-0.0202904,278.684,271.437,252.412,270.819,264.451,248.499,-0.0539937,-0.0204843,236.408,250.34
2013-10-20 00:00,-0.0,281.346,276.971,255.742,277.075,271.283,251.944,-0.00165903,-0.00197815,236.274,254.068
2013-10-20 01:00,-0.0,285.357,283.956,259.793,284.921,282.613,259.249,-0.0,-0.0,235.108,256.36
2013-10-20 02:00,-0.0,284.888,284.869,260.228,286.31,283.773,260.34,-0.0,-0.0,237.849,259.387
2013-10-20 03:00,-0.0,274.551,274.785,253.98,276.315,274.617,256.285,-0.0,-0.0,240.371,259.135
2013-10-20 04:00,-0.0,277.869,276.845,255.16,277.828,276.015,256.035,-0.0,-0.0,241.015,259.387
2013-10-20 05:00,-0.0,271.261,274.655,254.454,277.828,277.853,259.614,-0.0,-0.0,244.058,262.151
2013-10-20 06:00,-0.0,280.613,280.909,257.91,283.088,281.735,260.942,-0.0,-0.0,243.147,262.623
2013-10-20 07:00,0.00281554,285.202,285.433,260.661,287.543,285.919,262.965,-0.0,-0.0,242.655,262.23
2013-10-20 08:00,-0.0,282.923,283.611,259.464,286.033,284.922,262.965,-0.0,-0.0,242.266,262.857
2013-10-20 09:00,0.616065,286.421,286.882,261.838,288.628,287.469,264.372,0.521621,0.671711,244.531,263.322
2013-10-20 10:00,0.398327,291.931,289.911,263.515,291.686,289.413,264.605,0.209929,0.430859,243.74,262.935
2013-10-20 11:00,0.408797,298.436,291.591,264.543,292.47,289.551,263.905,0.204969,0.389648,242.765,262.623
2013-10-20 12:00,0.346581,301.565,293.336,265.456,293.892,290.784,264.488,0.175508,0.341523,243.526,262.701
2013-10-20 13:00,0.287565,302.68,293.336,265.658,294.021,290.511,264.721,0.141451,0.290314,244.479,263.09
2013-10-20 14:00,0.273765,303.181,293.235,265.557,293.764,290.101,264.138,0.169149,0.285097,243.899,262.701
2013-10-20 15:00,0.254921,302.596,292.108,265.052,292.86,289.551,263.905,0.165411,0.270586,243.899,262.072
2013-10-20 16:00,0.255521,299.013,288.412,262.89,289.701,286.907,262.847,0.214269,0.302611,243.793,261.993
2013-10-20 18:00,0.220729,301.913,293.742,266.159,294.916,290.921,264.022,0.128747,0.244298,243.472,261.675
2013-10-20 19:00,0.466038,300.947,284.185,260.337,285.618,281.441,259.005,0.415361,0.556037,243.846,259.387
2013-10-20 20:00,0.74035,285.357,258.703,244.765,258.678,255.425,241.229,0.981304,1.2131,239.227,248.133
2013-10-20 22:00,-0.00657832,290.813,289.699,263.618,291.555,289.137,263.905,-0.0,-0.0,243.472,260.052
2013-10-20 23:00,-0.0203735,288.012,286.661,261.838,288.493,286.343,262.61,-0.0418934,-0.0205683,241.476,259.804
2013-10-21 00:00,-0.00196553,289.113,289.272,263.203,291.555,289.826,264.488,-0.00166421,-0.00198432,238.671,258.798
2013-10-21 01:00,-0.0,288.291,288.736,263.099,291.292,289.826,264.372,-0.0,-0.0,237.203,258.286
2013-10-21 02:00,-0.0,283.093,278.35,256.434,278.278,275.396,254.392,-0.0,-0.0,230.593,251.051
2013-10-21 03:00,-0.0,282.923,277.977,256.32,278.128,275.24,253.368,-0.0,-0.0,228.312,249.617
2013-10-21 04:00,-0.0,280.613,275.565,254.926,275.087,271.926,251.944,-0.0,-0.0,229.093,248.562
2013-10-21 05:00,-0.0,285.045,283.495,259.683,284.501,282.467,260.219,-0.0,-0.0,231.943,253.5
2013-10-21 06:00,0.00193738,283.594,281.742,258.358,283.372,281.146,258.76,-0.0,-0.0,233.01,253.595
2013-10-21 07:00,0.00283417,286.569,287.102,261.944,289.434,288.027,263.553,-0.0,-0.0,235.386,256.716
2013-10-21 08:00,-0.0,286.569,286.772,261.944,289.434,287.748,263.787,-0.0,-0.0,236.408,257.158
2013-10-21 09:00,0.420974,287.155,287.212,262.155,289.568,288.167,264.372,0.435646,0.543053,236.94,257.421
2013-10-21 10:00,0.40311,292.294,290.017,263.825,292.079,289.964,264.022,0.204788,0.431382,236.408,257.595
2013-10-21 11:00,0.391132,298.339,293.336,265.959,294.661,291.6,264.953,0.171362,0.401758,237.849,259.051
2013-10-21 12:00,0.32907,301.826,295.837,267.249,297.434,294.016,265.762,0.137211,0.332216,239.104,259.721
2013-10-21 13:00,0.27057,304.159,297.204,267.838,298.426,294.679,265.878,0.113388,0.273156,240.014,261.113
2013-10-21 14:00,0.246226,306.101,297.107,267.446,298.302,294.016,265.762,0.111536,0.243608,241.073,261.033
2013-10-21 15:00,0.270021,305.493,293.742,265.557,295.17,291.464,264.605,0.157118,0.267799,241.015,260.952
2013-10-21 16:00,0.242914,299.672,283.032,260.337,281.221,274.46,251.159,0.164124,0.25886,235.867,253.309
2013-10-21 17:00,0.212939,290.041,278.598,256.664,277.075,273.042,253.24,0.230824,0.291654,238.041,255.091
2013-10-21 18:00,0.182834,290.041,274.785,253.86,273.057,268.835,250.369,0.182449,0.252152,234.401,249.617
2013-10-21 19:00,0.169098,287.155,270.746,251.429,268.855,264.451,246.182,0.195923,0.240348,230.348,245.23
2013-10-21 20:00,0.648575,287.444,265.545,248.642,263.92,259.684,243.383,0.581835,0.736622,229.935,244.53
2013-10-21 21:00,1.03096,291.563,279.58,257.798,279.022,274.147,251.944,0.732624,1.0594,233.456,250.646
2013-10-21 22:00,-0.0,284.57,276.208,255.393,275.242,270.798,248.499,-0.0,-0.0,232.86,249.408
2013-10-21 23:00,-0.0175368,284.249,274.655,253.621,274.156,269.821,248.094,-0.0346463,-0.0177045,229.348,247.481
2013-10-22 00:00,-0.00197182,279.278,270.189,251.429,269.35,264.279,245.628,-0.00166954,-0.00199067,226.216,244.647
2013-10-22 01:00,-0.0,272.58,261.501,246.399,260.706,255.803,240.207,-0.0,-0.0,226.122,242.602
2013-10-22 02:00,-0.0,278.883,272.662,253.381,272.264,267.673,248.634,-0.0,-0.0,228.748,247.917
2013-10-22 03:00,-0.00134679,285.97,282.566,259.354,283.514,279.661,256.535,-0.0,-0.0,232.633,252.244
2013-10-22 04:00,-0.0,286.717,284.642,260.119,285.618,282.758,259.492,-0.0,-0.0,234.041,254.068
2013-10-22 05:00,-0.0,283.261,279.702,257.798,,,,-0.0,0.00158054,233.382,252.342
2013-10-22 07:00,-0.0,266.797,263.245,247.2,262.685,261.121,247.687,-0.0,-0.0,229.348,245.804
2013-10-22 10:00,0.351925,254.966,232.56,229.847,231.131,228.324,223.77,0.558703,0.637906,220.916,227.877
2013-10-22 11:00,0.335171,255.521,230.265,228.378,229.158,227.517,223.77,0.565659,0.6516,222.259,226.948
2013-10-22 12:00,0.220986,255.521,243.719,235.337,243.438,242.585,236.307,0.449618,0.536101,227.238,236.757
2013-10-22 13:00,0.263211,270.989,246.733,237.258,244.575,241.698,232.547,0.273668,0.370366,224.258,233.617
2013-10-22 14:00,0.226166,299.203,288.628,262.261,288.628,283.629,257.9,0.100951,0.240738,228.224,248.669
2013-10-22 15:00,0.203128,302.171,290.756,263.825,290.632,284.922,258.27,0.0854912,0.213465,229.517,249.825
2013-10-22 16:00,0.19359,301.214,288.52,262.471,287.951,282.028,255.784,0.0892183,0.209048,228.748,247.808
2013-10-22 17:00,0.181501,303.428,294.945,266.657,295.93,290.648,262.728,0.0768384,0.192808,231.156,251.352
2013-10-22 18:00,0.177656,302.341,296.425,267.544,298.178,293.75,264.721,0.0772807,0.197455,233.53,253.213
2013-10-22 19:00,0.190925,299.858,295.442,267.151,297.683,293.617,265.878,0.0958659,0.219646,233.896,253.309
2013-10-22 20:00,0.23453,296.943,292.211,265.254,294.149,290.238,262.728,0.172533,0.287231,232.481,252.244
2013-10-22 21:00,0.54059,293.124,288.087,262.471,289.835,286.626,260.822,0.411945,0.545758,231.865,251.252
2013-10-22 22:00,-0.00669295,282.059,276.208,255.277,275.703,270.311,248.634,-0.0,-0.0,229.852,246.707
2013-10-22 23:00,-0.0176133,277.451,265.995,249.286,263.569,258.774,241.953,-0.0223697,-0.0177816,226.778,241.221
2013-10-23 00:00,-0.00395661,278.684,267.18,250.177,265.654,260.045,242.097,-0.00167503,-0.0,224.56,240.185
2013-10-23 01:00,-0.0,273.338,256.992,244.349,253.269,246.035,230.768,-0.0,-0.0,219.503,232.508
2013-10-23 02:00,-0.0,245.913,228.463,229.118,225.003,221.579,218.025,-0.0,-0.0,213.995,219.608
2013-10-23 03:00,-0.0,227.984,218.862,223.694,217.072,214.697,213.241,-0.0,-0.0,213.541,215.867
2013-10-23 04:00,-0.00139956,227.984,216.471,222.868,214.517,212.329,211.992,-0.0,-0.0,212.126,214.511
2013-10-23 05:00,-0.00157119,232.213,220.379,224.102,219.167,217.607,215.873,-0.0,-0.0,214.879,218.165
2013-10-23 06:00,-0.0,225.382,219.628,224.102,218.13,215.683,215.274,-0.0,-0.0,215.167,216.909
2013-10-23 07:00,0.00287131,238.442,229.97,229.301,228.293,225.597,222.329,-0.0,-0.0,219.982,225.994
2013-10-23 08:00,0.00633783,233.989,229.072,228.192,228.293,226.974,224.657,-0.0,-0.0,220.801,225.408
2013-10-23 09:00,0.553778,245.01,226.261,226.866,224.694,223.332,221.046,0.685291,0.860111,218.517,222.743
2013-10-23 10:00,0.424647,249.89,226.583,226.866,226.522,224.756,222.873,0.641809,0.75324,220.219,224.61
2013-10-23 11:00,0.318054,253.81,236.576,231.799,235.672,234.461,229.283,0.517583,0.603476,223.224,230.524
2013-10-23 12:00,0.291141,284.249,268.054,249.797,266.847,262.888,246.319,0.235367,0.360348,226.685,241.602
2013-10-23 13:00,0.261346,299.858,288.736,262.995,288.763,283.629,258.392,0.119861,0.273464,228.921,248.133
2013-10-23 14:00,0.227047,302.68,292.314,265.153,292.989,287.329,260.581,0.0997571,0.236651,230.755,250.646
2013-10-23 15:00,0.200485,305.184,296.131,267.446,296.684,291.464,263.436,0.0793509,0.209588,231.076,251.152
2013-10-23 16:00,0.197019,305.416,295.639,267.151,296.307,290.921,262.61,0.0818535,0.208785,231.076,250.646
2013-10-23 17:00,0.209669,292.889,274.785,254.69,272.264,266.16,246.044,0.166073,0.251277,225.058,240.835
2013-10-23 18:00,0.275016,293.124,271.023,252.168,269.021,262.008,243.241,0.214943,0.333502,225.254,241.093
2013-10-23 19:00,0.396506,282.581,256.644,243.509,254.461,249.55,234.604,0.408867,0.503166,224.054,236.325
2013-10-23 20:00,0.451791,273.831,243.94,236.146,239.669,237.581,229.781,0.50896,0.579801,214.879,222.529
2013-10-23 21:00,0.035272,275.932,267.033,249.286,265.31,262.888,246.869,0.134391,0.124632,228.136,241.348
2013-10-23 22:00,-0.00675423,280.05,269.767,251.676,268.024,263.237,245.489,-0.0,-0.0,224.258,240.576
2013-10-23 23:00,-0.0117949,271.261,253.595,242.369,249.157,243.024,230.768,-0.0174767,-0.0178615,220.686,232.829
2013-10-24 00:00,-0.0,284.41,279.336,257.572,279.17,275.24,253.753,-0.00168068,-0.0,231.076,248.562
2013-10-24 01:00,0.00158652,284.73,281.742,259.244,282.803,280.108,257.777,-0.0,-0.0,236.274,252.439
2013-10-24 02:00,-0.0014079,285.665,284.869,261.305,286.997,284.492,262.136,-0.0,-0.0,239.714,256.539
2013-10-24 03:00,0.00135458,286.864,286.882,262.366,289.166,287.329,263.787,-0.0,-0.0,239.166,256.894
2013-10-24 04:00,-0.00140394,286.717,287.322,262.89,289.835,288.306,264.488,-0.0,-0.0,239.774,258.286
2013-10-24 05:00,-0.0,286.421,286.992,262.261,289.434,288.306,264.372,-0.0,-0.0,239.954,258.713
2013-10-24 06:00,0.0019636,286.121,286.882,262.576,289.701,288.445,264.837,-0.0,-0.0,239.894,258.628
2013-10-24 07:00,-0.00288977,285.97,287.102,262.261,289.701,289.137,265.416,-0.0,-0.0,240.899,259.387
2013-10-24 08:00,0.00642484,285.665,286.992,262.261,289.701,288.999,264.953,-0.0,-0.0,241.304,259.387
2013-10-24 09:00,0.388055,286.121,287.432,262.786,290.234,289.826,265.993,0.397738,0.556719,240.665,259.554
2013-10-24 10:00,0.362442,291.686,290.651,264.441,293.248,292.141,265.762,0.200138,0.449429,240.193,260.135
2013-10-24 11:00,0.373025,298.144,294.846,267.052,297.309,295.076,267.251,0.16553,0.419694,240.724,260.217
2013-10-24 12:00,0.316669,302.848,298.167,269.288,300.748,297.818,268.045,0.131978,0.347856,240.193,260.463
2013-10-24 13:00,0.258149,305.106,300.526,270.523,303.144,300.506,268.834,0.103535,0.285307,240.548,260.789
2013-10-24 14:00,0.218134,307.137,301.268,271.086,303.144,299.616,268.271,0.0840461,0.23754,240.134,260.052
2013-10-24 15:00,0.194305,307.499,301.268,271.086,303.263,299.104,267.932,0.0752366,0.211712,239.593,259.051
2013-10-24 16:00,0.180889,307.427,301.175,271.179,303.263,298.976,268.271,0.0693352,0.197425,240.665,259.638
2013-10-24 17:00,0.172921,306.845,300.805,270.899,302.788,298.848,267.819,0.0674869,0.195032,241.073,259.804
2013-10-24 18:00,0.199845,304.319,298.644,269.288,300.506,296.65,266.795,0.105927,0.232921,240.782,260.135
2013-10-24 19:00,0.205542,301.565,297.01,268.421,299.164,295.865,266.681,0.123507,0.249901,239.593,260.052
2013-10-24 20:00,0.343127,297.848,290.335,264.133,291.423,288.722,262.017,0.31635,0.407991,237.721,258.2
2013-10-24 21:00,0.517775,291.686,288.736,263.099,290.5,288.584,262.847,0.482239,0.62727,235.108,257.246
2013-10-24 22:00,-0.0068183,286.864,285.658,261.198,287.407,285.919,262.136,-0.0,-0.0,232.633,255.639
2013-10-24 23:00,-0.0148117,289.247,288.303,262.576,290.367,288.999,263.553,-0.0125411,-0.0149533,234.185,257.855
2013-10-25 00:00,-0.00199183,286.121,284.528,260.337,286.722,284.636,261.54,-0.00168648,-0.00201087,233.01,255.366
2013-10-25 01:00,0.00159131,286.271,285.546,261.305,287.27,285.919,262.017,-0.0,-0.0,231.315,254.999
2013-10-25 02:00,-0.0,257.103,242.824,236.466,239.911,237.815,230.768,-0.0,-0.0,221.258,230.183
2013-10-25 03:00,-0.0,268.382,255.05,242.799,252.868,249.348,236.613,-0.0,-0.0,223.329,237.185
2013-10-25 04:00,-0.0,277.026,270.607,252.168,270.006,267.673,250.104,-0.0,-0.00142181,227.147,246.032
2013-10-25 05:00,0.00158246,267.123,257.683,243.65,256.789,255.235,242.384,-0.0,-0.0,226.871,240.185
2013-10-25 06:00,-0.0,281.883,280.308,257.798,281.943,278.911,257.282,-0.0,-0.0,230.43,251.949
2013-10-25 07:00,-0.0,258.096,254.69,242.369,254.066,251.354,242.097,0.00246232,-0.0,229.517,241.728
2013-10-25 08:00,-0.0,282.059,281.267,258.469,283.23,281.146,259.977,-0.0,-0.0,231.865,253.117
2013-10-25 09:00,0.491002,285.512,284.528,260.337,286.86,285.208,262.017,0.415731,0.575007,233.159,254.256
2013-10-25 10:00,0.383365,291.931,285.433,260.876,286.033,281.882,258.392,0.235166,0.450219,231.787,252.146
2013-10-25 11:00,0.387339,299.013,293.641,265.959,295.677,292.41,264.488,0.178197,0.415906,233.677,254.814
2013-10-25 12:00,0.322462,303.346,296.523,267.838,298.549,294.282,264.837,0.139979,0.34207,234.615,255.366
2013-10-25 13:00,0.263122,305.722,298.834,268.904,300.748,296.389,265.762,0.107947,0.283438,234.472,255.366
2013-10-25 14:00,0.225169,307.137,299.496,269.479,301.712,297.04,265.301,0.0901444,0.242147,233.896,254.349
2013-10-25 15:00,0.201164,308.14,300.433,270.334,302.191,297.43,266.222,0.0791513,0.215034,234.257,255.091
2013-10-25 16:00,0.250258,306.326,293.438,265.959,295.17,290.375,262.965,0.141606,0.263742,234.257,254.629
2013-10-25 17:00,0.222621,303.346,292.211,265.052,293.764,289.964,262.847,0.147367,0.249268,234.113,253.785
2013-10-25 18:00,0.183309,304.715,300.34,269.955,303.025,299.743,267.932,0.0837847,0.209627,235.867,256.271
2013-10-25 19:00,0.211691,301.565,296.913,267.935,299.531,296.389,266.337,0.123226,0.247107,236.139,255.911
2013-10-25 20:00,0.250544,298.339,295.541,266.756,297.931,295.208,267.251,0.212135,0.314258,237.203,256.982
2013-10-25 21:00,0.28712,293.472,292.108,264.849,294.916,292.948,266.681,0.443307,0.443322,237.398,257.246
2013-10-25 22:00,-0.0,289.779,290.44,263.721,293.119,292.006,266.108,-0.0,-0.0,236.94,257.421
2013-10-25 23:00,-0.0119057,289.113,288.628,262.576,291.16,289.689,264.605,-0.0126006,-0.0150244,236.408,256.805
2013-10-26 00:00,-0.00199887,288.43,288.52,262.89,291.16,289.964,265.301,-0.0,-0.0,237.528,257.942
2013-10-26 01:00,-0.0,287.587,287.76,262.366,290.234,288.722,265.069,-0.0,-0.0,237.268,257.682
2013-10-26 02:00,-0.00141608,287.155,287.541,261.944,289.701,288.445,264.605,-0.0,-0.0,236.808,257.508
2013-10-26 03:00,-0.0,286.569,287.322,262.261,289.568,288.584,264.488,-0.0,0.00137557,236.874,258.114
2013-10-26 04:00,-0.0,285.97,287.102,261.625,289.434,288.722,264.837,-0.0,-0.0,237.398,258.713
2013-10-26 05:00,-0.0015881,285.665,286.772,261.731,289.032,288.445,264.721,-0.0,-0.0,237.528,259.135
2013-10-26 06:00,-0.0,284.57,285.882,260.984,287.951,287.048,264.488,-0.0,-0.0,237.268,258.372
2013-10-26 07:00,0.0029264,284.087,283.611,259.683,285.757,284.492,262.017,-0.0,-0.0,236.341,257.246
2013-10-26 08:00,-0.0,281.526,279.945,257.233,280.931,279.511,258.515,-0.0,-0.00666275,233.382,254.349
2013-10-26 09:00,0.58699,284.57,283.264,259.683,284.501,283.049,260.701,0.448906,0.745531,233.603,256.001
2013-10-26 10:00,0.419638,288.977,282.331,258.691,282.231,279.211,256.41,0.26319,0.513871,231.473,252.634
2013-10-26 11:00,0.359215,295.69,288.628,262.576,289.568,285.919,260.34,0.185133,0.409951,233.085,255.183
2013-10-26 12:00,0.307031,298.918,291.279,264.031,292.47,288.722,261.54,0.147957,0.349536,233.085,255.911
2013-10-26 13:00,0.264036,304.159,297.975,268.324,300.263,296.78,265.993,0.112352,0.289798,234.543,258.628
2013-10-26 14:00,0.223643,305.798,300.06,269.86,302.43,298.848,266.909,0.0900227,0.245521,234.543,258.713
2013-10-26 15:00,0.199743,306.623,300.805,269.955,303.144,299.36,267.478,0.0780564,0.219551,233.456,258.882
2013-10-26 16:00,0.19022,306.475,299.684,269.096,301.592,297.43,266.108,0.0794969,0.212965,234.543,258.798
2013-10-26 17:00,0.181915,304.078,296.425,267.348,297.807,293.617,264.138,0.0958391,0.208141,234.185,258.2
2013-10-26 18:00,0.267244,299.391,286.105,260.876,286.31,281.441,256.285,0.186506,0.307407,232.405,252.146
2013-10-26 19:00,0.253005,300.408,292.622,265.153,293.764,290.375,263.436,0.190003,0.279856,234.472,256.716
2013-10-26 20:00,0.275906,298.533,293.539,265.959,295.297,292.141,264.721,0.26561,0.351041,235.867,257.769
2013-10-26 21:00,0.512331,293.816,292.314,264.95,294.661,292.948,266.452,0.573722,0.634022,237.072,259.051
2013-10-26 22:00,-0.0,290.171,290.86,264.133,293.635,292.41,266.222,-0.0,-0.0,236.874,259.638
2013-10-26 23:00,-0.0119638,289.91,290.335,263.618,292.86,291.871,266.681,-0.0101297,-0.0150977,236.609,259.22
2013-10-27 00:00,-0.00200609,288.152,288.412,262.576,290.764,289.413,264.488,-0.00169855,-0.0,236.609,257.855
2013-10-27 01:00,-0.00160119,284.087,283.495,259.793,285.895,283.773,261.301,-0.0,-0.0,236.139,256.628
2013-10-27 02:00,-0.0,286.864,285.882,261.091,287.951,286.06,262.61,-0.0,-0.0,236.004,255.911
2013-10-27 03:00,-0.0,286.421,285.658,261.198,287.679,285.777,262.255,-0.0,-0.0,236.542,255.821
2013-10-27 04:00,0.00141722,278.883,276.845,256.32,277.528,274.304,256.035,-0.0,-0.0,235.936,254.256
2013-10-27 05:00,-0.0,277.026,275.951,255.858,277.528,274.617,256.535,-0.0,-0.0,235.799,254.536
2013-10-27 06:00,-0.0,276.594,271.848,253.621,273.057,269.0,251.159,-0.0,-0.0,234.113,251.051
2013-10-27 07:00,-0.0,276.811,274.524,254.926,276.923,273.675,256.535,-0.0,0.00297267,235.525,253.405
2013-10-27 08:00,-0.0066872,266.131,259.54,246.13,258.865,256.367,244.231,-0.0,-0.0,229.433,244.056
2013-10-27 09:00,1.18944,261.666,249.583,240.171,249.789,247.708,238.278,1.17753,1.47792,227.78,240.576
2013-10-27 10:00,0.779819,282.923,261.982,247.2,263.92,263.412,250.896,0.804093,0.900298,232.02,248.987
2013-10-27 11:00,0.433626,299.858,290.335,264.133,291.817,286.907,260.942,0.203345,0.448996,232.481,251.85
2013-10-27 12:00,0.392735,297.349,274.655,254.69,274.467,269.657,251.553,0.277336,0.398134,230.018,247.371
2013-10-27 13:00,0.2893,297.549,279.336,257.346,278.128,273.517,252.723,0.196876,0.319361,230.835,248.669
2013-10-27 14:00,0.234339,304.95,291.174,264.236,290.632,284.205,257.9,0.110575,0.248901,229.852,248.669
2013-10-27 15:00,0.21132,307.786,295.541,267.052,295.55,289.413,262.017,0.100957,0.226451,231.552,251.051
2013-10-27 16:00,0.298406,291.065,262.458,247.465,263.04,258.774,244.652,0.36713,0.42668,230.593,244.175
2013-10-27 17:00,0.257056,277.026,261.501,246.667,262.507,260.405,246.182,0.450111,0.476906,230.184,245.575
2013-10-27 18:00,0.612889,289.514,250.566,240.32,252.059,251.552,243.241,0.622992,0.718335,232.097,243.698
2013-10-27 19:00,0.807739,300.589,253.963,242.656,254.263,251.947,242.671,0.711788,0.844268,233.159,243.457
2013-10-27 20:00,0.812755,306.4,283.611,260.553,285.34,280.406,259.249,0.637184,0.797732,235.038,252.146
2013-10-27 21:00,1.84355,287.444,273.333,254.217,275.857,272.565,256.035,1.15016,1.63261,235.731,252.828
2013-10-27 22:00,-0.0,277.24,273.997,254.217,275.55,272.883,256.66,-0.0,-0.0,234.543,252.731
2013-10-27 23:00,-0.0120237,270.989,262.458,247.859,262.507,258.957,246.044,-0.0101805,-0.0121387,229.093,245.23
2013-10-28 00:00,-0.0,278.279,272.256,253.381,273.057,268.67,251.683,-0.00170483,-0.00203275,232.481,249.928
2013-10-28 01:00,-0.0,265.791,247.15,238.657,244.575,239.438,229.449,-0.0,-0.0,221.708,232.022
2013-10-28 02:00,-0.0,247.601,229.072,229.301,226.522,223.619,221.23,-0.0,-0.0,216.963,221.658
2013-10-28 03:00,0.00137067,242.013,230.265,229.847,228.001,226.701,223.413,-0.0,-0.0,219.014,223.793
2013-10-28 04:00,-0.0,285.818,282.096,259.244,283.23,280.554,257.53,-0.0,-0.0,230.593,251.552
2013-10-28 05:00,-0.0,277.451,270.885,252.899,268.358,264.795,247.551,-0.0,-0.0,226.311,243.093
2013-10-28 06:00,0.00199813,277.026,268.343,251.429,266.847,262.361,244.792,-0.0,-0.0,227.78,243.698
2013-10-28 07:00,0.00296249,284.249,282.214,259.354,283.23,281.441,259.735,-0.0,-0.0,231.943,252.146
2013-10-28 08:00,-0.0,286.421,286.328,261.625,288.493,286.626,263.2,-0.0,-0.0,233.085,255.73
2013-10-28 09:00,0.372191,287.444,286.992,262.155,289.3,287.329,263.905,0.375159,0.500998,232.557,256.091
2013-10-28 10:00,0.318447,292.174,289.272,263.411,290.897,288.445,263.2,0.191664,0.364099,232.709,256.091
2013-10-28 11:00,0.370183,298.726,291.798,264.95,292.86,288.999,262.728,0.168916,0.393862,232.935,256.45
2013-10-28 12:00,0.318744,302.848,294.546,266.657,295.043,290.511,263.553,0.139071,0.336567,234.756,256.894
2013-10-28 13:00,0.260515,292.653,271.711,252.045,268.855,263.063,243.949,0.165719,0.298436,226.405,243.214
2013-10-28 14:00,0.214547,306.549,296.621,267.642,296.559,291.464,264.605,0.10115,0.227674,235.247,258.028
2013-10-28 15:00,0.231135,307.137,294.746,266.458,294.788,290.101,263.553,0.143781,0.264298,236.609,258.2
2013-10-28 16:00,0.209263,304.239,292.108,265.052,292.6,288.861,262.847,0.166882,0.25671,240.134,259.387
2013-10-28 17:00,0.180121,297.349,287.869,262.261,288.087,285.065,261.898,0.15137,0.23341,241.93,259.22
2013-10-28 18:00,0.466615,264.377,200.125,218.272,201.728,200.845,205.593,0.781961,0.89651,202.469,200.502
2013-10-28 19:00,0.637231,276.594,200.774,217.576,198.671,197.752,201.016,0.899237,1.01473,200.945,200.041
2013-10-28 20:00,1.19866,285.202,202.034,218.041,199.715,199.102,202.5,1.27814,1.51643,202.954,202.696
2013-10-28 21:00,1.10766,264.377,203.838,218.957,203.179,202.113,205.361,0.830668,1.18215,205.015,203.929
2013-10-28 22:00,-0.0,213.142,207.178,219.632,206.392,204.955,207.423,-0.0,-0.0,207.304,206.968
2013-10-28 23:00,-0.0151069,230.231,199.463,217.342,198.14,196.831,201.763,-0.0102328,-0.0122011,201.207,199.092
2013-10-29 00:00,-0.00202109,233.989,222.904,226.481,220.852,219.777,217.832,-0.0,-0.0,214.588,217.918
2013-10-29 01:00,-0.00161148,222.276,221.117,225.306,220.184,218.547,218.025,-0.00136443,-0.0,216.963,219.134
2013-10-29 02:00,-0.0014288,262.475,262.616,247.597,263.92,263.063,250.369,-0.0,-0.0,234.827,250.544
2013-10-29 03:00,-0.0,274.073,265.394,249.542,264.444,260.764,245.35,-0.0,-0.0,231.076,245.23
2013-10-29 04:00,-0.0,260.395,261.822,247.2,263.745,262.888,250.369,-0.0,-0.0,236.94,252.146
2013-10-29 05:00,-0.00160497,257.605,255.941,243.93,257.55,256.928,247.279,-0.0,-0.0,235.662,247.59
2013-10-29 06:00,-0.0,255.521,256.644,244.21,258.865,258.408,248.364,-0.0,-0.0,235.386,249.198
2013-10-29 07:00,-0.0,260.827,256.992,244.765,258.491,256.742,247.142,-0.0,-0.0,234.686,247.59
2013-10-29 08:00,-0.0,279.081,274.261,254.808,276.01,271.926,253.368,-0.0,-0.0,234.185,251.051
2013-10-29 09:00,1.01486,279.667,268.054,251.056,268.69,264.967,250.369,0.801022,1.05929,233.159,249.093
2013-10-29 10:00,0.488215,283.76,258.534,246.13,257.55,252.732,241.084,0.432748,0.523687,229.852,243.336
2013-10-29 11:00,0.400005,291.315,273.599,254.454,272.104,266.16,247.279,0.267579,0.459606,228.048,244.881
2013-10-29 12:00,0.438228,289.514,256.118,244.765,253.469,248.532,237.373,0.375169,0.465357,225.739,240.316
2013-10-29 13:00,0.296533,296.738,275.436,256.205,272.264,262.712,242.241,0.176893,0.318419,226.871,243.214
2013-10-29 14:00,0.234994,303.015,291.487,265.052,291.817,286.343,260.822,0.102062,0.248304,233.677,251.552
2013-10-29 15:00,0.283901,300.042,275.436,256.089,277.828,274.46,257.034,0.174549,0.277101,234.329,251.552
2013-10-29 16:00,0.187164,305.106,294.746,267.151,295.17,289.689,262.728,0.0792357,0.201223,235.108,252.634
2013-10-29 17:00,0.177217,300.769,290.651,264.441,291.292,286.626,261.421,0.114811,0.204664,235.867,252.925
2013-10-29 18:00,0.153145,299.765,291.383,264.95,292.47,288.167,262.255,0.105099,0.19204,235.936,253.021
2013-10-29 19:00,0.275261,260.395,238.09,233.175,236.441,235.677,231.094,0.368091,0.434482,225.449,229.489
2013-10-29 20:00,0.686077,262.074,217.685,224.305,217.427,216.652,216.269,0.925021,1.0766,214.441,215.6
2013-10-29 21:00,2.55475,277.869,243.273,237.572,241.344,238.282,231.257,2.032,3.03248,226.122,234.845
2013-10-29 22:00,-0.0,257.103,248.985,240.766,247.662,243.461,235.691,-0.0,-0.0,231.156,239.789
2013-10-29 23:00,-0.00607461,260.395,257.854,245.451,259.236,257.301,246.732,-0.0102867,-0.00919901,234.615,247.917
2013-10-30 00:00,-0.0,272.58,262.774,248.771,259.974,252.536,237.373,-0.0,-0.0,227.959,241.475
2013-10-30 01:00,-0.0,257.103,249.978,241.646,247.012,240.802,230.44,-0.0,-0.0,225.835,238.714
2013-10-30 02:00,-0.0,260.827,243.273,238.04,240.152,232.474,223.592,-0.0,-0.0,218.891,228.603
2013-10-30 03:00,-0.0,245.913,237.841,234.017,236.695,234.95,229.283,-0.0,-0.0,223.224,231.031
2013-10-30 04:00,-0.0,237.078,231.997,230.743,230.853,229.385,226.229,-0.0,-0.0,221.596,227.136
2013-10-30 05:00,-0.00161056,233.989,230.265,229.847,229.444,227.517,223.77,-0.0,-0.0,222.259,227.323
2013-10-30 06:00,-0.00201506,245.913,236.06,232.834,234.633,232.221,227.601,-0.0,-0.0,220.916,228.782
2013-10-30 07:00,-0.0,244.063,238.585,233.849,237.451,235.917,230.604,-0.0,-0.0,224.054,232.669
2013-10-30 08:00,0.00694858,274.787,269.059,251.056,269.186,266.835,250.501,-0.0,-0.0,229.093,244.998
2013-10-30 09:00,0.585407,258.096,251.721,240.766,250.83,249.955,241.229,0.835546,1.04692,229.093,240.185
2013-10-30 10:00,0.447557,287.155,273.732,254.336,275.396,272.246,254.773,0.385369,0.501614,230.996,248.133
2013-10-30 11:00,0.312916,289.381,277.224,255.742,276.468,272.724,252.723,0.246288,0.41157,229.769,245.69
2013-10-30 12:00,0.301331,288.152,264.329,247.859,262.685,256.18,241.953,0.259252,0.392532,228.136,241.348
2013-10-30 13:00,0.208637,261.251,244.598,237.258,244.8,243.024,235.846,0.414848,0.493285,227.238,238.165
2013-10-30 14:00,0.392843,292.889,243.496,236.943,243.438,241.027,234.447,0.37896,0.466586,227.959,236.757
2013-10-30 15:00,0.296558,255.521,209.237,220.077,208.131,207.651,209.201,0.72439,0.804322,208.274,207.678
2013-10-30 16:00,0.264671,254.966,223.252,226.481,222.806,221.875,220.86,0.688738,0.761157,218.264,221.213
2013-10-30 17:00,0.245393,281.165,251.912,242.081,249.368,243.243,233.819,0.253189,0.338441,223.642,232.988
2013-10-30 18:00,0.458711,264.377,208.223,219.855,207.702,206.513,209.201,0.771329,0.877445,207.891,207.326
2013-10-30 19:00,0.566639,275.932,235.011,232.663,232.23,229.121,223.413,0.581263,0.728271,218.137,223.167
2013-10-30 21:00,1.07569,273.338,238.338,234.681,234.633,229.909,222.692,0.769677,1.08597,216.83,224.811
2013-10-30 22:00,-0.00726782,267.761,249.978,240.469,247.012,241.698,229.116,-0.0,-0.0,221.031,232.669
2013-10-30 23:00,-0.00916108,240.898,221.117,225.306,218.824,216.652,215.274,-0.00775667,-0.00924865,213.693,216.131
2013-10-31 00:00,-0.0,271.261,260.854,246.533,258.678,252.536,238.278,0.00172457,-0.00205628,224.959,239.656
2013-10-31 01:00,-0.0,239.711,231.427,230.921,228.871,224.474,221.046,-0.0,-0.0,218.767,225.994
2013-10-31 02:00,-0.0,242.013,231.713,231.098,229.158,226.151,222.329,-0.0,-0.0,218.137,225.604
2013-10-31 03:00,-0.0,230.231,224.616,227.248,223.443,220.984,219.927,-0.0,-0.0,217.622,222.529
2013-10-31 04:00,0.00143513,243.066,236.318,233.513,235.155,232.474,227.77,-0.0,-0.0,223.118,231.364
2013-10-31 05:00,0.00161613,242.013,235.011,232.146,233.577,231.459,227.089,-0.0,-0.0,222.799,228.782
2013-10-31 06:00,0.00404681,244.063,239.799,234.681,238.693,236.635,230.931,-0.0,-0.0,223.434,232.669
2013-10-31 07:00,0.0030152,266.466,257.683,245.04,256.789,252.536,239.765,-0.0,-0.0,226.216,238.85
2013-10-31 08:00,-0.0,251.944,248.38,239.721,247.878,245.186,237.676,-0.0,-0.0,229.348,240.053
2013-10-31 09:00,1.01017,263.636,246.313,238.503,246.575,244.328,237.525,1.08983,1.36526,230.43,239.922
2013-10-31 10:00,0.743224,278.279,242.824,236.466,244.122,243.024,236.0,0.78581,0.906489,230.593,238.578
2013-10-31 11:00,0.573589,297.449,266.145,250.051,265.138,260.764,246.182,0.481935,0.634539,230.593,243.937
2013-10-31 12:00,0.611313,294.156,260.365,246.667,262.329,259.864,247.959,0.662744,0.733078,230.916,247.59
2013-10-31 13:00,0.418082,290.685,263.867,248.771,263.04,259.864,246.319,0.401795,0.489937,229.007,245.575
2013-10-31 14:00,0.23813,297.045,282.331,259.574,281.221,274.929,252.205,0.135788,0.269844,230.43,247.808
2013-10-31 15:00,0.233959,295.69,273.065,254.217,269.842,260.225,242.241,0.13538,0.256373,226.778,240.706
2013-10-31 16:00,0.234083,298.533,277.098,256.549,275.087,266.498,246.319,0.140689,0.252238,229.935,244.998
2013-10-31 17:00,0.210279,302.511,287.978,263.307,287.543,280.108,254.392,0.106599,0.227163,232.251,249.617
2013-10-31 18:00,0.289256,300.858,286.55,262.155,285.895,279.959,256.035,0.216339,0.321223,232.557,251.051
2013-10-31 19:00,0.447867,289.514,269.201,251.552,269.842,266.498,248.768,0.539359,0.638714,232.175,249.721
2013-10-31 20:00,0.893938,303.181,229.373,229.484,225.003,220.384,220.115,0.744386,0.865191,220.686,224.408
2013-10-31 21:00,0.474412,254.966,240.039,234.515,239.911,239.438,234.291,0.502105,0.613652,228.575,234.389
2013-10-31 22:00,-0.0073548,285.97,283.495,260.228,285.061,282.028,259.005,-0.0,-0.0,233.382,250.748
2013-10-31 23:00,-0.0122822,287.01,283.841,260.553,285.479,282.321,259.492,-0.00519967,-0.00929973,232.481,250.238
