# timestamp,IR_016,IR_039,IR_087,IR_097,IR_108,IR_120,IR_134,VIS006,VIS008,WV_062,WV_073
2015-01-01 00:00,0.00302316,283.924,277.727,256.778,274.623,264.451,243.383,-0.0,-0.0,226.311,243.577
2015-01-01 01:00,-0.0,286.121,280.669,257.685,280.931,275.861,252.853,-0.0,-0.0,228.048,245.69
2015-01-01 02:00,-0.00171025,285.357,279.945,257.12,280.931,276.784,253.497,-0.0,-0.0,228.048,245.69
2015-01-01 03:00,-0.0,282.408,274.785,253.98,274.933,269.984,249.171,-0.0,-0.0,227.51,243.093
2015-01-01 04:00,-0.00152946,282.059,273.865,253.14,274.778,269.657,249.171,-0.0,-0.0,229.348,245.575
2015-01-01 05:00,-0.0,280.05,271.574,252.656,272.104,267.004,247.823,-0.0,-0.0,228.921,244.175
2015-01-01 06:00,0.00192453,282.234,275.436,254.572,276.163,271.283,250.896,-0.0,-0.0,230.018,245.804
2015-01-01 07:00,-0.0,281.346,275.694,254.336,276.315,273.2,253.881,-0.0,-0.0,230.916,246.929
2015-01-01 08:00,0.00458739,286.271,283.38,258.58,285.479,281.882,258.023,-0.0,-0.0,230.835,249.198
2015-01-01 09:00,-0.105548,286.271,284.414,258.802,286.31,283.049,259.127,-0.148946,-0.213114,231.076,249.513
2015-01-01 10:00,0.293657,288.43,285.882,259.902,288.087,285.065,259.856,0.203884,0.444697,232.097,249.721
2015-01-01 11:00,0.318203,292.653,288.195,261.305,289.835,286.06,260.581,0.146324,0.432019,232.175,250.34
2015-01-01 12:00,0.286408,295.26,289.379,261.838,290.5,286.343,260.942,0.117339,0.36563,232.935,250.849
2015-01-01 13:00,0.244133,297.649,291.174,262.995,292.209,287.609,261.421,0.0935102,0.306616,233.968,250.442
2015-01-01 14:00,0.206178,298.533,291.383,263.203,292.079,287.329,261.421,0.0755764,0.257648,233.382,250.544
2015-01-01 15:00,0.198665,298.436,289.911,262.786,290.897,286.485,260.942,0.0870732,0.235958,233.456,250.849
2015-01-01 16:00,0.179214,298.533,290.335,262.995,291.029,286.202,260.581,0.0753806,0.220614,234.185,250.849
2015-01-01 17:00,0.181192,298.436,289.911,262.786,290.632,285.777,260.219,0.0834001,0.223438,233.823,251.051
2015-01-01 18:00,0.220265,296.531,288.087,261.519,289.568,285.493,260.942,0.134371,0.265187,234.401,251.949
2015-01-01 19:00,0.189303,297.146,290.965,263.099,292.34,288.445,262.492,0.103545,0.253689,234.756,252.537
2015-01-01 20:00,0.232871,296.114,289.911,262.576,291.686,288.027,262.492,0.165624,0.317381,235.108,253.595
2015-01-01 21:00,0.308552,295.69,290.123,262.786,291.817,288.167,262.017,0.268312,0.416739,235.386,253.309
2015-01-01 22:00,0.584502,292.414,287.869,261.198,289.568,286.485,261.66,0.680484,0.835961,235.108,253.021
2015-01-01 23:00,-0.0130421,288.841,286.105,260.119,287.679,284.205,259.735,-0.0,-0.0,235.038,251.949
2015-01-02 00:00,-0.00302869,288.568,286.439,260.337,288.087,284.922,260.701,-0.0,-0.0,235.108,252.244
2015-01-02 01:00,-0.0,288.977,286.992,260.553,289.3,286.767,261.54,-0.0,-0.0,234.968,253.021
2015-01-02 02:00,-0.0,288.43,286.661,260.661,288.897,286.06,261.66,-0.0,-0.0,233.456,252.244
2015-01-02 03:00,-0.0,288.43,287.212,260.337,289.568,287.048,262.136,-0.0,-0.0,233.456,252.439
2015-01-02 04:00,0.00152722,288.152,287.322,260.876,289.701,287.469,262.255,-0.0,-0.0,234.185,253.021
2015-01-02 05:00,-0.0,288.152,287.432,260.876,290.101,287.888,262.965,-0.0,-0.0,233.382,253.5
2015-01-02 06:00,-0.0,287.01,285.994,259.683,288.087,285.208,260.581,-0.0,-0.0,232.784,252.342
2015-01-02 07:00,0.00258183,287.155,285.77,259.683,288.222,285.493,260.34,-0.0,-0.0,232.405,252.342
2015-01-02 08:00,0.00454769,286.271,284.869,259.134,286.722,283.484,259.127,-0.0,-0.0,230.916,251.051
2015-01-02 09:00,-0.0329813,283.261,278.845,254.926,279.907,276.477,253.881,-0.111701,-0.133186,229.433,247.481
2015-01-02 10:00,0.522312,288.43,276.208,254.099,276.923,271.444,250.633,0.37691,0.623179,230.018,246.258
2015-01-02 11:00,0.347133,288.152,276.336,253.261,276.468,271.605,249.572,0.214606,0.458925,226.685,243.698
2015-01-02 12:00,0.296348,296.219,289.805,261.305,291.029,286.907,260.701,0.122322,0.372106,231.236,251.352
2015-01-02 13:00,0.237185,297.045,289.486,261.198,290.101,285.635,260.461,0.0985638,0.296744,230.755,251.552
2015-01-02 14:00,0.213862,293.472,279.823,255.742,278.427,273.042,250.501,0.119298,0.265438,227.42,246.145
2015-01-02 15:00,0.247781,287.587,268.63,249.286,268.191,263.063,244.372,0.258286,0.361065,228.575,244.647
2015-01-02 16:00,0.16991,294.933,281.624,256.549,281.366,276.784,253.368,0.137012,0.229879,232.557,250.849
2015-01-02 17:00,0.302568,272.58,208.734,220.077,207.269,204.955,206.743,0.745916,0.818241,208.838,209.379
2015-01-02 18:00,0.241855,269.865,246.102,236.943,243.895,240.576,231.905,0.414185,0.507647,225.156,234.542
2015-01-02 19:00,0.459847,286.271,254.69,242.369,251.856,247.708,236.765,0.611636,0.724219,228.575,241.475
2015-01-02 20:00,0.594501,293.816,260.528,245.451,256.406,250.957,237.827,0.467971,0.611907,226.499,238.027
2015-01-02 21:00,0.410777,294.156,280.669,256.664,280.054,275.396,252.464,0.35483,0.481726,230.996,248.882
2015-01-02 22:00,0.807262,291.065,285.994,260.011,287.679,284.492,259.614,0.582992,0.838949,231.63,251.152
2015-01-02 23:00,-0.0,287.587,284.528,259.134,285.757,281.735,257.406,-0.0,-0.0,229.601,248.882
2015-01-03 00:00,-0.0,287.729,285.321,259.464,287.134,283.339,259.127,-0.0,-0.0,232.784,249.825
2015-01-03 01:00,-0.00209568,287.3,284.185,258.691,285.895,281.441,257.158,-0.0,-0.0,233.085,249.093
2015-01-03 02:00,0.00170916,281.165,275.046,253.381,276.468,271.121,250.765,-0.0,-0.0,232.557,247.481
2015-01-03 03:00,-0.00154796,287.444,285.546,259.464,287.543,283.917,259.37,-0.0,-0.0,232.251,250.646
2015-01-03 04:00,-0.00152483,287.871,285.994,259.902,288.358,285.35,260.822,-0.0,-0.0,231.63,250.849
2015-01-03 05:00,0.00162918,287.01,285.546,259.024,287.815,285.065,259.614,-0.0,-0.0,232.328,250.34
2015-01-03 06:00,-0.0,285.045,281.742,257.346,282.517,277.091,253.24,-0.0,-0.0,229.685,247.917
2015-01-03 07:00,-0.0,280.05,274.655,253.14,272.741,263.063,244.231,-0.0,-0.0,228.921,244.53
2015-01-03 08:00,-0.00450794,264.009,253.411,240.766,251.036,244.973,234.291,-0.0,-0.0,228.224,238.441
2015-01-03 09:00,-0.0930386,281.883,275.176,253.14,274.933,268.835,247.006,-0.105034,-0.156547,226.216,243.818
2015-01-03 10:00,0.31198,286.717,278.845,254.454,279.76,274.929,251.291,0.253993,0.460329,227.691,245.46
2015-01-03 11:00,0.309917,290.429,282.566,256.892,282.946,278.307,254.773,0.180405,0.43021,227.87,246.371
2015-01-03 12:00,0.291486,295.151,287.651,260.011,288.763,284.205,258.882,0.130474,0.367372,228.835,248.775
2015-01-03 13:00,0.246247,297.449,290.335,261.838,291.555,287.329,261.182,0.0986966,0.30597,228.048,249.198
2015-01-03 14:00,0.319747,297.248,286.217,259.354,288.222,284.922,260.461,0.238754,0.36093,227.78,248.987
2015-01-03 15:00,0.251322,293.007,282.331,256.892,283.797,280.108,257.53,0.221702,0.337513,228.224,248.348
2015-01-03 16:00,0.223009,294.602,282.096,257.006,282.231,278.004,254.392,0.152623,0.272969,226.963,246.707
2015-01-03 17:00,0.233131,295.69,281.267,256.434,280.931,275.085,252.075,0.158325,0.281942,226.685,245.918
2015-01-03 18:00,0.361661,278.482,232.839,230.027,228.293,222.462,215.674,0.377861,0.513921,214.879,220.989
2015-01-03 19:00,0.380572,283.594,243.94,235.499,0.0,0.0,224.657,0.377348,0.515651,218.391,226.57
2015-01-03 20:00,0.514162,288.291,243.496,235.985,239.669,233.969,225.36,0.529467,0.666383,221.031,231.031
2015-01-03 21:00,0.834221,297.349,258.195,244.488,252.262,244.544,231.257,0.681857,0.838027,221.371,234.542
2015-01-03 22:00,1.90146,281.346,222.904,225.897,215.993,210.931,209.201,1.09949,1.70895,208.652,212.8
2015-01-03 23:00,-0.0,218.393,209.734,219.409,207.269,204.955,205.593,-0.0,-0.0,206.905,209.047
2015-01-04 00:00,-0.0,204.719,196.665,214.176,195.375,194.446,198.979,-0.0,-0.0,195.25,195.457
2015-01-04 01:00,-0.0,nan,202.034,216.631,200.733,199.981,203.468,-0.0,-0.0,200.142,200.502
2015-01-04 02:00,-0.00170832,238.442,223.94,225.504,219.508,216.652,213.447,-0.0,-0.0,213.693,218.41
2015-01-04 03:00,-0.0,225.382,214.79,221.6,213.381,210.576,210.718,-0.0,-0.0,211.636,213.382
2015-01-04 04:00,-0.0,225.382,214.358,221.6,211.825,209.859,209.638,-0.0,-0.0,210.966,211.906
2015-01-04 05:00,-0.0,225.382,217.685,223.076,216.715,213.694,213.241,-0.0,-0.0,213.078,216.131
2015-01-04 06:00,-0.0,230.231,221.841,224.507,219.847,217.607,215.674,-0.0,-0.0,215.024,218.41
2015-01-04 07:00,0.00255716,253.206,238.585,232.146,235.93,231.968,225.009,-0.0,-0.0,220.101,228.782
2015-01-04 08:00,0.00446819,246.775,234.477,230.387,231.957,228.59,222.692,-0.0,-0.0,217.229,226.948
2015-01-04 09:00,-0.0,251.944,240.75,233.344,239.911,236.157,228.446,-0.0742829,-0.0590474,219.863,231.859
2015-01-04 10:00,0.521669,248.394,224.279,225.504,223.443,221.875,219.927,0.816625,0.967577,217.36,221.436
2015-01-04 12:00,0.351741,257.103,234.208,230.387,234.633,233.474,228.949,0.584606,0.659477,223.849,230.863
2015-01-04 13:00,0.334123,258.576,236.318,0.0,236.186,235.435,230.604,0.60904,0.683472,224.56,231.364
2015-01-04 14:00,0.251937,255.521,243.049,234.515,243.895,242.805,235.846,0.469292,0.553201,227.329,237.185
2015-01-04 15:00,0.263049,275.932,255.05,241.207,255.827,253.122,242.241,0.263308,0.37887,227.959,240.185
2015-01-04 16:00,0.25875,279.278,265.545,247.2,265.997,264.279,250.236,0.242557,0.342856,227.691,243.937
2015-01-04 17:00,0.166227,295.796,289.058,260.984,290.367,285.635,259.492,0.0616399,0.218039,229.769,248.025
2015-01-04 18:00,0.160851,297.045,291.487,262.471,293.377,288.999,261.898,0.0565543,0.214683,230.996,249.825
2015-01-04 19:00,0.176624,296.531,290.651,262.261,292.079,287.748,260.822,0.0733628,0.238871,232.251,250.238
2015-01-04 20:00,0.210213,295.796,289.911,261.944,291.292,286.767,260.822,0.109531,0.289183,232.557,250.544
2015-01-04 21:00,1.11004,280.799,220.75,224.507,215.628,215.683,214.671,0.957276,1.21612,210.102,211.602
2015-01-04 22:00,1.04354,257.103,207.178,218.957,206.392,205.349,207.197,0.864357,1.19093,206.498,206.606
2015-01-04 23:00,-0.0,218.393,204.988,218.041,204.12,203.351,205.825,-0.0,-0.0,204.573,204.328
2015-01-05 00:00,-0.00304192,213.142,201.41,216.392,200.733,199.102,201.763,-0.0,-0.0,201.207,200.956
2015-01-05 01:00,-0.00209638,213.142,204.418,217.576,202.701,202.113,204.893,-0.0,-0.0,203.192,204.328
2015-01-05 02:00,-0.0,213.142,208.734,219.183,208.556,207.651,208.318,-0.0,-0.0,208.084,209.379
2015-01-05 03:00,0.00154447,222.276,220.75,223.899,219.167,217.607,216.859,-0.0,0.00155924,215.31,217.669
2015-01-05 04:00,-0.0,225.382,223.597,225.504,222.485,220.384,217.639,-0.0,-0.0,217.36,221.213
2015-01-05 05:00,0.00162147,233.989,230.559,228.192,229.729,227.517,223.949,-0.0,-0.0,221.258,226.948
2015-01-05 06:00,-0.00189998,257.103,252.666,240.617,253.669,251.354,241.084,-0.0,-0.0,226.027,240.446
2015-01-05 07:00,-0.0,254.966,253.411,240.617,254.461,252.732,242.097,-0.0,0.00256893,227.601,242.23
2015-01-05 08:00,0.0044285,261.666,259.871,244.626,261.069,258.774,246.319,-0.0,-0.0,226.963,244.53
2015-01-05 09:00,-0.0,275.251,267.033,248.9,266.167,260.225,244.512,-0.0468184,-0.0558238,225.643,242.23
2015-01-05 10:00,0.460075,262.869,251.721,240.171,250.415,248.121,238.428,0.773895,0.966104,227.147,240.185
2015-01-05 11:00,0.522081,292.653,265.995,248.512,265.482,259.502,244.512,0.404223,0.589081,227.78,242.971
2015-01-05 12:00,0.636158,292.414,247.15,237.884,249.157,247.708,238.727,0.644465,0.730759,229.007,240.964
2015-01-05 13:00,0.502595,288.43,248.784,238.503,250.623,250.156,241.229,0.486162,0.579675,230.835,242.478
2015-01-05 15:00,0.330905,290.171,270.607,251.429,272.741,271.444,255.027,0.263346,0.355316,232.02,249.303
2015-01-05 16:00,0.200934,295.368,286.217,260.661,287.407,283.049,259.492,0.119287,0.230835,232.481,250.032
2015-01-05 17:00,0.141859,295.69,288.628,261.944,289.568,285.208,260.098,0.0667287,0.189729,231.943,250.135
2015-01-05 18:00,0.177003,294.933,285.994,259.793,286.172,281.293,257.777,0.0922267,0.241926,231.787,248.987
2015-01-05 19:00,0.518993,271.798,207.178,218.041,205.497,204.559,206.515,0.69999,0.81448,204.573,205.868
2015-01-05 20:00,0.691275,276.811,208.223,219.183,206.392,206.128,208.096,0.831128,0.9561,207.105,207.326
2015-01-05 21:00,1.12984,278.883,213.031,220.954,211.428,210.219,211.57,1.1542,1.40101,211.303,212.505
2015-01-05 22:00,0.955884,252.585,213.921,221.386,212.609,211.635,211.57,0.809345,1.12212,210.624,212.207
2015-01-05 23:00,-0.0,227.984,221.117,224.305,219.508,218.547,217.445,-0.0,-0.0,215.167,217.918
2015-01-06 00:00,0.00304519,249.89,243.496,235.337,242.283,239.438,231.419,-0.0,-0.0,222.476,234.542
2015-01-06 01:00,-0.0,249.89,240.75,234.681,238.693,237.581,231.743,-0.0,-0.0,220.686,230.524
2015-01-06 02:00,-0.0,279.667,271.574,251.429,271.303,267.506,249.037,-0.0,-0.0,228.048,242.971
2015-01-06 03:00,-0.0015425,279.667,272.12,252.168,271.785,267.004,248.634,-0.0,-0.0,226.871,244.056
2015-01-06 04:00,-0.0,242.013,223.597,225.897,221.182,219.165,216.466,-0.0,-0.0,214.879,218.653
2015-01-06 05:00,-0.0,245.01,227.219,227.058,223.758,221.579,218.601,-0.0,-0.0,214.734,219.608
2015-01-06 06:00,0.0018935,238.442,231.14,228.192,230.012,229.121,224.834,-0.0,-0.0,220.916,225.994
2015-01-06 07:00,-0.0025319,255.521,240.277,233.513,237.451,233.969,226.746,-0.0,-0.0,218.767,226.76
2015-01-06 08:00,-0.0,285.665,281.86,257.459,283.23,279.211,255.658,-0.0,-0.0,228.4,246.707
2015-01-06 09:00,-0.0,284.57,280.789,256.664,282.803,279.061,256.66,-0.0443682,-0.0529023,228.312,246.595
2015-01-06 10:00,0.335064,288.152,285.658,260.119,288.222,284.922,260.098,0.225908,0.482344,230.348,249.303
2015-01-06 11:00,0.201926,290.813,287.102,260.769,289.434,285.777,260.581,0.130603,0.300123,232.175,250.135
2015-01-06 12:00,0.34784,296.943,280.429,256.892,282.374,276.323,254.646,0.188426,0.413468,232.633,249.198
2015-01-06 13:00,0.241399,297.045,291.279,263.099,292.989,288.861,261.898,0.0953829,0.313126,232.328,250.646
2015-01-06 14:00,0.256058,297.146,283.38,259.134,285.061,280.702,258.147,0.151656,0.294161,231.865,249.721
2015-01-06 15:00,0.25494,298.63,276.336,255.043,278.427,272.724,254.009,0.160408,0.28217,230.593,248.562
2015-01-06 16:00,0.234355,297.349,287.651,261.412,289.434,286.343,261.062,0.151509,0.273891,230.43,249.928
2015-01-06 17:00,0.230208,291.44,282.214,257.91,284.781,282.467,259.735,0.224667,0.31314,232.097,250.646
2015-01-06 18:00,0.201284,298.533,290.335,262.366,292.34,288.167,261.54,0.124366,0.270487,232.633,251.652
2015-01-06 20:00,0.241362,292.771,282.214,257.91,283.23,280.554,259.492,0.241341,0.334176,234.615,252.342
2015-01-06 21:00,0.154923,290.558,284.528,259.464,284.781,281.735,258.515,0.176048,0.263417,233.823,251.051
2015-01-06 22:00,1.06904,254.966,214.358,221.386,211.825,210.931,213.035,0.979048,1.40965,206.084,208.711
2015-01-06 23:00,-0.00667862,280.239,269.059,250.051,267.185,261.831,243.525,-0.0,-0.0,226.871,241.475
2015-01-07 00:00,-0.0,245.01,237.591,231.625,237.2,235.917,230.111,-0.0,-0.0,223.224,231.53
2015-01-07 01:00,0.00209593,230.231,227.533,227.248,228.001,226.974,223.592,-0.0,-0.0,222.368,226.187
2015-01-07 02:00,-0.00170465,225.382,221.841,224.908,222.485,221.283,220.86,-0.0,-0.0,217.752,220.535
2015-01-07 03:00,-0.0,247.601,245.463,236.466,245.693,244.758,237.222,-0.0,-0.0,228.048,238.441
2015-01-07 04:00,-0.0,239.711,236.318,231.625,236.441,234.461,229.283,-0.0,-0.0,225.352,232.508
2015-01-07 05:00,0.00161326,247.601,244.598,235.173,244.8,243.461,236.307,-0.0,-0.0,228.662,237.185
2015-01-07 06:00,-0.0,285.202,281.624,256.778,283.23,279.959,257.034,-0.0,-0.0,228.835,247.917
2015-01-07 07:00,-0.0,280.613,274.524,252.899,276.01,272.086,251.683,-0.0,-0.0,229.348,246.258
2015-01-07 08:00,-0.0,285.202,283.032,257.572,284.921,282.028,258.147,-0.0,-0.0,229.852,249.408
2015-01-07 09:00,-0.0248844,282.923,282.448,257.459,285.618,283.194,259.614,-0.0632087,-0.100489,234.401,252.731
2015-01-07 10:00,0.263661,288.43,286.105,259.244,288.358,285.35,260.581,0.223242,0.399273,233.677,252.634
2015-01-07 11:00,0.298641,291.686,282.799,258.134,285.201,282.904,259.856,0.217077,0.369759,233.308,253.595
2015-01-07 12:00,0.299949,294.602,287.541,260.661,288.897,284.349,258.638,0.133332,0.387984,232.633,252.146
2015-01-07 13:00,0.253449,297.848,291.902,262.786,293.506,289.413,262.373,0.097994,0.31947,233.603,253.69
2015-01-07 14:00,0.217101,298.918,292.725,263.307,294.277,289.964,262.492,0.0790849,0.270147,234.185,254.068
2015-01-07 15:00,0.18831,299.391,292.314,262.89,293.377,288.999,261.54,0.0713032,0.234981,233.085,253.5
2015-01-07 16:00,0.266605,293.702,281.86,256.778,283.938,281.146,259.127,0.252119,0.355376,232.02,253.405
2015-01-07 17:00,0.210679,294.713,282.566,257.006,282.803,278.307,255.406,0.145575,0.276256,230.018,249.617
2015-01-07 18:00,0.336916,262.074,231.713,229.118,230.853,229.647,225.709,0.425599,0.539008,220.454,225.011
2015-01-07 19:00,0.35814,286.121,269.908,249.286,270.819,268.67,251.028,0.395892,0.493802,229.433,246.258
2015-01-07 20:00,0.369231,273.338,257.511,242.656,257.17,255.992,244.932,0.489329,0.641333,229.685,243.577
2015-01-07 21:00,0.312705,293.472,288.303,260.984,289.701,286.343,261.062,0.275082,0.455091,230.348,251.452
2015-01-07 22:00,0.343111,290.558,288.736,261.198,291.292,288.306,262.255,0.617336,0.671132,233.382,252.537
2015-01-07 23:00,-0.0,289.647,287.978,260.553,290.367,287.748,262.136,-0.0,-0.0,235.731,252.828
2015-01-08 00:00,-0.00304997,274.787,273.065,252.412,275.857,273.832,255.153,-0.0,-0.0,233.159,251.352
2015-01-08 01:00,-0.00209528,285.202,283.032,257.459,285.479,282.613,259.37,-0.00177407,-0.0,233.968,252.537
2015-01-08 02:00,0.00170304,287.01,284.528,258.802,286.722,283.917,258.638,-0.0,-0.0,232.175,250.849
2015-01-08 03:00,-0.0,284.73,279.58,255.626,280.639,276.323,252.853,-0.0,-0.0,228.136,247.699
2015-01-08 04:00,-0.0,285.045,280.549,256.549,281.366,277.853,254.392,-0.0,-0.0,227.147,246.707
2015-01-08 05:00,-0.0,282.059,275.046,253.261,275.242,271.121,249.305,-0.0,-0.0,224.76,242.848
2015-01-08 06:00,-0.0,286.864,285.994,259.354,288.493,285.919,261.062,-0.0,-0.0,229.433,250.238
2015-01-08 07:00,-0.0,286.717,284.869,258.134,286.997,284.349,259.856,-0.0,-0.0,229.517,249.825
2015-01-08 08:00,-0.00431016,287.155,285.77,258.913,288.358,286.06,261.301,-0.0,-0.0,230.184,250.849
2015-01-08 09:00,-0.0236829,287.155,286.217,259.134,288.897,286.485,261.779,-0.0401045,-0.0717278,230.593,250.646
2015-01-08 10:00,0.323985,288.841,286.661,259.134,288.763,286.06,261.301,0.236666,0.468176,230.593,250.849
2015-01-08 11:00,0.322663,292.414,287.869,260.011,289.701,286.343,261.421,0.160564,0.428615,229.935,250.238
2015-01-08 12:00,0.293169,295.902,289.911,261.305,291.423,287.469,261.182,0.124113,0.371862,230.184,250.849
2015-01-08 13:00,0.252329,297.749,290.965,261.944,292.209,287.748,262.017,0.100612,0.313983,230.348,250.646
2015-01-08 14:00,0.253876,296.008,276.208,253.621,275.55,267.171,248.094,0.13261,0.295832,228.488,243.818
2015-01-08 15:00,0.214076,281.883,267.18,247.859,266.847,263.586,247.687,0.172343,0.302335,229.769,244.53
2015-01-08 16:00,0.179997,298.918,291.174,262.366,292.47,288.167,261.182,0.082063,0.223652,229.601,249.198
2015-01-08 17:00,0.182709,296.008,286.105,258.358,286.86,282.758,256.785,0.107573,0.251642,230.184,248.133
2015-01-08 18:00,0.198135,294.933,285.658,258.134,286.585,282.467,258.023,0.128693,0.280862,230.43,248.455
2015-01-08 19:00,0.485062,266.131,217.285,222.449,215.993,215.356,215.274,0.632172,0.76714,212.765,214.233
2015-01-08 20:00,0.668172,275.48,243.049,234.845,244.349,241.475,233.976,0.875735,1.07883,227.42,235.146
2015-01-08 21:00,1.03582,276.594,244.598,236.146,242.515,242.143,234.604,0.918141,1.15602,224.359,230.524
2015-01-08 22:00,0.0633257,278.684,268.054,248.382,267.857,264.279,246.319,0.232344,0.234414,227.691,240.835
2015-01-08 23:00,-0.0,274.787,265.243,246.934,263.92,261.477,246.044,-0.0,-0.0,227.51,239.523
2015-01-09 00:00,-0.0,261.251,243.049,233.849,240.87,237.581,228.614,-0.0,-0.0,222.15,230.183
2015-01-09 01:00,-0.00209433,244.063,238.338,231.799,236.695,235.917,230.276,-0.0,-0.0,223.538,229.314
2015-01-09 02:00,-0.00170125,249.89,237.086,230.743,235.155,233.722,227.94,-0.0,-0.0,221.819,227.509
2015-01-09 03:00,-0.00153572,266.466,251.53,238.657,248.093,244.328,232.707,-0.0,-0.0,220.916,231.031
2015-01-09 04:00,-0.0,267.761,251.912,240.021,248.946,243.461,231.257,-0.0,-0.0,221.258,232.669
2015-01-09 05:00,-0.0,268.686,254.509,240.766,251.036,247.293,234.916,-0.0,-0.0,221.596,232.508
2015-01-09 06:00,-0.00187336,283.76,277.098,253.621,278.128,274.46,252.335,-0.0,-0.0,227.51,245.46
2015-01-09 07:00,-0.0,276.594,268.487,248.121,268.524,264.623,245.905,-0.0,-0.0,227.329,242.848
2015-01-09 08:00,-0.0,282.059,277.224,253.621,278.128,275.551,253.625,-0.0,-0.0,227.055,245.69
2015-01-09 09:00,-0.0225826,282.753,278.101,253.741,279.613,276.784,254.646,-0.0382413,-0.045597,227.601,246.483
2015-01-09 10:00,0.212187,283.428,276.845,252.656,277.528,273.675,251.683,0.217768,0.337552,227.42,245.46
2015-01-09 12:00,0.38809,259.505,231.427,228.564,230.853,229.909,226.229,0.540746,0.654267,221.93,226.76
2015-01-09 13:00,0.282056,253.206,228.463,227.058,227.708,226.426,223.77,0.410466,0.51463,221.145,224.811
2015-01-09 14:00,0.204755,269.865,247.973,236.466,245.914,243.243,232.867,0.251487,0.371316,224.054,233.617
2015-01-09 15:00,0.156781,285.512,269.343,248.512,267.69,263.412,244.652,0.13869,0.250412,225.058,238.714
2015-01-09 16:00,0.104971,289.779,279.091,254.099,279.022,274.773,251.159,0.0976688,0.203797,227.238,243.457
2015-01-09 17:00,0.192265,294.602,282.916,256.549,284.501,279.361,253.753,0.115694,0.262467,228.921,246.595
2015-01-09 18:00,0.154548,294.602,286.439,259.134,287.134,283.773,258.638,0.106751,0.228564,230.018,248.025
2015-01-09 19:00,0.383507,270.434,245.676,236.306,244.8,242.805,234.916,0.410092,0.547383,227.87,234.236
2015-01-09 20:00,0.559432,275.02,242.37,234.017,241.344,239.208,231.094,0.572271,0.758419,0.0,232.669
2015-01-09 21:00,0.911273,273.338,242.597,234.35,242.747,240.576,232.867,0.833026,1.10317,225.739,233.617
2015-01-09 22:00,0.68664,269.283,254.328,240.469,254.066,251.75,239.913,0.634229,0.861253,227.691,238.441
2015-01-09 23:00,-0.0,262.475,253.595,240.021,253.469,251.947,240.5,-0.0,-0.0,229.348,240.316
2015-01-10 00:00,-0.00305237,287.729,284.414,257.91,286.31,283.484,259.977,-0.0,-0.0,231.943,249.825
2015-01-10 01:00,-0.00209309,245.01,241.913,233.681,241.815,241.251,234.291,-0.0,-0.0,229.093,237.043
2015-01-10 02:00,-0.0,213.142,201.41,215.909,200.227,199.981,202.986,-0.0,-0.0,201.465,201.84
2015-01-10 03:00,-0.0,213.142,205.549,217.106,204.12,202.941,204.658,-0.0,-0.0,204.349,204.721
2015-01-10 04:00,-0.00150448,213.142,207.704,218.73,207.269,206.895,208.761,-0.0,-0.0,206.498,207.678
2015-01-10 05:00,-0.0,225.382,218.082,223.076,217.78,216.652,216.071,-0.0,-0.0,216.15,217.669
2015-01-10 06:00,-0.0,218.393,216.88,221.814,215.993,215.027,213.857,-0.0,-0.0,213.693,215.6
2015-01-10 07:00,-0.0,227.984,223.597,224.708,223.443,222.753,220.302,-0.0,-0.0,219.26,222.096
2015-01-10 08:00,-0.0,230.231,226.902,226.481,226.82,225.874,223.053,-0.0,-0.0,221.484,225.011
2015-01-10 09:00,-0.0215722,230.231,227.845,226.674,228.001,226.974,223.233,-0.0365303,-0.0653352,220.801,225.799
2015-01-10 10:00,0.305948,262.869,247.769,236.625,246.575,244.112,234.291,0.407859,0.519169,224.359,234.542
2015-01-10 11:00,0.322829,248.394,234.477,229.665,235.155,233.969,229.946,0.529745,0.628756,225.156,231.198
2015-01-10 12:00,0.226632,266.466,255.23,240.021,254.854,252.927,241.808,0.281437,0.41565,228.048,239.922
2015-01-10 13:00,0.213304,286.421,274.261,250.806,274.467,270.473,250.501,0.17064,0.354945,229.178,245.918
2015-01-10 14:00,0.250426,269.865,248.38,237.258,248.52,246.246,237.827,0.279501,0.397106,228.136,237.608
2015-01-10 15:00,0.166169,279.473,267.618,247.728,266.508,264.451,248.634,0.162493,0.276445,228.921,243.093
2015-01-10 16:00,0.211043,282.059,265.243,246.667,265.138,261.477,244.652,0.184549,0.315516,228.312,242.848
2015-01-10 17:00,0.290032,265.791,240.514,232.834,240.392,238.515,230.44,0.404166,0.525828,225.449,232.829
2015-01-10 18:00,0.352127,261.666,233.392,229.484,233.31,232.474,228.109,0.477033,0.589299,224.959,229.489
2015-01-10 19:00,0.411022,259.954,236.06,231.973,236.186,235.435,231.257,0.582815,0.713249,225.739,230.524
2015-01-10 20:00,0.731487,280.427,227.533,227.248,226.522,223.043,218.982,0.737044,0.943229,218.891,223.586
2015-01-10 21:00,1.28611,282.059,212.119,220.736,211.428,210.219,210.504,1.27951,1.56619,212.126,211.906
2015-01-10 22:00,1.25284,254.966,224.95,226.287,224.384,223.043,220.302,1.04339,1.49289,219.503,222.956
2015-01-10 23:00,-0.0,263.255,251.339,238.963,250.415,246.876,236.765,-0.0,-0.0,224.661,236.325
2015-01-11 00:00,-0.00305267,282.753,274.916,252.168,274.778,270.311,249.572,-0.0,-0.00308185,225.254,242.354
2015-01-11 01:00,-0.0,285.512,281.742,256.089,283.23,280.108,256.535,-0.0,-0.0,228.835,247.151
2015-01-11 02:00,-0.0,287.3,285.77,258.469,288.087,285.777,261.182,-0.0,-0.0,229.517,250.442
2015-01-11 03:00,-0.0015305,288.291,287.76,259.134,290.367,288.306,262.492,-0.0,-0.0,229.935,251.452
2015-01-11 04:00,-0.0,276.155,267.326,248.512,266.508,261.654,245.628,-0.0,-0.0,227.329,242.354
2015-01-11 05:00,-0.0,278.279,271.848,250.303,271.464,266.16,248.903,-0.0,-0.0,228.312,243.577
2015-01-11 06:00,-0.0,259.045,250.175,238.503,250.83,247.915,239.025,-0.0,-0.0,229.348,239.255
2015-01-11 07:00,-0.0,257.605,248.985,238.195,249.368,247.085,239.173,-0.0,-0.0,230.348,240.053
2015-01-11 08:00,0.0041938,266.797,255.941,241.5,255.633,250.957,239.913,-0.0,-0.0,230.348,241.348
2015-01-11 09:00,-0.0,269.576,258.703,242.656,257.928,251.75,238.727,-0.0349547,-0.0416782,228.488,240.964
2015-01-11 10:00,0.276844,288.841,287.541,259.024,289.835,287.469,261.779,0.223241,0.412581,231.076,251.652
2015-01-11 11:00,0.335836,293.472,290.017,260.228,292.079,289.137,262.965,0.157973,0.446266,230.996,252.146
2015-01-11 12:00,0.293461,296.323,291.798,261.625,293.892,290.784,263.553,0.121832,0.382279,232.097,252.342
2015-01-11 13:00,0.254845,298.726,293.438,262.471,295.424,291.871,264.372,0.0985338,0.322716,230.916,253.213
2015-01-11 14:00,0.218956,299.203,292.108,262.049,293.506,289.276,260.942,0.0846576,0.275992,228.835,251.352
2015-01-11 15:00,0.211844,299.672,291.487,261.412,292.47,288.722,261.779,0.0951345,0.252862,229.178,251.152
2015-01-11 16:00,0.23636,289.779,273.466,250.806,271.945,268.173,248.499,0.165957,0.295655,225.546,242.478
2015-01-11 17:00,0.236718,281.883,263.867,245.587,261.431,259.139,244.372,0.205541,0.318234,226.405,239.789
2015-01-11 18:00,0.232722,293.816,282.448,255.858,283.088,280.108,257.282,0.172988,0.300514,228.835,248.987
2015-01-11 19:00,0.187922,297.947,293.641,262.471,295.55,292.276,264.255,0.0879309,0.262943,230.916,253.974
2015-01-11 20:00,0.125092,295.69,292.52,262.366,294.661,291.464,264.488,0.0943607,0.192876,231.473,254.907
2015-01-11 21:00,0.24442,296.323,293.843,263.099,296.559,294.149,265.069,0.217128,0.364067,231.943,255.639
2015-01-11 22:00,0.608997,293.007,290.651,261.091,293.377,290.921,263.905,0.670328,0.819759,231.709,254.999
2015-01-11 23:00,-0.00677463,290.813,289.911,260.553,292.73,290.648,263.787,-0.0,-0.0,232.557,255.911
2015-01-12 00:00,-0.0,290.041,289.058,260.011,291.686,289.137,262.965,-0.0,-0.0,234.686,256.091
2015-01-12 01:00,-0.0,279.667,279.336,254.808,281.655,280.406,259.977,-0.0,-0.0,234.472,255.366
2015-01-12 02:00,-0.00169479,260.827,258.365,243.084,257.739,256.928,245.35,-0.0,-0.0,229.601,244.881
2015-01-12 03:00,-0.0015277,269.865,255.409,241.061,251.242,246.876,235.537,-0.0,-0.0,221.258,233.773
2015-01-12 04:00,-0.0,285.512,280.429,255.277,280.493,277.243,253.881,-0.0,-0.0,229.348,250.032
2015-01-12 05:00,0.00159083,285.818,283.032,256.892,284.781,281.882,257.653,-0.0,-0.0,230.916,253.117
2015-01-12 06:00,0.00185235,285.818,283.264,256.892,285.061,282.321,258.392,-0.0,-0.0,230.511,253.117
2015-01-12 07:00,-0.0,285.97,283.841,256.549,285.479,283.484,259.005,-0.0,-0.0,230.266,252.828
2015-01-12 08:00,-0.00415561,270.151,255.941,241.061,252.465,247.915,234.447,-0.0,-0.0,222.692,236.179
2015-01-12 09:00,-0.0593485,278.883,271.299,249.158,271.464,267.84,247.415,-0.0502503,-0.0998598,228.312,246.818
2015-01-12 10:00,0.300417,284.41,277.476,253.14,277.828,274.46,253.111,0.260016,0.438085,229.433,248.882
2015-01-12 11:00,0.305708,283.76,271.299,249.669,270.332,266.835,247.415,0.234424,0.436742,226.778,243.457
2015-01-12 12:00,0.280906,273.338,250.76,238.657,247.446,245.399,236.0,0.306946,0.450298,221.708,231.364
2015-01-12 13:00,0.271423,275.707,247.15,236.625,244.8,239.895,229.615,0.248548,0.388688,221.708,234.389
2015-01-12 14:00,0.271033,269.283,238.338,233.175,234.895,231.968,226.918,0.298113,0.410435,216.83,223.377
2015-01-12 15:00,0.182618,291.19,280.669,255.277,279.907,277.548,256.16,0.108037,0.250545,228.662,248.669
2015-01-12 16:00,0.164839,298.726,293.336,262.995,294.277,291.6,263.436,0.0702725,0.224602,231.236,255.457
2015-01-12 17:00,0.168987,300.408,296.033,264.747,297.683,294.282,265.647,0.0623424,0.22422,233.75,257.508
2015-01-12 18:00,0.200065,284.087,267.18,248.121,263.04,260.045,244.231,0.198009,0.264754,222.692,237.043
2015-01-12 19:00,0.582786,277.451,200.774,216.869,199.196,199.102,201.763,0.903253,1.01882,201.973,200.956
2015-01-12 20:00,0.68562,282.234,200.125,216.631,198.671,197.294,201.515,0.83617,0.964919,202.222,200.041
2015-01-12 21:00,1.09879,285.512,206.1,219.632,204.12,202.941,205.593,1.01492,1.23031,205.874,206.239
2015-01-12 22:00,2.5515,271.531,202.646,217.342,201.233,201.271,204.185,1.78611,2.6773,204.122,203.113
2015-01-12 23:00,-0.0,213.142,199.463,217.342,197.601,196.363,200.261,-0.0,-0.0,198.732,199.092
2015-01-13 00:00,-0.00305144,218.393,199.463,216.631,198.14,195.891,198.719,-0.0,-0.0,199.867,199.092
2015-01-13 01:00,-0.0,213.142,202.034,217.106,200.227,198.656,202.986,-0.0,-0.0,201.973,202.696
2015-01-13 02:00,0.00169229,218.393,203.838,218.272,201.728,200.415,202.986,-0.0,-0.0,201.973,203.113
2015-01-13 03:00,0.00152477,218.393,206.1,218.502,204.584,203.351,204.893,-0.0,-0.0,206.292,206.239
2015-01-13 04:00,-0.00149402,218.393,213.479,222.027,212.609,211.284,211.358,-0.0,-0.0,211.303,212.8
2015-01-13 05:00,-0.0,225.382,214.358,221.814,212.219,210.931,209.42,-0.0,-0.0,211.47,212.8
2015-01-13 06:00,-0.0,222.276,208.734,219.632,207.702,207.274,208.096,-0.0,-0.0,207.502,208.027
2015-01-13 07:00,-0.0,222.276,210.224,220.077,208.977,207.274,207.872,-0.0,-0.0,207.891,208.371
2015-01-13 08:00,0.00411779,240.898,226.902,227.058,224.384,223.619,220.115,-0.0,-0.0,212.922,217.418
2015-01-13 09:00,-0.0189881,275.48,267.18,247.465,266.508,262.888,244.231,-0.0321544,-0.0575089,226.122,243.214
2015-01-13 10:00,0.338142,288.152,284.982,257.91,286.585,283.773,259.37,0.257674,0.539372,231.394,253.117
2015-01-13 11:00,0.312967,0.0,285.095,257.346,286.31,283.049,257.9,0.18402,0.453459,230.101,252.047
2015-01-13 12:00,0.293025,291.809,284.755,257.685,285.895,282.028,257.406,0.144996,0.397637,230.996,252.244
2015-01-13 13:00,0.234869,294.156,287.869,259.464,289.032,285.777,259.735,0.10506,0.316152,230.593,252.244
2015-01-13 14:00,0.220524,292.534,282.096,256.205,282.231,277.853,254.009,0.112674,0.285328,229.178,249.303
2015-01-13 15:00,0.183823,298.63,292.827,262.576,294.149,290.511,262.965,0.069395,0.241137,231.709,254.814
2015-01-13 16:00,0.220125,280.427,256.294,241.646,253.867,249.348,236.153,0.169791,0.296693,223.013,235.74
2015-01-13 17:00,0.203879,285.357,267.18,247.465,264.965,260.764,244.512,0.160367,0.274032,224.46,240.185
2015-01-13 18:00,0.197187,280.799,274.916,253.261,276.163,275.861,257.158,0.311045,0.364057,231.473,252.731
2015-01-13 19:00,0.161136,292.771,277.601,254.217,277.075,269.329,249.838,0.144787,0.214135,227.147,245.575
2015-01-13 20:00,0.117852,292.174,289.805,261.198,292.47,289.689,263.318,0.107461,0.224229,232.097,252.146
2015-01-13 21:00,0.187305,289.247,284.071,258.134,286.172,283.629,259.37,0.178837,0.221282,230.996,251.051
2015-01-13 22:00,1.8117,286.569,270.746,250.177,270.819,266.667,246.044,1.21369,1.86922,227.147,246.371
2015-01-13 23:00,-0.0,284.888,280.308,256.205,281.655,278.458,255.658,-0.0,-0.0,228.4,250.032
2015-01-14 00:00,-0.0,287.444,285.208,258.58,287.27,284.779,259.614,-0.0,-0.0,228.662,250.544
2015-01-14 01:00,0.00208532,280.799,273.466,251.922,272.741,269.165,248.634,-0.0,-0.0,224.56,240.706
2015-01-14 02:00,-0.0,286.717,284.185,258.022,286.31,283.917,259.127,-0.0,0.00170576,228.662,248.987
2015-01-14 03:00,-0.00152172,287.3,286.55,259.683,289.434,286.767,261.779,-0.0,-0.0,230.835,251.652
2015-01-14 04:00,-0.0,280.427,280.429,256.434,283.372,281.735,259.735,-0.0,-0.0,232.328,252.439
2015-01-14 05:00,0.00158122,287.3,286.661,259.464,289.568,287.188,262.255,-0.0,-0.0,231.473,252.537
2015-01-14 06:00,-0.00183798,280.239,273.065,251.18,273.372,270.148,249.705,-0.0,-0.0,225.156,242.971
2015-01-14 07:00,-0.0,284.888,282.331,256.778,284.22,281.735,257.777,-0.0,-0.0,229.517,250.032
2015-01-14 08:00,-0.0,281.883,279.702,255.742,281.943,279.211,256.535,-0.0,-0.0,230.348,250.238
2015-01-14 09:00,-0.0365024,282.059,276.336,253.501,276.772,273.2,251.291,-0.0309065,-0.055277,227.055,245.345
2015-01-14 10:00,0.438545,286.717,280.909,256.089,282.087,278.911,256.41,0.313297,0.629517,227.329,247.59
2015-01-14 11:00,0.396002,289.113,275.823,253.14,276.62,273.2,253.497,0.308175,0.479158,227.601,246.032
2015-01-14 12:00,0.299482,294.38,288.843,260.119,290.234,286.343,260.461,0.135668,0.389004,229.263,249.513
2015-01-14 13:00,0.26034,297.045,290.545,261.412,291.817,287.748,261.182,0.1027,0.33003,229.685,250.135
2015-01-14 14:00,0.219409,290.558,277.35,253.501,277.226,272.086,252.075,0.129934,0.290647,230.43,246.032
2015-01-14 15:00,0.1944,296.738,285.546,259.024,285.757,279.81,256.16,0.100147,0.235274,229.769,248.882
2015-01-14 16:00,0.0,297.947,284.755,258.134,285.618,279.661,254.9,0.107319,0.239637,230.348,248.669
2015-01-14 17:00,0.166394,299.108,291.798,262.366,293.377,288.861,261.182,0.0612546,0.21059,230.43,250.032
2015-01-14 18:00,0.168683,299.013,293.133,263.411,294.916,290.648,263.083,0.0674128,0.216616,230.996,251.452
2015-01-14 19:00,0.182297,298.533,293.133,262.995,294.788,291.057,263.318,0.0876043,0.248702,232.784,252.731
2015-01-14 20:00,0.285108,297.449,288.52,260.553,289.434,285.208,259.127,0.210746,0.381493,232.02,251.85
2015-01-14 21:00,0.485041,280.427,254.509,240.617,252.059,248.736,235.072,0.568898,0.730503,225.739,237.608
2015-01-14 22:00,1.5803,264.739,208.734,220.298,208.131,207.651,210.289,1.18751,1.63529,207.891,206.968
2015-01-14 23:00,-0.00679879,225.382,221.481,225.107,220.519,218.857,217.639,-0.0,-0.00686378,217.229,219.608
2015-01-15 00:00,-0.0030478,218.393,214.79,222.238,214.141,212.673,212.827,-0.0,-0.0,211.636,213.668
2015-01-15 01:00,-0.0,227.984,221.841,225.107,220.852,219.165,218.601,-0.0,-0.00210259,216.424,219.134
2015-01-15 02:00,-0.0,245.01,238.83,233.849,237.451,234.461,228.782,-0.0,-0.0,222.476,231.859
2015-01-15 03:00,-0.0,235.601,228.155,227.438,227.708,226.426,222.873,-0.0,-0.0,219.624,224.811
2015-01-15 04:00,-0.0,235.601,230.85,229.118,230.853,229.121,225.883,-0.0,-0.0,221.819,228.423
2015-01-15 05:00,-0.0,251.944,248.177,238.04,248.52,247.085,238.278,-0.0,-0.0,226.405,239.255
2015-01-15 06:00,-0.0018307,248.394,248.38,238.195,248.946,248.121,239.618,-0.0,-0.0,228.835,240.185
2015-01-15 07:00,-0.0024142,268.382,262.616,245.995,262.15,259.502,245.489,-0.0,-0.0,227.238,241.475
2015-01-15 08:00,-0.0,251.944,245.032,235.662,245.914,242.805,233.503,-0.0,-0.0,227.601,237.468
2015-01-15 09:00,-0.035133,230.231,228.155,227.058,228.001,227.517,225.36,-0.0446206,-0.0709377,221.031,224.408
2015-01-15 10:00,0.534708,246.775,243.273,234.845,242.747,242.364,236.307,0.899593,1.17078,225.739,233.617
2015-01-15 11:00,0.333548,290.429,283.726,257.346,285.757,282.467,258.023,0.215527,0.425351,229.433,249.303
2015-01-15 12:00,0.332742,294.491,285.994,258.358,287.134,283.917,259.735,0.194298,0.397702,230.266,250.849
2015-01-15 13:00,0.254776,296.114,290.017,260.769,291.423,287.329,261.301,0.104097,0.320019,231.709,251.949
2015-01-15 14:00,0.213216,296.635,288.736,260.011,289.3,284.922,259.005,0.0859664,0.265224,230.916,250.442
2015-01-15 15:00,0.187413,298.533,291.383,261.838,292.6,288.167,260.942,0.0704153,0.231776,232.557,251.452
2015-01-15 16:00,0.170507,298.918,291.694,261.838,292.6,288.167,261.421,0.0634048,0.211682,233.159,251.85
2015-01-15 17:00,0.163902,299.765,293.742,262.89,295.297,291.464,263.436,0.0612243,0.208052,233.085,253.405
2015-01-15 18:00,0.335749,276.811,241.218,232.834,240.152,234.95,222.147,0.495489,0.609854,220.686,229.137
2015-01-15 19:00,0.239512,269.865,253.779,240.766,250.623,250.156,241.229,0.322249,0.410732,224.56,234.996
2015-01-15 20:00,0.662002,299.579,254.69,241.061,251.036,242.805,229.781,0.541385,0.757289,224.959,235.146
2015-01-15 21:00,1.07511,280.05,200.774,217.106,198.671,198.656,202.255,1.13535,1.34972,201.72,200.956
2015-01-15 22:00,0.941969,259.045,206.1,219.183,204.584,203.351,206.286,0.747716,1.03022,205.449,205.109
2015-01-15 23:00,-0.0,242.013,238.83,233.849,236.948,234.95,229.283,-0.0,-0.0,224.56,231.364
2015-01-16 00:00,-0.0,242.013,239.559,234.183,239.669,236.872,231.419,-0.0,-0.0,227.87,234.996
2015-01-16 01:00,-0.0,246.775,227.533,228.378,223.125,219.165,215.873,-0.0,-0.0,215.31,219.608
2015-01-16 02:00,-0.0,251.282,230.85,229.484,226.221,222.462,218.025,-0.0,-0.0,213.541,219.134
2015-01-16 03:00,-0.0,247.601,233.666,230.921,231.408,228.056,223.592,-0.0,-0.0,218.264,226.57
2015-01-16 04:00,-0.0,239.711,226.902,227.628,224.384,222.169,219.739,-0.0,-0.0,217.36,222.096
2015-01-16 05:00,-0.0,248.394,239.074,233.681,237.702,235.677,229.946,-0.0,-0.0,223.013,231.53
2015-01-16 06:00,-0.0,281.526,277.098,254.099,278.278,275.24,254.137,-0.0,-0.0,227.87,245.575
2015-01-16 07:00,-0.0,282.059,275.694,253.14,276.772,272.724,250.896,-0.0,0.00242396,226.405,244.056
2015-01-16 08:00,-0.00400669,283.261,280.789,255.742,282.517,278.458,255.532,-0.0,-0.0,228.312,247.59
2015-01-16 09:00,-0.0169291,278.684,270.746,249.669,270.819,266.835,246.869,-0.0,-0.017091,225.449,242.602
2015-01-16 10:00,0.274516,277.451,267.909,248.642,269.021,265.309,248.499,0.31587,0.383733,226.499,243.457
2015-01-16 11:00,0.329287,254.966,239.799,233.175,239.426,237.815,231.094,0.49538,0.587698,224.661,232.669
2015-01-16 12:00,0.377671,273.338,257.854,242.656,257.55,256.742,245.489,0.465863,0.570955,226.405,240.576
2015-01-16 13:00,0.305562,294.043,284.3,257.459,286.033,282.904,259.977,0.223553,0.413307,229.601,250.95
2015-01-16 14:00,0.326398,293.587,278.35,254.572,279.76,276.631,254.9,0.270984,0.393627,228.921,249.825
2015-01-16 15:00,0.185111,291.809,279.336,254.454,279.022,273.675,250.765,0.10019,0.241289,227.87,247.04
2015-01-16 16:00,0.226924,274.073,249.583,238.349,248.307,244.544,233.344,0.210667,0.332592,223.118,233.461
2015-01-16 17:00,0.256579,278.279,251.721,239.721,247.012,243.024,233.503,0.219285,0.339295,219.982,230.011
2015-01-16 18:00,0.169769,293.356,284.185,257.233,284.641,280.998,256.41,0.101533,0.243486,228.048,248.987
2015-01-16 19:00,0.201571,296.635,290.545,260.984,291.948,288.445,260.701,0.109617,0.269676,232.097,252.731
2015-01-16 20:00,0.207578,297.146,293.742,262.576,296.182,293.483,265.069,0.124176,0.296121,235.247,255.639
2015-01-16 21:00,0.27321,295.583,292.52,261.944,295.17,292.41,264.255,0.234679,0.391746,238.104,255.366
2015-01-16 22:00,0.5856,292.294,290.123,260.984,292.73,290.511,263.787,0.694157,0.807971,237.785,255.457
2015-01-16 23:00,-0.0,290.041,289.058,260.228,290.764,288.584,262.965,-0.0,-0.0068652,238.671,254.814
2015-01-17 00:00,-0.00304175,251.282,245.248,235.337,243.209,242.585,235.382,-0.0,-0.0,224.46,229.838
2015-01-17 01:00,0.0020766,288.977,288.412,259.574,291.423,289.413,262.965,-0.0,-0.0,237.977,256.539
2015-01-17 02:00,0.0016806,288.291,288.412,259.354,291.029,289.276,263.436,-0.0,-0.0,239.166,256.716
2015-01-17 03:00,-0.0,287.444,286.992,259.134,289.701,287.888,262.492,-0.0,-0.0,238.981,255.911
2015-01-17 04:00,-0.0,287.729,287.212,259.244,289.968,288.167,262.373,-0.0,-0.0,235.867,254.068
2015-01-17 05:00,0.00156625,280.239,280.429,255.974,283.088,281.146,258.76,-0.0,-0.0,233.53,252.731
2015-01-17 06:00,-0.00181602,285.202,284.869,257.91,287.543,285.919,261.898,-0.0,-0.0,233.968,253.69
2015-01-17 07:00,-0.0,285.665,285.994,258.691,288.493,286.907,261.66,-0.0,-0.0,234.185,253.309
2015-01-17 08:00,-0.0,286.569,286.217,258.802,289.032,286.907,261.301,-0.0,-0.0,234.113,253.405
2015-01-17 09:00,-0.0163348,286.717,285.882,258.58,288.493,286.767,261.421,-0.0138306,-0.0329818,232.709,252.146
2015-01-17 10:00,0.385353,288.012,286.439,258.802,288.763,286.202,261.421,0.271898,0.518716,231.865,251.051
2015-01-17 11:00,0.378162,292.653,286.992,259.134,289.032,285.635,260.34,0.192614,0.492135,232.709,250.544
2015-01-17 12:00,0.303665,295.796,290.017,261.091,291.292,287.748,261.66,0.126929,0.38418,232.405,251.949
2015-01-17 13:00,0.256969,297.947,291.902,262.155,293.377,289.276,262.255,0.100613,0.320908,231.865,251.051
2015-01-17 14:00,0.216058,299.013,292.417,262.89,293.764,289.276,262.61,0.0796309,0.268164,231.865,250.95
2015-01-17 15:00,0.191013,299.765,292.622,263.307,294.021,289.551,262.017,0.0714393,0.234247,231.787,250.95
2015-01-17 16:00,0.19119,294.933,283.611,257.685,283.656,279.061,256.285,0.1375,0.276736,234.472,249.617
2015-01-17 17:00,0.115591,259.954,244.598,235.662,243.438,241.475,233.661,0.295651,0.352519,225.546,236.033
2015-01-17 18:00,0.4147,267.123,206.1,219.409,205.497,204.955,207.197,0.759252,0.864514,207.105,206.606
2015-01-17 19:00,0.551738,277.026,207.178,219.632,207.269,206.895,207.872,0.859456,0.966921,208.464,207.678
2015-01-17 20:00,0.761664,289.381,212.119,221.17,210.625,209.133,210.718,1.0036,1.15569,211.8,211.295
2015-01-17 21:00,1.16609,280.05,220.006,224.708,219.167,217.29,216.466,1.18479,1.44461,217.229,219.372
2015-01-17 22:00,0.991448,258.096,233.392,230.387,231.957,230.429,225.883,0.773618,1.11868,222.259,227.136
2015-01-17 23:00,-0.0,276.594,268.773,249.158,268.358,265.48,248.364,-0.0,-0.0,227.329,241.348
2015-01-18 00:00,-0.0,288.152,287.322,260.011,290.234,287.748,262.492,-0.0,-0.0,231.473,251.252
2015-01-18 01:00,-0.0,287.871,286.772,259.464,289.568,286.907,261.54,-0.0,-0.0,232.405,251.552
2015-01-18 02:00,-0.0,287.444,286.55,259.354,289.3,286.767,261.54,-0.0,-0.0,233.01,251.452
2015-01-18 03:00,-0.0,287.01,285.994,258.802,288.628,285.919,260.942,-0.0,-0.0,232.02,250.748
2015-01-18 04:00,-0.0,287.155,285.994,258.913,288.628,286.06,260.942,-0.0,-0.0,232.935,250.849
2015-01-18 05:00,-0.00156114,276.155,273.065,252.045,275.857,272.246,253.881,-0.0,-0.0,232.86,249.303
2015-01-18 06:00,-0.0,272.061,270.885,250.555,274.156,271.605,254.264,-0.0,-0.0,233.968,250.544
2015-01-18 07:00,-0.0,260.395,262.141,244.903,264.965,264.623,251.291,-0.0,-0.0,232.935,249.303
2015-01-18 08:00,-0.0,264.377,265.696,247.067,268.69,268.339,253.24,-0.0,-0.0,232.709,249.825
2015-01-18 09:00,-0.0157796,263.636,264.635,246.801,267.857,267.171,252.982,-0.0267211,-0.0318609,232.557,249.825
2015-01-18 10:00,0.376282,286.121,279.58,254.926,282.231,279.511,258.27,0.349231,0.416405,232.405,251.152
2015-01-18 11:00,0.326573,291.44,287.76,259.354,289.568,286.626,261.062,0.168419,0.434597,232.709,252.047
2015-01-18 12:00,0.300575,294.933,289.699,260.119,291.029,287.609,261.301,0.132143,0.385146,232.405,252.244
2015-01-18 13:00,0.264763,296.943,289.486,260.228,290.5,285.919,260.219,0.110828,0.32736,230.835,251.652
2015-01-18 14:00,0.222571,297.146,286.55,258.802,286.722,280.554,256.41,0.101225,0.269638,230.43,249.825
2015-01-18 15:00,0.193404,298.726,291.694,261.519,292.34,288.306,261.062,0.0724492,0.235487,231.156,252.634
2015-01-18 16:00,0.184259,299.95,293.235,262.366,294.661,290.511,263.436,0.0721553,0.219736,232.633,254.907
2015-01-18 17:00,0.200999,299.858,291.798,261.944,293.377,289.689,263.318,0.0998694,0.241804,232.633,255.275
2015-01-18 18:00,0.18703,299.672,292.929,262.471,294.277,290.511,264.022,0.0843059,0.232287,234.329,256.36
2015-01-18 19:00,0.233911,298.533,288.843,260.661,289.568,285.777,259.735,0.137113,0.288991,235.178,254.256
2015-01-18 20:00,0.3849,291.44,274.655,252.168,273.215,269.821,250.369,0.352575,0.486292,230.266,248.775
2015-01-18 21:00,1.02229,275.932,234.208,231.274,232.23,230.429,225.535,0.902333,1.14364,219.982,224.61
2015-01-18 22:00,1.62829,257.605,224.616,227.058,224.384,223.332,221.965,1.23096,1.78085,218.767,220.763
2015-01-18 23:00,-0.00678967,254.966,240.75,234.183,239.911,238.049,231.419,-0.0,-0.0,225.449,232.508
2015-01-19 00:00,-0.00303333,282.059,275.436,252.656,276.163,273.359,253.625,-0.0,-0.0,230.018,247.151
2015-01-19 01:00,-0.0,288.012,286.882,259.793,289.3,287.048,262.728,-0.0,-0.0,232.405,253.974
2015-01-19 02:00,-0.0,288.012,286.105,258.913,287.815,285.777,261.062,-0.0,-0.0,231.236,254.999
2015-01-19 03:00,-0.0,286.717,283.611,257.12,284.921,283.049,260.219,-0.0,-0.0,231.315,254.349
2015-01-19 04:00,-0.0,288.977,288.195,259.464,290.5,288.445,263.2,-0.0,-0.0,233.234,257.682
2015-01-19 05:00,0.00155599,282.581,281.978,256.205,284.781,282.321,259.614,-0.0,-0.0,233.603,256.36
2015-01-19 06:00,-0.00180122,267.761,269.343,250.051,272.741,272.086,255.658,-0.0,-0.0,234.041,253.974
2015-01-19 07:00,-0.0,278.075,279.336,254.572,282.231,280.85,258.76,-0.0,-0.0,234.543,254.256
2015-01-19 08:00,-0.0,248.394,244.598,236.466,244.575,244.758,237.222,-0.0,-0.0,228.312,234.389
2015-01-19 09:00,-0.0,218.393,210.707,219.409,209.394,209.497,210.289,-0.0258416,-0.0154061,209.569,210.032
2015-01-19 10:00,0.28622,237.078,208.734,218.957,208.131,206.895,209.201,0.472256,0.548275,208.838,208.711
2015-01-19 12:00,0.338032,248.394,221.481,224.507,221.511,220.685,219.362,0.639477,0.733229,218.009,219.843
2015-01-19 13:00,0.233852,257.103,238.338,232.146,236.695,235.917,230.44,0.329162,0.445107,223.224,229.838
2015-01-19 14:00,0.210003,288.291,277.098,252.777,276.772,273.99,253.368,0.11854,0.301955,228.575,248.669
2015-01-19 15:00,0.186419,298.144,292.52,261.838,293.635,290.238,263.083,0.0724677,0.245016,232.328,257.333
2015-01-19 16:00,0.194605,289.113,277.476,253.14,276.468,273.359,252.982,0.120898,0.265054,231.394,250.748
2015-01-19 17:00,0.180471,299.108,293.235,262.366,293.892,290.648,263.436,0.0723276,0.231997,233.01,258.114
2015-01-19 18:00,0.199019,297.947,290.335,260.876,290.5,288.027,262.492,0.119551,0.24708,232.405,256.628
2015-01-19 19:00,0.554061,275.48,204.988,218.502,205.043,204.159,206.515,0.827538,0.948764,206.702,205.868
2015-01-19 20:00,0.681319,278.684,200.125,216.392,199.196,198.206,200.766,0.963357,1.08964,202.954,201.84
2015-01-19 21:00,0.973727,280.613,203.838,219.183,203.179,202.113,205.361,0.998023,1.18601,205.015,203.929
2015-01-19 22:00,0.0580581,222.276,211.184,221.386,210.218,209.497,211.358,0.213017,0.195377,209.748,210.032
2015-01-19 23:00,-0.0,222.276,213.921,221.6,213.763,212.673,213.035,-0.0,-0.0,212.448,213.382
2015-01-20 00:00,-0.00302825,225.382,219.247,223.694,218.824,217.922,217.832,-0.0,-0.0030572,216.15,217.164
2015-01-20 01:00,-0.00206554,245.913,235.011,231.274,233.041,231.459,226.918,-0.0,-0.0,222.692,228.782
2015-01-20 02:00,-0.00167022,276.155,267.033,247.991,265.826,263.586,246.319,-0.0,-0.0,226.311,242.23
2015-01-20 03:00,-0.0,267.444,255.587,242.081,254.066,250.557,237.977,-0.0,-0.0,224.56,237.888
2015-01-20 04:00,-0.0,283.261,279.213,254.808,280.493,277.701,255.909,-0.0,-0.0,229.769,249.617
2015-01-20 05:00,-0.00155078,284.087,282.566,257.459,284.079,280.998,257.777,-0.0,-0.0,229.348,250.544
2015-01-20 06:00,-0.00179379,287.729,286.439,259.134,288.628,286.202,261.062,-0.0,-0.0,230.348,251.85
2015-01-20 07:00,-0.00234859,285.97,283.841,257.12,285.757,283.339,258.76,-0.0,-0.0,231.156,253.021
2015-01-20 08:00,-0.00386502,287.3,287.322,259.134,290.101,288.306,262.728,-0.0,-0.0,234.472,256.45
2015-01-20 09:00,-0.0147736,287.729,288.087,259.244,290.897,289.551,263.436,-0.0125088,-0.0149149,235.455,256.805
2015-01-20 12:00,0.305962,296.427,292.929,262.576,295.043,292.545,264.721,0.131168,0.390996,240.312,260.052
2015-01-20 13:00,0.261025,298.822,294.746,263.618,296.684,294.149,265.762,0.101033,0.32526,242.765,260.708
2015-01-20 14:00,0.219071,300.042,295.837,263.928,297.807,294.944,265.532,0.0819593,0.272599,242.544,260.708
2015-01-20 15:00,0.19116,301.302,296.523,264.849,298.426,295.471,265.993,0.0685154,0.234427,242.155,260.871
2015-01-20 16:00,0.172715,301.826,296.621,264.95,298.302,295.076,265.416,0.0604448,0.211564,242.929,261.435
2015-01-20 17:00,0.179208,301.478,295.343,264.543,297.06,294.016,265.416,0.0763768,0.21492,242.929,260.952
2015-01-20 18:00,0.299707,279.859,243.94,235.499,236.948,232.474,223.592,0.267417,0.388052,219.26,226.76
2015-01-20 19:00,0.395231,282.059,237.591,233.849,228.583,225.038,218.982,0.389954,0.496288,211.8,218.165
2015-01-20 20:00,0.159506,297.449,293.438,264.031,295.043,291.464,264.138,0.127445,0.256288,241.189,258.028
2015-01-20 21:00,0.129964,294.823,291.07,262.576,292.989,289.964,262.847,0.146721,0.194822,243.899,259.135
2015-01-20 22:00,1.25742,298.726,287.76,260.661,287.679,282.467,258.27,0.737068,1.09367,241.59,257.158
2015-01-20 23:00,-0.0,284.57,281.267,257.006,282.231,278.307,256.41,-0.0,-0.0,242.433,257.246
2015-01-21 00:00,-0.0030226,283.924,280.187,256.434,281.076,277.396,256.16,-0.0,-0.00305149,241.361,254.162
2015-01-21 01:00,-0.0,213.142,200.774,217.106,200.227,199.102,202.255,-0.0,-0.0,200.142,200.956
2015-01-21 02:00,-0.00166647,213.142,203.247,218.272,201.233,200.415,202.743,-0.0,-0.0,203.192,201.84
2015-01-21 03:00,-0.0,222.276,211.654,221.6,209.394,206.128,207.872,-0.0,-0.0,208.652,210.353
2015-01-21 04:00,0.00146224,255.521,240.75,234.515,236.948,232.221,225.36,-0.0,-0.0,219.26,227.323
2015-01-21 05:00,-0.0,283.76,279.213,255.858,280.201,276.784,254.646,-0.0,-0.0,235.386,250.95
2015-01-21 06:00,-0.00178635,259.045,249.385,240.021,247.878,244.544,235.691,-0.0,-0.0,232.328,240.316
2015-01-21 07:00,-0.00233564,271.798,259.706,245.177,255.633,249.955,234.76,-0.0,-0.0,225.739,236.469
2015-01-21 08:00,0.00383088,275.707,264.329,247.597,262.15,255.803,236.153,-0.0,-0.0,229.007,243.336
2015-01-21 09:00,-0.0143171,279.081,270.189,249.924,269.515,265.65,244.372,-0.0,-0.014454,230.184,246.032
2015-01-21 10:00,0.42297,279.667,267.033,248.252,266.508,262.537,243.241,0.396499,0.602394,228.748,243.093
2015-01-21 11:00,0.231988,286.421,280.429,255.043,281.366,278.911,255.406,0.181118,0.358912,233.085,252.537
2015-01-21 12:00,0.300906,287.444,275.823,253.14,275.703,272.405,250.501,0.182453,0.411577,229.007,247.371
2015-01-21 13:00,0.262882,294.713,287.76,260.119,289.032,285.635,259.735,0.120144,0.345316,233.75,254.162
2015-01-21 14:00,0.225604,296.323,288.087,260.553,289.3,285.35,259.492,0.106841,0.281805,232.709,253.309
2015-01-21 15:00,0.260427,298.339,287.432,260.228,288.763,285.635,260.219,0.149982,0.285419,233.896,254.349
2015-01-21 16:00,0.173859,297.449,289.486,261.412,290.367,286.06,259.37,0.0711658,0.220854,231.473,253.021
2015-01-21 17:00,0.189976,294.933,281.86,256.778,281.076,275.24,250.501,0.0967151,0.237919,225.835,246.483
2015-01-21 18:00,0.189406,294.602,283.495,257.685,283.656,278.76,254.009,0.102363,0.245462,227.691,247.151
2015-01-21 19:00,0.220333,296.635,284.071,258.802,283.23,276.323,251.683,0.13128,0.280109,228.748,248.133
2015-01-21 20:00,0.727322,278.075,205.549,219.632,204.12,202.941,204.893,0.929435,1.09915,205.874,205.109
2015-01-21 21:00,1.53085,298.533,206.1,220.077,202.701,199.981,202.986,1.46277,1.74016,208.274,205.491
2015-01-21 22:00,1.76186,274.073,212.578,222.449,211.028,209.133,209.856,1.24587,1.75916,210.102,210.984
2015-01-21 23:00,-0.0,218.393,219.628,224.102,217.78,216.008,216.269,-0.0,-0.0,213.388,215.332
2015-01-22 00:00,-0.0,287.444,285.208,258.802,287.407,284.636,260.219,-0.0,-0.00304522,235.525,251.85
2015-01-22 01:00,-0.0,286.569,283.148,257.91,284.641,282.028,258.27,-0.0,-0.0,233.677,249.617
2015-01-22 02:00,-0.0,286.421,283.726,258.022,286.033,282.904,259.005,-0.0,-0.0,233.823,250.95
2015-01-22 03:00,-0.0,286.271,284.071,258.358,286.31,283.339,259.005,-0.0,0.00150771,233.234,250.34
2015-01-22 04:00,-0.0,270.151,265.846,248.252,265.997,263.759,248.634,-0.0,-0.0,228.921,245.345
2015-01-22 05:00,-0.0,273.831,269.059,249.542,269.515,266.667,248.364,-0.0,-0.0,226.027,243.577
2015-01-22 06:00,-0.0,251.944,244.38,236.943,243.895,242.585,234.291,-0.0,-0.0,223.434,234.845
2015-01-22 07:00,-0.0,204.719,208.734,220.954,207.702,206.513,207.872,-0.0,-0.0,206.292,206.968
2015-01-22 08:00,-0.0,244.063,242.824,235.173,242.978,241.698,235.227,-0.0,-0.0,226.685,236.179
2015-01-22 09:00,-0.0138883,274.551,270.049,249.669,270.819,268.505,251.683,-0.0,-0.0,229.769,245.918
2015-01-22 10:00,0.314241,264.739,256.992,242.942,257.928,256.18,243.667,0.454262,0.50295,227.147,242.602
2015-01-22 11:00,0.387543,268.986,252.853,240.469,254.066,253.122,243.667,0.802385,0.907817,227.691,242.971
2015-01-22 12:00,0.223813,257.605,246.313,237.101,247.662,246.246,237.977,0.571803,0.634633,228.312,240.835
2015-01-22 13:00,0.269232,294.933,275.176,252.777,276.01,271.444,253.111,0.1811,0.347307,230.593,246.483
2015-01-22 14:00,0.151789,256.589,249.583,239.115,250.415,249.753,241.084,0.402839,0.476461,229.769,241.602
2015-01-22 15:00,0.171323,254.396,247.769,238.04,248.307,247.915,239.618,0.404377,0.485713,229.769,241.221
2015-01-22 16:00,0.31317,284.249,259.373,244.626,260.888,259.139,246.732,0.308054,0.406829,231.63,245.345
2015-01-22 17:00,0.423127,283.261,251.912,240.913,254.066,253.51,244.652,0.549605,0.624982,232.175,244.764
2015-01-22 18:00,0.287338,280.05,263.867,247.2,265.482,264.279,251.159,0.411544,0.528659,233.308,249.303
2015-01-22 19:00,0.54154,300.679,268.487,249.924,270.819,268.67,252.853,0.482,0.576358,234.968,250.135
2015-01-22 21:00,0.91647,275.932,234.477,231.45,231.683,229.909,225.535,0.829259,1.04436,220.801,225.011
2015-01-22 22:00,0.407437,272.836,257.511,243.226,255.049,250.957,238.278,0.44354,0.548442,225.254,237.608
2015-01-22 23:00,-0.00673306,286.421,282.916,258.246,284.921,281.588,257.282,-0.0,-0.0,230.184,249.721
2015-01-23 00:00,-0.00300962,288.012,287.102,260.769,289.968,287.609,262.017,-0.00254824,-0.00303839,233.01,252.439
2015-01-23 01:00,-0.00205227,283.428,277.727,255.393,278.576,274.46,251.553,-0.0,-0.0,229.685,246.595
2015-01-23 02:00,-0.00165858,284.087,278.226,255.51,279.613,274.617,251.028,-0.0,-0.0,229.517,247.151
2015-01-23 03:00,-0.0,230.231,215.64,223.283,214.517,211.983,212.202,-0.0,-0.0,210.796,212.8
2015-01-23 04:00,-0.0,260.395,253.595,241.646,253.069,251.156,241.519,-0.0,-0.0,225.156,239.922
2015-01-23 05:00,-0.0,268.686,258.025,243.368,257.739,253.896,240.5,-0.0,-0.0,226.405,241.348
2015-01-23 06:00,0.00177148,242.013,238.585,233.344,238.693,237.815,232.066,-0.0,-0.0,225.156,233.773
2015-01-23 07:00,-0.0,246.775,237.841,233.849,236.695,234.95,229.449,-0.0,-0.0,221.145,228.06
2015-01-23 08:00,-0.00376424,266.466,261.501,246.265,263.04,260.764,247.279,-0.0,-0.0,228.575,246.707
2015-01-23 09:00,-0.0,257.605,245.89,237.258,245.471,241.698,234.604,-0.0114178,-0.0,227.78,235.887
2015-01-23 10:00,0.598964,255.521,246.313,237.101,246.575,245.612,238.428,0.737661,0.934521,230.018,239.121
2015-01-23 11:00,0.629821,278.883,257.854,243.93,260.158,260.045,248.364,0.749667,0.838574,233.234,247.699
2015-01-23 12:00,0.638004,292.534,258.703,244.488,261.791,261.299,248.094,0.655835,0.726831,233.823,248.133
2015-01-23 13:00,0.299563,296.114,284.755,259.464,285.895,281.146,257.282,0.162329,0.356864,234.543,250.34
2015-01-23 14:00,0.241257,297.549,286.772,260.876,287.815,282.904,258.638,0.109161,0.292533,234.897,250.849
2015-01-23 15:00,0.191332,298.144,290.965,263.618,291.555,287.048,260.822,0.0715586,0.233453,236.341,252.828
2015-01-23 16:00,0.186522,298.918,290.86,263.721,291.817,287.888,262.136,0.0818885,0.222014,237.913,254.814
2015-01-23 17:00,0.249974,292.053,282.682,258.913,284.361,282.467,260.822,0.240144,0.323948,239.714,256.716
2015-01-23 18:00,0.143612,289.779,283.841,259.354,285.061,282.904,260.701,0.14887,0.215445,240.489,257.07
2015-01-23 19:00,0.195639,293.93,286.55,261.091,287.543,284.636,261.062,0.142181,0.269929,241.93,258.457
2015-01-23 20:00,0.293729,295.476,288.52,262.681,290.101,286.907,262.373,0.241106,0.393873,243.472,259.887
2015-01-23 21:00,0.377502,295.902,290.545,263.721,292.079,288.861,263.083,0.326289,0.484328,244.687,261.194
2015-01-23 22:00,0.350409,291.315,289.911,262.995,291.686,289.276,263.67,0.543933,0.589598,244.479,261.993
2015-01-23 23:00,-0.0,288.568,284.982,259.574,286.172,283.194,258.882,-0.0,-0.0,238.231,259.051
2015-01-24 00:00,-0.0,287.01,284.982,260.337,286.172,282.904,259.614,-0.00254205,-0.0,239.349,254.629
2015-01-24 01:00,-0.0,288.152,287.432,261.625,289.568,287.329,261.898,-0.0,-0.0,240.193,256.271
2015-01-24 02:00,-0.00165444,287.155,286.439,260.984,288.358,286.06,261.421,-0.0,-0.0,237.785,255.911
2015-01-24 03:00,-0.00148546,281.883,280.669,257.459,282.66,280.702,258.392,-0.0,-0.0,233.896,254.722
2015-01-24 04:00,-0.0,279.278,278.474,256.32,280.785,278.76,256.285,-0.0,-0.0,230.43,252.634
2015-01-24 05:00,-0.0,283.76,281.029,257.346,282.66,280.406,256.909,-0.0,0.00154425,229.433,251.85
2015-01-24 06:00,-0.0,284.888,283.495,258.691,285.201,283.049,258.392,-0.0,-0.0,229.852,253.974
2015-01-24 07:00,-0.00229731,281.526,280.669,257.459,282.946,281.146,257.653,-0.0,-0.0,230.101,255.366
2015-01-24 08:00,-0.0,285.818,285.77,260.011,288.222,287.048,262.255,-0.0,-0.0,230.916,257.595
2015-01-24 09:00,-0.0,286.121,286.217,259.354,288.628,287.609,261.66,-0.0110963,-0.0,230.018,257.855
2015-01-24 11:00,0.354685,291.065,288.951,261.198,290.5,288.722,262.61,0.173456,0.48155,232.86,258.967
2015-01-24 12:00,0.31491,296.008,292.417,263.099,294.277,291.735,264.605,0.129177,0.40678,233.01,259.471
2015-01-24 13:00,0.275983,298.339,292.929,263.411,294.661,291.735,264.372,0.114297,0.336162,232.328,258.628
2015-01-24 14:00,0.277207,299.485,291.07,262.576,292.73,289.826,263.67,0.1471,0.30694,232.935,258.028
2015-01-24 15:00,0.254803,299.297,290.017,262.049,291.686,288.861,262.965,0.151118,0.28806,232.784,257.333
2015-01-24 16:00,0.248704,290.939,281.86,257.572,283.938,282.175,260.461,0.247624,0.345238,233.234,256.181
2015-01-24 17:00,0.263146,289.247,280.789,256.892,282.946,281.588,259.614,0.269604,0.360281,232.405,255.366
2015-01-24 18:00,0.228093,291.931,278.968,255.858,279.022,275.861,254.392,0.178357,0.30071,230.101,250.646
2015-01-24 19:00,0.242817,295.796,288.628,261.412,289.835,287.469,261.779,0.182136,0.324109,233.456,257.595
2015-01-24 20:00,0.524472,289.779,271.574,251.056,270.332,268.339,251.159,0.451661,0.665251,228.224,245.114
2015-01-24 21:00,0.290986,295.042,289.699,262.261,291.423,288.306,261.421,0.243048,0.393014,232.175,254.536
2015-01-24 22:00,0.391161,291.809,288.951,261.731,291.16,288.445,261.898,0.447114,0.552861,233.085,255.73
2015-01-24 23:00,-0.0066875,287.3,283.264,258.134,284.781,281.735,257.034,-0.0,-0.00675143,232.405,252.146
2015-01-25 00:00,-0.0,278.883,273.466,252.656,274.623,270.473,251.422,-0.0,-0.00302311,230.266,248.669
2015-01-25 01:00,-0.0,265.446,261.34,245.177,262.15,260.225,246.182,-0.0,-0.0,229.769,246.707
2015-01-25 02:00,-0.00165019,264.009,253.04,241.061,252.465,248.532,235.537,-0.0,-0.0,223.642,238.578
2015-01-25 03:00,-0.0,251.282,241.682,235.337,240.392,237.345,229.283,-0.0,-0.0,220.801,232.669
2015-01-25 04:00,-0.0,243.066,227.533,228.192,225.615,223.332,217.639,-0.0,-0.0,213.995,222.096
2015-01-25 05:00,0.00152428,251.944,245.032,236.784,244.8,242.364,232.707,-0.0,-0.0,224.46,236.614
2015-01-25 06:00,-0.00175666,245.01,233.392,231.098,231.408,229.121,223.77,-0.0,-0.0,216.424,225.21
2015-01-25 07:00,-0.0,246.775,237.086,233.005,236.186,233.474,227.26,-0.0,-0.0,219.014,228.96
2015-01-25 08:00,-0.0,250.598,243.273,235.662,242.515,239.438,231.094,-0.0,-0.0,222.476,234.389
2015-01-25 09:00,-0.0,262.074,248.583,238.81,246.575,242.364,231.419,-0.0,-0.0,221.258,234.389
2015-01-25 10:00,0.617269,264.009,244.815,236.625,242.747,239.438,230.768,0.644816,0.809312,219.137,232.022
2015-01-25 11:00,0.454761,265.446,239.074,233.513,237.2,233.722,226.574,0.582772,0.694867,218.517,227.323
2015-01-25 12:00,0.449034,269.283,243.94,236.146,242.283,240.123,232.066,0.642516,0.756205,220.454,231.031
2015-01-25 13:00,0.346962,265.095,238.338,233.344,236.695,234.95,228.614,0.501066,0.585315,221.484,229.664
2015-01-25 14:00,0.315772,275.48,251.721,240.469,249.789,246.876,236.153,0.403751,0.468506,221.145,232.669
2015-01-25 15:00,0.267813,258.576,225.611,227.438,222.485,221.579,220.115,0.465449,0.536004,211.636,216.392
2015-01-25 16:00,0.276356,257.103,212.578,222.027,211.428,210.931,211.781,0.522578,0.607982,210.102,210.67
2015-01-25 17:00,0.192226,267.444,245.032,236.784,242.515,239.667,231.743,0.306187,0.375998,223.746,232.988
2015-01-25 18:00,0.321925,262.869,239.799,233.849,239.426,238.049,232.867,0.675754,0.766463,227.691,234.996
2015-01-25 19:00,0.441486,272.58,249.185,239.115,248.52,247.501,238.428,0.776578,0.878256,227.78,239.922
2015-01-25 20:00,0.566912,280.982,257.166,243.65,256.598,254.089,242.384,0.59953,0.728422,227.601,242.105
2015-01-25 21:00,0.770901,293.472,271.574,252.045,271.785,267.506,248.768,0.619419,0.833861,227.691,244.412
2015-01-25 22:00,0.964089,284.888,271.848,252.534,272.264,267.506,249.037,0.716339,1.01303,227.51,244.647
2015-01-25 23:00,-0.0066606,275.48,262.458,246.801,259.791,253.896,239.173,-0.0,-0.0,221.484,234.996
2015-01-26 00:00,-0.00298613,245.01,221.481,226.287,215.26,212.673,210.932,-0.0,-0.0,209.023,212.8
2015-01-26 01:00,-0.0,230.231,215.64,223.694,212.609,210.931,211.146,-0.0,-0.0,210.452,212.207
2015-01-26 02:00,-0.0,230.231,217.285,224.305,215.628,213.356,213.447,-0.0,-0.0,211.636,214.511
2015-01-26 03:00,-0.0,242.013,229.673,230.027,227.708,225.318,221.598,-0.0,-0.0,219.624,225.011
2015-01-26 04:00,0.00144036,257.605,252.29,241.061,251.447,248.327,237.977,-0.0,0.00145413,225.352,240.053
2015-01-26 05:00,-0.00151893,280.613,273.599,253.621,273.686,269.165,249.037,-0.0,-0.0,226.592,243.937
2015-01-26 06:00,-0.0,276.594,264.788,248.771,263.745,257.301,240.5,-0.0,-0.0,224.054,239.121
2015-01-26 07:00,-0.00227229,271.798,259.039,244.765,258.116,252.341,237.373,-0.0,-0.0,222.259,236.469
2015-01-26 08:00,-0.0,264.009,249.385,239.721,247.662,242.805,232.066,-0.0,-0.0,221.371,232.347
2015-01-26 09:00,-0.0124097,269.576,256.469,242.942,254.263,250.357,237.676,-0.0,-0.0,221.258,233.928
2015-01-26 10:00,0.561656,259.954,242.597,235.173,241.58,238.282,229.116,0.634071,0.77247,221.371,230.694
2015-01-26 11:00,0.484794,270.989,252.853,241.207,252.059,249.55,237.676,0.58303,0.685823,222.585,235.146
2015-01-26 12:00,0.288963,271.798,251.912,240.469,250.207,247.085,235.227,0.286274,0.426673,222.585,232.669
2015-01-26 13:00,0.335414,286.121,266.145,247.991,265.997,262.361,246.182,0.285268,0.382657,224.959,240.576
2015-01-26 14:00,0.349281,285.665,269.767,250.303,270.495,266.667,247.959,0.365065,0.448201,227.329,243.457
2015-01-26 15:00,0.222085,286.421,277.35,255.16,278.873,276.015,255.658,0.298475,0.381984,228.921,247.699
2015-01-26 16:00,0.214196,270.434,261.662,246.265,262.507,261.477,247.823,0.512876,0.567348,229.433,245.46
2015-01-26 17:00,0.258278,259.505,220.379,225.701,219.167,219.165,218.792,0.460761,0.550601,213.845,216.131
2015-01-26 18:00,0.281624,274.314,255.941,242.656,254.461,251.156,239.47,0.358811,0.496876,229.601,241.602
2015-01-26 19:00,0.306196,284.249,258.195,245.04,254.854,249.144,234.447,0.290973,0.402846,220.57,232.669
2015-01-26 20:00,0.681109,274.551,222.198,226.674,219.167,216.972,215.274,0.736043,0.893453,212.765,216.652
2015-01-26 21:00,1.12543,283.924,213.031,222.868,210.625,208.397,210.289,1.03287,1.25537,210.278,210.67
2015-01-26 22:00,2.18019,273.831,225.611,228.004,223.758,221.579,218.41,1.40964,2.141,219.982,222.529
2015-01-26 23:00,-0.0,225.382,211.184,220.954,208.556,208.026,208.761,-0.0,-0.0,207.304,208.371
2015-01-27 00:00,-0.0,225.382,208.734,220.517,207.702,206.513,207.648,-0.00252085,-0.00300574,207.891,209.047
2015-01-27 01:00,-0.0,230.231,218.082,225.107,216.355,214.364,214.062,-0.0,-0.0,213.693,216.131
2015-01-27 02:00,-0.0,243.066,226.902,228.004,224.694,222.169,219.551,-0.0,-0.0,216.56,221.878
2015-01-27 03:00,-0.0,262.869,245.248,237.572,241.58,237.109,227.089,-0.0,-0.0,217.752,227.509
2015-01-27 04:00,-0.0,262.475,246.313,237.728,242.747,238.049,228.949,-0.0,-0.0,219.503,229.137
2015-01-27 05:00,-0.0,268.382,255.587,243.368,253.867,248.941,236.0,-0.0,-0.0,222.585,236.033
2015-01-27 06:00,-0.0,266.797,259.206,245.314,259.236,255.803,241.808,-0.0,-0.0,224.359,239.255
2015-01-27 07:00,-0.00225997,263.255,248.784,238.963,247.012,243.243,232.707,-0.0,-0.0,221.258,232.185
2015-01-27 08:00,-0.00363782,253.81,239.799,234.017,238.693,235.193,227.26,-0.0,-0.0,220.57,230.524
2015-01-27 09:00,-0.0,240.898,233.666,230.743,232.772,230.946,225.185,-0.0,-0.0,218.891,228.06
2015-01-27 10:00,0.487726,253.81,241.451,234.845,241.815,239.895,232.387,0.56694,0.667645,223.538,234.542
2015-01-27 12:00,0.593157,278.883,249.185,239.57,251.036,250.156,240.793,0.684094,0.765943,226.311,241.221
2015-01-27 13:00,0.484998,280.05,247.15,238.195,247.878,246.457,237.977,0.524149,0.6052,225.835,239.255
2015-01-27 14:00,0.289374,289.113,270.607,250.931,270.495,265.82,246.732,0.246097,0.36453,225.835,242.354
2015-01-27 15:00,0.209241,283.594,269.343,250.555,269.021,264.967,246.869,0.257784,0.340597,225.156,241.093
2015-01-27 16:00,0.210767,270.151,245.463,236.784,242.283,238.049,227.431,0.441752,0.505793,221.371,232.508
2015-01-27 17:00,0.339948,262.074,196.665,215.666,195.375,194.446,199.495,0.77298,0.859813,196.905,197.08
2015-01-27 18:00,0.430416,270.434,198.095,217.576,196.503,195.415,200.006,0.810607,0.906964,199.021,200.041
2015-01-27 19:00,0.556928,277.24,196.665,216.631,195.375,194.933,199.237,0.875539,0.978187,199.589,198.603
2015-01-27 20:00,0.793145,285.202,198.787,217.342,197.601,195.891,201.016,0.990259,1.14002,200.945,199.57
2015-01-27 21:00,1.27985,287.3,202.034,218.502,199.196,197.752,201.763,1.2337,1.49087,202.954,203.113
2015-01-27 22:00,1.53947,265.095,206.643,219.855,204.12,202.941,205.593,1.13419,1.65511,204.795,205.868
2015-01-27 23:00,-0.00659889,218.393,206.643,220.298,205.043,204.159,206.056,-0.00558727,-0.0,206.084,206.606
2015-01-28 00:00,-0.00593587,227.984,211.184,222.027,209.394,207.274,208.982,-0.00251294,-0.0029963,208.838,209.707
2015-01-28 01:00,-0.0,232.213,216.88,224.305,214.141,211.635,211.781,-0.0,-0.0,210.966,213.952
2015-01-28 02:00,-0.0,232.213,223.252,226.866,221.182,218.857,217.25,-0.0,0.00165242,215.593,220.075
2015-01-28 03:00,-0.0,237.078,230.85,230.565,229.158,226.974,223.053,-0.0,-0.0,219.503,226.379
2015-01-28 04:00,-0.00143134,248.394,242.142,236.146,240.631,237.109,230.276,-0.0,-0.0,220.801,232.185
2015-01-28 05:00,-0.0,232.213,226.583,228.749,225.31,223.905,221.046,-0.0,-0.0,218.767,223.167
2015-01-28 06:00,-0.0,246.775,244.16,236.784,243.895,241.921,234.916,-0.0,-0.0,226.122,237.043
2015-01-28 07:00,0.00224778,251.944,250.954,240.32,250.83,249.55,241.374,-0.0,-0.0,227.055,239.523
2015-01-28 08:00,0.00360769,262.475,261.662,246.801,262.685,261.477,248.903,-0.0,-0.0,229.769,246.145
2015-01-28 09:00,-0.0117893,266.797,262.616,247.597,263.92,262.185,248.768,-0.0,-0.0,230.916,245.804
2015-01-28 10:00,0.789251,273.831,256.992,243.65,259.421,258.774,247.279,0.696694,0.839179,230.101,244.764
2015-01-28 11:00,0.489574,268.686,253.226,241.646,254.854,254.281,244.792,0.5967,0.679993,231.394,244.412
2015-01-28 12:00,0.54524,292.889,265.394,249.158,268.69,267.004,251.553,0.513507,0.578374,231.63,248.025
2015-01-28 13:00,0.43892,291.315,264.635,249.029,267.522,266.16,251.422,0.619388,0.657821,230.996,247.808
2015-01-28 14:00,0.333173,292.053,265.092,249.669,266.678,264.106,250.765,0.250632,0.369994,230.916,248.025
2015-01-28 15:00,0.186983,268.382,261.34,246.934,262.329,261.477,249.037,0.488895,0.546129,229.517,245.575
2015-01-28 16:00,0.276459,257.103,201.41,216.392,200.733,200.415,203.228,0.711985,0.812884,200.413,198.603
2015-01-28 17:00,0.252256,275.251,251.147,240.913,251.242,247.915,235.072,0.470904,0.517825,228.575,240.576
2015-01-28 18:00,0.246696,292.414,278.598,256.892,278.427,273.517,252.075,0.211148,0.331622,230.674,248.025
2015-01-28 19:00,0.379402,269.283,221.117,225.897,221.182,217.29,212.619,0.661781,0.764414,210.278,213.382
2015-01-28 20:00,0.811194,280.982,209.734,221.814,209.808,206.513,207.423,0.933491,1.10174,208.652,208.711
2015-01-28 21:00,0.64254,268.382,198.787,217.342,198.14,197.294,201.763,0.744297,0.847665,199.589,197.598
2015-01-28 22:00,0.848255,260.827,198.095,216.869,195.375,194.933,199.237,0.769517,1.01948,199.307,198.603
2015-01-28 23:00,-0.00656425,218.393,203.247,218.502,202.217,200.845,204.422,-0.0,-0.0,202.954,203.113
2015-01-29 00:00,-0.00295812,218.393,203.838,218.957,202.701,201.694,204.422,-0.00250463,-0.0,202.713,203.929
2015-01-29 01:00,0.00201985,218.393,208.223,220.298,205.946,205.349,206.97,-0.0,-0.0,205.874,206.968
2015-01-29 02:00,-0.0,222.276,213.479,222.659,210.218,208.397,208.318,-0.0,-0.0,207.304,210.032
2015-01-29 03:00,0.00146435,242.013,223.252,227.058,219.847,216.331,214.062,-0.0,-0.0,212.607,217.164
2015-01-29 04:00,-0.00142679,235.601,217.285,224.908,214.517,212.673,212.619,-0.0,-0.0,211.135,213.952
2015-01-29 05:00,-0.0,244.063,228.155,228.934,226.82,222.462,218.601,-0.0,0.0015172,216.15,223.586
2015-01-29 06:00,0.00172737,238.442,230.559,229.665,229.444,225.874,222.692,-0.0,-0.0,217.752,225.799
2015-01-29 07:00,-0.0,254.396,250.371,240.617,250.415,247.085,236.918,-0.0,-0.0,224.359,239.39
2015-01-29 08:00,-0.0,256.589,252.101,240.766,252.262,250.757,239.173,-0.0,-0.0,224.86,240.185
2015-01-29 09:00,-0.0115041,253.81,249.385,239.115,249.789,248.121,237.373,-0.0,-0.0,225.546,238.85
2015-01-29 10:00,0.409403,258.096,250.371,239.871,251.652,250.156,239.765,0.570513,0.645807,226.499,240.316
2015-01-29 11:00,0.441837,277.869,263.245,247.2,264.27,263.412,249.305,0.474925,0.553622,227.42,244.881
2015-01-29 12:00,0.461431,282.581,263.556,247.859,265.482,264.623,250.501,0.498008,0.585802,229.263,247.699
2015-01-29 13:00,0.425941,288.568,265.995,249.158,268.024,267.004,252.335,0.43354,0.52303,229.685,249.093
2015-01-29 14:00,0.423214,284.087,261.822,246.667,264.444,263.412,249.705,0.481037,0.547669,228.488,247.04
2015-01-29 15:00,0.350598,283.093,260.036,245.451,262.685,261.831,248.634,0.365584,0.435904,229.769,247.481
2015-01-29 16:00,0.331814,277.661,263.556,247.465,265.654,264.451,250.369,0.410688,0.478052,230.101,248.562
2015-01-29 17:00,0.31233,281.883,265.243,248.771,267.857,267.339,252.723,0.378366,0.453569,231.315,249.721
2015-01-29 18:00,0.254735,293.93,279.823,257.91,281.366,278.307,257.282,0.170276,0.293715,233.085,251.452
2015-01-29 19:00,0.451061,298.144,275.176,255.277,276.923,274.617,255.658,0.355716,0.473456,233.456,251.751
2015-01-29 20:00,0.490895,303.51,281.742,259.134,283.088,278.458,256.285,0.360601,0.534058,232.784,251.152
2015-01-29 21:00,1.36959,304.159,274.261,254.572,276.315,274.147,256.16,1.07274,1.33487,233.234,251.751
2015-01-29 22:00,1.51197,290.171,279.823,257.685,281.799,278.307,257.777,1.02068,1.44391,233.53,252.342
2015-01-29 23:00,-0.0,264.377,265.092,248.642,268.024,267.339,252.982,-0.0,-0.0,233.456,251.051
2015-01-30 00:00,-0.00589569,262.074,255.941,243.509,256.789,255.425,243.525,-0.00249594,-0.00297603,228.4,243.214
2015-01-30 01:00,0.00201377,267.123,261.982,246.934,263.92,262.361,249.438,-0.0,-0.0,231.236,247.481
2015-01-30 02:00,-0.00162734,280.613,274.524,254.454,276.163,272.246,252.075,-0.0,-0.0,231.315,248.562
2015-01-30 03:00,-0.0,280.05,272.256,253.02,271.303,265.65,246.457,-0.0,-0.0,227.87,243.818
2015-01-30 04:00,-0.0,272.061,262.616,247.597,261.069,256.367,241.374,-0.0,-0.0,227.87,242.971
2015-01-30 05:00,-0.0,268.686,268.487,250.681,270.657,269.984,254.392,-0.0,-0.0,232.097,250.135
2015-01-30 06:00,-0.0,276.594,272.391,253.261,274.312,272.405,254.9,-0.0,-0.0,232.02,250.135
2015-01-30 07:00,-0.0,257.605,243.049,236.146,241.344,238.282,230.111,-0.0,-0.0,222.585,230.863
2015-01-30 08:00,-0.0,249.89,242.597,236.466,242.978,241.027,233.344,-0.0,-0.0,225.058,234.845
2015-01-30 09:00,-0.0,281.705,277.852,256.32,279.907,277.396,257.034,-0.0,-0.0,230.101,248.882
2015-01-30 10:00,0.580581,286.569,275.306,254.808,276.772,272.565,253.368,0.418208,0.69111,230.348,247.59
2015-01-30 11:00,0.447147,287.729,265.243,248.9,267.185,264.623,249.971,0.354603,0.486391,230.511,247.481
2015-01-30 12:00,0.317643,295.151,288.52,262.995,289.701,285.35,259.614,0.139517,0.398846,229.935,248.775
2015-01-30 13:00,0.261672,298.045,286.772,261.944,287.815,283.484,259.249,0.125506,0.308456,230.348,249.093
2015-01-30 14:00,0.223332,298.822,291.487,264.849,292.34,287.469,260.942,0.0869401,0.266932,229.685,249.198
2015-01-30 15:00,0.238939,298.436,287.76,262.681,288.897,284.636,259.249,0.131551,0.268554,229.093,248.455
2015-01-30 16:00,0.242002,291.19,273.732,254.217,273.843,269.821,252.594,0.193194,0.289688,228.575,245.69
2015-01-30 17:00,0.243879,293.007,271.437,252.777,270.495,265.65,248.094,0.180045,0.282596,227.601,243.577
2015-01-30 18:00,0.2105,296.738,284.528,260.553,285.201,280.108,256.909,0.12601,0.251767,229.935,247.917
2015-01-30 19:00,0.228,297.947,289.805,263.721,291.029,286.907,261.182,0.140649,0.271283,232.405,249.825
2015-01-30 20:00,0.287041,292.653,283.841,260.228,285.479,282.467,259.249,0.262024,0.382606,233.234,250.442
2015-01-30 21:00,0.260897,295.796,290.44,264.031,291.948,287.748,261.54,0.240983,0.371142,234.329,251.452
2015-01-30 22:00,0.455435,292.414,287.651,262.366,289.032,285.635,260.701,0.455728,0.564287,233.677,251.051
2015-01-30 23:00,-0.0,259.505,240.75,235.01,237.951,234.95,226.574,-0.0,-0.0,220.219,227.509
2015-01-31 00:00,-0.00293713,265.095,247.15,238.657,244.349,241.027,231.094,-0.00248687,-0.00296521,219.503,229.664
2015-01-31 01:00,-0.0,263.636,251.147,240.617,249.998,246.666,236.0,-0.0,-0.0,222.15,234.996
2015-01-31 02:00,-0.0,258.576,245.676,237.572,243.895,240.576,232.547,-0.0,-0.0,223.849,232.829
2015-01-31 03:00,-0.0,265.446,259.54,245.723,259.974,257.486,243.949,-0.0,-0.0,226.216,241.854
2015-01-31 04:00,0.00141764,275.02,264.175,247.859,262.507,258.957,243.667,-0.0,-0.0,224.56,239.39
2015-01-31 05:00,-0.0,283.924,279.336,256.434,280.493,277.396,255.909,-0.0,-0.0,228.575,248.133
2015-01-31 06:00,0.001713,280.239,274.392,253.501,274.778,271.121,252.594,-0.0,-0.0,230.835,245.69
2015-01-31 07:00,-0.0,287.871,285.658,260.445,287.815,284.636,259.977,-0.0,-0.00223325,231.394,251.152
2015-01-31 08:00,-0.0,266.797,256.118,242.656,256.598,252.927,240.06,-0.0,-0.0,229.935,240.316
2015-01-31 09:00,-0.0109782,282.234,279.091,256.205,280.931,278.458,256.66,-0.0,-0.0,232.175,249.198
2015-01-31 10:00,0.23773,288.977,286.882,261.091,289.434,286.626,260.461,0.238561,0.382226,231.787,251.652
2015-01-31 12:00,0.318424,296.531,291.591,263.618,293.506,289.964,263.083,0.133119,0.395807,234.257,252.244
2015-01-31 13:00,0.269613,298.726,292.725,264.133,294.277,290.375,262.847,0.105163,0.322653,234.113,252.925
2015-01-31 14:00,0.247924,300.134,287.978,261.625,288.628,282.467,258.392,0.113116,0.286607,233.01,249.928
2015-01-31 15:00,0.190771,300.408,293.843,265.153,295.424,291.057,262.965,0.0687981,0.228261,232.481,252.047
2015-01-31 16:00,0.170598,300.679,293.742,265.052,294.916,290.375,262.847,0.0605107,0.204812,233.823,252.537
2015-01-31 17:00,0.170619,299.579,291.902,264.031,293.119,289.137,262.492,0.0864741,0.207427,235.386,253.785
2015-01-31 18:00,0.312433,272.322,240.039,234.017,240.392,233.969,225.36,0.373531,0.50765,226.027,233.461
2015-01-31 19:00,0.495193,270.713,218.082,224.507,217.072,216.331,214.468,0.757184,0.869938,214.588,216.392
2015-01-31 20:00,0.753919,279.859,206.643,220.077,205.497,204.559,206.286,0.963213,1.10998,207.304,206.606
2015-01-31 21:00,1.09695,281.883,207.704,220.517,207.269,206.513,208.318,1.04278,1.26735,208.274,209.047
2015-01-31 22:00,0.609229,245.913,213.479,223.489,212.219,211.635,213.035,0.569195,0.721097,211.303,212.207
2015-01-31 23:00,-0.00644636,246.775,227.533,228.749,225.003,221.283,216.859,-0.00545813,-0.00650799,217.752,222.096
