# timestamp,IR_016,IR_039,IR_087,IR_097,IR_108,IR_120,IR_134,VIS006,VIS008,WV_062,WV_073
2016-08-01 00:00,-0.207677,289.247,287.978,256.892,290.632,288.722,261.66,-0.0518872,-0.10655,230.348,254.722
2016-08-01 01:00,-0.00232724,288.152,285.882,255.626,288.087,285.777,259.37,0.0,-0.00234949,228.921,252.439
2016-08-01 02:00,-0.00188999,288.705,287.651,256.892,291.029,288.861,262.61,0.0,0.0,229.852,253.88
2016-08-01 03:00,0.00170889,285.045,284.869,255.626,287.679,286.343,261.54,0.0,0.0,230.43,254.349
2016-08-01 04:00,0.0,289.779,289.272,257.572,292.209,290.238,262.965,0.0,0.0,230.511,254.629
2016-08-01 05:00,0.0,288.705,287.322,256.549,289.835,287.888,261.062,0.0,0.0,229.852,253.213
2016-08-01 06:00,0.0,289.779,289.058,257.233,292.209,290.511,262.728,0.0,0.0,230.43,254.068
2016-08-01 07:00,-0.00287436,288.841,287.76,256.549,290.632,288.584,261.898,0.0,0.0,230.101,253.974
2016-08-01 08:00,-0.00516682,289.113,288.195,256.892,291.292,289.413,261.66,0.0,0.0,229.433,253.213
2016-08-01 09:00,-1.17571,283.261,282.331,254.336,285.618,284.349,260.219,-0.769228,-1.02509,229.263,251.352
2016-08-01 10:00,0.0728727,290.429,288.303,257.572,291.423,289.137,261.54,0.241663,0.15327,229.517,251.352
2016-08-01 11:00,0.0377793,290.558,287.651,257.685,290.367,287.609,260.942,0.135332,0.0792148,229.517,250.95
2016-08-01 12:00,0.382377,291.44,279.945,253.741,283.514,281.735,259.37,0.425558,0.441748,230.184,251.051
2016-08-01 13:00,0.0792805,291.315,283.841,255.742,286.585,283.629,259.492,0.121091,0.10044,230.511,250.748
2016-08-01 14:00,0.030971,290.558,287.102,257.233,289.701,286.907,261.062,0.0649877,0.0407831,230.593,251.252
2016-08-01 15:00,0.0288002,290.939,287.76,257.572,290.367,287.609,261.421,0.053011,0.0341321,230.835,251.452
2016-08-01 16:00,0.0161013,290.685,288.52,258.022,291.555,288.861,262.017,0.0419475,0.0262584,231.156,252.047
2016-08-01 17:00,0.0208233,291.19,288.412,257.91,291.292,288.999,262.017,0.0473834,0.0302196,231.076,252.925
2016-08-01 18:00,0.0643085,293.124,288.087,257.91,290.764,288.445,261.779,0.0866248,0.0678743,230.593,252.828
2016-08-01 19:00,0.181945,299.108,288.195,257.346,291.029,288.445,261.66,0.185769,0.167477,230.511,253.405
2016-08-01 20:00,0.763536,304.398,284.528,255.742,287.543,285.35,260.581,0.64857,0.673859,230.101,252.634
2016-08-01 21:00,2.68921,319.399,287.869,257.233,290.5,287.888,261.301,1.75629,1.96733,230.101,253.021
2016-08-01 22:00,0.444098,290.041,288.412,257.572,291.423,288.861,261.421,0.465545,0.512393,230.018,252.634
2016-08-01 23:00,-0.498523,289.113,287.869,257.006,290.764,288.445,261.182,-0.121513,-0.25927,231.709,253.309
2016-08-02 00:00,-0.152058,288.705,286.882,255.742,289.701,287.329,261.421,-0.0457768,-0.102341,232.86,253.69
2016-08-02 01:00,-0.00231423,289.779,288.303,255.974,291.029,288.445,261.66,0.0,0.0,234.615,253.88
2016-08-02 02:00,-0.00188093,287.3,285.994,254.336,288.493,286.343,260.822,0.0,0.0,233.896,253.405
2016-08-02 03:00,-0.00170132,278.883,279.458,251.18,281.655,280.85,258.638,0.0,0.0,233.159,252.244
2016-08-02 04:00,-0.00167597,288.012,284.982,254.217,286.86,283.917,258.76,0.0,0.0,232.633,251.85
2016-08-02 05:00,0.00179303,288.568,285.546,254.454,287.679,284.779,259.249,0.0,0.00181017,232.405,252.047
2016-08-02 06:00,0.0,287.01,285.658,254.572,288.222,286.06,260.219,0.0,0.0,232.481,252.342
2016-08-02 07:00,0.00285749,288.705,286.992,255.043,289.434,286.485,259.856,0.0,0.0,232.633,252.537
2016-08-02 08:00,-0.00511994,289.381,287.432,255.16,289.835,287.048,260.34,0.0,0.0,232.175,252.828
2016-08-02 09:00,-0.297351,286.121,284.528,253.86,286.997,284.779,260.098,-0.419611,-0.45029,232.02,252.146
2016-08-02 10:00,0.0917354,290.041,287.102,254.926,289.434,286.767,260.701,0.233017,0.14818,231.787,251.949
2016-08-02 11:00,0.346698,288.152,279.58,250.931,282.946,281.588,258.515,0.414422,0.426486,231.552,251.751
2016-08-02 12:00,0.0769626,291.065,287.212,255.277,289.968,287.469,260.461,0.130328,0.0876597,231.63,251.452
2016-08-02 13:00,0.0279995,290.685,287.651,255.393,290.5,287.888,260.822,0.0777067,0.0486823,231.473,251.452
2016-08-02 14:00,0.0350244,290.301,287.541,255.16,290.234,287.888,261.062,0.0661537,0.044879,231.236,251.751
2016-08-02 15:00,0.0162833,290.301,287.869,255.277,290.897,288.167,261.301,0.0466638,0.0265552,231.63,252.047
2016-08-02 16:00,0.0730999,289.381,285.658,254.336,288.628,286.626,260.461,0.104904,0.0988152,231.865,251.949
2016-08-02 17:00,0.0182295,291.065,287.978,255.393,290.764,288.445,260.942,0.0452023,0.0276057,232.405,252.146
2016-08-02 18:00,0.0438834,292.534,287.76,255.277,290.367,287.748,261.421,0.0705965,0.05021,232.481,252.537
2016-08-02 19:00,0.480536,299.203,279.336,251.18,282.803,281.882,259.614,0.402332,0.429223,232.328,252.537
2016-08-02 20:00,0.698937,306.101,284.642,254.099,287.27,285.065,259.856,0.581333,0.613365,231.865,252.244
2016-08-02 21:00,1.26793,300.858,282.566,252.656,285.479,283.629,259.977,0.955504,1.13929,232.405,252.731
2016-08-02 22:00,0.702392,290.171,288.087,255.626,290.5,288.027,260.822,0.53896,0.598309,234.041,253.309
2016-08-02 23:00,-0.491026,289.91,288.52,255.974,291.292,288.722,261.66,-0.125985,-0.270392,233.234,253.69
2016-08-03 00:00,-0.211255,289.91,288.843,255.626,291.423,289.137,261.54,-0.0567839,-0.111715,233.308,253.974
2016-08-03 01:00,-0.00230105,290.171,289.058,256.205,291.686,289.551,262.373,0.0,-0.00232304,233.896,254.999
2016-08-03 02:00,-0.00187177,286.271,285.433,255.16,288.493,287.048,261.66,0.0,0.0,234.113,255.911
2016-08-03 03:00,-0.00169368,288.841,287.541,255.974,290.234,288.722,262.017,0.0,0.0,234.329,256.181
2016-08-03 04:00,0.0,280.427,281.978,253.14,285.061,284.349,261.062,0.0,0.0,233.456,256.001
2016-08-03 05:00,0.00178503,288.841,287.76,256.434,290.5,288.445,262.136,0.0,-0.00180209,233.968,256.181
2016-08-03 06:00,0.0,288.152,287.978,256.778,290.764,289.276,262.61,0.0,0.0,233.308,255.639
2016-08-03 07:00,0.00284072,289.514,289.272,256.892,292.079,290.238,262.728,0.0,0.0,232.935,256.36
2016-08-03 08:00,-0.00507379,289.381,289.058,257.006,291.948,290.238,262.965,0.0,0.0,232.251,256.091
2016-08-03 09:00,-0.138614,290.041,289.699,257.685,292.6,290.648,263.2,-0.469456,-0.419817,232.02,255.821
2016-08-03 10:00,0.06775,290.939,289.805,257.798,292.86,291.057,263.2,0.229455,0.136795,232.251,255.73
2016-08-03 11:00,0.0408905,291.315,289.593,257.798,292.6,290.648,263.2,0.133542,0.0825628,231.63,254.814
2016-08-03 12:00,0.0316124,291.44,289.699,257.798,292.86,291.193,263.905,0.0936816,0.0578452,231.473,253.974
2016-08-03 13:00,0.0840529,292.053,288.951,257.572,291.948,290.238,263.318,0.11993,0.0958563,231.787,253.69
2016-08-03 14:00,0.0148239,291.19,289.911,258.469,293.119,291.329,263.553,0.0536286,0.0299312,232.557,254.349
2016-08-03 15:00,0.00877071,290.939,290.123,258.358,293.248,291.329,263.553,0.0403134,0.0227689,233.159,254.443
2016-08-03 16:00,0.00991548,291.19,290.335,258.802,293.764,291.871,263.905,0.0377794,0.0212718,233.308,254.722
2016-08-03 17:00,0.0234508,291.931,290.229,259.134,293.635,292.141,263.787,0.0474331,0.0302513,233.75,255.183
2016-08-03 18:00,0.0468509,293.587,290.756,259.244,294.149,292.545,264.605,0.0706597,0.0517331,234.543,256.091
2016-08-03 19:00,0.16818,299.013,290.86,258.913,294.021,292.545,264.138,0.17118,0.153531,235.593,257.158
2016-08-03 20:00,0.762865,311.737,290.756,258.802,293.892,292.545,264.372,0.606071,0.620127,236.475,257.942
2016-08-03 21:00,2.36809,316.803,290.229,258.691,293.377,292.006,264.488,1.59662,1.77534,237.721,259.051
2016-08-03 22:00,0.982472,291.44,290.756,259.134,293.506,292.276,264.488,0.619056,0.830397,238.42,260.381
2016-08-03 23:00,-0.35898,290.813,290.756,259.354,293.506,292.141,264.255,-0.111654,-0.251469,238.357,260.789
2016-08-04 00:00,-0.196301,288.977,289.699,258.913,292.47,291.193,264.488,-0.0563417,-0.117563,238.483,260.627
2016-08-04 01:00,-0.0022877,290.429,290.651,259.244,293.377,292.141,264.372,0.0,0.0,238.483,261.275
2016-08-04 02:00,-0.00186251,290.685,290.86,259.574,293.635,292.41,264.837,0.0,0.0,238.671,261.914
2016-08-04 03:00,0.0,290.429,290.651,259.902,293.248,292.006,264.372,0.0,0.0,238.231,260.708
2016-08-04 04:00,-0.0016613,290.558,290.335,259.464,292.989,291.329,264.022,0.0,0.0,238.546,260.217
2016-08-04 05:00,-0.00177701,285.97,285.433,257.572,287.951,286.767,261.54,0.0,0.0,237.268,258.543
2016-08-04 06:00,0.0,288.152,287.869,258.58,290.764,289.551,262.61,0.0,0.0,235.593,258.543
2016-08-04 07:00,0.0,288.841,288.628,259.244,291.686,289.826,263.553,0.0,0.0,235.038,257.508
2016-08-04 08:00,0.00502839,289.779,289.272,259.354,292.079,289.964,262.965,0.0,0.0,234.543,257.421
2016-08-04 09:00,-0.12984,290.558,289.593,259.793,292.209,290.238,263.083,-0.403095,-0.305855,233.896,257.07
2016-08-04 10:00,0.0682319,290.939,289.699,260.119,292.34,290.101,262.965,0.23634,0.144031,233.53,256.628
2016-08-04 11:00,0.0292806,290.939,289.911,260.119,292.47,290.511,263.318,0.131397,0.0739012,232.784,256.628
2016-08-04 12:00,0.0237377,291.315,289.911,260.445,292.6,290.511,263.436,0.0921188,0.0539203,231.787,255.639
2016-08-04 13:00,0.0155754,291.315,289.805,260.119,292.47,290.238,262.61,0.068576,0.0377384,231.552,255.183
2016-08-04 14:00,0.0121336,290.939,289.593,260.119,292.209,289.826,262.61,0.0525088,0.0272212,231.787,254.722
2016-08-04 15:00,0.0125338,291.19,289.379,260.119,291.686,289.413,262.61,0.045633,0.0265726,231.076,254.162
2016-08-04 16:00,0.0136392,291.19,289.272,260.337,291.817,289.276,262.847,0.0419936,0.0237837,231.156,253.785
2016-08-04 17:00,0.0169466,291.809,289.379,260.119,291.817,289.413,262.255,0.0463571,0.0289529,231.394,253.405
2016-08-04 18:00,0.0512922,293.24,289.379,260.011,291.686,288.999,262.373,0.0781722,0.05918,231.63,253.88
2016-08-04 19:00,0.202504,297.649,288.52,260.011,291.16,288.445,262.255,0.20029,0.186348,231.865,254.068
2016-08-04 20:00,0.650889,305.416,288.195,259.683,290.367,288.027,262.136,0.551107,0.546757,231.709,253.974
2016-08-04 21:00,2.60932,319.598,288.951,260.337,291.16,288.722,261.779,1.66352,1.80966,231.236,254.256
2016-08-04 22:00,1.00208,290.939,288.52,260.011,290.632,288.167,262.017,0.525237,0.674439,231.787,254.068
2016-08-04 23:00,-0.50488,290.301,288.843,260.228,291.029,288.445,261.779,-0.134351,-0.269416,231.552,253.88
2016-08-05 00:00,-0.161737,290.041,288.52,260.011,290.764,288.027,261.182,-0.0531002,-0.113299,231.63,253.69
2016-08-05 01:00,-0.00227422,290.301,288.843,259.902,291.16,288.722,262.255,0.0,-0.00229596,232.328,254.162
2016-08-05 02:00,0.0,289.91,288.843,259.793,291.029,288.584,262.136,0.0,0.0,233.234,254.629
2016-08-05 03:00,0.0,289.113,287.978,260.011,290.367,287.888,261.54,0.0,0.0,233.308,254.443
2016-08-05 04:00,-0.00165391,290.429,288.628,259.683,290.764,288.027,261.779,0.0,0.0,233.896,254.907
2016-08-05 05:00,0.0,289.779,288.736,260.011,290.764,288.306,262.017,0.0,0.0,234.615,255.457
2016-08-05 06:00,0.0,290.429,289.165,260.228,291.292,288.861,262.255,0.0,0.0,234.543,255.366
2016-08-05 07:00,-0.00280754,290.558,289.165,260.119,291.555,289.137,262.017,0.0,0.0,234.968,255.366
2016-08-05 08:00,0.0,289.91,289.058,259.902,291.555,288.999,262.017,0.0,0.0,235.386,256.091
2016-08-05 09:00,-0.122124,289.647,288.736,259.793,291.423,288.999,262.255,-0.379143,-0.328778,234.329,256.091
2016-08-05 10:00,0.193661,290.813,288.736,259.902,291.292,288.999,262.61,0.322655,0.245967,234.041,256.181
2016-08-05 11:00,0.123285,291.563,288.628,259.464,291.029,289.137,261.898,0.20877,0.157061,233.603,256.091
2016-08-05 12:00,0.0198049,290.939,289.379,260.228,291.948,289.413,262.61,0.0888746,0.0499856,233.53,256.091
2016-08-05 13:00,0.0155855,291.315,289.379,260.011,291.948,289.826,262.373,0.0673008,0.0377628,233.75,256.001
2016-08-05 14:00,0.0337183,291.809,289.058,259.902,291.686,289.276,262.728,0.0662341,0.0449336,234.257,256.091
2016-08-05 15:00,0.0363608,292.053,288.951,259.793,291.555,289.276,262.61,0.0626348,0.0443032,234.185,256.181
2016-08-05 16:00,0.0235685,291.686,289.593,260.661,292.209,289.964,262.728,0.0504136,0.0325599,233.823,256.181
2016-08-05 17:00,0.0365231,292.414,289.486,260.119,292.209,290.101,262.965,0.0596393,0.0421398,234.615,256.716
2016-08-05 18:00,0.067481,294.156,289.379,260.337,291.948,289.689,262.61,0.0869462,0.0696071,233.823,256.181
2016-08-05 19:00,0.238757,297.649,288.843,260.337,291.686,289.826,263.2,0.231035,0.217479,234.185,256.628
2016-08-05 20:00,0.605597,304.239,288.736,260.119,291.423,289.413,262.847,0.521199,0.520811,233.456,256.539
2016-08-05 21:00,1.76523,310.972,289.058,260.228,291.686,289.689,262.373,1.24238,1.33321,233.085,256.45
2016-08-05 22:00,1.07511,290.685,288.951,259.902,291.423,289.689,263.083,0.61392,0.832973,232.935,256.539
2016-08-05 23:00,-0.376264,289.381,288.736,259.574,291.16,289.137,263.2,-0.12022,-0.272353,232.709,256.271
2016-08-06 00:00,-0.24556,289.779,288.52,259.464,290.897,288.445,262.017,-0.066533,-0.128912,232.633,255.911
2016-08-06 01:00,-0.0022606,287.729,285.658,257.91,288.493,285.635,260.942,0.0,0.0,232.86,255.821
2016-08-06 02:00,-0.00184374,290.429,289.272,259.793,291.948,290.101,263.083,0.0,0.0,233.456,256.628
2016-08-06 03:00,-0.00167043,288.977,288.736,259.134,291.16,289.137,262.492,0.0,0.0,233.53,256.716
2016-08-06 04:00,0.0016465,286.421,283.032,256.089,284.501,281.882,258.27,0.0,0.0,232.251,253.117
2016-08-06 05:00,-0.00176095,284.57,280.549,254.572,281.655,279.361,257.282,0.0,0.0,231.076,250.032
2016-08-06 06:00,0.0,288.841,288.303,259.024,291.029,289.413,262.847,0.0,0.0,231.787,255.639
2016-08-06 07:00,0.0,288.977,288.52,258.58,291.16,289.551,262.61,0.0,0.0,232.405,256.271
2016-08-06 08:00,0.0,288.152,287.76,258.134,290.234,288.584,262.373,0.0,0.0,233.603,256.982
2016-08-06 09:00,-0.153721,286.421,286.217,257.346,289.032,287.748,262.255,-0.357926,-0.349178,233.53,256.539
2016-08-06 10:00,0.666925,288.43,284.869,256.32,287.815,287.048,261.898,0.756463,0.793986,233.603,256.805
2016-08-06 11:00,0.391368,292.414,286.992,257.91,289.835,288.584,262.255,0.436014,0.415905,233.53,256.539
2016-08-06 12:00,0.148713,292.534,288.087,258.022,290.764,288.861,263.083,0.224968,0.192172,233.603,256.716
2016-08-06 13:00,0.00779782,291.19,289.805,258.913,292.34,290.238,262.847,0.0620626,0.0314895,234.041,256.091
2016-08-06 14:00,0.00944511,291.315,290.017,258.802,292.73,290.511,262.728,0.0514103,0.0286062,234.041,256.091
2016-08-06 15:00,0.0125428,291.809,289.805,258.58,292.6,290.238,262.847,0.045666,0.0265918,234.827,255.911
2016-08-06 16:00,0.0161331,292.653,290.229,258.469,292.86,290.648,262.61,0.0462333,0.028816,235.038,256.181
2016-08-06 17:00,0.0234949,293.472,290.335,258.58,293.119,290.784,263.083,0.0530482,0.0355792,235.525,255.639
2016-08-06 18:00,0.0411197,293.93,290.335,258.691,293.119,290.784,262.965,0.0696319,0.0504083,237.137,255.639
2016-08-06 19:00,0.107906,295.368,290.123,258.691,292.73,290.648,263.2,0.135523,0.1162,236.207,255.457
2016-08-06 20:00,0.390067,299.203,289.911,258.358,292.47,290.375,262.728,0.38108,0.368552,234.686,254.907
2016-08-06 21:00,1.10193,302.341,289.593,258.246,292.34,289.964,262.492,0.849564,0.904443,234.472,254.907
2016-08-06 22:00,0.815436,290.685,288.736,258.246,291.686,289.551,262.965,0.556797,0.717008,233.159,254.536
2016-08-06 23:00,-0.46111,290.939,289.593,258.691,292.34,289.826,262.492,-0.136056,-0.275079,232.709,254.722
2016-08-07 00:00,-0.178602,290.939,289.805,258.802,292.34,290.238,262.965,-0.0577394,-0.127856,231.943,254.536
2016-08-07 01:00,-0.00224687,290.939,289.699,258.58,292.6,290.101,262.373,0.0,0.0,231.63,254.162
2016-08-07 02:00,0.0,290.813,289.486,258.802,292.47,290.101,262.965,0.0,0.0,231.394,253.213
2016-08-07 03:00,0.0,290.685,289.165,258.469,292.079,289.964,262.61,0.0,0.0,230.916,253.117
2016-08-07 04:00,0.0,290.558,288.843,258.246,291.686,289.413,262.492,0.0,0.0,231.315,252.731
2016-08-07 05:00,0.0,290.429,288.843,258.246,291.686,289.551,262.61,0.0,0.0,232.328,253.213
2016-08-07 06:00,-0.00206058,290.429,288.843,258.246,291.555,289.551,262.255,0.0,0.0,231.865,253.213
2016-08-07 07:00,0.0,290.041,288.195,257.798,291.029,288.722,261.54,0.0,0.0,232.481,253.021
2016-08-07 08:00,0.0,289.647,287.978,257.459,290.632,288.445,261.779,0.0,0.0,232.251,252.634
2016-08-07 09:00,-0.0363992,289.647,288.303,257.798,291.292,288.861,261.898,-0.184915,-0.146989,232.405,252.439
2016-08-07 10:00,0.0443572,290.558,288.843,258.246,291.817,289.551,262.136,0.230708,0.127946,232.02,252.731
2016-08-07 11:00,0.0147494,290.813,289.165,258.134,292.079,289.689,262.61,0.114892,0.0565833,231.787,253.309
2016-08-07 12:00,0.00595551,291.065,289.593,258.358,292.34,289.964,262.61,0.0756378,0.0360746,231.63,253.5
2016-08-07 13:00,0.00936348,291.19,289.593,258.58,292.6,290.101,263.083,0.058139,0.0299345,231.63,253.595
2016-08-07 14:00,0.00539954,291.563,289.911,258.691,292.6,290.648,263.436,0.0445749,0.0218046,231.787,253.974
2016-08-07 15:00,0.00250955,291.315,290.229,258.691,293.119,290.648,263.553,0.0350597,0.016468,230.916,253.88
2016-08-07 16:00,0.00372481,291.809,290.123,258.802,292.989,290.784,262.728,0.0315379,0.0150417,230.266,253.309
2016-08-07 17:00,0.00391861,291.809,289.699,258.469,292.6,289.826,262.965,0.0331788,0.017143,229.601,251.85
2016-08-07 18:00,0.0117619,291.809,289.165,258.022,291.817,288.999,262.017,0.0448144,0.0267172,229.433,251.051
2016-08-07 19:00,0.0522541,294.043,289.058,258.134,291.686,288.861,262.017,0.0900126,0.0636682,229.178,250.646
2016-08-07 20:00,0.2484,298.918,289.058,258.358,291.423,288.861,261.779,0.257058,0.217845,229.093,251.051
2016-08-07 21:00,1.39485,305.798,288.736,258.134,291.423,288.722,261.898,0.99756,1.00715,229.935,251.552
2016-08-07 22:00,1.52884,291.065,288.412,257.798,290.897,288.306,262.255,0.706071,0.926071,230.101,251.652
2016-08-07 23:00,-0.508701,290.171,288.195,257.459,290.367,287.888,261.301,-0.151333,-0.298422,230.593,252.634
2016-08-08 00:00,-0.196439,290.301,288.303,257.233,290.5,287.609,261.779,-0.0654392,-0.136546,230.43,252.828
2016-08-08 01:00,-0.00223303,288.841,286.772,256.089,288.493,286.06,260.822,0.0,0.0,230.266,252.828
2016-08-08 02:00,0.0,290.301,288.195,257.006,290.234,287.609,261.54,0.0,0.0,230.511,253.595
2016-08-08 03:00,0.00165471,290.171,288.087,257.346,290.234,287.469,261.66,0.0,0.0,230.755,253.5
2016-08-08 04:00,0.0,290.429,288.195,257.12,290.101,287.329,261.54,0.0,0.0,230.101,253.595
2016-08-08 05:00,0.0,290.171,287.541,256.778,289.434,286.767,261.062,0.0,0.0,230.916,253.88
2016-08-08 06:00,0.0,288.841,285.77,255.742,287.679,284.779,259.37,0.0,0.0,230.018,252.439
2016-08-08 07:00,0.0,283.428,276.463,250.681,277.075,273.517,251.422,0.0,0.0,227.78,246.818
2016-08-08 08:00,0.0,286.717,281.624,253.86,282.803,280.257,256.66,0.0,0.0,229.348,249.928
2016-08-08 09:00,-0.034578,289.647,287.869,257.459,290.367,287.609,261.54,-0.146386,-0.104726,231.865,253.213
2016-08-08 10:00,0.0382927,290.558,288.412,257.572,290.764,288.167,261.898,0.216149,0.122419,231.552,253.021
2016-08-08 11:00,0.00887132,290.685,288.303,257.572,290.764,288.167,262.017,0.110166,0.0507514,231.473,252.634
2016-08-08 12:00,0.0397499,291.563,287.978,257.459,289.968,287.188,261.062,0.102651,0.0581883,230.674,251.552
2016-08-08 13:00,0.0359168,291.686,287.432,257.685,289.434,286.485,260.34,0.0806545,0.0488724,230.511,251.552
2016-08-08 14:00,0.0918331,285.202,272.931,249.158,272.582,268.67,248.229,0.130354,0.118616,227.691,244.412
2016-08-08 15:00,0.166953,262.475,245.032,235.173,242.978,241.921,233.819,0.248707,0.268665,225.254,233.304
2016-08-08 16:00,0.0198758,290.301,284.869,255.626,286.31,282.904,258.023,0.0494347,0.032607,228.662,248.025
2016-08-08 17:00,0.0169935,290.171,285.321,256.089,286.033,282.613,257.777,0.0464855,0.0303529,227.87,247.917
2016-08-08 18:00,0.0677122,287.729,278.845,252.412,279.76,275.706,252.723,0.109678,0.096595,226.778,243.818
2016-08-08 19:00,0.135411,287.587,274.655,250.681,274.312,271.283,250.896,0.178857,0.158578,226.027,241.728
2016-08-08 20:00,0.40039,292.294,274.392,250.429,274.312,270.311,249.838,0.400841,0.394048,226.685,242.725
2016-08-08 21:00,0.878258,294.268,279.458,253.261,280.347,276.938,254.264,0.739767,0.785585,228.835,247.481
2016-08-08 22:00,0.679026,282.923,280.669,253.501,282.946,280.554,258.515,0.599927,0.745127,230.996,249.408
2016-08-08 23:00,-0.432827,289.113,285.882,256.434,287.679,284.349,259.735,-0.143154,-0.293585,230.916,249.513
2016-08-09 00:00,-0.249067,279.859,270.885,247.728,268.69,267.004,248.229,-0.0757021,-0.151513,227.329,240.835
2016-08-09 01:00,-0.0044382,285.045,279.213,252.534,279.76,276.784,255.153,0.0,0.0,230.348,246.707
2016-08-09 02:00,0.0,289.381,285.882,256.549,287.134,283.773,258.515,0.0,-0.00183245,231.709,250.238
2016-08-09 03:00,0.0,289.91,286.328,256.434,287.679,284.061,259.005,0.0,0.00166255,232.175,250.032
2016-08-09 04:00,0.0,290.041,286.328,256.434,288.087,284.636,259.492,0.0,0.0,231.787,250.34
2016-08-09 05:00,-0.00173689,290.041,286.328,256.549,287.679,284.349,259.614,0.0,0.0,231.943,250.442
2016-08-09 06:00,0.0,290.301,286.439,256.549,287.815,284.492,259.856,0.0,0.0,232.097,250.849
2016-08-09 07:00,0.00274283,290.171,286.328,256.664,287.679,284.061,259.249,0.0,0.0,232.097,250.849
2016-08-09 08:00,0.0,289.113,285.77,255.974,287.27,283.484,259.37,0.0,0.0,232.405,250.849
2016-08-09 09:00,-0.0329362,289.647,286.217,256.549,287.679,284.061,259.005,-0.195209,-0.166255,232.328,251.051
2016-08-09 10:00,0.0835621,0.0,286.328,256.434,287.679,284.061,259.492,0.239468,0.149254,232.557,250.849
2016-08-09 11:00,0.195645,287.729,278.721,252.168,281.655,278.004,255.784,0.333815,0.323207,232.935,250.135
2016-08-09 12:00,0.0975009,291.686,284.982,255.742,286.585,283.484,259.614,0.14489,0.102451,233.01,251.152
2016-08-09 13:00,0.0203142,291.19,286.439,256.892,287.951,284.492,259.856,0.0687999,0.0378616,232.709,251.252
2016-08-09 14:00,0.0891729,291.563,285.882,256.434,287.543,284.492,259.735,0.116686,0.0968454,233.159,251.949
2016-08-09 15:00,0.0778615,291.809,286.661,256.892,288.222,285.208,260.219,0.112711,0.0874807,232.405,251.751
2016-08-09 16:00,0.0174008,291.686,286.992,257.233,288.493,285.208,260.098,0.0452522,0.0276056,232.02,251.452
2016-08-09 17:00,0.0287814,291.931,287.212,257.346,288.897,285.35,260.219,0.0542768,0.036981,232.784,251.949
2016-08-09 18:00,0.0958018,292.771,286.328,257.233,288.358,285.493,261.301,0.117305,0.0967176,232.328,251.751
2016-08-09 19:00,0.146551,288.977,282.916,255.16,284.641,282.904,260.219,0.222127,0.202749,233.823,252.342
2016-08-09 20:00,0.487842,302.511,286.55,256.664,288.222,285.635,259.856,0.436597,0.405743,233.823,252.731
2016-08-09 21:00,1.06921,295.69,284.3,255.974,286.447,284.349,260.098,0.940268,0.982144,234.543,252.731
2016-08-09 22:00,0.44153,289.381,286.882,257.346,288.897,286.485,260.942,0.453952,0.50943,234.756,253.117
2016-08-09 23:00,-0.631976,290.813,288.303,257.91,290.367,287.748,262.017,-0.185875,-0.349231,235.593,253.5
2016-08-10 00:00,-0.205783,290.041,287.76,257.685,289.835,287.329,261.54,-0.0723752,-0.153416,235.867,254.162
2016-08-10 01:00,-0.00441018,290.685,288.412,257.798,290.234,287.609,261.421,0.0,0.0,236.207,254.536
2016-08-10 02:00,-0.00180545,290.939,288.412,258.134,290.367,287.609,262.017,0.0,0.0,236.609,254.722
2016-08-10 03:00,0.0,290.685,288.736,258.022,290.764,287.888,261.779,0.0,0.0,237.137,255.183
2016-08-10 04:00,0.0,290.558,288.52,258.246,290.367,287.609,261.779,0.0,0.0,237.006,255.457
2016-08-10 05:00,0.0,290.813,288.628,258.58,290.632,288.027,262.136,0.0,0.0,236.542,255.548
2016-08-10 06:00,0.00203043,290.939,288.951,258.58,291.029,288.306,262.017,0.0,0.00204984,236.874,255.73
2016-08-10 07:00,0.00272703,291.065,288.951,259.024,291.029,288.584,262.136,0.0,0.0,237.072,256.091
2016-08-10 08:00,-0.00477194,286.271,285.658,257.006,288.222,286.626,261.898,0.0,0.00481756,236.675,256.091
2016-08-10 09:00,-0.220145,286.864,286.439,257.685,288.628,286.485,261.898,-0.292909,-0.317499,236.609,255.548
2016-08-10 10:00,0.0323697,290.813,288.628,258.913,290.632,287.888,261.421,0.224741,0.124181,236.207,254.907
2016-08-10 11:00,0.0237721,291.065,288.195,259.244,290.5,287.609,261.66,0.123283,0.0659984,235.799,253.974
2016-08-10 12:00,0.0258976,291.315,288.087,259.024,290.234,287.469,261.54,0.08771,0.0462569,235.662,253.595
2016-08-10 13:00,0.0172003,291.44,287.978,258.802,290.234,287.188,261.062,0.0635497,0.0315722,234.897,253.5
2016-08-10 14:00,0.00811044,291.065,288.087,259.024,290.234,287.048,261.301,0.0469251,0.0231992,234.756,253.117
2016-08-10 15:00,0.0402049,291.315,287.432,258.58,289.568,286.767,261.421,0.0627639,0.0469313,234.968,253.595
2016-08-10 16:00,0.0198982,291.686,287.978,258.913,290.101,287.188,261.421,0.0431724,0.023855,235.247,253.5
2016-08-10 17:00,0.0248778,292.053,287.978,258.802,290.234,287.469,261.421,0.0487798,0.031725,235.247,253.5
2016-08-10 18:00,0.0368961,292.653,288.195,259.024,290.367,287.329,261.062,0.0637293,0.0432086,235.386,253.213
2016-08-10 19:00,0.170445,295.042,287.322,258.469,289.568,286.907,261.062,0.185768,0.161091,235.108,253.117
2016-08-10 20:00,0.545588,301.826,286.661,258.469,289.166,286.343,261.421,0.494177,0.466262,234.756,253.021
2016-08-10 21:00,2.06923,310.843,288.195,258.913,290.367,287.748,261.062,1.39926,1.46277,234.543,253.405
2016-08-10 22:00,2.27249,287.444,283.611,255.858,285.34,282.758,259.249,1.00513,1.84907,235.593,253.5
2016-08-10 23:00,-0.438372,289.647,286.217,257.685,287.951,284.922,260.34,-0.160655,-0.336876,235.936,253.595
2016-08-11 00:00,-0.282469,289.514,286.105,257.572,288.222,285.208,260.34,-0.0876943,-0.171102,235.593,252.342
2016-08-11 01:00,0.0,289.91,288.195,258.691,290.632,288.027,261.898,0.0,-0.00221196,235.455,253.021
2016-08-11 02:00,0.0,291.19,289.379,258.691,291.948,289.413,262.847,0.0,0.0,235.108,253.69
2016-08-11 03:00,-0.00163094,287.444,286.992,257.685,289.701,288.306,262.255,0.0,0.0,236.004,254.814
2016-08-11 04:00,-0.00160926,289.247,288.52,258.134,291.292,289.413,262.255,0.0,0.0,236.207,255.457
2016-08-11 05:00,0.00172093,290.813,289.593,258.802,292.079,289.826,263.083,0.0,0.0,236.408,255.73
2016-08-11 06:00,0.0,290.171,289.379,258.469,292.209,289.964,263.083,0.0,0.0,236.274,256.271
2016-08-11 07:00,0.0,290.813,289.699,258.691,292.34,290.101,263.787,0.0,0.0,237.006,256.36
2016-08-11 08:00,0.00473187,289.91,288.736,258.246,291.555,289.826,262.965,0.0,0.0,237.398,257.158
2016-08-11 09:00,-0.0601934,290.041,289.058,258.246,291.686,290.101,262.965,-0.203863,-0.212691,237.977,257.595
2016-08-11 10:00,0.110847,291.19,289.805,258.246,292.34,290.648,263.787,0.287082,0.197482,238.294,257.769
2016-08-11 12:00,0.031911,291.686,290.017,258.469,292.73,291.057,263.436,0.10301,0.0644321,238.857,258.372
2016-08-11 13:00,0.0203412,291.44,290.229,258.58,292.989,291.193,264.022,0.0741908,0.0458103,238.231,258.2
2016-08-11 14:00,0.013524,291.563,290.123,258.691,292.989,290.921,263.67,0.0583986,0.0368637,238.671,258.457
2016-08-11 15:00,0.0276541,292.174,289.699,258.691,292.47,290.648,262.965,0.0585367,0.0393397,238.231,258.457
2016-08-11 16:00,0.03111,292.414,289.272,258.134,291.686,289.551,262.847,0.060057,0.0414578,237.721,257.942
2016-08-11 17:00,0.0930483,292.889,286.772,256.778,289.434,287.748,262.136,0.110963,0.0939378,238.671,258.114
2016-08-11 18:00,0.101976,294.602,287.541,256.892,289.835,288.167,262.847,0.122632,0.102951,238.857,258.457
2016-08-11 19:00,0.639729,296.635,280.909,253.261,284.079,284.061,260.701,0.575511,0.642175,239.166,258.798
2016-08-11 20:00,0.932569,304.715,281.978,254.217,285.479,284.922,261.54,0.750771,0.838589,239.227,259.387
2016-08-11 21:00,1.92929,301.302,281.148,253.741,284.921,284.779,261.66,1.43576,1.74023,238.357,258.967
2016-08-11 22:00,0.551507,289.247,288.52,257.006,291.029,289.137,263.318,0.529222,0.668136,238.104,258.713
2016-08-11 23:00,-0.617709,290.558,289.379,257.459,291.948,290.101,262.965,-0.201578,-0.383263,238.041,258.543
2016-08-12 00:00,-0.239557,289.647,288.412,257.006,291.029,289.413,262.847,-0.0790257,-0.160185,237.785,258.2
2016-08-12 01:00,-0.00217689,278.684,279.58,252.168,283.514,283.049,260.581,0.0,-0.0021977,237.721,257.942
2016-08-12 02:00,-0.00178605,282.059,281.86,254.099,285.201,284.205,261.421,0.0,0.0,238.42,258.2
2016-08-12 03:00,-0.00162299,286.864,285.882,255.626,288.493,287.048,261.779,0.0,0.0,238.357,258.543
2016-08-12 04:00,0.0,288.152,286.772,256.549,289.835,287.609,261.898,0.0,0.0,238.857,259.051
2016-08-12 05:00,-0.00171299,289.113,288.412,256.892,291.423,289.276,263.2,0.0,0.0,238.231,259.051
2016-08-12 06:00,0.0,277.24,279.58,252.656,282.803,282.613,260.942,0.0,0.0,238.041,259.051
2016-08-12 07:00,-0.00269595,288.291,287.102,256.434,289.434,287.469,262.373,0.0,0.0,237.528,259.135
2016-08-12 08:00,0.0,287.729,287.541,256.664,290.101,288.584,263.2,0.0,0.0,237.268,259.135
2016-08-12 09:00,-0.0288615,288.43,287.869,256.892,290.234,288.722,263.2,-0.219933,-0.174825,237.268,259.135
2016-08-12 10:00,0.847166,289.113,285.208,255.16,287.679,286.767,262.728,0.861865,0.961344,237.398,259.638
2016-08-12 11:00,0.197067,292.414,285.882,255.858,289.032,287.609,262.255,0.250284,0.201965,237.657,259.887
2016-08-12 12:00,0.295518,293.587,287.102,256.32,289.568,288.027,263.2,0.348272,0.316485,237.333,259.638
2016-08-12 13:00,0.0281837,291.686,289.805,257.798,292.34,290.375,263.67,0.0768923,0.0474219,237.203,259.721
2016-08-12 14:00,0.0311207,291.931,289.805,257.459,292.34,290.238,263.787,0.064156,0.0423462,237.006,259.638
2016-08-12 15:00,0.0100611,291.686,290.123,258.134,292.989,291.057,263.318,0.0404639,0.0215842,237.006,259.387
2016-08-12 16:00,0.0149425,291.809,289.911,257.572,292.6,290.511,262.847,0.0421726,0.0251422,236.94,259.22
2016-08-12 17:00,0.0157414,291.686,289.911,257.798,292.34,290.101,262.965,0.0444274,0.0264865,236.542,259.135
2016-08-12 18:00,0.0384824,293.124,289.699,257.685,292.209,289.964,262.373,0.0664191,0.0463214,236.139,258.713
2016-08-12 19:00,0.220433,297.449,288.303,257.006,290.764,288.445,262.373,0.21749,0.198631,235.662,258.286
2016-08-12 20:00,0.511768,303.51,288.303,257.233,290.5,288.027,262.136,0.439813,0.421078,235.662,258.028
2016-08-12 21:00,1.82028,300.408,281.742,253.501,284.781,284.349,261.182,1.34958,1.52823,235.525,258.114
2016-08-12 22:00,0.281647,290.301,288.951,257.346,290.632,288.445,262.373,0.545075,0.609299,235.455,257.769
2016-08-12 23:00,-0.651711,287.729,286.105,255.858,288.222,286.626,261.66,-0.208935,-0.383267,235.386,257.595
2016-08-13 00:00,-0.237444,279.473,279.945,253.02,283.372,283.194,261.301,-0.0835504,-0.174337,235.317,257.421
2016-08-13 01:00,-0.00216272,282.581,282.331,253.86,285.201,284.349,261.062,0.0,0.0,235.108,257.508
2016-08-13 02:00,-0.00177631,285.97,284.071,254.808,287.407,285.635,261.301,0.0,0.0,235.178,257.682
2016-08-13 03:00,0.0,288.977,287.432,256.32,289.701,287.609,262.017,0.0,0.0,235.662,257.942
2016-08-13 04:00,0.0,280.799,281.505,253.621,284.641,284.061,261.54,0.0,0.0,235.799,257.769
2016-08-13 05:00,0.00170508,283.594,282.799,254.336,285.895,284.492,260.822,0.0,0.0,236.341,257.769
2016-08-13 06:00,0.00200083,277.026,278.845,252.29,281.51,281.441,259.856,0.0,0.0,236.609,257.682
2016-08-13 07:00,0.0,279.278,279.823,253.02,283.23,282.613,260.822,0.0,0.0,236.675,257.595
2016-08-13 08:00,-0.00930799,288.012,287.102,256.549,289.3,287.329,261.779,0.0,0.0,236.609,257.508
2016-08-13 09:00,-0.0277295,290.429,289.272,257.798,291.292,289.137,262.728,-0.187828,-0.167968,236.609,257.682
2016-08-13 10:00,0.238115,291.563,289.272,257.798,291.555,289.413,262.492,0.364021,0.220358,236.341,257.246
2016-08-13 11:00,0.020951,291.065,289.593,257.798,292.079,289.826,262.728,0.124174,0.0634538,236.004,257.595
2016-08-13 12:00,0.0219895,291.563,289.699,257.685,291.948,289.964,262.373,0.0947851,0.050454,235.593,257.333
2016-08-13 13:00,0.00940098,291.19,290.017,258.134,292.6,290.375,264.022,0.0636784,0.0347998,235.386,257.421
2016-08-13 14:00,0.00812263,291.19,290.229,258.246,292.73,290.375,263.436,0.0492881,0.0259675,236.274,257.942
2016-08-13 15:00,0.0427824,292.174,289.165,258.022,291.948,290.101,262.728,0.0660551,0.0508134,236.475,257.595
2016-08-13 16:00,0.0137067,291.686,290.017,258.358,292.73,290.784,262.965,0.0432566,0.0276754,236.475,257.769
2016-08-13 17:00,0.0315143,292.414,290.335,258.358,292.989,291.057,263.553,0.0555899,0.0371182,236.207,257.421
2016-08-13 18:00,0.0711539,294.823,289.379,258.134,292.079,290.238,263.553,0.0903689,0.0703376,236.542,257.769
2016-08-13 19:00,0.126015,295.583,290.123,258.246,292.73,290.511,263.436,0.154633,0.123533,237.398,257.942
2016-08-13 20:00,0.442064,303.51,290.86,259.024,293.506,291.464,263.553,0.389528,0.373638,237.657,258.2
2016-08-13 21:00,1.53822,305.646,288.843,257.459,291.423,289.689,263.318,1.06048,1.18273,238.231,258.882
2016-08-13 22:00,0.489966,285.818,286.217,256.549,289.032,288.027,262.728,0.565709,0.719491,238.546,259.135
2016-08-13 23:00,-0.510158,288.841,287.212,257.006,290.367,288.722,262.255,-0.194904,-0.389417,239.166,259.887
2016-08-14 00:00,-0.272004,284.57,284.3,255.043,287.134,285.919,261.421,-0.0905696,-0.169699,238.919,259.387
2016-08-14 01:00,-0.00429705,284.73,285.321,255.626,287.27,286.485,261.66,0.0,0.0,239.471,259.135
2016-08-14 02:00,0.0,289.247,289.486,257.572,292.209,290.648,263.318,0.0,0.0,239.227,259.051
2016-08-14 03:00,0.0,290.429,289.699,258.022,292.209,290.238,263.2,0.0,0.00162243,238.795,258.798
2016-08-14 04:00,0.0,290.685,289.805,258.134,292.209,290.375,262.847,0.0,0.0,239.349,258.543
2016-08-14 05:00,0.0,279.473,279.945,253.261,283.372,281.882,259.37,0.0,0.0,239.774,257.421
2016-08-14 06:00,0.0,275.707,273.199,249.669,275.857,274.46,254.773,0.0,0.0,238.231,253.309
2016-08-14 07:00,0.0,275.02,273.732,249.797,275.55,274.929,256.16,0.0,0.0,240.193,255.639
2016-08-14 08:00,0.0,289.113,287.541,257.233,289.835,287.329,261.779,0.0,0.0,240.014,257.942
2016-08-14 09:00,-0.0533771,287.587,286.55,256.778,288.628,287.048,262.136,-0.180777,-0.134718,239.954,258.543
2016-08-14 10:00,0.199853,289.647,286.772,256.549,289.166,287.329,261.898,0.366632,0.329546,240.607,258.543
2016-08-14 11:00,0.0600025,291.315,289.593,258.358,291.817,289.826,263.318,0.154952,0.0969218,240.43,258.2
2016-08-14 12:00,0.0200136,291.44,289.272,258.022,291.423,288.861,262.373,0.096589,0.0545532,240.489,258.882
2016-08-14 13:00,0.0423336,291.563,288.951,257.91,291.555,289.551,263.318,0.0889458,0.063316,240.899,258.713
2016-08-14 14:00,0.0812697,291.44,288.087,257.685,291.029,289.276,262.965,0.112391,0.0984559,241.015,259.22
2016-08-14 15:00,0.0453242,292.053,286.772,256.892,289.434,287.469,262.136,0.0682239,0.0533838,241.419,259.471
2016-08-14 16:00,0.0635953,291.809,288.412,257.346,290.632,288.722,262.728,0.0886875,0.0730154,241.304,259.22
2016-08-14 17:00,0.191914,291.563,282.799,254.808,285.895,285.065,261.421,0.208125,0.212327,241.59,259.471
2016-08-14 18:00,0.106903,293.007,287.978,257.572,290.101,288.584,262.61,0.133258,0.112422,241.533,259.721
2016-08-14 19:00,0.186768,296.323,288.52,258.022,291.029,288.999,262.61,0.203096,0.19225,241.304,259.554
2016-08-14 20:00,0.20139,296.943,289.593,258.691,291.686,289.689,263.083,0.240472,0.216348,241.304,259.721
2016-08-14 21:00,1.44815,306.771,290.229,258.802,292.47,290.511,263.436,0.989876,1.07828,241.704,260.627
2016-08-14 22:00,0.200108,289.91,289.058,258.358,291.423,289.137,262.847,0.550652,0.656569,241.647,260.871
2016-08-14 23:00,-0.581114,277.026,277.35,253.02,280.931,280.85,260.098,-0.201991,-0.389055,240.724,260.708
2016-08-15 00:00,-0.29985,282.753,281.624,254.572,284.641,283.194,260.942,-0.0974498,-0.180407,240.957,261.755
2016-08-15 01:00,-0.00426862,290.558,289.699,258.802,291.948,289.826,263.2,0.0,-0.00215471,240.841,262.23
2016-08-15 02:00,0.0,287.3,287.212,257.006,289.701,288.306,262.965,0.0,0.0,240.782,261.834
2016-08-15 03:00,0.0,285.818,284.185,255.393,286.86,284.779,260.822,0.0,0.0,240.548,261.834
2016-08-15 04:00,0.00157954,287.155,286.217,256.778,288.222,286.485,261.898,0.0,0.0,241.476,262.309
2016-08-15 05:00,0.0,290.429,289.699,258.469,291.948,289.826,263.318,0.0,0.0,241.246,262.466
2016-08-15 06:00,0.00198147,290.685,290.756,259.244,293.377,291.464,263.67,0.0,0.0,241.246,262.857
2016-08-15 07:00,0.0,290.558,291.07,259.244,293.764,291.871,264.372,0.0,0.0,241.246,262.623
2016-08-15 08:00,-0.00457912,290.301,290.545,259.024,292.86,291.329,264.138,0.0,0.0,241.131,263.399
2016-08-15 09:00,-0.0257283,291.065,291.279,259.793,294.021,292.276,264.488,-0.152489,-0.155846,241.189,263.322
2016-08-15 10:00,0.167738,291.809,290.651,259.244,293.506,291.871,264.022,0.306772,0.230305,241.189,262.388
2016-08-15 11:00,0.0390941,291.315,290.86,259.244,293.635,292.006,263.787,0.147681,0.0941157,240.782,261.675
2016-08-15 13:00,0.0690364,293.587,289.805,259.134,292.73,291.057,263.905,0.10495,0.0807844,240.074,261.515
2016-08-15 14:00,0.0420126,292.414,289.911,259.244,292.73,290.921,263.553,0.0734389,0.0519916,240.193,260.789
2016-08-15 15:00,0.0415715,292.294,289.486,259.354,292.34,290.784,263.67,0.0682638,0.0508714,239.954,260.952
2016-08-15 16:00,0.0811147,292.653,288.195,258.469,290.764,289.276,263.318,0.0961515,0.0831499,239.349,260.545
2016-08-15 17:00,0.125013,296.219,283.841,256.549,287.134,285.919,261.54,0.118105,0.107609,239.043,260.789
2016-08-15 18:00,0.0788251,294.156,288.951,258.802,291.16,288.999,262.61,0.10326,0.0825816,238.981,260.217
2016-08-15 19:00,0.552636,300.225,281.624,255.277,284.921,284.349,261.421,0.464807,0.493045,239.349,259.97
2016-08-15 20:00,1.05324,302.171,281.386,255.043,284.641,284.205,261.301,0.878597,0.950691,239.774,259.804
2016-08-15 21:00,1.72126,298.144,280.066,254.69,283.23,282.904,260.461,1.30094,1.47264,239.471,257.769
2016-08-15 22:00,0.286197,279.859,280.308,254.69,283.656,282.904,259.856,0.678503,0.809012,239.532,258.2
2016-08-15 23:00,-0.52322,283.428,281.742,255.742,284.501,282.613,259.735,-0.208774,-0.406791,239.834,257.158
2016-08-16 00:00,-0.234108,287.01,284.642,256.778,286.447,283.917,260.701,-0.0838618,-0.166654,239.774,257.07
2016-08-16 01:00,-0.00212009,284.73,283.032,256.664,285.479,283.484,260.098,0.0,-0.00214035,239.894,257.421
2016-08-16 02:00,-0.00174704,264.009,263.712,245.587,267.016,266.16,251.944,0.0,0.0,239.834,254.443
2016-08-16 03:00,-0.00159118,288.568,286.328,258.022,287.815,284.922,260.701,0.0,0.0,239.227,256.181
2016-08-16 04:00,0.0,266.131,268.343,248.252,268.69,269.165,254.009,0.0,0.0,237.592,252.244
2016-08-16 05:00,0.0,281.705,282.214,255.626,284.079,282.758,259.977,0.0,0.0,239.104,256.45
2016-08-16 06:00,0.0,289.514,286.992,258.134,288.897,286.202,261.062,0.0,0.0,239.714,256.982
2016-08-16 07:00,0.0,282.408,281.742,254.808,284.921,283.339,259.977,0.0,0.0,239.894,256.894
2016-08-16 08:00,0.0,283.093,281.86,255.277,284.501,282.613,260.461,0.0,0.0,239.593,256.894
2016-08-16 09:00,-0.0745203,280.427,280.789,254.808,283.372,282.175,260.219,-0.189289,-0.225698,238.857,256.894
2016-08-16 10:00,0.45952,287.871,281.148,255.16,283.797,282.028,259.37,0.509231,0.457091,236.94,255.275
2016-08-16 11:00,0.744543,291.19,278.968,253.98,281.655,280.554,258.882,0.857552,0.870343,237.463,255.091
2016-08-16 12:00,0.272813,295.151,285.994,257.798,287.815,285.35,260.942,0.295532,0.257195,238.294,256.716
2016-08-16 13:00,0.205686,295.042,284.755,257.346,286.722,284.779,260.942,0.223343,0.196557,238.608,257.333
2016-08-16 14:00,0.211539,291.315,280.909,255.16,284.22,282.904,261.062,0.208962,0.201241,238.795,257.682
2016-08-16 15:00,0.0277314,291.315,286.882,258.246,289.166,286.343,261.779,0.057633,0.0369045,238.231,257.508
2016-08-16 16:00,0.014987,291.19,288.628,258.913,290.632,287.748,262.017,0.0475857,0.0277389,238.671,257.508
2016-08-16 17:00,0.0408411,292.414,288.303,259.024,290.234,287.888,261.66,0.0680448,0.0492119,238.857,257.508
2016-08-16 18:00,0.0610851,293.587,288.736,259.354,290.897,288.306,262.61,0.0920879,0.0706937,238.795,257.158
2016-08-16 19:00,0.182274,296.738,288.52,259.354,290.632,288.306,261.779,0.202657,0.172864,239.166,257.333
2016-08-16 20:00,0.510961,301.478,287.869,258.691,289.968,287.329,261.66,0.459118,0.426362,239.774,257.07
2016-08-16 21:00,1.47971,304.478,287.76,258.469,289.701,286.907,261.66,1.00729,1.01741,239.653,256.894
2016-08-16 22:00,0.201406,289.91,287.76,259.024,289.434,286.767,261.301,0.568435,0.609996,239.834,256.716
2016-08-16 23:00,-0.508482,289.91,287.541,258.913,289.3,286.626,260.822,-0.205253,-0.39993,239.954,256.628
2016-08-17 00:00,-0.237924,285.512,283.841,256.778,286.722,284.779,260.942,-0.085616,-0.165136,239.349,255.911
2016-08-17 01:00,-0.00421173,287.871,285.882,258.022,288.222,285.919,261.062,0.0,-0.002126,239.471,256.45
2016-08-17 02:00,-0.00173729,289.514,287.869,258.691,289.835,287.188,261.66,0.0,0.0,238.857,256.001
2016-08-17 03:00,0.0,290.041,288.412,259.244,290.5,287.748,261.66,0.0,0.0,238.919,256.091
2016-08-17 04:00,-0.00156481,286.864,283.611,256.549,285.757,282.321,259.005,0.0,0.0,239.227,255.091
2016-08-17 05:00,0.00167384,283.924,279.823,254.572,281.366,277.548,255.532,0.0,0.0,238.919,253.309
2016-08-17 06:00,0.0,288.152,285.321,257.459,287.407,283.917,259.249,0.0,0.0,239.104,255.183
2016-08-17 07:00,0.00262141,287.3,284.755,257.006,286.86,283.194,257.9,0.0,0.0,238.546,254.629
2016-08-17 08:00,0.0,287.01,284.528,256.664,286.447,282.758,258.023,0.0,0.0,237.849,253.69
2016-08-17 09:00,-0.0240163,281.346,282.916,255.974,286.722,285.493,261.301,-0.162676,-0.145475,238.041,255.548
2016-08-17 10:00,0.619355,289.779,283.841,256.549,287.543,286.485,261.421,0.599322,0.542822,237.785,255.457
2016-08-17 11:00,0.0997074,291.809,288.52,258.691,290.764,288.445,261.779,0.194427,0.134214,238.231,255.548
2016-08-17 12:00,0.0461909,291.686,288.303,258.913,290.764,288.306,261.779,0.122431,0.0811,238.294,255.366
2016-08-17 13:00,0.102132,0.0,286.105,257.685,288.628,285.919,260.581,0.0,0.107867,238.168,255.183
2016-08-17 14:00,0.0420616,292.534,288.843,259.024,291.423,288.999,262.965,0.083864,0.0589012,237.592,256.001
2016-08-17 15:00,0.0996451,293.356,287.978,258.469,290.764,288.584,262.728,0.127088,0.113332,237.528,255.639
2016-08-17 16:00,0.0449991,292.414,288.843,258.58,291.029,289.137,262.965,0.0709096,0.0479531,237.398,255.73
2016-08-17 17:00,0.0474859,292.414,288.628,258.246,290.897,288.861,262.255,0.0792957,0.0612565,236.675,255.457
2016-08-17 18:00,0.167172,295.26,287.541,257.233,289.701,288.027,261.898,0.185777,0.167263,237.333,255.911
2016-08-17 19:00,0.278822,299.297,287.651,257.12,289.701,287.888,261.66,0.267347,0.251661,237.137,255.821
2016-08-17 20:00,0.668155,304.794,287.869,257.346,289.968,288.306,261.66,0.523573,0.534343,237.333,255.457
2016-08-17 21:00,1.40715,306.4,287.76,257.346,289.968,288.167,261.779,0.905154,1.014,236.94,255.73
2016-08-17 22:00,0.244611,289.91,288.52,257.798,290.632,288.999,262.255,0.690374,0.823166,237.657,256.001
2016-08-17 23:00,-0.558023,290.685,288.628,258.134,291.16,289.276,262.255,-0.206709,-0.404914,237.785,256.001
2016-08-18 00:00,-0.226903,290.429,288.951,258.022,291.16,289.276,262.373,-0.0873265,-0.166598,237.592,256.181
2016-08-18 01:00,-0.00418332,287.871,287.102,257.572,289.835,288.306,262.373,0.0,-0.00211165,237.849,255.821
2016-08-18 02:00,0.0,288.977,288.412,258.246,290.897,288.999,262.61,0.0,0.0,238.671,256.181
2016-08-18 03:00,0.0,284.73,285.658,256.549,288.763,287.329,262.136,0.0,0.0,238.357,256.716
2016-08-18 04:00,-0.00155749,289.91,288.951,258.58,291.16,289.276,261.898,0.0,0.0,238.041,256.539
2016-08-18 05:00,0.00166615,288.841,287.978,257.798,290.367,288.584,262.017,0.0,0.0,237.785,256.45
2016-08-18 06:00,0.0,289.514,288.087,257.798,290.234,288.027,262.255,0.0,0.0,237.072,256.271
2016-08-18 07:00,0.0,286.421,285.77,256.089,288.493,286.907,261.66,0.0,0.0,237.072,256.45
2016-08-18 08:00,-0.00447228,285.97,285.433,256.205,288.628,286.907,261.54,0.0,0.0,236.94,256.716
2016-08-18 09:00,-0.0232502,284.888,285.321,256.32,288.628,287.469,261.66,-0.157487,-0.140835,237.072,256.539
2016-08-18 10:00,0.664923,289.91,285.994,256.434,288.897,287.188,261.898,0.673265,0.6782,237.203,256.539
2016-08-18 11:00,0.0999412,291.686,288.736,258.022,290.764,288.584,262.136,0.176933,0.116184,236.94,256.539
2016-08-18 12:00,0.12868,294.043,287.651,257.346,290.234,287.888,262.373,0.171942,0.13803,237.072,256.716
2016-08-18 13:00,0.0990622,293.816,287.651,257.459,290.234,288.167,262.373,0.129142,0.0968343,236.874,256.805
2016-08-18 14:00,0.173781,293.124,286.439,256.892,289.166,287.048,262.017,0.200018,0.175442,236.742,256.539
2016-08-18 15:00,0.177968,293.93,283.38,255.626,285.895,283.773,260.098,0.165647,0.146539,235.867,255.366
2016-08-18 16:00,0.131364,292.653,285.882,256.089,288.358,286.343,261.54,0.162071,0.140198,236.94,256.805
2016-08-18 17:00,0.402822,290.041,280.909,253.741,284.079,283.339,259.735,0.518872,0.517341,237.137,256.805
2016-08-18 18:00,0.411249,288.977,280.066,253.621,282.803,282.175,259.249,0.484953,0.484629,237.721,256.628
2016-08-18 19:00,0.513024,289.91,280.789,253.621,283.656,283.049,260.581,0.564533,0.58524,237.721,257.158
2016-08-18 20:00,0.698011,296.738,281.978,254.454,284.781,283.484,260.098,0.637839,0.664796,237.657,256.45
2016-08-18 21:00,2.03264,301.125,271.299,248.9,274.467,273.359,255.658,1.58897,1.9708,237.977,255.366
2016-08-18 22:00,0.313194,283.594,282.682,254.69,285.618,284.492,260.34,0.441969,0.526981,237.203,256.539
2016-08-18 23:00,-0.594313,282.923,282.331,254.454,285.34,284.061,260.219,-0.222571,-0.415381,236.742,256.45
2016-08-19 00:00,-0.259848,287.871,285.658,255.974,287.815,285.35,260.701,-0.0914661,-0.168011,236.742,255.091
2016-08-19 01:00,0.0,280.799,281.505,253.621,284.361,283.773,260.219,0.0,0.0,237.528,256.628
2016-08-19 02:00,0.0,290.301,288.303,257.346,290.101,287.609,261.898,0.0,0.0,237.268,257.158
2016-08-19 03:00,-0.00156746,290.558,289.058,258.022,291.16,288.722,261.898,0.0,0.0,237.528,257.508
2016-08-19 04:00,0.0,290.429,289.272,258.134,291.423,289.276,262.373,0.0,0.0,237.268,257.682
2016-08-19 05:00,0.0,289.91,289.272,258.469,291.686,289.551,262.847,0.0,0.0,236.071,257.333
2016-08-19 06:00,0.0,289.647,288.951,258.134,291.423,289.413,262.847,0.0,0.0,236.274,257.508
2016-08-19 07:00,-0.00259292,289.247,288.736,258.358,291.423,289.276,262.728,0.0,0.0,235.247,257.333
2016-08-19 08:00,-0.00443809,288.43,288.087,257.685,291.029,289.137,262.965,0.0,0.0,234.827,257.07
2016-08-19 09:00,-0.0450725,290.685,289.911,258.913,292.73,290.784,263.436,-0.13357,-0.113758,234.329,256.894
2016-08-19 10:00,0.324488,291.315,289.165,258.58,291.817,289.964,263.318,0.426729,0.35547,234.041,256.45
2016-08-19 11:00,0.0667833,292.053,289.593,258.913,292.079,290.101,263.436,0.161925,0.104197,234.113,255.548
2016-08-19 12:00,0.0261687,291.931,290.651,259.793,293.635,291.735,263.436,0.0954454,0.0569021,234.185,255.73
2016-08-19 13:00,0.108578,293.93,289.272,258.913,292.209,290.648,263.553,0.137233,0.114382,233.456,256.271
2016-08-19 14:00,0.0434729,291.931,290.229,259.464,292.989,291.193,263.787,0.0770677,0.0534891,233.677,256.36
2016-08-19 15:00,0.0303139,292.294,290.123,259.574,292.989,290.921,263.436,0.0577501,0.0382546,233.308,256.001
2016-08-19 16:00,0.0313062,292.534,289.911,259.354,292.6,290.784,263.553,0.0593754,0.040455,233.159,256.181
2016-08-19 17:00,0.100508,290.685,287.212,257.91,289.968,288.027,262.017,0.146686,0.142858,232.784,255.73
2016-08-19 18:00,0.173816,293.24,286.992,258.022,289.434,287.748,261.898,0.204261,0.180016,232.328,255.091
2016-08-19 19:00,0.0873192,294.38,290.44,259.464,292.86,290.511,263.318,0.127416,0.0956564,232.405,254.999
2016-08-19 20:00,0.336338,298.63,289.699,259.464,292.34,289.964,262.492,0.33635,0.31549,231.473,253.974
2016-08-19 21:00,0.921861,299.95,289.593,259.244,292.47,290.238,262.728,0.724478,0.740426,232.251,252.731
2016-08-19 22:00,0.292426,291.065,289.699,259.354,292.47,290.101,262.61,0.866589,0.885665,232.481,253.021
2016-08-19 23:00,-0.51686,290.813,289.058,259.244,291.948,289.276,262.373,-0.218812,-0.425381,232.481,252.047
2016-08-20 00:00,-0.225624,290.813,289.379,259.024,292.209,289.689,262.965,-0.0881704,-0.172296,233.603,251.949
2016-08-20 01:00,-0.00206333,290.558,289.058,258.802,291.948,289.551,262.61,0.0,0.0,235.038,252.537
2016-08-20 02:00,-0.00170813,287.155,286.328,257.12,289.032,286.907,260.942,0.0,-0.00172445,234.257,252.146
2016-08-20 03:00,0.0,290.301,288.412,258.134,290.897,288.167,261.421,0.0,0.0,234.615,252.731
2016-08-20 04:00,-0.00154296,287.155,285.546,256.778,288.493,286.626,260.822,0.0,0.0,235.455,252.925
2016-08-20 05:00,0.00165094,288.291,286.882,257.572,289.434,286.907,261.182,0.0,0.0,235.867,253.117
2016-08-20 06:00,-0.00193456,290.429,288.951,258.469,291.292,288.861,261.421,0.0,0.00195305,235.108,253.021
2016-08-20 07:00,0.0,290.041,288.736,258.358,291.686,289.137,262.373,0.0,0.0,235.178,253.213
2016-08-20 08:00,0.0,290.685,289.379,258.691,292.209,289.413,261.779,0.0,0.0,235.593,253.405
2016-08-20 09:00,-0.0218693,290.685,289.486,258.913,292.6,289.826,262.728,-0.1111,-0.0883134,235.936,253.5
2016-08-20 10:00,0.139069,291.315,289.272,258.802,292.34,289.826,262.847,0.294374,0.203578,236.542,253.785
2016-08-20 11:00,0.039555,291.44,289.272,258.469,292.209,289.964,262.61,0.141693,0.0829379,236.475,254.443
2016-08-20 12:00,0.0282147,291.931,289.165,258.358,292.209,289.689,262.373,0.09897,0.061038,236.475,254.629
2016-08-20 13:00,0.0850392,292.414,288.628,257.91,291.292,289.276,262.492,0.124004,0.0985709,236.742,254.443
2016-08-20 14:00,0.0149537,291.19,289.379,258.58,292.079,289.689,262.61,0.0552493,0.0301934,236.139,254.443
2016-08-20 15:00,0.0278083,291.44,289.058,258.58,291.686,289.137,262.492,0.0556525,0.0370069,236.139,254.536
2016-08-20 16:00,0.0213089,291.563,289.058,259.024,291.686,289.137,262.373,0.0498814,0.0303708,236.071,254.162
2016-08-20 17:00,0.0622423,290.429,286.217,257.233,288.897,286.626,260.701,0.119978,0.106957,235.455,253.974
2016-08-20 18:00,0.210209,294.491,281.86,254.69,285.34,283.049,259.614,0.226294,0.219798,235.936,253.974
2016-08-20 19:00,0.201296,295.26,286.105,257.12,288.493,286.06,260.581,0.217781,0.191931,236.004,253.88
2016-08-20 20:00,0.32491,298.144,288.951,258.913,291.555,288.861,262.017,0.322454,0.287686,236.274,254.443
2016-08-20 21:00,1.08834,301.125,289.379,258.913,292.079,289.551,262.373,0.816683,0.843588,236.675,254.349
2016-08-20 22:00,0.74125,289.647,288.628,259.024,291.686,289.137,262.136,1.46444,1.99556,236.207,254.814
2016-08-20 23:00,-0.52471,289.247,288.412,258.691,291.292,288.584,262.373,-0.22915,-0.440509,236.408,254.814
2016-08-21 00:00,-0.260783,290.041,288.628,258.802,291.555,288.999,261.898,-0.104336,-0.185161,236.808,255.183
2016-08-21 01:00,-0.00204922,289.514,288.736,258.913,291.423,289.276,262.492,0.0,0.0,236.675,255.911
2016-08-21 02:00,0.0,290.558,289.165,259.244,291.948,289.689,262.728,0.0,0.0,236.004,255.548
2016-08-21 03:00,0.0,288.012,287.212,258.134,289.968,288.027,262.017,0.0,0.0,236.341,255.366
2016-08-21 04:00,0.0,288.705,287.322,258.358,289.835,287.469,261.54,0.0,0.0,236.675,255.457
2016-08-21 05:00,0.0,290.558,288.628,259.134,290.897,288.027,261.779,0.0,0.0,236.542,255.548
2016-08-21 06:00,-0.00192546,290.429,288.736,259.134,291.16,288.306,261.898,0.0,0.0,237.006,256.001
2016-08-21 07:00,0.0,290.041,288.412,259.134,290.764,288.027,261.898,0.0,0.0,237.528,256.091
2016-08-21 08:00,0.0,289.647,288.303,258.913,290.234,287.888,262.136,0.0,0.0,237.592,256.36
2016-08-21 09:00,-0.021245,289.647,288.303,259.134,290.367,287.748,262.017,-0.107928,-0.0857922,237.268,256.45
2016-08-21 10:00,0.105049,291.315,288.52,259.134,290.5,288.167,262.61,0.272764,0.169685,237.203,256.36
2016-08-21 11:00,0.13724,292.653,288.195,259.024,289.968,287.329,261.301,0.203997,0.138552,237.463,256.181
2016-08-21 12:00,0.389418,291.686,276.971,252.777,280.201,279.361,259.127,0.367304,0.370734,237.592,256.271
2016-08-21 13:00,0.253741,290.558,277.601,253.261,279.907,278.609,258.76,0.270888,0.252985,236.94,255.911
2016-08-21 14:00,0.420354,291.563,282.214,256.205,284.921,283.484,260.942,0.415807,0.406518,237.006,256.36
2016-08-21 15:00,0.321309,291.686,281.624,255.626,284.781,283.484,260.581,0.310611,0.303947,237.137,256.45
2016-08-21 16:00,0.0815582,292.889,285.658,257.798,287.543,285.065,260.461,0.0977397,0.0785377,237.137,255.639
2016-08-21 17:00,0.0411126,292.771,287.869,258.913,289.434,286.907,261.898,0.0673741,0.0441834,237.006,255.457
2016-08-21 18:00,0.167022,296.008,285.994,258.022,288.358,286.06,261.54,0.164349,0.144313,236.609,254.722
2016-08-21 19:00,0.344094,291.563,273.333,250.806,272.104,269.984,249.705,0.332512,0.324728,230.916,246.483
2016-08-21 20:00,0.707155,295.583,272.527,249.924,271.945,267.506,248.229,0.630498,0.643605,229.433,244.881
2016-08-21 21:00,1.36922,281.883,238.338,232.663,234.895,231.459,223.77,1.11949,1.31372,218.137,225.604
2016-08-21 22:00,84.7549,278.883,261.501,244.07,259.791,255.803,238.428,21.81,61.2378,227.238,240.576
2016-08-21 23:00,-0.7005,289.113,287.978,257.91,290.367,288.445,262.017,-0.271269,-0.476947,236.94,255.366
2016-08-22 00:00,-0.317972,290.429,288.087,258.134,289.968,287.748,261.779,-0.112979,-0.189167,236.94,255.275
2016-08-22 01:00,-0.00203517,288.705,287.102,257.346,288.897,287.048,261.66,0.0,0.0,236.94,255.457
2016-08-22 02:00,0.0,280.239,278.474,253.381,280.054,278.911,257.282,0.0,0.00170497,237.849,255.183
2016-08-22 03:00,0.0,287.444,285.546,256.549,287.407,285.635,260.701,0.0,0.0,237.137,254.814
2016-08-22 04:00,0.0,279.081,276.845,252.045,278.725,276.784,256.535,0.0,0.0,237.006,254.443
2016-08-22 05:00,0.0,239.711,237.841,231.799,240.631,238.282,230.931,0.0,0.0,230.348,237.185
2016-08-22 06:00,0.0,253.81,253.963,240.021,254.854,254.281,244.09,0.0,0.0,233.75,246.032
2016-08-22 07:00,0.0,264.739,262.458,244.903,264.444,263.412,249.838,0.0,0.0,233.234,248.775
2016-08-22 08:00,0.0,284.73,278.845,253.741,281.221,277.091,254.137,0.0,0.0,231.865,248.562
2016-08-22 09:00,-0.227253,277.026,267.033,247.2,267.016,262.185,246.044,-0.174923,-0.27114,229.852,245.23
2016-08-22 10:00,0.260978,290.041,285.994,257.685,287.543,284.205,259.37,0.400134,0.313319,232.86,251.751
2016-08-22 11:00,0.103934,290.558,284.982,257.006,286.172,282.904,257.777,0.196707,0.141961,229.093,249.093
2016-08-22 12:00,0.109086,286.421,275.046,251.676,0.0,270.635,249.037,0.177884,0.146838,228.921,245.345
2016-08-22 13:00,0.0662463,287.444,279.945,253.501,280.054,277.243,254.9,0.122865,0.0923575,230.348,248.241
2016-08-22 14:00,0.059899,289.647,282.566,255.16,283.656,280.406,256.285,0.10028,0.0769639,231.394,250.442
2016-08-22 15:00,0.0860897,290.685,283.148,255.626,284.079,281.293,257.406,0.109338,0.0907471,231.552,250.646
2016-08-22 16:00,0.0879254,292.174,285.546,257.233,286.997,284.349,258.882,0.109542,0.0913021,233.308,252.537
2016-08-22 17:00,0.123523,293.24,282.916,255.858,284.22,281.146,257.034,0.138324,0.123363,232.557,250.849
2016-08-22 18:00,0.224696,293.702,283.611,255.858,285.34,283.194,258.76,0.240046,0.235978,233.308,252.047
2016-08-22 19:00,0.300244,299.203,285.994,256.892,287.543,285.208,260.098,0.279637,0.26333,232.709,251.751
2016-08-22 20:00,0.679041,304.078,285.77,256.892,287.407,284.779,259.856,0.533876,0.538633,232.405,251.652
2016-08-22 21:00,1.29256,302.256,285.546,256.778,287.27,284.779,259.492,0.856686,1.01612,232.328,251.652
2016-08-22 22:00,-0.591445,288.012,283.726,255.277,285.061,282.613,258.023,-1.50233,-1.7913,230.916,250.34
2016-08-22 23:00,-0.52322,286.421,280.308,253.381,280.493,277.548,254.137,-0.230546,-0.441982,229.007,246.818
2016-08-23 00:00,-0.284062,288.568,285.095,256.205,286.585,284.205,258.882,-0.109542,-0.190239,231.709,250.748
2016-08-23 01:00,-0.00202118,287.01,283.726,255.393,285.061,282.613,257.9,0.0,0.0,231.156,249.303
2016-08-23 02:00,0.0,282.753,278.968,253.02,280.201,278.004,255.153,0.0,0.0,230.511,248.562
2016-08-23 03:00,0.00153627,277.451,265.394,245.177,264.618,260.942,242.241,0.0,0.0,225.546,239.789
2016-08-23 04:00,0.0,281.346,271.162,248.771,270.495,266.16,245.489,0.0,0.0,226.311,242.848
2016-08-23 05:00,0.0,265.446,248.985,237.101,244.349,241.027,230.44,0.0,0.0,220.801,230.524
2016-08-23 06:00,0.0,277.661,268.487,246.934,266.508,263.237,244.372,0.0,0.0,226.122,241.98
2016-08-23 07:00,0.00253831,286.864,281.505,254.099,282.517,279.211,255.153,0.0,0.0,230.674,249.513
2016-08-23 08:00,0.0,285.045,278.226,252.534,278.427,274.773,251.159,0.0,0.0,229.769,247.261
2016-08-23 09:00,-0.0402182,289.247,286.55,257.006,288.628,286.343,260.098,-0.0851317,-0.121808,230.996,251.552
2016-08-23 10:00,0.447554,288.705,283.495,255.277,285.201,283.194,259.005,0.547362,0.502036,231.552,250.95
2016-08-23 11:00,0.10724,290.939,286.882,256.892,288.763,286.626,260.461,0.223108,0.167037,231.865,252.047
2016-08-23 12:00,0.0788785,291.809,287.102,256.892,289.166,287.048,261.182,0.160972,0.12047,232.097,252.146
2016-08-23 13:00,0.072615,292.053,286.882,256.778,288.763,287.048,261.182,0.130985,0.098808,232.405,252.244
2016-08-23 14:00,0.0572189,291.563,286.772,256.778,288.628,286.907,260.942,0.102662,0.0783965,231.156,251.751
2016-08-23 15:00,0.169791,290.813,283.495,255.043,285.618,283.917,259.127,0.223153,0.212349,230.511,250.544
2016-08-23 16:00,0.0867657,290.939,283.032,255.16,284.361,281.735,257.034,0.119246,0.10029,229.685,249.093
2016-08-23 17:00,0.102431,292.534,284.982,255.742,286.722,284.349,258.882,0.125023,0.108782,229.348,249.721
2016-08-23 18:00,0.14359,294.38,285.433,256.205,287.27,284.922,259.249,0.16253,0.151067,228.575,248.987
2016-08-23 19:00,0.303195,298.63,286.55,256.778,288.358,286.343,260.461,0.28701,0.271872,229.935,251.352
2016-08-23 20:00,0.620861,301.913,286.328,256.778,288.358,285.919,260.219,0.502727,0.517312,230.674,250.032
2016-08-23 21:00,1.41825,303.346,286.439,256.664,288.358,286.06,260.461,0.905173,1.05216,231.394,250.442
2016-08-23 22:00,-0.431562,289.247,286.217,256.664,288.087,285.777,259.735,-0.548105,-0.653532,232.328,250.748
2016-08-23 23:00,-0.587946,289.113,286.217,256.778,288.222,285.493,259.127,-0.248907,-0.471674,232.405,250.748
2016-08-24 00:00,-0.317623,286.569,284.755,255.858,286.997,285.065,259.977,-0.115593,-0.194083,233.677,251.652
2016-08-24 01:00,-0.00200725,288.012,285.77,255.858,287.815,285.493,260.219,0.0,0.0,237.398,254.162
2016-08-24 02:00,0.0,288.568,285.994,255.974,287.679,285.208,259.735,0.0,0.0,237.072,254.349
2016-08-24 03:00,-0.00152857,287.155,284.982,255.858,286.722,284.349,259.127,0.0,0.0,237.398,254.814
2016-08-24 04:00,0.0,289.779,287.651,257.233,290.101,287.329,260.098,0.0,0.0,236.874,254.722
2016-08-24 05:00,-0.00162127,289.381,287.102,256.892,289.3,286.485,259.492,0.0,0.0,234.968,253.785
2016-08-24 06:00,0.00189877,289.647,287.541,257.572,289.835,286.626,259.614,0.0,0.0,234.185,253.5
2016-08-24 07:00,-0.00252515,290.171,289.165,257.91,291.948,289.689,261.779,0.0,0.0,234.041,255.275
2016-08-24 08:00,-0.00855466,290.041,288.843,257.572,291.423,288.999,261.66,0.0,0.0,235.936,256.36
2016-08-24 09:00,-0.019591,290.041,288.412,257.346,291.029,288.306,261.779,-0.0663508,-0.0988916,239.774,256.982
2016-08-24 10:00,0.178875,290.939,288.087,257.006,290.367,287.748,261.421,0.32108,0.223925,237.913,0.0
2016-08-24 11:00,0.135129,291.065,287.432,256.549,289.568,287.188,261.301,0.228827,0.170526,236.207,256.181
2016-08-24 12:00,0.00809989,290.301,288.412,256.892,290.897,288.306,261.062,0.0822979,0.0388423,235.867,255.911
2016-08-24 13:00,0.0315983,291.19,287.869,255.974,290.234,287.469,260.822,0.0802626,0.0494455,236.675,256.716
2016-08-24 14:00,0.126797,287.01,281.86,252.412,284.22,282.028,259.127,0.187012,0.170679,236.94,255.457
2016-08-24 15:00,0.0202916,290.813,287.651,255.742,289.701,287.048,260.942,0.0515426,0.029448,237.072,256.271
2016-08-24 16:00,0.0302143,290.171,286.661,254.926,288.628,285.777,260.461,0.0575605,0.0393999,237.785,255.548
2016-08-24 17:00,0.0213188,291.315,287.76,256.089,289.835,287.048,260.581,0.0485109,0.0295936,237.657,255.639
2016-08-24 18:00,0.12878,292.053,286.328,255.16,288.493,286.06,260.822,0.15137,0.136129,239.349,256.628
2016-08-24 19:00,0.105846,293.93,286.992,254.69,288.763,286.06,260.701,0.140831,0.112582,238.857,256.271
2016-08-24 20:00,0.316489,297.549,287.651,254.69,289.701,287.048,260.942,0.314173,0.280953,237.977,255.911
2016-08-24 21:00,0.752189,295.26,286.772,254.099,288.897,286.343,260.461,0.636877,0.643822,236.004,255.091
2016-08-24 22:00,-0.393394,290.429,287.651,254.69,289.835,286.767,260.219,-0.333086,-0.52954,233.53,252.925
2016-08-24 23:00,-0.712337,290.301,287.322,254.099,289.434,0.0,259.977,-0.275344,-0.484642,232.097,251.452
2016-08-25 00:00,-0.300844,287.587,283.726,252.412,285.618,282.467,257.777,-0.109835,-0.186691,229.935,248.241
2016-08-25 01:00,0.0,289.91,286.992,254.217,289.032,285.919,259.492,0.0,0.0,230.101,248.669
2016-08-25 02:00,0.0,288.841,285.994,253.86,287.679,284.492,259.005,0.0,0.0,230.266,248.669
2016-08-25 03:00,0.0,285.357,279.702,250.555,280.639,276.784,253.753,0.0,0.0,229.093,246.371
2016-08-25 04:00,-0.00150745,287.444,284.755,253.14,286.86,284.061,258.76,0.0,0.0,229.433,249.093
2016-08-25 05:00,0.0,289.647,286.882,254.454,289.032,285.635,259.614,0.0,0.0,231.156,249.617
2016-08-25 06:00,0.00189009,289.647,286.882,254.454,289.166,286.06,259.492,0.0,0.0,230.348,249.513
2016-08-25 07:00,0.0,284.41,283.148,252.045,284.921,282.758,259.005,0.0,0.0,231.943,250.032
2016-08-25 08:00,0.0,287.871,284.528,253.14,286.997,283.194,257.653,0.0,-0.00428773,233.677,250.849
2016-08-25 09:00,-0.0382049,257.103,250.954,236.306,252.059,249.955,240.354,-0.0808701,-0.134995,232.481,241.093
2016-08-25 10:00,0.504447,280.982,275.176,248.382,275.396,273.832,253.753,0.719993,0.720252,234.185,248.241
2016-08-25 11:00,0.033861,290.171,287.651,254.217,289.835,286.626,259.977,0.145957,0.0901234,235.317,253.021
2016-08-25 12:00,0.0162196,290.301,287.978,254.572,290.632,287.888,260.822,0.0875485,0.0470771,236.475,253.69
2016-08-25 13:00,0.0395319,291.686,287.978,254.336,290.632,287.888,261.062,0.0856874,0.0542774,237.528,254.629
2016-08-25 14:00,0.0341126,291.563,287.978,254.69,290.764,288.306,261.182,0.0670087,0.0440815,238.546,256.001
2016-08-25 15:00,0.134556,289.113,285.433,253.02,287.951,286.343,261.182,0.171968,0.155066,237.721,255.548
2016-08-25 16:00,0.0100836,290.939,288.52,254.69,290.764,288.306,261.54,0.0416217,0.022905,237.137,255.821
2016-08-25 17:00,0.0613945,290.939,287.212,254.099,289.701,287.188,260.581,0.0949248,0.0794979,235.731,255.091
2016-08-25 18:00,0.0334128,291.809,288.303,254.69,290.5,287.748,261.421,0.0655827,0.0444652,235.525,255.183
2016-08-25 19:00,0.127116,293.007,286.661,254.217,289.3,286.343,259.977,0.184735,0.170469,235.038,254.629
2016-08-25 21:00,1.45518,300.408,280.187,251.429,281.221,276.477,252.723,1.0447,1.17862,230.511,249.928
2016-08-25 22:00,-0.187541,232.213,223.94,225.701,223.758,222.753,222.147,-0.238186,-0.284001,219.137,221.436
2016-08-25 23:00,-0.639579,218.393,216.88,222.238,215.993,215.356,215.474,-0.262169,-0.476583,214.441,216.131
2016-08-26 00:00,-0.284351,237.078,225.611,226.481,224.384,222.753,222.329,-0.10649,-0.182179,219.624,222.956
2016-08-26 01:00,-0.00197964,225.382,220.75,224.102,220.519,219.472,218.792,0.0,0.0,217.491,219.608
2016-08-26 02:00,-0.00165077,222.276,222.198,225.107,221.838,221.283,220.302,0.0,0.0,218.891,220.989
2016-08-26 03:00,0.0,222.276,223.597,224.908,223.125,222.462,221.23,0.0,0.0,219.26,221.213
2016-08-26 04:00,0.0,244.063,239.317,232.146,238.938,236.872,230.931,0.0,0.0,224.56,233.146
2016-08-26 05:00,0.00160684,260.395,252.29,238.81,251.652,249.55,238.727,0.0,0.0,225.643,238.165
2016-08-26 06:00,0.0,264.739,254.328,238.963,254.657,252.144,240.646,0.0,0.0,227.147,237.748
2016-08-26 07:00,0.0,254.966,237.841,230.921,235.155,232.725,226.402,0.0,0.0,221.031,226.379
2016-08-26 08:00,-0.00421754,235.601,227.845,226.481,227.414,225.038,222.692,0.0,0.0,221.93,226.379
2016-08-26 09:00,0.0,227.984,225.937,226.092,226.522,225.597,222.692,-0.0473497,-0.0564573,221.708,225.011
2016-08-26 10:00,0.558883,251.282,230.85,228.192,229.729,228.59,225.535,0.8235,0.952588,222.15,227.323
2016-08-26 11:00,0.5307,264.377,238.83,231.973,238.693,237.581,231.905,0.624377,0.722671,224.86,231.859
2016-08-26 12:00,0.294344,257.605,235.8,230.207,234.895,233.474,227.77,0.427972,0.465205,223.013,229.489
2016-08-26 13:00,0.226323,245.01,229.072,227.438,229.158,228.324,225.709,0.659306,0.730199,223.224,226.948
2016-08-26 14:00,0.391939,278.279,240.514,233.344,242.515,242.143,235.227,0.637114,0.697621,230.266,237.468
2016-08-26 15:00,0.282079,270.434,250.175,237.884,252.465,251.75,241.808,0.404514,0.439991,233.382,243.937
2016-08-26 16:00,0.22969,254.396,237.086,231.274,236.948,236.635,232.066,0.710594,0.782297,226.122,231.198
2016-08-26 17:00,0.323551,260.395,231.997,229.665,232.23,231.459,226.918,0.725628,0.803112,226.499,230.524
2016-08-26 18:00,0.400444,268.686,238.338,232.663,238.938,238.515,232.867,0.653617,0.73015,229.007,234.694
2016-08-26 19:00,0.300931,293.124,260.365,243.65,259.051,255.425,243.241,0.31124,0.340342,230.996,242.478
2016-08-26 20:00,0.680077,269.283,230.265,228.749,230.012,229.121,225.535,0.753716,0.881947,223.952,227.509
2016-08-26 21:00,1.06769,278.075,239.559,233.344,240.392,239.667,234.604,0.923042,1.19136,229.935,235.74
2016-08-26 22:00,-0.145474,259.954,246.102,236.146,243.667,241.027,232.547,-0.123173,-0.146865,226.027,233.617
2016-08-26 23:00,-0.748799,268.073,257.854,242.081,258.116,254.281,240.5,-0.28319,-0.483813,228.835,240.576
2016-08-27 00:00,-0.241056,266.797,258.703,243.226,259.236,256.367,244.09,-0.0986108,-0.180469,234.113,243.698
2016-08-27 01:00,0.0,281.165,275.951,251.676,277.978,276.015,256.285,0.0,0.0,241.304,255.639
2016-08-27 02:00,0.0,288.012,282.916,255.51,284.079,281.146,258.392,0.0,0.0,242.6,257.246
2016-08-27 03:00,0.0,289.381,285.882,257.346,287.134,283.917,259.492,0.0,0.0,242.042,257.246
2016-08-27 04:00,-0.00149362,289.381,286.439,257.459,287.951,284.922,260.581,0.0,0.0,242.82,257.595
2016-08-27 05:00,0.0,287.587,285.77,257.12,287.543,285.065,260.942,0.0,0.0,242.984,258.114
2016-08-27 06:00,-0.00187304,286.421,285.546,257.233,287.815,285.35,261.182,0.0,0.0,242.322,258.114
2016-08-27 07:00,0.0,289.113,287.322,258.134,289.032,286.485,261.301,0.0,0.0,242.82,258.798
2016-08-27 08:00,-0.00418857,285.202,284.528,256.549,286.172,284.636,261.301,0.0,0.0,241.986,258.713
2016-08-27 09:00,-0.0364083,284.249,284.3,256.434,286.585,285.065,261.66,-0.0770672,-0.0735128,241.874,259.051
2016-08-27 10:00,0.409389,289.381,286.439,257.572,288.493,286.626,261.66,0.513754,0.472346,242.6,259.721
2016-08-27 11:00,0.247415,291.315,286.328,257.346,288.628,286.626,261.779,0.306373,0.256025,242.433,259.887
2016-08-27 12:00,0.01626,291.065,288.951,258.913,290.897,288.584,262.492,0.0860459,0.0471945,242.099,259.887
2016-08-27 13:00,0.0300983,291.19,289.058,258.802,291.16,288.999,263.083,0.0858415,0.0559743,241.419,259.721
2016-08-27 14:00,0.207758,291.563,287.541,258.134,290.367,288.722,262.965,0.241874,0.237342,241.533,259.721
2016-08-27 15:00,0.124647,290.939,287.978,257.798,290.632,289.137,263.2,0.147538,0.139963,241.189,259.887
2016-08-27 16:00,0.0189553,291.315,289.272,259.024,291.555,289.413,263.2,0.0449383,0.0267911,240.782,259.554
2016-08-27 17:00,0.0348244,292.174,289.486,259.464,291.948,289.689,263.436,0.0612396,0.0419183,241.246,259.22
2016-08-27 18:00,0.0259517,292.294,289.593,259.683,291.817,289.413,262.847,0.0581646,0.0354468,240.782,258.372
2016-08-27 19:00,0.0764899,293.93,289.272,259.793,291.686,289.137,263.553,0.111718,0.0849433,240.899,258.457
2016-08-27 20:00,0.244956,297.045,289.272,259.683,291.686,288.999,262.492,0.261611,0.224816,240.312,257.333
2016-08-27 21:00,0.77658,297.649,289.593,259.793,291.948,289.413,262.965,0.63819,0.622592,240.134,257.333
2016-08-27 22:00,-0.118512,290.558,289.272,259.902,292.079,289.551,262.847,-0.100344,-0.119645,240.253,256.805
2016-08-27 23:00,-0.736467,290.558,289.165,259.793,291.817,289.413,262.373,-0.282683,-0.470888,240.134,256.539
2016-08-28 00:00,-0.241478,289.91,288.951,259.793,291.817,289.413,262.373,-0.0976859,-0.181485,239.41,256.36
2016-08-28 01:00,-0.0019524,290.429,289.486,260.011,292.079,289.964,263.083,0.0,0.0,239.834,256.45
2016-08-28 02:00,-0.00163209,290.558,289.911,260.228,292.73,290.511,263.2,0.0,0.0,239.288,256.36
2016-08-28 03:00,-0.00149831,290.301,289.379,259.902,292.34,290.101,262.965,0.0,0.0,239.714,256.539
2016-08-28 04:00,-0.00148681,288.568,288.195,259.354,291.029,288.861,262.492,0.0,0.0,240.074,256.36
2016-08-28 05:00,0.00159272,290.301,289.379,260.011,292.079,289.689,262.965,0.0,0.0,240.371,256.36
2016-08-28 06:00,0.0,289.381,288.843,259.574,291.292,289.413,262.492,0.0,0.0,240.074,256.45
2016-08-28 07:00,0.0,288.012,287.651,259.024,290.367,288.306,262.255,0.0,0.0,240.724,257.07
2016-08-28 08:00,0.0,290.301,288.52,259.683,291.16,288.584,262.255,0.0,0.0,240.899,256.805
2016-08-28 09:00,-0.0177903,290.558,289.379,260.228,291.817,289.276,262.965,-0.045189,-0.0538811,240.724,256.982
2016-08-28 10:00,0.0883599,290.813,289.272,259.902,291.555,288.999,262.847,0.286788,0.178409,241.073,257.595
2016-08-28 11:00,0.0929988,292.294,289.165,259.902,291.686,289.551,262.847,0.188981,0.128313,241.015,257.246
2016-08-28 12:00,0.0345966,291.563,289.486,260.228,292.079,289.413,262.61,0.10511,0.0595819,240.607,257.158
2016-08-28 13:00,0.0206129,291.563,289.379,260.445,291.948,289.413,262.61,0.0724968,0.0416199,239.714,256.716
2016-08-28 14:00,0.00820836,291.19,289.379,260.228,291.948,289.137,262.847,0.052125,0.0276228,238.294,255.73
2016-08-28 15:00,0.00891266,291.065,289.272,260.337,291.817,289.137,262.255,0.0442,0.0231374,238.104,255.548
2016-08-28 16:00,0.0101232,291.19,288.736,259.902,291.029,288.027,262.136,0.0417851,0.022995,237.849,254.907
2016-08-28 17:00,0.013419,291.065,288.52,259.683,290.632,287.609,261.062,0.0443112,0.0270946,237.785,254.256
2016-08-28 18:00,0.0260215,291.563,288.736,260.011,290.897,288.167,262.017,0.062209,0.0432686,238.041,254.722
2016-08-28 19:00,0.067204,292.414,288.628,260.228,290.897,288.027,261.898,0.115429,0.0852927,238.981,254.999
2016-08-28 20:00,0.218656,294.602,288.195,259.683,290.234,287.469,260.942,0.265836,0.226406,238.671,254.536
2016-08-28 21:00,0.690848,294.602,288.412,259.574,290.5,287.188,261.66,0.624264,0.603678,238.733,254.443
2016-08-28 22:00,-0.548729,290.558,287.869,259.244,290.101,287.048,260.701,-0.126711,-0.251806,238.608,254.536
2016-08-28 23:00,-0.574696,289.113,285.433,257.798,286.86,283.773,258.27,-0.237164,-0.433924,238.546,253.405
2016-08-29 00:00,-0.316296,289.647,287.102,258.802,288.897,286.202,260.461,-0.114775,-0.190518,240.014,255.457
2016-08-29 01:00,0.0,287.155,281.624,256.089,281.799,276.938,253.24,0.0,0.0,236.341,251.949
2016-08-29 02:00,0.0,289.514,286.105,258.134,287.815,284.636,259.005,0.0,0.0,238.795,254.999
2016-08-29 03:00,0.0,288.568,284.528,257.233,285.895,282.758,257.777,0.0,0.0,237.528,253.785
2016-08-29 04:00,0.0,289.381,287.102,258.802,288.897,285.777,259.856,0.0,0.0,239.227,256.001
2016-08-29 05:00,-0.00158578,289.779,287.869,259.244,289.701,286.485,260.581,0.0,0.0,239.774,256.716
2016-08-29 06:00,0.00185642,290.429,288.843,259.683,291.029,288.584,262.255,0.0,0.0,240.724,257.246
2016-08-29 07:00,0.0,290.813,289.272,259.574,291.686,289.551,262.847,0.0,0.00248586,240.782,257.855
2016-08-29 08:00,0.0,290.041,288.843,259.464,291.423,289.413,262.728,0.0,0.0,241.533,257.942
2016-08-29 09:00,-0.0173975,290.301,288.843,259.244,291.423,288.861,262.492,-0.0441912,-0.0526913,241.533,257.769
2016-08-29 10:00,0.28925,291.44,288.52,259.244,290.764,288.584,262.61,0.408179,0.299503,241.073,258.028
2016-08-29 11:00,0.307621,292.889,285.77,257.685,288.358,286.767,261.66,0.334128,0.301151,241.647,258.114
2016-08-29 12:00,0.059094,291.686,286.772,258.246,288.358,285.35,259.492,0.131126,0.0884598,240.134,256.805
2016-08-29 13:00,0.0396785,290.813,286.661,258.358,288.493,285.635,259.735,0.0940681,0.0640926,239.593,256.45
2016-08-29 15:00,0.0280418,290.813,287.102,258.246,288.763,286.06,260.581,0.0636742,0.0424648,240.665,257.333
2016-08-29 16:00,0.0316796,291.065,287.212,258.358,288.897,286.485,260.34,0.0622296,0.0434962,241.073,257.682
2016-08-29 17:00,0.0605021,291.44,286.105,257.91,287.679,284.922,259.249,0.0887935,0.0705819,240.074,256.894
2016-08-29 18:00,0.136607,291.686,282.799,255.626,283.797,280.85,256.909,0.159852,0.145661,239.104,255.366
2016-08-29 19:00,0.223675,294.602,285.546,257.12,287.134,284.779,259.856,0.239997,0.225813,239.954,256.805
2016-08-29 20:00,0.530846,296.943,286.105,257.572,288.087,286.202,260.581,0.494891,0.496011,240.665,257.855
2016-08-29 21:00,1.36419,297.848,285.77,257.12,287.679,285.635,260.098,0.955047,1.09105,240.371,257.07
2016-08-29 22:00,-0.34397,287.729,283.611,255.974,284.781,282.175,257.034,-0.0728098,-0.173629,238.483,254.629
2016-08-29 23:00,-0.574845,284.73,276.463,252.045,276.468,272.724,250.236,-0.241349,-0.446047,235.178,250.032
2016-08-30 00:00,-0.218546,283.093,273.333,249.924,273.057,269.165,247.687,-0.0869478,-0.162154,233.75,248.348
2016-08-30 01:00,-0.00192559,284.73,278.598,253.02,279.17,276.169,252.723,0.0,0.0,236.341,252.047
2016-08-30 02:00,0.0,286.864,282.916,255.626,284.361,281.882,257.282,0.0,0.0,237.913,255.091
2016-08-30 03:00,0.0,283.428,275.823,251.676,276.01,272.724,249.971,0.0,0.0,234.543,250.032
2016-08-30 04:00,0.0,283.76,276.591,251.676,277.075,273.832,251.683,0.0,0.0,235.247,251.051
2016-08-30 05:00,-0.00157891,288.152,284.982,256.778,286.585,284.492,260.219,0.0,0.0,238.231,256.36
2016-08-30 06:00,0.0,289.779,288.951,259.244,291.555,289.826,263.318,0.0,0.0,240.548,259.304
2016-08-30 07:00,0.0,287.3,286.661,257.798,289.568,287.748,262.492,0.0,0.0,240.371,259.051
2016-08-30 08:00,0.0,284.57,285.433,257.572,288.493,287.329,261.779,0.0,0.0,240.665,259.304
2016-08-30 09:00,-0.0340481,289.113,288.736,258.913,291.029,289.137,262.847,-0.0576569,-0.0687472,240.841,259.638
2016-08-30 10:00,0.119529,291.19,289.699,259.574,292.079,289.964,263.318,0.303616,0.196092,241.361,260.299
2016-08-30 11:00,0.0716373,291.809,289.699,259.683,291.817,289.689,263.2,0.181966,0.1132,241.704,259.97
2016-08-30 12:00,0.0244849,290.939,289.699,259.574,291.555,289.826,263.083,0.105384,0.0638572,242.266,260.463
2016-08-30 13:00,0.0270083,291.686,289.058,259.134,291.292,289.413,262.965,0.0793649,0.0465134,242.378,260.545
2016-08-30 14:00,0.220679,294.713,284.528,257.459,287.543,286.626,262.136,0.21238,0.211718,241.361,259.97
2016-08-30 15:00,0.0548712,292.771,287.212,258.58,289.434,287.609,261.779,0.0756315,0.056684,240.134,259.135
2016-08-30 17:00,0.0202076,291.315,289.058,259.464,290.897,288.722,262.255,0.0513292,0.0326412,239.104,259.051
2016-08-30 18:00,0.0400215,292.294,289.165,259.354,291.16,288.999,262.492,0.0729856,0.0512822,238.795,258.798
2016-08-30 19:00,0.0968299,293.816,288.951,259.574,291.16,289.276,262.017,0.131177,0.107531,237.785,258.286
2016-08-30 20:00,0.27878,296.114,288.843,259.134,290.764,288.445,261.898,0.293849,0.264214,237.072,257.769
2016-08-30 21:00,0.805451,296.635,289.593,259.683,291.817,289.413,262.017,0.656527,0.679649,236.408,257.508
2016-08-30 22:00,-0.11317,290.558,289.058,259.464,291.423,289.137,262.017,-0.0638804,-0.114252,235.386,256.181
2016-08-30 23:00,-0.677727,290.813,289.379,259.793,292.079,289.689,262.373,-0.261192,-0.452992,233.603,255.366
2016-08-31 00:00,-0.0547787,290.813,289.486,259.574,292.209,289.689,263.083,-0.017669,-0.0395017,232.784,254.162
2016-08-31 01:00,-0.00191235,290.813,289.379,259.902,291.948,289.413,262.728,0.0,0.0,232.097,253.309
2016-08-31 02:00,0.0,290.558,288.628,259.134,291.029,288.306,261.66,0.0,0.0,232.175,251.85
2016-08-31 03:00,0.00147626,290.429,288.412,259.134,290.764,288.167,261.301,0.0,0.0,231.156,251.252
2016-08-31 04:00,0.0,290.041,288.195,259.244,290.764,287.609,261.301,0.0,0.0,231.236,251.452
2016-08-31 05:00,0.0,285.665,284.755,257.346,287.407,285.208,260.822,0.0,0.0,231.156,251.051
2016-08-31 06:00,0.0,284.087,280.066,255.16,280.493,276.477,253.625,0.0,0.0,229.093,247.481
2016-08-31 07:00,0.0,289.247,285.546,257.91,287.134,283.484,258.638,0.0,0.00246187,230.43,249.721
2016-08-31 08:00,0.0,290.301,287.869,259.354,289.968,286.907,260.701,0.0,0.0,231.315,250.95
2016-08-31 09:00,0.0,290.429,287.869,259.244,289.835,286.907,261.182,-0.0423398,-0.0336559,230.996,250.849
2016-08-31 10:00,0.0451506,290.813,288.195,259.574,290.101,287.048,260.822,0.25486,0.151941,230.593,250.238
2016-08-31 11:00,0.0437097,290.041,285.321,257.91,286.997,283.049,257.406,0.153323,0.100863,229.263,248.025
2016-08-31 12:00,0.171624,272.58,252.29,240.021,249.998,246.246,234.134,0.271598,0.280523,222.799,234.845
2016-08-31 13:00,0.13518,268.986,253.779,240.32,252.059,249.55,238.278,0.251805,0.247256,226.027,236.469
2016-08-31 14:00,0.112509,263.636,254.69,240.617,253.669,252.341,242.097,0.30321,0.315821,227.78,238.714
2016-08-31 15:00,0.183971,282.059,256.644,242.081,255.827,252.341,240.793,0.216345,0.216685,227.51,240.185
2016-08-31 16:00,0.242754,280.05,242.142,235.01,240.87,238.049,231.094,0.320684,0.349006,223.642,232.669
2016-08-31 17:00,0.148494,291.931,268.199,248.512,266.508,259.502,242.956,0.163449,0.156728,226.499,240.835
2016-08-31 18:00,0.137398,292.294,276.208,253.14,275.857,269.821,249.438,0.139864,0.129361,226.963,242.354
2016-08-31 19:00,0.159508,290.939,278.845,253.98,278.873,275.085,252.335,0.191054,0.170852,230.511,247.699
2016-08-31 20:00,0.232182,293.93,285.095,257.346,286.447,282.613,258.638,0.257263,0.219932,232.481,251.152
2016-08-31 21:00,0.416263,291.686,283.032,255.742,284.079,280.406,256.16,0.414646,0.407882,230.996,249.928
2016-08-31 22:00,-0.134238,289.247,284.414,256.549,285.479,281.882,257.406,-0.0284148,-0.0677606,230.593,250.34
2016-08-31 23:00,-0.694443,289.91,285.546,257.798,286.86,283.484,258.392,-0.264787,-0.441078,229.685,250.646
