# timestamp,IR_016,IR_039,IR_087,IR_097,IR_108,IR_120,IR_134,VIS006,VIS008,WV_062,WV_073
2013-12-01 00:00,-0.0,225.382,216.88,224.708,214.517,211.983,212.202,-0.0,-0.0,212.765,215.6
2013-12-01 01:00,0.00192529,233.989,224.95,228.378,222.806,219.472,216.466,-0.0,-0.0,217.36,222.313
2013-12-01 02:00,-0.0,218.393,196.665,216.392,195.943,196.831,199.751,-0.0,-0.0,197.532,197.598
2013-12-01 03:00,-0.0,204.719,200.774,218.041,199.715,198.656,203.228,-0.0,-0.0,201.207,201.402
2013-12-01 04:00,-0.0,218.393,206.1,219.183,205.043,204.159,206.97,-0.0,-0.0,204.122,205.109
2013-12-01 05:00,-0.0,225.382,218.082,224.305,217.78,215.683,216.269,-0.0,-0.0,215.452,217.164
2013-12-01 06:00,-0.0,238.442,231.14,230.565,230.294,228.856,225.535,-0.0,-0.0,220.101,226.76
2013-12-01 07:00,-0.00286398,268.986,257.683,243.79,255.633,252.732,242.527,-0.0,-0.0,224.661,236.469
2013-12-01 08:00,-0.0,243.066,240.75,235.173,240.392,239.208,234.134,-0.0,-0.0,226.216,235.146
2013-12-01 09:00,2.34229,254.396,243.496,236.625,243.438,241.921,235.691,2.23639,3.11937,225.156,234.996
2013-12-01 10:00,0.560686,266.466,243.496,236.466,244.349,243.679,236.613,0.563503,0.6903,227.329,237.185
2013-12-01 11:00,0.319122,290.041,275.436,255.043,275.396,271.765,252.982,0.210385,0.400871,228.312,244.881
2013-12-01 12:00,0.299776,295.583,287.76,262.049,288.628,283.917,259.005,0.121075,0.354821,229.769,248.241
2013-12-01 13:00,0.539298,289.381,247.769,239.267,249.368,249.144,241.664,0.466062,0.588066,230.511,241.475
2013-12-01 14:00,0.205498,295.902,276.463,255.626,274.312,268.173,249.705,0.126068,0.234793,229.517,244.412
2013-12-01 15:00,0.160624,297.649,289.699,263.099,288.897,284.349,260.098,0.081797,0.190361,230.101,249.093
2013-12-01 16:00,0.250613,272.061,253.04,241.791,254.461,251.354,238.128,0.415463,0.468184,228.835,240.706
2013-12-01 17:00,0.288475,285.202,259.206,244.349,259.421,254.855,237.525,0.366377,0.449512,228.921,243.818
2013-12-01 18:00,0.434232,266.466,208.223,220.736,208.556,207.651,209.638,0.806173,0.905895,208.652,208.711
2013-12-01 19:00,0.588717,272.322,220.75,226.674,220.184,217.607,216.071,0.888905,1.02308,215.734,219.372
2013-12-01 20:00,0.744183,276.155,234.477,233.005,233.041,230.429,226.402,0.797822,0.975605,220.801,227.694
2013-12-01 21:00,0.767313,287.01,267.764,250.429,265.997,262.888,246.594,0.621435,0.802715,226.592,241.475
2013-12-01 22:00,-1.50267,287.155,280.308,258.134,280.639,277.091,255.153,-0.394853,-0.993916,228.224,245.804
2013-12-01 23:00,-0.0,286.864,281.742,259.244,282.66,278.458,256.16,-0.0,-0.0,228.312,246.595
2013-12-02 00:00,-0.0,283.594,275.565,255.51,274.467,268.835,248.094,-0.0,-0.0,227.055,243.214
2013-12-02 01:00,-0.00193231,283.261,275.565,255.858,274.467,268.67,247.823,-0.0,-0.0,228.224,244.175
2013-12-02 02:00,0.00163227,278.075,266.442,250.806,264.444,256.742,239.765,-0.0,-0.0,226.122,239.255
2013-12-02 03:00,-0.0,263.255,253.595,243.509,250.83,245.612,232.707,-0.0,-0.0,224.258,236.469
2013-12-02 04:00,-0.0,261.666,251.147,241.207,249.157,245.399,233.819,-0.0,-0.0,224.959,236.179
2013-12-02 05:00,-0.0,259.954,253.595,242.942,253.469,250.757,239.618,-0.0,-0.0,228.488,242.105
2013-12-02 06:00,-0.0,257.103,252.101,242.369,252.262,249.144,237.676,-0.0,-0.0,226.963,240.576
2013-12-02 07:00,-0.00286429,255.521,246.942,238.81,245.024,240.802,233.185,-0.0,-0.0,222.799,234.694
2013-12-02 08:00,-0.0,222.276,215.64,223.694,214.89,213.356,212.827,-0.0,-0.0,214.879,216.131
2013-12-02 09:00,0.612125,225.382,198.095,216.869,196.503,196.363,199.495,1.20933,1.64794,199.589,198.106
2013-12-02 10:00,0.429666,252.585,209.734,220.954,209.394,207.651,209.201,0.797258,0.899849,208.838,210.353
2013-12-02 11:00,0.353784,250.598,217.685,224.507,216.355,215.027,215.474,0.760233,0.84242,215.452,216.909
2013-12-02 12:00,0.275942,249.89,223.597,226.866,222.806,221.283,220.675,0.572418,0.661628,219.014,221.436
2013-12-02 13:00,0.216139,253.81,233.116,231.45,232.23,230.946,227.94,0.371912,0.471605,222.585,228.242
2013-12-02 14:00,0.188329,259.505,244.815,236.943,243.667,241.921,234.76,0.299114,0.412568,226.405,236.179
2013-12-02 15:00,0.282828,289.514,252.853,242.081,250.207,244.973,233.819,0.231586,0.344283,224.86,236.179
2013-12-02 16:00,0.259873,281.883,250.954,240.617,248.307,241.251,230.276,0.282477,0.386446,220.337,231.695
2013-12-02 17:00,0.309523,259.954,217.285,224.708,215.628,214.364,213.653,0.60054,0.68822,212.765,215.061
2013-12-02 18:00,0.365872,267.444,220.379,226.092,217.78,215.356,214.062,0.475651,0.574413,212.607,216.131
2013-12-02 19:00,0.323618,268.382,230.559,231.098,227.118,225.597,221.965,0.426404,0.513929,218.391,223.377
2013-12-02 20:00,0.658275,273.586,224.616,227.438,220.852,219.777,219.362,0.710804,0.860979,214.441,217.918
2013-12-02 21:00,0.891486,270.713,222.904,227.058,220.852,220.384,219.927,0.824711,1.01668,217.881,220.075
2013-12-02 22:00,-0.057811,245.01,236.832,234.017,236.186,234.461,230.44,-0.146845,-0.116727,222.799,229.838
2013-12-02 23:00,-0.00480146,279.278,270.746,252.045,270.169,267.171,250.104,-0.0,-0.0,228.4,245.345
2013-12-03 00:00,-0.0,284.41,280.066,257.798,280.785,278.004,255.909,-0.0,-0.0,228.921,249.928
2013-12-03 01:00,-0.0,287.729,286.217,261.519,287.815,285.065,260.098,-0.0,-0.0,230.018,254.349
2013-12-03 02:00,-0.0,285.818,282.331,259.244,283.23,279.511,256.285,-0.0,-0.0,229.601,253.309
2013-12-03 03:00,-0.0,284.73,280.789,258.913,281.221,277.548,254.773,-0.0,-0.0,227.329,251.949
2013-12-03 04:00,-0.0,278.684,268.773,251.552,265.654,260.405,242.814,-0.0,-0.0,224.258,244.056
2013-12-03 05:00,-0.0,273.088,257.683,245.177,254.461,249.348,234.76,-0.0,-0.0,222.04,237.327
2013-12-03 06:00,-0.0,277.661,267.033,250.051,265.654,261.654,243.383,-0.0,-0.0,223.642,241.728
2013-12-03 07:00,-0.00286405,273.586,261.34,246.801,259.791,254.664,239.618,-0.0,-0.0,221.596,238.027
2013-12-03 08:00,-0.0,277.24,266.442,249.286,265.654,261.477,242.956,-0.0,-0.0,223.013,240.835
2013-12-03 09:00,0.786116,274.551,262.141,246.265,261.431,257.856,241.664,0.798724,1.11108,223.642,238.986
2013-12-03 10:00,0.298,280.982,272.391,252.412,272.264,269.494,250.104,0.271725,0.439702,226.778,245.46
2013-12-03 11:00,0.307947,292.534,286.992,261.838,288.222,284.779,259.977,0.148993,0.389848,230.996,254.443
2013-12-03 12:00,0.281427,296.84,291.279,264.031,291.948,288.584,261.898,0.10964,0.334666,232.175,255.821
2013-12-03 13:00,0.248383,298.63,291.07,264.133,291.686,287.748,261.301,0.0945193,0.290202,233.603,255.73
2013-12-03 14:00,0.222869,299.297,289.911,263.411,290.234,285.35,259.37,0.0854897,0.251104,236.274,256.45
2013-12-03 15:00,0.19786,301.39,294.044,266.159,294.533,291.057,263.905,0.0798219,0.220901,241.015,260.381
2013-12-03 16:00,0.173178,298.339,290.651,263.825,290.897,287.188,261.898,0.091148,0.206729,241.246,259.22
2013-12-03 17:00,0.186552,298.242,288.736,262.995,289.3,284.205,259.127,0.104949,0.232575,242.099,259.471
2013-12-03 18:00,0.248817,297.449,278.101,257.572,275.242,263.759,241.953,0.199713,0.322343,237.785,251.85
2013-12-03 19:00,0.411668,289.779,255.409,244.488,251.242,244.112,232.867,0.446831,0.554749,228.4,240.185
2013-12-03 20:00,0.570469,279.081,196.665,217.809,194.798,193.456,200.006,0.732386,0.819685,196.585,196.551
2013-12-03 21:00,1.23648,281.346,196.665,216.631,194.798,194.446,198.458,1.18067,1.39127,200.413,197.598
2013-12-03 22:00,-0.065333,213.142,207.704,221.17,204.584,201.694,204.185,-0.110635,-0.131915,206.498,206.968
2013-12-03 23:00,-0.0,213.142,210.224,221.6,208.556,205.74,207.423,-0.0,-0.0,208.464,210.032
2013-12-04 00:00,-0.0,232.213,220.006,225.897,215.628,211.635,211.992,-0.0,-0.0,212.126,216.131
2013-12-04 01:00,-0.0,245.913,235.8,233.681,231.683,226.426,221.23,-0.0,-0.0,218.767,227.877
2013-12-04 02:00,-0.0,260.827,239.559,235.662,235.155,228.324,219.362,-0.0,-0.0,213.388,223.167
2013-12-04 03:00,-0.0,259.954,240.039,235.985,236.186,228.056,218.792,-0.0,-0.0,215.31,224.61
2013-12-04 04:00,0.00153344,213.142,207.704,221.17,205.497,203.351,205.593,-0.0,-0.0,206.702,206.606
2013-12-04 05:00,-0.00167688,204.719,208.734,220.517,208.556,206.895,209.201,-0.0,-0.0,208.084,209.047
2013-12-04 06:00,-0.0,230.231,221.481,226.092,221.511,220.984,219.362,-0.0,-0.0,218.009,219.843
2013-12-04 07:00,-0.0,258.096,250.566,240.766,250.207,247.085,236.613,-0.0,-0.0,227.147,238.441
2013-12-04 08:00,-0.0,278.279,271.437,252.534,271.464,267.506,248.229,-0.0,-0.0,226.871,243.818
2013-12-04 09:00,0.594646,235.601,227.845,228.564,227.414,226.701,224.304,0.869658,1.09151,222.476,225.408
2013-12-04 10:00,0.390959,252.585,237.086,232.491,236.441,235.193,229.615,0.607528,0.715098,224.661,231.364
2013-12-04 11:00,0.293814,263.255,240.75,234.845,239.183,236.157,229.781,0.416693,0.533921,222.799,230.863
2013-12-04 12:00,0.236813,265.095,243.496,236.784,241.815,238.747,230.44,0.330767,0.446742,223.642,233.146
2013-12-04 13:00,0.222032,288.977,273.732,253.381,272.741,268.173,0.0,0.131241,0.301693,226.405,241.602
2013-12-04 14:00,0.218022,289.647,272.796,253.14,271.142,265.65,246.319,0.119937,0.274821,225.546,240.185
2013-12-04 15:00,0.186219,297.045,284.982,260.661,284.361,278.609,254.392,0.0798212,0.225599,228.662,246.483
2013-12-04 16:00,0.177786,299.485,289.379,263.099,288.897,283.339,257.282,0.067343,0.211368,229.348,248.348
2013-12-04 17:00,0.188889,298.436,286.661,261.731,286.31,281.146,256.66,0.0879094,0.224792,228.312,246.707
2013-12-04 18:00,0.15653,297.749,286.328,260.984,286.033,281.146,256.16,0.0997042,0.208769,229.433,248.669
2013-12-04 19:00,0.587914,273.586,210.707,221.814,210.218,209.497,209.856,0.862319,1.00627,210.452,209.707
2013-12-04 20:00,0.702694,276.376,209.237,221.6,207.702,206.895,208.982,0.901402,1.04011,208.464,208.027
2013-12-04 21:00,1.53142,296.635,210.224,221.814,207.702,206.128,208.318,1.33317,1.65494,209.926,208.371
2013-12-04 22:00,-0.150083,225.382,214.358,223.694,212.609,211.983,212.827,-0.190613,-0.227277,210.102,211.906
2013-12-04 23:00,-0.0,248.394,238.83,234.681,236.186,233.225,227.089,-0.0,-0.00494297,218.517,229.664
2013-12-05 00:00,-0.0,261.251,248.38,240.021,245.914,241.475,233.026,-0.0,-0.0,222.259,234.694
2013-12-05 01:00,-0.0,265.095,246.942,238.81,242.049,236.872,226.746,-0.0,-0.0,217.096,227.136
2013-12-05 02:00,0.00164503,248.394,230.559,230.565,226.82,223.619,219.739,-0.0,-0.0,215.873,220.989
2013-12-05 03:00,0.00152588,246.775,231.997,231.625,229.444,226.426,222.873,-0.0,-0.0,218.642,224.204
2013-12-05 04:00,-0.0,258.576,241.913,235.985,239.669,236.872,229.615,-0.0,-0.0,221.145,228.96
2013-12-05 05:00,-0.0,262.869,247.973,239.115,245.248,242.143,232.867,-0.0,-0.0,221.258,230.524
2013-12-05 06:00,-0.0,246.775,235.275,232.491,231.957,230.688,226.918,-0.0,-0.0,219.863,225.408
2013-12-05 07:00,-0.0,270.151,257.166,243.93,255.633,251.75,236.918,-0.0,-0.0,224.86,236.9
2013-12-05 08:00,-0.0,282.753,278.845,256.892,279.022,275.861,254.519,-0.0,-0.0,227.87,246.371
2013-12-05 09:00,0.728032,286.121,284.071,260.119,285.895,283.194,258.76,0.806093,1.13076,231.473,250.646
2013-12-05 10:00,0.355405,290.041,286.661,261.412,288.358,285.35,259.856,0.199311,0.465977,232.251,251.751
2013-12-05 11:00,0.345895,294.933,290.123,263.721,291.817,288.027,261.421,0.143319,0.41607,234.472,253.213
2013-12-05 12:00,0.30114,299.013,292.929,265.355,294.405,290.648,262.847,0.109903,0.3477,235.247,254.068
2013-12-05 13:00,0.261333,301.037,293.944,265.859,294.788,290.375,262.728,0.0887446,0.290637,235.662,254.722
2013-12-05 14:00,0.224265,302.511,294.746,266.557,295.677,291.464,263.787,0.0792926,0.243825,237.072,255.911
2013-12-05 15:00,0.214153,301.826,292.827,265.658,293.764,289.826,263.318,0.0955887,0.22795,238.483,256.45
2013-12-05 16:00,0.22682,301.478,290.965,264.441,292.209,288.445,263.318,0.130672,0.245513,238.857,257.421
2013-12-05 17:00,0.184972,298.339,288.951,263.203,289.3,285.065,260.822,0.111112,0.219546,239.653,256.894
2013-12-05 18:00,0.190704,298.242,289.593,263.928,289.835,285.777,260.34,0.122619,0.233059,240.665,256.805
2013-12-05 19:00,0.26886,283.924,272.12,253.261,273.215,270.96,254.519,0.372786,0.471816,241.304,254.629
2013-12-05 20:00,0.433979,300.408,285.882,261.944,286.585,282.758,259.614,0.358542,0.485924,242.378,257.769
2013-12-05 21:00,0.501853,289.779,279.945,258.358,281.221,278.76,258.76,0.474642,0.587499,241.59,256.982
2013-12-05 22:00,-0.0,264.009,245.032,237.572,235.93,233.225,225.36,-0.298174,-0.44441,218.642,226.379
2013-12-05 23:00,-0.0,204.719,213.921,223.489,211.825,210.931,213.857,-0.0,-0.0,209.206,211.295
2013-12-06 00:00,0.0026845,283.76,276.971,256.32,276.01,272.405,251.553,-0.0,-0.0,232.633,248.669
2013-12-06 01:00,-0.0,288.43,286.328,261.838,288.087,285.208,260.219,-0.0,-0.0,238.104,254.907
2013-12-06 02:00,-0.0,288.012,286.55,262.155,288.222,285.065,260.701,-0.0,-0.0,238.42,255.73
2013-12-06 03:00,-0.0,264.009,265.995,249.542,268.358,267.84,253.753,-0.0,-0.0,238.357,254.536
2013-12-06 04:00,-0.0,263.255,264.788,249.414,266.508,266.16,252.594,-0.0,-0.0,238.294,254.349
2013-12-06 05:00,-0.0,261.666,262.616,247.991,264.444,264.451,251.159,-0.0,-0.0,239.288,253.974
2013-12-06 06:00,-0.0,262.869,263.556,248.252,265.31,264.623,252.205,-0.0,-0.0,239.954,254.162
2013-12-06 07:00,-0.00286005,262.074,261.501,247.332,263.217,262.008,249.705,-0.0,-0.0,240.193,252.828
2013-12-06 08:00,0.00569091,260.827,261.179,246.934,262.329,261.654,249.438,-0.0,-0.0,240.074,252.634
2013-12-06 09:00,1.22408,272.836,265.243,249.414,264.27,259.684,245.628,1.18448,1.6477,237.203,251.252
2013-12-06 10:00,0.375273,289.381,279.336,258.246,277.978,270.148,248.768,0.274592,0.491115,235.247,250.135
2013-12-06 11:00,0.358888,293.816,284.3,261.091,283.797,277.701,253.24,0.185236,0.429323,236.004,252.537
2013-12-06 12:00,0.299796,296.114,284.869,260.984,283.514,277.548,253.24,0.136456,0.349899,235.593,251.352
2013-12-06 13:00,0.265738,296.738,282.682,260.011,281.076,274.46,250.896,0.125526,0.302166,234.401,249.513
2013-12-06 14:00,0.242845,296.323,279.945,258.134,278.128,271.926,249.705,0.139861,0.280013,233.456,248.133
2013-12-06 15:00,0.223467,288.977,269.767,252.412,267.69,262.008,243.241,0.193151,0.291404,230.996,245.114
2013-12-06 16:00,0.210368,292.414,273.466,254.572,270.657,264.451,244.231,0.137547,0.257215,230.43,244.881
2013-12-06 17:00,0.199793,293.816,273.599,254.572,270.657,263.759,243.667,0.131102,0.244565,230.018,244.175
2013-12-06 18:00,0.26486,287.3,260.854,246.667,258.491,251.75,235.382,0.255773,0.359895,224.56,239.255
2013-12-06 19:00,0.487777,275.932,225.611,229.118,220.519,217.29,215.074,0.562351,0.672335,212.765,217.164
2013-12-06 20:00,0.764677,275.48,217.285,225.504,0.0,214.03,213.653,0.860312,1.02579,214.441,215.6
2013-12-06 21:00,1.82918,297.649,200.125,218.957,198.671,195.891,200.514,1.64276,2.04414,206.084,202.696
2013-12-06 22:00,-0.0,218.393,191.919,216.151,190.509,189.265,195.227,-0.180049,-0.214681,194.549,193.11
2013-12-06 23:00,-0.0,213.142,195.165,216.151,193.62,192.445,197.667,-0.00422721,-0.0,196.585,194.312
2013-12-07 00:00,-0.0,213.142,199.463,217.576,197.056,195.891,199.751,-0.0,-0.0,199.589,199.092
2013-12-07 01:00,-0.00196605,218.393,206.643,220.298,205.043,202.529,205.127,-0.0,-0.0,205.233,205.491
2013-12-07 02:00,-0.001653,222.276,209.237,221.6,206.833,204.955,207.648,-0.0,-0.0,206.905,208.027
2013-12-07 03:00,-0.00153126,222.276,212.578,222.659,211.028,209.859,210.289,-0.0,-0.0,209.926,211.295
2013-12-07 04:00,-0.0,225.382,210.707,222.238,208.131,205.74,206.515,-0.0,-0.0,206.702,208.027
2013-12-07 05:00,-0.0,218.393,213.479,223.694,212.219,211.284,211.57,-0.0,-0.0,210.796,212.207
2013-12-07 06:00,-0.0,222.276,216.471,223.694,215.26,214.03,214.265,-0.0,-0.0,213.234,215.332
2013-12-07 07:00,-0.0,235.601,229.373,229.665,228.001,226.426,223.053,-0.0,-0.0,219.863,225.799
2013-12-07 08:00,0.00567265,230.231,227.219,228.004,226.522,225.318,223.592,-0.0,-0.0,219.744,223.793
2013-12-07 09:00,1.52462,239.711,226.583,228.004,225.919,224.19,221.598,1.91052,2.64741,218.767,223.586
2013-12-07 10:00,0.390731,249.156,220.379,225.107,220.184,217.922,218.41,0.634094,0.737277,216.56,219.134
2013-12-07 11:00,0.307925,250.598,235.275,232.319,235.414,233.969,228.949,0.556896,0.629197,223.746,231.198
2013-12-07 12:00,0.442493,273.586,248.985,239.721,249.789,247.708,237.827,0.545091,0.609646,225.058,238.85
2013-12-07 13:00,0.446534,286.271,261.179,246.667,262.685,261.299,247.006,0.452747,0.535593,228.488,246.258
2013-12-07 14:00,0.278711,292.653,277.852,256.549,279.318,276.323,257.158,0.181687,0.30752,230.018,250.849
2013-12-07 15:00,0.297962,281.705,254.509,243.226,254.657,252.927,243.099,0.23356,0.333712,229.093,243.457
2013-12-07 16:00,0.265193,295.042,273.865,254.572,275.087,272.246,254.137,0.169145,0.28424,232.175,250.646
2013-12-07 17:00,0.233301,298.144,282.682,259.134,283.938,279.211,258.147,0.139437,0.253165,233.234,252.439
2013-12-07 18:00,0.22157,295.042,283.611,259.683,284.361,280.702,258.638,0.196076,0.307391,234.329,254.162
2013-12-07 19:00,0.267517,295.151,281.742,258.58,281.799,277.853,256.035,0.202184,0.324452,232.02,251.252
2013-12-07 20:00,0.125158,293.007,286.328,261.944,286.997,282.467,258.882,0.125841,0.186899,231.787,251.949
2013-12-07 21:00,0.539275,289.91,273.599,253.98,270.819,267.84,251.028,0.447737,0.586716,227.147,243.457
2013-12-07 22:00,-0.267818,273.586,262.774,247.991,260.888,258.04,245.767,-0.340141,-0.405567,226.122,239.656
2013-12-07 23:00,-0.0,273.831,262.141,247.2,260.341,257.671,244.231,-0.0,-0.0,224.86,239.255
2013-12-08 00:00,-0.0,284.087,277.852,256.205,277.978,275.085,254.137,-0.0,0.00273748,228.488,248.455
2013-12-08 01:00,-0.00197247,257.103,245.676,238.04,243.438,241.251,233.819,-0.0,-0.0,224.959,233.461
2013-12-08 02:00,-0.0,261.251,251.147,240.913,249.579,247.293,237.373,-0.0,-0.0,227.147,237.468
2013-12-08 03:00,-0.0,284.888,280.187,258.134,280.785,276.784,255.784,-0.0,-0.0,228.662,247.699
2013-12-08 04:00,-0.0,261.251,253.04,242.081,251.447,248.532,239.025,-0.0,-0.0,226.405,238.027
2013-12-08 05:00,-0.00168168,277.24,271.162,252.777,268.855,265.309,248.229,-0.0,-0.0,226.499,242.848
2013-12-08 06:00,-0.0,272.58,261.017,246.934,260.158,255.614,240.793,-0.0,-0.0,225.546,239.121
2013-12-08 07:00,-0.0,281.165,274.655,255.626,274.156,267.171,247.142,-0.0,-0.0,226.027,244.53
2013-12-08 08:00,-0.0,282.581,277.476,256.549,278.427,273.517,251.944,-0.0,-0.0,227.691,246.929
2013-12-08 09:00,0.962624,282.581,277.224,256.778,278.128,274.304,254.519,1.0324,1.29577,229.093,248.241
2013-12-08 10:00,0.317652,288.568,281.978,258.802,282.517,278.307,256.035,0.221493,0.433873,228.224,247.59
2013-12-08 11:00,0.311085,293.356,285.321,260.876,285.757,281.293,257.9,0.158873,0.376372,228.835,248.241
2013-12-08 12:00,0.324952,296.323,283.264,259.902,283.23,277.701,254.392,0.160374,0.363145,228.488,247.04
2013-12-08 13:00,0.435714,293.356,279.823,257.685,280.639,277.396,255.658,0.461444,0.54313,230.184,248.455
2013-12-08 14:00,0.267728,287.729,275.565,255.16,276.468,273.832,254.392,0.28205,0.358722,230.996,248.669
2013-12-08 15:00,0.231626,294.602,282.682,259.464,283.23,278.911,256.909,0.161625,0.280844,231.236,249.303
2013-12-08 16:00,0.192685,290.939,279.336,257.459,279.466,276.631,256.285,0.164135,0.258191,231.709,250.544
2013-12-08 17:00,0.226862,291.809,277.35,256.32,278.128,274.304,254.392,0.214247,0.307052,230.266,249.721
2013-12-08 18:00,0.231223,293.472,280.066,257.233,280.054,275.706,254.264,0.225988,0.325654,231.076,250.646
2013-12-08 19:00,0.20775,297.449,288.412,262.995,288.222,283.773,258.638,0.122828,0.262169,233.159,253.213
2013-12-08 20:00,0.415404,290.939,277.35,255.974,278.278,275.551,256.535,0.463834,0.57402,233.603,252.634
2013-12-08 21:00,0.093347,281.526,277.476,256.089,278.128,276.631,257.158,0.201983,0.225127,234.041,253.117
2013-12-08 22:00,-0.180259,262.475,243.273,235.01,241.344,236.157,222.147,-0.763124,-0.727928,222.476,229.489
2013-12-08 23:00,-0.00509035,213.142,198.787,217.576,197.056,196.831,200.006,-0.0,-0.0,199.307,197.598
2013-12-09 00:00,-0.00272491,218.393,206.643,219.855,205.946,205.349,206.743,-0.0,-0.0,205.874,205.491
2013-12-09 01:00,-0.0,204.719,210.707,220.298,209.394,208.026,208.761,-0.0,-0.00199767,209.926,209.379
2013-12-09 02:00,-0.0,213.142,212.578,222.659,210.625,208.766,210.932,-0.0,-0.0,210.102,210.984
2013-12-09 03:00,-0.0,225.382,215.64,224.507,214.517,212.329,213.447,-0.0,-0.0,211.8,213.382
2013-12-09 04:00,-0.0,240.898,224.616,227.438,220.852,218.857,217.055,-0.0,-0.0,213.995,218.895
2013-12-09 05:00,0.00168241,238.442,224.616,227.817,221.838,219.165,216.859,-0.0,-0.0,215.593,219.608
2013-12-09 06:00,-0.0,235.601,225.282,227.628,223.443,221.579,220.115,-0.0,-0.0,217.096,221.436
2013-12-09 07:00,-0.00285117,254.396,237.841,234.183,234.107,230.946,225.883,-0.0,-0.0,218.517,226.187
2013-12-09 08:00,0.00563054,235.601,228.155,229.665,227.414,225.874,221.598,-0.0,-0.0,219.863,224.61
2013-12-09 09:00,1.15558,244.063,229.373,229.301,228.001,225.874,223.053,1.32375,1.85287,219.744,225.011
2013-12-09 10:00,0.380083,277.24,255.941,243.65,253.069,247.501,235.072,0.369492,0.544783,221.484,234.389
2013-12-09 11:00,0.31429,289.514,278.721,256.778,277.978,272.724,250.896,0.182295,0.412233,227.959,246.032
2013-12-09 12:00,0.292363,294.933,286.992,261.731,287.134,282.758,258.515,0.119351,0.349621,230.018,249.928
2013-12-09 13:00,0.312706,296.323,284.642,260.337,285.34,281.735,257.9,0.204216,0.344009,229.852,249.825
2013-12-09 14:00,0.334503,292.653,281.86,258.469,283.23,280.702,258.638,0.342794,0.41496,229.517,250.442
2013-12-09 15:00,0.233964,289.514,279.458,257.12,280.493,278.004,257.282,0.244418,0.319634,229.935,250.032
2013-12-09 16:00,0.233467,284.888,276.208,255.043,278.128,276.323,256.785,0.336049,0.39126,230.916,250.748
2013-12-09 17:00,0.215453,294.823,284.071,259.683,284.641,280.406,257.9,0.146571,0.265289,231.076,251.552
2013-12-09 18:00,0.200942,292.174,283.032,259.244,282.803,279.361,258.76,0.130318,0.273361,231.865,252.244
2013-12-09 19:00,0.337647,289.247,277.601,256.089,278.427,276.323,257.034,0.361516,0.465321,232.784,252.439
2013-12-09 20:00,0.455,284.888,255.23,242.799,252.465,247.708,236.0,0.450915,0.566357,223.849,237.043
2013-12-09 21:00,0.765478,288.705,264.788,247.067,262.329,255.992,237.525,0.730776,0.959511,226.685,240.835
2013-12-09 22:00,-0.822792,235.601,227.219,228.192,226.82,225.874,224.834,-1.16109,-1.66131,222.15,225.011
2013-12-09 23:00,-0.0,277.661,267.764,250.303,267.354,261.299,243.667,-0.0,-0.0,226.685,242.725
2013-12-10 00:00,-0.0,251.282,233.116,231.45,231.131,226.974,222.147,-0.0,-0.0,218.009,224.811
2013-12-10 01:00,0.00198491,260.395,243.273,237.258,239.911,233.969,225.36,-0.0,-0.0,219.137,228.96
2013-12-10 02:00,-0.0,233.989,219.247,225.897,215.26,211.983,210.932,-0.0,-0.0,210.624,214.233
2013-12-10 03:00,-0.0,242.013,224.95,228.378,221.182,217.607,214.468,-0.0,-0.0,213.995,218.653
2013-12-10 04:00,-0.0,256.589,243.049,237.258,240.631,234.461,225.009,-0.0,-0.0,222.585,233.617
2013-12-10 05:00,-0.0,233.989,224.279,227.058,222.162,220.384,218.218,-0.0,-0.0,215.452,218.895
2013-12-10 06:00,-0.0,232.213,222.198,226.287,219.847,218.235,217.445,-0.0,-0.0,214.441,218.165
2013-12-10 07:00,-0.0,225.382,217.685,223.899,215.628,214.03,214.468,-0.0,-0.0,213.541,214.787
2013-12-10 08:00,-0.0,237.078,227.533,228.378,225.919,223.332,220.675,-0.0,-0.0,218.391,223.586
2013-12-10 09:00,0.943053,253.81,240.277,234.845,238.446,236.396,230.276,1.28985,1.68443,222.368,230.524
2013-12-10 10:00,0.396031,245.913,225.282,227.058,224.694,223.905,221.782,0.646687,0.771076,219.382,222.529
2013-12-10 11:00,0.429176,275.932,253.779,242.225,253.269,251.552,241.664,0.539823,0.65618,228.4,241.221
2013-12-10 12:00,0.305006,275.48,253.779,241.791,254.657,252.732,242.671,0.540108,0.622882,230.018,242.848
2013-12-10 13:00,0.234397,261.251,247.769,239.115,247.446,245.399,237.525,0.459912,0.528538,226.311,238.165
2013-12-10 14:00,0.286498,278.075,258.534,245.177,258.304,256.555,244.512,0.401508,0.456296,228.136,241.98
2013-12-10 15:00,0.187412,288.012,272.796,253.501,272.264,269.821,253.111,0.166566,0.256189,231.394,246.818
2013-12-10 16:00,0.236877,292.653,276.336,255.974,276.62,272.565,253.497,0.204515,0.289797,232.784,247.481
2013-12-10 17:00,0.250102,278.075,261.34,246.934,261.791,258.591,243.383,0.460395,0.47358,227.51,241.221
2013-12-10 18:00,0.224825,256.589,236.06,233.513,235.414,235.193,233.026,0.663847,0.712527,224.959,230.354
2013-12-10 19:00,0.588082,291.44,251.147,241.061,252.465,251.75,242.671,0.946064,1.05967,233.234,244.175
2013-12-10 20:00,0.931898,293.702,242.597,236.943,242.747,240.576,234.134,1.02662,1.17211,228.748,236.9
2013-12-10 21:00,1.48123,281.346,215.64,224.507,214.89,212.673,212.827,1.40931,1.70608,212.922,214.233
2013-12-10 22:00,-0.566617,225.382,219.247,225.897,216.715,214.697,213.653,-2.39877,-1.7161,212.287,216.131
2013-12-10 23:00,-0.0,227.984,217.685,224.708,215.628,214.03,212.827,-0.0,-0.0,213.541,216.392
2013-12-11 00:00,-0.0,230.231,216.88,223.694,215.26,214.364,213.653,-0.0,-0.0,213.845,215.6
2013-12-11 01:00,-0.00199091,225.382,218.082,224.507,217.427,216.331,216.269,-0.0,-0.0,214.293,216.131
2013-12-11 02:00,-0.0,232.213,220.379,225.504,218.13,216.972,215.873,-0.0,-0.0,213.693,216.392
2013-12-11 03:00,-0.0,237.078,230.85,230.387,229.729,228.59,225.185,-0.0,-0.0,219.863,225.408
2013-12-11 04:00,-0.00154504,268.073,260.854,246.265,260.524,257.301,243.525,-0.0,-0.0,225.643,240.053
2013-12-11 05:00,-0.00168329,240.898,233.938,231.45,231.957,230.17,226.918,-0.0,-0.0,220.57,226.948
2013-12-11 06:00,-0.0,239.711,237.339,232.834,236.695,235.917,231.419,-0.0,-0.0,224.959,232.185
2013-12-11 07:00,-0.0,255.521,246.733,237.884,245.693,242.805,232.867,-0.0,-0.0,225.739,236.179
2013-12-11 08:00,-0.0,239.711,225.937,227.817,224.072,220.984,217.055,-0.0,-0.0,216.695,221.878
2013-12-11 09:00,1.40575,240.898,225.282,227.248,223.758,222.753,220.675,1.85149,2.44416,217.881,221.436
2013-12-11 10:00,0.383793,253.81,240.277,234.017,239.426,238.282,232.066,0.677996,0.751006,224.156,233.304
2013-12-11 11:00,0.330786,276.376,265.846,248.9,266.508,264.106,249.838,0.425378,0.484601,228.835,244.764
2013-12-11 12:00,0.420696,291.315,279.458,257.233,280.639,277.243,255.784,0.404977,0.482874,229.601,246.707
2013-12-11 13:00,0.380733,293.124,270.607,252.777,271.464,268.67,252.982,0.384222,0.434015,229.852,246.929
2013-12-11 14:00,0.362002,283.093,252.666,242.081,252.262,249.955,241.229,0.342074,0.410366,0.0,0.0
2013-12-11 15:00,0.304997,280.239,255.587,243.509,255.439,253.316,242.241,0.335122,0.397231,228.312,241.348
2013-12-11 16:00,0.289275,281.346,257.854,244.488,259.236,257.856,245.905,0.354554,0.428639,230.266,245.69
2013-12-11 17:00,0.363009,289.113,260.692,246.13,262.507,260.764,248.229,0.343148,0.426723,231.709,248.025
2013-12-11 18:00,0.461751,296.738,259.206,245.723,260.888,259.321,247.823,0.376528,0.486246,232.633,247.59
2013-12-11 19:00,0.490637,304.159,270.885,252.899,271.464,267.171,251.422,0.385319,0.497122,233.01,249.303
2013-12-11 20:00,0.505014,296.738,280.308,258.358,282.087,279.211,258.392,0.512245,0.548662,234.329,251.152
2013-12-11 21:00,0.0353084,271.531,271.711,252.777,273.372,273.042,256.909,0.140936,0.122215,235.662,251.949
2013-12-11 22:00,52.7681,232.213,223.597,227.248,222.162,223.619,223.413,80.4217,106.545,214.145,217.164
2013-12-11 23:00,-0.0,227.984,221.481,225.701,220.852,220.384,219.927,-0.0,-0.0,216.012,218.41
2013-12-12 00:00,-0.00276405,235.601,228.463,229.847,227.414,225.318,222.329,-0.0,-0.0,221.371,225.994
2013-12-12 01:00,-0.0,253.206,250.76,241.061,251.242,249.55,239.913,-0.0,-0.0,226.778,241.475
2013-12-12 02:00,-0.00167071,251.944,245.676,237.884,245.914,244.544,236.307,-0.0,-0.0,225.156,238.027
2013-12-12 03:00,-0.0015424,252.585,247.357,238.81,248.307,246.457,237.07,-0.0,-0.0,228.224,240.835
2013-12-12 04:00,-0.0,261.251,258.703,245.995,259.236,257.115,245.072,-0.0,-0.0,228.4,244.764
2013-12-12 05:00,-0.0,263.636,263.088,247.859,264.618,262.361,247.959,-0.0,0.00169954,231.63,248.348
2013-12-12 06:00,-0.00202588,266.466,265.092,249.414,266.338,263.933,248.634,-0.0,-0.0,231.315,247.699
2013-12-12 07:00,-0.00283757,267.444,265.696,249.669,267.185,265.309,250.765,-0.0,-0.0,231.787,248.562
2013-12-12 08:00,-0.0,277.869,275.176,254.69,276.62,274.304,255.153,-0.0,-0.0,231.63,250.238
2013-12-12 09:00,1.78407,269.865,261.822,246.667,261.791,259.139,244.652,1.65443,2.1442,227.78,242.971
2013-12-12 10:00,0.433429,287.729,273.997,253.98,274.778,271.605,254.009,0.358918,0.490466,232.481,250.646
2013-12-12 11:00,0.291762,287.444,275.306,254.336,273.843,269.821,251.683,0.198472,0.382665,229.685,245.345
2013-12-12 12:00,0.323463,296.219,287.322,261.731,288.222,284.349,260.219,0.161365,0.370685,233.823,251.751
2013-12-12 13:00,0.385327,294.491,283.495,259.244,284.501,281.441,258.76,0.351261,0.444381,233.308,251.452
2013-12-12 14:00,0.224973,283.594,266.886,249.029,266.678,262.888,246.732,0.378876,0.486694,230.43,244.881
2013-12-12 15:00,0.249135,286.271,266.145,248.771,265.826,261.477,244.652,0.261213,0.353768,228.748,244.647
2013-12-12 16:00,0.2262,290.171,270.885,251.676,269.186,263.237,244.932,0.16783,0.288396,227.147,242.848
2013-12-12 17:00,0.231027,292.889,278.474,256.434,278.128,273.832,252.982,0.167215,0.290917,229.601,246.929
2013-12-12 18:00,0.313513,295.583,275.823,254.217,276.163,271.765,249.305,0.265451,0.409601,232.02,249.513
2013-12-12 19:00,0.588737,274.314,204.988,220.298,204.584,202.113,204.422,0.900873,1.03835,202.469,203.929
2013-12-12 20:00,0.888403,286.421,232.839,232.491,226.221,221.875,216.071,0.812732,1.02061,212.126,220.535
2013-12-12 21:00,0.769873,293.93,265.092,249.797,262.507,257.301,241.664,0.584126,0.741904,228.136,243.214
2013-12-12 22:00,1.55338,267.444,256.644,244.626,253.069,247.501,235.691,3.06889,3.65919,224.86,237.748
2013-12-12 23:00,-0.0,274.787,263.401,249.286,258.491,248.736,234.134,-0.0,-0.0,222.15,238.027
2013-12-13 00:00,-0.0,259.045,242.142,236.943,236.441,232.221,224.834,-0.0,-0.0,214.588,225.011
2013-12-13 01:00,-0.0,257.103,238.83,235.337,233.842,227.517,220.675,-0.0,-0.0,216.15,224.408
2013-12-13 02:00,0.00167383,246.775,220.75,226.092,215.26,210.219,209.42,-0.0,-0.0,206.084,210.984
2013-12-13 03:00,-0.0,213.142,198.095,216.392,197.056,196.831,200.006,-0.0,-0.0,199.867,198.106
2013-12-13 04:00,-0.0,204.719,206.1,220.077,203.652,202.529,205.127,-0.0,-0.0,204.573,206.239
2013-12-13 05:00,-0.00336681,225.382,217.285,224.305,215.26,211.983,211.992,-0.0,-0.0,211.964,214.511
2013-12-13 06:00,-0.00202433,218.393,211.184,221.6,210.625,209.133,210.932,-0.0,-0.00204368,209.569,210.353
2013-12-13 07:00,-0.00283203,225.382,218.474,224.708,216.355,214.697,214.062,-0.0,-0.0,213.693,215.867
2013-12-13 08:00,-0.0,250.598,241.218,235.662,239.183,234.95,228.109,-0.0,-0.0,223.224,233.146
2013-12-13 09:00,0.935909,267.444,253.04,241.791,251.036,246.876,235.537,1.03016,1.41728,224.46,236.757
2013-12-13 10:00,0.622572,261.666,235.538,233.005,231.957,229.909,225.535,0.67716,0.831585,219.26,226.948
2013-12-13 11:00,0.430091,268.073,231.14,230.921,227.414,223.043,218.41,0.518712,0.62101,215.31,222.096
2013-12-13 12:00,0.406317,276.594,240.514,235.499,237.702,232.725,224.481,0.450795,0.541041,219.863,229.838
2013-12-13 13:00,0.292807,259.045,226.902,228.749,225.31,223.332,220.675,0.457697,0.544313,218.517,222.529
2013-12-13 14:00,0.305476,264.009,235.275,233.005,232.772,229.385,224.834,0.485878,0.56685,219.137,228.06
2013-12-13 15:00,0.261957,252.585,224.279,227.058,222.806,221.579,219.927,0.488943,0.561834,217.491,220.989
2013-12-13 16:00,0.269238,253.206,222.198,226.287,220.852,218.857,217.639,0.494414,0.57657,216.424,219.608
2013-12-13 17:00,0.302799,255.521,221.841,226.287,220.519,219.472,218.982,0.515911,0.607628,216.963,219.843
2013-12-13 18:00,0.390941,266.131,218.474,224.708,216.715,215.683,216.071,0.591258,0.682106,215.593,216.909
2013-12-13 19:00,0.523616,268.986,212.119,222.868,211.028,210.219,211.992,0.775853,0.892942,210.796,211.295
2013-12-13 20:00,0.757632,274.787,220.006,225.701,219.508,218.547,218.218,0.923481,1.08571,217.491,219.134
2013-12-13 21:00,1.18932,273.338,220.006,225.504,219.508,218.547,217.639,1.20839,1.49085,217.229,218.653
2013-12-13 22:00,0.801435,227.984,224.279,227.438,224.072,222.753,221.23,1.58334,1.61819,221.145,222.956
2013-12-13 23:00,-0.0,250.598,242.824,236.625,242.283,240.123,232.867,-0.0,-0.0,227.601,236.757
2013-12-14 00:00,-0.0,274.314,266.59,250.177,266.847,261.831,243.099,-0.0,-0.0,225.931,242.105
2013-12-14 01:00,-0.00200794,264.377,248.784,239.57,246.355,241.698,229.449,-0.0,-0.0,218.137,229.838
2013-12-14 02:00,-0.0,263.636,248.38,239.871,245.248,239.895,229.449,-0.0,-0.0,219.982,231.198
2013-12-14 03:00,-0.00154587,257.103,243.94,237.258,243.438,238.747,230.931,-0.0,-0.00156065,223.746,232.988
2013-12-14 04:00,-0.0,245.01,234.208,231.973,232.772,229.909,226.056,-0.0,-0.0,222.585,228.603
2013-12-14 05:00,-0.0,245.913,235.275,232.834,233.041,230.17,225.36,-0.0,-0.0,220.801,227.323
2013-12-14 06:00,-0.0,254.396,239.799,235.337,236.186,231.968,226.229,-0.0,0.00204185,218.891,227.694
2013-12-14 07:00,-0.0,257.605,247.357,238.657,245.693,243.024,233.503,-0.0,-0.0,222.799,233.928
2013-12-14 08:00,-0.0,238.442,233.666,231.274,232.23,230.946,228.278,-0.0,-0.0,221.93,228.242
2013-12-14 09:00,1.46636,244.063,232.839,230.921,231.683,229.647,226.229,1.77366,2.32631,221.258,226.57
2013-12-14 10:00,0.346777,264.739,254.145,242.081,254.461,251.552,240.06,0.538295,0.607799,227.691,240.576
2013-12-14 11:00,0.584274,287.444,274.392,254.099,274.933,272.405,252.982,0.609357,0.645555,227.42,243.937
2013-12-14 12:00,0.428065,283.924,264.329,248.382,262.863,258.408,242.527,0.500586,0.531341,224.86,239.39
2013-12-14 13:00,0.32693,280.613,259.206,245.177,256.406,251.75,237.827,0.354366,0.432487,221.596,234.694
2013-12-14 14:00,0.252428,282.581,265.092,248.252,262.863,258.224,242.527,0.286021,0.358526,224.661,239.39
2013-12-14 15:00,0.235195,272.322,248.38,239.115,245.693,242.364,232.547,0.286879,0.376149,223.329,232.669
2013-12-14 16:00,0.245833,273.586,250.954,240.021,249.579,246.035,234.76,0.300875,0.385801,224.359,234.845
2013-12-14 17:00,0.30749,265.446,237.086,233.175,235.414,232.976,227.601,0.438817,0.514461,221.708,228.242
2013-12-14 18:00,0.366304,264.739,229.373,229.847,227.414,226.426,224.481,0.53408,0.625386,219.863,224.204
2013-12-14 19:00,0.254113,278.684,257.339,244.626,253.269,250.156,240.354,0.316759,0.354527,219.744,234.389
2013-12-14 20:00,0.648204,275.251,222.552,226.481,219.167,217.29,218.025,0.70748,0.835894,214.734,217.669
2013-12-14 21:00,0.869595,277.869,238.585,234.017,235.93,232.474,226.229,0.773723,0.957267,221.145,228.242
2013-12-14 22:00,0.180853,227.984,213.031,222.868,210.625,209.497,210.289,0.918766,1.09549,209.023,210.032
2013-12-14 23:00,-0.00538744,218.393,213.031,222.027,211.028,209.859,210.932,-0.0,-0.0,210.278,210.984
2013-12-15 00:00,0.00280142,225.382,214.79,222.868,213.381,211.983,211.781,-0.0,-0.0,211.636,213.382
2013-12-15 01:00,-0.0,227.984,221.841,225.701,221.182,220.384,218.218,-0.0,-0.0,218.137,220.989
2013-12-15 02:00,-0.0,242.013,233.938,231.799,233.31,230.946,227.77,-0.0,-0.0,222.585,228.96
2013-12-15 03:00,-0.0,259.505,246.942,238.657,245.248,241.698,230.44,-0.0,-0.0,221.484,232.508
2013-12-15 04:00,-0.0,227.984,224.95,227.058,223.758,222.753,221.598,-0.0,-0.0,219.382,222.529
2013-12-15 05:00,-0.0,258.096,243.496,236.625,241.815,238.049,229.781,-0.0,-0.0,222.585,232.508
2013-12-15 06:00,-0.0,264.739,252.666,241.5,251.652,246.246,234.291,-0.0,-0.0,222.906,235.146
2013-12-15 07:00,-0.0,254.966,235.8,233.513,231.131,223.619,218.41,-0.0,-0.0,215.024,222.743
2013-12-15 08:00,-0.0,245.913,228.463,229.118,225.31,221.579,217.832,-0.0,-0.0,215.452,220.306
2013-12-15 09:00,2.27278,247.601,230.265,229.847,227.708,225.874,221.782,2.43077,3.26061,216.963,222.313
2013-12-15 10:00,0.649227,265.095,241.682,235.985,239.669,236.635,228.109,0.799936,0.875541,218.264,228.603
2013-12-15 11:00,0.437601,265.095,244.815,237.415,243.209,240.35,232.227,0.611139,0.637287,222.906,232.508
2013-12-15 12:00,0.42706,283.924,260.854,245.587,262.507,259.321,243.383,0.592236,0.644053,228.224,245.46
2013-12-15 13:00,0.435898,284.41,269.059,251.305,270.495,268.007,251.553,0.581681,0.625206,230.674,250.442
2013-12-15 14:00,0.13371,259.954,250.566,240.766,250.623,250.156,241.519,0.462281,0.488706,226.685,239.39
2013-12-15 15:00,0.30042,290.685,276.971,255.51,278.278,275.551,255.28,0.283942,0.362069,230.674,250.544
2013-12-15 16:00,0.278349,282.753,261.501,247.2,259.236,254.855,239.173,0.283996,0.365665,224.156,239.255
2013-12-15 17:00,0.244039,289.514,278.721,257.12,279.907,276.938,256.035,0.26012,0.331415,232.328,252.047
2013-12-15 18:00,0.275372,289.91,279.091,257.91,279.318,276.631,255.784,0.298919,0.372098,233.456,252.244
2013-12-15 19:00,0.117948,280.427,266.442,249.414,264.27,260.764,243.383,0.228053,0.291468,231.156,246.483
2013-12-15 20:00,0.774211,279.081,204.988,220.736,201.728,199.981,202.255,0.858372,1.01839,203.429,203.113
2013-12-15 21:00,0.725871,267.444,196.665,216.631,194.213,193.954,198.979,0.754837,0.924619,198.14,196.01
2013-12-15 22:00,0.13721,213.142,202.646,219.183,201.728,199.981,203.947,0.697052,0.692608,202.954,202.696
2013-12-15 23:00,-0.00543684,204.719,201.41,218.041,199.715,198.656,203.228,-0.0,-0.0,199.307,200.502
2013-12-16 00:00,-0.0,249.156,226.902,228.934,221.838,217.922,215.074,-0.0,-0.0,212.922,218.41
2013-12-16 01:00,-0.0020184,235.601,221.481,225.897,217.427,214.697,214.671,-0.0,-0.0,211.303,213.668
2013-12-16 02:00,-0.0,256.589,233.392,232.146,227.118,222.753,217.055,-0.0,-0.0,212.607,219.843
2013-12-16 03:00,-0.0,243.066,228.155,228.749,225.919,223.905,221.046,-0.0,-0.0,217.752,222.529
2013-12-16 04:00,-0.0,243.066,225.282,228.004,221.511,219.777,217.445,-0.0,-0.0,214.734,218.895
2013-12-16 05:00,0.00168212,271.531,257.511,244.349,254.657,250.156,236.918,-0.0,-0.0,222.692,235.887
2013-12-16 06:00,-0.00201806,276.155,266.145,249.414,264.444,260.045,242.814,-0.0,-0.0,223.642,240.964
2013-12-16 07:00,-0.0,272.061,258.025,244.488,255.244,248.736,233.976,-0.0,-0.0,222.04,236.325
2013-12-16 08:00,-0.00543141,278.279,272.12,252.412,272.104,267.506,247.687,-0.0,-0.0,225.739,245.575
2013-12-16 09:00,1.96549,268.382,251.912,240.913,249.157,245.186,232.547,1.90192,2.69296,218.642,232.022
2013-12-16 10:00,0.443617,271.261,251.53,240.913,249.157,244.973,230.768,0.503565,0.590582,220.101,233.304
2013-12-16 11:00,0.509551,278.684,256.992,243.93,254.461,250.357,236.613,0.538227,0.575541,219.503,234.845
2013-12-16 12:00,0.456,290.301,272.256,253.02,272.582,268.67,248.229,0.409945,0.469246,225.156,244.294
2013-12-16 13:00,0.425072,296.323,280.066,257.572,281.366,277.701,255.027,0.353929,0.43769,227.238,247.808
2013-12-16 14:00,0.276235,297.549,286.105,261.198,287.27,283.194,257.9,0.168861,0.297635,230.018,250.442
2013-12-16 15:00,0.242217,296.943,284.3,260.445,284.921,280.406,255.28,0.142968,0.273924,229.093,248.669
2013-12-16 16:00,0.231674,289.381,270.049,251.676,267.522,262.712,243.241,0.162644,0.285603,222.799,238.986
2013-12-16 17:00,0.243823,291.19,268.916,251.429,266.338,259.321,240.207,0.172911,0.301133,223.224,240.053
2013-12-16 18:00,0.142413,293.124,284.071,260.011,283.656,280.85,258.023,0.109836,0.21068,230.184,248.882
2013-12-16 19:00,0.361776,263.255,194.386,215.909,193.017,191.931,197.667,0.709283,0.792523,196.259,194.312
2013-12-16 20:00,0.874117,281.705,195.165,215.909,192.406,191.931,196.325,1.09741,1.25778,196.905,196.01
2013-12-16 21:00,1.41561,282.923,202.034,218.272,199.715,198.656,200.261,1.38268,1.66327,204.573,202.696
2013-12-16 22:00,0.110888,230.231,213.921,223.694,209.808,206.895,206.97,0.657219,0.559738,208.274,211.295
2013-12-16 23:00,-0.00548602,225.382,210.224,222.238,207.269,205.74,206.97,-0.0,-0.0,207.697,209.047
2013-12-17 00:00,-0.0,222.276,210.707,222.027,208.131,206.895,208.318,-0.0,-0.0,207.304,208.711
2013-12-17 01:00,-0.0,213.142,211.654,221.386,209.394,208.026,208.761,-0.0,-0.0,209.748,210.032
2013-12-17 02:00,-0.00168474,222.276,213.031,222.238,211.825,209.859,210.504,-0.0,-0.0,211.303,212.505
2013-12-17 03:00,-0.00154993,237.078,221.841,226.674,219.167,216.331,214.062,-0.0,-0.0,213.234,216.909
2013-12-17 04:00,-0.0,222.276,216.471,223.694,215.628,214.03,214.062,-0.0,-0.00156374,212.765,214.511
2013-12-17 05:00,-0.0,227.984,221.841,226.674,219.847,218.547,217.639,-0.0,-0.0,215.452,219.134
2013-12-17 06:00,-0.00201544,244.063,234.208,231.625,233.041,231.459,226.918,-0.0,-0.0,221.371,228.06
2013-12-17 07:00,-0.00280506,282.059,278.101,256.549,279.022,276.323,255.658,-0.0,-0.0,228.835,246.595
2013-12-17 08:00,-0.00539738,281.165,277.224,255.858,279.022,275.861,255.28,-0.0,-0.0,229.348,248.133
2013-12-17 09:00,0.685194,285.97,283.841,260.011,285.757,282.758,258.76,1.01527,1.38349,230.101,249.617
2013-12-17 10:00,0.210966,287.729,284.3,260.337,285.757,282.613,258.27,0.19524,0.331856,229.601,249.513
2013-12-17 11:00,0.298581,292.534,283.611,260.228,284.781,280.998,258.515,0.19282,0.38829,229.007,249.093
2013-12-17 12:00,0.458604,296.943,263.245,248.512,263.745,259.502,246.594,0.343495,0.482576,228.835,244.998
2013-12-17 13:00,0.260131,296.427,288.951,262.89,289.835,285.208,259.614,0.111323,0.319708,229.852,249.513
2013-12-17 14:00,0.215657,297.649,289.805,263.099,290.367,286.202,260.942,0.0839524,0.261513,229.935,249.928
2013-12-17 15:00,0.204969,299.203,291.07,264.031,292.209,287.609,261.54,0.0887458,0.236322,230.996,250.442
2013-12-17 16:00,0.239732,299.579,286.439,261.519,287.815,283.629,259.856,0.14189,0.261997,231.709,251.051
2013-12-17 17:00,0.166939,298.63,291.07,264.133,292.079,287.469,261.779,0.0848084,0.214726,232.935,252.439
2013-12-17 18:00,0.254833,279.859,245.676,236.943,240.87,233.722,221.598,0.41246,0.504589,219.863,230.354
2013-12-17 19:00,0.541373,267.123,208.734,221.17,207.702,206.513,208.761,0.857422,0.97282,208.274,207.678
2013-12-17 20:00,0.663022,277.451,213.479,223.489,211.028,208.766,209.201,0.832536,0.967414,210.624,212.505
2013-12-17 21:00,1.35625,286.717,223.252,227.628,218.478,215.356,213.653,1.18079,1.47565,213.388,216.909
2013-12-17 22:00,0.373201,252.585,239.559,235.499,236.441,232.221,226.229,0.55298,0.753537,222.259,229.664
2013-12-17 23:00,-0.0110698,237.078,221.841,227.438,217.427,213.694,212.411,-0.0,-0.0,211.303,215.867
2013-12-18 00:00,-0.0,222.276,211.654,222.238,209.394,207.274,210.289,-0.0,-0.0,207.304,208.371
2013-12-18 01:00,-0.00202807,218.393,208.734,221.17,206.392,204.955,207.648,-0.0,-0.0,205.874,206.968
2013-12-18 02:00,-0.0,204.719,206.1,219.409,204.12,203.757,205.593,-0.0,-0.0,205.874,205.491
2013-12-18 03:00,-0.0,213.142,204.418,219.183,203.179,202.529,204.893,-0.0,-0.0,204.122,204.721
2013-12-18 04:00,-0.0,213.142,207.704,220.954,206.833,204.955,207.423,-0.0,-0.0,207.502,208.711
2013-12-18 05:00,-0.00168029,238.442,219.628,225.701,217.072,214.364,213.241,-0.0,-0.0,212.287,215.6
2013-12-18 06:00,0.00201255,244.063,233.938,232.319,232.23,227.787,222.329,-0.0,-0.0,220.454,228.603
2013-12-18 07:00,-0.0,266.466,249.385,239.871,246.135,241.027,229.449,-0.0,-0.0,220.801,231.364
2013-12-18 08:00,-0.0,271.261,256.992,244.07,254.066,248.121,235.691,-0.0,-0.0,221.371,234.542
2013-12-18 09:00,4.21706,269.576,260.528,246.265,259.606,255.045,240.207,3.75851,4.9296,226.311,241.221
2013-12-18 10:00,0.671674,274.551,254.69,243.084,252.667,248.327,236.613,0.698336,0.822688,223.952,238.165
2013-12-18 11:00,0.3503,283.76,265.394,249.029,263.569,257.671,241.808,0.294449,0.45103,226.778,241.093
2013-12-18 12:00,0.341066,285.045,263.401,247.2,261.611,255.614,239.322,0.281299,0.412122,226.405,241.348
2013-12-18 13:00,0.335436,280.427,254.145,241.791,252.868,248.532,236.918,0.32236,0.420088,223.642,236.757
2013-12-18 14:00,0.376991,280.239,252.666,241.354,252.667,250.357,239.025,0.368548,0.446949,225.739,240.185
2013-12-18 15:00,0.274868,292.889,271.711,252.534,271.464,266.835,248.499,0.18934,0.302188,227.959,246.595
2013-12-18 16:00,0.203578,293.24,277.977,256.434,276.315,270.96,250.104,0.120166,0.247804,229.093,247.59
2013-12-18 17:00,0.219918,296.008,283.611,259.574,282.946,278.609,255.28,0.142269,0.253203,228.224,249.093
2013-12-18 18:00,0.136364,293.356,282.214,258.134,281.221,276.015,252.723,0.0999852,0.202953,229.093,248.133
2013-12-18 19:00,0.49465,274.314,219.628,225.504,215.993,214.03,214.468,0.634889,0.742893,213.234,214.787
2013-12-18 20:00,0.68039,285.357,212.578,222.238,210.625,208.026,209.201,0.863073,1.00141,211.636,212.505
2013-12-18 21:00,1.42159,293.356,203.838,218.041,201.728,200.415,204.658,1.36468,1.66078,207.105,203.929
2013-12-18 22:00,0.0807324,204.719,198.787,217.106,197.601,196.831,202.009,0.478492,0.407521,200.681,199.092
2013-12-18 23:00,-0.0,204.719,198.787,217.342,199.196,197.752,201.515,-0.0,-0.0,199.307,199.57
2013-12-19 00:00,0.00284765,218.393,208.734,220.954,207.269,205.349,207.872,-0.0,-0.0,206.498,207.326
2013-12-19 01:00,-0.0,233.989,221.117,225.897,217.78,215.683,213.857,-0.0,-0.0,212.922,216.652
2013-12-19 02:00,-0.0016892,233.989,220.006,225.504,217.072,214.697,213.241,-0.0,-0.0,213.078,216.652
2013-12-19 03:00,-0.0,218.393,207.704,220.517,206.833,206.128,207.197,-0.0,-0.0,207.105,208.371
2013-12-19 04:00,-0.0,247.601,244.815,237.258,244.349,241.251,233.026,-0.0,-0.0,225.643,237.468
2013-12-19 05:00,-0.0,253.81,242.824,236.625,241.107,237.581,229.781,-0.0,-0.0,223.013,232.988
2013-12-19 06:00,-0.00200941,281.526,273.997,254.572,272.741,266.667,247.006,-0.0,-0.0,228.835,243.818
2013-12-19 07:00,0.00278888,280.239,271.574,252.777,270.006,263.063,244.372,-0.0,0.00281554,227.87,242.23
2013-12-19 08:00,-0.0,279.473,271.574,252.656,271.785,266.16,246.182,-0.0,-0.0,228.488,243.457
2013-12-19 09:00,5.75592,276.376,262.616,247.332,260.524,253.896,237.827,5.14428,7.42509,224.661,237.888
2013-12-19 10:00,0.502246,283.924,270.746,251.922,270.332,265.65,246.732,0.41683,0.607453,228.312,243.093
2013-12-19 11:00,0.519526,292.534,267.909,250.806,268.69,265.82,250.104,0.431257,0.563058,230.916,246.483
2013-12-19 12:00,0.283293,285.665,269.059,250.555,266.847,261.654,244.372,0.191891,0.364651,225.156,239.255
2013-12-19 13:00,0.325899,284.41,256.469,243.368,254.657,249.753,238.727,0.279537,0.391956,223.746,236.179
2013-12-19 14:00,0.261811,283.428,257.339,244.488,252.059,246.246,233.976,0.225877,0.343232,219.863,230.863
2013-12-19 15:00,0.239947,283.594,259.206,245.314,254.461,249.55,235.846,0.215984,0.321028,221.596,233.928
2013-12-19 16:00,0.294204,273.831,232.839,231.625,228.001,222.169,217.25,0.305224,0.416763,215.873,220.989
2013-12-19 17:00,0.30243,286.569,259.206,245.995,256.213,251.156,237.222,0.287422,0.395048,223.224,237.888
2013-12-19 18:00,0.343912,271.798,240.277,235.01,238.693,234.706,227.94,0.607339,0.681645,221.484,232.022
2013-12-19 19:00,0.500469,286.864,266.145,249.669,267.69,265.82,250.501,0.707228,0.802772,235.799,251.751
2013-12-19 20:00,0.327723,266.466,241.913,235.662,237.702,237.815,233.344,0.449858,0.49879,219.982,227.323
2013-12-19 21:00,1.29265,274.073,211.654,221.814,211.028,210.219,211.57,1.36212,1.64793,211.47,211.295
2013-12-19 22:00,1.35498,262.074,258.195,244.488,259.421,258.224,246.594,1.0265,1.58392,235.386,248.562
2013-12-19 23:00,-0.0,258.096,257.683,244.765,259.051,258.774,248.499,-0.0,-0.0,233.085,247.371
2013-12-20 00:00,-0.00285844,264.377,260.201,245.451,262.15,259.502,246.319,-0.0,-0.0,230.43,247.699
2013-12-20 01:00,0.00203689,253.206,249.978,240.171,251.036,248.532,237.977,-0.0,-0.0,226.405,240.964
2013-12-20 02:00,-0.0,253.206,246.102,238.04,245.471,243.679,235.691,-0.0,-0.0,224.46,235.444
2013-12-20 03:00,-0.0,266.131,257.683,244.21,257.928,254.855,241.374,-0.0,-0.0,229.601,243.214
2013-12-20 04:00,-0.00154867,257.103,248.784,238.503,248.307,244.973,234.447,-0.0,-0.0,227.055,239.255
2013-12-20 05:00,0.00167769,257.103,250.566,240.171,250.83,248.532,238.428,-0.0,-0.0,227.78,240.576
2013-12-20 06:00,-0.0,257.605,254.328,242.942,256.406,254.472,244.932,-0.0,-0.0,235.455,246.929
2013-12-20 07:00,-0.00278016,267.123,265.696,249.669,267.522,266.16,251.814,-0.0,-0.0,235.867,250.238
2013-12-20 08:00,-0.0,265.095,264.788,249.158,267.69,266.16,252.075,-0.0,-0.0,235.386,249.617
2013-12-20 09:00,4.10791,273.831,268.63,251.18,269.515,266.16,251.291,5.96257,5.92455,235.525,248.882
2013-12-20 10:00,0.615992,276.155,260.036,246.13,262.329,261.299,248.903,0.631808,0.712887,236.609,249.825
2013-12-20 11:00,0.697575,291.686,256.469,243.93,258.491,257.856,247.006,0.681503,0.776474,237.137,249.198
2013-12-20 12:00,0.480767,291.19,261.982,246.801,264.27,263.586,249.838,0.479164,0.565958,237.657,251.152
2013-12-20 13:00,0.415647,298.339,270.329,252.168,271.945,269.657,253.497,0.333911,0.43251,238.919,252.537
2013-12-20 14:00,0.372457,296.531,270.468,252.168,272.741,271.121,254.773,0.28067,0.371004,239.714,253.213
2013-12-20 15:00,0.393734,281.883,266.59,249.286,269.515,269.165,254.009,0.383676,0.4563,239.834,253.595
2013-12-20 16:00,0.410335,285.202,266.293,249.924,269.021,268.835,254.646,0.427152,0.505793,240.607,253.88
2013-12-20 17:00,0.307098,293.356,268.916,251.18,270.657,268.67,253.881,0.23078,0.334936,240.724,253.69
2013-12-20 18:00,0.176608,297.947,291.07,264.031,291.948,287.329,261.421,0.0807005,0.226407,241.419,256.091
2013-12-20 19:00,0.179195,296.943,291.591,264.543,292.73,288.861,263.083,0.103113,0.235356,239.41,257.246
2013-12-20 20:00,0.185505,295.902,290.86,264.133,292.209,288.999,262.847,0.152879,0.257196,244.374,259.471
2013-12-20 21:00,0.0842768,292.053,289.699,263.721,291.292,288.306,262.847,0.174428,0.174892,243.472,258.114
2013-12-20 22:00,0.448029,280.613,268.916,250.177,267.69,262.888,245.072,0.596114,0.775391,228.136,243.457
2013-12-20 23:00,-0.0,222.276,220.379,225.504,219.847,218.857,218.025,-0.0,-0.0,216.83,218.41
2013-12-21 00:00,-0.00286889,258.576,255.587,244.07,255.049,251.75,240.5,-0.0,-0.0,230.348,243.818
2013-12-21 01:00,-0.0,277.869,275.436,255.277,277.528,274.617,256.909,-0.0,-0.0,235.731,252.634
2013-12-21 02:00,-0.00169296,285.97,283.956,259.902,286.31,284.061,260.461,-0.0,-0.0,233.896,252.634
2013-12-21 03:00,-0.00155312,286.421,285.433,260.553,287.951,285.635,261.062,-0.0,-0.0,234.615,252.634
2013-12-21 04:00,-0.00154825,286.569,285.77,260.661,288.222,285.919,262.136,-0.0,-0.0,237.913,254.814
2013-12-21 05:00,-0.0,273.338,275.306,254.926,277.978,277.243,258.515,-0.0,-0.0,239.043,254.722
2013-12-21 06:00,-0.0,274.073,276.336,255.51,279.907,278.911,259.127,-0.0,-0.0,240.014,255.183
2013-12-21 07:00,-0.0,286.271,285.658,260.337,287.815,285.493,260.942,-0.0,-0.0,240.607,255.275
2013-12-21 08:00,-0.0,286.421,285.994,260.661,288.222,286.343,262.017,-0.0,0.00530068,241.073,256.36
2013-12-21 09:00,21.0893,286.271,285.77,260.445,287.951,286.202,262.017,42.8551,46.84,241.76,256.36
2013-12-21 10:00,0.297642,288.43,286.55,260.876,288.763,286.343,261.898,0.222113,0.417627,241.015,256.001
2013-12-21 11:00,0.299985,291.686,288.087,261.731,289.835,287.329,262.255,0.145451,0.390861,240.074,254.907
2013-12-21 12:00,0.27197,294.156,289.593,262.261,290.897,288.306,262.255,0.118901,0.34097,241.93,255.457
2013-12-21 13:00,0.245704,296.531,290.335,262.681,291.686,288.584,262.373,0.105823,0.299671,242.378,255.821
2013-12-21 14:00,0.263357,298.822,289.486,262.471,291.292,288.445,262.728,0.143046,0.28594,242.042,255.366
2013-12-21 15:00,0.22368,299.203,290.545,262.786,292.209,288.584,262.373,0.107518,0.248165,241.704,255.366
2013-12-21 16:00,0.176621,298.726,291.902,264.133,293.377,289.276,262.492,0.0688693,0.213502,241.246,254.814
2013-12-21 17:00,0.129386,287.3,278.101,255.858,277.528,274.773,254.9,0.122071,0.20402,235.317,247.04
2013-12-21 18:00,0.352697,260.827,235.011,231.799,235.414,234.706,231.419,0.609105,0.719201,228.662,231.031
2013-12-21 19:00,0.390548,280.05,264.175,247.597,264.618,262.185,248.229,0.382115,0.54849,238.546,247.371
2013-12-21 20:00,0.187282,294.602,288.843,262.471,289.701,286.626,260.581,0.160658,0.278633,235.386,251.352
2013-12-21 21:00,0.264907,293.356,288.52,262.155,289.968,286.767,261.66,0.306932,0.361278,245.405,256.181
2013-12-21 22:00,0.116345,272.836,271.299,252.534,272.423,271.121,254.773,0.492545,0.528557,242.929,253.213
2013-12-21 23:00,-0.0,254.396,255.23,242.513,255.633,255.235,245.211,-0.0,-0.0,236.94,246.258
2013-12-22 00:00,0.00287899,261.251,262.3,246.801,265.31,264.967,251.028,-0.0,-0.0,242.929,253.405
2013-12-22 01:00,0.00204481,277.24,274.261,253.98,274.778,271.444,253.753,-0.0,-0.0,236.341,250.442
2013-12-22 02:00,-0.0,253.206,242.824,235.662,241.344,239.895,233.344,-0.0,-0.0,226.685,233.146
2013-12-22 03:00,-0.00155351,240.898,240.984,235.01,241.344,240.802,235.227,-0.0,-0.0,230.018,236.9
2013-12-22 04:00,-0.0,247.601,248.985,239.57,249.789,249.144,241.953,-0.0,-0.0,230.674,241.602
2013-12-22 05:00,-0.0,240.898,240.277,234.845,240.392,240.123,234.604,-0.0,-0.0,229.348,236.179
2013-12-22 06:00,-0.0,244.063,243.049,235.985,243.209,242.805,236.613,-0.0,-0.0,229.935,237.748
2013-12-22 07:00,-0.0,251.944,249.978,239.57,251.036,250.357,241.229,-0.0,-0.0,231.787,243.093
2013-12-22 08:00,-0.0,282.234,276.845,254.69,277.377,274.46,253.881,-0.0,-0.0,233.308,247.151
2013-12-22 09:00,-2.35768,284.57,281.386,257.346,283.23,279.81,256.285,-5.32332,-5.55384,232.935,248.987
2013-12-22 10:00,0.228731,288.152,285.433,260.011,287.407,284.349,259.614,0.193667,0.359206,233.968,250.748
2013-12-22 11:00,0.265014,287.587,281.267,257.233,280.785,277.396,255.532,0.174281,0.374046,232.784,248.133
2013-12-22 12:00,0.398986,254.396,229.373,229.301,229.444,228.59,226.402,0.598727,0.708497,226.216,227.694
2013-12-22 13:00,0.216136,284.41,271.984,251.922,271.303,267.84,249.305,0.146883,0.30577,232.709,245.804
2013-12-22 14:00,0.223737,287.3,274.785,253.501,274.0,270.635,252.075,0.143131,0.301167,233.603,245.918
2013-12-22 15:00,0.220205,275.02,254.871,241.936,255.439,251.552,238.727,0.256488,0.36934,228.921,239.523
2013-12-22 16:00,0.247409,287.444,271.574,251.676,271.945,268.67,249.438,0.281274,0.36352,230.348,248.562
2013-12-22 17:00,0.267164,262.074,242.597,235.337,242.515,241.251,233.661,0.630671,0.683618,226.778,235.887
2013-12-22 18:00,0.394109,261.666,217.285,223.694,216.715,216.972,217.445,0.817662,0.908625,215.734,215.867
2013-12-22 19:00,0.426032,266.131,233.938,231.799,233.842,233.225,229.781,0.803557,0.886435,226.499,230.354
2013-12-22 20:00,0.645732,272.061,229.673,229.665,229.729,229.385,227.089,0.841938,0.966703,225.058,227.509
2013-12-22 21:00,0.816684,286.864,265.995,248.121,265.482,261.831,246.044,0.695392,0.889706,232.481,245.46
2013-12-22 22:00,6.57056,263.255,229.072,229.665,230.012,228.324,225.185,3.61839,6.6873,224.359,228.06
2013-12-22 23:00,-0.0,262.869,258.871,244.626,259.421,257.856,246.457,-0.0,-0.0,234.827,245.575
2013-12-23 00:00,-0.0,256.062,251.721,240.766,252.667,250.957,241.953,-0.0,-0.0,231.943,242.478
2013-12-23 01:00,-0.0,247.601,246.102,237.415,247.878,247.085,238.876,-0.0,-0.0,230.835,241.093
2013-12-23 02:00,-0.00169598,249.156,247.769,238.963,248.946,247.915,240.793,-0.0,-0.0,230.348,240.706
2013-12-23 03:00,-0.0,257.103,257.854,243.93,259.236,258.408,247.959,-0.0,-0.0,230.755,246.145
2013-12-23 04:00,-0.0,249.89,251.721,240.32,253.469,253.51,243.241,-0.0,-0.0,231.156,243.818
2013-12-23 05:00,0.00167239,270.434,267.764,250.051,270.332,268.505,253.368,-0.0,-0.0,231.709,249.093
2013-12-23 06:00,-0.0,280.239,276.208,254.808,278.576,275.396,256.16,-0.0,-0.0,231.552,249.093
2013-12-23 07:00,0.00275166,263.255,263.712,247.991,267.185,266.835,252.464,-0.0,-0.0,229.517,247.371
2013-12-23 08:00,-0.0,262.074,263.245,247.465,266.508,266.16,251.944,-0.0,-0.0,230.101,247.699
2013-12-23 09:00,-1.06257,271.798,269.908,251.056,272.582,270.96,254.264,-2.69902,-2.14545,229.263,247.699
2013-12-23 10:00,0.251002,283.093,275.823,254.217,277.528,274.304,253.881,0.286255,0.336145,229.348,246.371
2013-12-23 11:00,0.549997,293.124,273.333,253.261,276.163,274.773,255.28,0.456936,0.557861,229.601,248.133
2013-12-23 12:00,0.365896,296.427,278.101,255.16,279.907,276.169,255.784,0.241798,0.398224,229.263,247.808
2013-12-23 13:00,0.243445,294.933,283.841,259.134,283.514,277.853,255.406,0.120541,0.324822,229.178,246.032
2013-12-23 14:00,0.217651,260.827,245.032,236.784,244.8,243.243,235.691,0.342243,0.441975,228.136,237.185
2013-12-23 15:00,0.205077,269.283,253.779,241.646,252.059,250.757,241.229,0.31472,0.397607,227.147,236.614
2013-12-23 16:00,0.298404,264.739,226.902,228.192,228.001,226.701,225.535,0.731431,0.820543,223.434,225.604
2013-12-23 17:00,0.244791,258.096,242.597,235.823,242.978,241.921,236.0,0.60721,0.685509,228.4,236.9
2013-12-23 18:00,0.400517,263.255,227.533,228.564,227.414,226.974,224.657,0.799937,0.89745,223.224,225.21
2013-12-23 19:00,0.504565,270.434,249.781,239.721,250.415,249.348,241.229,0.870522,0.997843,229.348,241.475
2013-12-23 20:00,0.415898,290.301,271.984,252.168,272.264,269.329,251.028,0.408069,0.506319,230.101,246.818
2013-12-23 21:00,1.18207,300.947,272.12,252.412,273.057,269.657,252.205,0.993098,1.2165,230.593,247.151
2013-12-23 22:00,0.197907,266.131,262.616,247.067,265.138,264.451,250.896,0.46081,0.449547,231.63,248.241
2013-12-23 23:00,-0.0,247.601,246.523,237.728,247.012,246.876,240.207,-0.0,-0.0,228.136,236.614
2013-12-24 00:00,-0.0,255.521,253.04,241.354,253.269,252.536,243.383,-0.0,-0.0,229.685,241.98
2013-12-24 01:00,-0.0,258.096,253.411,241.5,254.066,252.732,242.814,-0.0,-0.0,228.312,240.706
2013-12-24 02:00,-0.00169721,276.811,272.527,252.534,273.529,270.635,252.335,-0.0,0.00171344,229.517,245.918
2013-12-24 03:00,-0.0,273.586,265.696,248.382,265.826,263.063,247.142,-0.0,-0.0,228.748,242.848
2013-12-24 04:00,-0.0,237.078,234.208,231.799,234.371,233.722,229.946,-0.0,-0.0,225.156,229.838
2013-12-24 05:00,-0.0,253.81,244.815,237.101,244.122,241.921,235.537,-0.0,-0.0,226.592,236.179
2013-12-24 06:00,-0.0,251.944,241.451,235.499,239.669,237.109,231.257,-0.0,-0.0,224.959,232.185
2013-12-24 07:00,-0.0,253.81,248.583,238.503,247.446,246.035,237.525,-0.0,-0.0,226.592,237.888
2013-12-24 08:00,-0.00513124,245.913,243.94,236.625,244.122,243.024,237.676,-0.0,-0.0,227.238,237.043
2013-12-24 09:00,-1.5857,258.576,250.175,239.419,249.579,247.293,239.025,-2.30162,-2.97303,226.871,239.121
2013-12-24 10:00,0.29432,245.01,239.559,233.681,240.152,239.438,233.661,0.633931,0.740228,228.312,235.444
2013-12-24 11:00,0.285071,286.717,278.226,255.277,278.725,274.929,253.497,0.199678,0.426462,230.43,247.04
2013-12-24 12:00,0.355929,292.414,275.565,254.454,276.772,273.99,255.28,0.278649,0.40628,231.943,248.562
2013-12-24 13:00,0.458975,287.444,260.692,245.587,262.863,262.361,249.037,0.488784,0.55402,231.63,247.808
2013-12-24 14:00,0.347206,269.865,245.89,237.884,246.355,244.973,237.07,0.433066,0.498776,225.254,235.146
2013-12-24 15:00,0.291331,280.613,267.18,250.051,269.35,268.339,253.625,0.286136,0.369409,229.769,247.917
2013-12-24 16:00,0.278561,286.717,274.916,253.86,276.163,273.99,254.519,0.296787,0.384339,229.517,247.59
2013-12-24 17:00,0.234747,281.526,270.468,251.552,271.142,269.329,252.464,0.263279,0.326329,228.662,245.575
2013-12-24 18:00,0.196488,289.647,277.601,255.858,278.278,275.085,255.153,0.2289,0.319355,229.348,247.151
2013-12-24 19:00,0.227587,292.053,281.267,258.246,281.221,277.853,256.66,0.16934,0.283722,228.4,246.145
2013-12-24 20:00,0.738671,277.661,227.845,229.665,226.522,225.318,222.147,0.749279,0.950009,220.686,223.793
2013-12-24 21:00,0.72351,290.171,267.473,249.669,267.016,261.654,243.383,0.64727,0.854461,227.78,242.848
2013-12-24 22:00,0.507754,274.073,261.982,246.934,259.791,255.803,240.646,0.586247,0.745612,224.661,237.608
2013-12-24 23:00,-0.0,287.444,284.642,260.445,285.757,282.758,259.492,-0.0,-0.0,231.394,250.135
2013-12-25 00:00,-0.00290695,281.705,276.591,255.858,277.075,273.832,253.881,-0.0,-0.0,229.263,246.371
2013-12-25 01:00,-0.0,270.151,264.175,247.859,264.965,262.888,246.594,-0.0,-0.0,229.263,245.345
2013-12-25 02:00,-0.0,280.982,277.476,255.858,278.873,275.706,255.28,-0.0,-0.0,230.916,249.408
2013-12-25 03:00,0.00155369,275.251,271.848,253.02,274.467,271.765,254.392,-0.0,-0.0,231.394,250.032
2013-12-25 04:00,-0.0,275.02,273.997,254.454,276.923,274.773,256.035,-0.0,0.0015597,230.674,249.617
2013-12-25 05:00,-0.0,270.151,270.329,252.29,273.215,271.926,255.406,-0.0,-0.0,232.097,249.928
2013-12-25 06:00,-0.0,273.338,272.527,253.98,274.623,272.565,255.027,-0.0,-0.0,232.784,249.198
2013-12-25 07:00,-0.0,285.045,281.978,259.244,283.23,279.959,257.653,-0.0,-0.0,232.02,249.825
2013-12-25 08:00,-0.0,284.249,280.429,258.022,281.799,278.156,255.406,-0.0,-0.0,231.076,248.775
2013-12-25 09:00,-1.32352,271.531,260.528,245.587,259.974,255.992,240.207,-1.2607,-1.50319,225.835,240.053
2013-12-25 10:00,0.270713,285.665,279.091,256.664,280.054,276.477,254.9,0.229212,0.37316,230.266,247.917
2013-12-25 11:00,0.405785,290.939,275.436,254.572,274.467,267.673,248.903,0.259886,0.488446,227.959,244.294
2013-12-25 12:00,0.292158,276.594,258.534,244.21,256.98,252.927,238.128,0.300486,0.41076,225.449,237.468
2013-12-25 13:00,0.308262,276.594,258.365,244.07,258.491,255.425,241.808,0.337131,0.422149,226.871,239.656
2013-12-25 14:00,0.163124,293.124,285.095,260.445,286.447,282.175,258.515,0.101215,0.221254,229.517,248.669
2013-12-25 15:00,0.243576,283.261,264.021,247.597,263.217,258.04,241.664,0.243732,0.331794,225.739,239.922
2013-12-25 16:00,0.313264,275.02,239.559,235.01,236.695,231.203,224.304,0.342847,0.425192,217.491,226.57
2013-12-25 17:00,0.234546,293.124,279.213,257.12,279.318,276.015,255.153,0.180914,0.280179,228.048,246.595
2013-12-25 18:00,0.283876,291.065,275.436,255.393,276.01,272.246,251.683,0.263922,0.33295,226.871,245.46
2013-12-25 19:00,0.381926,281.705,255.764,243.79,254.461,250.357,236.307,0.415145,0.496735,222.15,235.887
2013-12-25 20:00,0.502896,286.864,266.738,249.797,267.185,263.933,247.823,0.499854,0.640148,227.329,243.336
2013-12-25 21:00,0.257649,292.771,287.76,263.099,288.493,285.065,260.219,0.221978,0.342252,230.835,251.352
2013-12-25 22:00,0.476684,289.91,287.102,262.261,288.897,285.208,261.66,0.660448,0.699986,233.01,252.047
2013-12-25 23:00,-0.0,288.568,286.439,261.838,287.951,284.779,260.701,-0.0,-0.0,233.677,252.244
2013-12-26 00:00,-0.0,278.883,273.199,254.099,274.156,270.96,252.205,-0.0,-0.0,230.43,248.133
2013-12-26 01:00,-0.0,285.818,281.029,259.024,281.366,277.548,255.658,-0.0,-0.0,229.517,247.699
2013-12-26 02:00,-0.0,273.338,263.556,248.252,262.329,259.139,243.099,-0.0,0.00171535,225.835,240.316
2013-12-26 03:00,-0.0,225.382,227.845,229.484,228.001,227.246,224.126,-0.0,-0.0,221.484,225.799
2013-12-26 04:00,-0.0015437,282.059,275.565,255.858,275.703,271.765,251.814,-0.0,-0.0,227.959,245.345
2013-12-26 05:00,-0.0,285.045,280.789,258.802,281.799,278.156,256.035,-0.0,-0.0,228.835,247.808
2013-12-26 06:00,-0.0,279.473,272.12,254.336,270.981,266.329,247.279,-0.0,-0.0,225.546,241.854
2013-12-26 07:00,-0.0,284.57,281.742,259.024,282.374,279.511,257.282,-0.0,0.00274599,229.685,248.241
2013-12-26 08:00,-0.0,268.382,256.992,244.626,255.244,252.144,239.765,-0.0,-0.0,225.931,237.043
2013-12-26 09:00,-1.8153,278.883,269.626,251.922,269.021,265.65,247.823,-1.75659,-2.74898,226.592,241.093
2013-12-26 10:00,0.231,284.57,278.101,257.233,278.873,275.551,253.368,0.204478,0.355113,228.4,245.114
2013-12-26 11:00,0.284602,291.44,287.322,262.89,288.628,285.208,259.977,0.132645,0.38749,229.935,248.025
2013-12-26 12:00,0.285601,295.902,290.335,264.543,291.423,287.188,260.822,0.106461,0.359053,229.935,248.775
2013-12-26 13:00,0.251488,298.045,291.383,265.254,292.34,287.748,261.182,0.0846898,0.307267,230.101,249.303
2013-12-26 14:00,0.208078,298.918,291.694,265.254,292.47,287.748,261.421,0.0675179,0.256609,230.835,249.408
2013-12-26 15:00,0.185322,299.579,292.005,265.859,292.6,287.469,260.701,0.0582251,0.225924,231.315,249.825
2013-12-26 16:00,0.173971,299.858,291.798,265.859,292.34,287.469,261.54,0.0569564,0.208419,231.315,249.721
2013-12-26 17:00,0.161957,299.485,292.52,266.159,293.119,288.306,261.301,0.0519427,0.201904,231.865,249.825
2013-12-26 18:00,0.219556,298.63,289.911,264.747,291.029,286.907,260.701,0.117657,0.255324,231.552,250.238
2013-12-26 19:00,0.243771,297.349,289.058,264.133,290.5,286.907,261.182,0.162795,0.301561,232.328,251.152
2013-12-26 20:00,0.239703,296.635,290.017,264.747,291.16,287.329,261.54,0.155805,0.30066,232.175,251.652
2013-12-26 21:00,0.247004,295.042,290.123,264.747,291.292,287.609,262.136,0.212941,0.312841,232.097,251.652
2013-12-26 22:00,0.245433,291.686,289.379,264.236,291.423,288.306,262.61,0.658058,0.660745,233.456,252.537
2013-12-26 23:00,-0.0,290.301,288.843,264.339,291.16,288.584,263.083,-0.0,-0.0,233.382,252.439
2013-12-27 00:00,-0.0,289.514,288.52,263.825,291.423,288.861,263.787,-0.0,-0.0,234.686,252.925
2013-12-27 01:00,-0.00206034,288.977,288.087,263.307,290.897,288.861,263.083,-0.0,-0.0,235.386,253.595
2013-12-27 02:00,-0.0,288.291,287.869,263.203,290.367,288.306,262.373,-0.0,-0.0,235.936,253.974
2013-12-27 03:00,-0.0,287.871,287.322,262.681,289.968,288.167,262.847,-0.0,-0.0,235.731,253.785
2013-12-27 04:00,-0.0015423,287.444,286.992,262.89,289.568,287.469,262.492,-0.0,0.00155705,236.808,253.974
2013-12-27 05:00,0.0016628,287.155,286.55,262.261,289.434,287.188,262.373,-0.0,-0.0,236.609,253.69
2013-12-27 06:00,-0.0,287.01,286.217,262.049,288.897,286.767,261.898,-0.0,-0.0,236.475,253.117
2013-12-27 07:00,-0.0,286.569,285.994,261.519,288.628,286.343,261.898,-0.0,-0.0,236.675,253.405
2013-12-27 08:00,0.00500654,285.97,285.882,261.519,288.358,285.919,261.301,-0.0,-0.0,237.072,254.162
2013-12-27 09:00,-0.318595,285.818,285.882,261.412,288.222,286.202,261.421,-0.899178,-0.964921,237.203,254.349
2013-12-27 10:00,0.333619,288.841,287.102,262.366,289.166,286.202,261.54,0.188316,0.465116,236.408,253.88
2013-12-27 11:00,0.325013,293.124,289.165,263.411,290.632,287.329,261.779,0.137594,0.415443,236.071,253.309
2013-12-27 12:00,0.291622,297.146,291.279,264.95,292.47,288.306,261.66,0.108216,0.361652,235.455,253.69
2013-12-27 13:00,0.244649,298.822,292.108,265.355,292.86,288.584,261.898,0.0872186,0.298985,235.386,253.5
2013-12-27 14:00,0.213193,300.134,292.725,266.159,293.377,288.584,262.017,0.0707261,0.254249,235.525,253.785
2013-12-27 15:00,0.196997,300.042,291.798,265.456,292.47,287.748,261.421,0.0779702,0.230654,235.178,253.69
2013-12-27 16:00,0.0,300.679,292.005,265.859,292.989,288.861,262.728,0.0706784,0.220047,235.936,254.907
2013-12-27 17:00,0.177757,300.769,293.031,266.059,293.635,289.137,262.847,0.0674686,0.212873,235.799,255.275
2013-12-27 18:00,0.170683,299.858,292.827,265.959,293.764,289.276,262.373,0.0704963,0.215744,235.799,255.183
2013-12-27 19:00,0.185012,298.726,292.314,265.658,293.377,289.137,262.255,0.0928291,0.240393,237.785,256.001
2013-12-27 20:00,0.265456,299.485,290.545,264.543,291.686,287.748,261.898,0.190025,0.331337,240.782,257.682
2013-12-27 21:00,0.200829,295.26,291.591,265.456,293.119,289.551,263.553,0.196493,0.297366,240.607,258.028
2013-12-27 22:00,2.79349,282.234,276.08,255.974,277.678,276.015,257.653,1.74108,2.9377,241.874,256.982
2013-12-27 23:00,-0.0,290.558,288.412,263.515,289.968,286.767,262.492,-0.0,-0.0,239.593,256.982
2013-12-28 00:00,-0.0,281.346,273.199,253.621,271.303,267.171,247.823,-0.0,-0.0,229.601,244.53
2013-12-28 01:00,-0.00206267,288.977,287.212,262.576,288.628,285.493,260.34,-0.0,0.00208239,238.231,256.091
2013-12-28 02:00,-0.00170024,287.729,285.433,261.519,285.061,279.061,256.785,-0.0,-0.0,237.203,254.256
2013-12-28 03:00,-0.0,286.121,281.742,259.354,281.076,276.169,254.137,-0.0,-0.0,233.456,250.849
2013-12-28 04:00,-0.0,282.408,275.436,255.393,274.778,270.473,249.838,-0.0,-0.0,230.348,246.929
2013-12-28 05:00,-0.0,286.421,283.495,259.793,284.781,281.293,257.406,-0.0,-0.0,233.382,252.537
2013-12-28 06:00,0.00197044,282.753,278.226,257.12,278.873,274.929,252.982,-0.0,-0.0,232.633,250.646
2013-12-28 07:00,0.00269733,278.279,269.201,251.552,267.69,261.477,243.241,-0.0,-0.0,228.488,243.698
2013-12-28 08:00,-0.0,280.239,272.662,254.217,271.303,265.138,245.35,-0.0,-0.0,229.007,245.114
2013-12-28 09:00,-0.717128,273.338,264.94,249.924,263.393,257.671,240.354,-0.834887,-1.08597,226.778,242.23
2013-12-28 10:00,0.475492,285.818,273.199,254.336,272.582,266.667,246.182,0.425216,0.566336,228.488,246.371
2013-12-28 11:00,0.402593,290.301,275.046,255.51,274.156,267.673,247.551,0.338647,0.462228,228.4,247.151
2013-12-28 12:00,0.413138,285.97,255.941,244.903,252.059,246.457,233.185,0.348276,0.482655,221.708,236.033
2013-12-28 13:00,0.371018,281.705,250.76,241.5,247.878,241.475,229.283,0.400256,0.483029,219.137,232.022
2013-12-28 14:00,0.328095,282.408,250.566,241.061,247.878,242.143,229.615,0.39293,0.477326,220.101,231.859
2013-12-28 15:00,0.282118,255.521,197.389,216.869,197.056,196.831,201.016,0.681073,0.744992,198.732,197.08
2013-12-28 16:00,0.290898,258.576,204.988,218.502,202.701,201.694,203.708,0.799748,0.869336,205.015,203.929
2013-12-28 17:00,0.349093,265.446,204.988,218.957,203.652,202.113,204.893,0.793391,0.879222,205.233,204.721
2013-12-28 18:00,0.410188,268.073,206.643,219.632,205.497,204.159,206.97,0.774397,0.865991,204.795,205.868
2013-12-28 19:00,0.545336,273.088,211.184,222.027,208.977,207.274,209.42,0.851097,0.968206,209.569,210.032
2013-12-28 20:00,0.731252,276.594,213.479,223.076,211.825,211.635,213.241,0.865588,1.0078,211.135,212.505
2013-12-28 21:00,1.05572,279.473,216.058,223.694,213.763,213.016,212.619,0.980262,1.19568,213.078,214.787
2013-12-28 22:00,0.628282,243.066,211.654,221.6,208.977,208.026,209.42,0.594549,0.820843,208.652,209.379
2013-12-28 23:00,-0.0,227.984,214.79,222.868,212.997,211.635,212.827,-0.0,-0.0,211.8,213.382
2013-12-29 00:00,-0.0,222.276,219.628,225.107,217.427,215.356,214.468,-0.0,-0.0,214.879,218.165
2013-12-29 01:00,-0.0,243.066,232.56,231.625,230.012,227.246,223.413,-0.0,-0.0,219.503,226.379
2013-12-29 02:00,-0.0,259.505,252.853,242.225,251.447,248.327,238.128,-0.0,-0.0,226.405,239.39
2013-12-29 03:00,-0.0,282.923,276.463,256.32,276.62,271.283,250.633,-0.0,-0.0,227.329,244.53
2013-12-29 04:00,-0.0,277.026,270.329,252.534,270.169,265.99,248.094,-0.0,-0.0,227.147,244.175
2013-12-29 05:00,-0.00165698,259.954,250.954,241.646,249.157,244.112,235.227,-0.0,-0.0,222.799,235.295
2013-12-29 06:00,-0.00196504,256.062,247.769,239.267,247.012,243.679,234.76,-0.0,-0.0,223.329,236.325
2013-12-29 07:00,-0.00268558,268.382,256.118,243.93,254.263,247.293,234.76,-0.0,-0.0,222.04,236.614
2013-12-29 08:00,-0.0,272.58,258.025,244.488,255.439,249.348,234.604,-0.0,-0.0,220.219,234.082
2013-12-29 09:00,-0.618779,252.585,239.317,234.35,237.2,233.722,226.918,-0.654899,-0.858955,218.137,228.96
2013-12-29 10:00,0.436692,254.966,230.265,229.301,227.414,225.597,222.692,0.556901,0.70212,218.137,223.377
2013-12-29 11:00,0.322297,271.798,246.313,237.728,244.122,239.208,229.283,0.366833,0.504069,221.031,231.364
2013-12-29 12:00,0.287489,272.58,248.177,238.503,245.024,240.576,230.604,0.292406,0.428967,219.982,230.524
2013-12-29 13:00,0.291167,261.666,232.839,230.743,230.294,227.517,221.415,0.363117,0.461923,217.229,223.586
2013-12-29 14:00,0.263388,265.095,239.317,234.183,237.702,234.95,228.278,0.306506,0.407049,221.93,229.489
2013-12-29 15:00,0.284479,285.357,268.199,250.177,269.021,265.138,247.551,0.35143,0.427267,228.921,244.881
2013-12-29 16:00,0.193476,291.931,281.742,258.246,281.799,277.701,256.285,0.144197,0.269011,229.685,247.151
2013-12-29 17:00,0.128507,279.278,274.129,253.98,274.312,272.724,255.027,0.234194,0.282947,230.018,247.917
2013-12-29 18:00,0.0359813,289.91,284.642,260.553,285.34,280.998,257.777,0.0539002,0.0977988,232.709,249.928
2013-12-29 19:00,0.167191,275.251,259.373,245.723,257.55,254.281,243.241,0.236897,0.29452,227.78,239.789
2013-12-29 20:00,0.793687,276.155,208.734,219.855,207.269,206.128,208.982,0.978582,1.14018,207.502,206.606
2013-12-29 21:00,1.31852,281.526,212.578,222.449,211.428,209.859,210.932,1.29188,1.58934,212.922,213.092
2013-12-29 22:00,0.3534,222.276,206.1,218.73,204.584,204.955,207.423,0.418913,0.463812,204.573,203.113
2013-12-29 23:00,-0.0,222.276,217.285,223.899,216.355,214.697,215.274,-0.0,-0.0,212.765,214.233
2013-12-30 00:00,-0.0,227.984,218.862,224.507,218.13,217.29,215.074,-0.0,-0.0,215.593,217.164
2013-12-30 01:00,-0.0,239.711,233.392,231.274,232.502,230.429,226.918,-0.0,-0.0,223.224,229.314
2013-12-30 02:00,-0.0,249.156,243.94,237.101,242.978,240.802,233.661,-0.0,-0.0,225.156,235.74
2013-12-30 03:00,-0.0015507,259.045,252.29,241.791,250.83,248.121,238.577,-0.0,-0.0,225.352,239.39
2013-12-30 04:00,-0.00153718,259.505,256.469,243.93,256.406,253.896,242.384,-0.0,-0.0,227.329,242.971
2013-12-30 05:00,-0.0,268.382,263.712,248.9,264.27,260.045,246.319,-0.0,-0.0,228.136,244.294
2013-12-30 06:00,-0.0,267.761,264.175,248.9,264.965,262.537,247.959,-0.0,-0.0,228.748,244.998
2013-12-30 07:00,-0.00267359,259.045,255.764,243.93,256.98,255.235,242.956,-0.0,-0.0,226.685,241.98
2013-12-30 08:00,-0.0,262.869,257.854,245.177,259.051,256.18,244.09,-0.0,-0.0,226.311,242.105
2013-12-30 09:00,-0.271477,274.073,263.401,248.121,262.685,257.671,243.241,-0.344789,-0.411108,225.449,239.922
2013-12-30 10:00,0.647539,275.707,254.509,242.942,255.244,252.144,241.084,0.61738,0.730638,226.592,241.093
2013-12-30 11:00,0.490699,287.3,264.635,248.9,265.654,261.831,245.489,0.422211,0.543589,226.405,242.602
2013-12-30 12:00,0.545462,290.301,255.941,243.368,257.17,254.664,242.814,0.497132,0.579948,225.156,240.964
2013-12-30 13:00,0.446644,285.357,261.662,246.934,263.745,262.185,248.094,0.481532,0.543707,226.685,243.457
2013-12-30 14:00,0.26605,286.569,265.092,248.9,263.569,258.957,242.097,0.199882,0.326599,222.906,237.185
2013-12-30 15:00,0.230872,291.809,275.823,254.572,274.933,270.148,249.572,0.153026,0.28252,226.122,242.971
2013-12-30 16:00,0.272159,291.19,271.437,252.534,272.104,267.84,249.438,0.21867,0.325036,227.51,244.881
2013-12-30 17:00,0.316726,262.869,209.237,220.517,208.131,208.026,209.42,0.587077,0.679013,209.569,210.032
2013-12-30 18:00,0.398032,267.444,200.774,217.342,198.671,197.294,200.514,0.717323,0.805069,197.221,197.08
2013-12-30 19:00,0.609538,275.932,200.125,217.342,198.671,198.206,201.266,0.958668,1.08291,200.142,199.57
2013-12-30 20:00,0.831883,276.376,211.654,221.6,210.218,209.497,210.718,1.10916,1.27906,210.102,210.353
2013-12-30 21:00,1.0085,271.261,229.072,229.665,228.871,227.517,223.77,0.994972,1.21734,222.259,225.994
2013-12-30 22:00,1.11907,269.576,245.032,237.258,241.815,237.109,227.94,0.803949,1.19823,216.83,226.76
2013-12-30 23:00,-0.00610246,242.013,227.845,229.118,224.384,222.169,218.982,-0.0,-0.0,213.995,218.165
2013-12-31 00:00,-0.0,235.601,221.841,225.504,219.847,217.29,215.674,-0.0,-0.0,214.145,216.909
2013-12-31 01:00,-0.00206804,245.01,229.673,229.847,228.001,225.038,220.302,-0.0,-0.0,217.881,223.586
2013-12-31 02:00,-0.00170047,262.074,245.248,237.728,242.283,236.872,227.77,-0.0,-0.0,218.642,229.489
2013-12-31 03:00,-0.0,252.585,236.318,232.834,232.502,229.385,223.592,-0.0,-0.0,216.695,225.604
2013-12-31 04:00,-0.00153517,245.01,227.845,228.749,225.003,222.169,218.601,-0.0,-0.0,214.293,220.306
2013-12-31 05:00,-0.0,239.711,229.072,228.934,227.118,224.756,221.415,-0.0,-0.0,216.83,221.658
2013-12-31 06:00,0.00195368,253.206,241.682,235.337,239.911,237.109,229.615,-0.0,-0.0,222.906,231.364
2013-12-31 07:00,0.00266136,266.131,260.365,246.667,261.069,256.367,243.383,-0.0,-0.0,227.78,243.214
2013-12-31 08:00,-0.0,261.666,260.692,246.399,261.611,259.502,246.457,-0.0,-0.0,227.87,244.764
2013-12-31 09:00,-0.181041,282.923,277.852,255.974,278.427,274.929,255.28,-0.306574,-0.365543,228.835,247.261
2013-12-31 10:00,0.637232,284.57,274.392,254.336,277.075,275.24,255.909,0.567451,0.659962,229.852,248.455
2013-12-31 11:00,0.348888,291.44,279.58,257.572,280.493,276.169,255.784,0.272853,0.384488,228.835,247.481
2013-12-31 12:00,0.41411,293.472,273.865,254.099,275.242,272.724,253.625,0.33371,0.458409,227.147,246.258
2013-12-31 13:00,0.342245,294.823,274.655,254.572,274.778,270.635,251.553,0.248381,0.384714,229.007,246.032
2013-12-31 14:00,0.263716,296.427,282.799,259.464,283.23,279.211,256.785,0.162969,0.295258,230.184,248.025
2013-12-31 15:00,0.173755,289.514,279.091,257.006,279.907,276.169,255.658,0.206361,0.294323,230.511,247.917
2013-12-31 16:00,0.158607,269.283,261.34,246.13,261.611,260.942,248.499,0.490118,0.49907,231.63,247.04
2013-12-31 17:00,0.0623166,270.713,263.245,247.2,262.507,259.502,245.489,0.210019,0.251649,231.156,246.595
2013-12-31 18:00,0.317457,272.836,236.318,232.319,233.577,229.121,221.598,0.460449,0.564343,220.219,227.509
2013-12-31 19:00,0.502989,280.05,229.072,228.564,226.221,222.753,218.41,0.74529,0.890361,218.137,222.743
2013-12-31 20:00,0.74121,277.24,230.85,230.565,231.683,229.909,226.574,0.97265,1.16455,223.746,227.694
2013-12-31 21:00,0.806747,289.779,261.017,246.801,258.116,253.316,239.025,0.671994,0.840874,224.661,237.327
2013-12-31 22:00,0.946664,268.686,253.04,241.791,250.83,247.915,238.278,0.718621,1.02163,224.76,237.748
2013-12-31 23:00,0.00613754,247.601,237.841,233.513,235.414,232.474,225.709,-0.0,-0.0,220.337,229.838
