# timestamp,IR_016,IR_039,IR_087,IR_097,IR_108,IR_120,IR_134,VIS006,VIS008,WV_062,WV_073
2015-10-01 00:00,0.00205024,284.73,282.916,258.022,285.479,282.613,259.005,-0.0,-0.0,231.236,248.669
2015-10-01 01:00,-0.0,282.923,278.845,255.51,280.785,278.004,255.784,-0.0,-0.0,230.018,247.481
2015-10-01 02:00,-0.0,272.836,264.175,247.067,264.792,260.584,243.949,-0.0,-0.0,226.963,241.854
2015-10-01 03:00,-0.0,274.787,265.995,247.991,265.997,263.063,245.905,-0.0,-0.0,226.027,240.835
2015-10-01 04:00,-0.0,282.923,280.187,256.778,282.517,279.81,256.035,-0.0,-0.0,228.921,248.241
2015-10-01 05:00,-0.0,277.451,272.12,251.799,273.843,271.283,251.683,-0.0,-0.0,228.312,245.46
2015-10-01 06:00,-0.0,284.249,283.726,258.802,286.997,285.208,260.219,-0.0,-0.0,230.916,251.352
2015-10-01 07:00,-0.00220379,284.249,283.726,258.58,286.722,284.922,260.098,-0.0,-0.0,229.935,250.849
2015-10-01 08:00,-0.00368894,279.473,276.718,254.69,278.725,276.631,255.28,-0.0,-0.0,228.835,247.808
2015-10-01 09:00,0.014494,283.924,283.841,258.58,286.997,285.493,261.301,-0.012272,-0.0,230.43,252.047
2015-10-01 10:00,0.461355,285.818,283.726,258.358,286.585,284.349,260.098,0.317386,0.436655,231.552,252.342
2015-10-01 11:00,0.503092,291.563,284.642,258.913,286.585,283.049,257.53,0.233029,0.424247,229.348,249.825
2015-10-01 12:00,0.405829,296.635,288.843,261.519,290.367,286.626,259.856,0.175917,0.348938,230.43,250.748
2015-10-01 13:00,0.338952,301.826,293.742,264.339,295.803,291.057,262.136,0.133843,0.280812,233.896,253.405
2015-10-01 14:00,0.290652,304.239,295.442,265.456,297.184,292.141,262.255,0.115217,0.238746,233.53,253.785
2015-10-01 15:00,0.504177,288.977,261.822,246.265,265.31,265.48,252.335,0.514155,0.576695,233.01,252.047
2015-10-01 16:00,0.470184,291.065,261.982,246.533,265.138,264.795,252.464,0.444691,0.50624,232.405,251.452
2015-10-01 17:00,0.552296,292.534,261.822,246.265,265.31,264.967,251.944,0.572816,0.644825,231.552,251.452
2015-10-01 18:00,0.610868,295.042,260.528,245.314,262.685,262.185,249.572,0.531961,0.61511,230.755,249.825
2015-10-01 19:00,0.816828,302.341,261.662,246.667,263.569,261.121,248.229,0.723284,0.85821,230.593,248.775
2015-10-01 20:00,1.2929,309.249,266.738,249.286,268.024,263.933,249.171,1.08618,1.31878,229.348,248.775
2015-10-01 21:00,1.43866,281.883,262.931,247.067,263.92,261.831,248.364,1.14801,1.48376,228.312,246.818
2015-10-01 22:00,-0.00901642,282.059,276.336,254.572,277.226,273.517,254.137,-0.0,-0.0,229.433,248.987
2015-10-01 23:00,-0.0871332,286.864,283.38,258.58,285.895,282.613,259.005,-0.0655783,-0.0716762,230.835,251.85
2015-10-02 00:00,-0.0,288.152,286.772,260.228,289.3,286.485,260.942,-0.0,-0.0,230.101,251.552
2015-10-02 01:00,-0.00158807,281.346,274.785,252.899,275.242,272.883,252.205,-0.0,-0.00160325,229.178,246.483
2015-10-02 02:00,-0.00137275,287.444,286.105,260.337,288.763,286.202,261.062,-0.0,-0.0,230.184,251.152
2015-10-02 03:00,-0.0,283.261,279.458,256.205,281.366,278.458,256.66,-0.0,-0.0,229.685,248.348
2015-10-02 04:00,-0.00129759,285.97,284.982,259.244,287.679,285.208,259.735,-0.0,-0.0,230.266,251.352
2015-10-02 05:00,-0.0,286.271,284.185,259.024,286.722,284.349,259.249,-0.0,-0.0,230.184,251.051
2015-10-02 06:00,0.00166049,286.569,285.77,259.793,288.493,286.202,261.301,-0.0,-0.0,230.835,251.452
2015-10-02 07:00,-0.0,285.818,285.321,259.574,288.087,285.919,260.701,-0.0,-0.0,231.315,251.552
2015-10-02 08:00,-0.00372713,282.234,278.845,255.974,280.347,278.307,256.035,-0.0,-0.0,229.769,247.261
2015-10-02 09:00,-0.015127,285.665,284.869,259.354,287.815,285.777,260.701,-0.012808,-0.0,230.593,250.34
2015-10-02 10:00,0.465964,288.012,285.994,259.902,288.763,286.202,261.062,0.304865,0.413398,230.835,250.442
2015-10-02 11:00,0.510588,294.823,289.379,261.838,291.555,288.027,261.062,0.223611,0.402895,231.076,250.544
2015-10-02 12:00,0.417192,299.765,292.108,263.099,293.892,289.551,261.421,0.171712,0.331484,230.755,250.135
2015-10-02 13:00,0.333095,303.015,0.0,0.0,295.93,291.057,261.779,0.134606,0.267495,230.996,250.544
2015-10-02 14:00,0.279228,305.339,296.229,265.859,297.558,292.006,262.255,0.112635,0.22472,231.156,250.544
2015-10-02 15:00,0.250214,302.085,290.017,262.261,291.16,286.767,260.34,0.165709,0.243852,230.916,249.928
2015-10-02 16:00,0.257042,301.74,289.272,261.838,290.632,286.626,260.942,0.189112,0.250682,230.996,250.135
2015-10-02 17:00,0.185987,299.765,288.195,261.519,288.763,284.922,260.34,0.181439,0.209535,230.511,249.721
2015-10-02 19:00,0.618173,267.761,240.984,235.01,241.815,240.576,234.604,0.744713,0.87958,227.87,236.325
2015-10-02 20:00,0.81519,268.986,222.198,225.897,221.838,221.579,220.115,0.944809,1.11305,219.26,220.535
2015-10-02 21:00,1.32614,263.255,222.552,225.701,222.162,222.169,220.86,1.14895,1.47373,219.26,220.989
2015-10-02 22:00,-0.0,269.283,261.662,246.399,261.25,257.856,245.35,-0.0,-0.0,230.674,243.336
2015-10-02 23:00,-0.100262,274.073,265.243,248.642,263.92,257.671,244.932,-0.062984,-0.0685685,230.674,241.98
2015-10-03 00:00,-0.0,269.576,268.63,250.555,271.464,270.311,254.264,-0.0,-0.0,233.896,250.646
2015-10-03 01:00,-0.00159058,283.924,281.742,258.022,283.088,280.554,259.005,-0.0,-0.0,234.615,252.439
2015-10-03 02:00,-0.0,288.43,287.322,261.091,289.968,287.748,261.421,-0.0,-0.0,234.113,252.925
2015-10-03 03:00,-0.0,287.3,285.546,259.902,287.951,284.636,260.581,-0.0,-0.0,233.159,252.047
2015-10-03 04:00,0.00130065,278.482,275.306,254.099,278.576,275.085,255.153,-0.0,-0.0,231.156,250.849
2015-10-03 05:00,-0.00141024,282.753,280.789,257.459,283.797,279.959,258.023,-0.0,-0.0,230.348,251.352
2015-10-03 06:00,-0.0,267.444,262.616,247.332,262.685,260.045,246.319,-0.0,-0.0,227.329,243.577
2015-10-03 07:00,-0.00222933,259.045,259.706,245.314,262.685,262.008,248.903,-0.0,-0.0,227.87,246.929
2015-10-03 08:00,0.00376599,268.986,264.94,248.642,265.826,262.888,248.499,-0.0,-0.0,227.691,245.69
2015-10-03 09:00,-0.0158131,277.026,273.466,253.261,275.396,270.96,252.205,-0.013389,-0.0159643,230.184,248.133
2015-10-03 10:00,0.29059,287.871,284.414,259.244,286.86,283.484,258.27,0.287049,0.314323,231.156,250.238
2015-10-03 11:00,0.686802,293.356,267.618,250.303,268.191,263.933,247.823,0.480489,0.578786,229.263,246.595
2015-10-03 12:00,0.564888,300.498,273.466,253.381,274.623,271.605,254.392,0.42135,0.494637,231.865,250.544
2015-10-03 13:00,0.59126,290.685,258.703,244.488,261.611,261.654,250.104,0.747097,0.825322,232.633,249.617
2015-10-03 14:00,0.525271,298.63,263.712,247.597,266.508,265.65,251.683,0.456977,0.51571,232.02,249.928
2015-10-03 15:00,0.362038,259.505,224.616,226.674,222.485,221.579,221.415,0.599473,0.668626,217.229,220.763
2015-10-03 16:00,0.273929,253.81,215.64,223.489,214.89,214.364,214.468,0.629388,0.711482,213.234,214.787
2015-10-03 17:00,0.333602,257.103,216.058,223.694,215.26,214.697,215.873,0.653758,0.740125,214.293,215.6
2015-10-03 18:00,0.430458,259.954,212.578,221.814,211.825,210.931,211.57,0.720927,0.822983,211.8,212.8
2015-10-03 19:00,0.587996,266.797,213.921,222.238,212.609,211.983,212.827,0.851963,0.976123,213.234,213.382
2015-10-03 20:00,0.859755,275.48,218.474,224.708,217.427,215.683,215.074,1.00164,1.17748,215.31,217.418
2015-10-03 21:00,1.73559,276.376,224.279,227.628,221.838,219.777,218.41,1.33121,1.76249,216.83,220.075
2015-10-03 22:00,-0.0,222.276,211.654,222.027,211.428,210.219,212.202,-0.0,-0.0,211.303,211.602
2015-10-03 23:00,-0.0972519,237.078,210.707,221.386,209.808,208.766,209.638,-0.0658744,-0.0654544,209.569,210.353
2015-10-04 00:00,-0.00206044,218.393,211.654,220.954,211.028,210.219,211.358,-0.0,-0.0,211.135,211.906
2015-10-04 01:00,-0.0,242.013,229.97,229.118,226.522,224.19,221.782,-0.0,-0.0,217.229,222.956
2015-10-04 02:00,-0.0,227.984,221.841,225.504,220.519,218.857,217.25,-0.0,-0.0,216.695,219.843
2015-10-04 03:00,0.00129287,235.601,231.997,230.207,231.131,230.429,226.574,-0.0,-0.0,222.15,228.96
2015-10-04 04:00,-0.00130378,242.013,237.591,233.005,237.2,235.917,229.946,-0.0,-0.0,222.906,231.695
2015-10-04 05:00,-0.0,249.89,244.16,236.306,243.667,241.921,233.819,-0.0,-0.0,224.359,235.592
2015-10-04 06:00,-0.00167372,237.078,229.673,229.118,228.001,226.974,223.592,-0.0,-0.0,220.219,225.21
2015-10-04 07:00,-0.00224233,244.063,240.277,234.183,239.669,238.515,232.707,-0.0,0.00226377,224.959,233.773
2015-10-04 08:00,-0.0,251.282,242.597,235.662,241.344,239.208,231.581,-0.0,-0.0,222.906,232.508
2015-10-04 09:00,-0.0,240.898,235.011,231.973,234.107,232.221,227.26,-0.0140202,-0.0167169,221.596,229.838
2015-10-04 10:00,0.34601,257.103,245.248,237.101,244.575,243.243,234.604,0.528488,0.616443,224.156,235.295
2015-10-04 11:00,0.395472,279.667,257.511,244.21,254.461,247.915,234.916,0.327513,0.440053,220.337,231.859
2015-10-04 12:00,0.37276,288.43,259.706,245.723,255.439,247.085,233.026,0.2881,0.391762,219.503,231.198
2015-10-04 13:00,0.271991,285.512,265.092,247.2,261.431,256.367,239.618,0.203575,0.301898,222.476,235.592
2015-10-04 14:00,0.260559,264.377,236.576,232.663,232.772,230.429,225.535,0.298219,0.372765,219.382,224.61
2015-10-04 15:00,0.235435,293.124,278.101,254.454,276.772,271.605,249.838,0.153421,0.231464,226.027,243.457
2015-10-04 16:00,0.244782,283.594,257.511,242.799,255.049,249.55,235.072,0.19884,0.278483,222.476,233.928
2015-10-04 17:00,0.30344,286.864,256.819,242.942,252.868,245.399,229.283,0.241007,0.336162,221.819,232.022
2015-10-04 19:00,0.229375,298.63,291.487,262.89,293.248,288.722,261.779,0.237952,0.285808,231.63,251.949
2015-10-04 20:00,0.312436,296.738,290.017,261.731,291.686,287.748,261.301,0.495308,0.499979,230.835,251.252
2015-10-04 21:00,0.628533,293.007,287.541,260.228,289.166,286.06,260.701,0.952771,1.01322,230.511,251.751
2015-10-04 22:00,-0.00917934,289.779,287.76,260.445,290.234,287.329,261.54,-0.0,-0.0,231.394,252.244
2015-10-04 23:00,-0.103988,289.113,286.439,259.464,288.628,285.777,260.581,-0.068786,-0.0623328,231.63,252.731
2015-10-05 00:00,-0.0,287.729,286.439,260.011,289.032,286.626,261.421,-0.0,-0.0,230.755,252.537
2015-10-05 01:00,-0.00159594,287.871,286.105,259.464,288.897,286.343,260.701,-0.0,-0.0,230.593,251.652
2015-10-05 02:00,0.00138002,287.729,286.772,260.011,289.568,287.329,261.779,-0.0,-0.0,230.916,251.051
2015-10-05 03:00,-0.0,281.165,277.852,255.16,279.907,274.773,253.368,-0.0,-0.0,229.852,248.025
2015-10-05 04:00,-0.0,284.41,281.624,257.346,283.797,281.588,257.777,-0.0,-0.0,228.4,248.241
2015-10-05 05:00,-0.0,285.97,284.869,259.134,287.815,286.202,260.942,-0.0,-0.0,230.43,251.051
2015-10-05 06:00,-0.0,283.261,280.909,256.778,283.514,281.146,257.158,-0.0,-0.0,230.43,249.513
2015-10-05 07:00,0.00225549,285.202,284.869,258.913,287.815,286.06,260.942,-0.0,-0.0,231.315,250.849
2015-10-05 08:00,-0.0,280.799,277.852,254.926,280.054,277.853,255.406,-0.0,-0.0,230.184,246.707
2015-10-05 09:00,-0.0347418,282.923,281.505,256.664,283.797,281.735,258.147,-0.0147079,-0.035074,230.755,248.025
2015-10-05 10:00,0.499257,285.818,281.978,257.233,284.501,282.028,258.392,0.326904,0.483869,230.593,247.59
2015-10-05 11:00,0.435304,256.062,235.538,231.799,235.93,234.461,229.449,0.51406,0.636069,225.156,227.694
2015-10-05 12:00,0.338566,296.531,284.869,258.691,284.921,279.81,256.285,0.185204,0.318759,231.315,247.371
2015-10-05 13:00,0.372815,302.426,289.165,261.198,290.101,0.0,256.66,0.168607,0.314405,232.175,248.025
2015-10-05 14:00,0.245454,292.889,274.655,253.261,274.312,269.0,250.501,0.176873,0.266254,231.394,244.764
2015-10-05 15:00,0.194299,279.081,258.534,244.626,256.213,253.896,242.241,0.220739,0.276854,227.87,235.74
2015-10-05 16:00,0.215765,300.317,287.76,260.337,288.493,282.613,255.406,0.119692,0.210316,232.02,247.699
2015-10-05 17:00,0.214432,303.674,293.944,264.645,295.424,290.101,260.822,0.107801,0.196187,233.53,250.238
2015-10-05 18:00,0.204252,303.917,296.523,266.159,298.178,292.948,262.847,0.122388,0.19986,236.609,253.213
2015-10-05 19:00,0.243375,301.999,294.346,265.153,295.677,291.057,262.255,0.211304,0.266523,238.357,254.162
2015-10-05 20:00,0.361351,298.726,290.335,263.307,292.079,288.306,261.66,0.440688,0.465211,240.193,255.091
2015-10-05 21:00,0.44286,295.476,291.798,264.031,293.764,290.375,262.728,0.792549,0.74177,242.266,256.45
2015-10-05 22:00,-0.0,291.315,289.699,262.681,291.948,288.999,262.373,-0.0,-0.0,243.579,257.508
2015-10-05 23:00,-0.100995,291.065,288.843,262.366,290.764,288.306,262.136,-0.077237,-0.0592029,244.006,258.286
2015-10-06 00:00,0.00206813,289.247,288.52,262.261,290.632,288.027,261.898,-0.0,-0.0,244.058,258.372
2015-10-06 01:00,-0.0,288.841,288.52,261.944,290.897,288.584,262.965,-0.0,-0.0,243.793,258.372
2015-10-06 02:00,-0.00138261,288.568,288.412,262.049,291.029,289.276,263.2,-0.0,-0.0,243.472,258.457
2015-10-06 03:00,-0.0,288.43,288.628,262.261,291.423,289.826,263.67,-0.0,-0.0,243.686,259.135
2015-10-06 04:00,-0.0,288.291,288.52,262.049,291.292,289.826,263.318,-0.0,0.00132275,244.217,259.387
2015-10-06 05:00,-0.0,287.729,288.412,262.261,291.423,290.238,263.787,-0.0,-0.0,243.039,258.967
2015-10-06 06:00,-0.0,287.587,288.087,262.049,291.16,289.964,263.553,-0.0,-0.0,242.433,259.051
2015-10-06 07:00,-0.0,287.3,287.869,261.625,290.764,289.689,263.67,-0.0,-0.0,242.6,259.554
2015-10-06 08:00,0.00388655,286.864,287.76,261.944,290.897,289.826,263.436,-0.0,-0.0,242.155,259.554
2015-10-06 09:00,-0.0182587,286.569,287.541,261.944,290.5,289.689,263.787,-0.0309192,-0.0368664,241.246,259.051
2015-10-06 10:00,0.503211,289.514,289.272,262.681,292.079,290.648,263.787,0.287734,0.48163,241.015,258.882
2015-10-06 11:00,0.525718,296.427,292.622,264.747,295.17,292.41,264.255,0.216547,0.444677,240.253,258.286
2015-10-06 12:00,0.425875,301.302,295.639,266.557,297.807,294.415,264.837,0.166672,0.357333,239.834,258.543
2015-10-06 13:00,0.340161,304.478,298.071,267.935,300.02,296.127,265.301,0.128848,0.280153,240.724,258.967
2015-10-06 14:00,0.28383,306.991,299.59,269.096,301.712,297.17,265.647,0.103623,0.231337,240.724,258.967
2015-10-06 15:00,0.24661,308.211,300.712,269.955,302.43,297.689,265.993,0.0872613,0.199421,240.253,259.051
2015-10-06 16:00,0.227713,308.63,300.805,270.145,302.669,297.947,265.647,0.0848757,0.18741,241.015,258.967
2015-10-06 17:00,0.231439,307.064,297.879,268.324,299.531,294.944,264.372,0.123465,0.209341,241.361,259.135
2015-10-06 18:00,0.25095,299.485,289.272,263.203,290.897,287.469,262.373,0.212479,0.281851,241.246,259.051
2015-10-06 19:00,0.236737,303.346,296.718,267.935,298.795,294.812,264.372,0.200445,0.266018,241.189,258.967
2015-10-06 20:00,0.324032,297.449,288.412,262.366,289.032,284.349,259.005,0.32475,0.380539,237.977,255.183
2015-10-06 21:00,1.7485,291.44,276.08,254.572,276.315,272.565,253.24,1.59889,2.07791,239.593,251.751
2015-10-06 22:00,-0.0,267.761,267.473,250.429,270.332,269.821,254.137,-0.0,-0.0,243.686,256.805
2015-10-06 23:00,-0.0816657,275.932,273.865,254.572,276.163,274.929,256.785,-0.0663804,-0.0560636,243.093,258.457
2015-10-07 00:00,-0.0,284.087,283.38,259.793,285.479,283.484,260.34,-0.0,-0.0,243.364,260.299
2015-10-07 01:00,-0.0,288.841,287.432,262.471,289.434,287.329,262.492,-0.0,-0.0,245.048,261.194
2015-10-07 02:00,-0.0,290.685,289.805,263.721,292.079,290.101,263.083,-0.0,-0.0,244.531,260.217
2015-10-07 03:00,-0.0,289.779,289.379,263.411,291.555,289.413,263.2,-0.0,-0.0,244.374,260.052
2015-10-07 04:00,-0.0,289.113,288.195,262.261,290.367,288.167,262.965,-0.0,-0.0,243.793,259.97
2015-10-07 05:00,-0.0,289.381,289.486,263.099,291.555,289.276,263.318,-0.0,-0.0,243.31,260.545
2015-10-07 06:00,-0.0,288.43,288.412,262.786,290.632,288.999,263.083,-0.0,-0.0,242.378,259.97
2015-10-07 07:00,-0.0,288.012,288.303,262.471,290.632,289.137,263.2,-0.0,-0.0,242.099,260.135
2015-10-07 08:00,-0.0,284.41,279.458,257.572,279.613,276.015,252.075,-0.0,-0.0,235.799,254.256
2015-10-07 09:00,-0.115392,280.239,272.12,253.02,271.945,268.173,246.732,-0.0488512,-0.116495,231.63,249.303
2015-10-07 10:00,0.430106,283.093,271.023,251.552,270.657,265.99,243.808,0.358735,0.492545,232.784,250.34
2015-10-07 11:00,0.411761,287.01,273.065,253.261,270.981,267.171,247.415,0.274611,0.415697,228.835,246.371
2015-10-07 12:00,0.316471,291.563,279.58,257.006,278.278,274.929,252.594,0.185017,0.300479,230.674,249.721
2015-10-07 13:00,0.288432,286.121,263.712,247.465,259.236,255.045,237.07,0.200156,0.301697,226.027,241.98
2015-10-07 14:00,0.277864,304.636,296.913,267.249,298.055,294.016,264.255,0.109938,0.230709,235.317,258.457
2015-10-07 15:00,0.248505,304.557,295.343,266.358,295.677,291.329,262.965,0.101576,0.205153,234.185,257.07
2015-10-07 16:00,0.219861,305.95,297.3,267.642,298.549,293.883,263.553,0.0951696,0.187047,234.543,257.942
2015-10-07 17:00,0.251064,304.715,294.945,265.658,296.433,292.006,263.2,0.150386,0.229196,235.662,258.028
2015-10-07 18:00,0.252086,302.932,294.044,265.254,295.55,291.057,263.083,0.190903,0.259238,235.867,257.333
2015-10-07 19:00,0.306149,292.771,282.448,258.469,284.22,281.882,259.492,0.35142,0.381677,236.808,256.805
2015-10-07 20:00,0.31328,299.013,293.031,264.849,294.788,291.057,263.318,0.569598,0.526015,237.137,257.942
2015-10-07 21:00,0.694181,297.549,290.651,263.515,292.209,288.999,262.61,1.08316,1.18138,237.072,258.028
2015-10-07 22:00,-0.0,292.771,290.229,263.307,291.948,289.137,262.728,-0.0,-0.0,236.675,258.114
2015-10-07 23:00,-0.06224,292.534,290.545,263.515,292.989,290.375,263.436,-0.0859818,-0.0529137,236.071,258.286
2015-10-08 00:00,-0.0,290.558,289.911,263.618,292.6,290.511,263.436,-0.0,-0.0,237.528,258.372
2015-10-08 01:00,-0.0,289.514,289.593,262.89,291.948,290.101,263.787,-0.0,-0.0,235.662,258.114
2015-10-08 02:00,-0.0,289.113,289.379,262.995,291.948,290.375,264.022,-0.0,-0.0,234.615,258.028
2015-10-08 03:00,-0.0,288.841,289.272,262.786,291.817,290.375,263.67,-0.0,0.00131642,233.75,257.421
2015-10-08 04:00,-0.0,283.428,279.702,256.434,281.366,279.661,254.392,-0.0,-0.0,232.097,253.595
2015-10-08 05:00,-0.0,277.451,273.466,253.14,273.372,268.173,248.903,-0.0,-0.0,229.178,247.04
2015-10-08 06:00,-0.0,251.944,241.451,235.499,240.152,237.815,232.387,-0.0,-0.0,225.352,232.988
2015-10-08 07:00,-0.0,251.282,240.514,234.681,238.199,236.396,231.419,-0.0,-0.0,223.118,228.96
2015-10-08 08:00,-0.0,260.395,250.371,239.419,248.52,246.457,238.128,-0.0,-0.0,225.643,234.542
2015-10-08 09:00,-0.0406061,285.665,285.321,260.119,287.543,286.06,261.062,-0.0343812,-0.0819886,230.018,252.925
2015-10-08 10:00,0.271301,288.705,287.651,261.519,290.632,288.861,262.492,0.235052,0.337591,229.348,252.537
2015-10-08 11:00,0.436723,259.954,241.451,234.35,238.693,237.345,231.094,0.538067,0.672652,223.746,228.96
2015-10-08 12:00,0.425624,296.219,267.764,249.797,266.338,257.856,242.384,0.284172,0.399406,228.4,243.214
2015-10-08 13:00,0.324501,297.146,283.264,258.58,282.374,276.015,252.594,0.175642,0.303669,229.178,248.241
2015-10-08 14:00,0.275833,304.95,296.131,266.458,297.931,291.871,261.301,0.11184,0.241864,230.266,252.244
2015-10-08 15:00,0.225974,305.184,298.071,268.033,300.263,295.208,264.138,0.0879093,0.193606,230.755,252.828
2015-10-08 17:00,0.235967,304.872,294.245,265.254,295.677,289.689,260.219,0.124165,0.208613,230.511,250.238
2015-10-08 18:00,0.289174,304.239,285.994,260.876,286.722,280.108,254.137,0.227638,0.304563,230.511,249.093
2015-10-08 19:00,0.371197,295.902,279.945,257.006,282.087,278.307,256.285,0.399377,0.469985,230.996,250.95
2015-10-08 20:00,0.453862,296.427,275.565,254.572,277.828,274.147,254.773,0.554149,0.591012,231.076,249.303
2015-10-08 21:00,0.196827,289.247,283.841,259.244,285.479,282.321,259.37,0.358303,0.347739,231.943,250.34
2015-10-08 22:00,-0.0,283.76,282.214,258.134,284.501,282.175,259.614,-0.0,0.00953165,232.02,251.051
2015-10-08 23:00,-0.0722789,291.931,289.272,262.155,291.686,288.722,262.373,-0.0639802,-0.0464354,232.175,251.552
2015-10-09 00:00,-0.0,289.91,288.087,261.625,290.764,287.748,261.779,-0.0,-0.0,231.552,251.051
2015-10-09 01:00,-0.0,288.977,286.992,260.769,289.701,286.485,260.581,-0.0,-0.0,230.996,250.135
2015-10-09 02:00,-0.0,280.239,274.261,254.099,275.55,269.494,250.633,-0.0,-0.0,231.473,246.929
2015-10-09 03:00,-0.0,285.818,283.032,258.802,284.641,280.406,257.406,-0.0,-0.0,231.709,249.093
2015-10-09 04:00,-0.00132039,286.421,284.414,259.683,286.31,283.194,258.023,-0.0,-0.0,231.787,249.617
2015-10-09 05:00,-0.00143669,274.073,273.199,253.261,274.933,272.405,253.625,-0.0,-0.0,231.473,248.987
2015-10-09 06:00,-0.00170819,270.989,270.049,251.305,271.303,267.339,249.971,-0.0,-0.0,230.511,247.261
2015-10-09 07:00,-0.00230943,264.009,262.3,246.934,263.92,262.185,249.171,-0.0,-0.0,232.481,246.707
2015-10-09 08:00,-0.0,277.24,275.046,253.741,276.772,274.617,254.9,-0.0,-0.0,231.709,249.093
2015-10-09 09:00,-0.0429724,284.249,282.096,257.91,284.079,280.85,257.158,-0.054577,-0.0650748,232.709,249.825
2015-10-09 10:00,0.446717,288.841,285.321,260.011,287.134,284.205,259.614,0.309942,0.432196,233.085,250.748
2015-10-09 11:00,0.475277,293.816,283.726,259.134,285.895,282.028,258.023,0.287104,0.426507,232.633,250.34
2015-10-09 12:00,0.405028,298.63,290.44,262.89,291.948,287.888,261.182,0.176999,0.339179,233.085,251.552
2015-10-09 13:00,0.316047,300.225,289.272,262.049,289.166,284.205,259.249,0.155056,0.27583,232.097,250.032
2015-10-09 14:00,0.263497,301.999,289.699,262.576,290.101,284.922,259.492,0.126862,0.226896,233.085,250.748
2015-10-09 15:00,0.243776,304.078,292.725,263.928,292.6,287.329,260.098,0.111459,0.210421,232.481,250.849
2015-10-09 16:00,0.291644,255.521,219.247,225.504,218.824,217.922,217.639,0.687665,0.762789,216.83,218.165
2015-10-09 17:00,0.352687,263.255,213.479,223.283,212.219,210.219,211.146,0.747113,0.8317,212.448,213.668
2015-10-09 18:00,0.366715,295.26,272.662,253.501,273.057,269.657,251.814,0.32371,0.378098,232.481,248.775
2015-10-09 19:00,0.319325,298.045,286.55,259.902,287.543,282.904,257.9,0.263439,0.369907,233.159,250.849
2015-10-09 20:00,0.770786,285.818,257.683,244.349,256.406,253.51,242.097,0.749823,0.874182,229.263,241.475
2015-10-09 21:00,1.17177,271.531,210.224,221.6,209.808,208.766,210.504,1.00868,1.29142,210.278,210.67
2015-10-09 22:00,-0.00951616,218.393,210.224,221.17,209.394,208.766,210.289,-0.0,-0.0,209.206,209.379
2015-10-09 23:00,-0.0494323,233.989,213.921,222.868,212.219,210.576,211.358,-0.106031,-0.0465778,210.796,212.505
2015-10-10 00:00,-0.0,230.231,218.474,225.107,216.715,215.027,215.274,-0.0,-0.0,213.388,215.867
2015-10-10 01:00,-0.00161141,237.078,220.006,226.287,217.072,213.356,211.992,-0.0,-0.0,211.135,215.061
2015-10-10 02:00,-0.0,233.989,220.75,227.058,216.715,213.694,212.619,-0.0,-0.0,213.078,214.787
2015-10-10 03:00,-0.0,230.231,222.552,226.866,220.519,217.922,216.859,-0.0,-0.0,216.56,219.372
2015-10-10 04:00,-0.00132389,260.395,254.145,242.369,254.657,252.144,241.664,-0.0,-0.0,227.691,241.602
2015-10-10 05:00,-0.0,259.954,256.294,243.79,255.827,253.122,241.374,-0.0,-0.0,225.931,241.728
2015-10-10 06:00,0.00171529,271.798,265.243,248.121,265.997,262.008,245.35,-0.0,-0.0,228.136,243.698
2015-10-10 07:00,-0.0,272.58,268.343,250.555,269.021,266.329,251.291,-0.0,-0.0,229.178,246.145
2015-10-10 08:00,-0.0,253.81,251.53,241.791,253.867,251.947,241.519,-0.0,-0.0,230.018,243.457
2015-10-10 09:00,-0.0227988,257.605,258.703,245.314,262.15,261.654,249.037,-0.057911,-0.0460334,229.769,246.929
2015-10-10 10:00,0.860728,275.02,252.666,241.061,251.856,249.144,238.428,1.0544,1.25105,224.258,238.714
2015-10-10 11:00,0.736905,291.065,256.644,244.21,258.865,257.856,246.594,0.733767,0.833112,229.178,245.345
2015-10-10 12:00,0.414386,270.989,247.973,239.419,246.355,244.328,236.46,0.522357,0.592815,224.959,234.542
2015-10-10 13:00,0.435747,278.482,255.23,242.799,254.461,252.732,242.384,0.562145,0.639063,226.778,240.576
2015-10-10 14:00,0.470268,284.249,251.339,241.354,253.069,251.354,242.814,0.586899,0.628249,230.674,242.725
2015-10-10 15:00,0.445184,282.923,255.941,243.79,257.739,257.301,246.594,0.635437,0.687668,231.943,245.46
2015-10-10 16:00,0.427465,289.91,247.769,239.57,249.579,247.915,239.618,0.669786,0.726693,230.916,240.964
2015-10-10 17:00,0.510219,298.144,242.142,236.625,243.438,240.576,235.846,0.518627,0.599604,229.093,236.9
2015-10-10 18:00,0.634072,300.947,243.719,237.572,245.024,243.896,236.153,0.740007,0.821007,228.835,237.748
2015-10-10 19:00,0.688527,282.923,235.538,232.834,236.441,235.193,230.768,0.797481,0.90756,226.405,233.461
2015-10-10 20:00,0.912593,271.531,222.552,226.674,221.838,221.283,220.115,1.09118,1.28456,218.642,220.989
2015-10-10 21:00,1.18185,263.255,230.559,230.387,229.729,229.385,227.089,1.04988,1.37896,223.013,227.694
2015-10-10 22:00,-0.0,235.601,235.275,232.146,235.414,234.95,230.931,-0.0,-0.0,225.739,231.859
2015-10-10 23:00,-0.0495906,255.521,250.76,240.469,251.447,250.557,242.241,-0.0839766,-0.0433894,229.007,241.221
2015-10-11 00:00,-0.00209072,257.605,256.469,243.65,256.98,254.855,244.792,-0.0,-0.0,228.835,243.457
2015-10-11 01:00,0.00161486,247.601,245.463,238.195,246.794,245.612,238.577,-0.0,-0.0,230.018,238.85
2015-10-11 02:00,0.00139688,245.01,243.94,237.884,245.914,245.399,237.676,-0.0,-0.0,231.315,239.922
2015-10-11 03:00,0.00131301,253.81,251.721,241.646,252.868,251.75,241.374,-0.0,-0.0,229.685,242.725
2015-10-11 04:00,-0.0,246.775,244.598,238.195,243.895,240.576,233.503,-0.0,-0.0,225.739,236.9
2015-10-11 05:00,-0.0,246.775,241.218,236.146,240.152,237.581,231.581,-0.0,-0.0,223.746,233.773
2015-10-11 06:00,-0.0,254.396,251.339,240.766,252.262,250.357,239.618,-0.0,-0.0,226.499,240.576
2015-10-11 07:00,-0.0023371,249.89,246.942,238.963,246.794,245.186,238.128,-0.0,-0.0,224.46,236.614
2015-10-11 08:00,-0.0,256.062,257.339,244.349,259.606,259.139,247.006,-0.0,-0.0,229.433,246.371
2015-10-11 09:00,-0.0485236,259.505,260.365,245.723,263.217,263.063,249.838,-0.0821697,-0.0734812,229.263,247.481
2015-10-11 10:00,0.769183,277.24,255.587,243.226,258.491,257.486,246.319,0.763202,0.885736,230.184,246.595
2015-10-11 11:00,0.833302,293.587,259.373,245.587,261.971,261.477,249.171,0.81928,0.90215,230.916,247.808
2015-10-11 12:00,0.695687,292.294,254.328,243.084,256.406,255.425,245.35,0.827159,0.913412,229.433,245.46
2015-10-11 13:00,0.61636,292.534,262.141,247.2,265.31,264.795,250.896,0.805172,0.880042,230.511,249.303
2015-10-11 14:00,0.515388,280.799,258.025,244.21,259.606,258.957,247.142,0.680141,0.731815,228.488,246.032
2015-10-11 15:00,0.500125,289.647,257.683,244.765,260.158,259.139,248.094,0.553986,0.598043,229.093,245.918
2015-10-11 16:00,0.503965,295.368,257.511,244.765,260.341,259.502,248.364,0.568942,0.610292,229.433,247.699
2015-10-11 17:00,0.522657,293.472,261.982,247.597,265.138,264.451,251.291,0.670539,0.721841,231.076,251.051
2015-10-11 18:00,0.577046,297.947,262.774,247.859,264.965,263.237,250.104,0.615009,0.654793,230.511,249.617
2015-10-11 19:00,0.774921,298.144,262.3,247.597,264.444,263.586,249.572,0.749363,0.813211,229.178,247.808
2015-10-11 20:00,1.26234,296.219,262.141,246.934,264.444,263.759,249.705,1.13786,1.32051,229.769,249.093
2015-10-11 21:00,0.970485,281.346,273.065,253.14,274.312,271.605,252.723,0.846115,1.07677,229.433,248.025
2015-10-11 22:00,-0.0096783,261.666,258.703,245.587,259.974,258.408,246.869,-0.0,-0.0,228.748,244.53
2015-10-11 23:00,-0.0464392,269.283,268.487,250.681,270.819,268.67,252.982,-0.0926828,-0.0502319,230.348,250.135
2015-10-12 00:00,-0.0,255.521,257.683,244.488,260.706,260.584,249.037,-0.00177455,-0.00211588,230.755,247.699
2015-10-12 01:00,-0.0,258.576,255.23,243.226,256.406,253.896,242.384,-0.0,-0.0,227.329,243.818
2015-10-12 02:00,-0.0,247.601,243.273,236.943,243.438,241.698,234.291,-0.0,-0.0,223.434,235.295
2015-10-12 03:00,-0.0,249.156,246.942,238.81,247.878,246.246,237.977,-0.0,-0.0,226.405,238.85
2015-10-12 04:00,-0.0,271.261,265.846,249.286,267.016,262.712,245.489,-0.0,-0.0,226.216,243.698
2015-10-12 05:00,-0.00145073,265.791,264.482,248.771,267.185,264.451,249.037,-0.0,-0.0,228.748,247.151
2015-10-12 06:00,-0.0,260.827,262.931,247.597,265.997,264.967,251.422,-0.0,-0.0,230.266,248.348
2015-10-12 07:00,-0.0,272.061,270.885,251.552,272.741,270.148,253.497,-0.0,-0.0,230.511,248.775
2015-10-12 08:00,-0.0,279.667,279.458,256.892,282.374,279.959,257.53,-0.0,-0.0,231.473,250.849
2015-10-12 09:00,-0.103604,279.081,279.58,256.892,282.803,281.293,258.76,-0.131582,-0.156892,233.382,251.949
2015-10-12 10:00,0.905534,285.665,267.326,249.669,270.981,270.148,254.137,0.781748,0.872365,236.274,252.634
2015-10-12 11:00,0.933969,295.69,273.732,252.656,276.163,275.085,256.41,0.742374,0.808197,236.742,253.5
2015-10-12 12:00,0.685403,302.511,267.473,250.051,271.303,270.311,253.881,0.64273,0.684514,236.004,253.213
2015-10-12 13:00,0.566208,298.726,265.846,248.771,269.35,269.0,252.982,0.553734,0.599685,234.827,252.244
2015-10-12 14:00,0.566736,295.583,265.545,248.771,268.524,268.173,253.24,0.541736,0.598043,233.234,250.646
2015-10-12 15:00,0.462797,295.151,242.824,237.101,243.667,241.475,236.153,0.443139,0.502691,231.865,237.748
2015-10-12 16:00,0.481069,293.816,265.545,248.121,268.191,267.339,252.723,0.490235,0.52892,236.408,252.146
2015-10-12 17:00,0.482094,290.939,264.329,247.597,266.338,265.82,252.075,0.56182,0.625761,238.041,251.152
2015-10-12 18:00,0.459651,284.249,258.703,243.93,260.341,259.864,247.551,0.596926,0.68039,240.014,250.135
2015-10-12 19:00,0.582134,298.436,275.436,253.261,277.828,275.861,256.035,0.525636,0.616467,239.166,253.785
2015-10-12 20:00,0.848947,301.74,279.58,255.16,281.221,278.458,258.023,0.75185,0.850495,242.322,256.36
2015-10-12 21:00,1.69621,291.44,279.58,255.626,283.088,282.321,260.219,1.38777,1.6066,245.608,259.135
2015-10-12 22:00,-0.0,275.707,277.35,253.381,279.613,278.76,258.147,-0.0,-0.0,246.75,259.97
2015-10-12 23:00,-0.0432722,278.883,280.429,255.742,283.656,282.758,260.219,-0.129644,-0.0470463,244.842,258.882
2015-10-13 00:00,-0.00210117,277.869,281.029,255.858,284.361,283.773,260.701,-0.00177906,-0.00212126,244.426,258.882
2015-10-13 01:00,-0.0,278.883,280.669,255.858,283.797,282.028,259.37,-0.0,-0.0,243.147,258.286
2015-10-13 02:00,-0.0,280.799,281.148,256.32,284.079,281.882,259.977,-0.0,-0.0,243.256,258.543
2015-10-13 03:00,-0.0,268.986,271.437,250.931,274.778,274.304,256.66,-0.0,-0.0,243.418,258.713
2015-10-13 04:00,-0.00133477,284.73,285.208,258.358,287.951,286.626,262.017,-0.0,-0.0,242.929,258.967
2015-10-13 05:00,-0.0,283.428,283.611,257.91,286.585,285.065,260.581,-0.0,-0.0,241.874,258.114
2015-10-13 06:00,-0.0,277.661,278.101,255.16,281.221,279.511,258.27,-0.0,-0.0,241.59,257.421
2015-10-13 07:00,-0.0,284.249,284.414,258.246,287.27,285.919,261.062,-0.0,-0.0,241.246,257.333
2015-10-13 08:00,-0.0,283.594,283.611,257.685,286.31,284.636,260.581,-0.0,-0.0,241.419,257.07
2015-10-13 09:00,-0.0277486,283.093,284.071,257.91,286.722,285.35,260.942,-0.0939788,-0.140069,240.665,257.246
2015-10-13 10:00,0.431574,286.271,285.095,258.469,287.815,285.777,261.182,0.271591,0.429812,241.246,257.508
2015-10-13 11:00,0.446387,292.294,287.869,260.011,289.835,287.329,261.062,0.196995,0.393298,242.099,258.2
2015-10-13 12:00,0.389015,296.943,291.174,262.261,292.73,289.551,262.373,0.15226,0.333453,242.655,258.798
2015-10-13 13:00,0.310716,299.297,292.622,263.411,294.021,289.964,262.61,0.119807,0.263614,242.929,259.471
2015-10-13 14:00,0.258409,300.769,293.438,263.928,294.405,290.101,262.017,0.100732,0.220843,243.633,259.638
2015-10-13 15:00,0.209192,300.947,293.336,264.031,294.277,290.101,262.492,0.0941922,0.186776,243.633,259.471
2015-10-13 16:00,0.221191,302.848,293.944,264.543,294.533,290.101,262.255,0.096228,0.192463,243.364,259.638
2015-10-13 17:00,0.337205,298.045,280.909,257.12,282.517,280.85,259.005,0.284391,0.343099,243.846,259.887
2015-10-13 18:00,0.198451,300.769,293.843,264.95,294.788,290.511,262.728,0.133898,0.208174,243.846,260.217
2015-10-13 19:00,0.209255,299.765,293.641,264.747,294.916,291.193,262.965,0.182336,0.248174,244.322,260.463
2015-10-13 20:00,0.288661,298.242,292.108,263.928,293.248,289.826,262.965,0.376225,0.402749,244.79,260.952
2015-10-13 21:00,0.321262,294.156,290.965,263.203,292.209,289.413,262.728,0.720032,0.648667,244.894,261.515
2015-10-13 22:00,-0.00985883,290.301,289.699,262.786,291.686,289.276,262.847,-0.0,-0.0,244.945,261.755
2015-10-13 23:00,-0.0467697,290.301,289.272,262.261,291.292,289.137,263.553,-0.101828,-0.0404715,245.355,262.388
2015-10-14 00:00,-0.00210671,289.381,289.165,262.261,291.555,289.964,263.318,-0.00178375,-0.0,245.456,263.167
2015-10-14 01:00,-0.0,288.43,289.058,262.786,291.555,289.964,263.436,-0.0,-0.0,245.658,262.857
2015-10-14 02:00,-0.0,288.012,288.736,262.261,291.555,290.101,263.436,-0.0,-0.0,245.96,262.701
2015-10-14 03:00,-0.0,287.587,288.628,262.155,291.423,290.238,264.372,-0.0,-0.0,245.557,262.545
2015-10-14 04:00,-0.00133851,287.587,288.628,262.155,291.555,290.375,263.553,-0.0,-0.0,245.608,262.701
2015-10-14 05:00,-0.00146034,287.3,288.303,261.944,291.16,289.964,263.436,-0.0,-0.0,245.658,262.857
2015-10-14 06:00,-0.00174427,286.717,287.978,261.731,290.764,289.551,263.553,-0.0,-0.0,246.109,263.012
2015-10-14 07:00,-0.00237925,286.717,287.869,261.731,290.764,289.826,263.436,-0.0,-0.0,246.258,263.552
2015-10-14 08:00,-0.0,286.271,287.651,261.731,290.5,289.826,264.138,-0.0,-0.0,246.505,263.244
2015-10-14 09:00,-0.0596889,286.121,287.322,261.625,290.5,289.551,263.553,-0.126346,-0.150649,246.75,263.399
2015-10-14 10:00,0.431229,288.977,288.52,262.366,291.292,290.101,263.553,0.272623,0.446961,246.944,263.399
2015-10-14 11:00,0.465097,294.713,290.756,264.031,292.86,290.375,263.436,0.202589,0.407119,247.09,263.858
2015-10-14 13:00,0.309827,302.426,295.541,266.855,296.935,293.216,264.022,0.121928,0.264329,247.234,264.01
2015-10-14 14:00,0.257832,303.836,297.01,267.642,298.672,294.812,265.069,0.101588,0.221638,247.186,264.086
2015-10-14 15:00,0.226909,304.794,298.834,268.421,300.506,296.519,265.647,0.0878861,0.193741,247.09,264.086
2015-10-14 16:00,0.222052,302.848,293.944,265.355,295.424,291.735,263.436,0.116732,0.205699,247.186,263.552
2015-10-14 17:00,0.219179,304.319,295.837,266.756,297.184,292.948,262.492,0.131917,0.21461,246.652,262.857
2015-10-14 18:00,0.233741,302.932,294.746,265.859,296.182,292.276,263.67,0.18087,0.251603,246.603,262.935
2015-10-14 19:00,0.265638,303.346,295.639,266.855,297.06,293.082,264.372,0.238651,0.292744,246.701,261.755
2015-10-14 20:00,0.346036,302.085,295.045,266.657,296.935,293.883,264.022,0.39704,0.414642,244.997,261.595
2015-10-14 21:00,0.646363,296.323,292.725,265.052,294.661,292.141,263.2,0.904193,0.926799,245.809,262.623
2015-10-14 22:00,-0.0,265.095,269.908,251.922,272.741,272.565,255.532,-0.0,-0.0,247.76,261.113
2015-10-14 23:00,-0.0335328,283.428,281.86,259.024,283.656,281.293,259.492,-0.116408,-0.0372387,247.712,261.435
2015-10-15 00:00,-0.00211246,283.594,283.726,260.337,286.447,284.205,261.182,-0.00178862,-0.00213266,246.603,262.701
2015-10-15 01:00,-0.0016299,289.514,289.699,263.825,292.079,290.375,263.553,-0.0,-0.0,246.896,263.09
2015-10-15 02:00,-0.0,279.473,280.429,258.58,283.372,281.882,260.701,-0.0,-0.0,246.652,262.935
2015-10-15 03:00,-0.0,287.587,287.76,262.576,290.234,288.584,263.2,-0.0,-0.0,245.557,262.466
2015-10-15 04:00,-0.0013423,288.152,288.736,263.203,291.16,289.689,264.022,-0.0,-0.0,245.405,262.623
2015-10-15 05:00,0.00146522,285.818,285.77,261.305,288.222,286.626,262.492,-0.0,-0.0,244.997,262.23
2015-10-15 06:00,-0.0,287.444,287.869,262.681,290.234,288.584,263.553,-0.0,0.00176838,243.633,261.755
2015-10-15 07:00,-0.0,285.512,286.217,261.625,289.032,287.329,262.847,-0.0,-0.0,243.472,261.834
2015-10-15 08:00,-0.0,286.864,288.087,262.576,290.764,289.689,264.138,-0.0,-0.0,243.579,262.466
2015-10-15 09:00,-0.0322396,286.864,287.978,262.471,290.367,289.413,263.436,-0.191081,-0.195287,244.164,262.623
2015-10-15 10:00,0.470713,289.91,289.165,263.203,291.686,290.238,263.905,0.283308,0.429409,244.531,263.244
2015-10-15 11:00,0.459596,295.583,291.383,264.645,293.506,290.784,262.965,0.226244,0.374969,244.842,263.012
2015-10-15 12:00,0.387812,300.769,295.045,266.954,296.935,293.617,264.605,0.163409,0.319832,244.739,263.322
2015-10-15 13:00,0.310419,303.755,297.204,268.033,299.041,295.076,265.416,0.130188,0.260668,245.151,263.476
2015-10-15 14:00,0.258547,305.339,298.929,269.0,300.869,296.91,265.762,0.099211,0.217301,244.79,263.858
2015-10-15 15:00,0.236139,306.101,299.118,269.096,301.472,297.17,265.762,0.0989492,0.206773,245.048,263.858
2015-10-15 16:00,0.30088,298.242,281.86,259.464,283.514,281.735,260.822,0.274351,0.332041,244.531,262.072
2015-10-15 17:00,0.278179,303.181,291.174,264.747,292.989,288.999,263.083,0.196464,0.278176,245.658,262.779
2015-10-15 18:00,0.327655,301.913,285.433,261.838,287.815,284.779,260.822,0.297054,0.347951,245.91,262.072
2015-10-15 19:00,0.48777,304.078,286.772,261.625,289.032,285.35,260.822,0.44384,0.529212,246.208,262.466
2015-10-15 20:00,0.522365,302.426,290.123,264.031,291.817,288.584,262.373,0.586984,0.638039,246.357,262.466
2015-10-15 21:00,0.547838,296.84,293.336,266.159,295.677,293.082,264.953,0.904122,0.890545,246.554,263.244
2015-10-15 22:00,-0.0,291.563,290.965,264.543,293.506,291.329,263.905,-0.0,-0.0,246.652,263.09
2015-10-15 23:00,-0.0370304,291.065,290.756,264.441,293.635,291.735,264.255,-0.0997615,-0.0339858,247.041,263.167
2015-10-16 00:00,-0.00423686,290.429,290.756,264.236,293.506,292.141,265.069,-0.00179367,-0.0,246.993,263.706
2015-10-16 01:00,0.00163397,289.779,290.229,263.928,292.86,291.329,264.255,-0.0,-0.0,246.701,263.322
2015-10-16 02:00,-0.00141331,289.113,289.911,263.721,292.6,291.193,264.837,-0.0,-0.0,246.554,263.244
2015-10-16 03:00,-0.0,288.568,289.272,263.307,292.079,290.511,263.787,-0.0,-0.0,246.059,262.623
2015-10-16 04:00,-0.0,288.291,289.272,263.307,292.209,291.057,263.905,-0.0,-0.0,246.208,262.701
2015-10-16 05:00,-0.0,287.871,289.058,263.099,292.079,290.784,264.255,-0.0,-0.0,245.96,262.466
2015-10-16 06:00,-0.0,277.451,276.718,256.32,279.76,276.784,257.406,-0.0,-0.0,245.96,259.804
2015-10-16 07:00,-0.0,287.3,288.412,262.471,291.292,290.101,263.787,-0.0,-0.0,245.809,261.834
2015-10-16 08:00,-0.0,287.3,288.195,262.155,291.16,290.101,263.905,-0.0,-0.00436695,246.109,261.675
2015-10-16 09:00,-0.0349999,286.717,287.978,262.366,290.897,289.964,263.787,-0.207441,-0.212007,245.859,261.755
2015-10-16 10:00,0.464507,289.91,289.593,263.099,292.6,291.057,264.255,0.298527,0.423748,245.91,261.755
2015-10-16 11:00,0.459542,296.114,292.211,264.543,294.661,292.276,264.255,0.215913,0.386166,246.009,262.151
2015-10-16 12:00,0.379114,300.679,294.245,265.758,296.182,292.41,264.138,0.170481,0.311318,246.009,261.993
2015-10-16 13:00,0.311033,303.998,296.425,267.249,298.178,293.617,264.605,0.135963,0.257047,246.109,261.755
2015-10-16 14:00,0.280882,304.872,293.843,265.859,295.55,291.057,262.965,0.146352,0.242508,245.91,261.595
2015-10-16 15:00,0.253768,306.025,292.211,264.747,293.119,288.167,261.421,0.148674,0.220983,245.809,260.463
2015-10-16 16:00,0.407448,297.349,271.437,253.02,274.0,271.765,255.153,0.405744,0.478877,245.048,258.543
2015-10-16 17:00,0.32648,299.672,275.823,255.858,278.278,276.323,258.392,0.334391,0.354853,244.426,258.457
2015-10-16 18:00,0.350296,297.349,278.226,256.089,278.873,275.396,254.773,0.37891,0.450235,244.426,258.967
2015-10-16 19:00,0.482805,287.871,260.854,245.723,258.865,253.122,239.322,0.501153,0.59347,230.916,243.457
2015-10-16 20:00,0.961241,292.053,244.598,238.04,239.183,233.474,225.36,0.936371,1.07429,220.219,228.06
2015-10-16 21:00,1.88649,291.065,261.179,246.13,258.491,253.896,240.06,1.51158,1.90452,225.352,237.043
2015-10-16 22:00,-0.0,284.888,279.58,257.459,280.639,277.243,255.28,-0.0,-0.0,230.835,249.617
2015-10-16 23:00,-0.0236605,273.088,271.574,252.899,274.312,271.765,253.753,-0.0744096,-0.0272991,232.935,253.117
2015-10-17 00:00,-0.00212461,290.813,289.486,263.307,292.47,290.238,263.083,-0.0,-0.0,236.139,257.158
2015-10-17 01:00,-0.0,288.43,286.217,261.198,288.358,286.343,260.461,-0.0,-0.0,234.897,256.36
2015-10-17 02:00,-0.0,282.581,278.474,257.233,279.613,276.015,253.881,-0.0,-0.0,231.865,252.146
2015-10-17 03:00,-0.0,279.278,272.527,253.261,273.686,269.0,249.705,-0.0,-0.00134567,232.02,250.442
2015-10-17 04:00,-0.00135004,266.131,262.774,248.252,264.618,262.008,247.279,-0.0,-0.0,232.328,249.513
2015-10-17 05:00,-0.0,264.009,260.854,247.465,262.507,260.225,247.006,-0.0,-0.0,233.456,250.032
2015-10-17 06:00,-0.0,263.255,262.616,248.382,265.654,264.451,251.814,-0.0,-0.0,236.609,252.925
2015-10-17 07:00,-0.0,283.093,282.448,259.024,285.201,281.588,258.147,-0.0,-0.0,238.42,256.36
2015-10-17 08:00,-0.0,273.338,270.746,252.899,274.156,269.657,253.24,-0.0,-0.0,238.981,254.349
2015-10-17 09:00,-0.152847,271.261,270.329,252.29,273.686,271.283,254.9,-0.291184,-0.308616,238.919,255.183
2015-10-17 10:00,0.756958,290.813,273.199,254.099,275.396,270.798,253.625,0.547351,0.680523,237.268,254.068
2015-10-17 11:00,0.509739,296.323,287.212,261.412,289.835,285.635,260.701,0.284003,0.447953,236.742,256.539
2015-10-17 12:00,0.394017,302.341,297.397,267.642,300.627,297.559,265.993,0.163746,0.344867,236.808,257.682
2015-10-17 13:00,0.315998,305.95,300.898,269.765,304.324,301.264,266.909,0.123393,0.268034,237.333,258.628
2015-10-17 14:00,0.26636,308.561,303.184,271.552,306.997,303.515,268.497,0.102024,0.222808,237.849,259.721
2015-10-17 15:00,0.23533,309.989,304.26,271.83,307.799,303.763,268.045,0.0884442,0.196367,238.671,259.22
2015-10-17 16:00,0.272035,306.845,295.442,266.756,298.055,294.016,263.436,0.161438,0.246436,238.483,257.942
2015-10-17 17:00,0.211644,305.646,296.913,267.446,299.164,295.076,263.905,0.13913,0.204378,237.528,257.595
2015-10-17 18:00,0.346678,302.256,285.546,260.553,287.543,283.484,259.614,0.28179,0.367102,237.137,255.275
2015-10-17 19:00,0.225821,302.932,292.108,264.441,294.277,290.101,261.54,0.269732,0.293117,237.785,256.45
2015-10-17 20:00,0.628202,295.151,275.694,255.043,277.678,275.396,255.658,0.683868,0.757165,239.043,254.814
2015-10-17 21:00,0.246202,296.008,291.798,264.339,294.021,290.648,263.318,0.486404,0.451082,239.532,258.028
2015-10-17 22:00,-0.0102837,293.24,291.591,264.543,294.533,291.871,264.488,-0.0,-0.0,240.134,258.2
2015-10-17 23:00,-0.0237602,278.075,269.626,251.429,270.332,265.48,248.094,-0.0632271,-0.0274141,234.041,249.617
2015-10-18 00:00,-0.00426203,258.576,253.411,242.799,252.868,249.55,239.025,-0.0,-0.0,231.943,245.114
2015-10-18 01:00,-0.0,278.279,269.485,251.429,269.35,264.279,246.044,-0.0,-0.0,232.481,247.151
2015-10-18 02:00,-0.0,256.589,254.69,242.942,256.406,255.614,244.652,-0.0,-0.0,232.709,246.929
2015-10-18 03:00,-0.0,255.521,255.941,244.07,258.116,257.115,245.211,-0.0,-0.0,234.615,249.513
2015-10-18 04:00,-0.00135398,254.396,250.175,240.171,251.242,249.55,238.876,-0.0,-0.0,233.53,245.804
2015-10-18 05:00,-0.0,267.761,259.373,245.314,259.791,255.614,241.374,-0.0,-0.0,231.709,245.345
2015-10-18 06:00,-0.0,272.061,262.3,247.332,260.888,257.486,244.231,-0.0,-0.0,227.601,242.725
2015-10-18 07:00,0.00243623,273.831,261.501,247.597,259.421,255.803,241.229,-0.0,-0.0,224.86,240.446
2015-10-18 08:00,-0.00441858,275.48,264.635,247.597,263.393,259.321,241.953,-0.0,-0.0,227.238,243.577
2015-10-18 09:00,-0.251945,281.526,277.852,256.205,279.76,276.015,254.264,-0.319983,-0.423923,232.633,251.751
2015-10-18 10:00,0.562113,285.045,273.599,254.099,277.828,276.477,255.909,0.582218,0.677678,237.137,256.091
2015-10-18 11:00,0.449137,295.902,286.772,261.198,289.835,286.907,260.461,0.282433,0.424263,237.528,257.158
2015-10-18 12:00,0.372834,301.39,294.746,266.059,297.309,293.617,264.138,0.167751,0.320029,238.357,257.421
2015-10-18 13:00,0.309449,305.184,298.071,267.544,300.384,296.127,264.721,0.129177,0.26155,238.041,257.855
2015-10-18 14:00,0.263307,307.714,299.872,269.479,302.43,298.076,265.647,0.107183,0.218538,237.849,257.942
2015-10-18 15:00,0.225356,308.976,300.712,269.765,303.381,298.334,265.762,0.0943893,0.187575,237.657,257.595
2015-10-18 16:00,0.224345,309.52,301.36,270.239,304.207,299.232,266.108,0.100623,0.189761,237.398,257.421
2015-10-18 17:00,0.275669,307.355,292.108,265.052,294.277,289.276,261.182,0.180058,0.25445,237.072,256.091
2015-10-18 18:00,0.224614,306.176,298.549,268.421,300.99,296.389,264.721,0.170641,0.237633,237.333,256.894
2015-10-18 19:00,0.412543,309.722,293.843,265.758,295.93,290.375,261.421,0.361227,0.434772,237.657,256.001
2015-10-18 20:00,0.709345,311.863,288.303,262.049,289.032,283.339,258.882,0.652004,0.738706,237.785,255.091
2015-10-18 21:00,0.198749,288.705,280.549,257.685,281.51,277.701,256.035,0.290667,0.291854,234.543,251.85
2015-10-18 22:00,-0.0,243.066,223.597,227.817,220.184,217.29,216.466,-0.0,-0.0,212.126,216.652
2015-10-18 23:00,-0.0238639,232.213,218.862,225.306,216.355,214.697,214.062,-0.051957,-0.0206503,212.765,215.061
2015-10-19 00:00,-0.0,218.393,200.774,217.809,200.227,199.543,203.947,-0.00180994,-0.0,201.465,201.402
2015-10-19 01:00,-0.0,225.382,211.654,222.449,208.131,206.513,207.648,-0.0,-0.0,208.274,209.707
2015-10-19 02:00,-0.0,249.89,239.559,235.662,237.2,232.976,225.883,-0.0,-0.0,221.258,231.859
2015-10-19 03:00,-0.00134008,259.954,248.583,240.021,247.012,242.805,232.547,-0.0,-0.0,226.216,239.121
2015-10-19 04:00,-0.0,267.444,259.039,245.587,257.55,253.703,239.173,-0.0,-0.0,229.685,245.23
2015-10-19 05:00,-0.0,265.446,259.039,245.859,258.116,254.664,241.229,-0.0,-0.0,229.093,245.575
2015-10-19 06:00,-0.0017814,282.923,275.565,254.572,275.55,271.121,249.705,-0.0,-0.0,230.674,248.669
2015-10-19 07:00,-0.00245054,281.705,273.865,253.261,273.215,268.339,247.279,-0.0,-0.0,229.433,246.929
2015-10-19 08:00,-0.00446547,284.087,279.702,256.778,280.639,276.784,253.24,-0.0,-0.0,231.865,251.051
2015-10-19 09:00,-0.232481,285.045,282.096,257.91,283.514,280.108,256.41,-0.275578,-0.375526,232.784,253.021
2015-10-19 10:00,0.523103,286.569,275.046,253.741,274.0,269.657,248.903,0.410948,0.528103,228.662,246.818
2015-10-19 11:00,0.415387,288.841,273.065,252.777,272.423,266.667,244.231,0.294195,0.40617,228.575,245.575
2015-10-19 12:00,0.364401,296.427,283.495,258.58,283.514,278.004,252.853,0.200625,0.320766,231.473,250.442
2015-10-19 14:00,0.257755,302.256,287.76,260.984,288.222,282.613,254.9,0.129447,0.223227,232.709,252.537
2015-10-19 15:00,0.233378,305.028,292.622,263.411,293.506,288.167,258.392,0.1216,0.205402,233.382,253.595
2015-10-19 16:00,0.244613,300.947,282.566,258.022,283.797,277.091,251.291,0.176354,0.245729,232.709,250.95
2015-10-19 17:00,0.275288,300.769,282.096,257.12,282.66,277.396,252.982,0.239746,0.305712,233.159,251.652
2015-10-19 18:00,0.454695,301.125,270.885,251.18,270.169,265.99,248.903,0.404499,0.465245,233.896,249.617
2015-10-19 19:00,0.174743,299.203,289.272,261.412,290.764,285.919,257.653,0.273801,0.287939,236.408,254.162
2015-10-19 20:00,0.254821,298.436,284.528,259.793,284.361,278.911,254.137,0.253514,0.289414,232.709,250.238
2015-10-19 21:00,1.60185,293.24,255.23,243.226,249.789,242.805,229.283,1.18959,1.54488,221.484,233.146
2015-10-19 22:00,-0.0105332,272.322,252.853,241.936,248.307,242.364,228.782,-0.0,-0.0,221.93,233.617
2015-10-19 23:00,-0.0205471,265.791,241.682,236.466,236.186,230.946,221.598,-0.0347944,-0.027658,217.881,225.994
2015-10-20 00:00,-0.00214449,264.377,240.75,235.499,234.107,228.59,221.046,-0.0,-0.00216499,215.734,224.61
2015-10-20 01:00,-0.0016515,258.096,233.666,232.663,228.583,223.619,217.445,-0.0,-0.0,214.441,221.436
2015-10-20 02:00,-0.00142798,268.986,249.583,240.469,244.8,238.049,225.709,-0.0,-0.0,220.454,232.185
2015-10-20 03:00,-0.0,272.061,253.226,242.656,248.733,241.251,228.109,-0.0,-0.0,220.686,232.829
2015-10-20 04:00,-0.00136199,270.713,252.853,242.369,248.307,241.027,227.77,-0.0,-0.0,219.744,232.185
2015-10-20 05:00,-0.0,277.026,264.482,247.728,262.329,256.742,238.428,-0.0,-0.0,227.691,241.728
2015-10-20 06:00,-0.0017889,274.787,261.982,246.667,260.706,256.367,239.322,-0.0,0.001806,227.055,241.348
2015-10-20 07:00,-0.0,277.24,266.738,249.029,265.997,262.008,242.241,-0.0,-0.0,228.224,243.336
2015-10-20 08:00,0.00451256,266.797,250.175,240.617,246.135,241.027,229.615,-0.0,-0.0,220.57,232.185
2015-10-20 09:00,-0.207805,272.322,258.195,244.21,255.049,250.557,236.765,-0.263923,-0.26224,223.434,236.469
2015-10-20 10:00,0.389187,283.261,272.662,251.676,272.264,268.339,247.415,0.352094,0.44673,229.178,245.575
2015-10-20 11:00,0.387253,289.647,278.968,255.742,279.466,275.396,252.464,0.255267,0.359468,231.63,248.882
2015-10-20 12:00,0.33996,293.816,279.945,256.32,279.76,275.24,251.422,0.209065,0.308888,232.405,249.198
2015-10-20 13:00,0.310847,300.225,287.322,260.553,287.679,282.904,257.034,0.161312,0.26031,234.257,252.146
2015-10-20 14:00,0.262331,303.674,292.314,263.411,293.377,288.445,260.219,0.130279,0.220274,234.401,253.88
2015-10-20 15:00,0.238996,305.106,293.843,264.747,295.297,290.101,261.898,0.13558,0.209914,234.401,254.536
2015-10-20 16:00,0.336183,300.947,281.86,257.798,283.938,280.257,258.392,0.297956,0.362593,234.472,253.974
2015-10-20 17:00,0.123057,300.134,293.031,263.928,294.916,290.784,261.779,0.130795,0.165204,235.455,255.091
2015-10-20 18:00,0.346646,283.428,233.938,233.681,226.221,219.777,214.671,0.342855,0.399512,212.287,218.653
2015-10-20 19:00,0.621445,278.075,209.237,221.386,207.702,206.128,208.761,0.723068,0.839887,207.697,207.326
2015-10-20 20:00,0.904917,283.093,209.734,221.386,207.702,206.895,208.761,0.865663,1.02897,207.891,208.027
2015-10-20 21:00,1.77261,280.427,212.119,223.076,208.977,208.026,208.982,1.40331,1.87008,209.748,209.379
2015-10-20 22:00,-0.0,253.206,227.219,229.665,221.511,216.972,214.062,-0.0,-0.0107705,212.448,216.652
2015-10-20 23:00,-0.0240836,271.798,252.853,242.369,248.093,241.475,228.949,-0.0320438,-0.0208404,220.454,232.829
2015-10-21 00:00,-0.00215156,270.713,250.954,241.354,246.794,240.123,227.26,-0.0,-0.00217213,218.891,231.364
2015-10-21 01:00,-0.0,268.986,249.583,240.766,245.914,238.747,225.709,-0.0,-0.0,218.642,230.524
2015-10-21 02:00,-0.0,266.797,252.29,241.791,249.998,244.112,230.604,-0.0,0.00144554,220.686,235.887
2015-10-21 03:00,-0.0,266.797,248.38,239.57,245.693,238.515,227.77,-0.0,-0.0,218.642,229.314
2015-10-21 04:00,-0.00136606,249.89,239.559,235.499,237.2,233.969,227.77,-0.0,-0.0,221.484,230.863
2015-10-21 05:00,-0.0,283.261,275.176,253.86,274.778,269.165,247.823,-0.0,-0.0,225.352,243.093
2015-10-21 06:00,-0.0,276.376,269.485,250.931,269.35,265.138,246.594,-0.0,-0.00181357,225.254,244.294
2015-10-21 07:00,-0.0,281.526,272.391,252.412,272.264,266.835,246.869,-0.0,-0.0,224.76,243.698
2015-10-21 08:00,-0.0045598,281.526,273.333,252.168,273.686,269.165,247.687,-0.0,-0.00460339,224.959,244.881
2015-10-21 09:00,-0.117364,269.865,256.294,242.799,254.657,250.757,237.676,-0.298116,-0.296215,223.224,236.325
2015-10-21 10:00,0.785651,281.165,261.017,245.859,261.971,259.502,245.489,0.660745,0.798485,226.592,245.114
2015-10-21 11:00,0.457735,293.93,284.414,258.802,286.033,281.882,257.158,0.275893,0.368122,229.263,250.442
2015-10-21 12:00,0.360303,298.242,287.541,260.228,288.358,283.339,256.785,0.188779,0.291718,228.748,250.849
2015-10-21 13:00,0.314438,298.339,282.916,257.685,283.088,277.396,253.368,0.168211,0.262612,226.592,247.261
2015-10-21 14:00,0.274461,299.297,281.742,257.233,281.51,275.706,251.944,0.153502,0.23387,226.122,245.918
2015-10-21 15:00,0.258929,303.674,290.965,262.471,291.817,287.329,260.701,0.158617,0.230084,229.601,252.047
2015-10-21 17:00,0.287624,302.68,288.195,261.519,289.701,285.35,260.581,0.255707,0.303572,230.266,253.595
2015-10-21 18:00,0.329284,291.686,270.746,251.056,270.169,265.82,247.551,0.333269,0.383457,228.4,244.53
2015-10-21 19:00,0.412158,296.531,276.718,253.98,275.55,270.311,247.959,0.491273,0.523153,229.348,247.151
2015-10-21 20:00,0.512716,299.391,281.86,257.12,282.374,276.631,251.028,0.830715,0.817963,230.101,250.646
2015-10-21 21:00,3.33514,298.63,242.597,236.146,240.87,234.461,221.415,2.89074,3.82777,220.337,228.603
2015-10-21 22:00,-0.0,225.382,213.921,222.659,211.428,209.133,210.073,-0.0,-0.0,207.891,210.67
2015-10-21 23:00,-0.0207427,278.883,264.329,247.465,263.217,257.856,240.793,-0.0175628,-0.0209409,224.86,239.922
2015-10-22 00:00,-0.00431772,285.357,279.945,256.32,280.785,279.211,255.784,-0.0,-0.0,228.662,245.575
2015-10-22 01:00,-0.001661,218.393,209.237,220.736,207.269,206.513,208.761,-0.0,-0.0,206.905,207.326
2015-10-22 02:00,-0.0,213.142,207.704,220.736,205.497,204.159,205.593,-0.0,-0.0,205.233,205.868
2015-10-22 03:00,-0.0,253.206,235.538,232.663,233.842,231.203,225.009,-0.0,-0.0,218.391,226.57
2015-10-22 04:00,0.00137017,283.428,277.852,254.926,278.576,275.24,251.028,-0.0,-0.0,228.488,248.025
2015-10-22 05:00,0.00150039,288.152,288.412,261.091,291.948,290.648,263.2,-0.0,-0.0,231.076,253.88
2015-10-22 06:00,-0.0,287.729,288.52,261.412,292.079,290.648,263.67,-0.0,-0.0,230.755,253.88
2015-10-22 07:00,-0.0,287.3,287.432,260.769,290.764,289.276,262.847,-0.0,-0.0,231.315,253.785
2015-10-22 08:00,-0.0,287.3,287.651,260.769,291.029,289.276,263.083,-0.0,-0.0,231.709,253.88
2015-10-22 09:00,-0.268724,287.01,287.322,260.553,290.632,288.861,262.728,-0.511938,-0.474762,232.175,253.595
2015-10-22 10:00,0.433026,290.041,288.303,260.769,291.423,289.276,262.965,0.291547,0.363427,231.787,253.405
2015-10-22 11:00,0.440098,295.368,290.651,262.261,293.248,290.375,262.847,0.213554,0.337776,232.405,253.69
2015-10-22 12:00,0.371669,300.408,292.827,263.618,295.043,291.057,262.965,0.17165,0.287251,233.382,253.88
2015-10-22 13:00,0.309482,304.159,295.343,265.153,297.434,292.814,263.436,0.136453,0.243329,233.603,253.974
2015-10-22 14:00,0.260173,305.028,295.541,265.355,297.434,292.276,263.318,0.119189,0.208098,233.75,254.068
2015-10-22 15:00,0.22639,306.176,296.327,265.658,298.055,293.35,263.787,0.112992,0.191263,234.543,254.443
2015-10-22 16:00,0.219511,305.798,295.244,264.95,296.684,292.276,263.318,0.134799,0.197257,234.543,254.536
2015-10-22 17:00,0.223271,305.339,294.945,265.052,296.559,291.735,262.728,0.165827,0.220132,233.75,254.256
2015-10-22 18:00,0.221748,303.592,294.044,264.339,295.55,291.057,262.373,0.226599,0.264009,233.823,254.443
2015-10-22 19:00,0.28555,302.256,292.929,263.825,294.405,290.101,262.136,0.387178,0.395125,234.401,254.907
2015-10-22 20:00,0.331227,300.408,292.108,264.031,293.892,289.276,261.779,0.726498,0.665603,235.731,255.73
2015-10-22 21:00,1.33823,300.947,287.541,260.661,288.628,284.061,256.909,1.50832,1.81599,234.897,254.068
2015-10-22 22:00,-0.0109624,267.444,246.313,238.04,244.8,238.978,226.746,-0.0,-0.0,221.031,231.364
2015-10-22 23:00,-0.0138973,251.282,233.392,232.146,232.772,229.909,224.481,-0.0176502,-0.0175377,219.503,226.379
2015-10-23 00:00,-0.0,287.3,281.148,255.974,281.221,276.631,253.625,-0.0,-0.00218709,231.943,251.751
2015-10-23 01:00,-0.0,281.346,269.908,248.642,267.69,260.584,240.06,-0.0,-0.0,229.348,245.46
2015-10-23 02:00,-0.0,286.864,283.726,258.246,285.061,281.882,257.034,-0.0,-0.0,232.784,251.949
2015-10-23 03:00,0.00135506,289.113,288.628,261.519,291.686,289.551,262.728,-0.0,-0.0,234.897,255.275
2015-10-23 04:00,-0.0,288.977,288.087,261.412,291.16,288.861,262.492,-0.0,-0.0,233.308,254.999
2015-10-23 05:00,-0.0,288.152,287.102,260.876,289.968,287.609,261.779,-0.0,-0.0,235.731,254.814
2015-10-23 06:00,-0.0,284.888,280.549,257.459,281.076,275.551,251.159,-0.0,-0.0,233.823,250.135
2015-10-23 07:00,-0.0,267.123,261.34,246.533,259.791,254.664,240.06,-0.0,-0.0,229.093,243.698
2015-10-23 08:00,-0.00465451,283.261,276.718,254.572,276.62,271.283,248.903,-0.0,-0.0,230.996,248.025
2015-10-23 09:00,-0.234694,281.526,272.796,253.02,271.464,264.451,243.808,-0.331192,-0.394896,227.601,244.998
2015-10-23 10:00,0.464786,276.811,248.38,239.115,242.515,234.706,223.949,0.485358,0.573502,217.096,228.423
2015-10-23 11:00,0.391956,281.165,251.339,240.766,246.355,238.978,226.574,0.370912,0.452601,218.642,230.694
2015-10-23 12:00,0.359959,284.57,256.992,243.79,252.465,245.186,230.604,0.283757,0.37235,220.57,233.461
2015-10-23 13:00,0.308843,300.134,288.843,261.519,289.434,283.194,256.035,0.154247,0.255758,229.852,250.748
2015-10-23 14:00,0.368923,290.429,260.036,245.314,257.361,251.947,238.727,0.313429,0.374983,225.352,240.835
2015-10-23 15:00,0.371246,302.68,277.224,255.043,277.678,271.444,251.944,0.279072,0.345965,230.184,250.34
2015-10-23 16:00,0.231281,298.339,279.945,255.742,280.201,273.675,250.633,0.189705,0.255381,229.093,247.261
2015-10-23 17:00,0.276449,297.449,277.977,254.454,278.427,271.765,246.044,0.320189,0.404157,230.266,247.59
2015-10-23 18:00,0.291666,283.76,235.011,232.319,229.444,223.332,219.551,0.504251,0.568868,220.337,228.96
2015-10-23 19:00,0.657666,278.279,202.034,218.502,199.715,199.102,203.947,0.926387,1.04824,202.469,200.956
2015-10-23 20:00,1.03125,285.512,209.237,221.17,208.131,206.128,208.761,1.16332,1.36487,210.102,209.379
2015-10-23 21:00,1.48824,275.02,206.643,220.077,205.497,204.559,206.743,1.26009,1.61537,207.304,206.968
2015-10-23 22:00,-0.0111219,213.142,207.178,220.517,205.497,204.159,206.97,-0.0,-0.0,206.498,205.868
2015-10-23 23:00,-0.0139687,227.984,212.119,222.449,211.028,209.859,211.57,-0.0147841,-0.0176278,210.624,211.295
2015-10-24 00:00,-0.00217414,225.382,215.64,223.283,214.141,212.673,212.827,-0.0,-0.00219492,212.448,214.233
2015-10-24 01:00,-0.0,243.066,236.318,233.005,234.633,232.474,227.089,-0.0,-0.0,222.04,231.031
2015-10-24 02:00,-0.0,250.598,233.938,232.834,229.444,225.597,220.489,-0.0,-0.0,216.15,224.204
2015-10-24 03:00,0.00135894,249.156,238.83,234.681,236.186,232.221,226.918,-0.0,-0.0,220.686,229.664
2015-10-24 04:00,0.00137849,271.531,259.706,245.859,257.928,252.927,237.373,-0.0,-0.0,223.642,237.185
2015-10-24 05:00,-0.00151067,274.073,259.373,246.13,257.55,250.757,234.604,-0.0,-0.0,220.337,233.773
2015-10-24 06:00,-0.0,282.408,275.823,254.69,276.01,270.798,248.499,-0.0,-0.0,225.352,243.698
2015-10-24 07:00,-0.0,277.869,267.764,250.806,266.338,259.864,240.793,-0.0,-0.0,221.145,237.748
2015-10-24 08:00,-0.00470186,275.48,264.94,248.252,264.444,259.684,241.808,-0.0,-0.0,222.692,236.179
2015-10-24 09:00,-0.838418,267.761,254.871,243.368,253.269,246.035,235.537,-0.788764,-1.12858,225.931,237.608
2015-10-24 10:00,0.644369,286.569,256.644,244.21,255.439,248.327,237.827,0.515276,0.650529,226.871,239.121
2015-10-24 11:00,0.372366,291.065,284.3,259.134,286.447,282.613,256.909,0.207309,0.3888,229.348,247.261
2015-10-24 12:00,0.348354,294.823,286.105,259.902,287.951,283.339,256.66,0.163196,0.330261,228.921,247.371
2015-10-24 13:00,0.292607,296.114,285.321,259.464,286.447,280.85,255.027,0.132294,0.27246,228.048,245.46
2015-10-24 14:00,0.244314,298.918,289.593,262.155,291.423,286.06,258.023,0.1029,0.225147,229.601,248.348
2015-10-24 15:00,0.216275,300.589,291.798,263.203,293.635,288.445,259.977,0.0885413,0.197948,229.263,249.303
2015-10-24 16:00,0.194904,300.947,292.622,263.825,294.533,289.276,260.822,0.090662,0.185836,230.184,250.032
2015-10-24 17:00,0.194053,301.999,294.044,264.339,296.684,291.6,261.54,0.103655,0.193278,230.755,251.051
2015-10-24 18:00,0.199751,301.125,293.641,264.133,296.056,291.464,262.255,0.135562,0.217055,231.156,251.252
2015-10-24 19:00,0.210832,299.391,292.622,263.411,295.17,290.648,262.255,0.225665,0.279111,232.02,251.652
2015-10-24 20:00,0.297677,294.156,284.755,258.246,286.31,282.175,258.147,0.490819,0.506143,231.787,251.051
2015-10-24 21:00,0.681196,293.472,285.882,259.902,288.222,284.636,259.977,0.915618,0.979984,232.935,251.552
2015-10-24 22:00,0.0112906,270.713,265.545,248.382,268.024,265.65,249.171,-0.0,-0.0,232.097,248.775
2015-10-24 23:00,-0.0140427,254.966,254.871,242.513,255.049,254.472,244.792,-0.0148624,-0.0141769,231.63,243.577
2015-10-25 00:00,-0.00218212,289.381,285.433,259.574,287.27,283.339,258.147,-0.00184759,-0.00220298,231.787,249.617
2015-10-25 01:00,-0.00167618,287.444,284.755,259.354,287.134,283.629,259.37,-0.0,-0.0,232.251,250.849
2015-10-25 02:00,0.00144811,288.43,286.105,259.134,288.358,285.208,260.098,-0.0,-0.0,232.935,251.452
2015-10-25 03:00,-0.0,277.869,273.065,253.501,276.163,272.246,254.009,-0.0,-0.0,233.234,251.051
2015-10-25 04:00,-0.0,268.382,263.712,247.597,265.997,264.106,250.104,-0.0,-0.0,232.784,249.928
2015-10-25 05:00,-0.0,265.791,263.245,247.465,265.482,263.933,250.765,-0.0,-0.0,231.709,249.093
2015-10-25 06:00,-0.0,260.395,258.871,244.626,260.888,259.684,245.767,-0.0,-0.0,230.674,246.032
2015-10-25 07:00,-0.0,255.521,249.781,239.871,249.157,246.457,236.613,-0.0,-0.0,225.643,239.523
2015-10-25 08:00,-0.00474912,283.428,278.721,255.742,280.639,276.784,254.9,-0.0,-0.0,230.674,248.669
2015-10-25 09:00,-0.228779,287.444,284.869,258.58,287.27,284.061,259.492,-0.677973,-0.692897,232.328,250.646
2015-10-25 10:00,0.425572,290.301,285.658,259.354,287.815,284.349,259.492,0.25309,0.388722,232.405,251.051
2015-10-25 11:00,0.441893,295.476,288.087,260.445,289.3,285.065,259.37,0.202127,0.384584,233.823,251.252
2015-10-25 12:00,0.382704,299.013,285.546,258.913,286.722,281.882,258.147,0.188149,0.334729,233.603,250.849
2015-10-25 13:00,0.449422,299.203,264.94,248.121,267.522,264.967,250.501,0.332509,0.425092,233.896,249.617
2015-10-25 14:00,0.245202,299.672,288.412,260.661,288.763,283.484,258.27,0.115458,0.221023,233.01,250.34
2015-10-25 15:00,0.256352,301.037,288.303,260.769,289.166,283.484,258.023,0.11757,0.215669,232.557,250.34
2015-10-25 16:00,0.222312,300.317,287.76,260.661,288.628,283.339,258.147,0.120061,0.214732,233.085,250.544
2015-10-25 17:00,0.3408,297.649,275.176,253.501,275.857,272.565,254.519,0.307277,0.378201,232.86,250.135
2015-10-25 18:00,0.234481,298.918,288.736,261.198,289.701,285.35,260.581,0.15857,0.244408,233.159,251.652
2015-10-25 19:00,0.222321,297.349,289.486,261.305,290.764,285.919,260.461,0.208407,0.274546,233.234,251.652
2015-10-25 20:00,0.240448,294.823,288.736,261.198,290.234,285.777,260.34,0.33843,0.362543,232.557,251.051
2015-10-25 21:00,0.34551,292.534,286.882,260.337,288.358,284.205,259.856,0.684978,0.64658,232.784,250.34
2015-10-25 22:00,-0.0,279.081,272.662,253.02,273.686,268.67,251.028,-0.0,-0.0,231.865,247.808
2015-10-25 23:00,-0.0141192,260.395,254.145,243.509,253.669,251.156,239.913,-0.0119547,-0.0178178,227.691,241.221
2015-10-26 00:00,-0.00219033,251.282,244.38,237.728,243.895,241.475,233.344,-0.0,-0.0,225.156,236.757
2015-10-26 01:00,-0.00168148,252.585,243.94,237.258,243.667,241.251,233.503,-0.0,-0.0,225.643,236.469
2015-10-26 02:00,-0.0,253.206,245.89,238.349,246.794,244.544,236.613,-0.0,-0.0,228.488,239.656
2015-10-26 03:00,-0.0,259.045,250.954,240.913,251.447,248.736,239.47,-0.0,-0.0,229.093,241.221
2015-10-26 04:00,0.00138694,285.045,279.702,256.434,280.493,275.861,253.753,-0.0,-0.0,230.018,246.818
2015-10-26 05:00,-0.0,285.357,280.429,256.664,281.655,277.548,254.392,-0.0,-0.0,230.018,247.261
2015-10-26 06:00,-0.0,272.061,269.908,251.056,272.741,270.311,252.853,-0.0,-0.0,231.076,248.241
2015-10-26 07:00,-0.0,262.475,261.982,246.13,264.965,263.933,249.971,-0.0,-0.0,230.674,247.481
2015-10-26 08:00,-0.0,257.103,254.69,242.369,256.598,254.664,242.814,-0.0,-0.0,227.691,242.478
2015-10-26 09:00,-2.20379,258.096,252.666,240.913,254.066,252.144,240.5,-2.36353,-2.96648,225.931,240.053
2015-10-26 10:00,0.712994,272.061,255.409,242.656,257.17,255.803,243.808,0.773745,0.871883,228.575,243.457
2015-10-26 11:00,0.720845,283.76,255.409,242.799,256.598,254.855,242.671,0.837341,0.921799,228.312,243.457
2015-10-26 12:00,0.531265,287.155,259.206,244.903,261.069,259.684,247.687,0.734311,0.797411,230.996,247.04
2015-10-26 13:00,0.522199,284.73,253.411,242.225,254.066,253.122,242.814,0.621879,0.675776,226.027,240.576
2015-10-26 14:00,0.463473,290.171,259.706,245.04,261.971,260.045,247.415,0.424155,0.4843,228.136,245.345
2015-10-26 15:00,0.48363,297.248,266.59,248.642,269.842,268.67,251.814,0.44261,0.491844,229.769,248.348
2015-10-26 16:00,0.250863,296.738,278.845,254.926,279.613,276.169,255.784,0.213422,0.281132,231.63,250.34
2015-10-26 17:00,0.235153,300.042,287.651,259.574,288.493,283.484,258.638,0.170503,0.246582,232.175,250.646
2015-10-26 18:00,0.427232,268.073,200.125,217.809,200.227,199.981,202.009,0.783978,0.856493,199.307,198.603
2015-10-26 19:00,0.659677,274.787,205.549,219.855,205.497,203.757,205.593,0.934268,1.07397,208.464,207.678
2015-10-26 20:00,1.07669,279.473,219.628,225.107,218.13,216.008,216.071,1.10134,1.31632,217.622,219.372
2015-10-26 21:00,2.22651,285.665,246.523,238.349,246.794,242.805,232.867,1.76515,2.30673,224.86,236.757
2015-10-26 22:00,-0.0,265.095,260.854,245.451,262.685,260.225,246.457,-0.0,-0.0,229.093,244.998
2015-10-26 23:00,-0.0141985,266.131,264.635,247.728,267.185,266.329,252.335,-0.0120218,-0.0143342,230.996,247.917
2015-10-27 00:00,-0.0,277.24,273.599,252.534,276.163,271.605,253.368,-0.0,-0.00221978,229.433,247.04
2015-10-27 01:00,-0.0,282.581,279.458,255.51,281.221,276.784,255.784,-0.0,-0.0,229.685,247.699
2015-10-27 02:00,-0.00145669,285.357,281.742,256.32,282.803,279.211,256.035,-0.0,-0.0,227.42,245.575
2015-10-27 03:00,-0.0,281.526,273.466,252.168,273.372,268.505,247.687,-0.0,-0.0,226.122,242.602
2015-10-27 04:00,-0.0,257.605,241.913,235.337,239.911,237.815,229.781,-0.0,0.0014045,221.819,229.314
2015-10-27 05:00,-0.0,259.954,245.248,237.884,244.349,240.123,231.419,-0.0,-0.0,221.708,230.183
2015-10-27 06:00,-0.0,264.377,251.339,239.871,249.998,244.544,233.819,-0.0,-0.0,223.434,233.146
2015-10-27 07:00,0.00256384,285.357,281.742,256.32,283.797,280.257,256.035,-0.0,-0.0,228.835,247.04
2015-10-27 08:00,-0.00968623,286.121,284.185,258.134,286.585,283.773,259.249,-0.0,-0.0,229.601,248.133
2015-10-27 09:00,-1.01446,286.121,284.185,257.798,286.86,283.917,259.005,-1.88968,-1.84349,230.674,248.987
2015-10-27 10:00,0.41319,289.113,285.321,258.358,287.543,284.061,259.127,0.261332,0.386986,230.266,248.562
2015-10-27 11:00,0.428305,294.156,287.212,259.354,288.897,284.922,259.735,0.196255,0.358637,230.755,249.303
2015-10-27 12:00,0.363267,298.339,289.058,260.337,290.234,285.35,259.37,0.150074,0.315361,232.02,249.721
2015-10-27 13:00,0.41252,302.085,270.329,250.806,271.785,267.84,251.944,0.279903,0.367971,232.251,248.133
2015-10-27 14:00,0.409201,295.368,264.788,247.728,267.016,265.309,251.553,0.311611,0.381625,233.823,248.669
2015-10-27 15:00,0.311387,300.947,269.626,250.681,270.819,267.673,252.723,0.20651,0.274919,234.472,250.646
2015-10-27 16:00,0.211018,296.635,282.214,256.549,282.946,277.701,253.24,0.139077,0.22635,233.234,248.455
2015-10-27 17:00,0.224491,299.672,282.331,255.51,281.799,274.773,249.572,0.142832,0.234498,233.603,248.133
2015-10-27 18:00,0.358297,303.346,280.187,255.51,281.221,276.169,255.28,0.250665,0.343329,235.799,251.652
2015-10-27 19:00,0.881741,298.918,262.141,246.265,264.965,264.451,251.028,0.806829,0.932083,235.867,251.252
2015-10-27 20:00,1.12871,306.475,272.12,251.429,273.686,270.148,252.853,0.942546,1.12384,235.867,251.452
2015-10-27 21:00,0.346533,276.811,268.054,249.286,269.679,268.173,252.594,0.461071,0.483121,233.01,249.825
2015-10-27 22:00,-0.0,218.393,209.237,220.298,207.702,205.74,208.096,-0.0,-0.0,210.102,210.032
2015-10-27 23:00,-0.0142804,227.984,210.707,221.6,209.394,207.651,209.638,-0.00906837,-0.0108127,209.748,209.707
2015-10-28 00:00,-0.00220743,230.231,220.379,226.287,220.519,218.547,217.445,-0.00186903,-0.0,216.56,218.895
2015-10-28 01:00,-0.00169243,254.396,240.039,235.173,235.672,229.647,223.592,-0.0,-0.0,218.642,227.877
2015-10-28 02:00,-0.00146109,261.251,243.719,236.625,240.392,234.461,226.746,-0.0,-0.0,221.371,231.031
2015-10-28 03:00,-0.0,230.231,216.88,224.102,213.763,210.576,212.202,-0.0,-0.0,211.8,214.233
2015-10-28 04:00,-0.0,227.984,220.379,225.897,218.824,216.972,215.674,-0.0,-0.0,215.31,217.918
2015-10-28 05:00,-0.0,232.213,225.282,227.628,224.072,222.753,221.965,-0.0,-0.0,218.391,221.878
2015-10-28 06:00,-0.0,235.601,232.56,230.921,231.683,230.429,227.431,-0.0,-0.0,223.224,229.137
2015-10-28 07:00,-0.0,227.984,225.611,227.817,225.31,223.905,221.23,-0.0,0.0,0.0,223.793
2015-10-28 08:00,-0.0,237.078,233.666,230.743,232.772,232.221,227.77,-0.0,-0.0,223.538,229.314
2015-10-28 09:00,-1.92933,257.605,252.101,240.171,252.465,250.757,240.5,-2.99486,-3.89554,226.685,239.789
2015-10-28 10:00,0.63695,286.421,267.909,248.642,269.515,262.888,247.006,0.535124,0.618115,229.263,244.056
2015-10-28 11:00,0.735458,296.531,272.256,251.18,276.01,273.99,256.035,0.633337,0.658863,229.685,248.133
2015-10-28 12:00,0.72837,296.635,276.845,253.381,280.639,279.061,258.638,1.0407,1.05527,230.835,248.455
2015-10-28 13:00,0.241184,245.913,222.904,226.481,223.443,222.753,221.046,0.605464,0.649305,217.622,220.306
2015-10-28 14:00,0.229255,248.394,226.583,228.192,225.919,225.038,224.304,0.673056,0.722014,220.686,224.204
2015-10-28 15:00,0.208147,257.103,235.8,232.319,236.186,235.435,230.276,0.57778,0.637575,226.499,232.022
2015-10-28 16:00,0.304208,264.009,246.313,238.195,247.878,246.457,238.128,0.487765,0.552567,230.266,240.185
2015-10-28 17:00,0.491229,299.579,256.644,243.79,259.974,256.742,244.792,0.497132,0.554808,231.943,245.23
2015-10-28 18:00,0.641278,301.565,262.141,246.399,265.31,263.412,250.104,0.59303,0.664244,233.085,248.133
2015-10-28 19:00,0.828641,300.769,265.846,248.121,269.021,268.007,253.368,0.721655,0.828596,235.455,250.34
2015-10-28 20:00,0.896022,306.025,279.702,255.858,281.943,278.458,257.406,0.761276,0.864037,235.247,250.849
2015-10-28 21:00,1.53456,298.918,275.306,253.621,277.978,274.929,255.532,1.27857,1.57395,236.609,250.849
2015-10-28 22:00,-0.0120688,286.717,282.799,257.459,284.361,279.81,257.158,-0.0,-0.0,236.004,250.34
2015-10-28 23:00,-0.0107738,275.48,268.199,249.286,267.69,261.121,246.732,-0.00912212,-0.0145023,234.827,244.998
2015-10-29 00:00,-0.00221633,267.444,266.738,248.771,269.186,267.673,252.723,-0.0,-0.0,235.178,250.135
2015-10-29 01:00,-0.0,262.869,261.822,246.13,263.745,262.008,248.499,-0.0,-0.0,234.686,248.669
2015-10-29 02:00,0.00146555,261.251,260.201,245.04,262.685,259.139,246.732,-0.0,-0.0,234.185,246.929
2015-10-29 03:00,-0.00137904,286.121,283.264,257.685,285.201,282.175,258.27,-0.0,-0.0,235.038,251.949
2015-10-29 04:00,-0.00139978,271.531,265.243,248.642,264.27,254.089,240.207,-0.0,-0.0,232.097,243.937
2015-10-29 05:00,-0.0,268.073,259.706,245.177,257.361,247.708,238.278,-0.0,-0.0,230.755,241.475
2015-10-29 06:00,-0.001856,276.376,272.12,251.676,270.495,261.121,244.652,-0.0,-0.0,230.996,245.23
2015-10-29 07:00,-0.00259129,266.797,263.245,246.667,263.393,254.472,240.646,-0.0,-0.0,230.266,245.918
2015-10-29 08:00,-0.0,273.338,271.574,251.056,273.529,271.283,253.111,-0.0,-0.0,230.018,251.152
2015-10-29 09:00,-8.14248,281.165,273.599,251.676,273.372,269.329,248.094,-8.77446,-11.2095,226.963,246.258
2015-10-29 10:00,0.431129,289.247,284.071,257.572,285.201,281.441,257.406,0.265481,0.440197,229.433,252.439
2015-10-29 11:00,0.410201,293.587,281.505,256.549,282.231,278.458,255.406,0.264723,0.398972,229.852,252.439
2015-10-29 12:00,0.501411,298.242,282.331,257.12,284.079,281.735,259.127,0.384604,0.483275,231.552,255.548
2015-10-29 13:00,0.323896,298.242,285.658,259.024,286.585,283.339,259.127,0.1872,0.301402,231.473,255.457
2015-10-29 14:00,0.301151,298.339,287.869,260.119,288.897,285.919,260.581,0.231804,0.325387,233.308,256.539
2015-10-29 15:00,0.23037,299.297,290.229,261.412,290.897,287.188,261.421,0.116032,0.248077,234.686,257.07
2015-10-29 16:00,0.229711,296.738,285.095,258.469,285.201,281.293,257.9,0.154989,0.247609,231.394,253.5
2015-10-29 17:00,0.22656,297.549,282.799,257.12,281.51,276.631,254.264,0.142501,0.241796,230.43,251.452
2015-10-29 18:00,0.198314,293.124,280.549,255.742,279.318,275.085,253.368,0.182012,0.258286,228.136,249.513
2015-10-29 19:00,0.511911,283.594,241.682,235.985,239.669,232.976,224.834,0.535125,0.649982,220.916,230.694
2015-10-29 20:00,0.674192,276.811,218.082,225.504,218.13,217.29,217.639,0.907084,1.05359,216.83,218.165
2015-10-29 21:00,1.71176,281.705,198.787,217.809,196.503,196.831,201.515,1.40832,1.81779,201.465,199.57
2015-10-29 22:00,-0.0,213.142,197.389,217.342,195.375,193.954,198.458,-0.0,-0.0,197.221,197.598
2015-10-29 23:00,-0.0108393,232.213,214.79,223.694,211.825,208.766,210.932,-0.00917763,-0.0109429,210.278,213.092
2015-10-30 00:00,-0.00222545,227.984,216.471,224.102,214.89,213.356,213.653,-0.0,-0.0,213.078,215.332
2015-10-30 01:00,-0.0,227.984,217.685,224.305,216.715,216.008,214.872,-0.0,-0.0,215.452,217.164
2015-10-30 02:00,-0.0,233.989,229.072,229.118,228.583,226.426,224.304,-0.0,-0.0,220.57,225.604
2015-10-30 03:00,-0.00138318,237.078,227.533,228.564,226.221,224.756,222.329,-0.0,-0.0,218.642,223.999
2015-10-30 04:00,0.0014041,232.213,226.261,228.564,225.31,224.474,221.782,-0.0,-0.0,218.767,222.529
2015-10-30 05:00,-0.0,237.078,231.997,230.743,231.408,230.17,226.574,-0.0,-0.0,222.15,228.06
2015-10-30 06:00,-0.00186329,235.601,231.427,230.387,231.131,229.909,227.089,-0.0,0.0018811,222.259,228.06
2015-10-30 07:00,-0.0,264.009,259.706,244.765,260.888,259.139,245.767,-0.0,-0.0,228.136,244.881
2015-10-30 08:00,-0.00498172,267.761,260.036,244.349,260.341,257.486,244.512,-0.0,-0.0,225.835,239.922
2015-10-30 09:00,14.3997,283.924,278.226,254.336,279.022,275.861,254.392,26.8228,34.8895,228.224,247.261
2015-10-30 10:00,0.335542,280.982,272.256,251.429,273.529,270.311,251.028,0.345864,0.407481,227.51,245.804
2015-10-30 11:00,0.498566,287.444,268.773,248.9,268.69,266.16,248.094,0.443242,0.551149,227.42,244.647
2015-10-30 12:00,0.261521,289.247,275.306,252.656,274.933,270.798,251.028,0.196334,0.300984,227.42,245.575
2015-10-30 13:00,0.447165,293.007,270.049,249.669,271.142,267.004,248.229,0.357183,0.431565,227.78,245.114
2015-10-30 14:00,0.302043,283.924,253.595,242.225,252.262,249.144,238.428,0.25153,0.331283,224.959,237.748
2015-10-30 15:00,0.318646,298.726,279.213,255.858,279.613,275.085,254.519,0.195853,0.295481,229.263,248.025
2015-10-30 16:00,0.24143,293.702,275.951,252.777,273.372,268.835,249.971,0.154832,0.237705,225.931,242.23
2015-10-30 17:00,0.281909,295.476,276.591,253.741,277.075,273.2,253.497,0.234313,0.293743,227.51,244.998
2015-10-30 18:00,0.250939,279.859,261.822,244.349,260.888,258.408,242.527,0.336624,0.396795,228.748,241.475
2015-10-30 19:00,0.558003,270.713,220.379,225.897,219.508,218.235,218.218,0.868394,0.995757,216.963,218.165
2015-10-30 20:00,0.895612,284.249,236.318,233.005,231.957,228.056,221.965,0.856998,1.04352,218.642,224.408
2015-10-30 21:00,1.69308,279.278,224.279,227.817,222.162,219.165,217.25,1.36591,1.75764,215.452,220.075
2015-10-30 22:00,-0.0,222.276,219.247,226.092,218.478,216.652,216.071,-0.0,-0.0,215.734,217.418
2015-10-30 23:00,-0.0145426,256.062,243.94,236.784,241.58,235.435,229.116,-0.00615661,-0.00734082,224.46,235.146
2015-10-31 00:00,-0.0022348,213.142,200.125,218.041,198.671,197.294,201.266,-0.0,-0.0,199.307,200.041
2015-10-31 01:00,-0.00170971,225.382,218.862,225.107,217.427,214.364,214.872,-0.0,-0.0,215.31,216.909
2015-10-31 02:00,-0.00147467,235.601,220.75,226.092,218.13,215.027,213.241,-0.0,-0.0,212.126,216.652
2015-10-31 03:00,-0.0,245.913,227.845,229.118,225.003,221.875,218.982,-0.0,-0.0,215.452,220.989
2015-10-31 04:00,-0.0,238.442,222.552,226.866,219.847,216.972,215.274,-0.0,-0.0,213.995,217.918
2015-10-31 05:00,-0.0,232.213,218.082,225.306,214.89,212.329,211.57,-0.0,-0.0,210.452,213.668
2015-10-31 06:00,-0.0,232.213,216.471,224.507,213.381,210.576,211.781,-0.0,-0.0,211.135,212.8
2015-10-31 07:00,-0.00261816,225.382,213.479,222.659,210.218,208.766,210.289,-0.0,-0.0,208.838,209.707
2015-10-31 08:00,-0.0,222.276,211.184,222.027,208.556,206.895,208.982,-0.0,-0.0,208.274,208.711
2015-10-31 09:00,4.53682,233.989,219.247,225.107,216.715,215.027,214.062,5.54857,7.63365,213.541,216.392
2015-10-31 10:00,0.458729,253.206,219.247,225.306,216.715,214.364,214.872,0.645979,0.750732,213.078,216.392
2015-10-31 11:00,0.429888,257.103,218.474,225.306,215.628,213.356,215.873,0.755323,0.847926,209.569,214.233
2015-10-31 12:00,0.276672,245.913,204.988,219.632,204.12,203.351,206.056,0.665941,0.746603,205.874,204.721
2015-10-31 13:00,0.269613,249.156,207.704,220.736,206.833,204.955,208.54,0.714567,0.783965,207.697,207.326
2015-10-31 14:00,0.214798,244.063,216.88,224.507,216.715,215.356,216.859,0.672811,0.739552,214.293,214.787
2015-10-31 15:00,0.208686,245.913,218.862,225.107,217.78,216.652,217.055,0.653867,0.718932,215.873,217.918
2015-10-31 16:00,0.224476,250.598,226.261,228.192,225.615,224.19,222.329,0.553005,0.6208,219.26,224.204
2015-10-31 17:00,0.236385,257.103,238.338,233.849,237.951,237.109,231.257,0.564348,0.63769,223.224,232.508
2015-10-31 18:00,0.401533,264.739,237.591,233.681,236.948,235.193,230.931,0.596878,0.693399,222.585,230.863
2015-10-31 19:00,0.339198,269.283,253.226,241.791,253.269,252.144,242.527,0.47977,0.562156,227.329,239.789
2015-10-31 20:00,0.742538,284.41,245.248,238.503,245.693,244.544,236.765,0.895194,1.03962,226.592,237.043
2015-10-31 21:00,0.821421,277.24,261.34,245.723,261.25,259.139,245.628,0.769058,0.972801,229.178,243.818
2015-10-31 22:00,-0.0,268.382,264.635,247.859,265.31,262.712,248.634,-0.0,-0.0,228.488,244.412
2015-10-31 23:00,-0.0109768,276.155,273.199,253.261,275.55,272.565,254.137,-0.00619601,-0.0110817,228.748,247.151
