# timestamp,IR_016,IR_039,IR_087,IR_097,IR_108,IR_120,IR_134,VIS006,VIS008,WV_062,WV_073
2016-01-01 00:00,0.0,285.665,285.546,258.802,288.628,287.048,262.61,0.0,0.0,236.542,257.508
2016-01-01 01:00,0.0,285.357,285.433,258.913,288.493,287.188,262.492,0.0,-0.00140925,237.268,257.682
2016-01-01 02:00,0.0,288.152,288.52,260.769,291.292,289.689,263.67,0.0,0.0,237.528,257.682
2016-01-01 03:00,-0.00115827,288.291,288.52,260.984,291.16,289.551,263.67,0.0,0.0,237.463,257.595
2016-01-01 04:00,-0.00115599,287.871,288.195,260.553,290.897,289.276,263.318,0.0,0.0,238.42,258.457
2016-01-01 05:00,0.0,288.152,288.628,260.984,291.292,289.826,263.67,0.0,0.0,239.349,258.967
2016-01-01 06:00,0.0,288.152,289.058,260.984,292.079,290.375,263.67,0.0,0.0,240.193,259.387
2016-01-01 07:00,0.0,288.568,288.843,260.876,291.686,290.238,263.553,0.0,0.0,240.371,259.804
2016-01-01 08:00,0.0,288.152,288.412,260.553,291.16,289.826,263.67,0.0,0.0,240.371,260.052
2016-01-01 09:00,0.0,287.729,288.087,260.119,290.632,289.137,263.436,0.0,0.0,240.312,259.638
2016-01-01 10:00,-0.0180025,288.012,288.303,260.228,291.16,289.551,263.553,-0.0762136,-0.0908732,240.724,260.052
2016-01-01 11:00,0.0702209,288.705,288.628,260.769,291.292,289.826,264.255,0.277461,0.165415,240.957,260.135
2016-01-01 12:00,0.027268,288.841,288.951,260.661,291.817,290.375,263.67,0.138527,0.0722627,240.841,260.463
2016-01-01 13:00,0.011659,288.291,288.951,260.337,291.817,290.101,263.318,0.0868707,0.0423737,240.724,260.381
2016-01-01 14:00,0.00761405,288.568,289.058,260.553,291.948,290.511,263.67,0.0612446,0.0307474,240.665,260.217
2016-01-01 15:00,0.00694097,288.841,289.272,260.876,292.209,290.921,264.022,0.0484845,0.021022,240.957,260.545
2016-01-01 16:00,0.0051884,288.977,289.379,260.769,292.47,290.921,263.905,0.0424658,0.020952,240.665,260.708
2016-01-01 17:00,0.00564986,288.568,289.272,260.661,292.34,290.921,264.022,0.0430536,0.0228155,240.253,260.217
2016-01-01 18:00,0.0251242,289.514,289.058,260.876,292.079,290.648,263.67,0.0676857,0.0438113,239.894,260.135
2016-01-01 19:00,0.0262235,289.247,289.379,261.091,292.34,291.057,264.488,0.0943644,0.0529483,239.894,259.887
2016-01-01 20:00,0.105809,289.647,288.843,260.984,291.555,290.101,263.436,0.215011,0.163791,239.714,259.471
2016-01-01 21:00,0.0,287.155,287.432,260.011,290.234,288.722,263.2,0.0206674,-0.0246427,239.471,259.387
2016-01-01 22:00,-0.00433494,287.729,287.978,260.119,290.367,288.861,263.083,0.0,0.0,239.41,259.471
2016-01-01 23:00,-0.00241278,283.924,284.071,258.022,286.86,285.777,261.66,0.0,0.0,239.471,259.135
2016-01-02 00:00,0.0,288.568,288.951,261.091,291.817,290.511,263.905,0.0,0.0,239.653,259.304
2016-01-02 01:00,-0.00139779,288.568,289.058,261.091,291.817,290.238,264.022,0.0,0.0,240.724,259.97
2016-01-02 02:00,0.00123144,285.97,286.55,259.683,289.3,288.167,263.083,0.0,0.0,241.59,260.299
2016-01-02 03:00,0.0,288.152,288.736,260.661,291.16,289.826,264.022,0.0,0.0,242.322,261.194
2016-01-02 04:00,0.0,288.012,288.736,260.445,291.292,289.964,263.905,0.0,0.0,242.655,261.675
2016-01-02 05:00,0.0,285.357,286.217,259.574,288.897,287.748,262.728,0.0,0.0,242.489,261.435
2016-01-02 06:00,0.0,287.155,287.541,260.011,290.101,288.722,263.436,0.0,0.00139241,242.875,261.675
2016-01-02 07:00,0.0,286.121,286.439,259.354,289.032,287.888,263.083,0.0,0.0,243.147,262.072
2016-01-02 08:00,0.0,288.291,288.951,260.661,291.686,290.238,263.67,0.0,0.0,244.111,263.167
2016-01-02 09:00,0.0,288.291,289.058,260.661,291.817,290.648,264.138,0.0,0.0,244.635,263.476
2016-01-02 10:00,-0.0177271,288.43,289.272,260.769,291.948,290.375,263.436,-0.0750477,-0.0715864,245.099,263.934
2016-01-02 11:00,0.509726,284.57,282.096,256.664,284.921,284.205,261.182,0.590939,0.601685,246.109,263.934
2016-01-02 12:00,0.484592,283.261,278.474,254.572,281.076,281.146,260.219,0.554777,0.599473,246.009,263.934
2016-01-02 13:00,0.132914,289.514,285.546,258.246,287.543,286.343,262.373,0.191512,0.164788,246.009,264.389
2016-01-02 14:00,0.530696,283.594,278.845,254.808,281.366,281.588,261.062,0.705415,0.773889,246.258,264.238
2016-01-02 15:00,0.315392,285.202,279.702,254.926,282.087,281.882,261.062,0.381489,0.393635,246.456,264.314
2016-01-02 16:00,0.117372,289.91,283.032,257.12,285.757,284.492,261.779,0.128607,0.109781,246.307,264.464
2016-01-02 17:00,0.360593,285.97,278.968,254.69,281.799,281.735,260.822,0.383232,0.428506,246.109,264.01
2016-01-02 18:00,0.186553,290.171,285.77,258.469,287.951,286.626,262.492,0.215742,0.197524,245.96,264.389
2016-01-02 19:00,0.270381,288.152,285.095,257.91,287.543,286.485,261.779,0.30892,0.328875,245.859,264.162
2016-01-02 20:00,0.180874,289.113,288.195,259.354,290.367,288.861,263.553,0.270949,0.231765,246.357,264.69
2016-01-02 21:00,0.0256341,288.152,288.843,260.011,291.292,289.964,263.67,0.0,0.0,246.603,264.839
2016-01-02 22:00,0.0,287.871,288.736,260.337,291.16,289.826,263.67,0.0,0.0,245.709,264.839
2016-01-02 23:00,0.0,287.729,288.628,260.119,291.029,289.826,263.67,0.0,0.0,245.809,264.839
2016-01-03 00:00,-0.00172868,287.871,288.736,260.445,291.292,289.826,263.67,0.0,0.0,245.456,264.839
2016-01-03 01:00,0.00139972,288.43,289.165,260.661,291.423,290.238,263.787,0.0,0.0,244.997,264.69
2016-01-03 02:00,-0.00123235,288.291,289.165,260.445,291.686,290.101,263.905,0.0,0.0,244.842,264.765
2016-01-03 03:00,0.0,287.871,288.843,260.119,291.423,289.964,263.67,0.0,0.0,245.253,264.839
2016-01-03 04:00,0.0,288.291,288.843,260.445,291.555,290.238,264.022,0.0,0.00116661,245.099,264.765
2016-01-03 05:00,-0.00122161,288.291,289.058,260.337,291.686,290.375,264.022,0.0,0.0,245.709,265.434
2016-01-03 06:00,0.0,288.568,289.379,260.337,291.948,290.648,264.255,0.0,0.0,244.997,265.063
2016-01-03 07:00,0.0,288.43,289.379,260.553,292.079,290.648,263.905,0.0,0.0,244.842,264.765
2016-01-03 08:00,0.0,288.43,289.699,260.337,292.47,291.329,264.138,0.0,0.0,244.842,265.286
2016-01-03 09:00,-0.00404586,288.568,289.805,260.553,292.34,291.193,263.905,0.0,0.0,244.997,265.212
2016-01-03 10:00,0.0,288.012,288.951,260.011,291.686,290.375,264.138,-0.073997,-0.0705841,245.405,265.36
2016-01-03 11:00,0.0315108,288.841,289.379,260.337,291.817,290.511,264.022,0.260132,0.143154,245.099,265.36
2016-01-03 12:00,0.0068318,288.841,288.843,260.119,291.292,290.101,263.553,0.130151,0.0586254,245.048,265.063
2016-01-03 13:00,0.0816002,290.558,286.772,259.024,289.434,287.888,262.847,0.144104,0.103564,245.099,264.765
2016-01-03 14:00,0.0114029,288.705,289.058,260.337,291.423,289.826,263.787,0.0691929,0.0345357,245.099,264.914
2016-01-03 15:00,0.00865192,288.568,289.272,260.337,291.686,290.511,263.905,0.0527441,0.0279508,245.151,264.989
2016-01-03 16:00,0.00516732,288.568,289.379,260.445,291.948,290.375,263.553,0.0422932,0.0208669,245.202,264.989
2016-01-03 17:00,0.00749073,288.43,289.379,260.337,291.817,290.511,264.022,0.0443967,0.022687,245.507,265.36
2016-01-03 18:00,0.00906323,288.977,289.699,260.337,292.209,291.057,264.605,0.0556352,0.0297371,245.151,265.063
2016-01-03 19:00,0.0226587,289.113,290.017,260.876,292.6,291.464,264.488,0.0904441,0.0522865,245.048,265.212
2016-01-03 20:00,0.0548793,289.113,289.805,260.553,292.47,291.464,264.255,0.180057,0.117733,244.479,265.063
2016-01-03 21:00,0.0,288.152,288.951,260.119,291.555,290.375,264.372,-0.0228743,-0.0272741,244.739,264.765
2016-01-03 22:00,-0.00440553,287.01,287.541,259.902,290.234,288.722,263.436,0.0,0.0,244.79,264.615
2016-01-03 23:00,0.0,288.568,289.486,260.661,291.817,290.784,264.138,0.0,0.0,244.687,264.765
2016-01-04 00:00,-0.00173272,288.841,289.699,260.661,292.47,291.057,264.372,0.0,0.0,244.997,264.69
2016-01-04 01:00,0.00140168,288.152,289.379,260.228,291.686,290.238,263.905,0.0,0.0,245.099,264.615
2016-01-04 02:00,0.0,279.667,280.187,255.742,282.803,282.467,261.66,0.0,0.0,245.355,263.858
2016-01-04 03:00,0.0,277.869,279.213,254.808,282.087,281.882,260.822,0.0,0.0,245.405,264.01
2016-01-04 04:00,0.00115539,279.859,281.624,256.32,284.22,283.917,261.301,0.0,0.0,245.304,264.162
2016-01-04 05:00,-0.00122094,283.76,283.611,257.233,285.479,284.636,261.54,0.0,0.0,245.304,264.162
2016-01-04 06:00,-0.00137653,282.059,282.096,256.549,284.641,284.061,261.421,0.0,0.0,245.099,263.934
2016-01-04 07:00,0.0,276.155,278.721,254.336,281.076,281.146,260.581,0.0,0.0,245.099,263.858
2016-01-04 08:00,0.0,282.059,282.448,256.892,285.201,284.349,261.779,0.0,0.0,244.945,263.858
2016-01-04 09:00,0.0,288.705,289.272,260.445,292.079,290.648,264.372,0.0,0.0,244.426,264.162
2016-01-04 10:00,0.0,288.012,288.52,260.228,291.029,289.689,262.965,-0.0730544,-0.0871063,243.793,263.934
2016-01-04 11:00,0.102823,288.977,288.087,259.902,290.897,289.276,263.553,0.301363,0.199627,243.256,263.629
2016-01-04 12:00,0.0205099,288.977,289.165,260.445,291.686,290.238,263.905,0.136031,0.0690199,242.489,263.244
2016-01-04 13:00,0.0139837,289.247,289.379,260.553,291.948,290.375,263.67,0.0888001,0.0447052,241.015,262.857
2016-01-04 14:00,0.0417682,289.247,289.058,260.445,291.555,289.964,263.905,0.0916277,0.0613345,239.471,262.151
2016-01-04 15:00,0.00863811,289.113,289.486,260.984,291.948,290.648,263.787,0.0526599,0.0296504,240.014,262.857
2016-01-04 16:00,0.0103118,288.705,289.379,260.769,292.079,290.784,263.905,0.0465651,0.0260258,240.014,262.779
2016-01-04 17:00,0.00746828,289.113,289.805,260.984,292.6,291.464,264.488,0.0458445,0.0245039,238.608,262.388
2016-01-04 18:00,0.0225634,288.841,288.52,260.119,291.029,289.689,262.847,0.0630446,0.0432803,237.849,261.194
2016-01-04 19:00,0.0771848,288.43,285.882,258.469,288.358,286.343,260.098,0.125258,0.103897,236.341,259.638
2016-01-04 20:00,0.338188,284.57,277.601,253.261,278.128,276.323,254.392,0.337885,0.368735,231.943,252.146
2016-01-04 21:00,-0.028585,282.059,277.727,253.261,278.427,276.631,254.009,0.0,-0.0288583,233.085,254.068
2016-01-04 22:00,0.0,284.73,281.978,255.742,282.087,280.406,257.034,0.0,0.0,231.943,254.443
2016-01-04 23:00,0.0,288.705,289.699,260.876,292.079,290.648,264.138,0.0,0.0,236.341,262.151
2016-01-05 00:00,0.0,287.729,287.76,259.793,289.968,288.306,262.373,0.0,0.0,235.799,261.755
2016-01-05 01:00,-0.00140368,285.202,281.505,255.51,282.087,279.959,257.406,0.0,0.0,232.86,254.629
2016-01-05 02:00,0.00123426,286.717,284.185,257.459,285.757,283.339,259.127,0.0,0.0,233.75,258.543
2016-01-05 03:00,0.0,287.155,285.546,258.246,287.27,285.35,260.098,0.0,0.0,234.113,259.304
2016-01-05 04:00,0.00115524,284.249,283.841,257.798,286.447,285.208,261.54,0.0,0.0,234.543,259.304
2016-01-05 05:00,0.0,286.271,284.755,258.134,286.447,284.922,260.098,0.0,0.0,233.53,258.286
2016-01-05 06:00,-0.00137528,278.075,280.187,255.393,282.946,282.758,260.942,0.0,0.0,234.401,259.22
2016-01-05 07:00,0.00168097,277.661,278.474,254.69,280.785,280.257,259.127,0.0,0.0,232.86,256.628
2016-01-05 08:00,-0.00231604,280.427,279.458,255.043,281.655,280.406,258.638,0.0,0.0,234.185,258.372
2016-01-05 09:00,0.0,285.512,286.328,258.913,289.032,287.748,262.492,0.0,0.0,234.686,259.304
2016-01-05 10:00,-0.0170578,288.152,288.412,260.228,291.16,289.826,263.2,-0.0722139,-0.0688833,236.341,259.721
2016-01-05 11:00,0.198428,289.381,288.412,260.228,291.16,289.826,263.2,0.362899,0.280455,238.168,260.789
2016-01-05 12:00,0.027359,289.113,289.272,260.876,291.817,290.375,263.905,0.141885,0.0794091,238.483,261.194
2016-01-05 13:00,0.034941,289.779,288.303,260.337,290.764,289.413,263.436,0.110449,0.0681983,237.977,260.463
2016-01-05 14:00,0.0113781,288.841,289.165,261.305,291.686,290.375,263.67,0.0690425,0.0344607,237.721,260.217
2016-01-05 15:00,0.14487,288.291,286.105,259.244,288.763,287.609,262.847,0.181072,0.175855,237.268,259.387
2016-01-05 16:00,0.0617263,288.841,287.869,259.793,290.367,289.276,262.61,0.0885577,0.0727024,237.006,259.304
2016-01-05 17:00,0.0130288,288.841,289.165,260.445,291.555,290.101,263.436,0.0520057,0.031944,237.268,259.135
2016-01-05 18:00,0.01348,288.977,289.165,260.661,291.555,289.964,263.083,0.0589695,0.0317539,237.913,259.721
2016-01-05 19:00,0.0351433,289.514,289.165,260.769,291.686,289.826,263.083,0.0973826,0.0645078,238.294,259.471
2016-01-05 20:00,0.180046,290.041,288.951,260.876,291.423,289.689,263.436,0.242782,0.195231,239.043,259.721
2016-01-05 21:00,0.0,288.291,288.736,260.553,291.16,289.689,263.67,-0.0257228,-0.0306705,239.104,259.804
2016-01-05 22:00,-0.00448081,285.045,285.095,258.802,287.543,286.343,262.255,0.0,0.0,239.593,259.97
2016-01-05 23:00,-0.00245187,284.73,284.869,258.58,287.407,286.06,262.136,0.0,0.0,239.593,260.299
2016-01-06 00:00,-0.00174103,288.43,288.628,260.984,290.897,289.413,263.083,0.0,0.0,240.074,260.381
2016-01-06 01:00,0.0,288.152,288.303,260.984,290.764,289.137,263.553,0.0,0.0,240.134,260.381
2016-01-06 02:00,-0.00123525,287.155,287.541,260.553,290.234,288.861,263.436,0.0,0.0,240.489,260.627
2016-01-06 03:00,0.0,287.3,288.303,261.198,290.897,289.413,263.787,0.0,0.0,240.253,260.545
2016-01-06 04:00,0.0,285.512,286.328,260.011,288.628,287.609,262.61,0.0,0.0,240.607,260.789
2016-01-06 05:00,0.0,288.012,288.628,261.305,291.16,289.826,263.2,0.0,0.0,240.665,260.871
2016-01-06 06:00,0.0013741,288.43,289.272,261.625,292.079,290.648,263.787,0.0,0.0,240.548,260.952
2016-01-06 07:00,0.0016788,288.291,289.165,261.519,291.817,290.511,263.67,0.0,0.0,240.724,261.033
2016-01-06 08:00,0.0,287.587,288.736,261.091,291.423,290.101,263.787,0.0,0.0,240.724,260.708
2016-01-06 09:00,0.0,287.3,288.303,261.305,290.897,289.826,263.553,0.0,0.0,241.189,260.952
2016-01-06 10:00,-0.0168821,287.444,288.195,260.984,291.029,289.551,263.436,-0.0714703,-0.0852175,241.131,260.789
2016-01-06 11:00,0.509471,286.717,284.642,259.244,287.543,286.626,262.492,0.633572,0.659,240.489,260.381
2016-01-06 12:00,0.567814,290.685,281.148,257.346,284.079,283.629,261.301,0.593718,0.62504,241.304,260.708
2016-01-06 13:00,0.0791438,290.301,287.76,261.091,290.101,288.861,263.083,0.145847,0.105751,241.361,261.194
2016-01-06 14:00,0.204539,288.841,283.956,258.802,286.997,286.343,262.255,0.213272,0.214142,241.93,261.113
2016-01-06 15:00,0.0464795,288.43,286.661,260.228,289.3,288.167,262.965,0.0830809,0.0625651,241.59,261.113
2016-01-06 16:00,0.145386,288.43,283.841,258.913,286.722,285.919,262.017,0.181027,0.179585,241.131,261.194
2016-01-06 17:00,0.16883,289.514,282.682,257.91,285.618,284.922,261.54,0.185361,0.185428,241.704,260.952
2016-01-06 18:00,0.201309,292.174,284.982,259.683,287.951,286.767,262.136,0.189387,0.189685,241.93,261.194
2016-01-06 19:00,0.260222,291.563,287.322,261.198,289.968,288.722,263.2,0.266008,0.253098,241.361,261.355
2016-01-06 20:00,0.269526,290.041,288.736,261.305,291.292,289.826,263.553,0.311698,0.285376,241.93,261.595
2016-01-06 21:00,-0.0324513,288.152,288.951,261.625,291.555,290.375,264.022,-0.0274765,-0.0327616,242.489,261.834
2016-01-06 22:00,0.0,288.291,289.165,261.944,291.948,290.648,263.787,0.0,0.0,242.82,261.834
2016-01-06 23:00,0.0,288.012,289.165,262.049,291.686,290.511,263.553,0.0,0.0,242.984,261.914
2016-01-07 00:00,0.0,287.01,288.303,261.731,291.16,289.964,263.67,0.0,0.00176198,242.71,261.834
2016-01-07 01:00,-0.00140778,285.97,287.322,260.876,289.701,288.584,263.318,0.0,0.0,242.929,261.914
2016-01-07 02:00,0.0,288.291,289.379,262.155,291.948,290.648,263.67,0.0,0.0,243.147,262.23
2016-01-07 03:00,0.0,288.43,289.272,262.261,292.079,290.511,264.255,0.0,0.0,243.147,262.388
2016-01-07 04:00,0.0,288.152,289.058,261.944,291.817,290.511,263.905,0.0,0.0,243.364,262.623
2016-01-07 05:00,-0.00121919,288.568,289.379,262.049,292.079,290.921,264.255,0.0,0.0,243.526,262.935
2016-01-07 06:00,0.0,287.871,289.058,261.731,291.423,290.238,264.022,0.0,0.0,242.984,262.545
2016-01-07 07:00,-0.00167675,288.152,289.272,261.838,291.817,290.784,264.605,0.0,0.0,242.655,262.701
2016-01-07 08:00,0.0,288.43,289.699,262.471,292.6,291.057,264.605,0.0,0.0,243.039,262.545
2016-01-07 09:00,0.0,288.568,289.486,262.049,292.209,290.921,264.488,0.0,0.0,243.472,262.857
2016-01-07 10:00,-0.0167283,288.291,289.379,261.838,292.209,290.784,264.022,-0.0566554,-0.067553,243.364,262.701
2016-01-07 11:00,0.0319179,288.43,289.486,262.155,292.47,291.329,264.488,0.277005,0.145004,243.633,262.779
2016-01-07 12:00,0.0136815,288.705,289.379,262.366,292.209,290.921,263.787,0.139009,0.0690615,244.006,263.012
2016-01-07 13:00,0.00930284,288.705,289.593,262.155,292.34,291.057,264.605,0.0886129,0.0446109,243.793,263.09
2016-01-07 14:00,0.00945572,288.705,289.699,262.366,292.209,291.057,264.605,0.0656504,0.0324568,244.111,263.244
2016-01-07 15:00,0.00343614,288.977,289.486,262.366,292.209,290.921,264.372,0.0509141,0.0225484,244.635,263.09
2016-01-07 16:00,0.00511815,288.568,289.593,261.944,292.34,290.921,263.905,0.0433353,0.0189459,244.322,263.012
2016-01-07 17:00,0.0036982,288.841,289.805,262.366,292.6,291.464,264.138,0.0438377,0.0224013,243.633,262.701
2016-01-07 18:00,0.00668007,288.841,289.911,262.155,292.73,291.6,264.721,0.0527894,0.0269757,243.31,262.623
2016-01-07 19:00,0.0157592,288.977,289.805,262.049,292.34,290.921,264.138,0.085397,0.0445475,242.984,262.151
2016-01-07 20:00,0.181446,290.041,289.058,261.731,291.686,290.375,263.67,0.252392,0.222434,242.82,262.23
2016-01-07 21:00,0.0,286.864,287.978,260.876,290.764,289.413,263.553,-0.0295201,-0.0703964,242.544,261.914
2016-01-07 22:00,-0.00456093,288.291,289.379,261.838,292.079,290.648,263.905,0.0,0.0,242.433,261.914
2016-01-07 23:00,-0.0024727,288.43,289.486,262.049,292.079,291.057,264.255,0.0,0.0,242.155,262.072
2016-01-08 00:00,0.0,288.291,289.379,261.731,292.079,290.921,264.022,0.0,0.0,242.211,262.151
2016-01-08 01:00,0.0,286.717,287.869,261.198,290.234,289.276,263.905,0.0,0.0,242.875,262.545
2016-01-08 02:00,0.0,286.121,287.212,260.984,289.701,288.722,263.436,0.0,0.0,243.093,262.545
2016-01-08 03:00,0.0,287.871,288.628,261.305,291.423,290.238,264.022,0.0,0.0,243.147,262.545
2016-01-08 04:00,0.0,288.152,289.165,261.838,291.817,290.511,263.787,0.0,0.0,243.793,262.623
2016-01-08 05:00,0.00121869,288.568,289.486,262.155,292.079,290.921,263.67,0.0,0.00123034,244.058,262.935
2016-01-08 06:00,0.0,287.871,288.628,261.091,291.16,289.826,263.67,0.0,0.0,244.79,263.322
2016-01-08 07:00,0.0,276.376,278.474,255.393,281.51,281.588,260.942,0.0,0.0,244.479,262.701
2016-01-08 08:00,0.00230378,278.279,280.187,256.32,282.803,282.758,260.942,0.0,0.0,244.531,263.244
2016-01-08 09:00,0.0,280.427,280.909,256.778,283.938,283.194,260.942,0.0,0.0,244.531,262.935
2016-01-08 10:00,-0.0165955,288.152,289.272,261.198,291.817,290.511,263.905,-0.0562056,-0.0670167,244.426,263.399
2016-01-08 11:00,0.047964,288.291,287.978,261.091,290.764,289.551,263.083,0.263972,0.161408,244.111,263.244
2016-01-08 12:00,0.55051,290.171,279.091,255.974,282.517,282.321,261.062,0.518228,0.552321,243.953,262.701
2016-01-08 13:00,0.160304,290.558,285.994,259.244,288.358,287.188,262.847,0.220315,0.187637,245.304,263.552
2016-01-08 14:00,0.241683,292.414,282.682,257.346,285.895,284.922,261.54,0.258988,0.249712,245.151,263.934
2016-01-08 15:00,0.0102869,288.977,289.272,261.305,291.817,290.375,263.905,0.0566142,0.0311556,245.91,264.615
2016-01-08 16:00,0.003403,288.705,289.486,261.305,291.948,290.648,263.787,0.0446604,0.0206132,245.557,264.01
2016-01-08 17:00,0.00552828,288.705,289.379,261.412,291.948,290.648,263.905,0.0452476,0.0223245,244.374,263.552
2016-01-08 18:00,0.015515,288.841,289.165,261.305,291.555,290.238,263.083,0.0619295,0.0358019,243.633,263.167
2016-01-08 19:00,0.313007,293.702,283.38,258.134,286.31,285.208,261.898,0.299476,0.306519,242.71,262.466
2016-01-08 20:00,0.766522,287.444,277.852,254.69,281.221,280.702,259.614,0.621971,0.760952,242.765,262.151
2016-01-08 21:00,-0.0377102,278.684,278.845,255.742,282.231,281.441,259.977,-0.0638583,-0.0761413,242.489,262.072
2016-01-08 22:00,-0.00460286,275.932,277.476,254.572,280.785,280.85,260.098,0.0,0.0,242.765,261.993
2016-01-08 23:00,0.0,287.3,287.102,260.553,289.568,287.748,262.255,0.0,0.0,242.099,262.151
2016-01-09 00:00,0.0,285.202,285.321,258.913,287.543,286.343,262.017,0.0,0.0,242.544,262.072
2016-01-09 01:00,0.0,286.121,286.217,259.464,288.358,287.188,262.492,0.0,0.0,242.378,261.993
2016-01-09 02:00,-0.00123836,278.279,280.429,255.742,282.946,283.049,261.182,0.0,0.0,239.166,261.113
2016-01-09 03:00,-0.00232211,280.239,281.978,256.778,284.641,284.205,261.182,0.0,0.00117216,237.333,260.381
2016-01-09 04:00,0.0,288.152,288.52,260.661,290.632,289.137,262.728,0.0,0.0,236.341,260.135
2016-01-09 05:00,-0.00121823,287.871,288.628,260.661,291.16,289.551,262.965,0.0,0.0,235.593,259.721
2016-01-09 06:00,0.0,287.3,288.195,260.769,290.897,289.551,262.965,-0.00116079,0.0,235.455,259.387
2016-01-09 07:00,0.0,288.291,289.379,261.625,292.079,290.921,263.67,0.0,0.0,235.247,259.471
2016-01-09 08:00,0.00230027,283.76,280.669,256.205,282.087,280.257,256.41,0.0,0.0,233.677,255.091
2016-01-09 09:00,-0.00397522,288.291,289.058,261.305,291.817,290.375,263.436,0.0,0.0,235.247,259.135
2016-01-09 10:00,0.0,285.665,285.208,258.691,287.27,285.777,260.822,-0.0418683,-0.0499216,234.041,256.36
2016-01-09 11:00,0.640317,275.02,268.199,248.382,269.021,268.007,250.633,0.73191,0.816128,233.159,248.669
2016-01-09 12:00,0.116191,288.977,285.321,258.58,287.543,286.06,261.062,0.214118,0.162152,234.041,253.88
2016-01-09 13:00,0.011602,288.43,288.628,260.661,291.817,290.375,262.61,0.0943042,0.049194,234.756,253.405
2016-01-09 14:00,0.00188489,288.152,288.628,261.091,291.423,289.826,262.728,0.0622414,0.0266407,235.455,252.925
2016-01-09 15:00,0.00342138,288.152,288.628,260.769,291.686,289.964,262.61,0.0477985,0.0224516,236.274,254.443
2016-01-09 16:00,0.00509034,288.705,289.379,261.091,292.6,291.464,264.022,0.0416632,0.020556,236.542,256.271
2016-01-09 17:00,0.00918131,289.113,289.379,260.769,292.73,291.464,263.553,0.045088,0.0259534,236.542,255.639
2016-01-09 18:00,0.0110301,288.568,289.486,261.305,292.989,291.871,263.436,0.0560348,0.0334065,235.799,255.548
2016-01-09 19:00,0.071488,290.041,288.843,260.984,291.948,290.511,263.083,0.121057,0.0909987,235.247,254.536
2016-01-09 20:00,0.113333,289.113,287.651,260.769,290.897,288.999,262.017,0.213243,0.158912,233.896,252.925
2016-01-09 21:00,-0.0411107,287.729,287.978,260.661,290.5,288.999,262.492,-0.0348083,-0.0830073,234.686,254.349
2016-01-09 22:00,-0.00464606,262.074,249.385,239.267,249.157,244.973,236.765,0.0,0.0,233.01,240.576
2016-01-09 23:00,0.0,248.394,243.049,235.173,244.8,243.896,237.222,0.0,0.0,233.53,238.578
2016-01-10 00:00,0.0,244.063,243.719,235.662,245.248,244.112,237.222,0.0,0.0,233.01,238.165
2016-01-10 01:00,-0.0028284,272.836,270.746,250.681,272.423,270.798,252.853,0.0,0.0,233.456,246.595
2016-01-10 02:00,0.0,287.587,285.994,260.337,288.222,285.35,259.735,0.0,0.0,233.896,249.408
2016-01-10 03:00,-0.00116151,268.382,266.293,248.512,267.522,265.65,249.971,0.0,0.0,234.756,248.882
2016-01-10 04:00,0.0,286.271,285.658,260.553,287.951,285.35,260.098,0.0,0.0,235.038,251.152
2016-01-10 05:00,0.0,278.279,277.727,255.393,279.907,278.004,257.034,0.0,0.0,234.756,250.442
2016-01-10 06:00,0.0,283.594,280.308,256.892,281.366,278.004,255.658,0.0,0.0,234.543,248.987
2016-01-10 07:00,0.0,271.531,265.696,247.728,265.654,262.537,247.415,0.0,0.0,234.041,245.918
2016-01-10 08:00,0.0,283.428,282.096,258.358,284.361,282.321,258.882,0.0,0.0,234.827,251.652
2016-01-10 09:00,-0.00396698,232.213,231.997,228.564,232.772,232.221,228.614,0.0,0.0,228.136,229.314
2016-01-10 10:00,-0.0327801,251.282,250.954,238.503,251.447,250.957,241.953,-0.0555098,-0.066187,234.827,243.457
2016-01-10 11:00,0.184214,275.707,275.694,254.217,278.427,278.307,257.53,0.379762,0.307263,235.525,252.244
2016-01-10 12:00,0.283409,292.653,284.3,259.244,287.407,285.777,261.062,0.315131,0.27233,235.731,252.537
2016-01-10 13:00,0.150613,290.685,285.095,259.244,288.222,286.485,260.822,0.18442,0.152053,237.528,253.309
2016-01-10 14:00,0.024458,288.977,288.303,260.445,291.292,289.551,262.728,0.0812411,0.0474842,238.357,255.639
2016-01-10 15:00,0.0153604,288.568,288.412,260.876,291.555,289.826,263.083,0.0578029,0.0327376,238.608,256.628
2016-01-10 16:00,0.0135352,288.841,288.628,260.769,291.555,289.964,262.965,0.0501385,0.0273292,239.104,256.805
2016-01-10 17:00,0.0146369,288.841,288.736,261.091,291.817,290.238,263.083,0.0511212,0.0314007,237.913,256.894
2016-01-10 18:00,0.0570815,289.647,288.195,260.553,290.764,289.276,262.965,0.0985205,0.0753586,238.483,257.333
2016-01-10 19:00,0.182084,290.813,286.55,259.244,289.032,287.188,261.66,0.198592,0.168246,238.104,257.508
2016-01-10 20:00,0.533728,287.729,283.611,257.685,286.585,285.635,261.66,0.462416,0.501237,238.168,258.543
2016-01-10 21:00,0.0,280.613,282.331,256.892,285.479,285.065,261.898,-0.0766131,-0.137024,238.041,259.051
2016-01-10 22:00,0.0,287.01,287.651,259.902,289.968,288.584,262.965,0.0,0.0,237.785,259.304
2016-01-10 23:00,0.0,285.512,286.55,259.464,289.3,288.306,262.965,0.0,0.0,238.294,260.299
2016-01-11 00:00,0.0,285.512,286.217,259.134,289.166,287.748,261.898,0.0,0.0,238.546,260.299
2016-01-11 01:00,0.0,287.729,288.843,260.769,291.686,290.238,263.436,0.0,0.0,237.721,260.299
2016-01-11 02:00,0.0,287.01,287.651,260.011,290.632,288.999,262.728,0.0,0.0,237.785,259.97
2016-01-11 03:00,0.0,283.76,284.071,258.134,286.86,285.777,261.421,0.0,0.0,237.072,259.135
2016-01-11 04:00,-0.00115499,277.869,278.845,255.393,281.799,281.441,260.219,0.0,0.0,237.006,258.543
2016-01-11 05:00,0.0,276.376,278.101,255.043,281.076,280.85,259.856,0.0,0.0,236.004,258.372
2016-01-11 06:00,0.0,274.551,276.208,253.98,279.466,279.511,258.882,0.0,0.0,235.799,257.769
2016-01-11 07:00,0.0,280.427,279.945,256.549,283.23,282.321,260.701,0.0,0.0,237.137,258.114
2016-01-11 08:00,0.0,282.059,281.742,257.572,284.641,283.629,261.182,0.0,0.0,237.398,258.028
2016-01-11 09:00,-0.00395975,278.279,278.845,255.742,281.943,281.293,260.098,0.0,0.0,236.207,257.595
2016-01-11 10:00,0.0,278.684,278.845,255.393,281.51,281.146,259.977,-0.0690753,-0.0823618,235.936,256.271
2016-01-11 11:00,0.65682,279.859,276.971,254.572,279.76,279.661,259.37,0.746026,0.816744,235.525,255.911
2016-01-11 12:00,0.576441,284.73,276.718,254.572,279.76,279.361,259.614,0.620919,0.671482,235.317,255.821
2016-01-11 13:00,0.471949,290.041,275.951,254.454,279.466,278.911,259.492,0.46228,0.497481,234.472,255.366
2016-01-11 14:00,0.47504,287.444,276.463,254.572,279.76,279.511,259.37,0.478525,0.515597,235.386,255.548
2016-01-11 15:00,0.243465,288.291,278.598,256.205,281.943,280.998,260.219,0.230648,0.230323,234.113,255.275
2016-01-11 16:00,0.382918,284.57,275.951,254.808,279.022,278.911,259.127,0.397058,0.43256,232.328,254.349
2016-01-11 17:00,0.3755,283.924,276.208,255.277,279.17,278.76,259.614,0.405908,0.445338,233.01,254.907
2016-01-11 18:00,0.450056,288.977,276.591,255.858,279.76,279.061,259.856,0.418058,0.454358,233.456,254.907
2016-01-11 19:00,0.48106,290.558,280.429,258.022,283.514,282.613,260.942,0.464389,0.519686,233.75,255.639
2016-01-11 20:00,0.422091,280.982,268.343,250.303,269.679,265.99,246.594,0.39882,0.469356,229.685,247.59
2016-01-11 21:00,-0.402911,285.357,284.3,260.228,286.722,285.208,260.942,-0.085286,-0.203381,233.53,254.999
2016-01-11 22:00,0.0,283.594,283.148,259.574,285.757,284.349,260.942,0.0,0.0,232.633,254.722
2016-01-11 23:00,-0.00251683,282.408,280.066,257.459,282.231,280.554,258.023,0.0,0.0,232.328,253.405
2016-01-12 00:00,0.0,279.667,280.308,258.469,283.656,282.904,261.062,0.0,0.0,234.472,256.091
2016-01-12 01:00,0.00141866,281.165,281.029,259.024,284.501,283.629,260.942,0.0,0.0,234.615,255.73
2016-01-12 04:00,0.00115506,278.883,280.066,258.691,283.656,282.758,260.701,0.0,0.0,235.386,255.548
2016-01-12 05:00,-0.00121714,279.081,279.336,258.134,282.517,281.882,260.942,0.0,0.0,235.662,255.366
2016-01-12 06:00,0.0,275.48,276.845,256.664,280.493,279.959,260.219,0.0,0.0,236.475,255.457
2016-01-12 07:00,0.0,275.932,277.098,256.778,280.639,280.406,259.735,0.0,0.0,236.542,255.183
2016-01-12 08:00,0.0,276.376,277.224,256.778,280.785,280.406,260.098,0.0,0.0,235.799,255.091
2016-01-12 09:00,-0.00395353,275.707,277.098,256.205,280.493,280.257,259.977,0.0,0.0,235.662,254.722
2016-01-12 10:00,0.0,276.155,277.224,256.778,280.785,280.257,260.098,-0.0826119,-0.0820851,234.329,254.349
2016-01-12 11:00,0.704529,282.753,276.971,256.664,280.639,280.257,259.614,0.732097,0.751676,233.896,253.213
2016-01-12 12:00,0.514359,291.563,278.721,258.134,282.517,281.293,259.735,0.49319,0.502081,233.823,252.828
2016-01-12 13:00,0.397222,293.007,279.213,258.691,283.088,281.882,260.098,0.387167,0.401019,233.382,252.634
2016-01-12 14:00,0.517123,288.568,277.727,257.685,281.655,280.85,259.856,0.52034,0.556114,233.456,252.828
2016-01-12 15:00,0.251336,289.247,280.549,259.134,283.938,282.613,260.581,0.248753,0.241737,233.603,252.925
2016-01-12 16:00,0.114354,288.977,283.032,260.445,286.172,284.636,260.942,0.133844,0.115448,233.456,252.925
2016-01-12 17:00,0.145271,290.041,283.726,260.876,286.722,285.065,261.301,0.149138,0.133827,233.159,252.731
2016-01-12 18:00,0.215217,291.315,282.916,260.769,286.31,284.779,261.062,0.217196,0.21508,233.308,252.342
2016-01-12 19:00,0.310278,291.44,283.38,260.769,286.447,284.922,261.182,0.314224,0.313244,232.935,252.537
2016-01-12 20:00,0.554736,287.871,281.505,259.574,284.501,283.194,260.701,0.510537,0.572214,231.394,251.85
2016-01-12 21:00,-0.0568733,276.376,277.476,257.346,281.51,280.85,259.492,-0.144464,-0.229668,232.328,252.439
2016-01-12 22:00,0.0,285.202,284.3,261.305,287.543,285.635,261.898,0.0,0.0,232.481,253.021
2016-01-12 23:00,0.0,279.667,279.945,258.469,283.372,282.321,260.34,0.0,0.0,233.159,252.731
2016-01-13 00:00,0.0,275.48,277.224,256.778,280.639,280.257,259.492,0.0,0.0,232.481,252.537
2016-01-13 01:00,0.0,278.075,278.968,258.246,282.087,281.588,260.098,0.0,0.0,233.456,253.117
2016-01-13 02:00,0.00124288,276.811,278.226,257.91,281.799,281.146,259.614,0.0,0.0,234.041,253.69
2016-01-13 03:00,-0.00116305,283.428,283.032,260.661,285.895,284.922,261.301,0.0,0.0,234.897,254.349
2016-01-13 04:00,0.00115516,277.869,278.35,257.91,281.943,281.441,260.822,0.0,0.0,235.038,254.349
2016-01-13 05:00,-0.00121687,276.155,277.852,257.233,281.076,280.702,260.219,0.0,0.0,235.799,254.629
2016-01-13 06:00,0.00136781,282.581,282.096,259.574,285.061,283.917,261.301,0.0,0.0,236.675,255.275
2016-01-13 07:00,0.0,275.251,277.727,256.892,280.931,280.702,260.822,0.0,0.0,238.357,256.539
2016-01-13 08:00,0.0,276.155,277.852,257.006,281.221,280.85,260.219,0.0,0.0,236.675,256.001
2016-01-13 09:00,0.0,276.376,277.727,256.778,281.221,280.85,260.461,0.0,0.0,235.108,255.457
2016-01-13 10:00,-0.0162254,275.48,277.35,256.549,280.931,280.702,260.34,-0.0824283,-0.0819027,233.896,254.722
2016-01-13 11:00,0.735754,282.234,277.098,256.32,280.785,280.406,259.735,0.771931,0.775083,233.896,254.256
2016-01-13 12:00,0.588364,291.065,277.601,256.778,281.221,280.702,259.977,0.552879,0.556221,234.185,253.88
2016-01-13 13:00,0.38724,294.713,279.702,258.022,283.23,282.175,260.701,0.384473,0.379307,233.01,253.88
2016-01-13 14:00,0.446787,293.007,278.35,257.12,282.231,281.882,260.581,0.422613,0.439735,233.085,254.999
2016-01-13 15:00,0.260831,290.939,280.549,258.246,284.079,283.339,260.822,0.242356,0.232546,233.308,255.821
2016-01-13 16:00,0.388915,288.291,277.224,256.205,280.785,281.146,260.34,0.370455,0.387556,233.75,256.091
2016-01-13 17:00,0.428694,289.514,276.845,256.089,280.493,280.406,260.219,0.405858,0.430966,233.968,255.457
2016-01-13 18:00,0.514787,290.558,277.098,256.205,280.639,280.406,260.461,0.477991,0.515341,232.557,255.911
2016-01-13 19:00,0.65831,291.315,277.601,256.549,280.931,280.998,259.977,0.593186,0.64936,231.156,254.907
2016-01-13 20:00,0.915318,285.512,273.599,253.86,276.315,275.396,256.285,0.754869,0.882065,229.852,252.439
2016-01-13 21:00,-0.261659,274.787,274.129,254.336,276.772,276.169,256.785,-0.110773,-0.330201,230.018,251.252
2016-01-13 22:00,0.0,280.982,280.909,258.58,284.641,283.629,260.822,0.0,0.0,231.865,254.349
2016-01-13 23:00,-0.00254011,276.155,277.977,256.664,281.51,281.441,260.461,0.0,0.0,232.02,254.068
2016-01-14 00:00,0.0,275.707,277.601,256.549,280.931,280.554,260.098,0.0,-0.00179407,232.328,253.595
2016-01-14 01:00,0.0,275.707,277.35,256.32,280.785,280.406,260.461,0.0,0.0,232.86,254.068
2016-01-14 02:00,0.00124408,275.02,276.718,256.434,280.201,280.108,260.098,0.0,0.0,233.382,254.722
2016-01-14 03:00,0.00116362,275.251,276.971,256.434,280.201,280.257,260.581,0.0,0.0,233.456,254.629
2016-01-14 04:00,0.0,274.551,276.591,256.089,279.907,279.661,259.614,0.0,0.00116635,233.01,254.443
2016-01-14 05:00,0.00121666,274.551,276.336,255.974,279.76,279.661,260.34,0.0,0.0,231.943,253.974
2016-01-14 06:00,-0.00136721,274.551,276.208,255.858,279.613,279.81,259.614,0.0,0.0,233.234,254.722
2016-01-14 07:00,0.00166611,274.551,276.208,255.974,279.76,279.661,259.614,0.0,0.0,232.784,253.974
2016-01-14 08:00,0.0,274.551,276.08,256.205,279.466,279.361,259.127,0.0,0.0,231.63,253.405
2016-01-14 10:00,-0.0162079,273.586,275.565,255.277,278.873,278.76,259.37,-0.0823391,-0.0818141,231.787,253.88
2016-01-14 11:00,0.710573,280.982,275.565,255.277,279.318,279.361,259.492,0.750362,0.765728,233.159,253.69
2016-01-14 12:00,0.665362,287.587,275.951,255.626,279.466,279.211,259.127,0.655338,0.695713,230.43,252.146
2016-01-14 13:00,0.627954,287.587,273.599,254.454,276.772,276.169,256.909,0.662175,0.708267,229.007,249.825
2016-01-14 14:00,0.578133,285.045,273.997,254.217,276.923,276.477,257.53,0.645829,0.681564,229.517,250.34
2016-01-14 15:00,0.472928,285.202,275.565,255.626,279.17,279.061,259.249,0.484803,0.520079,230.755,251.452
2016-01-14 16:00,0.354231,287.587,275.306,255.626,278.725,278.156,258.76,0.326807,0.340748,229.769,251.552
2016-01-14 17:00,0.407177,289.514,276.08,255.858,279.76,279.361,259.614,0.379842,0.407431,229.433,251.751
2016-01-14 18:00,0.378741,293.24,277.601,256.892,281.076,280.702,259.614,0.32979,0.358464,229.685,252.537
2016-01-14 19:00,0.0629496,288.291,286.992,262.155,289.835,288.027,262.492,0.119289,0.0817089,229.852,252.925
2016-01-14 20:00,0.181628,286.864,283.726,259.902,286.172,283.917,259.856,0.248039,0.218854,228.488,250.442
2016-01-14 21:00,-0.693942,284.249,281.624,259.024,283.514,281.146,258.392,-0.195853,-0.544892,227.78,249.303
2016-01-14 22:00,-0.00488201,283.924,280.669,258.358,282.374,279.81,256.535,0.0,0.0,227.329,248.241
2016-01-14 23:00,-0.00255205,282.059,278.474,256.664,280.054,277.548,255.28,0.0,0.0,227.601,248.455
2016-01-15 00:00,-0.00178188,286.569,286.439,262.155,289.166,287.048,261.898,0.0,0.0,228.575,251.85
2016-01-15 01:00,-0.0014256,287.01,287.212,262.681,290.101,288.167,262.61,0.0,0.0,229.852,253.117
2016-01-15 02:00,0.0,282.581,279.702,258.58,280.785,276.015,254.137,0.0,0.0,229.007,248.133
2016-01-15 03:00,0.0,286.717,286.328,262.049,289.3,287.048,261.421,0.0,0.0,230.184,251.352
2016-01-15 04:00,0.0,286.271,285.994,261.731,288.763,286.343,260.701,0.0,0.0,229.263,250.849
2016-01-15 05:00,0.0,279.081,272.796,254.099,271.625,265.309,246.182,0.0,0.0,226.871,244.056
2016-01-15 06:00,0.0,286.717,286.105,261.731,288.628,286.626,260.942,0.0,0.0,229.517,250.135
2016-01-15 07:00,0.0,275.48,267.18,250.429,266.508,258.957,243.241,0.0,0.0,228.048,242.602
2016-01-15 08:00,0.00228556,283.924,279.823,257.685,281.076,278.004,255.406,0.0,0.0,227.959,246.929
2016-01-15 09:00,0.0,285.665,283.726,260.553,285.895,282.904,259.005,0.0,0.0,228.4,249.198
2016-01-15 10:00,-0.0162089,283.261,282.096,259.024,285.201,283.049,259.249,-0.0411722,-0.0327277,229.263,249.198
2016-01-15 11:00,0.167285,277.451,278.35,256.892,281.655,280.406,258.76,0.357473,0.249306,229.935,249.513
2016-01-15 12:00,0.592834,293.472,264.175,247.728,265.31,260.584,245.767,0.536371,0.554041,230.184,243.457
2016-01-15 13:00,0.468186,296.84,258.871,245.177,259.606,254.089,242.527,0.417787,0.437907,230.996,242.848
2016-01-15 14:00,0.366472,290.171,279.458,256.778,282.946,281.588,259.614,0.365419,0.349317,232.02,249.928
2016-01-15 15:00,0.402523,284.888,278.35,255.974,281.799,280.85,258.76,0.403559,0.40467,232.405,250.238
2016-01-15 16:00,0.141552,287.01,281.148,257.233,283.797,281.882,259.249,0.174842,0.146267,233.01,250.646
2016-01-15 17:00,0.398355,284.249,278.474,255.742,281.655,280.257,258.515,0.469467,0.467379,232.784,250.544
2016-01-15 18:00,0.432446,285.97,276.845,254.69,279.76,278.156,257.282,0.485785,0.479806,232.633,249.825
2016-01-15 19:00,0.52963,283.76,276.591,254.69,279.613,278.609,257.777,0.576921,0.591767,233.456,250.849
2016-01-15 20:00,0.681542,283.428,277.727,254.808,280.639,279.661,258.023,0.660197,0.699719,233.823,251.252
2016-01-15 21:00,-0.18812,275.02,276.08,254.099,279.17,278.307,257.9,-0.318562,-0.379837,233.823,251.452
2016-01-15 22:00,0.00493335,275.932,276.718,254.217,279.907,278.76,257.777,0.0,0.0,233.159,251.152
2016-01-15 23:00,-0.00256418,275.48,276.718,253.98,279.613,278.609,258.147,0.0,0.0,232.784,251.452
2016-01-16 00:00,0.0,275.251,276.336,254.099,279.318,278.458,257.9,0.0,0.0,232.935,251.652
2016-01-16 01:00,0.0,281.526,279.945,256.32,282.517,280.85,258.76,0.0,0.0,233.308,251.949
2016-01-16 02:00,0.0,286.421,284.755,259.134,286.997,284.492,259.977,0.0,0.0,234.185,252.439
2016-01-16 03:00,-0.00116484,279.473,280.066,256.089,282.946,280.998,259.127,0.0,0.0,237.721,253.595
2016-01-16 04:00,0.0,280.05,281.148,256.664,284.22,282.467,259.614,0.0,0.0,239.653,254.536
2016-01-16 05:00,-0.00121638,285.97,285.095,258.134,287.407,284.922,260.822,0.0,0.0,241.647,256.001
2016-01-16 06:00,0.0,283.428,282.799,257.12,285.618,283.629,259.977,0.0,0.0,242.6,257.07
2016-01-16 07:00,0.0,286.717,285.882,258.913,288.222,286.06,260.822,0.0,0.0,242.266,257.855
2016-01-16 08:00,-0.00228419,286.121,285.433,259.024,287.951,285.493,261.301,0.0,0.0,242.155,258.798
2016-01-16 09:00,0.0,287.155,286.328,259.354,288.493,286.202,261.301,0.0,0.0,241.073,259.051
2016-01-16 10:00,-0.0162287,274.787,276.591,254.099,279.318,279.211,259.005,-0.068704,-0.0819191,240.253,258.882
2016-01-16 11:00,0.476603,285.357,282.566,257.346,284.921,283.484,260.581,0.605309,0.585411,240.607,259.887
2016-01-16 12:00,0.4833,288.841,280.549,256.434,283.938,282.758,260.219,0.477888,0.50498,239.349,259.554
2016-01-16 13:00,0.462479,291.809,280.789,256.664,283.656,283.049,260.942,0.455551,0.462277,238.294,259.22
2016-01-16 14:00,0.126165,289.381,285.208,258.802,287.543,285.777,261.421,0.166519,0.149848,236.004,258.713
2016-01-16 15:00,0.203184,287.01,281.386,257.006,284.361,283.484,261.062,0.20758,0.201736,233.968,258.2
2016-01-16 16:00,0.308688,286.121,280.066,256.205,282.803,282.321,260.822,0.320383,0.33342,233.159,257.595
2016-01-16 17:00,0.0142962,288.152,287.102,260.661,289.701,287.888,262.728,0.0529573,0.0288657,233.75,257.508
2016-01-16 18:00,0.070278,288.705,284.869,259.134,286.447,284.205,260.219,0.10819,0.0816998,230.835,254.068
2016-01-16 19:00,0.12404,289.247,285.77,259.902,288.222,286.343,261.182,0.160038,0.137152,230.266,254.814
2016-01-16 20:00,0.626354,287.01,279.213,256.434,282.517,281.735,259.977,0.535154,0.603599,230.43,254.256
2016-01-16 21:00,-0.36254,285.357,285.321,259.683,288.087,286.343,261.54,-0.409283,-0.610009,231.076,254.068
2016-01-16 22:00,-0.00498614,285.512,283.841,258.691,286.172,283.629,259.005,0.0,0.0,230.43,252.537
2016-01-16 23:00,0.0,286.864,284.528,259.134,287.134,284.636,259.614,0.0,0.0,230.43,253.309
2016-01-17 00:00,-0.00179168,285.512,282.682,258.022,285.201,282.028,257.777,0.0,0.0,229.852,253.021
2016-01-17 01:00,-0.0014304,282.753,279.702,256.205,281.221,278.156,255.28,0.0,0.0,229.517,250.544
2016-01-17 02:00,-0.00124784,280.239,274.785,253.381,275.242,272.246,251.683,0.0,0.0,227.238,245.804
2016-01-17 03:00,-0.0011655,287.01,286.772,261.412,289.701,287.609,262.373,0.0,0.0,229.852,252.047
2016-01-17 04:00,0.0,286.569,286.328,260.984,289.166,287.188,262.017,0.0,0.0,230.266,251.949
2016-01-17 05:00,0.0,286.864,286.217,260.553,288.763,286.626,261.421,0.0,0.0,230.674,251.949
2016-01-17 06:00,-0.00136593,286.864,286.328,260.661,289.032,286.907,261.301,0.0,0.0,231.865,251.85
2016-01-17 07:00,0.0,287.3,286.328,260.769,288.763,286.626,261.421,0.0,0.0,233.085,252.342
2016-01-17 08:00,0.0,286.864,285.77,260.445,288.493,285.777,260.701,0.0,0.0,232.481,251.552
2016-01-17 09:00,0.0,287.155,286.439,261.198,289.166,286.767,261.301,0.0,0.0,232.935,252.244
2016-01-17 10:00,0.0,286.569,286.217,260.876,288.628,286.343,261.301,-0.0550945,-0.0492689,233.896,252.925
2016-01-17 11:00,0.055414,287.444,286.55,260.769,289.166,286.907,261.54,0.281514,0.151847,235.317,253.785
2016-01-17 12:00,0.0168551,287.729,286.55,261.091,289.166,286.767,261.898,0.134149,0.0646615,235.247,254.162
2016-01-17 13:00,0.0137017,287.729,286.661,261.198,289.166,286.907,261.898,0.0889427,0.0438035,235.178,254.256
2016-01-17 14:00,0.00740106,287.444,286.661,261.412,289.166,286.485,261.54,0.0626647,0.0298872,234.257,253.974
2016-01-17 15:00,0.0100444,287.729,286.661,261.305,289.3,286.907,261.779,0.0510277,0.0270413,234.401,254.349
2016-01-17 16:00,0.00992277,288.012,286.882,261.412,289.568,287.048,261.779,0.0448085,0.0217049,233.456,253.69
2016-01-17 17:00,0.00711823,287.871,286.882,261.731,289.568,287.188,262.136,0.042189,0.0215588,232.481,253.69
2016-01-17 18:00,0.00847358,288.152,286.992,261.625,289.701,287.329,262.136,0.0520156,0.0278024,232.175,253.785
2016-01-17 19:00,0.0146565,288.291,287.212,261.944,290.234,287.888,262.136,0.0843854,0.0443897,231.943,254.162
2016-01-17 20:00,0.0505261,288.291,287.212,261.838,289.701,287.609,262.492,0.175875,0.113354,231.236,254.349
2016-01-17 21:00,-3.21963,284.888,281.148,257.685,282.803,280.108,256.535,-1.14781,-2.56611,231.552,252.731
2016-01-17 22:00,0.0,287.155,286.55,261.412,289.032,286.907,261.54,0.0,0.0,231.315,254.722
2016-01-17 23:00,0.0,287.871,287.322,261.731,289.835,287.888,262.373,0.0,0.0,231.63,254.999
2016-01-18 00:00,-0.00179667,287.01,286.882,261.519,289.701,287.748,262.373,0.0,0.0,232.097,255.366
2016-01-18 01:00,0.0,287.155,287.212,261.625,289.835,287.888,262.728,0.0,0.0,233.01,255.73
2016-01-18 02:00,0.0,287.155,287.102,261.731,289.701,287.888,262.728,0.0,0.0,233.308,256.628
2016-01-18 03:00,0.0,287.3,287.432,261.838,289.835,287.888,263.083,0.0,0.0,233.01,256.894
2016-01-18 04:00,0.0,283.76,284.755,260.011,287.27,285.919,262.61,0.0,0.0,233.085,256.805
2016-01-18 05:00,-0.00121633,285.357,285.77,260.984,288.493,286.767,262.255,0.0,0.0,232.935,256.271
2016-01-18 06:00,-0.00136567,286.271,284.642,259.902,286.86,284.636,260.219,0.0,0.0,231.865,254.162
2016-01-18 07:00,0.0,285.202,285.095,260.553,287.407,285.777,260.942,0.0,0.0,231.552,254.629
2016-01-18 08:00,0.0,287.871,287.869,262.155,290.897,289.276,263.318,0.0,0.0,232.709,255.821
2016-01-18 09:00,0.00393784,286.121,285.095,260.337,287.27,285.35,261.062,0.0,0.0,230.996,253.595
2016-01-18 10:00,0.0163256,287.871,288.087,262.049,290.897,289.276,263.318,-0.0552916,-0.0659268,232.175,256.36
2016-01-18 11:00,0.0473085,288.152,288.087,262.366,290.897,289.413,262.965,0.280392,0.159202,233.896,256.716
2016-01-18 12:00,0.0168075,288.291,288.087,262.155,290.897,289.413,263.318,0.136617,0.0678729,233.677,257.07
2016-01-18 13:00,0.00910959,288.291,288.303,262.155,291.292,289.551,263.318,0.0867721,0.0390859,234.827,258.2
2016-01-18 14:00,0.0092248,288.43,288.412,262.155,291.292,289.551,263.905,0.0640471,0.0298016,234.686,258.028
2016-01-18 15:00,0.00667521,288.705,288.736,262.471,291.555,290.101,263.787,0.0480411,0.0235866,234.756,258.457
2016-01-18 16:00,0.00329575,288.43,288.736,262.786,291.555,290.101,264.022,0.0404623,0.0182999,234.472,258.628
2016-01-18 17:00,0.0212642,289.247,288.52,262.471,291.292,289.826,264.605,0.0540131,0.0322012,234.827,259.22
2016-01-18 18:00,0.0337137,289.381,288.412,262.471,291.16,289.826,264.255,0.0713634,0.0467995,235.038,259.387
2016-01-18 19:00,0.177469,289.381,287.102,261.625,289.568,288.445,264.022,0.2217,0.208537,234.827,259.554
2016-01-18 20:00,0.64765,286.271,282.448,258.58,285.061,284.492,262.017,0.665536,0.760021,235.593,260.217
2016-01-18 21:00,-0.28473,285.045,286.217,260.984,288.493,287.748,263.436,-1.2054,-1.43726,235.525,260.381
2016-01-18 22:00,-0.00509613,287.729,288.195,262.261,290.632,289.137,263.318,0.0,0.0,234.897,260.217
2016-01-18 23:00,-0.00260171,288.291,288.736,262.681,291.292,289.826,264.138,0.0,0.0,235.108,260.299
2016-01-19 00:00,-0.00180172,288.012,288.843,262.576,291.292,289.964,264.372,0.0,0.0,234.897,260.217
2016-01-19 01:00,0.0,288.43,289.058,262.786,291.686,290.375,264.022,0.0,0.0,234.686,260.135
2016-01-19 02:00,-0.00125048,288.291,288.951,262.995,291.686,290.101,264.138,0.0,0.0,235.317,260.299
2016-01-19 03:00,0.00116691,288.291,289.058,263.099,291.686,290.511,264.255,0.0,0.0,235.731,260.463
2016-01-19 04:00,0.0,288.43,289.165,262.786,292.079,290.648,264.488,0.0,0.0,235.593,260.627
2016-01-19 05:00,0.0,288.152,288.736,262.786,291.686,290.648,264.372,0.0,0.0,235.038,260.381
2016-01-19 06:00,0.0,287.729,288.951,262.576,291.686,290.375,264.372,0.0,0.0,235.455,260.463
2016-01-19 07:00,0.0,286.569,287.102,261.944,289.701,288.445,262.728,0.0,0.0,235.525,260.217
2016-01-19 08:00,0.0,287.587,287.978,261.944,290.5,289.276,263.787,0.0,0.0,235.386,260.381
2016-01-19 09:00,0.0,287.587,287.978,262.366,290.5,289.276,263.318,0.0,0.0,235.867,260.545
2016-01-19 10:00,-0.0164037,287.444,288.412,262.89,291.292,289.964,264.138,-0.0694451,-0.0828027,236.207,261.194
2016-01-19 11:00,0.298258,288.291,285.994,261.412,288.358,286.767,261.898,0.431966,0.356576,235.593,259.804
2016-01-19 12:00,0.0201074,288.568,289.165,263.411,291.948,290.648,264.605,0.139037,0.0710486,236.742,261.834
2016-01-19 13:00,0.00681253,288.568,289.379,263.825,292.209,291.057,264.721,0.0865224,0.0412659,237.268,262.072
2016-01-19 14:00,0.00551839,288.568,289.486,263.928,292.34,291.193,265.185,0.0622988,0.0315698,237.203,262.309
2016-01-19 15:00,0.0066536,288.977,289.379,263.928,292.209,291.193,264.837,0.049294,0.0235102,237.592,262.545
2016-01-19 16:00,0.011493,288.841,289.272,263.618,292.079,290.921,264.721,0.0472653,0.0232057,237.137,262.545
2016-01-19 17:00,0.0211729,289.113,289.272,264.031,292.209,290.921,264.837,0.0567689,0.0356254,236.408,261.755
2016-01-19 18:00,0.0440115,289.779,288.951,263.721,291.948,290.648,264.255,0.081627,0.0571272,236.609,261.595
2016-01-19 19:00,0.0404247,289.381,288.843,263.618,291.292,290.238,263.905,0.102683,0.0641318,236.609,260.545
2016-01-19 20:00,0.0709607,289.247,289.165,264.236,292.079,290.648,264.721,0.184869,0.121235,236.94,260.299
2016-01-19 21:00,-1.80352,288.152,289.272,263.928,292.079,290.511,264.605,-3.8176,-5.4623,236.94,259.97
2016-01-19 22:00,-0.00515339,287.155,287.212,262.995,289.568,288.167,262.373,0.0,0.0,236.274,258.882
2016-01-19 23:00,-0.0026146,287.729,288.736,264.031,291.292,290.375,264.022,0.0,0.0,236.542,259.554
2016-01-20 00:00,0.0,284.249,281.742,259.244,283.088,281.146,257.158,0.0,-0.00182411,234.897,255.548
2016-01-20 01:00,-0.00143785,286.271,285.882,262.366,287.951,286.343,261.779,0.0,0.0,236.207,258.114
2016-01-20 02:00,0.0,282.753,278.598,257.91,278.873,276.015,254.264,0.0,0.0,232.328,252.146
2016-01-20 03:00,0.0,283.428,279.945,258.358,280.493,278.307,254.9,0.0,0.0,234.329,255.275
2016-01-20 04:00,0.00115697,288.152,289.058,264.339,291.948,290.784,264.255,0.0,0.0,236.874,259.97
2016-01-20 05:00,-0.00121651,288.291,289.058,264.339,291.817,290.511,264.372,0.0,0.0,237.137,259.887
2016-01-20 06:00,0.0,288.012,289.272,264.339,292.079,290.784,264.255,0.0,0.0,235.936,259.471
2016-01-20 07:00,0.0,287.871,288.843,264.236,291.555,290.511,264.255,0.0,0.0,235.386,259.304
2016-01-20 08:00,0.00456396,288.152,289.058,264.339,292.079,290.921,264.372,0.0,0.0,235.317,259.304
2016-01-20 09:00,0.00394103,285.665,287.102,263.307,289.968,288.861,263.67,0.0,0.0,235.799,259.304
2016-01-20 10:00,-0.0165024,287.587,287.978,263.721,290.764,289.413,263.318,-0.0698628,-0.0666407,236.274,259.471
2016-01-20 11:00,0.351397,289.247,286.661,262.681,289.166,288.027,263.318,0.469432,0.378406,234.968,258.628
2016-01-20 12:00,0.317319,290.558,283.611,261.091,286.447,285.493,261.898,0.345033,0.327097,236.004,258.543
2016-01-20 13:00,0.0113198,288.152,288.412,263.515,291.16,289.826,263.67,0.0900943,0.0434266,235.936,258.882
2016-01-20 14:00,0.0623485,288.977,287.978,263.203,290.367,288.999,263.2,0.113344,0.0851603,234.472,258.2
2016-01-20 15:00,0.0828936,288.705,287.322,262.786,289.968,288.722,263.318,0.122123,0.103771,233.456,258.028
2016-01-20 16:00,0.032715,288.841,287.978,263.307,290.5,288.999,263.553,0.0650943,0.0445874,233.677,258.286
2016-01-20 17:00,0.158106,285.512,279.945,258.58,280.931,279.661,257.653,0.191877,0.184446,230.674,253.785
2016-01-20 18:00,0.135489,288.43,285.433,262.155,287.815,286.485,262.136,0.160606,0.136784,233.75,257.421
2016-01-20 19:00,0.15475,289.647,285.208,261.731,287.27,285.493,261.779,0.186834,0.14755,233.234,257.07
2016-01-20 20:00,0.656745,284.57,279.702,258.022,282.231,281.882,260.461,0.651781,0.695631,233.234,256.982
2016-01-20 21:00,3.82665,278.075,279.945,258.246,282.517,282.028,260.461,4.53602,6.95381,232.481,256.805
2016-01-20 22:00,0.0,280.982,281.029,259.024,283.656,282.613,260.461,0.0,0.0,231.709,256.181
2016-01-20 23:00,0.0,279.667,280.187,258.58,282.517,282.175,260.581,0.0,0.0,232.251,256.36
2016-01-21 00:00,0.0,281.705,280.187,258.913,281.799,279.959,258.27,0.0,0.0,231.394,253.595
2016-01-21 01:00,-0.0014404,284.087,284.3,261.625,286.447,285.065,261.182,0.0,0.0,231.552,255.821
2016-01-21 02:00,0.0,275.02,273.599,254.454,274.623,273.675,254.773,0.0,0.0,230.511,251.949
2016-01-21 03:00,0.0,265.446,258.871,245.451,258.491,256.928,244.652,0.0,0.0,228.575,242.725
2016-01-21 04:00,0.0,279.667,277.852,257.233,279.318,278.004,256.909,0.0,0.0,230.916,252.634
2016-01-21 05:00,0.00121669,285.357,284.071,260.445,285.479,283.194,259.127,0.0,0.0,232.02,254.999
2016-01-21 06:00,0.0,286.864,286.882,262.995,289.032,287.188,261.66,0.0,0.0,232.86,256.271
2016-01-21 07:00,0.0,282.234,281.978,259.793,284.641,283.049,260.34,0.0,0.0,233.308,255.821
2016-01-21 08:00,0.0,278.482,276.845,256.434,278.427,277.091,256.909,0.0,0.0,231.394,253.405
2016-01-21 09:00,0.0,274.551,276.08,255.974,278.725,278.004,258.638,0.0,0.0,231.552,254.814
2016-01-21 10:00,-0.0664899,274.787,274.392,254.808,276.163,275.396,255.909,-0.0844454,-0.11747,230.755,253.309
2016-01-21 11:00,0.333882,281.165,278.35,257.233,280.931,279.661,258.27,0.460204,0.407624,230.266,253.405
2016-01-21 12:00,0.599118,284.888,276.336,256.205,278.873,278.307,257.653,0.625636,0.621647,230.835,253.595
2016-01-21 13:00,0.51906,286.421,275.436,255.974,278.128,277.091,256.909,0.546493,0.549084,231.865,253.213
2016-01-21 14:00,0.349132,274.787,261.34,246.934,261.971,260.405,245.489,0.399306,0.409677,230.348,245.804
2016-01-21 15:00,0.0231312,287.01,285.546,261.838,286.997,284.779,260.34,0.0699469,0.0417005,232.251,254.443
2016-01-21 16:00,0.174363,287.444,280.429,258.691,282.66,281.293,259.856,0.190404,0.172739,231.473,255.183
2016-01-21 17:00,0.330561,291.19,275.951,256.32,278.128,275.396,255.027,0.342082,0.333721,230.755,251.85
2016-01-21 18:00,0.267429,290.429,282.214,260.011,284.781,283.484,261.062,0.27909,0.259521,231.63,253.785
2016-01-21 19:00,0.093857,289.779,285.994,262.366,288.358,286.343,261.66,0.139672,0.100497,232.328,253.88
2016-01-21 20:00,0.769863,285.97,276.591,256.205,279.17,277.853,258.023,0.741751,0.841544,231.63,252.925
2016-01-21 21:00,2.41091,286.717,284.869,261.519,286.585,283.049,259.492,1.58769,2.43396,231.156,252.925
2016-01-21 22:00,0.0,279.278,279.458,258.469,282.517,280.554,258.392,0.0,0.0,230.593,250.748
2016-01-21 23:00,0.0,277.24,278.474,257.572,281.799,280.998,259.492,0.0,0.0,230.835,251.152
2016-01-22 00:00,0.00181723,277.451,272.527,254.808,272.264,264.795,247.415,0.0,0.0,230.348,245.345
2016-01-22 01:00,-0.00144299,285.045,283.264,260.769,285.34,283.339,259.856,0.0,0.0,230.511,250.238
2016-01-22 02:00,0.0,254.396,248.177,239.267,248.733,247.501,238.128,0.0,0.0,229.263,240.053
2016-01-22 03:00,-0.00116928,279.667,276.845,256.434,278.576,275.706,255.28,0.0,0.0,230.266,248.882
2016-01-22 04:00,0.0,273.831,268.773,251.18,268.024,265.65,249.572,0.0,0.0,230.266,243.214
2016-01-22 05:00,0.0,264.009,256.118,243.509,255.439,252.536,240.646,0.0,0.0,228.662,239.922
2016-01-22 06:00,0.00136556,262.475,254.328,242.799,254.657,249.55,239.47,0.0,0.0,229.178,238.85
2016-01-22 07:00,0.0,281.346,281.624,259.574,284.079,282.613,259.614,0.0,0.0,229.769,249.928
2016-01-22 08:00,-0.00228288,279.278,278.721,257.91,281.655,280.554,259.005,0.0,0.0,230.348,250.544
2016-01-22 09:00,0.0,275.02,275.951,255.974,278.873,278.307,258.392,0.0,0.0,230.511,250.238
2016-01-22 10:00,0.0,280.427,281.624,259.464,284.781,283.339,260.34,-0.0709742,-0.0677008,230.916,251.452
2016-01-22 11:00,0.571031,282.059,279.58,258.022,282.517,281.735,260.098,0.6599,0.607652,230.755,251.051
2016-01-22 12:00,0.613452,288.841,280.549,259.024,283.656,282.904,260.461,0.61206,0.595883,230.266,251.552
2016-01-22 13:00,0.150703,289.381,283.148,260.119,285.34,283.194,259.856,0.192352,0.147602,230.348,251.85
2016-01-22 14:00,0.320652,288.841,281.505,259.354,284.079,282.758,259.856,0.360966,0.342111,230.266,251.949
2016-01-22 15:00,0.365517,280.613,268.773,251.429,269.186,267.673,249.305,0.437736,0.44381,229.348,247.808
2016-01-22 16:00,0.409069,281.165,274.785,255.16,277.226,276.169,256.16,0.508541,0.521141,229.852,250.135
2016-01-22 17:00,0.395258,268.073,250.954,240.32,250.207,248.941,239.322,0.546962,0.580097,227.238,237.185
2016-01-22 18:00,0.265965,272.836,266.293,249.158,268.024,267.004,250.369,0.443401,0.457919,228.048,245.575
2016-01-22 19:00,0.544785,266.131,240.984,234.845,241.107,239.667,231.743,0.731337,0.837812,226.405,236.033
2016-01-22 20:00,0.78035,267.761,247.357,238.195,247.012,244.973,235.846,0.824792,0.967578,226.405,236.9
2016-01-22 21:00,5.99801,273.338,265.545,249.029,265.826,263.759,247.551,2.33337,4.74608,228.136,243.457
2016-01-22 22:00,0.0,286.569,286.439,262.049,289.166,287.188,261.54,0.0,0.0,229.348,250.849
2016-01-22 23:00,0.0,287.3,287.322,262.89,290.234,288.027,262.017,0.0,-0.00267971,229.601,250.34
2016-01-23 00:00,-0.00182251,282.059,278.845,256.434,280.201,277.701,255.784,0.0,0.0,229.093,247.371
2016-01-23 01:00,0.0,278.075,271.848,252.899,271.785,268.505,249.705,0.0,0.0,228.312,244.764
2016-01-23 02:00,0.0,253.206,241.218,235.985,238.693,237.345,230.604,0.0,0.0,222.799,228.603
2016-01-23 03:00,0.0,266.131,252.666,241.354,250.83,247.915,236.0,0.0,0.0,225.931,236.469
2016-01-23 04:00,0.0,278.482,272.391,253.02,272.104,269.821,250.236,0.0,0.0,227.78,243.937
2016-01-23 05:00,0.0,284.57,282.448,259.354,284.781,282.613,258.392,0.0,0.0,230.43,250.95
2016-01-23 06:00,0.0,281.883,278.226,256.32,279.613,277.548,255.532,0.0,0.0,229.601,248.133
2016-01-23 07:00,-0.00166299,287.01,286.992,262.366,289.701,288.306,261.779,0.0,0.0,230.916,253.69
2016-01-23 08:00,0.00228385,286.717,287.322,262.155,290.101,288.584,262.017,0.0,0.0,231.787,254.162
2016-01-23 09:00,0.0,287.01,287.76,262.576,290.764,288.999,263.083,0.0,0.00399186,231.394,254.256
2016-01-23 11:00,0.145632,288.291,287.212,262.576,290.234,288.584,262.373,0.33747,0.224405,231.787,253.5
2016-01-23 12:00,0.0396334,288.152,287.432,262.366,290.367,288.445,262.373,0.159398,0.0933621,231.552,253.309
2016-01-23 13:00,0.0425889,288.43,287.322,262.366,290.234,288.445,262.492,0.123363,0.0746773,232.405,253.405
2016-01-23 14:00,0.018157,288.291,287.432,262.89,290.5,288.722,262.61,0.0737926,0.0421602,232.097,253.595
2016-01-23 15:00,0.00656244,288.012,287.978,262.995,291.029,289.276,263.083,0.0500077,0.0248444,232.86,254.162
2016-01-23 16:00,0.00646781,288.012,287.869,262.89,290.764,289.137,263.083,0.0465484,0.0228537,231.552,253.595
2016-01-23 17:00,0.0225343,286.569,284.3,260.661,286.447,284.636,259.614,0.0601747,0.0402495,231.076,251.949
2016-01-23 18:00,0.0779152,288.568,283.956,260.337,286.172,284.061,259.856,0.111108,0.09108,231.787,252.439
2016-01-23 19:00,0.112058,289.647,285.882,262.155,288.493,286.626,261.779,0.156551,0.127271,231.63,253.309
2016-01-23 20:00,0.45467,286.569,277.224,256.205,279.022,276.631,254.264,0.437464,0.459016,231.315,250.135
2016-01-23 21:00,0.232231,287.3,287.76,263.099,290.5,288.999,262.965,0.688203,0.820578,232.86,255.73
2016-01-23 22:00,0.0,287.3,287.869,263.203,290.632,288.861,263.083,0.0,0.0,233.456,256.091
2016-01-23 23:00,-0.00266794,287.444,287.869,263.099,290.367,288.722,262.847,0.0,0.0,233.01,255.821
2016-01-24 00:00,-0.00182785,287.729,287.541,263.099,290.101,288.306,262.728,0.0,0.0,233.456,256.001
2016-01-24 01:00,0.0,283.594,282.799,260.337,285.757,284.492,261.66,0.0,0.0,233.234,256.181
2016-01-24 02:00,-0.00125764,268.382,260.854,246.533,260.706,258.774,243.949,0.0,0.0,229.178,244.412
2016-01-24 03:00,0.00117104,272.322,268.916,251.305,269.842,268.505,250.896,0.0,0.0,230.511,249.513
2016-01-24 04:00,0.0,282.408,282.331,260.011,285.34,284.205,261.182,0.0,0.0,233.896,257.246
2016-01-24 05:00,0.0,274.073,271.984,252.899,272.741,271.283,253.625,0.0,0.0,231.865,250.135
2016-01-24 06:00,0.0,282.408,282.916,260.119,285.479,284.779,261.898,0.0,0.0,235.317,258.967
2016-01-24 07:00,-0.00166345,281.346,281.029,258.469,282.517,281.588,258.882,0.0,0.0,234.401,256.982
2016-01-24 08:00,-0.00228517,283.76,283.841,260.445,286.31,285.635,262.017,0.0,0.0,234.968,259.22
2016-01-24 09:00,-0.00396065,281.883,283.264,259.793,285.895,285.35,262.017,0.0,0.0,235.455,259.887
2016-01-24 10:00,-0.0171219,286.569,286.439,262.049,288.628,287.188,262.255,-0.0579885,-0.0691425,235.525,259.804
2016-01-24 11:00,0.0760945,288.291,287.869,262.786,289.701,288.167,262.847,0.283488,0.169008,236.341,260.381
2016-01-24 12:00,0.0526233,288.152,286.992,262.471,288.897,287.329,262.017,0.167085,0.102932,236.004,260.052
2016-01-24 13:00,0.0580702,289.647,287.869,262.786,290.234,288.722,263.553,0.128593,0.0698994,235.525,260.708
2016-01-24 14:00,0.425197,291.19,282.096,259.574,285.201,285.208,262.136,0.42742,0.429262,235.799,261.113
2016-01-24 15:00,0.320392,289.514,281.86,259.464,284.781,284.349,261.66,0.382,0.407619,237.072,261.275
2016-01-24 16:00,0.352712,287.444,279.58,257.798,282.517,282.028,261.301,0.400915,0.411366,237.072,261.194
2016-01-24 17:00,0.163929,289.91,282.799,259.793,285.34,284.492,261.54,0.175324,0.181174,237.333,260.708
2016-01-24 18:00,0.0795241,289.647,287.76,262.786,289.968,288.445,263.2,0.124307,0.0988115,237.657,261.675
2016-01-24 19:00,0.450422,290.558,278.845,257.685,281.51,280.702,259.37,0.433162,0.454728,236.341,258.882
2016-01-24 20:00,0.774859,290.041,280.549,258.58,283.656,283.049,261.66,0.647439,0.715362,238.041,261.675
2016-01-24 21:00,0.271206,283.093,284.414,261.091,286.997,286.06,262.492,0.688889,0.821396,238.483,261.675
2016-01-24 22:00,0.0,288.152,288.951,263.721,291.555,290.511,264.255,0.0,0.0,238.733,262.072
2016-01-24 23:00,0.0,288.152,289.272,263.825,292.079,291.057,264.721,0.0,-0.00270735,238.168,262.072
2016-01-25 00:00,0.0,288.012,289.272,264.133,292.209,291.057,264.721,0.0,0.0,238.671,261.914
2016-01-25 01:00,0.0,287.871,289.058,263.928,291.948,290.511,264.488,0.0,0.0,238.857,261.755
2016-01-25 02:00,0.0,288.152,288.843,263.825,291.686,290.375,264.138,0.0,0.0012712,238.795,261.755
2016-01-25 03:00,0.0,287.871,288.736,263.411,291.16,289.551,264.022,0.0,0.0,238.733,260.627
2016-01-25 04:00,-0.00115955,287.871,288.52,263.411,291.16,289.826,263.67,0.0,0.0,238.483,260.545
2016-01-25 05:00,0.00121806,287.729,288.303,263.099,290.764,289.137,263.318,0.0,0.0,238.919,260.463
2016-01-25 06:00,0.00136649,287.729,288.303,262.786,290.5,288.861,262.965,0.0,0.0,238.42,260.135
2016-01-25 07:00,0.0,287.729,288.303,262.786,290.632,289.276,263.436,0.0,0.0,238.42,260.299
2016-01-25 08:00,0.0,287.587,288.52,262.89,290.5,288.861,263.436,0.0,0.0,238.42,260.463
2016-01-25 09:00,0.0,287.587,288.195,262.681,290.367,288.861,263.2,0.0,0.0,238.42,260.299
2016-01-25 10:00,-0.0173395,285.665,286.992,261.838,289.3,288.167,262.965,-0.0734067,-0.0875263,238.231,260.217
2016-01-25 11:00,0.211419,288.43,287.212,262.049,289.701,288.445,262.965,0.364409,0.274423,238.608,260.381
2016-01-25 12:00,0.0458427,288.43,288.628,262.89,291.16,289.826,263.787,0.163577,0.0991734,238.483,260.789
2016-01-25 13:00,0.0222515,288.43,288.843,262.995,291.686,290.375,263.787,0.103622,0.0606534,238.294,260.545
2016-01-25 14:00,0.0144229,288.43,289.165,263.307,292.079,291.057,264.488,0.0732708,0.040042,238.42,260.463
2016-01-25 15:00,0.083059,290.171,287.76,262.366,290.632,289.276,263.787,0.111694,0.0920739,238.041,259.887
2016-01-25 16:00,0.0128328,288.43,288.736,263.203,291.555,290.511,263.436,0.0516113,0.0291499,238.041,260.217
2016-01-25 17:00,0.0120239,288.43,288.951,262.89,291.817,290.511,264.022,0.0538118,0.0312141,237.137,260.217
2016-01-25 18:00,0.0344725,289.381,288.951,262.89,291.686,290.375,263.67,0.0789787,0.0552738,237.463,260.381
2016-01-25 19:00,0.0579497,289.91,289.165,262.995,292.209,291.057,264.255,0.126169,0.0863625,237.072,260.545
2016-01-25 20:00,0.221338,290.429,288.52,262.576,291.292,290.101,263.787,0.289628,0.259003,236.808,259.97
2016-01-25 21:00,0.369934,287.729,288.843,262.89,291.686,290.375,263.553,0.563801,0.672247,236.742,260.381
2016-01-25 22:00,0.0,287.155,288.195,262.471,290.764,289.551,263.083,0.0,0.0,236.542,259.721
2016-01-25 23:00,-0.00269565,287.01,288.628,262.576,291.555,290.648,264.022,0.0,0.0,237.268,260.217
2016-01-26 00:00,-0.00183869,286.271,286.992,261.412,289.3,287.888,261.301,0.0,0.0,236.071,259.135
2016-01-26 01:00,0.0,285.202,283.495,259.683,285.201,283.049,258.023,0.0,0.0,234.827,256.001
2016-01-26 02:00,0.0,287.444,287.978,262.366,290.764,289.137,262.61,0.0,0.0,236.274,258.967
2016-01-26 03:00,0.0,285.357,283.956,259.683,285.479,283.339,258.27,0.0,0.0,234.257,255.73
2016-01-26 04:00,0.0,283.76,280.669,257.685,281.51,279.211,255.153,0.0,0.00117131,232.935,253.021
2016-01-26 05:00,0.00121857,284.57,282.448,258.691,284.22,282.028,257.406,0.0,0.00123022,233.308,254.814
2016-01-26 06:00,-0.001367,284.087,281.86,258.469,283.088,281.146,256.909,0.0,0.0,233.159,254.536
2016-01-26 07:00,0.0,287.01,287.212,261.305,289.835,288.445,262.017,0.0,0.0,234.686,257.246
2016-01-26 08:00,0.0,283.76,280.909,257.459,281.655,279.211,255.28,0.0,0.0,231.709,252.634
2016-01-26 09:00,-0.00397734,279.859,273.333,252.777,272.104,268.339,248.094,0.0,0.0,229.852,247.699
2016-01-26 10:00,-0.0175856,274.551,265.846,247.728,264.095,260.584,242.814,-0.044669,-0.053261,226.216,241.475
2016-01-26 11:00,0.299548,275.251,260.854,244.903,258.865,255.235,238.428,0.443846,0.438496,225.449,240.185
2016-01-26 12:00,0.143413,280.799,270.607,250.806,269.842,266.498,246.182,0.253894,0.223757,228.048,246.032
2016-01-26 13:00,0.101962,280.427,269.059,249.924,268.024,264.106,244.512,0.182047,0.156644,227.147,244.764
2016-01-26 14:00,0.0646642,283.261,276.336,254.217,276.772,273.99,251.683,0.132315,0.106991,229.348,249.617
2016-01-26 15:00,0.131421,277.451,259.871,244.626,257.55,253.896,237.827,0.178588,0.171989,225.352,240.576
2016-01-26 16:00,0.135796,280.427,264.635,246.934,261.611,257.486,239.618,0.178555,0.180642,226.499,243.457
2016-01-26 17:00,0.247924,274.787,247.769,238.349,242.978,238.978,228.949,0.285197,0.303805,220.337,230.183
2016-01-26 18:00,0.213754,278.279,261.017,243.93,258.491,254.855,239.47,0.259526,0.266693,224.76,239.39
2016-01-26 19:00,0.438216,273.831,250.175,238.503,247.878,245.186,233.344,0.475391,0.522591,223.013,233.617
2016-01-26 20:00,0.253197,289.247,286.217,260.119,288.628,286.626,260.34,0.311063,0.280677,230.916,254.349
2016-01-26 21:00,0.93907,285.045,281.742,257.006,283.23,280.85,255.909,0.689095,1.01125,229.601,252.244
2016-01-26 22:00,0.00559909,284.249,281.742,257.12,283.088,280.702,255.784,0.0,0.0,229.007,251.652
2016-01-26 23:00,-0.00270976,286.421,286.55,260.119,289.3,287.329,260.461,-0.00229435,0.0,230.266,254.162
2016-01-27 00:00,-0.00184419,286.864,286.992,260.337,289.835,288.167,261.062,0.0,-0.00186182,230.43,254.162
2016-01-27 01:00,-0.00145645,285.818,286.992,260.445,289.968,288.445,261.898,0.0,0.0,232.251,255.366
2016-01-27 02:00,-0.00126233,287.01,287.322,260.553,290.101,288.306,262.017,0.0,0.0,232.86,255.639
2016-01-27 03:00,0.0,287.155,287.651,260.445,290.234,288.722,261.898,0.0,0.0,233.456,255.639
2016-01-27 04:00,0.0,286.717,287.432,260.445,290.234,288.445,261.898,0.0,0.0,233.01,255.366
2016-01-27 05:00,0.00121915,284.888,283.726,258.022,285.479,283.194,257.406,0.0,0.0,231.787,252.828
2016-01-27 06:00,-0.00136762,283.76,280.549,255.858,281.943,279.361,255.406,0.0,0.0,231.076,250.135
2016-01-27 07:00,0.0,285.512,284.3,258.134,286.585,284.636,258.638,0.0,0.0,233.085,252.731
2016-01-27 08:00,-0.00229129,284.73,283.148,257.12,285.061,282.758,258.023,0.0,0.0,231.865,251.652
2016-01-27 09:00,0.00398747,280.613,276.336,252.534,276.468,273.832,251.553,0.0,0.0,230.996,247.808
2016-01-27 10:00,-0.0357247,274.551,266.442,247.2,264.965,262.361,243.808,-0.07562,-0.0901654,228.224,241.98
2016-01-27 11:00,0.178169,282.059,275.176,251.799,275.396,272.883,250.501,0.326853,0.284797,229.517,246.929
2016-01-27 12:00,0.181648,286.421,275.436,252.168,276.01,271.605,250.236,0.24718,0.212857,229.178,245.804
2016-01-27 13:00,0.103765,283.261,277.098,252.899,278.278,275.706,253.368,0.186931,0.151563,230.184,247.261
2016-01-27 14:00,0.148526,286.121,271.848,249.924,272.741,268.173,248.094,0.177271,0.164398,229.601,245.69
2016-01-27 15:00,0.161628,286.717,283.38,256.778,286.033,284.349,259.127,0.216223,0.199071,231.709,250.95
2016-01-27 16:00,0.0238659,287.729,286.328,258.358,289.166,287.188,260.34,0.0619689,0.0401568,232.633,251.85
2016-01-27 17:00,0.0204232,288.012,286.772,258.802,289.434,287.188,260.219,0.0518767,0.0292094,232.784,252.244
2016-01-27 18:00,0.0822192,290.429,285.433,257.685,288.222,285.493,258.76,0.103573,0.0789562,232.557,251.949
2016-01-27 19:00,0.0679604,288.705,286.55,258.246,289.166,287.329,260.701,0.121989,0.0905653,232.481,252.146
2016-01-27 20:00,0.416538,288.152,284.414,256.778,287.407,285.493,260.098,0.443964,0.445256,232.86,251.652
2016-01-27 21:00,0.325518,285.045,285.433,257.233,288.358,286.626,260.098,0.505295,0.547716,231.552,251.352
2016-01-27 22:00,-0.00566951,284.249,284.642,256.549,287.815,286.202,260.581,0.0,0.0,232.784,251.949
2016-01-27 23:00,0.0,284.888,285.321,256.664,288.222,286.626,260.34,0.0,-0.00275007,236.004,254.162
2016-01-28 00:00,0.0,287.444,287.541,258.358,290.101,288.445,261.421,0.0,0.0,241.073,256.45
2016-01-28 01:00,-0.00145925,287.155,287.541,258.58,290.234,288.306,260.942,0.0,0.0,241.76,256.982
2016-01-28 02:00,-0.00126396,285.045,285.658,257.572,288.222,286.767,260.942,0.0,0.0,242.82,258.028
2016-01-28 03:00,-0.00117504,285.202,285.77,257.685,288.493,287.188,261.66,0.0,0.0,242.984,258.543
2016-01-28 04:00,0.0011617,285.97,286.882,258.691,289.835,288.167,260.942,0.0,0.0,243.364,258.628
2016-01-28 05:00,0.0,286.569,287.102,258.58,290.367,288.584,261.779,0.0,0.0,243.418,258.798
2016-01-28 06:00,0.0,286.569,287.322,258.802,290.234,288.584,261.54,0.0,0.0,244.583,259.721
2016-01-28 07:00,0.0,285.202,286.105,258.022,288.897,287.469,260.701,0.0,0.0,244.635,259.887
2016-01-28 08:00,0.00229407,284.888,285.658,257.685,288.222,287.188,261.182,0.0,0.0,244.583,260.135
2016-01-28 10:00,-0.0181724,286.864,287.978,259.464,290.897,289.276,261.779,-0.0769326,-0.110077,244.111,261.355
2016-01-28 11:00,0.250101,288.291,287.102,258.358,289.968,288.861,261.898,0.398607,0.326754,243.526,261.194
2016-01-28 12:00,0.096824,289.247,287.651,259.024,290.367,289.137,262.255,0.194021,0.136849,242.765,261.275
2016-01-28 13:00,0.0373781,288.43,287.76,259.244,290.897,289.413,262.136,0.111699,0.066592,241.476,260.627
2016-01-28 14:00,0.0196085,288.152,287.76,259.134,290.5,288.861,262.255,0.0784844,0.0431911,239.714,260.545
2016-01-28 15:00,0.0772801,288.568,286.439,258.58,289.032,287.609,261.779,0.109055,0.0893967,240.014,260.871
2016-01-28 16:00,0.0110914,288.012,288.195,260.119,291.16,290.101,262.492,0.0469554,0.0255941,239.593,260.545
2016-01-28 17:00,0.0474331,289.247,287.212,259.574,290.367,289.276,262.492,0.0760201,0.0598582,239.227,260.708
2016-01-28 18:00,0.0299131,288.841,288.412,259.902,291.555,290.238,262.965,0.0675397,0.044292,238.546,260.217
2016-01-28 19:00,0.0917395,290.171,288.412,260.337,291.423,290.511,263.553,0.127936,0.0980645,237.592,260.463
2016-01-28 20:00,0.130621,289.779,288.843,260.445,291.686,290.648,263.318,0.200712,0.166058,237.592,260.299
2016-01-28 21:00,0.143601,287.587,288.628,260.553,291.555,290.238,262.847,0.405289,0.434921,235.593,259.554
2016-01-28 22:00,0.0,286.121,286.772,259.464,289.568,288.445,262.255,0.0,0.0,233.308,258.713
2016-01-28 23:00,0.0,287.3,288.412,260.337,291.292,290.238,263.083,0.0,0.0,234.615,259.304
2016-01-29 00:00,-0.00185536,286.717,287.869,260.011,290.897,289.826,263.2,0.0,0.0,236.071,259.721
2016-01-29 01:00,0.00146209,286.121,286.661,259.464,289.701,288.584,262.728,0.0,0.0,236.139,259.22
2016-01-29 02:00,0.0,287.155,287.978,260.337,290.764,289.413,262.965,0.0,0.0,234.897,258.457
2016-01-29 03:00,0.0,278.075,279.213,255.16,282.66,282.613,260.219,0.0,0.00118738,233.896,257.942
2016-01-29 04:00,-0.00116252,283.76,283.841,258.134,286.585,285.493,261.301,0.0,0.0,234.041,257.158
2016-01-29 05:00,0.0,286.864,287.322,260.011,289.835,288.445,262.61,0.0,0.0,233.677,256.982
2016-01-29 06:00,0.0,277.869,280.066,255.858,282.803,282.613,260.822,0.0,0.00138227,235.386,257.07
2016-01-29 07:00,0.0,284.087,284.528,258.691,286.997,285.919,261.54,0.0,0.0,235.799,256.982
2016-01-29 08:00,-0.00229723,284.249,284.982,259.024,288.087,286.626,261.779,0.0,0.0,235.455,256.805
2016-01-29 09:00,0.0,285.357,285.433,259.024,287.951,286.626,261.779,0.0,0.0,236.004,257.508
2016-01-29 10:00,-0.0370375,285.97,286.439,259.464,289.032,287.469,262.017,-0.0940788,-0.093479,236.071,257.508
2016-01-29 11:00,0.626554,282.581,280.187,255.974,283.088,282.758,260.581,0.752573,0.757581,236.609,257.508
2016-01-29 12:00,0.516922,284.57,279.458,255.393,282.087,281.882,259.977,0.676904,0.690415,236.071,256.894
2016-01-29 13:00,0.433511,285.665,279.945,255.51,282.517,281.882,260.098,0.569118,0.587961,236.004,256.894
2016-01-29 14:00,0.411939,283.428,278.226,254.69,280.639,280.554,258.882,0.631426,0.670422,236.139,256.805
2016-01-29 15:00,0.0898054,285.97,278.968,255.393,280.493,278.609,256.035,0.119488,0.101997,231.394,252.342
2016-01-29 16:00,0.0852057,283.093,272.391,251.18,272.582,269.165,248.768,0.121575,0.108322,228.4,246.483
2016-01-29 17:00,0.0826218,285.665,278.35,255.16,279.76,276.631,253.881,0.111358,0.0970298,230.916,252.244
2016-01-29 18:00,0.138819,287.871,283.956,258.469,286.033,284.349,259.492,0.174628,0.16217,231.865,254.256
2016-01-29 19:00,0.158018,290.301,287.102,260.011,290.101,288.306,262.373,0.188218,0.16764,232.328,255.548
2016-01-29 20:00,0.305711,290.939,287.432,260.228,290.367,288.999,262.61,0.311422,0.289343,233.01,255.275
2016-01-29 21:00,0.0856572,286.421,286.992,260.011,289.835,288.167,262.373,0.326366,0.302666,232.251,255.183
2016-01-29 22:00,0.0,285.818,285.546,258.802,287.951,286.343,260.701,0.0,0.0,231.709,254.629
2016-01-29 23:00,-0.00275304,286.569,287.541,260.553,290.5,289.137,262.965,0.0,0.0,231.394,254.907
2016-01-30 00:00,-0.00186101,286.864,287.541,260.769,290.764,289.137,262.965,0.0,-0.0018788,230.996,254.722
2016-01-30 01:00,0.0,286.421,286.992,260.228,289.968,288.445,262.255,0.0,0.0,231.473,254.999
2016-01-30 02:00,0.0,280.427,276.463,254.099,277.678,275.861,253.497,0.0,0.0,227.691,248.348
2016-01-30 03:00,-0.00117728,286.271,286.217,259.793,288.897,287.188,261.66,0.0,0.0,230.674,255.457
2016-01-30 04:00,0.00116339,283.76,282.331,257.233,284.22,282.028,257.406,0.0,0.0,229.601,253.5
2016-01-30 05:00,0.0,285.818,286.439,259.574,289.032,287.748,262.136,0.0,0.0,231.63,255.548
2016-01-30 06:00,0.0,284.888,284.528,258.469,286.172,284.205,259.127,0.0,0.0,229.935,254.256
2016-01-30 07:00,0.0,251.282,233.938,229.484,229.729,226.701,221.046,0.0,0.0,214.441,220.989
2016-01-30 08:00,0.0,245.01,228.769,226.092,225.31,223.043,218.982,0.0,0.0,216.83,222.096
2016-01-30 09:00,0.0040253,235.601,221.841,222.868,220.184,218.547,216.663,0.0,0.0,214.293,217.669
2016-01-30 10:00,-0.018905,284.087,280.789,256.32,282.087,279.511,255.658,-0.0640273,-0.0763429,227.42,252.146
2016-01-30 11:00,0.274084,278.684,269.485,248.9,269.186,265.99,246.182,0.384742,0.371366,223.538,243.577
2016-01-30 12:00,0.162864,284.087,276.336,253.621,276.923,274.147,251.814,0.264978,0.225676,226.499,248.455
2016-01-30 13:00,0.108999,287.155,281.148,256.434,282.374,279.959,255.406,0.195653,0.156258,228.748,251.652
2016-01-30 14:00,0.0813511,286.717,280.308,256.32,281.366,278.458,254.392,0.145247,0.114266,227.78,250.849
2016-01-30 15:00,0.0942394,283.594,273.333,252.045,273.215,269.821,248.634,0.144708,0.125779,226.963,247.151
2016-01-30 16:00,0.138271,279.473,259.871,244.21,257.17,251.75,235.382,0.183593,0.176077,220.57,237.888
2016-01-30 17:00,0.130907,282.923,269.908,249.797,269.021,265.138,244.512,0.173363,0.166045,225.643,244.998
2016-01-30 18:00,0.118328,288.012,281.742,256.664,283.088,280.702,256.16,0.155292,0.137378,228.748,251.452
2016-01-30 19:00,0.178125,291.19,286.55,259.683,289.3,287.609,260.942,0.213847,0.190564,229.935,254.162
2016-01-30 20:00,0.419828,291.315,285.77,259.354,288.358,286.485,260.34,0.395408,0.40003,229.093,252.828
2016-01-30 21:00,0.193771,286.864,286.772,259.793,289.568,287.748,261.301,0.295317,0.352121,228.835,252.047
2016-01-30 22:00,0.0,276.811,269.343,248.642,269.842,267.171,247.551,0.0,0.0,225.835,243.214
2016-01-30 23:00,-0.00276778,281.526,277.35,253.741,278.427,275.706,253.368,0.0,-0.00279424,226.685,246.929
2016-01-31 00:00,-0.00186672,262.074,249.781,237.258,247.878,245.399,233.976,-0.00158055,0.0,223.118,232.988
2016-01-31 01:00,0.0,262.074,252.29,238.963,251.242,248.532,237.07,0.0,0.0,223.434,236.325
2016-01-31 02:00,0.0,252.585,243.049,234.017,242.049,240.576,233.026,0.0,0.0,223.013,232.988
2016-01-31 03:00,-0.00117847,233.989,230.265,227.248,229.729,228.856,225.36,0.0,0.0,220.801,226.76
2016-01-31 04:00,0.0,262.869,253.226,239.267,252.059,249.955,238.428,0.0,0.0,224.661,237.468
2016-01-31 05:00,0.0012222,248.394,237.086,230.387,235.93,233.722,227.089,0.0,0.0,220.337,228.782
2016-01-31 06:00,0.0,264.739,253.411,238.657,252.262,249.753,237.373,0.0,0.0,223.952,236.033
2016-01-31 07:00,-0.00167161,261.666,251.53,237.884,251.242,249.348,237.373,0.0,0.0,223.952,237.043
2016-01-31 08:00,0.0,284.249,281.742,255.51,283.514,280.702,256.285,0.0,0.0,226.122,248.241
2016-01-31 09:00,-0.00404048,276.811,269.201,247.465,269.679,266.835,247.006,0.0,0.0,224.86,242.602
2016-01-31 10:00,-0.0386705,275.48,266.442,245.723,265.654,262.537,244.231,-0.0818555,-0.0780803,224.054,239.789
2016-01-31 11:00,0.19272,283.594,278.968,253.381,280.054,278.156,254.264,0.3747,0.317064,226.405,248.348
2016-01-31 12:00,0.222296,280.982,272.527,249.286,273.372,271.121,250.765,0.325348,0.304571,225.931,245.23
2016-01-31 13:00,0.243076,259.954,241.682,232.834,240.631,238.515,230.931,0.382222,0.405348,223.642,232.829
2016-01-31 14:00,0.0827815,283.924,277.098,252.045,277.978,275.396,252.723,0.144656,0.120914,225.835,246.595
2016-01-31 15:00,0.0254534,288.012,286.772,257.459,289.835,288.027,260.942,0.0713889,0.0449693,227.238,250.544
2016-01-31 16:00,0.0406801,287.587,284.869,255.858,286.997,284.349,258.638,0.0834599,0.0584443,226.592,247.699
2016-01-31 17:00,0.207135,273.586,255.587,239.115,254.657,251.354,237.07,0.272972,0.283317,222.476,233.773
2016-01-31 18:00,0.260842,283.261,275.951,251.552,279.022,277.548,256.16,0.388572,0.409853,228.312,248.882
2016-01-31 19:00,0.53311,283.093,274.916,250.555,277.828,277.243,257.158,0.554174,0.610145,228.4,248.669
2016-01-31 20:00,0.57773,259.045,243.273,233.005,243.209,242.143,235.382,0.698241,0.804324,225.835,234.542
2016-01-31 21:00,1.34493,267.444,255.409,239.871,255.244,251.156,239.173,0.749177,1.28632,227.147,240.316
2016-01-31 22:00,0.0,264.009,255.764,240.617,256.213,251.75,239.025,0.0,0.0,226.685,241.093
2016-01-31 23:00,0.0,284.087,283.148,255.51,285.757,283.629,258.76,-0.00235608,0.0,228.921,249.408
