# timestamp,IR_016,IR_039,IR_087,IR_097,IR_108,IR_120,IR_134,VIS006,VIS008,WV_062,WV_073
2015-08-01 00:00,-0.0720823,283.428,285.882,260.553,287.815,288.445,265.185,-0.0214437,-0.047203,246.406,266.384
2015-08-01 01:00,-0.00153259,282.923,285.095,260.661,287.134,287.609,264.721,-0.0,-0.0,246.554,266.384
2015-08-01 02:00,-0.0013287,282.234,284.642,260.228,286.722,287.609,264.837,-0.0,-0.0,246.159,266.312
2015-08-01 03:00,-0.00123939,281.883,284.414,260.011,286.31,287.048,264.255,-0.0,-0.0,246.258,266.166
2015-08-01 04:00,-0.0,281.346,283.726,259.793,285.757,286.485,263.553,-0.0,-0.0,246.701,266.456
2015-08-01 05:00,-0.0,280.427,283.38,259.024,285.201,285.919,264.138,-0.0,-0.0,246.993,266.384
2015-08-01 06:00,-0.0,280.239,282.682,258.913,284.781,285.493,263.67,-0.0,-0.0,247.855,266.384
2015-08-01 07:00,-0.00184719,280.05,282.331,258.802,284.501,285.208,263.905,-0.0,-0.0,248.231,266.456
2015-08-01 08:00,-0.00265168,279.667,282.096,258.58,284.079,284.922,263.553,-0.0,-0.0,248.231,266.312
2015-08-01 10:00,-37.71,279.278,281.86,258.358,283.797,284.492,263.083,-69.1794,-76.1409,246.798,265.948
2015-08-01 11:00,0.476254,284.57,285.208,260.228,287.407,287.609,264.138,0.244665,0.480807,245.96,265.655
2015-08-01 12:00,0.458083,291.809,290.123,263.307,292.47,291.871,265.647,0.18798,0.411393,246.307,265.875
2015-08-01 14:00,0.324117,300.042,297.107,267.838,299.654,297.818,267.819,0.118019,0.264485,245.96,265.801
2015-08-01 15:00,0.284701,302.085,298.834,268.421,301.352,299.104,267.819,0.0990282,0.223723,246.159,265.728
2015-08-01 16:00,0.253624,302.256,298.929,268.904,301.832,299.616,268.497,0.0866733,0.20052,246.505,266.021
2015-08-01 17:00,0.237993,301.39,298.644,268.615,300.99,298.976,267.251,0.0847723,0.1889,247.041,265.728
2015-08-01 18:00,0.232048,299.765,297.494,267.838,299.776,297.559,267.137,0.0900508,0.191317,247.331,265.875
2015-08-01 19:00,0.23933,297.449,295.837,267.052,298.178,296.519,266.909,0.114536,0.212729,247.379,265.728
2015-08-01 20:00,0.268032,294.38,293.641,265.658,295.93,294.547,266.566,0.184631,0.270595,247.617,265.801
2015-08-01 21:00,0.450975,288.705,289.699,263.411,291.948,291.329,265.416,0.4773,0.569107,247.807,265.948
2015-08-01 22:00,-0.00637188,285.97,287.869,262.049,290.101,289.826,264.837,-0.0,-0.0,248.51,266.166
2015-08-01 23:00,-0.0842986,285.357,286.992,261.519,289.166,288.999,265.069,-0.022151,-0.0498888,248.695,266.384
2015-08-02 00:00,-0.0779555,284.249,286.55,261.305,288.628,288.861,265.301,-0.0231017,-0.049188,248.695,266.673
2015-08-02 02:00,-0.00132844,282.923,285.433,260.769,287.407,287.748,264.953,-0.0,-0.0,249.516,266.888
2015-08-02 03:00,-0.0,282.923,284.982,260.661,287.134,287.469,264.022,-0.0,-0.0,249.786,266.673
2015-08-02 04:00,-0.00123206,283.261,285.208,260.876,287.407,287.609,264.255,-0.0,-0.0,250.008,266.817
2015-08-02 05:00,-0.0,282.923,284.869,260.661,286.86,287.188,263.905,-0.0,-0.0,249.154,266.601
2015-08-02 06:00,-0.0,282.581,284.642,260.011,286.585,286.626,264.605,-0.0,-0.0,248.787,266.673
2015-08-02 07:00,-0.00184855,281.346,283.611,259.574,285.757,286.06,264.022,-0.0,-0.0,248.925,266.888
2015-08-02 08:00,-0.0,281.165,283.148,259.354,285.201,285.919,263.553,-0.0,-0.0,249.062,266.745
2015-08-02 09:00,-0.0,280.799,283.032,259.244,284.921,285.635,264.022,-0.0,-0.0,248.557,266.888
2015-08-02 10:00,5.07312,280.613,283.148,259.244,285.201,285.35,263.905,10.0226,11.0968,248.557,266.745
2015-08-02 11:00,0.488011,286.717,286.661,261.519,288.763,288.722,264.488,0.247021,0.471255,248.417,266.96
2015-08-02 12:00,0.452845,293.816,291.798,264.645,294.021,293.35,266.337,0.182244,0.403555,248.184,266.96
2015-08-02 13:00,0.380049,298.822,295.738,267.348,298.302,296.65,267.251,0.144719,0.32278,247.57,266.888
2015-08-02 14:00,0.321229,301.302,298.262,269.384,300.627,298.591,267.705,0.114743,0.263493,247.665,266.888
2015-08-02 15:00,0.2745,302.256,299.307,269.765,301.952,299.87,268.834,0.0960836,0.222938,247.807,267.174
2015-08-02 16:00,0.249708,302.341,299.307,269.479,301.712,299.488,267.932,0.0837975,0.198295,247.617,266.817
2015-08-02 17:00,0.235526,301.74,299.213,269.67,301.832,299.998,268.609,0.078937,0.188241,247.426,266.601
2015-08-02 18:00,0.227328,300.225,298.167,268.904,300.627,298.848,268.045,0.0831896,0.186713,247.234,266.745
2015-08-02 19:00,0.235696,297.947,296.718,268.13,299.164,297.3,267.365,0.105264,0.209186,247.474,266.529
2015-08-02 20:00,0.257327,294.491,294.044,266.458,296.684,295.339,266.909,0.164365,0.259787,247.57,266.239
2015-08-02 21:00,0.355755,288.43,289.805,263.825,291.948,291.6,265.878,0.440241,0.52492,247.712,266.601
2015-08-02 22:00,-0.0128042,286.121,288.195,262.786,290.234,290.238,265.301,-0.00542064,-0.00646329,247.949,266.888
2015-08-02 23:00,-0.0902274,284.57,286.992,261.944,288.897,289.276,264.953,-0.0246437,-0.0558293,247.996,266.888
2015-08-03 00:00,-0.0721335,283.594,285.994,261.412,288.087,288.445,264.255,-0.0214589,-0.0472366,248.51,267.246
2015-08-03 01:00,-0.0015325,282.753,285.433,261.091,287.543,287.888,265.185,-0.0,-0.0,248.833,267.459
2015-08-03 02:00,-0.0,282.581,284.755,260.661,286.722,287.329,264.605,-0.0,-0.00134087,248.971,267.388
2015-08-03 03:00,-0.00123878,281.883,284.071,260.445,286.033,286.907,264.953,-0.0,-0.0,249.062,267.459
2015-08-03 04:00,-0.0,281.165,283.495,260.337,285.479,286.202,264.138,-0.0,-0.0,249.062,267.388
2015-08-03 05:00,0.00130502,280.613,282.916,260.011,285.061,285.493,263.787,-0.0,-0.0,249.108,267.032
2015-08-03 06:00,-0.0,280.239,282.566,259.464,284.22,285.065,264.022,-0.0,-0.0,248.649,267.032
2015-08-03 07:00,-0.0,279.667,281.978,259.354,283.656,284.349,263.905,-0.0,-0.0,248.417,267.032
2015-08-03 08:00,-0.0,279.081,281.624,258.913,283.372,284.205,263.787,-0.0,-0.00268729,248.09,267.103
2015-08-03 09:00,-0.0,278.684,281.148,258.358,283.23,283.917,262.965,-0.0,-0.0,247.57,266.673
2015-08-03 10:00,2.32357,279.278,281.267,258.469,283.088,284.061,263.318,4.59051,5.08253,247.996,266.817
2015-08-03 12:00,0.478171,292.534,290.545,264.441,292.989,292.545,266.222,0.193018,0.42661,246.993,265.948
2015-08-03 13:00,0.398423,297.649,295.244,267.544,297.931,296.91,267.365,0.147482,0.339573,246.847,266.021
2015-08-03 14:00,0.33167,301.214,298.358,269.575,301.352,299.87,268.722,0.115717,0.270901,246.798,266.166
2015-08-03 15:00,0.288803,302.68,299.872,270.711,302.907,300.885,268.609,0.0944478,0.226772,246.554,266.021
2015-08-03 16:00,0.254912,302.68,300.246,270.992,302.907,301.138,268.609,0.0835072,0.200671,246.406,265.728
2015-08-03 17:00,0.241219,301.913,299.118,270.428,301.832,299.616,268.045,0.0800399,0.18758,245.658,264.615
2015-08-03 18:00,0.232235,300.408,298.262,269.765,300.869,298.591,267.819,0.0828782,0.187951,245.809,264.69
2015-08-03 19:00,0.229513,297.947,296.621,268.324,299.164,297.3,267.705,0.100439,0.205673,245.96,264.839
2015-08-03 20:00,0.246761,294.38,293.843,267.052,296.307,294.944,266.795,0.159548,0.25365,245.658,264.54
2015-08-03 21:00,0.398998,288.705,289.379,264.031,291.948,291.193,265.069,0.450442,0.537083,245.859,264.54
2015-08-03 22:00,-0.00643198,286.121,287.541,263.099,289.835,289.413,265.416,-0.0,-0.0,245.658,264.54
2015-08-03 23:00,-0.0728539,284.57,286.328,262.049,288.628,288.584,264.605,-0.0222067,-0.0529563,246.159,264.615
2015-08-04 00:00,-0.0975085,283.924,285.77,261.838,288.087,288.306,264.837,-0.0247681,-0.0492203,246.652,265.137
2015-08-04 01:00,-0.00153242,283.093,284.869,261.305,286.86,287.329,264.138,-0.0,-0.0,246.554,264.765
2015-08-04 02:00,-0.0,282.059,284.3,261.091,286.585,286.626,264.255,-0.0,-0.0,245.96,264.162
2015-08-04 04:00,-0.0,280.982,283.611,260.876,285.757,286.202,263.787,-0.0,-0.0,245.809,264.54
2015-08-04 05:00,-0.0,281.165,283.032,260.228,285.201,285.493,263.905,-0.0,-0.0,246.059,264.765
2015-08-04 06:00,-0.0014847,280.613,282.448,259.793,284.641,285.208,263.436,-0.0,-0.0,246.009,264.615
2015-08-04 07:00,-0.0,279.859,282.331,259.683,284.361,285.065,263.787,-0.0,-0.0,246.159,264.989
2015-08-04 08:00,-0.00266748,279.859,281.978,259.574,284.079,284.779,263.318,-0.0,-0.0,245.91,264.389
2015-08-04 09:00,-0.0,279.278,281.624,258.913,283.514,284.205,262.492,-0.0,-0.0,245.709,264.086
2015-08-04 10:00,1.73294,279.473,281.505,259.024,283.656,284.061,262.373,2.93456,3.24909,245.304,263.552
2015-08-04 12:00,0.478264,292.653,290.229,264.543,292.47,291.464,264.605,0.191939,0.413062,245.759,264.01
2015-08-04 13:00,0.398656,297.449,294.145,267.642,296.684,294.547,265.762,0.148518,0.325998,245.658,263.782
2015-08-04 14:00,0.322083,300.498,296.913,269.096,299.041,296.78,266.566,0.11808,0.261471,245.759,263.934
2015-08-04 15:00,0.283195,302.764,298.644,269.955,301.231,298.076,267.137,0.0992639,0.221343,245.557,264.086
2015-08-04 16:00,0.249485,302.596,298.834,270.239,301.11,298.463,267.137,0.087056,0.198443,245.507,264.086
2015-08-04 17:00,0.237119,301.999,298.644,270.145,301.11,298.463,267.023,0.0838828,0.185278,245.608,264.238
2015-08-04 18:00,0.231364,300.225,297.879,269.67,300.02,0.0,0.0,0.0890435,0.189177,245.355,264.314
2015-08-04 19:00,0.241357,298.242,296.033,268.324,298.426,296.389,266.909,0.113048,0.209966,245.608,263.858
2015-08-04 20:00,0.267546,294.713,293.539,266.756,295.93,294.149,266.566,0.185,0.270103,246.009,264.238
2015-08-04 21:00,0.517672,289.113,289.379,263.825,291.555,290.784,265.416,0.525975,0.627145,246.456,263.934
2015-08-04 22:00,-0.00646154,285.818,287.541,262.786,289.701,289.276,264.605,-0.0,-0.0,246.456,264.389
2015-08-04 23:00,-0.0933641,284.57,286.439,261.944,288.628,288.722,264.488,-0.0247035,-0.0530194,246.75,264.615
2015-08-05 00:00,-0.095586,283.76,285.546,261.412,287.815,287.888,264.837,-0.0247753,-0.0512039,246.993,264.69
2015-08-05 02:00,-0.0,282.923,284.869,261.091,286.722,287.048,264.138,-0.0,-0.0,247.331,265.286
2015-08-05 03:00,-0.0,282.234,284.185,260.553,286.447,286.485,263.67,-0.0,-0.0,247.712,265.137
2015-08-05 04:00,-0.00123144,282.581,284.3,260.661,286.447,286.626,263.905,-0.0,-0.0,247.996,265.434
2015-08-05 05:00,-0.00130506,282.059,283.956,260.337,286.033,286.485,264.138,-0.0,-0.0,248.324,265.728
2015-08-05 06:00,0.00148524,281.165,283.495,260.119,285.618,285.919,264.488,-0.0,-0.0,248.043,265.581
2015-08-05 07:00,-0.0,280.239,282.799,259.464,284.641,285.35,262.965,-0.0,-0.0,248.184,265.581
2015-08-05 08:00,-0.0,280.239,282.331,259.244,284.361,284.922,263.553,-0.0,-0.0,248.043,265.655
2015-08-05 09:00,-0.0,279.859,281.978,259.244,283.938,284.492,263.67,-0.0,-0.0,247.712,265.728
2015-08-05 10:00,1.08031,279.859,281.742,258.58,283.797,284.349,262.847,2.28674,2.54482,247.949,265.728
2015-08-05 11:00,0.479859,285.202,285.546,260.984,287.407,287.748,264.488,0.244651,0.484446,247.712,265.728
2015-08-05 12:00,0.467287,292.771,290.965,263.928,293.248,292.679,265.762,0.188516,0.416254,247.379,265.434
2015-08-05 14:00,0.32247,301.125,298.071,268.518,300.869,298.848,267.705,0.117615,0.265451,246.258,264.615
2015-08-05 15:00,0.286713,303.181,299.59,269.479,302.55,300.379,267.932,0.0976176,0.222068,245.759,264.238
2015-08-05 16:00,0.256139,303.098,299.966,269.575,302.788,300.759,268.045,0.0867492,0.199265,245.202,264.314
2015-08-05 17:00,0.241134,302.256,299.307,269.192,302.191,299.998,268.271,0.0822152,0.187889,244.894,263.934
2015-08-05 18:00,0.236212,300.317,298.358,268.711,300.869,298.848,267.478,0.0903227,0.194238,244.479,263.244
2015-08-05 21:00,0.479043,288.705,289.058,263.411,291.686,290.784,264.488,0.469648,0.585438,243.202,262.23
2015-08-05 22:00,-0.0,285.357,286.882,261.944,289.434,288.999,265.069,-0.0,-0.0,242.6,262.072
2015-08-05 23:00,-0.0905503,284.087,285.882,261.305,288.222,287.748,264.605,-0.0247319,-0.0530802,242.211,261.435
2015-08-06 00:00,-0.0878062,283.261,285.095,260.337,287.543,287.329,263.787,-0.0247818,-0.0531874,242.489,262.072
2015-08-06 01:00,-0.00153219,282.581,284.755,260.445,286.86,287.188,263.905,-0.0,-0.00154684,241.246,261.435
2015-08-06 02:00,-0.00132734,281.883,284.3,260.119,286.31,286.626,263.905,-0.0,-0.0,240.724,261.033
2015-08-06 03:00,-0.0,281.883,283.611,259.793,285.895,286.626,264.255,-0.0,-0.0,240.253,260.952
2015-08-06 04:00,-0.0,281.165,283.264,259.683,285.34,285.919,263.905,-0.0,-0.0,240.782,261.355
2015-08-06 05:00,-0.0,280.427,282.799,259.464,284.781,285.35,263.318,-0.0,-0.0,241.533,261.755
2015-08-06 06:00,-0.0,280.05,282.096,258.802,284.079,284.636,262.61,-0.0,-0.0,241.76,261.755
2015-08-06 07:00,-0.0,279.278,281.505,258.469,283.372,284.061,262.965,-0.0,-0.0,241.647,261.914
2015-08-06 08:00,-0.0026799,279.081,281.148,258.58,283.088,0.0,0.0,-0.0,-0.0,241.533,261.834
2015-08-06 09:00,-0.00535068,278.684,280.909,258.022,282.66,283.339,262.965,-0.0,-0.0,241.246,261.755
2015-08-06 10:00,1.12268,278.684,280.909,258.022,282.946,283.629,262.847,1.78232,2.12514,241.304,261.675
2015-08-06 11:00,0.505916,285.202,285.321,260.661,287.679,287.609,263.787,0.250958,0.495275,241.246,261.834
2015-08-06 12:00,0.489159,293.356,291.174,264.441,293.764,293.082,265.532,0.196673,0.424864,241.874,262.309
2015-08-06 14:00,0.331066,301.653,299.024,269.384,302.191,300.632,268.158,0.117146,0.266054,241.817,263.09
2015-08-06 15:00,0.282634,303.015,300.06,270.05,303.263,301.264,268.722,0.0959782,0.224301,241.476,262.701
2015-08-06 16:00,0.25523,303.015,300.526,270.239,303.854,302.144,268.946,0.08517,0.201589,242.211,263.322
2015-08-06 17:00,0.232213,302.171,300.246,270.239,303.381,301.893,269.171,0.0805573,0.188849,242.875,263.858
2015-08-06 18:00,0.229633,300.769,299.213,269.67,302.311,300.506,269.171,0.0835568,0.189678,242.655,263.629
2015-08-06 19:00,0.231649,298.339,297.494,268.711,300.627,299.488,268.722,0.101302,0.208164,242.042,263.476
2015-08-06 20:00,0.246713,294.823,294.945,267.151,297.931,297.04,267.819,0.160399,0.253519,242.82,263.552
2015-08-06 21:00,0.368756,288.43,289.699,263.825,292.34,292.006,265.993,0.437115,0.496375,243.147,263.399
2015-08-06 22:00,-0.0,285.665,287.322,262.471,289.835,289.964,265.185,-0.0,-0.0,243.418,263.706
2015-08-06 23:00,-0.0731051,284.41,286.105,261.838,288.358,288.722,264.837,-0.0222833,-0.0531389,243.633,263.244
2015-08-07 00:00,-0.0995376,283.428,285.321,261.091,287.543,287.888,264.488,-0.0264403,-0.0532001,244.269,263.858
2015-08-07 01:00,-0.00153205,282.581,284.642,260.661,286.722,287.469,264.488,-0.0,-0.0,244.531,264.238
2015-08-07 02:00,-0.0,282.408,284.528,260.553,286.585,287.188,264.488,-0.0,-0.0,244.531,263.858
2015-08-07 03:00,-0.0,281.883,283.726,260.661,285.895,286.626,264.372,-0.0,-0.0,244.374,263.782
2015-08-07 04:00,-0.0,281.346,283.495,260.119,285.618,286.343,263.787,-0.0,0.00124291,244.269,263.782
2015-08-07 05:00,-0.0,280.427,283.264,259.793,285.201,285.919,263.905,-0.0,-0.0,243.953,263.782
2015-08-07 06:00,0.00148655,280.613,282.916,259.683,284.641,285.493,263.787,-0.0,-0.0,242.655,263.09
2015-08-07 07:00,0.00185755,280.05,282.448,259.574,284.361,285.065,263.787,-0.0,-0.0,242.433,263.012
2015-08-07 08:00,-0.0,279.859,282.096,259.134,284.079,284.492,263.436,-0.0,-0.0,242.155,262.623
2015-08-07 09:00,-0.0,279.667,281.624,259.024,283.938,284.636,262.728,-0.0,-0.0,242.378,262.779
2015-08-07 10:00,0.913798,279.473,281.742,258.802,283.797,284.205,263.2,1.54742,1.72975,242.378,262.545
2015-08-07 11:00,0.506025,285.97,285.77,261.412,287.951,288.027,263.905,0.248501,0.475102,242.322,263.012
2015-08-07 12:00,0.475389,293.007,290.86,264.645,293.377,292.948,265.416,0.193205,0.405886,242.155,262.857
2015-08-07 13:00,0.397139,298.339,295.343,267.249,298.055,296.389,266.909,0.149818,0.323527,241.93,262.935
2015-08-07 14:00,0.328087,301.826,298.453,269.575,301.592,299.36,267.592,0.11945,0.260011,242.099,263.09
2015-08-07 15:00,0.283088,303.674,300.526,270.428,303.499,301.39,268.384,0.100721,0.220426,242.322,263.399
2015-08-07 16:00,0.251326,303.674,300.898,270.992,303.854,301.516,268.834,0.087399,0.196338,242.655,263.552
2015-08-07 17:00,0.232991,302.932,300.34,270.617,303.263,301.012,268.384,0.0829909,0.18493,242.82,263.399
2015-08-07 18:00,0.230665,301.39,299.118,269.955,302.311,300.379,268.158,0.0928491,0.190877,242.82,263.629
2015-08-07 19:00,0.235731,299.013,297.975,269.192,300.99,299.104,268.045,0.113747,0.209836,242.875,263.476
2015-08-07 20:00,0.245256,295.583,295.244,267.74,298.178,296.78,267.365,0.170576,0.256444,243.147,263.782
2015-08-07 21:00,0.383891,289.779,290.335,264.747,293.119,292.545,265.878,0.467244,0.532896,243.202,263.399
2015-08-07 22:00,-0.00654792,286.569,288.195,263.099,290.632,290.375,265.185,-0.0,-0.0,243.093,263.476
2015-08-07 23:00,-0.084892,285.357,287.102,262.366,289.434,289.137,264.605,-0.0247855,-0.0561506,243.472,263.09
2015-08-08 00:00,-0.103463,284.57,286.217,261.944,288.897,288.584,264.837,-0.0280988,-0.0532116,243.472,263.399
2015-08-08 01:00,-0.0015319,283.924,285.658,261.838,288.087,288.584,264.488,-0.0,-0.0,244.058,263.858
2015-08-08 02:00,-0.0,282.923,285.433,261.412,287.679,288.027,264.488,-0.0,-0.0,243.899,264.086
2015-08-08 03:00,0.00123744,282.753,285.208,261.091,287.27,287.748,264.837,-0.0,-0.0,243.633,264.314
2015-08-08 04:00,0.00123103,282.059,284.414,260.661,286.585,287.188,264.255,-0.0,-0.0,243.74,264.615
2015-08-08 05:00,0.00130545,281.705,284.071,260.011,286.172,286.626,264.372,-0.0,-0.0,243.526,264.464
2015-08-08 06:00,0.00148732,281.165,283.611,260.011,285.479,286.06,264.138,-0.0,-0.0,243.633,264.238
2015-08-08 07:00,-0.0,280.613,283.264,259.574,285.201,285.777,263.67,-0.0,-0.0,244.006,264.389
2015-08-08 08:00,-0.0,280.799,282.448,259.354,284.641,285.208,263.436,-0.0,-0.0,244.269,264.54
2015-08-08 09:00,-0.0,280.05,282.096,259.244,284.079,284.636,263.2,-0.0,-0.00547914,244.217,264.314
2015-08-08 10:00,0.766267,280.05,281.978,259.024,283.938,284.636,263.553,1.29759,1.54718,244.111,264.162
2015-08-08 11:00,0.521019,285.97,286.105,261.412,288.222,288.306,264.255,0.250266,0.495654,244.006,264.464
2015-08-08 12:00,0.494116,294.268,292.314,265.254,294.661,294.016,267.023,0.19661,0.42524,243.953,264.839
2015-08-08 13:00,0.407004,299.858,296.815,268.324,299.898,298.463,268.384,0.150767,0.331876,243.953,264.765
2015-08-08 14:00,0.334914,303.098,300.619,270.239,303.381,301.767,269.618,0.121728,0.267194,243.793,264.615
2015-08-08 15:00,0.297026,304.794,301.452,271.086,304.793,302.769,269.618,0.100343,0.225656,243.472,263.858
2015-08-08 16:00,0.26682,304.715,301.175,270.899,304.676,302.269,268.609,0.088347,0.201652,243.31,263.629
2015-08-08 17:00,0.243366,303.346,300.805,270.523,303.736,301.264,268.384,0.0854053,0.189118,243.147,263.167
2015-08-08 18:00,0.239221,301.826,299.496,269.86,302.55,300.379,268.609,0.0909073,0.192065,243.472,263.322
2015-08-08 19:00,0.244829,299.108,297.59,268.615,300.627,298.591,268.158,0.115402,0.211495,243.633,262.701
2015-08-08 20:00,0.25689,295.476,294.846,266.756,297.434,295.996,266.795,0.188015,0.268137,243.793,262.23
2015-08-08 21:00,0.445323,289.779,290.229,264.031,292.86,291.871,265.647,0.496124,0.544229,244.006,262.388
2015-08-08 22:00,-0.0,286.569,287.978,262.471,290.367,290.101,264.953,-0.0,-0.0,244.426,262.388
2015-08-08 23:00,-0.0879087,285.045,287.102,261.731,289.3,289.413,264.605,-0.0272918,-0.0591661,244.531,262.545
2015-08-09 00:00,-0.0859107,284.57,286.328,261.412,288.493,288.445,264.837,-0.0231447,-0.0492795,244.997,262.779
2015-08-09 01:00,-0.00153173,283.76,285.77,261.412,288.087,288.167,264.488,-0.0,-0.0,244.842,262.935
2015-08-09 02:00,-0.0,283.261,285.433,261.091,287.543,287.888,264.721,-0.0,-0.0,245.099,263.167
2015-08-09 04:00,-0.0,282.059,284.642,260.337,286.86,287.048,264.488,-0.0,-0.0,244.997,263.858
2015-08-09 05:00,0.00130567,282.059,284.071,260.228,286.31,286.767,264.488,-0.0,-0.0,245.202,263.782
2015-08-09 06:00,-0.0,281.346,283.726,259.902,285.895,286.485,264.138,-0.0,-0.0,245.557,263.934
2015-08-09 07:00,-0.00186223,280.799,283.495,259.793,285.479,286.06,264.255,-0.0,-0.0,245.809,264.01
2015-08-09 08:00,-0.0,281.165,283.611,260.011,285.618,286.202,264.022,-0.0,-0.0,246.009,264.389
2015-08-09 09:00,-0.0,280.982,283.495,259.683,285.34,286.06,263.787,-0.0,-0.0,246.357,264.314
2015-08-09 10:00,0.820874,280.799,283.38,259.574,285.201,285.919,263.436,1.18156,1.32595,246.009,264.086
2015-08-09 11:00,0.530611,287.871,287.212,262.049,289.701,289.689,265.185,0.251926,0.480613,246.009,264.01
2015-08-09 12:00,0.488395,294.602,292.827,265.052,295.297,294.149,266.452,0.199945,0.41179,245.91,264.086
2015-08-09 13:00,0.397264,299.391,296.523,267.446,299.409,297.818,267.819,0.153342,0.322422,246.456,264.238
2015-08-09 14:00,0.323766,302.085,298.739,269.0,301.712,299.87,268.158,0.117092,0.257875,246.505,264.54
2015-08-09 15:00,0.277968,303.428,299.966,269.67,302.907,300.506,268.271,0.0999626,0.220276,247.041,264.314
2015-08-09 16:00,0.256945,303.755,300.153,269.86,303.144,300.506,268.271,0.0880279,0.194926,247.234,264.464
2015-08-09 17:00,0.239303,303.015,299.778,269.575,302.669,300.125,268.497,0.0864502,0.18683,247.138,264.54
2015-08-09 18:00,0.230823,301.302,298.929,269.0,301.592,299.488,267.819,0.0905684,0.18756,247.331,264.615
2015-08-09 19:00,0.233745,299.013,297.3,268.324,300.02,298.334,267.932,0.112788,0.205531,247.331,264.615
2015-08-09 20:00,0.259743,295.796,294.846,266.954,297.434,295.996,266.452,0.179604,0.262226,247.138,264.54
2015-08-09 21:00,0.458314,290.171,290.44,264.031,292.989,292.006,265.878,0.465665,0.5321,247.474,264.389
2015-08-09 22:00,-0.0132067,286.717,287.978,262.471,290.5,289.826,265.185,-0.00559106,-0.0,247.57,264.01
2015-08-09 23:00,-0.0821282,285.97,287.76,262.155,289.835,289.551,265.069,-0.0248349,-0.0562626,247.57,264.54
2015-08-10 00:00,-0.103501,285.357,286.992,261.944,289.434,289.137,264.721,-0.0264556,-0.0512595,247.474,264.615
2015-08-10 01:00,-0.00153154,284.57,286.55,261.519,288.897,288.722,264.721,-0.0,-0.0,247.665,264.989
2015-08-10 02:00,0.00132623,283.924,286.217,261.625,288.222,288.306,264.605,-0.0,-0.0,247.665,264.914
2015-08-10 03:00,-0.00123699,283.924,285.882,261.198,287.951,288.027,264.605,-0.0,-0.0,247.617,264.914
2015-08-10 04:00,-0.0,282.923,285.321,261.198,287.407,287.888,264.605,-0.0,-0.0,247.474,264.839
2015-08-10 05:00,-0.0,282.923,285.321,260.984,287.27,287.469,264.488,-0.0,-0.0,247.379,265.063
2015-08-10 06:00,-0.0,282.923,284.642,260.661,286.997,287.048,264.138,-0.0,-0.0,247.138,264.839
2015-08-10 07:00,-0.00186482,281.526,283.841,260.228,286.033,286.343,264.022,-0.0,-0.0,247.57,265.137
2015-08-10 08:00,0.00270952,281.165,283.726,260.119,285.757,286.06,264.022,-0.0,-0.0,247.57,265.286
2015-08-10 09:00,-0.0,281.346,283.38,259.793,285.618,285.919,263.67,-0.0,-0.0,247.331,265.36
2015-08-10 10:00,0.786839,281.165,283.38,259.683,285.34,286.06,264.372,1.09017,1.22765,246.009,264.914
2015-08-10 11:00,0.534958,288.152,287.651,262.471,289.968,289.826,265.416,0.25764,0.495479,244.687,264.69
2015-08-10 12:00,0.501346,295.476,293.133,265.658,295.677,294.812,266.795,0.203213,0.419987,243.31,263.782
2015-08-10 13:00,0.405025,299.858,296.815,268.324,299.531,297.818,267.592,0.154238,0.328682,240.899,262.623
2015-08-10 14:00,0.327273,302.085,298.644,269.479,301.832,299.998,268.045,0.119346,0.26334,240.489,262.388
2015-08-10 15:00,0.279885,303.181,299.872,270.334,302.788,300.506,268.271,0.0970602,0.219435,239.714,261.993
2015-08-10 16:00,0.251573,303.015,299.402,269.955,302.191,299.616,267.365,0.0889616,0.200194,238.546,261.515
2015-08-10 17:00,0.246394,302.256,297.879,269.192,299.531,295.996,264.837,0.0942159,0.19579,238.104,260.052
2015-08-10 18:00,0.25427,299.297,293.438,266.557,294.916,291.464,261.301,0.118726,0.217063,236.675,258.114
2015-08-10 19:00,0.245284,298.533,295.935,267.642,298.426,296.127,266.337,0.120795,0.217307,238.857,261.113
2015-08-10 20:00,0.288403,295.902,294.044,266.756,296.559,295.208,265.762,0.189521,0.273777,238.608,261.194
2015-08-10 21:00,0.560593,291.065,290.651,264.339,292.86,291.871,265.185,0.474653,0.58859,238.104,261.113
2015-08-10 22:00,-0.00663038,288.012,288.951,263.411,291.686,291.464,265.532,-0.0,-0.0,239.471,261.755
2015-08-10 23:00,-0.0851407,286.421,288.412,263.099,291.029,290.921,265.878,-0.0248581,-0.0563151,238.795,261.993
2015-08-11 00:00,-0.095704,285.665,287.651,262.261,290.101,290.238,265.416,-0.0264596,-0.0552108,238.857,261.914
2015-08-11 01:00,-0.00153135,285.512,287.541,262.471,289.835,290.101,265.301,-0.0,-0.0,238.294,261.755
2015-08-11 02:00,-0.00132596,284.57,286.992,262.049,289.3,289.413,264.721,-0.0,-0.00133864,238.671,261.914
2015-08-11 03:00,-0.0,283.924,286.105,261.731,288.628,288.722,264.372,-0.0,-0.0,238.671,262.151
2015-08-11 04:00,-0.0,283.428,285.433,260.876,287.815,288.027,264.721,-0.0,-0.0,237.463,261.834
2015-08-11 05:00,-0.00130627,282.753,285.208,260.769,287.407,287.609,264.605,-0.0,-0.0,237.137,261.595
2015-08-11 06:00,-0.0,282.408,284.3,260.661,286.722,286.907,263.787,-0.0,-0.0,236.341,261.355
2015-08-11 07:00,-0.0,282.059,284.414,260.119,286.585,287.048,264.138,-0.0,-0.0,237.072,261.914
2015-08-11 08:00,0.00271797,281.526,284.071,260.119,286.447,286.907,264.138,-0.0,-0.0,237.977,262.545
2015-08-11 09:00,-0.00555898,281.883,284.3,259.902,286.585,287.048,264.605,-0.0,-0.0,237.528,262.23
2015-08-11 10:00,0.821052,281.705,283.956,259.683,286.172,286.626,263.905,0.962561,1.14771,237.913,262.779
2015-08-11 11:00,0.543931,287.871,287.978,262.155,289.835,289.551,265.069,0.263169,0.495198,237.528,262.701
2015-08-11 12:00,0.506118,295.368,292.622,265.355,294.916,293.75,265.993,0.206412,0.422676,238.231,262.779
2015-08-11 13:00,0.410747,299.108,296.033,267.348,298.549,296.91,267.251,0.158378,0.332907,237.657,262.701
2015-08-11 14:00,0.335571,301.125,297.879,268.807,300.627,298.72,268.045,0.124306,0.263857,237.913,263.09
2015-08-11 15:00,0.295123,302.848,299.307,269.765,301.952,299.87,268.045,0.104222,0.226079,237.657,262.779
2015-08-11 16:00,0.262453,302.932,299.872,270.145,302.55,300.379,268.609,0.0911345,0.200954,238.104,263.012
2015-08-11 17:00,0.24551,302.085,299.402,269.575,301.952,299.743,268.158,0.0871725,0.188691,237.137,262.701
2015-08-11 18:00,0.242152,300.858,298.549,269.0,301.231,299.36,267.819,0.0883206,0.191813,237.977,263.012
2015-08-11 19:00,0.244269,298.63,297.3,268.324,299.898,298.591,268.045,0.109743,0.208859,238.608,263.782
2015-08-11 20:00,0.278233,295.476,294.746,266.954,297.309,295.996,267.251,0.166718,0.263607,239.532,264.389
2015-08-11 21:00,0.417238,290.429,291.383,264.339,293.892,293.082,266.566,0.427648,0.487736,239.471,264.54
2015-08-11 22:00,-0.0,286.717,288.843,262.995,291.16,290.921,265.878,-0.0,-0.0,239.653,264.69
2015-08-11 23:00,-0.105786,286.121,288.087,262.366,290.367,290.238,265.532,-0.0273683,-0.0622986,240.014,264.914
2015-08-12 00:00,-0.0781358,285.665,287.869,262.155,290.101,290.101,265.301,-0.0248091,-0.0493017,240.607,265.728
2015-08-12 01:00,-0.00153114,285.202,287.322,261.838,289.3,289.826,265.185,-0.0,-0.0,240.43,265.875
2015-08-12 02:00,-0.0013257,284.57,286.882,261.625,288.897,289.413,265.878,-0.0,-0.0,240.014,266.021
2015-08-12 03:00,-0.0,283.428,285.882,260.769,287.679,288.306,264.372,-0.0,-0.0,240.724,265.36
2015-08-12 04:00,-0.0,282.581,284.755,260.769,286.86,287.048,264.255,-0.0,-0.0,241.131,265.212
2015-08-12 05:00,-0.0,281.883,283.956,260.445,285.895,286.626,264.372,-0.0,-0.0,240.957,264.839
2015-08-12 06:00,-0.0,281.346,283.495,259.902,285.479,286.202,264.255,-0.0,-0.0,241.76,265.36
2015-08-12 07:00,-0.0,281.526,283.726,259.683,285.479,286.202,264.372,-0.0,-0.0,241.76,265.286
2015-08-12 08:00,0.00272686,280.982,283.841,260.337,285.479,286.343,264.138,-0.0,-0.0,241.986,265.212
2015-08-12 09:00,-0.00560775,281.526,283.841,260.337,285.479,286.06,264.022,-0.0,-0.0,242.544,265.36
2015-08-12 10:00,0.676373,281.346,283.956,260.228,285.479,286.202,264.138,0.906749,1.02426,242.875,265.507
2015-08-12 11:00,0.542967,288.568,287.869,262.471,289.968,289.964,265.301,0.252241,0.499648,243.093,265.728
2015-08-12 12:00,0.500234,295.368,293.031,265.959,295.424,294.547,266.795,0.202857,0.427934,242.984,265.875
2015-08-12 13:00,0.414461,299.203,296.621,267.935,299.287,298.463,268.497,0.155966,0.337063,240.489,265.875
2015-08-12 14:00,0.337354,301.74,299.213,269.765,301.952,300.632,269.059,0.122416,0.272463,242.155,266.094
2015-08-12 15:00,0.296938,303.264,300.619,270.617,303.499,301.642,269.395,0.101317,0.229679,243.953,266.745
2015-08-12 16:00,0.264433,303.674,301.175,271.086,304.324,302.769,270.064,0.0870702,0.203187,245.304,267.103
2015-08-12 17:00,0.243052,303.015,300.99,271.086,304.089,302.519,269.283,0.0841875,0.191201,245.608,267.246
2015-08-12 18:00,0.243115,301.565,300.06,270.334,303.144,301.767,269.395,0.0879949,0.192979,245.759,267.032
2015-08-12 19:00,0.250715,298.726,298.262,269.384,300.99,299.998,268.722,0.109292,0.218027,245.859,267.032
2015-08-12 20:00,0.280962,295.583,295.541,267.544,298.055,297.43,267.932,0.173011,0.270754,245.658,266.745
2015-08-12 21:00,0.516531,289.514,290.44,264.645,292.73,292.679,266.681,0.437346,0.564925,245.557,266.384
2015-08-12 22:00,-0.0,285.818,287.76,262.89,289.968,290.238,266.108,-0.0,-0.0,244.739,266.166
2015-08-12 23:00,-0.0794072,284.888,286.992,262.366,289.032,289.413,265.647,-0.0249015,-0.0564133,244.269,266.312
2015-08-13 00:00,-0.107449,284.57,286.217,261.944,288.628,288.999,265.069,-0.0264659,-0.055224,243.793,266.094
2015-08-13 01:00,-0.00153093,283.261,285.882,261.731,287.951,288.306,265.185,-0.0,-0.0,244.269,266.456
2015-08-13 02:00,-0.0,282.581,285.095,261.091,287.134,287.469,265.416,-0.0,-0.0,243.793,266.312
2015-08-13 03:00,-0.0,282.059,284.414,260.769,286.447,287.048,264.837,-0.0,-0.0,243.039,266.166
2015-08-13 04:00,-0.0,281.165,283.956,260.445,285.618,286.202,263.553,-0.0,-0.0,242.099,265.36
2015-08-13 05:00,-0.0,280.427,282.682,259.793,284.641,285.493,263.905,-0.0,-0.0,242.042,265.36
2015-08-13 06:00,-0.0,280.239,282.566,259.464,284.361,285.208,264.138,-0.0,-0.0,241.304,265.212
2015-08-13 07:00,-0.0,281.165,283.032,259.683,285.061,286.06,263.787,-0.0,-0.0,240.899,265.063
2015-08-13 08:00,0.00273619,280.799,282.799,259.574,284.781,285.635,263.67,-0.0,0.00276235,240.074,264.69
2015-08-13 09:00,-0.0,281.165,282.916,259.574,284.921,285.493,263.67,-0.0,-0.0,237.657,263.934
2015-08-13 10:00,0.659749,281.705,283.264,259.683,285.34,285.919,264.255,0.816428,0.973466,237.268,263.934
2015-08-13 11:00,0.537136,288.152,287.432,261.944,289.835,289.689,265.416,0.257582,0.513478,236.675,263.552
2015-08-13 12:00,0.494362,295.151,293.133,265.456,295.55,294.944,266.452,0.201537,0.430431,236.542,263.552
2015-08-13 13:00,0.397104,299.108,296.425,267.838,299.287,298.334,268.384,0.153565,0.333441,236.274,263.322
2015-08-13 14:00,0.334306,301.826,298.929,269.288,302.072,300.125,269.395,0.12189,0.269678,236.609,263.552
2015-08-13 15:00,0.289898,303.015,300.34,270.239,303.381,302.144,269.73,0.100924,0.230273,237.006,264.389
2015-08-13 16:00,0.262001,303.346,301.083,270.523,303.972,302.644,269.841,0.0879908,0.203921,238.104,264.989
2015-08-13 17:00,0.242181,302.848,300.898,270.428,304.207,302.769,270.175,0.083886,0.192105,238.857,265.286
2015-08-13 18:00,0.238525,301.214,299.872,269.765,303.025,301.893,269.618,0.087672,0.192271,240.074,265.36
2015-08-13 19:00,0.244752,298.726,297.975,268.324,300.99,299.998,269.171,0.108848,0.212149,241.533,266.166
2015-08-13 20:00,0.262507,295.042,295.442,266.954,298.302,297.689,268.609,0.161321,0.260742,242.765,266.817
2015-08-13 21:00,0.337739,288.977,290.545,263.928,292.86,292.948,267.365,0.411072,0.468831,243.526,267.317
2015-08-13 22:00,-0.0067084,285.512,287.978,262.576,289.968,290.375,265.762,-0.0,-0.0,243.793,267.246
2015-08-13 23:00,-0.123623,284.57,286.882,261.519,288.763,289.137,265.647,-0.0323982,-0.0653737,244.217,267.459
2015-08-14 00:00,-0.0742441,283.428,285.882,260.984,287.815,288.167,265.301,-0.0215056,-0.0512842,244.374,267.53
2015-08-14 01:00,-0.00306142,282.923,285.208,260.661,286.997,287.609,265.185,-0.0,-0.0,244.79,267.174
2015-08-14 02:00,-0.0,282.234,284.642,260.661,286.447,287.188,264.605,-0.0,-0.0,244.945,266.745
2015-08-14 03:00,-0.00123632,281.705,284.071,260.337,286.033,286.626,264.837,-0.0,-0.0,244.322,266.166
2015-08-14 04:00,0.00123104,281.346,283.495,259.902,285.34,285.919,264.255,-0.0,-0.0,243.686,265.948
2015-08-14 05:00,-0.00130757,280.613,283.264,259.683,284.781,285.493,264.138,-0.0,-0.0,243.039,265.36
2015-08-14 06:00,0.00149379,279.667,282.214,259.244,283.938,284.636,264.022,-0.0,-0.0,242.322,264.839
2015-08-14 07:00,-0.0,279.473,281.505,258.802,283.372,283.917,263.67,-0.0,-0.0,242.6,264.839
2015-08-14 08:00,-0.0,279.278,281.505,258.691,283.372,284.061,263.083,-0.0,-0.0,242.544,264.839
2015-08-14 09:00,-0.0,279.081,281.505,258.691,283.23,283.917,263.318,-0.0,-0.0,241.986,264.69
2015-08-14 10:00,0.644536,279.667,281.86,259.134,283.656,284.492,263.436,0.779611,0.976046,241.246,264.389
2015-08-14 12:00,0.504099,294.823,292.314,265.557,294.661,294.016,266.222,0.20681,0.435466,239.653,264.162
2015-08-14 13:00,0.408384,298.63,296.033,267.642,298.549,297.43,267.932,0.15761,0.337501,239.593,264.615
2015-08-14 14:00,0.336045,301.125,298.453,269.384,301.11,299.616,268.834,0.12406,0.271727,238.919,264.69
2015-08-14 15:00,0.297562,303.015,300.06,269.955,302.907,301.264,268.722,0.103012,0.229374,240.312,265.063
2015-08-14 16:00,0.268332,303.51,300.433,270.05,303.144,301.39,268.609,0.0913726,0.204645,240.253,264.389
2015-08-14 17:00,0.250718,302.341,299.684,269.765,302.311,300.252,267.819,0.0862397,0.193,240.312,264.086
2015-08-14 18:00,0.243181,300.858,298.549,269.0,301.352,299.232,268.045,0.0904718,0.193429,240.841,263.858
2015-08-14 19:00,0.251154,298.726,296.815,267.935,299.409,297.689,267.478,0.110496,0.211296,241.189,264.01
2015-08-14 20:00,0.273746,295.151,294.245,266.358,296.809,295.602,266.909,0.164029,0.263607,240.957,263.706
2015-08-14 21:00,0.414358,288.977,289.805,263.721,292.34,291.871,265.993,0.421003,0.522899,242.155,264.54
2015-08-14 22:00,-0.00673335,285.818,287.541,261.944,289.835,289.689,265.301,-0.0,-0.0,242.155,264.54
2015-08-14 23:00,-0.08837,284.57,286.217,261.305,288.358,288.445,264.837,-0.027435,-0.0624504,242.6,264.54
2015-08-15 00:00,-0.0879274,283.428,285.321,260.984,287.407,287.748,264.488,-0.024816,-0.0512881,242.655,264.54
2015-08-15 01:00,-0.00153049,282.408,284.642,260.445,286.585,286.907,264.255,-0.0,-0.0,243.256,264.54
2015-08-15 02:00,-0.0,282.408,284.185,260.011,286.033,286.626,264.372,-0.0,-0.0,243.686,264.69
2015-08-15 03:00,-0.0,281.526,283.726,260.119,285.895,286.06,264.022,-0.0,-0.0,244.006,265.655
2015-08-15 04:00,-0.0,280.427,283.264,259.354,284.921,285.35,263.905,-0.0,-0.0,243.953,265.212
2015-08-15 05:00,-0.0,280.613,282.799,259.244,284.781,285.635,264.138,-0.0,-0.0,244.164,266.817
2015-08-15 06:00,-0.0,280.239,282.682,259.024,284.641,285.208,264.022,-0.0,-0.0,244.217,266.673
2015-08-15 07:00,-0.0,279.667,282.214,258.691,283.938,284.779,264.022,-0.0,-0.0,243.202,266.673
2015-08-15 08:00,0.00275623,279.278,281.978,258.469,283.656,284.492,263.67,-0.0,-0.0,242.984,267.174
2015-08-15 09:00,-0.00577012,278.883,281.386,258.134,283.23,284.061,263.318,-0.0,-0.0,242.099,266.239
2015-08-15 10:00,0.630496,279.473,281.386,258.134,283.372,284.061,262.965,0.676197,0.891133,241.304,265.36
2015-08-15 11:00,0.544069,286.421,285.77,261.091,288.087,288.167,264.488,0.259861,0.511713,241.246,264.464
2015-08-15 12:00,0.508486,293.93,291.798,264.133,294.149,293.216,266.337,0.207618,0.435172,241.304,264.314
2015-08-15 13:00,0.408181,298.63,295.738,266.458,298.426,297.04,267.137,0.153603,0.331956,241.986,264.01
2015-08-15 14:00,0.326653,301.999,298.834,268.518,301.592,299.743,267.705,0.119492,0.265741,241.817,264.238
2015-08-15 15:00,0.292016,303.346,300.246,269.575,303.263,301.39,268.722,0.100136,0.225528,240.841,263.858
2015-08-15 16:00,0.262989,303.51,300.433,269.575,303.618,301.642,269.059,0.089807,0.202428,239.834,262.857
2015-08-15 17:00,0.248262,302.68,300.34,269.575,303.618,301.893,269.059,0.0859321,0.190735,238.608,262.545
2015-08-15 18:00,0.242299,300.858,299.024,268.807,302.311,300.379,268.384,0.0901436,0.192727,237.463,260.871
2015-08-15 19:00,0.24525,298.63,297.107,267.348,300.263,298.848,267.592,0.107979,0.207979,238.294,261.194
2015-08-15 20:00,0.263936,294.823,294.546,265.658,297.434,296.389,266.909,0.170266,0.258,239.227,261.194
2015-08-15 21:00,0.183133,288.291,289.165,262.576,291.948,291.329,265.532,0.361804,0.369768,237.913,258.713
2015-08-15 22:00,-0.00675776,285.045,286.882,261.305,289.166,288.861,263.905,-0.0,-0.0,237.203,257.246
2015-08-15 23:00,-0.123809,282.408,282.448,258.913,284.361,282.467,260.219,-0.032447,-0.0654723,236.94,254.443
2015-08-16 00:00,-0.105519,269.865,266.145,249.669,267.522,264.967,250.104,-0.0281265,-0.0591822,236.808,248.133
2015-08-16 01:00,-0.00153026,268.382,265.846,248.382,266.678,263.586,248.634,-0.0,-0.0,237.849,248.775
2015-08-16 02:00,-0.0,282.581,284.528,259.574,287.134,287.048,263.67,-0.0,-0.0,241.246,258.798
2015-08-16 03:00,-0.0,282.234,284.185,259.464,286.585,286.626,263.2,-0.0,-0.0,242.099,259.638
2015-08-16 04:00,-0.0,281.165,283.38,259.244,285.757,285.919,263.67,-0.0,-0.0,242.984,260.627
2015-08-16 05:00,-0.0,280.982,282.799,258.913,285.34,285.635,262.965,-0.0,0.00132124,242.82,260.952
2015-08-16 06:00,-0.0,280.05,282.214,258.58,284.641,285.35,262.61,-0.0,-0.0,240.489,260.463
2015-08-16 07:00,0.00188397,279.667,282.214,258.802,284.361,285.065,262.728,-0.0,-0.0,239.41,260.463
2015-08-16 08:00,-0.0,279.667,281.742,258.58,284.079,284.779,262.017,-0.0,-0.0,237.333,259.638
2015-08-16 09:00,-0.00582998,279.667,281.386,258.246,283.797,284.636,263.083,-0.0,-0.0,237.137,259.721
2015-08-16 10:00,0.54027,279.859,281.624,258.134,284.079,284.492,262.728,0.653494,0.779193,237.398,259.471
2015-08-16 11:00,0.524243,286.421,285.994,260.984,288.222,288.027,263.2,0.249194,0.487472,238.357,259.554
2015-08-16 12:00,0.499938,294.043,291.383,264.236,294.021,293.216,265.416,0.20188,0.419304,239.227,259.554
2015-08-16 13:00,0.396673,299.203,295.935,267.151,298.918,297.17,266.795,0.152809,0.322649,239.714,260.217
2015-08-16 14:00,0.320486,302.68,298.739,269.0,301.952,299.232,267.592,0.118968,0.258202,239.043,259.97
2015-08-16 15:00,0.277779,304.557,300.712,270.145,303.618,301.012,267.365,0.0997424,0.2173,238.294,259.471
2015-08-16 16:00,0.247547,304.872,301.36,270.992,304.559,302.144,268.609,0.0882517,0.195839,238.104,259.554
2015-08-16 17:00,0.2396,303.917,300.526,270.523,303.618,301.012,268.158,0.0843091,0.185345,236.808,258.967
2015-08-16 18:00,0.232281,302.596,299.402,269.955,302.43,299.488,267.705,0.0913673,0.186493,236.475,258.543
2015-08-16 19:00,0.236956,299.765,297.494,268.904,300.506,297.818,267.023,0.113759,0.202228,236.475,258.543
2015-08-16 20:00,0.266748,296.323,294.846,267.544,297.807,295.734,266.222,0.172921,0.248259,237.657,258.798
2015-08-16 21:00,0.399962,290.171,290.545,264.849,293.119,292.006,264.837,0.423309,0.484543,237.592,259.304
2015-08-16 22:00,-0.00678162,287.01,288.303,263.515,291.029,289.964,264.605,-0.0,-0.0,237.977,259.304
2015-08-16 23:00,-0.115046,285.665,287.102,262.471,289.701,289.137,263.67,-0.0324697,-0.0684961,238.795,259.387
2015-08-17 00:00,-0.113341,285.357,286.328,262.261,289.032,288.445,264.255,-0.0297824,-0.0611579,239.349,259.22
2015-08-17 01:00,-0.00153004,283.924,285.882,261.944,288.493,288.167,264.022,-0.0,-0.0,237.463,259.304
2015-08-17 02:00,-0.00132453,283.261,284.982,261.519,287.407,287.188,263.083,-0.0,-0.0,234.756,258.2
2015-08-17 03:00,-0.0,283.428,285.095,261.625,287.543,287.329,263.318,-0.0,-0.0,235.525,258.543
2015-08-17 04:00,-0.0,283.093,284.642,261.412,287.27,287.188,263.67,-0.0,-0.0,235.936,258.882
2015-08-17 05:00,-0.0,282.581,284.528,261.091,286.997,287.048,263.67,-0.0,-0.0,235.662,258.628
2015-08-17 06:00,-0.0,282.234,283.956,260.984,286.585,286.626,263.436,-0.0,-0.0,235.662,258.457
2015-08-17 07:00,-0.0,282.234,283.611,260.984,286.172,286.202,262.847,-0.0,-0.0,235.593,258.713
2015-08-17 08:00,-0.0,281.526,283.726,260.876,286.033,286.626,263.787,-0.0,-0.0,235.038,258.798
2015-08-17 09:00,-0.0,281.526,283.264,260.228,285.895,286.06,263.083,-0.0,-0.0,233.896,258.286
2015-08-17 10:00,0.676475,281.526,282.916,260.337,285.34,285.493,263.436,0.633062,0.790775,233.085,257.855
2015-08-17 11:00,0.568403,289.381,288.195,262.995,290.5,290.238,264.721,0.261809,0.504976,233.308,258.372
2015-08-17 12:00,0.529647,296.84,293.235,266.657,296.182,294.547,265.993,0.21129,0.42674,233.01,258.713
2015-08-17 13:00,0.41705,300.858,297.107,269.096,300.02,297.818,267.137,0.159931,0.326634,233.308,258.628
2015-08-17 14:00,0.337936,302.932,299.024,270.428,301.952,299.616,267.137,0.125098,0.261825,233.308,258.114
2015-08-17 15:00,0.295516,304.636,300.526,271.273,303.499,300.506,267.478,0.103029,0.222294,233.823,258.372
2015-08-17 16:00,0.266831,305.028,300.619,271.552,303.618,300.506,267.819,0.0915914,0.198032,233.159,258.286
2015-08-17 17:00,0.244952,303.998,300.06,270.899,302.788,299.743,267.819,0.0879482,0.186253,233.308,257.595
2015-08-17 18:00,0.242384,302.341,299.213,270.428,301.952,298.848,267.137,0.0910403,0.187666,232.405,257.333
2015-08-17 19:00,0.243334,299.858,297.397,269.67,300.263,297.818,267.023,0.111256,0.203898,232.251,256.894
2015-08-17 20:00,0.277843,296.635,294.746,267.838,297.434,295.076,266.337,0.172048,0.251194,232.097,256.45
2015-08-17 21:00,0.294997,290.429,290.545,265.355,293.506,292.141,265.185,0.349682,0.397089,231.709,256.539
2015-08-17 22:00,-0.0,285.357,284.869,261.838,286.86,285.919,261.54,-0.0,-0.0,230.835,254.162
2015-08-17 23:00,-0.109218,286.864,287.76,263.099,290.234,289.413,263.436,-0.0299919,-0.0685415,230.674,255.73
2015-08-18 00:00,-0.113345,286.121,286.772,262.366,289.3,288.306,263.553,-0.0297835,-0.06116,231.076,255.183
2015-08-18 01:00,-0.00152982,283.594,,260.011,284.22,283.049,259.977,-0.0,,230.266,252.634
2015-08-18 10:00,0.824772,265.791,256.294,243.509,255.439,253.316,240.354,0.782133,1.0658,227.601,241.728
2015-08-18 11:00,0.467584,285.202,279.823,257.798,281.221,279.361,256.16,0.2817,0.458437,228.312,247.699
2015-08-18 12:00,0.510847,294.602,286.772,262.471,288.358,284.205,258.515,0.231255,0.411052,229.601,249.721
2015-08-18 13:00,0.39626,299.297,293.031,266.259,295.043,291.735,262.847,0.162243,0.308019,230.348,250.646
2015-08-18 14:00,0.325487,291.44,276.845,255.974,276.772,272.405,249.572,0.176218,0.285944,227.78,242.971
2015-08-18 15:00,0.295792,303.836,297.687,269.479,300.02,295.996,264.721,0.108731,0.217046,231.552,251.949
2015-08-18 16:00,0.28166,304.398,297.494,269.479,300.141,295.471,264.488,0.109507,0.206011,231.552,251.452
2015-08-18 17:00,0.327509,301.913,286.439,262.471,288.628,281.735,255.784,0.183124,0.276053,231.552,249.617
2015-08-18 18:00,0.277843,300.498,292.108,265.959,294.533,290.784,263.083,0.161445,0.241999,232.633,252.731
2015-08-18 19:00,0.373294,301.037,288.951,264.645,291.292,287.748,261.779,0.254496,0.337708,234.543,253.785
2015-08-18 20:00,0.272341,295.796,293.336,266.557,295.93,292.948,264.138,0.195653,0.258281,234.968,254.629
2015-08-18 21:00,0.483799,290.558,289.272,264.236,291.948,289.964,262.965,0.524329,0.586109,235.455,254.443
2015-08-18 22:00,-0.0,286.864,287.432,262.786,289.968,288.445,262.847,-0.0,-0.0,236.341,254.814
2015-08-18 23:00,-0.138824,285.97,286.439,261.838,288.897,287.609,262.492,-0.0400143,-0.0834943,236.207,255.275
2015-08-19 00:00,-0.0840335,285.665,285.994,261.944,288.493,287.329,262.728,-0.0264748,-0.0591885,236.274,255.457
2015-08-19 01:00,-0.0015296,284.73,285.77,261.519,288.358,287.609,263.436,-0.0,-0.0,236.408,256.091
2015-08-19 02:00,-0.00132417,284.249,285.208,261.091,287.815,287.188,263.083,-0.0,-0.0,238.104,257.07
2015-08-19 03:00,0.00123603,283.428,284.982,260.876,287.407,287.048,263.2,-0.0,-0.0,239.043,257.682
2015-08-19 04:00,-0.0,282.234,283.495,260.119,285.895,285.35,262.373,-0.0,-0.0,239.653,258.286
2015-08-19 05:00,-0.0,282.581,284.414,260.228,286.722,286.626,263.083,-0.0,-0.0,240.134,259.051
2015-08-19 06:00,-0.0,282.581,283.841,260.011,286.585,286.06,262.373,-0.0,-0.0,239.774,258.543
2015-08-19 07:00,-0.0,282.234,283.611,259.902,286.31,285.777,262.136,-0.0,-0.0,240.312,259.051
2015-08-19 08:00,-0.0,281.346,283.148,260.011,285.757,285.208,262.373,-0.0,-0.0,239.834,259.304
2015-08-19 09:00,-0.0,281.526,282.916,259.574,285.618,285.065,262.61,-0.0,-0.0,239.593,259.051
2015-08-19 10:00,0.460321,281.705,283.032,259.793,285.618,284.922,262.136,0.597621,0.588647,239.471,258.967
2015-08-19 11:00,0.506732,287.587,285.546,261.305,287.951,286.343,262.255,0.259688,0.417338,239.653,259.051
2015-08-19 12:00,0.479696,293.93,289.165,263.618,290.897,288.445,263.2,0.208395,0.365113,239.227,258.967
2015-08-19 13:00,0.39047,297.549,291.902,265.355,293.764,290.784,264.255,0.159821,0.298921,238.168,258.543
2015-08-19 14:00,0.327157,300.408,294.346,266.756,296.307,293.082,265.301,0.127949,0.245354,238.294,258.457
2015-08-19 15:00,0.286,302.511,296.621,268.421,298.426,294.944,265.069,0.109517,0.211835,238.357,258.543
2015-08-19 16:00,0.25772,303.428,297.494,268.904,299.287,295.602,265.069,0.101832,0.190801,238.357,258.457
2015-08-19 17:00,0.292491,302.426,291.798,265.758,293.764,289.826,263.553,0.149894,0.230013,238.041,258.2
2015-08-19 18:00,0.255149,300.589,294.145,266.954,296.056,292.814,264.721,0.154748,0.224705,237.785,258.713
2015-08-19 19:00,0.214916,296.738,291.591,265.153,293.248,290.511,264.022,0.210594,0.234036,238.294,258.798
2015-08-19 20:00,0.328506,295.476,291.383,265.254,293.248,290.648,264.022,0.406788,0.422849,238.42,258.713
2015-08-19 22:00,-0.0,286.717,286.661,262.261,289.3,287.609,263.2,-0.0,-0.0,238.733,258.967
2015-08-19 23:00,-0.150729,286.569,287.541,262.471,289.835,288.999,263.905,-0.0400382,-0.0865279,238.671,259.387
2015-08-20 00:00,-0.125075,285.818,286.55,262.155,289.166,288.306,263.67,-0.0347487,-0.0690542,238.981,259.638
2015-08-20 01:00,-0.00152939,284.249,285.994,261.625,288.493,288.167,263.67,-0.0,-0.0,238.42,260.052
2015-08-20 02:00,-0.00132402,283.594,285.433,261.305,287.951,287.329,263.787,-0.0,-0.0,238.608,259.721
2015-08-20 03:00,-0.00123606,283.261,284.982,261.305,287.543,287.329,262.965,-0.0,-0.0,238.104,259.638
2015-08-20 04:00,-0.0,282.753,284.414,260.769,287.27,286.907,263.553,-0.0,-0.0,237.398,259.554
2015-08-20 05:00,-0.00131177,282.059,284.071,260.661,286.722,286.626,263.553,-0.0,-0.0,237.333,259.887
2015-08-20 06:00,-0.00150366,281.526,283.956,260.661,286.31,286.485,263.67,-0.0,-0.0,238.104,259.97
2015-08-20 07:00,-0.0,280.982,283.264,260.119,285.757,286.06,263.553,-0.0,-0.0,237.333,259.804
2015-08-20 08:00,-0.0,280.613,282.566,259.683,285.34,285.635,263.787,-0.0,-0.0,237.528,259.804
2015-08-20 09:00,-0.0,280.427,282.331,259.244,284.921,285.493,263.553,-0.0,-0.0,236.274,259.304
2015-08-20 10:00,0.572909,280.799,282.448,259.354,284.921,285.208,262.847,0.533589,0.636224,234.968,258.2
2015-08-20 11:00,0.562472,287.444,286.105,261.519,288.628,288.027,263.436,0.256725,0.47025,234.113,257.158
2015-08-20 12:00,0.521255,293.816,290.335,264.747,292.86,291.329,264.837,0.21117,0.410416,234.329,257.246
2015-08-20 13:00,0.419692,297.848,293.438,265.959,296.307,294.016,265.416,0.160532,0.319637,234.615,256.805
2015-08-20 14:00,0.34431,300.317,295.738,268.033,298.549,296.127,266.452,0.128692,0.259918,235.108,256.539
2015-08-20 15:00,0.304909,302.171,297.3,269.096,300.384,297.43,266.909,0.107872,0.219667,235.178,256.45
2015-08-20 16:00,0.269617,302.764,298.262,269.479,301.11,298.334,266.681,0.099044,0.197305,233.677,255.548
2015-08-20 17:00,0.251583,302.68,298.549,269.67,301.712,298.72,266.909,0.0948175,0.188942,234.686,255.73
2015-08-20 18:00,0.243439,301.214,297.397,269.0,300.627,297.947,266.222,0.10535,0.192972,233.308,255.275
2015-08-20 19:00,0.245386,298.533,296.327,267.935,299.409,297.04,267.023,0.136475,0.216158,233.382,255.639
2015-08-20 20:00,0.265638,295.042,293.438,266.756,296.559,294.547,265.878,0.231836,0.284681,233.085,255.275
2015-08-20 21:00,0.225243,289.514,289.486,264.133,292.6,291.329,265.069,0.444996,0.435842,232.935,255.821
2015-08-20 22:00,-0.00687149,286.717,287.541,262.576,290.234,289.413,264.488,-0.0,-0.0,232.86,255.275
2015-08-20 23:00,-0.138986,286.864,287.432,262.681,290.101,288.999,263.67,-0.0425648,-0.086577,232.251,254.629
2015-08-21 00:00,-0.130939,285.357,286.105,261.519,289.032,288.167,264.138,-0.0364036,-0.0710277,232.557,254.999
2015-08-21 01:00,-0.00305837,284.087,285.433,261.519,288.222,287.888,263.787,-0.0,-0.0,232.935,254.999
2015-08-21 02:00,-0.0,283.428,285.095,260.876,287.815,287.609,264.022,-0.0,-0.0,233.308,255.275
2015-08-21 03:00,-0.0,282.408,284.071,260.661,286.997,286.767,263.905,-0.0,-0.0,233.085,255.183
2015-08-21 04:00,-0.0,281.346,283.38,259.902,285.895,286.06,263.083,-0.0,-0.0,233.823,255.183
2015-08-21 05:00,-0.0,280.982,282.799,259.464,285.34,285.493,263.436,-0.0,-0.0,234.257,255.821
2015-08-21 06:00,-0.00150566,280.239,282.331,259.574,284.921,285.208,263.436,-0.0,-0.0,233.75,255.73
2015-08-21 07:00,0.00190499,279.667,281.978,259.244,284.361,284.636,262.965,-0.0,-0.0,233.382,256.001
2015-08-21 08:00,-0.0,279.278,281.505,259.244,283.938,284.205,262.847,-0.0,-0.00285501,233.53,255.73
2015-08-21 09:00,-0.0,279.278,281.148,258.691,283.656,283.917,262.61,-0.0,-0.0,233.234,256.001
2015-08-21 10:00,0.563287,280.05,281.624,258.802,284.079,284.636,262.965,0.545068,0.649911,233.308,256.001
2015-08-21 11:00,0.569055,287.155,285.994,261.838,288.897,288.445,264.138,0.264816,0.499942,233.603,255.821
2015-08-21 12:00,0.527518,294.823,291.591,264.95,294.533,293.35,265.185,0.211791,0.422548,235.108,256.36
2015-08-21 13:00,0.406471,299.297,295.639,267.544,298.795,297.17,266.681,0.158127,0.321631,234.543,256.539
2015-08-21 14:00,0.33814,302.596,297.975,269.0,301.231,298.591,267.023,0.124195,0.257198,234.615,255.548
2015-08-21 15:00,0.30085,304.636,299.966,270.239,303.499,300.759,268.045,0.106238,0.220237,235.108,256.45
2015-08-21 16:00,0.268634,305.339,301.268,270.992,304.91,302.269,268.609,0.0938691,0.198021,235.455,257.158
2015-08-21 17:00,0.250708,304.95,302.368,271.645,306.074,304.134,269.618,0.088016,0.189828,235.731,259.22
2015-08-21 18:00,0.244393,303.015,301.452,271.179,305.027,303.391,270.286,0.0912914,0.192304,236.071,259.471
2015-08-21 19:00,0.242082,300.134,299.307,269.67,302.788,301.39,268.946,0.113647,0.210519,236.139,259.887
2015-08-21 20:00,0.252193,296.114,296.229,267.838,299.531,298.72,268.497,0.175647,0.254604,235.936,260.299
2015-08-21 21:00,0.296016,289.381,290.86,264.236,293.248,293.216,266.795,0.438613,0.485624,236.475,260.871
2015-08-21 22:00,-0.00689257,286.271,288.195,262.89,290.5,290.921,266.108,-0.0,-0.0,236.742,261.435
2015-08-21 23:00,-0.127226,285.357,287.102,261.838,289.434,289.826,265.532,-0.0425877,-0.0925977,236.808,261.033
2015-08-22 00:00,-0.103578,284.249,285.994,261.412,288.222,288.445,264.837,-0.0347489,-0.0690547,237.006,260.789
2015-08-22 01:00,-0.00152899,283.261,285.433,260.876,287.543,288.027,264.488,-0.0,-0.0,236.94,260.708
2015-08-22 02:00,-0.00132379,282.923,284.755,260.661,286.997,287.188,264.372,-0.0,-0.0,237.333,260.217
2015-08-22 03:00,-0.00123621,282.753,284.414,260.337,286.86,286.907,264.022,-0.0,-0.0,237.463,259.804
2015-08-22 04:00,-0.00123319,281.526,283.726,260.119,285.895,286.202,264.022,-0.0,-0.0,237.528,259.304
2015-08-22 05:00,-0.0,281.346,283.148,259.902,285.618,285.635,264.255,-0.0,-0.0,238.168,259.304
2015-08-22 06:00,-0.00150777,280.613,282.682,259.683,284.781,285.208,263.2,-0.0,-0.0,238.104,259.471
2015-08-22 07:00,-0.0,280.427,282.096,259.902,284.501,284.779,262.728,-0.0,-0.0,239.104,259.387
2015-08-22 08:00,-0.0,279.667,281.86,259.464,284.361,284.636,263.2,-0.0,-0.0,239.349,259.135
2015-08-22 09:00,-0.00625939,279.667,281.742,259.134,283.938,284.492,262.728,-0.0,0.00631922,239.043,258.882
2015-08-22 10:00,0.503782,280.05,281.86,259.354,284.22,284.779,263.2,0.511862,0.635748,239.288,258.798
2015-08-22 11:00,0.553916,287.444,286.439,262.155,288.763,288.445,264.255,0.258131,0.476846,239.834,259.22
2015-08-22 12:00,0.516432,295.26,291.694,265.658,294.533,293.483,265.878,0.210302,0.41213,240.014,259.304
2015-08-22 13:00,0.397012,299.672,296.033,268.033,298.918,296.78,266.795,0.155739,0.314395,240.312,259.304
2015-08-22 14:00,0.330478,303.346,299.307,270.428,302.43,300.125,268.497,0.122338,0.254495,240.841,260.052
2015-08-22 15:00,0.289719,305.722,301.36,271.366,304.559,301.767,268.497,0.104615,0.216499,240.312,259.638
2015-08-22 16:00,0.263409,306.251,301.819,271.83,305.144,302.269,268.946,0.094727,0.193012,240.253,259.387
2015-08-22 17:00,0.249841,304.794,301.175,271.366,304.324,301.767,268.497,0.0928712,0.186096,240.014,258.967
2015-08-22 18:00,0.241764,303.264,300.06,270.711,303.263,300.632,268.158,0.100076,0.188028,239.593,258.372
2015-08-22 19:00,0.250752,300.679,298.167,269.479,301.231,298.976,267.251,0.131431,0.216985,238.733,258.114
2015-08-22 20:00,0.287478,297.045,295.442,268.13,298.549,296.389,267.023,0.21941,0.282051,238.857,258.543
2015-08-22 21:00,0.510859,291.19,290.651,265.254,293.248,292.006,265.301,0.509783,0.58942,238.608,257.942
2015-08-22 22:00,-0.00691313,287.587,288.412,263.515,291.029,290.101,265.069,-0.0,-0.0,239.104,257.855
2015-08-22 23:00,-0.127291,286.569,287.541,262.89,289.968,289.276,264.255,-0.0426095,-0.0956337,239.41,257.942
2015-08-23 00:00,-0.103578,285.512,286.661,262.576,289.3,288.861,264.488,-0.0347488,-0.0749734,238.294,257.855
2015-08-23 01:00,-0.0,284.73,286.439,262.366,289.032,288.999,264.255,-0.0,-0.0,238.733,258.543
2015-08-23 02:00,-0.0,284.41,286.105,262.155,288.763,288.584,264.488,-0.0,-0.0,238.608,258.628
2015-08-23 03:00,-0.0,283.924,285.658,261.944,288.087,288.027,264.721,-0.0,-0.0,238.231,258.628
2015-08-23 04:00,-0.0,283.093,285.095,261.519,287.815,287.748,264.488,-0.0,-0.0,237.463,258.543
2015-08-23 05:00,-0.0,282.408,284.528,260.984,287.134,287.329,264.138,-0.0,-0.0,237.203,258.372
2015-08-23 06:00,-0.00150999,282.234,284.3,260.769,286.722,286.907,264.488,-0.0,-0.0,236.341,257.855
2015-08-23 07:00,-0.00191477,281.705,283.841,260.661,286.172,286.626,263.67,-0.0,-0.0,235.731,257.682
2015-08-23 08:00,-0.0,280.982,283.495,260.228,286.033,286.343,263.2,-0.0,0.00288333,235.867,257.682
2015-08-23 09:00,-0.00634424,280.982,282.916,259.574,285.34,285.919,263.787,-0.0,0.00640489,235.317,257.158
2015-08-23 10:00,0.545488,281.705,283.148,259.683,285.618,286.06,263.436,0.522107,0.622533,235.108,256.539
2015-08-23 11:00,0.564493,288.977,287.651,262.681,290.234,289.551,264.255,0.262336,0.479907,235.317,256.805
2015-08-23 12:00,0.522553,296.738,292.827,265.959,295.803,294.016,265.762,0.212952,0.40922,235.593,256.716
2015-08-23 13:00,0.414806,301.653,296.913,268.421,300.02,297.3,266.452,0.162572,0.310879,235.386,256.539
2015-08-23 14:00,0.338178,304.95,299.966,270.334,302.907,299.998,267.592,0.126972,0.253354,234.615,256.539
2015-08-23 15:00,0.301305,306.697,301.544,271.459,304.559,301.264,267.819,0.107795,0.214215,234.897,256.36
2015-08-23 16:00,0.263866,305.874,300.06,270.711,303.144,299.488,267.023,0.101552,0.193737,234.329,256.001
2015-08-23 17:00,0.244428,305.569,300.153,270.805,303.263,299.616,267.251,0.0976941,0.180859,233.968,256.091
2015-08-23 18:00,0.239159,303.51,299.024,270.05,301.952,298.463,266.452,0.107292,0.18739,233.896,256.001
2015-08-23 19:00,0.249851,301.214,297.975,269.192,300.99,297.818,266.566,0.134988,0.211401,233.603,256.181
2015-08-23 20:00,0.257971,297.248,294.945,267.544,297.931,295.602,265.647,0.228663,0.268576,232.784,255.73
2015-08-23 21:00,0.342025,291.315,290.651,264.747,293.377,291.6,265.301,0.502976,0.527029,232.405,255.366
2015-08-23 22:00,-0.0,287.871,288.195,263.411,291.16,289.964,264.022,-0.0,-0.0,233.01,255.821
2015-08-23 23:00,-0.145123,286.864,287.541,262.471,290.234,289.276,263.787,-0.0501533,-0.10465,232.557,255.639
2015-08-24 00:00,-0.146572,286.271,286.882,262.261,289.434,288.722,264.138,-0.043022,-0.0828647,232.481,255.548
2015-08-24 01:00,-0.00152865,284.73,285.095,261.305,287.543,286.626,262.847,-0.0,-0.0,232.097,255.183
2015-08-24 02:00,-0.0,282.234,281.978,259.464,284.361,283.194,261.062,-0.0,-0.0,232.557,254.443
2015-08-24 03:00,-0.0,278.482,278.598,257.459,281.366,279.81,258.882,-0.0,-0.0,232.481,254.722
2015-08-24 04:00,-0.0,280.427,280.549,258.691,283.372,282.175,260.581,-0.0,-0.0,231.943,254.907
2015-08-24 05:00,-0.0,282.753,283.38,260.553,286.033,285.065,261.898,-0.0,-0.0,231.473,254.907
2015-08-24 06:00,-0.00151231,283.093,284.071,260.445,286.585,286.06,262.373,-0.0,-0.0,231.394,255.091
2015-08-24 07:00,-0.0,280.239,279.823,258.246,281.799,280.85,259.127,-0.0,-0.0,230.101,252.828
2015-08-24 08:00,-0.00287087,276.155,273.865,254.69,276.01,273.99,254.519,-0.0,-0.0,229.517,251.652
2015-08-24 09:00,-0.0,280.239,280.669,258.246,282.803,281.441,260.701,-0.0,-0.0,230.266,253.88
2015-08-24 10:00,0.402926,279.081,277.224,256.089,278.128,276.323,256.909,0.492782,0.54237,227.601,250.238
2015-08-24 11:00,0.495027,289.247,287.102,262.261,289.568,288.445,262.728,0.248641,0.423525,230.511,254.536
2015-08-24 12:00,0.42914,286.717,274.261,253.621,273.843,270.473,251.944,0.26071,0.401423,225.739,243.457
2015-08-24 13:00,0.347715,288.705,274.785,254.572,274.623,270.96,249.971,0.20746,0.316481,225.739,243.336
2015-08-24 14:00,0.338184,301.913,293.133,265.355,295.424,291.6,262.136,0.147039,0.264521,229.007,251.85
2015-08-24 15:00,0.304342,301.565,290.123,263.515,291.423,287.188,259.735,0.143159,0.241819,228.488,248.455
2015-08-24 16:00,0.331807,293.587,275.694,254.454,276.62,272.246,250.896,0.239275,0.323624,228.4,245.918
2015-08-24 17:00,0.323785,297.045,279.823,257.459,281.076,276.323,252.594,0.243402,0.328407,228.662,247.261
2015-08-24 18:00,0.389552,296.427,279.091,257.006,281.655,279.061,254.646,0.35393,0.443557,229.433,248.562
2015-08-24 19:00,0.403088,300.769,289.272,262.786,291.555,288.445,261.182,0.295119,0.392579,230.348,252.244
2015-08-24 20:00,0.569855,298.726,284.869,260.769,286.997,283.773,259.856,0.485893,0.550994,231.394,251.452
2015-08-24 21:00,1.26162,286.271,275.694,256.089,278.725,276.323,256.785,0.917761,1.27368,233.896,252.047
2015-08-24 22:00,-0.00695267,288.012,287.869,262.261,290.764,289.137,262.728,-0.0,-0.0,234.185,253.213
2015-08-24 23:00,-0.15408,285.97,285.321,260.661,287.679,285.635,261.779,-0.0551944,-0.113673,235.936,253.309
2015-08-25 00:00,-0.123119,267.761,267.18,250.051,270.006,269.329,253.625,-0.041367,-0.0808912,235.936,251.751
2015-08-25 01:00,-0.00152851,278.482,275.306,254.454,278.278,277.243,256.66,-0.0,-0.0,238.42,253.974
2015-08-25 02:00,-0.00132363,273.586,273.333,253.501,276.01,274.46,256.785,-0.0,-0.0,239.043,254.629
2015-08-25 03:00,-0.0,281.883,281.86,258.358,284.22,282.467,259.856,-0.0,-0.0,239.593,255.091
2015-08-25 04:00,-0.0,283.76,283.38,259.683,286.172,284.922,261.062,-0.0,-0.0,239.41,255.821
2015-08-25 05:00,0.00131708,284.249,285.208,260.445,287.679,286.626,262.255,-0.0,-0.0,238.671,255.457
2015-08-25 06:00,-0.0,283.594,284.869,260.553,287.543,286.626,262.965,-0.0,-0.0,238.733,255.548
2015-08-25 07:00,-0.00385071,282.923,284.185,260.011,286.86,286.202,262.373,-0.0,-0.0,238.919,255.091
2015-08-25 08:00,-0.00288628,282.408,283.726,259.793,286.447,286.06,262.136,-0.0,-0.0,239.653,255.366
2015-08-25 09:00,-0.0,282.234,283.495,259.354,286.172,285.635,261.54,-0.0,-0.0,239.954,255.548
2015-08-25 10:00,0.465847,282.923,283.495,259.464,286.447,285.635,262.492,0.466147,0.534432,240.074,255.457
2015-08-25 11:00,0.51416,289.113,286.882,261.519,289.568,288.306,262.728,0.259799,0.422795,240.489,255.639
2015-08-25 12:00,0.486269,295.902,290.965,264.236,293.892,291.735,264.255,0.205862,0.374264,241.189,255.911
2015-08-25 13:00,0.394222,299.297,293.742,266.059,296.684,293.883,265.185,0.160825,0.294875,241.419,255.821
2015-08-25 14:00,0.327568,302.596,296.523,267.348,299.409,295.996,265.532,0.129687,0.2419,241.874,256.36
2015-08-25 15:00,0.298934,305.184,299.118,269.0,302.072,298.463,265.878,0.114076,0.213946,243.039,257.246
2015-08-25 16:00,0.271777,306.326,300.433,269.67,303.381,299.743,267.478,0.103195,0.192346,244.164,258.286
2015-08-25 17:00,0.262373,305.95,300.433,269.67,303.854,300.506,266.222,0.104692,0.196378,244.006,258.713
2015-08-25 18:00,0.246428,303.998,299.778,269.479,302.55,299.488,267.251,0.112581,0.19151,244.058,258.967
2015-08-25 19:00,0.231558,300.858,297.01,267.838,299.898,296.91,265.878,0.152046,0.214688,244.635,259.97
2015-08-25 20:00,0.459513,299.203,292.005,264.645,294.277,291.464,263.905,0.385686,0.455838,245.608,259.97
2015-08-25 21:00,0.701929,292.889,290.017,263.721,292.73,290.784,263.787,0.668612,0.797219,246.009,260.381
2015-08-25 22:00,-0.0,288.012,288.628,262.89,291.16,290.238,264.372,-0.0,-0.0,246.208,260.381
2015-08-25 23:00,-0.207508,285.202,284.755,260.553,287.134,285.35,262.61,-0.0652588,-0.122702,246.847,260.627
2015-08-26 00:00,-0.162204,275.932,274.916,255.742,277.377,275.085,257.282,-0.0496401,-0.0927283,246.75,259.135
2015-08-26 01:00,-0.0,279.278,280.187,258.469,282.231,280.257,259.977,-0.0,-0.0,247.186,259.554
2015-08-26 02:00,-0.0,285.818,287.102,262.576,289.701,288.861,263.905,-0.0,-0.00133629,247.138,261.595
2015-08-26 03:00,-0.00247394,281.883,283.032,260.337,285.34,284.349,261.779,-0.0,-0.0,247.09,261.033
2015-08-26 04:00,-0.0,278.684,278.721,257.459,280.785,279.81,258.76,-0.0,-0.0,246.944,260.463
2015-08-26 05:00,-0.0,282.923,283.148,260.445,285.34,283.339,261.301,-0.0,-0.0,246.896,260.545
2015-08-26 06:00,-0.0,283.924,285.433,261.731,287.815,287.048,263.553,-0.0,-0.0,246.159,261.033
2015-08-26 07:00,-0.0,283.093,284.869,261.091,287.27,286.907,263.083,-0.0,-0.0,246.307,261.435
2015-08-26 08:00,-0.0,282.753,284.642,261.519,287.27,287.188,263.905,-0.0,-0.0,246.701,261.755
2015-08-26 09:00,-0.0,282.234,284.414,261.091,286.997,286.907,263.67,-0.0,-0.0,246.208,261.755
2015-08-26 10:00,0.541944,283.594,285.095,261.625,287.679,287.609,264.255,0.458863,0.547125,246.505,262.072
2015-08-26 11:00,0.545069,289.647,288.195,263.515,290.897,289.689,264.605,0.263719,0.434431,246.798,261.993
2015-08-26 12:00,0.501922,296.531,292.108,265.758,294.661,292.41,264.837,0.210465,0.376421,246.944,261.834
2015-08-26 13:00,0.395657,300.769,294.945,267.446,296.935,293.883,265.301,0.161465,0.295082,246.456,261.834
2015-08-26 14:00,0.335157,304.078,297.59,269.479,299.409,295.734,265.185,0.130384,0.243864,246.208,262.23
2015-08-26 15:00,0.304749,305.95,298.358,269.67,300.02,295.734,265.069,0.127832,0.224396,246.109,261.755
2015-08-26 16:00,0.301517,300.042,286.661,262.366,288.087,284.492,259.735,0.2222,0.304399,245.709,260.217
2015-08-26 17:00,0.241956,272.061,262.3,247.991,262.507,262.185,250.104,0.456807,0.503709,242.042,250.646
2015-08-26 18:00,0.277426,269.283,258.871,245.859,260.158,259.321,247.823,0.501211,0.563723,241.986,249.513
2015-08-26 19:00,0.786477,297.045,265.394,249.924,268.358,268.007,253.753,0.723727,0.851049,245.557,256.716
2015-08-26 20:00,0.827611,301.302,280.549,259.134,281.943,278.609,257.653,0.629989,0.783302,246.208,258.028
2015-08-26 21:00,0.606806,294.043,291.383,266.059,293.635,291.329,264.022,0.587179,0.682619,244.635,259.387
2015-08-26 22:00,-0.0,288.568,287.432,263.618,289.968,287.609,262.255,-0.0,-0.0,243.526,257.942
2015-08-26 23:00,-0.183872,280.05,280.429,259.244,283.514,281.588,259.856,-0.0627758,-0.122755,241.533,257.158
2015-08-27 00:00,-0.152432,279.667,278.35,256.892,280.201,277.853,257.777,-0.0496399,-0.092728,241.986,256.271
2015-08-27 01:00,-0.0,288.012,287.869,263.515,290.234,288.445,263.787,-0.0,-0.0,241.533,257.421
2015-08-27 02:00,-0.0,282.408,281.267,259.464,284.079,282.758,259.127,-0.0,-0.0,241.59,257.07
2015-08-27 03:00,-0.00123726,286.864,287.102,263.099,289.434,288.027,262.965,-0.0,-0.0,241.073,256.181
2015-08-27 04:00,-0.00247213,285.357,283.032,260.661,284.921,282.613,259.977,-0.0,-0.0,238.919,252.634
2015-08-27 05:00,0.0013197,251.944,252.101,241.791,252.262,251.947,243.667,-0.0,-0.0,236.274,244.412
2015-08-27 06:00,-0.0,257.103,258.195,245.314,259.236,258.04,247.823,-0.0,-0.0,233.968,245.918
2015-08-27 07:00,-0.0,254.396,254.145,243.368,255.049,253.896,245.211,-0.0,-0.0,234.113,243.937
2015-08-27 08:00,-0.00291882,249.156,249.185,240.617,251.447,250.557,242.527,-0.0,0.00294672,237.398,244.53
2015-08-27 09:00,-0.0,254.396,255.764,243.93,258.116,257.671,247.687,-0.0,-0.0,241.131,249.721
2015-08-27 10:00,0.648157,264.009,256.819,244.903,259.236,259.139,248.094,0.774767,0.84681,240.607,250.849
2015-08-27 11:00,0.838476,286.717,256.992,245.04,259.606,259.139,248.229,0.816255,0.91601,240.193,249.721
2015-08-27 12:00,0.868527,294.268,256.294,245.314,259.421,258.774,248.094,0.827805,0.922348,240.43,249.408
2015-08-27 13:00,0.514056,288.977,252.666,242.369,254.657,254.089,245.072,0.682893,0.751612,238.733,247.371
2015-08-27 14:00,0.491465,284.888,251.912,242.081,253.867,252.927,242.956,0.54974,0.606927,234.543,245.46
2015-08-27 15:00,0.377356,277.451,250.76,241.207,252.667,251.947,243.099,0.72508,0.791448,233.234,244.53
2015-08-27 16:00,0.506307,284.73,247.769,239.871,249.157,248.736,242.384,0.625369,0.688083,233.53,241.728
2015-08-27 17:00,0.444855,279.667,253.04,242.656,254.461,253.51,244.792,0.651859,0.707684,233.75,244.294
2015-08-27 18:00,0.528392,291.563,265.846,250.555,268.358,268.007,253.625,0.484671,0.540556,237.657,250.34
2015-08-27 19:00,0.530368,295.902,272.796,255.043,275.396,272.883,255.658,0.498737,0.518854,238.231,250.849
2015-08-27 20:00,0.966838,291.315,264.635,249.669,267.857,267.339,253.111,0.872301,0.96808,237.006,251.152
2015-08-27 21:00,1.06243,268.686,258.025,245.995,261.069,260.584,248.903,0.841524,1.08989,235.108,248.669
2015-08-27 22:00,-0.0,253.81,256.294,244.626,258.865,258.224,247.551,-0.0,-0.0,233.085,246.929
2015-08-27 23:00,-0.201749,248.394,247.973,239.871,249.998,249.348,241.664,-0.070338,-0.128796,232.86,242.478
2015-08-28 00:00,-0.164158,255.521,255.23,243.79,257.55,256.18,245.905,-0.0512947,-0.0947011,231.315,245.345
2015-08-28 01:00,-0.00305643,247.601,244.598,238.04,246.135,244.973,238.278,-0.0,-0.0,228.312,238.85
2015-08-28 02:00,-0.0,249.89,248.38,239.871,249.368,248.121,240.354,-0.0,-0.0,229.007,241.475
2015-08-28 03:00,-0.00123759,259.045,259.373,246.399,261.971,260.942,247.415,-0.0,-0.0,230.835,246.595
2015-08-28 04:00,-0.0,242.013,239.799,235.173,240.152,238.747,233.661,-0.0,-0.0,227.601,234.996
2015-08-28 05:00,-0.00132112,254.396,254.509,243.65,257.17,255.045,245.211,-0.0,-0.0,231.709,244.53
2015-08-28 06:00,0.00152272,259.954,260.201,246.399,261.971,260.584,248.768,-0.0,-0.0,231.473,245.804
2015-08-28 07:00,-0.00194281,239.711,240.039,234.845,240.631,239.667,234.76,-0.0,-0.0,229.263,235.444
2015-08-28 08:00,-0.00293597,261.251,257.339,244.626,258.304,254.089,242.956,-0.0,-0.0,230.916,242.971
2015-08-28 09:00,-0.0,275.02,272.391,253.86,274.0,269.329,250.369,-0.0,-0.0,230.916,245.69
2015-08-28 10:00,0.399044,259.505,255.23,243.226,255.439,254.089,243.949,0.583593,0.677535,231.156,242.725
2015-08-28 12:00,0.695033,296.008,262.616,248.382,262.863,258.774,245.767,0.516668,0.61367,231.709,243.818
2015-08-28 13:00,0.324397,270.713,251.339,241.5,252.667,251.75,242.956,0.576201,0.651435,232.557,242.971
2015-08-28 14:00,0.200495,259.954,254.69,243.226,255.827,255.045,245.489,0.463668,0.528686,232.86,244.764
2015-08-28 15:00,0.482685,288.291,245.248,238.81,246.794,245.612,239.913,0.432177,0.504103,232.02,239.789
2015-08-28 16:00,0.49759,282.581,238.09,234.515,240.392,239.895,235.227,0.576219,0.653471,231.943,236.179
2015-08-28 17:00,0.461302,280.239,238.338,234.515,239.669,239.208,234.916,0.534682,0.617934,232.251,236.179
2015-08-28 18:00,0.324797,280.427,266.442,249.924,267.522,264.795,247.959,0.32406,0.421841,235.525,246.595
2015-08-28 19:00,0.472469,298.436,271.023,253.14,272.104,266.498,248.768,0.378254,0.495876,235.525,246.707
2015-08-28 20:00,0.939248,288.705,242.824,236.784,244.349,243.024,236.918,0.965673,1.14743,233.159,239.121
2015-08-28 21:00,1.21994,270.713,246.313,238.81,246.794,244.328,236.918,0.932501,1.33424,233.01,238.986
2015-08-28 22:00,-0.00702602,280.613,279.58,257.12,280.785,279.661,257.777,-0.0,-0.0,234.472,249.408
2015-08-28 23:00,-0.216671,282.753,282.448,259.244,285.34,284.349,260.34,-0.0728794,-0.131845,234.686,252.439
2015-08-29 00:00,-0.154388,246.775,241.913,235.985,242.049,240.802,234.916,-0.0496404,-0.090756,232.251,236.614
2015-08-29 01:00,-0.00152817,243.066,240.984,234.845,240.87,239.895,235.072,-0.0,-0.0,231.865,235.592
2015-08-29 02:00,-0.00132385,280.239,278.721,256.892,280.054,278.609,256.41,-0.0,-0.0,233.823,252.731
2015-08-29 03:00,-0.0,247.601,244.16,236.943,244.122,243.243,236.153,-0.0,-0.0,231.552,237.468
2015-08-29 04:00,-0.0,281.165,281.267,258.358,283.514,282.904,261.182,-0.0,-0.0,235.867,255.821
2015-08-29 05:00,-0.00132261,281.526,283.032,259.683,285.757,285.777,262.847,-0.0,-0.0,238.041,258.798
2015-08-29 06:00,-0.0015256,281.346,283.148,259.244,285.757,285.919,262.61,-0.0,-0.0,240.312,260.217
2015-08-29 07:00,-0.0,280.799,282.916,259.244,285.757,285.635,263.2,-0.0,-0.0,242.984,261.033
2015-08-29 08:00,-0.0,280.427,282.566,258.913,285.201,285.35,262.965,-0.0,-0.0,243.472,261.275
2015-08-29 09:00,-0.0,280.239,282.214,258.58,284.781,284.922,262.728,-0.0,-0.0,244.997,262.309
2015-08-29 11:00,0.55794,288.43,287.432,261.305,289.968,289.551,264.022,0.25463,0.475387,246.701,263.244
2015-08-29 12:00,0.521636,296.219,292.52,264.236,295.297,294.016,265.416,0.20598,0.403822,246.357,263.167
2015-08-29 13:00,0.39103,300.589,296.425,267.151,299.164,296.91,265.878,0.146984,0.302714,246.944,263.244
2015-08-29 14:00,0.323232,303.592,299.307,269.192,302.311,299.488,267.819,0.11603,0.24211,247.57,263.629
2015-08-29 15:00,0.280473,305.416,300.619,269.67,303.381,300.379,267.478,0.0994357,0.203648,247.283,263.476
2015-08-29 16:00,0.249995,305.798,300.898,270.05,303.736,300.125,267.251,0.0877086,0.181271,246.059,262.935
2015-08-29 17:00,0.238081,305.184,300.34,269.765,303.025,299.104,267.137,0.0894524,0.172757,246.456,262.779
2015-08-29 18:00,0.266015,303.346,296.815,267.838,299.531,295.865,265.069,0.143735,0.226154,245.151,261.834
2015-08-29 19:00,0.244786,301.302,297.397,268.227,300.141,297.04,265.993,0.150017,0.221237,244.269,261.675
2015-08-29 20:00,0.259432,297.649,295.343,267.151,298.055,295.471,265.069,0.236302,0.277786,243.953,261.194
2015-08-29 21:00,0.435753,292.889,292.005,264.849,294.661,292.948,265.416,0.525046,0.541438,244.842,261.275
2015-08-29 22:00,-0.0070433,289.381,290.123,263.825,292.989,291.871,265.069,-0.0,-0.0,245.048,261.993
2015-08-29 23:00,-0.178156,288.977,289.486,263.411,292.34,290.921,264.138,-0.070394,-0.134894,245.859,262.23
2015-08-30 00:00,-0.128984,287.871,288.736,262.89,291.292,290.375,264.605,-0.0479866,-0.0868117,246.896,262.935
2015-08-30 01:00,-0.00152815,286.864,287.978,262.155,290.367,289.551,264.138,-0.0,-0.0,247.949,263.09
2015-08-30 02:00,-0.001324,285.97,287.322,262.049,289.968,289.413,264.255,-0.0,-0.0,248.603,263.858
2015-08-30 03:00,-0.0,285.045,286.992,262.049,289.434,288.999,264.372,-0.0,-0.0,249.199,264.69
2015-08-30 04:00,-0.0,285.045,286.439,261.519,288.897,288.306,264.138,-0.0,-0.0,248.043,264.314
2015-08-30 05:00,-0.0,284.087,285.994,261.412,288.493,288.027,264.022,-0.0,-0.0,247.474,264.086
2015-08-30 06:00,-0.0,283.594,285.77,260.876,287.951,287.888,263.2,-0.0,-0.0,245.91,263.934
2015-08-30 07:00,-0.0,283.428,285.208,261.305,287.679,287.469,263.905,-0.0,-0.0,244.945,264.01
2015-08-30 08:00,-0.0,282.753,285.208,260.876,287.679,287.609,264.022,-0.0,-0.0,245.456,264.464
2015-08-30 09:00,-0.00707343,282.408,285.095,260.769,287.543,287.888,264.255,-0.0,-0.0,245.202,263.934
2015-08-30 10:00,0.511589,283.594,285.658,261.198,288.087,288.306,264.721,0.433162,0.51648,245.557,264.162
2015-08-30 11:00,0.567113,290.939,289.593,263.411,292.079,291.329,264.953,0.2583,0.458028,244.687,264.162
2015-08-30 12:00,0.520223,298.63,294.446,266.557,296.935,294.944,266.222,0.208438,0.389208,244.374,263.934
2015-08-30 13:00,0.397639,302.764,298.262,268.711,300.627,297.947,267.023,0.153573,0.299319,244.687,264.389
2015-08-30 14:00,0.332174,306.176,300.805,270.428,303.263,299.998,267.819,0.121792,0.241032,244.111,264.238
2015-08-30 15:00,0.289023,307.137,300.34,270.239,302.55,299.104,267.592,0.1142,0.211197,243.633,264.086
2015-08-30 16:00,0.258759,307.283,301.636,270.805,304.089,300.506,268.158,0.095561,0.187587,244.111,264.464
2015-08-30 18:00,0.261694,303.098,296.033,268.033,297.931,294.547,265.069,0.143286,0.216641,243.686,262.466
2015-08-30 19:00,0.325331,300.134,293.235,265.959,295.803,293.216,264.837,0.236106,0.314365,243.526,262.388
2015-08-30 20:00,0.297582,299.297,295.935,268.033,298.549,295.734,266.337,0.245332,0.296474,243.526,262.857
2015-08-30 21:00,0.215587,293.124,292.929,265.859,295.297,293.883,266.566,0.435281,0.401812,244.058,263.167
2015-08-30 22:00,-0.00706022,289.381,290.017,263.928,292.6,291.057,264.837,-0.0,-0.0,244.945,263.322
2015-08-30 23:00,-0.154462,289.247,290.017,264.031,292.6,291.6,265.532,-0.0679062,-0.12595,245.304,263.934
2015-08-31 00:00,-0.0508135,288.291,289.805,263.825,292.34,291.735,265.762,-0.0165476,-0.0335418,244.945,264.389
2015-08-31 01:00,-0.0,287.871,289.379,263.618,292.079,291.871,266.222,-0.0,-0.0,244.894,264.69
2015-08-31 02:00,-0.0,288.152,289.911,264.031,292.47,292.141,266.337,-0.0,-0.0,245.608,265.063
2015-08-31 03:00,-0.00123885,288.291,289.699,263.825,292.209,291.735,265.416,-0.0,-0.0,245.304,264.989
2015-08-31 04:00,-0.0,287.871,289.165,263.515,291.686,290.921,265.301,-0.0,0.00125118,245.099,264.989
2015-08-31 05:00,-0.00132583,287.444,288.736,263.203,290.897,290.511,265.647,-0.0,-0.0,244.635,264.615
2015-08-31 06:00,0.00153172,286.121,287.869,262.89,290.234,289.826,265.069,-0.0,-0.0,245.658,264.914
2015-08-31 07:00,-0.0,285.357,287.212,262.155,289.3,289.137,264.837,-0.0,-0.0,245.151,264.765
2015-08-31 08:00,-0.00299109,284.249,286.55,261.944,288.628,288.584,264.953,-0.0,-0.0,245.759,265.063
2015-08-31 09:00,-0.0,283.76,286.105,261.519,288.222,288.445,264.953,-0.0,-0.0,245.658,265.212
2015-08-31 10:00,0.567995,285.357,286.661,261.412,288.897,288.861,264.837,0.414126,0.557496,245.557,265.655
2015-08-31 11:00,0.603075,292.771,291.694,264.849,294.021,293.216,266.337,0.265131,0.487852,245.151,265.875
2015-08-31 12:00,0.546476,300.769,297.107,268.421,299.898,297.947,267.932,0.214755,0.412029,244.687,265.948
2015-08-31 13:00,0.428453,305.106,300.805,270.617,303.618,301.264,269.283,0.15862,0.308213,244.322,265.581
2015-08-31 14:00,0.355798,307.786,303.003,272.2,305.958,303.267,269.73,0.125001,0.250396,244.269,265.655
2015-08-31 15:00,0.301622,308.281,304.527,273.298,307.341,304.873,269.506,0.103314,0.211769,244.322,265.581
2015-08-31 16:00,0.27021,308.491,304.26,273.298,307.684,304.504,269.953,0.0905855,0.188324,243.899,265.36
2015-08-31 17:00,0.249857,307.355,303.634,272.568,306.536,303.515,269.618,0.0888773,0.177616,243.526,264.989
2015-08-31 18:00,0.246973,305.493,302.185,271.738,305.261,302.519,268.722,0.0957202,0.180855,243.526,264.69
2015-08-31 19:00,0.245543,302.511,300.153,270.428,302.788,300.506,268.834,0.121602,0.201118,244.058,264.615
2015-08-31 20:00,0.269148,298.533,297.397,268.904,300.263,298.463,267.932,0.19486,0.255969,244.269,264.914
2015-08-31 21:00,0.344713,293.356,293.944,266.358,296.433,295.471,267.932,0.472548,0.497154,244.739,265.507
2015-08-31 22:00,-0.0141536,290.301,291.591,264.95,294.149,293.617,266.795,-0.0,-0.0,245.405,266.094
2015-08-31 23:00,-0.142635,288.705,290.335,264.236,292.989,292.679,266.909,-0.0679323,-0.125998,245.859,266.239
