# timestamp,IR_016,IR_039,IR_087,IR_097,IR_108,IR_120,IR_134,VIS006,VIS008,WV_062,WV_073
2016-04-01 00:00,0.00221462,286.864,288.087,261.091,290.632,289.551,263.905,0.0,0.0,236.808,262.466
2016-04-01 01:00,0.0,286.271,285.77,259.464,287.815,286.202,261.062,0.0,0.0,234.897,259.97
2016-04-01 02:00,0.0,283.594,280.187,256.778,281.221,278.911,256.535,0.0,0.0,232.175,255.911
2016-04-01 03:00,0.0,277.026,271.711,251.429,271.464,269.0,250.369,0.0,0.0,231.552,251.652
2016-04-01 04:00,0.00137072,279.859,272.12,251.552,271.945,268.67,248.094,0.0,0.0,230.755,251.152
2016-04-01 05:00,-0.00148458,267.761,261.017,245.723,260.158,257.856,243.667,0.0,0.0,229.263,247.481
2016-04-01 06:00,0.0,270.151,256.644,242.656,253.867,250.357,236.765,0.0,0.0,225.643,239.922
2016-04-01 07:00,0.0,265.095,251.53,240.617,249.368,245.824,234.291,0.0,0.0,225.449,238.85
2016-04-01 08:00,0.0,262.475,246.313,237.101,243.667,239.667,229.781,0.0,0.0,223.538,233.928
2016-04-01 09:00,-0.0180347,249.89,235.8,232.834,233.041,230.429,225.185,-0.04581,-0.0364143,221.708,228.782
2016-04-01 10:00,0.414796,264.009,245.032,236.943,243.438,240.35,230.604,0.509251,0.572308,225.254,234.542
2016-04-01 11:00,0.296898,262.869,240.984,234.35,239.183,236.396,228.949,0.412268,0.440612,223.013,231.031
2016-04-01 12:00,0.22246,265.791,243.94,235.985,241.815,239.667,230.44,0.318372,0.335885,224.86,233.304
2016-04-01 13:00,0.116025,279.473,268.63,249.158,267.016,264.451,246.594,0.170279,0.156179,230.674,248.562
2016-04-01 14:00,0.0848197,275.932,264.482,247.2,262.863,260.225,244.932,0.137934,0.130485,228.835,244.175
2016-04-01 15:00,0.079705,278.279,265.696,246.934,265.482,262.361,244.652,0.127474,0.125171,229.601,247.59
2016-04-01 16:00,0.143737,268.686,254.328,241.061,252.465,250.156,239.618,0.216478,0.223445,226.685,236.9
2016-04-01 17:00,0.138302,275.48,259.373,244.21,257.17,254.855,241.664,0.183186,0.188008,229.769,242.354
2016-04-01 18:00,0.161183,281.346,267.764,248.512,267.016,263.933,246.457,0.193225,0.201391,231.156,248.133
2016-04-01 19:00,0.136867,292.414,285.77,258.691,287.951,285.777,261.062,0.156269,0.142362,236.94,259.135
2016-04-01 20:00,0.895897,299.297,278.598,255.393,281.655,280.702,259.735,0.725454,0.84855,238.919,260.708
2016-04-01 21:00,1.4542,286.864,274.785,252.899,277.978,278.004,258.882,0.968501,1.34278,238.919,260.052
2016-04-01 22:00,-0.0114851,273.831,275.306,253.02,278.128,278.004,259.005,0.0,-0.0115949,238.168,259.471
2016-04-01 23:00,-0.376411,275.932,276.208,253.381,278.873,278.609,258.882,-0.151765,-0.267816,236.609,258.967
2016-04-02 00:00,0.0,286.421,286.439,258.802,288.897,287.188,262.492,0.0,0.0,235.593,258.713
2016-04-02 01:00,-0.00170197,288.012,287.978,259.574,290.5,288.584,262.492,0.0,0.0,235.386,258.543
2016-04-02 02:00,0.0,288.43,288.628,259.464,291.292,289.413,263.083,0.0,0.0,234.968,257.855
2016-04-02 03:00,0.0,288.568,289.165,259.244,292.209,290.784,263.318,0.0,0.0,232.633,257.421
2016-04-02 04:00,-0.00137701,287.871,287.432,258.246,289.968,288.306,261.898,0.0,0.0,231.63,256.36
2016-04-02 05:00,0.0014924,284.73,284.642,256.089,286.585,284.636,260.219,0.0,0.0,232.175,256.628
2016-04-02 06:00,0.0,285.97,284.528,255.742,285.895,283.917,258.392,0.0,0.0,230.916,255.911
2016-04-02 07:00,0.0,280.427,273.997,249.669,274.778,272.405,251.159,0.0,0.0,229.685,251.252
2016-04-02 08:00,0.0,283.76,282.331,253.741,283.797,281.882,258.147,0.0,0.0,231.552,256.894
2016-04-02 09:00,0.0,275.251,267.033,245.04,266.508,264.279,247.006,-0.0488365,-0.0582301,226.685,245.345
2016-04-02 10:00,0.365243,279.081,272.391,248.382,273.057,270.798,250.896,0.423788,0.450676,228.835,252.925
2016-04-02 11:00,0.326747,284.087,271.848,247.859,272.582,270.96,251.944,0.348935,0.359588,229.348,253.69
2016-04-02 12:00,0.0744351,284.087,276.845,250.177,276.62,273.359,252.075,0.135999,0.11272,227.87,251.652
2016-04-02 13:00,0.211222,279.081,261.34,241.5,259.791,256.555,240.5,0.261082,0.283283,225.835,244.764
2016-04-02 14:00,0.1249,273.831,256.469,240.171,254.461,251.156,238.278,0.172844,0.173549,224.156,239.789
2016-04-02 15:00,0.103544,280.982,269.059,246.533,268.024,264.795,246.732,0.13899,0.135129,226.122,247.04
2016-04-02 16:00,0.172718,267.444,246.733,235.823,245.914,243.896,233.661,0.239791,0.261554,224.258,235.592
2016-04-02 17:00,0.176389,275.02,258.195,241.5,256.98,255.045,240.354,0.232705,0.245716,226.122,241.728
2016-04-02 18:00,0.218308,279.278,265.243,244.626,264.965,262.361,245.767,0.269841,0.284744,226.778,245.918
2016-04-02 19:00,0.289771,286.271,268.773,246.399,267.857,264.623,245.35,0.296171,0.311348,226.963,246.595
2016-04-02 20:00,0.558534,288.568,265.696,245.314,263.569,259.684,242.671,0.492156,0.560595,224.054,243.214
2016-04-02 21:00,0.965465,276.376,248.177,236.784,244.8,241.251,231.905,0.683692,0.948112,222.368,234.389
2016-04-02 22:00,-0.0116729,239.711,229.673,228.192,227.708,226.151,223.233,0.0,0.0,220.337,225.011
2016-04-02 23:00,-0.422008,255.521,245.463,234.515,244.349,241.921,233.819,-0.167968,-0.291311,225.643,235.74
2016-04-03 00:00,0.0,269.865,260.528,240.913,260.158,257.671,243.667,0.0,0.0,226.592,242.478
2016-04-03 01:00,-0.00341795,256.589,243.719,234.183,240.87,238.282,230.931,0.0,0.0,224.054,233.304
2016-04-03 02:00,0.0,254.966,244.598,234.35,244.122,242.805,233.819,0.0,0.0,226.685,236.614
2016-04-03 03:00,0.0,264.009,257.166,240.766,257.928,256.367,243.808,0.0,0.0,228.575,243.577
2016-04-03 04:00,-0.00138339,278.279,274.392,250.051,275.087,273.2,252.982,0.0,0.0,228.921,251.949
2016-04-03 05:00,-0.00150034,268.686,260.854,242.513,260.888,259.139,243.808,0.0,0.0,228.312,246.258
2016-04-03 06:00,-0.00177772,282.753,280.909,253.261,282.517,280.554,258.147,0.0,0.0,231.394,255.821
2016-04-03 07:00,-0.00239265,284.73,284.642,255.277,287.134,285.493,260.942,0.0,0.00241552,231.236,256.36
2016-04-03 08:00,0.0,278.684,278.101,251.676,280.054,278.609,257.158,0.0,0.0,229.517,251.85
2016-04-03 09:00,0.0,287.444,287.102,256.892,289.3,287.329,260.822,-0.0522708,-0.04155,229.601,252.925
2016-04-03 10:00,0.655557,277.661,273.732,250.051,276.315,276.169,257.034,0.880246,0.982709,229.935,253.213
2016-04-03 11:00,0.429104,280.05,272.796,249.414,274.778,274.147,255.658,0.573406,0.601184,230.101,253.213
2016-04-03 12:00,0.304079,279.081,265.394,245.177,265.826,264.106,247.823,0.422503,0.450639,228.048,246.707
2016-04-03 13:00,0.190547,286.121,275.823,250.681,277.678,276.323,256.41,0.215982,0.203229,229.517,250.34
2016-04-03 14:00,0.349685,282.059,273.599,249.924,276.315,275.551,256.285,0.435608,0.443652,230.348,250.544
2016-04-03 15:00,0.244516,284.087,279.213,253.14,281.943,280.998,259.005,0.273196,0.272302,230.916,252.537
2016-04-03 16:00,0.0456497,290.301,286.105,257.233,288.358,286.06,260.942,0.0654929,0.0499266,230.266,252.342
2016-04-03 17:00,0.0778316,291.563,284.869,256.434,287.407,285.35,261.182,0.0890226,0.0771971,231.394,253.213
2016-04-03 18:00,0.147981,291.563,286.105,257.572,288.628,286.907,261.66,0.163018,0.152608,231.236,253.785
2016-04-03 19:00,0.14875,294.491,286.661,257.572,288.763,286.485,260.942,0.153934,0.141829,231.943,253.595
2016-04-03 20:00,0.372256,296.114,287.651,258.469,290.234,288.306,262.492,0.328892,0.323527,231.63,254.349
2016-04-03 21:00,0.70382,290.429,286.992,258.246,289.835,287.888,262.017,0.537067,0.614054,231.865,254.256
2016-04-03 22:00,-0.0237343,285.512,285.994,257.91,288.897,287.329,262.017,0.0,0.0,232.633,254.536
2016-04-03 23:00,-0.32664,287.587,287.432,258.358,290.234,288.445,262.373,-0.156721,-0.289459,232.481,254.162
2016-04-04 00:00,0.0,286.569,286.992,258.358,289.835,287.888,262.492,0.0,0.00226662,232.709,253.974
2016-04-04 01:00,-0.00171609,284.249,285.321,257.233,288.087,286.767,262.255,0.0,0.0,232.935,254.629
2016-04-04 02:00,-0.00147503,287.01,287.76,258.469,290.5,288.722,262.965,0.0,0.0,233.456,254.814
2016-04-04 03:00,-0.00138006,286.569,286.882,258.691,289.701,288.027,262.136,0.0,0.0,234.113,254.722
2016-04-04 04:00,-0.00138987,280.799,281.86,255.974,284.921,283.629,260.701,0.0,0.0,234.968,254.349
2016-04-04 05:00,0.0,276.155,277.977,254.336,281.51,280.702,259.735,0.0,0.0,235.247,255.091
2016-04-04 06:00,-0.00178936,286.864,287.322,259.244,290.234,288.584,262.728,0.0,0.0,235.799,255.821
2016-04-04 07:00,-0.00482761,286.717,287.102,259.024,289.701,288.167,262.492,0.0,0.0,236.071,257.07
2016-04-04 08:00,0.0,287.444,288.087,259.244,290.897,289.137,263.083,0.0,0.0,236.475,256.894
2016-04-04 09:00,-0.0221245,284.249,284.071,257.346,286.31,284.922,261.301,-0.13113,-0.11168,237.333,257.246
2016-04-04 10:00,0.823836,282.234,276.718,253.501,279.318,278.911,259.127,0.889777,1.01508,237.333,256.982
2016-04-04 11:00,0.202664,291.19,285.994,258.358,288.358,286.767,262.136,0.245137,0.210448,237.268,257.333
2016-04-04 12:00,0.155191,292.053,286.55,258.802,289.032,287.329,262.136,0.190529,0.168425,237.203,256.982
2016-04-04 13:00,0.016849,289.113,288.52,260.228,291.16,289.137,263.2,0.0674393,0.0417519,236.808,256.894
2016-04-04 14:00,0.0387632,290.041,288.087,259.793,290.897,289.413,262.965,0.072432,0.0539776,236.609,257.333
2016-04-04 15:00,0.0163557,289.514,288.843,260.337,291.686,290.238,263.2,0.0426104,0.0266734,236.542,257.595
2016-04-04 16:00,0.0113957,289.381,288.951,260.661,291.817,290.101,263.553,0.0375227,0.0217309,236.675,257.682
2016-04-04 17:00,0.0231821,290.171,288.843,260.661,291.686,290.101,264.022,0.0473388,0.0330406,237.528,258.372
2016-04-04 18:00,0.133474,291.931,286.882,259.574,289.568,288.306,262.847,0.143956,0.137959,237.398,258.114
2016-04-04 19:00,0.171168,293.816,287.76,260.011,290.5,288.861,262.847,0.17985,0.172804,236.742,258.028
2016-04-04 20:00,0.442092,296.427,287.102,259.793,290.101,288.445,262.965,0.401641,0.420256,236.874,258.543
2016-04-04 21:00,0.559229,289.91,287.541,259.902,290.101,288.584,263.318,0.509921,0.573261,237.203,258.372
2016-04-04 22:00,-0.0120683,288.012,288.087,259.902,290.897,289.276,262.965,0.0,-0.0121837,238.041,258.114
2016-04-04 23:00,-0.460174,288.43,288.52,260.119,291.292,289.551,262.965,-0.182445,-0.313402,238.231,258.2
2016-04-05 00:00,-0.00225568,288.291,288.52,260.119,291.423,289.413,263.67,0.0,0.0,238.231,258.286
2016-04-05 01:00,0.0,288.43,288.951,260.119,291.817,289.964,263.553,0.0,0.0,238.104,258.114
2016-04-05 02:00,0.0,288.291,288.628,260.337,291.423,289.689,263.553,0.0,0.0,237.721,257.682
2016-04-05 03:00,-0.00138603,282.234,281.148,256.892,284.781,282.758,260.701,0.0,0.0,237.785,256.805
2016-04-05 04:00,0.0,280.982,280.429,256.089,283.514,281.882,260.34,0.0,0.0,238.357,257.421
2016-04-05 05:00,-0.00151654,281.883,281.978,256.778,285.479,282.904,260.581,0.0,0.0,238.608,257.246
2016-04-05 06:00,-0.00180115,287.587,288.195,259.574,291.16,289.276,262.965,0.0,0.0,238.671,258.028
2016-04-05 07:00,0.0,287.871,287.869,259.354,290.764,288.722,262.847,0.0,0.0,238.42,257.942
2016-04-05 08:00,0.0,288.43,288.951,260.011,291.817,290.101,263.553,0.0,0.0,238.231,257.769
2016-04-05 09:00,-0.0239089,288.012,288.412,260.228,291.423,289.826,263.436,-0.141705,-0.144825,238.041,257.855
2016-04-05 10:00,0.222553,288.977,286.992,259.134,289.701,287.888,263.318,0.339184,0.295295,238.231,257.508
2016-04-05 11:00,0.393469,288.152,277.727,254.69,280.201,280.108,260.219,0.401239,0.411728,237.528,256.539
2016-04-05 12:00,0.16991,294.268,282.448,257.346,285.061,283.629,261.062,0.194541,0.175433,237.785,256.716
2016-04-05 13:00,0.094669,290.939,284.3,258.246,286.585,285.35,261.779,0.130577,0.112531,236.94,256.805
2016-04-05 14:00,0.0266728,289.514,287.978,260.553,290.5,288.999,263.553,0.0609762,0.0444308,235.936,256.805
2016-04-05 16:00,0.0164371,289.381,288.195,260.661,290.764,288.861,263.2,0.0417519,0.0268061,234.401,256.628
2016-04-05 17:00,0.016343,289.647,288.736,261.091,291.423,289.551,263.553,0.0403597,0.0261238,234.756,256.716
2016-04-05 18:00,0.0507794,291.315,288.736,260.984,291.292,289.413,263.67,0.0752409,0.0560709,233.603,256.628
2016-04-05 19:00,0.247039,290.939,284.528,259.244,286.86,285.493,262.373,0.268432,0.274341,234.185,256.45
2016-04-05 20:00,0.302407,293.124,287.432,260.337,289.701,288.027,263.436,0.302354,0.289058,234.968,257.246
2016-04-05 21:00,1.04796,290.171,284.982,259.134,287.407,286.202,262.492,0.757453,0.954756,235.108,257.769
2016-04-05 22:00,0.0,288.152,288.303,260.769,290.632,288.584,263.436,0.0,0.0,235.178,258.114
2016-04-05 23:00,-0.396946,287.3,286.439,260.119,288.628,287.048,262.61,-0.168047,-0.307977,235.455,257.682
2016-04-06 00:00,0.0,288.705,288.303,260.661,290.5,288.722,263.436,0.0,0.0,235.867,257.769
2016-04-06 01:00,-0.00173068,283.76,283.148,257.798,285.34,284.205,262.017,0.0,-0.00174722,235.662,257.333
2016-04-06 02:00,-0.00148737,278.883,278.845,255.626,281.51,280.85,260.581,0.0,0.0,233.823,256.716
2016-04-06 03:00,0.0,284.57,283.032,258.134,285.895,284.492,261.779,0.0,0.0,232.709,255.821
2016-04-06 04:00,0.0,283.76,283.264,258.022,285.618,284.061,261.66,0.0,0.0,232.328,255.183
2016-04-06 05:00,-0.00152481,277.026,278.226,255.16,280.785,280.406,260.822,0.0,0.0,234.543,256.271
2016-04-06 06:00,0.00181311,276.811,277.727,254.926,280.347,279.81,260.098,0.0,0.0,235.386,255.911
2016-04-06 07:00,0.0,282.059,281.029,256.664,283.372,282.467,260.942,0.0,0.0,235.731,256.091
2016-04-06 08:00,0.0,284.57,283.841,258.246,286.447,284.779,261.66,0.0,0.0,237.137,256.36
2016-04-06 09:00,-0.0259893,288.012,287.978,260.876,290.234,288.167,263.2,-0.176041,-0.131189,237.072,256.716
2016-04-06 10:00,0.374201,288.568,282.799,257.91,285.34,283.773,261.301,0.443569,0.428148,237.268,256.181
2016-04-06 11:00,0.0284956,288.977,288.412,261.519,290.897,288.861,263.553,0.120636,0.0690433,236.207,256.539
2016-04-06 12:00,0.119161,291.809,283.611,259.464,286.31,284.636,261.54,0.159477,0.131942,236.071,256.36
2016-04-06 13:00,0.312062,285.512,278.598,255.742,281.076,280.702,260.822,0.3596,0.37037,236.408,256.091
2016-04-06 14:00,0.300741,285.357,279.702,256.892,282.517,281.882,261.062,0.34252,0.346606,235.867,256.805
2016-04-06 15:00,0.248265,281.883,278.721,255.51,281.221,280.85,260.581,0.315308,0.315196,236.408,256.982
2016-04-06 16:00,0.111116,285.045,280.789,257.12,282.946,282.321,261.301,0.142192,0.133849,235.662,256.982
2016-04-06 17:00,0.180914,287.01,280.066,256.892,282.66,282.175,261.54,0.19349,0.192256,234.615,256.716
2016-04-06 18:00,0.0681469,292.174,288.303,261.731,290.367,288.584,263.787,0.084537,0.0671984,234.257,256.805
2016-04-06 19:00,0.168524,294.933,288.195,261.838,290.764,288.999,263.553,0.16531,0.147312,234.615,257.421
2016-04-06 20:00,0.404137,296.738,288.303,262.049,290.632,288.722,264.255,0.355761,0.346476,234.615,257.158
2016-04-06 21:00,0.666628,291.44,287.432,261.198,289.701,287.888,263.2,0.528709,0.587811,234.401,257.246
2016-04-06 22:00,-0.0249862,287.444,287.322,261.305,289.434,287.748,263.318,0.0,-0.0126125,234.401,257.158
2016-04-06 23:00,-0.451293,288.291,288.303,261.838,290.632,288.584,263.787,-0.191054,-0.339838,234.827,257.246
2016-04-07 00:00,0.0,288.291,288.195,261.305,290.5,288.722,263.905,0.0,0.0,235.038,257.158
2016-04-07 01:00,-0.00173814,285.512,284.869,259.683,287.815,286.06,262.61,0.0,0.0,235.593,257.333
2016-04-07 02:00,0.0,288.152,288.303,261.625,290.897,288.861,263.553,0.0,0.0,235.525,257.421
2016-04-07 03:00,-0.00139823,288.152,288.303,261.412,290.764,288.861,263.553,0.0,0.0,236.004,257.769
2016-04-07 04:00,0.0,288.152,288.303,261.305,290.764,289.137,263.67,0.0,0.0,236.609,258.286
2016-04-07 05:00,0.0,287.729,287.978,261.198,290.5,288.722,263.318,0.0,0.0,237.203,258.628
2016-04-07 06:00,0.0,287.3,287.651,260.876,290.101,288.445,263.2,0.0,0.0,237.657,258.882
2016-04-07 07:00,0.0,287.587,286.661,260.119,289.032,287.188,262.61,0.0,0.0,238.294,259.051
2016-04-07 08:00,-0.00437729,287.729,287.869,260.876,290.5,288.722,263.318,0.0,0.0,238.483,259.471
2016-04-07 09:00,-0.0568892,288.291,288.412,261.305,291.16,289.551,263.787,-0.216756,-0.201016,238.919,259.97
2016-04-07 10:00,0.0734471,288.841,288.52,261.305,290.897,289.137,263.67,0.222839,0.142119,238.608,259.638
2016-04-07 11:00,0.0141388,288.841,288.736,261.412,291.16,289.551,263.787,0.110136,0.057096,238.546,259.554
2016-04-07 12:00,0.0114802,288.841,288.628,261.519,291.292,289.964,264.022,0.076142,0.0386331,238.546,259.554
2016-04-07 13:00,0.0303546,289.91,288.412,261.305,291.16,289.551,263.905,0.0732483,0.0490316,238.546,259.887
2016-04-07 14:00,0.0677222,289.647,287.978,260.876,290.367,288.861,264.138,0.09894,0.0817754,238.294,260.135
2016-04-07 15:00,0.00751109,288.977,288.195,261.198,290.632,288.861,263.905,0.0381578,0.0214849,238.546,259.97
2016-04-07 16:00,0.0126104,289.381,288.412,261.305,290.764,288.999,263.787,0.0363025,0.0229157,237.528,259.721
2016-04-07 17:00,0.0135867,289.779,289.165,261.731,291.686,289.964,264.488,0.0379625,0.0233181,237.137,260.052
2016-04-07 18:00,0.0300741,291.19,288.951,261.519,291.686,289.964,264.255,0.0562881,0.0399494,234.543,258.713
2016-04-07 19:00,0.0800191,292.771,289.058,261.305,291.686,290.101,264.138,0.109446,0.0890696,234.543,258.372
2016-04-07 20:00,0.386953,294.933,286.992,260.337,289.568,287.888,264.138,0.35471,0.364824,235.867,257.942
2016-04-07 21:00,0.718833,293.007,288.52,260.769,291.029,289.137,263.787,0.54494,0.607567,237.977,258.798
2016-04-07 22:00,0.0,286.864,286.772,259.683,289.3,287.748,263.2,0.0,0.0,239.653,258.713
2016-04-07 23:00,-0.379772,287.871,288.087,259.793,290.5,288.861,263.787,-0.179691,-0.330779,240.782,259.887
2016-04-08 00:00,-0.0022883,287.587,288.087,259.902,290.764,288.999,263.787,0.0,0.0,240.607,259.887
2016-04-08 01:00,-0.00174572,288.152,288.736,260.445,291.16,289.276,264.022,0.0,0.0,241.986,261.275
2016-04-08 02:00,0.00150007,288.568,289.165,260.337,291.817,290.101,264.605,0.0,0.0,242.544,262.23
2016-04-08 03:00,0.0,288.012,288.412,260.119,291.029,289.413,263.553,0.0,0.0,242.266,262.072
2016-04-08 04:00,0.0,286.121,286.217,258.802,288.358,287.048,262.728,0.0,0.0,242.099,261.914
2016-04-08 05:00,0.0,282.753,283.032,257.459,285.757,285.065,262.61,0.0,0.00155639,240.253,261.033
2016-04-08 06:00,0.0,285.97,286.55,258.802,289.032,287.609,263.553,0.0,0.00185505,239.653,261.194
2016-04-08 07:00,-0.00250186,288.291,288.52,259.902,290.5,288.445,263.553,0.0,0.0,239.104,260.545
2016-04-08 08:00,-0.0044455,287.587,287.322,259.902,289.835,287.888,262.136,0.0,0.0,238.483,260.052
2016-04-08 09:00,-0.0941511,288.291,288.087,260.119,290.234,288.445,262.847,-0.265725,-0.25347,238.483,260.135
2016-04-08 10:00,0.0841408,289.113,288.195,260.119,290.632,288.722,263.083,0.223903,0.14562,236.742,259.721
2016-04-08 11:00,0.126299,290.171,287.541,259.793,290.101,288.445,263.2,0.180604,0.141673,234.257,258.286
2016-04-08 12:00,0.192407,291.315,285.658,258.913,288.358,287.048,262.61,0.216139,0.205786,233.53,257.942
2016-04-08 13:00,0.0438869,290.301,287.869,260.337,290.5,288.584,263.553,0.0832873,0.0580567,234.257,257.855
2016-04-08 14:00,0.0450553,289.779,287.76,260.228,290.367,288.584,263.318,0.0762966,0.0575265,234.615,257.942
2016-04-08 15:00,0.0299979,289.381,287.651,260.228,290.234,288.445,262.847,0.0518567,0.0353321,235.731,257.942
2016-04-08 16:00,0.0604545,288.841,286.55,259.683,288.897,287.188,262.965,0.0778465,0.06739,235.867,257.246
2016-04-08 17:00,0.0352858,289.779,285.546,259.024,287.815,286.202,262.373,0.0551564,0.0438438,237.203,257.421
2016-04-08 18:00,0.0284572,290.813,288.52,260.553,290.897,288.999,263.318,0.0548823,0.0383057,238.357,258.2
2016-04-08 19:00,0.0675996,292.174,288.628,260.337,290.897,288.861,263.318,0.0988631,0.0785862,238.857,259.051
2016-04-08 20:00,0.226395,294.491,288.412,260.119,290.632,288.722,262.965,0.232186,0.206025,238.168,259.135
2016-04-08 21:00,0.372619,291.315,287.978,259.793,290.234,288.167,262.373,0.350551,0.351102,0.0,259.051
2016-04-08 22:00,-0.0129515,274.314,275.694,252.777,277.978,277.853,259.005,0.0,0.0,238.608,258.114
2016-04-08 23:00,-0.509708,282.234,280.429,255.742,282.946,281.735,259.856,-0.203091,-0.348098,238.671,257.508
2016-04-09 00:00,-0.00919815,281.165,280.669,255.626,283.23,281.882,259.977,0.0,-0.00464304,240.134,258.2
2016-04-09 01:00,-0.00175342,282.753,282.096,255.974,284.781,283.339,261.062,0.0,-0.00177018,241.073,258.457
2016-04-09 02:00,-0.00150656,286.421,285.095,257.346,287.134,285.208,261.301,0.0,0.0,240.957,258.798
2016-04-09 03:00,-0.00141076,277.661,277.098,253.381,279.76,278.911,259.37,0.0,0.0,241.073,258.967
2016-04-09 04:00,0.0,277.661,276.463,253.381,279.318,278.609,259.249,0.0,0.0,240.312,258.457
2016-04-09 05:00,0.0,287.155,287.322,258.913,289.968,288.167,263.2,0.0,0.0,239.714,259.22
2016-04-09 06:00,-0.0018499,288.152,288.303,259.793,290.897,288.999,262.965,0.0,0.0,238.546,259.387
2016-04-09 07:00,0.0,288.012,287.869,259.354,290.367,288.584,263.2,0.0,0.00254884,237.203,258.967
2016-04-09 08:00,0.00451542,287.871,288.195,259.574,290.632,288.999,262.847,0.0,0.0,236.071,258.628
2016-04-09 09:00,-0.104888,287.871,287.541,259.902,289.968,288.027,262.492,-0.266425,-0.247078,235.178,258.114
2016-04-09 10:00,0.0413333,288.841,287.76,259.574,290.5,288.584,262.373,0.204982,0.119224,234.968,258.2
2016-04-09 11:00,0.306477,289.91,281.978,256.205,284.079,282.758,260.34,0.353855,0.36285,235.317,258.114
2016-04-09 12:00,0.331961,288.568,279.336,254.926,281.221,280.406,259.977,0.428834,0.465358,234.615,258.2
2016-04-09 13:00,0.0739456,290.939,287.432,259.793,290.101,288.445,262.373,0.107331,0.0883641,234.543,258.372
2016-04-09 14:00,0.0436433,289.381,288.195,260.337,290.897,289.137,263.553,0.0739055,0.0520715,234.827,257.942
2016-04-09 15:00,0.0399378,289.514,287.76,260.337,290.632,288.999,263.083,0.0634037,0.0478795,235.455,258.457
2016-04-09 16:00,0.0289333,289.779,288.303,260.769,291.16,289.413,263.553,0.0511258,0.0393698,235.038,258.713
2016-04-09 17:00,0.0393151,290.429,288.52,260.984,291.292,289.964,264.138,0.0573931,0.0437969,235.525,258.713
2016-04-09 18:00,0.0631656,291.809,288.628,261.198,291.292,289.826,263.905,0.0802234,0.0653637,234.897,258.114
2016-04-09 19:00,0.171802,294.823,288.195,261.091,290.897,289.137,263.67,0.176636,0.16725,235.038,258.457
2016-04-09 20:00,0.372003,297.248,288.628,261.412,291.292,289.826,263.67,0.325743,0.324201,234.257,258.028
2016-04-09 21:00,0.590683,292.174,288.951,261.519,291.817,290.101,264.372,0.479291,0.505224,233.234,257.333
2016-04-09 22:00,-0.0263893,287.587,287.76,260.984,290.632,288.999,263.2,0.0,0.0,232.935,257.246
2016-04-09 23:00,-0.422567,288.012,288.087,261.305,290.897,289.276,263.787,-0.182088,-0.323764,232.02,256.716
2016-04-10 00:00,-0.159456,287.871,287.432,260.661,289.835,287.888,262.847,-0.062614,-0.116653,231.943,255.821
2016-04-10 01:00,-0.00176123,287.871,288.412,261.305,291.16,289.413,263.553,0.0,0.0,231.394,256.001
2016-04-10 02:00,0.0,286.271,286.661,260.228,289.3,287.888,262.728,0.0,0.0,231.236,255.73
2016-04-10 03:00,0.0,286.271,285.994,259.793,288.628,286.767,261.54,0.0,0.0,230.916,254.536
2016-04-10 04:00,-0.00143056,287.444,287.541,260.876,290.367,288.722,262.61,0.0,0.0,231.552,255.73
2016-04-10 05:00,0.0,284.57,283.495,258.134,286.033,284.205,261.421,0.0,0.0,231.473,255.183
2016-04-10 06:00,0.0,287.587,287.212,260.445,289.835,287.748,262.847,0.0,0.0,231.394,255.183
2016-04-10 07:00,-0.00254786,286.421,285.77,259.683,288.358,286.343,261.421,0.0,0.0,231.943,255.548
2016-04-10 08:00,0.00458706,282.581,281.505,257.572,283.938,282.758,260.701,0.0,0.0,231.865,255.457
2016-04-10 09:00,-0.315299,286.569,286.661,259.902,288.628,286.907,262.255,-0.400445,-0.437681,231.943,255.457
2016-04-10 10:00,0.0870664,288.841,287.978,261.305,290.632,288.722,263.2,0.226072,0.146498,232.251,255.73
2016-04-10 11:00,0.0359621,289.113,288.195,261.305,290.764,288.861,262.965,0.117112,0.0698191,232.481,256.091
2016-04-10 12:00,0.0566719,290.813,287.432,260.769,290.234,288.306,262.61,0.105565,0.0762849,233.308,256.628
2016-04-10 13:00,0.0376245,289.779,287.541,260.984,290.234,288.445,262.492,0.0802787,0.0546973,233.308,256.894
2016-04-10 14:00,0.0554395,289.647,286.992,260.661,289.568,287.609,262.255,0.0838224,0.0666304,233.159,257.07
2016-04-10 15:00,0.0348958,288.977,287.541,261.198,289.968,288.167,262.61,0.0601476,0.0427785,233.382,257.158
2016-04-10 16:00,0.0829314,288.568,285.095,259.464,287.27,285.208,261.301,0.113838,0.100215,233.896,256.805
2016-04-10 17:00,0.192312,283.76,276.591,254.926,278.873,278.609,259.735,0.207551,0.216026,234.543,256.716
2016-04-10 18:00,0.33914,289.647,278.226,255.626,280.639,280.108,260.098,0.329888,0.348752,234.257,256.982
2016-04-10 19:00,0.287942,295.476,282.448,258.358,284.501,283.339,260.822,0.271465,0.286571,234.041,257.508
2016-04-10 20:00,0.447044,296.008,285.77,260.228,287.951,285.919,262.017,0.405356,0.403305,234.615,257.246
2016-04-10 21:00,0.276384,287.3,285.658,260.011,287.815,286.202,262.373,0.351021,0.32006,234.968,258.114
2016-04-10 22:00,-0.0134481,288.291,288.52,262.155,291.292,289.413,263.318,0.0,0.0,235.593,258.967
2016-04-10 23:00,-0.486204,287.444,287.76,261.412,290.5,288.999,263.436,-0.19297,-0.337461,235.386,258.798
2016-04-11 00:00,-0.260128,287.587,287.76,261.305,290.234,288.722,263.787,-0.100292,-0.182892,235.108,258.713
2016-04-11 01:00,-0.00353831,288.152,288.52,261.625,291.029,289.137,263.083,0.0,0.0,235.247,258.2
2016-04-11 02:00,-0.00151981,287.587,287.76,260.984,290.234,288.167,262.847,0.0,0.0,235.593,257.942
2016-04-11 03:00,0.00142362,287.01,287.432,260.661,289.968,288.167,262.847,0.0,0.0,235.525,258.457
2016-04-11 04:00,0.0,288.152,288.303,261.305,291.16,289.413,262.965,0.0,0.0,236.341,258.713
2016-04-11 05:00,0.0,288.291,288.736,261.198,291.686,290.101,263.436,0.0,0.0,235.525,258.114
2016-04-11 06:00,0.0,286.421,287.212,260.228,290.234,288.861,263.318,0.0,0.0,235.799,258.028
2016-04-11 07:00,-0.00257133,287.01,287.76,260.228,290.632,288.999,263.083,0.0,0.0,235.731,258.457
2016-04-11 08:00,0.00466043,279.667,279.213,255.16,281.655,280.998,260.219,0.0,-0.00470498,236.341,258.114
2016-04-11 09:00,-0.315632,277.661,278.721,254.926,281.076,280.85,259.977,-0.572668,-0.637298,235.867,257.246
2016-04-11 10:00,0.239769,289.514,285.208,258.246,287.951,286.343,261.779,0.309352,0.270878,236.341,257.246
2016-04-11 11:00,0.37086,292.771,281.624,256.434,284.361,282.904,260.219,0.367504,0.368858,235.386,256.36
2016-04-11 12:00,0.248351,291.19,283.032,256.778,285.479,284.349,260.822,0.288336,0.286814,236.071,256.628
2016-04-11 13:00,0.0615412,290.171,287.322,259.683,290.101,288.306,262.373,0.0978592,0.0787984,236.475,257.07
2016-04-11 14:00,0.187092,290.041,283.726,257.572,286.31,284.779,260.461,0.211957,0.199521,236.675,256.982
2016-04-11 15:00,0.0634732,288.291,282.448,257.572,285.061,283.629,260.701,0.075872,0.0603106,236.408,256.805
2016-04-11 16:00,0.0715447,288.012,282.214,257.12,284.781,283.339,260.581,0.0850201,0.0760302,236.274,257.421
2016-04-11 17:00,0.166417,290.301,283.38,258.022,286.172,284.349,261.421,0.166108,0.158447,235.525,257.246
2016-04-11 18:00,0.133936,293.007,286.772,259.902,289.3,287.329,262.373,0.13475,0.119309,235.867,257.508
2016-04-11 19:00,0.169245,294.602,287.541,260.337,289.968,288.027,262.61,0.17265,0.158512,235.386,257.333
2016-04-11 20:00,0.429987,295.796,286.105,259.464,288.628,286.907,262.017,0.388162,0.395795,234.257,257.158
2016-04-11 21:00,0.201385,288.291,287.212,260.553,289.701,288.027,263.083,0.238718,0.23584,233.823,256.894
2016-04-11 22:00,0.0,278.684,272.931,251.552,272.741,270.798,251.291,0.0,0.0,228.921,247.04
2016-04-11 23:00,-0.432172,285.97,284.755,258.58,286.86,284.636,260.219,-0.18134,-0.335915,231.236,255.275
2016-04-12 00:00,-0.224099,286.421,285.321,259.024,287.815,285.919,261.421,-0.0988253,-0.183821,230.835,255.548
2016-04-12 01:00,-0.0035544,279.473,278.845,255.277,280.931,279.661,258.76,0.0,0.0,231.076,254.349
2016-04-12 02:00,-0.00152657,285.045,284.755,258.358,287.27,285.493,261.301,0.0,0.0,231.865,255.911
2016-04-12 03:00,0.0,286.121,284.642,258.022,287.134,284.636,259.492,0.0,0.0,230.101,253.974
2016-04-12 04:00,-0.00144478,280.613,281.148,256.32,283.514,282.321,260.34,0.0,0.0,230.348,253.69
2016-04-12 05:00,0.0,288.012,287.432,259.793,290.101,287.748,261.779,0.0,0.0,230.184,253.5
2016-04-12 06:00,-0.00188797,287.871,286.882,259.354,289.434,287.048,261.66,0.0,0.0,230.266,254.068
2016-04-12 07:00,0.0025951,278.279,273.199,251.429,273.372,271.605,252.335,0.0,0.0,227.055,244.998
2016-04-12 08:00,0.0,285.665,284.755,258.134,287.407,285.493,261.182,0.0,0.0,231.552,254.256
2016-04-12 09:00,0.0,281.883,281.267,255.858,283.938,282.613,260.34,-0.400673,-0.318494,231.709,254.536
2016-04-12 10:00,0.213468,287.444,283.726,256.778,285.757,284.061,260.942,0.337704,0.283564,231.156,253.785
2016-04-12 11:00,0.0545703,288.705,286.105,258.358,288.358,285.919,261.062,0.133993,0.0853925,230.916,253.595
2016-04-12 12:00,0.089955,288.43,281.742,256.205,284.22,282.613,260.34,0.133288,0.109735,231.394,253.595
2016-04-12 13:00,0.124265,289.647,280.187,255.51,282.374,281.146,259.37,0.147047,0.13301,231.63,253.5
2016-04-12 14:00,0.0118368,288.152,286.661,258.913,288.763,286.485,261.301,0.0456567,0.0265555,232.405,253.785
2016-04-12 15:00,0.0559325,288.152,285.546,258.469,287.951,286.202,261.062,0.0757727,0.0639961,233.456,254.068
2016-04-12 16:00,0.0213158,288.977,286.661,259.024,289.434,287.048,261.54,0.0445893,0.0303806,233.234,254.068
2016-04-12 17:00,0.054069,288.841,285.882,258.134,288.493,286.343,261.421,0.0743928,0.0627738,234.401,254.629
2016-04-12 18:00,0.135373,289.91,284.642,257.346,287.134,285.635,261.54,0.158602,0.158915,236.004,255.366
2016-04-12 19:00,0.246373,289.647,282.799,256.089,285.34,283.629,260.822,0.272391,0.283673,236.94,255.73
2016-04-12 20:00,0.400424,287.587,281.86,255.742,284.22,283.194,260.219,0.448492,0.47428,237.528,255.911
2016-04-12 21:00,0.127732,289.113,287.76,259.134,290.101,288.027,262.255,0.270375,0.209548,237.333,255.911
2016-04-12 22:00,-0.0139885,285.97,285.882,258.022,288.628,286.907,262.017,0.0,0.0,237.721,256.36
2016-04-12 23:00,-0.454429,287.587,287.212,258.58,289.835,287.748,262.017,-0.195643,-0.361576,238.671,256.628
2016-04-13 00:00,-0.293295,288.291,287.978,258.58,290.764,288.722,262.728,-0.111253,-0.189503,238.42,256.805
2016-04-13 01:00,-0.00357072,288.152,288.087,258.802,291.029,289.137,262.847,0.0,0.0,238.357,257.158
2016-04-13 02:00,-0.00153341,287.871,287.978,259.134,290.764,288.861,262.492,0.0,0.0,238.671,256.716
2016-04-13 03:00,-0.00143678,288.152,287.869,259.134,290.764,288.861,262.61,0.0,0.0,236.675,255.548
2016-04-13 04:00,0.0,286.569,286.328,258.469,289.3,287.329,262.492,0.0,0.0,236.139,255.457
2016-04-13 05:00,0.0,287.587,287.322,259.024,290.101,287.748,262.255,0.0,0.0,236.071,254.536
2016-04-13 06:00,-0.00190093,284.73,284.185,257.346,286.86,285.065,261.301,0.0,0.0,234.968,254.349
2016-04-13 07:00,0.00261916,285.818,284.755,257.685,287.27,284.922,260.581,0.0,0.0,235.386,253.785
2016-04-13 08:00,0.00481245,284.57,283.148,256.892,285.895,283.629,260.822,0.0,0.0,233.823,253.5
2016-04-13 09:00,-0.188711,287.01,286.328,258.246,288.763,286.485,261.182,-0.639125,-0.50804,231.63,252.342
2016-04-13 10:00,0.0442446,287.587,285.882,257.91,288.493,285.635,260.34,0.191992,0.111669,231.156,251.252
2016-04-13 11:00,0.233105,287.587,281.267,254.926,283.23,280.998,258.515,0.30753,0.306481,229.852,249.825
2016-04-13 12:00,0.0429391,285.818,280.187,254.217,280.931,277.396,254.773,0.112231,0.0772753,227.78,247.481
2016-04-13 13:00,0.153826,286.121,277.601,251.922,278.725,276.784,255.784,0.203586,0.203544,228.312,249.198
2016-04-13 14:00,0.074838,286.271,280.669,253.501,282.517,280.257,256.41,0.108944,0.0941103,227.601,248.562
2016-04-13 15:00,0.224691,259.505,233.666,231.098,231.957,230.17,225.883,0.365776,0.392269,221.031,227.136
2016-04-13 16:00,0.220464,253.206,237.339,231.45,237.2,236.635,231.419,0.416817,0.461583,225.352,232.347
2016-04-13 17:00,0.15396,280.239,259.039,241.791,256.598,252.732,237.676,0.189819,0.201789,225.546,238.303
2016-04-13 18:00,0.179271,276.811,264.175,244.488,263.217,260.764,246.182,0.231677,0.242901,227.329,241.854
2016-04-13 19:00,0.490012,266.131,232.56,230.387,231.131,230.429,226.574,0.605984,0.689701,223.642,227.877
2016-04-13 20:00,0.578559,266.797,251.912,238.503,252.059,250.957,241.664,0.692201,0.812647,229.178,241.221
2016-04-13 21:00,0.767495,289.647,278.474,252.045,279.907,276.938,255.532,0.629739,0.806784,230.43,247.699
2016-04-13 22:00,-0.0142772,260.827,252.479,239.115,253.867,250.557,240.793,0.0,0.0,229.348,240.835
2016-04-13 23:00,-0.403332,287.155,285.208,256.089,287.951,285.208,259.37,-0.183885,-0.344543,230.511,248.882
2016-04-14 00:00,-0.264156,287.155,285.77,256.32,288.493,285.777,260.461,-0.103843,-0.183344,232.784,250.032
2016-04-14 01:00,-0.00179363,283.924,283.148,254.808,285.618,282.758,258.515,0.0,0.0,233.603,250.135
2016-04-14 02:00,-0.00154035,287.587,285.882,256.089,287.951,285.065,259.977,0.0,0.0,232.935,249.825
2016-04-14 03:00,0.0,287.729,286.328,257.006,288.628,285.777,260.219,0.0,0.0,232.784,249.617
2016-04-14 04:00,0.0,281.883,277.727,252.534,279.318,274.147,253.497,0.0,0.00147326,232.328,247.917
2016-04-14 05:00,0.0,285.045,282.799,255.742,285.34,282.321,258.392,0.0,0.0,231.865,249.093
2016-04-14 06:00,0.0,286.569,285.095,256.549,287.407,284.492,259.492,0.0,0.0,231.236,248.987
2016-04-14 07:00,0.0,278.279,272.662,250.051,273.843,269.984,251.291,0.0,0.0,230.184,246.929
2016-04-14 08:00,0.0,285.357,281.267,255.043,283.372,279.81,256.285,0.0,0.00493786,230.348,247.699
2016-04-14 09:00,-1.17049,269.576,259.373,243.084,258.678,256.367,241.808,-1.25533,-1.57557,228.312,239.523
2016-04-14 10:00,0.348644,270.713,260.528,243.79,260.524,258.774,245.489,0.461245,0.483969,230.916,243.818
2016-04-14 11:00,0.39589,262.869,246.733,236.466,247.446,245.824,237.827,0.565507,0.611747,229.007,237.043
2016-04-14 12:00,0.3348,259.505,234.477,231.098,235.672,235.435,229.946,0.566949,0.632812,227.601,231.53
2016-04-14 13:00,0.314364,284.888,263.401,245.314,265.138,263.063,249.572,0.356998,0.367006,233.159,246.707
2016-04-14 14:00,0.336871,281.705,262.141,244.765,263.92,263.586,249.838,0.366247,0.383761,233.968,248.348
2016-04-14 15:00,0.172347,276.811,264.329,245.859,266.508,265.309,250.633,0.255108,0.255359,234.472,249.408
2016-04-14 16:00,0.167696,280.799,264.635,245.995,266.167,264.279,249.838,0.201326,0.203411,231.943,248.348
2016-04-14 17:00,0.334648,282.408,261.822,244.349,264.444,263.933,250.633,0.36675,0.396425,231.552,249.093
2016-04-14 18:00,0.337778,278.883,257.683,241.791,259.606,258.957,247.551,0.526765,0.577333,231.156,246.595
2016-04-14 20:00,0.906261,283.594,254.145,240.021,255.633,253.316,240.938,0.908052,1.04156,228.224,242.105
2016-04-14 21:00,0.14901,268.073,262.458,244.21,264.095,263.412,250.633,0.332017,0.324622,230.755,247.151
2016-04-14 22:00,-0.0291588,262.074,261.017,243.65,262.863,261.831,247.687,0.0,0.0,230.184,246.707
2016-04-14 23:00,-0.417923,238.442,238.83,232.834,238.938,238.049,233.344,-0.181888,-0.343055,227.329,233.617
2016-04-15 00:00,-0.282139,232.213,222.904,226.287,222.485,221.875,221.415,-0.10238,-0.177125,219.382,221.658
2016-04-15 01:00,0.0,242.013,240.039,233.344,240.87,239.667,233.344,0.0,-0.00181925,226.592,235.444
2016-04-15 02:00,-0.00154736,232.213,230.85,229.301,230.574,229.909,227.26,0.0,0.0,223.013,227.694
2016-04-15 03:00,0.00145024,222.276,220.379,225.107,220.519,219.165,219.172,0.0,0.0,218.264,219.608
2016-04-15 04:00,-0.00146668,222.276,217.285,224.507,216.715,216.331,216.663,0.0,0.0,214.879,215.867
2016-04-15 05:00,0.0,222.276,218.082,224.102,217.78,217.29,217.832,0.0,0.0,216.83,217.669
2016-04-15 06:00,0.0,249.156,249.978,237.884,250.415,249.753,241.229,0.0,0.00194562,229.263,242.354
2016-04-15 07:00,0.0,286.569,284.414,256.205,286.722,283.484,258.76,0.0,0.0,234.686,252.537
2016-04-15 08:00,0.0,287.155,285.433,256.549,287.679,284.922,260.098,0.0,0.0,235.178,254.629
2016-04-15 09:00,-0.306941,278.684,279.213,253.261,282.231,281.441,259.492,-1.29943,-1.13621,236.004,256.091
2016-04-15 10:00,0.429468,287.01,283.264,255.626,286.172,284.349,260.34,0.463629,0.428154,236.341,257.246
2016-04-15 11:00,0.347921,293.24,283.38,255.858,286.172,284.492,261.182,0.333107,0.302613,235.108,256.539
2016-04-15 12:00,0.315063,289.514,282.331,255.277,284.781,283.339,260.461,0.378177,0.379819,235.455,256.716
2016-04-15 13:00,0.203641,290.301,283.841,255.974,286.447,284.922,261.421,0.268073,0.270116,238.483,258.543
2016-04-15 14:00,0.00261742,288.568,287.76,258.134,290.367,288.445,262.492,0.0421072,0.0211396,239.894,258.798
2016-04-15 15:00,0.00743096,288.705,287.432,258.358,289.835,287.609,262.136,0.0367021,0.018755,239.834,259.304
2016-04-15 16:00,0.115032,291.44,286.328,258.022,289.032,287.329,262.136,0.117512,0.107296,237.592,258.372
2016-04-15 17:00,0.0161796,289.779,287.541,258.913,290.101,287.888,262.61,0.0456643,0.0313074,237.268,256.271
2016-04-15 18:00,0.0957473,293.356,286.772,258.691,289.166,287.048,262.255,0.107649,0.0919087,238.857,258.457
2016-04-15 19:00,0.115577,294.268,288.412,259.574,290.632,288.722,263.083,0.137345,0.114635,238.483,258.882
2016-04-15 20:00,0.459737,300.317,288.951,259.574,291.686,290.375,264.022,0.391907,0.382041,238.608,260.952
2016-04-15 21:00,1.43043,294.713,287.978,259.464,291.16,289.826,263.553,0.921523,1.09093,238.294,260.545
2016-04-15 22:00,-0.0297921,288.43,288.951,259.793,291.686,290.238,263.67,0.0,-0.0150385,238.168,260.052
2016-04-15 23:00,-0.519289,288.43,288.52,259.464,290.897,289.551,263.787,-0.199855,-0.353474,236.874,259.135
2016-04-16 00:00,-0.257417,289.113,289.058,259.683,292.079,290.648,263.905,-0.0928325,-0.158814,239.166,260.627
2016-04-16 01:00,-0.00362105,288.705,288.951,259.902,291.948,290.375,263.787,0.0,0.0,237.592,259.721
2016-04-16 02:00,0.00155446,288.291,288.303,259.244,291.292,290.101,263.787,0.0,0.0,237.849,258.713
2016-04-16 03:00,0.0,285.97,286.439,258.58,289.032,287.748,262.492,0.0,0.0,237.528,257.508
2016-04-16 04:00,0.0,284.41,284.185,257.12,286.86,285.777,262.017,0.0,0.0,237.268,257.333
2016-04-16 05:00,0.0,280.799,281.624,255.974,283.797,282.904,260.701,0.0,0.00162817,237.913,258.2
2016-04-16 06:00,0.0,288.43,288.843,260.011,291.686,290.238,263.318,0.0,0.0,237.203,258.882
2016-04-16 07:00,0.0,288.43,288.951,259.793,291.686,290.375,263.318,0.0,0.0,237.203,259.22
2016-04-16 08:00,0.0,288.012,288.303,259.574,291.16,289.551,263.2,0.0,0.0,236.542,258.713
2016-04-16 09:00,-1.03323,287.729,288.195,259.354,291.029,289.413,263.67,-1.99962,-1.78818,234.827,258.2
2016-04-16 10:00,0.105855,288.977,288.195,258.913,291.029,289.413,263.2,0.237512,0.17633,233.968,257.682
2016-04-16 11:00,0.0159604,288.977,288.843,259.902,291.948,290.511,263.2,0.103605,0.05371,233.677,257.595
2016-04-16 12:00,0.0258559,289.381,288.736,259.902,291.555,290.238,263.2,0.0844413,0.0540708,233.159,257.246
2016-04-16 13:00,0.0296623,290.041,288.412,259.464,291.292,289.689,263.318,0.0703221,0.0464161,233.234,256.982
2016-04-16 14:00,0.0196009,289.779,288.52,259.793,291.423,289.964,263.318,0.0553202,0.0342997,233.01,257.158
2016-04-16 15:00,0.016083,288.43,287.102,259.134,289.434,287.748,261.898,0.0460897,0.0287265,230.593,254.256
2016-04-16 16:00,0.0837029,279.667,266.59,247.728,265.997,262.888,245.211,0.126933,0.121079,227.329,244.998
2016-04-16 17:00,0.1482,278.684,258.703,243.93,255.633,253.316,238.876,0.181377,0.183621,222.906,235.592
2016-04-16 18:00,0.0972314,286.864,276.845,253.02,277.377,274.304,252.205,0.131455,0.118743,228.4,248.669
2016-04-16 19:00,0.135672,294.38,288.736,260.445,291.948,290.648,263.67,0.159452,0.143102,230.916,255.548
2016-04-16 20:00,0.733005,283.428,250.76,240.32,247.012,243.896,234.291,0.660249,0.74631,223.538,233.928
2016-04-16 21:00,1.08664,288.977,271.848,250.681,271.785,268.339,248.768,0.776499,0.9881,227.329,247.261
2016-04-16 22:00,-0.0152283,273.831,263.088,245.859,262.863,260.225,243.383,0.0,-0.0153739,226.592,242.105
2016-04-16 23:00,-0.538935,288.152,287.651,260.011,290.5,288.722,263.083,-0.19796,-0.348056,230.018,254.722
2016-04-17 00:00,-0.242022,288.152,287.432,259.793,289.968,288.027,262.136,-0.0872431,-0.152407,228.921,253.309
2016-04-17 01:00,-0.00181914,273.088,265.092,246.533,264.27,260.764,244.372,0.0,0.0,228.224,243.698
2016-04-17 02:00,0.0,275.02,265.846,247.332,265.482,262.888,246.182,0.0,0.0,228.835,243.937
2016-04-17 03:00,0.0,287.729,287.212,259.683,290.234,288.167,262.255,0.0,0.0,230.755,251.751
2016-04-17 04:00,0.0,286.569,285.095,258.58,286.997,283.049,258.147,0.0,0.0,231.865,251.452
2016-04-17 05:00,0.001622,288.291,287.978,259.574,291.029,288.861,262.373,0.0,0.0,232.328,253.5
2016-04-17 06:00,0.0,287.729,287.651,259.902,290.897,289.137,263.318,0.0,0.0,232.784,253.405
2016-04-17 07:00,-0.00271814,287.3,287.651,259.464,290.897,289.137,263.2,0.0,0.0,233.234,254.068
2016-04-17 08:00,-0.00513777,288.568,288.628,259.793,291.948,290.648,263.436,0.0,0.0,233.896,254.999
2016-04-17 09:00,-1.5708,288.291,288.628,260.119,291.817,290.101,262.965,-3.32499,-2.90734,233.75,254.349
2016-04-17 10:00,0.109632,289.113,287.76,260.011,291.029,289.551,262.255,0.229853,0.163385,234.472,253.5
2016-04-17 11:00,0.0290882,287.871,286.55,259.134,289.568,287.609,261.54,0.116428,0.0720809,234.472,252.244
2016-04-17 12:00,0.0368123,289.113,286.105,258.913,289.166,286.202,260.701,0.09039,0.061321,233.823,252.439
2016-04-17 13:00,0.0162792,289.113,288.195,260.769,291.555,289.826,262.728,0.0613995,0.0343637,233.53,252.828
2016-04-17 14:00,0.0130483,289.247,288.087,260.876,291.686,289.964,263.318,0.049716,0.0289808,233.823,252.925
2016-04-17 15:00,0.060558,291.315,280.187,256.778,282.087,277.091,255.153,0.0742954,0.0623846,232.328,250.646
2016-04-17 16:00,0.0586703,291.065,283.264,258.802,285.479,281.441,257.777,0.0729286,0.0592311,232.557,250.442
2016-04-17 17:00,0.0148093,290.041,287.651,260.553,290.632,288.027,261.779,0.0478762,0.0299018,232.784,252.634
2016-04-17 18:00,0.059543,291.563,287.212,260.661,289.968,287.748,261.898,0.0928696,0.0727674,232.935,252.146
2016-04-17 19:00,0.119317,291.686,286.992,260.769,289.701,287.469,261.66,0.166093,0.134749,233.456,252.244
2016-04-17 20:00,0.314207,295.796,287.76,261.412,290.632,288.306,262.492,0.342426,0.307789,232.405,251.949
2016-04-17 21:00,0.855707,294.602,287.541,261.412,290.5,288.027,261.898,0.659836,0.701908,232.557,252.146
2016-04-17 22:00,-0.0311549,288.43,287.322,260.876,290.234,287.469,261.421,0.0,0.0,232.935,251.352
2016-04-17 23:00,-0.530948,264.739,255.409,243.65,256.406,252.341,242.384,-0.196045,-0.338541,232.175,243.214
2016-04-18 00:00,-0.212012,281.526,277.852,255.16,279.76,273.517,253.111,-0.0795556,-0.141071,233.308,249.513
2016-04-18 01:00,-0.00182787,286.421,284.869,259.134,287.27,284.779,260.822,0.0,0.0,232.784,251.152
2016-04-18 02:00,0.0015689,277.869,278.598,255.742,281.221,279.81,259.005,0.0,0.0,232.328,250.849
2016-04-18 03:00,0.0,266.131,265.995,248.9,268.024,267.171,251.944,0.0,0.0,232.557,249.303
2016-04-18 04:00,0.0,270.151,271.984,252.412,275.087,274.617,256.909,0.0,0.0,231.943,250.748
2016-04-18 05:00,0.0,273.338,274.392,253.98,277.377,276.631,257.53,0.0,0.00164691,230.674,251.252
2016-04-18 06:00,0.00196741,285.512,283.726,259.354,286.31,283.773,259.977,0.0,0.0,229.852,250.849
2016-04-18 07:00,-0.00274351,266.797,259.706,246.265,261.431,257.301,245.211,0.0,0.0,228.748,244.412
2016-04-18 08:00,0.0,264.739,257.166,244.349,258.491,255.992,243.099,0.0,0.0,225.352,239.39
2016-04-18 09:00,-23.0833,259.045,255.23,243.084,255.827,254.855,243.949,-27.9209,-36.6206,227.601,241.728
2016-04-18 10:00,0.164853,287.155,279.336,256.892,279.907,275.085,252.723,0.226818,0.202835,226.871,245.804
2016-04-18 11:00,0.357577,273.831,250.76,240.32,251.856,250.557,242.527,0.592163,0.650322,230.593,241.98
2016-04-18 12:00,0.15961,295.042,277.224,255.742,277.978,274.147,253.497,0.178636,0.159284,230.755,245.69
2016-04-18 13:00,0.168363,294.38,275.436,254.454,275.703,269.329,249.705,0.170062,0.162517,230.674,246.145
2016-04-18 14:00,0.11206,285.357,273.333,253.02,272.899,268.505,249.305,0.136805,0.118393,226.592,242.602
2016-04-18 15:00,0.159272,284.888,258.703,245.177,256.789,250.757,237.373,0.170399,0.170767,224.959,237.468
2016-04-18 16:00,0.155921,277.869,254.871,243.368,252.059,246.876,234.447,0.187993,0.187634,222.906,233.304
2016-04-18 17:00,0.261003,265.791,238.338,234.515,236.441,234.461,227.601,0.342878,0.361291,221.596,228.06
2016-04-18 18:00,0.3053,273.088,254.509,242.656,253.669,251.354,240.646,0.428177,0.450474,225.449,237.608
2016-04-18 19:00,0.587741,278.883,236.832,233.513,235.414,232.725,228.109,0.641288,0.71978,223.118,230.354
2016-04-18 20:00,0.688828,274.787,238.338,234.183,235.93,232.474,227.77,0.683062,0.792521,222.04,228.96
2016-04-18 21:00,1.04533,277.661,244.815,237.884,242.283,238.282,229.946,0.808113,1.04767,221.819,229.838
2016-04-18 22:00,-0.0159447,252.585,242.142,236.466,240.392,237.581,231.094,-0.0135003,0.0,222.692,231.859
2016-04-18 23:00,-0.446442,230.231,220.006,225.701,218.824,218.235,217.445,-0.166866,-0.308594,216.15,218.165
2016-04-19 00:00,-0.193791,239.711,235.538,232.834,236.186,235.435,231.094,-0.0779392,-0.144287,225.739,232.988
2016-04-19 01:00,-0.00183671,235.601,233.666,231.973,233.577,232.725,229.781,0.0,0.0,224.156,230.524
2016-04-19 02:00,0.0,230.231,227.533,229.118,226.82,225.597,223.592,0.0,0.0,220.57,225.21
2016-04-19 03:00,0.0,225.382,216.058,224.305,215.26,213.694,213.857,0.0,0.0,213.234,215.061
2016-04-19 04:00,-0.00149679,218.393,216.471,224.708,215.26,214.03,214.265,0.0,0.0,213.693,215.061
2016-04-19 05:00,0.0,225.382,223.252,227.248,223.443,222.462,220.675,0.0,0.0,218.891,222.313
2016-04-19 06:00,0.001981,237.078,230.559,230.743,229.444,227.517,223.949,0.0,0.0,218.391,224.408
2016-04-19 07:00,0.0,227.984,223.252,226.674,222.806,221.875,221.046,0.0,0.0,218.891,221.658
2016-04-19 08:00,-0.0053111,230.231,225.611,228.004,224.694,222.753,220.302,0.0,0.0,217.622,222.529
2016-04-19 09:00,7.67806,235.601,217.285,223.694,217.072,215.683,215.274,10.4016,13.4359,215.452,216.652
2016-04-19 10:00,0.498413,249.89,226.261,228.192,225.31,224.474,223.053,0.891379,1.02689,219.014,222.743
2016-04-19 11:00,0.350362,252.585,226.902,228.934,226.522,225.597,222.873,0.743841,0.828845,219.863,223.999
2016-04-19 12:00,0.329185,254.396,222.198,226.092,221.511,220.081,218.792,0.689058,0.76067,217.752,220.535
2016-04-19 13:00,0.350794,264.009,216.471,224.908,215.628,214.364,214.671,0.651441,0.7202,214.293,215.867
2016-04-19 14:00,0.331832,263.636,213.921,223.076,213.381,210.931,212.411,0.625828,0.691028,212.448,213.952
2016-04-19 15:00,0.300981,258.576,213.921,223.489,213.381,211.635,212.619,0.71021,0.780816,212.607,213.668
2016-04-19 16:00,0.327825,260.827,213.031,223.694,212.609,211.284,212.619,0.633237,0.702187,212.448,212.8
2016-04-19 17:00,0.356293,263.636,215.218,223.899,214.141,212.673,213.035,0.738814,0.815771,213.995,214.511
2016-04-19 18:00,0.417698,271.261,215.218,224.305,214.141,212.329,213.857,0.703354,0.780207,212.607,214.511
2016-04-19 19:00,0.502279,269.865,222.552,227.058,221.182,219.472,219.172,0.703674,0.788113,216.963,219.843
2016-04-19 20:00,0.742746,282.234,218.862,225.306,217.427,216.331,216.466,0.814926,0.952929,0.0,217.418
2016-04-19 21:00,1.19415,273.831,218.082,224.908,217.427,216.008,215.474,0.992008,1.29655,215.452,217.669
2016-04-19 22:00,-0.0163314,222.276,213.921,223.283,212.997,211.635,211.992,-0.0138278,0.0,211.964,212.8
2016-04-19 23:00,-0.384989,225.382,211.654,222.238,211.028,210.219,211.57,-0.154407,-0.298662,210.966,211.295
2016-04-20 00:00,-0.233832,230.231,214.358,223.489,212.997,211.284,212.827,-0.0824938,-0.145083,211.964,212.8
2016-04-20 01:00,-0.00184566,242.013,236.832,232.491,236.948,234.95,230.111,0.0,0.0,224.054,232.022
2016-04-20 02:00,0.0,213.142,221.117,225.701,220.184,217.922,218.41,0.0,0.0,215.734,218.895
2016-04-20 03:00,0.0,279.278,271.162,249.286,268.191,261.477,242.384,0.0,0.0,231.865,250.646
2016-04-20 04:00,0.0,273.831,265.394,245.04,263.393,259.502,242.384,0.0,0.0,231.709,249.617
2016-04-20 05:00,0.0,280.613,280.909,253.501,283.23,282.175,259.977,0.0,0.0,239.834,263.012
2016-04-20 06:00,0.0,282.581,281.978,254.099,284.361,282.904,259.37,0.0,0.0,241.704,263.629
2016-04-20 07:00,0.0,288.43,289.699,257.346,292.86,291.871,264.372,0.0,0.0,243.793,265.801
2016-04-20 08:00,0.0,288.152,289.165,256.549,292.079,291.057,264.022,0.0,0.0,241.647,264.314
2016-04-20 09:00,1.04842,288.291,288.843,255.51,291.555,290.238,264.022,2.84062,2.54026,244.945,265.655
2016-04-20 10:00,0.0954373,289.247,288.628,254.217,291.292,289.964,263.2,0.212649,0.157202,247.617,266.384
2016-04-20 11:00,0.0312068,289.381,288.951,254.217,291.555,289.964,263.905,0.1167,0.0735119,248.231,266.745
2016-04-20 12:00,0.0182322,289.247,288.951,253.86,291.555,290.238,263.905,0.0756422,0.0441756,248.603,266.529
2016-04-20 13:00,0.0161822,289.247,289.272,253.98,291.817,290.648,263.787,0.0597881,0.0356442,250.713,267.103
2016-04-20 14:00,0.0103973,289.247,289.379,254.217,292.47,291.329,264.138,0.0451173,0.0262418,250.538,267.032
2016-04-20 15:00,0.00985962,289.381,289.272,254.099,292.079,290.921,263.905,0.0386101,0.021152,249.964,266.601
2016-04-20 16:00,0.0112109,289.91,289.165,254.572,291.817,290.648,264.022,0.0390237,0.0238937,249.154,265.875
2016-04-20 17:00,0.0188115,290.685,289.379,255.16,292.209,291.057,263.905,0.0432322,0.0298435,248.277,265.507
2016-04-20 18:00,0.0562761,292.889,289.379,255.626,292.34,291.464,264.255,0.0780912,0.0615485,247.902,265.655
2016-04-20 19:00,0.155131,296.738,289.593,256.089,292.47,291.193,264.138,0.162054,0.148478,248.557,265.801
2016-04-20 20:00,0.509319,301.302,289.165,256.089,291.817,290.511,264.022,0.420785,0.433164,248.324,265.063
2016-04-20 21:00,1.22128,298.339,288.951,256.549,291.686,290.375,263.67,0.794459,0.954791,248.695,265.137
2016-04-20 22:00,-0.0334788,287.3,287.541,256.32,290.101,288.584,263.2,0.0,-0.0168994,248.833,264.914
2016-04-20 23:00,-0.379779,288.568,288.628,257.12,291.029,289.689,263.436,-0.152135,-0.292711,248.741,264.989
2016-04-21 00:00,-0.235134,287.3,287.541,257.233,290.101,288.722,262.965,-0.0788054,-0.136,248.184,264.765
2016-04-21 01:00,-0.00185471,288.705,288.843,258.134,291.292,289.551,263.436,0.0,-0.00187244,246.847,264.314
2016-04-21 02:00,-0.00159113,288.291,288.736,258.58,291.423,289.689,264.138,0.0,0.0,245.859,264.389
2016-04-21 03:00,-0.00149223,288.43,289.272,258.802,291.948,290.648,264.721,0.0,0.0,244.111,264.238
2016-04-21 04:00,0.0,288.152,288.736,258.58,291.423,290.375,263.787,0.0,0.0,242.82,263.706
2016-04-21 05:00,0.0,286.717,287.102,257.91,289.568,288.306,263.67,0.0,0.0,242.6,263.476
2016-04-21 06:00,0.0,288.291,288.736,258.913,291.686,290.238,263.553,0.0,0.0,243.686,264.01
2016-04-21 07:00,0.0,288.841,289.272,259.134,291.817,290.375,264.138,0.0,0.0,243.256,264.314
2016-04-21 08:00,0.0,288.43,289.165,258.913,291.948,290.648,264.022,0.0,0.0,239.894,263.244
2016-04-21 09:00,0.39812,288.705,289.272,259.024,292.34,291.057,263.905,1.7978,1.33975,240.489,263.629
2016-04-21 10:00,0.0893343,289.247,288.628,258.691,291.292,290.101,264.022,0.205907,0.145303,241.304,263.858
2016-04-21 11:00,0.0776101,289.91,287.432,258.246,289.968,288.445,262.373,0.146757,0.104469,241.704,263.782
2016-04-21 12:00,0.0345392,289.381,287.978,258.358,290.101,288.445,263.2,0.0923503,0.0568921,242.266,263.629
2016-04-21 13:00,0.0308367,288.977,287.322,258.802,289.701,287.888,262.492,0.0795715,0.0533683,241.704,262.466
2016-04-21 14:00,0.0947618,289.514,285.321,257.685,287.543,285.919,261.779,0.117604,0.107462,241.476,260.299
2016-04-21 15:00,0.00738863,289.113,288.412,259.354,291.029,289.413,263.553,0.036493,0.0186482,243.579,261.755
2016-04-21 16:00,0.0473054,289.779,287.212,258.913,289.701,287.888,262.728,0.0664043,0.051528,244.164,261.675
2016-04-21 17:00,0.120861,293.24,283.611,257.006,286.31,284.349,261.421,0.121662,0.116593,244.894,262.072
2016-04-21 18:00,0.0734177,292.889,287.869,259.244,289.968,287.888,262.728,0.0991958,0.0788506,244.322,264.086
2016-04-21 19:00,0.313908,297.146,282.799,257.006,285.34,283.629,261.421,0.315194,0.325035,243.364,262.701
2016-04-21 20:00,0.788186,298.533,281.029,255.974,283.797,282.467,260.701,0.667356,0.727338,243.74,262.623
2016-04-21 21:00,1.38084,295.476,282.566,257.346,285.061,283.484,261.301,0.925323,1.14058,241.817,262.388
2016-04-21 22:00,-0.0171703,287.3,286.439,259.354,288.493,286.343,261.898,0.0,0.0,238.733,260.545
2016-04-21 23:00,-0.460925,286.569,285.546,258.469,288.087,285.919,261.779,-0.167256,-0.311606,235.936,258.967
2016-04-22 00:00,-0.169952,285.202,284.642,258.469,287.407,285.777,261.66,-0.0646497,-0.116871,234.968,259.22
2016-04-22 01:00,0.0,277.869,279.213,255.742,282.231,280.998,259.856,0.0,0.0,232.633,257.07
2016-04-22 02:00,0.0,284.087,283.841,258.358,286.997,284.922,260.822,0.0,0.0,232.405,256.539
2016-04-22 03:00,0.0,286.421,286.55,259.244,289.166,287.469,262.017,0.0,0.0,231.552,256.805
2016-04-22 04:00,-0.00151996,285.97,285.658,258.913,288.358,286.485,261.421,0.0,0.0,232.328,255.821
2016-04-22 05:00,-0.00166916,286.271,284.982,258.246,287.543,284.492,259.614,0.0,0.0,233.234,253.974
2016-04-22 06:00,-0.00202224,286.717,286.217,258.469,288.358,285.777,260.942,0.0,0.00204157,233.159,255.366
2016-04-22 07:00,0.0,281.346,281.624,255.974,283.656,280.998,259.005,0.0,0.0,233.308,254.722
2016-04-22 08:00,0.0,278.883,276.336,253.14,277.528,273.675,253.625,0.0,0.0,233.382,252.146
2016-04-22 09:00,1.07302,286.121,285.208,257.346,287.679,285.065,260.219,1.32149,1.37872,234.185,255.457
2016-04-22 10:00,0.147172,288.291,286.328,258.022,289.032,286.907,262.373,0.261681,0.20801,235.247,256.539
2016-04-22 11:00,0.0360352,288.568,287.322,258.469,290.234,288.306,261.54,0.124223,0.0779565,235.386,255.183
2016-04-22 12:00,0.132326,291.44,285.546,257.798,288.358,286.485,261.54,0.161154,0.137251,235.662,254.814
2016-04-22 13:00,0.0527703,289.647,286.439,258.469,289.3,286.767,261.54,0.100531,0.071033,235.386,253.88
2016-04-22 14:00,0.176342,290.301,283.032,256.434,285.757,284.205,260.701,0.200908,0.212063,236.274,254.443
2016-04-22 15:00,0.0369146,290.041,286.439,258.358,289.032,287.188,261.66,0.0552181,0.039752,236.475,256.181
2016-04-22 16:00,0.073405,291.931,285.882,258.246,288.628,287.048,262.017,0.0821669,0.0690826,236.542,256.628
2016-04-22 17:00,0.0214745,290.041,287.978,259.354,290.897,288.861,262.492,0.0477289,0.0298097,236.408,256.36
2016-04-22 18:00,0.0811707,293.356,287.322,259.024,290.101,288.306,262.492,0.0991256,0.0866744,236.207,256.628
2016-04-22 19:00,0.22108,297.549,287.432,259.244,290.234,288.306,262.847,0.216117,0.20899,236.675,256.628
2016-04-22 20:00,0.583485,301.478,286.882,259.024,289.568,287.609,263.083,0.499236,0.533257,237.006,257.769
2016-04-22 21:00,1.09104,298.045,288.628,260.228,291.423,289.689,263.67,0.750183,0.872302,236.874,258.798
2016-04-22 22:00,-0.0176261,288.291,288.412,259.793,291.16,289.826,263.436,0.0,-0.0177946,235.867,257.508
2016-04-22 23:00,-0.489439,288.152,287.978,260.011,290.764,289.276,263.67,-0.168572,-0.305683,235.731,257.595
2016-04-23 00:00,-0.156052,287.729,287.322,259.902,290.367,288.445,262.492,-0.0587241,-0.115032,235.525,256.181
2016-04-23 01:00,0.0,281.346,281.624,256.778,284.921,283.629,261.182,0.0,-0.00189104,235.386,256.894
2016-04-23 02:00,0.0,283.924,282.799,257.12,285.061,280.702,257.034,0.0,0.0,235.247,253.785
2016-04-23 03:00,0.0,288.291,288.303,259.902,291.423,289.689,263.083,0.0,0.0,235.867,257.333
2016-04-23 04:00,0.0,282.923,283.841,257.572,286.722,285.919,261.779,0.0,0.0,235.386,257.508
2016-04-23 05:00,0.0,285.357,285.77,258.469,288.763,287.188,262.136,0.0,0.0,234.472,257.333
2016-04-23 06:00,0.00203611,288.152,288.087,259.574,291.16,289.413,263.2,0.0,0.0,235.317,256.982
2016-04-23 07:00,0.0028734,288.152,288.087,259.354,291.292,289.689,262.965,0.0,0.0,234.897,256.716
2016-04-23 08:00,-0.00567865,288.012,288.195,259.024,291.292,289.689,262.492,0.0,0.0,234.897,255.639
2016-04-23 09:00,0.38712,288.012,287.978,258.802,290.897,289.137,263.083,1.24554,0.937969,234.968,256.628
2016-04-23 10:00,0.0339572,288.291,288.195,258.913,291.16,289.551,262.373,0.172509,0.102845,234.686,256.091
2016-04-23 11:00,0.0128069,288.705,288.736,259.244,292.079,290.784,263.436,0.10193,0.0543033,234.897,256.805
2016-04-23 12:00,0.00903868,288.841,288.843,259.134,292.209,290.784,263.436,0.0719385,0.0383254,234.113,256.36
2016-04-23 13:00,0.0087803,288.977,288.843,259.354,292.209,290.921,264.022,0.054518,0.0295475,233.382,256.716
2016-04-23 14:00,0.0168381,287.3,285.433,257.12,287.407,285.635,260.34,0.0515438,0.0326905,230.674,253.69
2016-04-23 15:00,0.0270511,285.512,280.669,254.454,282.66,280.406,256.535,0.0593425,0.0446886,228.488,250.34
2016-04-23 16:00,0.0149217,288.977,288.303,0.0,0.0,0.0,0.0,0.0442197,0.0,229.433,0.0
2016-04-23 17:00,0.11,279.859,268.054,247.991,268.358,265.82,247.279,0.147656,0.147617,227.147,243.214
2016-04-23 18:00,0.254265,272.322,249.385,238.195,247.446,244.973,233.976,0.313023,0.332287,223.746,233.773
2016-04-23 19:00,0.303122,293.356,271.437,250.429,272.899,267.506,247.415,0.295746,0.314127,228.224,245.575
2016-04-23 20:00,0.0765786,289.514,286.772,259.024,289.701,287.188,261.66,0.155614,0.123697,229.685,250.748
2016-04-23 21:00,1.11826,275.932,253.04,241.061,251.652,250.957,239.618,0.909937,1.15827,225.254,235.444
2016-04-23 22:00,-0.0362179,280.613,274.392,251.552,275.396,272.565,251.683,0.0,-0.0182821,227.238,244.294
2016-04-23 23:00,-0.434805,277.451,269.767,249.414,270.495,267.004,248.903,-0.155755,-0.287013,228.224,244.175
2016-04-24 00:00,-0.14947,286.271,283.38,256.205,285.618,283.049,259.005,-0.0590596,-0.113174,229.007,248.025
2016-04-24 01:00,-0.0018825,285.202,281.978,256.32,284.079,281.146,256.909,0.0,0.0,228.136,246.929
2016-04-24 02:00,-0.001614,276.811,268.487,248.512,268.358,263.933,245.072,0.0,0.0,225.835,240.706
2016-04-24 03:00,0.0,257.103,244.38,235.985,242.515,239.208,230.931,0.0,0.0,223.224,232.185
2016-04-24 04:00,-0.00153563,232.213,224.279,227.058,223.125,221.875,220.489,0.0,0.0,218.642,221.878
2016-04-24 05:00,0.0,258.096,243.94,234.681,241.58,238.978,230.768,0.0,0.0,222.476,231.031
2016-04-24 06:00,0.00205003,256.589,243.049,234.845,240.392,237.815,230.44,0.0,0.0,224.46,232.022
2016-04-24 07:00,-0.00289987,253.81,239.317,233.005,236.948,234.95,228.109,0.0,0.0,220.686,226.76
2016-04-24 08:00,0.00577475,273.831,263.088,244.765,262.507,258.591,242.241,0.0,0.0,226.122,240.053
2016-04-24 09:00,0.644005,277.026,268.63,246.934,268.191,265.65,247.006,1.03603,1.10527,227.055,243.336
2016-04-24 10:00,0.292727,271.798,256.819,241.354,254.461,252.144,238.577,0.406314,0.411798,224.56,236.033
2016-04-24 11:00,0.140212,278.883,266.886,246.13,266.167,263.237,245.211,0.218008,0.200747,227.147,243.214
2016-04-24 12:00,0.00901492,287.729,287.102,257.346,290.101,288.306,261.898,0.073276,0.0382246,230.266,252.925
2016-04-24 13:00,0.033604,284.73,279.945,253.501,281.943,279.959,256.785,0.0816461,0.0619504,228.921,248.562
2016-04-24 14:00,0.016821,287.587,285.095,255.858,287.27,285.065,259.614,0.0547781,0.0365761,230.266,251.751
2016-04-24 15:00,0.0405492,284.249,278.101,252.656,279.466,277.396,254.009,0.0759487,0.0620255,229.348,248.348
2016-04-24 16:00,0.0198856,288.43,284.755,256.664,287.27,284.205,258.638,0.0505112,0.0363871,229.433,251.751
2016-04-24 17:00,0.14883,272.061,256.294,240.913,255.244,252.144,239.47,0.199806,0.211166,226.311,238.165
2016-04-24 18:00,0.0748261,289.247,281.505,255.277,282.517,279.061,255.532,0.110871,0.092853,228.575,249.093
2016-04-24 19:00,0.459164,268.686,231.14,229.484,229.158,227.246,222.147,0.517799,0.585008,220.101,224.811
2016-04-24 20:00,0.669124,272.322,232.28,230.565,230.574,228.856,224.304,0.659677,0.768058,220.57,225.408
2016-04-24 21:00,1.25301,275.707,232.28,230.565,230.853,229.121,224.834,1.00605,1.33042,221.258,226.379
2016-04-24 22:00,-0.0186213,245.01,236.06,232.146,235.672,233.722,228.109,0.0,0.0,222.692,229.664
2016-04-24 23:00,-0.467809,242.013,233.938,231.098,233.577,232.474,228.109,-0.149873,-0.272306,222.15,228.603
2016-04-25 00:00,-0.19543,239.711,229.97,229.118,229.158,226.974,224.657,-0.0657639,-0.116355,220.337,225.408
2016-04-25 01:00,-0.00378392,243.066,234.745,231.45,233.842,232.221,227.94,0.0,0.0,221.145,228.782
2016-04-25 02:00,0.0,238.442,233.938,230.743,233.577,232.221,228.446,0.0,0.0,221.708,229.137
2016-04-25 03:00,0.00152134,239.711,233.116,230.743,232.23,230.17,226.402,0.0,0.0,221.371,228.423
2016-04-25 04:00,0.0,238.442,233.392,230.387,232.772,231.714,227.601,0.0,0.0,222.15,229.314
2016-04-25 05:00,0.0,233.989,229.97,228.564,229.444,228.324,226.056,0.0,0.0,222.259,227.136
2016-04-25 06:00,0.0,238.442,232.839,230.207,232.502,231.459,227.601,0.0,0.0,222.476,229.314
2016-04-25 07:00,-0.00292647,237.078,232.56,230.207,232.502,231.203,227.77,0.0,0.0,222.368,228.603
2016-04-25 08:00,0.0,222.276,219.247,224.305,218.478,217.607,216.859,0.0,0.0,215.734,218.165
2016-04-25 09:00,1.16111,243.066,232.56,230.207,231.957,230.429,226.402,1.63851,2.12114,221.371,228.242
2016-04-25 10:00,0.379917,244.063,228.463,228.378,228.293,227.246,224.481,0.711706,0.815041,221.031,225.604
2016-04-25 11:00,0.49739,272.58,251.912,239.57,252.667,251.354,241.084,0.620966,0.666111,225.254,239.523
2016-04-25 12:00,0.282354,246.775,221.481,224.908,221.182,220.081,218.982,0.634979,0.702647,218.137,220.075
2016-04-25 13:00,0.297599,254.966,222.198,225.897,221.511,219.777,219.739,0.669466,0.736381,216.83,220.075
2016-04-25 14:00,0.345146,257.103,241.913,234.681,241.815,241.251,235.537,0.553823,0.596403,225.835,234.845
2016-04-25 15:00,0.300857,258.576,229.373,228.934,228.583,226.974,224.126,0.628001,0.68433,220.801,225.799
2016-04-25 16:00,0.300628,264.377,219.628,224.708,218.824,216.972,217.055,0.610057,0.672219,215.452,217.669
2016-04-25 17:00,0.404738,272.58,235.275,232.319,235.155,233.474,228.614,0.535597,0.588557,223.224,230.694
2016-04-25 18:00,0.334944,261.666,231.997,230.565,230.574,229.385,225.535,0.601488,0.671573,221.484,228.06
2016-04-25 19:00,0.492679,265.095,237.339,233.175,237.2,235.677,231.094,0.720688,0.820895,225.254,233.461
2016-04-25 20:00,0.655237,262.074,234.208,231.098,234.371,233.722,229.615,0.87992,1.02148,224.56,230.863
2016-04-25 21:00,0.828452,262.074,225.611,227.438,225.003,223.619,222.511,0.792153,1.0022,219.744,223.167
2016-04-25 22:00,-0.0191658,233.989,229.673,229.847,228.871,227.517,224.481,0.0,0.0,220.916,226.187
2016-04-25 23:00,-0.458875,249.89,248.177,238.04,249.157,248.532,240.5,-0.143899,-0.265946,232.175,241.854
2016-04-26 00:00,-0.171364,244.063,240.514,233.849,240.631,239.667,234.134,-0.061878,-0.111942,229.007,235.295
2016-04-26 01:00,-0.00190152,283.261,280.789,254.808,283.23,280.998,259.37,0.0,0.0,236.274,255.457
2016-04-26 02:00,-0.00162956,264.377,265.696,246.934,268.024,267.84,253.111,0.0,0.0,238.981,255.911
2016-04-26 03:00,0.0,272.061,270.885,249.542,272.582,271.283,254.646,0.0,0.0,238.104,255.821
2016-04-26 04:00,-0.00155143,266.797,267.909,248.121,270.495,270.148,254.264,0.0,0.0,235.178,253.309
2016-04-26 05:00,0.0,267.123,267.473,248.121,270.169,269.821,254.264,0.0,0.0,238.608,255.821
2016-04-26 06:00,0.0,283.261,282.566,255.51,285.34,283.194,259.856,0.0,0.0,238.919,258.713
2016-04-26 07:00,0.0,286.864,286.992,257.572,289.166,287.188,262.255,0.0,0.0,240.014,259.887
2016-04-26 08:00,-0.00597173,283.76,285.095,256.434,287.815,286.767,262.255,0.0,0.0,241.131,261.675
2016-04-26 09:00,1.31132,282.581,283.495,255.626,286.722,286.06,261.779,1.3159,1.42192,241.647,262.466
2016-04-26 10:00,0.084625,289.381,287.978,258.022,290.367,288.722,262.847,0.199033,0.137644,240.724,261.993
2016-04-26 11:00,0.0378985,289.113,288.303,258.58,290.764,289.137,262.965,0.115519,0.0714202,240.253,261.914
2016-04-26 12:00,0.0179408,289.381,289.058,258.691,291.948,290.511,263.553,0.0774713,0.0434695,241.246,262.857
2016-04-26 13:00,0.00874022,289.113,289.486,259.134,292.47,291.329,264.138,0.0555025,0.0308832,241.361,262.779
2016-04-26 14:00,0.0206643,289.91,288.951,258.913,291.948,290.921,264.255,0.0513958,0.0325966,240.841,262.701
2016-04-26 15:00,0.0233181,289.91,288.951,258.469,291.817,290.784,264.138,0.0498782,0.0334531,240.665,263.244
2016-04-26 16:00,0.0235928,290.429,289.379,258.691,292.209,290.921,264.138,0.0473115,0.0325935,240.43,263.552
2016-04-26 17:00,0.0227734,291.065,289.699,259.134,292.34,291.464,264.372,0.0499069,0.0338105,239.714,263.706
2016-04-26 18:00,0.0560488,293.472,290.017,259.464,292.989,292.006,264.837,0.0804123,0.0644436,238.857,263.399
2016-04-26 19:00,0.200047,299.108,289.699,259.354,292.47,291.6,264.953,0.19648,0.185802,238.857,262.935
2016-04-26 20:00,0.586702,304.794,289.699,259.574,292.6,291.329,264.605,0.481316,0.494104,238.168,262.388
2016-04-26 21:00,1.41664,300.498,289.058,259.574,292.079,290.648,264.372,0.887603,1.05833,237.006,261.435
2016-04-26 22:00,-0.0394908,287.587,288.195,258.802,291.292,290.238,264.022,-0.0167184,-0.0199342,235.662,260.627
2016-04-26 23:00,-0.376979,288.977,289.486,259.574,292.47,291.193,264.953,-0.130577,-0.255164,235.038,260.789
2016-04-27 00:00,-0.141948,288.977,289.699,259.464,292.73,291.6,264.837,-0.0515086,-0.10236,235.936,261.355
2016-04-27 01:00,-0.00382234,288.43,289.272,259.354,292.47,291.329,263.905,-0.00161818,-0.00192944,234.041,260.627
2016-04-27 02:00,0.0,287.871,288.843,258.802,291.817,290.784,264.488,0.0,0.0,235.731,260.952
2016-04-27 03:00,-0.00153615,288.152,288.087,258.246,290.5,288.999,263.2,0.0,0.0,231.943,258.114
2016-04-27 04:00,0.0,288.012,288.087,258.691,290.897,289.413,262.965,0.0,0.0,231.315,257.769
2016-04-27 05:00,0.0,287.871,288.303,258.691,291.16,289.551,263.083,0.0,0.0,232.251,258.372
2016-04-27 06:00,0.00209198,288.291,288.412,258.802,291.423,289.964,263.905,0.0,0.0,230.916,256.982
2016-04-27 07:00,-0.00297994,275.707,266.442,247.2,264.792,261.477,244.792,0.0,0.0,225.449,242.602
2016-04-27 08:00,0.0,280.613,275.306,252.29,275.703,273.042,252.205,0.0,0.0,228.224,249.928
2016-04-27 09:00,0.390655,285.202,281.267,255.16,282.803,280.406,257.034,0.698287,0.657317,229.263,253.5
2016-04-27 10:00,0.190896,280.05,269.767,248.642,268.855,266.329,248.364,0.311436,0.305533,226.311,243.336
2016-04-27 11:00,0.133342,277.661,270.468,248.642,270.006,268.339,250.236,0.244973,0.246374,228.312,244.764
2016-04-27 12:00,0.0178992,289.247,287.432,259.024,290.367,288.445,262.492,0.0803227,0.0469828,230.101,254.443
2016-04-27 13:00,0.104738,277.451,266.293,247.465,266.847,264.967,247.551,0.171205,0.151266,228.136,242.602
2016-04-27 14:00,0.0258086,289.779,286.55,259.024,288.763,286.06,260.34,0.0590006,0.0390829,229.685,251.949
2016-04-27 15:00,0.040478,290.939,283.148,257.346,284.501,280.554,257.282,0.0560826,0.040865,229.007,248.882
2016-04-27 16:00,0.206044,292.294,256.819,243.65,255.827,252.341,242.241,0.174457,0.186711,228.921,240.706
2016-04-27 17:00,0.038833,290.558,286.217,259.683,288.628,285.777,260.34,0.0702949,0.0540748,228.748,249.721
2016-04-27 18:00,0.183605,284.73,271.023,251.429,271.464,268.173,250.633,0.218695,0.219919,229.852,246.371
2016-04-27 19:00,0.313717,277.661,264.788,246.934,264.095,262.361,247.823,0.375595,0.409512,229.093,242.478
2016-04-27 20:00,0.47606,269.283,245.676,238.04,245.024,243.243,237.373,0.539151,0.621427,227.42,236.469
2016-04-27 21:00,1.01867,273.338,250.175,240.171,249.998,247.915,238.727,0.898192,1.15607,227.42,238.303
2016-04-27 22:00,-0.0203636,245.01,240.514,235.662,241.58,241.027,235.537,0.0,-0.0205583,227.87,235.592
2016-04-27 23:00,-0.418996,248.394,241.682,236.146,243.209,242.143,236.307,-0.131665,-0.244207,228.136,236.469
2016-04-28 00:00,-0.173379,268.382,260.692,244.765,260.524,258.408,245.489,-0.0561293,-0.100389,229.348,243.457
2016-04-28 01:00,-0.00192091,257.605,252.666,241.061,252.667,250.557,241.229,0.0,0.0,228.488,240.835
2016-04-28 02:00,0.0,253.81,248.583,240.021,248.733,244.758,236.46,0.0,0.0,228.488,238.714
2016-04-28 03:00,0.0,268.073,259.039,245.04,260.341,256.742,243.949,0.0,0.0,230.101,243.818
2016-04-28 04:00,0.0,273.338,269.343,249.797,269.842,267.84,251.683,0.0,0.0,230.916,246.595
2016-04-28 05:00,0.0,280.613,275.046,253.86,276.163,271.605,252.464,0.0,0.0,229.935,246.595
2016-04-28 06:00,0.0,252.585,248.583,239.419,249.789,249.144,240.354,0.0,0.0,229.601,240.576
2016-04-28 07:00,0.0,250.598,245.248,237.884,246.575,245.824,238.577,0.0,0.0,229.263,239.523
2016-04-28 08:00,0.0,268.986,263.401,247.067,263.92,261.299,247.823,0.0,0.0,229.769,244.998
2016-04-28 09:00,0.157294,256.589,254.69,242.513,256.598,256.367,245.767,0.566016,0.436693,229.263,244.647
2016-04-28 10:00,0.728808,281.883,257.166,243.509,259.421,258.408,246.869,0.683476,0.763716,228.748,244.764
2016-04-28 11:00,0.618897,290.813,251.53,240.766,253.269,251.354,241.953,0.649189,0.705761,229.348,242.848
2016-04-28 12:00,0.487565,297.248,253.411,241.791,254.461,252.536,243.667,0.430966,0.459771,228.488,242.23
2016-04-28 13:00,0.297825,293.587,264.175,247.332,265.31,262.008,247.823,0.27923,0.284539,228.224,244.881
2016-04-28 14:00,0.198569,288.012,268.487,249.924,268.855,264.451,248.364,0.207431,0.197864,227.055,244.056
2016-04-28 15:00,0.316307,269.576,247.769,239.115,248.733,247.293,238.876,0.379926,0.404733,227.42,239.789
2016-04-28 16:00,0.196043,259.045,243.94,236.943,243.438,242.585,235.846,0.321472,0.346981,225.931,235.295
2016-04-28 17:00,0.279759,279.667,255.05,242.656,255.827,254.089,243.667,0.343407,0.372974,227.78,242.478
2016-04-28 18:00,0.418312,292.771,269.201,250.177,271.142,269.329,252.723,0.387101,0.398762,229.348,246.707
2016-04-28 19:00,0.387214,300.042,274.524,253.381,276.163,272.883,255.027,0.349823,0.35666,231.076,248.562
2016-04-28 20:00,0.589793,295.902,279.702,256.434,281.943,279.211,257.034,0.499377,0.500773,230.996,249.093
2016-04-28 21:00,0.982502,292.889,275.046,253.381,276.01,272.086,252.723,0.755185,0.900443,228.312,245.575
2016-04-28 22:00,-0.0420484,273.338,269.059,249.797,269.842,267.171,251.291,0.0,-0.0212252,228.921,245.345
2016-04-28 23:00,-0.344118,284.57,280.549,255.742,282.374,279.211,257.034,-0.114333,-0.228673,229.935,248.455
2016-04-29 00:00,-0.138499,288.152,286.105,258.58,288.628,285.635,260.581,-0.0477753,-0.0932152,229.348,249.617
2016-04-29 01:00,-0.00193073,287.871,286.439,258.469,289.032,286.202,261.301,0.0,0.0,230.018,249.928
2016-04-29 02:00,0.0,288.012,286.772,258.691,289.568,286.626,261.062,0.0,0.0,230.593,249.825
2016-04-29 03:00,0.0015511,287.3,285.546,258.022,288.358,285.065,260.461,0.0,0.0,230.266,248.775
2016-04-29 04:00,0.0,288.012,286.661,258.358,289.3,286.626,260.942,0.0,0.0,229.178,248.987
2016-04-29 05:00,0.00173678,287.871,286.328,258.246,289.032,286.343,260.219,0.0,0.0,230.018,249.513
2016-04-29 06:00,0.0,287.729,286.328,258.469,289.166,286.485,260.701,0.0,0.0,229.433,248.987
2016-04-29 07:00,0.0,286.271,285.095,257.572,287.815,285.208,259.977,0.0,0.0,229.935,248.882
2016-04-29 08:00,0.0,287.587,286.105,257.685,288.763,286.202,259.977,0.0,0.0,231.156,249.408
2016-04-29 09:00,0.936433,286.717,284.869,257.006,287.543,284.922,260.822,0.884362,0.872663,232.86,249.721
2016-04-29 10:00,0.374857,288.43,283.38,256.434,286.172,284.061,259.977,0.421898,0.433822,232.557,249.928
2016-04-29 11:00,0.119801,289.779,285.546,257.572,288.358,285.635,260.701,0.175399,0.148663,231.63,249.721
2016-04-29 12:00,0.0801977,289.514,285.546,257.798,288.493,285.777,260.461,0.119208,0.086362,230.511,248.882
2016-04-29 13:00,0.0493346,290.171,283.38,256.089,285.757,282.321,257.653,0.0860003,0.0703147,229.769,248.348
2016-04-29 14:00,0.164924,289.779,266.145,247.597,266.167,261.477,246.044,0.157096,0.159996,228.488,241.98
2016-04-29 15:00,0.0404394,287.155,282.096,255.742,283.938,280.406,256.785,0.0653673,0.0507232,229.517,246.818
2016-04-29 16:00,0.0558163,288.841,278.721,254.217,279.76,275.706,253.111,0.078766,0.0751332,229.348,246.818
2016-04-29 17:00,0.184655,275.02,251.721,240.171,250.207,245.824,235.382,0.224324,0.233701,221.596,230.694
2016-04-29 18:00,0.327931,268.686,238.83,234.35,236.948,235.193,229.283,0.390828,0.426777,223.642,229.838
2016-04-29 19:00,0.444599,289.779,262.616,245.859,263.217,260.405,246.869,0.43046,0.473003,229.178,244.412
2016-04-29 20:00,1.10722,299.485,261.34,245.314,263.393,262.185,249.305,0.929821,1.07821,230.266,247.151
2016-04-29 21:00,1.16807,280.05,259.706,244.488,262.329,261.654,249.705,0.942185,1.17226,230.266,247.481
2016-04-29 22:00,-0.0217315,257.103,255.941,242.081,257.928,257.115,245.767,-0.0184001,0.0,228.662,245.46
2016-04-29 23:00,-0.267972,262.869,252.666,240.766,252.262,249.955,239.322,-0.0967078,-0.199574,225.546,237.608
2016-04-30 00:00,-0.121263,285.045,281.742,255.626,284.921,281.882,258.515,-0.0436909,-0.0833516,229.433,249.408
2016-04-30 01:00,-0.00194064,268.686,256.644,241.646,255.244,251.75,238.876,0.0,0.0,225.546,237.608
2016-04-30 02:00,0.0,287.444,285.77,257.572,288.087,285.635,260.219,0.0,0.0,229.517,249.617
2016-04-30 03:00,0.00155861,288.012,287.102,258.358,290.101,287.469,261.779,0.0,0.0,230.018,250.032
2016-04-30 04:00,0.00158332,286.421,285.77,257.798,288.897,286.343,261.062,0.0,0.0,229.769,250.34
2016-04-30 05:00,0.0,288.43,287.322,258.469,290.367,288.167,261.779,0.0,0.0,230.674,250.748
2016-04-30 06:00,0.0,287.01,286.105,257.685,289.166,287.048,260.942,0.0,0.0,230.755,251.352
2016-04-30 07:00,0.0,286.717,285.433,257.346,288.087,285.777,260.219,0.0,0.0,230.018,251.051
2016-04-30 08:00,0.0,286.271,285.321,257.459,288.222,286.06,260.701,0.0,0.0,230.511,251.051
2016-04-30 09:00,0.166435,285.512,284.071,256.664,286.997,284.636,260.461,0.450944,0.369656,229.601,251.051
2016-04-30 10:00,0.203944,285.97,280.669,254.808,282.66,280.257,256.909,0.287798,0.251648,228.4,248.455
2016-04-30 11:00,0.256109,280.427,256.819,242.369,255.633,250.557,237.525,0.292638,0.298721,226.778,239.39
2016-04-30 12:00,0.142286,273.586,260.365,243.79,259.974,256.742,242.671,0.248476,0.245994,227.959,242.354
2016-04-30 13:00,0.263779,286.569,251.53,240.021,251.036,248.736,239.765,0.300652,0.320439,228.921,239.656
2016-04-30 14:00,0.22404,254.966,233.392,231.098,232.502,231.968,228.446,0.449162,0.497861,224.258,229.314
2016-04-30 15:00,0.214362,279.859,255.764,241.791,257.17,255.992,245.35,0.202243,0.215175,230.43,244.175
2016-04-30 16:00,0.123999,275.48,259.206,243.226,257.928,255.803,242.384,0.159584,0.158984,226.778,237.327
2016-04-30 17:00,0.0508301,288.977,283.264,256.205,285.34,282.467,259.249,0.0747497,0.0607689,232.175,251.051
2016-04-30 18:00,0.25319,284.087,264.329,246.667,265.138,261.831,245.072,0.27882,0.286974,229.935,242.848
2016-04-30 19:00,0.231015,295.26,283.611,256.664,285.895,282.758,259.127,0.241127,0.22317,233.456,251.85
2016-04-30 20:00,0.409273,297.146,285.546,258.022,288.087,284.922,260.098,0.389847,0.370652,233.896,251.85
2016-04-30 21:00,1.06266,293.702,284.3,257.12,286.86,284.636,261.182,0.708195,0.809808,235.038,253.5
2016-04-30 22:00,0.0,285.818,284.642,257.346,287.27,285.35,261.062,0.0,-0.0227055,234.756,253.88
2016-04-30 23:00,-0.310152,279.859,272.256,250.429,272.423,269.329,249.438,-0.0937876,-0.201289,229.601,245.804
