# timestamp,IR_016,IR_039,IR_087,IR_097,IR_108,IR_120,IR_134,VIS006,VIS008,WV_062,WV_073
2015-06-01 00:00,-0.0517148,246.775,243.719,237.101,244.122,243.024,235.691,-0.0162174,-0.0328725,228.136,237.888
2015-06-01 01:00,-0.0,266.466,265.394,249.924,267.857,267.84,253.24,-0.0,-0.00153388,236.475,252.828
2015-06-01 02:00,-0.0,269.865,267.618,251.799,270.819,269.0,253.625,-0.0,-0.0,235.386,253.117
2015-06-01 03:00,-0.0,273.338,274.392,255.974,277.377,276.323,258.023,-0.0,-0.0,235.936,253.785
2015-06-01 04:00,-0.0,267.444,267.473,251.799,270.819,270.473,255.153,-0.0,-0.0,234.615,252.439
2015-06-01 05:00,0.00130502,279.667,278.721,258.58,281.076,278.76,257.9,-0.0,-0.0,233.75,252.731
2015-06-01 06:00,-0.0,282.923,281.624,260.228,283.656,281.293,259.127,-0.0,-0.0,235.386,253.117
2015-06-01 07:00,-0.0,266.466,266.145,250.429,269.35,268.835,253.368,-0.0,-0.0,235.936,252.634
2015-06-01 08:00,-0.0,273.831,274.261,255.626,276.772,276.015,257.53,-0.0,-0.0,236.274,253.595
2015-06-01 09:00,-0.00497565,266.466,268.487,251.922,271.625,271.444,255.784,-0.0,-0.0,235.799,254.162
2015-06-01 10:00,-0.818214,276.594,274.392,255.626,277.226,275.085,256.285,-0.831336,-0.991243,234.543,252.731
2015-06-01 11:00,0.479447,288.012,284.3,261.519,286.31,283.773,260.098,0.282183,0.489933,236.609,254.814
2015-06-01 12:00,0.550119,294.268,272.796,253.98,274.623,273.2,255.909,0.460749,0.528359,236.341,253.69
2015-06-01 13:00,0.476391,291.065,266.442,250.931,269.021,268.339,253.24,0.433835,0.491633,235.867,252.342
2015-06-01 14:00,0.415939,283.924,267.18,251.18,269.679,269.329,253.24,0.4131,0.497874,236.004,253.69
2015-06-01 15:00,0.22664,295.26,288.628,264.339,289.968,286.343,261.062,0.0939065,0.220693,234.686,255.275
2015-06-01 16:00,0.378747,290.685,273.333,255.043,275.55,274.304,256.66,0.301741,0.377528,234.401,254.256
2015-06-01 17:00,0.205032,294.823,288.303,264.236,290.101,287.048,261.779,0.113788,0.196555,233.456,253.974
2015-06-01 18:00,0.257576,292.053,283.495,261.519,285.34,282.321,259.249,0.237129,0.295123,233.968,253.213
2015-06-01 19:00,0.214904,279.081,271.711,253.621,271.945,269.984,252.853,0.366281,0.391652,232.481,251.152
2015-06-01 20:00,0.340646,290.939,283.495,261.412,284.501,281.146,257.653,0.340083,0.395231,232.709,253.69
2015-06-01 21:00,0.651647,287.729,284.869,262.155,286.31,283.629,259.856,0.772448,0.986815,233.382,254.536
2015-06-01 22:00,-0.00576821,284.087,282.448,260.661,284.361,281.735,258.515,-0.0,-0.0,233.234,253.785
2015-06-01 23:00,-0.120587,274.314,271.574,254.336,273.215,271.121,253.753,-0.0356167,-0.0736104,232.251,252.244
2015-06-02 00:00,-0.0632581,285.512,284.3,261.625,286.447,284.492,259.856,-0.0178535,-0.0348342,233.159,254.349
2015-06-02 01:00,-0.00152054,283.428,281.742,260.119,283.372,280.998,257.9,-0.0,-0.0,231.315,252.925
2015-06-02 02:00,-0.0,277.24,271.299,253.741,271.142,268.67,249.705,-0.0,-0.0,228.4,246.258
2015-06-02 03:00,-0.0,280.799,276.336,256.778,277.528,274.617,253.111,-0.0,-0.0,228.048,248.025
2015-06-02 04:00,-0.0,277.026,271.711,253.741,271.785,269.165,249.438,-0.0,-0.0,226.405,244.881
2015-06-02 05:00,-0.0,280.982,277.852,257.233,278.128,275.24,254.264,-0.0,-0.0,226.778,247.699
2015-06-02 06:00,-0.0,249.156,240.277,235.499,239.426,238.049,232.387,-0.0,-0.0,223.849,231.031
2015-06-02 07:00,-0.001837,269.283,259.54,246.13,258.491,255.425,242.384,-0.0,-0.0,225.643,238.714
2015-06-02 08:00,0.00261123,256.589,249.978,239.721,248.733,247.501,237.977,-0.0,-0.0,226.311,237.748
2015-06-02 09:00,0.00495462,256.062,246.102,238.503,244.8,242.585,234.76,-0.0,-0.0,224.359,234.082
2015-06-02 10:00,-0.225218,252.585,248.38,239.57,249.157,248.736,240.354,-0.508511,-0.606323,227.055,238.027
2015-06-02 11:00,0.524373,272.836,264.635,249.286,267.354,266.329,251.159,0.548746,0.594815,228.224,245.918
2015-06-02 12:00,0.674955,279.278,263.712,248.771,265.826,265.48,251.291,0.733319,0.823116,228.748,246.258
2015-06-02 13:00,0.441837,284.57,266.293,250.429,268.524,267.339,250.896,0.413671,0.484662,228.136,245.69
2015-06-02 14:00,0.564901,293.356,265.995,250.429,268.69,267.506,252.335,0.46191,0.550758,228.662,247.481
2015-06-02 15:00,0.365754,294.491,272.662,254.808,274.312,271.444,254.137,0.253749,0.336717,228.748,248.133
2015-06-02 16:00,0.262662,287.587,272.662,254.217,271.625,269.165,251.422,0.248161,0.294277,227.147,244.764
2015-06-02 17:00,0.328032,263.636,245.248,238.657,244.8,243.461,236.307,0.385918,0.451434,225.352,235.146
2015-06-02 18:00,0.344106,274.314,257.683,245.451,257.928,255.803,243.808,0.348584,0.428041,228.488,243.093
2015-06-02 19:00,0.520124,269.865,248.985,240.32,249.157,247.085,237.827,0.532728,0.649313,227.51,237.327
2015-06-02 20:00,0.88145,293.93,270.468,253.381,272.582,270.635,254.009,0.720439,0.859014,229.178,249.721
2015-06-02 21:00,0.329019,279.081,275.306,255.51,277.377,274.617,256.16,0.835739,0.93006,229.263,249.928
2015-06-02 22:00,-0.0,278.883,275.951,255.858,278.725,276.323,256.535,-0.0,-0.0,229.517,250.135
2015-06-02 23:00,-0.134722,281.883,277.601,256.892,279.022,276.015,254.009,-0.0380229,-0.0680049,229.433,248.241
2015-06-03 00:00,-0.0479634,283.76,281.505,259.024,283.23,280.85,258.392,-0.0162442,-0.0348638,229.601,249.303
2015-06-03 01:00,-0.00152175,283.093,281.624,259.574,284.079,281.735,258.638,-0.0,-0.0,229.517,250.646
2015-06-03 02:00,-0.0,285.818,284.755,260.769,287.27,285.208,260.581,-0.0,-0.0,229.433,250.849
2015-06-03 03:00,-0.0,271.798,269.343,252.777,271.945,269.329,251.553,-0.0,-0.0,227.329,247.151
2015-06-03 04:00,-0.0,282.234,278.845,258.022,280.201,276.784,254.137,-0.0,-0.0,227.51,248.348
2015-06-03 05:00,-0.0,281.705,278.101,257.459,278.725,274.929,252.335,-0.0,-0.0,226.871,248.025
2015-06-03 06:00,-0.00148124,280.239,276.208,255.858,277.075,273.675,252.335,-0.0,-0.0,226.685,247.04
2015-06-03 07:00,-0.0,281.883,280.187,258.469,282.087,279.661,256.41,-0.0,-0.0,227.87,249.408
2015-06-03 08:00,0.00260721,280.427,277.977,257.12,279.76,277.091,255.153,-0.0,-0.0,227.78,249.198
2015-06-03 09:00,-0.0,275.48,273.599,253.86,275.396,273.042,254.009,-0.0,-0.0,227.601,249.617
2015-06-03 10:00,-0.624655,274.787,269.201,251.18,269.021,266.498,248.903,-0.58766,-0.770765,226.499,246.145
2015-06-03 11:00,0.433378,279.278,266.886,249.797,267.016,264.279,246.457,0.402126,0.533416,226.216,244.175
2015-06-03 12:00,0.290929,288.977,279.213,257.459,280.931,278.911,257.406,0.223474,0.296738,229.935,252.828
2015-06-03 13:00,0.317518,292.653,288.628,262.995,290.367,287.748,261.54,0.133519,0.294737,231.394,255.73
2015-06-03 14:00,0.262908,294.823,290.335,263.928,291.948,288.999,262.017,0.103085,0.238701,230.996,255.548
2015-06-03 15:00,0.227714,296.531,291.383,264.747,292.989,289.413,262.61,0.0847796,0.197282,231.473,256.181
2015-06-03 16:00,0.213459,296.84,291.487,265.153,292.989,289.551,262.61,0.0815349,0.189575,232.02,256.805
2015-06-03 17:00,0.178172,292.174,286.105,261.731,287.951,285.493,260.701,0.165505,0.244491,231.943,256.36
2015-06-03 18:00,0.135431,292.771,288.843,263.203,290.367,288.027,262.017,0.112932,0.161585,230.755,256.45
2015-06-03 19:00,0.187687,292.771,288.628,263.203,289.568,286.626,261.062,0.12808,0.200794,230.018,254.443
2015-06-03 20:00,0.158239,291.19,289.486,263.618,291.555,288.999,262.965,0.172878,0.211284,230.996,256.36
2015-06-03 21:00,0.463669,288.152,286.992,262.155,288.763,287.048,261.182,0.729092,0.936203,229.935,254.722
2015-06-03 22:00,-0.00577589,287.3,287.322,262.049,289.568,287.888,261.898,-0.0,-0.0,231.315,256.36
2015-06-03 23:00,-0.101134,286.121,286.55,261.731,289.032,287.609,262.255,-0.0333007,-0.0680675,230.996,256.181
2015-06-04 00:00,-0.0614475,285.665,286.439,261.519,289.3,287.888,262.965,-0.0162586,-0.0348946,231.156,256.628
2015-06-04 01:00,-0.0,285.357,286.439,261.519,288.897,288.027,263.083,-0.0,-0.0,233.603,257.855
2015-06-04 02:00,-0.00265215,285.045,286.439,261.731,289.032,287.888,263.083,-0.0,-0.0,234.827,258.457
2015-06-04 03:00,-0.0,285.045,286.328,261.412,289.032,288.306,262.847,-0.0,-0.0,235.455,258.713
2015-06-04 04:00,-0.0,284.73,286.439,261.198,289.3,288.861,263.436,-0.0,-0.0,235.799,259.051
2015-06-04 05:00,-0.00130587,284.73,286.328,261.198,289.166,288.584,262.965,-0.0,-0.0,236.675,259.304
2015-06-04 06:00,-0.00148107,284.57,286.217,261.305,289.166,288.584,263.436,-0.0,-0.0,234.968,258.713
2015-06-04 07:00,-0.0018348,284.249,286.105,261.091,289.3,288.999,263.787,-0.0,-0.0,234.185,258.286
2015-06-04 08:00,-0.00260318,284.249,285.77,261.091,288.897,288.445,263.67,-0.0,-0.0,233.896,258.028
2015-06-04 09:00,-0.0,284.249,285.658,260.876,288.628,287.888,263.318,-0.0,-0.0,233.159,257.246
2015-06-04 10:00,-0.258343,281.346,282.214,258.913,285.479,284.636,260.942,-0.546846,-0.652031,234.113,257.158
2015-06-04 11:00,0.574217,289.647,283.264,259.464,286.447,284.205,260.461,0.344383,0.60386,234.827,256.894
2015-06-04 12:00,0.508997,296.635,279.945,257.685,283.372,280.85,258.882,0.318762,0.474335,234.401,256.091
2015-06-04 13:00,0.568607,299.108,271.574,252.899,275.087,273.832,256.16,0.412661,0.522249,234.827,254.907
2015-06-04 14:00,0.497092,298.822,271.023,252.534,274.623,273.517,256.035,0.356481,0.462554,234.472,254.536
2015-06-04 15:00,0.338287,299.765,278.598,257.798,281.655,278.609,258.147,0.17816,0.284328,234.756,255.091
2015-06-04 16:00,0.205845,297.248,293.944,266.059,296.684,293.75,264.022,0.0789747,0.199696,235.317,257.158
2015-06-04 17:00,0.206225,295.69,290.335,263.825,292.86,289.964,261.779,0.0953756,0.206447,235.178,257.07
2015-06-04 18:00,0.497421,294.156,277.098,255.974,280.347,278.76,258.638,0.389839,0.514627,236.475,257.333
2015-06-04 19:00,0.210432,294.602,291.383,264.339,293.635,291.193,263.553,0.125909,0.226607,235.799,258.028
2015-06-04 20:00,0.204496,291.686,290.965,264.133,293.506,291.6,263.553,0.177475,0.263225,236.742,258.713
2015-06-04 21:00,0.199391,287.3,288.087,262.366,290.897,290.101,263.436,0.562746,0.670989,236.94,259.051
2015-06-04 22:00,-0.00578171,285.512,286.992,261.198,289.835,289.413,263.553,-0.0,-0.00583698,240.253,260.952
2015-06-04 23:00,-0.112484,284.73,286.439,260.553,289.3,288.861,263.787,-0.0357151,-0.0652968,241.189,261.914
2015-06-05 00:00,-0.0557381,284.087,285.546,260.011,288.493,288.306,263.2,-0.0179009,-0.0349268,235.247,260.627
2015-06-05 01:00,-0.00152424,283.428,285.546,260.119,288.493,288.584,263.905,-0.0,-0.0,235.936,261.194
2015-06-05 02:00,-0.00132702,279.473,278.968,256.205,281.076,280.554,259.37,-0.0,-0.0,232.784,256.45
2015-06-05 03:00,0.00124043,282.753,284.982,259.902,287.679,287.748,263.436,-0.0,-0.0,236.341,262.072
2015-06-05 04:00,-0.0,282.408,284.642,259.793,287.679,287.888,263.905,-0.0,-0.0,236.475,262.466
2015-06-05 05:00,-0.0,282.408,284.642,259.902,287.407,287.748,263.905,-0.0,-0.0,236.609,262.857
2015-06-05 06:00,-0.0,282.059,284.528,259.683,287.134,287.609,263.905,-0.0,-0.0,237.137,263.09
2015-06-05 07:00,-0.0,281.346,283.841,259.354,286.585,287.188,263.318,-0.0,-0.0,236.341,262.388
2015-06-05 08:00,-0.0,281.705,283.611,259.134,286.31,286.907,263.2,-0.0,-0.0,236.408,262.151
2015-06-05 09:00,-0.00489296,280.982,283.495,258.913,286.033,286.767,263.083,-0.0,-0.0,236.139,262.072
2015-06-05 10:00,-0.120879,281.165,283.611,259.134,286.172,286.767,263.2,-0.460568,-0.48814,235.867,262.309
2015-06-05 11:00,0.403741,285.512,286.439,260.984,289.3,289.137,263.553,0.239803,0.0,0.0,261.834
2015-06-05 12:00,0.387092,290.558,289.699,263.203,292.6,291.871,264.721,0.166436,0.390793,237.268,262.072
2015-06-05 13:00,0.321612,294.156,292.52,264.645,295.17,294.282,265.185,0.125262,0.309535,237.849,262.151
2015-06-05 14:00,0.262462,296.008,294.446,265.959,297.309,295.865,265.762,0.096098,0.250649,238.104,262.388
2015-06-05 15:00,0.227088,297.045,295.045,266.657,297.558,295.865,265.762,0.0824038,0.209609,238.608,262.388
2015-06-05 16:00,0.240072,297.848,292.314,265.153,294.916,292.545,263.905,0.102316,0.222848,238.041,260.952
2015-06-05 17:00,0.232618,297.848,292.52,265.254,295.297,292.948,264.605,0.0999487,0.215564,238.483,261.275
2015-06-05 18:00,0.244981,297.649,292.005,264.747,294.916,292.41,264.255,0.115043,0.232775,240.134,261.993
2015-06-05 19:00,0.264117,295.476,290.651,264.133,293.506,291.329,264.138,0.164152,0.292171,240.899,261.993
2015-06-05 20:00,0.184281,291.44,291.591,264.645,294.277,292.814,264.605,0.160364,0.248056,242.71,262.309
2015-06-05 21:00,0.398867,286.717,287.432,261.412,290.234,289.413,263.787,0.731727,0.872474,242.929,262.23
2015-06-05 22:00,-0.00578882,282.408,282.916,258.913,286.172,285.208,261.301,-0.0,-0.0,244.164,262.072
2015-06-05 23:00,-0.101346,281.346,282.448,259.024,285.618,284.492,261.54,-0.0357538,-0.0710516,244.635,262.388
2015-06-06 00:00,-0.0692581,282.234,283.495,259.024,286.31,285.493,262.017,-0.0195469,-0.0349601,244.111,262.623
2015-06-06 01:00,-0.00152551,283.428,285.321,260.228,287.951,287.748,263.436,-0.0,-0.0,244.111,263.012
2015-06-06 02:00,-0.0,276.811,278.101,255.858,281.366,280.257,259.37,-0.0,-0.0,243.953,262.151
2015-06-06 03:00,-0.0,277.661,279.336,257.006,282.374,281.882,260.581,-0.0,-0.0,244.164,262.309
2015-06-06 04:00,-0.00123461,282.408,283.956,259.244,286.722,286.343,262.255,-0.0,-0.0,243.31,262.857
2015-06-06 05:00,-0.0,278.883,280.909,258.134,284.361,283.629,261.66,-0.0,-0.0,242.875,262.701
2015-06-06 06:00,-0.0,282.234,284.071,258.913,286.585,286.343,262.728,-0.0,-0.0,242.489,262.779
2015-06-06 07:00,-0.0,278.482,280.066,257.346,283.088,283.049,260.942,-0.0,-0.0,242.433,262.545
2015-06-06 08:00,-0.0,276.811,278.598,256.32,282.231,281.588,260.098,-0.0,-0.0,241.246,261.755
2015-06-06 09:00,-0.0,281.526,283.726,258.802,286.31,286.485,262.728,-0.0,-0.0,241.304,262.623
2015-06-06 10:00,-0.11368,281.165,283.264,258.58,286.172,286.06,262.965,-0.481264,-0.516451,241.246,262.857
2015-06-06 11:00,0.424921,285.665,285.994,260.228,288.763,288.445,263.2,0.241567,0.484138,241.704,262.779
2015-06-06 12:00,0.397752,291.19,289.911,262.786,292.73,291.871,264.605,0.169673,0.395424,242.211,263.167
2015-06-06 13:00,0.331158,295.368,293.235,265.052,296.182,294.679,265.647,0.12745,0.310443,241.76,263.322
2015-06-06 14:00,0.266645,297.045,294.546,266.259,297.309,295.339,265.532,0.0993378,0.253042,241.476,263.012
2015-06-06 15:00,0.229178,297.749,295.343,266.954,298.302,296.389,265.532,0.0825723,0.216601,241.874,263.244
2015-06-06 16:00,0.221134,298.045,295.144,266.954,297.931,295.865,265.878,0.0779003,0.200435,242.765,263.552
2015-06-06 17:00,0.279937,297.848,291.383,264.645,294.021,291.735,263.787,0.156052,0.270325,241.874,263.012
2015-06-06 18:00,0.272132,297.146,290.44,264.236,293.248,290.784,263.787,0.144881,0.264327,241.986,263.012
2015-06-06 19:00,0.323525,294.602,289.486,263.618,292.079,290.238,263.318,0.211996,0.332298,242.322,263.012
2015-06-06 20:00,0.276694,291.686,290.017,263.928,292.6,290.921,264.022,0.234276,0.336242,242.211,262.935
2015-06-06 21:00,0.994269,286.717,286.55,262.049,289.434,288.027,262.61,0.954092,1.27145,241.874,262.623
2015-06-06 22:00,-0.00579721,285.357,286.55,261.625,289.032,288.445,262.847,-0.0,-0.0,242.266,263.09
2015-06-06 23:00,-0.126829,284.73,285.994,261.198,288.628,288.306,263.67,-0.0381816,-0.071134,242.655,263.244
2015-06-07 00:00,-0.0500691,284.249,285.994,261.198,288.763,288.445,263.553,-0.0163052,-0.0330505,242.71,263.322
2015-06-07 01:00,-0.00152681,283.76,285.882,261.091,288.358,287.888,263.436,-0.0,-0.0,243.31,263.629
2015-06-07 02:00,-0.00132889,283.594,285.658,261.091,288.222,287.888,263.787,-0.0,-0.0,243.686,264.086
2015-06-07 03:00,-0.0,283.594,285.546,260.876,288.222,288.027,263.905,-0.0,-0.0,243.31,264.314
2015-06-07 04:00,-0.0,283.261,285.433,261.091,288.087,288.027,263.67,-0.0,-0.0,243.147,264.238
2015-06-07 05:00,-0.0013065,283.594,285.208,260.876,288.087,288.027,263.67,-0.0,-0.0,242.71,263.782
2015-06-07 06:00,-0.0,282.923,285.208,261.091,287.951,287.469,263.436,-0.0,-0.0,242.433,263.858
2015-06-07 07:00,-0.00183127,283.261,285.208,261.091,287.815,287.748,263.318,-0.0,-0.0,242.875,264.01
2015-06-07 08:00,-0.0,283.261,285.208,260.984,287.951,287.609,263.905,-0.0,-0.0,242.984,264.238
2015-06-07 09:00,-0.0048532,283.428,285.208,260.984,287.951,287.888,263.318,-0.0,-0.0,243.147,264.238
2015-06-07 10:00,-0.161068,283.261,285.546,261.091,287.951,288.027,263.787,-0.409128,-0.433621,243.256,264.389
2015-06-07 11:00,0.415772,287.01,287.541,262.576,290.234,289.551,263.787,0.243317,0.475302,243.633,264.54
2015-06-07 12:00,0.374922,292.053,290.86,264.849,292.989,291.871,264.721,0.167756,0.384661,244.269,264.765
2015-06-07 13:00,0.308377,295.583,292.929,266.259,295.297,293.35,265.301,0.124161,0.302617,244.164,264.765
2015-06-07 14:00,0.253003,296.943,294.145,267.249,296.559,294.282,265.416,0.0965487,0.246428,244.531,264.765
2015-06-07 15:00,0.254053,298.045,292.417,266.159,294.661,292.41,264.721,0.114448,0.238396,244.374,264.389
2015-06-07 16:00,0.266781,297.045,289.911,265.052,292.209,289.964,263.318,0.156065,0.257905,244.322,264.238
2015-06-07 17:00,0.301249,296.84,287.869,263.825,290.367,288.306,262.728,0.18872,0.300613,244.479,264.01
2015-06-07 18:00,0.301383,294.933,287.432,263.099,289.166,287.469,262.255,0.22372,0.323021,244.322,263.782
2015-06-07 19:00,0.422443,294.491,284.982,261.944,287.134,284.922,261.182,0.31476,0.435012,243.953,263.167
2015-06-07 20:00,0.430717,292.294,286.439,262.681,288.358,286.202,261.898,0.382054,0.460718,244.374,263.629
2015-06-07 21:00,0.658905,286.421,285.882,262.049,287.407,285.777,261.182,0.892631,1.13085,244.687,263.399
2015-06-07 22:00,-0.0116137,283.428,284.3,261.198,286.31,284.492,261.301,-0.0,-0.0,245.048,263.706
2015-06-07 23:00,-0.135451,282.923,283.726,260.876,285.895,284.636,261.182,-0.040618,-0.0740706,245.253,264.01
2015-06-08 00:00,-0.0655416,282.923,284.185,261.198,286.447,285.35,261.66,-0.0179539,-0.0330841,244.687,264.01
2015-06-08 01:00,-0.00152811,284.41,285.658,262.155,287.815,286.767,262.492,-0.0,-0.0,244.997,264.314
2015-06-08 02:00,0.00132982,283.76,284.869,261.838,287.27,286.343,262.255,-0.0,-0.0,244.997,264.464
2015-06-08 04:00,-0.0,282.753,284.869,261.838,287.134,286.767,262.728,-0.0,-0.0,245.151,265.286
2015-06-08 05:00,-0.0,282.408,284.642,261.519,286.997,286.907,263.67,-0.0,-0.0,245.355,265.286
2015-06-08 06:00,0.00148011,282.234,284.3,261.625,286.722,286.626,262.847,-0.0,-0.0,245.202,265.36
2015-06-08 07:00,-0.0,281.705,284.071,261.305,286.722,286.767,263.2,-0.0,-0.0,245.608,265.36
2015-06-08 08:00,-0.0,281.883,283.726,261.091,286.172,285.919,262.965,-0.0,-0.0,245.202,264.839
2015-06-08 09:00,-0.0,282.059,283.841,261.091,286.31,286.343,262.61,-0.0,-0.0,245.355,264.839
2015-06-08 10:00,-0.101824,282.408,283.841,260.876,286.31,286.06,262.373,-0.387965,-0.411191,245.859,264.765
2015-06-08 11:00,0.406422,286.421,286.217,262.261,288.493,287.748,262.847,0.245053,0.466258,246.159,265.137
2015-06-08 12:00,0.388589,291.44,289.593,264.747,291.817,290.238,264.022,0.170986,0.389215,246.75,265.286
2015-06-08 13:00,0.320037,295.151,292.52,266.458,294.405,292.41,264.721,0.126333,0.301265,246.603,265.507
2015-06-08 14:00,0.260703,296.84,293.539,267.249,295.677,293.082,265.069,0.0982731,0.24697,246.258,265.655
2015-06-08 15:00,0.247997,296.323,290.86,0.0,292.86,290.375,263.787,0.128474,0.245426,246.307,265.801
2015-06-08 16:00,0.244533,296.323,290.86,265.456,292.73,290.375,263.787,0.130261,0.232157,246.208,265.212
2015-06-08 17:00,0.285969,293.93,286.328,262.786,288.358,286.626,262.61,0.202266,0.292223,246.406,264.54
2015-06-08 18:00,0.320333,294.38,285.77,262.049,287.407,285.635,261.898,0.237978,0.356778,246.75,264.314
2015-06-08 19:00,0.335442,292.889,283.841,261.412,286.033,284.349,261.421,0.300725,0.426868,246.993,263.934
2015-06-08 20:00,0.297528,292.771,288.52,264.236,290.234,288.167,263.083,0.238886,0.326266,247.712,264.54
2015-06-08 21:00,0.783676,288.43,288.195,264.031,290.367,289.276,264.372,0.829421,1.05489,248.137,265.063
2015-06-08 22:00,-0.00581772,285.97,287.322,263.203,289.968,289.276,264.255,-0.0,-0.0,248.231,265.655
2015-06-08 23:00,-0.124325,285.202,0.0,262.681,289.032,288.584,263.905,-0.0382785,-0.0741672,248.324,265.801
2015-06-09 00:00,-0.0617507,284.249,285.658,262.261,288.493,287.609,264.138,-0.0179727,-0.0350668,248.557,266.021
2015-06-09 01:00,-0.0,284.249,285.994,262.261,288.493,288.306,264.488,-0.0,-0.0,248.695,265.728
2015-06-09 02:00,-0.0,284.087,285.433,262.155,288.087,287.748,263.905,-0.0,-0.0,248.557,265.434
2015-06-09 03:00,-0.00124314,283.428,285.095,261.731,287.951,287.329,263.318,-0.0,-0.0,248.971,265.286
2015-06-09 04:00,-0.0,283.594,285.658,261.944,288.222,288.306,264.138,-0.0,-0.0,249.108,265.728
2015-06-09 05:00,-0.0,283.261,285.658,262.155,288.493,288.584,264.488,-0.0,-0.0,249.426,266.094
2015-06-09 06:00,-0.0,283.428,285.77,262.261,288.628,288.861,264.721,-0.0,-0.0,249.606,266.456
2015-06-09 07:00,-0.0,283.428,285.658,262.155,288.358,288.445,264.138,-0.0,-0.0,249.561,266.601
2015-06-09 08:00,-0.00258287,283.428,285.433,261.838,288.222,288.445,264.022,-0.0,-0.0,249.516,266.384
2015-06-09 09:00,-0.0,282.923,285.208,261.625,288.087,288.027,264.255,-0.0,-0.0,249.426,265.875
2015-06-09 10:00,-0.0484491,283.428,284.982,261.519,287.815,287.609,263.905,-0.369196,-0.391298,249.108,265.507
2015-06-09 12:00,0.377744,292.294,290.756,265.153,292.989,291.464,264.837,0.166418,0.378255,249.335,266.166
2015-06-09 13:00,0.305707,295.476,293.235,267.151,295.55,293.617,265.301,0.12116,0.304252,249.516,265.875
2015-06-09 14:00,0.257672,296.84,293.843,267.642,295.93,293.483,265.647,0.0984798,0.24749,249.606,266.021
2015-06-09 15:00,0.233721,297.248,293.031,266.855,294.788,291.871,264.022,0.0996376,0.231005,249.561,266.094
2015-06-09 16:00,0.280576,295.042,286.992,263.203,289.3,287.048,262.255,0.190875,0.307819,249.606,265.728
2015-06-09 17:00,0.246172,293.702,286.661,262.786,288.493,286.485,262.492,0.186259,0.278489,249.606,265.581
2015-06-09 18:00,0.246185,295.26,290.44,265.153,292.47,289.826,263.318,0.147137,0.252716,249.471,265.286
2015-06-09 19:00,0.245419,295.368,290.44,265.456,292.47,289.826,264.255,0.150473,0.253461,249.471,264.989
2015-06-09 20:00,0.27192,292.771,290.86,265.758,293.119,291.329,264.488,0.208514,0.315957,249.245,265.507
2015-06-09 21:00,0.258182,288.012,288.843,264.236,291.16,290.238,264.022,0.655806,0.716787,248.787,264.615
2015-06-09 22:00,-0.0058298,286.271,287.212,263.203,289.968,288.722,263.905,-0.0,-0.0,248.971,264.314
2015-06-09 23:00,-0.118837,285.818,286.772,262.995,289.3,288.584,264.022,-0.0359354,-0.074269,249.108,264.238
2015-06-10 00:00,-0.0618168,285.045,286.882,262.89,289.166,288.861,263.67,-0.0179919,-0.0351043,248.971,264.314
2015-06-10 01:00,-0.00153075,284.73,286.661,262.576,289.3,288.999,263.787,-0.0,-0.0,249.83,264.69
2015-06-10 02:00,-0.00133167,284.41,286.105,262.155,288.897,288.306,263.67,-0.0,-0.0,248.695,263.782
2015-06-10 03:00,-0.0,284.57,285.882,262.155,288.628,288.167,263.553,-0.0,-0.0,245.96,261.914
2015-06-10 04:00,-0.0,284.57,285.882,262.261,288.493,287.609,263.083,-0.0,0.00124813,245.608,261.113
2015-06-10 05:00,-0.0,284.57,285.658,262.049,288.358,287.329,263.083,-0.0,-0.0,245.048,260.708
2015-06-10 06:00,-0.0,284.087,285.208,261.838,287.951,287.329,262.728,-0.0,-0.0,244.687,260.545
2015-06-10 07:00,-0.0,283.76,285.095,261.198,287.815,287.048,263.318,-0.0,-0.0,244.374,260.627
2015-06-10 08:00,-0.0,283.76,285.208,261.412,288.222,287.469,263.436,-0.0,-0.0,243.793,260.381
2015-06-10 09:00,-0.0,283.594,285.321,261.091,288.222,287.609,263.318,-0.0,-0.0,242.929,259.887
2015-06-10 10:00,-0.0925061,283.76,285.321,261.519,288.493,287.888,263.553,-0.352461,-0.373562,242.544,259.471
2015-06-10 11:00,0.437057,287.587,287.651,262.681,290.764,289.689,264.605,0.248466,0.479055,242.544,259.387
2015-06-10 12:00,0.400677,292.771,290.756,264.95,293.506,291.735,264.138,0.174845,0.382726,242.489,259.387
2015-06-10 13:00,0.317354,295.583,292.52,265.859,295.297,293.082,265.069,0.12699,0.300638,241.704,259.051
2015-06-10 14:00,0.263567,297.045,293.235,266.657,295.677,293.082,264.488,0.0986771,0.246176,241.015,258.713
2015-06-10 15:00,0.237381,298.045,293.438,267.052,295.93,293.082,264.255,0.0873266,0.213206,241.131,258.967
2015-06-10 16:00,0.240361,296.323,290.335,265.052,292.34,289.551,263.083,0.127883,0.23938,240.957,257.942
2015-06-10 17:00,0.258687,294.602,287.541,263.203,289.968,287.748,262.492,0.193871,0.278806,240.371,257.942
2015-06-10 18:00,0.262969,293.93,287.978,263.618,290.101,287.329,262.492,0.177072,0.280116,239.834,257.333
2015-06-10 19:00,0.378215,290.813,284.185,261.412,286.86,285.208,261.301,0.325014,0.435971,240.074,257.158
2015-06-10 20:00,0.261628,292.653,290.123,264.747,292.6,290.238,263.905,0.204146,0.300382,238.981,257.246
2015-06-10 21:00,0.445367,287.871,288.087,263.515,291.16,289.689,263.905,0.754183,0.899249,238.608,256.716
2015-06-10 22:00,-0.00584307,286.121,286.882,262.89,290.101,288.999,263.787,-0.0,-0.0,238.42,256.628
2015-06-10 23:00,-0.133176,285.512,286.105,262.261,289.166,288.306,263.2,-0.0359871,-0.0715153,238.919,256.716
2015-06-11 00:00,-0.0502811,284.57,285.882,262.049,288.897,288.027,263.436,-0.0163742,-0.031238,238.041,256.539
2015-06-11 01:00,-0.00153209,284.73,285.658,262.261,289.032,288.167,263.2,-0.0,-0.0,237.721,256.091
2015-06-11 02:00,-0.0,284.249,285.433,262.049,288.628,288.027,263.436,-0.0,-0.00134532,237.913,256.091
2015-06-11 03:00,-0.0012444,283.924,285.433,261.625,288.628,288.306,263.318,-0.0,-0.0,236.808,256.628
2015-06-11 04:00,-0.0,283.428,285.095,261.519,288.222,288.027,263.787,-0.0,-0.0,236.475,257.421
2015-06-11 05:00,-0.0,283.594,285.208,261.412,288.358,287.888,263.553,-0.0,-0.0,235.731,257.07
2015-06-11 06:00,0.00147909,283.428,285.095,261.519,288.358,288.306,263.2,-0.0,-0.0,235.662,256.805
2015-06-11 07:00,0.00182616,283.428,285.095,261.305,288.493,288.027,263.436,-0.0,-0.0,235.178,256.894
2015-06-11 08:00,-0.00257475,282.923,284.642,260.984,287.951,287.888,262.965,-0.0,-0.0,233.823,256.45
2015-06-11 09:00,-0.0,282.923,284.3,260.769,287.679,287.469,263.553,-0.0,-0.0,232.935,256.091
2015-06-11 10:00,-0.0,282.581,284.528,260.553,287.679,287.609,263.083,-0.187484,-0.178837,232.784,256.539
2015-06-11 11:00,0.395997,279.473,272.662,252.656,273.372,272.086,251.422,0.303357,0.488623,229.433,249.198
2015-06-11 12:00,0.432999,288.012,280.789,258.134,281.799,279.211,255.784,0.233065,0.443383,229.348,251.051
2015-06-11 13:00,0.335561,286.717,275.694,255.393,275.55,272.883,252.853,0.202942,0.351968,228.575,245.575
2015-06-11 14:00,0.183231,284.73,274.129,254.572,273.057,269.657,249.438,0.150579,0.224881,227.691,245.345
2015-06-11 15:00,0.265621,264.377,241.218,235.985,239.426,237.345,230.111,0.313751,0.390654,223.224,228.782
2015-06-11 16:00,0.31872,259.954,231.997,230.921,231.131,228.59,224.834,0.448848,0.54175,223.329,228.603
2015-06-11 17:00,0.328937,272.061,246.523,238.657,245.248,242.805,235.846,0.397026,0.485758,226.778,235.74
2015-06-11 18:00,0.225868,295.796,291.174,265.254,293.764,290.784,263.2,0.110535,0.215476,231.63,251.85
2015-06-11 19:00,0.208948,294.156,291.07,265.153,293.892,291.329,263.436,0.117147,0.222347,231.63,251.85
2015-06-11 20:00,0.220502,292.053,290.335,264.747,293.377,291.193,263.436,0.169332,0.253672,231.552,251.85
2015-06-11 21:00,0.250237,287.01,287.432,262.995,290.632,289.413,262.965,0.635627,0.694731,231.63,252.342
2015-06-11 22:00,-0.00585752,285.357,286.105,262.155,289.3,288.167,262.847,-0.0,-0.0,231.787,252.731
2015-06-11 23:00,-0.10216,283.428,283.495,260.228,286.172,285.208,260.461,-0.0336384,-0.0716227,231.394,252.925
2015-06-12 00:00,-0.0677617,280.982,279.58,257.459,281.655,280.257,257.777,-0.0180318,-0.035182,229.935,250.646
2015-06-12 01:00,-0.00153343,283.594,284.869,261.198,287.951,287.469,262.965,-0.0,-0.0,230.43,253.405
2015-06-12 02:00,-0.00133348,283.261,284.528,260.661,287.815,287.329,262.728,-0.0,-0.0,231.315,254.068
2015-06-12 03:00,-0.0,279.278,277.098,256.205,279.17,275.085,253.368,-0.0,-0.0,230.916,250.95
2015-06-12 04:00,-0.0,251.282,248.177,238.963,247.229,246.876,239.025,-0.0,-0.0,230.101,238.303
2015-06-12 05:00,-0.0,275.707,273.997,253.98,275.242,272.246,252.594,-0.0,-0.0,231.552,248.987
2015-06-12 06:00,-0.0,246.775,247.973,239.721,246.794,246.666,240.646,-0.0,-0.0,231.076,238.165
2015-06-12 07:00,-0.0,282.408,283.611,259.683,287.134,286.626,262.373,-0.0,-0.0,234.827,253.974
2015-06-12 08:00,-0.0,282.059,283.38,259.464,286.447,286.202,262.255,-0.0,-0.0,236.139,254.907
2015-06-12 09:00,-0.00475945,281.705,283.264,259.574,286.447,286.343,262.61,-0.0,-0.0,236.408,255.366
2015-06-12 10:00,-0.0850329,281.526,283.148,259.354,286.447,286.202,262.136,-0.25199,-0.214614,236.675,255.821
2015-06-12 11:00,0.404925,285.357,285.546,260.769,288.628,287.748,262.136,0.25178,0.466283,237.398,255.911
2015-06-12 12:00,0.384802,290.813,288.843,262.89,291.555,289.964,262.965,0.170788,0.379081,237.333,255.275
2015-06-12 13:00,0.310136,294.823,291.798,264.747,294.661,292.141,263.67,0.125748,0.302076,237.849,255.821
2015-06-12 14:00,0.264543,297.045,293.641,266.059,296.307,293.35,263.905,0.0990424,0.24527,238.041,256.271
2015-06-12 15:00,0.22988,297.947,294.145,266.557,296.935,293.883,264.022,0.0820264,0.210527,238.104,255.911
2015-06-12 16:00,0.205129,297.848,293.742,266.159,296.307,293.216,264.372,0.079949,0.185723,238.483,256.181
2015-06-12 17:00,0.199642,297.449,293.235,266.059,295.677,292.814,263.905,0.0874838,0.182103,238.857,256.716
2015-06-12 18:00,0.257111,297.649,290.756,264.645,292.989,290.375,263.553,0.14396,0.221889,238.919,256.628
2015-06-12 19:00,0.254183,293.702,286.55,262.261,288.628,287.188,262.847,0.243912,0.253762,239.227,256.628
2015-06-12 20:00,0.78919,293.007,280.669,259.354,283.514,282.467,260.942,0.633494,0.750172,239.227,257.158
2015-06-12 21:00,0.675077,284.888,284.3,261.625,287.134,285.493,262.255,0.831398,0.929359,240.371,258.286
2015-06-12 22:00,-0.0,279.473,279.945,258.58,283.23,282.175,260.219,-0.0,-0.00592927,240.489,258.543
2015-06-12 23:00,-0.0994774,285.357,286.439,262.261,289.032,288.027,263.318,-0.0336909,-0.0659958,241.874,259.97
2015-06-13 00:00,-0.0659005,284.888,286.328,261.944,288.897,288.445,263.553,-0.0180523,-0.0371788,241.76,260.299
2015-06-13 01:00,-0.00153477,284.41,286.105,262.155,288.763,288.306,264.255,-0.0,-0.0,242.266,261.355
2015-06-13 02:00,-0.00266873,283.594,285.546,262.261,288.493,288.306,263.787,-0.0,-0.0,242.6,261.113
2015-06-13 03:00,-0.00124558,283.428,285.433,261.944,288.493,288.445,263.787,-0.0,-0.0,243.039,261.993
2015-06-13 04:00,-0.0,283.261,285.433,261.731,288.493,288.722,264.022,-0.0,-0.0,242.765,261.435
2015-06-13 05:00,-0.0,282.753,285.321,261.731,288.358,288.445,264.605,-0.0,-0.0,242.875,261.834
2015-06-13 06:00,-0.0,282.408,284.755,261.198,287.815,288.167,264.488,-0.0,-0.0,243.364,262.151
2015-06-13 07:00,-0.0,282.408,284.414,261.091,287.407,287.469,263.67,-0.0,-0.0,242.71,261.834
2015-06-13 08:00,-0.0,282.234,284.3,261.091,287.27,287.609,263.67,-0.0,-0.0,243.147,261.675
2015-06-13 09:00,-0.00474179,281.705,284.071,260.984,287.134,287.469,263.905,-0.0,-0.0,243.147,261.914
2015-06-13 10:00,-0.0409193,281.346,284.071,260.769,286.997,287.469,263.553,-0.277171,-0.330484,243.472,262.466
2015-06-13 11:00,0.413885,285.97,286.661,262.049,289.434,289.413,264.721,0.248001,0.469268,243.686,262.466
2015-06-13 12:00,0.395386,291.563,290.229,264.95,293.248,292.276,265.185,0.173976,0.389737,244.374,262.623
2015-06-13 13:00,0.326148,295.583,293.031,266.855,296.182,294.282,265.532,0.129734,0.309377,244.687,262.935
2015-06-13 14:00,0.266793,297.146,294.346,267.544,297.06,294.812,265.762,0.09921,0.251145,244.945,262.545
2015-06-13 15:00,0.226898,297.947,295.144,268.227,297.683,295.339,265.762,0.0821358,0.210808,245.048,262.935
2015-06-13 16:00,0.216752,298.144,295.045,268.324,297.558,295.076,265.993,0.0745133,0.190854,244.945,262.545
2015-06-13 17:00,0.199798,297.549,294.746,268.227,297.434,294.812,265.532,0.0727129,0.180476,245.405,262.545
2015-06-13 18:00,0.192927,296.531,293.944,267.544,296.684,294.149,265.762,0.0807971,0.182205,245.507,262.779
2015-06-13 19:00,0.192061,294.823,293.235,267.151,295.93,293.75,265.416,0.10044,0.1996,245.557,262.857
2015-06-13 20:00,0.204797,292.414,291.487,266.059,294.149,292.545,264.953,0.169066,0.253275,245.099,262.779
2015-06-13 21:00,0.240307,287.729,288.628,264.543,291.423,290.101,264.953,0.661271,0.727814,244.479,262.857
2015-06-13 22:00,-0.00588987,285.665,287.322,263.411,290.101,289.689,264.837,-0.0,-0.0,244.217,262.779
2015-06-13 23:00,-0.12526,285.202,286.661,262.995,289.568,289.137,264.372,-0.0337455,-0.0689767,244.322,263.09
2015-06-14 00:00,-0.0582147,284.57,286.328,262.681,289.166,288.999,264.372,-0.0164301,-0.0333037,244.531,263.322
2015-06-14 01:00,-0.00153611,284.249,286.105,262.471,288.763,288.445,264.022,-0.0,-0.0,244.842,263.476
2015-06-14 02:00,-0.0,283.924,285.433,262.261,288.358,287.888,263.905,-0.0,-0.0,244.739,263.399
2015-06-14 03:00,-0.00124614,283.76,285.546,262.049,288.222,288.027,264.372,-0.0,-0.0,244.997,263.552
2015-06-14 04:00,-0.0,283.594,285.433,261.944,288.222,287.748,263.553,-0.0,-0.00124949,244.894,263.476
2015-06-14 05:00,-0.0,283.261,285.321,262.049,288.087,287.888,264.138,-0.0,-0.0,244.79,263.244
2015-06-14 06:00,-0.00147781,283.594,285.095,262.049,288.087,287.748,264.488,-0.0,-0.0,244.479,262.935
2015-06-14 07:00,0.0018221,283.594,285.095,261.944,288.222,287.888,263.67,-0.0,-0.0,243.953,262.701
2015-06-14 08:00,-0.0,283.261,284.982,261.944,287.951,287.609,263.67,-0.0,-0.0,243.899,262.701
2015-06-14 09:00,-0.0,283.093,284.982,261.731,287.951,287.748,263.318,-0.0,-0.0,243.953,262.623
2015-06-14 10:00,-0.0789467,282.923,284.869,261.412,287.815,287.609,263.436,-0.267376,-0.278955,243.418,262.151
2015-06-14 11:00,0.435683,287.155,286.992,263.099,289.835,288.861,263.787,0.254969,0.465721,242.984,262.23
2015-06-14 13:00,0.331223,295.476,291.902,266.059,293.764,291.057,264.138,0.139294,0.301172,243.526,262.545
2015-06-14 14:00,0.346658,296.943,288.412,264.441,290.5,288.027,262.728,0.184976,0.311694,244.111,262.779
2015-06-14 15:00,0.256808,297.146,290.335,265.456,292.209,289.413,263.436,0.128233,0.234334,243.256,262.388
2015-06-14 16:00,0.313198,295.69,287.322,263.203,289.3,287.329,262.728,0.233418,0.317839,243.526,262.779
2015-06-14 17:00,0.27359,296.531,289.911,265.052,292.079,289.413,263.787,0.158887,0.26027,243.899,262.935
2015-06-14 18:00,0.240724,295.368,288.843,264.236,290.367,288.167,263.2,0.163408,0.23255,243.039,262.466
2015-06-14 19:00,0.149678,290.429,286.217,262.681,287.407,285.208,261.421,0.164991,0.176769,243.31,261.113
2015-06-14 20:00,0.296608,292.653,288.195,263.515,290.101,287.888,262.255,0.311757,0.340746,244.687,262.857
2015-06-14 21:00,0.528274,285.512,284.528,261.519,286.585,284.636,261.182,0.646084,0.829615,243.953,262.072
2015-06-14 22:00,-0.00590773,283.924,283.841,261.091,285.757,284.061,261.182,-0.0,-0.0,243.686,261.834
2015-06-14 23:00,-0.128321,285.357,285.994,262.261,288.358,287.048,262.492,-0.0386309,-0.07485,244.058,262.545
2015-06-15 00:00,-0.0718823,285.512,286.328,262.471,288.628,287.748,263.67,-0.0197392,-0.0372654,244.583,262.701
2015-06-15 01:00,-0.0,285.045,286.217,262.366,289.032,288.027,263.787,-0.0,-0.0,244.583,262.623
2015-06-15 02:00,-0.0,284.57,286.105,262.366,289.032,288.584,263.553,-0.0,-0.0,244.006,262.545
2015-06-15 03:00,-0.0,284.249,285.994,262.261,288.897,288.167,263.787,-0.0,-0.0,244.164,262.779
2015-06-15 04:00,-0.00123793,284.087,285.321,262.049,288.222,287.748,263.436,-0.0,-0.0,244.006,262.309
2015-06-15 05:00,-0.00130704,284.087,285.77,262.049,288.763,288.167,263.905,-0.0,-0.0,243.953,262.545
2015-06-15 06:00,-0.0,284.087,285.658,261.838,288.897,288.445,263.436,-0.0,-0.0,244.164,262.309
2015-06-15 07:00,-0.0018207,283.594,285.095,261.412,288.087,287.609,263.2,-0.0,-0.00183811,244.164,261.755
2015-06-15 08:00,-0.00255876,283.428,285.095,261.412,287.951,287.609,263.318,-0.0,0.00258322,244.322,261.914
2015-06-15 09:00,-0.0,283.594,285.208,261.625,288.222,287.748,263.67,-0.0,-0.0,244.217,261.914
2015-06-15 10:00,-0.0381607,283.594,285.433,261.731,288.493,288.167,263.436,-0.226174,-0.269678,244.635,262.072
2015-06-15 11:00,0.399638,286.717,286.992,262.786,289.835,288.999,263.67,0.251051,0.455518,245.099,261.675
2015-06-15 12:00,0.378999,291.931,289.805,264.236,292.34,290.511,263.787,0.180339,0.369974,245.253,261.914
2015-06-15 13:00,0.314301,294.933,291.07,264.849,292.989,290.375,263.318,0.13585,0.295116,245.456,261.675
2015-06-15 14:00,0.408647,295.69,286.328,262.261,288.628,286.626,262.492,0.32916,0.427157,245.809,261.595
2015-06-15 15:00,0.35433,294.713,284.869,261.519,286.997,285.065,261.421,0.277684,0.341079,245.809,261.355
2015-06-15 16:00,0.267745,290.939,275.694,256.205,274.312,268.835,247.279,0.19767,0.276897,237.913,252.146
2015-06-15 17:00,0.236889,294.156,287.102,262.681,288.628,285.493,260.942,0.167888,0.235611,244.997,261.113
2015-06-15 18:00,0.278139,291.931,283.032,260.337,283.656,280.702,257.53,0.196836,0.274511,242.211,257.942
2015-06-15 19:00,0.364213,291.065,280.909,259.134,281.366,278.004,255.784,0.308379,0.390498,241.874,257.158
2015-06-15 20:00,0.331933,290.301,286.661,262.261,288.358,286.06,261.301,0.30699,0.371194,245.304,261.755
2015-06-15 21:00,0.973245,278.883,281.386,258.913,284.501,283.773,261.182,1.06641,1.15594,245.456,262.388
2015-06-15 22:00,-0.00592671,278.883,281.86,259.354,285.061,284.061,262.728,-0.0,-0.0,245.859,262.466
2015-06-15 23:00,-0.108547,282.059,282.682,260.011,284.921,283.339,260.461,-0.0362791,-0.0720955,244.217,260.463
2015-06-16 00:00,-0.0661324,281.526,281.386,259.024,282.946,280.85,258.147,-0.0197627,-0.0373096,242.984,259.471
2015-06-16 01:00,-0.0,282.408,283.264,260.337,285.895,284.779,262.017,-0.0,-0.0015535,243.418,261.033
2015-06-16 02:00,-0.0,281.883,283.264,260.337,285.895,285.208,262.61,-0.0,-0.0,243.526,261.033
2015-06-16 03:00,-0.0,281.346,282.799,260.011,285.618,285.208,261.898,-0.0,-0.0,243.846,260.952
2015-06-16 04:00,-0.0,281.165,282.799,259.902,285.618,285.065,262.492,-0.0,-0.0,243.256,261.113
2015-06-16 05:00,-0.0,280.799,282.566,260.011,285.479,284.922,262.255,-0.0,-0.0,244.058,261.113
2015-06-16 06:00,-0.00147683,280.982,282.566,259.902,285.618,285.35,262.373,-0.0,-0.0,244.058,261.113
2015-06-16 07:00,-0.0,280.799,282.448,259.354,285.201,284.779,262.017,-0.0,-0.0,243.953,260.708
2015-06-16 08:00,-0.0,280.239,282.331,259.683,285.061,284.779,262.017,-0.0,-0.0,244.164,260.952
2015-06-16 09:00,-0.00469125,280.799,281.742,259.134,284.361,283.773,260.942,-0.0,-0.0,243.953,260.789
2015-06-16 10:00,-0.0739329,281.526,282.799,260.119,285.757,285.35,261.779,-0.219096,-0.223919,244.583,261.355
2015-06-16 11:00,0.434389,284.57,282.799,259.902,285.061,283.917,260.461,0.279965,0.484359,243.526,260.217
2015-06-16 12:00,0.392638,289.779,286.882,262.576,289.166,287.469,262.136,0.18351,0.377365,244.426,261.275
2015-06-16 13:00,0.317092,293.702,289.699,264.031,291.555,289.276,262.61,0.132376,0.293446,244.739,261.755
2015-06-16 14:00,0.280648,293.93,286.55,262.576,287.543,284.061,258.76,0.122645,0.259568,241.704,258.457
2015-06-16 15:00,0.232608,295.368,289.379,264.133,290.632,287.329,260.701,0.0977762,0.218177,243.364,260.708
2015-06-16 16:00,0.233627,293.587,283.264,260.337,283.514,279.061,254.392,0.114814,0.221016,239.834,256.539
2015-06-16 17:00,0.282633,296.943,288.736,263.721,290.632,287.888,262.255,0.164986,0.260523,243.093,261.993
2015-06-16 18:00,0.28439,293.816,281.86,259.683,281.799,277.853,254.646,0.186307,0.282918,238.857,0.0
2015-06-16 19:00,0.217305,293.007,289.165,264.133,291.292,289.137,263.67,0.167265,0.230779,242.82,262.623
2015-06-16 20:00,0.214122,291.563,290.335,264.95,292.73,290.784,264.605,0.198563,0.252197,243.093,262.857
2015-06-16 21:00,0.334512,288.152,288.736,264.133,291.555,290.511,264.255,0.660872,0.731705,242.71,0.0
2015-06-16 22:00,-0.0,286.271,287.869,263.099,290.764,289.964,264.953,-0.0,-0.0,242.875,262.935
2015-06-16 23:00,-0.128771,285.665,287.322,262.471,290.5,290.238,264.837,-0.0387664,-0.0722236,243.579,263.09
2015-06-17 00:00,-0.0701065,285.045,286.772,262.261,289.835,289.689,264.372,-0.0214352,-0.0393204,244.058,263.399
2015-06-17 01:00,-0.00154012,284.57,286.439,262.366,289.568,289.551,264.255,-0.0,-0.0,244.739,263.244
2015-06-17 02:00,-0.0,284.41,286.328,262.366,289.568,289.551,264.488,-0.0,-0.0,245.253,264.01
2015-06-17 03:00,-0.0012477,283.924,285.994,262.049,289.434,289.276,264.372,-0.0,-0.0,244.894,263.706
2015-06-17 04:00,-0.00123841,283.924,286.217,262.261,289.3,289.413,265.069,-0.0,-0.0,244.945,263.782
2015-06-17 05:00,-0.00130692,283.261,285.882,261.944,289.032,289.276,264.953,-0.0,-0.0,245.355,264.086
2015-06-17 06:00,-0.0,283.428,285.77,261.731,289.032,289.276,264.488,-0.0,-0.0,245.96,264.01
2015-06-17 07:00,-0.0,283.261,285.546,261.305,288.763,288.999,264.605,-0.0,-0.0,246.009,264.01
2015-06-17 08:00,-0.0,283.428,285.321,261.625,288.493,288.584,264.372,-0.0,-0.0,245.809,263.399
2015-06-17 09:00,-0.0,282.923,285.321,261.519,288.628,288.584,264.022,-0.0,-0.0,245.507,263.167
2015-06-17 10:00,-0.071756,283.093,285.321,261.198,288.358,288.584,263.787,-0.212645,-0.217326,245.456,263.012
2015-06-17 11:00,0.397715,286.421,287.322,262.681,290.234,289.826,264.488,0.253939,0.460758,245.557,262.935
2015-06-17 12:00,0.393695,291.931,290.651,264.543,293.635,292.545,264.837,0.178671,0.381561,245.658,263.167
2015-06-17 13:00,0.313237,295.583,293.235,266.358,296.307,294.149,265.532,0.128873,0.300642,245.658,263.012
2015-06-17 14:00,0.268309,297.449,294.446,267.446,297.06,294.679,265.532,0.102843,0.24525,245.709,263.167
2015-06-17 15:00,0.22291,298.242,295.045,267.935,297.683,295.076,265.532,0.0824852,0.208371,245.859,262.935
2015-06-17 16:00,0.204342,298.144,295.144,268.033,297.558,294.944,266.108,0.0747429,0.188141,245.809,262.935
2015-06-17 17:00,0.187894,298.339,295.343,267.935,297.931,295.076,265.301,0.0728541,0.179053,246.357,263.167
2015-06-17 18:00,0.184741,297.349,294.746,267.74,297.309,294.812,265.069,0.0808464,0.182316,246.109,262.935
2015-06-17 19:00,0.191792,295.69,293.843,266.954,296.433,294.016,265.532,0.105076,0.202168,246.357,263.167
2015-06-17 20:00,0.208625,293.24,292.314,265.959,294.916,292.948,264.837,0.176642,0.26199,246.258,263.244
2015-06-17 21:00,0.0,0.0,0.0,0.0,0.0,0.0,0.0,0.0,0.0,0.0,0.0
2015-06-17 22:00,-0.0119359,286.864,287.978,263.099,290.897,289.826,264.255,-0.0,-0.0,245.759,263.399
2015-06-17 23:00,-0.0946046,286.271,287.541,262.261,290.632,290.238,265.069,-0.0315552,-0.0665669,245.709,263.399
2015-06-18 00:00,-0.056543,285.357,286.992,262.366,290.101,289.689,264.721,-0.0181594,-0.039368,245.658,263.244
2015-06-18 01:00,-0.0,284.57,286.661,261.944,289.701,289.689,264.488,-0.0,-0.0,245.304,263.244
2015-06-18 02:00,-0.00133857,284.249,286.328,261.944,289.568,289.413,264.255,-0.0,-0.0,245.759,263.244
2015-06-18 03:00,-0.00124818,284.087,285.994,261.519,289.166,288.999,264.488,-0.0,-0.0,245.048,263.09
2015-06-18 04:00,-0.0,283.594,285.658,261.519,288.897,288.861,264.138,-0.0,-0.0,244.479,262.779
2015-06-18 05:00,0.00130682,283.261,285.208,261.198,288.493,288.584,263.436,-0.0,-0.0,243.526,262.23
2015-06-18 06:00,-0.0,283.093,285.095,260.876,288.087,288.027,263.436,-0.0,-0.0,243.093,262.151
2015-06-18 07:00,-0.0,282.581,285.095,260.661,288.087,287.748,263.67,-0.0,-0.0,243.147,261.675
2015-06-18 08:00,-0.00254712,282.753,284.869,260.445,287.815,287.609,263.083,-0.0,-0.0,243.472,261.675
2015-06-18 09:00,0.00465971,282.581,284.528,260.445,287.543,287.329,262.728,-0.0,-0.0,243.793,261.355
2015-06-18 10:00,-0.0348845,282.581,284.3,259.902,287.27,287.188,262.965,-0.17722,-0.211308,244.479,261.435
2015-06-18 11:00,0.419533,285.97,286.105,261.412,289.166,287.888,262.61,0.255313,0.443397,244.739,261.275
2015-06-18 12:00,0.394698,291.563,289.272,263.203,291.948,289.964,263.2,0.179126,0.369781,244.687,261.355
2015-06-18 13:00,0.318167,295.583,291.694,264.849,293.764,290.921,263.2,0.132825,0.29221,244.583,261.275
2015-06-18 14:00,0.281318,297.349,292.108,264.95,293.635,290.511,263.436,0.124474,0.256522,244.687,261.355
2015-06-18 15:00,0.307361,289.91,279.458,257.12,281.366,279.81,259.127,0.298019,0.363684,244.635,260.708
2015-06-18 16:00,0.371266,290.301,276.591,255.043,279.17,277.396,257.158,0.405747,0.487094,244.374,260.299
2015-06-18 17:00,0.458407,283.594,270.049,251.922,273.372,272.405,255.532,0.599301,0.695071,243.526,258.114
2015-06-18 18:00,0.329985,288.841,275.565,255.16,278.128,276.323,257.282,0.365501,0.425329,241.073,257.421
2015-06-18 19:00,0.465028,295.042,282.448,259.464,284.641,282.175,259.37,0.360331,0.455247,239.288,257.421
2015-06-18 20:00,0.54837,290.939,284.642,260.769,287.27,285.493,261.54,0.524491,0.481847,240.134,257.682
2015-06-18 21:00,0.579353,285.97,285.77,261.519,288.358,286.907,261.779,0.758103,0.903923,240.607,258.286
2015-06-18 22:00,-0.0,282.059,284.071,260.228,287.407,286.343,262.136,-0.0,-0.0,240.957,258.028
2015-06-18 23:00,-0.10627,282.059,284.185,260.337,287.27,285.777,261.66,-0.0316141,-0.0666913,239.227,256.894
2015-06-19 00:00,-0.0605162,283.261,284.3,260.445,287.543,286.343,262.255,-0.0181816,-0.0374452,236.139,256.001
2015-06-19 01:00,-0.00154277,279.278,282.331,259.354,286.033,285.208,261.66,-0.0,-0.0,236.675,255.911
2015-06-19 02:00,-0.0,277.026,281.029,258.58,285.201,284.349,261.301,-0.0,-0.00135216,238.231,256.091
2015-06-19 03:00,-0.0,277.026,280.429,258.802,284.361,283.917,260.461,-0.00105721,-0.0,238.546,256.539
2015-06-19 04:00,-0.0,275.251,278.845,257.346,282.946,282.321,260.34,-0.0,-0.0,237.913,256.45
2015-06-19 05:00,0.00130669,278.075,281.148,258.469,284.781,284.205,260.701,-0.0,-0.0,236.874,255.911
2015-06-19 06:00,-0.0,278.075,280.669,258.358,284.501,283.773,260.701,-0.0,-0.0,235.867,255.091
2015-06-19 07:00,-0.0,277.869,280.549,258.246,284.22,283.339,260.581,-0.0,-0.0,235.593,254.629
2015-06-19 08:00,-0.0,278.482,280.549,258.246,284.079,283.194,260.219,-0.0,-0.0,234.968,254.349
2015-06-19 09:00,-0.00464463,274.551,275.823,255.742,279.76,278.307,258.023,-0.0,-0.0,233.53,252.828
2015-06-19 10:00,-0.135907,266.466,267.618,250.429,271.142,270.798,254.773,-0.230145,-0.240111,233.159,252.047
2015-06-19 11:00,0.823647,284.57,266.738,250.177,270.495,270.148,254.009,0.736434,0.79826,234.968,253.974
2015-06-19 12:00,0.715324,294.156,269.059,251.18,272.582,271.444,255.027,0.669982,0.70299,236.071,254.814
2015-06-19 13:00,0.595247,290.685,280.789,257.91,284.079,283.049,260.219,0.614536,0.609873,239.593,257.595
2015-06-19 14:00,0.592277,289.91,280.549,257.798,284.079,283.339,260.098,0.595315,0.599773,239.894,257.855
2015-06-19 15:00,0.504345,288.841,281.029,257.91,284.501,283.773,260.701,0.530635,0.530868,239.774,258.372
2015-06-19 16:00,0.497388,289.113,280.909,258.469,284.501,284.061,260.942,0.527807,0.530223,239.593,258.882
2015-06-19 17:00,0.525185,289.514,276.08,255.393,278.278,276.938,255.027,0.530931,0.535525,237.333,255.457
2015-06-19 18:00,0.643169,294.491,279.823,257.91,283.23,282.758,259.492,0.593757,0.607426,240.782,259.135
2015-06-19 19:00,0.757451,297.248,280.549,258.358,284.361,283.917,261.54,0.636564,0.662354,240.548,259.387
2015-06-19 20:00,1.00802,291.686,281.267,258.802,284.781,284.349,261.182,0.832048,0.874472,240.312,259.638
2015-06-19 21:00,0.66443,278.075,281.267,258.469,284.641,284.061,261.062,0.952045,0.980373,240.841,259.887
2015-06-19 22:00,-0.0120268,277.451,281.267,258.691,285.201,284.349,261.421,-0.0,-0.00607087,240.489,259.804
2015-06-19 23:00,-0.100718,278.883,281.624,258.469,285.061,284.492,261.182,-0.034111,-0.0697238,240.371,259.471
2015-06-20 00:00,-0.0547269,277.869,281.267,258.246,284.781,284.349,260.461,-0.016549,-0.0374911,240.548,259.638
2015-06-20 01:00,-0.0,280.799,282.682,259.024,285.895,284.922,261.421,-0.0,-0.0,241.015,259.638
2015-06-20 02:00,-0.0,281.883,282.916,259.134,285.757,285.35,261.54,-0.0,-0.0,240.489,259.721
2015-06-20 03:00,-0.0,281.705,282.916,258.913,285.618,284.922,261.54,-0.0,-0.0,240.841,259.638
2015-06-20 04:00,-0.0,279.667,282.331,259.024,285.757,285.208,261.182,-0.0,-0.0,241.073,259.804
2015-06-20 05:00,-0.0,281.165,282.682,258.913,285.34,285.208,261.66,-0.0,-0.0,241.704,260.217
2015-06-20 06:00,-0.0,280.982,282.682,258.802,285.34,284.922,261.779,-0.0,-0.0,241.131,260.052
2015-06-20 07:00,-0.00181358,280.613,282.566,258.691,285.618,285.065,261.301,-0.0,-0.0,241.073,259.97
2015-06-20 08:00,-0.0,280.239,283.032,259.024,286.033,285.777,261.898,-0.0,0.00256389,240.312,259.887
2015-06-20 09:00,-0.0,279.859,281.386,257.685,284.22,283.484,260.701,-0.0,-0.0,239.471,258.628
2015-06-20 10:00,-0.0,280.613,282.566,258.469,285.34,285.208,261.779,-0.112262,-0.133855,240.134,259.304
2015-06-20 11:00,0.357574,283.924,283.726,259.244,286.585,285.777,261.54,0.263511,0.421158,240.193,259.22
2015-06-20 12:00,0.367981,288.012,285.433,260.119,287.679,285.919,260.822,0.18533,0.371499,239.653,258.628
2015-06-20 13:00,0.310221,292.053,289.165,262.576,291.423,289.551,262.373,0.133208,0.293053,240.43,259.721
2015-06-20 14:00,0.263673,294.043,290.756,263.411,292.86,290.238,262.965,0.103158,0.242328,241.246,259.804
2015-06-20 15:00,0.221705,295.902,292.005,264.031,294.021,291.464,263.318,0.0854533,0.20545,240.957,259.97
2015-06-20 16:00,0.2193,296.738,292.417,264.441,294.661,291.6,263.553,0.0859122,0.193309,241.073,260.052
2015-06-20 17:00,0.200228,297.045,293.031,265.153,295.55,292.679,263.787,0.0832792,0.182637,240.957,260.299
2015-06-20 18:00,0.203236,293.007,288.628,262.471,290.897,288.861,262.017,0.145741,0.21774,241.476,260.299
2015-06-20 19:00,0.295346,291.686,286.105,260.228,288.358,286.343,261.301,0.269122,0.360643,241.817,260.217
2015-06-20 20:00,0.212197,291.686,290.756,263.721,293.377,291.464,263.083,0.183944,0.26013,242.322,260.463
2015-06-20 21:00,0.346892,287.01,287.541,261.412,290.234,288.861,262.728,0.587426,0.700416,241.76,260.135
2015-06-20 22:00,-0.00603767,285.202,285.994,260.553,288.763,287.888,262.492,-0.0,-0.00609539,241.246,260.052
2015-06-20 23:00,-0.103797,284.087,284.982,260.228,287.815,287.048,261.898,-0.029295,-0.064038,240.43,259.638
2015-06-21 00:00,-0.066536,282.059,282.331,258.134,284.641,283.339,259.735,-0.0198833,-0.0395129,239.104,258.028
2015-06-21 01:00,-0.00154536,282.923,284.185,259.574,286.997,286.202,261.66,-0.0,-0.0,239.532,259.638
2015-06-21 02:00,-0.00134086,282.234,283.495,258.802,286.172,285.635,261.54,-0.0,-0.0,238.546,259.471
2015-06-21 03:00,-0.0,280.982,281.505,257.685,283.797,283.049,259.614,-0.0,-0.0,237.072,258.028
2015-06-21 04:00,0.00123905,281.165,282.214,257.91,284.501,284.061,260.581,-0.0,-0.0,237.398,258.543
2015-06-21 05:00,-0.0,276.376,272.256,252.045,272.582,270.635,250.633,-0.0,-0.0,232.709,251.552
2015-06-21 06:00,-0.0,276.376,273.466,253.14,273.843,272.086,251.944,-0.0,-0.0,232.935,252.439
2015-06-21 07:00,-0.00181213,280.982,281.86,257.91,284.22,283.484,259.856,-0.0,-0.0,235.936,257.421
2015-06-21 08:00,-0.0,280.239,280.669,257.346,282.946,282.321,259.005,-0.0,-0.0,234.686,256.628
2015-06-21 09:00,-0.0,280.799,281.978,258.022,284.921,284.636,260.701,-0.0,-0.0,234.827,257.595
2015-06-21 10:00,-0.0323881,281.705,283.38,258.469,286.447,285.919,262.136,-0.0822689,-0.0980932,235.178,258.457
2015-06-21 11:00,0.42578,285.512,285.658,260.011,288.493,287.748,261.898,0.259115,0.470149,235.731,258.457
2015-06-21 12:00,0.391,290.429,288.736,261.731,291.686,290.511,263.553,0.177642,0.38511,235.731,258.543
2015-06-21 13:00,0.330575,293.816,291.487,263.307,294.405,292.545,264.022,0.133374,0.304617,235.386,258.628
2015-06-21 14:00,0.274799,296.008,293.133,264.543,296.182,294.149,264.138,0.104779,0.24803,235.317,258.457
2015-06-21 15:00,0.240011,297.045,294.346,264.95,297.309,294.944,264.138,0.0882942,0.210555,235.178,258.372
2015-06-21 16:00,0.198054,295.476,290.965,262.89,293.506,290.921,262.492,0.108099,0.196642,236.341,258.028
2015-06-21 17:00,0.245853,294.156,286.882,261.091,289.434,287.188,261.421,0.153149,0.235793,236.94,257.769
2015-06-21 18:00,0.290173,293.356,285.433,260.445,288.087,286.202,260.942,0.194796,0.278299,236.609,257.508
2015-06-21 19:00,0.300608,291.44,285.208,259.793,287.407,285.777,261.062,0.22598,0.303482,236.675,257.246
2015-06-21 20:00,0.307324,290.939,287.869,261.412,290.367,288.584,262.61,0.243147,0.330606,236.742,257.508
2015-06-21 21:00,0.384129,286.717,286.882,260.337,289.568,288.445,261.779,0.650483,0.727127,236.274,257.508
2015-06-21 22:00,-0.00606297,282.923,283.495,258.358,286.447,285.208,261.062,-0.0,-0.0,237.333,257.682
2015-06-22 01:00,-0.00154664,280.427,282.331,257.459,285.201,284.636,260.581,-0.0,-0.0,238.42,259.051
2015-06-22 02:00,-0.0,280.982,282.448,257.459,285.061,284.922,261.301,-0.0,-0.0,238.981,259.638
2015-06-22 03:00,-0.0,276.811,278.35,255.277,281.366,280.702,259.614,-0.0,-0.0,239.653,259.387
2015-06-22 04:00,-0.0,278.684,280.549,256.892,283.514,283.339,260.219,-0.0,-0.0,240.193,260.135
2015-06-22 05:00,-0.0,280.982,283.032,257.91,285.479,285.493,262.017,-0.0,-0.0,241.246,261.275
2015-06-22 06:00,-0.00147337,281.346,283.148,258.246,286.033,285.777,262.492,-0.0,-0.0,242.489,261.834
2015-06-22 07:00,-0.0,280.982,283.032,257.798,285.757,286.06,262.255,-0.0,-0.0,242.984,262.309
2015-06-22 08:00,-0.00253234,280.982,283.148,258.022,286.033,286.343,263.083,-0.0,-0.0,243.202,262.623
2015-06-22 09:00,-0.0,280.982,283.032,257.798,285.757,286.485,262.728,-0.0,-0.0,243.093,262.857
2015-06-22 10:00,-0.0,281.165,283.148,257.91,286.033,286.485,263.318,-0.134178,-0.191984,242.6,262.779
2015-06-22 11:00,0.454397,285.045,285.882,259.574,288.628,288.306,263.083,0.260263,0.492471,242.266,262.779
2015-06-22 12:00,0.414047,290.685,289.593,262.261,292.6,291.735,264.372,0.18068,0.392282,241.476,262.701
2015-06-22 13:00,0.342049,294.602,292.417,263.928,295.297,294.016,264.721,0.133522,0.311684,239.349,261.914
2015-06-22 14:00,0.258591,293.702,289.058,262.366,291.029,288.861,260.942,0.112558,0.24084,235.178,257.595
2015-06-22 15:00,0.251681,297.449,294.446,265.658,297.309,295.076,264.372,0.0897254,0.220654,236.742,260.299
2015-06-22 16:00,0.242256,297.947,293.539,265.254,296.182,293.883,264.837,0.0970151,0.204911,237.398,260.627
2015-06-22 17:00,0.261583,298.045,291.591,263.825,294.277,291.871,264.255,0.118917,0.226864,238.546,260.545
2015-06-22 18:00,0.3024,297.349,289.486,262.89,292.209,289.689,262.847,0.166602,0.271834,237.913,260.217
2015-06-22 19:00,0.412425,296.219,285.658,260.876,288.358,286.202,261.779,0.299314,0.416367,237.137,259.554
2015-06-22 20:00,0.321463,291.686,286.55,261.305,289.434,287.748,262.017,0.306205,0.354962,236.408,259.387
2015-06-22 21:00,0.557983,286.271,286.328,260.876,288.897,287.609,262.373,0.669295,0.798032,236.071,258.713
2015-06-23 01:00,-0.0,282.234,283.956,259.244,286.86,286.485,262.847,-0.0,-0.0,237.592,259.135
2015-06-23 02:00,-0.0,281.883,283.841,259.354,286.722,286.626,262.847,-0.0,-0.0,238.733,259.887
2015-06-23 03:00,-0.0,281.883,283.611,259.244,286.31,286.485,263.318,-0.0,-0.0,238.42,259.804
2015-06-23 04:00,-0.0,281.165,283.148,258.913,285.895,286.06,262.965,-0.0,0.00125107,238.294,259.804
2015-06-23 05:00,-0.0,280.799,282.799,258.691,285.618,285.635,262.61,-0.0,-0.0,237.657,259.804
2015-06-23 06:00,0.00147272,280.613,282.448,258.358,285.201,285.35,262.017,-0.0,-0.0,237.333,259.471
2015-06-23 07:00,-0.0,280.427,282.096,258.246,284.921,284.922,262.255,-0.0,-0.0,0.0,258.713
2015-06-23 08:00,0.00252882,279.859,281.86,257.685,284.641,284.492,261.779,-0.0,0.00255299,236.071,258.628
2015-06-23 09:00,-0.00458921,280.05,281.742,257.91,284.641,284.349,262.255,-0.0,-0.0,235.593,258.798
2015-06-23 10:00,-0.0310604,279.667,281.505,257.685,284.079,284.349,261.301,-0.131494,-0.188144,235.178,258.543
2015-06-23 11:00,0.664302,287.871,277.476,255.742,280.639,279.661,259.005,0.482923,0.623233,234.686,257.595
2015-06-23 12:00,0.421156,291.19,285.994,260.553,288.628,287.048,262.61,0.210714,0.412298,234.615,258.286
2015-06-23 13:00,0.322375,293.587,290.545,263.515,293.119,290.921,262.847,0.135536,0.3075,234.041,258.028
2015-06-23 14:00,0.271486,296.635,292.929,265.052,295.677,293.216,264.022,0.104905,0.250168,234.615,258.628
2015-06-23 15:00,0.286514,296.943,289.486,263.099,291.948,289.137,262.373,0.158456,0.279221,234.472,258.2
2015-06-23 16:00,0.302796,281.346,264.329,247.597,263.745,260.764,243.383,0.26192,0.348652,227.78,245.46
2015-06-23 17:00,0.173734,295.368,290.965,263.825,292.989,290.784,263.083,0.102525,0.17008,234.041,257.855
2015-06-23 18:00,0.194537,295.476,292.827,265.254,295.424,293.216,264.372,0.0911185,0.181771,235.386,258.628
2015-06-23 19:00,0.193296,293.702,291.798,264.645,294.533,292.41,263.905,0.106737,0.203629,235.936,258.628
2015-06-23 20:00,0.220293,291.19,290.335,263.721,292.86,291.193,264.022,0.182283,0.262835,237.268,259.135
2015-06-24 01:00,-0.0,281.346,283.495,259.244,286.172,286.626,263.083,-0.0,-0.0,236.004,259.97
2015-06-24 02:00,-0.00268591,279.473,279.945,256.892,282.087,282.175,259.856,-0.0,-0.0,233.968,258.028
2015-06-24 03:00,-0.0,280.799,282.916,258.691,285.201,285.777,263.436,-0.0,-0.0,234.827,259.887
2015-06-24 04:00,-0.0,280.427,282.448,258.358,285.061,285.35,262.847,-0.0,-0.0,234.686,259.97
2015-06-24 05:00,-0.0,279.859,281.86,258.358,284.501,284.922,262.847,-0.0,-0.0,234.472,259.97
2015-06-24 06:00,-0.0,278.482,280.187,257.572,282.374,282.758,261.062,-0.0,-0.0,233.308,258.882
2015-06-24 07:00,-0.0,274.551,272.391,252.777,272.423,272.246,254.264,-0.0,-0.0,229.935,252.439
2015-06-24 08:00,0.00252537,275.02,272.527,252.777,273.372,272.565,253.111,-0.0,-0.0,231.787,254.443
2015-06-24 09:00,-0.0,268.073,259.206,244.765,257.739,255.235,239.618,-0.0,-0.0,227.691,245.918
2015-06-24 10:00,-0.030482,278.684,280.549,257.459,283.23,283.484,261.54,-0.103236,-0.123094,234.756,259.554
2015-06-24 11:00,0.451324,283.594,284.3,260.011,286.86,286.907,262.492,0.268065,0.510043,234.827,260.135
2015-06-24 12:00,0.409044,288.012,284.528,260.119,286.31,284.779,260.581,0.19752,0.406501,233.308,257.333
2015-06-24 13:00,0.329322,293.124,290.44,263.307,293.119,291.6,264.372,0.13565,0.316746,235.038,259.471
2015-06-24 14:00,0.280714,294.491,289.699,263.099,291.817,289.276,262.017,0.115753,0.263155,234.329,257.682
2015-06-24 15:00,0.243479,296.114,291.383,264.031,293.892,291.329,263.787,0.114997,0.225741,235.662,259.804
2015-06-24 16:00,0.224189,296.531,292.314,265.052,294.916,292.141,263.318,0.0900608,0.203203,234.827,258.628
2015-06-24 17:00,0.306948,285.512,263.867,247.728,261.611,256.18,238.876,0.231676,0.336444,226.963,242.725
2015-06-24 18:00,0.212963,294.933,288.951,263.203,290.897,288.167,260.942,0.119043,0.202475,234.968,258.372
2015-06-24 19:00,0.542578,295.042,277.224,255.974,278.873,276.784,255.027,0.388359,0.502588,234.401,0.0
2015-06-24 20:00,0.773378,287.01,265.696,249.414,266.167,262.712,245.767,0.642144,0.810995,230.916,248.348
2015-06-25 01:00,-0.00155037,276.594,276.845,255.974,279.907,278.156,257.777,-0.0,-0.0,236.071,258.543
2015-06-25 02:00,-0.00134361,274.314,272.931,253.501,275.396,273.359,253.881,-0.0,-0.0,235.386,256.45
2015-06-25 03:00,-0.0012508,271.531,268.054,250.303,269.842,267.339,250.501,-0.0,-0.0,235.247,254.536
2015-06-25 04:00,-0.0,267.123,262.931,247.597,263.569,261.477,246.319,-0.0,-0.0,232.481,249.617
2015-06-25 05:00,-0.0,272.836,272.527,253.381,275.55,273.99,256.16,-0.0,-0.0,237.849,258.543
2015-06-25 06:00,-0.0,268.686,267.033,249.669,268.855,267.171,251.159,-0.0,-0.0,234.472,254.536
2015-06-25 07:00,-0.00180637,268.986,267.18,250.681,269.679,268.007,252.075,-0.0,-0.0,231.394,253.117
2015-06-25 08:00,-0.0,281.705,282.916,258.802,285.757,285.493,262.136,-0.0,-0.0,233.234,258.713
2015-06-25 09:00,-0.0,280.982,282.566,258.58,285.34,285.35,261.898,-0.0,-0.0,232.784,258.457
2015-06-25 10:00,-0.0,281.165,282.682,258.691,285.201,285.493,262.965,-0.101452,-0.120966,233.01,258.2
2015-06-25 11:00,0.459707,285.202,284.642,259.793,287.543,286.907,262.373,0.263305,0.477752,233.456,258.114
2015-06-25 12:00,0.406424,290.041,288.52,262.471,291.16,289.826,263.318,0.184252,0.387694,233.53,258.457
2015-06-25 13:00,0.327329,293.472,290.86,263.721,293.764,292.006,264.372,0.137632,0.303482,233.968,257.942
2015-06-25 14:00,0.269857,295.69,292.929,264.747,295.677,293.216,264.488,0.106525,0.246666,233.823,257.942
2015-06-25 15:00,0.230225,296.84,293.539,265.355,296.307,294.016,264.837,0.0869477,0.214032,234.686,258.028
2015-06-25 16:00,0.212669,297.449,294.646,265.959,297.434,294.944,265.301,0.0775672,0.19158,235.038,258.457
2015-06-25 17:00,0.296238,298.63,287.978,262.261,290.897,288.306,262.255,0.16029,0.263677,235.455,258.114
2015-06-25 18:00,0.280896,296.738,287.651,261.731,289.835,287.609,261.421,0.190617,0.27107,235.662,258.2
2015-06-25 19:00,0.608615,298.144,280.669,257.91,283.797,282.321,260.461,0.446762,0.566518,236.808,257.855
2015-06-26 01:00,-0.00155157,268.073,271.299,252.168,275.396,275.396,257.406,-0.0,-0.0,239.471,258.543
2015-06-26 02:00,-0.00134423,268.686,271.023,252.045,275.087,275.396,257.406,-0.0,-0.0,240.134,258.713
2015-06-26 03:00,-0.0,268.073,270.329,251.799,274.623,274.929,257.282,-0.0,-0.0,240.253,258.967
2015-06-26 04:00,-0.0,276.155,276.208,254.926,279.907,278.458,258.638,-0.0,-0.0,240.371,259.387
2015-06-26 05:00,0.00130514,279.667,280.066,256.778,283.656,282.467,259.977,-0.0,-0.0,240.841,259.887
2015-06-26 06:00,-0.0014707,275.02,276.08,255.277,279.318,278.76,259.005,-0.0,-0.0,241.361,259.387
2015-06-26 07:00,-0.0,280.239,280.669,257.572,283.938,282.904,260.581,-0.0,-0.0,241.015,259.804
2015-06-26 08:00,-0.0,274.073,275.046,254.454,278.725,277.701,258.392,-0.0,-0.0,241.073,259.304
2015-06-26 09:00,-0.0,277.869,279.213,256.778,282.087,281.146,259.735,-0.0,-0.0,240.489,259.387
2015-06-26 10:00,-0.0294765,283.76,284.869,259.683,287.543,287.188,262.017,-0.124789,-0.148791,240.312,259.887
2015-06-26 11:00,0.461223,286.864,282.214,258.469,285.201,283.773,261.062,0.367545,0.465632,240.489,259.22
2015-06-26 12:00,0.44538,293.007,284.414,260.119,287.543,285.065,261.182,0.265871,0.420524,240.665,259.471
2015-06-26 13:00,0.354251,294.823,285.882,260.876,288.358,285.635,260.822,0.2226,0.341892,240.43,259.22
2015-06-26 14:00,0.439507,294.491,276.971,255.858,279.76,278.307,258.638,0.352056,0.441867,239.954,258.286
2015-06-26 15:00,0.241788,297.045,291.279,263.928,293.506,290.238,262.728,0.11498,0.212333,239.894,259.22
2015-06-26 16:00,0.256732,296.323,287.869,261.731,290.101,287.469,261.54,0.168915,0.252582,239.834,259.387
2015-06-26 17:00,0.332801,292.053,280.909,257.91,283.088,281.588,259.37,0.296613,0.374886,239.288,258.628
2015-06-26 18:00,0.216613,294.823,287.651,261.625,289.434,287.048,261.779,0.155458,0.210353,239.41,259.135
2015-06-26 19:00,0.31487,289.647,280.909,258.134,283.372,281.735,259.856,0.342097,0.360076,239.894,258.798
2015-06-26 20:00,0.569556,289.91,277.224,255.858,279.466,278.156,258.515,0.524177,0.585001,239.954,258.2
2015-06-27 01:00,-0.0,284.888,285.321,260.337,287.815,286.343,261.66,-0.0,-0.0,237.913,258.543
2015-06-27 02:00,-0.0,282.923,283.956,259.134,286.172,285.065,261.66,-0.0,-0.0,238.104,258.882
2015-06-27 03:00,-0.0,281.883,283.032,259.134,285.895,284.779,261.301,-0.0,-0.0,237.849,258.967
2015-06-27 04:00,-0.0,282.059,283.495,258.913,286.172,285.208,261.301,-0.0,-0.0,239.166,259.387
2015-06-27 05:00,-0.0,283.428,284.071,259.354,286.722,285.635,261.66,-0.0,-0.0,238.857,259.471
2015-06-27 06:00,-0.0,283.261,284.528,259.574,287.134,286.343,262.017,-0.0,-0.0,237.913,259.051
2015-06-27 07:00,-0.00360708,283.093,284.3,259.574,287.134,286.485,262.255,-0.0,-0.0,236.609,258.798
2015-06-27 08:00,-0.00251554,282.753,283.841,259.574,286.585,285.919,262.017,-0.0,-0.0,236.542,258.798
2015-06-27 09:00,-0.00454222,277.661,279.945,257.006,282.803,282.028,260.461,-0.0,0.00458564,236.742,258.967
2015-06-27 10:00,-0.0580863,282.234,283.032,258.58,286.033,285.208,261.421,-0.122954,-0.146604,236.542,258.457
2015-06-27 11:00,0.448997,285.665,285.208,259.683,287.951,287.048,262.136,0.270724,0.467025,235.317,257.855
2015-06-27 12:00,0.410571,290.685,288.087,261.944,290.367,288.861,262.255,0.192826,0.385352,234.968,257.855
2015-06-27 13:00,0.343258,293.816,290.44,263.203,292.73,290.238,262.965,0.143431,0.303784,235.247,257.769
2015-06-27 14:00,0.284509,295.476,291.694,264.441,293.892,291.329,263.318,0.111181,0.250404,234.756,257.855
2015-06-27 15:00,0.263253,297.045,292.827,264.849,295.17,292.006,263.2,0.100934,0.220639,235.038,257.595
2015-06-27 16:00,0.227177,297.549,293.235,265.658,295.803,292.41,263.2,0.0857967,0.194699,236.274,258.114
2015-06-27 17:00,0.217011,296.84,292.211,264.543,294.916,291.735,262.847,0.0992804,0.197884,235.455,258.028
2015-06-27 18:00,0.238995,296.323,291.383,263.825,294.021,291.329,263.2,0.118623,0.208,235.731,258.028
2015-06-27 19:00,0.177968,293.472,290.965,264.031,293.377,290.784,262.136,0.115368,0.185284,235.317,257.855
2015-06-28 01:00,-0.0,282.234,283.611,259.464,286.585,286.343,262.373,-0.0,-0.0,238.294,259.554
2015-06-28 02:00,-0.00269079,282.059,283.38,259.024,286.31,286.343,262.373,-0.0,-0.0,237.721,259.554
2015-06-28 03:00,-0.0,281.883,283.495,259.354,286.172,286.06,262.373,-0.0,-0.0,237.398,259.554
2015-06-28 04:00,-0.00123921,281.883,283.264,259.354,286.172,285.919,262.373,-0.0,-0.0,236.94,259.387
2015-06-28 05:00,-0.0,281.705,283.264,259.134,285.895,286.06,262.61,-0.0,-0.0,236.609,259.22
2015-06-28 06:00,-0.00146929,281.883,283.148,259.024,285.895,285.777,261.898,-0.0,-0.0,236.274,259.304
2015-06-28 07:00,-0.00180215,281.346,282.799,258.802,285.479,285.35,261.898,-0.0,-0.0,235.038,258.628
2015-06-28 08:00,-0.0,280.613,282.448,258.358,285.061,285.065,261.54,-0.0,0.00253647,234.041,258.286
2015-06-28 09:00,-0.0,280.05,282.096,257.91,284.781,284.779,261.66,-0.0,-0.0045752,233.603,258.372
2015-06-28 10:00,-0.0286525,279.667,282.096,258.134,284.501,284.922,262.017,-0.0727801,-0.0867792,234.113,258.798
2015-06-28 11:00,0.45702,284.57,284.642,259.574,287.407,287.188,262.373,0.271448,0.502707,232.86,258.372
2015-06-28 12:00,0.37241,287.587,282.566,258.358,283.938,281.882,257.158,0.198434,0.392176,230.996,254.907
2015-06-28 13:00,0.341127,287.3,275.436,254.69,275.396,271.283,248.768,0.192554,0.353392,227.959,248.562
2015-06-28 14:00,0.277194,288.43,278.226,256.205,277.226,274.147,251.683,0.148231,0.279844,227.78,248.669
2015-06-28 15:00,0.256538,294.156,287.212,261.091,288.493,284.922,257.406,0.109306,0.24061,230.996,253.974
2015-06-28 16:00,0.246632,290.041,277.852,255.742,277.828,273.832,250.501,0.132761,0.253936,226.778,247.699
2015-06-28 17:00,0.274499,289.113,272.662,253.14,272.741,268.173,246.319,0.168762,0.285949,227.601,247.481
2015-06-28 18:00,0.19751,294.713,291.487,264.031,294.277,291.735,262.728,0.0905838,0.193167,232.251,256.716
2015-06-28 19:00,0.213652,292.174,287.76,261.838,289.835,287.329,259.977,0.133912,0.235303,230.996,254.907
2015-06-29 01:00,-0.00311006,280.982,282.214,258.58,284.781,285.065,262.017,-0.0,-0.0,231.473,256.894
2015-06-29 02:00,-0.00134593,276.376,273.333,253.14,274.623,273.517,253.625,-0.0,-0.0,228.488,250.95
2015-06-29 03:00,0.00125173,280.799,282.096,258.246,285.061,284.922,261.66,-0.0,-0.0,231.156,256.805
2015-06-29 04:00,-0.0,280.613,281.267,257.91,283.797,283.339,260.461,-0.0,-0.0,230.835,256.45
2015-06-29 05:00,-0.00130415,276.594,272.527,252.777,273.529,272.086,252.075,-0.0,-0.0,227.87,250.442
2015-06-29 06:00,-0.0,281.165,281.978,258.022,284.501,284.349,261.062,-0.0,-0.00148261,231.394,255.73
2015-06-29 07:00,0.00180077,280.799,281.624,258.358,284.079,284.061,261.182,-0.0,-0.0,230.916,255.183
2015-06-29 08:00,-0.00250947,280.613,282.096,258.246,285.201,285.35,262.255,-0.0,-0.0,232.557,256.805
2015-06-29 09:00,-0.0,265.791,257.166,243.084,256.406,254.089,239.47,-0.0,-0.0,226.499,244.294
2015-06-29 10:00,-0.11321,276.811,275.306,254.099,276.62,275.551,255.027,-0.119818,-0.200011,228.4,251.152
2015-06-29 11:00,0.47177,285.045,284.982,259.902,287.951,287.609,262.965,0.272087,0.496988,232.02,256.181
2015-06-29 12:00,0.427288,290.041,287.322,261.838,289.568,288.167,262.492,0.195853,0.411913,229.601,254.629
2015-06-29 13:00,0.334487,294.156,291.798,264.543,295.043,293.35,264.605,0.135941,0.315172,232.557,257.421
2015-06-29 14:00,0.286256,296.323,293.641,265.456,296.809,295.076,264.953,0.108064,0.259541,232.633,257.246
2015-06-29 15:00,0.243182,296.114,291.902,264.031,295.17,292.814,262.373,0.0966478,0.217115,233.085,256.716
2015-06-29 16:00,0.246447,288.841,276.463,254.336,277.978,273.832,248.768,0.139571,0.261985,229.007,247.917
2015-06-29 17:00,0.209583,297.349,294.446,266.458,297.558,295.471,264.953,0.0768966,0.185138,234.686,257.246
2015-06-29 18:00,0.201318,295.583,292.211,265.052,294.661,292.141,262.847,0.0904458,0.197021,233.01,256.091
2015-06-29 19:00,0.348807,284.57,270.329,250.806,269.35,265.48,245.35,0.264864,0.382884,225.739,243.698
2015-06-30 01:00,-0.00155613,278.279,276.336,254.69,277.528,276.323,255.153,-0.0,-0.0,230.755,251.949
2015-06-30 02:00,-0.0,261.251,249.185,238.963,247.229,244.544,233.661,-0.0,-0.0,223.849,236.469
2015-06-30 03:00,-0.0,244.063,228.769,228.934,225.31,223.043,219.551,-0.0,-0.0,215.873,221.658
2015-06-30 04:00,-0.0,273.338,266.293,249.029,266.167,263.759,246.457,-0.0,-0.0,228.488,246.483
2015-06-30 05:00,-0.00130379,259.045,246.102,237.572,244.349,242.364,233.185,-0.0,-0.0,223.224,233.461
2015-06-30 06:00,0.00146785,254.966,240.984,234.681,239.426,236.157,226.918,-0.0,-0.0,221.708,231.198
2015-06-30 07:00,-0.0,235.601,228.155,228.564,227.414,226.426,223.233,-0.0,-0.0,219.982,224.61
2015-06-30 08:00,-0.0025066,263.636,250.175,239.721,248.733,244.112,232.387,-0.0,-0.0,223.642,236.757
2015-06-30 09:00,-0.00451299,250.598,238.338,233.005,235.93,233.474,227.601,-0.0,-0.0,219.382,227.323
2015-06-30 10:00,-0.0279911,265.446,252.479,240.913,250.207,247.085,235.072,-0.0947999,-0.113035,223.224,235.444
2015-06-30 11:00,0.260341,276.594,265.545,248.512,264.965,261.299,242.527,0.272638,0.338912,227.055,245.46
2015-06-30 12:00,0.363223,254.396,227.845,228.192,225.919,223.905,221.782,0.484444,0.584117,218.891,223.793
2015-06-30 13:00,0.27651,284.73,273.599,252.412,273.215,269.494,247.823,0.200135,0.317424,229.007,247.699
2015-06-30 14:00,0.227838,284.57,271.574,250.806,271.303,266.667,244.792,0.175934,0.28154,229.093,247.151
2015-06-30 15:00,0.252959,275.02,254.871,241.791,252.667,248.327,234.447,0.229579,0.32715,225.058,237.468
2015-06-30 16:00,0.262543,289.647,276.208,254.572,275.55,270.96,248.229,0.165685,0.265052,227.78,247.808
2015-06-30 19:00,0.375578,285.97,271.162,252.29,270.981,267.171,247.687,0.285266,0.409837,227.147,244.53
2015-06-30 20:00,0.0779163,290.429,289.805,263.618,292.989,291.464,263.67,0.119573,0.122908,232.328,255.366
2015-06-30 21:00,0.321548,270.434,257.166,244.488,254.066,250.957,237.676,0.393256,0.468899,219.744,232.669
