# timestamp,IR_016,IR_039,IR_087,IR_097,IR_108,IR_120,IR_134,VIS006,VIS008,WV_062,WV_073
2014-04-01 00:00,-0.00186529,270.151,263.245,249.669,263.04,260.045,246.044,-0.0,-0.0,227.87,244.881
2014-04-01 01:00,-0.0,269.865,255.23,244.765,253.069,248.121,235.846,-0.0,-0.0,222.04,234.542
2014-04-01 02:00,-0.0,235.601,226.583,228.934,223.125,221.579,219.739,-0.0,-0.0,216.695,220.535
2014-04-01 03:00,-0.0,279.081,271.023,254.926,269.679,265.309,247.959,-0.0,-0.0,226.685,243.577
2014-04-01 04:00,0.00123646,279.859,273.199,256.434,273.372,269.329,250.896,-0.0,-0.0,228.662,246.258
2014-04-01 05:00,0.00134176,261.251,253.226,244.349,252.262,248.736,239.025,-0.0,-0.0,223.849,238.578
2014-04-01 06:00,-0.00316291,260.827,251.147,243.084,248.946,244.758,235.227,-0.0,-0.0,221.93,235.74
2014-04-01 07:00,-0.00209387,262.475,256.118,245.587,255.827,253.896,243.099,-0.0,-0.0,226.122,240.446
2014-04-01 08:00,-0.0,245.01,232.28,231.625,230.294,228.056,224.126,-0.0,-0.0,220.337,225.408
2014-04-01 09:00,-0.0114805,254.396,243.049,238.195,240.392,235.677,227.77,-0.0,-0.0,221.484,231.695
2014-04-01 10:00,0.475417,272.836,261.34,248.642,261.791,259.139,245.628,0.485818,0.595815,228.575,244.53
2014-04-01 11:00,0.423107,273.338,257.339,245.451,256.98,255.045,243.667,0.46361,0.555925,227.329,242.848
2014-04-01 12:00,0.375807,293.24,276.336,257.685,276.315,273.042,254.9,0.228012,0.448381,230.916,249.093
2014-04-01 13:00,0.236501,291.686,280.669,260.876,279.76,275.861,255.784,0.127308,0.292523,228.835,246.707
2014-04-01 14:00,0.234185,297.749,290.123,267.151,290.5,286.202,261.898,0.0956836,0.284533,231.787,252.537
2014-04-01 15:00,0.202822,298.144,290.965,267.74,291.423,287.048,262.965,0.0771692,0.247527,232.405,253.117
2014-04-01 16:00,0.185937,297.449,289.486,266.756,289.568,286.06,262.492,0.0847713,0.238909,234.329,254.068
2014-04-01 17:00,0.116256,294.38,289.486,266.954,290.5,286.767,263.2,0.0564191,0.186069,236.742,255.366
2014-04-01 18:00,0.222918,293.007,279.091,260.445,276.923,270.635,249.305,0.135839,0.291541,233.382,249.198
2014-04-01 19:00,0.215004,289.514,276.336,258.134,274.312,269.821,249.838,0.180107,0.286334,229.935,246.483
2014-04-01 20:00,0.517783,269.576,221.841,226.674,220.519,219.472,218.41,0.573301,0.687595,216.695,219.608
2014-04-01 21:00,0.538336,247.601,212.119,221.814,209.808,208.766,209.42,0.455808,0.630439,208.652,209.707
2014-04-01 22:00,-0.00614461,240.898,228.769,230.207,225.31,222.753,220.302,-0.0,-0.0,216.424,221.436
2014-04-01 23:00,-0.0441715,230.231,213.921,223.076,213.381,211.983,212.202,-0.023375,-0.0473809,211.47,212.505
2014-04-02 00:00,-0.0,247.601,229.97,230.743,225.919,223.332,221.415,-0.0,-0.0,216.424,221.213
2014-04-02 01:00,-0.0,204.719,204.418,219.409,204.12,203.351,206.056,-0.0,-0.0,205.874,206.239
2014-04-02 02:00,-0.0,238.442,230.85,230.387,230.574,228.324,224.834,-0.0,-0.0,221.258,227.509
2014-04-02 03:00,-0.00122053,230.231,227.219,228.749,225.615,224.474,224.481,-0.0,-0.0,217.881,221.658
2014-04-02 04:00,-0.0,222.276,224.279,227.628,222.162,221.579,222.147,-0.0,0.00124731,215.167,218.653
2014-04-02 05:00,-0.0,252.585,251.339,242.081,251.447,250.357,242.097,-0.0,-0.0,233.382,243.937
2014-04-02 06:00,0.00158069,261.251,252.479,243.368,252.059,250.156,239.913,-0.0,0.0015958,232.935,244.056
2014-04-02 07:00,-0.00209262,261.666,243.496,237.728,240.87,236.635,227.77,-0.0,-0.0,222.692,231.364
2014-04-02 08:00,-0.00342493,280.05,272.796,255.51,272.582,268.67,249.305,-0.0,-0.0,231.943,247.371
2014-04-02 09:00,-0.0,285.512,284.185,262.89,285.895,283.194,260.581,-0.0,-0.0,236.274,254.256
2014-04-02 10:00,0.22274,286.864,285.433,263.618,287.407,285.208,262.255,0.244473,0.324811,240.43,257.508
2014-04-02 11:00,0.643071,293.816,283.495,262.471,285.618,283.339,261.421,0.578848,0.589339,241.76,257.942
2014-04-02 12:00,0.640941,299.858,285.77,263.825,288.222,286.626,263.787,0.547803,0.583989,243.686,260.381
2014-04-02 13:00,0.320426,298.63,289.379,266.358,291.029,288.306,264.022,0.162251,0.359962,242.875,260.135
2014-04-02 14:00,0.308628,299.203,288.736,265.959,290.234,287.469,264.255,0.198877,0.340531,241.76,259.135
2014-04-02 15:00,0.274312,294.38,286.217,264.339,288.087,285.919,263.67,0.234441,0.325041,241.419,258.628
2014-04-02 16:00,0.178786,296.943,291.174,267.642,291.948,288.722,264.138,0.0773463,0.226607,241.59,258.628
2014-04-02 17:00,0.187943,293.472,287.869,265.456,288.897,286.202,263.553,0.141048,0.238612,242.875,258.457
2014-04-02 18:00,0.178259,296.635,291.07,267.544,291.817,288.027,263.553,0.0876841,0.238237,242.82,258.628
2014-04-02 19:00,0.490704,264.009,235.011,232.663,234.371,232.976,227.431,0.6476,0.788446,228.575,232.022
2014-04-02 20:00,0.318521,253.206,225.282,227.438,223.758,223.043,222.511,0.440382,0.504737,218.264,220.989
2014-04-02 21:00,0.114772,225.382,221.841,226.287,221.182,220.984,220.302,0.233225,0.231738,217.881,219.372
2014-04-02 22:00,0.00604726,272.58,261.501,248.512,260.706,256.367,242.671,-0.0,-0.0,227.055,242.105
2014-04-02 23:00,-0.0822987,256.062,240.277,236.466,238.446,235.193,227.77,-0.0371638,-0.0636989,222.15,231.198
2014-04-03 00:00,-0.0,225.382,217.285,223.899,216.355,215.356,214.671,-0.0,-0.0,214.145,215.6
2014-04-03 01:00,-0.0,239.711,229.072,229.847,228.001,226.151,221.782,-0.0,-0.0,219.982,225.604
2014-04-03 02:00,-0.0,239.711,233.392,231.799,232.23,231.203,228.109,-0.0,-0.0,222.476,228.242
2014-04-03 03:00,-0.0,256.589,251.721,242.369,251.856,250.357,241.229,-0.0,-0.0,229.093,242.602
2014-04-03 04:00,-0.0,222.276,215.218,222.868,213.763,212.673,213.447,-0.0,-0.0,212.607,214.233
2014-04-03 05:00,-0.0,213.142,211.654,221.386,211.028,209.859,210.932,-0.0,-0.0,210.624,211.295
2014-04-03 06:00,-0.0,218.393,208.223,219.632,207.269,206.513,207.648,-0.0,-0.0,207.304,207.678
2014-04-03 07:00,-0.0,218.393,210.224,221.386,210.625,209.497,210.289,-0.0,-0.0,210.102,210.984
2014-04-03 08:00,-0.0,213.142,214.358,222.238,213.763,212.673,213.241,-0.0,-0.0,212.287,213.952
2014-04-03 09:00,-0.0113427,259.505,240.984,236.146,237.451,233.722,226.229,-0.0,-0.0,221.708,229.137
2014-04-03 10:00,0.38196,273.088,251.912,243.084,247.012,241.475,229.781,0.407772,0.561652,227.055,236.033
2014-04-03 11:00,0.335182,268.986,246.733,239.419,242.747,239.438,229.781,0.376629,0.512322,225.058,232.347
2014-04-03 12:00,0.41037,292.174,274.392,256.892,273.843,270.473,252.723,0.249897,0.45511,244.111,255.73
2014-04-03 13:00,0.300881,296.531,286.772,264.645,286.447,283.049,260.581,0.142716,0.36101,247.855,260.463
2014-04-03 14:00,0.219161,296.738,290.545,267.151,290.632,286.626,262.61,0.0823438,0.279336,248.879,262.072
2014-04-03 15:00,0.19769,298.144,292.211,268.324,292.47,288.584,264.605,0.0765809,0.247844,250.362,263.858
2014-04-03 16:00,0.188616,297.349,290.86,267.642,291.16,287.748,264.255,0.0964859,0.24728,249.651,263.244
2014-04-03 17:00,0.197334,297.146,290.651,267.642,291.029,287.748,263.905,0.0980702,0.251191,250.318,263.706
2014-04-03 18:00,0.370367,284.888,266.442,251.922,266.508,264.279,248.903,0.391626,0.518646,242.929,253.021
2014-04-03 19:00,0.141552,245.01,232.28,231.098,230.853,230.946,228.614,0.351697,0.360778,219.863,225.21
2014-04-03 20:00,0.473511,258.096,220.75,225.306,219.167,218.857,219.927,0.597925,0.69233,212.607,214.511
2014-04-03 21:00,0.0736987,284.249,281.742,261.838,282.803,280.554,260.942,0.166402,0.173608,245.202,259.387
2014-04-03 22:00,-0.00595386,287.729,285.433,263.928,286.722,284.922,262.61,-0.0,-0.0,238.357,256.45
2014-04-03 23:00,-0.106327,286.569,285.095,264.133,286.86,284.349,262.492,-0.048476,-0.0853242,239.834,257.07
2014-04-04 00:00,-0.0,278.883,269.626,253.14,268.855,265.138,246.182,-0.0,-0.0,231.552,247.151
2014-04-04 01:00,-0.0,274.314,263.088,248.771,262.685,258.224,241.808,-0.0,-0.00148037,229.852,244.056
2014-04-04 02:00,-0.00128676,286.569,285.095,263.618,286.585,284.061,261.66,-0.0,-0.0,238.483,255.911
2014-04-04 03:00,-0.00121804,284.888,281.624,261.519,282.803,279.81,258.515,-0.0,-0.0,235.662,252.342
2014-04-04 04:00,-0.0,269.865,260.692,247.332,259.791,256.928,241.519,-0.0,-0.0,228.048,242.602
2014-04-04 05:00,-0.0,267.123,255.409,245.177,253.069,248.941,238.278,-0.0,-0.0,226.405,237.608
2014-04-04 06:00,-0.0,282.059,280.187,260.769,281.943,278.609,258.515,-0.0,-0.0,241.304,256.894
2014-04-04 07:00,-0.0,279.081,279.823,260.228,282.231,280.554,261.301,-0.0,-0.0,241.647,257.508
2014-04-04 08:00,-0.0,283.594,284.755,263.618,286.86,284.779,263.2,-0.0,-0.0,243.418,258.543
2014-04-04 09:00,-0.0,284.888,285.433,263.928,287.543,285.635,263.436,-0.0,-0.0,244.322,259.051
2014-04-04 10:00,0.325982,288.152,286.772,264.441,288.628,286.767,263.436,0.268931,0.464113,244.217,259.471
2014-04-04 11:00,0.44639,293.24,288.195,265.355,289.701,287.048,264.022,0.239551,0.495088,244.687,259.887
2014-04-04 12:00,0.393362,296.219,290.229,266.657,291.423,288.584,264.721,0.178547,0.448298,244.531,260.299
2014-04-04 13:00,0.281232,296.943,291.07,267.249,292.34,289.276,264.953,0.120397,0.339747,244.531,260.217
2014-04-04 14:00,0.273422,298.533,290.756,267.052,292.34,289.413,265.647,0.150072,0.313487,244.426,260.708
2014-04-04 15:00,0.234649,296.84,289.805,266.756,291.292,288.722,265.185,0.149282,0.285318,244.322,260.952
2014-04-04 16:00,0.199839,296.323,290.123,266.557,291.029,288.445,264.837,0.106865,0.260151,244.583,261.113
2014-04-04 17:00,0.175216,297.549,292.725,268.807,294.021,290.511,265.301,0.0668813,0.227638,244.687,261.275
2014-04-04 18:00,0.193902,297.045,291.07,267.249,291.423,288.445,265.185,0.0886261,0.254655,244.479,261.113
2014-04-04 19:00,0.187002,296.114,293.031,268.807,294.661,291.735,266.566,0.087084,0.252507,245.456,262.466
2014-04-04 20:00,0.202525,294.491,292.52,268.324,294.021,291.464,266.337,0.132983,0.271224,244.997,262.701
2014-04-04 21:00,0.237679,291.19,289.911,266.657,291.686,289.551,265.878,0.313044,0.399919,240.014,260.135
2014-04-04 22:00,-0.0,284.888,281.148,260.553,282.231,280.108,258.27,-0.0,-0.0,236.874,256.36
2014-04-04 23:00,-0.102974,281.705,273.599,256.089,272.741,269.657,251.422,-0.0527715,-0.103958,233.456,250.849
2014-04-05 00:00,-0.00183895,261.666,245.032,238.349,241.107,237.815,229.946,-0.0,-0.0,221.596,230.011
2014-04-05 01:00,-0.00146318,263.636,248.985,240.913,245.693,243.243,233.503,-0.0,-0.0,222.368,231.695
2014-04-05 02:00,-0.00128493,287.155,285.321,264.031,286.997,284.492,262.728,-0.0,-0.00129721,236.207,257.158
2014-04-05 03:00,-0.0,284.888,284.869,263.721,286.86,285.065,263.67,-0.0,-0.0,242.82,260.545
2014-04-05 04:00,-0.0,277.026,276.971,258.246,278.725,277.701,260.34,-0.0,-0.0,244.997,260.381
2014-04-05 05:00,-0.0,283.093,283.148,262.261,285.34,283.629,262.965,-0.0,-0.0,245.202,260.871
2014-04-05 06:00,-0.0,283.093,283.38,262.576,285.479,283.629,262.847,-0.0,-0.0,243.846,260.135
2014-04-05 07:00,0.00208944,287.3,286.661,264.645,288.222,285.919,263.905,-0.0,-0.0,243.31,259.804
2014-04-05 08:00,-0.0034131,286.864,286.55,264.441,288.358,286.343,263.2,-0.0,-0.0,242.875,259.638
2014-04-05 09:00,-0.0112093,287.155,286.439,264.543,288.493,286.626,263.67,-0.0,-0.0,242.433,259.721
2014-04-05 10:00,0.336592,288.568,287.322,264.95,289.166,287.188,264.372,0.242243,0.484229,241.647,259.387
2014-04-05 11:00,0.388049,292.653,289.272,266.059,290.5,287.888,264.488,0.165616,0.496864,242.378,259.97
2014-04-05 12:00,0.406774,296.219,289.593,266.458,290.764,287.888,264.372,0.187706,0.457889,242.378,260.135
2014-04-05 13:00,0.278908,296.84,291.383,267.838,292.209,288.861,264.372,0.111367,0.343968,241.93,259.97
2014-04-05 14:00,0.325272,298.822,288.303,265.959,290.101,287.469,264.605,0.232229,0.358994,241.874,259.97
2014-04-05 15:00,0.252352,297.146,289.593,266.855,290.764,287.748,264.372,0.149787,0.296788,242.655,260.135
2014-04-05 16:00,0.234907,292.889,285.882,264.236,287.134,284.779,263.2,0.206717,0.313095,242.489,260.299
2014-04-05 17:00,0.203395,291.065,284.3,262.995,285.201,282.758,262.492,0.191756,0.305824,242.099,259.554
2014-04-05 18:00,0.31572,289.514,275.951,257.91,277.978,276.323,259.735,0.333054,0.423243,241.704,259.471
2014-04-05 20:00,0.18416,293.587,290.335,266.954,291.423,288.306,264.255,0.14884,0.261979,241.189,259.97
2014-04-05 21:00,0.199736,290.429,289.058,266.059,290.367,288.167,264.721,0.41071,0.460904,239.593,260.135
2014-04-05 22:00,-0.00577823,289.113,288.628,266.059,290.234,288.167,265.069,-0.0,-0.0,239.043,259.638
2014-04-05 23:00,-0.153547,289.247,288.195,265.658,290.101,287.888,264.721,-0.0707059,-0.116941,238.483,259.304
2014-04-06 00:00,-0.0,288.705,287.978,265.456,289.835,287.469,264.488,-0.0,-0.0,239.043,259.721
2014-04-06 01:00,-0.0,288.152,287.651,265.153,289.568,287.469,264.837,-0.0,-0.0,239.349,259.638
2014-04-06 02:00,-0.0,285.512,285.433,263.721,287.407,285.777,263.905,-0.0,-0.0,239.593,259.22
2014-04-06 03:00,0.00121582,288.43,287.76,265.355,289.568,287.609,264.605,-0.0,0.00122744,239.532,259.387
2014-04-06 04:00,-0.0,288.43,288.087,265.456,289.968,288.027,264.372,-0.0,-0.0,238.857,259.471
2014-04-06 05:00,-0.0,287.587,287.541,264.95,289.166,287.329,265.185,-0.0,-0.0,239.104,259.638
2014-04-06 06:00,0.00157837,287.587,287.541,265.254,289.434,287.469,264.605,-0.0,-0.0,239.894,260.299
2014-04-06 07:00,-0.0,287.444,287.102,264.645,289.032,287.469,264.605,-0.0,-0.0,240.014,260.381
2014-04-06 08:00,-0.0,286.717,286.882,264.441,288.628,286.907,264.022,-0.0,-0.0,240.134,259.721
2014-04-06 09:00,-0.011144,286.864,286.772,264.133,288.628,287.188,264.605,-0.0094356,-0.0112505,239.653,259.721
2014-04-06 10:00,0.338897,288.012,287.76,264.95,289.701,288.027,264.721,0.236728,0.487545,240.371,260.299
2014-04-06 11:00,0.398964,292.294,289.911,266.159,291.555,289.413,265.185,0.16622,0.501874,240.899,260.217
2014-04-06 12:00,0.36112,295.151,291.174,267.642,292.47,289.689,265.532,0.134742,0.438723,240.841,260.381
2014-04-06 13:00,0.273401,296.738,292.314,268.227,293.635,290.648,265.416,0.0995938,0.341809,240.43,260.135
2014-04-06 14:00,0.24058,297.947,292.622,268.421,293.892,290.921,265.762,0.10302,0.30011,240.607,260.217
2014-04-06 15:00,0.242774,297.349,289.486,266.557,291.029,288.167,264.488,0.149194,0.285944,239.774,259.638
2014-04-06 16:00,0.189439,297.349,292.005,268.033,293.119,290.238,265.532,0.0908546,0.242071,239.954,259.554
2014-04-06 17:00,0.186911,297.248,292.005,268.227,293.506,290.375,265.069,0.0883294,0.231118,240.665,259.554
2014-04-06 18:00,0.176936,297.248,293.235,269.0,294.533,291.193,266.108,0.0749057,0.231165,241.361,259.887
2014-04-06 19:00,0.194524,295.796,292.314,268.324,293.764,290.784,265.416,0.110472,0.256257,241.704,260.217
2014-04-06 20:00,0.271287,294.38,290.965,267.74,292.47,289.964,265.878,0.193808,0.333791,242.433,261.113
2014-04-06 21:00,0.279083,291.065,289.699,266.855,291.686,289.689,265.762,0.393832,0.469585,243.039,261.515
2014-04-06 22:00,-0.0,289.647,289.593,266.458,291.423,289.826,265.878,-0.0,-0.0,243.147,261.834
2014-04-06 23:00,-0.12052,289.647,289.486,266.358,291.555,290.101,266.452,-0.0657617,-0.118968,243.686,262.23
2014-04-07 00:00,-0.0,288.43,288.412,265.658,290.101,288.445,264.837,-0.0,-0.0,243.093,261.435
2014-04-07 01:00,-0.0,288.705,288.951,265.959,291.029,289.551,265.993,-0.0,-0.0,243.953,262.23
2014-04-07 02:00,-0.00256305,288.152,288.736,265.658,291.16,289.551,265.301,-0.0,-0.0,243.686,261.834
2014-04-07 03:00,-0.0,287.871,288.303,265.456,290.632,289.413,266.108,-0.0,-0.0,243.633,261.595
2014-04-07 04:00,-0.00123167,287.444,288.087,265.355,290.5,289.137,265.301,-0.0,-0.0,243.364,261.113
2014-04-07 05:00,0.00133818,287.3,287.869,265.153,290.234,288.861,265.532,-0.0,-0.0,243.256,260.545
2014-04-07 06:00,-0.0,286.864,287.651,264.849,290.101,288.722,265.993,-0.0,-0.0,242.544,260.789
2014-04-07 07:00,-0.0,286.569,287.76,264.849,290.234,288.999,265.416,-0.0,-0.0,242.322,260.708
2014-04-07 08:00,-0.0,286.569,287.432,264.645,289.835,288.999,265.762,-0.0,-0.0,242.489,260.789
2014-04-07 09:00,-0.0,286.271,286.992,264.133,289.434,288.445,265.185,-0.0,-0.0,242.211,260.627
2014-04-07 10:00,0.34126,288.012,287.76,264.849,290.101,288.722,265.185,0.245602,0.516783,241.704,260.381
2014-04-07 11:00,0.390911,293.007,290.86,266.855,292.73,290.511,265.647,0.169528,0.522988,240.899,260.463
2014-04-07 12:00,0.364315,296.219,292.108,267.74,293.248,290.375,264.953,0.138636,0.454581,240.841,260.217
2014-04-07 13:00,0.279032,297.649,292.622,268.324,293.377,290.101,264.372,0.103953,0.355746,240.074,259.804
2014-04-07 14:00,0.328739,294.268,285.208,263.618,286.722,285.208,263.553,0.284215,0.4061,240.724,260.217
2014-04-07 15:00,0.275048,294.156,285.658,263.721,286.86,284.779,262.728,0.229556,0.351725,240.548,259.804
2014-04-07 16:00,0.19017,293.472,285.994,264.133,286.31,283.339,260.822,0.143001,0.259117,240.548,258.543
2014-04-07 17:00,0.170282,297.349,289.272,266.657,289.968,286.202,262.728,0.0924216,0.223336,240.607,259.051
2014-04-07 18:00,0.33663,299.391,284.869,263.099,286.447,283.049,261.898,0.215614,0.376827,242.433,259.721
2014-04-07 19:00,0.284405,299.203,290.44,266.855,291.948,288.584,263.905,0.155815,0.337793,241.533,259.887
2014-04-07 20:00,0.227548,294.491,292.314,268.13,293.892,291.329,266.108,0.149042,0.307742,242.984,261.033
2014-04-07 21:00,0.305347,290.685,289.272,266.159,290.764,288.306,264.605,0.287263,0.411022,242.655,260.135
2014-04-07 22:00,-0.00561651,289.514,289.593,265.859,291.817,290.238,266.108,-0.0,-0.0056702,244.058,261.515
2014-04-07 23:00,-0.130492,289.247,289.272,265.959,291.423,289.826,265.762,-0.0699001,-0.123674,244.164,261.435
2014-04-08 00:00,-0.0,288.705,288.52,265.557,290.764,289.137,265.185,-0.0,-0.0,243.202,260.708
2014-04-08 01:00,-0.00145435,287.871,288.303,265.254,290.632,288.999,265.416,-0.0,-0.0,244.006,260.952
2014-04-08 02:00,-0.00127994,288.012,288.303,265.153,290.5,289.137,265.762,-0.0,-0.0,243.633,261.275
2014-04-08 03:00,-0.0,287.444,287.978,265.153,290.101,288.584,265.416,-0.0,-0.0,242.6,260.952
2014-04-08 04:00,-0.00123109,286.864,286.328,264.031,288.222,286.485,264.138,-0.0,-0.0,240.371,259.554
2014-04-08 05:00,-0.0,286.717,286.328,264.031,288.358,286.626,263.553,-0.0,0.00135059,240.074,260.217
2014-04-08 06:00,-0.00157762,285.357,283.611,262.576,285.34,283.049,260.942,-0.0,-0.0,238.483,258.114
2014-04-08 07:00,-0.0,286.121,286.217,264.031,288.358,287.048,264.138,-0.0,-0.0,238.357,259.304
2014-04-08 08:00,-0.0,286.569,286.882,264.543,289.3,288.027,265.301,-0.0,-0.0,239.166,259.721
2014-04-08 09:00,-0.0,286.121,286.661,264.133,288.763,287.469,265.069,-0.0,-0.0,238.981,259.804
2014-04-08 10:00,0.300723,287.444,287.212,264.645,289.3,287.748,264.605,0.232797,0.477082,239.043,259.387
2014-04-08 11:00,0.373246,292.294,289.805,266.259,291.292,288.861,265.301,0.167467,0.502419,240.253,260.463
2014-04-08 12:00,0.359331,296.531,292.005,267.74,293.248,289.964,265.301,0.139084,0.441539,241.93,260.952
2014-04-08 13:00,0.275112,298.339,293.235,268.518,294.021,290.511,264.953,0.102926,0.347177,242.266,261.033
2014-04-08 14:00,0.233789,299.485,294.546,269.288,295.17,291.464,265.647,0.0824785,0.290815,242.929,261.113
2014-04-08 15:00,0.23921,298.533,291.07,267.446,292.6,289.413,265.301,0.139106,0.291919,243.256,261.355
2014-04-08 16:00,0.214941,297.749,291.487,267.74,292.47,289.413,265.301,0.126602,0.266865,244.058,261.515
2014-04-08 17:00,0.172512,297.449,288.195,265.254,288.897,285.635,263.436,0.122547,0.219915,244.164,260.952
2014-04-08 18:00,0.58929,298.822,269.626,253.98,272.264,270.96,256.535,0.491526,0.621483,243.633,258.798
2014-04-08 19:00,0.0794603,292.053,288.736,266.059,289.968,287.329,263.905,0.0876664,0.123976,244.583,261.595
2014-04-08 20:00,0.247891,282.059,273.199,256.205,274.467,271.283,256.285,0.224618,0.285385,244.374,259.304
2014-04-08 21:00,1.19731,275.251,258.534,247.728,254.263,248.327,237.07,0.728642,1.24653,228.662,242.478
2014-04-08 22:00,-0.00554052,275.932,267.764,252.29,265.654,262.008,246.732,-0.0,-0.00559348,228.575,244.647
2014-04-08 23:00,-0.116531,280.613,275.951,258.246,275.396,270.473,252.723,-0.0627877,-0.117645,233.382,251.751
2014-04-09 00:00,-0.00181554,285.97,282.916,262.155,283.372,279.511,257.653,-0.0,-0.0,238.795,255.911
2014-04-09 01:00,-0.0,286.717,284.3,262.786,285.061,281.882,258.882,-0.0,-0.0,238.42,257.508
2014-04-09 02:00,-0.00127844,286.271,284.071,262.786,285.201,282.028,259.37,-0.0,-0.0,239.714,257.855
2014-04-09 03:00,-0.0,286.569,285.433,263.618,286.033,282.758,260.822,-0.0,-0.0,240.724,258.967
2014-04-09 04:00,0.00123058,286.717,285.994,264.133,287.407,284.779,262.136,-0.0,-0.0,241.76,260.381
2014-04-09 05:00,-0.0,286.421,285.095,263.307,286.447,284.061,261.421,-0.0,-0.00135027,240.253,259.471
2014-04-09 06:00,-0.0,286.271,285.994,263.515,287.407,284.779,262.728,-0.0,-0.0,240.134,260.217
2014-04-09 07:00,-0.00208634,286.569,286.328,263.721,288.087,286.06,263.2,-0.0,-0.0,239.894,259.97
2014-04-09 08:00,0.00339893,284.57,283.495,262.471,284.501,281.293,260.098,-0.0,-0.0,239.834,258.798
2014-04-09 09:00,-0.0,276.376,274.524,256.892,275.55,272.246,255.28,-0.0,-0.0110562,238.42,257.421
2014-04-09 10:00,0.18174,287.444,285.433,262.786,287.134,284.205,261.66,0.205172,0.279585,237.785,258.457
2014-04-09 11:00,0.592444,295.583,277.852,259.244,279.17,276.169,258.638,0.347068,0.569011,237.528,257.333
2014-04-09 12:00,0.364631,296.635,291.487,267.249,292.209,288.445,263.787,0.13954,0.438829,237.592,258.2
2014-04-09 13:00,0.27599,298.339,292.417,268.13,293.119,289.276,264.255,0.101895,0.338566,240.014,259.638
2014-04-09 14:00,0.265275,299.485,291.383,267.348,292.209,288.584,264.138,0.120579,0.317145,239.954,259.471
2014-04-09 15:00,0.23478,298.533,291.279,267.249,292.47,289.137,264.721,0.129547,0.286294,239.593,259.135
2014-04-09 16:00,0.202383,298.63,290.545,266.458,291.423,287.469,262.61,0.0987291,0.262501,238.483,257.682
2014-04-09 17:00,0.447924,295.368,271.711,255.393,273.843,272.405,257.9,0.390448,0.492238,240.253,257.333
2014-04-09 18:00,0.208103,295.26,287.869,265.153,288.628,285.065,261.898,0.13439,0.274189,238.483,257.07
2014-04-09 19:00,0.339644,293.93,281.505,261.305,281.51,278.004,259.005,0.267035,0.379629,239.166,256.091
2014-04-09 20:00,0.409726,295.26,285.546,263.928,285.618,281.735,260.219,0.28723,0.440329,239.166,256.36
2014-04-09 21:00,0.374908,291.065,287.651,264.95,288.763,285.208,262.136,0.352705,0.504656,239.714,256.982
2014-04-09 22:00,-0.00546761,283.594,279.823,259.793,280.639,276.784,256.66,-0.0,-0.0,235.936,253.88
2014-04-09 23:00,-0.158052,286.271,282.214,261.625,282.374,278.609,257.034,-0.0736023,-0.124991,233.823,253.021
2014-04-10 00:00,-0.0,264.009,249.583,241.936,244.575,239.438,230.111,-0.0,-0.0,220.686,232.185
2014-04-10 01:00,-0.0,248.394,229.97,231.45,225.003,221.283,218.218,-0.0,-0.0,215.734,220.989
2014-04-10 02:00,-0.00127701,237.078,225.937,229.118,222.162,218.547,215.674,-0.0,-0.0,216.695,222.096
2014-04-10 03:00,-0.0,213.142,206.1,219.409,203.652,201.271,204.185,-0.0,-0.0,202.954,204.328
2014-04-10 04:00,-0.0,225.382,215.64,224.305,213.763,211.983,212.202,-0.0,-0.0,211.303,213.668
2014-04-10 05:00,-0.00133722,218.393,217.685,224.908,216.355,215.683,215.873,-0.0,-0.0,214.145,215.867
2014-04-10 06:00,-0.0,244.063,237.841,234.183,236.441,234.216,228.782,-0.0,-0.0,224.661,232.669
2014-04-10 07:00,-0.0,235.601,224.616,227.628,221.838,219.472,219.172,-0.0,-0.0,216.15,219.372
2014-04-10 08:00,-0.00339559,237.078,223.94,227.628,221.838,220.081,217.832,-0.0,-0.0,216.424,220.075
2014-04-10 09:00,-0.0108882,240.898,233.392,232.146,232.772,230.946,227.601,-0.0,-0.0,223.849,229.137
2014-04-10 10:00,0.235392,284.087,277.098,257.798,277.377,273.2,252.853,0.221452,0.352063,228.488,247.261
2014-04-10 11:00,0.289344,280.982,265.243,250.806,263.04,257.486,241.519,0.253153,0.412199,224.76,240.446
2014-04-10 12:00,0.30384,263.636,233.666,231.45,231.131,228.324,223.592,0.383266,0.500807,219.503,224.61
2014-04-10 13:00,0.251127,273.338,251.53,241.791,249.157,244.758,233.661,0.234437,0.377041,224.56,234.236
2014-04-10 14:00,0.229739,284.73,265.846,250.806,264.095,258.224,242.241,0.161309,0.316789,227.055,241.093
2014-04-10 16:00,0.174927,296.531,288.412,265.557,288.358,283.194,258.638,0.0717767,0.22958,230.996,251.051
2014-04-10 17:00,0.18884,297.649,288.843,265.456,288.493,283.049,259.249,0.0799454,0.250222,232.405,251.85
2014-04-10 18:00,0.0638436,292.889,287.432,264.95,288.087,283.049,259.614,0.0570594,0.114585,233.234,252.731
2014-04-10 19:00,0.19555,290.558,279.58,260.011,278.576,273.2,252.075,0.144876,0.264049,230.266,248.455
2014-04-10 20:00,0.28566,291.686,278.968,259.902,277.828,271.926,250.633,0.253205,0.337958,232.86,250.032
2014-04-10 21:00,0.2815,276.594,261.017,248.771,257.17,249.955,235.382,0.357518,0.473651,223.952,238.165
2014-04-10 22:00,-0.0,213.142,200.774,216.392,199.196,198.656,201.515,-0.0,-0.0,201.465,200.041
2014-04-10 23:00,-0.115298,227.984,203.838,218.957,202.701,201.694,203.947,-0.0599049,-0.11111,204.795,204.721
2014-04-11 00:00,-0.0,204.719,202.646,217.342,201.233,200.415,204.185,-0.0,-0.0,202.469,202.271
2014-04-11 01:00,-0.0014465,204.719,207.704,219.855,206.833,206.128,208.096,-0.0,-0.0,207.105,207.678
2014-04-11 02:00,-0.00127567,213.142,216.471,224.102,214.89,214.03,214.468,-0.0,-0.0,212.607,214.233
2014-04-11 03:00,-0.00121143,227.984,226.261,228.378,224.694,223.905,221.782,-0.0,-0.0,219.014,222.743
2014-04-11 04:00,-0.0,239.711,236.318,234.017,234.633,232.725,229.283,-0.0,-0.0,224.46,231.031
2014-04-11 05:00,-0.0,266.131,259.206,247.067,257.55,253.896,242.814,-0.0,-0.0,229.178,242.105
2014-04-11 06:00,-0.0,257.103,252.29,242.942,252.059,247.708,239.173,-0.0,-0.0,229.348,242.23
2014-04-11 07:00,-0.0,272.322,263.712,250.051,263.04,258.224,245.489,-0.0,-0.0,230.266,243.336
2014-04-11 08:00,-0.0,267.761,258.534,246.801,257.928,253.51,242.527,-0.0,-0.0,230.018,241.728
2014-04-11 09:00,-0.0,282.923,278.226,258.358,279.76,275.085,255.28,-0.0,-0.0,230.916,248.455
2014-04-11 10:00,0.421632,286.717,280.669,259.902,282.231,278.458,257.53,0.304933,0.505475,231.315,249.303
2014-04-11 11:00,0.400239,288.977,282.566,261.198,283.23,279.661,258.515,0.226832,0.492047,229.601,247.917
2014-04-11 12:00,0.36294,294.713,288.087,264.95,288.493,284.492,260.942,0.143992,0.443878,232.097,250.544
2014-04-11 13:00,0.276178,296.635,290.229,266.557,290.764,286.485,262.136,0.102561,0.340777,232.709,251.252
2014-04-11 14:00,0.238948,298.045,289.911,266.458,290.632,286.343,262.255,0.0975881,0.290897,233.677,251.949
2014-04-11 15:00,0.260382,297.248,287.102,264.747,288.087,284.205,261.182,0.152976,0.288354,233.603,251.552
2014-04-11 16:00,0.23777,297.045,287.978,264.95,289.032,285.065,262.136,0.137263,0.278232,233.603,251.949
2014-04-11 17:00,0.204529,297.649,290.017,266.259,291.029,286.767,262.728,0.104156,0.249876,234.185,252.731
2014-04-11 18:00,0.201521,296.84,289.593,265.959,290.5,286.343,262.61,0.104189,0.250259,234.897,253.309
2014-04-11 19:00,0.184719,290.171,284.185,262.995,285.201,281.441,259.614,0.17934,0.266052,236.139,253.785
2014-04-11 20:00,1.07178,285.665,251.912,241.936,251.856,248.121,236.918,0.984057,1.23269,231.63,243.457
2014-04-11 21:00,0.428866,284.41,274.655,256.32,273.372,268.339,249.572,0.4539,0.649448,231.156,246.258
2014-04-11 22:00,-0.00533054,282.059,274.129,256.089,273.529,268.339,249.171,-0.0,-0.0,230.996,247.371
2014-04-11 23:00,-0.125139,245.913,230.559,230.565,226.522,224.19,220.115,-0.0618072,-0.113176,215.873,222.529
2014-04-12 00:00,-0.00899946,218.393,215.64,223.076,212.609,211.635,212.411,-0.00152397,-0.0036342,210.452,211.602
2014-04-12 01:00,-0.0,237.078,227.845,229.118,225.31,224.474,222.511,-0.0,-0.0,217.491,222.529
2014-04-12 02:00,-0.0,252.585,248.177,240.469,248.093,246.876,238.577,-0.0,-0.0,225.254,237.888
2014-04-12 03:00,-0.0,259.505,260.201,247.597,261.971,260.942,249.838,-0.0,-0.0,229.852,246.929
2014-04-12 04:00,-0.00122936,259.954,260.036,247.465,262.15,261.477,250.501,-0.0,-0.0,231.552,248.455
2014-04-12 05:00,-0.0,263.636,259.373,247.728,260.158,258.408,247.415,-0.0,-0.0,230.101,245.918
2014-04-12 06:00,-0.00157682,270.989,264.635,250.303,264.444,260.584,247.415,-0.0,-0.0,229.178,244.647
2014-04-12 07:00,-0.0,254.396,248.784,241.791,248.093,244.328,236.613,-0.0,-0.0,226.871,237.468
2014-04-12 08:00,-0.0,235.601,230.559,230.387,230.853,229.385,225.709,-0.0,-0.0,223.849,229.137
2014-04-12 09:00,0.0107621,243.066,241.218,235.823,240.87,238.978,232.707,-0.0,-0.010865,226.778,236.325
2014-04-12 10:00,0.336364,254.396,247.15,239.57,246.794,245.612,238.428,0.637051,0.759586,228.748,239.523
2014-04-12 12:00,0.378756,293.007,279.823,259.793,279.76,273.675,252.853,0.202635,0.439103,230.184,247.481
2014-04-12 13:00,0.463448,296.219,253.963,244.07,253.469,250.557,241.374,0.353984,0.48751,228.921,241.98
2014-04-12 14:00,0.235533,294.043,283.956,262.786,283.797,278.307,255.406,0.103892,0.303282,228.488,246.707
2014-04-12 15:00,0.207998,293.124,281.267,260.769,280.493,275.085,252.464,0.0970872,0.267867,226.685,244.881
2014-04-12 16:00,0.229231,292.534,275.306,257.346,273.215,266.329,247.551,0.145855,0.271134,226.405,242.971
2014-04-12 17:00,0.254609,280.982,264.021,250.177,263.04,259.139,244.792,0.27735,0.3788,226.871,240.964
2014-04-12 18:00,0.177547,288.291,274.916,256.778,273.686,268.007,248.903,0.147292,0.251667,226.778,243.336
2014-04-12 19:00,0.208459,291.19,281.624,261.305,281.221,276.784,254.646,0.142883,0.270581,228.662,246.371
2014-04-12 20:00,0.361994,289.779,277.601,258.58,277.075,272.246,251.553,0.29486,0.430218,228.224,245.23
2014-04-12 21:00,0.187198,288.152,283.956,262.786,285.201,281.882,259.37,0.369835,0.503968,230.593,248.987
2014-04-12 22:00,-0.0,287.01,283.495,262.261,284.781,281.146,259.614,-0.0,-0.0,230.348,248.987
2014-04-12 23:00,-0.16862,287.444,285.095,263.307,286.997,284.061,261.421,-0.0680904,-0.117853,230.916,250.238
2014-04-13 00:00,-0.100522,287.444,285.433,263.825,287.134,284.061,262.017,-0.0364765,-0.0634268,231.394,250.849
2014-04-13 01:00,-0.0014418,285.512,283.841,262.576,285.479,282.613,261.301,-0.0,-0.0,231.63,250.544
2014-04-13 02:00,-0.0012732,286.717,284.414,262.471,285.895,282.904,261.062,-0.0,-0.0,232.784,251.949
2014-04-13 03:00,-0.0,286.271,284.528,262.681,286.172,283.194,261.062,-0.0,-0.0,233.308,251.949
2014-04-13 04:00,-0.0,281.526,278.226,258.913,279.318,275.551,257.158,-0.0,-0.0,233.085,251.252
2014-04-13 05:00,-0.0,273.088,268.773,252.899,268.855,265.65,251.422,-0.0,-0.0,232.86,249.513
2014-04-13 06:00,0.00157675,256.062,254.871,244.349,256.021,254.664,245.211,-0.0,-0.0,232.02,246.818
2014-04-13 07:00,-0.0,264.009,258.871,246.667,259.791,257.115,246.044,-0.0,-0.0,232.097,247.699
2014-04-13 08:00,-0.0,283.428,280.187,259.793,280.201,276.631,257.034,-0.0,-0.0,233.456,250.748
2014-04-13 09:00,-0.0,278.482,277.727,258.58,279.76,277.091,258.638,-0.0,-0.0108015,233.456,251.949
2014-04-13 10:00,0.303328,287.729,284.642,262.366,285.757,282.758,260.34,0.249274,0.441328,234.041,252.537
2014-04-13 11:00,0.354705,290.558,284.3,262.155,284.921,280.998,259.127,0.179095,0.440228,233.823,251.949
2014-04-13 12:00,0.35502,295.368,288.303,265.052,288.358,284.061,261.062,0.141456,0.421663,234.472,253.5
2014-04-13 13:00,0.299167,297.349,287.432,264.645,287.951,283.629,261.062,0.141795,0.343064,234.543,253.974
2014-04-13 14:00,0.338243,293.007,283.148,261.519,284.641,282.175,261.182,0.359485,0.448634,235.525,254.907
2014-04-13 15:00,0.279688,295.69,282.799,261.198,283.797,280.108,258.882,0.21415,0.335051,235.867,254.722
2014-04-13 16:00,0.133465,295.151,289.805,265.557,290.5,286.485,262.255,0.0622679,0.204861,235.525,255.091
2014-04-13 17:00,0.185485,290.939,277.977,258.246,277.978,272.086,250.369,0.135519,0.288439,232.935,250.34
2014-04-13 18:00,0.183959,290.171,278.845,258.802,278.427,273.517,251.944,0.161866,0.274936,233.01,250.646
2014-04-13 19:00,0.145033,280.05,277.476,258.022,279.022,276.784,258.76,0.169378,0.219629,235.525,255.548
2014-04-13 20:00,0.408598,289.514,272.527,255.742,269.679,264.106,246.457,0.318439,0.450004,227.42,244.175
2014-04-13 21:00,0.223351,264.377,243.273,237.884,237.702,232.976,225.009,0.441259,0.526134,216.56,226.187
2014-04-13 22:00,-0.00520443,265.446,245.89,239.115,240.152,235.435,226.574,-0.0,-0.0,216.695,226.57
2014-04-13 23:00,-0.17039,251.282,231.997,231.098,227.414,224.756,220.302,-0.0655768,-0.114679,214.734,220.989
2014-04-14 00:00,-0.0966792,244.063,227.533,228.564,224.694,222.169,219.172,-0.0378973,-0.0704913,217.491,221.213
2014-04-14 01:00,-0.0,248.394,234.745,232.491,231.957,229.647,224.657,-0.0,-0.0,220.219,225.994
2014-04-14 02:00,-0.0,271.261,259.039,245.995,257.928,253.316,239.173,-0.0,-0.0,226.216,240.964
2014-04-14 03:00,-0.0,272.322,262.141,248.252,261.791,258.04,242.956,-0.0,-0.0,227.055,242.354
2014-04-14 04:00,-0.0,273.338,266.738,251.18,266.167,264.106,249.838,-0.0,-0.0,229.348,243.577
2014-04-14 05:00,-0.0,285.818,283.956,262.049,285.757,283.194,261.54,-0.0,-0.0,231.552,252.828
2014-04-14 06:00,0.00157673,272.58,273.865,255.626,276.315,275.396,258.882,-0.0,-0.0,231.473,252.047
2014-04-14 07:00,0.00208383,274.787,274.655,256.434,277.226,276.015,258.882,-0.0,-0.0,231.865,252.634
2014-04-14 08:00,-0.00338264,268.986,270.189,253.261,271.625,270.311,255.406,-0.0,-0.0,231.709,252.342
2014-04-14 09:00,-0.0,265.095,259.706,247.597,258.678,254.281,242.384,-0.0,-0.0,226.027,243.336
2014-04-14 10:00,0.800401,275.707,266.886,251.429,267.016,264.106,249.438,0.791918,0.980559,230.348,249.408
2014-04-14 11:00,0.764674,292.534,272.796,255.277,274.312,271.926,255.658,0.647448,0.795078,232.328,252.047
2014-04-14 12:00,0.530227,295.69,272.662,255.16,273.057,270.148,253.497,0.402806,0.547991,230.996,250.135
2014-04-14 13:00,0.371973,298.726,281.742,261.198,282.66,278.609,258.76,0.270745,0.413411,231.63,252.244
2014-04-14 14:00,0.328061,296.219,282.916,261.731,284.079,280.998,259.977,0.281376,0.392849,232.86,253.021
2014-04-14 15:00,0.274008,289.91,277.852,258.802,279.907,278.307,259.735,0.293414,0.370192,233.896,253.785
2014-04-14 16:00,0.123069,261.251,256.992,246.399,256.406,256.928,247.823,0.318396,0.365834,229.007,242.478
2014-04-14 17:00,0.211898,277.026,259.706,247.597,258.116,255.992,245.211,0.273574,0.314057,227.78,240.964
2014-04-14 18:00,0.259362,284.087,260.854,248.121,258.116,252.341,238.128,0.270279,0.360719,226.405,240.053
2014-04-14 19:00,0.62991,269.865,215.64,223.694,212.219,210.219,209.42,0.772282,0.910655,211.303,213.092
2014-04-14 20:00,0.738706,268.986,221.841,226.866,219.167,216.008,214.062,0.808717,0.964273,213.541,218.41
2014-04-14 21:00,0.735742,249.89,235.8,233.849,233.041,228.59,221.965,0.778689,1.11416,218.517,228.242
2014-04-14 22:00,-0.00514522,244.063,230.559,230.387,227.708,224.756,221.782,-0.0,-0.00519441,217.096,223.167
2014-04-14 23:00,-0.133619,258.096,236.832,234.515,231.683,227.517,220.675,-0.0543919,-0.106361,216.963,224.61
2014-04-15 00:00,-0.135725,244.063,235.275,233.344,234.107,232.221,228.278,-0.0453624,-0.0793287,223.329,229.664
2014-04-15 01:00,-0.00143752,262.074,260.201,247.332,260.888,258.957,246.319,-0.0,-0.0,228.748,247.151
2014-04-15 02:00,-0.0,265.791,266.738,251.552,269.186,268.173,254.519,-0.0,-0.0,231.236,249.928
2014-04-15 03:00,-0.0,264.377,265.394,250.429,266.678,265.82,253.24,-0.0,-0.0,231.865,250.95
2014-04-15 04:00,-0.0,284.249,281.742,261.412,283.372,280.702,259.492,-0.0,-0.0,232.097,253.595
2014-04-15 05:00,0.00133668,279.081,276.463,257.572,278.873,275.861,257.653,-0.0,-0.0,233.01,252.925
2014-04-15 06:00,0.00157674,269.576,268.916,252.899,270.819,269.165,253.881,-0.0,-0.0,231.156,250.544
2014-04-15 07:00,-0.0,257.605,254.145,243.084,254.657,252.144,241.808,-0.0,-0.0,229.517,244.647
2014-04-15 08:00,-0.00337945,218.393,218.862,224.507,217.427,217.29,217.25,-0.0,-0.0,213.693,215.867
2014-04-15 09:00,0.0105734,204.719,217.685,223.694,217.072,216.331,216.269,-0.0,-0.0,215.734,216.392
2014-04-15 10:00,0.226685,238.442,228.155,228.564,228.583,227.787,224.126,0.560446,0.668247,223.118,226.187
2014-04-15 12:00,0.48376,298.045,281.029,260.553,282.946,280.108,259.977,0.309871,0.494755,231.787,253.213
2014-04-15 13:00,0.340516,296.738,279.091,259.244,279.907,277.243,258.882,0.230097,0.381784,233.01,253.405
2014-04-15 14:00,0.364846,297.045,277.601,258.469,278.427,273.675,254.9,0.278747,0.399987,232.251,251.949
2014-04-15 15:00,0.219755,296.323,287.432,264.95,287.27,281.735,258.392,0.110726,0.27766,232.405,252.828
2014-04-15 16:00,0.19909,296.531,287.212,264.441,287.951,283.773,261.66,0.106954,0.243964,232.251,254.068
2014-04-15 17:00,0.19175,296.943,290.651,266.557,291.817,288.167,264.022,0.103549,0.245409,232.557,255.183
2014-04-15 18:00,0.187871,296.323,290.335,266.756,291.029,287.188,262.492,0.0849405,0.250435,232.175,254.162
2014-04-15 19:00,0.154871,293.816,289.165,265.456,290.632,287.748,263.2,0.133279,0.217867,233.159,255.366
2014-04-15 20:00,0.27655,287.871,278.721,259.683,277.828,273.832,254.264,0.262415,0.303263,228.488,248.455
2014-04-15 21:00,0.119731,288.152,285.208,263.307,286.447,283.339,260.942,0.50688,0.604378,230.755,251.85
2014-04-15 22:00,-0.00508845,278.279,269.485,252.899,268.524,265.138,248.634,-0.0,-0.0,226.405,242.725
2014-04-15 23:00,-0.189289,268.686,268.916,252.656,271.464,270.798,256.035,-0.0649745,-0.118791,232.784,252.828
2014-04-16 00:00,-0.119362,256.062,246.733,239.721,245.248,243.243,234.76,-0.0437441,-0.0791365,224.054,236.179
2014-04-16 01:00,-0.00143554,272.322,270.885,254.217,271.785,270.311,253.368,-0.0,-0.0,230.755,250.748
2014-04-16 02:00,0.00127007,276.155,271.574,254.454,270.332,267.171,249.971,-0.0,-0.0,228.312,246.371
2014-04-16 03:00,-0.00120861,280.982,273.732,256.205,272.582,268.67,250.633,-0.0,-0.0,228.488,246.032
2014-04-16 04:00,-0.0,268.073,253.595,243.93,251.242,243.461,231.094,-0.0,-0.0,222.476,234.845
2014-04-16 05:00,-0.0,nan,200.774,217.809,198.671,199.102,201.515,-0.0,-0.0,200.413,200.041
2014-04-16 06:00,-0.0,218.393,204.988,218.957,204.584,203.757,206.286,-0.0,-0.0,204.122,205.491
2014-04-16 07:00,-0.0,213.142,204.988,218.272,203.179,201.271,205.127,-0.0,-0.0,203.894,203.929
2014-04-16 08:00,0.00337625,218.393,206.643,219.409,205.497,204.159,207.423,-0.0,-0.0,206.498,206.239
2014-04-16 09:00,0.0105103,213.142,212.119,222.238,211.028,209.859,210.718,-0.0,-0.0,209.926,211.602
2014-04-16 10:00,0.35661,239.711,216.058,222.659,214.141,212.673,212.619,0.696788,0.812351,212.287,214.233
2014-04-16 11:00,0.336199,248.394,219.628,225.107,218.824,217.607,217.25,0.786998,0.87848,215.873,218.165
2014-04-16 12:00,0.272318,250.598,231.427,231.098,230.574,229.647,226.402,0.750696,0.835418,223.118,228.242
2014-04-16 13:00,0.272708,270.151,250.566,241.5,248.946,246.876,238.278,0.390864,0.485948,224.46,236.469
2014-04-16 14:00,0.379015,266.797,236.318,234.183,233.842,231.968,228.782,0.630924,0.710408,220.337,227.694
2014-04-16 15:00,0.307189,261.251,219.628,226.287,217.78,216.008,215.074,0.607274,0.68173,214.734,216.909
2014-04-16 16:00,0.336398,257.605,216.471,224.102,215.26,215.027,215.674,0.611679,0.686187,212.922,214.787
2014-04-16 17:00,0.430807,265.446,226.902,228.564,226.82,224.756,221.046,0.576685,0.686079,221.596,225.799
2014-04-16 18:00,0.315505,268.382,246.102,238.963,245.024,243.024,236.307,0.37741,0.459264,227.51,236.614
2014-04-16 19:00,0.253266,283.76,270.189,253.02,269.842,265.99,251.028,0.303249,0.392571,230.916,246.818
2014-04-16 20:00,0.560519,268.073,245.248,238.657,244.575,242.585,236.307,0.654608,0.800034,226.592,236.757
2014-04-16 21:00,0.340759,275.932,264.94,250.177,263.569,258.591,242.814,0.721301,0.688033,225.058,239.39
2014-04-16 22:00,-0.0,273.831,263.401,249.286,261.611,256.555,241.374,-0.00426232,-0.0,226.405,240.053
2014-04-16 23:00,-0.150256,261.666,247.769,240.766,245.471,241.251,232.867,-0.0560639,-0.110556,224.661,235.146
2014-04-17 00:00,-0.103088,268.382,253.226,243.368,249.579,245.612,234.916,-0.0361176,-0.073569,221.708,232.508
2014-04-17 01:00,-0.0,246.775,227.845,229.665,224.072,221.283,218.601,-0.0,-0.0,214.293,218.165
2014-04-17 02:00,-0.0,230.231,221.841,226.674,220.519,219.472,216.663,-0.0,-0.0,217.229,219.608
2014-04-17 03:00,-0.0,253.81,238.83,235.985,236.186,233.722,228.278,-0.0,-0.0,220.916,227.694
2014-04-17 04:00,-0.0,254.966,242.37,237.415,239.911,236.635,231.257,-0.0,-0.0,222.476,230.354
2014-04-17 05:00,-0.00133679,233.989,226.583,228.749,225.615,224.474,222.873,-0.0,-0.0,218.642,222.529
2014-04-17 06:00,0.0015769,264.377,252.666,242.513,250.207,247.708,237.827,-0.0,-0.0,224.86,236.469
2014-04-17 07:00,-0.0,253.81,244.815,238.81,242.515,241.027,234.291,-0.0,-0.0,224.258,232.508
2014-04-17 08:00,-0.0,239.711,231.427,231.274,230.012,228.856,225.709,-0.0,-0.0,220.454,225.21
2014-04-17 09:00,-0.010447,268.986,260.201,247.332,259.606,256.367,242.671,-0.0,-0.0,225.546,241.728
2014-04-17 10:00,0.664042,269.865,256.644,245.451,254.854,252.341,241.664,0.73404,0.903164,225.352,239.656
2014-04-17 11:00,0.417141,265.791,249.185,240.766,247.662,246.035,236.918,0.487742,0.618324,226.311,236.757
2014-04-17 12:00,0.288158,264.009,242.37,236.306,241.815,238.282,231.257,0.37315,0.496263,224.661,232.669
2014-04-17 13:00,0.281916,281.705,265.243,250.429,264.444,260.942,246.182,0.244281,0.369495,228.312,242.725
2014-04-17 14:00,0.246885,292.294,279.213,259.134,279.318,274.773,253.368,0.168931,0.30431,228.488,248.133
2014-04-17 15:00,0.196964,293.816,284.414,262.471,284.781,279.959,256.909,0.101212,0.260559,231.473,251.252
2014-04-17 16:00,0.204888,295.151,284.528,262.995,284.501,280.406,257.9,0.0949441,0.258558,231.63,251.452
2014-04-17 17:00,0.16917,296.84,292.314,267.74,293.764,290.101,264.488,0.0567782,0.229255,233.159,254.349
2014-04-17 18:00,0.195542,296.427,291.694,267.348,292.86,289.551,264.721,0.073411,0.253282,233.53,254.443
2014-04-17 19:00,0.180443,294.713,291.694,267.446,293.377,290.375,265.416,0.0873032,0.252432,235.038,255.548
2014-04-17 20:00,0.205672,292.889,290.651,266.657,292.47,289.689,265.762,0.157558,0.306514,236.742,257.07
2014-04-17 21:00,0.291859,288.977,288.412,265.355,290.5,288.584,264.488,0.988466,1.47324,236.742,257.421
2014-04-17 22:00,-0.0,281.526,274.785,256.778,275.396,272.405,252.982,-0.0,-0.0,232.251,249.093
2014-04-17 23:00,-0.139474,283.924,278.226,258.691,278.576,275.396,254.392,-0.0536784,-0.107526,231.156,250.646
2014-04-18 00:00,-0.115271,279.667,270.885,254.217,270.006,266.835,249.037,-0.0405413,-0.0787753,227.691,245.23
2014-04-18 01:00,-0.0,279.081,270.329,253.86,269.679,265.82,247.279,-0.0,-0.0,228.748,245.804
2014-04-18 02:00,-0.0,284.249,280.549,260.337,280.785,278.156,256.535,-0.0,-0.0,231.076,252.244
2014-04-18 03:00,0.00120789,286.271,285.433,263.411,287.27,285.35,262.847,-0.0,-0.0,233.677,256.271
2014-04-18 04:00,-0.00122835,286.121,284.982,262.995,286.722,284.636,261.54,-0.0,-0.0,233.53,255.821
2014-04-18 05:00,-0.0,282.408,277.35,258.246,277.978,274.773,253.881,-0.0,-0.0,229.007,250.34
2014-04-18 06:00,-0.0,285.512,284.3,262.576,286.033,283.773,261.301,-0.0,-0.0,231.156,254.256
2014-04-18 07:00,0.00208252,279.278,273.997,255.858,275.087,272.246,253.368,-0.0,-0.0,230.266,249.513
2014-04-18 08:00,-0.0,277.869,271.984,254.926,271.464,269.165,252.594,-0.0,-0.0,228.224,247.151
2014-04-18 09:00,-0.0,285.202,284.869,262.681,286.997,285.35,262.728,-0.0,-0.0,231.394,254.068
2014-04-18 10:00,0.269826,284.888,282.448,260.984,283.938,281.735,260.098,0.267851,0.432091,229.433,251.751
2014-04-18 11:00,0.332554,289.779,285.882,263.618,286.997,284.349,260.822,0.174575,0.459954,230.835,252.439
2014-04-18 12:00,0.261592,289.381,282.799,261.731,282.231,279.81,259.005,0.140457,0.352124,230.511,250.135
2014-04-18 13:00,0.266379,296.531,292.005,268.033,293.377,290.101,264.488,0.096661,0.339079,232.328,254.722
2014-04-18 14:00,0.234812,297.848,291.902,267.935,293.248,289.826,264.837,0.0987978,0.295231,232.175,255.091
2014-04-18 16:00,0.215468,295.368,288.628,265.959,290.367,287.609,263.787,0.160073,0.286295,231.473,254.349
2014-04-18 17:00,0.306245,288.43,277.098,258.469,279.466,277.853,259.977,0.338383,0.440571,232.251,253.405
2014-04-18 18:00,0.452668,294.156,270.468,254.217,272.104,269.657,254.773,0.402122,0.513183,231.943,251.051
2014-04-18 20:00,0.208437,292.889,290.017,266.954,291.817,288.861,264.022,0.189089,0.310634,232.935,253.785
2014-04-18 21:00,0.97601,288.291,285.546,263.515,287.134,284.492,261.062,4.13193,4.9267,232.784,253.309
2014-04-18 22:00,-0.00493194,246.775,240.984,235.985,239.911,238.978,232.867,-0.0,-0.0,226.405,234.389
2014-04-18 23:00,-0.194461,227.984,215.64,222.868,215.26,214.364,214.468,-0.0598727,-0.114733,213.078,213.668
2014-04-19 00:00,-0.0902489,259.045,250.175,241.207,248.52,247.708,239.322,-0.0314644,-0.0678871,227.78,237.043
2014-04-19 01:00,-0.00143021,265.791,261.501,248.512,262.685,261.299,247.823,-0.0,-0.0,229.685,247.371
2014-04-19 02:00,-0.0012676,264.009,265.545,251.305,267.857,267.84,254.646,-0.0,-0.0,232.02,252.047
2014-04-19 03:00,-0.0,271.531,271.162,255.393,273.215,271.926,256.535,-0.0,-0.0,232.86,252.244
2014-04-19 04:00,0.00122835,276.811,274.392,257.12,276.468,274.773,256.66,-0.0,-0.0,231.394,252.439
2014-04-19 05:00,-0.0,285.512,284.185,262.786,285.895,282.904,260.34,-0.0,-0.0,230.593,252.244
2014-04-19 06:00,-0.0,277.24,269.767,253.261,269.021,265.48,247.551,-0.0,-0.0,226.871,244.53
2014-04-19 07:00,-0.0,285.357,283.956,262.786,285.757,283.484,261.182,-0.0,-0.0,230.348,252.634
2014-04-19 08:00,-0.0,279.473,273.466,255.626,273.215,269.657,250.501,-0.0,-0.0,228.835,247.481
2014-04-19 09:00,-0.0103197,285.818,285.208,263.307,287.27,285.208,262.847,-0.0,-0.0,233.234,254.722
2014-04-19 10:00,0.713534,283.594,277.224,258.469,278.725,276.477,258.147,0.516706,0.786704,230.43,251.352
2014-04-19 11:00,0.374165,291.563,288.195,265.658,289.835,287.048,262.965,0.169717,0.478922,232.633,253.69
2014-04-19 12:00,0.341578,295.368,290.44,267.348,292.079,288.722,264.022,0.130146,0.426744,232.709,253.785
2014-04-19 13:00,0.267341,296.84,292.211,268.421,293.635,290.238,264.255,0.0998221,0.343657,234.472,254.999
2014-04-19 14:00,0.222656,297.947,293.438,269.288,294.788,291.193,265.069,0.078347,0.289009,234.113,255.275
2014-04-19 15:00,0.205315,298.726,293.133,269.096,294.788,291.193,265.185,0.083443,0.263933,234.968,255.73
2014-04-19 16:00,0.219157,296.219,289.272,266.458,291.555,288.027,264.138,0.140647,0.284668,235.247,255.639
2014-04-19 17:00,0.166151,296.219,290.651,267.642,292.079,288.999,263.905,0.083366,0.2221,234.472,254.722
2014-04-19 18:00,0.216422,291.809,285.658,264.441,287.543,285.065,262.728,0.210098,0.295716,235.455,255.457
2014-04-19 19:00,0.277414,291.931,283.726,262.89,284.361,281.146,259.856,0.250397,0.346119,235.455,254.162
2014-04-19 20:00,0.523065,289.381,272.662,255.626,271.625,267.339,248.499,0.455653,0.583918,232.097,247.04
2014-04-19 21:00,-1.49848,286.121,282.448,261.944,283.372,280.554,258.515,-3.17189,-3.782,233.896,252.634
2014-04-19 22:00,-0.0048841,288.291,287.541,265.355,289.701,287.329,263.553,-0.0,-0.0,235.731,255.366
2014-04-19 23:00,-0.181112,287.871,286.882,264.95,289.166,287.329,263.318,-0.0575052,-0.106659,236.874,256.36
2014-04-20 00:00,-0.100659,287.729,286.882,265.052,289.032,286.907,263.905,-0.0343902,-0.0713132,236.408,256.805
2014-04-20 01:00,-0.00142863,286.121,284.3,262.995,285.895,283.773,261.779,-0.0,-0.0,236.139,255.457
2014-04-20 02:00,-0.0,283.261,278.845,259.574,279.318,276.784,255.027,-0.0,-0.0,232.935,251.652
2014-04-20 03:00,-0.0,287.01,286.55,264.339,288.897,287.048,263.553,-0.0,-0.0,234.827,256.091
2014-04-20 04:00,-0.00122839,285.818,284.982,263.618,287.27,285.065,262.373,-0.0,-0.0,233.456,254.629
2014-04-20 05:00,-0.0,286.569,286.328,264.645,288.763,287.048,263.553,-0.0,-0.0,234.615,255.091
2014-04-20 06:00,-0.0,264.739,250.566,241.936,248.307,244.544,234.291,-0.0,-0.0,220.686,230.863
2014-04-20 07:00,-0.0,264.009,248.985,240.766,247.878,243.896,232.707,-0.0,-0.0,222.476,233.146
2014-04-20 08:00,-0.0,281.526,278.721,259.244,280.201,277.548,256.909,-0.0,-0.0,231.394,250.95
2014-04-20 09:00,-0.0,281.165,279.458,260.011,281.655,279.81,259.37,-0.0,-0.0,230.996,251.751
2014-04-20 10:00,0.33165,285.357,281.978,260.984,283.372,280.85,258.76,0.320923,0.440049,230.916,251.552
2014-04-20 11:00,0.409469,282.923,273.865,256.434,272.104,269.984,254.392,0.278494,0.576025,228.575,245.46
2014-04-20 12:00,0.338609,292.889,286.439,264.645,287.27,284.205,261.062,0.152423,0.439207,230.674,252.047
2014-04-20 13:00,0.284982,297.349,288.843,266.557,290.367,286.343,261.898,0.124175,0.360054,230.755,251.352
2014-04-20 14:00,0.23073,298.339,294.044,269.765,295.803,292.41,264.953,0.0823208,0.30765,230.755,252.537
2014-04-20 15:00,0.217097,293.472,283.148,261.838,283.514,279.211,256.035,0.111685,0.291304,229.852,248.987
2014-04-20 16:00,0.213062,298.242,291.383,0.0,293.377,289.964,0.0,0.103255,0.261798,231.709,253.117
2014-04-20 17:00,0.233399,297.146,290.335,267.249,292.34,289.551,264.372,0.142652,0.274642,232.481,253.974
2014-04-20 18:00,0.197007,297.449,292.52,268.904,294.277,290.921,265.069,0.09214,0.25761,232.709,254.814
2014-04-20 19:00,0.239961,293.816,285.321,264.133,285.201,281.441,259.856,0.17415,0.303484,231.315,250.544
2014-04-20 20:00,0.494409,295.902,286.772,265.153,288.628,285.35,262.965,0.375459,0.535155,233.677,253.595
2014-04-20 21:00,-0.273951,285.818,281.386,261.625,282.231,279.061,257.777,-1.15977,-1.38285,232.175,250.748
2014-04-20 22:00,-0.00483829,287.729,285.658,263.928,287.543,284.636,261.779,-0.0,-0.00488454,233.75,252.828
2014-04-20 23:00,-0.162878,277.661,266.145,252.045,264.965,261.299,245.35,-0.0509199,-0.10625,225.449,240.316
2014-04-21 00:00,-0.0828365,284.087,278.968,259.683,279.76,276.938,255.153,-0.0283535,-0.0604971,231.076,249.513
2014-04-21 01:00,-0.00142715,285.202,283.148,262.576,284.641,282.175,260.34,-0.0,-0.0,231.709,251.552
2014-04-21 02:00,-0.00126629,285.665,284.071,263.099,285.895,283.484,260.701,-0.0,-0.0,231.865,252.244
2014-04-21 03:00,-0.0,284.087,281.505,261.519,283.514,281.146,258.76,-0.0,-0.0,230.996,251.352
2014-04-21 04:00,0.00122847,286.421,286.105,264.236,288.493,286.907,263.67,-0.0,-0.0,232.935,253.785
2014-04-21 05:00,-0.0,283.76,283.611,262.681,286.172,283.629,262.136,-0.0,-0.0,232.328,253.117
2014-04-21 06:00,-0.0,279.081,274.392,256.892,274.778,271.765,254.137,-0.0,-0.0,228.488,247.371
2014-04-21 07:00,-0.0,277.869,274.261,256.892,275.242,272.565,254.519,-0.0,-0.0,229.685,249.093
2014-04-21 08:00,-0.0033599,285.665,284.982,263.307,287.134,285.208,262.847,-0.0,-0.0,230.996,252.537
2014-04-21 09:00,0.0101911,285.818,285.208,263.618,287.679,285.777,262.965,-0.0,-0.0,231.394,252.828
2014-04-21 10:00,0.306105,287.01,285.994,264.133,288.222,286.06,262.847,0.24298,0.444232,232.097,252.828
2014-04-21 11:00,0.347334,291.931,284.185,263.203,286.585,283.629,261.779,0.208431,0.394912,232.784,252.634
2014-04-21 12:00,0.354992,294.823,289.379,266.657,290.764,285.919,261.182,0.149375,0.43875,232.251,252.537
2014-04-21 13:00,0.270978,296.427,291.694,268.324,293.248,289.689,264.605,0.100556,0.33605,232.935,253.213
2014-04-21 14:00,0.225757,297.649,292.725,268.711,294.277,290.511,264.255,0.0789256,0.285261,232.709,253.405
2014-04-21 15:00,0.201383,298.144,292.314,268.615,293.506,288.584,262.61,0.0712408,0.252047,231.865,252.634
2014-04-21 16:00,0.187209,298.339,292.005,268.227,293.377,289.689,263.318,0.0703162,0.238735,232.633,253.69
2014-04-21 17:00,0.220522,297.045,288.628,266.159,290.367,286.767,263.553,0.127545,0.260258,233.968,253.785
2014-04-21 18:00,0.188684,296.84,291.487,267.838,292.86,289.276,264.372,0.0926599,0.249539,233.603,253.595
2014-04-21 19:00,0.20989,295.583,291.798,268.324,293.506,290.375,265.185,0.114726,0.268223,234.329,253.88
2014-04-21 20:00,0.211778,293.24,290.651,267.544,292.6,289.689,264.372,0.174939,0.297238,235.455,254.162
2014-04-21 21:00,-0.168889,290.171,288.736,266.159,291.029,288.722,264.138,-0.571993,-0.852518,236.004,254.256
2014-04-21 22:00,-0.0,289.113,288.087,265.557,290.367,288.027,264.138,-0.0,-0.0,235.593,254.162
2014-04-21 23:00,-0.114842,288.43,287.869,265.254,289.835,287.469,263.905,-0.0401628,-0.0882149,235.731,254.162
2014-04-22 00:00,-0.0791629,288.291,287.102,264.95,289.3,287.329,263.553,-0.0253213,-0.0550557,235.108,253.5
2014-04-22 01:00,-0.0,286.717,284.414,263.203,286.172,283.629,260.701,-0.0,-0.0,233.823,251.949
2014-04-22 02:00,-0.00126574,282.923,277.476,259.134,277.978,274.304,253.625,-0.0,-0.0,230.184,247.151
2014-04-22 03:00,-0.00120709,283.093,277.852,258.802,278.576,275.396,254.646,-0.0,-0.0,230.511,246.818
2014-04-22 04:00,-0.0,283.76,280.549,260.661,281.655,278.76,257.53,-0.0,-0.0,230.101,248.241
2014-04-22 05:00,0.00133773,273.586,261.501,248.252,260.706,256.928,241.084,-0.0,-0.0,224.054,237.748
2014-04-22 06:00,-0.0,277.24,269.059,253.261,268.191,264.795,248.634,-0.0,-0.0,226.871,242.478
2014-04-22 07:00,0.00416303,278.075,272.256,254.808,272.582,269.494,251.683,-0.0,-0.0,227.78,244.647
2014-04-22 08:00,-0.0,270.151,259.706,247.2,257.928,254.664,241.808,-0.0,-0.0,225.156,237.608
2014-04-22 09:00,0.0101264,264.377,253.779,243.084,252.667,249.955,238.727,-0.0,-0.0,225.058,236.179
2014-04-22 10:00,0.270451,268.073,259.373,246.667,259.236,257.115,244.512,0.36802,0.477813,227.78,240.964
2014-04-22 11:00,0.359169,290.558,287.102,264.849,289.032,286.343,262.136,0.172136,0.478909,229.769,250.238
2014-04-22 12:00,0.339115,294.043,289.165,266.358,290.897,287.748,262.847,0.137163,0.429582,230.018,250.238
2014-04-22 13:00,0.428126,296.943,255.941,244.765,253.069,247.708,238.876,0.332641,0.462728,228.921,239.121
2014-04-22 14:00,0.461966,295.902,246.523,239.57,245.471,242.364,236.765,0.386194,0.507707,229.517,236.469
2014-04-22 15:00,0.253398,298.63,279.458,260.984,278.427,270.96,252.464,0.109034,0.294962,230.996,246.032
2014-04-22 16:00,0.178098,297.848,292.725,268.807,294.021,290.238,263.787,0.0598394,0.231172,233.085,251.652
2014-04-22 17:00,0.173192,297.449,292.929,269.192,294.405,290.511,264.488,0.0634125,0.226829,234.543,253.595
2014-04-22 18:00,0.182156,296.84,292.725,269.0,294.661,290.921,264.953,0.0722958,0.252858,234.329,253.5
2014-04-22 19:00,0.321216,285.512,265.394,251.056,261.791,256.928,240.5,0.283305,0.405358,222.585,236.469
2014-04-22 20:00,0.701408,270.434,234.745,232.663,230.574,226.974,222.329,0.647064,0.82437,216.963,223.167
2014-04-22 21:00,-0.122761,254.396,232.56,231.625,227.414,223.619,219.172,-0.311826,-0.49574,215.593,220.763
2014-04-22 22:00,-0.0,218.393,208.734,219.632,207.702,206.895,208.982,-0.0,-0.00479795,206.702,207.678
2014-04-22 23:00,-0.109458,222.276,208.223,219.183,207.702,206.513,209.201,-0.0400202,-0.0853901,207.502,207.326
2014-04-23 00:00,-0.0860457,218.393,212.119,221.6,211.028,209.859,210.932,-0.026763,-0.0549575,210.278,210.984
2014-04-23 01:00,-0.0,222.276,214.358,223.076,214.517,213.016,214.062,-0.0,-0.0014381,212.765,213.952
2014-04-23 02:00,-0.0,218.393,216.058,223.283,215.628,214.364,214.468,-0.0,-0.0,214.145,215.332
2014-04-23 03:00,-0.00120702,232.213,224.95,227.628,223.758,222.169,220.302,-0.0,-0.0,219.382,223.167
2014-04-23 04:00,-0.00122876,233.989,231.427,230.921,231.131,229.909,226.746,-0.0,-0.0,223.434,228.96
2014-04-23 05:00,-0.0,240.898,238.585,234.845,238.693,237.815,233.185,-0.0,0.00135081,227.329,235.295
2014-04-23 06:00,-0.0,227.984,223.597,226.287,222.806,223.043,221.965,-0.0,-0.0,218.891,220.535
2014-04-23 07:00,-0.0,245.913,243.049,236.943,243.209,241.921,234.916,-0.0,-0.0,227.42,237.608
2014-04-23 08:00,-0.00335302,255.521,246.523,239.115,245.471,242.805,234.291,-0.0,-0.0,223.329,234.542
2014-04-23 09:00,-0.0,255.521,246.733,239.721,245.248,243.243,234.76,-0.0,-0.0,223.434,234.996
2014-04-23 10:00,0.360948,240.898,229.97,229.665,229.158,228.324,225.185,0.660787,0.768191,221.145,225.994
2014-04-23 11:00,0.251965,249.156,236.576,233.344,236.441,235.193,230.111,0.559293,0.625622,224.054,231.53
2014-04-23 12:00,0.245053,242.013,229.072,229.484,228.871,228.324,225.883,0.71243,0.772838,222.585,226.948
2014-04-23 13:00,0.178633,247.601,234.745,232.319,233.842,233.225,230.111,0.656362,0.706053,224.46,230.354
2014-04-23 14:00,0.190761,251.282,242.37,237.101,242.515,241.698,235.382,0.525551,0.586641,226.871,236.614
2014-04-23 15:00,0.262724,257.103,247.15,239.267,247.012,246.246,239.173,0.463728,0.531874,228.488,238.986
2014-04-23 16:00,0.197297,257.605,247.973,240.469,247.446,247.085,240.5,0.447071,0.523033,228.048,239.39
2014-04-23 17:00,0.2179,289.113,277.601,259.134,278.427,274.929,257.158,0.171222,0.262713,230.996,249.093
2014-04-23 18:00,0.494196,291.931,262.931,249.924,264.618,263.237,251.291,0.397432,0.525889,231.865,248.241
2014-04-23 19:00,0.706564,298.045,263.712,250.429,265.654,262.712,250.633,0.589113,0.718763,232.709,248.133
2014-04-23 20:00,0.843359,286.271,262.458,249.286,264.27,262.888,250.765,0.718562,0.867486,232.328,248.133
2014-04-23 21:00,-0.193728,256.062,255.05,245.04,257.17,255.992,247.415,-0.410073,-0.48895,231.943,246.258
2014-04-23 22:00,-0.00471242,267.444,266.886,251.922,269.35,268.339,254.137,-0.0,-0.0,231.315,249.408
2014-04-23 23:00,-0.148752,265.446,263.867,250.303,265.31,264.279,250.765,-0.0419827,-0.0850986,228.835,246.483
2014-04-24 00:00,-0.0858999,256.589,251.912,242.369,253.069,251.947,242.241,-0.0252333,-0.0495549,228.136,241.221
2014-04-24 01:00,0.0014233,265.095,263.401,250.051,265.31,263.933,251.028,-0.0,-0.0,229.263,246.707
2014-04-24 02:00,-0.0,268.073,264.482,250.681,265.654,264.106,251.814,-0.0,-0.0,230.184,246.595
2014-04-24 03:00,0.00120699,253.206,244.598,238.195,243.209,242.143,236.0,-0.0,-0.0,226.592,234.845
2014-04-24 04:00,-0.0,251.944,247.563,240.32,247.012,245.399,239.913,-0.0,-0.0,227.238,237.468
2014-04-24 05:00,-0.0,267.444,261.179,248.382,262.329,260.405,249.305,-0.0,-0.0,229.517,246.371
2014-04-24 06:00,-0.0,269.283,267.326,252.412,268.855,267.171,252.464,-0.0,-0.0,229.601,245.804
2014-04-24 07:00,-0.0,268.686,267.909,252.899,269.679,268.339,253.881,-0.0,-0.0,231.394,248.133
2014-04-24 08:00,-0.0,260.827,260.365,247.859,262.329,261.831,250.633,-0.0,-0.0,233.085,248.241
2014-04-24 09:00,-0.00999582,268.986,270.329,254.336,273.372,272.724,256.785,-0.0,-0.0,237.006,252.537
2014-04-24 10:00,0.601163,279.667,270.746,254.572,272.264,270.798,256.035,0.525692,0.636758,239.349,253.5
2014-04-24 11:00,0.516696,289.779,269.343,253.261,271.303,270.148,255.532,0.41141,0.528544,241.76,254.999
2014-04-24 12:00,0.520395,288.977,268.916,253.501,270.657,270.148,255.784,0.436931,0.558343,241.59,255.457
2014-04-24 13:00,0.387375,298.045,287.432,265.052,288.493,284.922,261.66,0.23346,0.414987,241.476,256.181
2014-04-24 14:00,0.452184,289.247,272.527,255.393,275.087,274.147,258.023,0.404065,0.496656,241.533,256.805
2014-04-24 15:00,0.414463,284.73,271.162,254.808,273.529,273.2,257.53,0.400551,0.470552,241.419,257.07
2014-04-24 16:00,0.286495,273.088,265.394,251.056,266.678,266.498,254.392,0.568422,0.605808,240.074,254.256
2014-04-24 17:00,0.374845,293.93,276.336,258.358,278.576,276.938,259.249,0.352052,0.430899,239.774,257.158
2014-04-24 18:00,0.456661,284.73,272.796,255.858,274.778,274.617,259.127,0.56211,0.621804,238.483,255.639
2014-04-24 19:00,0.608574,289.514,271.984,255.51,274.156,273.359,257.406,0.600392,0.682962,237.849,255.548
2014-04-24 20:00,0.677193,258.096,227.845,228.934,226.82,225.874,223.592,0.81001,0.992944,221.93,225.21
2014-04-24 21:00,-0.160595,277.869,271.984,254.099,272.104,269.494,251.159,-0.271952,-0.405327,233.75,249.513
2014-04-24 22:00,-0.0046741,274.073,275.046,257.12,278.128,276.938,259.735,-0.0,-0.0,238.104,256.271
2014-04-24 23:00,-0.128496,282.234,281.742,261.519,284.22,282.028,261.182,-0.0376607,-0.0798304,235.108,256.001
2014-04-25 00:00,-0.0805112,269.865,271.023,254.336,273.686,273.2,258.023,-0.0222289,-0.0459414,234.827,255.366
2014-04-25 01:00,-0.0,273.831,274.524,256.32,277.075,276.784,259.735,-0.0,-0.0,236.475,256.539
2014-04-25 02:00,-0.00252896,271.798,273.065,255.742,275.703,275.24,258.76,-0.0,-0.0,237.721,257.07
2014-04-25 03:00,0.00120701,284.087,282.448,261.731,284.361,282.613,261.779,-0.0,-0.0,236.742,256.36
2014-04-25 04:00,-0.0,274.314,276.463,258.134,279.318,278.76,260.219,-0.0,0.00124095,235.799,255.457
2014-04-25 05:00,-0.0,271.261,272.931,255.277,275.857,275.24,258.515,-0.0,-0.0,235.455,255.366
2014-04-25 06:00,-0.0,276.811,274.785,256.892,277.528,274.929,257.777,-0.0,-0.0,235.867,254.999
2014-04-25 07:00,-0.0,276.594,274.655,256.664,277.377,274.773,257.406,-0.0,-0.0,236.139,255.091
2014-04-25 08:00,-0.0,280.799,278.721,258.913,281.221,278.76,259.127,-0.0,-0.0,235.731,255.091
2014-04-25 09:00,-0.0,281.165,280.789,260.553,282.946,280.554,260.34,-0.0,-0.0,236.408,255.366
2014-04-25 10:00,0.398337,286.717,284.185,262.786,286.447,284.349,262.255,0.328839,0.522788,236.139,255.548
2014-04-25 11:00,0.484908,293.007,286.55,264.339,288.763,286.907,263.67,0.308656,0.510375,235.867,256.271
2014-04-25 12:00,0.382601,294.713,288.951,265.859,290.764,288.306,263.787,0.183262,0.443646,236.742,256.805
2014-04-25 13:00,0.332816,297.349,289.165,266.259,291.292,288.722,264.022,0.176841,0.378854,237.592,257.421
2014-04-25 14:00,0.238036,296.114,291.487,267.348,292.989,290.648,264.255,0.103902,0.308972,237.721,257.595
2014-04-25 15:00,0.233959,296.738,290.545,267.151,292.34,289.826,264.953,0.123363,0.285698,238.857,258.2
2014-04-25 16:00,0.253344,295.69,289.379,266.259,291.029,288.445,264.372,0.162394,0.299116,239.104,258.286
2014-04-25 17:00,0.23577,295.368,288.736,265.859,290.5,288.306,264.721,0.156753,0.282753,240.253,259.135
2014-04-25 18:00,0.221881,293.356,288.195,265.658,290.101,288.306,264.837,0.179698,0.288281,240.607,259.887
2014-04-25 19:00,0.284638,292.653,287.978,265.456,289.701,288.027,264.372,0.224781,0.34262,240.665,260.627
2014-04-25 20:00,0.228712,291.19,289.805,266.259,291.423,289.689,265.185,0.189039,0.313362,241.817,260.871
2014-04-25 21:00,-0.137602,287.587,288.195,265.355,290.234,288.999,264.721,-0.233015,-0.347293,242.71,260.135
2014-04-25 22:00,-0.0046375,286.864,287.432,264.645,289.835,288.722,264.837,-0.0,-0.0,243.472,260.052
2014-04-25 23:00,-0.142873,286.864,287.212,264.543,289.434,288.306,264.721,-0.0375424,-0.077093,244.269,259.804
2014-04-26 00:00,-0.0629131,285.97,286.55,264.236,288.763,287.609,264.255,-0.0207155,-0.0441073,244.006,259.304
2014-04-26 01:00,-0.0014212,285.97,286.328,264.031,288.493,286.907,263.905,-0.0,-0.0,243.953,259.051
2014-04-26 02:00,-0.0,283.428,284.528,263.099,286.997,285.635,263.787,-0.0,-0.0,244.058,259.471
2014-04-26 03:00,-0.0,284.888,285.095,263.203,287.543,286.06,263.436,-0.0,0.00121862,243.953,259.051
2014-04-26 04:00,-0.0,285.045,285.433,263.411,287.679,286.485,263.787,-0.0,-0.0,243.846,259.22
2014-04-26 05:00,-0.0,284.888,285.433,263.618,287.951,286.485,263.905,-0.0,0.00135185,243.31,258.882
2014-04-26 06:00,0.001579,284.57,285.208,263.411,287.543,286.485,263.436,-0.0,-0.0,242.929,259.638
2014-04-26 07:00,0.00208055,284.249,285.208,262.681,287.407,285.919,263.67,-0.0,-0.0,242.544,258.543
2014-04-26 08:00,-0.0,284.087,284.982,262.89,287.407,286.343,263.67,-0.0,-0.0,241.419,258.028
2014-04-26 09:00,-0.0,283.76,284.869,263.099,287.407,286.485,263.67,-0.0,-0.0,242.042,258.713
2014-04-26 10:00,0.312027,285.512,285.882,263.721,288.222,287.048,264.022,0.25567,0.487757,243.686,260.135
2014-04-26 11:00,0.356035,290.171,289.058,265.456,291.029,289.689,265.069,0.163897,0.499026,243.793,261.113
2014-04-26 12:00,0.33369,293.93,291.694,267.348,293.506,291.6,265.416,0.130115,0.436615,244.997,262.466
2014-04-26 13:00,0.274434,295.796,293.539,268.227,295.17,293.216,266.566,0.0981408,0.3631,244.426,263.244
2014-04-26 14:00,0.234488,296.84,294.446,269.0,296.056,293.883,266.909,0.0841911,0.31464,244.426,263.934
2014-04-26 15:00,0.215185,297.749,294.245,269.096,296.182,293.883,267.023,0.0821673,0.279717,243.147,264.01
2014-04-26 16:00,0.205535,297.449,293.641,268.518,295.424,293.35,266.337,0.0888387,0.26264,242.82,264.314
2014-04-26 17:00,0.206664,296.943,292.417,267.74,293.892,292.006,265.878,0.0996054,0.266417,243.793,264.01
2014-04-26 18:00,0.211466,295.583,291.694,267.348,293.248,291.329,266.108,0.124841,0.28008,243.31,263.934
2014-04-26 19:00,0.220557,293.93,291.487,266.855,293.119,291.329,265.647,0.126053,0.303381,243.31,262.701
2014-04-26 20:00,0.33102,291.931,289.805,265.859,291.817,290.238,265.532,0.26159,0.44001,243.472,262.309
2014-04-26 21:00,-0.0603647,287.729,288.628,265.254,290.897,289.964,266.222,-0.153332,-0.243767,243.093,261.914
2014-04-26 22:00,-0.0,286.864,288.087,265.052,290.367,289.551,265.647,-0.0,-0.0,243.526,262.309
2014-04-26 23:00,-0.127708,285.665,287.212,264.543,289.568,288.861,265.301,-0.0353502,-0.074382,244.894,262.935
2014-04-27 00:00,-0.061078,285.97,287.432,264.339,289.835,289.276,265.532,-0.0192083,-0.0422824,244.164,263.322
2014-04-27 01:00,-0.00284057,285.512,287.432,264.236,289.568,289.276,265.762,-0.0,-0.0,244.635,263.782
2014-04-27 02:00,-0.0,286.271,287.76,264.543,289.835,289.551,265.993,-0.0,-0.0,244.269,263.552
2014-04-27 03:00,-0.00120719,285.665,287.322,264.133,289.568,289.276,265.762,-0.0,-0.0,243.31,263.167
2014-04-27 04:00,0.00122977,284.41,286.439,263.721,288.763,288.584,265.532,-0.0,0.00124153,242.71,262.935
2014-04-27 05:00,-0.0,284.249,285.77,263.307,288.222,288.027,264.953,-0.0,0.00135225,243.093,262.935
2014-04-27 06:00,-0.0,284.249,285.77,263.307,288.087,287.888,265.301,-0.0,-0.0,242.71,263.09
2014-04-27 07:00,-0.0,283.093,285.321,262.995,287.815,287.748,264.837,-0.0,-0.0,241.533,262.072
2014-04-27 08:00,-0.00333836,283.428,285.546,262.786,287.815,287.888,264.837,-0.0,-0.0,241.647,261.993
2014-04-27 09:00,-0.00979735,282.923,285.095,262.681,287.407,287.329,265.069,-0.0082954,-0.0,242.042,262.309
2014-04-27 10:00,0.335813,284.41,286.105,263.099,288.087,287.888,264.488,0.249868,0.513672,240.43,261.834
2014-04-27 11:00,0.37178,289.91,289.379,265.658,291.555,290.375,265.878,0.164747,0.50863,240.43,261.993
2014-04-27 12:00,0.339493,293.472,291.798,267.249,293.892,292.41,266.566,0.130658,0.445115,241.131,262.309
2014-04-27 13:00,0.273783,295.26,293.641,268.421,295.677,293.883,266.566,0.0999688,0.36623,241.361,262.623
2014-04-27 14:00,0.227933,296.84,295.045,269.67,297.434,295.734,267.705,0.0782052,0.30832,241.189,262.466
2014-04-27 15:00,0.199085,297.248,295.738,270.145,297.683,295.996,267.932,0.0669479,0.26941,240.899,262.309
2014-04-27 16:00,0.180415,297.349,295.541,270.239,297.807,295.865,268.045,0.0623248,0.24771,240.134,262.151
2014-04-27 17:00,0.177279,296.84,294.846,269.765,296.809,294.547,267.023,0.0662612,0.240244,240.957,261.993
2014-04-27 18:00,0.22433,296.531,292.725,268.033,294.916,292.948,266.795,0.117267,0.293433,239.894,261.675
2014-04-27 19:00,0.399886,291.931,285.095,263.099,287.543,286.485,263.787,0.338583,0.501833,240.193,260.789
2014-04-27 20:00,0.469471,290.171,286.55,264.133,288.763,287.329,264.372,0.402232,0.575521,240.312,261.275
2014-04-27 21:00,-0.107836,287.587,288.628,265.557,290.897,289.826,265.878,-0.182609,-0.217734,239.104,261.275
2014-04-27 22:00,-0.00913847,284.41,285.994,263.618,288.628,287.748,264.255,-0.0,-0.0,239.166,261.113
2014-04-27 23:00,-0.124893,287.155,288.52,265.153,290.897,289.964,265.301,-0.0331754,-0.0716963,240.253,261.675
2014-04-28 00:00,-0.080166,286.864,288.195,264.747,290.632,290.101,265.762,-0.0206581,-0.043985,239.714,261.675
2014-04-28 01:00,-0.00141946,286.121,287.869,264.645,290.367,290.101,265.762,-0.0,-0.0,239.653,261.595
2014-04-28 02:00,-0.0,285.357,286.992,263.928,289.434,288.999,265.416,-0.0,-0.0,238.733,260.789
2014-04-28 03:00,-0.0,284.57,286.328,263.515,288.763,288.306,265.069,-0.0,-0.0,238.104,259.804
2014-04-28 04:00,-0.00123011,283.924,285.658,263.099,288.222,287.888,264.372,-0.0,-0.0,236.874,259.135
2014-04-28 05:00,-0.00133986,283.594,285.546,262.786,288.087,288.027,264.953,-0.0,-0.0,236.475,259.471
2014-04-28 06:00,-0.0,283.428,285.546,262.786,287.951,288.027,264.488,-0.0,-0.0,236.675,259.554
2014-04-28 07:00,-0.0,283.093,285.095,262.681,287.679,287.469,264.605,-0.0,-0.0,237.072,259.051
2014-04-28 08:00,-0.00333448,282.923,285.095,262.576,287.543,287.329,264.721,-0.0,-0.0,238.357,259.804
2014-04-28 09:00,-0.0,283.093,284.982,262.261,287.407,287.469,264.953,-0.0,-0.0,239.349,260.381
2014-04-28 10:00,0.339599,284.249,285.994,262.89,288.493,288.445,265.185,0.252685,0.550631,239.714,260.135
2014-04-28 11:00,0.373736,289.514,289.379,265.355,291.817,291.193,266.452,0.168572,0.528937,240.014,260.708
2014-04-28 12:00,0.336497,293.007,291.902,267.052,294.277,293.216,266.566,0.131209,0.467106,239.41,260.135
2014-04-28 13:00,0.274847,295.042,293.742,268.227,296.307,294.679,266.909,0.100357,0.378059,239.653,260.217
2014-04-28 14:00,0.2303,296.427,295.045,268.807,297.434,295.865,267.705,0.0810367,0.315538,241.704,261.194
2014-04-28 15:00,0.205536,296.943,294.746,269.0,297.309,295.471,267.365,0.0744116,0.276191,242.378,260.952
2014-04-28 16:00,0.184066,297.045,295.045,269.192,297.434,295.471,267.478,0.0638118,0.253132,244.058,261.515
2014-04-28 17:00,0.179703,296.531,294.846,268.711,297.184,295.339,267.478,0.0624919,0.247834,245.048,262.151
2014-04-28 18:00,0.209862,296.427,292.622,267.249,295.297,293.216,266.566,0.10296,0.281171,246.307,262.309
2014-04-28 19:00,0.288089,294.933,290.756,266.358,293.119,291.329,265.647,0.182351,0.372731,246.456,262.309
2014-04-28 20:00,0.305706,291.809,290.123,265.758,292.47,291.057,266.108,0.249254,0.411505,245.96,261.755
2014-04-28 21:00,-0.0488375,286.717,287.869,264.236,290.367,289.551,265.878,-0.124052,-0.197217,246.307,262.545
2014-04-28 22:00,-0.00453747,286.121,287.212,264.236,289.568,288.999,264.953,-0.0,-0.0,246.847,263.012
2014-04-28 23:00,-0.122109,285.357,286.661,263.515,289.032,288.167,264.605,-0.0330846,-0.0665692,246.798,263.09
2014-04-29 00:00,-0.0591786,285.357,286.882,264.236,289.166,288.445,265.185,-0.0162109,-0.0386581,246.159,262.779
2014-04-29 01:00,-0.00141872,285.202,286.55,264.031,288.763,288.445,265.069,-0.0,-0.0,245.859,262.857
2014-04-29 02:00,-0.0,284.41,286.439,263.928,288.628,288.306,264.837,-0.0,-0.0,245.202,262.466
2014-04-29 03:00,-0.00120753,284.57,286.105,263.721,288.358,288.167,264.721,-0.0,-0.0,244.479,262.23
2014-04-29 04:00,-0.0,283.76,285.433,263.099,287.679,287.469,264.721,-0.0,-0.0,243.579,262.23
2014-04-29 05:00,-0.00134029,283.594,285.321,263.307,287.679,287.609,264.721,-0.0,-0.0,243.364,262.466
2014-04-29 06:00,-0.0,283.093,284.869,262.681,287.134,287.188,264.488,-0.0,-0.0,243.256,262.623
2014-04-29 07:00,-0.0,282.408,284.414,262.261,286.585,286.907,264.372,-0.0,-0.0,243.364,262.779
2014-04-29 08:00,0.00333049,282.581,284.414,262.155,286.585,286.485,264.372,-0.0,-0.0,243.256,262.545
2014-04-29 09:00,-0.0,282.059,283.841,261.838,285.757,285.777,263.787,-0.0,-0.0,244.739,262.779
2014-04-29 10:00,0.353932,283.594,284.755,262.576,286.86,286.626,264.488,0.273232,0.556992,245.202,262.857
2014-04-29 11:00,0.379241,288.012,287.978,264.747,290.234,289.551,265.762,0.172444,0.538849,245.151,263.012
2014-04-29 12:00,0.340152,291.809,290.756,266.557,292.73,291.871,265.762,0.135532,0.469094,244.79,263.399
2014-04-29 13:00,0.279371,293.93,292.52,267.838,294.661,293.483,266.909,0.10367,0.379537,244.426,263.244
2014-04-29 14:00,0.235686,295.042,293.539,268.807,295.93,294.282,267.023,0.0838894,0.319778,244.531,263.012
2014-04-29 15:00,0.220573,296.427,293.031,268.421,295.424,293.617,266.795,0.0855474,0.288767,244.006,262.701
2014-04-29 16:00,0.20084,296.114,293.336,268.518,295.55,293.883,267.023,0.0751674,0.264469,243.793,262.545
2014-04-29 17:00,0.182141,295.26,293.641,268.904,295.93,294.282,267.137,0.0655087,0.2506,243.686,262.545
2014-04-29 18:00,0.179445,293.93,293.336,268.421,295.677,294.016,267.023,0.0701243,0.25681,243.31,262.388
2014-04-29 19:00,0.191551,292.294,292.005,267.935,294.533,293.082,266.795,0.0954033,0.275853,243.039,262.309
2014-04-29 20:00,0.212151,289.91,290.123,266.756,292.47,291.464,266.222,0.184483,0.324163,243.202,262.151
2014-04-29 21:00,-0.0447358,285.818,287.212,264.339,289.568,288.999,265.647,-0.113633,-0.180654,243.793,262.701
2014-04-29 22:00,-0.00901445,284.41,286.328,263.721,288.628,288.445,265.301,-0.0,-0.0,243.74,262.779
2014-04-29 23:00,-0.0949971,284.41,285.994,263.515,288.358,288.027,265.416,-0.0288737,-0.0639368,241.647,262.309
2014-04-30 00:00,-0.0730171,284.087,285.882,263.618,288.087,287.888,265.416,-0.0191358,-0.0386127,241.986,262.623
2014-04-30 01:00,-0.0,284.249,285.882,263.721,288.087,287.888,265.416,-0.0,-0.0,242.929,263.399
2014-04-30 02:00,-0.0,283.924,285.882,263.411,287.815,287.888,265.301,-0.0,-0.0,243.147,263.706
2014-04-30 03:00,-0.0,282.753,284.755,262.89,286.86,287.188,265.069,-0.0,-0.0,243.686,264.01
2014-04-30 04:00,-0.0,282.753,284.755,262.681,286.585,286.767,265.762,-0.0,-0.0,243.793,264.01
2014-04-30 05:00,-0.00134074,282.408,284.414,262.366,286.447,286.485,265.416,-0.0,-0.0,243.364,264.086
2014-04-30 06:00,-0.0,281.883,284.071,262.366,285.895,286.06,265.069,-0.0,-0.0,242.544,264.01
2014-04-30 07:00,-0.0,282.059,283.611,262.366,285.618,285.777,264.837,-0.0,-0.0,242.489,264.162
2014-04-30 08:00,-0.0,281.526,283.264,262.049,285.34,285.493,264.837,-0.0,-0.0,241.419,263.858
2014-04-30 09:00,-0.0,281.346,283.611,262.049,285.34,285.493,265.301,-0.0,-0.0,241.189,264.238
2014-04-30 10:00,0.347587,282.753,284.3,262.89,286.31,286.485,265.185,0.258628,0.552948,240.074,264.162
2014-04-30 11:00,0.381291,287.587,287.651,265.052,289.701,289.276,266.108,0.170387,0.534633,239.532,264.01
2014-04-30 12:00,0.343844,291.44,290.756,267.052,292.86,292.141,266.909,0.134223,0.466599,238.357,263.552
2014-04-30 13:00,0.278737,294.043,292.725,268.711,295.17,293.883,267.819,0.102611,0.377533,239.532,263.858
2014-04-30 14:00,0.230564,295.042,294.245,269.384,296.684,295.602,268.722,0.0816598,0.319485,240.782,264.162
2014-04-30 15:00,0.204293,295.902,295.045,269.765,297.558,296.519,268.834,0.0677383,0.27836,241.76,264.389
2014-04-30 16:00,0.181212,295.796,295.541,270.239,297.931,296.91,269.059,0.0593932,0.253762,242.378,264.914
2014-04-30 17:00,0.174877,295.26,295.343,270.239,297.807,296.78,269.395,0.058953,0.246841,242.155,264.839
2014-04-30 18:00,0.172476,294.713,294.945,269.765,297.06,296.258,269.283,0.0654642,0.248179,241.015,264.914
2014-04-30 19:00,0.184391,293.124,293.438,269.192,295.803,295.208,268.946,0.0888703,0.269207,239.894,265.063
2014-04-30 20:00,0.197424,290.301,291.383,267.446,293.635,293.617,267.932,0.162243,0.316554,240.607,264.615
2014-04-30 21:00,-0.0413595,285.97,288.303,265.456,290.367,290.511,267.365,-0.105057,-0.16702,240.489,264.914
2014-04-30 22:00,-0.00895689,285.202,287.212,264.747,289.3,289.413,267.023,-0.0,-0.0,240.665,265.286
2014-04-30 23:00,-0.12635,284.57,286.661,264.543,288.763,288.861,266.452,-0.032917,-0.071138,241.647,265.434
