# timestamp,IR_016,IR_039,IR_087,IR_097,IR_108,IR_120,IR_134,VIS006,VIS008,WV_062,WV_073
2014-05-01 00:00,-0.0741156,284.087,285.882,263.825,287.815,287.888,266.222,-0.018972,-0.0382821,242.929,266.166
2014-05-01 01:00,-0.00282254,283.594,285.546,263.515,287.543,287.748,265.878,-0.0,-0.0,244.842,266.239
2014-05-01 02:00,-0.00126087,283.594,285.321,263.307,286.997,287.609,266.222,-0.0,-0.0,245.405,266.673
2014-05-01 03:00,-0.0,283.261,284.982,263.307,286.722,287.048,265.185,-0.0,-0.0,244.531,266.529
2014-05-01 04:00,-0.00123323,282.923,284.755,263.203,286.585,286.767,266.108,-0.0,-0.0,243.202,266.456
2014-05-01 05:00,-0.00134601,281.883,283.032,261.731,284.22,284.205,263.905,-0.0,-0.0,240.607,264.54
2014-05-01 06:00,-0.0,281.705,283.956,262.261,285.618,286.06,265.647,-0.0,-0.0,240.957,265.728
2014-05-01 07:00,-0.00209961,281.705,283.726,262.366,285.618,285.777,265.301,-0.0,-0.0,240.607,265.434
2014-05-01 08:00,-0.00338117,281.346,283.264,262.366,284.921,285.208,265.069,-0.0,-0.0,239.774,265.137
2014-05-01 09:00,-0.0100453,280.613,282.799,261.519,284.501,284.922,265.185,-0.0,-0.0,239.653,264.914
2014-05-01 10:00,0.353669,282.923,284.3,262.681,286.033,286.343,265.416,0.248117,0.550877,241.533,265.581
2014-05-01 12:00,0.364822,293.93,293.031,268.615,295.17,294.547,268.158,0.135612,0.478353,242.765,266.96
2014-05-01 13:00,0.294272,296.114,294.846,270.239,296.935,295.734,268.609,0.104061,0.389705,242.71,266.166
2014-05-01 14:00,0.246223,297.248,295.244,270.523,297.434,295.734,268.271,0.0831349,0.323303,242.378,265.137
2014-05-01 15:00,0.21243,297.549,296.229,271.273,298.549,297.3,269.283,0.0680567,0.284016,243.472,266.312
2014-05-01 16:00,0.192808,297.449,296.229,271.086,298.426,297.04,269.283,0.0610631,0.260031,243.686,266.312
2014-05-01 17:00,0.183193,296.531,295.541,270.711,297.807,296.127,268.158,0.0581661,0.254299,243.846,266.021
2014-05-01 18:00,0.19108,295.26,294.245,269.575,296.307,294.547,268.271,0.0681209,0.261947,243.793,265.507
2014-05-01 19:00,0.197324,293.124,292.929,268.711,295.17,293.75,267.932,0.0909081,0.281239,243.793,265.36
2014-05-01 20:00,0.176738,289.247,289.486,266.358,291.292,290.648,266.222,0.144484,0.276871,241.874,264.615
2014-05-01 21:00,-0.0311525,276.594,268.487,252.777,267.185,265.138,247.959,-0.0,-0.0314503,230.916,249.721
2014-05-01 22:00,-0.00433701,282.059,281.148,260.661,282.087,281.588,261.421,-0.0,-0.0,237.657,260.789
2014-05-01 23:00,-0.110097,282.408,281.978,261.412,283.23,282.758,262.373,-0.028371,-0.0604074,238.981,262.388
2014-05-02 00:00,-0.0774856,283.76,285.321,263.307,287.27,287.329,265.647,-0.0189531,-0.0399823,240.607,265.875
2014-05-02 01:00,-0.0,282.753,283.611,262.786,284.641,284.205,263.553,-0.0,-0.0,239.532,264.086
2014-05-02 02:00,-0.00126091,278.075,274.785,257.12,274.623,273.359,254.519,-0.0,-0.0,234.257,257.682
2014-05-02 03:00,-0.00120804,277.451,272.256,255.742,272.264,270.473,251.291,-0.0,-0.0,233.75,256.716
2014-05-02 04:00,-0.00123366,282.753,283.956,262.681,285.479,285.919,264.255,-0.0,-0.0,238.041,264.389
2014-05-02 05:00,-0.0,281.526,281.267,260.661,282.087,281.882,261.54,-0.0,-0.0,237.006,260.871
2014-05-02 06:00,-0.00318126,272.58,263.867,250.303,262.507,259.502,244.09,-0.0,-0.0,230.674,248.562
2014-05-02 07:00,-0.00209916,270.151,259.039,247.2,257.17,253.896,240.5,-0.0,-0.0,227.42,244.412
2014-05-02 08:00,-0.0,251.282,232.839,231.799,229.158,225.318,219.739,-0.0,-0.0,217.881,225.799
2014-05-02 09:00,-0.0,274.787,269.201,253.501,269.186,266.667,249.838,-0.0,-0.0,232.175,252.146
2014-05-02 10:00,0.53173,268.382,254.871,244.349,252.262,249.955,238.876,0.484847,0.836189,223.952,239.656
2014-05-02 11:00,0.291561,281.346,273.865,256.205,273.843,271.926,253.24,0.214147,0.439749,231.943,253.117
2014-05-02 12:00,0.285981,281.526,270.189,254.217,269.35,266.667,249.572,0.196739,0.417283,228.4,247.481
2014-05-02 13:00,0.278062,288.977,279.58,260.228,279.907,276.631,254.9,0.141261,0.378972,230.593,252.439
2014-05-02 14:00,0.250207,296.427,293.539,269.86,295.55,293.75,266.795,0.086024,0.342923,234.897,260.135
2014-05-02 15:00,0.220468,286.864,275.565,257.346,274.312,271.605,252.075,0.125667,0.306951,230.674,249.617
2014-05-02 16:00,0.230552,280.799,266.145,251.676,264.095,261.121,247.279,0.183946,0.332721,226.405,243.093
2014-05-02 17:00,0.269464,273.586,252.29,242.656,249.157,246.246,235.537,0.26989,0.414695,225.643,236.614
2014-05-02 18:00,0.206248,295.042,292.52,268.711,294.533,292.948,266.337,0.0770424,0.289874,235.799,261.113
2014-05-02 19:00,0.192859,293.007,292.211,268.518,294.661,293.35,267.478,0.0915432,0.277303,237.268,262.388
2014-05-02 20:00,0.222217,290.041,289.593,266.756,291.948,290.648,266.108,0.172472,0.324049,238.168,262.072
2014-05-02 21:00,-0.0295739,284.41,284.414,263.203,286.033,285.208,263.67,-0.0250401,-0.0298566,235.386,259.554
2014-05-02 22:00,-0.00431243,285.045,286.217,264.441,288.358,288.167,265.762,-0.0,-0.0,235.936,261.435
2014-05-02 23:00,-0.124187,280.982,278.474,259.134,279.022,278.004,258.76,-0.0323535,-0.0675092,234.827,256.716
2014-05-03 00:00,-0.0688131,280.613,279.702,260.011,281.366,280.702,260.701,-0.0189358,-0.0364722,236.004,258.543
2014-05-03 01:00,-0.0,279.667,277.476,258.802,277.978,276.631,257.406,-0.0,-0.0,235.108,257.07
2014-05-03 02:00,-0.0,281.165,281.029,261.091,282.087,281.293,260.581,-0.0,-0.0,236.408,259.721
2014-05-03 03:00,-0.00120837,275.02,270.746,254.217,270.981,269.329,252.594,-0.0,-0.0,233.823,253.405
2014-05-03 04:00,-0.0,279.278,277.727,258.58,279.022,278.307,259.37,-0.0,-0.0,235.247,258.457
2014-05-03 05:00,0.00134695,275.48,271.574,254.69,270.657,269.165,252.205,-0.0,-0.0,230.916,252.925
2014-05-03 06:00,0.00159094,274.551,270.885,254.099,270.657,269.657,251.944,-0.0,0.00160615,231.315,253.88
2014-05-03 07:00,-0.00209869,275.932,273.333,255.626,273.843,273.042,255.153,-0.0,-0.0,232.251,255.366
2014-05-03 08:00,-0.00337175,279.667,279.458,259.683,280.493,280.108,260.34,-0.0,-0.0,233.896,259.471
2014-05-03 09:00,-0.0,272.061,265.995,250.806,265.138,263.412,248.768,-0.0,-0.0,228.921,249.513
2014-05-03 10:00,0.351919,275.932,270.885,253.86,270.981,270.311,253.625,0.359316,0.595622,229.517,252.244
2014-05-03 11:00,0.243736,273.338,262.616,248.9,261.431,259.321,245.767,0.251234,0.417242,227.601,246.032
2014-05-03 12:00,0.284993,288.841,284.982,262.89,286.172,284.636,260.942,0.146302,0.396461,230.43,257.769
2014-05-03 13:00,0.291383,295.583,293.944,268.807,296.307,295.208,268.271,0.106368,0.387528,231.865,260.952
2014-05-03 14:00,0.245085,296.738,295.045,269.86,297.434,295.996,268.158,0.0863564,0.325806,233.234,261.993
2014-05-03 15:00,0.219883,297.146,294.846,269.575,297.184,295.602,268.384,0.0771646,0.295007,233.01,261.755
2014-05-03 16:00,0.197367,297.848,297.01,270.899,299.776,298.591,270.064,0.0628234,0.269666,233.382,263.012
2014-05-03 17:00,0.183201,296.635,295.639,270.05,298.178,296.78,268.946,0.0656797,0.263265,232.557,262.151
2014-05-03 18:00,0.304895,276.376,253.779,243.509,249.579,246.246,235.846,0.292575,0.430934,221.708,235.444
2014-05-03 19:00,0.141227,289.91,288.195,265.153,289.434,288.167,264.022,0.0996475,0.210896,231.865,259.304
2014-05-03 20:00,0.362556,283.261,274.129,256.089,273.843,272.086,253.24,0.317561,0.454371,229.685,252.047
2014-05-03 21:00,-0.0281906,222.276,221.481,225.701,220.852,219.472,218.982,-0.0238689,-0.0284601,216.15,218.41
2014-05-03 22:00,-0.0,253.81,241.218,235.985,239.911,237.345,230.604,-0.0,-0.0,225.058,234.236
2014-05-03 23:00,-0.0834162,245.913,237.591,233.344,235.155,234.216,229.116,-0.0282514,-0.0601526,223.746,230.183
2014-05-04 00:00,-0.0739122,272.836,264.788,250.177,264.095,262.361,247.959,-0.01892,-0.0381771,228.575,248.348
2014-05-04 01:00,-0.00141007,281.165,281.386,260.119,282.517,282.321,262.492,-0.0,-0.0,232.784,259.804
2014-05-04 02:00,-0.00126115,281.883,283.032,261.412,284.641,284.636,263.67,-0.0,-0.0,233.382,260.871
2014-05-04 03:00,-0.0,273.338,268.343,251.799,268.855,266.667,249.838,-0.0,-0.0,232.481,254.162
2014-05-04 04:00,0.00123459,270.713,262.616,248.382,261.611,259.139,244.792,-0.0,-0.0,229.093,247.699
2014-05-04 05:00,-0.00134744,269.576,262.931,248.512,261.611,260.764,247.142,-0.0,-0.0,229.769,247.04
2014-05-04 06:00,-0.0,281.346,281.505,259.902,283.514,283.049,262.136,-0.0,-0.0,232.405,257.595
2014-05-04 07:00,-0.0,279.667,280.308,259.024,281.943,281.441,260.942,-0.0,-0.0,233.677,256.982
2014-05-04 08:00,-0.00336687,280.982,281.86,260.445,283.656,283.629,263.083,-0.0,-0.0,234.329,256.982
2014-05-04 09:00,-0.00981336,281.705,283.38,261.091,285.061,285.065,264.138,-0.0,-0.0,234.257,257.942
2014-05-04 10:00,0.377278,260.827,249.978,240.171,250.207,247.915,237.222,0.532401,0.719448,230.348,240.576
2014-05-04 12:00,0.360634,293.124,291.487,266.557,293.892,292.679,267.023,0.137407,0.464204,235.108,259.051
2014-05-04 13:00,0.294299,295.583,293.843,268.033,296.307,295.208,267.251,0.108276,0.383771,235.731,260.135
2014-05-04 14:00,0.246032,297.045,295.244,269.0,297.558,295.996,268.158,0.085396,0.323978,236.341,260.708
2014-05-04 15:00,0.214931,297.649,296.033,269.384,298.426,296.78,268.497,0.0713172,0.282961,236.808,260.708
2014-05-04 16:00,0.195192,297.749,296.229,269.86,298.918,297.3,268.834,0.0630796,0.260237,237.072,261.033
2014-05-04 17:00,0.184017,297.045,295.935,269.67,298.302,296.65,268.946,0.0603576,0.25607,236.675,261.275
2014-05-04 18:00,0.183885,295.902,295.343,269.192,297.807,296.389,268.609,0.0674678,0.257837,236.408,261.435
2014-05-04 19:00,0.201431,293.816,293.944,268.324,296.182,295.339,268.271,0.0927998,0.28111,236.408,261.515
2014-05-04 20:00,0.221518,290.685,291.383,266.657,293.635,292.948,267.705,0.166124,0.319479,237.785,261.834
2014-05-04 21:00,-0.0269707,286.864,288.303,264.645,290.5,290.511,266.681,-0.0,-0.0272285,238.483,262.309
2014-05-04 22:00,-0.0,285.512,287.432,264.133,289.701,289.826,266.452,-0.0,-0.0,239.471,262.935
2014-05-04 23:00,-0.080877,285.202,286.882,263.411,288.763,288.306,265.069,-0.0261829,-0.0576354,239.954,263.167
2014-05-05 00:00,-0.0738563,284.888,286.328,263.618,288.493,288.445,265.069,-0.0189056,-0.0381482,240.074,262.857
2014-05-05 01:00,-0.00140983,283.76,284.642,262.89,286.033,285.208,262.847,-0.0,-0.0,238.733,261.914
2014-05-05 02:00,-0.00126134,282.923,283.956,262.576,284.781,283.049,261.421,-0.0,-0.0,238.981,261.755
2014-05-05 03:00,-0.00120914,280.982,279.58,259.902,280.054,278.156,257.53,-0.0,-0.0,236.139,258.457
2014-05-05 04:00,-0.0,278.883,276.718,257.685,277.075,275.396,255.406,-0.0,-0.0,234.756,257.158
2014-05-05 05:00,0.00134794,278.482,275.176,256.778,274.933,273.2,254.392,-0.0,-0.0,233.456,256.001
2014-05-05 06:00,-0.0,278.279,275.176,256.664,275.55,274.617,256.035,-0.0,-0.0,232.86,255.275
2014-05-05 07:00,0.00209763,277.451,273.732,255.742,274.156,272.724,253.881,-0.0,-0.0,233.456,255.183
2014-05-05 08:00,-0.00336188,278.883,276.718,258.246,277.528,276.169,256.535,-0.0,-0.0,235.386,257.682
2014-05-05 09:00,-0.0,274.551,267.764,252.168,266.678,264.106,246.869,-0.0,-0.0,229.517,250.442
2014-05-05 10:00,0.201664,280.799,278.845,258.802,280.054,279.061,258.638,0.206695,0.32146,234.113,258.372
2014-05-05 12:00,0.357709,289.779,280.909,260.228,281.51,278.609,256.909,0.195525,0.466267,232.405,255.457
2014-05-05 13:00,0.290201,294.823,288.843,266.259,290.101,287.188,262.492,0.12509,0.37998,234.756,259.135
2014-05-05 14:00,0.257719,295.368,288.195,265.557,289.166,285.635,258.882,0.10391,0.34691,232.709,256.716
2014-05-05 15:00,0.259501,284.087,265.846,250.303,264.095,259.139,240.646,0.185156,0.359121,225.835,243.214
2014-05-05 16:00,0.282753,288.977,270.468,254.69,269.35,264.795,245.767,0.211539,0.34738,228.488,248.669
2014-05-05 17:00,0.27641,282.923,263.556,250.555,261.971,258.408,242.956,0.232626,0.337889,224.959,242.725
2014-05-05 18:00,0.400454,297.146,279.823,260.661,281.655,279.361,258.27,0.306027,0.416722,233.456,257.421
2014-05-05 19:00,0.462212,278.279,252.666,243.509,247.878,243.896,233.661,0.424177,0.575009,222.259,235.295
2014-05-05 20:00,0.576626,288.291,278.721,259.354,277.978,275.24,254.646,0.428556,0.672694,229.433,251.452
2014-05-05 21:00,-0.0,286.421,287.541,264.95,289.701,288.861,265.301,-0.0,0.0261364,236.542,260.871
2014-05-05 22:00,-0.00424613,282.581,284.3,263.203,286.997,286.202,263.905,-0.0,-0.0,239.104,261.515
2014-05-05 23:00,-0.0997268,284.888,286.105,264.236,288.628,288.027,264.837,-0.0301566,-0.0623258,239.714,262.072
2014-05-06 00:00,-0.0497762,285.818,287.322,264.747,289.568,289.413,265.993,-0.0145329,-0.0329237,240.014,262.779
2014-05-06 01:00,-0.00140965,285.045,286.992,264.645,289.166,289.137,265.762,-0.0,-0.0,239.471,262.545
2014-05-06 02:00,-0.0,285.045,286.439,264.236,288.493,288.445,265.647,-0.0,-0.0,239.774,262.545
2014-05-06 03:00,-0.0,282.923,283.611,262.576,285.479,285.065,262.61,-0.0,-0.0,236.542,260.545
2014-05-06 04:00,-0.0012356,282.408,282.682,261.731,284.361,283.629,262.017,-0.0,-0.0,233.896,259.22
2014-05-06 05:00,-0.0,278.279,274.129,256.089,274.156,272.565,252.982,-0.0,-0.0,229.852,253.309
2014-05-06 06:00,-0.0,269.576,261.017,247.332,260.158,258.224,243.525,-0.0,-0.0,225.156,243.698
2014-05-06 07:00,-0.00419409,279.859,278.101,258.246,279.613,277.853,257.282,-0.0,-0.0,229.685,256.271
2014-05-06 08:00,0.00335678,281.165,281.148,260.984,282.66,282.175,261.779,-0.0,-0.0,232.709,258.543
2014-05-06 09:00,-0.0,259.505,247.357,239.721,245.248,242.805,232.867,-0.0,-0.0,223.538,236.614
2014-05-06 10:00,0.408596,264.009,249.385,241.207,247.662,245.186,236.153,0.473416,0.629609,223.746,236.757
2014-05-06 11:00,0.0,288.977,287.541,265.153,289.166,287.888,264.138,0.194713,0.536883,233.01,259.135
2014-05-06 12:00,0.347937,294.156,291.694,268.033,293.764,292.006,265.878,0.14056,0.449984,232.86,259.22
2014-05-06 13:00,0.30196,297.146,294.446,269.86,296.307,293.883,266.795,0.113631,0.379721,232.405,258.967
2014-05-06 14:00,0.249471,298.144,295.738,270.523,297.931,295.734,267.705,0.0860554,0.318707,233.823,259.887
2014-05-06 15:00,0.222452,298.63,296.033,270.711,298.055,296.127,267.592,0.0780659,0.283678,235.593,260.789
2014-05-06 16:00,0.208786,298.339,294.945,270.145,296.935,294.812,267.932,0.0763074,0.26234,235.178,260.627
2014-05-06 17:00,0.220755,298.822,293.843,269.192,295.803,293.617,266.681,0.0877924,0.271828,233.382,259.471
2014-05-06 18:00,0.204333,296.323,292.314,268.421,293.892,291.464,264.837,0.0908729,0.256295,232.097,258.114
2014-05-06 19:00,0.207111,294.933,291.591,267.74,293.764,292.141,266.681,0.132156,0.272727,233.456,259.22
2014-05-06 20:00,0.363131,292.053,287.978,265.557,290.367,288.722,265.069,0.290991,0.412427,232.328,258.028
2014-05-06 21:00,-0.0,282.923,283.956,262.995,286.447,285.493,263.905,-0.0,-0.0,231.943,257.595
2014-05-06 22:00,-0.0042264,280.982,280.187,260.337,281.799,280.554,260.219,-0.0,-0.0,232.175,254.629
2014-05-06 23:00,-0.118523,277.451,276.08,257.798,277.978,276.631,257.53,-0.032113,-0.0622211,231.156,253.5
2014-05-07 00:00,-0.072046,280.799,282.096,261.944,284.781,283.773,262.965,-0.0188813,-0.0346356,233.234,256.716
2014-05-07 01:00,-0.00140956,282.581,283.495,262.155,285.895,284.636,262.965,-0.0,-0.0,232.328,255.821
2014-05-07 02:00,-0.00126186,278.279,276.336,258.022,276.01,270.311,253.24,-0.0,-0.0,231.865,249.198
2014-05-07 03:00,0.00121003,268.686,260.692,248.9,259.236,250.557,239.913,-0.0,-0.0,231.63,244.175
2014-05-07 04:00,-0.0,251.944,244.38,238.657,243.895,241.475,236.153,-0.0,-0.0,231.076,237.608
2014-05-07 05:00,-0.0,268.382,262.3,249.542,261.069,253.896,242.527,-0.0,0.00136184,231.315,244.881
2014-05-07 06:00,-0.0,279.081,277.977,259.024,278.128,275.861,257.282,-0.0,-0.0,231.076,251.552
2014-05-07 07:00,-0.0,282.581,283.841,262.681,286.447,285.635,263.67,-0.0,-0.0,230.755,254.349
2014-05-07 08:00,-0.00335155,280.427,281.505,260.984,284.22,282.904,261.898,-0.0,-0.0,231.709,253.785
2014-05-07 09:00,-0.00958156,273.831,274.524,257.572,277.978,276.631,259.005,-0.0,-0.0,232.251,252.634
2014-05-07 10:00,0.817206,285.665,274.524,257.346,276.315,272.565,255.532,0.571993,0.814018,232.405,250.646
2014-05-07 11:00,0.397557,290.041,288.303,265.859,290.632,289.137,264.605,0.189726,0.503522,233.234,253.785
2014-05-07 12:00,0.386048,296.008,286.328,264.95,288.763,285.777,262.847,0.206951,0.435861,234.472,254.068
2014-05-07 13:00,0.296079,296.635,293.742,269.479,296.182,293.75,266.566,0.109583,0.365135,234.615,254.536
2014-05-07 14:00,0.247337,297.848,294.746,270.428,297.06,294.415,267.023,0.0876947,0.309006,234.543,254.256
2014-05-07 15:00,0.235059,298.045,293.133,269.192,295.55,292.814,266.108,0.104488,0.287733,234.472,253.785
2014-05-07 16:00,0.26994,296.738,289.272,266.855,291.292,288.584,264.488,0.167268,0.319716,234.329,253.309
2014-05-07 17:00,0.201551,296.008,290.651,267.935,292.73,290.238,265.069,0.110925,0.257739,234.756,253.595
2014-05-07 18:00,0.238535,294.043,288.843,266.259,290.897,288.167,263.787,0.154549,0.305731,234.113,252.828
2014-05-07 19:00,0.356476,295.151,285.658,264.236,287.134,284.205,261.54,0.271134,0.423931,234.113,252.047
2014-05-07 20:00,0.21653,291.065,289.165,266.756,291.029,288.861,264.022,0.166669,0.284842,234.329,252.342
2014-05-07 21:00,-0.0,287.01,286.439,264.95,288.628,286.626,262.847,-0.0,-0.0,234.472,251.949
2014-05-07 22:00,-0.00420781,280.982,277.852,259.354,279.613,273.99,253.497,-0.0,0.00424803,234.329,250.032
2014-05-07 23:00,-0.111238,275.48,270.746,255.393,270.981,266.16,250.633,-0.0320629,-0.0645133,233.896,247.261
2014-05-08 00:00,-0.0685789,259.505,253.779,244.349,255.439,251.552,241.519,-0.0188713,-0.0363481,232.251,243.093
2014-05-08 01:00,-0.00140953,255.521,255.05,244.626,256.789,256.367,246.457,-0.0,-0.0,233.456,245.69
2014-05-08 02:00,-0.0,280.05,277.852,259.574,280.054,276.477,257.158,-0.0,-0.0,233.75,250.032
2014-05-08 03:00,0.00121051,277.661,274.261,257.459,276.163,272.883,255.28,-0.0,-0.0,233.159,248.562
2014-05-08 04:00,-0.00123668,251.944,250.76,241.936,252.465,251.552,242.956,-0.0,-0.0,232.935,243.698
2014-05-08 05:00,-0.00134945,247.601,246.733,239.721,246.575,245.824,239.173,-0.0,-0.0,230.43,239.922
2014-05-08 06:00,-0.00318481,238.442,240.039,235.173,241.815,240.576,234.76,-0.0,-0.0,230.43,236.9
2014-05-08 07:00,-0.0,252.585,247.769,239.57,246.794,245.186,238.428,-0.0,-0.0,230.266,238.441
2014-05-08 08:00,0.00334621,275.48,271.162,253.98,273.372,270.798,252.075,-0.0,-0.0,232.633,247.699
2014-05-08 09:00,-0.0,283.261,283.726,262.471,286.447,285.35,262.492,-0.0,-0.0,234.756,252.925
2014-05-08 10:00,0.508055,284.73,282.214,261.198,283.656,281.735,259.614,0.346006,0.669016,232.935,252.342
2014-05-08 11:00,0.363539,279.081,264.635,249.924,262.15,257.486,241.519,0.28934,0.51015,226.405,240.576
2014-05-08 12:00,0.243228,292.653,289.593,265.959,291.029,288.306,263.318,0.114627,0.319682,236.609,255.73
2014-05-08 13:00,0.363129,298.144,280.909,261.091,282.374,278.911,258.638,0.229088,0.388165,238.608,256.36
2014-05-08 14:00,0.266905,297.349,289.911,266.557,291.292,288.027,263.553,0.120877,0.325855,242.984,259.22
2014-05-08 16:00,0.249809,295.26,289.165,265.658,290.632,288.167,264.138,0.162801,0.307222,247.041,261.993
2014-05-08 17:00,0.295181,294.268,287.541,264.133,288.897,286.626,263.905,0.218509,0.36782,247.949,262.151
2014-05-08 18:00,0.227195,293.472,289.165,265.658,290.764,288.306,263.787,0.160599,0.300913,247.665,261.515
2014-05-08 19:00,0.224969,294.38,291.798,267.348,293.506,290.921,265.301,0.115833,0.291572,248.043,261.755
2014-05-08 20:00,0.126121,290.041,289.165,265.557,291.292,289.276,264.488,0.157369,0.207743,245.253,260.299
2014-05-08 22:00,-0.0,285.818,285.994,263.618,288.087,286.343,0.0,-0.0,-0.00423037,246.159,261.113
2014-05-08 23:00,-0.0850803,285.97,286.328,263.721,288.493,287.469,264.138,-0.0280145,-0.0596483,246.456,261.595
2014-05-09 00:00,-0.0668338,285.818,286.439,263.618,288.628,287.188,264.372,-0.0188627,-0.0363315,247.76,262.857
2014-05-09 01:00,-0.0,285.045,285.994,263.618,288.222,287.048,264.488,-0.0,-0.0,248.925,263.167
2014-05-09 02:00,-0.00126255,284.41,285.658,263.099,287.815,286.907,264.255,-0.0,-0.0,248.184,263.09
2014-05-09 03:00,-0.0,284.087,285.321,262.995,287.407,286.767,264.138,-0.0,-0.0,248.603,263.706
2014-05-09 04:00,-0.0,283.76,284.982,262.576,287.134,286.06,263.553,-0.0,-0.0,249.875,263.399
2014-05-09 05:00,-0.0,283.76,284.869,262.576,286.86,286.202,264.138,-0.0,-0.0,248.925,264.086
2014-05-09 06:00,-0.00159266,280.239,282.566,260.769,285.061,284.492,263.318,-0.0,-0.0,249.017,264.238
2014-05-09 07:00,-0.0,277.451,280.308,259.464,283.23,282.613,262.728,-0.0,-0.0,246.798,263.706
2014-05-09 08:00,0.00334076,282.923,284.414,262.049,286.722,286.202,264.022,-0.0,-0.0,243.953,262.779
2014-05-09 09:00,0.00942771,282.753,284.3,261.625,286.585,285.919,263.905,-0.0,-0.0,245.859,263.322
2014-05-09 10:00,0.30236,284.57,285.208,262.576,287.27,286.767,264.721,0.265489,0.452223,246.009,263.09
2014-05-09 11:00,0.362037,289.381,288.52,264.645,290.5,289.137,264.837,0.173394,0.476254,244.426,262.701
2014-05-09 12:00,0.352661,294.268,291.694,266.954,293.506,291.464,265.647,0.140517,0.42817,247.949,264.162
2014-05-09 13:00,0.293098,297.146,294.145,268.324,295.93,293.483,266.681,0.108951,0.357245,248.557,264.914
2014-05-09 14:00,0.249231,298.242,295.442,269.0,297.434,294.944,267.137,0.0883659,0.300363,248.787,264.54
2014-05-09 15:00,0.219085,298.726,296.131,269.384,298.302,295.734,267.478,0.0752024,0.266013,247.712,263.858
2014-05-09 16:00,0.206707,298.726,295.541,268.904,297.309,294.812,267.023,0.0746403,0.254716,247.902,264.314
2014-05-09 17:00,0.242218,296.635,290.86,266.059,292.86,290.511,265.301,0.157758,0.290704,246.406,263.399
2014-05-09 18:00,0.215721,295.796,291.902,266.756,294.021,291.329,265.993,0.120585,0.279101,246.357,263.552
2014-05-09 19:00,0.21107,293.93,292.725,267.151,294.533,292.545,266.452,0.111372,0.274852,246.554,263.858
2014-05-09 20:00,0.288685,291.563,290.229,266.059,292.34,290.648,265.647,0.244429,0.372778,245.608,263.399
2014-05-09 21:00,-0.0,286.121,286.882,263.411,289.032,287.888,264.255,-0.0,-0.0,244.583,263.012
2014-05-09 22:00,-0.00417389,285.045,286.105,263.099,288.493,287.329,264.605,-0.0,-0.0,245.355,263.244
2014-05-09 23:00,-0.0896878,285.045,286.55,263.618,288.897,288.445,264.953,-0.025979,-0.0571864,241.015,262.072
2014-05-10 00:00,-0.0531038,284.888,286.439,263.307,289.032,288.584,264.953,-0.0159546,-0.034588,239.288,261.834
2014-05-10 01:00,-0.00140968,284.249,286.328,262.995,288.628,288.584,265.301,-0.0,-0.0,238.104,261.755
2014-05-10 02:00,-0.00126296,284.087,285.994,262.681,288.222,287.888,264.953,-0.0,-0.0,237.072,260.952
2014-05-10 03:00,-0.00121156,283.594,285.321,262.471,287.815,287.748,265.069,-0.0,-0.0,235.108,259.554
2014-05-10 04:00,-0.00123781,282.753,284.414,261.838,286.722,286.485,264.605,-0.0,-0.0,236.207,259.471
2014-05-10 05:00,-0.0,281.883,282.916,260.661,285.061,284.492,262.61,-0.0,-0.0,236.207,259.051
2014-05-10 06:00,-0.0,282.753,284.3,261.731,286.447,286.202,264.022,-0.0,-0.0,234.968,258.372
2014-05-10 07:00,-0.0020943,279.278,277.977,257.572,279.76,279.061,258.147,-0.0,-0.0,234.185,254.536
2014-05-10 08:00,-0.0,282.234,283.841,261.519,286.31,286.06,263.787,-0.0,-0.0,235.455,258.372
2014-05-10 09:00,-0.0,282.059,283.956,261.305,286.447,286.626,264.022,-0.0,-0.0,239.593,259.887
2014-05-10 10:00,0.329375,283.594,284.755,261.944,287.134,286.767,263.905,0.278881,0.481586,240.489,259.721
2014-05-10 11:00,0.371557,288.841,288.195,264.236,290.367,288.861,265.301,0.177545,0.479099,241.419,260.708
2014-05-10 12:00,0.35426,293.702,291.591,266.358,293.377,291.464,265.647,0.141154,0.425436,243.039,261.993
2014-05-10 13:00,0.292477,296.114,293.438,267.446,295.424,293.216,266.566,0.109387,0.356864,243.039,262.23
2014-05-10 14:00,0.250176,297.947,294.945,268.904,296.935,294.547,266.795,0.0887012,0.303081,243.147,262.779
2014-05-10 15:00,0.216937,298.533,296.033,269.765,298.178,295.865,267.592,0.0742269,0.267013,242.82,263.244
2014-05-10 16:00,0.250227,297.947,292.005,266.855,293.892,291.735,265.762,0.127895,0.292669,243.633,263.322
2014-05-10 17:00,0.236417,297.146,291.798,266.756,293.764,291.464,265.647,0.123849,0.295342,243.846,262.935
2014-05-10 18:00,0.258825,295.151,290.651,266.259,293.119,290.921,265.185,0.155006,0.331404,243.418,262.309
2014-05-10 19:00,0.224662,293.93,292.314,267.544,294.661,293.082,266.222,0.11726,0.295163,243.039,262.072
2014-05-10 20:00,0.210441,290.685,290.651,266.159,292.86,291.735,266.566,0.17818,0.308399,243.093,262.072
2014-05-10 21:00,-0.0,286.271,287.432,263.928,289.701,288.861,265.069,-0.0,-0.0221695,243.202,261.275
2014-05-10 22:00,-0.00831702,285.357,286.55,263.618,288.897,288.027,264.488,-0.0,-0.0,243.793,261.515
2014-05-10 23:00,-0.103723,285.357,286.217,263.411,288.493,287.609,264.372,-0.0279434,-0.0618768,243.74,261.675
2014-05-11 00:00,-0.0513746,284.41,285.658,262.995,287.815,287.329,264.488,-0.0144996,-0.0311194,244.164,261.194
2014-05-11 01:00,-0.00140985,283.76,285.095,262.366,287.407,287.048,264.138,-0.0,-0.0,245.202,262.072
2014-05-11 02:00,-0.0012634,283.76,285.321,262.681,287.27,287.188,264.488,-0.0,-0.0,245.709,262.623
2014-05-11 03:00,-0.00121211,283.093,284.755,262.155,286.997,286.626,264.255,-0.0,-0.0,246.357,263.167
2014-05-11 04:00,0.00123839,282.923,284.528,262.049,286.722,286.767,264.488,-0.0,-0.0,246.009,263.244
2014-05-11 05:00,-0.00135099,282.234,284.071,261.625,286.31,286.485,264.138,-0.0,-0.0,246.159,263.552
2014-05-11 06:00,-0.0,281.883,283.841,261.625,286.172,286.202,264.372,-0.0,-0.0,245.859,263.476
2014-05-11 07:00,0.00209351,281.705,283.611,261.625,285.895,285.919,264.022,-0.0,-0.0,245.507,263.399
2014-05-11 08:00,-0.0,281.346,283.495,261.625,285.757,285.635,264.488,-0.0,-0.0,245.304,263.399
2014-05-11 09:00,-0.0,281.883,283.956,261.519,285.895,286.202,264.837,-0.0,-0.0,245.151,264.162
2014-05-11 10:00,0.322632,283.428,284.982,262.366,286.997,287.048,265.185,0.282928,0.51184,244.997,263.782
2014-05-11 11:00,0.377493,288.568,288.303,264.747,290.5,289.826,265.416,0.178613,0.496927,244.997,263.858
2014-05-11 12:00,0.353543,292.771,291.383,266.756,293.506,292.276,266.566,0.139825,0.443806,245.355,263.858
2014-05-11 13:00,0.293646,295.26,293.336,268.324,295.424,294.016,267.365,0.109824,0.367384,245.709,264.162
2014-05-11 14:00,0.247981,296.84,294.546,269.384,296.684,294.679,267.478,0.0903648,0.310563,244.635,263.706
2014-05-11 16:00,0.214424,297.248,293.843,268.904,295.93,294.016,267.023,0.0907762,0.25513,244.739,263.782
2014-05-11 17:00,0.228842,296.738,292.622,268.227,294.916,292.948,266.909,0.115678,0.275857,245.405,263.552
2014-05-11 18:00,0.228314,295.69,292.417,268.324,294.788,292.679,266.452,0.112766,0.285986,245.304,263.322
2014-05-11 19:00,0.269337,293.93,290.756,266.954,292.989,291.329,265.993,0.167759,0.343797,245.304,263.167
2014-05-11 20:00,0.226453,290.685,290.44,266.557,292.47,291.057,265.878,0.220788,0.332535,245.809,263.322
2014-05-11 21:00,-0.0213892,287.01,287.978,265.052,290.101,289.413,265.532,-0.0181102,-0.0215937,245.304,263.322
2014-05-11 22:00,-0.00414415,286.271,287.651,264.849,289.835,288.999,265.532,-0.0,-0.0,245.355,263.706
2014-05-11 23:00,-0.0965446,286.271,287.432,264.95,289.701,289.276,265.878,-0.0299064,-0.0594314,245.355,264.162
2014-05-12 00:00,-0.0462256,285.512,286.772,264.339,289.032,288.445,265.532,-0.0159456,-0.0311117,245.859,264.162
2014-05-12 01:00,-0.00141008,283.76,284.528,262.995,286.172,284.922,262.728,-0.0,-0.0,244.79,262.779
2014-05-12 02:00,-0.0,283.261,283.726,262.576,285.34,284.349,262.61,-0.0,-0.0,245.099,262.935
2014-05-12 03:00,-0.0,284.087,285.658,263.618,287.543,287.329,264.372,-0.0,0.00122428,245.709,264.314
2014-05-12 04:00,-0.00123898,283.093,284.528,262.786,286.31,285.493,263.436,-0.0,-0.0,245.456,263.706
2014-05-12 05:00,-0.0,282.923,283.611,262.261,285.201,284.205,262.136,-0.0,-0.0,244.583,263.167
2014-05-12 06:00,-0.0,282.923,284.414,262.89,286.447,285.635,263.553,-0.0,-0.0,244.583,263.552
2014-05-12 07:00,-0.0,283.428,284.982,262.995,287.134,286.767,264.721,-0.0,-0.0,244.842,264.01
2014-05-12 08:00,-0.0,282.753,284.185,262.366,286.172,285.919,264.488,-0.0,-0.0,244.842,263.858
2014-05-12 09:00,0.00919897,281.526,283.495,262.155,285.34,284.922,263.436,-0.0,-0.0,244.687,263.782
2014-05-12 10:00,0.350796,283.261,284.3,262.681,286.585,286.343,264.372,0.277217,0.495809,245.151,264.01
2014-05-12 12:00,0.359825,292.294,290.44,266.557,292.079,290.784,266.337,0.146396,0.438748,245.048,264.314
2014-05-12 13:00,0.298434,294.602,292.108,267.935,293.892,292.141,266.452,0.113325,0.363371,244.945,264.086
2014-05-12 14:00,0.252062,295.902,293.133,268.711,294.788,292.679,266.337,0.0933715,0.306957,244.479,263.858
2014-05-12 15:00,0.221542,296.635,293.641,269.192,295.55,293.216,266.566,0.0785806,0.270508,244.111,263.552
2014-05-12 16:00,0.216769,296.738,292.52,268.518,294.149,291.871,266.222,0.0898165,0.260747,243.846,263.012
2014-05-12 17:00,0.238333,296.323,290.44,267.052,292.47,290.375,265.532,0.126304,0.280425,243.256,262.935
2014-05-12 18:00,0.227227,294.713,290.965,267.446,292.86,291.057,265.647,0.115076,0.272277,242.82,262.623
2014-05-12 19:00,0.242874,293.007,290.545,267.052,292.47,290.648,265.993,0.145003,0.308067,242.82,262.935
2014-05-12 20:00,0.214981,289.247,289.165,266.159,291.292,289.964,265.647,0.205511,0.322053,242.765,262.857
2014-05-12 21:00,-0.0,285.512,286.772,264.441,288.763,287.748,265.185,-0.0176724,-0.0,242.489,262.935
2014-05-12 22:00,-0.0,285.202,286.328,264.031,288.358,287.888,265.069,-0.0,-0.0,242.6,263.244
2014-05-12 23:00,-0.112916,284.888,285.994,263.928,288.222,287.469,264.953,-0.0318686,-0.0593726,242.322,263.167
2014-05-13 00:00,-0.0650465,284.087,285.321,263.411,287.27,286.767,264.488,-0.0159427,-0.0328342,241.533,262.857
2014-05-13 01:00,-0.00141038,283.594,284.755,263.307,286.447,285.777,263.67,-0.0,-0.0,241.419,262.388
2014-05-13 02:00,-0.0012644,283.261,284.755,263.203,286.86,286.767,264.255,-0.0,-0.0,241.304,262.779
2014-05-13 03:00,-0.0,282.581,284.071,262.786,285.757,285.208,263.553,-0.0,-0.0,240.841,262.388
2014-05-13 04:00,0.00123957,280.613,280.549,260.984,281.366,279.511,259.005,-0.0,-0.0,238.733,259.887
2014-05-13 05:00,-0.0,279.859,279.58,260.119,280.347,278.307,258.27,-0.0,-0.0,237.592,259.387
2014-05-13 06:00,0.00159352,280.613,281.386,261.198,282.946,281.735,261.062,-0.0,-0.0,238.733,261.033
2014-05-13 07:00,-0.00209178,279.859,280.549,260.553,282.087,281.441,260.701,-0.0,-0.0,238.294,260.299
2014-05-13 08:00,-0.00663565,280.239,281.742,261.198,283.372,283.049,262.373,-0.0,-0.0,237.913,260.789
2014-05-13 09:00,-0.0,280.05,280.669,0.0,282.374,281.588,261.301,-0.0,-0.0,236.94,259.97
2014-05-13 10:00,0.391702,281.705,280.669,260.661,281.943,281.146,260.461,0.311553,0.575195,236.004,259.22
2014-05-13 12:00,0.347379,291.315,287.651,265.355,289.032,286.907,262.728,0.153025,0.440745,236.139,259.804
2014-05-13 13:00,0.301436,294.38,292.622,268.518,294.916,293.35,266.681,0.112238,0.375814,237.528,261.834
2014-05-13 14:00,0.254582,295.042,291.694,268.13,293.377,291.329,265.069,0.096397,0.320871,236.742,259.721
2014-05-13 15:00,0.231365,294.823,289.379,266.756,290.5,287.469,261.66,0.0941322,0.28818,235.317,258.028
2014-05-13 16:00,0.208316,296.008,292.622,268.904,294.021,291.464,264.953,0.0783916,0.264832,236.94,260.708
2014-05-13 17:00,0.211731,296.219,292.417,268.518,294.277,292.006,265.762,0.0874498,0.267628,237.333,261.275
2014-05-13 18:00,0.241035,295.042,288.843,266.557,289.434,285.777,261.66,0.122812,0.299329,235.247,258.882
2014-05-13 19:00,0.256771,292.053,286.661,265.052,287.543,284.922,260.822,0.153776,0.328774,234.257,257.942
2014-05-13 20:00,0.329292,288.152,283.148,262.366,284.22,281.882,259.492,0.278811,0.417318,232.935,256.181
2014-05-13 21:00,-0.0,279.278,274.392,257.006,274.778,272.086,252.594,-0.0,-0.0205978,229.263,250.95
2014-05-13 22:00,-0.00823674,282.059,280.429,260.769,281.51,279.661,258.27,-0.0,-0.0,231.63,254.443
2014-05-13 23:00,-0.101065,281.346,280.429,260.119,281.799,280.85,260.098,-0.0298505,-0.0593203,233.01,255.457
2014-05-14 00:00,-0.0599044,282.923,283.38,262.471,285.34,284.922,263.318,-0.01739,-0.0328304,233.677,257.246
2014-05-14 01:00,-0.00141073,280.982,280.308,260.445,281.943,281.441,261.301,-0.0,-0.0,232.557,254.443
2014-05-14 02:00,-0.00126495,282.408,283.726,262.576,286.172,286.06,264.721,-0.0,-0.0,232.784,257.07
2014-05-14 03:00,-0.0,282.408,283.38,262.366,285.895,285.777,264.605,-0.0,-0.0,233.456,256.894
2014-05-14 04:00,-0.0,281.705,283.032,261.838,285.34,285.208,264.022,-0.0,-0.0,233.01,256.894
2014-05-14 05:00,0.00135249,280.982,282.096,261.625,284.641,284.779,263.787,-0.0,-0.0,232.709,256.805
2014-05-14 06:00,-0.00159369,280.239,281.386,260.984,283.372,283.484,263.436,-0.0,-0.0,232.633,256.628
2014-05-14 07:00,-0.00209085,280.239,281.505,260.769,283.797,283.917,263.318,-0.0,-0.0,232.935,256.805
2014-05-14 08:00,-0.0,279.859,281.029,260.337,283.23,283.049,263.67,-0.0,-0.0,232.328,256.001
2014-05-14 09:00,-0.0,277.661,277.977,259.024,279.76,279.959,261.062,-0.0,-0.0,231.156,253.974
2014-05-14 10:00,0.14463,277.869,276.718,257.572,278.427,277.853,258.27,0.204097,0.26769,231.473,253.5
2014-05-14 11:00,0.342977,285.97,284.755,263.099,287.27,286.343,264.138,0.172324,0.483235,232.557,254.999
2014-05-14 12:00,0.29473,285.97,280.066,260.119,281.799,280.108,258.515,0.167696,0.423708,231.156,249.928
2014-05-14 13:00,0.233352,279.081,265.696,251.429,265.482,262.361,247.415,0.202209,0.334969,228.575,241.602
2014-05-14 14:00,0.249175,294.156,290.123,267.052,292.6,290.648,264.372,0.0994408,0.315647,232.86,252.342
2014-05-14 15:00,0.260849,277.661,261.822,248.512,260.524,257.115,242.097,0.231074,0.394253,229.852,240.964
2014-05-14 16:00,0.236956,280.613,268.773,253.381,268.024,265.82,249.705,0.184895,0.334597,231.552,243.577
2014-05-14 17:00,0.19527,295.902,293.742,269.955,296.433,294.149,266.681,0.0687674,0.249473,234.401,254.907
2014-05-14 18:00,0.26779,283.76,273.997,256.205,273.843,271.121,252.853,0.212226,0.361188,230.43,245.69
2014-05-14 19:00,0.226697,291.809,289.911,266.756,292.209,290.375,265.185,0.122631,0.301973,234.113,254.629
2014-05-14 20:00,0.339655,288.012,285.658,264.236,287.134,285.493,262.728,0.245646,0.41434,232.784,253.117
2014-05-14 21:00,-0.0199763,283.76,283.956,262.786,285.34,283.629,262.492,-0.0,-0.0,231.943,253.974
2014-05-14 22:00,-0.0,279.473,277.35,259.244,277.828,274.147,255.28,-0.0,-0.0,230.835,249.825
2014-05-14 23:00,-0.0845468,281.346,280.549,260.876,281.943,279.511,258.882,-0.0258504,-0.0545324,230.835,251.751
2014-05-15 00:00,-0.0581898,281.526,281.505,261.519,283.656,282.467,262.136,-0.01594,-0.0328287,230.916,252.342
2014-05-15 01:00,-0.0,281.165,280.187,260.661,281.943,280.554,259.856,-0.00119481,-0.0,230.593,250.95
2014-05-15 02:00,-0.0,253.206,243.273,238.349,240.631,239.438,234.604,-0.0,-0.0,224.258,230.354
2014-05-15 03:00,-0.0,281.526,281.505,261.305,283.938,282.904,261.66,-0.0,-0.0,232.02,253.213
2014-05-15 04:00,0.00124078,276.155,273.997,256.778,273.843,272.405,255.027,-0.0,-0.0,230.266,248.241
2014-05-15 05:00,-0.0,275.932,272.796,255.974,273.057,271.605,254.646,-0.0,-0.0,230.43,248.775
2014-05-15 06:00,-0.0,267.123,261.662,248.771,262.685,259.502,246.732,-0.0,-0.0,230.43,245.23
2014-05-15 07:00,-0.0,267.444,258.871,245.995,258.865,256.18,240.793,-0.0,-0.0,229.517,243.093
2014-05-15 08:00,0.00330572,280.05,280.669,260.445,282.803,282.321,262.255,-0.0,-0.0,232.405,252.731
2014-05-15 09:00,-0.0,279.667,280.669,260.337,282.803,282.467,262.017,-0.0,-0.0,232.097,253.117
2014-05-15 10:00,0.281556,281.165,281.624,261.305,284.079,283.484,263.083,0.269488,0.469627,231.236,253.309
2014-05-15 11:00,0.386802,286.864,285.208,263.825,287.407,286.202,264.138,0.19265,0.509181,231.236,253.021
2014-05-15 12:00,0.355284,292.771,290.44,267.249,292.989,291.464,264.953,0.146398,0.442373,232.633,254.443
2014-05-15 13:00,0.245252,292.889,288.843,266.458,290.101,287.888,262.728,0.110026,0.314115,231.394,252.342
2014-05-15 14:00,0.254866,297.248,294.346,270.05,297.309,295.076,267.023,0.0917128,0.31198,232.481,254.629
2014-05-15 15:00,0.220924,298.144,295.541,271.179,298.426,296.389,268.158,0.0768723,0.274976,232.709,255.183
2014-05-15 16:00,0.200507,297.947,295.343,270.711,298.426,296.389,268.045,0.068434,0.249499,233.234,255.183
2014-05-15 17:00,0.202949,297.146,294.446,270.145,297.309,294.679,267.251,0.0719658,0.25042,232.935,253.974
2014-05-15 18:00,0.19793,295.476,293.336,269.575,296.056,293.75,266.681,0.0783287,0.254121,233.234,253.5
2014-05-15 19:00,0.208915,293.587,291.902,268.615,294.661,292.679,265.993,0.112565,0.278021,232.86,253.117
2014-05-15 20:00,0.178613,289.381,288.951,266.557,291.686,290.238,265.532,0.187527,0.288512,232.784,253.309
2014-05-15 21:00,-0.0,282.581,279.945,260.445,281.655,279.959,258.638,-0.0,-0.0,229.935,249.093
2014-05-15 22:00,-0.00409637,283.924,284.071,263.203,286.86,285.635,263.318,-0.0,-0.0,231.865,252.828
2014-05-15 23:00,-0.0962249,283.428,283.726,262.786,286.172,285.208,263.083,-0.0278202,-0.0568652,231.473,252.244
2014-05-16 00:00,-0.0564789,283.924,284.3,263.203,286.86,286.202,264.022,-0.0173893,-0.0311012,232.02,252.634
2014-05-16 01:00,-0.00141161,283.261,283.956,263.411,286.722,286.06,264.022,-0.0,-0.0,232.481,253.405
2014-05-16 02:00,0.00126613,281.346,279.945,260.228,282.231,280.998,260.461,-0.0,-0.0,230.755,250.95
2014-05-16 03:00,-0.0,282.753,283.611,262.995,285.895,285.493,264.138,-0.0,-0.0,233.968,254.068
2014-05-16 04:00,-0.0,282.234,282.682,262.471,285.479,284.636,263.787,-0.0,-0.0,233.085,253.69
2014-05-16 05:00,-0.0,282.059,282.916,262.155,285.618,284.922,263.436,-0.0,-0.0,232.097,253.69
2014-05-16 06:00,-0.00159395,281.346,282.566,262.155,285.061,284.492,263.318,-0.0,-0.0,232.86,254.068
2014-05-16 07:00,-0.0,281.346,282.096,261.838,284.501,283.917,263.083,-0.0,-0.0,233.823,254.068
2014-05-16 08:00,-0.00329952,280.982,281.624,261.625,284.079,283.339,262.492,-0.0,-0.0,234.041,253.88
2014-05-16 09:00,-0.0,280.982,281.505,261.519,283.938,283.049,262.847,-0.0,-0.0,234.329,254.536
2014-05-16 10:00,0.323368,282.581,282.566,262.261,285.061,284.205,262.847,0.284325,0.502245,233.968,254.443
2014-05-16 12:00,0.354518,293.124,290.229,267.446,292.6,290.375,265.069,0.145049,0.427567,234.113,254.907
2014-05-16 13:00,0.293984,296.114,292.417,269.0,294.661,292.141,265.647,0.113568,0.358008,233.823,254.722
2014-05-16 14:00,0.250995,297.549,293.843,269.955,295.93,293.216,265.762,0.0933993,0.305042,233.75,255.091
2014-05-16 15:00,0.227776,298.144,293.742,269.86,295.677,292.679,265.416,0.0874287,0.268279,234.401,255.73
2014-05-16 16:00,0.235534,298.144,291.902,268.615,293.892,291.057,264.837,0.109618,0.270855,234.185,255.911
2014-05-16 17:00,0.203703,297.449,293.539,269.86,295.803,293.082,265.647,0.0766557,0.24432,232.86,255.457
2014-05-16 18:00,0.228993,293.124,286.105,264.849,286.585,283.049,259.492,0.12621,0.281344,230.674,250.849
2014-05-16 19:00,0.349995,288.977,276.718,258.58,276.468,272.565,251.422,0.247848,0.427222,228.662,246.258
2014-05-16 20:00,0.259602,290.041,288.195,265.959,290.367,288.167,263.905,0.244227,0.364005,232.633,253.974
2014-05-16 21:00,0.0,285.818,285.208,263.928,287.407,286.06,263.2,-0.0,0.0,232.097,253.69
2014-05-16 22:00,-0.00408672,282.234,279.091,260.011,280.054,278.156,256.909,-0.0,-0.0,228.575,249.303
2014-05-16 23:00,-0.091479,281.346,277.098,258.58,278.278,276.015,255.784,-0.0278044,-0.059201,227.601,248.025
2014-05-17 00:00,-0.04279,280.05,275.951,257.685,276.923,274.929,254.392,-0.0130429,-0.0293754,228.4,248.025
2014-05-17 01:00,-0.00141213,284.087,284.869,263.721,287.543,286.485,264.138,-0.0,-0.0,231.394,253.595
2014-05-17 02:00,-0.00126677,283.428,283.264,262.89,285.618,284.349,262.492,-0.0,-0.0,230.184,252.342
2014-05-17 03:00,-0.0,283.093,283.38,262.995,285.757,284.636,262.847,-0.0,0.00122744,230.674,252.634
2014-05-17 04:00,-0.0,273.586,266.442,251.676,265.654,263.237,247.279,-0.0,-0.0,225.254,242.848
2014-05-17 05:00,-0.00135393,280.799,280.308,260.337,281.943,280.554,259.977,-0.0,-0.0,229.685,251.751
2014-05-17 06:00,-0.0,280.613,279.58,260.119,281.51,279.959,259.492,-0.0,-0.0,229.601,251.552
2014-05-17 07:00,0.00208775,280.982,280.308,260.553,282.517,281.588,260.822,-0.0,-0.0,230.348,251.352
2014-05-17 08:00,-0.0,282.408,283.032,262.576,285.618,285.065,263.436,-0.0,-0.0,230.511,252.731
2014-05-17 09:00,-0.0,281.165,281.624,261.519,284.079,283.194,262.017,-0.0,-0.0,231.787,252.342
2014-05-17 10:00,0.366549,282.923,282.682,261.944,285.061,284.349,261.898,0.310356,0.497657,232.784,252.047
2014-05-17 12:00,0.358514,293.124,289.911,267.052,292.34,289.964,264.605,0.149753,0.429504,233.382,252.146
2014-05-17 13:00,0.302505,295.151,291.487,268.324,293.635,291.057,264.721,0.120257,0.357538,233.603,251.949
2014-05-17 14:00,0.25671,297.449,293.133,269.288,295.297,292.276,264.953,0.0978102,0.299658,233.603,252.731
2014-05-17 15:00,0.227043,298.436,294.346,270.239,296.559,293.216,265.185,0.0825715,0.263057,233.603,252.731
2014-05-17 16:00,0.208179,298.339,294.145,270.334,296.433,293.216,265.416,0.0742169,0.246515,234.113,252.047
2014-05-17 17:00,0.218423,297.848,293.336,269.955,295.55,292.41,264.605,0.087291,0.248737,234.472,252.146
2014-05-17 18:00,0.206056,296.008,292.52,269.192,294.916,291.735,264.953,0.0973346,0.251821,234.401,253.213
2014-05-17 19:00,0.227039,293.816,289.805,267.249,292.079,289.276,264.138,0.162451,0.280863,233.085,252.342
2014-05-17 20:00,0.240107,290.301,288.628,266.557,291.16,288.445,263.67,0.240262,0.323203,233.085,252.146
2014-05-17 21:00,-0.0,286.421,286.105,264.747,288.493,286.626,263.67,-0.0,-0.0,235.038,253.69
2014-05-17 22:00,-0.00407796,280.799,279.091,260.445,280.931,278.156,259.492,-0.0,-0.0,234.686,252.828
2014-05-17 23:00,-0.0820582,261.251,261.982,249.029,264.965,264.279,252.594,-0.0258063,-0.0544395,235.108,251.452
2014-05-18 00:00,-0.0445074,271.531,268.487,253.621,270.332,268.007,253.753,-0.0130446,-0.0293792,235.038,252.047
2014-05-18 01:00,-0.0,269.283,266.59,252.656,268.024,265.99,253.24,-0.0,-0.0014262,234.329,250.646
2014-05-18 02:00,-0.0,263.636,260.201,248.252,261.069,259.684,248.094,-0.0,-0.0,231.943,247.261
2014-05-18 03:00,-0.0,258.576,258.195,247.332,260.341,258.957,248.094,-0.0,-0.0,232.251,247.808
2014-05-18 04:00,-0.0,276.594,274.392,257.459,276.01,272.405,254.773,-0.0,-0.0,230.593,249.198
2014-05-18 05:00,-0.0,269.865,267.033,252.656,268.024,266.16,251.944,-0.0,-0.0,229.769,248.025
2014-05-18 06:00,-0.0,269.576,263.867,251.305,263.393,258.591,246.044,-0.0,-0.0,227.51,244.175
2014-05-18 07:00,-0.0,253.81,253.963,244.21,256.021,255.235,244.792,-0.0,-0.0,229.517,245.23
2014-05-18 08:00,-0.0,270.713,265.846,251.799,267.016,262.888,248.903,-0.0,-0.0,229.517,246.145
2014-05-18 09:00,0.00875381,256.589,250.954,242.799,249.998,246.246,238.727,-0.0,-0.0,228.921,240.053
2014-05-18 10:00,0.565354,259.045,240.984,236.306,242.978,242.364,237.525,0.543959,0.648589,230.511,237.327
2014-05-18 11:00,0.498347,291.931,271.023,254.926,270.819,263.237,246.319,0.330364,0.522611,230.916,245.804
2014-05-18 12:00,0.295309,290.301,280.789,261.305,280.493,275.861,255.027,0.193119,0.370848,230.43,246.818
2014-05-18 13:00,0.35552,291.065,273.865,256.664,273.372,267.004,247.959,0.222628,0.418738,229.433,244.175
2014-05-18 14:00,0.558717,287.871,250.371,242.513,251.652,250.357,241.229,0.568496,0.66159,230.018,242.848
2014-05-18 15:00,0.470928,275.932,245.248,239.115,244.8,241.921,234.134,0.542434,0.611268,226.592,237.468
2014-05-18 16:00,0.428776,285.665,244.16,239.419,242.283,239.208,233.026,0.379002,0.482029,226.685,235.444
2014-05-18 17:00,0.545368,280.982,244.598,238.657,245.248,244.758,238.128,0.607269,0.685129,229.007,239.39
2014-05-18 18:00,0.572685,281.883,242.37,238.04,240.87,237.345,230.931,0.538359,0.657299,225.254,233.773
2014-05-18 19:00,0.655501,269.283,231.713,231.973,228.583,226.426,222.692,0.661117,0.801257,219.014,224.811
2014-05-18 20:00,0.72654,268.986,247.357,240.469,246.575,242.585,234.916,0.646229,0.822393,225.254,237.185
2014-05-18 21:00,-0.0186259,240.898,225.937,228.378,223.758,221.283,219.551,-0.0,-0.0,215.593,219.843
2014-05-18 22:00,-0.0,258.096,247.357,240.617,246.135,242.585,234.76,-0.0,-0.0,225.931,236.033
2014-05-18 23:00,-0.110152,263.255,249.978,241.5,248.307,244.758,234.134,-0.0297656,-0.0591515,223.952,234.694
2014-05-19 00:00,-0.0599249,260.827,251.53,242.656,248.093,244.328,236.0,-0.0159463,-0.0311131,224.258,235.146
2014-05-19 01:00,-0.00141331,258.096,246.733,240.32,243.895,239.895,232.707,-0.0,-0.0,223.642,233.304
2014-05-19 02:00,-0.0,251.944,237.841,234.35,235.155,231.203,225.535,-0.0,-0.0,221.93,228.603
2014-05-19 03:00,-0.0,268.686,264.329,250.429,265.31,262.537,248.364,-0.0,-0.0,234.472,251.152
2014-05-19 04:00,0.00124321,262.074,259.871,247.991,260.706,259.321,247.279,-0.0,-0.0,232.405,249.093
2014-05-19 05:00,-0.00135484,263.255,258.703,246.801,258.491,256.555,244.932,-0.0,-0.0,231.709,247.261
2014-05-19 06:00,-0.0,257.103,252.29,243.084,251.652,250.156,241.519,-0.0,-0.0,228.312,242.23
2014-05-19 07:00,0.00208544,259.505,253.963,243.79,252.465,250.156,239.913,-0.0,0.00210537,231.865,243.818
2014-05-19 08:00,-0.0,268.073,257.683,246.399,256.213,251.947,238.727,-0.0,-0.0,231.787,243.577
2014-05-19 09:00,-0.0,281.883,280.909,260.228,282.231,280.406,259.37,-0.0,-0.0,241.131,258.882
2014-05-19 10:00,0.352767,282.059,278.474,258.691,278.576,276.631,256.909,0.320813,0.501234,238.733,256.001
2014-05-19 11:00,0.396497,288.841,284.869,263.203,285.618,283.484,261.301,0.217226,0.478775,240.074,258.967
2014-05-19 12:00,0.364165,293.93,290.756,266.557,292.209,289.689,265.185,0.151106,0.421211,242.378,261.914
2014-05-19 13:00,0.291824,293.007,286.328,263.928,286.172,282.758,259.37,0.132199,0.341527,238.294,257.942
2014-05-19 14:00,0.260141,297.749,293.641,268.807,294.788,292.006,265.647,0.0971338,0.301778,242.544,262.935
2014-05-19 15:00,0.263871,296.323,288.303,265.456,289.166,285.919,262.373,0.145482,0.295821,241.419,261.194
2014-05-19 16:00,0.233228,295.902,289.805,266.557,290.897,288.445,264.605,0.146771,0.272049,243.472,263.167
2014-05-19 17:00,0.232277,296.738,291.383,267.446,292.73,290.238,265.069,0.126643,0.270027,243.147,263.244
2014-05-19 18:00,0.198907,296.008,293.031,268.13,294.405,291.871,265.878,0.0943859,0.249355,242.71,263.476
2014-05-19 19:00,0.187239,293.472,292.417,268.033,294.149,292.141,265.993,0.117535,0.254212,241.246,263.167
2014-05-19 20:00,0.236784,290.171,289.911,266.358,291.817,290.375,265.416,0.200484,0.31375,240.134,262.935
2014-05-19 21:00,-0.0,287.01,288.195,265.254,290.5,289.551,265.762,-0.0,-0.0,239.227,262.701
2014-05-19 22:00,-0.00812593,285.97,287.102,264.133,289.032,288.306,264.837,-0.0,-0.0,238.168,261.914
2014-05-19 23:00,-0.0820057,285.97,287.212,264.339,289.568,288.861,265.647,-0.0257898,-0.05677,238.294,262.545
2014-05-20 00:00,-0.0530891,276.594,269.485,253.501,266.847,263.586,246.732,-0.0145002,-0.0311206,228.921,248.348
2014-05-20 01:00,-0.0,276.594,268.916,252.777,267.354,264.623,247.687,-0.0,-0.0,229.007,248.669
2014-05-20 02:00,-0.0,279.667,275.951,257.346,276.01,273.675,253.881,-0.0,-0.0,231.709,254.907
2014-05-20 03:00,-0.00121784,280.239,281.386,260.876,283.656,282.904,262.373,-0.0,-0.0,234.472,260.217
2014-05-20 04:00,-0.0,282.408,283.611,261.731,286.172,285.065,263.318,-0.0,-0.0,235.038,261.275
2014-05-20 05:00,0.00135527,283.76,285.208,262.786,287.543,287.188,264.372,-0.0,-0.0,234.401,260.708
2014-05-20 06:00,-0.00159417,277.026,273.599,255.393,273.686,272.405,254.264,-0.0,-0.0,230.674,252.634
2014-05-20 07:00,-0.00208421,263.255,253.963,243.93,251.652,249.753,240.06,-0.0,-0.0,226.122,238.578
2014-05-20 08:00,-0.0,270.713,263.245,248.642,262.15,260.225,245.767,-0.0,-0.0,228.224,246.032
2014-05-20 09:00,-0.00861052,279.473,277.098,257.12,278.725,276.938,256.909,-0.0,-0.0,231.315,255.275
2014-05-20 10:00,0.19934,282.234,281.148,260.011,283.23,282.028,260.34,0.292553,0.389074,232.405,257.595
2014-05-20 11:00,0.383324,288.977,286.992,263.825,288.897,287.469,263.787,0.195398,0.477812,232.02,258.028
2014-05-20 12:00,0.322191,288.152,281.742,260.337,282.517,279.661,257.777,0.174345,0.391303,230.755,254.256
2014-05-20 13:00,0.309723,296.323,293.031,267.544,294.661,292.276,265.416,0.121642,0.359775,233.456,260.135
2014-05-20 14:00,0.259421,297.749,294.245,268.615,296.056,293.35,266.222,0.0974701,0.301186,234.185,260.627
2014-05-20 15:00,0.23396,297.848,293.031,268.13,294.277,291.735,265.069,0.0990467,0.268829,233.234,259.887
2014-05-20 16:00,0.276681,284.41,265.846,250.806,264.792,260.405,243.383,0.21954,0.344768,227.601,246.032
2014-05-20 17:00,0.21364,293.93,287.541,264.543,288.222,285.635,262.255,0.134545,0.253115,233.159,258.286
2014-05-20 18:00,0.232547,295.902,291.798,267.249,293.377,291.057,265.647,0.130027,0.270207,235.386,261.515
2014-05-20 19:00,0.22051,293.587,290.965,266.458,292.079,290.238,265.301,0.153758,0.291368,236.808,261.755
2014-05-20 20:00,0.164075,289.647,288.52,264.849,289.968,288.445,264.372,0.227327,0.255994,236.94,261.675
2014-05-20 21:00,-0.0181246,284.41,282.331,261.305,283.514,281.735,259.492,-0.0,-0.0,234.615,258.713
2014-05-20 22:00,-0.0,280.05,275.436,256.32,275.396,273.2,253.24,-0.0,-0.0,232.784,254.536
2014-05-20 23:00,-0.0983893,278.075,270.885,253.741,269.679,265.82,247.959,-0.0277687,-0.0567599,227.51,249.721
2014-05-21 00:00,-0.0633831,285.045,284.414,262.155,286.033,285.065,262.373,-0.0159549,-0.0311298,233.456,259.887
2014-05-21 01:00,-0.00141468,280.427,276.718,257.346,276.772,275.085,255.406,-0.0,-0.0,229.517,253.69
2014-05-21 02:00,-0.0,268.382,259.706,246.265,259.051,256.742,243.525,-0.0,-0.0012817,227.959,244.998
2014-05-21 03:00,-0.0,275.251,269.767,252.168,270.169,268.007,249.838,-0.0,-0.0,230.674,252.342
2014-05-21 04:00,-0.0,279.859,280.308,259.793,282.803,282.175,261.66,-0.0,-0.0,234.257,259.97
2014-05-21 05:00,-0.0,281.165,282.682,260.445,285.061,284.492,263.436,-0.0,-0.0,241.93,263.244
2014-05-21 06:00,-0.0,282.581,284.071,261.412,286.31,285.919,264.022,-0.0,-0.0,246.357,264.69
2014-05-21 07:00,-0.00208293,278.075,279.823,259.244,282.231,281.882,262.017,-0.0,-0.0,246.159,264.162
2014-05-21 08:00,-0.0,282.408,283.841,261.091,286.033,285.635,264.138,-0.0,-0.0,246.993,265.137
2014-05-21 09:00,-0.0,282.059,284.185,261.625,286.31,286.06,264.837,-0.0,-0.0,246.896,265.434
2014-05-21 10:00,0.36506,283.76,285.208,261.944,287.134,287.188,265.069,0.297648,0.5187,245.96,265.212
2014-05-21 12:00,0.357691,293.702,292.211,267.052,294.149,293.082,267.592,0.148338,0.437262,245.507,265.36
2014-05-21 13:00,0.301522,295.902,294.044,268.13,295.93,294.282,267.705,0.11417,0.368688,245.709,265.655
2014-05-21 14:00,0.257052,297.549,295.343,269.096,297.309,295.339,267.478,0.0936703,0.308784,245.405,265.655
2014-05-21 15:00,0.225455,298.242,296.033,269.765,297.931,295.865,268.158,0.0784488,0.271261,246.159,266.166
2014-05-21 16:00,0.209365,297.947,295.541,269.575,297.434,294.812,267.592,0.0725193,0.251398,246.701,265.875
2014-05-21 17:00,0.212571,297.349,293.742,268.421,295.803,293.617,267.365,0.0929913,0.246793,246.603,265.655
2014-05-21 18:00,0.202553,296.008,294.245,268.904,296.433,294.415,267.251,0.0838864,0.248943,246.208,264.989
2014-05-21 19:00,0.201923,293.702,293.031,268.033,295.043,293.483,267.478,0.110302,0.263036,246.159,264.839
2014-05-21 20:00,0.210392,290.301,290.651,266.657,292.86,291.735,267.365,0.197225,0.303434,246.009,264.162
2014-05-21 21:00,-0.01791,286.569,287.76,264.543,290.234,289.689,265.878,-0.0,-0.0,244.945,263.706
2014-05-21 22:00,-0.0,285.97,286.992,264.133,289.3,288.861,265.993,-0.0,-0.0,244.894,263.476
2014-05-21 23:00,-0.100723,285.357,286.439,263.515,288.628,288.167,265.185,-0.0277663,-0.0567551,245.355,262.857
2014-05-22 00:00,-0.0651186,285.512,286.328,263.721,288.628,288.167,265.301,-0.0174113,-0.0328706,244.894,262.309
2014-05-22 01:00,-0.0,285.202,286.217,263.515,288.358,287.469,265.532,-0.0,-0.0,244.531,261.435
2014-05-22 02:00,-0.00127031,284.73,284.755,262.786,286.86,285.635,263.553,-0.0,-0.0,243.686,259.638
2014-05-22 03:00,-0.00121922,284.73,284.869,263.099,287.134,285.919,263.905,-0.0,-0.0,244.479,259.804
2014-05-22 04:00,-0.00124501,283.924,284.071,262.471,286.31,284.922,263.436,-0.0,-0.0,244.058,259.721
2014-05-22 05:00,-0.0,283.261,283.495,261.944,285.479,284.205,263.083,-0.0,-0.0,243.364,258.628
2014-05-22 06:00,0.00159411,283.093,283.611,262.155,285.479,284.349,262.61,-0.0,0.00160935,242.82,258.286
2014-05-22 07:00,-0.0,282.408,282.214,261.198,283.797,282.613,261.898,-0.0,-0.0,241.986,257.421
2014-05-22 08:00,0.00326048,283.093,283.38,261.944,285.895,285.065,263.2,-0.0,-0.0,242.322,257.942
2014-05-22 09:00,0.00847036,282.059,283.032,261.519,285.201,284.349,262.847,-0.0,-0.0,241.704,257.421
2014-05-22 10:00,0.385278,283.428,283.38,262.155,285.618,284.349,262.492,0.326214,0.513984,242.042,257.158
2014-05-22 12:00,0.481474,299.391,278.226,259.464,280.201,277.243,258.76,0.32282,0.471272,241.361,256.36
2014-05-22 13:00,0.300761,296.114,291.174,267.348,292.989,289.689,264.488,0.125735,0.345386,241.533,256.982
2014-05-22 14:00,0.259549,297.749,293.336,268.615,294.788,291.464,265.185,0.0981316,0.291694,241.533,257.769
2014-05-22 15:00,0.227722,298.045,293.843,269.288,295.677,292.276,265.647,0.0826336,0.259614,241.986,257.595
2014-05-22 16:00,0.210021,298.339,293.944,269.479,295.93,292.679,265.647,0.0740934,0.242547,242.266,257.246
2014-05-22 17:00,0.20081,297.649,293.641,269.096,295.55,292.276,265.532,0.0767371,0.22964,242.489,256.982
2014-05-22 18:00,0.201041,296.114,292.827,268.904,294.788,291.735,265.069,0.0879162,0.240879,243.039,257.246
2014-05-22 19:00,0.206029,293.816,291.487,267.74,293.764,290.921,265.185,0.124603,0.264125,243.953,258.028
2014-05-22 20:00,0.227027,290.813,289.699,266.657,291.948,289.964,265.647,0.243483,0.320877,245.048,259.22
2014-05-22 21:00,-0.0177172,287.444,287.432,264.849,289.835,288.445,264.953,-0.0,-0.0,245.809,259.471
2014-05-22 22:00,-0.00404656,287.01,287.102,264.849,289.568,288.445,264.721,-0.0,-0.0,246.406,259.721
2014-05-22 23:00,-0.107751,285.97,286.439,264.236,288.897,287.609,264.721,-0.0297497,-0.0591201,246.009,259.554
2014-05-23 00:00,-0.0651444,286.121,285.994,263.721,288.628,287.469,264.255,-0.0174182,-0.0328836,245.759,258.882
2014-05-23 01:00,-0.00141622,285.202,285.658,263.721,288.222,286.907,264.022,-0.0,-0.0,245.304,258.372
2014-05-23 02:00,-0.0,284.57,285.546,263.515,288.087,287.188,264.953,-0.0,-0.0,245.202,258.457
2014-05-23 03:00,-0.00121992,284.41,284.982,263.411,287.951,287.048,264.721,-0.0,-0.0,244.531,258.457
2014-05-23 04:00,-0.0,283.428,284.071,262.681,286.585,285.35,263.905,-0.0,-0.0,244.894,258.028
2014-05-23 05:00,-0.0,283.76,284.3,262.89,286.585,285.208,263.553,-0.0,0.00136944,245.099,257.855
2014-05-23 06:00,-0.00318807,276.811,277.098,258.469,278.873,277.853,259.492,-0.0,-0.0,243.418,256.181
2014-05-23 07:00,0.00208022,272.836,273.065,256.089,275.55,273.675,258.023,-0.0,-0.0,242.82,256.001
2014-05-23 08:00,-0.0,283.261,283.148,261.838,285.479,283.917,262.136,-0.0,-0.0,241.817,256.271
2014-05-23 09:00,0.00840157,281.705,280.549,260.445,281.655,279.211,258.27,-0.0,-0.0,239.834,254.629
2014-05-23 10:00,0.420211,283.594,282.096,261.091,283.656,281.735,260.34,0.355792,0.551497,238.733,254.349
2014-05-23 11:00,0.334746,287.871,285.658,263.411,287.679,285.35,262.255,0.182204,0.390247,238.795,255.183
2014-05-23 12:00,0.365759,293.587,289.058,265.959,290.764,287.748,262.61,0.155883,0.403951,234.041,252.925
2014-05-23 13:00,0.347144,297.248,284.3,263.411,285.757,281.293,259.37,0.180509,0.36189,232.405,251.252
2014-05-23 14:00,0.41272,299.108,275.951,258.022,278.278,275.861,258.147,0.285661,0.405092,233.75,252.439
2014-05-23 15:00,0.508146,293.93,270.189,253.98,273.057,272.565,257.158,0.41051,0.502022,232.86,251.949
2014-05-23 16:00,0.24258,297.947,289.593,266.657,291.029,286.343,262.136,0.112155,0.265844,231.865,251.652
2014-05-23 17:00,0.274518,295.796,279.091,259.902,278.576,273.2,254.264,0.211303,0.291539,231.63,248.455
2014-05-23 18:00,0.181758,291.563,281.978,261.838,282.803,279.361,259.005,0.178292,0.217062,231.156,249.825
2014-05-23 19:00,0.538451,286.421,269.059,253.261,271.464,269.984,254.646,0.489265,0.593318,231.787,249.721
2014-05-23 20:00,0.220937,290.685,286.992,265.052,288.628,285.493,262.373,0.277376,0.346111,232.097,250.849
2014-05-23 21:00,-0.0,286.271,284.755,263.515,286.86,284.061,261.66,-0.0,-0.0,232.86,251.051
2014-05-23 22:00,-0.00404264,285.818,285.546,263.618,287.951,285.919,263.083,-0.0,-0.0,231.943,251.152
2014-05-23 23:00,-0.0843345,285.665,285.208,263.411,287.679,285.777,263.2,-0.027769,-0.0591255,231.394,251.051
2014-05-24 00:00,-0.0531676,284.888,284.185,262.89,286.722,284.636,261.66,-0.0159738,-0.0328981,232.251,250.95
2014-05-24 01:00,-0.00141704,282.059,280.549,260.553,282.517,280.554,260.098,-0.0,-0.0,232.328,249.303
2014-05-24 02:00,-0.0,285.202,284.528,263.099,286.585,284.349,261.779,-0.0,-0.0,233.603,250.95
2014-05-24 03:00,0.00122062,284.57,283.495,262.576,285.479,283.339,261.779,-0.0,-0.0,232.86,250.238
2014-05-24 04:00,-0.0,280.982,278.474,259.024,279.318,276.631,258.27,-0.0,-0.0,232.86,249.093
2014-05-24 05:00,-0.00135684,270.989,266.59,251.922,268.358,264.279,250.104,-0.0,0.00136981,232.481,247.481
2014-05-24 06:00,-0.0,265.095,264.175,250.303,266.847,265.65,252.594,-0.0,-0.0,233.234,249.303
2014-05-24 07:00,-0.0,259.505,260.365,247.465,262.863,262.537,251.291,-0.0,-0.0,233.456,248.987
2014-05-24 08:00,-0.00649379,261.666,262.616,249.158,265.138,264.795,252.594,-0.0,-0.0,233.085,249.198
2014-05-24 09:00,-0.0,274.073,271.162,254.572,273.686,271.444,255.153,-0.0,-0.0,232.935,249.721
2014-05-24 10:00,0.613279,284.087,278.474,259.244,279.613,274.617,254.773,0.422656,0.662338,232.175,248.241
2014-05-24 11:00,0.272668,290.041,277.098,258.58,277.978,272.086,252.335,0.207102,0.275275,233.085,247.59
2014-05-24 12:00,0.350093,292.889,288.412,265.758,290.101,286.626,262.61,0.148212,0.400731,233.603,250.544
2014-05-24 13:00,0.301063,295.69,290.545,267.151,291.948,288.306,262.847,0.115431,0.332615,233.75,251.352
2014-05-24 14:00,0.256324,297.146,292.005,268.13,293.119,289.137,263.318,0.0932111,0.283656,234.329,251.352
2014-05-24 15:00,0.230688,298.144,292.622,268.421,293.635,289.964,263.67,0.0791852,0.245483,234.329,251.552
2014-05-24 16:00,0.209687,298.144,292.725,269.096,294.021,289.826,263.67,0.0745402,0.229467,234.686,252.146
2014-05-24 17:00,0.212763,297.045,291.487,268.227,293.119,289.276,263.787,0.0923439,0.232847,234.543,252.342
2014-05-24 18:00,0.249047,295.583,289.593,266.756,291.423,287.888,263.2,0.144971,0.271632,234.401,252.244
2014-05-24 19:00,0.266945,294.268,289.805,266.954,291.686,288.445,263.787,0.161843,0.299441,234.185,252.439
2014-05-24 20:00,0.176335,290.685,288.628,265.959,290.367,287.888,263.436,0.194743,0.247681,234.041,252.439
2014-05-24 21:00,-0.0,287.587,286.772,264.849,288.897,286.767,263.67,-0.0,-0.0,234.827,252.925
2014-05-24 22:00,-0.00403946,284.888,284.528,263.203,286.722,284.779,262.61,-0.00342021,-0.0,234.897,253.117
2014-05-24 23:00,-0.10778,285.97,285.433,263.618,287.679,285.635,262.728,-0.0317416,-0.0615014,234.756,253.309
2014-05-25 00:00,-0.0634892,282.408,282.214,261.625,284.641,282.904,261.898,-0.0174344,-0.0311819,234.756,253.5
2014-05-25 01:00,-0.0,285.665,284.642,263.307,286.585,284.636,261.898,-0.0,-0.0,234.543,253.117
2014-05-25 02:00,-0.0,283.924,282.214,261.731,283.797,281.588,260.219,-0.0,-0.0,233.677,251.751
2014-05-25 03:00,-0.0,284.57,283.956,262.89,286.447,284.779,262.492,-0.0,-0.0,234.756,253.309
2014-05-25 04:00,-0.00124675,284.888,284.755,262.995,286.997,285.493,263.083,-0.0,-0.0,234.756,253.974
2014-05-25 05:00,-0.0,284.249,283.956,262.576,286.585,285.065,262.61,-0.0,-0.0,234.329,253.595
2014-05-25 06:00,0.0015938,284.087,284.528,262.995,286.86,285.493,263.083,-0.0,-0.0,234.615,253.974
2014-05-25 07:00,-0.0,284.249,284.528,262.995,286.997,285.635,263.436,-0.0,-0.0,234.329,253.785
2014-05-25 08:00,-0.0,284.087,284.414,262.995,286.86,285.635,263.436,-0.0,-0.0,234.615,254.536
2014-05-25 09:00,-0.0,283.76,284.3,262.89,286.997,286.06,262.965,-0.0,-0.0,235.247,254.814
2014-05-25 10:00,0.334096,285.045,285.095,263.203,287.543,286.343,263.436,0.307477,0.454608,235.662,254.907
2014-05-25 11:00,0.359085,289.113,287.651,264.95,289.835,288.027,265.069,0.184472,0.448055,236.139,255.183
2014-05-25 12:00,0.351603,293.587,290.017,266.458,291.817,289.276,264.605,0.148851,0.399959,235.799,255.275
2014-05-25 13:00,0.298337,296.114,291.902,267.642,293.506,290.511,264.953,0.114234,0.345312,236.207,255.821
2014-05-25 14:00,0.260438,298.045,293.133,268.421,294.533,291.329,265.416,0.0949039,0.281232,235.799,255.73
2014-05-25 15:00,0.320487,297.749,287.322,265.254,288.897,286.06,263.436,0.221056,0.321973,234.472,255.275
2014-05-25 16:00,0.31303,286.864,278.101,259.024,280.201,278.911,260.098,0.392806,0.43757,233.677,254.162
2014-05-25 17:00,0.367587,287.01,271.984,254.926,274.0,273.359,257.53,0.415992,0.457993,232.405,252.925
2014-05-25 18:00,0.508539,284.888,268.487,252.899,270.981,270.635,256.785,0.642092,0.702548,231.943,251.85
2014-05-25 19:00,0.585411,287.871,272.256,255.393,274.933,273.832,257.282,0.560075,0.667805,232.481,251.751
2014-05-25 20:00,0.21594,289.647,286.105,264.339,287.815,285.065,262.017,0.248135,0.327006,232.328,251.552
2014-05-25 21:00,-0.0,285.818,284.414,263.099,286.31,283.917,261.66,-0.0146113,-0.0,233.968,252.342
2014-05-25 22:00,-0.00807403,273.088,272.662,255.742,275.087,273.2,256.66,-0.0,-0.0,233.75,251.85
2014-05-25 23:00,-0.086715,281.883,280.549,260.445,282.803,280.108,259.735,-0.0277811,-0.0567853,233.75,252.244
2014-05-26 00:00,-0.0652399,284.41,283.264,262.576,285.061,282.467,261.182,-0.0188974,-0.0329318,233.968,252.047
2014-05-26 01:00,-0.0,280.239,278.598,259.354,280.347,277.701,258.392,-0.0,-0.0,234.329,251.85
2014-05-26 02:00,-0.00127346,284.57,283.726,262.681,286.033,283.773,261.66,-0.0,-0.0,234.257,252.634
2014-05-26 03:00,0.00122202,281.883,280.549,260.661,282.231,280.998,260.461,-0.0,-0.0,233.603,251.949
2014-05-26 04:00,-0.00124731,274.551,273.997,255.974,276.468,275.24,257.282,-0.0,-0.0,233.823,251.85
2014-05-26 05:00,-0.0,264.377,263.088,248.771,265.138,263.759,249.705,-0.0,-0.0,233.085,248.882
2014-05-26 06:00,-0.0,263.255,264.021,249.286,265.31,264.967,252.205,-0.0,-0.0,232.86,249.408
2014-05-26 07:00,-0.0,233.989,234.477,231.625,234.633,234.216,230.44,-0.0,-0.0,228.312,232.022
2014-05-26 08:00,-0.00323309,260.827,259.54,246.801,260.888,259.139,248.094,-0.0,-0.0,233.159,248.133
2014-05-26 09:00,-0.00820077,282.234,281.978,261.198,284.361,282.613,261.779,-0.0,-0.0,231.315,252.828
2014-05-26 10:00,0.725102,274.073,268.487,252.899,270.657,268.835,252.723,0.739237,0.896368,231.709,249.093
2014-05-26 11:00,0.284168,288.152,286.661,264.236,288.763,286.907,263.436,0.178735,0.377048,232.784,253.595
2014-05-26 12:00,0.532141,296.84,283.956,262.471,286.997,285.493,263.083,0.421087,0.48451,233.085,254.068
2014-05-26 13:00,0.327989,295.368,288.195,265.355,289.968,287.609,264.022,0.192135,0.348451,233.75,254.814
2014-05-26 14:00,0.45471,295.368,282.916,262.155,285.618,284.349,262.61,0.422802,0.495781,234.257,254.814
2014-05-26 15:00,0.37316,294.268,284.982,263.618,287.27,285.493,262.847,0.330557,0.4163,235.108,255.091
2014-05-26 16:00,0.264004,295.796,288.628,265.859,290.5,287.609,264.138,0.169012,0.287655,235.731,255.821
2014-05-26 17:00,0.231957,294.268,288.628,265.758,290.234,287.888,264.372,0.167471,0.265035,236.004,256.091
2014-05-26 18:00,0.246066,294.491,290.335,267.249,292.34,289.826,265.185,0.147734,0.284552,236.274,257.158
2014-05-26 19:00,0.235621,292.771,289.805,266.855,291.817,289.413,264.721,0.157352,0.291479,235.731,256.628
2014-05-26 20:00,0.217129,289.91,289.058,266.159,291.16,289.413,264.372,0.236369,0.313149,236.542,257.158
2014-05-26 21:00,-0.0,287.155,287.212,264.645,289.568,288.167,264.721,-0.0,-0.0,239.471,258.114
2014-05-26 22:00,-0.00403528,286.569,286.661,264.236,289.166,287.888,264.605,-0.0,-0.0,241.874,258.372
2014-05-26 23:00,-0.0844001,285.97,286.328,264.133,288.628,287.329,264.372,-0.0277906,-0.0591715,243.472,258.967
2014-05-27 00:00,-0.0566884,285.357,285.994,263.721,288.222,287.188,264.138,-0.0159993,-0.0312165,245.557,260.217
2014-05-27 01:00,-0.00141972,284.73,284.982,263.411,286.86,285.493,262.847,-0.0,-0.0,246.505,260.545
2014-05-27 02:00,-0.00127427,285.357,285.321,263.411,287.407,285.635,263.318,-0.0,-0.0,246.847,260.708
2014-05-27 03:00,-0.0,277.026,277.601,258.469,280.054,278.911,260.461,-0.0,-0.0,246.059,261.435
2014-05-27 04:00,0.00124785,281.526,281.86,261.091,284.22,282.758,262.373,-0.0,-0.0,246.009,261.914
2014-05-27 05:00,-0.00135782,280.239,282.916,261.625,285.479,284.636,263.2,-0.0,-0.0,246.009,262.072
2014-05-27 06:00,-0.0,279.278,282.214,261.625,285.201,284.779,263.905,-0.0,-0.0,245.759,262.623
2014-05-27 07:00,-0.0,277.661,280.909,260.445,284.22,283.917,263.67,-0.0,-0.0,246.307,263.858
2014-05-27 08:00,-0.0,277.451,280.669,260.119,283.372,283.194,263.2,-0.0,-0.0,245.91,264.162
2014-05-27 09:00,-0.0,279.081,282.682,261.838,285.895,285.493,263.553,-0.0,-0.0,245.557,264.162
2014-05-27 10:00,0.467442,283.428,284.414,262.576,287.27,286.767,264.837,0.497919,0.517579,245.709,264.314
2014-05-27 11:00,0.408446,289.91,286.328,263.721,288.897,288.027,264.837,0.273206,0.445338,245.557,264.389
2014-05-27 12:00,0.35709,292.653,289.911,266.358,291.948,290.511,266.108,0.158574,0.405881,244.842,264.615
2014-05-27 13:00,0.294679,294.491,292.314,267.935,294.021,292.141,266.681,0.111791,0.341928,243.793,264.162
2014-05-27 14:00,0.257075,296.008,293.539,268.711,295.424,293.483,266.795,0.0926831,0.287997,241.986,263.629
2014-05-27 15:00,0.224845,296.84,294.746,269.384,296.684,294.812,267.251,0.0772154,0.257155,241.874,263.858
2014-05-27 16:00,0.203383,296.635,294.945,269.575,297.06,295.471,267.592,0.0697016,0.239548,242.266,264.086
2014-05-27 17:00,0.194719,295.69,294.546,269.288,296.809,295.602,267.592,0.0702216,0.234804,241.419,263.858
2014-05-27 18:00,0.197402,294.491,293.944,268.615,296.056,295.208,268.497,0.0778722,0.244583,241.304,264.086
2014-05-27 19:00,0.20974,292.174,292.005,267.446,294.405,293.883,267.251,0.107115,0.268882,240.489,263.782
2014-05-27 20:00,0.241615,288.568,289.486,265.859,291.555,291.193,267.251,0.191377,0.32261,239.714,263.552
2014-05-27 21:00,-0.0170376,284.73,286.661,263.825,288.763,288.584,265.878,-0.0,-0.0172005,238.42,263.476
2014-05-27 22:00,-0.0,283.924,285.77,263.099,287.679,287.748,265.878,-0.0,-0.0,238.671,263.858
2014-05-27 23:00,-0.105544,282.923,284.982,262.681,287.134,287.048,265.069,-0.0297881,-0.0591963,238.919,263.782
2014-05-28 00:00,-0.0584422,282.753,284.755,262.366,286.585,286.907,265.301,-0.0160092,-0.0312358,238.981,264.162
2014-05-28 01:00,-0.0,282.059,283.841,261.838,285.895,286.485,264.721,-0.0,-0.0,238.671,263.782
2014-05-28 02:00,-0.0,282.059,283.841,261.838,285.618,286.202,265.185,-0.0,-0.0,239.593,264.162
2014-05-28 03:00,-0.0,281.165,283.264,261.198,284.921,285.493,264.605,-0.0,-0.0,239.714,263.934
2014-05-28 04:00,-0.0,280.613,282.566,261.305,284.361,284.922,264.372,-0.0,-0.0,240.014,264.314
2014-05-28 05:00,0.0013581,280.05,281.978,260.661,283.938,284.349,263.905,-0.0,-0.0,240.607,264.238
2014-05-28 06:00,-0.0,279.667,281.742,260.119,283.514,284.061,264.138,-0.0,-0.0,240.134,264.389
2014-05-28 07:00,0.00207265,277.026,280.429,259.683,283.514,283.917,263.787,-0.0,-0.0,240.134,264.01
2014-05-28 08:00,-0.00321913,276.155,280.187,259.354,283.088,283.339,263.67,-0.0,-0.0,240.665,264.162
2014-05-28 09:00,-0.00807191,276.376,279.823,259.024,282.803,283.484,263.436,-0.0,-0.0,240.782,264.01
2014-05-28 10:00,0.614733,279.081,279.945,259.244,282.946,283.194,263.436,0.728691,0.713701,241.419,264.162
2014-05-28 11:00,0.682155,288.568,279.702,258.913,282.66,283.339,263.2,0.678482,0.705271,241.361,264.086
2014-05-28 12:00,0.677033,296.531,279.823,259.134,282.946,283.339,263.553,0.613582,0.665785,241.647,264.314
2014-05-28 13:00,0.564479,298.436,281.624,260.553,284.641,284.492,264.022,0.440553,0.538862,241.361,264.162
2014-05-28 14:00,0.399241,296.738,286.328,263.411,288.763,288.445,265.762,0.250711,0.377867,241.073,264.389
2014-05-28 15:00,0.228618,293.356,292.211,266.756,294.405,293.483,267.023,0.0800981,0.275372,241.361,264.615
2014-05-28 16:00,0.212008,293.816,293.031,267.348,295.297,294.547,267.478,0.0712548,0.251614,240.607,264.464
2014-05-28 17:00,0.198837,293.587,292.929,267.544,295.297,294.679,267.932,0.0673419,0.244535,240.548,264.464
2014-05-28 18:00,0.195678,292.174,292.211,266.954,294.788,294.149,267.932,0.0761747,0.249774,240.665,264.615
2014-05-28 19:00,0.20369,290.041,290.756,265.859,292.989,292.814,267.251,0.101782,0.269688,240.489,264.615
2014-05-28 20:00,0.227081,286.864,287.869,263.825,289.968,289.964,266.108,0.185639,0.316209,241.073,264.69
2014-05-28 22:00,-0.00403389,281.526,283.726,260.769,285.479,285.919,264.255,-0.0,-0.0,242.765,265.507
2014-05-28 23:00,-0.105597,281.165,283.264,260.661,284.921,285.35,264.488,-0.0317897,-0.0639636,242.82,265.581
2014-05-29 00:00,-0.0653606,280.613,282.916,260.228,284.641,285.35,264.022,-0.0189323,-0.0329927,243.256,265.801
2014-05-29 01:00,-0.00142165,280.239,282.448,260.011,284.22,284.636,264.022,-0.0,-0.0,244.739,266.239
2014-05-29 02:00,-0.0,279.473,281.978,259.793,283.514,284.205,264.138,-0.0,-0.0,246.307,266.888
2014-05-29 03:00,-0.0,279.278,281.624,259.244,283.088,283.629,263.67,-0.0,-0.0,249.245,267.882
2014-05-29 04:00,-0.0,278.883,281.148,258.691,282.517,283.339,263.553,-0.0,-0.0,250.008,267.953
2014-05-29 05:00,-0.0,278.684,280.429,258.469,282.087,282.758,263.905,-0.0,-0.0,250.318,267.953
2014-05-29 06:00,-0.0,278.279,280.187,258.358,281.799,282.467,263.67,-0.0,-0.0,250.713,267.953
2014-05-29 07:00,-0.0,277.869,280.066,258.246,281.51,282.467,263.318,-0.0,-0.0,250.053,267.812
2014-05-29 08:00,-0.0,277.869,279.823,258.134,281.221,281.882,262.847,-0.0,-0.0,249.651,267.53
2014-05-29 09:00,-0.00800908,277.451,279.458,258.022,281.366,281.735,263.083,-0.0,-0.0,249.651,267.388
2014-05-29 10:00,0.29767,278.684,280.308,258.691,282.087,282.758,262.965,0.344892,0.506131,249.696,267.174
2014-05-29 11:00,0.334875,284.087,284.3,261.091,285.895,286.343,265.185,0.189025,0.463289,249.964,267.246
2014-05-29 12:00,0.327318,288.705,288.303,263.928,290.234,289.551,265.993,0.13857,0.416872,250.582,267.317
2014-05-29 13:00,0.296664,292.771,291.591,265.959,293.506,292.814,266.795,0.112544,0.353955,251.531,267.882
2014-05-29 14:00,0.258596,295.042,293.742,267.642,295.93,294.679,267.592,0.0932315,0.298123,251.912,268.163
2014-05-29 15:00,0.229229,296.427,295.045,268.904,297.434,295.996,268.271,0.0789738,0.261745,251.016,268.163
2014-05-29 16:00,0.204433,296.531,295.541,268.904,297.683,296.389,268.497,0.0700615,0.242423,248.971,267.388
2014-05-29 17:00,0.197517,295.902,295.442,268.807,297.931,296.65,268.497,0.0675085,0.230504,247.474,266.888
2014-05-29 18:00,0.196171,294.602,294.646,268.227,297.06,295.996,268.609,0.0725483,0.239021,246.75,266.529
2014-05-29 19:00,0.200911,292.174,292.622,266.855,295.17,294.415,267.705,0.0963962,0.260301,246.896,266.673
2014-05-29 20:00,0.212316,288.152,289.379,265.052,291.555,291.329,267.251,0.173109,0.301671,247.331,266.312
2014-05-29 21:00,-0.0168812,284.087,286.105,262.89,287.951,288.167,265.532,-0.0,-0.0,246.993,266.166
2014-05-29 22:00,-0.00403421,283.261,285.321,262.366,287.543,287.609,265.878,-0.0,-0.0,247.234,266.384
2014-05-29 23:00,-0.122092,282.408,284.755,261.625,286.722,287.188,266.222,-0.0337958,-0.064,246.896,266.529
2014-05-30 00:00,-0.0481938,282.059,284.185,261.519,286.033,286.485,265.301,-0.0160308,-0.0312779,248.09,266.888
2014-05-30 01:00,-0.0028453,281.705,283.611,261.305,285.34,285.919,264.953,-0.0,-0.0,248.371,267.174
2014-05-30 02:00,-0.0,280.982,283.264,260.984,284.781,285.493,264.837,-0.0,-0.0,248.043,267.246
2014-05-30 03:00,-0.00122479,280.799,282.916,260.769,284.501,285.208,264.837,-0.0,-0.0,247.996,267.459
2014-05-30 04:00,0.00124941,280.239,282.448,260.445,284.22,284.922,265.069,-0.0,-0.0,247.474,267.459
2014-05-30 05:00,-0.0013586,279.859,281.86,260.119,283.656,284.492,264.372,-0.0,-0.0,246.554,266.888
2014-05-30 06:00,0.00159265,279.473,281.624,260.337,283.23,283.917,264.138,-0.0,-0.0,246.258,266.456
2014-05-30 07:00,-0.0,278.883,281.505,259.902,283.088,283.917,264.138,-0.0,-0.0,246.059,266.529
2014-05-30 08:00,-0.00320505,279.081,281.267,259.793,282.946,283.773,264.138,-0.0,-0.0,245.557,266.529
2014-05-30 09:00,-0.0,279.081,281.267,259.574,282.946,283.773,263.787,-0.0,-0.0,245.91,266.529
2014-05-30 10:00,0.319488,280.239,281.978,260.228,283.656,284.349,264.488,0.311086,0.516067,246.009,266.673
2014-05-30 11:00,0.357681,285.512,286.328,263.099,288.087,288.306,265.878,0.176075,0.478668,246.406,267.032
2014-05-30 12:00,0.351395,290.939,290.44,265.859,292.6,292.006,267.365,0.145552,0.426215,245.91,267.246
2014-05-30 13:00,0.305362,294.38,293.438,268.033,295.55,294.679,268.609,0.112911,0.355109,245.048,266.601
2014-05-30 14:00,0.264351,296.531,295.343,269.288,297.558,296.389,268.497,0.0934966,0.30066,245.456,266.888
2014-05-30 15:00,0.228238,297.549,296.425,270.145,298.795,297.3,268.946,0.0791785,0.262423,245.96,266.745
2014-05-30 16:00,0.21469,297.349,295.738,269.575,298.302,296.65,268.609,0.0743636,0.244656,245.658,266.312
2014-05-30 17:00,0.199799,296.531,295.935,269.955,298.302,297.04,268.722,0.06613,0.232883,246.009,266.456
2014-05-30 18:00,0.196638,295.042,295.045,269.288,297.434,296.519,268.722,0.0708073,0.241872,245.859,266.888
2014-05-30 19:00,0.194719,292.294,293.133,267.935,295.55,294.812,268.722,0.0909617,0.257588,246.505,267.388
2014-05-30 20:00,0.213124,288.152,289.593,265.557,291.686,291.735,267.365,0.167085,0.286882,246.603,267.388
2014-05-30 21:00,-0.0168249,284.087,285.994,262.995,287.815,288.306,265.993,-0.0,-0.0,246.554,267.388
2014-05-30 22:00,-0.00403517,283.261,284.982,262.155,286.86,287.188,265.532,-0.0,-0.0,247.041,267.246
2014-05-30 23:00,-0.0869289,282.581,284.528,261.838,286.172,286.485,264.837,-0.0278496,-0.0592972,247.186,266.745
2014-05-31 00:00,-0.0654534,282.753,284.528,262.049,286.585,287.048,265.416,-0.0175008,-0.0330395,247.57,266.817
2014-05-31 01:00,-0.0,282.408,284.414,262.049,286.447,286.767,265.762,-0.0,-0.0,247.331,266.456
2014-05-31 02:00,-0.0,282.408,284.071,262.049,286.033,286.202,265.416,-0.0,-0.0,247.474,266.239
2014-05-31 03:00,-0.0,281.526,283.611,261.838,285.618,285.919,265.069,-0.0,-0.0,247.474,265.875
2014-05-31 04:00,-0.0,281.705,283.495,261.305,285.34,285.635,264.721,-0.0,-0.0,247.617,265.801
2014-05-31 05:00,-0.0,281.346,283.264,261.305,285.201,285.35,264.488,-0.0,-0.0,246.993,265.434
2014-05-31 06:00,-0.00159232,281.346,283.264,261.305,285.061,285.35,263.905,-0.0,-0.0,246.944,265.434
2014-05-31 07:00,-0.0020676,281.883,283.726,261.838,285.757,285.919,264.953,-0.0,-0.0,246.554,265.728
2014-05-31 08:00,-0.0,281.526,283.148,261.305,285.061,284.779,264.138,-0.0,-0.0,246.307,265.286
2014-05-31 09:00,-0.0,280.982,282.799,261.198,284.501,284.492,263.67,-0.0,-0.0,246.109,265.36
2014-05-31 10:00,0.358404,282.234,283.032,261.412,284.641,284.349,263.083,0.344841,0.526299,245.96,264.914
2014-05-31 12:00,0.362946,291.563,289.379,265.456,290.897,289.413,264.953,0.154727,0.4151,245.355,265.36
2014-05-31 13:00,0.30052,293.816,291.487,266.954,292.989,290.921,265.878,0.119838,0.344498,245.608,265.948
2014-05-31 14:00,0.273471,295.902,292.622,267.935,294.149,291.871,266.222,0.110802,0.298104,245.507,266.094
2014-05-31 15:00,0.266946,296.84,290.756,266.954,292.73,290.784,266.108,0.137228,0.29356,245.658,266.021
2014-05-31 16:00,0.242907,295.368,290.017,266.259,291.555,289.689,265.185,0.132512,0.269917,244.997,265.36
2014-05-31 17:00,0.251221,294.602,289.805,266.259,291.423,289.413,265.185,0.147971,0.29038,244.894,264.839
2014-05-31 18:00,0.280893,293.124,287.76,265.052,289.568,287.748,263.67,0.187964,0.35676,244.739,264.54
2014-05-31 19:00,0.191821,292.889,292.108,267.446,294.149,292.814,267.023,0.105427,0.254808,244.997,265.212
2014-05-31 20:00,0.221765,289.381,289.593,265.859,291.423,290.375,266.108,0.20118,0.303843,244.739,264.615
2014-05-31 21:00,-0.0,286.271,287.212,264.133,289.434,289.137,265.878,-0.0,-0.0,244.945,264.54
2014-05-31 22:00,-0.0,285.202,286.661,263.928,289.032,288.584,265.878,-0.0,-0.00407537,244.894,264.314
2014-05-31 23:00,-0.0846395,285.045,286.772,263.825,288.897,288.722,266.337,-0.0278694,-0.0593393,244.842,264.69
