# timestamp,IR_016,IR_039,IR_087,IR_097,IR_108,IR_120,IR_134,VIS006,VIS008,WV_062,WV_073
2014-06-01 00:00,-0.0568843,283.093,284.071,262.471,286.31,285.777,264.138,-0.0160546,-0.0313244,244.164,263.706
2014-06-01 01:00,-0.00142472,283.594,284.755,262.576,286.447,286.202,263.67,-0.0,-0.0,243.899,263.399
2014-06-01 02:00,-0.00127845,283.428,285.095,262.786,287.407,287.188,265.301,-0.0,-0.0,244.111,263.858
2014-06-01 03:00,-0.00122613,282.753,284.642,262.576,287.134,286.767,264.372,-0.0,-0.0,243.633,262.701
2014-06-01 04:00,-0.0,281.883,283.841,261.944,286.172,285.919,264.255,-0.0,-0.0,243.793,262.309
2014-06-01 05:00,-0.0,282.923,284.185,262.366,286.722,286.485,264.837,-0.0,-0.0,242.71,261.834
2014-06-01 06:00,0.00159197,281.883,283.38,261.625,285.757,285.493,264.138,-0.0,-0.0,241.533,260.217
2014-06-01 07:00,-0.0,281.883,283.495,261.944,285.757,285.635,263.905,-0.0,-0.0,240.193,258.798
2014-06-01 08:00,-0.0,282.059,283.264,261.625,285.757,285.635,264.138,-0.0,-0.0,240.607,257.769
2014-06-01 09:00,-0.0,281.526,282.682,261.305,285.34,285.065,263.67,-0.0,-0.0,241.304,257.595
2014-06-01 10:00,0.33234,282.581,283.38,261.519,285.895,285.35,264.138,0.35174,0.4865,242.155,258.457
2014-06-01 11:00,0.361928,287.3,286.217,263.618,288.763,287.469,264.138,0.192418,0.446113,241.704,257.942
2014-06-01 12:00,0.351626,292.053,289.805,266.059,292.34,290.238,265.069,0.151018,0.398717,241.59,257.942
2014-06-01 13:00,0.305347,295.26,291.694,267.544,294.021,291.464,265.185,0.118565,0.331828,240.548,256.894
2014-06-01 14:00,0.264112,296.738,293.539,268.518,295.55,292.948,266.337,0.0982802,0.287017,240.371,256.805
2014-06-01 15:00,0.230957,297.749,294.346,269.479,296.809,293.883,266.222,0.0822662,0.250853,242.155,257.595
2014-06-01 16:00,0.212408,297.449,293.944,269.479,296.307,293.483,265.878,0.0760884,0.229284,239.166,255.457
2014-06-01 17:00,0.204325,296.635,293.133,268.904,295.17,292.006,264.953,0.0741436,0.221013,238.795,254.722
2014-06-01 18:00,0.238352,295.476,288.628,266.059,290.632,286.767,262.136,0.126853,0.261256,238.294,253.785
2014-06-01 19:00,0.741987,293.124,262.616,249.029,263.393,260.584,248.364,0.58826,0.7627,237.913,249.513
2014-06-01 20:00,0.484554,287.729,273.997,256.549,274.623,269.984,253.111,0.430449,0.537303,236.542,250.748
2014-06-01 21:00,-0.0167539,261.251,257.511,245.723,258.304,256.742,246.319,-0.0,-0.0,236.341,248.455
2014-06-01 22:00,-0.0,259.045,258.703,246.399,259.974,259.139,248.768,-0.0,-0.0,235.799,250.032
2014-06-01 23:00,-0.105882,261.251,256.294,245.451,257.361,254.472,244.372,-0.0298832,-0.0593854,236.071,246.818
2014-06-02 00:00,-0.0534791,272.322,270.189,253.741,271.625,270.635,255.406,-0.0160673,-0.0313492,235.662,251.751
2014-06-02 01:00,-0.00142579,262.475,260.365,247.859,261.25,259.502,247.823,-0.0,-0.0,233.896,248.669
2014-06-02 02:00,-0.0,265.095,266.293,250.931,268.358,268.173,254.264,-0.0,-0.0,237.006,253.213
2014-06-02 03:00,-0.0,261.666,262.774,249.029,264.965,264.279,251.553,-0.0,-0.0,237.657,252.146
2014-06-02 04:00,0.00125083,264.739,266.738,251.429,269.186,268.67,255.28,-0.0,-0.0,237.721,253.213
2014-06-02 05:00,-0.0,263.636,263.712,249.286,264.792,264.623,252.723,-0.0,-0.0,238.231,252.342
2014-06-02 06:00,-0.0,257.103,258.195,245.587,259.606,259.139,248.903,-0.0,-0.0,238.104,250.238
2014-06-02 07:00,-0.0,262.869,264.021,249.286,265.997,265.99,252.723,-0.0,-0.0,239.288,253.974
2014-06-02 08:00,-0.0,261.251,261.982,248.252,264.444,263.759,251.814,-0.0,-0.0,239.41,252.537
2014-06-02 09:00,-0.0,262.869,262.3,248.121,263.569,262.537,250.896,-0.0,-0.00784329,240.134,252.342
2014-06-02 10:00,0.220378,274.551,271.299,253.741,272.582,270.96,254.773,0.315773,0.325169,241.246,254.629
2014-06-02 11:00,0.681506,278.482,259.706,246.667,261.25,260.405,249.705,0.688135,0.81195,241.246,251.652
2014-06-02 12:00,0.583176,287.444,263.712,249.414,265.482,264.451,251.028,0.56091,0.635232,241.476,252.731
2014-06-02 13:00,0.536469,292.294,270.607,253.86,273.529,272.086,255.784,0.500476,0.563261,241.817,255.366
2014-06-02 14:00,0.310338,294.602,283.726,262.049,285.479,283.049,260.822,0.185648,0.313305,241.361,257.158
2014-06-02 15:00,0.24746,295.368,288.843,265.355,290.897,287.888,263.2,0.112197,0.256273,241.015,258.114
2014-06-02 16:00,0.383154,294.38,279.458,259.354,281.799,280.702,260.942,0.302233,0.36698,241.476,259.135
2014-06-02 17:00,0.387539,294.823,282.448,260.661,284.501,282.613,262.017,0.308008,0.409699,241.93,259.638
2014-06-02 18:00,0.39803,291.931,280.789,259.574,282.66,281.441,260.942,0.352418,0.424797,243.093,260.135
2014-06-02 19:00,0.419046,292.889,284.755,261.731,286.86,284.922,262.847,0.331915,0.457169,243.633,260.789
2014-06-02 20:00,0.27076,288.705,287.541,263.099,289.568,288.167,264.022,0.256223,0.345705,243.793,261.355
2014-06-02 21:00,-0.0,284.41,285.433,261.305,287.815,287.188,263.67,-0.0,-0.0,244.531,261.914
2014-06-02 22:00,-0.00404186,283.76,285.208,261.198,287.543,287.188,263.905,-0.0,-0.0,244.635,261.993
2014-06-02 23:00,-0.0941961,283.428,284.982,260.876,287.27,286.907,263.553,-0.0299084,-0.0618128,244.997,262.309
2014-06-03 00:00,-0.0638823,283.261,284.982,260.769,287.134,287.188,264.605,-0.0190043,-0.0348611,246.109,263.399
2014-06-03 01:00,-0.0,282.753,284.528,260.661,286.86,286.767,264.022,-0.0,-0.0,246.406,263.322
2014-06-03 02:00,-0.0,282.753,284.185,260.553,286.585,286.485,264.138,-0.0,-0.0,246.701,263.629
2014-06-03 03:00,-0.0,282.059,283.956,260.119,286.172,286.06,263.787,-0.0,-0.0,246.75,263.552
2014-06-03 04:00,-0.0,274.314,278.845,257.572,282.374,282.321,262.017,-0.0,-0.0,246.652,263.012
2014-06-03 05:00,-0.0,274.314,277.977,256.892,281.799,281.735,262.017,-0.0,-0.0,246.406,262.23
2014-06-03 06:00,0.00159116,273.831,277.35,256.778,280.931,280.85,261.421,-0.0,-0.0,246.009,261.834
2014-06-03 07:00,-0.0,280.427,282.096,258.913,284.641,284.061,262.728,-0.0,-0.0,246.159,261.675
2014-06-03 08:00,-0.0,279.081,281.267,258.469,284.079,283.484,262.373,-0.0,-0.0,246.159,261.675
2014-06-03 09:00,-0.0,278.482,280.789,258.358,283.797,283.484,262.255,-0.0,-0.0,246.357,261.834
2014-06-03 10:00,0.709155,279.081,279.213,257.798,282.803,282.758,261.779,0.65902,0.715935,246.406,262.23
2014-06-03 12:00,0.521184,296.008,281.148,259.024,284.361,283.629,262.136,0.38694,0.510614,246.505,262.388
2014-06-03 13:00,0.451967,295.583,281.978,259.024,284.361,283.339,261.898,0.337951,0.460239,245.96,262.23
2014-06-03 14:00,0.265467,295.368,291.798,265.859,293.506,291.193,265.185,0.101648,0.288489,246.406,262.857
2014-06-03 15:00,0.233613,296.427,293.336,266.756,295.17,292.814,265.993,0.0826424,0.250385,246.896,262.935
2014-06-03 16:00,0.346199,295.902,285.433,262.049,287.543,286.202,262.847,0.265342,0.366073,247.474,262.623
2014-06-03 17:00,0.294871,295.368,287.432,262.995,289.434,287.329,262.965,0.190739,0.299538,247.57,262.23
2014-06-03 18:00,0.241529,296.531,287.541,263.411,289.032,286.06,262.61,0.150483,0.243838,247.76,261.435
2014-06-03 19:00,0.226826,292.534,289.911,264.849,291.817,289.551,264.372,0.134724,0.26659,247.996,262.309
2014-06-03 20:00,0.159603,288.291,288.412,263.515,290.367,289.137,264.372,0.195947,0.24975,248.277,262.857
2014-06-03 21:00,-0.0,284.57,285.882,261.838,288.087,287.329,264.022,-0.0,-0.0,248.137,262.623
2014-06-03 22:00,-0.00809062,284.41,285.433,261.519,287.543,286.907,263.905,-0.0,-0.0,248.231,262.623
2014-06-03 23:00,-0.11078,282.581,283.264,260.661,285.618,284.205,262.017,-0.0319311,-0.0642482,248.879,262.545
2014-06-04 00:00,-0.0501124,277.869,278.968,258.022,281.076,279.81,260.34,-0.0146311,-0.0296571,248.787,262.309
2014-06-04 01:00,-0.0,280.427,280.789,259.024,282.803,281.882,261.301,-0.0,-0.0,248.695,262.545
2014-06-04 02:00,-0.00128097,281.346,282.331,260.228,284.641,283.917,262.492,-0.0,-0.0,249.108,262.857
2014-06-04 03:00,-0.0,282.753,284.3,261.198,286.31,285.919,263.905,-0.0,-0.0,249.606,263.399
2014-06-04 04:00,-0.0,282.581,283.841,261.091,285.895,285.35,263.2,-0.0,-0.0,249.245,263.629
2014-06-04 05:00,0.00135942,282.581,283.841,260.769,286.033,285.493,262.965,-0.0,-0.0,248.741,263.322
2014-06-04 06:00,-0.0,282.234,283.38,260.769,285.618,284.922,263.2,-0.0,-0.0,247.474,263.167
2014-06-04 07:00,-0.0,278.482,280.669,259.902,283.514,282.613,261.779,-0.0,-0.0,245.048,261.675
2014-06-04 08:00,0.00316972,281.883,283.38,261.305,285.618,284.922,263.553,-0.0,-0.0,244.374,261.755
2014-06-04 09:00,-0.0,281.705,283.264,261.305,285.479,285.208,263.2,-0.0,-0.0,243.526,261.515
2014-06-04 10:00,0.3177,282.581,283.841,261.198,286.033,285.493,263.318,0.328773,0.463287,243.093,261.435
2014-06-04 12:00,0.355605,292.294,290.017,265.758,291.686,289.413,265.069,0.148363,0.392824,241.874,261.113
2014-06-04 13:00,0.308065,295.368,292.314,267.544,293.764,291.193,265.185,0.116297,0.326857,241.304,261.113
2014-06-04 14:00,0.267808,297.248,293.336,268.227,294.405,291.871,264.837,0.0975895,0.27379,241.246,260.952
2014-06-04 15:00,0.25496,296.943,291.383,266.954,293.119,290.238,264.255,0.126266,0.265492,241.817,260.871
2014-06-04 16:00,0.24659,297.248,291.798,267.151,293.506,290.511,264.605,0.126665,0.270523,241.361,260.871
2014-06-04 17:00,0.201824,297.248,294.145,268.711,295.677,292.679,265.647,0.0745675,0.214867,241.189,260.708
2014-06-04 18:00,0.207696,295.902,292.622,267.935,294.405,291.329,264.721,0.0869618,0.232724,240.665,260.381
2014-06-04 19:00,0.349258,296.943,289.165,265.456,290.897,288.167,263.553,0.203843,0.359443,241.246,260.627
2014-06-04 20:00,0.143882,289.91,289.165,265.456,291.555,290.101,265.185,0.189505,0.234026,240.899,260.952
2014-06-04 21:00,-0.0,281.526,281.505,260.876,283.938,281.293,260.942,-0.0,-0.016906,240.899,259.804
2014-06-04 22:00,-0.0,278.883,279.091,259.354,281.51,279.211,259.856,-0.0,-0.0,241.361,259.387
2014-06-04 23:00,-0.0896534,285.357,286.661,263.307,288.897,288.306,264.837,-0.0299642,-0.0619282,239.894,260.627
2014-06-05 00:00,-0.0570744,285.202,286.328,263.411,288.897,288.445,264.605,-0.0161083,-0.0314291,238.795,260.708
2014-06-05 01:00,-0.0,285.357,286.439,263.203,289.032,288.584,264.837,-0.0,-0.0,238.546,260.871
2014-06-05 02:00,-0.0,285.045,286.328,263.307,288.763,288.445,264.953,-0.0,-0.0,240.074,261.435
2014-06-05 03:00,-0.0,284.41,285.882,262.681,288.493,288.167,265.185,-0.0,-0.0,240.253,261.595
2014-06-05 04:00,-0.0,284.087,285.77,262.576,288.222,287.609,265.185,-0.0,-0.0,240.782,261.515
2014-06-05 05:00,-0.0,283.924,285.433,262.576,287.951,287.469,264.721,-0.0,-0.0,240.312,261.194
2014-06-05 06:00,0.00159022,283.594,285.321,262.471,287.679,287.609,264.488,-0.0,-0.0,239.653,261.033
2014-06-05 07:00,0.00205844,283.261,284.982,262.471,287.27,287.048,265.301,-0.0,-0.0,239.714,260.952
2014-06-05 08:00,0.00316268,282.923,284.528,262.155,286.997,286.907,264.372,-0.0,-0.0,238.981,260.789
2014-06-05 09:00,-0.00760149,282.923,284.528,261.944,286.997,286.767,264.372,-0.0,-0.0,238.546,260.871
2014-06-05 11:00,0.383164,288.43,288.087,264.236,290.234,288.999,265.069,0.189551,0.44333,240.193,261.033
2014-06-05 12:00,0.36464,293.24,291.07,266.557,293.119,291.464,265.993,0.151086,0.394234,240.312,261.194
2014-06-05 13:00,0.314827,296.635,293.438,268.13,295.424,292.948,266.222,0.119954,0.329755,240.43,261.194
2014-06-05 14:00,0.271833,298.045,294.346,268.904,296.182,293.483,266.337,0.102134,0.274431,240.014,261.113
2014-06-05 15:00,0.236201,298.339,295.144,269.479,297.309,294.812,267.023,0.0843498,0.244947,241.189,261.275
2014-06-05 16:00,0.247043,297.848,293.133,268.324,294.916,292.41,265.532,0.110163,0.259381,241.361,261.275
2014-06-05 17:00,0.391455,293.472,281.029,259.902,282.66,281.293,261.54,0.334556,0.476834,241.59,261.033
2014-06-05 18:00,0.450312,286.864,273.997,255.51,276.315,275.551,258.023,0.520629,0.639233,242.71,260.052
2014-06-05 19:00,0.499148,287.871,277.476,258.134,279.318,278.307,260.098,0.474378,0.634184,242.71,260.217
2014-06-05 20:00,0.712297,284.087,277.224,258.022,279.613,278.307,260.098,0.677641,0.856463,238.733,258.882
2014-06-05 21:00,-0.0,287.01,287.541,264.133,289.701,288.167,264.953,-0.0,-0.0169289,236.408,259.304
2014-06-05 22:00,-0.00405395,286.421,286.882,263.825,289.166,288.306,264.488,-0.0,-0.0,239.288,260.545
2014-06-05 23:00,-0.0921065,284.57,285.208,262.89,287.543,286.202,263.436,-0.0279951,-0.0619914,241.59,261.113
2014-06-06 00:00,-0.0536635,285.357,286.217,263.411,288.493,288.027,264.953,-0.0161227,-0.0314573,241.874,261.834
2014-06-06 01:00,-0.0,285.512,286.439,263.515,288.763,288.306,265.647,-0.0,-0.0,242.211,262.466
2014-06-06 02:00,-0.00128264,284.888,286.105,262.995,288.358,288.167,265.647,-0.0,-0.0,242.155,262.545
2014-06-06 03:00,-0.0,284.41,285.546,262.681,287.815,287.609,265.416,-0.0,-0.0,241.304,262.466
2014-06-06 04:00,-0.0,283.924,284.982,262.576,287.407,287.048,265.069,-0.0,-0.0,239.166,262.23
2014-06-06 05:00,-0.0,283.428,285.095,262.471,287.543,287.469,264.721,-0.0,-0.0,238.671,262.466
2014-06-06 06:00,-0.00158971,283.261,284.414,262.049,286.447,286.343,264.488,-0.0,-0.0,236.874,261.355
2014-06-06 07:00,-0.0,282.581,284.185,262.049,286.447,286.343,264.953,-0.0,-0.0,237.137,261.515
2014-06-06 08:00,-0.0,283.261,284.414,262.049,286.86,286.907,264.721,-0.0,-0.0,237.463,261.914
2014-06-06 09:00,-0.00754814,282.753,284.071,261.838,286.447,286.626,264.721,-0.0,-0.0,236.609,261.355
2014-06-06 10:00,0.349297,283.261,284.755,262.366,286.997,287.048,265.185,0.358012,0.519674,237.721,261.675
2014-06-06 11:00,0.385262,288.841,288.195,264.441,290.632,289.826,265.762,0.190589,0.454497,236.675,261.113
2014-06-06 12:00,0.386678,294.043,291.694,266.657,293.248,291.464,265.762,0.158206,0.421814,238.608,261.275
2014-06-06 13:00,0.319623,283.093,265.545,250.806,263.217,258.957,243.099,0.208815,0.376458,228.835,243.937
2014-06-06 14:00,0.267336,298.242,295.144,269.096,297.06,294.812,267.137,0.0980383,0.283644,238.919,262.151
2014-06-06 15:00,0.247931,299.108,295.935,269.765,298.055,295.471,267.478,0.0886038,0.256803,237.849,261.914
2014-06-06 16:00,0.237571,285.512,271.299,253.621,269.842,266.667,247.551,0.164832,0.284812,229.517,247.699
2014-06-06 17:00,0.22456,295.042,289.272,265.658,290.632,287.609,262.61,0.105977,0.249006,233.382,256.894
2014-06-06 18:00,0.352505,283.261,265.696,250.429,265.482,261.831,244.231,0.306217,0.452931,229.601,246.707
2014-06-06 19:00,0.309363,288.568,278.721,258.913,279.022,276.323,254.392,0.244667,0.367234,230.835,252.925
2014-06-06 20:00,0.288356,289.247,286.772,263.721,287.815,286.343,262.492,0.210241,0.371977,232.86,257.682
2014-06-06 21:00,-0.0,285.97,285.994,263.411,287.951,286.907,264.138,-0.0,-0.0,233.75,259.387
2014-06-06 22:00,-0.0,276.594,269.343,252.534,269.186,266.667,249.171,-0.0,-0.0,228.575,248.455
2014-06-06 23:00,-0.118212,268.686,255.587,244.765,252.868,249.144,235.537,-0.0340306,-0.0644449,222.906,238.986
2014-06-07 00:00,-0.064109,270.434,258.703,246.13,256.598,253.316,239.618,-0.0176046,-0.0349848,226.216,243.093
2014-06-07 01:00,-0.0014313,261.251,250.371,241.354,248.946,246.035,234.291,-0.0,-0.0,227.78,241.728
2014-06-07 02:00,-0.0,239.711,223.94,226.481,220.184,217.607,215.873,-0.0,-0.0,214.588,219.134
2014-06-07 03:00,-0.0,258.576,240.984,236.146,237.702,234.461,226.402,-0.0,-0.0,220.219,230.354
2014-06-07 04:00,-0.0,265.446,250.175,241.207,246.135,242.364,230.604,-0.0,-0.0,223.952,237.043
2014-06-07 05:00,-0.0,258.576,242.597,237.101,238.938,235.435,227.26,-0.0,-0.0,220.686,230.863
2014-06-07 06:00,-0.00158916,273.338,264.788,250.051,262.507,259.321,243.099,-0.0,-0.0,232.175,248.562
2014-06-07 07:00,-0.00205457,282.923,283.148,261.412,284.641,283.773,262.492,-0.0,-0.0,241.476,262.701
2014-06-07 08:00,-0.0,282.059,281.978,260.984,283.514,282.613,261.062,-0.0,-0.0,240.782,261.755
2014-06-07 09:00,0.00749607,282.923,283.726,261.625,285.34,285.208,263.67,-0.0,-0.0,241.704,262.779
2014-06-07 10:00,0.431577,281.526,278.721,258.802,279.76,278.76,258.392,0.460741,0.625139,238.294,258.967
2014-06-07 11:00,0.378627,287.01,283.032,261.412,284.361,282.467,260.219,0.224777,0.452545,239.288,260.299
2014-06-07 12:00,0.424451,290.685,279.213,259.793,279.76,276.631,255.909,0.253551,0.444281,237.137,256.894
2014-06-07 13:00,0.435187,297.947,283.264,261.838,284.641,282.175,260.942,0.266305,0.431359,240.134,261.113
2014-06-07 14:00,0.279858,298.242,295.343,269.288,297.309,295.076,267.365,0.104029,0.287701,241.704,263.858
2014-06-07 15:00,0.238713,298.045,295.541,270.05,297.558,295.339,267.365,0.0860366,0.254022,242.099,263.782
2014-06-07 16:00,0.216474,298.144,294.945,269.479,296.809,294.415,266.909,0.0811504,0.228553,241.704,263.552
2014-06-07 17:00,0.357595,297.248,285.994,264.031,288.493,286.626,264.255,0.24659,0.364735,241.986,263.706
2014-06-07 18:00,0.401066,298.918,286.439,264.236,288.897,287.188,264.488,0.260023,0.407213,242.929,264.086
2014-06-07 19:00,0.343698,296.635,291.591,267.249,293.764,291.871,266.566,0.207452,0.371032,243.147,265.063
2014-06-07 20:00,0.224367,290.558,290.965,266.458,293.119,292.276,266.909,0.210325,0.307409,242.984,265.36
2014-06-07 21:00,-0.0,286.569,287.651,264.236,289.835,289.551,266.108,-0.0,-0.0,243.202,265.137
2014-06-07 22:00,-0.0,285.202,285.321,262.995,287.134,286.485,263.787,-0.0,-0.0,242.489,263.858
2014-06-07 23:00,-0.0828419,284.087,284.3,262.049,285.895,285.35,263.083,-0.0280569,-0.0573489,242.099,263.167
2014-06-08 00:00,-0.0450919,285.045,285.994,263.099,288.222,287.888,265.301,-0.0146843,-0.029765,243.418,264.765
2014-06-08 01:00,-0.00143242,285.202,286.772,263.411,288.897,288.861,266.222,-0.0,-0.0,243.093,265.434
2014-06-08 02:00,-0.0,285.202,286.772,263.721,288.763,288.722,266.337,-0.0,-0.0,243.472,265.286
2014-06-08 03:00,-0.0,284.57,285.546,262.576,286.997,286.626,264.372,-0.0,-0.0,242.984,264.54
2014-06-08 04:00,-0.0,284.249,285.77,262.681,287.679,287.469,265.069,-0.0,-0.0,243.74,265.212
2014-06-08 05:00,-0.0,284.73,286.217,263.203,288.087,288.027,266.566,-0.0,0.00137261,244.058,265.655
2014-06-08 06:00,-0.0,284.087,285.77,262.681,287.815,287.888,265.532,-0.0,-0.0,244.374,266.021
2014-06-08 07:00,-0.0,283.261,285.095,262.366,286.86,287.048,266.222,-0.0,0.00207223,244.583,266.094
2014-06-08 08:00,0.00314178,282.923,284.869,261.944,286.722,287.048,265.647,-0.0,-0.0,244.945,266.021
2014-06-08 09:00,-0.00744529,282.923,284.755,262.155,286.585,286.907,265.762,-0.0,-0.0,245.253,266.166
2014-06-08 10:00,0.383056,284.249,285.208,262.261,287.134,287.329,265.301,0.356766,0.541405,245.355,266.166
2014-06-08 11:00,0.398119,288.705,288.628,264.645,290.367,289.826,266.222,0.192621,0.46376,245.202,265.801
2014-06-08 12:00,0.376215,293.93,292.211,267.052,294.149,292.814,267.023,0.154846,0.4141,245.099,265.875
2014-06-08 13:00,0.323244,296.943,294.646,268.615,296.559,294.944,267.592,0.122573,0.340348,245.099,265.875
2014-06-08 14:00,0.275304,298.436,295.935,269.479,298.055,295.865,268.271,0.0998997,0.288294,245.048,265.728
2014-06-08 15:00,0.329613,300.408,288.628,265.052,291.029,288.445,264.372,0.181951,0.324608,244.945,265.137
2014-06-08 16:00,0.287965,300.498,291.591,267.249,293.764,291.329,266.108,0.135922,0.282363,244.945,265.434
2014-06-08 17:00,0.228863,298.144,295.045,268.904,297.06,294.944,267.592,0.0906381,0.242231,245.151,265.875
2014-06-08 18:00,0.211074,296.635,293.843,268.13,295.803,293.617,267.137,0.102956,0.233938,244.894,265.581
2014-06-08 19:00,0.422298,296.114,287.978,264.95,290.367,288.584,264.953,0.285471,0.453841,245.048,265.36
2014-06-08 20:00,0.336547,291.44,287.869,264.339,290.101,288.445,265.532,0.312092,0.380212,245.355,265.212
2014-06-08 21:00,-0.0169104,285.665,286.105,262.995,288.358,287.329,264.837,-0.0,-0.0170721,244.997,264.914
2014-06-08 22:00,-0.0,274.314,275.823,256.892,279.022,278.004,260.822,-0.0,-0.0,244.945,263.167
2014-06-08 23:00,-0.0829395,275.932,276.971,257.798,279.613,278.76,260.701,-0.0260835,-0.0574165,244.79,262.935
2014-06-09 00:00,-0.0468712,280.239,281.029,260.011,283.23,282.175,262.61,-0.0146984,-0.0315462,245.099,263.09
2014-06-09 01:00,-0.00143355,279.667,281.148,260.337,283.656,282.758,262.965,-0.0,-0.0,244.842,263.322
2014-06-09 02:00,-0.00128508,285.045,285.994,263.203,288.222,287.888,264.953,-0.0,-0.0,244.687,264.162
2014-06-09 03:00,-0.0,284.73,286.661,263.099,288.628,288.584,265.762,-0.0,-0.0,245.099,265.063
2014-06-09 04:00,-0.00125344,283.76,285.882,262.681,287.951,288.027,265.878,-0.0,-0.0,245.048,265.286
2014-06-09 05:00,-0.0,283.261,284.982,262.261,287.27,287.329,265.301,-0.0,0.0013726,245.253,265.137
2014-06-09 06:00,-0.0,283.093,284.755,262.049,286.86,286.907,265.416,-0.0,-0.0,244.894,265.063
2014-06-09 07:00,0.00205061,282.408,284.528,262.155,286.585,287.048,264.953,-0.0,-0.0,245.355,265.434
2014-06-09 08:00,-0.0,282.059,284.185,261.519,286.172,286.626,265.532,-0.0,-0.0,244.426,265.212
2014-06-09 09:00,-0.0,282.408,284.071,261.625,286.033,286.626,265.185,-0.0,-0.0,243.418,264.914
2014-06-09 10:00,0.390988,282.923,284.414,261.838,286.172,286.485,264.953,0.364154,0.572353,242.765,264.464
2014-06-09 12:00,0.380041,293.24,292.108,266.756,294.277,293.35,267.478,0.155342,0.412781,242.544,263.934
2014-06-09 13:00,0.327999,296.531,294.446,268.711,296.935,295.339,268.158,0.124552,0.343176,242.655,263.629
2014-06-09 14:00,0.277557,298.144,295.935,269.575,298.426,296.519,268.158,0.100096,0.287129,242.82,263.629
2014-06-09 15:00,0.242762,298.726,296.621,269.955,299.164,297.3,268.722,0.0849591,0.253252,242.984,263.629
2014-06-09 16:00,0.220419,298.436,296.718,270.334,299.164,297.17,268.158,0.075774,0.230892,242.211,263.322
2014-06-09 17:00,0.208806,297.649,296.229,269.955,298.672,297.04,268.497,0.0750991,0.223861,241.476,263.244
2014-06-09 18:00,0.206679,296.114,295.343,269.288,297.807,296.258,268.158,0.0816642,0.22952,241.131,262.935
2014-06-09 19:00,0.218088,294.043,294.044,268.421,296.559,295.734,268.497,0.112524,0.261456,241.073,263.09
2014-06-09 20:00,0.344417,289.647,288.087,264.747,289.701,288.722,264.138,0.244145,0.388141,238.294,259.721
2014-06-09 21:00,-0.0,283.261,281.148,259.793,282.66,281.588,259.37,-0.0,-0.0,238.168,258.372
2014-06-09 22:00,-0.00407789,284.57,286.328,263.099,288.763,288.722,265.762,-0.0,-0.0,239.894,261.993
2014-06-09 23:00,-0.0854139,284.087,285.882,262.786,288.087,288.167,265.416,-0.0281244,-0.0574869,239.349,262.072
2014-06-10 00:00,-0.0590807,284.087,285.994,263.099,288.087,288.445,265.532,-0.0161841,-0.0333313,239.954,262.779
2014-06-10 01:00,-0.0,283.261,285.095,262.576,287.27,287.748,265.532,-0.0,-0.0,240.371,262.779
2014-06-10 02:00,-0.00128587,282.753,284.982,262.366,287.27,287.469,265.416,-0.0,-0.0,239.714,263.322
2014-06-10 03:00,0.00123153,282.581,284.185,261.944,286.31,286.485,264.953,-0.0,-0.0,239.043,262.23
2014-06-10 04:00,-0.0,282.059,284.528,261.944,286.585,286.907,265.301,-0.0,-0.0,238.981,262.623
2014-06-10 05:00,-0.00135955,282.059,283.726,261.519,285.895,285.919,264.255,-0.0,0.00137255,238.231,262.072
2014-06-10 06:00,-0.0,282.234,283.956,261.519,285.895,286.06,264.605,-0.0,-0.0,238.795,262.388
2014-06-10 07:00,-0.0,281.883,283.148,261.305,285.061,285.065,264.022,-0.0,-0.0,237.072,261.595
2014-06-10 08:00,-0.0,280.05,280.549,259.464,282.231,282.175,261.421,-0.0,-0.0,236.675,259.97
2014-06-10 09:00,0.00734766,281.165,282.566,260.769,284.641,284.922,264.372,-0.0,-0.0,238.795,262.466
2014-06-10 10:00,0.119722,281.346,283.032,261.412,285.061,285.208,264.022,0.219631,0.241732,238.671,262.23
2014-06-10 11:00,0.402176,287.444,286.772,263.721,288.897,288.027,265.185,0.202068,0.459562,237.528,261.515
2014-06-10 12:00,0.381219,292.053,290.335,266.159,292.079,290.784,265.993,0.15805,0.416714,238.483,262.072
2014-06-10 13:00,0.324773,277.451,260.201,246.399,257.55,254.281,240.207,0.241244,0.404315,227.147,240.316
2014-06-10 14:00,0.243743,284.73,273.065,254.926,271.625,268.835,249.971,0.159869,0.294595,229.852,247.917
2014-06-10 15:00,0.259346,289.113,276.845,257.459,276.62,272.405,251.814,0.153712,0.302735,233.308,253.213
2014-06-10 16:00,0.283762,296.114,289.593,266.059,291.423,289.551,264.837,0.162984,0.296526,237.592,260.871
2014-06-10 17:00,0.209026,295.69,293.133,268.13,294.916,292.545,266.337,0.0767445,0.224097,239.043,261.834
2014-06-10 18:00,0.344737,295.796,288.843,265.355,290.5,288.722,264.255,0.204322,0.348032,237.072,261.033
2014-06-10 19:00,0.231809,292.414,289.699,266.059,291.817,289.689,265.069,0.152977,0.258116,238.104,260.952
2014-06-10 20:00,0.232092,289.647,289.486,265.758,291.686,290.511,265.647,0.223617,0.307028,237.072,260.952
2014-06-10 22:00,-0.00408518,285.202,286.439,263.515,288.628,288.167,265.185,-0.0,-0.0,237.203,261.435
2014-06-10 23:00,-0.0997762,284.249,284.869,262.471,286.86,286.202,263.67,-0.0281601,-0.05756,236.274,260.463
2014-06-11 00:00,-0.0521817,283.76,285.208,262.471,287.407,286.907,264.605,-0.0162001,-0.0333643,238.857,262.072
2014-06-11 01:00,-0.00143582,283.428,284.755,261.944,286.722,286.485,264.022,-0.0,-0.0,241.59,262.701
2014-06-11 02:00,-0.0,282.923,284.528,262.049,286.722,286.485,264.255,-0.0,-0.0,240.014,261.834
2014-06-11 03:00,-0.0,282.753,284.528,261.838,286.585,286.202,264.022,-0.0,-0.0,239.471,261.515
2014-06-11 04:00,-0.0,282.581,283.956,261.625,286.033,285.777,264.022,-0.0,-0.0,240.134,261.435
2014-06-11 05:00,-0.0,282.581,284.071,261.731,286.31,285.777,263.787,-0.0,0.00137248,240.899,261.595
2014-06-11 06:00,-0.0,282.753,284.3,261.944,286.585,286.485,264.605,-0.0,0.00160187,240.665,261.834
2014-06-11 07:00,-0.0,282.753,284.071,261.838,286.31,286.06,264.255,-0.0,-0.0,239.834,260.789
2014-06-11 08:00,-0.0,282.581,284.071,261.519,286.31,286.06,264.372,-0.0,-0.0,239.043,260.299
2014-06-11 09:00,-0.0,282.753,284.185,262.155,286.172,286.202,264.372,-0.0,-0.0,239.227,260.545
2014-06-11 10:00,0.407297,283.261,284.414,261.944,286.585,286.202,264.372,0.379344,0.534548,239.349,260.627
2014-06-11 12:00,0.382357,291.931,290.017,265.959,292.079,290.921,265.185,0.158522,0.415296,239.532,260.627
2014-06-11 13:00,0.331481,294.491,291.902,267.249,294.149,292.141,266.337,0.130188,0.340697,239.653,260.871
2014-06-11 14:00,0.278562,295.583,293.235,268.518,295.55,293.483,266.795,0.10337,0.288169,239.714,260.789
2014-06-11 15:00,0.246733,296.427,294.044,268.807,296.182,293.883,266.681,0.0879615,0.250731,239.532,260.789
2014-06-11 16:00,0.224287,296.943,294.346,269.0,296.559,294.149,266.795,0.0787746,0.229785,238.981,260.627
2014-06-11 17:00,0.224033,295.26,292.622,268.033,294.788,292.679,265.878,0.105034,0.244866,238.42,260.299
2014-06-11 18:00,0.209275,293.702,291.487,267.348,293.764,291.735,265.416,0.0993057,0.229849,237.072,259.304
2014-06-11 19:00,0.255722,291.931,289.593,266.259,291.817,290.375,265.185,0.15012,0.289146,236.274,258.2
2014-06-11 20:00,0.215825,289.647,289.593,265.959,291.817,290.511,265.301,0.189507,0.290517,236.475,259.638
2014-06-11 21:00,-0.0171628,285.665,286.661,263.928,288.897,288.306,265.416,-0.0,-0.0,236.542,259.135
2014-06-11 22:00,-0.0,281.346,278.474,258.802,279.76,278.307,256.535,-0.0,-0.0,233.308,253.69
2014-06-11 23:00,-0.085635,284.57,285.77,263.411,288.358,288.027,264.837,-0.0261831,-0.0552342,236.94,259.135
2014-06-12 00:00,-0.0679044,283.76,285.208,262.89,287.543,287.609,264.953,-0.0176906,-0.0333979,236.609,259.22
2014-06-12 01:00,-0.00143695,283.428,284.982,262.89,287.27,287.188,264.837,-0.0,-0.0,236.94,259.304
2014-06-12 02:00,-0.0,283.428,284.642,262.786,286.86,286.907,264.605,-0.0,-0.0,237.137,259.304
2014-06-12 03:00,-0.00123254,278.482,275.046,256.892,275.55,273.517,253.881,-0.0,-0.0,232.784,252.342
2014-06-12 04:00,-0.0,281.526,281.267,260.876,282.946,282.175,260.822,-0.0,-0.0,235.386,256.539
2014-06-12 05:00,-0.0,281.883,283.148,261.944,285.34,285.35,263.905,-0.0,-0.0,236.408,258.028
2014-06-12 06:00,-0.0,281.883,283.611,261.838,285.757,285.493,264.138,-0.0,-0.0,236.808,258.028
2014-06-12 07:00,-0.0,281.705,283.032,261.731,285.34,285.065,263.553,-0.0,-0.0,236.675,257.942
2014-06-12 08:00,-0.0,281.705,282.916,261.731,285.34,285.065,264.138,-0.0,-0.0,236.609,257.682
2014-06-12 09:00,-0.0,281.346,282.566,261.305,284.921,285.065,263.67,-0.0,-0.0,236.94,258.286
2014-06-12 10:00,0.394868,282.059,283.264,261.625,285.618,285.208,263.787,0.387124,0.545511,237.463,258.543
2014-06-12 11:00,0.397138,287.155,286.439,263.515,288.493,287.469,264.255,0.200242,0.464003,237.333,258.457
2014-06-12 12:00,0.378167,291.315,289.272,265.758,291.292,289.826,265.069,0.158977,0.40581,237.592,258.713
2014-06-12 13:00,0.322172,294.268,290.545,266.458,292.34,290.101,264.721,0.137238,0.337373,237.721,258.713
2014-06-12 14:00,0.296246,295.583,290.86,266.657,292.73,290.375,264.953,0.132707,0.297339,237.721,258.628
2014-06-12 15:00,0.268192,294.933,288.843,265.758,290.632,288.861,264.488,0.150009,0.272397,238.546,259.638
2014-06-12 16:00,0.239494,295.26,290.44,266.358,292.209,289.964,264.837,0.126737,0.255216,239.104,259.304
2014-06-12 17:00,0.255714,293.24,288.52,265.052,290.101,288.445,264.255,0.172583,0.286219,239.043,258.882
2014-06-12 18:00,0.34513,293.93,285.095,262.681,287.951,285.777,262.965,0.253258,0.378626,239.227,259.051
2014-06-12 19:00,0.681924,287.729,272.256,255.277,275.396,275.24,258.147,0.643783,0.736633,239.227,258.372
2014-06-12 20:00,0.782118,288.012,277.224,258.469,279.907,278.307,259.977,0.567615,0.741252,238.981,258.457
2014-06-12 21:00,-0.0,275.48,275.823,257.685,278.873,277.091,259.37,-0.0,-0.0,238.795,258.286
2014-06-12 22:00,-0.00410128,284.087,284.869,262.681,287.134,286.202,263.67,-0.0,-0.0,238.546,258.882
2014-06-12 23:00,-0.104807,283.428,284.3,262.261,286.447,285.777,263.318,-0.032269,-0.0625234,238.857,258.798
2014-06-13 00:00,-0.0522873,283.093,284.3,262.155,286.722,286.06,263.67,-0.0162329,-0.0334319,238.231,258.286
2014-06-13 01:00,-0.0,282.753,284.071,262.049,286.31,286.06,263.905,-0.0,-0.00145182,237.913,258.628
2014-06-13 02:00,-0.0,282.581,283.956,262.049,286.31,286.06,264.488,-0.0,-0.0,238.168,258.967
2014-06-13 03:00,-0.0,282.059,283.726,261.731,286.033,285.777,263.787,-0.0,-0.0,237.977,258.967
2014-06-13 04:00,-0.00125444,281.526,283.495,261.731,285.895,285.777,263.553,-0.0,-0.0,238.357,259.22
2014-06-13 05:00,-0.0,281.346,283.148,261.412,285.479,285.35,263.905,-0.0,-0.0,238.42,259.471
2014-06-13 06:00,-0.0,281.526,283.148,261.412,285.34,285.35,263.553,-0.0,-0.0,237.528,259.304
2014-06-13 07:00,0.00204248,281.883,283.148,261.305,285.479,285.35,264.022,-0.0,-0.0,237.072,259.135
2014-06-13 08:00,-0.0,281.705,282.916,261.198,285.34,285.35,263.67,-0.0,-0.0,237.137,258.798
2014-06-13 09:00,-0.0,281.165,282.916,261.198,285.201,284.922,263.318,-0.0,-0.0,236.139,258.457
2014-06-13 10:00,0.339293,280.613,280.429,259.793,282.087,281.735,261.66,0.448873,0.535213,234.041,255.73
2014-06-13 11:00,0.313794,286.421,284.982,262.471,287.27,286.343,263.553,0.197369,0.384678,235.525,257.855
2014-06-13 12:00,0.368601,291.44,288.951,265.052,290.764,289.137,264.255,0.166151,0.404251,236.004,257.942
2014-06-13 13:00,0.326824,294.38,290.86,266.657,292.73,290.511,264.605,0.135814,0.344118,236.742,258.028
2014-06-13 14:00,0.307054,295.69,289.593,265.859,291.555,288.999,264.255,0.146057,0.306506,235.386,257.246
2014-06-13 15:00,0.27503,296.323,289.911,266.259,292.079,289.551,264.255,0.130902,0.271087,235.799,257.421
2014-06-13 16:00,0.238057,296.219,291.591,267.446,293.506,290.921,264.605,0.098667,0.242013,235.108,257.07
2014-06-13 17:00,0.244763,293.93,289.379,265.758,291.292,289.137,264.372,0.13188,0.265822,235.593,257.158
2014-06-13 18:00,0.336044,290.301,281.267,260.228,283.514,281.882,261.66,0.311812,0.408967,234.897,256.36
2014-06-13 19:00,0.156812,289.381,286.105,263.099,288.087,286.626,263.553,0.170295,0.203051,233.896,256.894
2014-06-13 20:00,0.0716858,286.569,287.102,263.928,289.3,288.027,263.436,0.134881,0.136701,233.53,256.894
2014-06-13 21:00,-0.0173936,279.278,275.046,256.089,275.857,273.675,253.881,-0.0,-0.0,229.601,249.825
2014-06-13 22:00,-0.0,275.707,269.059,252.045,269.021,266.667,248.634,-0.0,-0.0,228.488,247.04
2014-06-13 23:00,-0.100182,279.859,277.476,257.798,278.725,277.243,256.785,-0.0282748,-0.0553863,230.755,252.047
2014-06-14 00:00,-0.0575751,281.705,281.029,259.683,283.088,282.175,260.34,-0.0162496,-0.0299435,231.709,255.183
2014-06-14 01:00,-0.0,273.586,267.764,251.18,268.191,266.498,249.705,-0.0,-0.0,230.101,248.775
2014-06-14 02:00,-0.0,280.613,280.429,259.134,282.803,281.735,261.421,-0.0,-0.0,234.968,257.158
2014-06-14 03:00,0.00123347,277.451,278.598,258.469,281.366,280.406,260.942,-0.0,-0.0,236.071,257.942
2014-06-14 04:00,-0.0,280.05,281.029,259.683,283.088,282.175,261.421,-0.0,-0.0,234.472,257.07
2014-06-14 05:00,-0.0,281.705,282.916,260.984,285.201,284.636,262.847,-0.0,0.0013721,237.006,258.2
2014-06-14 06:00,-0.0,281.526,282.916,260.984,285.201,285.065,263.318,-0.0,-0.0,237.268,258.882
2014-06-14 07:00,-0.0,281.526,282.682,260.876,285.201,284.636,263.083,-0.0,-0.0,235.867,258.028
2014-06-14 08:00,-0.0,281.705,282.799,260.553,285.201,284.779,262.965,-0.0,-0.0,236.408,258.286
2014-06-14 09:00,-0.00716855,280.427,281.978,260.119,284.361,283.917,262.61,-0.0,-0.0,235.317,257.421
2014-06-14 10:00,0.367776,281.346,282.682,260.769,285.201,284.922,262.965,0.384665,0.546018,234.113,257.333
2014-06-14 11:00,0.351213,285.97,285.095,262.049,286.997,285.777,262.728,0.194435,0.422757,233.234,256.805
2014-06-14 12:00,0.382865,291.065,288.951,264.543,291.029,289.276,264.721,0.162086,0.402631,235.799,258.2
2014-06-14 13:00,0.32543,294.268,291.279,266.259,293.377,291.057,264.721,0.127565,0.336654,236.004,258.543
2014-06-14 14:00,0.288493,296.427,292.417,267.151,294.021,291.193,265.185,0.112626,0.289507,236.408,258.713
2014-06-14 15:00,0.259045,295.368,289.486,265.557,290.632,287.188,261.421,0.106218,0.2681,233.085,255.821
2014-06-14 16:00,0.313232,265.791,233.938,232.319,230.012,227.517,223.053,0.366784,0.46593,218.767,224.204
2014-06-14 17:00,0.230057,291.065,283.956,261.519,284.361,281.588,258.882,0.144521,0.24724,230.266,252.244
2014-06-14 18:00,0.269352,290.813,282.331,260.661,282.517,278.76,255.909,0.183227,0.320734,230.755,252.244
2014-06-14 19:00,0.146529,290.558,288.736,264.645,290.897,288.999,264.605,0.112525,0.175452,233.456,256.894
2014-06-14 20:00,0.238395,285.045,283.956,261.625,285.757,284.205,261.66,0.208577,0.272764,232.784,255.73
2014-06-14 21:00,-0.0,276.594,271.437,253.14,271.464,270.635,252.853,-0.0,-0.0,229.263,246.483
2014-06-14 22:00,-0.0,284.888,285.882,262.261,288.493,287.748,264.138,-0.0,-0.0,231.865,256.271
2014-06-14 23:00,-0.117047,282.923,282.448,260.011,284.501,283.773,261.66,-0.0323603,-0.0602886,230.511,253.595
2014-06-15 00:00,-0.0593813,283.924,284.869,261.944,287.543,286.907,263.787,-0.0162664,-0.0317377,233.823,256.45
2014-06-15 01:00,-0.00144031,283.261,284.528,261.838,286.997,286.485,264.022,-0.0,-0.00145408,233.308,255.911
2014-06-15 02:00,-0.00128962,282.923,284.3,261.731,286.722,286.485,264.022,-0.0,-0.0,233.968,255.639
2014-06-15 03:00,-0.0,282.753,283.956,261.625,286.585,286.343,263.905,-0.0,-0.0,234.686,256.45
2014-06-15 04:00,-0.0,282.408,283.726,261.412,286.447,286.06,263.318,-0.0,-0.0,234.543,255.639
2014-06-15 05:00,-0.0,282.059,283.032,261.091,285.757,285.065,263.083,-0.0,-0.0,234.827,256.001
2014-06-15 06:00,-0.00158383,281.883,283.264,260.984,285.895,285.777,263.553,-0.0,-0.0,235.317,257.421
2014-06-15 07:00,-0.0,281.526,282.916,260.769,285.34,285.35,263.2,-0.0,-0.0,234.756,257.595
2014-06-15 08:00,-0.0,280.982,282.566,260.337,285.201,285.065,263.436,-0.0,-0.0,235.317,257.855
2014-06-15 09:00,-0.0,281.165,282.214,260.445,284.921,284.922,263.436,-0.0,-0.0,234.185,257.158
2014-06-15 10:00,0.353052,281.165,282.682,260.337,285.201,284.922,262.847,0.392343,0.53464,232.405,255.911
2014-06-15 11:00,0.379854,286.569,286.105,262.681,288.628,287.609,264.022,0.191441,0.438268,232.02,255.821
2014-06-15 12:00,0.38116,291.44,289.486,265.052,291.948,290.511,264.488,0.157979,0.406331,232.328,256.091
2014-06-15 13:00,0.330031,294.38,291.174,266.358,293.377,291.193,264.255,0.131199,0.343344,232.86,256.716
2014-06-15 14:00,0.278497,296.323,293.539,267.74,295.677,293.216,265.416,0.103988,0.284652,233.53,257.942
2014-06-15 15:00,0.280506,297.248,291.798,266.557,294.021,291.464,265.069,0.125656,0.276602,235.799,258.882
2014-06-15 16:00,0.261771,296.114,290.017,265.456,292.209,289.964,264.138,0.141173,0.265957,236.341,258.882
2014-06-15 17:00,0.287695,295.69,289.486,265.355,291.948,289.964,265.069,0.163442,0.301688,238.981,260.381
2014-06-15 18:00,0.28088,294.38,289.486,265.355,291.817,289.689,263.787,0.157898,0.283566,240.724,260.789
2014-06-15 19:00,0.282674,292.771,289.272,265.153,291.16,289.137,263.2,0.152831,0.288814,240.548,261.033
2014-06-15 20:00,0.213978,289.247,289.058,264.95,291.423,289.964,265.069,0.174464,0.264028,241.76,261.515
2014-06-15 21:00,0.017676,285.512,286.661,263.099,289.032,288.167,264.837,-0.0,-0.0,240.312,261.435
2014-06-15 22:00,-0.00412898,284.57,285.882,262.366,288.358,287.888,263.905,-0.0,-0.0,240.724,261.435
2014-06-15 23:00,-0.102865,283.924,285.208,262.366,287.543,287.188,264.138,-0.0283567,-0.0579619,239.227,260.871
2014-06-16 00:00,-0.0454566,283.428,284.869,261.838,287.134,286.626,264.138,-0.0148031,-0.0317708,240.193,261.355
2014-06-16 01:00,-0.00144141,283.261,284.528,261.519,286.86,286.626,264.138,-0.0,-0.0,240.253,261.194
2014-06-16 02:00,-0.0,282.581,284.3,261.305,286.722,286.343,263.787,-0.0,-0.0,240.134,261.194
2014-06-16 03:00,-0.0,282.059,283.956,260.984,286.31,286.06,263.787,-0.0,-0.0,241.246,261.914
2014-06-16 04:00,-0.00125493,281.883,282.682,260.445,284.781,284.636,262.728,-0.0,-0.0,241.59,261.595
2014-06-16 05:00,-0.00271746,281.883,283.841,260.876,285.757,285.493,263.318,-0.0,0.00137172,241.304,262.072
2014-06-16 06:00,-0.0,280.799,280.549,258.58,281.943,280.998,260.701,-0.0,-0.0,238.231,259.554
2014-06-16 07:00,-0.0,281.705,282.799,260.228,285.201,285.065,263.2,-0.0,-0.0,241.419,261.993
2014-06-16 08:00,-0.00308874,281.526,283.032,260.228,285.479,285.065,263.2,-0.0,-0.0,238.231,260.871
2014-06-16 09:00,-0.0,280.799,281.624,259.464,283.797,283.484,262.017,-0.0,-0.0,236.207,259.051
2014-06-16 10:00,0.225002,282.059,283.264,260.553,286.033,285.919,263.318,0.304814,0.408876,235.799,259.97
2014-06-16 11:00,0.422288,285.97,284.071,260.984,285.479,284.349,261.898,0.219144,0.47675,235.178,257.682
2014-06-16 12:00,0.382066,291.44,289.699,264.645,291.817,290.238,265.069,0.158354,0.401903,236.609,260.381
2014-06-16 13:00,0.332592,294.38,291.798,266.458,293.764,291.6,265.069,0.128002,0.335771,236.475,260.052
2014-06-16 14:00,0.280568,296.114,293.235,267.249,295.297,292.814,265.762,0.102648,0.281502,237.785,260.627
2014-06-16 15:00,0.246478,297.146,294.145,267.935,296.056,293.35,265.762,0.0884525,0.243891,238.168,261.113
2014-06-16 16:00,0.22189,296.943,294.245,267.642,296.182,293.483,265.762,0.0776922,0.220643,237.721,260.789
2014-06-16 17:00,0.213517,296.531,293.944,267.446,295.93,293.35,265.762,0.0770298,0.213683,238.671,261.033
2014-06-16 18:00,0.0,294.933,293.336,267.348,295.424,293.082,265.878,0.0818663,0.220792,237.398,260.381
2014-06-16 20:00,0.229129,289.779,289.699,265.153,292.079,290.648,265.069,0.187313,0.279178,238.981,260.871
2014-06-16 22:00,-0.00413912,284.57,285.882,262.471,288.222,287.609,264.255,-0.0,-0.00417869,239.774,261.194
2014-06-16 23:00,-0.112602,284.087,285.433,262.155,287.679,286.907,263.905,-0.0324562,-0.0628861,239.349,261.033
2014-06-17 00:00,-0.0472543,283.594,284.869,261.625,287.27,286.626,263.553,-0.0148186,-0.0300372,240.371,261.113
2014-06-17 01:00,-0.00144251,281.526,281.386,259.574,283.372,282.028,259.856,-0.0,-0.0,238.857,259.135
2014-06-17 02:00,-0.00129099,282.234,283.726,261.091,286.033,285.493,263.083,-0.0,-0.0,239.288,260.381
2014-06-17 03:00,-0.0,281.883,281.86,260.228,283.656,283.049,260.581,-0.0,-0.0,236.874,258.798
2014-06-17 04:00,0.00125504,281.165,281.86,260.119,283.938,283.339,261.66,-0.0,-0.0,235.662,258.286
2014-06-17 05:00,-0.00271701,281.346,281.978,260.119,284.079,283.484,262.017,-0.0,-0.0,233.53,257.595
2014-06-17 06:00,-0.00158226,268.686,261.822,247.465,259.791,258.224,244.652,-0.0,-0.0,228.048,244.175
2014-06-17 07:00,-0.00203423,277.026,274.392,255.277,275.703,274.46,255.28,-0.0,-0.0,232.02,253.5
2014-06-17 08:00,-0.00308252,265.446,260.201,246.934,258.491,255.614,243.241,-0.0,-0.0,226.778,244.53
2014-06-17 09:00,-0.0,257.605,253.226,242.225,253.469,251.947,242.384,-0.0,0.0071161,229.093,244.764
2014-06-17 10:00,0.688082,264.739,259.373,245.723,260.341,259.321,247.959,0.718538,0.926213,229.517,248.669
2014-06-17 11:00,0.506014,274.787,263.088,248.382,264.792,264.279,251.683,0.478619,0.570681,230.018,250.646
2014-06-17 13:00,0.391647,286.717,271.848,253.86,273.529,272.405,256.41,0.294002,0.428001,232.02,254.629
2014-06-17 14:00,0.376238,290.429,276.718,257.006,278.873,276.631,258.023,0.280392,0.413092,231.865,255.183
2014-06-17 15:00,0.354487,275.932,268.63,252.045,270.657,270.473,255.406,0.388665,0.47332,231.709,254.814
2014-06-17 16:00,0.342179,281.705,268.343,251.799,269.842,268.835,253.497,0.286896,0.380838,231.787,253.595
2014-06-17 17:00,0.347261,270.713,249.185,240.617,247.446,244.544,235.382,0.356918,0.455567,223.538,233.928
2014-06-17 18:00,0.368257,279.081,266.442,250.681,267.354,265.48,250.765,0.436524,0.532107,227.87,249.093
2014-06-17 19:00,0.397793,285.512,273.466,254.808,272.582,269.165,250.501,0.322417,0.480542,227.87,247.808
2014-06-17 20:00,0.582697,278.279,263.712,248.642,263.217,259.684,244.231,0.51337,0.667763,226.871,244.412
2014-06-17 21:00,-0.0180124,270.989,256.992,244.765,255.633,252.144,237.676,-0.0,-0.0,222.692,237.748
2014-06-17 22:00,-0.0,271.798,260.201,246.265,258.865,255.425,240.06,-0.0,-0.0,224.054,240.835
2014-06-17 23:00,-0.0887796,263.255,252.101,241.354,250.415,247.915,236.613,-0.0284425,-0.0605597,223.118,235.887
2014-06-18 00:00,-0.049056,247.601,238.585,233.849,236.948,234.95,228.614,-0.0148342,-0.0300687,221.596,229.664
2014-06-18 01:00,-0.00144359,264.377,254.871,243.084,253.867,252.341,241.374,-0.0,-0.0,225.835,239.523
2014-06-18 02:00,-0.00129165,267.444,259.54,246.399,259.421,257.671,243.949,-0.0,-0.0,226.405,241.854
2014-06-18 03:00,-0.0,275.48,272.256,253.86,273.215,271.926,253.24,-0.0,-0.0,229.263,249.617
2014-06-18 04:00,-0.0,262.475,250.954,241.207,248.52,245.399,235.072,-0.0,-0.0,223.013,236.033
2014-06-18 05:00,-0.0,254.396,241.682,236.146,239.911,237.345,230.44,-0.0,-0.0,221.708,231.198
2014-06-18 06:00,-0.0,245.913,233.116,231.45,231.131,228.856,224.657,-0.0,-0.0,220.101,225.604
2014-06-18 07:00,-0.0,260.395,248.177,239.267,246.135,243.679,234.447,-0.0,-0.0,223.434,234.845
2014-06-18 08:00,0.00307641,260.827,249.781,240.617,248.307,245.824,234.76,-0.0,-0.0,224.661,236.757
2014-06-18 09:00,-0.00701159,261.251,251.147,241.061,249.368,247.085,236.918,-0.0,0.00707862,224.054,236.9
2014-06-18 10:00,0.303834,277.24,273.997,254.69,274.778,273.2,254.009,0.356201,0.471906,228.048,249.408
2014-06-18 11:00,0.315737,262.869,243.049,235.823,240.152,236.872,228.109,0.364194,0.475823,220.801,231.364
2014-06-18 12:00,0.332747,258.576,234.745,231.274,232.23,229.909,225.185,0.413516,0.525565,218.642,225.408
2014-06-18 13:00,0.295162,259.505,234.745,232.146,232.502,230.17,226.056,0.361176,0.463303,219.982,226.57
2014-06-18 14:00,0.256859,273.586,256.118,243.226,253.867,250.957,238.876,0.236585,0.355682,225.546,238.027
2014-06-18 15:00,0.235393,280.613,266.442,249.797,264.792,261.831,245.905,0.199307,0.320159,227.329,242.848
2014-06-18 16:00,0.267167,271.798,255.409,243.084,254.263,251.552,240.06,0.289832,0.396153,227.601,240.053
2014-06-18 17:00,0.326853,283.924,272.527,253.86,273.529,271.283,253.881,0.352222,0.433096,229.769,251.352
2014-06-18 18:00,0.326711,280.613,269.201,251.305,269.186,267.339,251.028,0.360392,0.445973,227.691,247.151
2014-06-18 19:00,0.421121,279.667,263.245,247.728,261.611,258.408,242.814,0.416948,0.555434,226.685,243.214
2014-06-18 20:00,0.580537,282.059,266.145,250.177,264.792,260.584,242.671,0.484898,0.649448,225.739,243.457
2014-06-18 21:00,-0.0,273.831,269.343,252.045,269.842,267.004,250.236,-0.0,-0.0183758,229.348,249.617
2014-06-18 22:00,-0.0,261.251,245.89,238.503,242.049,237.581,226.918,-0.0,-0.0,219.137,232.022
2014-06-18 23:00,-0.103337,275.707,267.033,251.056,266.338,262.185,243.949,-0.0284867,-0.0582276,225.643,244.53
2014-06-19 00:00,-0.0684,250.598,234.477,232.491,232.23,229.121,223.592,-0.0178197,-0.0336416,218.009,226.187
2014-06-19 01:00,-0.00144466,260.395,245.89,238.04,242.747,239.208,229.781,-0.0,-0.0,221.596,232.185
2014-06-19 02:00,-0.0,225.382,214.79,222.659,211.028,210.219,211.146,-0.0,-0.0,207.891,210.353
2014-06-19 03:00,-0.0,218.393,206.1,218.957,205.043,204.159,205.825,-0.0,-0.0,205.449,206.239
2014-06-19 04:00,-0.0,237.078,220.75,225.701,217.072,214.364,213.653,-0.0,-0.0,212.607,215.6
2014-06-19 05:00,-0.0,243.066,229.072,229.484,225.31,222.462,220.675,-0.0,-0.0,215.452,221.213
2014-06-19 06:00,-0.00158062,242.013,222.198,226.287,219.508,216.652,214.671,-0.0,-0.0,213.078,217.164
2014-06-19 07:00,-0.00203012,250.598,238.09,234.017,234.633,233.722,228.614,-0.0,-0.0,216.56,223.999
2014-06-19 08:00,-0.00307043,278.075,274.655,255.393,275.396,273.2,252.853,-0.0,-0.0,231.787,253.213
2014-06-19 09:00,-0.0,256.589,242.597,236.306,240.152,236.872,228.446,-0.0,-0.0,220.57,231.695
2014-06-19 10:00,0.761793,259.505,240.75,235.01,236.948,233.722,225.883,0.685322,0.985378,220.57,229.664
2014-06-19 11:00,0.326055,271.261,252.853,241.646,250.207,246.246,233.503,0.349948,0.468258,225.546,239.656
2014-06-19 12:00,0.349535,259.505,226.902,228.192,224.072,221.875,219.172,0.459862,0.561888,216.83,221.658
2014-06-19 13:00,0.291495,265.095,237.591,233.344,234.107,230.429,223.949,0.330792,0.418942,221.708,228.603
2014-06-19 14:00,0.264032,275.48,250.371,240.913,246.794,241.921,229.946,0.238263,0.34021,227.691,236.757
2014-06-19 15:00,0.248609,289.779,278.101,257.346,277.226,273.042,250.501,0.135715,0.264195,240.253,252.731
2014-06-19 16:00,0.243854,296.114,289.593,264.645,290.234,286.767,260.581,0.101821,0.242813,244.687,259.304
2014-06-19 17:00,0.243268,294.156,286.217,262.576,287.134,283.484,257.9,0.116352,0.249343,244.006,257.508
2014-06-19 18:00,0.220764,295.69,293.742,267.348,296.056,294.149,266.452,0.0915134,0.220553,248.09,263.09
2014-06-19 19:00,0.230639,293.356,292.314,266.358,294.788,292.948,265.878,0.120615,0.24654,246.554,262.466
2014-06-19 20:00,0.625083,291.686,284.185,261.519,286.31,283.629,261.301,0.449868,0.646835,245.658,261.355
2014-06-19 21:00,-0.0184058,284.888,285.321,261.944,286.86,285.493,262.373,-0.0,-0.0,244.739,261.515
2014-06-19 22:00,-0.0041721,283.76,284.755,261.412,286.997,286.343,263.67,-0.0,-0.0,245.709,262.23
2014-06-19 23:00,-0.115535,282.923,284.185,261.091,286.585,286.202,263.67,-0.0326076,-0.0607495,246.798,262.545
2014-06-20 00:00,-0.0649607,282.923,284.185,261.091,286.31,286.06,264.022,-0.0178385,-0.0336771,246.603,262.701
2014-06-20 01:00,-0.0,282.234,283.841,260.769,286.033,285.777,263.67,-0.0,-0.0,247.474,263.09
2014-06-20 02:00,0.00129291,281.705,283.495,260.661,285.479,285.493,263.905,-0.0,-0.0,247.522,263.399
2014-06-20 03:00,-0.0,281.165,283.148,260.661,285.479,285.208,263.553,-0.0,-0.0,247.57,263.244
2014-06-20 04:00,-0.0,280.427,281.386,259.902,282.803,282.028,261.182,-0.0,-0.0,246.652,262.388
2014-06-20 05:00,0.00135768,280.427,281.029,259.024,282.087,281.441,259.977,-0.0,-0.0,245.099,261.675
2014-06-20 06:00,-0.0,280.05,280.549,259.244,281.076,279.511,259.735,-0.0,-0.0,244.426,261.113
2014-06-20 07:00,-0.0,278.684,277.601,257.346,278.427,277.243,257.653,-0.0,-0.0,242.6,258.967
2014-06-20 08:00,-0.0,279.473,280.789,258.913,282.374,282.175,261.898,-0.0,-0.0,245.048,261.834
2014-06-20 09:00,-0.0,279.667,280.549,258.913,281.943,281.293,261.182,-0.0,-0.0,244.79,261.755
2014-06-20 10:00,0.290842,280.427,280.909,259.464,282.803,282.321,261.66,0.348862,0.415966,244.269,261.515
2014-06-20 11:00,0.382457,286.421,285.546,262.261,287.543,286.767,263.905,0.210682,0.427981,244.322,262.23
2014-06-20 12:00,0.390579,291.563,289.486,264.645,291.555,289.964,264.721,0.171053,0.394313,244.945,263.09
2014-06-20 13:00,0.340475,294.491,291.591,266.059,293.635,291.6,265.416,0.138992,0.3335,244.479,262.857
2014-06-20 14:00,0.292047,296.531,292.417,266.756,294.149,291.464,264.605,0.116279,0.284309,243.846,262.151
2014-06-20 15:00,0.261809,295.902,289.379,264.849,290.5,287.188,260.942,0.112222,0.257704,243.039,260.627
2014-06-20 16:00,0.223844,296.219,291.279,266.059,292.47,289.413,263.67,0.104665,0.217551,242.378,261.194
2014-06-20 17:00,0.284069,291.44,279.702,259.464,280.054,276.784,255.909,0.227945,0.303654,239.166,256.716
2014-06-20 18:00,0.356216,292.653,278.721,258.58,279.318,276.169,255.658,0.278257,0.382822,239.954,257.682
2014-06-20 19:00,0.352225,293.24,282.916,261.412,283.372,279.511,257.406,0.263817,0.365849,240.665,258.628
2014-06-20 20:00,0.52124,287.01,276.591,257.006,276.468,273.042,251.814,0.454508,0.55764,236.874,253.595
2014-06-20 21:00,-0.018625,284.249,283.726,261.412,285.34,284.205,261.421,-0.0,-0.0188031,240.134,259.804
2014-06-21 00:00,-0.0474537,281.705,282.799,260.553,284.921,284.061,262.492,-0.0148811,-0.0319382,240.312,260.789
2014-06-21 01:00,-0.00289349,282.923,284.071,261.305,286.172,285.919,263.553,-0.0,-0.0,240.253,261.435
2014-06-21 02:00,-0.0,282.234,283.495,260.984,285.618,285.35,263.787,-0.0,-0.0,238.42,260.952
2014-06-21 03:00,-0.0,281.526,283.032,260.876,285.34,284.636,263.083,-0.0,-0.0,239.593,261.355
2014-06-21 04:00,-0.0,280.799,283.032,260.661,284.921,284.922,263.67,-0.0,0.00126725,242.266,262.857
2014-06-21 05:00,-0.0,281.165,282.566,260.553,284.921,285.208,264.138,-0.0,-0.0,243.31,263.167
2014-06-21 06:00,-0.0,280.982,282.682,260.337,284.641,284.779,263.787,-0.0,-0.0,243.364,263.012
2014-06-21 07:00,0.00202604,280.613,282.096,259.902,284.361,284.349,263.436,-0.0,-0.0,244.322,263.322
2014-06-21 08:00,-0.00305886,280.239,281.86,259.902,284.22,284.205,264.138,-0.0,-0.0,244.217,263.476
2014-06-21 09:00,-0.00690883,280.239,282.096,260.011,284.079,284.205,264.022,-0.0,-0.0,243.953,263.476
2014-06-21 10:00,0.369937,280.613,282.448,260.119,284.501,284.922,263.67,0.438516,0.547762,244.894,264.01
2014-06-21 12:00,0.388539,291.686,290.017,265.254,292.209,291.057,266.108,0.171341,0.397701,243.418,264.01
2014-06-21 13:00,0.336773,295.69,293.031,267.446,295.043,293.216,266.452,0.135702,0.329751,242.984,263.629
2014-06-21 14:00,0.287017,296.943,294.245,268.13,296.307,294.149,266.108,0.110462,0.279224,242.765,263.167
2014-06-21 15:00,0.256985,298.63,295.343,268.711,297.434,295.076,267.251,0.097014,0.242916,243.31,263.629
2014-06-21 16:00,0.31907,296.323,287.102,263.928,288.897,286.907,263.67,0.213579,0.315375,243.899,263.244
2014-06-21 17:00,0.261709,297.248,290.123,265.456,291.948,289.826,264.255,0.150869,0.256715,243.364,263.244
2014-06-21 18:00,0.24801,295.796,289.486,265.355,291.555,289.689,264.605,0.16527,0.257336,242.544,262.779
2014-06-21 19:00,0.202874,292.174,291.487,266.358,293.635,292.141,265.993,0.134556,0.228709,241.304,262.466
2014-06-21 20:00,0.209081,289.113,289.272,264.95,291.686,290.375,265.762,0.236038,0.297075,240.899,262.309
2014-06-21 21:00,-0.0,285.045,286.217,262.89,288.493,288.027,264.372,-0.0,-0.0190402,240.548,262.309
2014-06-21 22:00,-0.00419609,284.41,285.433,262.471,287.679,287.469,264.721,-0.0,-0.0042362,239.227,261.755
2014-06-21 23:00,-0.106248,283.261,284.755,261.838,287.134,286.485,264.721,-0.0306683,-0.0609455,238.733,261.194
2014-06-22 00:00,-0.0650974,282.923,284.3,261.944,286.447,286.202,263.553,-0.0178761,-0.033748,238.231,261.113
2014-06-22 01:00,-0.00144776,282.753,283.841,261.625,286.172,285.777,264.138,-0.0,-0.0,238.42,261.194
2014-06-22 02:00,-0.00129407,282.753,283.956,261.305,286.172,286.06,263.787,-0.0,-0.0,239.288,261.675
2014-06-22 03:00,-0.0,282.234,283.611,261.198,285.618,285.777,263.553,-0.0,-0.0,238.231,261.113
2014-06-22 04:00,-0.0,281.883,283.264,261.198,285.34,285.493,264.372,-0.0,-0.0,237.528,261.194
2014-06-22 05:00,-0.0,281.165,282.916,260.876,285.061,285.35,264.138,-0.0,-0.0,237.137,261.194
2014-06-22 06:00,-0.0,280.982,282.799,260.769,284.921,285.208,263.905,-0.0,-0.0,237.333,261.113
2014-06-22 07:00,0.00202403,280.427,282.331,260.445,284.501,284.349,263.787,-0.0,-0.0,237.137,260.789
2014-06-22 08:00,-0.0,280.799,281.86,260.119,284.079,284.349,263.553,-0.0,-0.0,236.139,260.135
2014-06-22 09:00,0.00687748,280.427,282.214,260.228,284.22,284.349,262.965,-0.0,-0.0,236.542,259.97
2014-06-22 10:00,0.426375,280.613,282.331,260.337,284.361,284.349,263.436,0.445955,0.557055,237.913,260.299
2014-06-22 11:00,0.40801,285.97,285.658,262.261,288.087,287.329,264.255,0.215913,0.449357,237.333,259.471
2014-06-22 12:00,0.399945,291.065,289.379,264.95,291.686,290.784,265.762,0.173893,0.401041,238.168,259.721
2014-06-22 13:00,0.337082,294.156,291.902,266.657,294.533,293.082,266.108,0.139265,0.338254,237.463,259.135
2014-06-22 14:00,0.294129,296.323,293.641,267.642,296.182,294.149,266.566,0.113467,0.281128,236.408,258.628
2014-06-22 15:00,0.258677,297.146,294.346,268.13,296.809,294.812,267.592,0.0956485,0.246274,235.662,258.2
2014-06-22 16:00,0.245546,296.943,293.438,267.74,295.93,293.75,266.566,0.100416,0.236089,235.247,258.286
2014-06-22 17:00,0.309835,297.248,289.699,264.95,292.47,290.238,264.721,0.175939,0.301559,235.247,258.028
2014-06-22 18:00,0.279906,296.323,290.86,265.959,293.377,291.464,265.878,0.147637,0.275633,234.968,257.246
2014-06-22 19:00,0.182258,291.686,290.86,266.159,293.377,292.141,265.993,0.12574,0.214667,233.75,256.805
2014-06-22 20:00,0.231173,288.841,288.843,264.645,291.16,289.964,265.069,0.254454,0.303398,233.159,256.539
2014-06-22 21:00,-0.0191113,283.594,284.642,261.838,287.134,286.343,263.787,-0.0,-0.0,232.633,256.091
2014-06-22 22:00,-0.00420865,284.087,285.208,262.261,287.543,287.188,264.255,-0.0,-0.0,231.865,256.091
2014-06-22 23:00,-0.0846543,283.261,284.528,261.625,286.997,286.767,263.905,-0.0266228,-0.0561618,231.156,256.001
2014-06-23 00:00,-0.0581207,282.234,283.611,261.305,286.172,286.202,263.787,-0.0164036,-0.0337833,231.709,255.911
2014-06-23 01:00,-0.0,282.059,283.148,260.876,285.618,285.35,263.67,-0.0,-0.00146261,231.943,255.821
2014-06-23 02:00,-0.00129462,281.165,282.682,260.661,285.34,285.208,264.255,-0.0,-0.0,232.481,256.45
2014-06-23 03:00,-0.0,280.982,282.448,260.337,284.641,284.779,263.436,-0.0,-0.0,231.865,256.539
2014-06-23 04:00,-0.0,280.982,281.742,259.902,283.938,283.629,262.373,-0.0,-0.0,230.835,255.821
2014-06-23 05:00,-0.00135665,273.338,269.201,252.045,268.855,267.004,250.765,-0.0,-0.0,226.592,247.261
2014-06-23 06:00,-0.0,277.661,275.046,255.16,276.01,275.24,255.784,-0.0,-0.0,229.263,252.342
2014-06-23 07:00,-0.0,264.739,253.411,242.081,250.623,246.876,235.072,-0.0,-0.0,222.906,237.608
2014-06-23 08:00,-0.00304786,235.601,224.95,227.248,223.758,221.875,220.302,-0.0,-0.0,218.137,221.658
2014-06-23 09:00,-0.0,249.89,241.913,235.337,241.344,239.895,233.185,-0.0,-0.0,225.835,235.295
2014-06-23 10:00,0.356859,269.283,263.088,247.859,262.507,261.299,247.551,0.431646,0.514672,227.329,243.577
2014-06-23 11:00,0.413794,286.421,285.208,262.049,287.815,286.626,263.2,0.212577,0.459994,230.674,255.275
2014-06-23 12:00,0.405912,290.301,287.76,263.618,289.835,288.445,264.022,0.181007,0.412524,230.916,254.256
2014-06-23 13:00,0.347508,293.702,290.545,265.959,293.119,291.329,264.837,0.141095,0.340572,231.394,253.785
2014-06-23 14:00,0.320366,274.073,255.941,244.626,254.854,253.703,242.671,0.291892,0.397255,227.959,238.165
2014-06-23 15:00,0.276714,295.583,290.123,265.557,292.34,289.276,263.2,0.119226,0.272747,230.348,252.244
2014-06-23 16:00,0.202076,292.174,0.0,0.0,288.763,286.202,261.062,0.103224,0.210752,229.517,250.238
2014-06-23 17:00,0.365294,260.827,225.937,228.192,224.384,223.043,221.782,0.511827,0.589684,218.891,222.096
2014-06-23 18:00,0.307119,268.686,250.371,240.32,249.579,247.708,238.128,0.359007,0.430375,227.87,238.303
2014-06-23 19:00,0.471595,264.739,247.973,238.963,247.229,244.973,237.373,0.544757,0.663144,227.147,237.608
2014-06-23 20:00,0.613271,269.283,255.587,243.93,255.439,253.703,242.527,0.610125,0.781656,228.224,239.789
2014-06-23 21:00,-0.0193796,258.096,247.769,239.115,246.135,244.544,236.46,-0.0,-0.0,224.359,233.928
2014-06-23 22:00,-0.00422158,237.078,234.745,231.45,234.107,233.474,229.781,-0.0,-0.0,224.56,229.838
2014-06-23 23:00,-0.106599,279.081,275.436,255.16,276.923,274.617,255.153,-0.0307695,-0.0611465,228.921,248.669
2014-06-24 00:00,-0.052892,282.753,282.799,260.337,285.479,284.492,261.898,-0.0149279,-0.0302587,231.156,251.352
2014-06-24 01:00,-0.0,257.103,251.147,241.061,252.262,249.144,239.618,-0.0,-0.0,231.076,240.316
2014-06-24 02:00,0.00129514,281.165,281.505,259.574,283.797,283.194,261.062,-0.0,-0.0,233.53,252.731
2014-06-24 03:00,-0.0,281.165,281.267,259.683,283.797,283.194,261.182,-0.0,-0.0,231.473,251.949
2014-06-24 04:00,-0.0,281.705,282.682,260.445,285.34,285.065,263.436,-0.0,-0.0,232.784,253.69
2014-06-24 05:00,0.00135627,280.982,282.448,259.793,284.921,284.636,262.61,-0.0,-0.0,233.75,253.88
2014-06-24 06:00,-0.0,280.799,281.978,259.683,284.781,284.492,262.61,-0.0,-0.0,234.615,254.443
2014-06-24 07:00,-0.0,280.982,281.86,259.793,284.501,284.205,262.728,-0.0,-0.0,234.041,254.443
2014-06-24 08:00,-0.0030426,280.799,282.096,259.574,284.501,284.205,262.728,-0.0,-0.0,233.968,254.907
2014-06-24 09:00,-0.0,280.613,281.86,259.244,284.22,284.349,262.965,-0.0,-0.0,234.686,255.639
2014-06-24 10:00,0.414197,281.165,282.096,259.793,284.641,284.779,263.2,0.438375,0.574966,235.386,257.246
2014-06-24 12:00,0.398284,291.065,289.486,264.747,291.686,290.511,265.301,0.16976,0.396621,237.849,259.135
2014-06-24 13:00,0.339603,294.602,292.314,266.458,294.661,292.948,265.762,0.134301,0.334638,238.857,260.135
2014-06-24 14:00,0.292592,296.738,294.245,267.74,296.307,294.547,266.681,0.109122,0.283082,238.546,260.708
2014-06-24 15:00,0.265248,297.749,294.245,267.642,296.684,294.547,266.681,0.102588,0.251254,239.166,261.194
2014-06-24 16:00,0.233734,297.947,295.639,268.615,297.931,295.734,267.365,0.0834016,0.22417,239.774,261.595
2014-06-24 17:00,0.216807,297.045,295.343,268.421,297.683,295.734,267.137,0.0800179,0.213268,240.548,261.755
2014-06-24 18:00,0.215191,295.368,293.742,267.544,295.93,293.75,265.993,0.0891624,0.214937,240.841,261.595
2014-06-24 19:00,0.205045,292.889,292.314,266.557,294.788,293.082,266.337,0.113844,0.227367,241.874,261.914
2014-06-24 20:00,0.213479,289.113,289.486,264.543,291.948,291.193,265.416,0.193663,0.261702,241.704,261.914
2014-06-24 21:00,-0.0,285.045,286.661,262.89,288.897,288.584,265.185,-0.016651,-0.0,241.704,262.072
2014-06-24 22:00,-0.00423485,284.087,285.658,262.261,287.951,287.888,265.069,-0.0,-0.0,241.704,262.23
2014-06-24 23:00,-0.114057,283.594,285.208,261.838,287.543,287.469,264.721,-0.0308208,-0.0612487,241.704,262.466
2014-06-25 00:00,-0.0529468,283.261,285.095,261.731,287.27,287.329,265.185,-0.0149433,-0.03029,241.76,262.623
2014-06-25 01:00,-0.00145069,282.753,284.528,261.198,286.722,287.048,264.255,-0.0,-0.0,241.361,262.779
2014-06-25 02:00,-0.0,281.705,282.448,260.228,284.361,284.061,262.373,-0.0,-0.0,239.954,261.355
2014-06-25 03:00,-0.0,277.869,274.785,255.858,274.778,273.042,254.009,-0.0,-0.0,234.968,254.999
2014-06-25 04:00,-0.0,278.482,276.336,256.434,277.528,276.169,256.535,-0.0,-0.0,237.333,258.2
2014-06-25 05:00,-0.0,276.155,272.527,254.099,272.104,269.984,251.944,-0.0,-0.0,235.038,254.814
2014-06-25 06:00,-0.0,276.594,273.199,254.099,272.899,271.444,253.111,-0.0,-0.0,235.247,255.821
2014-06-25 07:00,-0.0,278.279,276.591,256.434,277.377,276.169,256.66,-0.0,-0.0,237.463,259.304
2014-06-25 08:00,-0.0,273.831,268.63,251.305,268.524,267.339,249.838,-0.0,-0.0,233.968,253.309
2014-06-25 09:00,-0.0067923,280.05,281.386,259.134,282.517,282.758,262.136,-0.0,-0.0,238.231,262.072
2014-06-25 10:00,0.105083,280.982,282.682,260.011,284.641,284.922,264.022,0.26692,0.265218,240.841,263.629
2014-06-25 11:00,0.420498,286.569,286.661,262.681,288.628,288.722,265.647,0.217577,0.46697,240.724,263.399
2014-06-25 12:00,0.401426,292.294,290.965,265.254,293.248,292.545,266.452,0.174536,0.408002,241.419,263.552
2014-06-25 13:00,0.345886,296.008,293.641,267.544,296.056,294.415,267.137,0.137817,0.336869,240.548,263.012
2014-06-25 14:00,0.29961,297.947,295.738,268.615,298.055,296.519,268.158,0.112091,0.281371,241.817,263.244
2014-06-25 15:00,0.258666,298.726,296.523,269.384,299.041,297.43,268.158,0.0942582,0.244611,240.312,262.935
2014-06-25 16:00,0.238641,298.533,296.523,269.765,299.164,297.559,268.609,0.084779,0.224074,239.104,262.701
2014-06-25 17:00,0.214786,297.449,295.738,269.192,298.178,296.127,268.045,0.0815232,0.213101,237.721,262.151
2014-06-25 18:00,0.219485,295.796,294.546,268.324,296.809,295.076,267.705,0.0909829,0.214659,238.041,261.834
2014-06-25 19:00,0.211287,293.356,292.725,266.756,295.043,293.617,267.023,0.113585,0.230236,238.857,262.466
2014-06-25 20:00,0.24259,289.514,289.593,264.95,291.948,291.057,265.762,0.211819,0.298483,239.043,262.151
2014-06-25 21:00,-0.0199706,283.924,284.3,262.155,285.061,282.758,260.461,-0.0,-0.0201615,236.475,258.967
2014-06-25 22:00,-0.00424846,283.76,284.528,261.838,286.31,284.779,262.728,-0.0,-0.0,237.268,259.804
2014-06-25 23:00,-0.109387,282.408,282.096,260.876,283.514,282.321,259.856,-0.0308727,-0.0613517,236.207,258.457
2014-06-26 00:00,-0.0653681,282.234,282.214,260.445,283.656,282.321,260.701,-0.0179504,-0.0338883,236.808,258.457
2014-06-26 01:00,-0.00290324,282.059,281.86,260.661,282.803,280.702,259.005,-0.0,-0.0,237.333,258.543
2014-06-26 02:00,-0.0012961,282.581,283.264,260.876,284.921,283.917,262.136,-0.0,-0.0,237.398,259.721
2014-06-26 03:00,-0.0,280.799,280.187,259.354,280.493,278.458,257.158,-0.0,-0.0,235.317,257.158
2014-06-26 04:00,-0.0,282.059,282.799,260.769,284.361,283.629,261.779,-0.0,-0.00126694,237.592,259.721
2014-06-26 05:00,-0.0,281.883,283.264,261.091,285.201,285.35,263.553,-0.0,-0.0,239.043,260.627
2014-06-26 06:00,-0.0,281.165,282.682,260.553,284.781,284.779,263.553,-0.0,-0.0,239.593,260.789
2014-06-26 07:00,-0.0,280.239,281.978,260.011,283.797,283.917,263.318,-0.0,-0.0,239.227,260.463
2014-06-26 08:00,-0.0,275.48,271.848,254.572,271.303,268.339,250.501,-0.0,-0.0,233.75,252.634
2014-06-26 09:00,-0.0,280.05,281.386,259.793,283.23,283.339,262.61,-0.0,-0.0,239.714,260.627
2014-06-26 10:00,0.372926,280.799,281.386,259.683,283.088,283.194,262.492,0.383417,0.484059,239.714,260.627
2014-06-26 11:00,0.463526,286.121,283.148,261.091,285.061,283.917,261.421,0.245787,0.491591,238.483,259.22
2014-06-26 12:00,0.396366,290.041,285.208,262.681,286.447,284.205,260.34,0.197684,0.408377,237.137,257.421
2014-06-26 13:00,0.282925,287.444,277.977,257.346,277.528,274.304,252.464,0.165446,0.300014,232.709,251.152
2014-06-26 14:00,0.315302,286.271,271.299,253.741,270.495,266.835,245.905,0.182894,0.32711,230.916,247.59
2014-06-26 15:00,0.271697,295.042,288.195,264.031,289.3,286.343,260.581,0.11918,0.267684,236.341,256.36
2014-06-26 16:00,0.243516,295.26,289.486,265.153,290.897,288.722,262.136,0.107329,0.240792,237.333,257.855
2014-06-26 17:00,0.223844,297.649,295.045,268.711,297.434,295.471,266.909,0.0877154,0.216645,240.074,261.675
2014-06-26 18:00,0.235155,294.823,290.44,265.658,292.079,289.689,262.61,0.114051,0.237403,238.483,258.967
2014-06-26 19:00,0.227504,293.587,292.622,267.052,294.916,293.617,266.337,0.124641,0.243189,240.957,261.755
2014-06-26 20:00,0.233619,290.301,290.756,265.658,293.377,292.41,266.566,0.204186,0.281502,241.986,262.623
2014-06-26 21:00,-0.0,0.0,287.541,0.0,289.701,289.689,265.993,-0.0,-0.020489,241.76,262.466
2014-06-26 22:00,-0.0,284.41,286.217,262.89,288.493,288.445,265.185,-0.0,-0.0,241.93,262.623
2014-06-26 23:00,-0.102268,283.594,285.208,262.049,287.543,288.027,265.416,-0.0288633,-0.056539,240.899,262.309
2014-06-27 00:00,-0.0601291,283.261,285.095,262.049,287.407,287.748,265.185,-0.0179687,-0.0357082,240.489,262.388
2014-06-27 01:00,-0.00145253,283.093,284.642,261.731,286.86,287.048,265.069,-0.0,-0.0,240.43,262.072
2014-06-27 02:00,-0.00129655,282.059,283.841,261.305,285.895,286.202,264.488,-0.0,-0.0,240.489,262.23
2014-06-27 03:00,-0.0,281.883,283.956,261.198,286.033,286.202,264.953,-0.0,-0.0,241.817,262.935
2014-06-27 04:00,-0.0,281.526,283.841,261.091,285.895,286.06,264.605,-0.0,-0.0,242.099,263.244
2014-06-27 05:00,-0.001355,281.526,283.38,261.091,285.34,285.777,264.953,-0.0,-0.0,242.042,263.399
2014-06-27 06:00,-0.0,281.165,283.148,260.769,285.201,285.777,264.605,-0.0,-0.0,241.015,263.012
2014-06-27 07:00,-0.0,280.613,282.799,260.769,284.641,285.35,264.721,-0.0,-0.0,241.361,262.779
2014-06-27 08:00,-0.0,280.799,282.448,260.553,284.641,285.208,264.605,-0.0,-0.0,240.957,262.701
2014-06-27 09:00,-0.0,280.427,282.214,260.228,284.22,284.636,264.372,-0.0,0.00680749,242.099,263.012
2014-06-27 10:00,0.40478,280.982,282.566,260.445,284.501,284.922,264.721,0.456969,0.599353,241.189,262.701
2014-06-27 11:00,0.417489,286.271,286.105,262.681,288.222,288.027,265.069,0.214475,0.473573,240.607,262.701
2014-06-27 12:00,0.407535,292.534,291.383,265.758,293.764,292.814,267.137,0.17253,0.408688,243.899,263.552
2014-06-27 13:00,0.350187,296.531,294.646,268.324,297.184,295.996,268.158,0.137908,0.341202,242.544,263.782
2014-06-27 14:00,0.303087,298.436,296.425,269.67,299.164,297.689,268.497,0.113563,0.284882,241.986,263.706
2014-06-27 15:00,0.258511,299.297,297.3,270.145,299.776,298.076,268.609,0.0942018,0.244464,242.71,264.162
2014-06-27 16:00,0.231689,298.918,297.01,270.145,299.531,297.947,269.059,0.0832668,0.218759,241.246,263.629
2014-06-27 17:00,0.221769,298.242,296.131,269.86,298.549,296.519,267.251,0.0844973,0.212695,241.246,263.399
2014-06-27 18:00,0.216556,296.738,295.935,269.288,298.426,297.17,268.722,0.0868537,0.216325,241.131,263.782
2014-06-27 19:00,0.220246,294.268,294.245,268.227,296.809,295.602,267.819,0.113019,0.239196,241.59,264.314
2014-06-27 20:00,0.217207,290.301,291.07,266.358,293.506,292.948,266.795,0.19025,0.272213,241.533,264.765
2014-06-27 21:00,-0.0,285.202,286.105,262.681,287.815,287.888,265.069,-0.0,-0.0,241.189,263.706
2014-06-27 22:00,-0.00427665,284.57,286.439,262.995,288.628,288.861,265.993,-0.0,-0.0,240.841,264.389
2014-06-27 23:00,-0.0853678,283.428,285.546,262.049,287.27,287.748,264.605,-0.0268472,-0.0566351,240.782,264.086
2014-06-28 00:00,-0.0690412,283.428,285.321,262.155,287.407,287.469,265.185,-0.0194857,-0.0375314,240.014,264.314
2014-06-28 01:00,-0.0,282.753,284.3,261.625,286.172,286.343,264.488,-0.0,-0.0,239.349,263.706
2014-06-28 02:00,-0.00129696,282.059,283.726,261.519,285.618,285.919,264.721,-0.0,-0.0,238.795,263.552
2014-06-28 03:00,-0.0,279.667,279.336,258.58,280.785,280.554,260.098,-0.0,-0.0,237.268,260.789
2014-06-28 04:00,-0.0,281.165,283.032,260.769,285.061,285.493,264.372,-0.0,-0.0,239.593,263.934
2014-06-28 05:00,-0.0,281.165,283.032,260.876,285.061,285.493,264.488,-0.0,-0.0,239.104,264.01
2014-06-28 06:00,-0.0,281.165,283.148,260.769,285.061,285.493,264.605,-0.0,-0.0,239.227,263.858
2014-06-28 07:00,0.00201247,280.799,283.032,260.553,284.781,285.208,264.255,-0.0,-0.0,238.919,263.706
2014-06-28 08:00,-0.0,281.346,282.799,260.337,284.781,285.208,264.022,-0.0,-0.0,238.795,263.629
2014-06-28 09:00,-0.0,280.239,282.096,259.902,284.079,284.205,264.022,-0.0,-0.0,240.074,263.782
2014-06-28 10:00,0.382361,280.799,282.448,260.228,284.22,284.636,263.905,0.462492,0.579024,239.834,263.476
2014-06-28 12:00,0.407779,293.24,291.279,266.358,293.377,292.276,266.108,0.172633,0.408933,238.919,263.322
2014-06-28 13:00,0.354305,297.045,291.902,266.756,293.892,292.006,265.878,0.172408,0.335079,238.857,263.09
2014-06-28 14:00,0.318703,299.203,294.245,268.518,296.559,293.883,266.452,0.137135,0.295377,239.349,263.167
2014-06-28 15:00,0.264931,299.297,296.815,270.05,298.795,296.65,267.819,0.0983115,0.246,239.288,263.706
2014-06-28 16:00,0.254831,299.579,295.343,269.0,297.558,294.944,267.251,0.102946,0.232044,239.714,263.167
2014-06-28 17:00,0.30459,299.765,292.211,267.151,294.277,291.6,265.532,0.143797,0.281411,239.714,263.167
2014-06-28 18:00,0.266263,298.045,294.044,267.935,296.182,293.75,266.795,0.115613,0.248131,239.894,263.244
2014-06-28 19:00,0.222978,293.93,293.742,267.74,295.93,294.547,267.705,0.107078,0.22847,239.774,263.706
2014-06-28 20:00,0.230714,289.91,290.651,265.557,292.86,292.006,266.566,0.176441,0.270487,238.733,263.934
2014-06-28 21:00,-0.0210065,285.202,286.772,263.099,288.897,288.584,265.416,-0.0,-0.0,238.104,263.629
2014-06-28 22:00,-0.0042912,284.087,285.77,262.366,287.543,287.469,265.416,-0.00363335,-0.0,237.977,263.476
2014-06-28 23:00,-0.114832,282.753,283.611,260.984,285.201,285.35,263.436,-0.033099,-0.0616649,237.528,262.23
2014-06-29 00:00,-0.0567056,263.255,254.69,243.368,252.868,250.957,239.47,-0.0195051,-0.0375688,227.691,242.23
2014-06-29 01:00,-0.00145426,280.427,279.823,258.691,280.347,278.76,258.27,-0.0,-0.00146816,235.525,259.051
2014-06-29 02:00,-0.00129735,276.594,272.256,254.217,271.945,270.311,252.594,-0.0,-0.0,233.456,253.69
2014-06-29 03:00,-0.0,275.02,268.63,251.676,268.524,266.498,248.768,-0.0,-0.0,233.968,253.117
2014-06-29 04:00,0.00125449,279.859,278.845,258.358,279.907,278.911,258.147,-0.0,-0.0,238.608,259.638
2014-06-29 05:00,-0.0,279.278,278.968,258.134,279.907,279.361,259.735,-0.0,-0.0,239.288,259.804
2014-06-29 06:00,0.00157169,280.05,281.86,260.011,283.656,283.629,262.965,-0.0,-0.0,240.724,261.914
2014-06-29 07:00,-0.0,280.05,281.624,259.793,283.514,283.629,263.553,-0.0,-0.0,240.014,261.834
2014-06-29 08:00,-0.0,272.836,267.033,250.806,266.167,264.451,248.634,-0.0,-0.0,232.481,250.34
2014-06-29 09:00,-0.0,274.551,269.908,252.656,270.006,268.505,251.291,-0.0,-0.0,234.827,253.213
2014-06-29 10:00,0.358975,279.667,279.945,259.024,281.943,281.735,261.421,0.303943,0.473916,239.288,260.299
2014-06-29 11:00,0.28231,283.093,281.148,259.902,282.66,281.882,260.701,0.199193,0.32776,238.857,259.22
2014-06-29 12:00,0.399798,290.813,288.303,264.441,290.234,288.861,264.837,0.188828,0.395382,240.371,260.952
2014-06-29 13:00,0.348194,294.491,291.279,266.458,292.989,291.057,265.069,0.146546,0.324799,240.074,261.113
2014-06-29 14:00,0.295971,296.84,293.438,267.74,295.424,293.082,266.452,0.116455,0.277709,241.361,261.675
2014-06-29 15:00,0.263142,297.749,294.245,268.13,295.93,293.483,266.337,0.101022,0.237607,241.647,261.675
2014-06-29 16:00,0.237967,297.649,294.446,268.421,296.559,293.883,266.222,0.0873578,0.218402,241.817,261.914
2014-06-29 17:00,0.224934,296.943,294.145,268.227,296.182,293.75,266.681,0.0874204,0.208471,241.304,261.755
2014-06-29 18:00,0.218084,295.26,293.133,267.446,295.424,293.216,265.993,0.0942492,0.210995,241.073,261.435
2014-06-29 19:00,0.202433,292.653,292.108,266.855,294.277,292.41,266.222,0.109584,0.21777,241.476,261.515
2014-06-29 20:00,0.229205,288.977,289.272,265.254,291.686,290.375,265.301,0.206588,0.268718,240.957,261.275
2014-06-29 21:00,-0.0,284.57,286.105,262.786,288.222,287.888,264.721,-0.0181158,-0.0216004,240.607,261.595
2014-06-29 22:00,-0.00430603,283.594,285.095,262.261,287.543,287.188,264.372,-0.0,-0.0,240.665,261.595
2014-06-29 23:00,-0.0881069,283.428,284.755,261.838,287.134,286.767,264.721,-0.0290111,-0.0592995,240.607,261.194
2014-06-30 00:00,-0.05144,282.581,284.185,261.625,286.585,286.485,264.255,-0.0180224,-0.0376057,239.954,261.113
2014-06-30 01:00,-0.0,282.234,283.841,261.305,286.31,286.343,264.372,-0.0,-0.0,240.253,261.275
2014-06-30 02:00,-0.0,281.883,283.611,261.091,286.033,286.06,264.138,-0.0,-0.0,239.774,260.708
2014-06-30 03:00,-0.0,281.526,283.264,260.769,285.895,285.777,264.372,-0.0,-0.0,239.288,260.789
2014-06-30 04:00,-0.0,280.982,283.032,260.661,285.479,285.635,264.022,-0.0,-0.0,239.104,260.463
2014-06-30 05:00,-0.0,280.982,282.566,260.228,284.921,285.065,263.905,-0.0,-0.0,238.671,260.135
2014-06-30 06:00,-0.0,279.859,281.742,259.683,284.22,284.349,263.553,-0.0,0.00158579,237.657,258.882
2014-06-30 07:00,0.0020089,279.667,281.505,259.793,283.797,284.205,262.965,-0.0,-0.0,237.657,258.967
2014-06-30 08:00,-0.00301478,279.473,281.029,259.464,283.372,283.339,262.492,-0.0,-0.0,238.483,258.372
2014-06-30 09:00,-0.0,277.451,280.669,259.244,284.22,284.061,262.61,-0.0,-0.0,238.041,257.508
2014-06-30 10:00,0.58566,278.279,280.549,259.244,284.22,283.773,262.965,0.80285,0.70388,238.919,258.2
2014-06-30 11:00,0.405111,285.512,284.185,260.984,286.722,285.919,263.2,0.275203,0.432762,240.014,258.372
2014-06-30 12:00,0.397185,290.429,288.303,263.618,290.5,289.413,264.372,0.186575,0.392743,240.371,258.798
2014-06-30 13:00,0.34611,294.156,291.07,265.254,293.248,291.193,264.837,0.144802,0.322698,240.957,259.135
2014-06-30 14:00,0.294104,296.635,293.539,266.756,295.677,293.35,265.993,0.113458,0.270562,241.476,259.387
2014-06-30 15:00,0.256426,297.749,294.546,267.249,296.433,294.149,265.878,0.0940374,0.232495,242.929,259.97
2014-06-30 16:00,0.232747,297.749,294.546,267.348,296.559,294.016,265.878,0.0858646,0.213153,244.426,261.194
2014-06-30 17:00,0.233839,297.349,293.641,266.855,295.803,293.216,265.416,0.090421,0.211909,246.944,262.309
2014-06-30 18:00,0.217672,295.476,293.843,266.954,296.056,293.883,265.993,0.0883115,0.206018,247.522,262.857
2014-06-30 19:00,0.211758,292.889,291.591,265.758,293.892,291.735,265.416,0.117663,0.220463,247.665,263.09
2014-06-30 20:00,0.205632,289.113,288.843,263.825,290.897,289.413,264.605,0.217635,0.259497,247.379,262.935
2014-06-30 21:00,-0.0218094,284.888,286.217,262.049,288.628,287.888,264.138,-0.0,-0.0220179,246.798,263.399
2014-06-30 22:00,-0.0,284.41,285.658,261.519,288.087,287.748,264.372,-0.0,-0.0,246.505,263.322
2014-06-30 23:00,-0.117677,283.428,285.321,261.519,287.407,287.188,264.255,-0.0311365,-0.0618759,246.701,263.476
