# timestamp,IR_016,IR_039,IR_087,IR_097,IR_108,IR_120,IR_134,VIS006,VIS008,WV_062,WV_073
2015-12-01 00:00,-0.00325313,266.131,259.871,243.93,259.236,257.671,244.512,0.0,0.0,229.007,243.577
2015-12-01 01:00,-0.00135129,288.568,287.978,261.731,290.5,288.306,261.898,0.0,0.0,229.007,251.949
2015-12-01 02:00,0.0,288.291,287.978,261.625,290.897,288.722,261.898,0.0,0.0,229.935,251.352
2015-12-01 03:00,0.0,288.152,287.978,261.838,290.764,288.584,261.898,0.0,0.0,230.184,252.439
2015-12-01 04:00,0.0,288.291,288.303,261.731,291.16,288.861,262.017,0.0,0.0,230.348,252.828
2015-12-01 05:00,0.00126698,288.152,288.195,261.731,291.029,288.999,261.66,0.0,0.0,230.996,252.731
2015-12-01 06:00,0.0,286.569,285.77,260.661,288.222,284.779,259.127,0.0,0.0,230.835,251.949
2015-12-01 07:00,0.0,285.818,283.841,259.024,285.201,281.441,256.66,0.0,0.0,230.674,251.751
2015-12-01 08:00,-0.00268216,288.43,287.651,261.412,290.234,287.329,260.461,0.0,0.0,230.593,251.949
2015-12-01 09:00,0.0,288.291,287.76,261.625,289.968,287.748,260.942,0.0,-0.00539191,230.755,251.452
2015-12-01 10:00,3.49933,287.444,285.994,260.661,288.358,285.35,259.735,10.3701,8.24316,230.916,250.646
2015-12-01 11:00,0.14353,287.729,284.869,259.902,287.27,284.779,260.219,0.26175,0.195061,231.552,250.849
2015-12-01 12:00,0.36891,286.421,279.213,256.892,281.799,280.406,258.27,0.437297,0.437985,232.175,250.442
2015-12-01 13:00,0.174553,288.012,281.624,258.469,284.22,282.175,258.392,0.220778,0.200153,231.943,250.34
2015-12-01 14:00,0.0291843,288.43,286.217,260.984,288.628,285.919,260.219,0.0725866,0.0460364,232.557,251.352
2015-12-01 15:00,0.0153665,287.3,283.611,259.574,285.201,282.028,257.034,0.0592712,0.0344741,230.511,248.562
2015-12-01 16:00,0.0174262,289.514,286.439,261.091,288.493,285.35,259.249,0.0516414,0.0281484,232.251,250.544
2015-12-01 17:00,0.0389466,288.152,283.495,259.464,284.641,280.998,256.285,0.0725473,0.0530805,231.076,248.669
2015-12-01 18:00,0.415828,294.491,257.683,244.903,256.021,248.736,237.222,0.354152,0.39017,229.093,238.986
2015-12-01 19:00,0.273531,294.156,277.098,255.974,277.528,271.121,249.438,0.250634,0.257232,230.996,245.918
2015-12-01 20:00,0.123249,287.729,284.3,260.011,286.033,282.467,257.282,0.182621,0.176272,229.852,248.562
2015-12-01 21:00,0.0113404,287.587,285.546,260.553,287.543,284.205,259.37,0.0,0.0,229.348,248.775
2015-12-01 22:00,0.0,287.729,285.882,260.769,288.087,284.922,259.492,0.0,0.0,228.312,248.562
2015-12-01 23:00,-0.00219022,287.444,286.105,260.876,288.087,285.065,259.249,0.0,0.0,229.263,248.669
2015-12-02 00:00,0.0,287.01,284.642,260.337,286.86,283.917,259.37,0.0,0.0,229.093,248.348
2015-12-02 01:00,0.0,284.73,281.029,257.798,282.374,277.701,254.137,0.0,0.0,229.178,246.929
2015-12-02 02:00,0.0,276.155,268.343,250.555,268.024,263.759,247.415,0.0,0.0,227.329,243.457
2015-12-02 03:00,0.0,275.02,267.618,249.924,268.524,263.933,249.171,0.0,0.0,229.685,245.345
2015-12-02 04:00,0.0,268.382,258.534,244.765,258.678,254.855,242.956,0.0,0.0,230.835,243.457
2015-12-02 05:00,0.0,274.314,265.995,248.9,266.847,262.008,246.319,0.0,0.0,231.315,245.804
2015-12-02 06:00,-0.0014581,278.279,270.885,252.534,272.741,267.84,249.838,0.0,0.0,231.709,246.929
2015-12-02 07:00,0.0,287.3,284.869,260.228,286.585,283.194,258.76,0.0,0.0,230.996,248.775
2015-12-02 08:00,0.0,285.357,282.448,258.913,284.361,281.441,257.9,0.0,0.0,231.076,249.928
2015-12-02 09:00,-0.00528145,282.581,280.429,257.572,282.66,280.554,258.023,-0.00447179,0.0,230.266,249.928
2015-12-02 10:00,-27.5791,273.831,274.392,253.98,277.075,276.169,257.034,-45.0344,-41.7641,229.852,249.721
2015-12-02 11:00,0.6093,285.357,281.029,258.022,283.938,282.028,258.882,0.705212,0.660272,230.835,250.442
2015-12-02 12:00,0.436667,288.977,283.032,259.024,285.479,283.773,259.492,0.55836,0.515814,230.184,250.95
2015-12-02 13:00,0.0844174,283.594,275.823,254.69,276.315,273.517,251.683,0.163112,0.128929,228.488,246.258
2015-12-02 14:00,0.0567347,283.594,276.08,255.16,276.468,273.359,252.335,0.116219,0.0923824,228.921,245.804
2015-12-02 15:00,0.166058,288.568,283.495,259.244,285.618,283.629,259.614,0.194233,0.176287,229.348,250.032
2015-12-02 16:00,0.066363,285.97,281.386,257.91,282.374,279.661,255.784,0.109422,0.0881545,229.433,248.775
2015-12-02 17:00,0.0136554,288.705,286.661,260.769,288.763,286.202,260.461,0.0594616,0.0354495,233.456,253.021
2015-12-02 18:00,0.264543,288.152,283.956,259.134,286.31,284.492,260.219,0.296577,0.276963,236.609,253.88
2015-12-02 19:00,0.333814,288.705,284.755,259.354,286.722,284.349,259.492,0.406493,0.382444,234.897,252.634
2015-12-02 20:00,0.873054,249.89,228.769,228.934,229.158,228.856,225.709,0.947932,1.31692,224.054,227.323
2015-12-02 21:00,0.0,277.451,277.35,254.336,279.76,278.458,256.909,0.0,0.0,240.074,253.88
2015-12-02 22:00,0.0,284.888,282.799,257.91,284.361,282.467,259.37,0.0,0.0,241.246,255.639
2015-12-02 23:00,0.0,287.444,286.105,260.337,287.951,285.35,260.34,0.0,0.0,241.704,256.181
2015-12-03 00:00,0.00162793,281.165,282.096,257.685,284.361,283.339,259.492,0.0,0.0,241.59,256.805
2015-12-03 01:00,0.0,287.444,286.328,260.011,288.358,286.06,260.701,0.0,0.0,240.782,256.894
2015-12-03 02:00,0.0,284.73,284.528,259.464,286.722,284.922,260.34,0.0,0.0,240.665,256.805
2015-12-03 03:00,0.00115961,280.427,281.86,257.572,284.641,283.484,259.856,0.0,0.0,239.954,256.539
2015-12-03 04:00,-0.001175,285.202,284.528,259.024,286.997,285.208,260.581,0.0,0.0,240.724,256.894
2015-12-03 05:00,0.0,288.291,287.212,260.661,289.3,287.188,261.301,0.0,0.0,240.782,257.333
2015-12-03 06:00,-0.00145526,286.569,286.217,259.902,288.628,286.626,260.942,0.0,0.0,240.841,258.028
2015-12-03 07:00,0.0,288.012,287.432,260.337,289.568,287.188,261.062,0.0,0.0,239.894,258.114
2015-12-03 08:00,0.0,288.705,287.978,260.769,290.234,288.027,261.301,0.0,0.0,240.312,257.769
2015-12-03 09:00,-0.00522381,286.864,286.55,259.902,289.166,287.188,260.942,0.0,0.0,240.489,258.372
2015-12-03 10:00,-1.10841,288.43,288.195,260.984,290.5,288.445,261.779,-5.63093,-4.47602,239.471,258.457
2015-12-03 11:00,0.158486,289.247,287.76,260.876,290.101,288.306,261.779,0.273172,0.205715,238.795,258.372
2015-12-03 12:00,0.0956693,289.514,287.869,260.769,290.101,288.306,261.66,0.1696,0.12073,237.849,258.628
2015-12-03 13:00,0.0913073,289.381,287.541,260.337,289.835,287.748,261.54,0.145416,0.109738,238.733,258.713
2015-12-03 14:00,0.2185,287.155,285.658,259.354,288.087,286.767,261.421,0.265845,0.255808,239.471,259.135
2015-12-03 15:00,0.0961148,289.381,286.661,260.228,289.166,287.469,261.66,0.127883,0.102232,239.288,259.387
2015-12-03 16:00,0.176747,287.3,285.546,259.024,287.543,286.485,261.421,0.240036,0.224371,238.857,259.471
2015-12-03 17:00,0.107466,288.841,287.212,260.337,289.568,287.748,261.898,0.145586,0.12822,239.532,259.554
2015-12-03 18:00,0.056406,289.91,288.087,260.769,290.101,288.445,261.779,0.11213,0.0792282,239.894,259.804
2015-12-03 19:00,0.258981,287.871,286.439,259.574,288.628,287.469,261.898,0.317795,0.306927,240.43,260.052
2015-12-03 20:00,0.287386,288.012,287.651,260.337,289.968,288.584,262.017,0.364994,0.373028,241.246,260.708
2015-12-03 21:00,0.0,287.01,287.651,260.119,289.968,288.999,262.373,0.0,0.0,241.874,261.113
2015-12-03 22:00,0.0,288.012,288.195,260.337,290.101,288.306,261.779,0.0,0.0,242.655,260.708
2015-12-03 23:00,0.0,283.594,284.755,258.913,287.27,286.06,261.182,0.0,0.0,242.544,259.97
2015-12-04 00:00,-0.0016288,284.888,285.77,259.464,288.358,287.048,261.779,0.0,0.0,243.202,260.545
2015-12-04 01:00,0.0,286.864,286.55,260.011,288.628,287.188,262.017,0.0,0.0,243.74,261.033
2015-12-04 02:00,0.00121292,284.087,285.095,259.024,287.951,286.907,262.255,0.0,0.0,243.74,261.755
2015-12-04 03:00,0.0,284.888,285.882,259.793,288.222,287.188,262.965,0.0,0.0,243.74,261.914
2015-12-04 04:00,0.0,285.97,286.55,259.902,289.166,288.167,262.373,0.0,0.0,243.953,261.914
2015-12-04 05:00,0.0,281.165,283.841,258.469,287.134,286.626,262.373,0.0,0.0,244.006,261.914
2015-12-04 06:00,0.0,288.012,288.951,261.519,291.292,290.101,262.728,0.0,0.0,245.355,262.466
2015-12-04 07:00,0.0,286.717,287.651,260.769,290.367,289.276,262.61,0.0,0.0,245.759,262.779
2015-12-04 08:00,0.0,287.3,288.195,260.984,290.897,289.826,262.847,0.0,0.0,245.608,262.309
2015-12-04 09:00,-0.00516791,288.291,289.058,261.625,291.555,290.375,263.083,0.0,0.0,245.507,262.545
2015-12-04 10:00,-1.63912,287.871,288.843,261.838,291.423,290.375,263.436,-3.64309,-3.10274,245.91,263.167
2015-12-04 11:00,0.361067,289.514,286.439,260.769,289.434,288.722,263.083,0.397914,0.358732,246.357,263.476
2015-12-04 12:00,0.105304,290.813,289.379,262.155,292.209,290.921,263.318,0.178321,0.133647,245.709,263.399
2015-12-04 13:00,0.0196493,290.041,290.545,262.89,293.248,292.141,264.837,0.0905796,0.050695,245.405,263.399
2015-12-04 14:00,0.0128937,289.647,290.651,262.995,293.506,292.41,264.372,0.0623831,0.0334721,246.109,263.858
2015-12-04 15:00,0.00688223,289.779,290.86,262.681,293.635,292.545,264.488,0.0480741,0.0243181,245.96,264.162
2015-12-04 16:00,0.0140268,289.779,290.651,262.471,293.377,292.141,264.372,0.0489904,0.0283217,245.608,264.162
2015-12-04 17:00,0.0547907,290.685,289.486,262.366,292.209,291.057,263.67,0.0828414,0.0671676,245.202,264.01
2015-12-04 18:00,0.18903,290.939,287.978,261.412,290.632,289.826,263.67,0.214095,0.208186,245.202,263.934
2015-12-04 19:00,0.210273,292.294,289.486,262.155,292.079,291.057,263.553,0.219368,0.204702,244.739,264.01
2015-12-04 20:00,0.481679,289.113,287.978,261.731,290.764,289.689,263.318,0.407837,0.486284,244.635,264.086
2015-12-04 21:00,-0.0114418,287.729,289.058,262.261,291.555,290.375,263.787,0.0,0.0,244.531,263.934
2015-12-04 22:00,-0.00362311,287.729,288.843,262.155,291.555,290.375,263.436,0.0,0.0,243.74,264.01
2015-12-04 23:00,0.0,286.121,287.432,261.198,290.101,289.137,263.436,0.0,0.0,243.579,263.476
2015-12-05 00:00,-0.0016298,288.977,290.229,262.995,292.86,291.464,264.022,0.0,0.0,243.256,263.476
2015-12-05 01:00,0.0,287.444,288.52,262.155,291.423,290.238,263.553,0.0,0.0,242.765,263.399
2015-12-05 02:00,0.0,288.841,289.805,262.995,292.47,291.6,264.138,0.0,0.0,242.6,263.09
2015-12-05 03:00,0.0,287.587,288.52,262.155,291.292,290.101,263.083,0.0,0.0,242.765,262.935
2015-12-05 04:00,-0.00117321,283.093,284.185,259.683,287.134,286.202,262.61,0.0,0.0,241.874,262.545
2015-12-05 05:00,0.0,280.427,282.448,258.58,285.201,285.208,261.421,0.0,0.0,240.957,262.23
2015-12-05 06:00,0.0,286.864,287.869,261.412,290.5,289.413,262.847,0.0,0.0,241.015,262.623
2015-12-05 07:00,0.0,283.261,284.185,259.464,286.86,286.485,262.728,0.0,0.0,240.665,262.309
2015-12-05 08:00,0.0,278.279,280.789,257.459,284.22,284.061,262.136,0.0,-0.00265393,240.371,262.466
2015-12-05 09:00,0.0,283.261,284.869,260.011,287.679,287.048,262.492,0.0,0.0,239.714,262.545
2015-12-05 10:00,-1.84967,277.24,279.58,257.006,282.66,282.758,260.942,-3.37317,-3.16014,239.227,261.993
2015-12-05 11:00,0.719556,284.249,279.58,257.12,282.803,283.049,260.461,0.727166,0.790877,238.671,261.993
2015-12-05 12:00,0.593399,289.91,279.823,257.12,283.372,283.484,261.54,0.589586,0.623524,238.981,262.388
2015-12-05 13:00,0.289392,291.686,285.433,260.119,288.358,287.469,262.965,0.319279,0.301012,238.981,262.857
2015-12-05 14:00,0.00739041,289.647,290.017,263.099,292.6,291.057,263.905,0.0625745,0.027979,238.42,263.012
2015-12-05 15:00,0.00862298,289.247,290.123,262.89,292.6,291.193,264.138,0.0511075,0.0243752,238.608,263.012
2015-12-05 16:00,0.010539,289.247,289.805,262.576,292.47,291.057,264.022,0.0490786,0.0265995,238.546,262.779
2015-12-05 17:00,0.150874,290.301,285.433,260.337,288.087,287.609,262.965,0.164243,0.160229,238.857,262.623
2015-12-05 18:00,0.0737093,291.065,288.303,261.731,291.16,289.826,264.022,0.101936,0.0818553,239.104,263.09
2015-12-05 19:00,0.221565,291.686,287.432,261.412,290.234,289.137,263.318,0.248011,0.250221,240.43,263.244
2015-12-05 20:00,0.531725,286.864,285.208,260.228,287.815,287.329,262.728,0.441553,0.536808,240.312,263.167
2015-12-05 21:00,0.0114943,284.249,285.095,259.793,287.951,287.048,262.136,0.0,0.0,240.665,263.09
2015-12-05 22:00,0.0,284.57,285.546,260.011,288.358,287.469,262.847,0.0,0.0,240.665,263.09
2015-12-05 23:00,0.0,288.841,289.805,262.576,292.47,291.057,263.787,0.0,0.0,240.312,263.167
2015-12-06 00:00,0.0,288.012,288.628,261.838,291.292,289.964,263.436,0.0,0.0,240.548,262.935
2015-12-06 01:00,0.0,287.444,287.869,261.838,290.5,289.276,263.436,0.0,0.0,241.131,263.706
2015-12-06 02:00,-0.00121291,288.43,288.951,262.366,291.423,289.964,263.787,0.0,0.0,241.073,263.244
2015-12-06 03:00,0.0,284.087,285.433,260.119,288.222,287.329,262.492,0.0,0.0,242.378,263.552
2015-12-06 04:00,0.0,284.888,285.882,260.661,288.628,287.469,263.083,0.0,0.0,243.579,263.858
2015-12-06 05:00,0.0,287.587,288.412,262.049,290.632,289.276,263.2,0.0,0.0,243.526,263.934
2015-12-06 06:00,-0.00144693,287.587,288.195,261.731,290.764,288.999,263.2,0.0,0.0,245.658,264.615
2015-12-06 07:00,0.0,288.43,288.951,262.471,291.423,289.826,263.318,0.0,0.0,246.307,264.765
2015-12-06 08:00,-0.00261604,287.3,288.303,262.049,290.632,289.276,263.083,0.0,0.0,246.357,264.69
2015-12-06 09:00,0.0,284.41,285.546,260.228,287.951,287.048,262.492,0.0,0.0,247.041,264.765
2015-12-06 10:00,-0.21863,279.473,282.096,258.246,284.921,284.492,261.54,-1.94369,-1.43468,247.283,264.615
2015-12-06 11:00,0.0763762,288.43,287.651,261.944,289.968,288.584,263.083,0.238773,0.148281,246.993,264.615
2015-12-06 12:00,0.152312,290.813,287.869,261.944,290.367,288.722,262.965,0.206339,0.159918,246.847,264.69
2015-12-06 13:00,0.283966,291.065,285.882,260.661,288.358,287.188,262.255,0.30194,0.282236,246.357,264.69
2015-12-06 14:00,0.0203839,289.381,288.951,262.786,291.292,289.964,263.083,0.0690359,0.0392866,246.456,264.464
2015-12-06 15:00,0.0103707,289.113,288.843,262.681,291.029,289.276,263.083,0.0512217,0.0261746,246.357,264.389
2015-12-06 16:00,0.0721374,288.977,287.322,261.731,289.568,287.609,262.61,0.0908731,0.0781559,245.809,263.934
2015-12-06 17:00,0.207941,289.779,283.956,259.793,286.447,285.635,261.54,0.199317,0.186163,246.307,264.162
2015-12-06 18:00,0.378615,292.174,283.726,259.354,286.447,285.35,261.421,0.349716,0.337558,246.258,263.706
2015-12-06 19:00,0.559449,288.43,283.264,258.913,285.895,285.208,261.54,0.527729,0.530682,246.75,264.01
2015-12-06 20:00,0.163118,288.841,288.195,261.625,289.835,287.609,262.136,0.25896,0.226431,246.208,263.858
2015-12-06 21:00,0.0,282.408,283.032,258.691,285.757,285.35,261.301,0.0,0.0,245.96,264.01
2015-12-06 22:00,-0.00363699,289.113,288.628,262.366,290.5,288.584,262.492,0.0,0.0,245.405,263.706
2015-12-06 23:00,-0.00220097,285.357,285.77,260.769,287.951,286.485,262.017,0.0,0.0,244.997,263.322
2015-12-07 00:00,-0.00163216,280.05,281.978,258.58,284.501,284.061,261.66,0.0,0.0,245.048,263.167
2015-12-07 01:00,0.0,283.428,284.528,260.119,286.86,285.919,261.779,0.0,0.0,244.79,263.322
2015-12-07 02:00,-0.00121297,284.087,284.755,260.337,287.407,286.343,262.255,0.0,0.0,243.74,262.935
2015-12-07 03:00,0.0,285.818,285.658,260.984,287.543,286.485,261.779,0.0,0.0,242.929,262.466
2015-12-07 04:00,-0.00117153,287.3,286.772,261.519,288.763,287.048,261.898,0.0,0.0,242.433,261.914
2015-12-07 05:00,0.00125752,285.665,285.994,260.769,287.815,286.343,261.421,0.0,0.0,242.042,261.595
2015-12-07 06:00,0.0,285.357,285.095,260.337,287.27,286.06,261.301,0.0,0.0,241.533,261.595
2015-12-07 07:00,-0.00181098,281.883,283.264,259.134,285.618,284.492,261.301,0.0,0.0,241.131,260.871
2015-12-07 08:00,0.0,288.43,287.869,261.944,289.968,287.469,262.017,0.0,0.0,241.131,261.113
2015-12-07 09:00,0.0,281.165,282.799,258.913,285.34,284.636,260.942,0.0,0.0,240.193,260.299
2015-12-07 10:00,-0.800859,281.346,283.032,258.802,285.34,284.349,260.942,-1.80823,-1.52719,240.371,260.708
2015-12-07 11:00,0.410399,284.087,283.38,259.464,285.757,284.779,261.301,0.57914,0.504392,239.834,261.113
2015-12-07 12:00,0.398413,284.73,282.448,258.58,284.641,283.917,261.182,0.612394,0.590957,240.134,261.033
2015-12-07 13:00,0.293932,288.841,285.095,260.228,286.997,285.919,260.942,0.364888,0.323516,240.841,261.194
2015-12-07 14:00,0.390257,284.41,281.742,258.58,283.938,283.484,260.219,0.487778,0.484042,241.073,261.355
2015-12-07 15:00,0.254621,283.261,280.669,257.346,283.23,282.758,260.461,0.315314,0.297274,240.312,261.033
2015-12-07 16:00,0.0458164,288.43,285.77,260.661,287.815,285.919,261.062,0.0775854,0.0533705,239.834,260.952
2015-12-07 17:00,0.0451655,289.779,287.76,261.838,289.434,287.329,261.421,0.0798085,0.0555097,239.41,260.463
2015-12-07 18:00,0.154957,288.841,285.882,260.661,288.222,286.626,261.779,0.208257,0.178787,239.166,260.789
2015-12-07 19:00,0.461614,289.779,285.433,260.011,287.27,285.919,261.182,0.470289,0.477394,239.043,260.627
2015-12-07 20:00,0.426589,289.113,287.322,261.198,289.568,287.188,261.421,0.421391,0.420413,239.043,260.135
2015-12-07 21:00,-0.0116285,288.291,288.303,261.731,290.101,288.167,261.301,0.0,0.0,239.104,260.135
2015-12-07 22:00,0.0,288.568,288.195,261.625,290.101,288.167,261.779,0.0,0.0,239.834,260.463
2015-12-07 23:00,0.0,287.01,286.105,260.661,288.493,286.485,261.421,0.0,0.0,239.593,260.135
2015-12-08 00:00,0.0,279.667,280.429,257.006,282.946,282.321,259.735,0.0,0.0,239.834,259.804
2015-12-08 01:00,-0.00135404,286.569,285.994,260.661,287.951,286.06,260.822,0.0,0.0,239.288,259.135
2015-12-08 02:00,-0.00121307,287.3,287.212,261.198,289.3,287.188,261.301,0.0,0.0,238.919,258.713
2015-12-08 03:00,0.0,287.871,287.76,261.519,289.835,287.609,261.421,0.0,0.0,239.104,258.967
2015-12-08 04:00,0.0,287.155,287.212,261.305,289.568,287.748,261.779,0.0,0.0,239.349,259.135
2015-12-08 05:00,-0.00125603,288.012,287.978,261.412,290.101,288.306,261.54,0.0,0.0,240.074,259.638
2015-12-08 06:00,0.0,287.444,287.651,261.519,290.101,288.306,261.301,0.0,0.0,240.607,259.887
2015-12-08 07:00,-0.00180581,288.012,288.412,261.944,290.764,288.584,261.66,0.0,0.0,240.371,259.22
2015-12-08 08:00,-0.00256255,287.871,287.432,260.119,290.234,288.167,261.301,0.0,0.0,239.593,258.457
2015-12-08 09:00,0.0,288.012,287.651,260.337,290.367,288.306,261.062,0.0,0.0,238.168,258.543
2015-12-08 10:00,-0.0743731,287.587,287.541,260.119,290.367,288.722,261.301,-1.24816,-0.83785,236.808,258.114
2015-12-08 11:00,0.0654969,288.291,287.212,259.244,290.101,288.167,260.822,0.282146,0.147571,236.874,258.372
2015-12-08 12:00,0.0274396,288.152,287.432,259.134,290.234,288.861,260.822,0.144471,0.0721282,238.231,258.967
2015-12-08 13:00,0.0131639,287.871,287.212,258.802,290.101,288.722,260.942,0.0931335,0.0469609,238.294,259.051
2015-12-08 14:00,0.00921418,287.871,287.102,258.691,290.234,288.306,261.062,0.0691314,0.0352928,238.483,259.22
2015-12-08 15:00,0.0051491,288.012,287.541,259.024,290.5,288.584,261.301,0.0525263,0.0232029,238.104,259.051
2015-12-08 16:00,0.00174513,287.729,287.541,258.58,290.632,288.861,260.34,0.0482381,0.0216257,237.203,258.798
2015-12-08 17:00,0.00388735,288.152,287.978,258.913,291.029,289.137,260.34,0.0498886,0.0240861,236.609,258.798
2015-12-08 18:00,0.00729905,288.152,287.869,259.024,291.029,289.276,260.822,0.0672524,0.032891,236.475,258.713
2015-12-08 19:00,0.0111259,288.291,287.978,258.802,291.029,289.964,261.182,0.120819,0.0626696,236.808,259.135
2015-12-08 20:00,0.0499989,288.152,287.978,259.244,291.029,289.551,262.017,0.286281,0.191509,237.268,259.22
2015-12-08 21:00,0.0,287.871,287.978,259.354,291.029,289.276,261.182,0.0,0.0,237.137,259.22
2015-12-08 22:00,-0.00361376,288.152,287.978,259.793,290.764,289.276,261.898,0.0,0.0,237.592,259.554
2015-12-08 23:00,0.0,288.152,288.195,260.445,291.16,289.413,261.779,0.0,0.0,237.721,259.721
2015-12-09 00:00,0.00161691,288.012,288.412,260.553,291.16,289.551,262.492,0.0,0.0,237.657,259.97
2015-12-09 01:00,0.0,288.291,288.412,261.198,291.292,289.689,262.492,0.0,0.0,237.721,260.135
2015-12-09 02:00,0.0,288.43,288.52,261.091,291.029,289.689,262.61,0.0,0.0,238.168,260.627
2015-12-09 03:00,-0.00114457,288.568,288.628,261.625,291.16,289.826,262.847,0.0,0.0,238.857,260.789
2015-12-09 04:00,-0.00115698,288.291,288.736,261.198,291.292,289.826,263.083,0.0,0.0,238.857,261.033
2015-12-09 05:00,0.00124068,287.871,288.087,260.876,290.764,289.137,263.2,0.0,0.0,238.919,261.113
2015-12-09 06:00,0.0,288.43,288.52,261.091,291.292,289.964,263.318,0.0,0.0,238.483,261.113
2015-12-09 07:00,0.0,288.568,288.628,260.876,291.292,289.826,263.2,0.0,0.0,238.041,260.871
2015-12-09 08:00,0.00255065,288.43,288.412,260.876,291.029,289.689,262.61,0.0,0.0,237.528,260.463
2015-12-09 09:00,0.0,288.012,288.087,260.445,290.897,288.861,262.017,0.0,0.0,237.592,260.545
2015-12-09 10:00,-0.258152,287.871,288.195,260.228,290.897,289.551,262.373,-1.01939,-0.727053,237.657,260.135
2015-12-09 11:00,0.0361611,288.291,288.195,259.902,291.292,289.413,262.373,0.255837,0.129001,237.528,260.217
2015-12-09 12:00,0.033733,288.568,287.869,259.793,290.897,289.551,262.255,0.148342,0.0794586,237.721,259.721
2015-12-09 13:00,0.0550546,289.514,287.76,259.244,290.764,289.137,262.255,0.117396,0.0744261,236.742,259.97
2015-12-09 14:00,0.0683641,288.977,287.212,258.913,290.101,288.722,261.182,0.105793,0.0749341,237.203,259.97
2015-12-09 15:00,0.0137567,288.152,287.76,259.134,290.764,289.137,261.54,0.064508,0.0309953,237.203,259.97
2015-12-09 16:00,0.0174737,288.152,287.76,259.024,291.029,289.826,262.017,0.0603749,0.0314959,236.808,260.217
2015-12-09 17:00,0.0194507,288.568,287.869,259.354,290.897,289.551,261.898,0.0633655,0.0372507,236.274,259.721
2015-12-09 18:00,0.00486631,288.012,288.52,259.464,291.555,290.375,262.492,0.0672562,0.0328928,236.341,259.97
2015-12-09 19:00,0.00740961,287.871,288.412,259.574,291.292,290.101,261.898,0.120694,0.0584311,236.742,259.887
2015-12-09 20:00,0.0298447,287.444,288.195,259.793,291.292,290.101,261.421,0.265164,0.168108,236.742,260.217
2015-12-09 21:00,0.0,287.871,288.303,259.902,291.423,289.964,261.779,0.0,0.0,236.808,260.381
2015-12-09 22:00,-0.00362351,288.43,288.628,260.119,291.686,290.238,261.898,0.0,0.0,237.657,260.871
2015-12-09 23:00,0.0,288.152,288.628,260.661,291.555,290.238,262.61,0.0,-0.00246277,237.977,260.789
2015-12-10 00:00,0.00161848,287.01,287.869,260.337,290.764,289.551,262.728,0.0,0.0,238.357,261.515
2015-12-10 01:00,-0.00134041,287.587,288.195,261.091,290.897,289.826,262.728,0.0,0.0,238.671,261.595
2015-12-10 02:00,0.00119995,287.729,288.412,261.091,291.16,289.826,262.492,0.0,0.0,239.227,261.595
2015-12-10 03:00,0.0011443,288.291,288.843,261.198,291.555,290.238,263.083,0.0,0.0,239.227,261.595
2015-12-10 04:00,0.0,288.568,289.165,261.519,291.686,290.511,263.318,0.0,0.0,239.227,261.435
2015-12-10 05:00,-0.00123926,288.568,288.951,261.731,291.555,290.511,263.787,0.0,0.0,239.349,261.993
2015-12-10 06:00,0.00142044,288.568,288.951,260.984,291.817,290.238,263.787,0.0,0.0,238.919,261.914
2015-12-10 07:00,-0.00177583,288.841,289.165,261.412,291.948,290.511,262.728,0.0,0.0,239.471,261.914
2015-12-10 08:00,-0.00507798,288.43,288.736,260.445,291.555,290.101,262.965,-0.00250649,0.0,239.349,261.914
2015-12-10 09:00,0.00481318,288.43,288.951,260.228,291.686,290.375,262.728,0.0,0.0,239.774,261.755
2015-12-10 10:00,-0.114225,288.291,288.843,260.445,291.555,290.648,262.965,-0.845722,-0.707742,239.653,261.515
2015-12-10 11:00,0.0121993,288.012,288.736,259.793,291.686,290.511,262.255,0.240862,0.116816,239.41,261.595
2015-12-10 12:00,0.00616829,288.291,288.52,259.793,291.423,289.826,262.017,0.130921,0.06254,239.653,261.595
2015-12-10 13:00,0.00663047,287.871,288.52,259.244,291.555,289.826,262.255,0.0894564,0.0398376,239.954,261.515
2015-12-10 14:00,0.122253,290.301,287.432,258.469,290.367,289.689,261.779,0.148117,0.123117,239.714,261.914
2015-12-10 15:00,0.120583,289.247,286.661,258.134,289.835,288.722,261.421,0.149649,0.12808,239.714,261.595
2015-12-10 16:00,0.0647267,288.841,287.432,258.246,290.367,289.276,261.779,0.0967106,0.0709471,239.227,261.515
2015-12-10 17:00,0.0233539,288.977,288.087,258.691,291.292,290.101,262.492,0.0710861,0.0416565,238.981,261.515
2015-12-10 18:00,0.109477,289.514,287.322,257.91,290.5,289.276,261.54,0.151306,0.123331,238.981,261.515
2015-12-10 19:00,0.133197,289.91,288.087,258.58,291.029,289.551,261.421,0.211848,0.166726,238.483,261.834
2015-12-10 20:00,0.158242,288.977,288.843,259.464,291.948,290.648,262.017,0.322196,0.25626,237.977,261.355
2015-12-10 21:00,0.0,286.864,287.651,259.134,290.632,289.689,261.54,0.0,0.0,239.288,261.834
2015-12-10 22:00,0.0,288.152,288.736,259.683,291.686,290.375,262.492,0.0,0.0,238.795,261.834
2015-12-10 23:00,0.0,287.729,288.195,259.902,291.292,289.689,262.255,0.0,0.0,238.981,261.914
2015-12-11 00:00,0.00162017,286.569,287.541,259.354,290.101,289.137,262.965,0.0,0.0,239.104,261.675
2015-12-11 01:00,0.0,285.512,286.328,259.354,289.032,287.888,261.66,0.0,0.0,239.894,262.151
2015-12-11 02:00,0.0,286.864,287.541,260.337,290.101,288.999,262.965,0.0,0.0,240.193,262.388
2015-12-11 03:00,0.0022881,289.113,289.165,261.198,291.423,289.964,263.083,0.0,0.0,240.193,262.072
2015-12-11 04:00,0.0,285.97,286.992,259.793,289.568,288.167,262.136,0.0,0.0,240.014,262.545
2015-12-11 05:00,-0.00123786,287.444,287.869,260.228,289.835,288.445,262.492,0.0,0.0,237.913,261.194
2015-12-11 06:00,0.0,285.97,286.217,259.354,288.628,287.329,262.373,0.0,0.0,237.203,260.708
2015-12-11 07:00,-0.00177096,288.568,288.843,260.876,291.16,289.826,262.255,0.0,0.0,236.609,260.381
2015-12-11 08:00,0.0,288.43,288.843,260.661,291.686,290.238,262.847,0.0,0.0,235.108,259.887
2015-12-11 09:00,0.0,288.841,288.951,260.228,291.817,290.101,262.61,0.0,0.0,235.317,259.804
2015-12-11 10:00,-0.102628,288.705,289.272,260.228,292.079,290.648,262.373,-0.759859,-0.57808,234.897,259.387
2015-12-11 11:00,0.0555524,288.977,288.736,259.574,291.686,290.238,262.965,0.268113,0.146026,235.247,259.051
2015-12-11 12:00,0.0527229,289.647,288.303,259.354,291.686,290.511,262.492,0.165329,0.0943332,233.677,258.457
2015-12-11 13:00,0.0621007,289.381,287.978,258.469,291.029,289.689,261.66,0.12918,0.0849509,232.709,257.333
2015-12-11 14:00,0.0334212,288.291,287.651,259.024,290.764,289.137,261.421,0.0861492,0.0502008,232.251,256.45
2015-12-11 15:00,0.0189796,288.43,288.087,259.244,291.292,289.964,261.898,0.0647265,0.0349878,233.159,256.982
2015-12-11 16:00,0.0682943,288.012,285.095,257.459,287.679,285.777,258.76,0.107181,0.0848279,230.916,254.999
2015-12-11 17:00,0.20443,276.594,258.365,242.799,255.633,252.927,237.222,0.261395,0.261007,222.799,237.468
2015-12-11 18:00,0.359938,272.836,244.38,235.823,241.344,238.515,228.614,0.41055,0.438365,219.982,230.524
2015-12-11 19:00,0.509771,279.278,257.511,241.5,254.263,250.557,234.134,0.506892,0.545153,219.982,234.542
2015-12-11 20:00,0.579717,287.155,278.968,254.454,280.201,277.396,252.464,0.494697,0.553458,227.51,250.95
2015-12-11 21:00,0.0,285.202,282.566,256.664,284.501,281.441,255.406,0.0,0.0,228.048,252.146
2015-12-11 22:00,0.0,260.395,246.313,235.985,242.978,240.802,230.768,0.0,0.0,221.258,230.011
2015-12-11 23:00,0.0,278.684,271.574,250.931,272.264,269.494,248.768,0.0,0.0,226.499,245.575
2015-12-12 00:00,0.00162197,276.811,270.746,250.303,270.169,267.339,247.959,0.0,0.0,225.352,244.294
2015-12-12 01:00,0.0,265.095,256.644,242.513,254.263,251.75,239.025,0.0,0.0,226.122,238.165
2015-12-12 02:00,-0.00120041,281.165,273.997,253.02,274.467,270.311,248.229,0.0,0.0,225.058,244.764
2015-12-12 03:00,0.0,264.739,243.719,237.415,237.451,230.688,221.598,0.0,0.0,213.234,226.379
2015-12-12 04:00,0.0,287.155,286.439,260.119,288.897,287.048,260.098,0.0,0.0,234.543,254.443
2015-12-12 05:00,0.00123648,287.871,288.195,261.519,291.292,290.101,263.2,0.0,0.0,234.897,255.091
2015-12-12 06:00,-0.00141542,287.01,286.882,260.661,290.101,288.167,262.136,0.0,0.0,234.615,254.256
2015-12-12 07:00,0.00353232,286.864,285.208,259.683,287.951,285.35,259.977,0.0,0.0,232.328,251.85
2015-12-12 08:00,-0.0025164,286.421,285.433,259.354,288.358,286.06,259.614,0.0,-0.00283485,233.677,252.342
2015-12-12 09:00,-0.0141788,287.871,286.882,259.902,289.701,286.907,260.701,0.0,0.0,234.257,252.828
2015-12-12 10:00,-0.186664,287.444,285.882,259.354,288.628,286.06,259.127,-0.644961,-0.525717,232.86,251.552
2015-12-12 11:00,0.168624,288.568,286.105,259.354,288.897,286.343,259.249,0.339095,0.232177,231.787,251.552
2015-12-12 12:00,0.0436548,288.291,285.994,259.134,288.897,286.06,259.492,0.156993,0.0843075,230.996,250.646
2015-12-12 13:00,0.0623099,288.152,284.982,258.358,287.815,285.208,258.76,0.134009,0.085237,230.835,250.442
2015-12-12 14:00,0.0279139,287.3,283.726,257.572,286.033,282.758,257.158,0.0881811,0.0524107,230.43,249.617
2015-12-12 15:00,0.0362881,287.3,283.38,257.572,285.479,281.882,257.282,0.0852942,0.0564539,229.685,249.408
2015-12-12 16:00,0.0823752,283.261,273.997,251.799,275.396,272.246,250.104,0.136688,0.114519,227.055,244.175
2015-12-12 17:00,0.373907,278.075,268.773,248.512,271.303,270.148,252.594,0.488316,0.489235,227.42,246.707
2015-12-12 18:00,0.488577,287.155,271.023,250.177,274.312,273.359,253.111,0.489522,0.487425,227.055,247.371
2015-12-12 19:00,0.704226,289.91,269.201,249.414,272.423,270.473,251.944,0.626054,0.652122,227.055,246.818
2015-12-12 20:00,0.468257,276.155,264.175,246.13,265.482,262.537,245.628,0.452632,0.538505,223.538,240.706
2015-12-12 21:00,-0.0120124,268.382,259.871,243.65,258.304,255.235,239.765,0.0,0.0,223.118,237.468
2015-12-12 22:00,0.0,278.684,274.916,253.381,277.978,276.169,253.881,0.0,0.0,227.87,247.808
2015-12-12 23:00,-0.00219787,284.087,279.091,255.974,280.347,276.477,252.853,0.0,0.0,226.592,245.804
2015-12-13 00:00,0.0,280.799,275.565,253.261,276.772,273.832,252.205,0.0,-0.00182937,226.685,244.175
2015-12-13 01:00,0.00134291,286.569,283.841,258.134,286.447,283.484,257.406,0.0,0.0,228.048,248.133
2015-12-13 02:00,-0.00120069,286.121,283.38,257.798,285.757,283.629,258.147,0.0,-0.00135264,228.4,248.025
2015-12-13 03:00,0.0,287.155,285.321,259.354,287.815,285.208,258.638,0.0,0.0,228.224,248.025
2015-12-13 04:00,0.0,285.97,283.726,258.358,286.31,283.629,258.515,0.0,0.0,226.963,247.808
2015-12-13 05:00,-0.00123513,267.123,257.166,241.791,258.491,255.614,241.374,0.0,0.0,226.311,238.578
2015-12-13 06:00,-0.00141297,277.661,273.333,251.18,274.623,272.565,252.075,0.0,0.0,227.601,244.647
2015-12-13 07:00,0.00176145,281.883,277.476,254.336,279.76,272.565,249.705,0.0,0.0,228.048,244.764
2015-12-13 08:00,-0.00501096,274.073,265.092,247.067,265.654,258.957,243.099,0.0,0.0,227.601,242.105
2015-12-13 09:00,0.0,277.451,269.908,249.542,270.819,266.16,247.823,0.0,0.0,228.4,243.577
2015-12-13 10:00,-0.257169,285.512,283.956,256.434,286.585,283.339,257.53,-0.465441,-0.434571,227.691,247.371
2015-12-13 11:00,0.587572,290.558,268.773,248.642,270.332,264.106,245.905,0.511442,0.526696,227.87,243.457
2015-12-13 12:00,0.601861,286.864,253.04,239.115,252.868,250.757,239.765,0.563211,0.617993,227.691,239.922
2015-12-13 13:00,0.357208,285.357,266.886,246.533,267.185,262.537,243.949,0.394511,0.399898,225.254,239.922
2015-12-13 14:00,0.345006,286.421,265.696,245.859,267.522,263.933,245.905,0.351636,0.359254,227.42,242.848
2015-12-13 15:00,0.13843,285.818,271.162,248.771,271.785,267.673,247.415,0.155448,0.144252,225.643,242.354
2015-12-13 16:00,0.168379,286.421,267.033,246.265,268.358,264.967,246.869,0.174881,0.167952,225.739,242.725
2015-12-13 17:00,0.0506379,288.841,283.611,255.16,286.585,283.049,256.66,0.0884432,0.0614343,226.871,246.032
2015-12-13 18:00,0.177316,288.977,281.029,254.336,284.22,281.882,256.785,0.189434,0.172392,227.238,246.707
2015-12-13 19:00,0.40838,292.534,276.336,251.922,279.022,275.861,252.594,0.374096,0.389601,227.87,245.804
2015-12-13 20:00,1.09377,286.569,256.819,241.207,256.406,250.357,238.577,0.802658,1.05772,226.405,238.027
2015-12-13 21:00,0.0,273.338,263.556,244.626,262.863,255.992,240.646,0.0,0.0,226.122,240.053
2015-12-13 22:00,-0.00367078,284.73,284.982,256.205,288.087,286.767,260.34,0.0,0.0,227.147,250.135
2015-12-13 23:00,-0.00220228,287.587,287.541,257.006,290.632,288.722,261.301,0.0,0.0,230.018,254.907
2015-12-14 00:00,0.00162588,288.012,288.736,257.685,291.686,290.648,262.492,0.0,0.0,238.42,260.052
2015-12-14 01:00,-0.00134385,288.568,288.951,257.685,292.079,290.511,262.847,0.0,0.0,239.954,260.871
2015-12-14 02:00,-0.00120101,283.261,284.185,255.043,286.997,286.767,261.54,0.0,0.0,238.671,260.952
2015-12-14 03:00,0.0,282.753,283.495,254.572,286.722,285.635,260.942,0.0,0.0,237.657,260.708
2015-12-14 04:00,0.0,282.581,283.032,255.277,286.31,285.635,261.062,0.0,0.0,236.874,260.545
2015-12-14 05:00,0.0,283.594,284.3,255.277,287.134,286.202,260.701,0.0,0.0,236.808,259.721
2015-12-14 06:00,0.0,288.152,288.736,257.685,291.555,290.101,262.017,0.0,0.0,235.525,258.628
2015-12-14 07:00,0.00175683,288.291,288.303,257.459,291.292,289.826,262.373,0.0,0.0,236.139,257.942
2015-12-14 08:00,0.0,287.444,286.772,257.006,289.434,287.888,260.581,0.0,0.0,233.75,256.628
2015-12-14 09:00,0.0,257.103,238.83,231.625,234.371,231.203,223.413,0.0,0.0,218.009,226.187
2015-12-14 10:00,-0.119082,258.576,245.676,235.01,242.747,240.576,230.44,-0.391859,-0.357739,222.906,232.347
2015-12-14 11:00,0.466495,267.123,250.175,237.415,247.878,245.399,234.134,0.60562,0.655113,221.145,234.236
2015-12-14 12:00,0.35919,267.123,241.451,232.834,238.199,235.435,225.009,0.491451,0.511131,219.26,228.423
2015-12-14 13:00,0.0582261,286.121,282.096,254.69,284.921,281.588,254.264,0.134859,0.0958692,229.348,250.34
2015-12-14 14:00,0.140147,278.684,259.206,242.513,256.406,250.757,233.976,0.197384,0.181039,220.801,235.592
2015-12-14 15:00,0.0543091,285.97,278.968,254.454,279.466,275.551,252.853,0.0904836,0.0725149,231.709,250.032
2015-12-14 16:00,0.00354926,288.705,288.843,259.354,291.817,290.101,263.318,0.0450773,0.0232907,237.913,257.855
2015-12-14 17:00,0.00393856,289.247,289.272,259.574,292.6,291.057,263.905,0.043352,0.0218691,237.072,257.682
2015-12-14 18:00,0.0122697,289.247,288.951,259.244,292.209,290.511,262.965,0.0623324,0.0322062,234.401,256.805
2015-12-14 19:00,0.0259787,289.113,289.058,259.024,292.209,290.375,263.436,0.100554,0.0636943,233.603,256.271
2015-12-14 20:00,0.116466,289.514,288.951,259.024,291.948,290.238,263.2,0.230094,0.166571,234.686,256.36
2015-12-14 21:00,-0.0124361,282.753,283.841,255.742,286.722,285.493,261.779,0.0,0.0,236.808,256.36
2015-12-14 22:00,0.0,288.977,288.52,258.358,291.555,289.276,263.083,0.0,0.0,238.671,257.508
2015-12-14 23:00,-0.00223163,288.568,288.52,257.91,291.16,289.137,263.2,0.0,0.0,238.483,257.07
2015-12-15 00:00,0.0,275.251,275.565,251.305,277.978,276.938,256.41,0.0,0.0,235.247,254.722
2015-12-15 01:00,-0.00135991,274.787,276.971,252.045,279.76,279.511,259.492,0.0,0.0,236.874,256.982
2015-12-15 02:00,0.0,276.376,276.718,252.29,279.907,279.361,259.735,0.0,0.0,236.004,256.628
2015-12-15 03:00,0.0,288.012,287.869,257.91,290.367,288.584,262.492,0.0,0.0,236.341,257.07
2015-12-15 04:00,0.0,288.568,287.869,257.798,290.5,288.306,262.61,0.0,0.0,235.799,256.716
2015-12-15 05:00,0.0,287.3,286.661,257.006,288.897,286.485,261.062,0.0,0.0,235.731,255.821
2015-12-15 06:00,0.00142395,275.02,274.392,250.931,275.857,274.46,255.153,0.0,0.0,234.041,253.595
2015-12-15 07:00,0.0,286.717,284.755,256.778,286.585,283.629,259.249,0.0,0.0,234.041,253.785
2015-12-15 08:00,0.0,285.357,282.214,255.277,283.938,280.702,256.16,0.0,0.0,232.405,251.949
2015-12-15 09:00,0.0,284.57,279.945,254.099,281.51,277.853,254.646,0.0,0.0,231.63,250.34
2015-12-15 10:00,-0.374341,281.165,278.101,253.261,279.613,276.938,255.28,-0.41204,-0.529088,231.709,250.748
2015-12-15 11:00,0.561977,287.155,280.669,254.572,282.517,280.257,257.777,0.597547,0.63332,232.251,252.439
2015-12-15 12:00,0.0480284,288.43,285.77,257.91,287.951,284.779,259.856,0.154529,0.100208,230.835,251.452
2015-12-15 13:00,0.0204411,288.705,287.212,259.024,290.234,287.888,261.66,0.0923063,0.0527377,233.896,253.595
2015-12-15 14:00,0.0378616,289.247,286.439,258.469,289.166,286.626,260.822,0.0881576,0.0592464,232.251,252.731
2015-12-15 15:00,0.117507,290.041,285.433,257.91,288.493,286.343,261.54,0.139588,0.125713,232.481,253.595
2015-12-15 16:00,0.0568138,290.041,287.212,258.913,290.101,288.167,262.255,0.0871888,0.0645265,233.823,254.629
2015-12-15 17:00,0.0984419,289.647,286.55,258.469,289.434,287.609,262.373,0.131694,0.115284,234.968,254.536
2015-12-15 18:00,0.0686347,290.041,287.432,259.574,290.5,288.306,262.136,0.118301,0.0940376,235.108,254.443
2015-12-15 19:00,0.259086,291.19,284.528,257.572,287.27,285.493,261.54,0.238171,0.205514,234.615,254.162
2015-12-15 20:00,0.480919,288.012,279.458,254.572,280.493,276.477,254.137,0.407194,0.456386,229.433,248.775
2015-12-15 22:00,0.0,288.841,288.736,259.793,291.817,289.964,264.138,0.0,0.0,232.251,254.999
2015-12-15 23:00,0.0,288.841,288.951,260.337,292.079,290.511,264.138,0.0,0.0,232.097,255.639
2015-12-16 00:00,0.0,289.113,289.379,260.119,292.209,290.784,264.255,0.0,0.0,232.709,257.246
2015-12-16 01:00,0.0,288.568,288.843,259.902,291.817,290.238,264.488,0.0,0.0,232.328,257.246
2015-12-16 02:00,0.0,288.291,289.058,260.011,291.686,290.238,264.255,0.0,0.0,232.02,257.508
2015-12-16 03:00,0.0,288.012,288.087,259.574,291.16,289.276,263.553,0.0,0.0,232.251,258.2
2015-12-16 04:00,-0.00116504,288.152,288.628,259.574,291.423,289.964,263.2,0.0,0.0,232.633,258.543
2015-12-16 05:00,-0.00124501,288.705,288.951,259.793,291.817,290.375,263.905,0.0,0.0,232.935,258.628
2015-12-16 06:00,-0.0014216,288.705,289.165,259.574,292.209,290.648,264.138,0.0,0.0,233.53,258.628
2015-12-16 07:00,0.0,288.43,287.869,258.469,290.234,288.445,262.965,0.0,0.0,232.784,257.769
2015-12-16 08:00,-0.00250192,288.841,288.843,259.024,291.555,289.964,263.905,0.0,0.0,234.257,259.304
2015-12-16 09:00,-0.0046206,288.43,288.736,258.913,291.555,289.964,263.787,0.0,0.0,233.456,258.628
2015-12-16 10:00,-0.105372,288.977,288.843,259.574,291.555,289.964,263.787,-0.327133,-0.319137,234.543,258.372
2015-12-16 11:00,0.0726745,289.514,289.058,259.683,291.817,290.238,263.787,0.257321,0.160078,233.968,258.2
2015-12-16 12:00,0.167298,291.19,287.102,258.913,289.835,288.445,263.436,0.223373,0.185138,233.823,258.114
2015-12-16 13:00,0.141212,291.686,287.651,259.464,290.632,289.137,263.67,0.183203,0.15176,234.113,257.855
2015-12-16 14:00,0.0360308,289.647,288.412,260.337,291.423,289.826,263.67,0.0931273,0.070836,233.01,257.246
2015-12-16 15:00,0.0122888,289.514,289.486,260.984,292.47,290.921,263.905,0.0535109,0.0283572,232.097,256.716
2015-12-16 16:00,0.00532794,289.514,289.486,260.661,292.6,290.921,263.905,0.0451116,0.0215155,231.865,256.181
2015-12-16 17:00,0.00787234,289.514,289.486,261.091,292.47,290.784,263.905,0.0483249,0.0238428,232.02,255.457
2015-12-16 18:00,0.0171365,289.779,289.058,260.661,291.948,290.375,263.787,0.0725474,0.0420152,232.86,255.275
2015-12-16 19:00,0.0295222,290.041,289.272,260.661,292.209,290.238,264.255,0.121857,0.0745111,233.308,255.548
2015-12-16 20:00,0.0857399,289.381,289.272,260.769,292.47,290.648,264.138,0.241986,0.173119,234.041,255.911
2015-12-16 21:00,0.0,288.977,289.272,260.876,292.209,290.375,263.905,0.0,0.0,236.139,256.181
2015-12-16 22:00,0.0,288.705,288.628,260.661,291.423,289.826,263.553,0.0,0.0,236.742,256.271
2015-12-16 23:00,-0.00224176,288.977,289.058,261.091,291.948,290.238,263.905,0.0,0.00226319,237.398,256.539
2015-12-17 00:00,0.0016508,287.871,287.869,260.553,290.5,288.999,263.436,0.0,0.0,237.913,256.628
2015-12-17 01:00,0.0,289.247,289.165,261.412,291.948,290.238,264.138,0.0,0.0,238.231,256.982
2015-12-17 02:00,0.0,289.113,288.843,260.876,291.555,289.551,263.905,0.0,0.0,238.231,257.158
2015-12-17 03:00,-0.00115589,284.888,285.095,259.244,288.222,286.626,262.136,0.0,0.0,239.043,257.421
2015-12-17 04:00,0.0,287.871,287.541,260.228,290.101,288.167,263.083,0.0,0.0,239.471,257.769
2015-12-17 05:00,-0.00124374,282.059,282.799,257.798,285.895,284.779,262.373,0.0,0.0,239.653,258.286
2015-12-17 06:00,0.0,284.73,284.755,258.691,287.815,286.343,262.61,0.0,0.0,239.227,258.114
2015-12-17 07:00,0.001763,278.482,280.308,256.089,283.514,282.758,260.822,0.0,0.0,239.288,258.114
2015-12-17 08:00,0.0,280.427,281.978,256.892,284.921,284.061,262.255,0.0,0.0,239.227,258.372
2015-12-17 09:00,0.0,289.247,289.272,261.838,291.817,289.964,263.436,0.0,0.0,239.532,258.372
2015-12-17 10:00,0.0,289.514,289.272,261.519,292.079,290.238,263.436,-0.308568,-0.234131,239.349,258.543
2015-12-17 11:00,0.0267127,289.247,288.951,261.625,291.817,289.826,263.553,0.220522,0.114614,239.166,258.286
2015-12-17 12:00,0.0129287,288.977,288.843,261.412,291.423,289.551,263.67,0.120414,0.0619983,238.857,258.286
2015-12-17 13:00,0.00685106,289.113,288.628,261.091,291.16,289.276,263.318,0.0831445,0.0391938,238.357,257.508
2015-12-17 14:00,0.161448,291.065,285.321,259.354,288.087,286.343,262.136,0.162429,0.13231,238.483,257.682
2015-12-17 15:00,0.339102,288.291,280.669,256.549,283.938,283.484,261.062,0.31687,0.315736,238.671,257.421
2015-12-17 16:00,0.314401,288.012,280.066,255.974,283.23,282.758,261.421,0.308314,0.299474,238.041,257.333
2015-12-17 17:00,0.440614,286.717,279.945,256.089,282.946,282.467,260.942,0.481323,0.488514,237.913,257.246
2015-12-17 18:00,0.466892,288.152,280.066,256.32,282.803,282.028,260.581,0.465687,0.463952,237.657,257.246
2015-12-17 19:00,0.562794,286.717,280.187,255.974,283.088,282.467,260.461,0.573066,0.583029,237.913,257.942
2015-12-17 20:00,0.320645,281.883,281.386,256.32,284.079,283.339,261.182,0.367309,0.342752,238.231,258.2
2015-12-17 21:00,0.0,280.982,281.267,256.778,284.079,283.484,261.301,0.0,-0.0130971,238.671,257.769
2015-12-17 22:00,0.0,283.261,282.448,257.12,285.34,284.061,261.54,0.0,0.0,238.981,258.114
2015-12-17 23:00,0.0,283.093,283.148,257.459,285.757,284.492,261.301,0.0,0.0,238.981,257.855
2015-12-18 00:00,0.0,280.427,282.096,256.664,284.921,284.061,261.182,0.0,0.0,238.294,257.333
2015-12-18 01:00,0.0,282.581,283.032,257.346,285.895,284.779,262.017,0.0,0.0,238.041,259.304
2015-12-18 02:00,0.0,283.093,283.611,257.459,286.172,285.065,261.898,0.0,0.0,238.168,259.22
2015-12-18 03:00,0.00115581,280.799,282.566,257.006,285.201,284.492,261.66,0.0,0.0,238.671,259.721
2015-12-18 04:00,0.0,275.48,277.098,253.98,280.054,279.661,259.735,0.0,0.0,239.714,259.387
2015-12-18 05:00,0.00124251,277.869,279.336,254.926,282.087,281.735,260.942,0.0,0.0,241.246,260.952
2015-12-18 06:00,0.00141703,284.57,284.528,257.572,286.997,285.919,262.255,0.0,0.0,242.099,262.545
2015-12-18 07:00,0.0,279.278,281.386,255.043,284.361,284.205,261.66,0.0,0.0,246.75,264.989
2015-12-18 08:00,0.0,286.421,286.882,258.246,289.032,287.748,263.2,0.0,0.0,248.137,266.384
2015-12-18 09:00,0.0,288.977,289.272,259.683,291.16,289.551,263.2,0.0,0.0,247.617,267.032
2015-12-18 10:00,-0.0627921,288.977,289.379,260.011,291.423,289.826,263.787,-0.26583,-0.253569,247.186,266.888
2015-12-18 11:00,0.0472409,289.381,289.272,259.902,291.423,289.826,263.67,0.234279,0.143078,245.557,266.601
2015-12-18 12:00,0.0844103,291.065,287.978,259.464,290.234,288.584,263.318,0.173177,0.121271,245.151,265.655
2015-12-18 13:00,0.167128,292.534,285.546,257.91,288.087,286.907,262.965,0.19966,0.173348,245.048,265.655
2015-12-18 14:00,0.46983,287.871,280.789,255.393,283.938,284.061,262.492,0.463837,0.497365,245.099,265.36
2015-12-18 15:00,0.420215,285.202,280.549,255.16,283.514,283.484,261.779,0.462981,0.484584,243.846,264.54
2015-12-18 16:00,0.179408,288.977,283.956,257.006,286.585,285.777,262.847,0.192513,0.18471,243.147,264.839
2015-12-18 17:00,0.0511071,289.514,287.651,259.354,289.701,288.306,263.553,0.083216,0.0635024,242.929,264.314
2015-12-18 18:00,0.0439271,290.171,288.736,259.574,290.764,289.276,263.436,0.0826511,0.0566656,243.039,264.389
2015-12-18 19:00,0.1173,290.939,288.736,259.574,290.632,289.276,263.905,0.161391,0.129523,242.765,264.314
2015-12-18 20:00,0.345245,290.301,288.412,259.902,290.632,288.999,263.553,0.31602,0.320285,241.189,263.012
2015-12-18 21:00,0.0263659,287.587,288.412,259.354,290.632,289.137,263.436,0.0,0.0,241.189,263.476
2015-12-18 22:00,-0.00379065,287.155,287.651,259.354,290.101,288.861,263.787,0.0,0.0,239.834,262.857
2015-12-18 23:00,0.0,287.01,287.432,259.244,290.101,288.861,263.553,0.0,0.0,240.074,263.167
2015-12-19 00:00,-0.00165578,288.43,288.951,260.011,291.423,289.964,264.138,0.0,0.0,240.371,263.399
2015-12-19 01:00,-0.00136448,287.871,288.412,260.011,290.632,289.413,263.787,0.0,0.0,240.134,263.09
2015-12-19 02:00,-0.00121654,287.01,287.869,259.793,290.234,288.999,264.255,0.0,0.0,239.653,262.857
2015-12-19 03:00,0.0,287.155,287.978,259.902,290.234,289.137,263.67,0.0,0.0,240.193,263.09
2015-12-19 04:00,0.0,283.428,284.755,258.246,287.27,286.907,263.2,0.0,0.0,239.653,262.623
2015-12-19 05:00,0.0,283.76,284.982,258.022,287.407,286.485,262.965,0.0,0.0,239.894,262.701
2015-12-19 06:00,0.0,288.977,289.699,260.876,292.079,290.511,264.837,0.0,0.0,239.532,262.466
2015-12-19 07:00,0.0,288.568,289.165,260.553,291.686,290.375,264.255,0.0,0.0,239.41,261.914
2015-12-19 08:00,0.0,287.155,287.76,259.793,290.367,288.999,263.787,0.0,0.0,239.532,262.309
2015-12-19 09:00,0.0,285.665,286.328,258.802,288.897,287.888,263.436,0.0,0.0,240.193,262.466
2015-12-19 10:00,-0.0896274,285.202,285.77,259.024,288.493,287.469,263.553,-0.303549,-0.301614,241.131,262.545
2015-12-19 11:00,0.449998,287.729,285.208,258.691,287.815,286.907,262.847,0.508017,0.488717,241.59,263.09
2015-12-19 12:00,0.208664,290.813,286.992,259.354,289.434,288.167,263.553,0.253972,0.217242,241.704,263.244
2015-12-19 13:00,0.188175,290.685,287.322,259.902,289.3,288.167,263.318,0.238991,0.208508,241.476,262.779
2015-12-19 14:00,0.152371,289.113,286.328,259.244,288.763,287.748,263.2,0.188681,0.167288,241.817,263.167
2015-12-19 15:00,0.288509,287.155,281.624,257.12,284.501,284.061,262.136,0.30535,0.310803,241.986,262.779
2015-12-19 16:00,0.374759,284.888,280.429,256.205,283.23,283.194,261.062,0.457163,0.48234,241.304,262.935
2015-12-19 17:00,0.384941,285.665,280.909,256.089,283.656,283.629,261.54,0.460624,0.491724,241.476,263.244
2015-12-19 18:00,0.187563,291.686,286.328,259.024,288.493,287.329,262.61,0.183559,0.159846,241.419,262.779
2015-12-19 19:00,0.449192,291.563,284.755,258.469,287.679,286.907,263.318,0.392699,0.398183,241.131,262.623
2015-12-19 20:00,0.350654,288.43,286.661,259.354,289.3,287.888,262.965,0.335964,0.316743,240.193,262.23
2015-12-19 21:00,0.01341,287.01,287.102,259.683,289.568,287.609,262.847,0.0,0.0,239.471,261.435
2015-12-19 22:00,0.00380899,282.923,283.148,257.798,286.447,285.35,261.54,0.0,0.0,239.288,260.545
2015-12-19 23:00,0.0,287.587,287.541,259.793,290.101,288.306,262.965,0.0,0.0,239.043,260.708
2015-12-20 00:00,0.0,288.568,288.843,260.984,291.16,289.276,263.2,0.0,0.0,238.919,260.789
2015-12-20 01:00,-0.00136575,288.43,288.52,260.445,290.632,288.999,263.553,0.0,0.0,238.857,260.545
2015-12-20 02:00,0.0,288.43,288.52,260.769,290.764,288.999,263.2,0.0,0.0,238.919,260.789
2015-12-20 03:00,0.00115572,288.152,288.195,260.769,290.632,288.999,263.436,0.0,0.0,238.671,261.194
2015-12-20 04:00,-0.00116272,288.291,288.52,260.984,290.897,289.413,263.318,0.0,0.0,238.608,261.275
2015-12-20 05:00,0.00124011,288.152,288.52,260.984,291.029,289.413,263.436,0.0,0.0,237.785,260.789
2015-12-20 06:00,0.0,288.291,288.52,260.984,291.029,289.137,263.083,0.0,0.0,237.592,260.627
2015-12-20 07:00,0.0,288.568,288.951,260.984,291.292,289.276,263.318,0.0,0.0,238.041,260.545
2015-12-20 08:00,0.0,288.705,288.843,261.198,291.423,289.689,263.318,0.0,0.0,238.104,260.381
2015-12-20 09:00,0.0,288.568,288.843,260.661,291.292,289.551,263.436,0.0,0.0,238.357,260.299
2015-12-20 10:00,-0.028535,287.871,288.087,260.011,290.5,288.861,262.965,-0.241605,-0.201655,238.231,260.545
2015-12-20 11:00,0.123955,288.977,288.087,260.228,290.5,288.999,263.318,0.314857,0.22247,238.041,260.627
2015-12-20 12:00,0.0392837,289.647,289.058,260.661,291.555,289.964,263.67,0.149677,0.0892333,238.483,261.033
2015-12-20 13:00,0.0252985,289.514,289.165,260.769,291.686,290.101,263.436,0.0954173,0.0534026,238.671,261.113
2015-12-20 14:00,0.0114412,289.113,289.379,260.876,292.079,290.375,263.318,0.0661962,0.0327266,238.733,261.194
2015-12-20 15:00,0.00879966,289.113,289.486,260.769,292.079,290.511,263.67,0.0506645,0.0266513,238.795,260.871
2015-12-20 16:00,0.024859,289.514,288.736,260.337,291.423,289.689,263.67,0.0631441,0.0394375,238.981,261.275
2015-12-20 17:00,0.0156961,289.514,289.486,260.769,292.079,290.648,264.022,0.0564818,0.033673,239.954,261.834
2015-12-20 18:00,0.143426,289.247,286.217,259.024,288.763,287.888,262.61,0.209944,0.203697,239.593,261.435
2015-12-20 19:00,0.421949,285.357,280.789,255.742,283.23,283.049,261.062,0.508176,0.565528,240.134,261.515
2015-12-20 20:00,0.173308,285.818,285.882,258.358,288.222,287.048,262.847,0.254863,0.230216,241.361,262.388
2015-12-20 21:00,-0.0136554,286.121,286.661,259.134,289.032,9.96921e+36,262.728,0.0,0.0,242.099,262.388
2015-12-20 22:00,0.0,289.113,289.272,260.769,291.817,290.238,263.553,0.0,0.0,242.655,262.466
2015-12-20 23:00,0.0,276.155,278.474,254.454,280.931,280.85,260.219,0.0,0.0,241.76,261.595
2015-12-21 00:00,-0.00166115,280.799,281.267,256.32,283.938,282.904,260.581,0.0,0.0,240.193,260.708
2015-12-21 01:00,-0.00136707,287.587,288.087,260.011,290.632,289.276,263.083,0.0,0.0,240.312,260.952
2015-12-21 02:00,0.0,284.73,285.208,258.246,287.815,286.626,262.136,0.0,0.00122924,240.489,260.871
2015-12-21 03:00,0.0,284.888,285.208,258.802,287.543,286.202,262.136,0.0,0.0,240.782,260.545
2015-12-21 04:00,0.0,288.291,288.951,260.769,291.555,289.689,262.965,0.0,0.0,240.607,260.217
2015-12-21 05:00,0.00123896,287.871,288.303,260.337,291.16,289.551,263.318,0.0,0.0,240.607,260.135
2015-12-21 06:00,0.00141051,288.012,288.843,260.876,291.423,289.964,262.965,0.0,0.0,240.548,260.135
2015-12-21 07:00,0.0,288.841,289.379,260.661,292.209,290.375,264.022,0.0,0.0,240.899,260.217
2015-12-21 08:00,0.0,287.871,288.52,260.119,291.16,289.413,263.2,0.0,0.0,241.015,260.299
2015-12-21 09:00,0.0,286.421,286.772,258.58,289.434,287.888,262.492,0.0,0.0,241.189,260.627
2015-12-21 10:00,-0.0546925,288.012,288.303,259.793,290.897,289.276,263.083,-0.23154,-0.193254,241.189,260.708
2015-12-21 11:00,0.535394,288.152,285.546,258.58,287.951,287.048,261.898,0.600498,0.617729,240.193,260.463
2015-12-21 12:00,0.0854439,289.647,288.303,260.228,291.029,289.689,262.847,0.186428,0.132709,238.733,260.135
2015-12-21 13:00,0.115227,290.171,287.432,260.228,289.968,288.306,262.728,0.169759,0.137268,236.609,259.804
2015-12-21 14:00,0.051538,289.514,288.195,260.876,291.029,289.689,263.2,0.0969715,0.0674472,235.936,259.97
2015-12-21 15:00,0.00704166,289.247,289.058,261.412,291.686,290.238,263.553,0.0536595,0.0231042,235.662,259.887
2015-12-21 16:00,0.0905209,289.514,286.992,260.119,289.701,288.445,262.728,0.112712,0.0931782,235.317,259.638
2015-12-21 17:00,0.0489932,289.514,288.087,260.769,291.029,289.276,263.436,0.0746685,0.055397,235.178,259.554
2015-12-21 18:00,0.0533627,289.514,288.087,260.769,290.897,289.137,263.2,0.0944717,0.073463,234.113,259.22
2015-12-21 19:00,0.0833106,290.171,289.165,261.625,291.817,290.511,263.787,0.141078,0.102391,233.085,258.628
2015-12-21 20:00,0.10815,289.514,289.272,261.519,292.079,290.238,263.318,0.221295,0.172874,231.943,257.595
2015-12-21 21:00,0.0139206,286.864,286.992,260.011,289.701,288.027,262.492,0.0,0.0,231.156,256.45
2015-12-21 22:00,0.0,286.569,286.882,260.011,289.434,287.888,262.017,0.0,0.0,231.787,256.181
2015-12-21 23:00,-0.0022712,280.239,279.702,255.974,282.231,280.85,258.515,0.0,0.0,230.266,254.068
2015-12-22 00:00,-0.00166398,287.871,287.869,260.228,290.367,288.306,262.61,0.0,0.0,230.018,254.999
2015-12-22 01:00,0.0,285.512,284.185,258.246,285.479,283.339,258.638,0.0,0.00138152,227.87,252.146
2015-12-22 02:00,-0.00121817,285.665,283.264,257.798,285.479,283.484,258.515,0.0,0.0,228.136,253.021
2015-12-22 03:00,0.0,285.97,283.495,258.022,286.172,283.773,258.638,0.0,0.0,228.136,252.925
2015-12-22 04:00,0.0,287.155,286.882,259.574,289.434,287.748,261.66,0.0,0.0,228.921,254.068
2015-12-22 05:00,0.0,280.613,276.08,253.14,276.468,273.832,252.205,0.0,0.0,227.42,248.882
2015-12-22 06:00,0.0,279.667,273.599,251.922,274.156,271.765,250.369,0.0,0.0014219,226.405,246.595
2015-12-22 07:00,0.0,279.473,273.199,251.676,273.686,271.121,250.236,0.0,0.0,226.499,245.918
2015-12-22 08:00,-0.00244576,280.982,275.046,252.656,275.242,272.565,250.369,0.0,0.0,226.216,245.114
2015-12-22 09:00,0.0,286.271,285.77,258.58,288.087,286.202,260.942,0.0,0.0,230.835,254.536
2015-12-22 10:00,-0.0262874,285.202,285.77,258.691,288.763,287.329,261.54,-0.155803,-0.159232,236.542,256.539
2015-12-22 11:00,0.196515,287.871,285.321,257.459,287.815,286.202,261.182,0.344662,0.269248,242.155,258.286
2015-12-22 12:00,0.435381,287.587,282.214,255.51,284.781,283.629,260.942,0.491515,0.506141,242.544,258.798
2015-12-22 13:00,0.0138532,289.113,289.272,259.574,291.948,290.238,262.847,0.0938358,0.0512806,242.984,259.721
2015-12-22 14:00,0.0114629,289.113,289.272,259.574,292.34,290.648,263.318,0.0695571,0.0366463,243.418,260.135
2015-12-22 15:00,0.0176065,289.514,289.805,259.902,292.86,291.464,264.138,0.0581389,0.0337722,242.765,260.627
2015-12-22 16:00,0.00886974,289.113,290.017,260.228,293.119,292.006,263.67,0.0465619,0.0250727,242.875,260.463
2015-12-22 17:00,0.0489289,290.301,288.843,259.244,292.079,290.784,263.553,0.0795418,0.0612518,242.929,260.871
2015-12-22 18:00,0.101631,290.939,288.412,259.464,291.423,290.238,263.67,0.129077,0.112375,243.256,261.113
2015-12-22 19:00,0.15867,291.315,288.951,259.683,291.686,290.511,263.553,0.189305,0.171109,243.686,261.355
2015-12-22 20:00,0.382749,288.43,287.541,259.024,290.101,288.999,262.492,0.376829,0.422353,243.686,261.113
2015-12-22 21:00,-0.0142073,286.271,287.541,259.244,290.367,289.137,262.847,0.0,0.0,243.526,261.033
2015-12-22 22:00,0.0,285.97,287.322,259.354,289.835,288.584,262.728,0.0,0.0,243.472,260.789
2015-12-22 23:00,0.0,288.705,289.699,260.984,292.73,291.329,263.905,0.0,0.0,243.147,260.952
2015-12-23 00:00,0.0,284.888,285.77,258.691,288.222,287.048,261.301,0.0,0.0,243.686,260.708
2015-12-23 01:00,-0.00136985,287.871,288.52,260.228,291.555,290.101,263.083,0.0,0.0,243.472,260.463
2015-12-23 02:00,-0.00121876,287.3,288.087,260.228,290.897,289.276,263.2,0.0,0.0,243.093,260.708
2015-12-23 03:00,-0.00115575,287.729,288.52,260.445,291.292,289.826,263.318,0.0,0.0,242.82,260.299
2015-12-23 04:00,0.0,287.444,288.412,260.445,291.16,289.689,263.318,0.0,0.0,241.533,260.463
2015-12-23 05:00,0.0,288.291,288.951,260.553,291.686,290.101,263.436,0.0,0.0,240.193,260.381
2015-12-23 06:00,0.0,287.01,287.651,259.793,290.5,289.413,263.2,0.0,0.0,239.774,260.463
2015-12-23 07:00,0.00173857,287.01,288.412,260.119,291.16,289.826,263.2,0.0,0.0,239.349,260.789
2015-12-23 08:00,-0.00487466,287.729,288.52,260.011,291.16,289.826,263.553,0.0,0.0,239.532,260.789
2015-12-23 09:00,0.0,288.977,289.911,260.769,292.86,291.735,263.553,0.0,0.0,237.977,260.299
2015-12-23 10:00,0.0,288.012,289.272,260.661,292.209,291.193,264.022,-0.193104,-0.179081,236.274,260.217
2015-12-23 11:00,0.290354,289.514,287.978,260.011,291.029,289.826,262.847,0.38975,0.343177,236.808,259.887
2015-12-23 12:00,0.172106,290.558,287.869,259.902,290.897,289.689,263.083,0.235397,0.200482,235.867,259.721
2015-12-23 13:00,0.0786353,290.429,288.951,260.228,291.686,290.375,263.787,0.139035,0.102736,237.463,259.887
2015-12-23 14:00,0.0841225,289.779,288.303,260.011,291.16,289.826,263.083,0.123027,0.0984378,237.785,259.638
2015-12-23 15:00,0.0897925,289.381,287.212,259.464,290.234,288.999,262.61,0.123731,0.106648,238.608,260.135
2015-12-23 16:00,0.232227,286.271,282.916,257.12,285.201,284.492,260.701,0.291186,0.302454,238.546,259.638
2015-12-23 17:00,0.0351772,290.041,289.379,260.445,292.34,291.057,263.787,0.0694972,0.0493243,238.546,261.194
2015-12-23 18:00,0.118267,290.429,288.195,259.793,291.029,289.964,263.436,0.141008,0.129144,238.733,261.675
2015-12-23 19:00,0.226129,290.558,287.869,259.683,290.632,289.413,262.965,0.255284,0.250032,238.981,261.275
2015-12-23 20:00,0.492118,288.705,286.992,259.024,289.968,288.722,263.083,0.424116,0.505694,239.471,261.834
2015-12-23 21:00,-0.0145171,283.76,284.414,257.798,287.407,286.485,262.492,0.0,0.0,240.014,261.834
2015-12-23 22:00,0.0,287.729,288.303,260.119,290.764,289.551,263.67,0.0,0.0,240.312,262.309
2015-12-23 23:00,-0.00228459,287.01,287.869,260.228,290.632,289.137,263.318,0.0,0.0,240.957,261.914
2015-12-24 00:00,0.0,281.883,282.566,257.233,285.895,285.065,262.136,0.0,0.0,241.246,261.755
2015-12-24 01:00,0.00137131,279.081,281.386,256.205,284.22,283.773,261.421,0.0,-0.00138442,240.548,260.789
2015-12-24 02:00,0.0,281.526,282.331,257.346,285.201,284.492,261.779,0.0,0.0,239.834,259.721
2015-12-24 03:00,0.0011558,280.239,281.386,256.778,284.501,283.917,261.779,0.0,0.0,239.532,259.471
2015-12-24 04:00,0.0,280.982,281.978,257.12,284.921,284.061,261.66,0.0,0.0,238.483,259.051
2015-12-24 05:00,0.0,288.291,288.412,260.769,290.897,289.276,262.728,0.0,0.0,238.294,258.882
2015-12-24 06:00,0.0,288.568,289.058,261.625,291.686,289.964,263.67,0.0,0.0,238.733,258.798
2015-12-24 07:00,0.00173485,288.705,289.379,261.412,292.34,290.921,264.022,0.0,0.0,238.733,258.372
2015-12-24 08:00,0.0,288.43,289.165,261.519,292.209,290.511,263.67,0.0,0.0,237.721,257.508
2015-12-24 09:00,-0.00436707,286.864,287.212,260.119,290.234,288.999,262.847,0.0,0.0,237.463,257.158
2015-12-24 10:00,-0.171442,285.512,286.105,259.574,288.897,287.748,262.847,-0.20737,-0.247258,237.203,256.628
2015-12-24 11:00,0.271445,289.247,287.651,260.661,290.5,288.861,263.2,0.381037,0.324521,237.398,256.716
2015-12-24 12:00,0.129497,289.91,287.978,260.661,290.897,289.137,263.318,0.210856,0.167609,238.546,257.769
2015-12-24 13:00,0.0509598,289.514,288.303,260.769,291.16,289.689,263.436,0.121598,0.0841859,238.981,258.286
2015-12-24 14:00,0.0363466,289.247,288.843,260.553,291.686,290.238,263.318,0.0826056,0.0540755,237.721,258.457
2015-12-24 15:00,0.070415,289.381,287.76,259.902,290.632,289.276,262.965,0.0983735,0.0799742,237.072,258.882
2015-12-24 16:00,0.166497,288.291,285.546,258.58,288.087,286.767,262.61,0.193463,0.189547,235.247,258.543
2015-12-24 18:00,0.11313,290.041,287.76,259.793,290.234,288.722,263.083,0.136548,0.114212,232.097,257.595
2015-12-24 19:00,0.264316,289.514,286.328,258.802,288.763,287.609,262.255,0.284282,0.281267,231.865,257.855
2015-12-24 20:00,0.407623,288.705,287.432,259.024,289.968,288.722,263.083,0.374507,0.41152,237.006,260.381
2015-12-24 21:00,0.0,285.512,285.321,257.459,287.27,285.777,260.701,0.0,0.0,237.785,260.463
2015-12-24 22:00,-0.00391398,286.421,286.992,258.58,289.568,288.445,262.847,0.0,0.0,237.977,260.135
2015-12-24 23:00,0.0,286.421,286.328,258.134,288.628,287.048,261.301,0.0,-0.00231353,237.657,258.372
2015-12-25 00:00,-0.001673,288.291,288.736,259.464,291.555,290.101,263.905,0.0,0.0,237.203,258.457
2015-12-25 01:00,-0.00137281,287.444,287.978,258.691,290.5,288.584,263.553,0.0,0.0,237.528,258.882
2015-12-25 02:00,0.0,280.05,281.029,254.926,283.938,283.194,261.301,0.0,0.00123171,237.721,257.855
2015-12-25 03:00,-0.00115588,279.859,279.945,254.454,282.946,282.175,261.062,0.0,0.0,238.795,258.028
2015-12-25 04:00,-0.00116031,286.569,286.439,258.022,289.166,287.469,262.255,0.0,0.0,238.294,258.2
2015-12-25 05:00,0.0,285.665,286.328,257.798,289.166,287.748,262.847,0.0,0.0,237.849,258.286
2015-12-25 06:00,0.0,281.705,281.386,255.626,284.501,283.339,260.942,0.0,0.00141591,237.137,256.982
2015-12-25 07:00,0.00173124,283.261,282.799,255.974,285.895,284.492,261.301,0.0,0.0,237.721,256.539
2015-12-25 08:00,0.0,280.239,280.669,255.043,283.656,282.467,260.461,0.0,0.0,238.546,256.45
2015-12-25 09:00,0.0,279.081,279.58,254.217,282.946,282.028,260.461,0.0,0.0,238.104,256.45
2015-12-25 10:00,-0.023728,276.155,277.098,252.656,280.493,280.406,259.492,-0.200905,-0.191639,238.671,256.716
2015-12-25 11:00,0.641032,287.871,278.968,253.98,282.803,281.735,260.098,0.603745,0.625345,239.043,257.508
2015-12-25 12:00,0.506229,291.686,278.226,253.98,281.655,280.998,259.856,0.482201,0.497619,238.857,257.421
2015-12-25 13:00,0.559003,290.301,276.463,252.777,280.054,279.959,259.977,0.563648,0.599472,239.714,257.682
2015-12-25 14:00,0.499501,289.647,277.35,253.381,281.076,280.554,259.614,0.471539,0.512004,239.834,258.028
2015-12-25 15:00,0.244621,290.558,281.029,255.393,284.22,283.194,260.581,0.239902,0.24163,239.288,257.682
2015-12-25 16:00,0.0760896,289.247,285.994,257.572,288.493,286.907,262.255,0.101881,0.0803898,238.981,257.246
2015-12-25 17:00,0.307736,288.568,279.458,254.099,281.943,281.146,259.249,0.305086,0.308712,237.203,255.366
2015-12-25 18:00,0.446413,288.012,278.226,253.14,281.076,280.406,259.127,0.44707,0.460372,237.592,255.911
2015-12-25 19:00,0.600571,284.087,276.718,252.045,279.17,278.458,257.9,0.607796,0.660127,236.004,254.907
2015-12-25 20:00,0.658853,283.261,275.176,251.305,276.62,274.46,252.594,0.565094,0.67379,233.085,250.544
2015-12-25 21:00,0.0,278.482,279.091,253.02,281.799,280.998,259.249,0.0,0.0,234.401,253.213
2015-12-25 22:00,0.0,285.202,282.331,255.51,284.361,280.85,256.66,0.0,0.0,231.943,251.252
2015-12-25 23:00,0.0,280.05,278.845,253.86,281.366,280.108,257.653,0.0,0.0,230.835,250.646
2015-12-26 00:00,-0.00167618,278.075,279.58,254.454,282.517,281.588,259.614,0.0,0.0,231.315,251.652
2015-12-26 01:00,0.0,287.587,286.105,258.022,288.628,286.202,260.701,0.0,0.0,230.43,251.452
2015-12-26 02:00,0.00122073,287.155,286.105,258.469,288.358,286.06,260.581,0.0,0.0,229.601,251.051
2015-12-26 03:00,0.0,284.57,284.414,257.459,287.134,285.493,261.062,0.0,0.0,229.601,251.252
2015-12-26 04:00,0.0,284.41,284.3,257.685,286.722,284.922,260.822,0.0,0.0,230.101,250.748
2015-12-26 05:00,0.0,284.888,283.726,257.12,285.618,283.629,260.219,0.0,0.0,231.63,251.85
2015-12-26 06:00,0.0,277.869,278.721,254.572,281.51,280.554,258.76,0.0,0.0,232.86,252.439
2015-12-26 07:00,-0.00172773,284.57,283.956,257.346,286.447,284.205,260.34,0.0,0.0,233.968,252.439
2015-12-26 08:00,0.0,286.864,285.321,258.134,287.543,285.208,260.701,0.0,0.0,233.53,252.146
2015-12-26 09:00,0.0,284.73,284.185,257.346,286.722,284.636,260.34,0.0,0.0,234.041,251.949
2015-12-26 10:00,-0.0230399,284.249,283.841,257.459,286.31,284.349,260.219,-0.175571,-0.139561,233.823,251.85
2015-12-26 11:00,0.442835,285.818,283.841,257.346,286.172,284.061,259.856,0.590081,0.535016,234.257,252.244
2015-12-26 12:00,0.177006,288.43,285.095,257.91,287.543,285.35,260.581,0.25167,0.215787,234.827,252.047
2015-12-26 13:00,0.125403,289.514,285.208,258.469,288.087,285.635,260.461,0.174998,0.140669,235.455,252.634
2015-12-26 14:00,0.065087,288.977,285.658,258.469,288.493,285.777,260.942,0.105356,0.077305,236.004,252.634
2015-12-26 15:00,0.0598096,288.43,285.321,258.691,288.222,285.635,260.822,0.0923447,0.0692609,236.475,252.828
2015-12-26 16:00,0.0883778,288.291,284.755,258.134,287.27,284.779,260.581,0.113741,0.094576,236.808,252.439
2015-12-26 17:00,0.0388797,288.705,285.882,258.913,288.493,285.777,260.461,0.0724226,0.0471016,236.071,252.342
2015-12-26 18:00,0.138779,289.247,284.755,257.91,287.407,284.922,260.219,0.162074,0.135274,236.609,252.439
2015-12-26 19:00,0.250976,288.841,284.414,257.91,287.27,285.065,260.942,0.260389,0.249807,235.799,252.439
2015-12-26 20:00,0.641379,285.818,282.566,257.233,285.479,283.629,259.977,0.521618,0.570832,235.038,252.146
2015-12-26 21:00,0.0,284.249,284.071,258.022,286.722,284.636,260.581,0.0,0.0,235.525,252.634
2015-12-26 22:00,0.0,284.41,284.185,258.246,286.997,284.779,260.219,0.0,0.0,236.207,252.828
2015-12-26 23:00,0.0,286.864,286.328,259.244,289.032,286.485,260.701,0.0,0.0,237.333,253.974
2015-12-27 00:00,0.0,287.01,286.105,259.574,289.032,286.626,261.062,0.0,0.0,237.657,254.629
2015-12-27 01:00,0.0,285.045,284.528,258.691,287.134,285.208,260.701,0.0,0.0,237.785,254.907
2015-12-27 02:00,0.0,287.3,286.882,259.793,289.166,286.767,261.301,0.0,0.0,238.671,255.366
2015-12-27 03:00,-0.00115609,287.871,287.322,260.445,289.968,287.469,261.54,0.0,0.0,239.166,255.73
2015-12-27 04:00,0.0,287.729,287.102,260.337,289.968,287.469,261.779,0.0,0.0,238.981,255.911
2015-12-27 05:00,0.00123268,288.012,287.322,260.011,289.835,287.469,261.301,0.0,0.0,239.471,256.091
2015-12-27 06:00,-0.00139882,284.888,284.869,258.691,287.27,285.208,260.461,0.0,0.0,240.193,256.181
2015-12-27 07:00,0.00172434,284.57,284.185,257.91,286.722,284.779,260.701,0.0,0.0,239.834,256.45
2015-12-27 08:00,0.0,281.165,281.505,256.434,284.641,283.339,260.581,0.0,0.0,239.532,256.091
2015-12-27 09:00,0.0,287.155,286.661,259.354,289.032,286.767,261.421,0.0,0.0,239.471,256.45
2015-12-27 10:00,-0.0448377,282.234,282.448,257.12,285.34,284.061,260.581,-0.170838,-0.158432,239.714,256.45
2015-12-27 11:00,0.124339,288.012,286.105,258.913,288.493,286.202,260.942,0.297254,0.191983,239.288,256.628
2015-12-27 12:00,0.468761,286.421,280.308,255.393,283.372,282.467,260.098,0.470609,0.463101,239.593,256.716
2015-12-27 13:00,0.390539,288.977,280.187,255.393,283.372,282.613,260.461,0.401526,0.384885,239.471,256.805
2015-12-27 14:00,0.21826,289.514,283.38,257.459,286.033,284.492,260.942,0.236674,0.206817,237.977,256.805
2015-12-27 15:00,0.268989,286.717,280.066,255.742,283.372,282.904,260.581,0.257524,0.257361,235.662,255.821
2015-12-27 16:00,0.284221,286.271,280.549,256.089,283.514,282.758,260.34,0.295954,0.294067,235.317,256.001
2015-12-27 17:00,0.12998,289.247,284.414,258.022,286.997,285.35,261.182,0.141263,0.12143,235.178,255.911
2015-12-27 18:00,0.0477009,289.247,286.772,259.354,289.166,287.048,261.301,0.0848154,0.0529726,235.317,255.911
2015-12-27 19:00,0.101949,289.247,286.772,259.244,289.166,286.907,261.421,0.157757,0.11712,234.329,255.821
2015-12-27 20:00,0.632407,285.512,282.916,257.006,285.757,284.492,261.301,0.521367,0.579647,233.968,255.73
2015-12-27 21:00,0.0,286.271,285.882,259.134,288.493,286.626,261.062,0.0,0.0,234.185,255.911
2015-12-27 22:00,0.00398795,287.01,286.55,258.913,289.032,287.048,261.421,0.0,0.00402607,234.329,256.001
2015-12-27 23:00,-0.00231405,287.587,286.992,259.354,289.568,287.469,261.898,0.0,0.0,234.257,255.911
2015-12-28 00:00,0.0,287.871,287.322,259.683,289.968,287.888,262.017,0.0,0.0,234.827,256.271
2015-12-28 01:00,0.00137758,286.864,286.661,259.354,289.3,287.329,261.898,0.0,0.0,235.108,256.36
2015-12-28 02:00,0.0,280.239,281.505,256.434,284.361,283.629,261.062,0.0,0.0,235.108,256.36
2015-12-28 03:00,0.0,282.753,283.264,257.685,285.895,284.922,261.182,0.0,0.0,236.004,256.805
2015-12-28 04:00,0.0,278.684,280.308,255.51,283.372,282.613,260.461,0.0,0.0,237.528,257.158
2015-12-28 05:00,0.0,277.24,279.336,254.926,282.374,282.028,260.701,0.0,0.0,238.981,257.595
2015-12-28 06:00,0.0,280.239,281.029,255.626,284.361,283.629,261.182,0.0,0.0,239.593,258.028
2015-12-28 07:00,0.0,287.444,287.322,259.464,289.968,288.306,262.61,0.0,0.0,239.774,258.2
2015-12-28 08:00,0.00239932,288.152,288.087,259.574,291.029,289.276,262.492,0.0,0.0,239.894,258.114
2015-12-28 09:00,0.0,286.569,287.102,259.134,290.234,288.584,262.492,0.0,0.0,240.014,258.2
2015-12-28 10:00,0.0218578,288.43,288.736,260.119,291.817,290.238,263.083,-0.129549,-0.132401,239.774,258.2
2015-12-28 11:00,0.0736578,289.113,288.303,259.902,291.423,289.689,263.2,0.261937,0.163596,240.014,258.114
2015-12-28 12:00,0.110751,289.91,287.322,259.354,290.234,288.584,262.136,0.193228,0.142303,239.834,257.942
2015-12-28 13:00,0.230332,291.44,284.755,257.798,287.815,286.626,262.017,0.248209,0.230185,240.014,258.028
2015-12-28 14:00,0.0268031,289.381,287.76,259.134,290.367,288.861,262.492,0.0875347,0.0560515,240.074,258.372
2015-12-28 15:00,0.154602,288.568,283.726,257.12,286.585,285.635,261.54,0.178502,0.164948,239.834,258.286
2015-12-28 16:00,0.21331,288.291,282.331,256.089,285.34,284.636,261.421,0.216433,0.204671,240.014,258.713
2015-12-28 17:00,0.319398,288.152,281.86,255.858,284.921,284.779,261.66,0.304853,0.316589,239.714,258.286
2015-12-28 18:00,0.261471,290.041,283.38,256.892,286.447,285.635,261.898,0.251576,0.244773,240.134,258.543
2015-12-28 19:00,0.199245,289.779,285.882,258.022,288.628,287.048,262.255,0.224934,0.211737,239.593,258.457
2015-12-28 20:00,0.639805,287.3,283.956,257.006,286.997,286.06,261.66,0.506996,0.55483,239.894,258.628
2015-12-28 21:00,0.0164951,280.613,282.331,255.858,285.618,285.208,261.301,0.0,0.0,240.193,258.543
2015-12-28 22:00,-0.0040145,283.76,284.3,257.346,287.27,286.343,261.421,0.0,0.0,239.593,258.372
2015-12-28 23:00,-0.00232196,281.165,282.566,256.549,285.895,285.065,261.301,0.0,0.0,239.834,258.457
2015-12-29 00:00,0.00168625,280.982,282.566,257.006,285.895,285.208,261.421,0.0,0.0,239.774,258.628
2015-12-29 01:00,0.0,279.859,282.214,256.205,285.201,284.636,261.66,0.0,0.00139244,239.894,258.543
2015-12-29 02:00,0.0,281.165,282.566,256.434,285.479,284.636,261.54,0.0,0.0,240.253,258.028
2015-12-29 03:00,0.0,281.165,282.566,256.549,285.618,284.922,260.942,0.0,0.0,239.954,258.286
2015-12-29 04:00,0.0,282.923,283.611,257.346,286.585,285.777,261.182,0.0,0.0,240.014,258.628
2015-12-29 05:00,0.00123084,285.512,285.095,258.022,287.951,286.626,262.136,0.0,0.0,240.193,258.457
2015-12-29 06:00,0.0,288.152,287.978,259.574,290.5,288.584,262.492,0.0,0.0,240.134,258.372
2015-12-29 07:00,0.00171788,284.73,285.321,258.134,288.222,287.329,262.017,0.0,0.0,240.074,258.286
2015-12-29 08:00,0.0,282.059,283.148,257.006,286.31,285.635,261.421,0.0,0.0,239.104,257.942
2015-12-29 09:00,0.0,282.408,283.38,257.233,286.447,285.493,261.779,0.0,0.0,238.608,258.028
2015-12-29 10:00,-0.0213509,286.271,286.328,258.358,288.897,287.329,262.255,-0.126544,-0.107775,238.483,258.114
2015-12-29 11:00,0.41522,287.729,285.658,258.134,288.493,287.329,262.492,0.477125,0.43416,237.657,257.769
2015-12-29 12:00,0.346398,288.977,284.869,257.685,287.951,286.767,261.54,0.387262,0.370081,236.808,257.769
2015-12-29 13:00,0.183921,290.171,285.658,258.134,288.628,287.329,261.779,0.234575,0.204483,236.341,257.158
2015-12-29 14:00,0.06891,288.977,287.102,258.913,289.968,288.167,262.255,0.11345,0.0792311,236.274,257.333
2015-12-29 15:00,0.15447,287.871,285.882,258.134,288.897,287.748,261.779,0.194699,0.182529,235.936,257.246
2015-12-29 16:00,0.0211225,289.247,287.76,259.574,290.764,288.999,262.017,0.0655762,0.0390948,235.731,257.07
2015-12-29 17:00,0.0482809,289.247,287.76,259.683,290.897,289.276,262.847,0.0817587,0.0604406,235.662,256.982
2015-12-29 18:00,0.118432,289.91,286.55,259.024,289.434,288.167,262.373,0.15242,0.136303,235.178,257.595
2015-12-29 19:00,0.25368,291.44,286.55,258.802,289.568,288.445,262.728,0.276579,0.249088,235.038,257.333
2015-12-29 20:00,0.468868,287.01,285.433,258.358,288.222,287.048,262.492,0.424368,0.481511,234.257,256.539
2015-12-29 21:00,0.0,288.012,288.195,260.119,290.897,288.999,262.61,0.0,0.0,234.401,256.628
2015-12-29 22:00,0.00404201,287.3,287.212,259.354,289.835,288.306,262.136,0.0,0.0,234.615,256.628
2015-12-29 23:00,0.0,284.41,284.982,257.685,287.951,286.767,261.779,0.0,0.0,234.472,256.628
2015-12-30 00:00,-0.00168977,286.271,286.217,258.469,289.3,287.888,262.136,0.0,0.0,235.108,256.716
2015-12-30 01:00,-0.00138097,287.729,287.76,259.244,290.632,289.137,262.61,0.0,0.0,235.662,257.158
2015-12-30 02:00,0.0,280.05,281.742,255.626,284.781,284.636,261.421,0.0,0.0,235.936,257.158
2015-12-30 03:00,-0.00115658,284.57,284.528,257.12,287.815,286.767,262.136,0.0,0.0,236.609,257.595
2015-12-30 04:00,-0.00115848,281.883,282.214,255.858,285.618,284.922,261.66,0.0,0.0,237.006,257.246
2015-12-30 05:00,0.00122997,288.012,288.087,258.691,290.897,289.276,263.083,0.0,0.0,237.333,257.682
2015-12-30 06:00,0.00139371,286.864,287.541,258.469,290.234,288.861,262.61,0.0,0.00140704,237.268,257.508
2015-12-30 07:00,0.0,284.57,284.869,256.32,287.815,286.767,262.017,0.0,0.0,237.528,257.942
2015-12-30 08:00,0.0,281.165,282.214,255.16,285.201,284.492,261.062,0.0,0.0,238.294,258.457
2015-12-30 09:00,0.00422787,288.568,288.736,258.134,291.686,290.101,263.083,0.0,0.0,239.288,259.22
2015-12-30 10:00,0.0,288.012,288.303,258.022,290.897,289.413,262.61,-0.10614,-0.105463,240.371,259.554
2015-12-30 11:00,0.0447625,288.43,288.52,257.798,291.16,289.551,262.61,0.252669,0.143103,241.189,260.135
2015-12-30 12:00,0.134772,289.647,287.432,257.12,290.234,288.722,262.847,0.222516,0.173477,240.841,260.217
2015-12-30 13:00,0.291155,288.43,284.071,255.16,286.722,285.777,261.779,0.374711,0.395053,241.817,260.463
2015-12-30 14:00,0.480296,287.444,280.066,253.501,283.088,283.049,260.822,0.515219,0.567956,241.76,260.708
2015-12-30 15:00,0.284084,287.01,282.096,255.277,285.061,284.636,261.301,0.308833,0.318667,241.817,260.381
2015-12-30 16:00,0.152885,289.647,285.095,257.233,287.815,286.767,262.017,0.171108,0.157894,241.015,260.135
2015-12-30 17:00,0.0520148,289.779,287.651,258.691,290.234,288.861,262.728,0.0929751,0.0622365,240.489,259.887
2015-12-30 18:00,0.0401192,289.381,288.303,259.244,291.16,289.551,263.083,0.0799268,0.0571804,240.371,260.052
2015-12-30 19:00,0.0379952,289.247,288.736,259.574,291.555,289.689,263.553,0.10821,0.0697426,240.489,259.97
2015-12-30 20:00,0.0716876,289.113,288.951,259.683,292.079,290.648,263.905,0.202326,0.144746,240.312,259.804
2015-12-30 21:00,0.0,288.152,288.736,259.574,291.686,289.964,263.67,0.0,0.0,239.471,259.387
2015-12-30 22:00,-0.0040705,288.291,288.412,259.793,291.423,289.689,263.553,0.0,0.0,239.227,259.304
2015-12-30 23:00,0.0,287.155,287.541,259.244,290.234,288.722,262.847,0.0,0.0,239.349,259.051
2015-12-31 00:00,-0.00169337,279.859,280.429,255.393,283.656,283.339,260.701,0.0,0.0,238.733,258.713
2015-12-31 01:00,-0.00138273,278.684,279.945,255.16,283.088,283.049,261.182,0.0,0.0,238.231,258.543
2015-12-31 02:00,0.00122453,283.76,283.495,257.798,286.86,285.493,261.54,0.0,0.0,237.137,257.595
2015-12-31 03:00,0.0,287.587,287.651,260.011,290.367,288.861,262.728,0.0,0.0,236.408,257.246
2015-12-31 04:00,0.0,285.97,286.105,259.354,288.763,287.609,262.255,0.0,0.0,236.609,257.158
2015-12-31 05:00,0.0,288.012,288.412,260.661,291.16,289.551,263.083,0.0,-0.0012409,235.386,256.628
2015-12-31 06:00,0.0,288.43,288.843,260.984,291.817,290.238,263.787,0.0,0.0,235.317,256.628
2015-12-31 07:00,0.0,288.152,288.52,260.876,291.423,289.826,263.318,0.0,0.0,234.185,256.271
2015-12-31 08:00,0.00237988,288.152,288.628,260.661,291.423,289.551,263.2,0.0,0.0,233.968,256.628
2015-12-31 09:00,-0.00420867,288.152,288.412,260.553,291.16,289.551,262.847,0.0,0.00424891,234.185,256.628
2015-12-31 10:00,0.0,288.291,288.628,260.661,291.292,289.413,263.083,-0.10404,-0.103376,233.968,256.628
2015-12-31 11:00,0.142556,289.113,288.087,260.661,290.897,289.276,263.318,0.304931,0.204516,234.472,256.805
2015-12-31 12:00,0.0134987,288.568,288.951,260.984,291.948,290.238,263.2,0.131438,0.064732,234.185,256.36
2015-12-31 13:00,0.00698982,288.705,288.951,261.198,291.817,290.238,263.2,0.0848285,0.0423398,234.615,256.36
2015-12-31 14:00,0.00956304,288.568,288.52,261.305,291.423,289.689,262.965,0.0631566,0.0308943,234.543,256.091
2015-12-31 15:00,0.028026,288.841,288.087,260.984,291.029,289.137,262.847,0.0667395,0.0406726,234.329,256.001
2015-12-31 16:00,0.0350831,289.514,287.978,260.661,290.897,289.689,263.2,0.0668357,0.044273,234.615,255.911
2015-12-31 17:00,0.0422723,289.247,288.087,260.661,291.029,289.413,262.847,0.0764644,0.0543154,235.247,256.628
2015-12-31 18:00,0.0376154,289.113,288.52,261.091,291.423,289.964,263.318,0.0796223,0.0569625,235.525,256.539
2015-12-31 19:00,0.058356,289.514,288.628,261.198,291.555,289.964,263.67,0.127885,0.086638,235.799,256.271
2015-12-31 20:00,0.180479,288.012,287.541,260.445,290.632,289.137,262.965,0.259115,0.229736,235.593,256.271
2015-12-31 21:00,0.0,288.291,288.628,260.984,291.555,289.826,263.553,0.0,0.0,235.731,256.628
2015-12-31 22:00,-0.00409999,288.43,288.52,260.769,291.292,289.551,263.553,0.0,0.0,235.936,256.894
2015-12-31 23:00,0.0,288.152,288.628,260.984,291.423,289.826,263.436,0.0,0.0,236.341,257.508
