# timestamp,IR_016,IR_039,IR_087,IR_097,IR_108,IR_120,IR_134,VIS006,VIS008,WV_062,WV_073
2016-07-01 00:00,-0.145143,279.667,279.336,253.86,282.087,280.85,258.515,-0.0400113,-0.0783765,229.348,248.775
2016-07-01 01:00,0.0,272.58,264.788,245.995,263.569,255.803,242.097,0.0,0.0,228.921,241.475
2016-07-01 02:00,0.0020112,284.73,280.789,253.86,281.51,276.169,252.723,0.0,0.0,229.348,246.595
2016-07-01 03:00,-0.00186695,288.152,285.095,256.32,287.134,284.636,259.614,0.0,0.0,229.935,248.775
2016-07-01 04:00,-0.00189321,288.012,285.658,256.664,287.815,285.065,259.977,0.0,0.0,229.263,248.669
2016-07-01 05:00,0.0,288.152,285.546,256.205,287.407,284.779,259.735,0.0,0.0,229.007,248.455
2016-07-01 06:00,0.0,281.883,279.823,253.741,282.66,279.211,256.785,0.0,0.0,229.263,247.808
2016-07-01 07:00,0.0,279.081,279.458,253.621,282.231,280.998,258.392,0.0,0.0,229.935,248.775
2016-07-01 08:00,0.0,268.686,260.036,243.509,259.421,253.316,241.664,0.0,0.0,230.916,242.354
2016-07-01 09:00,0.970341,279.473,259.54,243.509,258.491,251.75,240.938,0.777768,0.901248,230.674,242.23
2016-07-01 10:00,0.161747,290.171,285.658,256.549,287.679,285.065,260.34,0.2572,0.199138,231.63,249.928
2016-07-01 11:00,0.308234,291.065,280.187,253.98,282.946,280.406,257.777,0.355336,0.339905,232.251,249.303
2016-07-01 12:00,0.0578288,290.171,286.217,256.549,288.493,286.06,260.701,0.121667,0.0973027,231.943,249.825
2016-07-01 13:00,0.071013,290.429,285.095,255.974,287.407,285.35,260.701,0.106755,0.0863228,232.481,250.238
2016-07-01 14:00,0.0531283,289.91,284.414,255.858,286.997,284.779,260.581,0.08119,0.0641018,232.02,249.928
2016-07-01 15:00,0.0444342,289.514,284.755,255.393,286.86,284.922,260.219,0.0710645,0.0548276,232.405,250.34
2016-07-01 16:00,0.0834578,290.939,283.38,255.043,286.172,284.061,260.822,0.0980853,0.0842556,233.01,250.95
2016-07-01 17:00,0.0546623,291.809,286.661,256.434,288.763,286.06,260.822,0.0801478,0.0646067,233.53,251.751
2016-07-01 18:00,0.117458,295.26,286.772,256.32,288.763,286.343,261.182,0.136907,0.120121,233.308,251.652
2016-07-01 19:00,0.635324,293.816,280.429,253.381,283.372,282.613,260.098,0.639393,0.672123,233.75,251.751
2016-07-01 20:00,0.996229,300.225,279.702,253.261,283.088,282.175,259.735,0.816,0.8855,233.603,251.552
2016-07-01 21:00,1.03432,300.679,285.77,255.858,287.679,285.635,260.701,0.721209,0.803627,232.709,251.452
2016-07-01 22:00,0.954182,284.888,280.909,253.261,283.372,280.702,258.147,0.605928,0.866974,232.935,251.152
2016-07-01 23:00,-0.257779,288.152,285.994,255.393,288.222,285.635,260.219,-0.0861556,-0.171212,233.456,251.252
2016-07-02 00:00,-0.15182,288.291,286.105,255.742,288.493,285.635,260.581,-0.039992,-0.0783387,232.935,250.849
2016-07-02 01:00,-0.00480905,282.234,282.331,253.86,284.781,283.484,259.735,0.0,0.0,232.784,251.051
2016-07-02 02:00,-0.00200923,284.249,283.032,253.98,285.757,283.773,259.614,0.0,0.0,232.935,251.452
2016-07-02 03:00,-0.00186467,288.43,285.994,255.742,288.358,286.06,260.942,0.0,0.0,233.159,252.146
2016-07-02 04:00,-0.00189032,284.57,283.38,254.336,285.757,284.061,260.34,0.0,0.0,233.308,252.146
2016-07-02 05:00,0.0,287.871,285.77,255.277,287.951,285.777,260.34,0.0,0.0,233.085,252.537
2016-07-02 06:00,-0.00261826,288.568,286.661,255.858,288.763,286.485,260.822,0.0,0.0,232.935,252.146
2016-07-02 07:00,0.0,288.291,286.105,255.858,288.087,285.635,260.34,0.0,0.0,232.02,251.552
2016-07-02 08:00,0.0104314,283.76,283.264,254.454,285.618,283.629,259.735,0.0,0.0,232.097,252.047
2016-07-02 09:00,0.589897,287.444,285.433,255.277,287.815,285.777,261.301,0.599358,0.569068,233.234,252.439
2016-07-02 10:00,0.380101,290.301,285.658,255.51,287.951,286.06,261.062,0.408994,0.379738,233.456,253.213
2016-07-02 11:00,0.213795,290.685,284.642,255.043,287.134,285.35,260.942,0.235326,0.211043,234.756,254.162
2016-07-02 12:00,0.0859637,291.686,286.55,256.32,288.763,286.485,261.779,0.124775,0.0885566,234.897,254.629
2016-07-02 13:00,0.0319053,290.429,287.869,256.892,290.234,287.748,261.66,0.0699912,0.0483154,234.827,254.999
2016-07-02 14:00,0.0168521,290.429,288.303,256.892,290.764,288.306,262.017,0.0493916,0.0301003,236.071,255.639
2016-07-02 15:00,0.0234553,290.939,288.195,256.664,290.764,288.584,262.492,0.0480811,0.0324036,236.609,256.181
2016-07-02 16:00,0.0236668,291.065,288.52,257.12,291.292,289.276,262.965,0.0485147,0.0339533,237.203,256.539
2016-07-02 17:00,0.210614,290.939,284.185,254.808,287.27,285.919,261.898,0.247175,0.242234,237.913,257.682
2016-07-02 18:00,0.254667,295.69,285.208,254.808,287.951,286.485,262.017,0.2634,0.275576,239.104,258.372
2016-07-02 19:00,0.416384,306.623,287.541,256.32,290.234,288.306,262.965,0.354161,0.351263,239.593,258.628
2016-07-02 20:00,0.938791,312.299,288.087,256.434,290.632,288.722,263.2,0.721571,0.751111,240.489,259.304
2016-07-02 21:00,1.88442,312.299,288.195,256.664,290.897,289.137,262.61,1.19665,1.35523,240.607,258.882
2016-07-02 22:00,0.570353,288.43,287.978,256.549,290.632,288.861,263.083,0.52316,0.719756,241.986,259.638
2016-07-02 23:00,-0.237343,289.381,288.52,256.549,291.029,289.276,263.2,-0.0803832,-0.164305,242.042,259.554
2016-07-03 00:00,-0.141597,289.247,288.843,256.32,291.423,289.689,262.965,-0.0428178,-0.0782824,242.984,259.804
2016-07-03 01:00,-0.00480458,289.247,288.303,256.434,290.764,288.861,262.847,0.0,-0.00242525,242.929,259.638
2016-07-03 02:00,0.0,289.113,288.195,256.434,290.5,288.584,262.61,0.0,0.0,242.929,259.387
2016-07-03 03:00,0.0,289.113,288.087,256.434,290.632,288.445,262.255,0.0,-0.00187993,242.042,258.457
2016-07-03 04:00,0.0,288.012,287.651,256.434,290.234,288.445,262.847,0.0,0.0,242.489,257.942
2016-07-03 05:00,0.0,289.381,288.412,256.778,290.764,288.722,262.61,0.0,0.0,241.986,258.2
2016-07-03 06:00,0.00261093,284.57,284.071,255.043,286.997,285.635,261.54,0.0,0.0,241.59,257.682
2016-07-03 07:00,0.0,286.271,285.208,255.51,288.087,286.343,262.136,0.0,0.0,240.489,257.421
2016-07-03 08:00,-0.0103137,282.923,282.566,253.98,285.618,284.492,261.66,0.0,0.0,240.312,257.333
2016-07-03 09:00,0.159472,289.779,288.195,257.006,290.764,288.722,263.2,0.348813,0.254911,240.074,257.421
2016-07-03 11:00,0.0618811,290.429,287.978,256.778,290.5,288.722,262.373,0.137032,0.10332,239.653,257.158
2016-07-03 12:00,0.0281015,290.558,288.736,257.798,291.423,289.413,263.787,0.0847644,0.0531941,239.349,257.158
2016-07-03 13:00,0.018866,290.429,288.951,257.91,291.686,289.964,263.553,0.0626666,0.0395578,238.919,256.982
2016-07-03 14:00,0.0168586,290.558,289.272,258.246,292.079,290.375,263.905,0.0516066,0.0327304,239.104,257.421
2016-07-03 15:00,0.0246939,290.813,289.272,258.58,292.079,290.238,264.022,0.0522706,0.0361484,237.849,256.539
2016-07-03 16:00,0.0249122,291.19,289.165,258.58,292.209,290.375,264.255,0.0506234,0.036468,237.657,256.539
2016-07-03 17:00,0.0906297,292.889,287.978,258.134,290.897,289.413,263.553,0.106076,0.0968782,236.408,255.639
2016-07-03 18:00,0.135681,296.943,288.736,258.913,291.555,289.826,263.67,0.139406,0.126205,236.004,255.457
2016-07-03 19:00,0.3706,304.239,288.303,258.802,291.16,289.413,263.67,0.334705,0.33385,235.455,255.366
2016-07-03 20:00,1.20058,320.238,289.805,259.902,292.6,290.921,264.022,0.883741,0.939073,234.543,254.722
2016-07-03 21:00,2.62227,320.092,289.805,260.119,292.86,291.329,264.138,1.5902,1.82452,234.401,254.999
2016-07-03 22:00,0.332324,290.429,0.0,260.337,293.119,291.6,264.138,0.482362,0.623072,0.0,255.366
2016-07-03 23:00,-0.250708,289.647,289.272,260.119,292.6,290.921,264.255,-0.0745828,-0.171017,234.041,255.457
2016-07-04 00:00,-0.151566,290.041,289.805,260.228,292.989,291.329,264.605,-0.0427769,-0.0850083,234.897,256.181
2016-07-04 01:00,-0.00239963,289.381,289.379,260.119,292.34,290.921,264.488,0.0,-0.00242257,235.593,256.539
2016-07-04 02:00,0.0,289.514,289.379,260.119,292.079,290.648,264.022,0.0,0.0,236.071,257.07
2016-07-04 03:00,0.0,289.647,289.805,260.228,292.73,291.057,264.372,0.0,0.0,235.525,257.508
2016-07-04 04:00,0.0,289.779,289.699,260.337,292.6,291.193,264.022,0.0,0.0,234.543,257.158
2016-07-04 05:00,0.00209021,289.113,288.951,260.119,291.817,290.375,264.605,0.0,0.0,234.897,256.982
2016-07-04 06:00,-0.00260324,289.514,289.165,260.445,292.209,290.511,264.138,0.0,0.0,234.897,256.982
2016-07-04 07:00,-0.0039306,286.271,286.217,258.469,289.166,287.888,263.318,0.0,0.0,234.329,256.539
2016-07-04 08:00,0.0,289.779,289.593,260.876,292.47,290.648,264.255,0.0,0.0,234.827,256.982
2016-07-04 09:00,0.0808784,290.301,289.593,260.661,292.47,290.784,264.488,0.308158,0.217738,235.178,257.158
2016-07-04 10:00,0.0518602,290.301,289.486,260.769,292.34,290.784,264.138,0.155374,0.100685,236.341,257.682
2016-07-04 11:00,0.0310004,290.813,289.593,260.769,292.47,290.784,264.138,0.102973,0.0625935,236.808,257.769
2016-07-04 12:00,0.0211001,290.558,289.699,260.769,292.6,290.921,264.837,0.0744392,0.0443788,236.808,258.028
2016-07-04 13:00,0.0159744,290.813,289.805,260.661,292.73,291.193,264.605,0.0577909,0.0337204,237.203,258.372
2016-07-04 14:00,0.0142704,290.558,289.911,260.769,292.73,291.193,264.953,0.0461341,0.027504,237.268,258.372
2016-07-04 15:00,0.00987914,290.685,290.017,261.198,292.73,291.464,264.837,0.0386865,0.0224405,237.137,258.372
2016-07-04 16:00,0.0224207,291.809,289.911,261.305,292.73,290.921,264.488,0.0464044,0.0314376,236.94,258.2
2016-07-04 18:00,0.102115,297.449,290.335,261.625,293.248,291.871,264.953,0.11356,0.100014,236.475,258.372
2016-07-04 19:00,0.397062,308.976,290.335,261.838,293.119,292.006,265.185,0.339409,0.341401,236.004,258.457
2016-07-04 20:00,1.1406,317.338,289.805,261.412,292.6,291.329,264.721,0.860471,0.914106,236.139,258.2
2016-07-04 21:00,2.64645,318.487,290.017,261.625,292.989,291.6,265.185,1.62379,1.87482,235.525,258.028
2016-07-04 22:00,0.570553,290.429,290.123,261.519,293.119,291.735,264.953,0.523344,0.720009,234.756,258.028
2016-07-04 23:00,-0.304543,290.041,290.123,261.412,292.86,291.735,265.301,-0.0859521,-0.170808,233.677,257.855
2016-07-05 00:00,-0.124473,287.01,287.978,260.337,291.029,289.964,264.488,-0.0398776,-0.0815108,233.382,257.769
2016-07-05 01:00,-0.00239654,288.152,288.303,260.553,291.423,290.238,264.837,0.0,0.0,233.53,257.595
2016-07-05 02:00,-0.0020015,290.301,290.335,261.944,293.248,291.871,264.953,0.0,0.0,233.234,257.682
2016-07-05 03:00,0.0,288.977,289.379,261.519,292.209,290.648,264.721,0.0,0.0,233.159,257.855
2016-07-05 04:00,0.00188019,289.91,289.911,261.731,292.73,291.464,265.185,0.0,0.0,233.308,258.286
2016-07-05 05:00,0.0,289.647,289.699,261.838,292.47,291.057,264.837,0.0,0.0,233.382,258.543
2016-07-05 06:00,-0.00259522,290.171,290.229,261.944,292.989,291.464,264.953,0.0,0.0,233.677,258.2
2016-07-05 07:00,-0.00391212,290.301,290.335,262.261,293.119,291.464,264.488,0.0,0.0,233.823,258.114
2016-07-05 08:00,-0.0100748,288.841,289.165,261.838,291.817,290.511,264.488,0.0,0.0,233.01,257.942
2016-07-05 09:00,0.095764,290.558,290.017,262.471,292.86,291.193,265.416,0.31275,0.20717,233.603,258.372
2016-07-05 10:00,0.016019,290.429,290.545,262.681,293.506,292.006,265.069,0.12546,0.0687315,233.234,258.372
2016-07-05 11:00,0.0191145,290.939,290.44,262.471,293.119,291.735,265.069,0.0869903,0.0506553,232.709,257.855
2016-07-05 12:00,0.0281655,291.44,289.486,261.944,292.209,290.648,264.488,0.0879385,0.0675326,232.86,257.942
2016-07-05 13:00,0.0116257,290.813,290.44,262.261,293.248,291.735,265.301,0.0541388,0.0308091,233.085,258.372
2016-07-05 14:00,0.0661877,292.174,288.843,261.198,291.292,289.826,264.953,0.0868087,0.0733715,233.234,259.051
2016-07-05 15:00,0.0481684,292.414,288.843,261.412,291.555,289.964,264.138,0.0669278,0.0523696,232.784,258.798
2016-07-05 16:00,0.0435955,291.931,289.379,261.944,291.817,290.101,265.416,0.0632782,0.0553297,233.382,258.967
2016-07-05 17:00,0.0906036,292.294,288.52,261.625,291.16,289.826,264.837,0.112815,0.104921,233.159,258.543
2016-07-05 18:00,0.0868529,296.943,290.545,262.576,293.119,291.193,264.953,0.103212,0.0876832,233.085,258.372
2016-07-05 19:00,0.374147,305.722,289.805,262.261,292.47,291.057,265.185,0.328046,0.325954,233.085,258.028
2016-07-05 20:00,1.01863,311.293,288.52,261.305,291.423,289.964,264.721,0.802989,0.861972,233.01,257.508
2016-07-05 21:00,1.86177,311.165,290.017,262.155,292.6,290.921,264.953,1.25081,1.44543,232.405,257.07
2016-07-05 22:00,0.668444,288.012,288.303,261.198,291.16,289.964,264.721,0.565971,0.771239,232.251,256.716
2016-07-05 23:00,-0.249988,290.301,290.44,262.155,293.119,291.464,264.837,-0.0800891,-0.170525,232.481,256.716
2016-07-06 00:00,-0.127654,288.977,289.165,261.305,291.948,290.648,264.837,-0.0398206,-0.0847858,232.481,256.628
2016-07-06 01:00,-0.00478607,288.977,289.058,260.984,291.686,290.238,264.721,0.0,0.0,232.86,256.628
2016-07-06 02:00,0.0,289.113,288.412,260.661,291.029,289.551,264.138,0.0,0.0,233.159,256.894
2016-07-06 03:00,-0.00185299,290.301,289.805,261.091,292.47,290.921,264.138,0.0,0.0,233.085,256.539
2016-07-06 04:00,0.0,288.568,287.76,260.337,290.764,288.999,264.022,0.0,0.0,233.01,256.539
2016-07-06 05:00,0.0,285.202,285.095,258.469,287.951,286.626,262.965,0.0,0.0,233.677,257.421
2016-07-06 06:00,0.0,290.301,289.486,260.769,292.079,290.511,264.721,0.0,0.0,233.234,256.628
2016-07-06 07:00,0.0,289.779,289.165,260.553,291.948,290.101,264.372,0.0,0.0,233.308,256.805
2016-07-06 08:00,0.0,290.171,289.593,260.445,292.47,290.648,264.488,0.0,0.0,232.405,255.73
2016-07-06 09:00,0.0416769,290.041,289.379,260.337,292.209,290.238,264.022,0.282302,0.168301,232.557,255.457
2016-07-06 10:00,0.0402062,290.685,289.165,259.902,291.686,289.826,263.787,0.142978,0.081181,234.113,256.091
2016-07-06 11:00,0.0766095,290.813,288.52,260.119,291.423,289.413,263.787,0.131757,0.0966773,234.185,256.271
2016-07-06 12:00,0.0158612,290.685,289.486,260.769,292.209,290.238,264.372,0.0701328,0.0409218,234.257,255.911
2016-07-06 13:00,0.0,0.0,0.0,0.0,0.0,0.0,0.0,0.0,0.0,0.0,0.0
2016-07-06 14:00,0.325868,286.864,279.702,254.808,282.803,282.467,261.301,0.295699,0.308013,235.108,256.001
2016-07-06 15:00,0.0061764,291.065,288.628,259.574,290.897,288.999,263.67,0.0397446,0.0174592,235.455,256.36
2016-07-06 16:00,0.209257,288.291,280.308,255.277,283.656,283.339,262.255,0.195107,0.199941,235.108,257.158
2016-07-06 17:00,0.2025,291.563,284.071,257.346,286.997,286.202,262.728,0.223345,0.23268,233.234,257.942
2016-07-06 18:00,0.391516,292.414,281.978,256.205,284.921,284.492,262.847,0.38825,0.412176,233.968,257.595
2016-07-06 19:00,0.326581,298.045,286.217,257.798,289.166,287.469,263.67,0.316706,0.320118,232.935,257.07
2016-07-06 20:00,1.53974,322.411,288.843,259.793,291.555,289.964,264.022,1.11843,1.19175,233.456,256.894
2016-07-06 21:00,2.42346,313.454,288.628,259.683,291.16,289.551,263.905,1.51218,1.72132,234.113,257.158
2016-07-06 22:00,0.192317,289.779,289.058,260.445,291.817,289.826,263.787,0.488504,0.533929,233.085,256.894
2016-07-06 23:00,-0.242723,289.779,288.951,260.228,291.555,289.551,263.553,-0.0799217,-0.163362,232.86,256.45
2016-07-07 00:00,-0.120734,288.012,287.869,259.683,290.101,288.306,263.67,-0.0369148,-0.081259,232.175,256.091
2016-07-07 01:00,-0.00238911,290.171,289.379,260.553,291.817,290.238,264.022,0.0,0.0,232.175,256.001
2016-07-07 02:00,-0.00199487,289.514,288.412,259.902,291.029,288.861,263.318,0.0,0.0,230.916,254.999
2016-07-07 03:00,-0.00184946,290.429,289.699,260.769,292.6,290.648,264.255,0.0,0.0,230.593,255.183
2016-07-07 04:00,0.0,288.841,288.303,259.902,291.16,289.413,263.905,0.0,0.0,231.315,255.639
2016-07-07 05:00,0.0,283.428,283.841,257.233,286.722,285.493,262.492,0.0,0.0,230.916,255.366
2016-07-07 06:00,0.0,275.02,273.732,251.305,274.778,273.517,254.137,0.0,0.0,229.093,251.252
2016-07-07 07:00,0.0,279.081,277.977,253.98,280.201,279.211,258.147,0.0,0.0,229.852,253.69
2016-07-07 08:00,0.0,289.514,288.52,260.661,291.029,288.999,263.787,0.0,0.0,230.755,255.821
2016-07-07 09:00,0.437578,288.43,286.55,258.802,289.166,287.609,263.2,0.47806,0.456011,231.236,256.181
2016-07-07 11:00,0.49416,291.315,282.214,256.778,285.34,284.779,262.492,0.546363,0.564271,230.755,255.091
2016-07-07 12:00,0.495791,290.429,280.308,255.393,283.23,282.904,261.54,0.619968,0.634124,230.43,254.722
2016-07-07 13:00,0.384164,286.864,279.823,254.69,282.517,282.321,261.182,0.527333,0.543558,230.916,254.907
2016-07-07 14:00,0.310403,286.121,280.429,255.393,283.23,282.467,260.701,0.312302,0.325171,230.018,253.785
2016-07-07 15:00,0.0234739,290.301,287.76,259.354,289.835,287.609,262.136,0.0512574,0.0336766,229.769,253.405
2016-07-07 16:00,0.0161925,290.429,287.322,259.244,289.3,287.048,261.66,0.0432398,0.0276647,229.769,253.213
2016-07-07 17:00,0.0146529,291.065,288.951,260.337,291.686,289.413,263.553,0.0428592,0.0268964,230.184,253.69
2016-07-07 18:00,0.356411,288.43,272.662,251.18,273.843,272.405,253.368,0.359805,0.389034,226.778,246.595
2016-07-07 19:00,0.596074,295.476,279.945,255.277,282.803,282.175,260.581,0.559344,0.588357,229.178,251.751
2016-07-07 20:00,1.07497,297.848,280.429,255.626,283.656,282.904,261.301,0.969638,1.0798,229.685,252.439
2016-07-07 21:00,0.916023,288.291,281.029,255.974,283.938,283.339,261.779,0.792735,0.878796,229.935,252.634
2016-07-07 22:00,0.291319,280.427,279.702,254.926,282.374,281.146,260.34,0.411099,0.490173,229.517,251.751
2016-07-07 23:00,-0.295911,282.923,280.308,255.16,282.517,280.998,259.249,-0.085414,-0.183318,228.488,250.544
2016-07-08 00:00,-0.164021,270.434,263.088,245.587,263.92,262.361,246.594,-0.0453473,-0.0878633,225.449,241.728
2016-07-08 01:00,-0.00238478,273.088,265.092,246.265,265.997,263.759,247.823,0.0,0.0,226.499,243.818
2016-07-08 02:00,0.0,274.551,269.908,249.286,270.819,269.329,250.896,0.0,0.0,227.691,246.258
2016-07-08 03:00,0.0,287.729,285.77,257.685,288.222,286.202,261.779,0.0,0.0,228.748,252.047
2016-07-08 04:00,0.0,281.165,280.308,254.808,283.372,282.758,260.942,0.0,0.0,229.263,252.244
2016-07-08 05:00,0.0,282.753,282.799,256.434,285.34,284.922,261.779,0.0,0.0,229.007,252.047
2016-07-08 06:00,0.0,289.647,288.52,259.683,291.029,288.861,263.2,0.0,0.0,229.685,252.146
2016-07-08 07:00,0.0,289.381,288.628,259.793,291.029,288.999,263.083,0.0,0.0,229.935,252.146
2016-07-08 08:00,0.0,289.647,288.52,259.683,291.029,288.861,262.965,0.0,0.0,230.018,252.244
2016-07-08 09:00,0.0861031,289.779,287.978,259.793,290.764,288.445,262.847,0.315914,0.202828,229.769,252.244
2016-07-08 10:00,0.0121603,290.041,288.843,260.011,291.686,289.413,263.553,0.120121,0.0572905,230.101,252.244
2016-07-08 11:00,0.00480734,290.301,288.951,259.902,291.817,289.413,263.436,0.0753019,0.0339731,230.101,252.342
2016-07-08 12:00,0.00706562,290.558,288.951,260.119,291.686,289.413,262.965,0.0568333,0.0285327,230.101,252.634
2016-07-08 13:00,0.0203859,288.152,283.956,256.778,285.34,282.758,258.515,0.0616455,0.0411616,228.4,249.513
2016-07-08 14:00,0.01689,289.113,285.433,257.91,286.997,284.492,259.856,0.0473023,0.0301679,228.136,250.032
2016-07-08 15:00,0.0123566,289.91,286.992,258.58,289.032,286.626,261.66,0.0397567,0.0249494,228.488,250.849
2016-07-08 16:00,0.0124558,289.779,286.55,258.469,288.358,285.777,260.34,0.040076,0.0251498,228.136,250.442
2016-07-08 17:00,0.0359627,288.568,282.799,256.089,284.22,281.146,257.53,0.0608991,0.051098,227.51,249.408
2016-07-08 18:00,0.0746212,290.558,284.185,257.006,285.34,282.758,259.005,0.097996,0.0922464,227.691,249.721
2016-07-08 19:00,0.335952,303.917,288.843,260.119,291.423,288.722,262.847,0.294092,0.297007,228.748,252.244
2016-07-08 20:00,0.356515,278.279,259.373,242.942,258.865,257.115,241.664,0.420776,0.463537,224.661,236.179
2016-07-08 21:00,0.425347,289.113,282.916,255.858,285.061,282.467,258.76,0.411589,0.414077,228.136,248.669
2016-07-08 22:00,2.55722,287.3,283.726,256.778,285.34,283.484,260.098,1.04096,1.93625,228.921,250.442
2016-07-08 23:00,-0.348678,289.514,288.303,259.024,291.16,288.999,263.436,-0.0965158,-0.182775,230.101,252.244
2016-07-09 00:00,-0.16033,288.841,287.212,258.58,289.434,285.919,260.219,-0.0424223,-0.0843037,230.348,251.051
2016-07-09 01:00,-0.00238003,288.841,287.322,258.246,289.3,286.202,261.182,0.0,0.0,231.156,251.85
2016-07-09 02:00,-0.00198709,289.647,288.628,259.024,291.555,288.861,261.779,0.0,0.0,231.156,252.146
2016-07-09 03:00,-0.00184169,290.429,289.911,260.011,292.989,291.057,264.372,0.0,0.0,231.315,252.925
2016-07-09 04:00,0.0,290.301,290.017,260.011,293.248,291.193,264.372,0.0,0.0,231.315,252.634
2016-07-09 05:00,0.0,290.429,290.123,259.683,292.989,291.464,264.255,0.0,0.0,231.076,252.925
2016-07-09 06:00,-0.00256006,289.113,288.951,259.134,292.209,290.511,263.553,0.0,0.0,231.076,252.828
2016-07-09 07:00,0.0,289.514,289.272,259.464,292.34,290.648,263.787,0.0,0.0,231.076,252.634
2016-07-09 08:00,0.0,289.91,289.699,260.011,292.86,291.057,263.67,0.0,0.0,231.315,252.731
2016-07-09 09:00,0.072991,290.429,289.699,260.011,292.86,291.057,264.022,0.333727,0.206328,231.315,252.342
2016-07-09 10:00,0.0529147,291.065,289.486,260.011,292.6,290.921,264.022,0.148194,0.090404,230.593,252.537
2016-07-09 11:00,0.0144514,290.558,289.593,260.119,292.73,290.921,263.905,0.0836123,0.0462001,231.156,252.244
2016-07-09 12:00,0.0159159,291.44,289.379,260.119,292.34,290.511,263.905,0.0673799,0.0392775,231.394,252.828
2016-07-09 13:00,0.00874263,290.939,289.486,259.902,292.209,290.375,263.787,0.0493491,0.0250076,231.552,252.244
2016-07-09 14:00,0.0207951,291.44,289.272,260.011,292.34,290.375,264.138,0.0473193,0.0288666,231.473,252.146
2016-07-09 15:00,0.016066,291.563,289.486,259.793,292.6,290.375,263.905,0.0408091,0.0237055,231.552,252.439
2016-07-09 16:00,0.0224207,291.931,289.486,260.119,292.47,290.375,263.905,0.0442949,0.027665,231.63,252.146
2016-07-09 17:00,0.015982,291.931,290.017,260.228,292.989,290.921,263.905,0.0405959,0.0255468,231.236,252.342
2016-07-09 18:00,0.0654755,295.042,290.017,260.011,293.119,291.057,263.905,0.0812231,0.0661014,231.394,252.047
2016-07-09 19:00,0.353,306.918,289.805,260.228,292.989,290.784,263.553,0.305312,0.302726,231.236,251.751
2016-07-09 21:00,1.8193,312.299,273.599,251.552,273.686,265.48,247.142,1.446,1.72414,230.755,245.804
2016-07-09 22:00,0.249823,288.152,285.321,257.798,288.493,285.35,259.856,0.380745,0.453981,231.236,250.544
2016-07-09 23:00,-0.327446,288.977,287.322,258.469,290.101,287.748,262.492,-0.0905301,-0.168662,231.156,251.352
2016-07-10 00:00,-0.119963,290.041,289.272,259.683,292.34,290.511,263.553,-0.0395004,-0.0841041,231.709,251.85
2016-07-10 01:00,0.0,289.647,289.058,259.574,292.079,290.375,263.553,0.0,0.0,231.473,252.047
2016-07-10 02:00,0.0,290.171,289.272,260.011,292.47,290.375,263.318,0.0,0.0,230.916,251.949
2016-07-10 03:00,0.0,290.429,289.805,260.119,292.73,290.921,264.138,0.0,0.0,231.473,252.047
2016-07-10 04:00,0.0,289.381,289.272,260.011,292.47,290.375,264.255,0.0,0.0,231.787,252.439
2016-07-10 05:00,0.00205714,289.514,289.058,259.793,292.209,290.238,263.787,0.0,0.0,232.557,252.634
2016-07-10 06:00,0.00255058,290.041,289.805,260.119,292.86,290.921,264.022,0.0,0.0,232.557,253.117
2016-07-10 07:00,0.0,290.171,289.805,260.119,292.86,291.193,264.372,0.0,0.00384911,232.633,253.213
2016-07-10 08:00,0.0,290.301,290.017,260.119,292.989,291.193,264.488,0.0,0.0,233.085,253.595
2016-07-10 09:00,0.0445774,290.685,290.017,260.337,293.119,291.329,263.905,0.289368,0.180014,233.677,253.88
2016-07-10 10:00,0.0163505,290.685,290.335,260.011,293.119,291.329,264.721,0.124596,0.0619006,233.677,253.785
2016-07-10 11:00,0.00724049,290.685,290.229,260.445,293.377,291.464,264.721,0.0756096,0.034112,233.823,253.5
2016-07-10 12:00,0.0531141,292.294,289.272,259.902,292.079,290.238,264.138,0.0914422,0.0625588,233.53,253.5
2016-07-10 13:00,0.0116645,290.813,289.058,259.902,291.948,289.551,262.492,0.0506162,0.0264961,233.603,252.342
2016-07-10 14:00,0.0312037,291.065,288.303,259.683,290.897,288.722,262.373,0.0550419,0.0380649,234.113,251.85
2016-07-10 15:00,0.0173044,290.813,288.412,259.683,291.029,288.306,262.255,0.0418618,0.0262048,234.615,251.949
2016-07-10 16:00,0.0448419,290.171,287.76,259.024,290.5,287.888,262.728,0.0653886,0.0578458,234.968,251.85
2016-07-10 17:00,0.0546015,291.19,287.869,259.134,290.367,288.167,262.61,0.0766759,0.0672238,235.525,252.439
2016-07-10 18:00,0.0791721,294.823,288.52,259.902,291.16,288.722,262.847,0.0941067,0.081466,235.936,252.731
2016-07-10 19:00,0.34919,305.028,288.628,259.793,291.292,288.861,262.847,0.300479,0.293135,235.936,252.244
2016-07-10 20:00,1.39133,320.771,289.058,260.011,291.686,289.137,263.2,1.02936,1.08825,236.139,252.342
2016-07-10 21:00,1.49655,305.95,288.951,259.683,291.423,288.999,262.492,0.966454,1.12162,236.408,252.634
2016-07-10 22:00,0.203727,288.012,287.541,259.134,290.234,288.167,262.728,0.517485,0.565604,236.675,252.925
2016-07-10 23:00,-0.306222,289.113,287.76,259.134,290.5,288.167,262.847,-0.0958202,-0.181458,236.742,253.117
2016-07-11 00:00,-0.172829,288.705,286.992,259.024,289.434,287.048,261.779,-0.045026,-0.0905962,237.463,253.595
2016-07-11 01:00,-0.00236936,289.91,288.195,259.464,290.632,288.027,261.898,0.0,0.0,237.849,253.785
2016-07-11 02:00,-0.00197821,290.171,288.412,259.574,290.897,288.306,261.779,0.0,0.0,238.857,254.814
2016-07-11 03:00,0.00183302,290.171,288.412,259.574,290.764,288.306,262.373,0.0,0.0,239.227,255.275
2016-07-11 04:00,0.0,289.647,288.303,259.354,290.367,287.748,262.728,0.0,0.0,239.593,255.183
2016-07-11 05:00,0.00205084,289.514,288.303,259.354,290.5,288.027,262.847,0.0,0.0,239.349,255.639
2016-07-11 06:00,0.0,289.514,288.628,259.464,290.764,288.445,262.965,0.0,0.0,239.774,256.181
2016-07-11 07:00,0.0,290.171,289.272,259.902,291.686,289.276,263.2,0.0,0.0,240.371,257.07
2016-07-11 08:00,0.0,289.514,288.303,259.464,290.764,288.445,263.2,0.0,0.0,241.189,257.508
2016-07-11 09:00,0.438887,284.57,282.096,256.205,285.618,284.205,261.779,0.512559,0.488919,241.361,257.595
2016-07-11 10:00,0.517259,290.558,280.909,255.742,284.22,283.484,261.182,0.472721,0.460037,241.817,258.286
2016-07-11 11:00,0.0314402,291.19,288.628,259.354,290.234,287.888,262.728,0.102386,0.0561567,241.93,258.628
2016-07-11 12:00,0.336775,290.939,281.029,255.16,283.797,283.049,261.421,0.385699,0.411573,242.544,258.713
2016-07-11 13:00,0.129853,292.174,285.882,258.358,288.222,286.343,262.492,0.161831,0.145824,242.984,259.387
2016-07-11 14:00,0.310846,286.717,279.945,254.69,282.517,281.735,260.942,0.392036,0.401791,243.202,259.051
2016-07-11 15:00,0.246007,283.924,278.845,254.336,281.076,280.702,260.34,0.320291,0.318249,242.82,258.372
2016-07-11 16:00,0.0124563,290.429,287.212,259.134,288.628,286.06,261.66,0.0369137,0.0201207,242.655,258.798
2016-07-11 17:00,0.0186435,290.939,287.322,259.134,288.628,285.777,262.017,0.0439736,0.0268881,242.378,258.543
2016-07-11 18:00,0.0974365,294.268,285.658,258.246,287.407,285.065,260.942,0.10828,0.0952939,241.59,258.286
2016-07-11 19:00,0.38146,292.534,280.549,255.043,282.803,281.882,260.581,0.395291,0.394686,241.647,258.543
2016-07-11 20:00,1.33771,319.249,287.76,259.354,289.032,286.202,262.373,0.986196,1.02038,241.647,258.882
2016-07-11 21:00,2.47892,313.214,287.869,259.574,289.166,286.626,261.898,1.56987,1.78465,242.378,259.471
2016-07-11 22:00,0.156299,290.041,288.303,259.793,289.568,287.048,262.728,0.397014,0.420781,242.099,259.471
2016-07-11 23:00,-0.344692,289.779,288.52,259.902,290.367,288.027,263.553,-0.0954125,-0.180686,242.211,260.381
2016-07-12 00:00,-0.162398,290.171,289.058,260.011,290.897,288.584,263.787,-0.0477047,-0.0903398,241.986,260.627
2016-07-12 01:00,-0.00236343,289.247,288.843,260.228,291.292,289.964,264.255,0.0,0.0,242.489,261.435
2016-07-12 02:00,-0.00197336,285.818,286.772,258.691,289.3,288.306,263.905,0.0,0.0,242.211,261.755
2016-07-12 03:00,0.0,290.685,291.07,261.305,293.764,292.141,265.647,0.0,-0.00184584,242.322,262.309
2016-07-12 04:00,0.0,290.558,290.965,261.305,293.892,292.545,265.069,0.0,0.0,242.378,262.309
2016-07-12 05:00,0.0,290.041,290.229,260.984,292.86,291.464,265.185,0.0,0.0,242.322,262.072
2016-07-12 06:00,0.00253088,283.093,283.38,257.233,286.447,285.919,263.318,0.0,0.0,242.211,261.515
2016-07-12 07:00,0.00377021,288.568,288.843,260.228,291.423,290.101,264.372,0.0,0.0,242.042,261.675
2016-07-12 08:00,0.0,290.558,290.44,260.984,292.989,291.464,265.185,0.0,0.0,242.266,261.595
2016-07-12 09:00,0.647797,287.871,286.772,259.134,289.3,288.445,263.553,0.639903,0.669561,241.986,261.595
2016-07-12 10:00,0.255635,291.065,286.992,259.244,289.568,288.306,264.255,0.286267,0.253917,242.266,261.914
2016-07-12 11:00,0.31263,290.429,284.071,257.798,286.997,286.485,263.318,0.330367,0.327852,242.099,261.755
2016-07-12 12:00,0.401045,291.19,282.448,257.006,285.201,285.065,263.787,0.384639,0.404879,241.817,262.072
2016-07-12 13:00,0.132857,293.356,287.432,259.574,290.101,288.861,264.255,0.139685,0.126758,241.533,261.355
2016-07-12 14:00,0.0065053,291.065,290.545,261.838,293.248,291.329,265.416,0.0385562,0.018389,240.489,260.789
2016-07-12 15:00,0.070475,291.065,288.736,260.661,291.423,289.964,264.721,0.0921237,0.0861274,240.43,260.789
2016-07-12 16:00,0.0124567,291.563,290.756,262.049,293.248,291.735,265.301,0.0379694,0.0213788,240.312,260.789
2016-07-12 17:00,0.0186428,292.174,290.651,261.944,293.119,291.464,265.185,0.0405896,0.0268872,240.724,261.113
2016-07-12 18:00,0.176599,293.472,287.541,260.119,289.968,288.999,264.138,0.206242,0.210563,241.189,261.275
2016-07-12 19:00,0.362512,306.4,290.545,261.625,293.248,291.6,265.416,0.313366,0.312326,241.131,261.275
2016-07-12 20:00,1.39235,322.457,290.86,261.838,293.506,292.141,265.185,1.03697,1.11361,241.76,261.595
2016-07-12 21:00,2.49812,315.143,290.756,261.944,293.377,291.871,265.762,1.64129,1.87481,241.986,262.309
2016-07-12 22:00,0.213982,289.779,290.229,261.091,292.73,291.329,265.647,0.49824,0.594076,242.322,263.476
2016-07-12 23:00,-0.303493,290.301,290.651,261.198,292.86,291.6,265.762,-0.0837937,-0.166519,242.984,264.69
2016-07-13 00:00,-0.14538,290.685,290.86,261.305,293.377,292.006,265.647,-0.0419636,-0.0833921,243.74,265.581
2016-07-13 01:00,-0.00235713,290.558,290.86,260.984,293.377,292.276,265.185,0.0,-0.00237966,244.006,264.989
2016-07-13 02:00,-0.00196826,290.558,290.545,260.984,293.377,291.735,265.762,0.0,0.0,243.846,263.782
2016-07-13 03:00,0.0,290.429,290.651,260.984,293.248,291.6,265.416,0.0,0.0,243.899,262.779
2016-07-13 04:00,0.00184333,288.977,288.951,260.445,291.423,289.964,263.787,0.0,0.0,243.899,261.914
2016-07-13 06:00,-0.00252069,290.041,289.379,260.553,291.817,289.964,263.905,0.0,0.0,243.74,260.463
2016-07-13 07:00,-0.00374855,289.113,288.412,260.011,290.5,288.722,263.436,0.0,0.0,243.793,260.217
2016-07-13 08:00,0.00910976,289.113,288.195,260.119,290.234,288.167,263.436,0.0,0.0,243.364,260.135
2016-07-13 09:00,0.125832,290.171,288.951,260.769,291.029,288.722,263.2,0.346261,0.238191,243.093,259.554
2016-07-13 10:00,0.376866,290.558,282.331,256.892,284.921,283.773,262.255,0.385716,0.393012,242.82,259.135
2016-07-13 11:00,0.0364282,290.813,288.951,260.661,290.897,288.445,263.2,0.106925,0.0661976,242.71,259.22
2016-07-13 12:00,0.0515206,291.563,289.058,260.876,291.423,289.137,264.488,0.0932616,0.0609808,242.929,259.721
2016-07-13 13:00,0.0233746,291.065,288.951,260.769,290.897,288.722,263.436,0.0630846,0.0383469,242.875,259.554
2016-07-13 14:00,0.14707,292.294,286.772,259.024,288.897,287.188,263.083,0.174113,0.176069,243.039,259.554
2016-07-13 15:00,0.0111293,291.315,289.272,260.876,291.423,288.999,263.787,0.0397868,0.0224714,242.765,259.554
2016-07-13 16:00,0.0186857,291.315,289.058,260.553,291.16,288.722,263.2,0.0432445,0.0276677,242.6,259.051
2016-07-13 17:00,0.0359535,292.414,288.951,260.553,290.764,288.722,263.2,0.0586285,0.0416745,242.489,259.051
2016-07-13 18:00,0.115703,295.151,288.52,260.228,290.5,288.306,263.318,0.125035,0.110662,242.71,258.543
2016-07-13 19:00,0.411919,295.151,283.264,257.685,286.172,284.922,262.492,0.377702,0.373696,242.875,258.882
2016-07-13 20:00,0.957588,299.95,282.096,256.664,284.641,283.773,262.136,0.810788,0.87116,242.765,258.967
2016-07-13 21:00,1.1367,300.679,287.322,259.902,289.568,287.609,263.083,0.828648,0.890263,242.929,258.798
2016-07-13 22:00,0.496383,289.514,287.651,259.793,289.835,287.748,263.553,0.513684,0.668171,242.929,258.882
2016-07-13 23:00,-0.24287,288.977,287.869,259.902,290.234,288.167,263.436,-0.0778087,-0.159043,242.984,258.713
2016-07-14 00:00,-0.125143,290.301,288.951,260.337,291.029,288.999,263.318,-0.0390374,-0.0831182,243.093,258.628
2016-07-14 01:00,-0.00235046,289.779,288.736,260.011,290.764,288.584,263.436,-0.00199013,0.0,243.039,258.713
2016-07-14 02:00,-0.00196291,290.429,289.058,260.337,291.029,288.584,263.905,0.0,0.0,242.875,258.543
2016-07-14 03:00,-0.00181843,289.91,288.951,260.119,290.764,288.722,264.372,0.0,0.0,243.093,258.798
2016-07-14 04:00,0.00183784,290.171,288.628,259.902,290.632,288.445,263.318,0.0,0.0,243.31,259.051
2016-07-14 05:00,0.0,288.43,286.882,259.134,289.166,287.609,263.2,0.0,0.0,243.364,259.387
2016-07-14 06:00,0.0,283.76,283.495,257.685,286.31,285.208,262.847,0.0,0.00253429,243.418,259.638
2016-07-14 07:00,0.0,285.665,285.095,258.134,287.815,286.343,262.965,0.0,0.0,243.526,259.471
2016-07-14 08:00,-0.00899158,288.841,288.087,259.793,290.5,288.861,263.787,0.0,0.0,243.686,259.304
2016-07-14 09:00,0.17656,290.171,288.195,259.574,289.968,288.027,263.2,0.380527,0.291678,244.269,259.721
2016-07-14 10:00,0.482552,287.871,283.38,256.892,285.895,285.065,262.847,0.489587,0.516563,244.006,259.387
2016-07-14 11:00,0.146018,292.053,285.321,257.685,286.86,284.922,261.54,0.201934,0.167069,244.164,258.286
2016-07-14 12:00,0.313034,294.156,282.331,256.32,284.921,284.205,262.136,0.310224,0.307049,244.322,259.721
2016-07-14 13:00,0.412242,292.771,281.86,255.858,284.361,284.205,261.66,0.46168,0.492926,244.269,259.97
2016-07-14 14:00,0.384076,288.841,282.566,256.205,285.34,285.065,262.847,0.451968,0.461353,244.322,259.97
2016-07-14 15:00,0.371035,288.568,281.86,255.858,284.641,284.492,262.136,0.484845,0.508182,243.953,259.887
2016-07-14 16:00,0.335112,288.43,282.566,256.205,285.201,285.065,262.847,0.355465,0.359696,244.269,259.887
2016-07-14 17:00,0.241023,293.816,283.148,256.549,285.895,285.493,262.965,0.225496,0.221817,244.217,259.638
2016-07-14 18:00,0.490239,294.38,281.267,255.51,284.22,284.205,262.255,0.460203,0.484166,244.111,259.471
2016-07-14 19:00,0.613263,297.947,282.566,256.205,285.201,284.922,263.083,0.564261,0.598041,244.322,259.554
2016-07-14 20:00,0.847241,311.925,288.087,259.134,289.835,288.306,263.553,0.653185,0.669515,244.374,259.387
2016-07-14 21:00,0.924586,296.427,286.661,258.358,288.897,287.748,263.2,0.692018,0.778713,244.79,259.887
2016-07-14 22:00,0.34271,290.685,288.951,259.683,291.16,289.551,263.905,0.48362,0.576644,244.945,259.721
2016-07-14 23:00,-0.248059,290.429,288.951,259.464,291.029,289.413,263.553,-0.0773799,-0.164757,244.894,259.887
2016-07-15 00:00,-0.124704,290.301,289.058,259.574,291.292,289.551,264.372,-0.0416791,-0.0861397,244.945,259.804
2016-07-15 01:00,-0.00234342,290.041,289.165,259.354,291.16,289.689,264.022,0.0,0.0,245.048,260.135
2016-07-15 02:00,-0.00195731,289.91,288.843,259.464,291.029,289.276,264.022,0.0,0.0,245.151,260.299
2016-07-15 03:00,0.0,289.779,288.843,259.464,291.16,289.551,263.787,0.0,0.0,245.557,260.463
2016-07-15 04:00,0.0,289.113,288.628,259.574,290.897,289.137,263.67,0.0,0.0,245.557,260.871
2016-07-15 05:00,-0.00202373,287.587,287.432,258.913,289.701,288.445,263.905,0.0,0.0,245.91,261.275
2016-07-15 06:00,0.0,288.705,288.52,259.902,291.029,289.551,264.255,0.0,0.0,245.91,261.435
2016-07-15 07:00,0.0,290.301,289.805,260.445,292.079,290.511,264.605,0.0,0.0,246.208,261.914
2016-07-15 08:00,-0.0088745,290.558,290.017,260.445,292.34,290.648,264.837,0.0,0.0,246.456,262.623
2016-07-15 09:00,0.327806,289.113,288.628,259.683,291.029,289.413,264.721,0.457962,0.430222,246.75,262.701
2016-07-15 10:00,0.30505,289.381,285.994,258.134,288.763,287.748,263.787,0.357354,0.345935,246.554,262.779
2016-07-15 11:00,0.134131,292.414,289.699,260.337,292.079,290.101,264.372,0.17758,0.137875,246.603,262.935
2016-07-15 12:00,0.0641028,292.534,289.911,260.769,292.209,290.784,264.953,0.101013,0.0719062,246.554,263.09
2016-07-15 13:00,0.0146278,291.686,290.335,260.984,292.6,291.057,264.721,0.0544956,0.0295353,246.456,262.935
2016-07-15 14:00,0.0416765,292.053,289.699,260.228,292.079,290.784,265.185,0.066164,0.0512788,246.456,263.012
2016-07-15 15:00,0.0259765,291.931,290.123,260.445,292.47,290.784,265.069,0.0481779,0.0324688,246.554,263.399
2016-07-15 16:00,0.0161959,291.809,290.123,260.876,292.47,290.648,264.721,0.0411392,0.0276705,246.505,263.476
2016-07-15 17:00,0.0199748,292.174,290.017,260.661,292.209,290.238,264.837,0.0451003,0.028232,246.554,263.322
2016-07-15 18:00,0.0822209,296.008,289.165,260.337,291.423,289.689,264.138,0.0941109,0.0799326,246.652,263.399
2016-07-15 19:00,0.317162,305.106,289.379,260.445,291.423,289.276,264.022,0.281405,0.268426,246.847,263.167
2016-07-15 20:00,0.644733,298.045,285.208,258.358,287.815,286.907,263.083,0.571125,0.582525,246.554,263.012
2016-07-15 21:00,3.07235,317.865,289.165,260.337,291.029,288.861,263.787,1.89032,2.08849,246.652,262.779
2016-07-15 22:00,0.237787,290.429,289.379,260.553,291.555,289.413,264.488,0.503336,0.600152,246.357,262.309
2016-07-15 23:00,-0.233612,289.91,289.379,260.553,291.555,289.551,264.022,-0.0769217,-0.163781,246.505,262.623
2016-07-16 00:00,-0.134048,290.429,289.165,260.228,291.16,288.861,263.67,-0.0387554,-0.0858185,246.554,262.623
2016-07-16 01:00,-0.00467206,286.569,286.328,258.58,288.493,287.048,263.083,0.0,-0.00235836,246.406,261.993
2016-07-16 02:00,-0.00195147,290.171,289.058,259.793,290.897,288.722,263.787,0.0,0.0,246.059,261.993
2016-07-16 04:00,0.0,281.883,283.38,256.664,286.447,285.208,263.083,0.0,-0.00184379,246.307,261.914
2016-07-16 05:00,0.0,285.202,285.433,258.134,287.951,286.626,262.847,0.0,0.0,246.059,262.23
2016-07-16 06:00,-0.00248894,290.301,289.699,259.793,292.209,290.375,264.022,0.0,0.0,246.059,262.466
2016-07-16 07:00,0.0,289.779,289.593,259.793,292.209,290.784,264.721,0.0,0.0,245.859,262.309
2016-07-16 08:00,0.0,290.558,290.123,260.011,292.47,291.193,264.488,0.0,0.0,245.608,262.545
2016-07-16 09:00,0.217729,290.301,289.699,259.683,292.209,290.648,264.372,0.397064,0.304353,245.859,262.388
2016-07-16 10:00,0.407196,290.813,287.651,258.691,290.234,289.137,264.138,0.447848,0.478897,245.759,262.935
2016-07-16 11:00,0.0293267,291.44,290.651,260.337,293.119,291.871,265.301,0.0993235,0.0592141,246.009,263.476
2016-07-16 12:00,0.0338705,291.809,290.756,260.119,293.248,291.735,265.762,0.0830156,0.0521913,246.258,264.69
2016-07-16 13:00,0.0278104,291.809,290.756,260.119,292.86,291.735,265.301,0.0632052,0.0398979,246.208,264.238
2016-07-16 14:00,0.0703528,292.174,290.017,259.354,292.6,291.6,265.647,0.09597,0.078917,246.554,265.581
2016-07-16 15:00,0.043301,292.174,290.545,259.902,293.119,292.006,265.647,0.0649457,0.053707,246.505,265.36
2016-07-16 16:00,0.0137052,291.931,291.174,260.119,293.506,292.41,265.762,0.040087,0.0264145,245.151,264.464
2016-07-16 17:00,0.0372881,293.472,290.86,260.228,293.248,292.141,265.416,0.0575058,0.0430224,244.111,263.322
2016-07-16 18:00,0.0852767,296.531,290.86,260.553,293.506,292.141,265.185,0.09928,0.0876293,243.472,262.151
2016-07-16 19:00,0.319173,304.794,289.911,260.119,292.34,291.057,264.837,0.283112,0.283864,243.633,261.275
2016-07-16 20:00,0.805294,308.351,287.869,259.244,290.367,288.861,264.138,0.6497,0.665175,243.147,260.381
2016-07-16 21:00,2.05893,312.607,288.52,259.354,290.632,288.861,263.436,1.30421,1.46176,242.875,259.97
2016-07-16 22:00,0.559929,290.041,288.52,259.244,290.5,288.445,263.553,0.526768,0.6909,242.655,259.97
2016-07-16 23:00,-0.341754,289.91,288.303,259.134,290.101,288.167,263.2,-0.0928144,-0.182275,242.71,259.804
2016-07-17 00:00,-0.153058,288.291,286.992,257.91,288.763,287.188,262.492,-0.0441171,-0.0920551,243.256,259.554
2016-07-17 01:00,0.0,285.202,284.982,257.006,287.27,285.919,262.136,0.0,0.0,243.256,259.638
2016-07-17 02:00,0.0,289.113,288.087,259.134,290.234,288.445,263.318,0.0,0.0,242.378,259.471
2016-07-17 03:00,-0.00180209,289.247,288.087,258.802,290.234,288.861,263.2,0.0,0.0,242.875,259.721
2016-07-17 04:00,0.0,288.841,287.978,258.469,289.835,288.584,263.905,0.0,0.0,242.489,259.554
2016-07-17 05:00,0.0,288.568,287.978,258.58,289.968,288.722,263.436,0.0,0.0,242.655,260.135
2016-07-17 06:00,0.0,289.381,288.628,258.913,290.632,289.551,263.787,0.0,0.0,243.039,260.299
2016-07-17 07:00,0.0,288.977,288.412,258.691,290.5,289.551,264.138,0.0,0.00369471,242.984,260.052
2016-07-17 08:00,-0.00864409,289.91,289.058,259.244,291.292,290.101,264.488,0.0,0.0,243.093,260.052
2016-07-17 09:00,0.18839,290.813,289.486,259.354,291.817,290.648,264.255,0.391524,0.311222,243.633,259.804
2016-07-17 10:00,0.0759114,291.19,289.379,259.574,291.686,290.238,264.138,0.189251,0.131986,243.147,259.804
2016-07-17 11:00,0.0514303,291.563,289.272,259.683,291.686,290.511,264.488,0.126491,0.0865365,243.472,259.887
2016-07-17 12:00,0.0374783,291.563,289.165,259.134,291.555,290.511,264.372,0.0967096,0.0684662,243.74,259.887
2016-07-17 13:00,0.0307571,291.44,289.272,259.244,291.555,290.101,264.372,0.076886,0.0532306,243.686,260.135
2016-07-17 14:00,0.039098,291.931,289.165,259.134,291.16,289.964,264.372,0.0728292,0.0539447,244.058,260.135
2016-07-17 15:00,0.0334091,292.053,289.165,259.354,291.292,290.101,264.138,0.0618133,0.0462205,244.531,260.545
2016-07-17 16:00,0.0348886,292.534,289.272,259.354,291.292,290.101,264.022,0.0622452,0.0478014,244.058,259.887
2016-07-17 17:00,0.0692545,294.38,289.058,259.464,291.292,290.101,264.022,0.0845735,0.0726056,243.31,259.721
2016-07-17 18:00,0.146213,297.349,288.412,259.574,290.5,288.999,263.553,0.149589,0.139922,243.31,258.798
2016-07-17 19:00,0.3022,303.998,288.951,259.574,291.029,288.999,263.083,0.268747,0.260957,243.202,258.286
2016-07-17 20:00,0.743702,309.044,288.412,259.244,290.632,288.861,263.318,0.58143,0.594621,242.875,258.028
2016-07-17 21:00,1.48833,306.326,283.264,256.434,285.061,282.175,259.735,1.05522,1.2426,242.875,256.539
2016-07-17 22:00,0.65521,279.859,275.046,251.676,276.315,273.359,255.406,0.610242,0.793768,242.489,254.722
2016-07-17 23:00,-0.352268,278.684,272.527,250.681,273.686,269.821,253.24,-0.092191,-0.181051,242.433,253.88
2016-07-18 00:00,-0.181608,272.322,265.696,247.465,267.016,263.586,249.705,-0.0466793,-0.0949461,242.489,252.047
2016-07-18 01:00,0.0,276.811,270.746,249.542,271.945,267.84,251.683,0.0,-0.0023424,242.211,253.117
2016-07-18 02:00,-0.00193911,275.932,270.885,249.669,272.264,268.835,252.075,0.0,0.0,242.433,253.309
2016-07-18 03:00,-0.00179628,280.982,276.208,251.799,277.678,274.147,255.28,0.0,0.0,242.378,254.722
2016-07-18 04:00,-0.00181419,275.251,270.049,249.414,271.303,267.506,251.944,0.0,0.0,242.544,253.405
2016-07-18 05:00,0.00200163,270.713,264.635,246.533,265.997,262.361,248.903,0.0,0.00202077,242.544,252.439
2016-07-18 06:00,0.0,279.859,275.694,252.29,277.075,272.405,253.881,0.0,-0.00249051,242.929,254.629
2016-07-18 07:00,-0.00363712,281.526,278.721,253.621,280.201,276.323,255.909,0.0,0.0,243.31,255.911
2016-07-18 08:00,0.0,284.087,281.978,255.393,283.656,280.406,258.27,0.0,0.0,243.74,256.716
2016-07-18 09:00,0.385562,288.43,284.3,256.664,286.033,283.194,259.977,0.445166,0.442328,243.686,257.07
2016-07-18 10:00,0.394039,292.294,277.727,253.261,279.318,275.706,256.035,0.376681,0.389251,243.093,255.548
2016-07-18 11:00,0.316598,296.427,276.971,253.02,278.128,273.99,254.9,0.290921,0.29237,242.544,254.907
2016-07-18 12:00,0.130429,295.151,283.38,256.32,285.201,281.588,259.005,0.154305,0.137087,242.155,255.821
2016-07-18 13:00,0.0893978,293.587,285.208,257.233,287.407,284.779,260.581,0.11416,0.0976502,242.155,256.628
2016-07-18 14:00,0.0482369,292.294,287.432,258.358,289.835,287.748,262.728,0.0783727,0.0631758,242.211,257.333
2016-07-18 15:00,0.0767301,293.124,287.978,258.469,290.234,288.861,263.318,0.096403,0.0849601,241.704,257.333
2016-07-18 16:00,0.0623068,293.24,288.736,259.024,291.292,289.689,263.787,0.0844081,0.0691926,241.246,257.595
2016-07-18 17:00,0.0799169,294.713,289.165,259.134,291.555,290.238,264.022,0.0992427,0.0860596,240.43,257.508
2016-07-18 18:00,0.208701,296.323,287.541,258.691,289.968,288.999,263.905,0.207663,0.203007,240.312,257.07
2016-07-18 19:00,0.309955,303.998,289.272,259.244,291.686,290.375,264.255,0.275319,0.274523,240.134,256.894
2016-07-18 20:00,0.711962,309.453,289.058,259.134,291.555,290.238,264.488,0.549898,0.581599,240.074,256.894
2016-07-18 21:00,1.45191,310.386,289.165,259.574,291.686,290.648,263.67,0.905594,1.06413,239.653,256.539
2016-07-18 22:00,0.20851,288.012,285.658,257.798,288.087,285.35,261.182,0.529634,0.631508,240.134,255.457
2016-07-18 23:00,-0.248016,288.977,287.76,258.469,290.101,288.306,262.728,-0.0753827,-0.154084,239.774,256.001
2016-07-19 00:00,-0.142068,290.171,289.165,259.244,291.948,290.511,264.255,-0.0410076,-0.0814922,240.014,256.716
2016-07-19 01:00,-0.00231183,288.705,288.412,259.024,291.16,290.101,263.67,0.0,0.0,240.074,257.246
2016-07-19 02:00,0.0,289.514,289.058,259.464,291.555,290.375,264.022,0.0,0.0,240.193,257.07
2016-07-19 03:00,0.0,288.43,287.76,259.134,290.632,288.999,263.318,0.0,0.0,240.074,256.45
2016-07-19 04:00,0.0,288.43,286.439,258.691,288.897,286.626,261.66,0.0,0.00182518,240.014,255.366
2016-07-19 05:00,0.0,288.841,286.992,258.913,289.3,286.907,261.66,0.0,0.0,239.954,254.999
2016-07-19 06:00,0.0,289.647,288.087,259.354,290.367,288.306,262.492,0.0,0.0,239.774,255.183
2016-07-19 07:00,0.0,288.43,285.658,257.798,287.951,285.208,260.942,0.0,0.0,239.104,254.814
2016-07-19 08:00,0.0,290.041,287.869,259.024,290.101,288.167,262.255,0.0,0.0,239.288,255.366
2016-07-19 09:00,0.269211,287.3,284.869,257.572,287.543,285.777,261.66,0.395097,0.326142,239.227,255.091
2016-07-19 10:00,0.319269,284.087,278.226,253.86,280.493,278.76,257.653,0.371245,0.356702,239.288,253.785
2016-07-19 11:00,0.172162,291.931,286.661,258.58,288.897,287.469,262.492,0.231148,0.198637,239.349,255.183
2016-07-19 12:00,0.128787,293.24,286.882,258.469,289.032,287.469,262.255,0.169624,0.142659,238.981,255.275
2016-07-19 13:00,0.0425269,291.44,288.195,258.913,290.367,288.584,262.965,0.0893979,0.06366,238.981,255.275
2016-07-19 14:00,0.0925935,293.472,286.772,258.802,289.166,287.609,262.61,0.113733,0.100062,239.288,254.999
2016-07-19 15:00,0.0383717,291.686,288.412,259.134,290.5,288.861,262.965,0.0681226,0.0512348,239.593,255.457
2016-07-19 16:00,0.056082,292.534,287.76,258.913,289.968,288.306,262.965,0.0801961,0.0641672,239.593,255.639
2016-07-19 17:00,0.150529,294.268,286.328,258.358,288.628,287.329,262.492,0.159034,0.151968,239.653,255.548
2016-07-19 18:00,0.137138,297.449,288.303,259.354,290.5,288.999,263.318,0.145788,0.132296,240.074,256.091
2016-07-19 19:00,0.323449,303.917,288.303,259.574,290.5,288.861,262.492,0.286752,0.280441,239.954,256.091
2016-07-19 20:00,0.789075,310.188,287.869,259.244,290.234,288.584,263.083,0.601298,0.626307,239.834,255.911
2016-07-19 21:00,1.6231,311.357,288.195,259.244,290.367,288.584,262.61,0.99668,1.13604,240.312,255.548
2016-07-19 22:00,0.297402,289.779,288.412,259.244,290.897,288.861,262.965,0.50362,0.600491,239.954,255.366
2016-07-19 23:00,-0.347149,290.171,288.52,259.354,291.029,289.137,262.728,-0.0855071,-0.17842,239.954,255.366
2016-07-20 00:00,-0.179986,290.171,288.628,259.464,291.029,289.551,263.083,-0.0435411,-0.0908532,239.774,255.639
2016-07-20 01:00,-0.00460624,289.381,288.195,259.354,290.764,288.722,263.2,0.0,0.0,240.134,255.457
2016-07-20 02:00,-0.00192589,289.647,288.736,259.354,291.16,289.276,263.436,0.0,0.0,240.134,256.001
2016-07-20 03:00,0.0,285.97,285.882,258.022,288.628,287.469,262.492,0.0,0.0,240.253,255.911
2016-07-20 04:00,0.00180146,281.705,283.032,256.549,286.033,285.493,262.255,0.0,0.0,240.371,256.271
2016-07-20 05:00,-0.0019862,290.041,288.52,259.244,290.764,288.999,263.2,0.0,0.0,240.193,256.091
2016-07-20 06:00,-0.00244437,287.444,286.882,258.358,289.032,287.609,262.728,0.0,0.0,240.782,256.894
2016-07-20 07:00,0.00359162,287.155,286.217,258.022,288.628,287.048,262.61,0.0,0.0,240.782,256.539
2016-07-20 08:00,0.0,284.249,284.414,257.12,287.134,285.919,261.779,0.0,0.0,241.131,256.894
2016-07-20 09:00,0.25751,289.381,287.978,258.691,290.234,288.999,263.2,0.467213,0.389957,241.304,257.595
2016-07-20 10:00,0.171084,291.19,288.628,259.354,290.764,289.137,263.67,0.246257,0.198628,241.76,258.2
2016-07-20 11:00,0.23168,292.414,287.541,259.244,289.968,288.445,263.553,0.269202,0.248824,242.322,258.798
2016-07-20 12:00,0.0447679,291.809,288.951,259.683,291.292,289.689,264.022,0.0970365,0.0668899,242.6,259.387
2016-07-20 13:00,0.0278796,291.44,289.699,260.119,291.817,290.511,264.022,0.0695744,0.0444412,242.655,260.052
2016-07-20 14:00,0.0182639,291.315,289.911,260.337,292.209,290.784,264.605,0.051915,0.032926,242.765,260.952
2016-07-20 15:00,0.0321885,291.315,289.486,260.228,291.948,290.511,264.372,0.0545079,0.0387455,243.256,261.194
2016-07-20 16:00,0.0348997,291.809,289.593,260.337,292.079,290.375,264.721,0.055933,0.0402667,242.71,261.355
2016-07-20 17:00,0.058622,292.653,289.379,260.228,291.686,290.101,264.372,0.0755807,0.0672527,242.929,261.993
2016-07-20 18:00,0.0777347,295.368,289.593,260.445,291.948,290.238,264.488,0.096791,0.0815554,242.875,261.515
2016-07-20 19:00,0.30081,302.932,289.165,260.228,291.292,289.551,264.372,0.283712,0.278699,243.093,261.675
2016-07-20 20:00,0.814733,310.843,290.123,260.984,292.34,290.375,264.255,0.645998,0.668471,243.147,261.595
2016-07-20 21:00,2.08239,311.547,289.911,260.876,292.079,290.238,264.488,1.34882,1.52417,243.472,262.151
2016-07-20 22:00,0.241005,289.247,288.412,260.228,290.5,288.999,264.138,0.612176,0.729928,243.418,262.23
2016-07-20 23:00,-0.275539,290.301,290.229,261.091,292.6,290.784,265.185,-0.0795336,-0.164375,243.899,262.151
2016-07-21 00:00,-0.150337,290.301,289.805,260.661,292.34,290.784,264.605,-0.0433328,-0.0904187,244.374,262.857
2016-07-21 01:00,0.0,290.041,289.805,261.091,292.079,290.238,264.488,0.0,0.0,244.374,262.857
2016-07-21 02:00,0.0,287.729,286.439,259.244,289.032,287.469,263.787,0.0,0.0,244.842,263.09
2016-07-21 03:00,-0.00177789,280.05,280.066,255.51,282.66,281.735,261.421,0.0,0.0,245.099,263.399
2016-07-21 04:00,-0.0017949,279.278,279.702,255.393,282.374,281.441,261.062,0.0,0.0,245.507,263.09
2016-07-21 05:00,0.0,278.684,278.35,255.043,281.366,280.554,260.942,0.0,0.0,245.507,263.244
2016-07-21 06:00,0.0,276.594,276.336,253.86,279.907,279.661,260.701,0.0,0.0,245.456,263.244
2016-07-21 07:00,0.0,282.753,281.742,256.549,284.361,283.194,262.017,0.0,0.0,245.405,263.09
2016-07-21 08:00,-0.00820113,287.3,286.661,258.913,289.166,287.188,262.728,0.0,-0.00827952,245.658,263.322
2016-07-21 09:00,0.773493,288.291,287.102,258.913,289.568,288.027,263.787,0.750756,0.818979,246.208,263.629
2016-07-21 10:00,0.253555,292.294,285.882,258.358,288.358,286.767,263.2,0.291098,0.264656,246.258,263.706
2016-07-21 11:00,0.0790372,291.931,289.272,260.337,291.423,289.551,264.488,0.13175,0.0872733,245.91,264.01
2016-07-21 12:00,0.213333,295.151,281.86,256.664,284.501,283.629,261.66,0.21554,0.229851,245.859,263.782
2016-07-21 13:00,0.284839,293.587,280.669,255.858,283.372,283.049,261.779,0.272252,0.300903,246.009,263.706
2016-07-21 14:00,0.38106,287.587,276.718,254.099,279.76,279.81,260.581,0.339217,0.376798,246.258,263.629
2016-07-21 15:00,0.162211,289.113,281.505,256.549,283.797,283.339,262.373,0.17299,0.166262,246.208,263.706
2016-07-21 16:00,0.123412,292.771,282.214,256.664,284.921,283.629,262.136,0.131936,0.137177,245.96,263.552
2016-07-21 17:00,0.350463,288.568,277.977,254.69,280.785,280.85,261.301,0.352022,0.380719,246.159,264.01
2016-07-21 18:00,0.279027,296.427,279.945,255.858,282.66,281.588,261.301,0.254326,0.249369,246.406,263.858
2016-07-21 19:00,0.365805,304.636,286.217,259.134,288.222,286.202,263.083,0.308113,0.321216,246.357,264.238
2016-07-21 20:00,0.963391,314.046,289.805,260.661,291.817,289.689,264.255,0.737136,0.763202,246.357,264.389
2016-07-21 21:00,1.27565,306.771,289.805,260.769,291.817,289.964,264.837,0.876469,1.01867,246.505,264.54
2016-07-21 22:00,0.175719,289.779,289.058,260.553,291.423,289.826,264.721,0.595125,0.709597,246.357,264.914
2016-07-21 23:00,-0.260855,290.041,289.272,260.661,291.292,289.137,264.488,-0.0736219,-0.156755,246.357,264.839
2016-07-22 00:00,-0.162319,290.685,290.229,260.661,292.209,290.375,264.721,-0.0404221,-0.0835419,246.357,264.914
2016-07-22 01:00,-0.00456961,290.558,290.229,260.553,292.209,290.375,264.605,-0.00193454,0.0,246.456,265.063
2016-07-22 02:00,-0.00191186,288.152,288.195,259.574,290.101,288.861,264.372,-0.00161877,0.0,246.208,265.063
2016-07-22 03:00,0.0,289.647,289.699,260.337,291.948,290.238,264.488,0.0,0.0,246.357,264.914
2016-07-22 04:00,0.0,282.234,283.032,257.12,285.34,284.636,262.492,0.0,0.0,246.554,264.389
2016-07-22 05:00,0.0,280.239,281.978,256.549,284.781,284.061,262.728,0.0,0.0,246.406,264.389
2016-07-22 06:00,0.0,288.841,288.951,260.011,291.029,289.413,264.138,0.0,0.0,246.847,264.54
2016-07-22 07:00,-0.0035459,288.152,288.303,259.902,290.367,288.584,263.67,0.0,0.0,246.944,264.389
2016-07-22 08:00,0.0,290.685,290.123,260.661,292.209,290.511,264.138,0.0,0.0,247.138,264.464
2016-07-22 09:00,0.174292,290.171,289.593,260.119,291.555,289.551,264.255,0.409925,0.312815,247.331,264.389
2016-07-22 10:00,0.129546,290.939,287.869,259.464,289.968,288.167,263.67,0.204748,0.156942,247.09,264.54
2016-07-22 11:00,0.0272267,291.19,289.593,260.337,291.16,289.276,264.022,0.0984984,0.054974,247.57,264.389
2016-07-22 12:00,0.0825565,291.931,288.951,260.011,290.897,288.999,264.022,0.123086,0.092405,247.331,264.389
2016-07-22 13:00,0.0925556,291.065,288.628,259.574,290.367,288.861,263.905,0.146782,0.117171,247.041,264.238
2016-07-22 14:00,0.00522175,290.813,289.805,260.445,291.948,289.964,264.721,0.0375806,0.0171329,246.75,264.162
2016-07-22 15:00,0.00371547,290.939,290.44,260.661,292.34,290.375,264.721,0.0304102,0.015004,246.554,264.162
2016-07-22 16:00,0.00498712,291.065,289.805,260.876,291.948,289.964,264.721,0.0306138,0.0163631,246.505,263.858
2016-07-22 17:00,0.0279896,292.653,289.272,260.445,291.423,289.551,264.372,0.0473976,0.0336395,246.159,263.706
2016-07-22 18:00,0.0701657,295.476,290.229,261.198,292.34,290.375,264.837,0.0852393,0.0692966,245.608,263.322
2016-07-22 19:00,0.265039,302.511,290.017,260.984,292.47,290.375,264.953,0.242167,0.229073,245.608,263.012
2016-07-22 20:00,0.9049,312.668,290.123,260.876,292.34,290.511,264.837,0.696736,0.728633,245.202,262.935
2016-07-22 21:00,1.91698,308.351,290.229,260.984,292.6,290.784,264.721,1.2718,1.39448,245.304,262.935
2016-07-22 22:00,0.292645,290.041,290.017,260.984,292.6,290.784,265.069,0.743346,0.787847,245.355,263.09
2016-07-22 23:00,-0.258622,290.685,290.335,260.769,292.73,291.193,264.837,-0.0729916,-0.155413,245.253,262.935
2016-07-23 00:00,-0.129816,289.647,290.017,260.553,292.47,290.784,264.953,-0.037532,-0.0799128,245.456,263.167
2016-07-23 01:00,-0.00455044,290.429,290.44,261.091,292.989,291.329,265.069,0.0,0.0,245.405,263.244
2016-07-23 02:00,0.0,290.429,289.911,260.661,292.47,290.511,264.721,0.0,0.0,245.253,263.167
2016-07-23 03:00,0.0,290.558,290.229,260.445,292.6,290.784,265.069,0.0,0.0,245.456,263.399
2016-07-23 04:00,0.00178142,289.514,289.805,260.445,292.47,290.921,265.185,0.0,0.0,245.151,263.167
2016-07-23 05:00,0.0,290.171,289.593,260.553,291.948,290.375,264.837,0.0,0.0,244.945,263.09
2016-07-23 06:00,0.00240974,288.568,288.087,259.683,290.367,288.999,264.372,0.0,0.0,245.048,263.322
2016-07-23 07:00,0.0,290.429,290.017,260.661,292.079,290.375,265.069,0.0,0.0,245.048,263.322
2016-07-23 08:00,-0.00798975,290.171,289.911,260.445,292.209,290.511,265.069,0.0,0.0,245.658,263.399
2016-07-23 09:00,0.0596881,290.558,290.545,260.876,292.73,291.057,265.301,0.37061,0.220948,245.202,263.476
2016-07-23 10:00,0.0650866,0.0,290.123,260.553,292.079,290.648,264.953,0.169,0.113895,244.79,263.552
2016-07-23 11:00,0.257963,292.534,287.541,259.574,289.701,288.861,264.837,0.302423,0.295486,244.945,263.858
2016-07-23 12:00,0.00718676,291.065,290.965,261.198,293.377,291.735,265.878,0.0608502,0.0290218,244.945,263.858
2016-07-23 13:00,0.0176403,291.563,290.545,261.198,292.989,291.464,265.647,0.05601,0.0341338,244.426,263.629
2016-07-23 14:00,0.0156705,291.686,290.651,261.198,293.119,291.464,265.532,0.0464386,0.0290039,244.269,263.934
2016-07-23 15:00,0.0198199,292.174,290.965,261.305,293.635,292.276,266.222,0.0430024,0.0275128,243.686,263.629
2016-07-23 16:00,0.0324219,292.534,290.44,261.091,293.248,291.871,265.647,0.0485681,0.0365086,243.526,263.322
2016-07-23 17:00,0.0439944,293.24,290.545,261.198,293.119,291.6,266.108,0.0609545,0.0471068,243.039,262.701
2016-07-23 18:00,0.0549368,295.151,291.07,261.305,293.635,292.41,265.647,0.0762328,0.063165,242.655,262.309
2016-07-23 19:00,0.251914,303.098,290.756,260.876,293.119,291.193,264.721,0.229454,0.219642,242.211,262.072
2016-07-23 20:00,0.912062,313.214,290.017,260.553,292.34,290.784,265.069,0.70267,0.729988,242.489,261.755
2016-07-23 21:00,1.91054,307.064,286.55,259.024,289.3,288.027,264.138,1.33166,1.53985,242.82,261.675
2016-07-23 22:00,2.20841,283.924,282.566,257.346,286.033,285.065,263.318,0.934927,1.89509,242.929,261.595
2016-07-23 23:00,-0.29904,280.613,280.187,255.626,283.372,283.049,262.136,-0.0826765,-0.166352,242.544,260.952
2016-07-24 00:00,-0.163761,277.869,279.091,254.926,282.231,281.735,261.301,-0.0453299,-0.089022,242.71,260.463
2016-07-24 01:00,-0.00226537,286.421,285.433,258.134,287.951,286.485,263.083,0.0,-0.00228703,242.71,260.299
2016-07-24 02:00,0.0,288.705,287.869,259.244,290.367,288.722,264.138,0.0,0.0,242.765,260.708
2016-07-24 03:00,0.0,290.301,289.699,260.337,291.948,290.101,264.721,0.0,0.0,242.875,260.789
2016-07-24 04:00,0.0,290.171,289.486,260.228,291.555,289.964,264.372,0.0,0.0,243.147,260.463
2016-07-24 05:00,-0.00195399,290.041,289.058,260.119,291.555,289.826,264.255,0.0,0.0,243.093,260.217
2016-07-24 06:00,0.00239803,288.152,287.651,259.134,289.701,288.445,263.436,0.0,0.0,243.579,260.545
2016-07-24 07:00,-0.00350017,289.381,288.843,259.793,291.029,289.551,264.255,0.0,0.0,243.686,260.545
2016-07-24 08:00,0.0,290.041,289.379,260.228,291.423,290.101,264.255,0.0,0.0,244.374,260.789
2016-07-24 09:00,0.225046,290.041,288.195,259.683,290.367,288.999,263.787,0.450382,0.371778,244.374,260.708
2016-07-24 10:00,0.20057,290.301,286.772,258.58,289.032,287.888,263.083,0.284268,0.25531,244.164,260.545
2016-07-24 11:00,0.218739,293.472,286.439,258.58,288.628,287.329,264.022,0.267285,0.228358,244.374,260.627
2016-07-24 12:00,0.0755439,292.294,288.843,259.902,290.764,289.413,264.255,0.137063,0.0998723,244.058,260.545
2016-07-24 13:00,0.0338309,291.315,289.272,259.574,291.555,290.101,264.255,0.0809519,0.0549438,244.058,260.545
2016-07-24 14:00,0.0666221,0.0,288.628,259.574,290.897,289.689,264.953,0.0951208,0.0791282,243.846,260.871
2016-07-24 15:00,0.0631892,293.124,288.736,259.464,291.029,289.964,264.138,0.0902194,0.0763018,244.006,261.113
2016-07-24 16:00,0.0623617,293.472,288.412,259.354,290.632,289.413,264.372,0.0876506,0.0742903,243.953,260.789
2016-07-24 17:00,0.09068,294.713,287.76,259.574,290.101,288.722,263.905,0.106135,0.0928932,243.899,260.789
2016-07-24 18:00,0.154205,297.649,287.541,259.464,289.835,288.584,264.022,0.160298,0.151055,244.426,261.194
2016-07-24 19:00,0.326658,301.39,288.628,259.902,290.764,289.826,264.255,0.294373,0.287353,244.374,261.194
2016-07-24 20:00,0.730015,307.786,288.951,259.902,291.029,289.964,264.022,0.576276,0.59292,244.322,260.952
2016-07-24 21:00,1.268,302.426,288.087,259.574,290.367,289.276,264.488,0.862481,0.980173,244.006,260.708
2016-07-24 22:00,0.256523,289.381,288.736,259.574,290.897,289.551,263.905,0.760192,1.0359,243.793,260.299
2016-07-24 23:00,-0.278141,290.171,289.165,259.902,291.292,290.101,264.138,-0.0716743,-0.152608,243.418,260.381
2016-07-25 00:00,-0.175379,290.041,288.628,259.793,290.897,289.551,263.787,-0.0424265,-0.0885276,243.579,260.135
2016-07-25 01:00,-0.00451052,288.291,287.541,258.913,289.568,288.445,263.2,0.0,0.0,243.74,259.887
2016-07-25 02:00,-0.00377893,289.113,288.195,259.354,289.968,288.584,263.67,0.0,-0.00190753,244.164,259.97
2016-07-25 03:00,0.0,286.421,286.439,258.58,288.493,287.748,263.083,0.0,0.0,244.006,260.052
2016-07-25 04:00,0.00176751,282.753,283.264,257.006,286.033,285.635,262.728,0.0,-0.00178441,244.217,259.721
2016-07-25 05:00,0.0,281.526,282.682,256.549,285.479,284.922,262.492,0.0,0.0,244.164,259.387
2016-07-25 06:00,0.0,285.357,284.869,257.91,287.134,286.343,262.61,0.0,0.0,244.164,259.471
2016-07-25 07:00,0.0,283.76,282.799,257.12,286.033,284.922,262.373,0.0,0.0,244.374,259.554
2016-07-25 08:00,-0.00778564,281.165,281.978,256.664,284.781,284.061,262.255,0.0,0.0,244.635,259.638
2016-07-25 09:00,0.589586,283.76,282.331,256.778,285.201,284.492,262.255,0.677487,0.637738,244.583,259.887
2016-07-25 11:00,0.585368,290.685,280.549,255.393,283.23,283.339,261.898,0.60741,0.623655,245.099,260.627
2016-07-25 12:00,0.408744,294.602,281.029,255.974,283.797,283.629,262.017,0.385722,0.394473,245.151,260.052
2016-07-25 13:00,0.351757,296.738,280.669,255.626,283.514,283.339,262.017,0.322755,0.32986,245.048,260.545
2016-07-25 14:00,0.27442,295.476,280.549,255.51,283.514,283.049,261.421,0.246734,0.248019,245.099,260.627
2016-07-25 15:00,0.22307,295.583,280.789,255.393,283.514,283.194,261.301,0.205662,0.20018,245.099,260.299
2016-07-25 16:00,0.386724,292.414,279.823,255.277,282.517,282.321,261.779,0.402433,0.41435,244.635,259.887
2016-07-25 17:00,0.308141,294.043,282.799,256.549,285.061,284.492,261.898,0.313986,0.297619,243.899,259.051
2016-07-25 18:00,0.252058,296.531,284.528,257.459,286.447,285.208,262.017,0.250927,0.251383,243.686,258.713
2016-07-25 19:00,0.634879,295.26,279.213,254.454,281.943,281.588,260.461,0.621746,0.664115,244.164,258.372
2016-07-25 20:00,0.935113,299.672,279.213,254.217,281.799,281.735,260.701,0.78943,0.874637,244.058,258.713
2016-07-25 21:00,1.37112,295.796,279.213,254.454,281.655,281.441,261.062,1.01185,1.22803,244.217,258.967
2016-07-25 22:00,0.309024,278.482,279.336,254.572,282.231,281.735,260.822,1.17743,1.24791,243.953,258.882
2016-07-25 23:00,-0.275485,277.661,279.336,254.336,282.231,282.028,260.822,-0.07099,-0.151151,243.093,257.769
2016-07-26 00:00,-0.149462,278.279,279.58,254.69,282.231,281.735,261.062,-0.0395467,-0.0848763,243.256,258.028
2016-07-26 01:00,-0.00448981,277.451,278.845,254.099,281.51,281.588,260.219,0.0,-0.00226637,243.31,258.457
2016-07-26 02:00,0.00188167,277.24,278.35,253.98,281.221,280.998,259.614,0.0,0.0,243.686,258.882
2016-07-26 03:00,0.0,284.087,282.448,256.205,285.061,283.773,261.182,0.0,-0.00176109,243.846,259.471
2016-07-26 04:00,0.0,277.869,278.598,254.217,281.51,280.998,259.856,0.0,0.0,242.489,256.982
2016-07-26 05:00,0.0,276.376,277.727,253.741,280.639,280.257,259.856,0.0,0.0,243.579,257.595
2016-07-26 06:00,0.00237444,284.249,282.214,255.974,284.641,283.049,260.942,0.0,0.0,243.686,257.769
2016-07-26 07:00,0.0,275.707,277.35,253.621,280.054,279.81,259.735,0.0,0.0,242.984,256.716
2016-07-26 08:00,0.0,277.24,277.476,253.741,280.347,279.511,259.492,0.0,0.0,243.093,256.716
2016-07-26 09:00,0.585701,281.346,277.852,253.86,280.347,278.307,257.158,0.82652,0.9198,242.984,255.457
2016-07-26 10:00,0.792549,281.526,273.997,251.552,276.468,275.861,257.653,1.00285,1.10684,243.74,256.628
2016-07-26 11:00,0.529192,278.075,268.916,248.771,270.169,269.494,254.646,0.889791,0.97778,243.364,254.536
2016-07-26 12:00,0.210903,265.095,259.706,243.93,260.524,260.584,247.415,0.576923,0.591443,240.253,248.025
2016-07-26 13:00,0.17672,258.576,255.23,241.5,256.598,255.614,245.905,0.608489,0.663087,240.134,248.669
2016-07-26 14:00,0.184317,287.01,266.293,247.728,266.847,264.106,249.572,0.219149,0.215112,240.782,249.928
2016-07-26 15:00,0.242956,289.381,266.738,247.991,267.857,264.967,250.633,0.256088,0.262798,240.724,249.721
2016-07-26 16:00,0.119788,290.813,278.474,254.572,279.466,276.169,256.785,0.144741,0.136049,241.304,252.244
2016-07-26 17:00,0.337603,285.202,261.501,245.451,262.863,262.008,249.838,0.379624,0.401453,241.986,251.152
2016-07-26 18:00,0.536521,296.84,256.819,243.226,259.421,258.591,247.959,0.468508,0.540107,240.841,250.135
2016-07-26 19:00,0.572424,297.848,261.822,245.314,263.217,261.477,249.305,0.504122,0.564367,241.015,250.442
2016-07-26 20:00,0.818733,303.098,268.054,249.542,269.35,265.99,251.291,0.674547,0.784814,241.073,251.452
2016-07-26 21:00,0.901624,299.95,283.726,257.346,285.201,280.85,258.515,0.717963,0.812717,240.841,253.021
2016-07-26 22:00,0.98377,289.647,286.772,259.024,288.493,285.635,260.822,1.16614,1.58908,240.665,253.405
2016-07-26 23:00,-0.231262,288.977,285.658,258.134,287.543,284.636,260.822,-0.0702905,-0.155648,240.665,253.595
2016-07-27 00:00,-0.126911,279.473,279.091,254.572,281.943,280.702,259.492,-0.0366921,-0.0843746,241.533,253.88
2016-07-27 01:00,-0.00223432,282.408,280.669,255.626,283.372,281.735,259.735,0.0,-0.00225568,241.476,253.88
2016-07-27 02:00,-0.00187373,289.514,286.992,259.134,288.763,286.06,261.301,0.0,0.0,241.93,253.974
2016-07-27 03:00,-0.00173736,282.923,281.386,256.32,284.22,282.321,260.098,0.0,0.0,241.817,254.068
2016-07-27 04:00,0.0,288.568,286.439,258.469,288.358,285.777,260.822,0.0,0.0,241.817,253.785
2016-07-27 05:00,-0.00192892,289.113,286.882,258.802,288.897,286.343,261.66,0.0,0.0,241.76,253.785
2016-07-27 06:00,0.0,289.514,286.992,258.469,289.032,286.343,261.062,0.0,0.0,241.93,253.69
2016-07-27 07:00,-0.00343189,289.91,287.212,258.691,289.3,287.048,261.779,0.0,0.0,242.378,254.068
2016-07-27 08:00,0.00758905,287.729,285.658,257.572,287.815,285.777,261.421,0.0,0.0,242.433,254.349
2016-07-27 09:00,0.425031,285.357,282.916,256.32,285.479,283.917,260.822,0.568221,0.51943,241.986,253.974
2016-07-27 10:00,0.504422,285.357,281.148,255.043,282.946,282.321,260.219,0.580697,0.562848,242.266,253.974
2016-07-27 12:00,0.0541363,291.315,287.869,258.58,289.835,287.888,262.136,0.106953,0.0746936,242.266,255.183
2016-07-27 13:00,0.0235766,290.813,288.195,258.802,290.367,288.027,262.373,0.0698681,0.0446288,242.378,254.907
2016-07-27 14:00,0.054922,290.813,285.77,257.572,288.222,286.202,262.136,0.0808255,0.0660083,242.82,255.548
2016-07-27 15:00,0.19466,288.977,281.386,255.277,284.361,283.773,260.942,0.20786,0.212794,242.6,256.181
2016-07-27 16:00,0.292057,288.568,281.148,254.926,284.22,283.773,260.942,0.326542,0.345251,241.986,256.091
2016-07-27 17:00,0.0840992,292.771,287.432,258.246,289.568,287.609,262.373,0.105115,0.0875985,241.704,256.001
2016-07-27 18:00,0.0994215,295.69,288.843,259.244,290.764,288.584,263.083,0.115262,0.0988278,241.874,255.73
2016-07-27 19:00,0.253019,294.38,286.105,257.459,288.493,286.907,262.373,0.287264,0.276724,242.378,256.271
2016-07-27 20:00,0.588617,304.794,288.195,259.244,290.632,288.722,262.847,0.489022,0.493808,242.765,256.805
2016-07-27 21:00,1.32317,306.025,289.058,259.464,291.555,289.551,263.67,0.845958,0.975962,243.147,257.421
2016-07-27 22:00,0.551263,288.841,287.978,258.691,290.632,289.137,263.436,1.40026,1.94786,242.984,257.508
2016-07-27 23:00,-0.228915,289.381,288.52,258.913,291.16,289.413,263.553,-0.0695771,-0.154069,243.256,257.855
2016-07-28 00:00,-0.129216,289.247,288.951,258.913,291.423,289.964,264.022,-0.036469,-0.0838615,244.217,258.457
2016-07-28 01:00,-0.00444703,289.779,289.058,259.024,291.686,290.101,263.436,0.0,0.0,244.479,259.304
2016-07-28 02:00,0.0,289.779,289.058,259.244,291.555,289.964,263.905,0.0,0.0,245.557,260.052
2016-07-28 03:00,0.0,290.301,289.486,258.802,292.079,290.648,264.372,0.0,0.0,245.91,260.299
2016-07-28 04:00,0.00174596,289.779,289.272,259.244,291.686,290.238,264.372,0.0,0.00176265,245.507,260.545
2016-07-28 05:00,0.0,289.514,288.843,259.683,291.555,289.826,263.905,0.0,0.0,245.507,260.381
2016-07-28 06:00,-0.0023507,289.779,289.272,259.793,291.686,290.238,264.372,0.0,0.0,245.658,260.299
2016-07-28 07:00,0.0,290.429,289.699,259.902,292.209,290.784,264.837,0.0,0.0,245.809,260.952
2016-07-28 08:00,-0.00749362,289.514,289.165,259.464,291.686,290.648,264.721,0.0,-0.00756526,246.798,261.595
2016-07-28 10:00,0.182312,291.315,289.165,259.574,291.686,290.375,264.255,0.267312,0.219968,246.993,261.515
2016-07-28 11:00,0.0501341,291.686,290.123,260.119,292.6,291.329,264.953,0.123101,0.0809814,247.09,261.675
2016-07-28 12:00,0.0216779,291.315,290.229,260.228,292.86,291.6,265.301,0.0810662,0.0492414,246.896,261.755
2016-07-28 13:00,0.0162186,291.44,290.651,260.445,293.248,291.735,265.416,0.0611708,0.0387012,247.09,261.834
2016-07-28 14:00,0.0170057,291.315,290.44,260.876,293.377,291.871,264.953,0.0520567,0.0316952,247.379,261.993
2016-07-28 15:00,0.0,0.0,0.0,0.0,0.0,0.0,0.0,0.0,0.0,0.0,0.0
2016-07-28 16:00,0.0337083,292.414,290.335,260.337,292.989,291.735,264.488,0.0581386,0.0441137,247.186,262.151
2016-07-28 17:00,0.0520831,293.816,290.44,260.553,293.119,292.276,264.837,0.0723671,0.057974,247.474,262.466
2016-07-28 18:00,0.123984,296.323,290.017,260.553,292.73,291.6,265.301,0.128305,0.120533,247.522,261.993
2016-07-28 19:00,0.278303,300.769,289.699,260.119,292.73,291.464,265.069,0.25839,0.257711,247.617,262.466
2016-07-28 20:00,0.689902,307.786,290.229,260.228,292.86,291.6,265.069,0.54895,0.576219,247.617,262.701
2016-07-28 21:00,1.35919,302.596,288.951,259.902,291.555,290.375,265.301,0.902246,1.05384,247.665,263.09
2016-07-28 22:00,0.474243,290.685,290.651,260.228,293.119,291.871,264.837,2.40925,2.87266,247.283,262.935
2016-07-28 23:00,-0.331078,288.012,288.303,259.134,291.16,290.101,264.953,-0.0836051,-0.175917,247.331,263.322
2016-07-29 00:00,-0.180384,285.045,286.439,257.798,288.897,288.445,264.255,-0.0465957,-0.0987704,247.283,263.244
2016-07-29 01:00,-0.004425,290.429,290.756,260.119,293.506,292.41,265.647,0.0,0.0,246.944,263.706
2016-07-29 02:00,-0.00185742,289.514,289.911,259.902,292.6,291.464,265.069,0.0,0.0,246.009,263.012
2016-07-29 03:00,0.0,282.059,284.071,257.006,287.134,286.907,263.553,0.0,-0.00173943,245.253,263.244
2016-07-29 04:00,0.0,290.429,290.335,260.228,292.86,291.6,264.837,0.0,0.0,245.253,263.244
2016-07-29 05:00,0.0,285.512,286.105,258.58,288.763,288.027,263.787,0.0,0.0,245.355,263.167
2016-07-29 06:00,0.0023388,280.982,283.38,257.12,286.172,286.485,264.022,0.0,0.0,244.79,263.244
2016-07-29 07:00,-0.00338682,290.429,290.86,260.984,293.377,292.006,265.069,0.0,0.0,244.479,262.779
2016-07-29 08:00,0.0,290.429,290.123,260.769,292.86,291.193,264.953,0.0,0.0,243.899,260.789
2016-07-29 09:00,0.90685,287.155,284.071,257.685,286.722,284.349,261.182,0.848652,0.891426,243.31,259.135
2016-07-29 10:00,0.174279,291.44,288.303,260.337,291.029,288.722,263.553,0.257287,0.221059,242.765,258.286
2016-07-29 11:00,0.11555,292.889,288.843,260.553,291.686,289.689,263.436,0.165896,0.131871,242.489,258.028
2016-07-29 12:00,0.0452106,292.534,289.486,261.198,292.079,289.964,263.67,0.0918713,0.0657256,241.533,257.595
2016-07-29 13:00,0.0781902,293.472,288.843,260.769,291.555,289.413,263.436,0.101179,0.0834059,241.073,257.508
2016-07-29 14:00,0.026172,291.931,289.486,260.984,291.948,289.689,263.67,0.0553994,0.0383121,240.607,257.508
2016-07-29 15:00,0.0198486,291.686,289.058,260.984,291.292,288.999,263.318,0.0462159,0.0300575,240.193,256.716
2016-07-29 16:00,0.0212302,292.053,288.736,260.984,290.897,288.167,262.847,0.0433529,0.027737,239.714,255.821
2016-07-29 17:00,0.0561151,293.816,287.541,260.228,290.101,287.609,262.847,0.0712689,0.0566516,239.166,255.275
2016-07-29 18:00,0.117953,295.796,287.869,260.553,290.234,287.609,262.492,0.127108,0.108255,238.795,255.091
2016-07-29 19:00,0.395939,301.565,286.105,259.464,288.628,286.343,262.492,0.349888,0.345393,239.227,254.999
2016-07-29 20:00,0.647364,301.214,285.546,259.134,288.222,286.202,262.373,0.538712,0.52172,239.471,255.821
2016-07-29 21:00,1.36879,303.428,288.087,260.119,290.101,287.748,262.965,0.927161,0.978367,239.714,256.716
2016-07-29 22:00,5.72195,288.705,287.651,259.902,289.568,287.188,262.61,9.68953,11.5533,240.371,256.982
2016-07-29 23:00,-0.310295,289.91,288.303,260.337,290.234,288.027,262.728,-0.0827102,-0.162432,240.371,257.508
2016-07-30 00:00,-0.191379,288.705,287.432,259.574,289.434,287.329,262.965,-0.0488692,-0.0950707,240.312,257.246
2016-07-30 01:00,0.0,288.977,287.651,259.683,289.835,288.027,263.083,0.0,0.0,239.774,257.508
2016-07-30 02:00,-0.00184908,288.841,287.869,259.793,290.101,288.306,263.905,0.0,0.0,239.471,257.595
2016-07-30 03:00,-0.00171562,283.76,284.869,258.022,288.087,287.188,263.318,0.0,0.0,239.593,258.028
2016-07-30 04:00,0.0,281.526,283.611,257.346,286.86,286.343,263.2,0.0,0.0,239.774,258.028
2016-07-30 05:00,0.0,289.113,288.52,260.119,290.764,289.137,263.436,0.0,0.0,239.471,258.114
2016-07-30 06:00,0.0,286.717,286.992,259.244,289.568,288.306,263.2,0.0,0.0,239.714,258.286
2016-07-30 07:00,0.0,287.444,287.651,259.464,290.101,288.722,263.67,0.0,0.0,239.471,258.286
2016-07-30 08:00,0.0,282.059,283.726,257.572,287.134,286.626,263.318,0.0,0.0,239.593,258.628
2016-07-30 09:00,0.69133,285.202,284.755,258.022,287.543,286.626,263.318,0.752591,0.697939,239.471,258.543
2016-07-30 10:00,0.188618,292.053,288.843,260.119,291.029,289.413,263.905,0.266171,0.204023,239.349,258.457
2016-07-30 11:00,0.100688,292.534,289.379,260.553,291.686,289.964,264.138,0.166242,0.121981,239.653,258.457
2016-07-30 12:00,0.0452588,292.053,289.911,260.984,292.079,290.511,264.372,0.102699,0.069451,239.471,258.457
2016-07-30 13:00,0.0265709,291.686,290.017,260.769,292.34,290.784,264.372,0.0737419,0.0476887,239.714,258.798
2016-07-30 14:00,0.0379632,292.174,290.017,260.876,292.47,290.784,264.837,0.0709372,0.0502205,240.312,258.967
2016-07-30 15:00,0.0297815,292.294,289.911,261.091,292.079,290.784,264.837,0.0598878,0.0400882,240.371,259.471
2016-07-30 16:00,0.0974413,295.151,288.195,259.574,291.029,289.964,264.488,0.105774,0.0945892,240.548,259.638
2016-07-30 17:00,0.161745,297.349,287.76,259.793,290.5,289.413,264.605,0.150531,0.143049,240.312,259.554
2016-07-30 18:00,0.188576,296.427,288.843,260.337,291.423,290.101,264.721,0.203803,0.185736,239.714,259.638
2016-07-30 19:00,0.381135,301.653,288.843,260.337,291.555,290.238,264.605,0.360192,0.369232,240.014,259.304
2016-07-30 20:00,0.704997,307.786,290.545,261.305,292.989,291.464,265.647,0.556811,0.557011,239.894,259.387
2016-07-30 21:00,1.48379,306.251,290.229,261.091,292.6,291.193,264.721,0.957421,1.05248,239.471,259.135
2016-07-30 22:00,-1.778,290.301,290.017,260.984,292.47,291.193,264.605,-3.76357,-5.38499,239.471,259.051
2016-07-30 23:00,-0.340993,289.113,289.379,260.445,291.948,290.511,264.953,-0.0866154,-0.177864,239.288,259.135
2016-07-31 00:00,-0.199176,289.779,289.486,260.445,292.209,290.648,264.605,-0.0485485,-0.10054,239.104,258.967
2016-07-31 01:00,-0.00218989,290.041,289.699,260.553,292.209,290.511,264.255,0.0,-0.00221083,238.981,258.882
2016-07-31 02:00,0.00184062,289.113,289.058,259.683,291.423,289.964,264.605,0.0,0.0,239.043,259.135
2016-07-31 03:00,0.0,290.171,289.379,260.011,291.423,289.413,263.905,0.0,0.0,238.357,258.628
2016-07-31 04:00,0.0,285.512,285.77,258.134,288.358,287.609,263.553,0.0,0.0,238.919,258.882
2016-07-31 05:00,-0.0018947,289.647,289.058,259.574,291.292,289.413,264.255,0.0,0.0,241.015,259.22
2016-07-31 06:00,0.00231498,289.113,288.195,258.246,290.367,288.584,263.2,0.0,0.0,241.361,259.721
2016-07-31 07:00,0.0,281.165,282.799,255.393,285.757,285.35,262.255,0.0,0.0,237.333,258.882
2016-07-31 08:00,-0.00721888,279.859,281.742,254.572,285.061,284.636,262.136,0.0,0.0,236.408,258.628
2016-07-31 09:00,0.9463,279.859,280.549,253.501,284.079,284.061,262.136,0.909505,0.929526,233.823,257.508
2016-07-31 10:00,0.469381,291.686,283.148,255.277,286.31,285.065,262.373,0.439459,0.43286,232.481,256.45
2016-07-31 11:00,0.0353142,291.686,289.699,258.913,292.209,290.101,263.905,0.113195,0.0713036,231.236,255.821
2016-07-31 12:00,0.0326209,291.931,289.699,259.024,292.47,290.784,263.67,0.0843946,0.0548879,231.394,255.911
2016-07-31 13:00,0.0206785,291.809,290.44,259.354,293.506,291.6,264.488,0.060029,0.0357877,231.156,255.275
2016-07-31 14:00,0.0117861,291.44,290.545,259.574,293.764,292.006,264.372,0.0443523,0.0237975,231.156,254.722
2016-07-31 15:00,0.00993019,291.563,290.44,259.134,293.506,291.464,264.255,0.0378354,0.0213034,229.935,254.256
2016-07-31 16:00,0.0137466,291.931,290.335,258.802,292.989,291.057,263.905,0.0391502,0.0227095,230.266,254.256
2016-07-31 17:00,0.0641979,292.771,288.736,258.022,291.292,289.276,263.436,0.080402,0.0661619,230.266,254.068
2016-07-31 18:00,0.0828643,295.583,289.593,258.022,292.6,290.784,263.553,0.0987452,0.0836564,230.43,253.974
2016-07-31 19:00,0.239072,301.653,283.726,255.393,286.722,281.293,257.53,0.225276,0.229679,231.236,252.342
2016-07-31 20:00,0.696004,308.63,284.528,255.858,285.895,281.882,257.653,0.565639,0.584137,231.709,252.047
2016-07-31 22:00,-0.704543,290.171,289.593,258.469,292.47,290.648,264.138,-0.894803,-1.42256,233.456,255.457
2016-07-31 23:00,-0.325931,290.813,289.911,258.58,292.86,290.648,264.022,-0.0808864,-0.170197,235.108,254.907
