# timestamp,IR_016,IR_039,IR_087,IR_097,IR_108,IR_120,IR_134,VIS006,VIS008,WV_062,WV_073
2013-12-01 00:00,0.00232124,283.261,278.226,258.469,277.828,273.2,253.368,-0.0,-0.0,231.787,248.775
2013-12-01 01:00,-0.00179559,285.512,282.331,260.876,282.517,278.307,256.909,-0.0,-0.0,232.935,249.303
2013-12-01 02:00,-0.0,282.059,276.591,257.006,277.377,273.99,254.646,-0.0,-0.0,231.787,248.669
2013-12-01 03:00,-0.00149226,268.686,266.442,250.555,268.024,267.004,252.723,-0.0,-0.0,232.633,248.882
2013-12-01 04:00,-0.0,263.255,264.021,249.158,265.826,265.309,252.723,-0.0,-0.0,233.159,249.408
2013-12-01 05:00,-0.0,264.739,258.871,246.801,259.421,257.671,246.182,-0.0,-0.0,229.769,244.53
2013-12-01 06:00,-0.0,260.827,257.683,245.314,259.051,258.04,247.006,-0.0,-0.0,229.433,244.647
2013-12-01 07:00,-0.0,275.48,269.767,253.14,271.142,267.171,251.028,-0.0,-0.0,230.43,247.04
2013-12-01 08:00,0.00813734,284.41,281.978,260.119,283.514,280.554,259.127,-0.0,-0.0,231.473,249.617
2013-12-01 09:00,0.388549,284.888,281.624,260.119,282.803,279.661,258.147,0.340328,0.595158,230.511,248.775
2013-12-01 10:00,0.336227,289.113,283.611,260.984,284.361,280.85,258.27,0.17638,0.468577,230.266,248.669
2013-12-01 11:00,0.286632,291.931,285.433,262.155,286.033,282.175,259.492,0.125022,0.385829,230.593,248.775
2013-12-01 12:00,0.273048,296.219,289.911,265.153,290.632,286.343,261.66,0.0979155,0.348627,230.593,250.442
2013-12-01 13:00,0.23904,297.848,291.487,266.358,292.209,287.469,262.255,0.0814103,0.307387,231.943,250.544
2013-12-01 14:00,0.219116,299.013,289.379,264.95,289.568,283.917,259.005,0.0754334,0.273475,231.473,250.34
2013-12-01 15:00,0.200607,299.485,291.487,266.557,291.948,287.609,262.492,0.0755996,0.248181,231.865,251.352
2013-12-01 16:00,0.210217,299.013,289.911,265.959,290.764,286.907,262.255,0.107599,0.258988,231.943,251.949
2013-12-01 17:00,0.215354,297.449,288.087,264.543,289.166,285.493,261.301,0.127418,0.273731,232.86,252.047
2013-12-01 18:00,0.226389,298.045,289.486,265.456,290.764,286.767,262.492,0.128221,0.287236,233.234,252.537
2013-12-01 19:00,0.360923,289.647,271.299,252.656,270.981,266.835,245.489,0.448203,0.578948,231.315,246.032
2013-12-01 20:00,0.866187,272.836,228.769,230.207,230.574,228.59,224.304,1.02515,1.26064,222.04,225.408
2013-12-01 21:00,0.327759,283.261,274.916,256.205,275.703,273.675,256.535,0.34867,0.398768,232.557,250.442
2013-12-01 22:00,-0.0,285.045,280.669,259.574,282.66,278.76,257.53,-0.0,-0.0,233.823,251.452
2013-12-01 23:00,-0.0,278.482,273.997,255.51,275.55,271.926,253.24,-0.0,-0.0,231.787,248.882
2013-12-02 00:00,-0.0,281.526,278.35,258.802,279.17,276.015,256.035,-0.0,-0.0,232.02,249.408
2013-12-02 01:00,-0.00180145,282.753,275.176,256.664,274.933,269.984,249.572,-0.0,0.00181868,229.007,245.575
2013-12-02 02:00,-0.0,284.73,279.58,259.244,279.613,275.396,254.646,-0.0,0.00158495,230.593,248.775
2013-12-02 03:00,-0.0,274.787,269.908,253.14,270.657,267.339,250.896,-0.0,-0.0,228.575,247.151
2013-12-02 04:00,-0.0,259.954,256.294,245.177,256.789,255.235,243.383,-0.0,-0.0,227.055,243.214
2013-12-02 05:00,-0.0,260.395,256.819,245.314,257.17,255.235,244.372,-0.0,-0.0,225.739,242.354
2013-12-02 06:00,-0.0,254.966,247.563,239.721,246.794,244.973,236.613,-0.0,-0.0,221.93,235.74
2013-12-02 07:00,-0.0,264.377,261.822,247.991,262.329,260.942,247.823,-0.0,-0.0,228.048,245.575
2013-12-02 08:00,0.00811489,261.251,255.941,244.765,254.263,252.341,241.953,-0.0,-0.0,225.739,239.789
2013-12-02 09:00,1.07961,247.601,213.921,222.027,212.997,213.016,213.653,2.52522,3.3788,208.652,209.707
2013-12-02 10:00,0.311383,253.206,213.031,222.027,211.028,209.497,210.504,0.638958,0.687893,210.796,212.505
2013-12-02 11:00,0.345764,249.89,213.479,222.449,213.381,212.329,212.619,0.738339,0.827668,211.964,213.382
2013-12-02 12:00,0.294211,262.869,232.28,230.921,230.853,228.056,222.873,0.529525,0.615147,219.624,225.994
2013-12-02 13:00,0.320689,270.713,243.94,237.884,243.895,241.475,233.976,0.4401,0.526101,226.122,236.033
2013-12-02 14:00,0.196289,282.923,261.982,248.121,258.491,252.536,239.173,0.203924,0.295425,223.329,237.043
2013-12-02 15:00,0.281747,256.062,207.178,220.517,205.043,203.757,206.97,0.494779,0.572392,204.573,205.868
2013-12-02 16:00,0.302699,257.605,209.237,221.386,208.131,207.274,208.54,0.564854,0.65313,208.464,209.379
2013-12-02 17:00,0.321406,264.739,220.006,226.287,215.993,214.697,212.827,0.425758,0.528586,211.47,214.511
2013-12-02 18:00,0.467266,280.427,192.764,215.909,191.152,190.351,195.227,0.85462,0.943465,194.549,193.719
2013-12-02 19:00,0.611793,277.026,201.41,217.809,200.227,199.102,202.986,0.939518,1.04555,202.713,200.956
2013-12-02 20:00,0.861532,278.482,205.549,219.632,203.652,202.941,204.658,1.03828,1.20625,206.084,205.491
2013-12-02 21:00,1.23253,271.261,206.643,219.409,205.497,204.159,206.743,1.09961,1.39463,206.702,207.326
2013-12-02 22:00,-0.0,213.142,210.707,221.6,209.394,208.397,209.42,-0.0,-0.0,209.569,210.032
2013-12-02 23:00,-0.00377886,225.382,215.64,223.694,214.517,212.673,213.035,-0.0,-0.0,213.078,214.511
2013-12-03 00:00,-0.0,243.066,230.559,230.387,228.583,226.426,222.873,-0.0,-0.0,219.744,224.811
2013-12-03 01:00,-0.0,237.078,231.713,230.743,230.853,229.647,226.574,-0.0,-0.0,221.708,227.694
2013-12-03 02:00,-0.0,247.601,244.38,237.101,243.895,242.585,236.613,-0.0,-0.0,226.592,237.185
2013-12-03 03:00,-0.0,277.24,272.931,254.926,274.467,271.765,255.909,-0.0,-0.0,231.076,248.669
2013-12-03 04:00,-0.0,275.707,270.746,253.741,271.464,268.67,252.594,-0.0,-0.0,230.511,247.371
2013-12-03 05:00,-0.0,268.382,260.854,247.332,260.888,258.224,244.932,-0.0,-0.0,229.517,243.336
2013-12-03 06:00,-0.0,281.705,280.429,260.011,282.66,280.406,260.34,-0.0,-0.0,230.511,251.252
2013-12-03 07:00,-0.0,284.888,284.071,261.625,286.033,283.629,261.062,-0.0,-0.0,230.184,250.849
2013-12-03 08:00,-0.0,283.594,281.505,259.902,282.517,279.661,258.147,-0.0,-0.0,228.312,248.775
2013-12-03 09:00,0.476151,277.661,269.767,252.899,270.495,267.339,251.291,0.449231,0.631781,228.048,246.595
2013-12-03 10:00,0.374621,287.729,280.308,259.354,281.366,278.609,257.034,0.273655,0.474606,228.488,248.455
2013-12-03 11:00,0.317987,293.24,284.982,262.049,285.757,282.175,259.492,0.158593,0.415576,229.935,250.238
2013-12-03 12:00,0.265542,295.476,289.593,265.052,290.234,286.343,261.898,0.100835,0.359066,232.175,252.342
2013-12-03 13:00,0.229969,297.248,290.229,265.254,290.5,286.06,261.301,0.0871688,0.311807,233.159,253.309
2013-12-03 14:00,0.207182,297.947,290.335,265.557,290.101,284.636,259.614,0.0775113,0.273613,232.709,253.595
2013-12-03 15:00,0.192449,298.533,289.911,265.355,289.701,284.061,259.37,0.0726389,0.249299,233.677,254.443
2013-12-03 16:00,0.187459,298.822,291.383,266.059,291.686,287.609,262.728,0.0803652,0.243152,235.247,256.628
2013-12-03 17:00,0.13594,294.491,285.994,262.786,286.172,282.321,259.005,0.0898879,0.199978,232.784,253.88
2013-12-03 18:00,0.330787,286.121,266.145,250.051,263.92,261.654,249.171,0.302019,0.418591,227.329,243.937
2013-12-03 19:00,0.723655,297.649,268.487,252.168,270.006,269.0,254.264,0.670107,0.792963,233.382,254.999
2013-12-03 20:00,1.07272,296.427,267.909,252.045,270.006,269.0,255.027,0.961229,1.13665,233.896,254.999
2013-12-03 21:00,1.71845,278.482,237.339,233.849,234.633,233.225,228.614,1.37226,1.84999,221.819,229.664
2013-12-03 22:00,-0.0,280.05,271.984,253.381,270.981,267.506,249.305,-0.0,-0.0,230.835,247.917
2013-12-03 23:00,-0.0,287.3,284.528,261.412,285.757,283.194,259.735,-0.0,-0.0,233.308,254.722
2013-12-04 00:00,-0.00235309,286.569,283.726,261.198,285.618,282.758,259.37,-0.0,-0.0,232.935,253.021
2013-12-04 01:00,-0.0,275.48,264.635,249.414,263.569,259.684,242.241,-0.0,-0.0,227.329,242.354
2013-12-04 02:00,-0.00157743,264.009,245.032,237.415,241.58,237.815,227.089,-0.0,-0.0,217.752,227.509
2013-12-04 03:00,-0.0,275.251,261.662,247.465,260.158,255.425,239.322,-0.0,-0.0,224.156,238.578
2013-12-04 04:00,-0.00154598,276.376,265.696,249.797,264.965,261.121,242.814,-0.0,0.00156075,227.959,242.971
2013-12-04 05:00,-0.0,279.473,272.527,253.98,271.625,267.673,249.037,-0.0,0.00175116,228.4,245.575
2013-12-04 06:00,-0.0,281.883,276.718,256.778,276.01,272.246,252.205,-0.0,-0.0,227.691,246.929
2013-12-04 07:00,-0.00326881,278.883,273.199,254.454,273.529,271.121,252.594,-0.0,-0.0,227.055,245.345
2013-12-04 08:00,-0.00805807,270.151,257.511,244.765,255.439,252.341,239.025,-0.0,-0.0,223.538,236.9
2013-12-04 09:00,0.233342,285.045,281.624,259.683,283.23,281.146,258.392,0.267301,0.415717,229.769,250.442
2013-12-04 10:00,0.371973,289.113,283.841,260.984,284.921,282.467,259.735,0.205808,0.546562,230.018,249.928
2013-12-04 11:00,0.263971,282.234,269.767,252.168,266.847,262.888,247.142,0.212421,0.396438,226.216,241.602
2013-12-04 12:00,0.307714,282.581,260.854,246.801,257.739,252.144,237.977,0.235988,0.413124,225.449,238.165
2013-12-04 13:00,0.244836,277.24,251.53,241.354,247.878,241.921,0.0,0.203904,0.344426,220.337,231.695
2013-12-04 14:00,0.25423,274.551,244.815,237.728,240.87,236.635,227.089,0.228519,0.368569,219.382,228.06
2013-12-04 15:00,0.229527,284.087,262.931,247.991,260.158,255.235,239.47,0.16195,0.327686,225.058,238.85
2013-12-04 16:00,0.218196,290.558,273.599,254.926,272.423,267.339,247.279,0.132535,0.299295,226.499,242.848
2013-12-04 17:00,0.191415,293.124,283.841,261.091,284.361,280.554,257.53,0.141264,0.259836,230.835,251.751
2013-12-04 18:00,0.278474,284.888,267.764,250.806,264.965,261.654,246.182,0.262841,0.402501,225.352,240.185
2013-12-04 19:00,0.272325,293.93,279.091,258.469,277.828,272.724,251.028,0.21038,0.361219,228.136,247.808
2013-12-04 20:00,0.513285,295.042,273.732,255.393,272.423,265.65,244.932,0.381919,0.599846,228.748,246.258
2013-12-04 21:00,1.84479,294.602,255.23,244.488,251.036,243.243,228.949,1.32429,1.82193,221.596,234.996
2013-12-04 22:00,-0.0135374,251.944,232.839,232.146,230.294,225.874,219.172,-0.0,-0.0,218.891,225.604
2013-12-04 23:00,-0.00383654,260.395,243.496,236.943,240.87,236.635,227.089,-0.0,-0.0,221.031,230.011
2013-12-05 00:00,-0.0,269.865,256.644,244.626,253.867,250.957,238.876,-0.0,-0.0,223.224,235.146
2013-12-05 01:00,0.00181855,279.278,269.626,252.168,268.191,263.586,245.35,-0.0,-0.0,225.058,242.354
2013-12-05 02:00,-0.0,278.883,269.767,252.412,269.021,265.138,248.364,-0.0,-0.0,224.359,241.98
2013-12-05 03:00,-0.00150306,268.382,255.05,243.65,252.667,248.941,236.613,-0.0,-0.0,222.368,234.694
2013-12-05 04:00,-0.00154781,281.526,274.392,255.393,274.778,271.283,250.633,-0.0,-0.0,229.093,248.025
2013-12-05 05:00,-0.0,282.581,277.727,257.459,278.725,276.169,254.519,-0.0,-0.0,228.921,249.617
2013-12-05 06:00,-0.0,281.165,275.565,255.974,276.772,274.46,254.264,-0.0,-0.0,229.852,248.775
2013-12-05 07:00,-0.00326592,285.665,284.414,261.731,286.31,284.349,261.062,-0.0,-0.0,232.935,254.814
2013-12-05 08:00,-0.0,285.818,285.095,261.838,286.997,284.779,262.017,-0.0,-0.0,233.53,255.183
2013-12-05 09:00,0.194051,286.717,284.982,261.625,286.172,283.484,260.34,0.234718,0.321846,233.603,254.629
2013-12-05 10:00,0.30289,290.813,287.541,263.411,288.628,285.635,261.779,0.153248,0.440033,234.472,255.366
2013-12-05 11:00,0.310323,294.38,289.379,264.339,290.234,286.767,261.421,0.127674,0.412571,234.686,256.001
2013-12-05 12:00,0.27419,296.635,290.017,264.95,290.5,286.343,261.301,0.105153,0.361482,235.038,255.73
2013-12-05 13:00,0.246342,298.533,290.651,265.456,290.632,286.202,261.421,0.0929529,0.318981,235.731,256.091
2013-12-05 14:00,0.256716,300.589,291.383,265.959,291.817,288.445,263.553,0.1296,0.302974,238.231,258.628
2013-12-05 15:00,0.217916,298.822,290.123,265.456,290.764,286.907,261.421,0.118753,0.277339,238.733,258.114
2013-12-05 16:00,0.205047,298.533,288.303,264.543,287.679,281.882,257.9,0.107379,0.268032,238.919,256.982
2013-12-05 17:00,0.205431,297.649,286.661,263.515,286.033,280.257,257.034,0.117052,0.2687,239.593,256.271
2013-12-05 18:00,0.194441,298.436,290.123,265.859,289.835,284.779,259.977,0.0900336,0.265311,241.361,257.508
2013-12-05 19:00,0.251718,297.449,289.486,265.355,289.968,286.202,262.136,0.174531,0.330161,242.6,258.713
2013-12-05 20:00,0.293964,295.151,288.52,264.645,289.434,286.202,261.779,0.238419,0.41236,243.899,259.387
2013-12-05 21:00,0.173831,294.491,290.335,265.959,291.817,288.445,264.022,0.207394,0.247285,243.579,259.97
2013-12-05 22:00,-0.013908,286.569,283.841,262.681,280.785,271.283,250.896,-0.0,-0.0,240.43,255.457
2013-12-05 23:00,-0.0,286.864,284.642,263.099,282.231,274.147,252.594,-0.0,-0.0,239.653,255.457
2013-12-06 00:00,0.00237398,281.705,278.35,258.802,276.163,267.506,249.438,-0.0,-0.0,237.977,253.88
2013-12-06 01:00,-0.0,280.05,275.046,257.006,274.312,267.339,248.768,-0.0,-0.0,237.849,253.213
2013-12-06 02:00,-0.0,285.357,281.029,260.769,279.76,273.359,252.075,-0.0,-0.0,235.867,252.634
2013-12-06 03:00,-0.0,275.48,270.746,254.454,270.495,265.82,249.572,-0.0,-0.0,238.919,252.925
2013-12-06 04:00,-0.0,272.58,265.092,250.681,264.095,259.321,243.241,-0.0,-0.0,234.257,247.481
2013-12-06 05:00,0.00173679,272.836,255.941,245.859,253.069,245.399,228.782,-0.0,-0.0,227.42,237.888
2013-12-06 06:00,-0.0,267.123,247.357,241.207,242.283,234.95,224.304,-0.0,-0.0,220.101,230.011
2013-12-06 07:00,-0.0,264.739,252.853,243.368,250.207,246.035,234.447,-0.0,-0.0,223.538,237.043
2013-12-06 08:00,-0.00798617,259.045,240.514,235.337,236.948,232.976,224.834,-0.0,-0.0,218.642,228.06
2013-12-06 09:00,0.588384,243.066,221.841,225.701,220.519,218.857,217.639,0.735415,0.947586,215.593,218.895
2013-12-06 10:00,0.429825,253.206,227.533,228.378,226.221,224.474,222.147,0.586683,0.718235,218.517,222.956
2013-12-06 11:00,0.367814,293.702,283.148,261.305,283.088,278.911,257.034,0.190935,0.497317,229.517,248.025
2013-12-06 12:00,0.434374,296.635,271.437,253.98,272.104,267.673,248.229,0.299422,0.477651,229.769,247.151
2013-12-06 13:00,0.352358,283.428,253.04,242.513,252.667,248.327,236.0,0.314222,0.42606,225.352,237.327
2013-12-06 14:00,0.312255,287.155,264.788,249.669,265.138,261.299,246.594,0.301134,0.402874,228.048,243.214
2013-12-06 15:00,0.20515,285.97,270.468,252.777,267.354,263.759,247.415,0.172718,0.3054,226.685,241.093
2013-12-06 16:00,0.285499,258.576,216.88,224.507,214.141,212.673,212.619,0.410241,0.491542,210.452,212.505
2013-12-06 17:00,0.339451,258.576,212.119,222.027,210.625,209.497,210.932,0.524555,0.618937,209.748,210.67
2013-12-06 18:00,0.448861,268.382,200.125,217.106,198.671,198.206,202.009,0.770371,0.872624,199.589,200.502
2013-12-06 19:00,0.590917,275.02,198.787,216.869,197.601,196.831,200.766,0.834996,0.943731,199.589,199.092
2013-12-06 20:00,0.815693,275.932,203.247,218.73,0.0,199.543,202.986,0.972117,1.12803,203.894,203.929
2013-12-06 21:00,1.08225,271.261,210.707,221.17,207.702,207.651,208.096,0.90975,1.16334,209.569,210.032
2013-12-06 22:00,0.0142962,222.276,210.224,221.6,208.977,207.274,208.096,-0.0,-0.0,209.206,210.032
2013-12-06 23:00,-0.0,218.393,207.704,219.409,205.497,204.955,206.056,-0.0,-0.0,206.084,206.606
2013-12-07 00:00,-0.0,218.393,209.237,221.17,208.131,206.895,208.54,-0.0,-0.0,207.697,208.027
2013-12-07 01:00,-0.0,225.382,219.247,224.305,217.072,215.027,214.872,-0.0,-0.0,213.995,216.652
2013-12-07 02:00,0.00158787,233.989,224.616,227.628,223.125,220.685,219.172,-0.0,-0.0,217.096,220.989
2013-12-07 03:00,-0.0,242.013,232.839,231.799,230.294,227.787,223.949,-0.0,-0.0,220.57,227.136
2013-12-07 04:00,-0.0,253.206,236.576,234.515,232.772,227.787,223.053,-0.0,-0.0,217.752,225.604
2013-12-07 05:00,-0.0,238.442,223.252,227.438,220.184,217.29,213.653,-0.0,-0.0,211.8,216.131
2013-12-07 06:00,-0.0,222.276,218.862,224.708,218.13,217.29,216.466,-0.0,-0.0,216.56,218.165
2013-12-07 07:00,-0.0,232.213,228.155,228.564,226.221,223.332,219.172,-0.0,-0.0,220.916,225.799
2013-12-07 08:00,-0.0079449,230.231,227.845,228.934,227.414,225.874,223.949,-0.0,-0.0,221.371,225.21
2013-12-07 09:00,0.49601,251.944,235.011,232.319,232.772,230.946,227.431,0.719951,0.915661,222.476,230.183
2013-12-07 10:00,0.316006,253.206,234.477,232.491,233.041,230.688,226.746,0.607522,0.705612,223.434,230.011
2013-12-07 11:00,0.258841,259.954,243.273,236.943,242.049,239.895,233.661,0.572044,0.651073,227.329,237.185
2013-12-07 12:00,0.189159,260.395,248.583,240.32,248.093,246.457,238.727,0.520181,0.605547,228.835,240.835
2013-12-07 13:00,0.182343,276.376,266.293,250.303,265.482,262.712,248.768,0.206609,0.361403,230.916,245.804
2013-12-07 14:00,0.223112,293.007,276.336,256.32,276.01,270.311,252.594,0.129683,0.300732,232.02,247.917
2013-12-07 15:00,0.248016,296.219,284.982,262.155,286.172,281.882,259.249,0.172706,0.322929,232.709,249.825
2013-12-07 16:00,0.223784,296.635,285.882,262.786,286.86,281.735,258.147,0.141356,0.282105,232.481,250.238
2013-12-07 17:00,0.185667,296.323,287.76,263.928,287.407,281.293,257.282,0.0862439,0.256431,232.709,250.238
2013-12-07 18:00,0.187708,296.635,289.379,264.95,289.701,284.492,260.461,0.0884382,0.265915,233.968,251.552
2013-12-07 19:00,0.0472949,288.977,284.982,262.366,286.585,282.904,260.098,0.080089,0.107431,235.108,252.537
2013-12-07 20:00,0.300078,289.113,271.023,253.02,267.857,262.185,243.667,0.30852,0.40805,228.748,243.214
2013-12-07 21:00,1.23559,284.087,254.328,243.65,249.368,245.399,234.447,0.942201,1.26289,222.368,232.185
2013-12-07 22:00,-0.0,262.475,241.451,236.466,237.702,232.221,223.592,-0.0,-0.0148436,219.382,227.136
2013-12-07 23:00,-0.00392377,246.775,227.533,229.118,223.758,220.685,217.639,-0.0,-0.0,215.593,220.306
2013-12-08 00:00,-0.0,245.01,234.745,232.146,232.772,229.121,223.949,-0.0,-0.0,220.219,227.694
2013-12-08 01:00,-0.0,274.073,268.487,252.168,269.021,266.667,251.291,-0.0,0.00185227,231.236,248.348
2013-12-08 02:00,-0.0,264.009,263.401,248.771,265.482,264.795,251.553,-0.0,-0.0,231.865,249.303
2013-12-08 03:00,-0.00150991,276.376,274.261,255.742,276.468,273.517,255.28,-0.0,-0.0,232.86,249.721
2013-12-08 04:00,-0.0,281.705,281.148,259.902,283.088,280.406,259.492,-0.0,-0.0,232.02,249.928
2013-12-08 05:00,0.0017382,285.045,281.978,260.337,283.514,279.959,258.023,-0.0,-0.0,232.251,249.513
2013-12-08 06:00,-0.0,279.081,278.226,257.91,280.347,278.156,258.638,-0.0,-0.0,233.085,250.849
2013-12-08 07:00,-0.0,281.705,279.458,258.246,281.655,278.911,258.27,-0.0,-0.0,233.456,251.051
2013-12-08 08:00,-0.0,282.059,281.978,260.228,284.22,281.735,260.701,-0.0,-0.0,231.865,250.442
2013-12-08 09:00,0.588317,271.261,261.017,247.2,260.341,258.04,246.182,0.680369,0.854696,228.748,239.121
2013-12-08 10:00,0.346961,290.685,286.105,262.995,287.27,283.194,260.942,0.173736,0.482103,231.787,250.135
2013-12-08 11:00,0.31211,293.702,288.195,264.236,289.032,285.35,261.54,0.126548,0.423823,232.633,250.646
2013-12-08 12:00,0.299478,297.349,283.841,261.412,284.22,279.81,259.492,0.171329,0.357906,232.175,250.646
2013-12-08 13:00,0.42266,296.323,264.94,249.924,266.338,264.279,251.291,0.377179,0.48224,232.481,249.198
2013-12-08 14:00,0.421041,290.041,262.141,247.991,263.92,262.008,250.765,0.397354,0.499361,233.896,249.093
2013-12-08 15:00,0.294354,294.491,277.35,257.233,278.278,274.773,256.909,0.241379,0.365025,233.823,251.352
2013-12-08 16:00,0.269825,262.074,226.902,227.817,229.158,224.19,219.172,0.615239,0.716852,220.686,223.377
2013-12-08 17:00,0.291093,253.206,229.072,229.301,227.708,227.517,225.883,0.642344,0.738591,221.145,224.408
2013-12-08 18:00,0.441251,265.791,213.031,221.814,212.219,211.983,212.619,0.694755,0.811609,211.964,211.602
2013-12-08 19:00,0.538399,269.283,209.734,220.954,208.556,208.026,210.289,0.798589,0.888717,209.388,209.047
2013-12-08 20:00,0.749354,276.594,212.119,221.814,211.028,209.859,210.932,0.892394,1.03944,210.796,211.602
2013-12-08 21:00,1.08203,278.883,219.628,225.504,217.427,216.008,215.873,0.877714,1.13821,215.873,216.909
2013-12-08 22:00,-0.0,233.989,220.379,225.897,219.167,217.607,216.466,-0.0,-0.0,215.593,216.909
2013-12-08 23:00,-0.0,222.276,217.685,224.305,216.715,215.356,213.857,-0.0,-0.0,213.995,216.131
2013-12-09 00:00,0.00240454,235.601,226.902,228.378,225.31,223.905,222.147,-0.0,-0.0,219.26,223.377
2013-12-09 01:00,-0.00183989,249.89,240.984,235.499,240.152,237.581,229.283,-0.0,-0.0,223.118,233.928
2013-12-09 02:00,-0.0,245.913,239.317,234.845,239.426,236.157,229.781,-0.0,-0.0,222.906,233.146
2013-12-09 03:00,-0.0,251.282,248.583,239.721,249.157,247.293,239.47,-0.0,-0.0,226.685,239.656
2013-12-09 04:00,-0.0,251.944,243.94,237.728,243.438,241.475,234.447,-0.0,-0.0,224.661,235.444
2013-12-09 05:00,-0.00173861,246.775,237.339,233.513,236.186,235.193,230.768,-0.0,-0.0,220.454,229.838
2013-12-09 06:00,0.00217076,238.442,231.427,230.743,230.574,228.856,225.009,-0.0,-0.0,221.93,228.242
2013-12-09 07:00,-0.0,267.123,261.501,247.465,262.507,259.864,246.869,-0.0,-0.00327859,230.755,247.699
2013-12-09 08:00,-0.0,266.131,264.021,248.771,265.997,264.967,251.814,-0.0,-0.0,234.968,251.552
2013-12-09 09:00,0.712577,274.551,262.458,247.859,263.393,260.225,246.457,0.591025,0.83684,231.076,246.818
2013-12-09 10:00,0.460578,282.581,267.033,250.303,268.024,265.65,250.896,0.396312,0.525467,232.097,250.032
2013-12-09 11:00,0.515394,286.271,260.036,246.801,259.974,257.671,245.211,0.449437,0.575911,229.769,246.371
2013-12-09 12:00,0.29825,290.558,271.023,253.14,269.679,264.623,247.142,0.188024,0.381286,228.835,245.345
2013-12-09 13:00,0.244396,297.146,289.058,264.441,289.032,284.349,260.701,0.0943692,0.329429,233.159,252.731
2013-12-09 14:00,0.219646,295.26,283.726,260.876,282.946,278.76,257.158,0.106271,0.28632,230.348,248.562
2013-12-09 15:00,0.199314,294.156,285.77,261.838,286.31,283.194,260.701,0.150117,0.266732,234.401,253.213
2013-12-09 16:00,0.164415,293.587,284.528,261.198,285.479,282.613,260.822,0.132199,0.231665,234.827,253.88
2013-12-09 17:00,0.238037,286.717,270.329,252.899,269.679,266.16,249.838,0.195009,0.310458,231.394,248.455
2013-12-09 18:00,0.206664,290.429,279.458,258.022,280.493,278.004,258.27,0.24523,0.307629,235.108,253.595
2013-12-09 19:00,0.525101,268.073,219.628,224.908,217.427,216.008,215.074,0.700083,0.826831,215.734,217.418
2013-12-09 20:00,0.854602,292.294,256.294,244.07,254.066,247.085,234.134,0.895507,1.14424,226.685,239.39
2013-12-09 21:00,1.27609,288.43,208.734,220.077,206.833,206.128,207.423,1.11837,1.41636,209.748,208.371
2013-12-09 22:00,-0.0155765,227.984,218.082,223.899,217.072,216.008,216.859,-0.0,-0.0,213.995,216.131
2013-12-09 23:00,-0.00398203,247.601,243.496,236.943,242.978,242.143,236.307,-0.0,-0.0,227.691,235.74
2013-12-10 00:00,-0.00482893,277.869,274.261,255.277,275.396,273.2,255.28,-0.0,-0.0,231.315,249.303
2013-12-10 01:00,-0.00184491,264.739,261.017,247.597,261.069,258.04,245.489,-0.0,-0.0,229.433,245.345
2013-12-10 02:00,-0.0,268.986,262.3,248.771,261.431,255.425,241.374,-0.0,-0.0,226.778,241.602
2013-12-10 03:00,-0.0,257.103,251.53,242.225,250.207,245.186,236.0,-0.0,-0.0,226.122,239.121
2013-12-10 04:00,-0.0,252.585,245.89,239.115,244.575,241.251,233.976,-0.0,-0.0,226.027,236.614
2013-12-10 05:00,-0.0,245.913,237.591,234.35,235.93,233.225,227.089,-0.0,-0.0,220.686,231.031
2013-12-10 06:00,-0.0,245.01,238.338,234.35,236.441,233.474,227.77,-0.0,-0.0,221.371,230.863
2013-12-10 07:00,0.0064826,242.013,232.28,231.274,230.012,227.246,222.692,-0.0,-0.0,218.891,225.994
2013-12-10 08:00,-0.0,254.396,245.032,238.349,242.747,238.978,230.44,-0.0,-0.0,222.259,233.461
2013-12-10 09:00,0.427812,238.442,220.75,225.306,219.508,218.547,217.445,0.599549,0.789337,215.024,217.669
2013-12-10 10:00,0.39094,251.282,224.616,226.481,222.806,221.579,220.489,0.633371,0.755199,218.009,221.213
2013-12-10 11:00,0.315645,247.601,230.85,230.027,230.574,229.647,227.431,0.740095,0.826741,222.692,227.323
2013-12-10 12:00,0.31651,255.521,229.072,229.301,227.414,225.597,222.329,0.611563,0.648903,220.101,225.21
2013-12-10 13:00,0.282225,251.282,228.155,228.564,227.414,226.151,223.413,0.606502,0.659393,221.819,225.994
2013-12-10 14:00,0.225763,253.81,240.75,235.662,241.107,239.895,234.291,0.480438,0.56188,228.136,236.179
2013-12-10 15:00,0.286207,264.739,249.385,240.171,249.368,247.085,239.025,0.435607,0.504188,228.488,239.789
2013-12-10 16:00,0.332209,275.251,260.201,246.934,261.25,260.584,248.229,0.358358,0.43803,231.156,246.258
2013-12-10 17:00,0.196659,293.587,283.032,261.412,282.66,278.609,258.023,0.12189,0.271207,229.935,247.59
2013-12-10 18:00,0.19275,282.234,271.574,253.501,270.819,268.007,252.335,0.212927,0.323815,230.674,245.575
2013-12-10 19:00,0.414194,277.661,260.365,247.332,259.791,257.486,244.792,0.449951,0.621313,230.43,242.725
2013-12-10 20:00,0.229145,290.429,282.448,260.769,283.088,279.661,258.882,0.247627,0.270906,232.86,250.032
2013-12-10 21:00,0.478525,290.171,276.208,257.346,276.468,272.086,253.368,0.398933,0.468235,231.787,247.808
2013-12-10 22:00,-0.0,267.761,259.871,248.121,256.213,249.144,236.765,-0.0,-0.0,222.692,237.327
2013-12-10 23:00,-0.0,260.395,245.89,238.81,242.283,234.461,224.657,-0.0,-0.0,219.863,231.364
2013-12-11 00:00,-0.0,258.096,237.591,234.681,232.23,227.517,221.23,-0.0,-0.0,213.845,221.658
2013-12-11 01:00,-0.0,222.276,215.64,222.659,212.609,210.931,210.289,-0.00156622,-0.0,211.135,212.8
2013-12-11 02:00,-0.00160013,230.231,222.198,226.287,220.184,217.922,214.872,-0.0,-0.0,216.56,219.843
2013-12-11 03:00,-0.00151558,239.711,227.533,229.484,224.072,220.984,218.601,-0.0,-0.0,214.879,221.658
2013-12-11 04:00,-0.0,225.382,220.379,224.908,218.824,217.29,216.859,-0.0,-0.0,215.593,217.918
2013-12-11 05:00,-0.00173881,233.989,230.559,230.743,230.012,228.056,223.949,-0.0,-0.0,224.46,228.603
2013-12-11 06:00,-0.0,246.775,242.37,236.146,240.392,238.747,232.867,-0.0,-0.0,225.835,233.773
2013-12-11 07:00,-0.00323441,232.213,227.533,228.192,227.118,226.151,223.413,-0.0,-0.0,221.031,225.408
2013-12-11 08:00,-0.0,242.013,239.074,234.183,238.693,237.815,232.547,-0.0,-0.0,225.739,234.694
2013-12-11 09:00,0.868809,249.156,237.086,233.175,235.93,234.95,231.581,1.68685,2.11717,223.329,230.863
2013-12-11 10:00,0.381199,245.913,226.261,227.628,225.615,225.038,224.126,0.834065,0.948773,220.454,223.377
2013-12-11 11:00,0.356175,256.062,233.938,231.45,234.107,232.221,229.116,0.664959,0.757128,223.642,229.838
2013-12-11 12:00,0.377093,282.059,252.666,242.225,253.867,252.927,244.932,0.617924,0.695758,230.348,244.175
2013-12-11 13:00,0.212518,256.589,245.676,238.195,245.471,245.186,239.913,0.638896,0.715618,230.266,239.656
2013-12-11 14:00,0.22464,257.103,242.824,236.306,242.747,242.364,237.07,0.502092,0.582818,0.0,0.0
2013-12-11 15:00,0.229416,271.798,258.534,246.13,259.051,257.486,247.142,0.320801,0.41292,231.236,244.53
2013-12-11 16:00,0.200879,288.152,275.176,256.32,275.396,271.765,254.137,0.194095,0.291076,232.251,248.348
2013-12-11 17:00,0.204159,294.823,286.439,263.307,287.134,283.339,260.822,0.126112,0.274814,234.185,251.252
2013-12-11 18:00,0.30215,297.549,279.336,258.913,280.493,277.243,258.147,0.218919,0.353602,235.108,251.552
2013-12-11 19:00,0.360416,290.429,270.607,253.621,269.186,263.412,243.667,0.346402,0.462203,229.769,243.093
2013-12-11 20:00,0.539974,269.576,230.559,230.027,230.574,228.856,225.709,0.904231,1.04484,221.145,225.994
2013-12-11 21:00,1.11151,268.073,240.039,235.01,238.446,237.109,232.227,1.06414,1.34216,224.86,233.461
2013-12-11 22:00,-0.0,252.585,244.598,238.04,242.747,241.251,234.291,-0.0,-0.0,223.329,233.617
2013-12-11 23:00,-0.0,274.787,267.618,252.168,266.847,262.537,248.229,-0.0,-0.0,228.575,243.818
2013-12-12 00:00,-0.0,252.585,247.357,239.57,247.229,245.612,238.128,-0.0,-0.0,228.921,240.185
2013-12-12 01:00,-0.00185454,262.475,256.819,244.765,257.361,254.664,243.383,-0.0,-0.0,227.601,242.725
2013-12-12 02:00,-0.0,266.466,261.982,248.771,263.393,260.405,247.006,-0.0,-0.0,230.835,246.371
2013-12-12 03:00,-0.0,262.475,256.992,245.451,257.55,255.614,244.792,-0.0,-0.0,227.87,243.818
2013-12-12 04:00,-0.00311287,252.585,242.824,236.625,242.049,239.438,232.547,-0.0,-0.0,223.434,233.617
2013-12-12 05:00,-0.0,260.395,259.373,246.399,260.341,259.684,248.094,-0.0,-0.0,229.601,244.998
2013-12-12 06:00,-0.0,283.594,278.968,259.134,280.201,276.323,256.285,-0.0,-0.0,230.996,248.882
2013-12-12 07:00,-0.0,262.475,261.982,248.382,263.569,262.888,250.633,-0.0,-0.0,229.852,247.59
2013-12-12 08:00,-0.00769185,266.797,259.039,246.399,259.791,257.301,245.905,-0.0,-0.0,227.147,243.214
2013-12-12 09:00,0.776501,269.576,257.166,244.903,255.049,252.144,241.084,0.928182,1.10672,224.359,236.325
2013-12-12 10:00,0.416921,265.446,250.371,240.617,250.415,247.915,236.918,0.587274,0.661971,227.42,237.043
2013-12-12 11:00,0.492265,284.73,258.871,245.995,259.236,255.425,244.09,0.527571,0.584276,230.511,243.818
2013-12-12 12:00,0.569709,296.943,279.091,258.246,281.366,279.061,258.638,0.5375,0.598161,231.865,249.617
2013-12-12 13:00,0.420015,292.534,277.977,257.459,279.613,277.548,257.406,0.455931,0.538192,230.674,249.198
2013-12-12 14:00,0.315341,288.291,277.098,257.12,278.725,276.784,257.406,0.371343,0.453749,230.916,249.825
2013-12-12 15:00,0.179584,290.301,284.3,261.944,285.618,283.629,261.66,0.208951,0.299439,231.787,251.051
2013-12-12 16:00,0.19369,295.583,288.087,263.618,289.166,285.635,262.017,0.100998,0.275428,232.86,251.949
2013-12-12 17:00,0.206511,293.816,286.661,262.995,288.222,285.208,262.373,0.136841,0.293952,234.615,253.117
2013-12-12 18:00,0.17107,296.738,291.902,266.557,292.86,289.551,264.372,0.0660696,0.252999,235.867,254.068
2013-12-12 19:00,0.227295,296.008,290.335,265.456,291.555,288.167,263.787,0.126655,0.307918,237.072,254.722
2013-12-12 20:00,0.352215,291.065,284.185,261.731,285.618,283.194,261.898,0.313384,0.473105,237.721,255.275
2013-12-12 21:00,0.444602,293.93,285.658,262.89,286.31,282.613,260.098,0.3643,0.492289,237.072,253.88
2013-12-12 22:00,0.0170521,276.155,265.394,250.681,262.15,255.992,241.374,-0.0,-0.0,228.921,241.728
2013-12-12 23:00,-0.0,257.103,239.074,235.337,233.577,227.517,221.415,-0.0,-0.0,218.642,226.379
2013-12-13 00:00,-0.00244329,266.466,248.583,240.766,240.631,233.225,225.185,-0.0,-0.0,216.012,226.76
2013-12-13 01:00,-0.0,227.984,218.082,224.102,215.993,213.694,213.035,-0.0,-0.0,213.693,215.867
2013-12-13 02:00,-0.00160546,227.984,222.198,226.092,220.184,216.972,216.071,-0.0,-0.0,216.012,220.075
2013-12-13 03:00,-0.0,218.393,211.654,220.736,210.218,208.026,208.54,-0.0,-0.0,210.278,210.67
2013-12-13 04:00,-0.0,227.984,216.471,223.489,214.89,212.673,213.241,-0.0,0.00157192,212.922,214.787
2013-12-13 05:00,-0.0,237.078,227.219,228.004,225.31,223.043,220.115,-0.0,-0.0,218.391,222.956
2013-12-13 06:00,-0.0,256.589,245.248,238.349,244.122,240.35,231.257,-0.0,-0.0,222.799,233.928
2013-12-13 07:00,-0.00643756,249.89,243.496,237.101,241.815,239.667,233.503,-0.0,-0.0,224.359,234.694
2013-12-13 08:00,-0.0,257.103,251.721,241.207,250.83,248.941,239.913,-0.0,-0.0,226.685,238.714
2013-12-13 09:00,0.356305,277.661,274.655,255.51,275.857,273.042,254.392,0.432849,0.484828,228.136,247.151
2013-12-13 10:00,0.449208,279.473,266.886,251.305,265.654,261.121,245.767,0.499604,0.541897,225.058,241.602
2013-12-13 11:00,0.509005,280.427,261.017,247.597,260.706,256.742,242.097,0.6267,0.652997,224.661,240.053
2013-12-13 12:00,0.510236,291.809,273.466,254.808,274.623,270.473,250.896,0.535534,0.592463,228.312,246.371
2013-12-13 13:00,0.42173,292.294,280.549,259.134,281.799,278.911,258.27,0.426669,0.51826,229.263,248.562
2013-12-13 14:00,0.390404,274.314,245.676,237.728,244.8,241.251,231.743,0.541372,0.57107,223.538,233.773
2013-12-13 15:00,0.360308,282.408,269.201,252.168,269.35,266.835,251.159,0.536575,0.577794,227.51,244.412
2013-12-13 16:00,0.282124,275.707,251.147,241.5,247.446,244.328,235.691,0.325828,0.419485,219.744,229.838
2013-12-13 17:00,0.307522,282.923,264.788,248.512,263.393,260.405,244.792,0.30486,0.419123,227.51,241.093
2013-12-13 18:00,0.268143,290.558,276.591,257.12,275.55,270.798,251.291,0.213084,0.349348,227.055,244.764
2013-12-13 19:00,0.381634,290.429,273.065,254.336,270.981,266.835,248.634,0.293604,0.473291,227.78,243.937
2013-12-13 20:00,0.599966,296.943,277.977,257.798,278.278,274.929,256.285,0.45518,0.674668,231.236,249.617
2013-12-13 21:00,0.955863,288.291,268.773,252.412,268.024,263.933,247.551,0.743383,0.986445,229.685,245.345
2013-12-13 22:00,-0.0175927,279.473,271.711,253.381,271.625,267.673,250.501,-0.0,-0.0,230.835,246.707
2013-12-13 23:00,-0.00409752,281.705,273.732,255.16,273.372,269.0,249.838,-0.0,0.00413669,229.852,246.595
2013-12-14 00:00,-0.0,268.986,256.644,244.903,253.269,248.941,236.918,-0.0,-0.0,222.476,235.592
2013-12-14 01:00,0.00186357,257.605,246.102,238.349,244.122,240.802,232.227,-0.0,-0.0,222.476,232.829
2013-12-14 02:00,-0.00160791,249.89,233.938,232.834,230.012,226.701,222.692,-0.0,-0.0,215.31,223.167
2013-12-14 03:00,-0.0,249.156,233.116,231.799,229.729,225.318,220.302,-0.0,-0.0,217.491,224.61
2013-12-14 04:00,-0.0,247.601,233.666,232.319,228.583,225.597,222.692,-0.0,-0.0,212.765,221.658
2013-12-14 05:00,-0.0,233.989,220.379,226.481,215.993,213.016,211.358,-0.0,-0.0,211.8,215.332
2013-12-14 06:00,-0.0,240.898,223.94,227.248,218.824,215.683,211.992,-0.0,-0.0,210.452,216.131
2013-12-14 07:00,-0.0,244.063,229.373,229.847,226.221,222.753,218.982,-0.0,-0.0,216.012,223.586
2013-12-14 08:00,-0.0,250.598,237.591,233.849,235.672,232.474,226.402,-0.0,-0.0,221.145,229.838
2013-12-14 09:00,0.205126,268.686,262.458,247.859,263.569,261.654,249.438,0.28056,0.302666,230.674,247.371
2013-12-14 10:00,0.485677,280.05,264.482,248.9,265.31,263.586,249.971,0.391794,0.563675,230.266,247.371
2013-12-14 11:00,0.316408,293.702,287.978,263.411,288.628,285.065,262.255,0.137724,0.42516,232.175,252.244
2013-12-14 12:00,0.416318,297.349,284.869,261.305,286.447,283.484,261.66,0.328996,0.4648,232.481,252.634
2013-12-14 13:00,0.275112,296.84,287.978,263.411,288.628,285.065,262.136,0.164426,0.35943,233.01,252.731
2013-12-14 14:00,0.334939,285.357,274.392,255.043,276.923,275.706,257.777,0.45559,0.523691,232.86,252.634
2013-12-14 15:00,0.234015,279.081,271.984,253.86,273.843,272.883,256.66,0.338408,0.419874,232.328,251.652
2013-12-14 16:00,0.259563,280.05,270.189,252.777,271.945,271.121,255.909,0.338648,0.438328,232.097,251.552
2013-12-14 17:00,0.368641,262.074,205.549,219.409,205.043,204.955,207.423,0.807415,0.891646,206.905,206.606
2013-12-14 18:00,0.43965,265.095,215.218,222.238,213.763,213.694,213.447,0.833132,0.945073,211.964,213.092
2013-12-14 19:00,0.469431,265.446,219.247,224.908,217.78,216.972,217.832,0.711514,0.82692,214.879,216.392
2013-12-14 20:00,0.750729,273.088,230.559,229.665,229.158,226.701,222.329,0.878386,1.06823,220.686,225.21
2013-12-14 21:00,0.972043,287.155,262.141,248.642,260.158,255.992,243.099,0.793422,1.04487,225.931,239.789
2013-12-14 22:00,-0.0181596,276.594,272.527,253.98,272.264,270.96,254.519,-0.0,-0.0,231.473,246.818
2013-12-14 23:00,-0.00412596,230.231,218.862,224.305,216.355,215.356,216.859,-0.0,-0.0,210.966,213.668
2013-12-15 00:00,0.00246158,213.142,217.285,222.868,217.072,215.683,215.074,-0.0,-0.0,215.167,216.131
2013-12-15 01:00,-0.0,232.213,227.533,228.192,227.414,226.426,223.592,-0.0,-0.0,221.031,224.811
2013-12-15 02:00,-0.0,258.096,242.824,236.306,241.815,238.049,228.949,-0.0,-0.0,221.93,230.694
2013-12-15 03:00,-0.0,259.954,244.598,237.572,241.58,237.815,229.449,-0.0,-0.0,222.799,230.694
2013-12-15 04:00,-0.0,279.278,275.694,256.549,276.923,274.46,255.28,-0.0,-0.0,229.348,248.241
2013-12-15 05:00,-0.0,225.382,218.862,224.102,217.78,215.683,216.071,-0.0,-0.0,213.693,215.6
2013-12-15 06:00,-0.0,266.797,256.294,245.04,254.854,250.357,238.128,-0.0,-0.0,224.959,238.85
2013-12-15 07:00,-0.0,263.255,248.38,239.721,245.248,241.698,231.581,-0.0,-0.0,222.368,232.829
2013-12-15 08:00,-0.00750888,254.396,240.277,234.681,236.948,232.976,226.918,-0.0,-0.0,222.04,229.137
2013-12-15 09:00,0.691841,264.377,249.978,239.871,248.307,245.399,234.447,0.749254,1.03956,226.027,236.033
2013-12-15 10:00,0.172905,285.818,280.066,259.024,280.493,277.243,256.66,0.165918,0.24826,231.787,251.152
2013-12-15 11:00,0.522731,295.69,283.726,261.412,285.34,282.467,260.461,0.450161,0.541259,232.02,251.85
2013-12-15 12:00,0.470924,295.26,279.458,258.358,280.493,277.853,258.147,0.402884,0.503489,232.633,252.146
2013-12-15 13:00,0.348253,284.888,263.712,249.029,262.685,259.321,244.932,0.328009,0.444247,229.601,244.881
2013-12-15 14:00,0.289109,268.073,243.719,237.101,241.58,238.515,229.615,0.390227,0.475056,223.746,233.461
2013-12-15 15:00,0.280342,276.811,255.941,244.07,254.263,251.156,238.278,0.307986,0.40699,226.027,238.986
2013-12-15 16:00,0.31957,268.073,230.559,229.847,227.708,225.318,222.873,0.485246,0.555963,215.31,222.313
2013-12-15 17:00,0.24934,256.589,225.937,228.192,224.072,224.19,224.126,0.594373,0.655773,215.734,219.134
2013-12-15 18:00,0.256765,272.061,245.248,238.349,239.426,236.872,229.781,0.329895,0.415957,216.012,224.204
2013-12-15 19:00,0.522069,271.798,221.841,226.481,218.13,215.027,214.062,0.575787,0.713767,213.234,216.652
2013-12-15 20:00,0.700045,272.322,223.597,227.248,221.182,218.547,216.663,0.727211,0.911632,215.31,217.918
2013-12-15 21:00,0.621796,293.702,275.823,257.12,273.529,268.173,248.229,0.450427,0.61379,230.593,248.455
2013-12-15 22:00,-0.0,261.666,242.142,237.101,236.948,231.714,223.592,-0.0,-0.0,217.36,227.136
2013-12-15 23:00,0.00415414,245.01,230.265,230.921,223.443,219.165,216.466,-0.0,-0.0,214.293,220.989
2013-12-16 00:00,-0.0,227.984,218.474,224.708,217.072,214.364,214.062,-0.0,-0.0,213.234,216.131
2013-12-16 01:00,-0.00187193,265.446,246.942,239.871,243.895,237.109,226.574,-0.0,-0.0,220.337,231.364
2013-12-16 02:00,-0.0,278.279,267.764,251.922,265.482,259.684,242.956,-0.0,-0.0,227.87,242.725
2013-12-16 03:00,-0.0,281.526,276.208,257.12,275.703,271.444,251.944,-0.0,-0.0,233.823,249.721
2013-12-16 04:00,-0.0,213.142,208.734,219.409,207.702,205.74,206.97,-0.0,-0.0,206.292,206.968
2013-12-16 05:00,-0.0,227.984,222.552,225.897,220.852,217.607,216.071,-0.0,-0.0,218.264,220.763
2013-12-16 06:00,-0.0,274.314,270.607,252.899,272.104,268.173,251.291,-0.0,-0.0,232.784,250.646
2013-12-16 07:00,-0.00319091,271.531,265.696,250.806,264.618,260.045,245.072,-0.0,0.00322142,228.575,245.345
2013-12-16 08:00,-0.0,268.986,258.365,246.667,254.461,247.085,233.661,-0.0,-0.0,224.054,239.121
2013-12-16 09:00,0.558434,271.798,253.595,242.799,249.579,243.243,230.111,0.584078,0.762751,221.596,235.444
2013-12-16 10:00,0.521257,274.073,250.76,241.936,247.229,242.143,230.931,0.581925,0.666571,222.259,235.146
2013-12-16 11:00,0.434507,285.045,270.189,252.777,269.186,265.309,246.732,0.479783,0.569807,227.147,246.032
2013-12-16 12:00,0.4209,280.982,259.871,246.13,259.051,255.045,239.47,0.520003,0.605144,226.122,242.971
2013-12-16 13:00,0.295884,280.05,259.871,246.533,256.598,252.144,237.977,0.342041,0.431019,223.849,240.446
2013-12-16 14:00,0.268656,284.888,265.995,250.051,264.095,259.139,242.241,0.241816,0.383623,226.871,243.937
2013-12-16 15:00,0.262953,288.43,274.916,255.393,274.933,271.605,252.594,0.246181,0.374226,230.996,250.748
2013-12-16 16:00,0.209794,295.796,286.328,262.576,286.997,283.484,261.062,0.131728,0.289143,234.401,256.45
2013-12-16 17:00,0.209483,293.356,286.217,262.366,287.134,284.779,262.136,0.160065,0.305622,236.139,257.508
2013-12-16 18:00,0.250361,293.007,284.185,261.198,284.921,281.735,259.127,0.21198,0.356564,233.968,255.183
2013-12-16 19:00,0.322753,290.558,279.823,258.802,281.366,278.911,258.882,0.343219,0.479059,234.827,255.366
2013-12-16 20:00,0.368847,283.093,272.796,254.572,274.0,272.565,255.406,0.513068,0.638354,234.686,254.256
2013-12-16 21:00,0.457447,292.053,282.916,261.412,283.088,279.511,257.406,0.38732,0.51007,233.085,254.349
2013-12-16 22:00,-0.0,262.475,256.469,244.765,255.049,252.732,241.374,-0.0,-0.0,227.51,242.971
2013-12-16 23:00,-0.0,268.073,257.683,245.314,256.789,254.472,241.084,-0.0,-0.00422199,227.691,242.478
2013-12-17 00:00,-0.0,278.482,272.527,254.099,272.899,269.821,251.291,-0.0,-0.0,229.178,248.562
2013-12-17 01:00,-0.0,284.73,283.495,260.984,286.033,284.205,261.898,-0.0,-0.00189378,233.234,255.639
2013-12-17 02:00,-0.0,268.382,257.339,244.488,254.854,250.957,239.322,-0.0,-0.0,224.46,237.608
2013-12-17 03:00,-0.0,253.81,234.745,233.513,231.683,227.517,222.329,-0.0,-0.0,217.752,224.408
2013-12-17 04:00,-0.0,269.576,259.871,246.399,259.051,255.614,241.808,-0.0,-0.0,226.405,240.446
2013-12-17 05:00,-0.0,239.711,237.339,233.681,236.695,234.461,229.449,-0.0,-0.0,224.959,232.185
2013-12-17 06:00,-0.0,269.283,257.854,245.451,255.439,251.156,237.676,-0.0,-0.0,224.959,239.523
2013-12-17 07:00,-0.0,263.255,247.15,239.57,242.747,237.109,227.94,-0.0,-0.0,220.219,230.694
2013-12-17 08:00,-0.0,272.58,259.871,246.399,256.598,251.552,237.525,-0.0,-0.0,222.585,237.748
2013-12-17 09:00,0.335732,279.859,269.485,251.799,267.69,263.586,245.628,0.35533,0.52536,226.311,244.175
2013-12-17 10:00,0.411356,283.261,269.485,252.656,266.678,262.888,246.044,0.358152,0.568083,223.952,241.348
2013-12-17 11:00,0.316648,279.859,266.59,250.555,265.826,261.477,244.09,0.349868,0.408096,227.238,245.114
2013-12-17 12:00,0.382212,261.666,226.902,228.378,223.443,221.283,217.639,0.533345,0.609435,213.845,218.653
2013-12-17 13:00,0.359724,274.314,253.411,242.513,250.623,246.876,235.846,0.499232,0.570684,223.118,235.74
2013-12-17 14:00,0.255452,276.155,253.963,241.936,251.036,246.246,233.819,0.27472,0.404563,225.352,236.614
2013-12-17 15:00,0.294216,265.791,231.997,230.743,228.871,226.151,223.053,0.37563,0.486472,217.491,222.529
2013-12-17 16:00,0.303928,262.074,227.845,228.192,225.31,222.462,220.115,0.388995,0.504253,217.36,221.213
2013-12-17 17:00,0.260304,287.01,268.343,251.799,265.482,261.831,245.628,0.206354,0.365849,225.156,240.706
2013-12-17 18:00,0.214226,290.429,279.336,258.246,278.576,274.929,254.264,0.180125,0.318403,231.236,250.646
2013-12-17 19:00,0.540283,284.087,245.463,238.657,239.911,232.976,222.692,0.572632,0.733066,219.014,231.53
2013-12-17 20:00,0.789587,277.869,206.1,219.183,205.043,203.351,206.515,0.932505,1.08834,206.292,206.606
2013-12-17 21:00,1.24861,269.576,213.031,221.814,212.997,212.673,213.241,1.2572,1.57397,213.234,213.092
2013-12-17 22:00,-0.0,271.531,259.871,246.13,259.606,254.855,240.354,-0.0,-0.0202225,228.921,243.336
2013-12-17 23:00,-0.00420955,273.831,263.088,249.029,262.685,258.957,243.808,-0.0,-0.0,228.575,244.647
2013-12-18 00:00,0.00248733,286.121,284.642,261.625,286.31,283.484,260.942,-0.0,-0.0,234.401,255.091
2013-12-18 01:00,-0.0,286.864,285.882,262.049,287.27,285.35,262.255,-0.0,-0.0,234.257,254.999
2013-12-18 02:00,0.00161619,282.753,278.101,256.892,278.128,274.929,254.264,-0.0,-0.0,231.865,251.152
2013-12-18 03:00,-0.0,286.121,284.071,261.198,285.618,283.484,260.581,-0.0,-0.0,233.159,254.999
2013-12-18 04:00,-0.0,281.883,276.08,256.434,276.315,272.883,252.075,-0.0,-0.0,229.178,249.093
2013-12-18 05:00,-0.0,278.482,277.977,257.572,279.17,277.701,258.882,-0.0,-0.0,235.386,255.366
2013-12-18 06:00,-0.0,277.451,272.391,254.336,271.625,268.505,250.633,-0.0,-0.0,230.835,249.617
2013-12-18 07:00,0.00316959,286.421,284.869,261.519,286.447,283.917,261.182,-0.0,-0.0,233.085,255.091
2013-12-18 08:00,-0.0,273.586,263.088,248.252,259.974,255.045,239.913,-0.0,-0.0,225.546,240.185
2013-12-18 09:00,0.738648,273.088,257.683,244.903,254.263,248.941,236.0,0.68359,0.971156,224.054,238.027
2013-12-18 10:00,0.394001,278.279,257.854,244.903,255.244,248.941,233.819,0.323691,0.578928,225.058,238.85
2013-12-18 11:00,0.306258,291.44,284.414,261.198,284.641,280.998,257.406,0.148721,0.438771,233.01,252.146
2013-12-18 12:00,0.300687,296.84,290.545,264.543,291.686,288.445,263.787,0.140512,0.391478,236.341,256.001
2013-12-18 13:00,0.319459,298.436,289.058,263.928,290.367,287.188,262.965,0.213179,0.393575,236.341,255.366
2013-12-18 14:00,0.264039,299.485,283.38,260.984,285.34,281.146,260.219,0.158954,0.317919,236.341,255.091
2013-12-18 15:00,0.218915,298.045,289.699,264.236,290.764,287.048,262.373,0.119647,0.293507,234.827,254.999
2013-12-18 16:00,0.204869,298.339,290.229,265.153,291.16,287.188,261.898,0.100688,0.287656,233.823,253.974
2013-12-18 17:00,0.302097,300.225,275.306,256.549,276.01,271.283,253.368,0.211536,0.353886,232.86,250.95
2013-12-18 18:00,0.297027,291.931,273.865,254.808,274.778,271.926,255.153,0.256522,0.374833,233.896,252.047
2013-12-18 19:00,0.470034,272.061,227.219,227.628,222.485,221.875,219.362,0.642263,0.719506,214.441,216.392
2013-12-18 20:00,0.24941,270.434,250.175,240.469,247.878,246.035,237.525,0.319218,0.36598,226.311,237.888
2013-12-18 21:00,1.56832,294.713,268.199,252.29,267.354,263.586,249.171,1.20923,1.56984,234.472,248.241
2013-12-18 22:00,-0.0207161,264.377,265.243,249.924,266.678,265.65,252.075,-0.0,-0.0,236.609,253.021
2013-12-18 23:00,-0.0,262.475,263.401,248.9,265.482,264.967,252.335,-0.0,-0.0,238.231,253.309
2013-12-19 00:00,-0.00249542,260.395,261.822,247.597,263.92,263.586,251.944,-0.0,-0.0,238.857,253.405
2013-12-19 01:00,-0.0,280.427,276.591,256.892,276.315,273.832,255.153,-0.0,-0.0,234.472,251.751
2013-12-19 02:00,0.00161787,270.713,267.764,251.056,269.021,267.004,252.464,-0.0,-0.0,234.041,251.652
2013-12-19 03:00,0.00152438,264.377,260.201,246.667,260.888,259.139,247.687,-0.0,-0.0,229.517,246.258
2013-12-19 04:00,-0.0,268.073,264.329,249.669,265.138,261.831,247.415,-0.0,-0.0,230.184,247.371
2013-12-19 05:00,0.0017315,280.427,276.971,256.778,277.377,273.832,254.392,-0.0,-0.0,230.996,249.721
2013-12-19 06:00,-0.0,269.283,263.867,249.158,263.04,259.502,244.792,-0.0,-0.0,228.224,244.881
2013-12-19 07:00,-0.0,266.797,255.23,243.79,253.469,248.941,236.46,-0.0,-0.0,225.449,238.165
2013-12-19 08:00,-0.00723863,278.684,271.848,253.621,270.657,264.279,246.182,-0.0,-0.0,228.048,244.998
2013-12-19 09:00,0.281615,284.73,281.148,258.58,281.799,279.211,257.777,0.372567,0.461999,232.557,251.051
2013-12-19 10:00,0.368668,288.152,281.029,259.244,280.639,276.784,255.406,0.21917,0.498897,233.53,249.513
2013-12-19 11:00,0.408738,294.933,285.882,262.155,286.86,283.484,260.098,0.246652,0.460521,235.455,252.537
2013-12-19 12:00,0.47236,299.108,286.55,262.366,288.493,285.777,262.492,0.376257,0.510108,237.006,254.349
2013-12-19 13:00,0.310284,297.947,288.52,263.721,289.434,286.202,261.898,0.185852,0.387118,235.593,253.69
2013-12-19 14:00,0.33322,295.476,284.185,260.984,285.479,282.613,259.37,0.289319,0.413473,234.756,253.309
2013-12-19 15:00,0.250177,291.931,283.956,261.198,285.618,283.484,261.54,0.24909,0.363652,236.874,254.443
2013-12-19 16:00,0.175343,293.93,287.432,263.099,289.032,286.343,263.318,0.140492,0.260183,237.463,255.275
2013-12-19 17:00,0.194822,295.26,288.52,263.928,289.701,287.048,262.847,0.140158,0.286671,238.42,255.73
2013-12-19 18:00,0.174948,294.602,290.017,265.052,291.16,288.861,264.372,0.124277,0.270918,239.954,256.805
2013-12-19 19:00,0.139107,294.602,289.165,264.031,290.367,287.048,262.847,0.14037,0.232779,240.724,256.894
2013-12-19 20:00,0.638002,268.986,220.006,224.708,218.824,218.547,217.445,0.777295,0.918063,215.452,217.418
2013-12-19 21:00,1.29379,270.151,233.938,231.973,233.041,231.714,226.918,1.19606,1.57939,223.224,227.136
2013-12-19 22:00,0.0214339,287.3,285.994,262.786,287.543,285.065,261.779,-0.0,-0.0,240.014,254.999
2013-12-19 23:00,-0.00426341,284.57,280.308,259.464,280.639,276.631,255.909,-0.0,-0.0,237.268,251.051
2013-12-20 00:00,-0.0,267.444,264.329,249.158,264.444,262.537,249.971,-0.0,-0.0,239.349,249.303
2013-12-20 01:00,-0.0,286.569,285.433,261.944,287.543,285.208,262.373,-0.0,-0.0,240.607,255.091
2013-12-20 02:00,-0.0,286.569,285.321,262.155,287.407,284.492,261.898,-0.0,-0.0,238.981,254.907
2013-12-20 03:00,-0.0,286.271,285.095,261.944,286.585,283.773,260.461,-0.0,-0.0,235.593,253.5
2013-12-20 04:00,-0.0,276.376,273.599,254.69,274.0,270.96,252.075,-0.0,-0.0,230.266,248.025
2013-12-20 05:00,-0.0,264.009,259.373,246.533,260.524,254.664,242.241,-0.0,-0.0,229.348,244.53
2013-12-20 06:00,-0.0,259.505,256.118,243.509,256.98,254.281,242.814,-0.0,-0.0,228.224,243.818
2013-12-20 07:00,-0.00314626,254.396,254.509,242.942,255.049,253.51,243.241,-0.0,-0.0,234.472,244.412
2013-12-20 08:00,-0.00716755,248.394,248.583,239.267,249.368,248.532,241.953,-0.0,-0.0,234.257,242.478
2013-12-20 09:00,0.325059,262.074,261.017,246.801,262.507,262.008,250.369,0.657486,0.802185,237.268,250.135
2013-12-20 10:00,0.327331,285.202,272.796,254.572,275.242,271.765,255.532,0.310542,0.418052,235.386,250.849
2013-12-20 11:00,0.502763,291.563,267.18,250.429,268.855,266.329,252.335,0.450617,0.564728,236.94,250.849
2013-12-20 12:00,0.489653,291.19,265.846,249.797,268.524,267.84,254.009,0.453674,0.54926,238.104,252.537
2013-12-20 13:00,0.530308,288.977,266.886,250.681,269.679,269.329,255.406,0.483462,0.581932,238.294,252.925
2013-12-20 14:00,0.3467,292.771,270.468,253.261,272.899,271.283,255.784,0.246336,0.376938,237.785,252.925
2013-12-20 15:00,0.266381,295.796,286.217,262.786,287.543,284.492,261.301,0.200048,0.335574,238.294,253.595
2013-12-20 16:00,0.242295,289.247,279.336,258.691,280.493,277.853,258.392,0.273867,0.362168,239.41,253.117
2013-12-20 17:00,0.311646,256.062,222.904,226.092,221.511,220.384,219.927,0.524509,0.607419,216.83,218.653
2013-12-20 18:00,0.375946,257.605,225.282,226.866,225.31,224.19,222.692,0.789515,0.893561,221.708,224.204
2013-12-20 19:00,0.621469,267.444,231.997,231.098,232.23,231.459,227.601,0.949408,1.06103,226.592,230.011
2013-12-20 20:00,0.732852,297.449,266.738,251.056,267.354,263.759,249.572,0.739739,0.873323,237.137,249.198
2013-12-20 21:00,0.783715,275.48,260.365,247.2,261.25,258.957,246.869,0.746517,0.916481,234.113,247.261
2013-12-20 22:00,-0.0,260.395,257.166,245.314,257.739,255.803,245.628,-0.0187846,-0.0223978,233.53,244.998
2013-12-20 23:00,-0.0,264.377,262.931,248.252,264.618,263.933,251.944,-0.0,-0.0,240.957,252.537
2013-12-21 00:00,-0.0,261.666,263.088,248.512,265.826,265.48,253.24,-0.0,-0.0,239.288,251.751
2013-12-21 01:00,-0.00377926,262.869,263.867,248.771,265.826,264.795,252.075,-0.0,-0.0,239.532,251.051
2013-12-21 02:00,-0.0,261.666,260.201,246.667,261.971,260.764,249.572,-0.0,-0.0,240.782,250.849
2013-12-21 03:00,-0.0,264.377,263.712,249.158,265.826,264.623,251.683,-0.0,-0.0,237.203,251.949
2013-12-21 04:00,-0.00155597,257.605,256.469,244.488,257.17,256.18,245.767,-0.0,-0.0,230.755,246.371
2013-12-21 05:00,-0.0,268.073,260.692,247.728,259.236,254.855,241.374,-0.0,-0.0,228.048,243.457
2013-12-21 06:00,-0.0,260.395,258.871,245.995,260.158,258.408,246.044,-0.0,-0.0,231.943,248.133
2013-12-21 07:00,-0.0,267.761,264.175,249.029,266.167,264.623,250.765,-0.0,0.00316385,234.968,250.238
2013-12-21 08:00,0.0070954,264.739,265.243,249.669,267.857,266.835,253.497,-0.0,-0.0,235.662,252.146
2013-12-21 09:00,0.426765,275.251,271.162,253.02,273.057,271.121,255.406,0.439894,0.543239,236.475,253.309
2013-12-21 10:00,0.483878,289.91,279.58,258.022,281.221,278.307,258.882,0.332461,0.588607,239.288,255.821
2013-12-21 11:00,0.333886,293.93,287.651,262.89,289.032,286.06,262.255,0.165389,0.435679,237.721,255.911
2013-12-21 12:00,0.361683,294.38,285.321,261.519,287.407,285.208,262.492,0.283863,0.460177,240.43,257.158
2013-12-21 13:00,0.388284,293.472,283.495,260.119,285.479,283.339,262.136,0.377039,0.503015,240.899,256.539
2013-12-21 14:00,0.292277,292.771,284.755,260.984,285.895,283.773,261.062,0.2639,0.413835,242.378,257.07
2013-12-21 15:00,0.255946,293.007,284.185,261.198,286.033,283.773,262.017,0.232398,0.356605,242.433,257.421
2013-12-21 16:00,0.201025,293.007,284.414,260.984,285.479,282.467,260.942,0.155277,0.296705,241.93,256.45
2013-12-21 17:00,0.204584,294.933,288.087,263.515,289.032,286.202,262.255,0.144171,0.298905,242.489,257.246
2013-12-21 18:00,0.200955,293.702,287.651,262.995,288.763,285.635,262.017,0.142625,0.319232,243.526,257.07
2013-12-21 19:00,0.185761,282.059,277.476,257.006,279.17,277.701,259.735,0.298519,0.369334,243.846,256.894
2013-12-21 20:00,0.326182,293.124,283.611,260.769,283.938,281.588,260.701,0.285868,0.430401,243.418,256.45
2013-12-21 21:00,0.491231,294.156,287.322,262.995,289.032,285.777,262.136,0.410452,0.619909,241.015,257.508
2013-12-21 22:00,-0.0,280.982,274.129,255.043,272.899,269.0,250.236,-0.0,-0.0231923,231.315,247.261
2013-12-21 23:00,-0.00431536,280.239,272.527,253.381,272.423,269.165,250.633,-0.0,-0.0,228.4,245.575
2013-12-22 00:00,0.00251802,244.063,233.938,231.625,232.23,231.203,227.601,-0.0,0.00254209,223.538,227.694
2013-12-22 01:00,-0.0,277.451,269.908,251.922,270.332,267.84,249.838,-0.0,-0.0,230.018,245.46
2013-12-22 02:00,-0.0,286.717,286.772,262.471,289.166,287.188,263.436,-0.0,-0.0,232.784,253.213
2013-12-22 03:00,-0.00152516,285.97,285.321,261.838,287.543,285.635,262.728,-0.0,0.00153974,231.315,252.047
2013-12-22 04:00,0.0015551,286.421,285.994,262.049,288.358,286.485,263.2,-0.0,-0.00156997,231.394,251.949
2013-12-22 05:00,0.00172548,282.234,278.845,257.798,279.022,276.169,256.16,-0.0,-0.0,228.662,246.145
2013-12-22 06:00,-0.0,284.73,283.611,260.876,285.479,282.758,259.977,-0.0,-0.0,230.916,249.513
2013-12-22 07:00,-0.0,276.811,268.63,251.429,268.024,264.279,246.869,-0.0,0.00315092,227.601,242.354
2013-12-22 08:00,-0.00702234,271.261,262.458,247.465,261.611,258.04,243.808,-0.0,-0.0,226.311,241.348
2013-12-22 09:00,0.458242,274.314,264.329,248.252,263.217,260.045,245.35,0.484991,0.771037,227.055,240.706
2013-12-22 10:00,0.279259,271.798,256.469,243.509,254.066,250.957,239.173,0.300627,0.463169,224.56,235.74
2013-12-22 11:00,0.307545,289.647,282.448,259.464,283.23,279.661,256.535,0.15431,0.462278,229.007,247.699
2013-12-22 12:00,0.28787,296.427,287.102,262.786,287.407,281.441,257.9,0.119068,0.399187,228.921,247.699
2013-12-22 13:00,0.256851,298.045,291.07,265.254,292.34,288.306,262.255,0.111614,0.352602,230.755,249.928
2013-12-22 14:00,0.251154,296.635,284.982,261.091,285.618,280.998,256.41,0.132522,0.330724,230.266,248.133
2013-12-22 15:00,0.223508,296.84,288.843,263.825,289.968,286.767,262.136,0.143159,0.302808,233.896,251.152
2013-12-22 16:00,0.197396,297.045,290.123,265.153,291.292,287.888,262.728,0.108439,0.278759,234.897,252.828
2013-12-22 17:00,0.253879,273.831,255.587,243.509,255.827,253.703,239.618,0.47506,0.55234,232.557,244.056
2013-12-22 18:00,0.283228,257.103,228.155,229.118,227.118,226.151,224.657,0.607016,0.662716,218.264,222.313
2013-12-22 19:00,0.495338,263.255,221.841,225.107,220.852,220.081,219.551,0.779576,0.887535,218.391,220.075
2013-12-22 20:00,0.66378,268.073,215.218,222.659,214.517,213.694,214.062,0.868359,1.00663,213.078,214.787
2013-12-22 21:00,1.0366,271.798,220.75,225.107,218.824,216.331,215.274,0.964369,1.208,215.593,218.653
2013-12-22 22:00,-0.0,248.394,233.666,231.799,231.683,229.385,224.657,-0.020148,-0.0240235,219.382,225.408
2013-12-22 23:00,-0.0,250.598,239.799,234.845,238.693,235.677,229.946,-0.0,-0.0,222.692,232.185
2013-12-23 00:00,-0.0,249.156,236.06,233.344,233.842,231.459,225.883,-0.0,0.00254909,219.624,227.323
2013-12-23 01:00,-0.0,254.396,236.832,233.175,234.633,230.429,224.657,-0.0,-0.0,218.391,225.21
2013-12-23 02:00,-0.0,240.898,229.072,228.564,227.414,225.318,222.329,-0.0,-0.0,218.642,224.204
2013-12-23 03:00,-0.00152511,251.944,245.032,237.415,245.024,243.024,235.227,-0.0,-0.0,225.931,237.043
2013-12-23 04:00,-0.0,257.605,249.781,240.469,249.368,246.457,236.613,-0.0,-0.0,225.643,237.748
2013-12-23 05:00,-0.0,235.601,231.427,230.027,230.853,230.17,227.26,-0.0,-0.0,222.585,227.509
2013-12-23 06:00,-0.0,257.103,247.15,238.81,247.012,244.112,235.382,-0.0,-0.0,225.931,236.614
2013-12-23 07:00,0.00310785,248.394,243.049,236.466,242.515,240.576,233.976,-0.0,-0.0,225.546,235.592
2013-12-23 08:00,-0.00694853,257.605,248.784,239.115,248.093,245.824,237.07,-0.0,-0.0,224.76,235.887
2013-12-23 09:00,0.177107,265.095,262.774,247.728,263.745,262.008,249.438,0.349898,0.377467,229.517,246.818
2013-12-23 10:00,0.48963,262.475,239.559,234.515,237.951,235.917,230.44,0.560688,0.700949,224.359,231.859
2013-12-23 11:00,0.363322,256.589,234.208,231.098,233.041,231.968,227.089,0.545597,0.643621,221.596,228.603
2013-12-23 12:00,0.32153,260.827,240.277,234.845,238.938,237.345,231.905,0.4687,0.548814,224.054,232.185
2013-12-23 13:00,0.368663,272.061,249.978,239.871,250.415,248.121,238.727,0.487224,0.54798,226.685,239.255
2013-12-23 14:00,0.285253,273.088,249.978,241.061,248.307,245.186,236.613,0.360744,0.458317,224.359,236.179
2013-12-23 15:00,0.231604,254.396,230.265,229.301,229.444,228.056,225.009,0.493189,0.571686,220.57,225.21
2013-12-23 16:00,0.277151,266.466,232.56,230.921,229.729,226.974,221.965,0.378842,0.484908,219.624,225.604
2013-12-23 17:00,0.303074,271.531,238.585,234.017,235.672,232.474,227.26,0.330697,0.481361,221.484,227.694
2013-12-23 18:00,0.323995,277.026,244.38,236.943,241.815,236.396,227.77,0.359118,0.492126,221.708,230.863
2013-12-23 19:00,0.375266,282.059,260.854,247.067,259.606,256.18,242.956,0.459841,0.569232,225.643,240.576
2013-12-23 20:00,0.487915,285.818,265.394,250.177,263.745,260.045,244.652,0.425126,0.561312,225.643,239.922
2013-12-23 21:00,0.70968,280.799,258.195,244.488,255.827,251.354,238.128,0.59552,0.825213,223.538,236.033
2013-12-23 22:00,0.0246565,227.984,220.006,225.504,218.13,215.027,213.857,-0.0208766,-0.0248922,215.167,218.41
2013-12-23 23:00,-0.0,243.066,235.275,232.663,233.041,229.647,225.535,-0.0,-0.0,221.596,229.314
2013-12-24 00:00,0.00253157,259.505,252.29,242.369,251.036,248.532,239.322,-0.00214348,-0.0,227.42,239.789
2013-12-24 01:00,-0.0,259.505,259.039,246.533,260.341,258.774,247.551,-0.0,-0.0,230.674,246.483
2013-12-24 02:00,-0.0,259.045,255.941,244.349,257.17,255.803,244.372,-0.0,-0.0,227.959,243.457
2013-12-24 03:00,-0.0,262.869,259.54,246.399,261.069,258.774,245.905,-0.0,0.00153947,228.4,244.412
2013-12-24 04:00,-0.0,266.797,263.401,249.029,264.965,262.537,248.634,-0.0,-0.0,230.348,246.818
2013-12-24 05:00,-0.00172053,264.377,261.982,247.991,263.393,262.185,248.364,-0.0,-0.0,230.266,247.04
2013-12-24 06:00,-0.0,262.074,260.692,247.728,262.507,260.405,247.687,-0.0,-0.0,230.43,246.595
2013-12-24 07:00,-0.0,267.444,265.696,250.177,267.185,265.99,251.553,-0.0,-0.0,230.755,248.455
2013-12-24 08:00,-0.0,273.088,273.065,254.926,274.933,273.832,256.535,-0.0,-0.0,231.63,250.032
2013-12-24 09:00,0.406317,267.761,263.556,249.158,264.618,263.063,249.705,0.516042,0.594791,229.601,246.595
2013-12-24 10:00,0.484565,282.923,267.18,251.676,268.358,264.279,249.171,0.502594,0.529964,228.312,245.46
2013-12-24 11:00,0.628038,285.818,269.201,251.922,269.842,266.329,248.634,0.650143,0.691893,228.575,244.647
2013-12-24 12:00,0.581126,294.823,271.984,254.336,274.156,270.148,252.464,0.61294,0.653731,229.093,247.151
2013-12-24 13:00,0.460279,286.864,260.854,247.728,260.524,255.992,241.374,0.503865,0.547166,225.643,240.446
2013-12-24 14:00,0.469967,281.883,251.147,241.646,252.262,250.156,240.938,0.555238,0.594607,227.959,241.602
2013-12-24 15:00,0.303388,284.249,274.261,255.974,275.242,272.405,252.335,0.394141,0.468785,228.921,246.595
2013-12-24 16:00,0.258228,285.045,274.785,256.205,275.857,272.883,254.137,0.302122,0.400524,228.224,246.258
2013-12-24 17:00,0.206488,289.247,276.971,257.233,276.163,271.926,252.335,0.148018,0.296706,229.007,246.371
2013-12-24 18:00,0.423444,291.686,277.601,258.022,279.466,277.701,257.777,0.434467,0.512099,230.511,250.032
2013-12-24 19:00,0.280267,294.38,285.882,263.099,287.134,284.492,262.017,0.202264,0.33232,231.473,251.85
2013-12-24 20:00,0.983058,293.124,275.823,257.12,278.278,277.243,259.856,0.918459,1.10083,231.787,252.146
2013-12-24 21:00,1.2051,289.247,276.208,256.892,277.377,275.706,257.158,1.08413,1.27365,230.266,248.669
2013-12-24 22:00,0.025555,277.451,278.35,258.246,281.076,279.81,260.34,-0.0216373,-0.0257993,232.633,252.342
2013-12-24 23:00,-0.0,278.075,277.977,258.246,280.201,278.76,260.219,-0.0,-0.0,232.328,252.047
2013-12-25 00:00,-0.00253786,262.869,260.854,247.067,262.507,261.831,249.705,-0.0,-0.0,233.308,249.093
2013-12-25 01:00,-0.0,267.444,263.088,248.382,265.138,263.759,250.765,-0.0,-0.0,233.53,248.455
2013-12-25 02:00,-0.0,272.061,267.909,251.799,268.855,266.16,252.594,-0.0,-0.0,232.935,248.882
2013-12-25 03:00,-0.00152452,284.73,282.331,260.984,283.656,280.85,259.492,-0.0,-0.0,233.159,251.252
2013-12-25 04:00,-0.0,269.865,268.487,251.799,270.006,269.0,254.9,-0.0,-0.0,234.185,251.252
2013-12-25 05:00,0.00171778,259.954,256.644,244.349,256.598,255.614,245.489,-0.0,0.0017342,230.43,245.23
2013-12-25 06:00,0.00211396,257.605,257.166,244.626,257.928,256.367,245.767,-0.0,-0.0,232.633,247.371
2013-12-25 07:00,-0.0,268.686,264.329,249.414,265.482,263.933,251.159,-0.0,-0.0,230.755,247.808
2013-12-25 08:00,-0.0,275.251,264.175,249.542,262.329,256.928,240.938,-0.0,-0.0,227.78,241.98
2013-12-25 09:00,0.882475,278.482,268.343,251.922,267.522,263.586,247.006,0.693819,1.12424,227.601,241.475
2013-12-25 10:00,0.39822,272.836,255.409,243.509,253.269,249.753,237.676,0.419745,0.623551,223.538,234.996
2013-12-25 11:00,0.259823,273.586,258.871,245.859,257.55,254.855,242.241,0.28229,0.431762,228.048,239.255
2013-12-25 12:00,0.219568,283.261,272.527,254.217,271.945,268.835,251.291,0.154923,0.335859,231.552,245.114
2013-12-25 13:00,0.260366,296.427,286.661,264.031,287.407,283.339,259.37,0.136195,0.349557,232.86,250.032
2013-12-25 14:00,0.208968,295.902,288.843,265.254,289.568,285.777,261.301,0.0977245,0.300503,231.787,250.135
2013-12-25 15:00,0.210741,278.883,255.941,244.765,251.242,246.457,235.227,0.187258,0.320302,222.04,231.859
2013-12-25 16:00,0.190052,294.156,282.566,260.661,282.517,276.938,253.368,0.101318,0.29254,231.156,248.455
2013-12-25 17:00,0.175906,297.248,290.335,266.059,291.16,287.048,262.017,0.0707193,0.261909,233.53,251.452
2013-12-25 18:00,0.201103,295.368,288.628,265.355,289.701,286.06,262.492,0.115587,0.277122,233.968,252.047
2013-12-25 19:00,0.221404,296.323,290.651,266.557,291.817,288.027,263.083,0.10644,0.306867,233.896,252.731
2013-12-25 20:00,0.284146,295.151,289.058,265.758,290.5,287.048,262.255,0.185799,0.38343,234.543,252.828
2013-12-25 21:00,0.497528,293.24,287.651,264.645,289.3,286.343,262.61,0.421256,0.539955,235.386,253.5
2013-12-25 22:00,-0.026492,289.113,287.76,264.645,289.166,286.202,263.083,-0.0224307,-0.0267453,236.139,253.785
2013-12-25 23:00,-0.004412,288.43,286.992,264.031,288.628,285.635,262.255,-0.0,-0.0,236.071,253.405
2013-12-26 00:00,-0.0,288.152,286.328,263.515,287.951,285.208,262.373,-0.0,-0.0,235.936,253.405
2013-12-26 01:00,-0.0,288.012,286.217,263.825,287.951,285.493,262.136,-0.0,-0.0,235.662,252.828
2013-12-26 02:00,-0.00162489,287.729,285.994,263.618,287.679,284.922,262.136,-0.0,0.00164043,235.593,252.828
2013-12-26 03:00,-0.0,286.864,285.433,263.203,286.722,283.917,261.182,-0.0,-0.0,234.615,252.634
2013-12-26 04:00,-0.0,286.717,285.433,263.307,286.997,284.205,261.301,-0.0,-0.0,235.108,252.537
2013-12-26 05:00,-0.0,286.421,285.658,263.307,287.407,284.922,261.898,-0.0,-0.0,235.936,253.5
2013-12-26 06:00,-0.0,286.271,285.095,263.099,286.997,284.636,261.779,-0.0,-0.0,235.247,252.925
2013-12-26 07:00,-0.0,286.569,285.321,262.786,287.27,284.922,261.898,-0.0,-0.0,235.317,252.439
2013-12-26 08:00,-0.0,284.73,282.682,261.091,284.361,281.735,259.856,-0.0,-0.0,233.382,250.646
2013-12-26 09:00,0.130633,285.818,284.071,261.838,285.895,283.049,260.581,0.239648,0.307725,233.823,251.85
2013-12-26 10:00,0.355798,268.686,247.973,239.419,245.024,241.251,231.581,0.370507,0.565636,221.031,230.354
2013-12-26 11:00,0.29756,282.408,269.343,252.168,267.69,264.623,246.869,0.199211,0.463414,228.488,243.577
2013-12-26 12:00,0.286631,287.3,275.046,255.393,274.312,269.821,251.422,0.173552,0.444151,229.685,245.69
2013-12-26 13:00,0.23471,281.165,263.712,249.158,261.25,257.301,242.956,0.169843,0.358185,224.86,236.9
2013-12-26 14:00,0.233371,298.436,289.805,265.456,290.764,286.907,261.421,0.113206,0.310455,231.709,251.152
2013-12-26 15:00,0.216521,298.339,289.699,265.456,291.029,287.188,262.255,0.111761,0.294571,233.382,251.352
2013-12-26 16:00,0.19699,298.436,290.545,266.059,291.423,287.609,262.728,0.100273,0.277001,233.456,252.244
2013-12-26 17:00,0.223769,297.045,288.843,264.95,290.101,286.485,262.373,0.144507,0.30504,233.677,252.244
2013-12-26 18:00,0.345868,296.84,283.726,261.625,285.34,282.613,261.54,0.275474,0.43203,235.178,253.309
2013-12-26 19:00,0.411773,296.635,281.742,260.011,283.088,281.146,260.942,0.343894,0.485625,236.874,253.974
2013-12-26 20:00,0.495967,299.297,286.661,263.515,287.951,284.779,261.779,0.344014,0.577088,237.849,254.536
2013-12-26 21:00,0.320527,293.007,288.412,264.645,289.568,286.202,262.965,0.21398,0.404489,239.166,254.999
2013-12-26 22:00,-0.741633,274.314,271.299,253.86,273.057,271.444,255.532,-0.139542,-0.305035,236.408,252.342
2013-12-26 23:00,-0.00443437,287.444,284.071,260.984,284.781,281.735,259.977,-0.0,-0.0,237.721,255.183
2013-12-27 00:00,-0.0025494,289.514,288.736,264.133,290.764,288.722,264.255,-0.0,-0.0,240.014,258.2
2013-12-27 01:00,-0.0,289.247,288.303,264.031,290.101,287.888,264.255,-0.00161217,-0.0,240.782,258.457
2013-12-27 02:00,-0.0,287.871,286.882,262.995,288.358,285.777,263.436,-0.0,-0.0,243.093,259.387
2013-12-27 03:00,-0.00152331,276.155,274.129,255.393,276.62,275.24,258.515,-0.0,-0.0,243.31,259.22
2013-12-27 04:00,-0.00154834,279.081,277.098,257.006,279.17,277.243,259.37,-0.0,-0.0,243.364,259.471
2013-12-27 05:00,-0.0,288.152,287.432,263.307,289.166,287.048,263.553,-0.0,-0.0,242.875,259.554
2013-12-27 06:00,-0.00210216,287.444,286.882,262.89,288.628,286.343,263.553,-0.0,-0.00212226,243.147,259.554
2013-12-27 07:00,-0.0,287.01,285.77,262.366,287.407,285.065,262.373,-0.0,-0.0,241.76,259.135
2013-12-27 08:00,-0.0,287.01,286.105,262.049,287.679,285.35,262.61,-0.0,-0.0,243.202,259.887
2013-12-27 09:00,0.135642,287.3,286.105,262.471,287.815,285.635,262.728,0.267978,0.319523,242.378,258.967
2013-12-27 10:00,0.625715,280.239,266.738,250.555,267.857,266.329,251.683,0.606472,0.710658,239.834,254.814
2013-12-27 11:00,0.284639,293.124,286.55,262.786,286.722,282.904,259.735,0.139116,0.418191,239.714,255.821
2013-12-27 12:00,0.288835,296.531,288.736,263.825,289.032,284.636,261.062,0.134294,0.411269,239.774,256.716
2013-12-27 13:00,0.234955,250.598,238.83,234.515,239.183,239.438,235.537,0.602591,0.667473,228.748,233.773
2013-12-27 14:00,0.204292,263.636,245.463,238.04,241.815,241.251,235.382,0.422138,0.497198,223.118,231.859
2013-12-27 15:00,0.250088,251.944,216.058,222.868,215.628,214.364,214.062,0.753865,0.807697,216.012,216.392
2013-12-27 16:00,0.0,256.589,208.223,220.077,207.269,205.74,208.318,0.783913,0.854242,207.304,207.326
2013-12-27 17:00,0.337212,259.954,209.237,219.855,207.702,206.895,208.982,0.80736,0.886152,207.697,208.371
2013-12-27 18:00,0.421406,263.255,212.578,222.027,211.825,210.931,211.992,0.858559,0.952796,210.966,212.207
2013-12-27 19:00,0.560154,274.551,210.707,221.6,209.394,208.026,209.638,0.886906,1.00472,209.569,210.67
2013-12-27 20:00,0.74802,274.787,218.862,224.908,217.427,216.008,215.674,0.905119,1.07358,215.873,218.165
2013-12-27 21:00,0.996117,272.58,227.219,228.749,226.522,224.756,222.329,0.957245,1.20923,221.145,225.21
2013-12-27 22:00,-0.0284825,242.013,234.208,232.146,233.31,231.459,227.26,-0.0,-0.0287548,223.118,229.314
2013-12-27 23:00,-0.00445594,262.475,250.76,241.207,248.946,245.824,236.307,-0.0,0.00449853,225.352,237.327
2013-12-28 00:00,-0.0,266.797,253.411,242.799,251.242,246.457,234.76,-0.0,-0.0,224.76,238.714
2013-12-28 01:00,0.0019057,283.924,281.386,259.902,282.946,280.108,258.515,-0.0,-0.0,230.101,251.152
2013-12-28 02:00,-0.0,275.02,266.145,250.303,265.31,261.477,244.231,-0.0,-0.0,225.546,243.093
2013-12-28 03:00,-0.0,242.013,227.219,228.378,224.384,221.579,219.172,-0.0,-0.0,216.83,221.213
2013-12-28 04:00,-0.0,248.394,241.913,236.146,240.631,238.978,233.344,-0.0,-0.0,225.254,232.829
2013-12-28 05:00,-0.0,260.395,259.706,246.265,261.611,260.942,248.364,-0.0,-0.0,230.755,246.595
2013-12-28 06:00,-0.0,265.095,266.886,250.555,269.021,268.505,253.753,-0.0,0.00211598,233.085,252.244
2013-12-28 07:00,-0.0,262.475,264.788,249.797,267.185,266.835,253.625,-0.0,-0.0,232.405,251.252
2013-12-28 08:00,-0.0,270.713,270.049,252.899,272.264,270.148,253.881,-0.0,-0.0,232.481,252.342
2013-12-28 09:00,0.611669,263.636,262.774,248.512,265.31,265.138,253.111,0.697172,0.783771,234.329,252.731
2013-12-28 10:00,0.692082,282.753,261.662,247.991,264.27,263.933,251.291,0.666689,0.757271,234.615,251.85
2013-12-28 11:00,0.554898,296.943,276.208,256.892,276.923,273.832,256.285,0.402993,0.56489,234.756,252.342
2013-12-28 12:00,0.309451,295.151,287.322,263.411,288.358,285.065,261.898,0.162872,0.398533,235.525,253.785
2013-12-28 13:00,0.536041,295.583,279.58,258.58,282.374,281.146,260.581,0.517545,0.583962,234.615,253.69
2013-12-28 14:00,0.211684,296.738,290.545,265.254,291.686,287.748,262.373,0.0793154,0.307051,234.897,253.69
2013-12-28 15:00,0.208397,297.349,289.486,264.645,290.764,286.907,262.373,0.0960669,0.285194,235.247,253.213
2013-12-28 16:00,0.250671,297.349,280.549,259.793,281.943,278.156,258.27,0.165629,0.311013,235.038,252.925
2013-12-28 17:00,0.229631,292.534,283.38,260.984,284.781,282.321,261.062,0.212589,0.336276,234.257,253.595
2013-12-28 18:00,0.31702,286.421,270.468,253.02,269.679,267.339,250.633,0.312951,0.439516,230.593,245.804
2013-12-28 19:00,0.253334,294.491,287.212,263.203,288.628,285.208,262.728,0.20188,0.346022,235.317,254.162
2013-12-28 20:00,0.227998,294.823,290.017,264.95,291.16,287.609,263.553,0.145961,0.334038,236.609,255.275
2013-12-28 21:00,1.04242,287.444,265.995,249.924,262.863,259.502,244.231,0.795377,1.13192,227.055,240.316
2013-12-28 22:00,-0.0,284.087,281.029,259.244,282.087,279.511,258.392,-0.0250076,-0.0,232.097,250.032
2013-12-28 23:00,-0.00447665,278.684,278.226,257.346,280.054,278.156,258.882,-0.0,-0.0,234.615,252.828
2013-12-29 00:00,-0.00255951,230.231,229.673,229.484,228.293,227.517,225.709,-0.0,-0.0,219.503,224.811
2013-12-29 01:00,-0.0019071,213.142,213.031,221.814,211.028,209.497,210.932,-0.0,-0.0,209.569,209.707
2013-12-29 02:00,-0.0,213.142,206.643,219.409,205.946,204.559,205.593,-0.0,-0.0,206.084,206.606
2013-12-29 03:00,-0.0,213.142,211.184,220.736,209.394,208.026,208.54,-0.0,-0.0,209.023,209.707
2013-12-29 04:00,-0.0,225.382,224.279,226.866,223.443,221.579,220.302,-0.0,-0.0,218.891,222.529
2013-12-29 05:00,-0.0,233.989,228.463,228.749,227.414,225.874,222.873,-0.0,-0.0,220.101,225.011
2013-12-29 06:00,0.00208952,240.898,233.666,231.625,231.957,229.647,225.36,-0.0,-0.0,222.259,228.782
2013-12-29 07:00,-0.0,243.066,235.011,232.319,234.107,232.474,227.431,-0.0,-0.0,223.118,228.96
2013-12-29 08:00,0.00649776,249.89,244.38,236.784,244.122,242.585,234.916,-0.0,-0.0,225.352,236.469
2013-12-29 09:00,0.417188,257.605,248.38,239.267,247.662,245.612,237.373,0.498681,0.619377,227.238,237.608
2013-12-29 10:00,0.17525,280.427,273.865,254.69,275.857,272.086,253.753,0.194312,0.227475,231.865,249.303
2013-12-29 11:00,0.419306,265.791,252.479,241.936,252.262,251.552,243.241,0.564097,0.656138,230.266,239.656
2013-12-29 12:00,0.331825,289.647,272.527,254.336,272.741,267.506,248.903,0.259671,0.421284,230.018,245.918
2013-12-29 13:00,0.340855,292.294,276.08,256.434,276.315,272.086,251.814,0.271216,0.431179,230.184,247.917
2013-12-29 14:00,0.284807,283.093,274.392,255.16,275.087,273.517,255.658,0.36481,0.42638,231.076,247.917
2013-12-29 15:00,0.214176,289.514,277.852,257.346,279.022,276.784,257.777,0.257801,0.342452,232.328,250.238
2013-12-29 16:00,0.117077,285.357,277.727,256.892,277.226,274.147,255.784,0.110033,0.243484,231.709,248.133
2013-12-29 17:00,0.118484,269.576,263.088,247.728,263.393,261.831,249.572,0.329777,0.370303,232.481,247.699
2013-12-29 18:00,0.380711,263.255,228.155,228.564,228.293,227.246,224.304,0.829951,0.927742,223.642,225.994
2013-12-29 19:00,0.563099,269.865,229.97,229.118,230.012,228.856,225.36,0.848125,0.992499,223.538,226.76
2013-12-29 20:00,0.623274,268.382,235.011,232.319,234.107,232.221,227.26,0.771652,0.920078,223.952,229.838
2013-12-29 21:00,0.396804,281.705,263.712,249.158,263.393,258.774,244.512,0.40724,0.534129,229.601,244.412
2013-12-29 22:00,0.0306256,256.589,246.102,238.349,243.895,239.208,229.781,-0.0,-0.0309183,225.931,237.748
2013-12-29 23:00,-0.00449646,257.103,250.371,240.021,248.733,245.399,235.382,-0.0,-0.0,230.593,242.354
2013-12-30 00:00,-0.0,213.142,215.64,222.659,214.141,213.016,213.241,-0.0,-0.0,210.966,213.092
2013-12-30 01:00,-0.0,218.393,217.285,222.868,215.993,215.356,214.671,-0.0,-0.0,213.234,215.061
2013-12-30 02:00,-0.00162507,225.382,222.904,225.897,221.182,219.472,218.792,-0.0,0.00164061,215.873,219.372
2013-12-30 03:00,-0.0,232.213,227.845,228.378,226.221,224.474,221.782,-0.0,-0.0,221.031,225.799
2013-12-30 04:00,-0.0,232.213,229.072,228.749,228.001,226.426,224.481,-0.0,-0.0,222.259,226.379
2013-12-30 05:00,-0.0,235.601,232.56,231.098,231.957,230.688,227.089,-0.0,-0.0,222.476,228.603
2013-12-30 06:00,0.0020829,245.913,237.841,233.681,236.441,233.474,228.614,-0.0,-0.0,222.585,231.859
2013-12-30 07:00,-0.0,249.156,246.523,238.657,246.794,245.186,237.373,-0.0,-0.0,228.312,238.986
2013-12-30 08:00,-0.0,248.394,246.942,238.503,247.662,246.457,239.765,-0.0,-0.0,229.348,239.656
2013-12-30 09:00,0.564645,260.395,252.479,241.791,252.059,249.753,239.913,0.738858,0.958709,227.601,240.706
2013-12-30 10:00,0.369756,280.427,265.995,250.177,264.965,259.684,243.808,0.33086,0.504791,225.254,240.053
2013-12-30 11:00,0.345925,286.569,265.394,249.924,264.27,259.321,244.932,0.273104,0.467216,227.87,242.354
2013-12-30 12:00,0.295519,297.349,277.476,257.006,278.278,272.405,253.24,0.173445,0.411919,231.156,248.348
2013-12-30 13:00,0.243922,296.635,287.322,263.618,287.815,282.904,259.249,0.0997834,0.355546,232.251,249.825
2013-12-30 14:00,0.347038,298.822,268.63,252.656,268.69,262.888,249.171,0.263937,0.382318,232.557,246.595
2013-12-30 15:00,0.321829,295.476,261.017,247.067,261.431,257.486,246.044,0.3117,0.41256,233.085,245.46
2013-12-30 16:00,0.225845,279.667,271.574,253.501,272.741,271.444,255.153,0.37452,0.445377,232.175,249.198
2013-12-30 17:00,0.185109,289.647,281.624,259.902,283.088,280.702,259.977,0.198313,0.291124,233.01,250.849
2013-12-30 18:00,0.211184,294.713,287.869,264.133,288.897,285.35,262.017,0.151679,0.316128,233.677,252.047
2013-12-30 19:00,0.261438,294.156,285.77,262.89,286.86,283.773,260.822,0.194671,0.351917,231.156,250.849
2013-12-30 20:00,0.173884,291.686,285.321,262.155,286.447,283.194,260.701,0.177608,0.247994,232.405,251.85
2013-12-30 21:00,0.155115,289.381,284.642,261.944,285.895,282.758,259.977,0.22226,0.234896,233.823,252.047
2013-12-30 22:00,-0.0317513,259.045,250.76,241.061,249.157,243.896,232.707,-0.0268837,-0.0320548,226.778,238.441
2013-12-30 23:00,-0.00451533,222.276,210.224,220.077,209.808,208.026,209.856,-0.0,-0.0,209.569,210.984
2013-12-31 00:00,0.00256811,213.142,200.125,215.666,198.671,198.206,200.766,-0.0,-0.0,199.867,200.041
2013-12-31 01:00,0.00190919,213.142,204.988,217.576,203.652,202.529,205.593,-0.0,-0.0,204.122,204.721
2013-12-31 02:00,-0.0,218.393,215.64,222.027,214.141,212.673,212.827,-0.0,-0.0,213.234,213.668
2013-12-31 03:00,-0.0,222.276,215.218,222.659,214.141,212.329,213.447,-0.0,-0.0,210.966,212.505
2013-12-31 04:00,-0.0,232.213,233.666,231.274,233.041,232.474,228.949,-0.0,-0.0,224.76,230.524
2013-12-31 05:00,-0.00169768,245.913,241.218,235.173,240.152,238.282,233.344,-0.0,-0.0,225.931,234.996
2013-12-31 06:00,-0.0,257.605,256.469,244.07,256.406,255.425,245.767,-0.0,-0.0,230.511,244.412
2013-12-31 07:00,0.00298954,273.586,267.764,251.429,268.69,265.65,251.291,-0.0,-0.0,231.394,248.133
2013-12-31 08:00,-0.00634752,272.836,265.092,250.051,265.654,261.299,247.142,-0.0,-0.0,228.748,243.937
2013-12-31 09:00,0.538379,272.58,265.846,249.669,265.31,261.121,246.869,0.569806,0.760937,228.488,243.457
2013-12-31 10:00,0.253902,275.02,259.871,245.723,259.421,255.235,240.207,0.283054,0.39731,227.147,239.922
2013-12-31 11:00,0.276746,270.434,255.587,243.509,254.263,252.536,241.519,0.297865,0.483016,226.778,237.608
2013-12-31 12:00,0.21029,275.707,260.692,245.587,258.865,255.614,242.384,0.212238,0.400823,226.871,238.85
2013-12-31 13:00,0.223605,279.667,264.021,248.9,263.217,260.584,247.551,0.197456,0.36008,227.329,241.98
2013-12-31 14:00,0.282629,281.346,263.712,248.771,264.444,262.537,249.305,0.222798,0.361584,228.575,245.23
2013-12-31 15:00,0.219946,289.514,275.176,255.858,274.933,270.96,252.335,0.151923,0.320217,230.266,246.707
2013-12-31 16:00,0.232751,284.57,262.458,246.533,260.524,255.235,237.525,0.239653,0.400286,228.224,240.576
2013-12-31 17:00,0.252865,258.576,211.184,220.298,211.428,210.576,211.146,0.699821,0.769657,209.926,210.353
2013-12-31 18:00,0.401375,264.739,208.734,219.409,207.269,206.895,208.318,0.817594,0.901449,207.105,207.678
2013-12-31 19:00,0.438457,268.073,224.95,227.058,224.072,222.462,220.86,0.830201,0.920783,219.863,222.956
2013-12-31 20:00,0.82235,280.239,215.218,222.659,212.997,210.931,212.411,1.07819,1.24115,213.541,215.332
2013-12-31 21:00,1.1666,285.202,232.839,230.743,230.294,226.426,222.692,1.11813,1.387,221.93,228.96
2013-12-31 22:00,0.0329102,247.601,243.496,236.943,242.515,240.35,233.185,-0.027865,-0.0,226.216,237.185
2013-12-31 23:00,-0.0,239.711,236.06,232.834,234.895,233.225,228.278,-0.0,-0.0,222.368,230.524
