# timestamp,IR_016,IR_039,IR_087,IR_097,IR_108,IR_120,IR_134,VIS006,VIS008,WV_062,WV_073
2016-02-01 00:00,-0.00181234,277.661,268.487,246.399,268.524,264.623,244.512,0.0,0.0,224.76,240.835
2016-02-01 01:00,0.0,272.58,260.036,243.084,256.789,250.156,234.916,0.0,0.00145651,222.692,234.542
2016-02-01 02:00,-0.00125804,265.791,248.38,236.625,243.438,237.345,226.402,0.0,0.0,220.101,229.489
2016-02-01 03:00,0.0,227.984,217.285,221.6,215.993,213.694,213.857,0.0,0.0,213.388,215.061
2016-02-01 04:00,0.0,225.382,218.474,222.027,218.13,216.652,216.071,0.0,0.0,215.593,217.418
2016-02-01 05:00,-0.00123586,222.276,220.379,222.449,220.184,219.472,217.445,0.0,0.0,217.36,219.843
2016-02-01 06:00,0.0,227.984,218.862,221.6,218.13,216.972,216.859,0.0,0.0,216.287,217.164
2016-02-01 07:00,-0.0017205,222.276,216.058,220.517,214.89,214.03,213.653,0.0,-0.00173694,213.995,214.511
2016-02-01 08:00,-0.00241192,232.213,225.282,224.507,223.758,222.169,219.362,0.0,0.0,217.752,222.096
2016-02-01 09:00,0.00439986,227.984,222.552,222.659,222.162,221.283,219.362,0.0,0.0,218.642,220.989
2016-02-01 10:00,-0.0937454,225.382,218.862,221.386,218.13,216.331,215.674,-0.185206,-0.189283,215.31,217.164
2016-02-01 11:00,0.658528,262.074,216.471,220.954,215.993,214.697,214.062,0.772026,0.90774,214.734,216.131
2016-02-01 12:00,0.546164,271.798,217.285,221.17,217.072,214.697,214.468,0.685946,0.784191,215.593,216.652
2016-02-01 13:00,0.539007,270.989,216.471,220.954,216.355,215.027,215.674,0.670191,0.756254,215.31,215.6
2016-02-01 14:00,0.427372,265.446,216.471,221.17,216.355,215.683,214.872,0.608507,0.683287,214.879,215.867
2016-02-01 15:00,0.405584,262.869,215.218,220.954,215.628,214.03,214.671,0.573692,0.643897,214.293,214.511
2016-02-01 16:00,0.375505,258.096,218.082,222.027,219.167,217.922,218.025,0.553054,0.619612,216.424,218.165
2016-02-01 17:00,0.226116,270.151,250.371,236.146,249.789,246.666,235.072,0.2807,0.296933,225.643,234.694
2016-02-01 18:00,0.416187,256.062,229.373,226.287,229.444,228.856,226.229,0.573053,0.650644,223.013,226.948
2016-02-01 20:00,0.732228,271.261,234.208,228.192,231.957,229.385,224.834,0.659271,0.801698,220.219,225.21
2016-02-01 21:00,0.754888,275.02,266.886,244.626,267.69,264.451,246.319,0.639163,1.06695,227.42,241.602
2016-02-01 22:00,0.0,262.475,252.853,236.784,252.059,249.955,237.827,0.0,0.0,225.156,237.043
2016-02-01 23:00,-0.00264131,267.444,256.118,238.195,255.244,252.144,238.876,0.0,0.0,225.254,235.887
2016-02-02 00:00,-0.00181781,254.396,242.142,231.625,240.87,238.747,230.44,0.0,0.0,224.156,231.031
2016-02-02 01:00,0.0,253.206,241.218,230.921,240.152,238.049,230.604,0.0,0.0,223.434,230.863
2016-02-02 02:00,-0.00125985,256.062,244.38,233.005,242.515,240.35,232.387,0.0,0.0,224.959,231.859
2016-02-02 03:00,0.0,285.512,284.071,253.741,286.585,283.773,257.777,0.0,0.0,229.007,249.825
2016-02-02 04:00,0.00117075,280.613,276.463,248.9,277.226,274.617,252.464,0.0,0.0,228.4,246.032
2016-02-02 05:00,-0.00123697,276.594,270.468,245.177,270.981,268.505,248.634,0.0,0.0,227.691,243.818
2016-02-02 06:00,0.00139847,282.581,281.86,251.552,284.361,282.321,257.777,0.0,0.0,230.018,251.252
2016-02-02 07:00,-0.00172288,282.408,279.58,250.051,281.943,279.959,255.658,0.0,0.0,229.263,250.646
2016-02-02 08:00,0.0,284.57,282.799,251.922,284.921,282.758,257.777,0.0,0.0,229.601,250.032
2016-02-02 09:00,0.0,273.586,264.021,241.207,263.217,259.321,242.097,0.0,0.0,225.058,240.053
2016-02-02 10:00,-0.130685,285.818,284.755,252.899,287.27,285.208,258.76,-0.221301,-0.230884,230.348,252.146
2016-02-02 11:00,0.250635,287.3,284.071,252.777,286.585,284.492,258.76,0.376677,0.322615,229.852,251.552
2016-02-02 12:00,0.304657,287.155,281.148,250.931,282.946,281.146,257.282,0.469934,0.450696,230.101,251.152
2016-02-02 13:00,0.105606,283.428,275.951,248.512,276.62,273.517,251.553,0.175257,0.144997,228.136,245.918
2016-02-02 14:00,0.0521073,285.045,279.702,250.303,281.51,278.307,254.773,0.104415,0.0806617,228.136,246.707
2016-02-02 15:00,0.0395955,285.202,280.429,251.799,282.66,279.511,254.773,0.0818021,0.0623595,229.093,248.987
2016-02-02 16:00,0.263896,262.869,237.591,230.565,235.155,233.722,227.431,0.333831,0.379013,222.368,228.423
2016-02-02 17:00,0.270699,262.869,238.83,230.565,237.702,235.193,228.782,0.365288,0.403097,223.642,230.183
2016-02-02 18:00,0.409772,258.576,223.252,223.694,222.806,221.875,220.302,0.534036,0.610395,219.744,220.535
2016-02-02 19:00,0.600078,259.954,222.552,223.489,222.485,221.875,221.23,0.759796,0.889268,220.337,221.878
2016-02-02 20:00,0.610443,258.576,231.997,227.628,231.957,230.946,226.574,0.637462,0.78062,223.642,227.323
2016-02-02 21:00,0.110205,269.283,261.501,242.513,261.791,257.856,243.808,0.373242,0.445034,229.601,242.478
2016-02-02 22:00,0.0,248.394,240.75,231.799,241.58,239.895,233.661,0.0,0.0,229.348,234.542
2016-02-02 23:00,-0.0026549,279.667,274.261,249.542,274.156,270.473,250.369,-0.0022479,-0.00268028,230.755,244.647
2016-02-03 00:00,-0.00182333,274.787,271.299,247.991,273.372,271.605,251.553,0.0,-0.00184076,230.916,246.929
2016-02-03 01:00,0.0,275.02,267.764,246.533,269.021,263.412,246.732,0.0,0.0,230.674,245.345
2016-02-03 02:00,0.00126171,286.717,285.994,256.32,288.897,286.343,259.977,0.0,-0.00127377,230.755,248.455
2016-02-03 03:00,-0.00117902,279.278,273.065,248.9,274.156,270.311,249.171,0.0,0.0,229.517,244.056
2016-02-03 04:00,0.0,276.376,270.049,247.597,270.332,265.65,247.279,0.0,0.0,229.093,242.725
2016-02-03 05:00,0.0,257.103,247.15,235.01,247.012,244.328,236.613,0.0,0.0,227.959,236.757
2016-02-03 06:00,0.0,280.427,275.306,249.669,275.857,272.724,251.553,0.0,0.0,229.178,243.336
2016-02-03 07:00,0.0,285.818,283.148,255.393,285.34,281.882,257.282,0.0,0.0,230.184,247.151
2016-02-03 08:00,0.0,261.251,260.854,242.513,263.92,263.237,249.705,0.0,0.0,231.315,246.929
2016-02-03 09:00,0.0,278.883,275.565,250.555,277.075,274.929,254.137,0.0,0.0,232.02,248.241
2016-02-03 10:00,-0.0343155,283.428,282.214,254.69,284.781,282.467,258.147,-0.232439,-0.173218,231.865,248.775
2016-02-03 11:00,0.384305,279.081,262.616,243.65,262.685,259.321,244.372,0.440852,0.463072,229.769,242.725
2016-02-03 12:00,0.293826,243.066,227.845,225.306,227.708,226.974,224.304,0.548335,0.602349,224.156,226.76
2016-02-03 13:00,0.32161,246.775,222.552,223.076,222.485,221.579,220.86,0.784884,0.88068,220.686,221.436
2016-02-03 14:00,0.259407,248.394,225.282,224.908,225.003,224.19,222.873,0.727739,0.797882,222.476,223.793
2016-02-03 15:00,0.242872,248.394,225.282,225.701,226.221,224.756,223.233,0.898671,0.988737,222.368,224.204
2016-02-03 16:00,0.261168,245.01,224.616,224.507,225.003,224.474,222.692,0.760053,0.846253,223.224,224.408
2016-02-03 17:00,0.309793,249.156,224.279,223.899,224.694,224.19,221.782,0.745562,0.832878,222.259,223.586
2016-02-03 18:00,0.413414,251.944,225.611,224.708,225.615,225.038,222.873,0.808298,0.921431,222.799,224.61
2016-02-03 19:00,0.385166,268.382,247.973,235.499,247.878,246.666,237.977,0.578225,0.656353,230.184,240.576
2016-02-03 20:00,0.637479,258.576,231.997,227.817,230.853,229.909,225.535,0.663003,0.810801,223.224,225.994
2016-02-03 21:00,0.0,248.394,248.38,235.499,249.157,248.327,239.47,0.367585,0.350632,228.921,239.922
2016-02-03 22:00,0.0,242.013,231.713,227.248,231.131,229.647,225.36,0.0,0.0,221.596,225.011
2016-02-03 23:00,-0.00533726,222.276,221.841,222.449,221.511,220.984,219.551,0.0,-0.00269414,219.624,220.763
2016-02-04 00:00,-0.00365781,249.89,246.523,234.845,246.355,245.186,235.691,-0.00154853,-0.00184639,226.871,237.468
2016-02-04 01:00,0.0,262.074,254.509,238.963,254.263,251.156,239.913,0.0,0.0,225.931,237.185
2016-02-04 02:00,-0.00126361,239.711,238.585,230.743,238.693,238.049,232.707,0.0,0.0,226.405,233.928
2016-02-04 03:00,0.0,256.062,247.15,235.337,247.012,244.328,235.382,0.0,0.0,225.546,235.444
2016-02-04 04:00,0.0,252.585,250.76,237.101,251.652,250.757,241.374,0.0,0.0,229.263,241.854
2016-02-04 05:00,-0.00123947,249.89,247.973,235.173,247.878,246.876,238.876,0.0,0.0,227.51,238.85
2016-02-04 06:00,0.00140171,252.585,246.313,234.845,246.794,244.758,235.846,0.0,0.0,225.156,235.887
2016-02-04 07:00,0.0,245.913,234.208,228.192,231.957,229.647,224.304,0.0,0.0,221.031,225.011
2016-02-04 08:00,0.0,237.078,229.97,226.287,228.871,227.517,224.834,0.0,0.0,221.819,226.76
2016-02-04 09:00,0.0,225.382,223.252,223.489,223.125,221.579,220.86,0.0,0.0,219.744,220.989
2016-02-04 10:00,0.0,232.213,224.616,223.694,224.694,223.905,221.415,-0.214728,-0.182879,221.596,223.999
2016-02-04 11:00,0.478135,243.066,223.252,222.659,223.125,222.169,221.046,0.794102,0.92828,220.101,221.878
2016-02-04 12:00,0.342666,248.394,231.713,226.866,231.957,231.459,227.601,0.708939,0.785138,224.258,229.137
2016-02-04 13:00,0.251016,254.966,246.733,234.183,247.229,246.666,237.373,0.596868,0.639874,227.51,238.303
2016-02-04 14:00,0.242772,256.589,240.277,231.274,240.392,239.438,233.026,0.443182,0.47628,227.055,236.033
2016-02-04 15:00,0.215137,254.966,244.815,233.513,244.8,243.896,236.153,0.533172,0.569142,227.51,237.608
2016-02-04 16:00,0.249114,253.206,234.477,228.378,233.842,232.976,227.94,0.610361,0.66489,224.56,230.354
2016-02-04 17:00,0.212788,262.074,251.339,237.101,251.856,250.557,241.519,0.505035,0.537901,228.312,240.576
2016-02-04 18:00,0.31971,265.095,243.94,233.005,243.438,241.251,233.661,0.427063,0.469113,225.156,232.988
2016-02-04 19:00,0.512387,267.123,243.049,232.319,242.747,241.698,234.916,0.684039,0.790981,227.42,236.325
2016-02-04 20:00,0.738143,262.074,234.477,228.564,234.107,233.225,228.109,0.79696,0.970259,224.56,230.524
2016-02-04 21:00,0.0716778,253.206,248.177,235.173,248.733,247.293,237.676,0.364137,0.434178,227.691,239.121
2016-02-04 22:00,-0.00549296,249.89,243.496,232.319,242.283,240.802,233.661,0.0,0.0,224.76,233.617
2016-02-04 23:00,0.0,233.989,229.673,226.092,229.444,228.324,225.185,0.0,0.0,223.013,227.323
2016-02-05 00:00,-0.00183453,233.989,229.373,226.092,229.729,229.121,225.535,0.0,-0.00185207,222.799,226.76
2016-02-05 01:00,0.0,261.666,258.534,240.32,260.341,258.957,245.628,0.0,0.0,227.42,242.354
2016-02-05 02:00,0.0,265.446,265.995,244.626,268.358,267.673,251.159,0.0,0.0,228.4,246.818
2016-02-05 03:00,-0.00118189,263.255,262.931,242.513,265.482,264.451,248.634,0.0,0.0,228.575,245.918
2016-02-05 04:00,0.0,259.954,260.201,241.061,262.685,262.185,248.094,0.0,0.0,228.921,245.23
2016-02-05 05:00,0.00124084,263.636,265.092,243.65,267.522,267.171,251.422,0.0,0.0,230.348,248.882
2016-02-05 06:00,0.0,280.982,280.066,252.168,282.517,279.81,257.034,0.0,0.0,231.076,249.303
2016-02-05 07:00,0.0,278.279,273.732,248.382,276.315,273.832,253.24,0.0,0.0,231.552,249.198
2016-02-05 08:00,-0.00243679,275.707,275.951,249.669,278.427,276.784,255.909,0.0,0.0,231.63,250.34
2016-02-05 09:00,0.0,273.831,270.049,246.667,272.582,269.821,252.075,0.0,0.0,232.097,249.198
2016-02-05 10:00,-0.230857,273.088,272.12,247.597,274.467,272.883,254.264,-0.456089,-0.427285,232.481,250.34
2016-02-05 11:00,0.490895,289.113,280.909,252.777,283.797,281.146,258.023,0.508004,0.471114,232.405,251.051
2016-02-05 12:00,0.085866,288.152,285.321,255.626,287.815,285.208,259.614,0.185517,0.125546,232.251,251.85
2016-02-05 13:00,0.249774,291.19,283.726,254.572,286.172,283.917,259.614,0.27669,0.258465,232.935,252.731
2016-02-05 14:00,0.0308546,287.729,285.882,255.858,288.493,286.06,260.219,0.0856306,0.0553771,233.896,254.256
2016-02-05 15:00,0.0453438,288.705,285.882,255.626,288.358,285.919,260.701,0.0807567,0.056827,234.686,255.275
2016-02-05 16:00,0.0790529,289.247,285.433,255.626,288.222,286.06,259.977,0.101057,0.0813735,235.108,255.639
2016-02-05 17:00,0.0783673,289.647,285.77,256.205,288.358,286.06,260.701,0.101648,0.0807998,235.386,255.548
2016-02-05 18:00,0.187578,291.315,284.869,255.51,287.407,285.208,260.098,0.190587,0.177411,236.475,255.821
2016-02-05 19:00,0.164137,291.065,285.882,255.742,288.222,286.06,260.219,0.191374,0.162989,236.808,255.821
2016-02-05 20:00,0.27386,290.558,286.328,256.32,288.897,286.767,260.701,0.289846,0.261666,237.072,256.001
2016-02-05 21:00,0.0610665,286.421,286.217,256.32,288.628,286.626,260.701,0.258524,0.246601,237.333,256.894
2016-02-05 22:00,-0.00555977,285.97,286.217,256.32,288.897,287.048,261.182,0.0,0.0,237.657,257.769
2016-02-05 23:00,-0.00269646,287.01,287.212,257.12,289.701,287.748,261.898,-0.00228309,0.0,237.785,258.372
2016-02-06 00:00,-0.00184021,287.155,287.322,257.459,290.101,288.445,262.136,-0.0015581,0.0,237.333,258.713
2016-02-06 01:00,-0.00145761,285.045,285.994,256.778,288.628,287.329,262.017,0.0,0.0,237.657,259.554
2016-02-06 02:00,0.0,287.3,287.76,257.572,290.5,288.861,262.492,0.0,0.0,238.294,259.97
2016-02-06 03:00,0.0,285.512,286.772,256.664,289.3,288.027,262.255,0.0,0.0,238.231,260.627
2016-02-06 04:00,0.0,286.864,287.978,257.459,290.632,289.413,262.965,0.0,0.0,237.333,260.871
2016-02-06 05:00,0.00124231,285.202,285.546,256.089,287.951,286.626,262.255,0.0,0.0,237.137,260.708
2016-02-06 06:00,0.0,278.482,280.429,253.261,283.372,282.758,260.34,0.0,0.0,236.139,260.217
2016-02-06 07:00,0.0,287.587,288.303,257.798,290.897,289.689,262.728,0.0,0.0,235.662,260.381
2016-02-06 08:00,0.0,287.01,287.322,257.346,290.101,288.861,261.898,0.0,0.0,235.525,259.471
2016-02-06 09:00,0.00452913,279.667,275.306,249.797,275.242,272.883,251.028,0.0,0.0,231.394,251.949
2016-02-06 10:00,-0.246846,281.346,277.224,251.18,279.022,276.323,254.264,-0.487677,-0.498412,232.709,254.068
2016-02-06 11:00,0.317475,289.514,284.528,255.51,286.997,285.493,260.822,0.420959,0.393078,234.897,259.638
2016-02-06 12:00,0.264763,293.124,282.331,254.099,284.781,282.758,259.249,0.276482,0.246505,233.01,257.769
2016-02-06 13:00,0.333429,285.97,272.256,248.382,273.686,272.405,253.111,0.364728,0.393068,230.674,253.309
2016-02-06 14:00,0.0255969,287.729,286.992,257.233,289.701,288.167,261.421,0.0780223,0.0482377,233.456,258.967
2016-02-06 15:00,0.0404771,287.155,284.755,255.858,286.997,284.349,259.005,0.0830434,0.061296,232.86,256.716
2016-02-06 16:00,0.0725292,286.569,281.624,254.099,283.372,281.146,256.909,0.108448,0.0934756,231.63,254.814
2016-02-06 17:00,0.225671,274.073,250.566,236.625,245.693,244.112,232.867,0.279588,0.294837,220.337,228.96
2016-02-06 18:00,0.188484,282.234,266.145,245.177,263.92,260.045,241.374,0.214448,0.220018,226.963,245.69
2016-02-06 19:00,0.47541,270.151,238.83,230.743,236.441,234.216,226.918,0.508815,0.566239,221.708,229.314
2016-02-06 20:00,0.395944,284.249,271.023,248.121,270.332,266.835,246.182,0.392483,0.419229,228.048,248.348
2016-02-06 21:00,0.0532237,274.551,266.293,245.587,264.095,261.299,243.808,0.270387,0.322395,225.835,243.577
2016-02-06 22:00,0.0,274.073,270.607,248.382,271.303,269.984,250.765,0.0,0.0,230.184,251.751
2016-02-06 23:00,-0.00271056,281.705,277.476,252.168,277.828,275.551,253.497,0.00229503,0.0,230.511,251.252
2016-02-07 00:00,-0.00184594,281.346,278.101,252.777,279.76,277.701,255.153,-0.00156295,0.0,231.156,253.785
2016-02-07 01:00,0.0,283.594,280.669,254.572,282.66,280.702,256.909,0.0,0.0,230.835,253.405
2016-02-07 02:00,0.0,286.864,286.772,258.691,289.434,287.609,262.136,0.0,0.0,232.86,258.114
2016-02-07 03:00,0.0,287.155,287.869,258.913,290.5,288.861,262.255,0.0,0.0,234.185,258.713
2016-02-07 04:00,0.0,287.729,288.087,259.244,291.029,289.276,262.255,0.0,0.0,233.677,258.372
2016-02-07 05:00,-0.00124387,287.444,288.195,259.244,291.029,289.689,262.728,0.0,0.0,234.472,258.2
2016-02-07 06:00,0.0,287.444,288.195,259.134,291.16,289.551,262.728,0.0,0.0,234.968,258.2
2016-02-07 07:00,0.0,286.864,287.978,258.913,290.897,289.551,262.847,0.0,0.0,235.455,258.543
2016-02-07 08:00,0.00245208,287.01,287.978,258.802,290.897,289.689,262.61,0.0,0.0,236.274,259.22
2016-02-07 09:00,0.0,287.155,287.541,258.691,290.764,288.861,262.728,-0.0038614,0.0,236.808,259.051
2016-02-07 10:00,-0.177367,286.864,287.212,258.802,290.101,288.861,262.136,-0.525618,-0.447657,237.657,259.304
2016-02-07 11:00,0.0591908,287.729,287.978,259.134,290.897,289.689,263.2,0.245572,0.161343,237.849,259.471
2016-02-07 12:00,0.078907,288.977,286.772,258.134,289.032,287.469,262.136,0.180636,0.147521,237.849,259.22
2016-02-07 13:00,0.0968403,290.813,285.882,258.022,288.628,286.907,261.54,0.137821,0.0998461,238.168,259.721
2016-02-07 14:00,0.032276,288.012,287.102,258.691,289.568,287.888,262.017,0.0805458,0.0480193,238.041,259.804
2016-02-07 15:00,0.0325508,288.291,286.992,259.464,289.568,287.748,262.136,0.069558,0.0485105,238.357,260.381
2016-02-07 16:00,0.0583802,289.779,287.212,259.244,289.835,288.306,262.728,0.0819504,0.0620403,238.919,260.871
2016-02-07 17:00,0.104036,289.779,286.439,258.802,288.897,287.609,262.255,0.125839,0.113366,239.653,261.194
2016-02-07 18:00,0.396333,291.809,277.098,253.621,280.054,279.959,259.614,0.366983,0.39618,239.653,260.952
2016-02-07 19:00,0.379133,290.041,279.58,254.808,282.231,281.293,259.735,0.401826,0.42826,240.014,260.871
2016-02-07 20:00,0.677149,285.512,277.601,253.501,280.054,279.959,259.492,0.633905,0.712508,240.782,261.033
2016-02-07 21:00,0.141582,273.586,276.591,252.534,278.873,278.609,258.882,0.519466,0.524095,240.899,261.675
2016-02-07 22:00,-0.00569751,278.279,279.213,254.336,282.087,281.441,260.219,0.0,0.0,241.874,262.072
2016-02-07 23:00,-0.00272478,282.408,282.566,257.006,285.34,284.205,261.301,0.0,-0.00275083,242.378,262.309
2016-02-08 00:00,-0.00185171,286.271,286.882,259.464,289.434,287.748,262.61,-0.00156784,-0.00186942,243.147,263.167
2016-02-08 01:00,0.0,287.444,288.303,260.011,290.897,289.413,263.2,0.0,0.0,243.418,263.167
2016-02-08 02:00,0.0,286.421,287.541,259.683,290.234,288.999,262.965,0.0,0.0,243.418,263.244
2016-02-08 03:00,0.0,287.3,287.651,259.134,290.101,288.584,263.083,0.0,0.0,243.418,263.322
2016-02-08 04:00,0.0,285.357,285.321,258.246,287.951,286.485,261.779,0.0,0.0,244.058,263.322
2016-02-08 05:00,0.0,286.121,286.661,258.58,289.032,287.329,262.136,0.0,0.0,244.111,263.476
2016-02-08 06:00,-0.00140977,282.581,282.448,256.434,284.641,283.773,260.701,0.0,0.0,244.111,263.629
2016-02-08 07:00,0.0,287.444,287.978,259.354,290.5,288.999,263.436,0.0,0.0,244.479,263.934
2016-02-08 08:00,0.0,283.261,283.611,257.459,286.033,285.065,261.54,0.0,0.0,244.531,264.01
2016-02-08 09:00,0.00459393,273.338,275.565,252.534,277.978,278.307,259.249,0.0,0.0,244.997,264.086
2016-02-08 10:00,-0.289476,278.482,277.601,253.98,280.347,280.108,260.098,-0.653597,-0.633194,245.405,264.389
2016-02-08 11:00,0.5906,285.202,276.845,253.381,279.466,279.511,259.735,0.584228,0.631666,245.304,264.464
2016-02-08 12:00,0.113214,291.315,285.208,258.358,287.407,286.767,262.255,0.179427,0.149465,245.304,265.063
2016-02-08 13:00,0.19268,294.268,283.264,257.12,286.172,284.636,261.66,0.20306,0.175898,245.355,264.69
2016-02-08 14:00,0.24012,293.007,284.185,257.346,286.447,285.635,262.017,0.250557,0.247537,245.405,265.063
2016-02-08 15:00,0.0895096,289.647,287.322,259.244,289.434,288.584,263.2,0.113681,0.101271,244.997,265.063
2016-02-08 16:00,0.0107065,288.43,288.843,260.445,291.423,290.511,264.255,0.0453259,0.0247059,245.099,265.286
2016-02-08 17:00,0.0821729,289.647,287.212,259.683,289.701,288.445,263.318,0.101581,0.087936,244.997,265.286
2016-02-08 18:00,0.145615,288.977,285.882,258.913,288.358,287.188,262.728,0.17754,0.178368,244.997,265.286
2016-02-08 19:00,0.0394813,289.247,288.628,260.769,290.897,289.551,263.436,0.0936004,0.0637739,244.79,265.507
2016-02-08 20:00,0.240236,291.065,288.412,260.769,290.5,289.551,263.436,0.279186,0.261554,244.997,265.581
2016-02-08 21:00,0.0848314,287.155,288.195,260.876,290.764,289.551,263.787,0.359133,0.385391,244.426,265.655
2016-02-08 23:00,-0.00273912,285.045,285.546,259.244,287.407,286.06,262.255,0.0,0.0,243.526,263.934
2016-02-09 00:00,0.0,284.087,283.611,258.246,286.033,284.636,261.898,-0.00157278,-0.0018753,242.155,263.244
2016-02-09 01:00,-0.00146706,287.871,288.195,261.305,290.764,288.861,262.965,0.0,0.0,240.782,263.476
2016-02-09 02:00,-0.0012738,286.421,286.661,260.337,288.358,286.767,262.136,0.0,0.0,237.785,260.952
2016-02-09 03:00,-0.00118829,286.864,286.992,260.661,289.032,287.609,262.136,0.0,0.00119965,238.357,262.388
2016-02-09 04:00,0.0,279.473,274.916,252.29,274.778,272.883,252.464,0.0,0.0,232.557,251.751
2016-02-09 05:00,0.0,280.799,274.129,252.656,274.623,271.605,250.896,0.0,0.0,232.86,254.068
2016-02-09 06:00,0.0,281.883,277.601,254.69,278.278,276.169,254.773,0.0,0.0,232.251,254.722
2016-02-09 07:00,0.0,284.73,282.566,257.572,283.797,281.735,258.147,0.0,0.0,233.085,258.798
2016-02-09 08:00,0.00246936,283.76,283.264,258.134,285.895,284.922,262.017,0.0,0.0,236.408,262.23
2016-02-09 09:00,-0.00462938,286.864,286.992,259.902,289.434,288.306,263.083,0.0,0.0,238.041,262.857
2016-02-09 10:00,-1.1151,281.526,281.978,257.12,284.641,283.629,262.017,-1.03407,-1.28658,237.528,262.309
2016-02-09 11:00,0.473596,290.301,286.105,259.574,288.493,287.188,262.728,0.513467,0.478123,236.874,261.914
2016-02-09 12:00,0.0576637,288.43,288.195,260.661,290.632,289.137,263.553,0.151354,0.0960547,237.398,261.755
2016-02-09 13:00,0.0611721,289.779,287.651,260.553,290.101,288.861,263.2,0.120853,0.0885182,237.977,262.072
2016-02-09 14:00,0.0117825,288.012,288.951,261.731,291.555,290.238,263.67,0.0627074,0.033986,238.546,263.399
2016-02-09 15:00,0.0245841,289.113,288.52,261.412,291.292,290.238,264.022,0.0559412,0.0372287,238.168,262.935
2016-02-09 16:00,0.00304543,288.43,289.165,262.049,291.948,290.648,264.837,0.0399677,0.0215218,236.675,262.935
2016-02-09 17:00,0.00817813,288.705,288.843,261.944,291.686,290.375,264.255,0.0415464,0.0231177,235.317,261.914
2016-02-09 18:00,0.0173775,289.247,288.951,262.049,291.555,290.238,264.022,0.058854,0.0350872,234.041,261.355
2016-02-09 19:00,0.073171,290.685,288.52,262.261,291.292,289.964,264.022,0.115057,0.0870616,233.53,261.033
2016-02-09 20:00,0.698112,288.291,281.978,258.134,285.061,284.349,262.017,0.662021,0.770565,234.185,260.627
2016-02-09 21:00,0.539531,284.249,282.916,258.691,285.34,283.917,261.301,0.45682,0.622502,233.234,258.713
2016-02-09 22:00,0.0,277.24,278.721,256.32,281.655,281.293,261.062,0.0,0.0,233.896,259.804
2016-02-09 23:00,-0.00275358,288.012,288.087,261.944,290.897,289.137,263.436,0.0,0.0,232.935,259.804
2016-02-10 00:00,-0.00186342,285.202,284.3,259.793,286.722,285.065,261.421,-0.00157776,-0.00188124,232.175,258.798
2016-02-10 01:00,-0.0014703,286.271,286.105,260.553,288.358,287.048,261.779,0.0,0.0,230.916,257.769
2016-02-10 02:00,-0.00127598,287.444,287.541,261.625,290.367,288.999,263.67,0.0,0.0,231.865,259.471
2016-02-10 03:00,-0.00119004,277.24,276.718,254.69,278.873,278.004,257.406,0.0,0.0,231.709,257.07
2016-02-10 04:00,0.0,288.012,288.736,262.155,291.292,289.826,264.138,0.0,0.0,233.603,260.627
2016-02-10 05:00,0.0,288.012,288.736,262.261,291.423,289.826,263.905,0.0,0.0,233.308,260.135
2016-02-10 06:00,0.0,287.871,288.52,262.049,290.897,289.413,264.138,0.0,0.0,232.481,259.471
2016-02-10 07:00,0.0,281.526,281.267,257.91,283.23,282.175,260.461,0.0,0.0,230.018,256.091
2016-02-10 08:00,-0.00247877,284.888,286.105,260.553,288.493,287.329,262.965,0.0,0.0,231.709,258.543
2016-02-10 09:00,0.0,287.3,287.76,261.838,290.5,289.137,263.318,0.0,0.0,232.784,258.628
2016-02-10 10:00,-0.237123,285.512,286.217,261.198,288.763,287.748,263.2,-0.752893,-0.718168,232.86,258.798
2016-02-10 11:00,0.10266,288.977,289.058,262.261,291.686,290.375,264.255,0.275253,0.184251,233.382,259.135
2016-02-10 12:00,0.0171796,288.568,289.379,263.099,292.34,291.193,264.837,0.121216,0.0635941,233.823,259.387
2016-02-10 13:00,0.0121697,288.977,288.736,262.261,291.555,290.375,264.372,0.0841501,0.0450489,234.113,259.135
2016-02-10 14:00,0.0117279,288.291,288.52,262.681,291.16,289.826,263.787,0.0652543,0.0372115,233.75,258.713
2016-02-10 15:00,0.238643,292.534,281.267,258.691,284.501,283.917,262.136,0.20983,0.222392,234.401,258.798
2016-02-10 16:00,0.0333514,289.247,287.432,262.155,289.968,288.445,263.436,0.07188,0.0489749,234.329,258.967
2016-02-10 17:00,0.415107,285.512,278.721,257.006,281.655,281.588,261.062,0.529273,0.575202,234.472,258.713
2016-02-10 18:00,0.370615,291.315,279.336,257.346,282.374,281.882,261.182,0.359324,0.383851,234.543,258.543
2016-02-10 19:00,0.664264,288.841,274.261,254.336,276.468,275.551,256.41,0.659099,0.728245,232.709,255.183
2016-02-10 20:00,0.91527,289.91,277.224,255.858,280.347,280.406,260.701,0.790535,0.928663,234.113,257.769
2016-02-10 21:00,0.105989,277.451,278.101,256.664,281.51,281.146,260.822,0.418789,0.463675,234.257,257.769
2016-02-10 22:00,0.00591466,288.152,288.412,262.786,291.029,289.689,263.67,0.0,0.0059712,234.543,258.028
2016-02-10 23:00,-0.00276815,287.729,288.087,262.681,291.029,289.551,264.138,0.0,0.0,234.615,258.372
2016-02-11 00:00,-0.00186935,287.444,287.978,262.681,290.632,289.413,264.138,-0.00158278,-0.00188722,234.185,257.942
2016-02-11 01:00,0.0,288.152,288.843,263.203,291.686,290.511,264.488,0.0,0.0,234.257,258.028
2016-02-11 02:00,-0.00127821,287.871,288.628,262.995,291.555,290.375,264.255,0.0,0.0,234.401,257.682
2016-02-11 03:00,-0.00119184,288.012,288.52,262.786,291.555,290.238,264.255,0.0,0.0,233.968,257.158
2016-02-11 04:00,0.0,288.012,288.736,262.786,291.423,290.238,264.372,0.0,0.0,233.968,257.333
2016-02-11 05:00,-0.00125106,287.01,287.869,262.049,290.897,289.689,264.255,0.0,0.0,234.185,257.508
2016-02-11 06:00,0.0,285.97,286.55,261.198,289.3,288.027,263.318,0.0,0.0,234.329,257.246
2016-02-11 07:00,0.00175436,287.3,287.651,261.625,290.367,288.999,263.2,0.0,0.0,234.686,257.421
2016-02-11 08:00,0.0,286.569,287.212,261.731,289.968,288.306,263.436,0.0,0.0,234.686,257.333
2016-02-11 09:00,0.0,277.869,279.336,257.233,282.374,281.882,261.182,0.0,0.0,235.178,257.333
2016-02-11 10:00,-0.606578,286.121,286.55,261.091,289.032,287.748,263.67,-1.08424,-0.952586,235.799,258.028
2016-02-11 11:00,0.24213,289.514,286.661,261.198,289.166,287.888,262.847,0.367113,0.289923,235.867,258.543
2016-02-11 12:00,0.565799,290.558,277.224,255.974,280.347,279.81,260.219,0.556096,0.602782,235.936,258.2
2016-02-11 13:00,0.411561,293.472,281.978,258.58,284.781,283.773,261.779,0.420211,0.411422,235.867,258.457
2016-02-11 14:00,0.173432,291.563,285.882,260.984,288.358,287.048,263.083,0.208971,0.202027,235.247,258.713
2016-02-11 15:00,0.0578754,290.429,287.978,262.155,290.632,289.413,264.372,0.0954269,0.0707294,235.247,258.882
2016-02-11 16:00,0.0316948,289.514,288.628,262.471,291.423,290.375,264.138,0.0690067,0.0487585,235.038,259.22
2016-02-11 17:00,0.0469858,290.041,288.736,262.366,291.423,290.375,264.605,0.0809374,0.0621562,235.317,259.471
2016-02-11 18:00,0.127963,292.053,288.195,262.049,290.897,289.413,264.372,0.148773,0.138827,235.662,259.721
2016-02-11 19:00,0.193251,293.24,288.736,262.681,291.423,290.375,264.138,0.211622,0.1977,235.593,259.804
2016-02-11 20:00,0.586468,293.816,287.102,261.625,289.835,288.999,264.138,0.492712,0.536998,235.593,259.721
2016-02-11 21:00,0.163161,287.444,287.76,261.731,290.367,289.276,264.488,0.359185,0.39533,235.386,259.387
2016-02-11 22:00,0.0,286.421,287.322,261.519,289.968,288.861,264.138,0.0,0.0,235.731,259.471
2016-02-11 23:00,-0.00278284,285.97,287.102,261.519,289.968,289.137,264.255,-0.00235623,0.0,235.386,259.721
2016-02-12 00:00,0.0,286.717,287.651,261.731,290.367,289.276,264.837,-0.00158784,-0.00189326,235.731,259.721
2016-02-12 01:00,0.0,285.97,286.992,261.412,289.701,288.722,264.138,0.0,0.0,236.004,260.052
2016-02-12 02:00,0.0,286.121,287.322,261.519,290.101,288.999,264.372,0.0,0.0,236.071,259.804
2016-02-12 03:00,0.0,287.729,288.628,262.471,291.16,289.964,264.255,0.0,0.0,236.274,259.721
2016-02-12 04:00,0.00118546,287.871,288.628,262.576,291.686,290.375,264.022,0.0,0.0,236.207,259.804
2016-02-12 05:00,-0.00125311,287.155,287.322,261.838,290.101,288.584,264.022,0.0,0.0,235.799,259.135
2016-02-12 06:00,0.00142005,281.883,282.916,259.244,285.618,285.065,261.898,0.0,0.0,236.004,259.22
2016-02-12 07:00,0.0,285.818,286.661,260.984,289.3,288.027,263.318,0.0,0.0,236.341,259.471
2016-02-12 08:00,0.0,285.818,286.882,261.412,289.701,288.445,263.787,0.0,0.0,235.799,259.22
2016-02-12 09:00,0.00474889,286.271,287.432,261.625,290.101,288.861,263.67,0.0,0.0,236.274,259.471
2016-02-12 10:00,-0.314006,287.729,288.303,261.838,291.292,289.964,264.255,-1.12994,-0.951024,236.408,259.304
2016-02-12 11:00,0.0944947,288.705,288.736,262.155,291.555,290.238,263.787,0.287089,0.196408,236.274,259.387
2016-02-12 12:00,0.0677527,289.247,288.412,262.049,291.16,290.101,263.553,0.174489,0.122551,236.341,259.051
2016-02-12 13:00,0.0341118,288.705,288.52,262.366,291.555,290.238,263.905,0.112132,0.0729274,236.274,259.22
2016-02-12 14:00,0.0282168,288.977,288.52,262.155,291.555,290.375,263.905,0.0829163,0.0536218,236.207,259.22
2016-02-12 15:00,0.018196,288.705,288.843,262.155,291.817,290.511,264.255,0.0603422,0.0382707,235.799,259.804
2016-02-12 16:00,0.0165289,288.705,289.058,262.576,291.817,290.511,264.605,0.0547078,0.0348909,236.207,260.135
2016-02-12 17:00,0.0258019,289.247,288.843,262.576,291.686,290.238,264.721,0.0628084,0.0439569,236.408,260.299
2016-02-12 18:00,0.121578,291.563,287.869,261.625,290.764,289.551,264.255,0.143151,0.126576,236.341,260.463
2016-02-12 19:00,0.140742,292.053,288.628,262.471,291.292,290.375,264.372,0.168999,0.149838,236.742,260.545
2016-02-12 20:00,0.283171,292.294,289.165,262.681,291.817,290.784,264.488,0.300652,0.285878,236.874,260.789
2016-02-12 21:00,0.333673,288.291,288.843,262.471,291.686,290.784,264.138,0.385255,0.428735,236.94,260.952
2016-02-12 22:00,0.0,287.444,288.52,262.049,291.292,290.375,264.138,0.0,0.0,237.006,260.871
2016-02-12 23:00,-0.00279764,287.01,287.869,261.731,290.632,289.689,264.255,-0.00236876,-0.00282438,237.463,261.033
2016-02-13 00:00,-0.00188137,287.871,288.736,262.786,291.423,290.375,264.605,-0.00159295,-0.00189935,237.268,261.113
2016-02-13 01:00,0.0,287.871,288.843,262.995,291.686,290.375,264.138,0.0,0.0,236.874,260.789
2016-02-13 02:00,0.0,287.871,288.843,262.786,291.555,290.511,264.138,0.0,0.0,236.94,260.871
2016-02-13 03:00,0.0,287.587,288.736,262.786,291.423,290.238,263.787,0.0,0.0,236.94,260.463
2016-02-13 04:00,0.0,287.729,288.628,262.471,291.423,289.964,263.67,0.0,0.0,236.542,260.135
2016-02-13 05:00,0.00125525,287.155,287.978,261.944,290.764,289.276,263.905,0.0,0.0,236.609,260.052
2016-02-13 06:00,0.0,283.76,284.642,260.228,287.679,286.343,262.61,0.0,0.0,236.808,260.381
2016-02-13 07:00,0.0,287.729,288.52,262.366,291.029,289.689,264.022,0.0,0.0,236.139,260.789
2016-02-13 08:00,0.0,288.012,288.303,261.731,291.16,289.689,264.022,0.0,0.0,236.542,260.789
2016-02-13 09:00,-0.00479339,287.444,288.412,262.366,291.423,290.101,264.255,0.0,0.0,236.742,261.355
2016-02-13 10:00,-0.378297,287.871,288.736,261.944,291.555,290.375,264.255,-1.36129,-1.14574,237.137,261.755
2016-02-13 11:00,0.0548617,288.43,289.272,262.366,292.209,291.193,264.953,0.232256,0.144004,237.333,262.23
2016-02-13 12:00,0.0252247,288.43,288.843,262.471,291.817,290.511,263.67,0.132893,0.0820567,237.592,262.072
2016-02-13 13:00,0.0199567,288.568,288.951,262.471,291.817,290.648,263.905,0.0912455,0.0543982,238.608,262.388
2016-02-13 14:00,0.0132161,288.43,288.951,262.366,291.817,290.648,264.138,0.0657416,0.0366917,238.168,262.072
2016-02-13 15:00,0.00905796,288.43,288.843,262.576,291.948,290.648,264.138,0.0498508,0.0274337,238.041,261.914
2016-02-13 16:00,0.0149604,288.841,288.843,261.944,291.817,290.784,264.138,0.0481343,0.0302068,238.168,261.755
2016-02-13 17:00,0.0144461,288.568,288.736,262.366,291.555,290.375,264.372,0.050285,0.0291684,238.168,261.275
2016-02-13 18:00,0.0245646,289.247,288.843,262.576,291.817,290.784,263.905,0.0639965,0.0419683,238.231,261.275
2016-02-13 19:00,0.0533732,289.514,289.165,262.049,291.817,290.784,264.488,0.107598,0.0795422,237.913,261.275
2016-02-13 20:00,0.17335,290.429,288.628,262.366,291.423,290.101,264.138,0.229571,0.192956,238.041,261.033
2016-02-13 21:00,0.311884,288.152,288.52,262.155,291.292,290.101,263.905,0.384105,0.429362,238.671,261.355
2016-02-13 22:00,0.00614477,287.871,288.736,262.366,291.423,290.101,263.787,0.0,0.0,238.357,261.595
2016-02-13 23:00,-0.00281255,277.24,278.845,256.892,282.374,282.467,261.062,-0.00238138,-0.00283943,238.42,261.355
2016-02-14 00:00,-0.00188745,288.152,288.628,262.049,291.16,289.964,264.255,-0.00159811,-0.003811,238.294,261.113
2016-02-14 01:00,0.0,285.665,286.772,261.305,289.434,288.445,263.318,0.0,0.0,238.294,261.033
2016-02-14 02:00,0.0,286.121,287.322,261.412,289.835,288.584,263.67,0.0,0.0,238.104,260.871
2016-02-14 03:00,-0.00119761,280.239,282.096,258.469,284.781,284.349,262.017,0.0,0.0,238.857,260.871
2016-02-14 04:00,0.0,281.165,282.331,258.802,285.201,284.636,261.66,0.0,0.0,239.227,261.194
2016-02-14 05:00,0.00125749,276.155,278.598,256.778,281.799,281.882,261.182,0.0,0.0,239.532,260.789
2016-02-14 06:00,0.0,276.155,278.598,256.32,281.655,281.735,260.461,0.0,0.0,240.014,261.355
2016-02-14 07:00,0.00176912,279.278,280.669,258.022,283.372,283.194,261.062,0.0,0.0,240.134,261.033
2016-02-14 08:00,0.0,277.24,279.213,256.892,282.517,281.882,260.822,0.0,0.0,240.43,260.545
2016-02-14 09:00,-0.00484038,277.026,279.336,256.892,282.517,282.321,260.942,0.0,0.0,240.312,260.463
2016-02-14 10:00,-1.31836,278.684,279.702,257.459,283.23,283.339,260.461,-2.43547,-2.17795,240.665,260.463
2016-02-14 11:00,0.346496,290.685,285.208,260.337,287.951,286.626,261.898,0.39881,0.349808,239.894,260.381
2016-02-14 12:00,0.050083,288.291,288.303,262.155,290.897,289.551,262.965,0.150774,0.0983147,239.653,260.545
2016-02-14 13:00,0.0277863,288.43,288.195,261.838,290.897,289.551,262.847,0.100829,0.0641188,239.043,260.789
2016-02-14 14:00,0.036173,288.568,287.978,261.625,290.632,289.276,262.61,0.0863141,0.059758,239.104,260.952
2016-02-14 15:00,0.330664,288.43,279.823,257.006,282.946,282.758,260.701,0.321969,0.34293,238.857,259.97
2016-02-14 16:00,0.125118,289.779,285.321,260.119,287.815,286.626,262.017,0.147556,0.135337,239.104,260.217
2016-02-14 17:00,0.0766907,290.041,286.661,260.553,289.166,287.609,262.017,0.104165,0.0790368,238.733,259.804
2016-02-14 18:00,0.156014,293.124,285.321,260.011,288.358,286.767,261.66,0.154378,0.134733,238.483,259.22
2016-02-14 19:00,0.126229,291.065,287.76,260.984,290.367,288.861,262.728,0.162455,0.137631,238.42,258.798
2016-02-14 20:00,0.334131,292.174,287.76,261.412,290.632,289.276,262.847,0.335023,0.324009,237.849,258.2
2016-02-14 21:00,0.346178,288.152,287.76,261.519,291.029,289.689,262.847,0.360749,0.403255,237.137,257.421
2016-02-14 22:00,0.0,287.01,287.322,260.984,290.367,288.584,262.373,0.0,0.0,236.808,256.805
2016-02-14 23:00,0.0,286.864,286.882,260.876,289.835,288.027,261.779,-0.00239409,-0.00285459,236.408,256.539
2016-02-15 00:00,-0.00189359,287.3,286.992,261.198,289.968,287.888,261.779,-0.0016033,-0.0019117,236.609,255.821
2016-02-15 01:00,0.00148721,286.421,286.439,260.984,289.3,287.469,262.373,0.0,0.0,235.799,255.821
2016-02-15 02:00,0.0,279.278,280.066,257.233,283.372,282.175,259.856,0.0,0.0,235.455,255.091
2016-02-15 03:00,0.0,286.569,286.882,261.412,289.568,287.748,261.779,0.0,0.0,235.731,255.275
2016-02-15 04:00,0.0011913,282.923,284.071,259.354,287.134,285.777,261.421,0.0,0.0,234.968,254.256
2016-02-15 05:00,0.0,285.665,284.755,260.228,287.27,285.065,259.614,0.0,0.0,234.472,252.342
2016-02-15 06:00,-0.00142928,286.717,287.432,261.838,290.5,288.722,262.255,0.0,0.0,235.662,253.88
2016-02-15 08:00,0.0,285.97,286.661,261.625,289.835,288.167,262.017,0.0,0.0,235.247,254.349
2016-02-15 09:00,0.00488996,284.249,282.331,258.913,284.361,282.321,257.777,0.0,0.0,233.823,251.751
2016-02-15 10:00,-2.14891,283.093,280.429,257.685,282.517,280.702,257.777,-3.21908,-3.17074,233.968,251.652
2016-02-15 11:00,0.614343,287.444,282.214,259.024,285.479,284.349,260.34,0.646812,0.647182,235.038,253.595
2016-02-15 12:00,0.505443,288.568,280.187,257.685,283.514,282.904,259.492,0.516823,0.524216,234.472,252.731
2016-02-15 13:00,0.0296069,288.152,286.992,261.944,289.835,287.469,261.421,0.0935878,0.0557946,233.677,252.439
2016-02-15 14:00,0.0343655,285.665,282.566,259.024,285.061,282.904,257.777,0.0872916,0.0611276,232.709,250.34
2016-02-15 15:00,0.0508782,282.753,276.591,255.393,277.377,274.46,253.368,0.0962931,0.081579,230.996,246.707
2016-02-15 16:00,0.100846,275.932,265.092,247.991,264.095,261.831,244.792,0.155704,0.149721,229.935,241.602
2016-02-15 17:00,0.0477126,285.045,281.029,257.346,283.938,280.998,256.909,0.0781031,0.0594081,230.511,248.133
2016-02-15 18:00,0.0542284,287.587,284.755,260.011,287.407,284.779,258.638,0.0918302,0.0717372,231.943,250.748
2016-02-15 19:00,0.0652067,289.247,287.432,260.984,290.764,288.861,261.54,0.116791,0.0860854,232.02,251.152
2016-02-15 20:00,0.0869907,287.587,286.661,260.661,290.101,288.027,261.301,0.132579,0.109778,231.709,250.849
2016-02-15 21:00,0.351618,247.601,234.745,231.274,233.842,232.221,228.278,0.340245,0.405691,224.156,226.948
2016-02-15 22:00,0.0,264.739,255.05,241.646,254.461,251.947,239.173,0.0,0.0,226.963,237.468
2016-02-15 23:00,-0.00284269,285.512,283.956,257.91,286.447,283.917,258.515,0.0,-0.00286986,230.916,250.135
2016-02-16 00:00,-0.00379957,280.613,274.655,252.656,274.933,272.246,251.159,-0.00321709,-0.00191795,228.575,245.114
2016-02-16 01:00,0.0,267.444,258.703,242.942,258.116,255.803,242.527,0.0,0.0,229.007,239.523
2016-02-16 02:00,0.00129017,262.074,255.409,241.646,256.021,253.51,242.527,0.0,0.0,229.852,242.478
2016-02-16 03:00,0.0,284.73,283.38,256.778,285.618,283.339,258.27,0.0,0.0,229.178,248.241
2016-02-16 04:00,0.0,284.087,280.669,255.16,282.517,279.361,255.406,0.0,0.0,228.835,246.595
2016-02-16 05:00,0.00252459,264.377,261.34,243.93,261.971,260.405,246.457,0.0,0.0,229.178,241.854
2016-02-16 06:00,0.0,284.888,284.071,256.892,286.447,284.061,259.37,0.0,0.0,230.43,249.303
2016-02-16 07:00,0.0,280.239,279.823,254.217,282.374,280.702,257.406,0.0,-0.00179724,230.184,248.882
2016-02-16 08:00,-0.00254667,286.271,285.208,257.233,287.543,284.779,259.735,0.0,0.0,231.156,249.928
2016-02-16 09:00,-0.00494225,284.087,283.032,255.858,285.618,283.194,258.27,0.0,0.0,232.02,249.408
2016-02-16 10:00,-2.97897,284.087,283.611,256.778,286.447,284.061,259.127,-5.27387,-4.92128,232.328,249.513
2016-02-16 11:00,0.115953,288.152,285.994,258.469,289.032,286.626,259.856,0.254369,0.170272,233.159,250.032
2016-02-16 12:00,0.246739,290.301,284.414,257.91,287.27,285.065,259.977,0.2948,0.265704,233.308,250.135
2016-02-16 13:00,0.100105,289.514,285.77,258.469,288.763,286.485,260.461,0.149575,0.112952,234.185,250.849
2016-02-16 14:00,0.0863212,288.977,285.994,259.024,289.3,287.188,260.581,0.121354,0.0986563,234.615,251.152
2016-02-16 15:00,0.0774726,288.012,285.77,258.58,289.166,287.329,260.581,0.0983939,0.0782132,234.472,251.652
2016-02-16 16:00,0.0620181,288.705,285.994,259.354,289.434,287.329,260.822,0.083767,0.0670832,234.756,251.949
2016-02-16 17:00,0.136157,289.113,284.869,258.802,287.815,286.06,260.461,0.150137,0.134261,234.827,252.146
2016-02-16 18:00,0.0260453,288.012,286.661,259.574,289.568,287.329,261.182,0.0645823,0.0394414,235.867,251.949
2016-02-16 19:00,0.231726,289.91,284.528,258.802,287.27,285.208,259.614,0.246835,0.22891,235.317,251.85
2016-02-16 20:00,0.477749,288.291,283.611,258.58,286.033,283.917,259.614,0.462817,0.464935,235.936,252.146
2016-02-16 21:00,0.190215,286.121,284.642,259.024,287.134,284.779,259.249,0.362374,0.336059,236.475,252.439
2016-02-16 22:00,-0.00638825,286.271,285.77,259.464,288.087,285.777,260.34,0.0,0.0,237.203,253.5
2016-02-16 23:00,0.0,283.261,282.096,257.346,285.061,283.339,259.37,-0.0024198,-0.00288524,237.463,253.785
2016-02-17 00:00,-0.00190603,285.512,284.3,258.58,286.722,284.349,259.37,-0.00161384,-0.00384851,236.139,253.213
2016-02-17 01:00,0.00149432,283.261,282.096,257.233,284.781,282.904,259.127,0.0,0.0,235.455,252.634
2016-02-17 02:00,0.0,284.087,284.3,258.58,287.134,285.208,260.34,0.0,0.0,234.329,252.439
2016-02-17 03:00,0.0,286.864,286.661,260.228,289.568,287.329,260.701,0.0,0.0,232.935,252.342
2016-02-17 04:00,0.0,285.512,285.208,258.802,288.222,286.202,260.461,0.0,-0.00120701,232.251,252.146
2016-02-17 05:00,0.0,285.818,285.208,258.246,287.815,285.35,260.219,0.0,0.0,232.251,252.146
2016-02-17 06:00,0.0,284.57,284.982,257.91,288.222,286.202,260.701,0.0,0.0,232.02,252.047
2016-02-17 07:00,0.0,285.818,285.433,257.572,288.358,286.06,260.581,0.0,0.0,232.784,252.244
2016-02-17 08:00,0.0,286.569,285.882,257.572,288.628,286.06,260.34,0.0,0.0,233.603,252.244
2016-02-17 09:00,-0.00499736,286.421,284.982,257.006,287.407,284.922,259.37,0.0,0.0,234.686,251.949
2016-02-17 10:00,-9.42055,284.087,283.38,255.626,285.618,283.194,259.127,-15.9527,-14.2659,234.756,252.342
2016-02-17 11:00,0.124789,286.864,282.916,255.51,285.201,282.758,258.147,0.255342,0.178474,236.071,252.342
2016-02-17 12:00,0.383673,284.73,275.823,251.799,278.576,277.548,256.66,0.479219,0.475248,236.808,252.925
2016-02-17 13:00,0.378671,282.408,275.306,251.429,278.278,276.938,256.785,0.619755,0.618759,237.657,252.925
2016-02-17 14:00,0.235042,271.798,264.175,245.723,266.167,265.65,250.369,0.413116,0.438575,237.977,251.949
2016-02-17 15:00,0.278868,284.087,268.199,247.991,270.332,269.0,252.205,0.275052,0.286027,237.592,251.652
2016-02-17 16:00,0.170553,283.76,269.767,249.414,271.945,269.984,252.335,0.187978,0.176636,237.721,251.252
2016-02-17 17:00,0.178101,287.444,279.945,254.808,282.087,279.511,256.785,0.206847,0.195715,238.608,253.117
2016-02-17 18:00,0.203608,290.301,277.098,253.02,279.17,276.938,255.658,0.200604,0.198079,240.253,253.785
2016-02-17 19:00,0.319375,290.939,282.214,255.742,284.641,282.175,258.515,0.316531,0.302432,239.532,253.88
2016-02-17 20:00,0.396176,290.813,283.956,256.664,286.447,283.773,259.492,0.400366,0.38276,240.489,253.88
2016-02-17 21:00,0.609793,249.156,244.815,235.499,246.135,245.186,237.222,0.784028,1.25405,235.317,241.093
2016-02-17 22:00,0.0,260.395,259.871,243.368,260.888,260.225,247.415,0.0,0.0,239.043,248.455
2016-02-17 23:00,-0.00287326,272.836,268.773,248.382,269.842,268.173,251.422,-0.00243278,-0.00290072,239.894,250.646
2016-02-18 00:00,-0.00382467,272.322,271.299,249.414,272.582,270.96,254.009,-0.00161917,-0.00193062,240.957,252.047
2016-02-18 01:00,0.0,280.427,279.58,254.572,281.799,279.211,257.034,0.0,0.0,241.986,253.785
2016-02-18 02:00,-0.00129535,283.924,282.566,256.32,284.641,281.588,257.653,0.0,0.0,242.211,254.536
2016-02-18 03:00,0.0,285.665,284.185,256.892,286.585,283.484,258.515,0.0,0.0,242.155,254.629
2016-02-18 04:00,0.0,282.581,282.448,256.089,284.781,282.758,258.882,0.0,0.0012093,242.378,255.366
2016-02-18 05:00,0.0,281.526,281.505,255.277,284.501,282.758,259.127,0.0,0.0,242.155,255.457
2016-02-18 06:00,0.00143989,285.357,285.208,257.12,288.222,286.343,260.34,0.0,0.0,241.533,255.639
2016-02-18 07:00,-0.00179237,283.428,284.071,256.549,286.997,285.35,260.219,0.0,0.0,241.131,256.091
2016-02-18 08:00,0.0,285.045,285.095,257.006,288.222,286.202,260.461,0.0,0.0,241.015,256.181
2016-02-18 09:00,0.0,284.087,284.3,256.32,287.134,285.065,259.856,0.0,0.0,241.015,255.548
2016-02-18 10:00,8.29601,286.569,285.658,257.572,288.358,285.777,259.856,14.7509,12.563,240.782,255.639
2016-02-18 11:00,0.184645,288.012,284.869,256.892,287.407,285.208,260.219,0.317019,0.258903,240.134,255.639
2016-02-18 14:00,0.0871175,288.568,284.528,256.549,286.722,284.349,259.856,0.121571,0.0944651,238.671,256.181
2016-02-18 15:00,0.143257,287.729,283.841,256.089,286.447,284.492,259.856,0.171314,0.158046,238.357,256.001
2016-02-18 16:00,0.0570964,288.977,285.882,257.346,288.628,286.485,260.581,0.081812,0.0591203,237.333,255.821
2016-02-18 17:00,0.119253,288.568,283.841,256.664,286.31,284.636,260.098,0.147471,0.131482,236.341,256.181
2016-02-18 18:00,0.0497273,288.568,285.546,257.346,287.951,285.777,260.34,0.0810893,0.0632182,235.247,255.548
2016-02-18 19:00,0.479744,285.512,279.823,253.98,282.517,281.735,259.856,0.545764,0.58368,235.038,255.548
2016-02-18 20:00,0.181341,286.421,283.611,256.089,286.172,284.205,259.735,0.221384,0.208619,234.041,254.349
2016-02-18 21:00,0.215173,280.239,278.721,254.099,280.201,278.307,257.034,0.255061,0.304122,231.315,251.751
2016-02-18 22:00,-0.00655821,272.061,263.088,244.626,262.15,258.774,242.814,0.0,0.0,227.87,243.214
2016-02-18 23:00,-0.0057774,266.797,256.118,240.766,254.657,252.341,239.765,-0.00244586,0.0,225.058,238.165
2016-02-19 00:00,-0.00191869,284.57,283.38,256.32,285.618,283.629,258.638,-0.00162455,-0.00193704,230.43,252.634
2016-02-19 01:00,0.0,275.251,271.574,249.924,272.264,270.148,251.683,0.0,0.0,228.835,246.707
2016-02-19 02:00,0.0,284.73,285.208,257.572,287.679,286.343,261.182,0.0,0.0,230.266,254.162
2016-02-19 03:00,0.0,284.41,285.095,257.685,287.815,286.626,261.66,0.0,0.0,230.266,254.814
2016-02-19 04:00,-0.0012002,285.665,285.658,258.469,288.493,286.907,261.54,0.0,0.0,229.852,254.814
2016-02-19 05:00,-0.0012703,283.924,282.096,255.626,284.22,281.882,257.653,0.0,0.0,228.662,252.047
2016-02-19 06:00,0.0,265.446,258.871,242.942,259.051,257.115,243.808,0.0,0.0,227.51,243.698
2016-02-19 07:00,0.0,280.982,277.601,253.381,277.678,274.617,252.335,0.0,0.0,226.963,248.882
2016-02-19 08:00,0.0,271.798,273.466,251.056,276.01,275.706,256.66,0.0,0.0,229.433,253.5
2016-02-19 09:00,0.0,272.836,273.865,251.552,276.315,276.015,256.41,0.0,-0.00516548,230.348,253.405
2016-02-19 10:00,2.93822,273.338,274.524,251.552,276.468,276.015,256.66,6.33255,6.74161,230.593,253.117
2016-02-19 11:00,0.384492,279.081,272.527,250.555,273.529,272.246,252.982,0.548293,0.546499,229.601,249.721
2016-02-19 12:00,0.318946,258.096,238.585,232.491,237.2,235.917,230.604,0.503793,0.543874,224.359,231.859
2016-02-19 13:00,0.22582,265.446,241.218,235.01,238.938,237.109,228.782,0.318669,0.337097,222.585,233.146
2016-02-19 14:00,0.134873,285.818,277.852,253.501,278.278,275.706,253.753,0.167217,0.147509,226.871,248.348
2016-02-19 15:00,0.0955804,281.165,270.329,249.286,269.186,266.16,247.687,0.13322,0.1247,224.359,242.23
2016-02-19 16:00,0.0801799,287.01,284.414,257.685,286.585,284.492,260.098,0.129605,0.10891,229.769,253.5
2016-02-19 17:00,0.0781114,284.41,277.727,253.621,278.873,275.861,253.24,0.109787,0.0930526,227.055,248.348
2016-02-19 18:00,0.273072,277.451,255.05,241.207,252.262,249.55,236.153,0.321211,0.349692,224.86,239.789
2016-02-19 19:00,0.198048,284.249,271.162,249.286,270.332,265.65,246.732,0.219442,0.239436,226.122,242.971
2016-02-19 20:00,0.709888,265.791,231.713,229.484,230.294,228.59,224.657,0.721273,0.876872,221.031,225.21
2016-02-19 21:00,0.452229,246.775,226.902,226.866,225.31,224.474,222.329,0.365497,0.539561,218.517,221.658
2016-02-19 22:00,0.0,251.944,236.318,231.45,234.895,231.968,225.535,0.0,0.0,221.031,228.782
2016-02-19 23:00,-0.0058085,272.58,262.616,244.07,261.971,258.591,242.241,-0.00245902,-0.00293201,225.643,241.854
2016-02-20 00:00,-0.00192511,271.261,260.036,242.942,259.606,256.18,241.374,-0.00325997,-0.00194351,223.013,237.327
2016-02-20 01:00,0.0,261.251,248.784,237.572,247.229,243.896,233.661,0.0,0.0,222.799,232.988
2016-02-20 02:00,0.0,268.986,256.644,241.354,254.854,250.357,236.613,0.0,0.0,221.819,236.033
2016-02-20 03:00,0.0,268.073,254.509,240.021,252.059,245.612,233.503,0.0,0.0,221.596,235.295
2016-02-20 04:00,-0.00120264,266.466,252.479,239.419,250.415,246.035,233.026,0.0,0.0,220.801,233.304
2016-02-20 05:00,0.0,255.521,246.102,235.823,244.8,242.585,233.026,0.0,0.0,221.371,233.461
2016-02-20 06:00,0.0,258.096,250.371,237.728,249.579,247.085,236.613,0.0,0.0,222.799,237.608
2016-02-20 07:00,0.0,227.984,227.845,227.058,227.708,226.974,224.126,0.0,0.0,220.801,225.21
2016-02-20 08:00,0.0,232.213,223.94,225.701,222.806,221.579,220.86,0.0,0.0,217.491,220.306
2016-02-20 09:00,0.00518095,233.989,229.373,228.004,229.158,228.324,224.834,0.0,0.0,221.371,226.379
2016-02-20 10:00,2.36596,248.394,239.074,231.799,238.446,236.872,231.257,3.33876,4.14021,223.746,232.347
2016-02-20 11:00,0.339311,247.601,236.06,230.565,235.93,234.706,229.781,0.616838,0.695185,223.849,231.364
2016-02-20 12:00,0.369719,251.282,229.673,227.628,229.444,228.856,225.709,0.826516,0.953272,221.819,225.799
2016-02-20 13:00,0.272529,251.282,239.559,231.799,239.669,238.515,233.344,0.554124,0.614208,225.643,233.773
2016-02-20 14:00,0.210939,271.531,256.992,240.32,256.406,254.472,241.953,0.281433,0.287167,224.46,237.468
2016-02-20 15:00,0.185942,274.314,257.339,240.617,256.406,252.927,239.322,0.240494,0.245366,224.258,239.523
2016-02-20 16:00,0.137911,280.799,274.524,249.542,276.62,274.929,254.264,0.197893,0.194921,228.048,248.241
2016-02-20 17:00,0.0637733,284.41,278.101,250.931,279.318,275.861,253.497,0.102726,0.0910783,227.691,245.575
2016-02-20 18:00,0.293636,279.859,257.339,241.061,256.406,253.316,239.765,0.311934,0.342474,223.434,237.327
2016-02-20 19:00,0.218718,274.314,262.616,243.509,262.507,260.584,244.932,0.294244,0.31404,224.76,239.789
2016-02-20 20:00,0.645166,271.261,230.559,228.934,229.158,227.246,223.77,0.640807,0.77659,220.686,225.799
2016-02-20 21:00,0.275603,239.711,222.552,225.107,220.519,219.777,219.362,0.283357,0.377608,216.012,218.41
2016-02-20 22:00,-0.00673445,225.382,222.904,225.504,222.806,222.169,221.046,0.0,0.0,219.137,220.535
2016-02-20 23:00,-0.00583981,232.213,228.769,227.628,229.158,228.056,225.185,-0.00247228,-0.00294782,222.476,226.948
2016-02-21 00:00,-0.00193158,269.576,262.458,243.79,263.92,262.361,248.903,-0.00327093,-0.00195005,235.247,248.133
2016-02-21 01:00,0.0,260.827,255.941,240.469,255.827,254.089,242.814,0.0,0.0,231.236,242.354
2016-02-21 02:00,-0.00130356,218.393,222.552,225.306,222.485,222.169,221.782,0.0,0.0,219.863,220.763
2016-02-21 03:00,0.0,256.062,243.496,234.183,242.049,240.802,232.867,0.0,0.0,224.359,231.695
2016-02-21 04:00,0.0,218.393,215.218,222.027,215.26,215.027,215.274,0.0,0.0,214.293,215.332
2016-02-21 05:00,-0.00127619,218.393,216.471,222.659,215.993,215.027,216.071,0.0,0.0,215.593,215.332
2016-02-21 06:00,-0.00145192,222.276,214.79,222.027,214.89,214.03,215.274,0.0,0.0,214.293,214.787
2016-02-21 07:00,0.00181262,230.231,224.616,225.897,224.694,223.619,221.965,0.0,0.0,221.031,223.999
2016-02-21 08:00,0.0,267.761,265.696,246.13,267.857,266.329,250.501,0.0,0.0,230.996,248.562
2016-02-21 09:00,0.0,270.989,262.458,244.349,264.27,261.299,246.594,0.0,0.0,230.674,246.818
2016-02-21 10:00,0.444819,278.684,274.916,251.056,277.226,274.773,254.519,1.50651,1.12268,231.63,250.646
2016-02-21 11:00,0.349418,288.841,279.213,253.261,281.799,279.661,257.53,0.37919,0.342821,232.481,252.047
2016-02-21 13:00,0.00763355,286.717,285.208,256.778,287.27,284.636,259.127,0.0727123,0.0,233.896,0.0
2016-02-21 14:00,0.00477138,286.864,285.433,256.892,287.679,284.779,259.37,0.0538656,0.0256906,234.472,254.068
2016-02-21 15:00,0.0189516,287.587,285.208,256.892,287.407,284.779,259.735,0.0530763,0.0309069,234.897,254.629
2016-02-21 16:00,0.0144566,287.587,285.994,257.233,287.815,285.065,259.492,0.0526335,0.030649,235.799,255.183
2016-02-21 17:00,0.111512,287.01,284.071,256.089,285.895,283.629,259.37,0.180966,0.164176,235.867,254.814
2016-02-21 18:00,0.119798,282.234,273.732,249.924,272.423,269.821,250.896,0.198255,0.18508,229.093,244.53
2016-02-21 19:00,0.198089,281.705,275.436,251.676,277.075,275.706,255.28,0.292491,0.292658,232.86,250.646
2016-02-21 20:00,1.01601,280.799,257.854,241.791,258.865,256.928,243.808,1.20713,1.42277,232.405,246.371
2016-02-21 21:00,0.207849,285.818,283.264,256.089,284.501,282.028,257.777,0.319974,0.324292,233.01,250.238
2016-02-21 22:00,0.0,286.569,284.869,257.006,287.407,284.779,259.614,0.0,0.0,233.53,252.047
2016-02-21 23:00,0.0,287.155,285.208,257.233,287.27,284.492,259.492,-0.00248562,0.0,234.257,253.405
2016-02-22 00:00,-0.00193811,287.155,285.882,258.022,287.951,285.493,259.977,-0.001641,-0.00195664,234.113,253.88
2016-02-22 01:00,-0.00151305,286.569,285.882,258.022,288.222,285.777,259.856,0.0,0.0,233.085,253.5
2016-02-22 02:00,0.0,286.569,285.77,258.022,287.815,285.493,260.098,0.0,0.0,233.159,253.117
2016-02-22 03:00,0.0,286.717,285.77,257.798,287.951,285.493,260.098,0.0,0.0,232.251,253.309
2016-02-22 04:00,0.00120776,286.864,286.105,258.022,288.493,286.202,260.34,0.0,0.0,231.787,253.785
2016-02-22 05:00,-0.0012793,286.864,286.217,257.798,288.628,286.626,260.461,0.0,0.0,230.916,253.595
2016-02-22 06:00,0.0,279.859,280.549,254.808,283.372,282.028,258.638,0.0,0.00147018,231.076,253.5
2016-02-22 07:00,0.0,284.57,283.032,256.32,285.34,283.194,258.76,0.0,0.0,231.787,251.452
2016-02-22 08:00,0.0,284.41,282.916,256.32,285.618,283.339,259.127,0.0,0.0,231.315,251.252
2016-02-22 09:00,0.0,286.569,286.105,257.685,288.493,286.202,260.34,0.0,0.0,231.156,251.85
2016-02-22 10:00,0.5983,285.512,282.916,255.858,285.201,282.321,257.653,1.88158,1.4669,229.769,249.617
2016-02-22 11:00,0.0388294,287.01,285.77,257.798,288.087,285.919,259.735,0.197261,0.102902,229.685,250.544
2016-02-22 12:00,0.0681019,283.428,276.845,252.412,277.377,274.304,251.422,0.155243,0.113707,227.959,245.918
2016-02-22 13:00,0.17458,270.713,255.05,240.766,252.059,250.156,237.07,0.266712,0.268205,226.592,237.888
2016-02-22 14:00,0.221613,283.261,275.436,251.429,277.678,275.861,254.9,0.313626,0.310028,229.007,248.133
2016-02-22 15:00,0.201771,274.073,257.511,242.081,257.739,255.045,241.229,0.340449,0.341453,227.42,241.728
2016-02-22 16:00,0.251947,254.396,232.56,229.665,231.408,230.429,227.089,0.429084,0.482549,223.952,228.782
2016-02-22 17:00,0.34083,258.576,233.938,230.387,234.371,233.474,230.111,0.594136,0.67105,226.216,231.695
2016-02-22 18:00,0.256537,276.594,254.871,240.617,254.657,251.75,240.06,0.302869,0.333768,225.835,237.748
2016-02-22 19:00,0.36264,258.096,245.248,235.173,245.471,244.973,237.676,0.628328,0.707968,227.238,237.748
2016-02-22 20:00,0.60075,259.954,235.538,231.098,235.414,234.461,229.449,0.749234,0.897446,225.058,232.022
2016-02-22 21:00,0.0363482,225.382,223.252,225.107,223.443,221.875,221.782,0.215432,0.183478,219.863,221.213
2016-02-22 22:00,-0.00691714,230.231,229.373,228.004,228.871,227.787,224.657,0.0,0.0,222.692,226.948
2016-02-22 23:00,-0.00590307,227.984,222.552,225.504,221.838,220.984,220.302,-0.00249906,-0.00297975,218.391,220.075
2016-02-23 00:00,-0.00388941,250.598,243.719,234.845,243.667,241.921,233.503,-0.00164658,-0.00196329,226.685,237.327
2016-02-23 01:00,-0.00151697,250.598,246.102,235.173,245.914,244.758,236.613,0.0,0.0,224.86,235.592
2016-02-23 02:00,-0.00130934,245.913,242.597,234.017,242.747,241.698,234.76,0.0,0.0,227.691,235.444
2016-02-23 03:00,-0.0012185,254.396,247.769,236.466,247.446,245.612,237.827,0.0,0.0,227.87,237.468
2016-02-23 04:00,0.0,225.382,227.845,226.674,227.708,227.246,225.185,0.0,0.0,221.93,223.586
2016-02-23 05:00,0.0,222.276,221.481,224.305,221.511,220.384,219.739,0.0,0.0,218.642,219.843
2016-02-23 06:00,0.0,222.276,219.628,223.489,219.508,218.857,218.792,0.0,0.0,217.752,219.372
2016-02-23 07:00,-0.00182751,245.01,242.37,233.175,242.283,241.027,234.134,0.0,0.0,226.216,234.389
2016-02-23 08:00,-0.00265308,269.865,267.033,245.587,269.35,267.84,251.683,0.0,0.0,232.86,249.617
2016-02-23 09:00,0.0,267.761,269.343,246.533,271.785,271.444,253.368,0.0,0.0,234.615,251.949
2016-02-23 10:00,0.622381,278.883,276.591,250.931,279.022,277.701,256.16,1.3467,1.04722,235.525,253.309
2016-02-23 11:00,0.234554,287.01,279.458,252.777,281.943,280.406,257.282,0.308028,0.265792,236.207,253.785
2016-02-23 12:00,0.00519834,286.569,285.77,255.974,288.087,285.493,259.249,0.101233,0.0498563,237.657,255.091
2016-02-23 13:00,0.00566065,286.569,285.882,256.205,288.087,285.635,259.856,0.0702953,0.0342886,237.072,254.999
2016-02-23 14:00,0.00472649,287.01,285.882,256.664,288.222,285.919,259.735,0.0520249,0.0254489,236.207,255.275
2016-02-23 15:00,0.0144542,287.3,285.321,256.549,287.543,285.208,260.098,0.0501774,0.0291848,235.593,254.999
2016-02-23 16:00,0.00286764,287.3,286.105,257.346,288.628,286.06,259.856,0.0364204,0.0173703,234.472,254.443
2016-02-23 17:00,0.0184293,288.291,285.994,257.233,288.087,285.919,259.735,0.0507131,0.0310091,234.257,254.443
2016-02-23 18:00,0.0899124,288.291,285.095,256.549,287.27,285.208,259.735,0.120283,0.10348,232.633,253.88
2016-02-23 19:00,0.171922,290.171,284.869,256.434,287.134,284.492,259.856,0.204197,0.178387,232.481,252.828
2016-02-23 20:00,0.651665,291.19,279.58,253.621,282.374,280.257,257.53,0.585823,0.633528,232.557,252.634
2016-02-23 21:00,0.402813,285.202,281.505,254.572,283.656,281.293,257.034,0.400376,0.459707,230.101,250.238
2016-02-23 22:00,0.00701096,286.271,284.642,256.892,286.86,284.205,258.392,0.0,0.0,230.511,250.135
2016-02-23 23:00,-0.00296751,286.717,284.642,256.434,286.722,283.917,258.392,-0.00251259,-0.00299588,230.101,249.303
2016-02-24 00:00,-0.00390272,285.665,283.841,256.32,286.033,283.484,258.76,-0.00165221,-0.00394002,229.935,249.721
2016-02-24 01:00,0.0,285.045,282.096,255.277,284.079,281.146,257.282,0.0,0.0,229.263,248.562
2016-02-24 02:00,0.0,279.473,272.662,249.797,272.264,268.505,248.094,0.0,0.0,227.329,243.214
2016-02-24 03:00,0.0,280.05,272.796,250.177,272.582,268.339,248.094,0.0,0.0,226.311,242.602
2016-02-24 04:00,0.0,285.357,284.185,256.32,286.722,284.205,258.76,0.0,0.0,229.601,248.987
2016-02-24 05:00,0.0,286.121,285.095,256.664,287.679,285.208,259.249,0.0,0.0,230.996,249.721
2016-02-24 06:00,0.0,286.271,285.095,257.006,287.543,285.065,259.492,0.0,0.0,231.473,249.721
2016-02-24 07:00,-0.00183538,286.271,285.208,256.778,287.951,285.208,259.249,0.0,0.0,231.943,250.135
2016-02-24 08:00,-0.00267092,285.512,284.528,256.205,286.997,284.636,259.005,0.0,0.0,232.097,250.238
2016-02-24 10:00,0.115787,285.665,284.414,256.205,287.134,284.779,259.127,1.12742,0.759809,232.02,250.544
2016-02-24 11:00,0.443761,287.01,282.331,254.926,284.921,282.904,258.882,0.539615,0.519493,231.552,249.928
2016-02-24 12:00,0.304339,289.91,283.032,255.626,285.895,283.629,258.882,0.351585,0.328079,230.835,249.408
2016-02-24 13:00,0.0394006,287.871,285.095,257.459,287.951,285.208,259.614,0.0953155,0.060613,230.674,249.617
2016-02-24 14:00,0.0533155,287.729,284.755,256.892,287.543,284.922,259.492,0.0955952,0.068073,230.184,248.882
2016-02-24 15:00,0.0273473,287.01,284.869,257.233,287.679,285.065,259.127,0.0597152,0.0392334,230.101,248.882
2016-02-24 16:00,0.0114242,286.569,284.755,256.892,287.679,284.779,258.638,0.0459462,0.0273919,229.433,248.562
2016-02-24 17:00,0.0336478,287.3,284.869,257.12,287.407,284.492,258.882,0.060864,0.0416898,229.685,247.917
2016-02-24 18:00,0.103824,288.977,277.601,253.14,279.318,274.147,251.683,0.131862,0.119274,229.007,245.69
2016-02-24 19:00,0.379897,272.836,252.853,239.267,251.856,249.348,237.676,0.446301,0.49619,226.027,236.033
2016-02-24 20:00,0.741631,260.827,241.451,233.513,242.049,241.251,233.976,0.857507,1.03452,228.488,236.325
2016-02-24 21:00,0.507204,245.913,243.94,234.183,244.349,243.896,237.07,0.687118,1.04117,229.517,236.757
2016-02-24 22:00,-0.00710647,246.775,244.16,234.35,245.693,245.186,237.676,0.0,0.0,230.996,238.85
2016-02-24 23:00,-0.00596719,255.521,253.595,238.81,254.657,253.51,243.808,-0.0025262,-0.00301212,231.156,242.602
2016-02-25 00:00,-0.00195808,265.791,255.941,240.021,255.633,253.122,241.374,-0.0016579,-0.00395359,230.43,240.835
2016-02-25 01:00,-0.00152498,254.966,254.871,239.871,256.98,256.555,244.792,0.0,0.0,232.175,244.764
2016-02-25 02:00,-0.00131538,275.48,268.63,247.332,270.495,266.835,249.037,0.0,0.0,231.473,246.595
2016-02-25 03:00,0.00122392,280.613,275.565,250.429,277.528,273.359,252.594,0.0,0.0,232.097,246.707
2016-02-25 04:00,0.00121612,282.234,278.598,252.045,280.054,275.861,253.497,0.0,0.00122774,232.02,246.371
2016-02-25 05:00,-0.00128932,285.045,283.956,255.277,286.585,283.917,258.638,0.0,0.0,231.943,248.882
2016-02-25 06:00,0.0,283.261,282.331,254.099,284.921,282.758,257.406,0.0,0.0,231.156,248.669
2016-02-25 07:00,0.0,286.569,284.982,255.043,287.407,284.492,258.392,0.0,0.0,233.085,249.408
2016-02-25 08:00,-0.00537891,285.818,284.642,254.336,287.27,284.349,258.392,0.0,0.00271516,233.53,250.032
2016-02-25 09:00,0.0,286.271,284.755,254.454,287.679,284.922,258.638,0.0,0.0,232.86,249.721
2016-02-25 10:00,0.446965,285.97,284.869,254.454,288.087,285.35,258.882,1.05123,0.852338,232.557,249.303
2016-02-25 11:00,0.0605259,287.01,285.546,254.336,288.763,286.485,259.37,0.201047,0.117509,232.557,248.882
2016-02-25 12:00,0.0895737,288.152,284.755,253.98,287.679,285.35,258.27,0.164685,0.113683,231.787,248.241
2016-02-25 13:00,0.0373125,287.444,284.982,253.86,287.951,285.777,258.76,0.0979365,0.0659211,231.473,248.987
2016-02-25 14:00,0.0546271,286.569,284.185,253.621,287.27,284.922,259.005,0.101756,0.0803605,231.787,248.562
2016-02-25 15:00,0.037266,285.97,284.185,253.501,287.134,284.779,258.27,0.0764554,0.0636683,231.865,249.408
2016-02-25 16:00,0.0355582,287.01,284.755,254.099,287.815,285.35,259.005,0.0638269,0.0430777,231.943,249.513
2016-02-25 17:00,0.0167555,287.01,285.433,254.217,288.358,285.777,259.005,0.050299,0.0276803,231.63,249.513
2016-02-25 18:00,0.0302953,287.729,285.546,254.454,288.358,286.06,259.005,0.0663909,0.0449779,231.63,249.198
2016-02-25 19:00,0.047225,288.012,285.658,254.69,288.628,286.343,259.249,0.0939655,0.0643632,231.315,248.562
2016-02-25 20:00,0.15812,288.705,285.208,254.454,288.358,285.635,258.76,0.227597,0.183577,231.63,248.348
2016-02-25 21:00,0.915463,282.753,281.267,252.29,283.938,282.321,257.9,0.636707,0.924214,231.787,248.882
2016-02-25 22:00,0.0,285.357,284.071,253.501,286.86,284.492,258.76,0.0,0.0,231.787,248.987
2016-02-25 23:00,-0.00299979,286.864,285.208,254.454,287.815,284.922,258.515,-0.00253992,-0.00302847,231.552,248.133
2016-02-26 00:00,0.0,247.601,244.598,234.017,246.355,244.973,236.0,0.0,0.00198364,229.517,236.469
2016-02-26 01:00,-0.00152908,285.665,283.841,254.217,286.31,283.484,258.023,0.0,0.0,231.394,248.348
2016-02-26 02:00,-0.0013185,286.569,285.095,255.043,287.407,284.492,258.515,0.0,0.0,231.473,248.987
2016-02-26 03:00,0.0,285.357,283.841,254.217,285.757,283.194,257.777,0.0,0.0,231.552,248.775
2016-02-26 04:00,0.0,286.121,284.755,255.16,287.407,284.492,258.147,0.0,0.0,231.787,248.987
2016-02-26 05:00,0.0,285.357,284.185,254.69,286.585,283.917,258.023,0.0,0.0,231.709,249.093
2016-02-26 06:00,0.0,285.818,284.414,255.277,286.997,283.917,258.638,0.0,0.0,231.787,249.513
2016-02-26 07:00,0.0,286.121,284.755,255.626,287.27,284.349,258.023,0.0,0.0,232.557,249.825
2016-02-26 08:00,0.0,278.482,276.845,250.931,279.466,277.396,255.658,0.0,0.0,235.593,251.252
2016-02-26 09:00,-0.00564484,285.202,283.726,254.572,286.31,283.629,258.638,0.0,0.0,238.733,253.309
2016-02-26 10:00,0.694234,286.121,284.185,254.926,286.585,283.917,258.392,1.21235,1.05131,239.41,254.349
2016-02-26 11:00,0.119386,287.871,285.208,255.742,287.815,285.35,258.638,0.248823,0.180791,239.954,255.183
2016-02-26 12:00,0.286963,289.247,282.096,254.336,284.361,282.467,258.638,0.363381,0.340981,240.899,256.091
2016-02-26 13:00,0.120582,288.291,284.528,255.742,286.585,284.349,259.005,0.190057,0.16481,241.704,257.595
2016-02-26 14:00,0.0963179,288.568,284.642,256.434,287.407,285.35,259.856,0.126274,0.106649,242.322,258.114
2016-02-26 15:00,0.122753,287.587,284.3,256.434,286.722,285.208,259.856,0.148651,0.126808,242.378,258.882
2016-02-26 16:00,0.0425014,288.012,285.77,257.346,288.493,286.343,260.219,0.065974,0.0500589,241.93,258.628
2016-02-26 17:00,0.0121371,287.587,287.102,258.022,290.101,288.027,261.062,0.0423903,0.0245062,242.211,258.967
2016-02-26 18:00,0.0745189,289.647,286.55,258.022,289.434,287.469,261.301,0.0946425,0.0788137,242.266,259.387
2016-02-26 19:00,0.0868935,289.91,286.992,258.802,290.101,288.306,261.66,0.123284,0.0948369,241.986,259.554
2016-02-26 20:00,0.321426,290.685,286.55,258.358,289.434,287.609,261.54,0.315297,0.304712,242.765,259.471
2016-02-26 21:00,0.633228,286.569,286.105,257.685,288.763,287.329,260.942,0.495942,0.607317,242.433,259.887
2016-02-26 22:00,-0.00730267,286.864,287.432,259.354,290.101,288.306,261.779,0.0,0.0,241.986,259.97
2016-02-26 23:00,-0.0030161,286.421,286.882,258.691,289.434,287.748,261.66,-0.00255372,-0.00304493,241.304,259.804
2016-02-27 00:00,-0.00197171,287.155,287.432,259.354,289.968,288.167,261.421,0.0,0.0,240.134,259.638
2016-02-27 01:00,0.0,285.97,286.328,258.913,288.897,287.048,261.54,0.0,0.0,239.41,259.22
2016-02-27 02:00,-0.00132169,287.01,287.541,260.011,290.234,288.306,261.66,0.0,0.0,238.294,259.051
2016-02-27 03:00,0.00122965,286.421,286.661,259.354,289.3,287.748,260.942,0.0,0.0,237.913,258.028
2016-02-27 04:00,0.0,284.41,285.208,258.469,287.815,286.202,260.701,0.0,0.0,237.977,257.769
2016-02-27 05:00,-0.00129659,286.121,286.105,259.134,288.628,286.626,260.942,0.0,0.0,238.357,257.421
2016-02-27 06:00,0.0,286.421,286.55,258.913,288.897,287.048,260.701,0.0,0.0,238.041,256.982
2016-02-27 07:00,0.0,286.121,286.105,259.354,288.493,286.626,260.822,0.0,0.0,237.785,257.07
2016-02-27 08:00,0.0,284.73,284.982,258.58,287.679,286.202,260.942,0.0,0.0,237.203,256.982
2016-02-27 09:00,0.00573701,285.045,285.433,258.802,287.951,286.343,260.581,0.0,0.0,237.398,256.982
2016-02-27 10:00,0.807541,286.864,286.328,259.464,288.897,287.048,260.701,1.13957,1.00937,236.94,256.539
2016-02-27 11:00,0.117747,288.152,286.55,259.902,289.032,287.048,261.301,0.241571,0.169165,236.207,256.181
2016-02-27 13:00,0.0793208,289.113,286.105,259.683,288.763,287.048,261.421,0.126512,0.0968398,235.799,255.183
2016-02-27 14:00,0.0432972,288.705,286.661,260.011,289.166,287.188,261.062,0.0811749,0.0546388,234.686,255.091
2016-02-27 15:00,0.0398016,287.3,283.956,258.469,286.172,284.349,259.127,0.0710105,0.0502276,233.53,253.5
2016-02-27 16:00,0.115717,286.569,284.3,258.58,286.722,284.779,260.098,0.16011,0.145317,234.827,255.366
2016-02-27 17:00,0.0544016,287.871,285.658,259.683,287.815,285.35,260.461,0.0972415,0.0747545,232.481,252.925
2016-02-27 18:00,0.174895,280.239,270.329,250.303,270.981,268.67,249.705,0.213898,0.219371,230.43,244.53
2016-02-27 19:00,0.0373764,288.705,286.882,260.337,289.434,287.329,261.421,0.087028,0.0542422,232.784,253.785
2016-02-27 20:00,0.136069,289.647,287.102,260.661,289.568,287.609,260.942,0.197502,0.153069,232.784,253.405
2016-02-27 21:00,0.337739,288.152,286.992,260.445,289.3,287.329,261.301,0.363953,0.371964,234.257,254.256
2016-02-27 22:00,0.0,285.045,284.982,259.354,287.815,286.202,261.421,0.0,0.0,234.329,254.907
2016-02-27 23:00,-0.00303252,286.569,285.994,259.683,288.628,286.907,261.54,-0.00256763,-0.00306151,234.329,255.366
2016-02-28 00:00,0.0,285.665,285.77,259.464,288.222,286.485,260.942,0.0,0.0,234.756,255.091
2016-02-28 01:00,-0.00153748,283.924,284.414,258.802,286.86,285.635,261.301,0.0,0.0,234.756,254.814
2016-02-28 02:00,0.0,286.717,287.102,260.661,289.701,288.027,262.017,0.0,0.0,234.756,254.629
2016-02-28 03:00,0.0,287.01,287.102,260.876,289.835,287.888,261.898,0.0,-0.00124441,234.686,254.536
2016-02-28 04:00,0.0,286.864,286.992,260.553,289.701,287.748,261.301,0.0,0.0,234.472,253.785
2016-02-28 05:00,0.0,285.818,285.77,259.683,288.493,286.626,261.54,0.0,0.0,233.75,253.69
2016-02-28 06:00,0.0,287.155,286.992,260.553,289.568,287.469,261.779,0.0,0.0,232.557,252.925
2016-02-28 07:00,-0.00186984,287.155,286.55,260.228,289.3,286.907,261.301,0.0,0.0,231.943,252.146
2016-02-28 08:00,0.0,285.357,285.321,259.134,287.679,285.777,260.461,0.0,0.0,231.394,251.751
2016-02-28 09:00,-0.00583406,285.512,284.755,259.024,286.997,284.636,260.098,0.0,0.0,230.835,251.252
2016-02-28 10:00,0.654997,286.121,285.321,259.464,287.951,285.919,259.856,0.992415,0.939683,231.156,252.439
2016-02-28 11:00,0.245669,288.705,285.208,258.913,287.679,285.635,259.856,0.340376,0.275074,230.755,251.751
2016-02-28 13:00,0.0330177,288.291,286.217,259.574,288.628,286.202,260.581,0.0962931,0.0611112,231.552,252.634
2016-02-28 14:00,0.115441,273.586,258.365,242.656,257.361,253.896,238.876,0.173332,0.163163,225.931,237.608
2016-02-28 15:00,0.0920199,278.482,266.145,247.2,264.27,261.477,243.525,0.145038,0.137206,227.601,240.576
2016-02-28 16:00,0.167285,270.434,252.666,240.021,251.036,249.348,236.307,0.224957,0.235586,226.778,238.303
2016-02-28 17:00,0.130961,277.24,261.34,244.488,259.974,255.992,240.207,0.17716,0.179323,225.739,238.714
2016-02-28 18:00,0.195265,277.661,261.982,245.451,260.158,256.555,242.384,0.230867,0.234427,224.959,238.027
2016-02-28 19:00,0.0743649,287.01,282.682,256.892,284.501,281.441,256.035,0.112156,0.0985369,229.093,250.442
2016-02-28 20:00,0.320095,280.239,265.696,246.934,264.27,261.477,244.652,0.339596,0.369876,225.546,239.523
2016-02-28 21:00,0.745342,278.075,263.712,246.13,262.329,259.139,241.953,0.530107,0.752467,225.931,242.354
2016-02-28 22:00,0.00750601,262.869,252.101,239.871,251.242,248.941,238.128,0.0,0.0,225.449,236.9
2016-02-28 23:00,-0.00914717,246.775,237.339,231.799,235.93,234.461,229.449,-0.00258163,-0.0030782,223.118,229.489
2016-02-29 00:00,0.0,256.589,247.357,237.101,246.355,244.758,236.153,0.0,0.0,225.156,236.325
2016-02-29 01:00,0.0,252.585,242.824,234.35,240.87,239.208,231.905,0.0,0.0,223.434,232.347
2016-02-29 02:00,0.00132828,252.585,240.514,232.663,238.446,236.396,229.781,0.0,0.0,223.642,230.863
2016-02-29 03:00,0.0,246.775,235.8,230.565,234.371,233.225,228.278,0.0,0.0,222.799,229.838
2016-02-29 04:00,0.0,232.213,226.902,226.481,226.221,225.318,222.329,0.0,0.0,221.596,224.204
2016-02-29 05:00,0.0,242.013,231.713,228.564,230.294,228.59,225.36,0.0,0.0,221.596,224.811
2016-02-29 06:00,0.0,253.206,240.277,232.319,238.693,237.815,229.946,0.0,0.0,222.692,227.877
2016-02-29 07:00,0.00187921,225.382,224.95,225.107,224.694,224.474,222.511,0.0,0.0,221.596,223.377
2016-02-29 08:00,0.0,246.775,235.8,230.027,236.186,234.216,228.782,0.0,0.0,225.254,231.031
2016-02-29 09:00,0.00593629,240.898,232.56,228.749,231.683,230.688,226.574,0.0,0.0,223.538,226.948
2016-02-29 10:00,0.530358,244.063,235.011,230.743,234.107,233.225,229.283,0.792447,0.881882,225.739,230.524
2016-02-29 11:00,0.449385,248.394,231.14,227.817,231.408,230.946,227.601,0.772178,0.885122,225.739,228.782
2016-02-29 13:00,0.428655,281.883,247.357,236.306,248.946,247.915,239.765,0.739782,0.799211,231.473,240.446
2016-02-29 14:00,0.565375,280.239,238.338,232.146,239.669,239.438,233.661,0.69535,0.767226,230.593,235.295
2016-02-29 15:00,0.477982,283.428,252.666,238.963,254.461,253.896,243.241,0.723458,0.795712,236.207,244.175
2016-02-29 16:00,0.30249,262.074,250.954,238.04,251.652,250.557,240.793,0.486149,0.528762,234.185,242.354
2016-02-29 17:00,0.326903,254.966,241.451,234.183,242.515,241.698,235.537,0.661498,0.732722,234.257,238.303
2016-02-29 18:00,0.497524,283.428,260.528,242.942,262.685,261.831,248.499,0.571065,0.631388,240.134,250.34
2016-02-29 19:00,0.601145,282.408,260.365,242.656,261.791,259.684,246.182,0.62449,0.695592,237.333,246.818
2016-02-29 20:00,0.780587,287.871,274.129,249.414,276.772,276.323,255.784,0.657682,0.764871,237.977,251.252
2016-02-29 21:00,1.34781,276.594,255.764,240.766,258.491,255.235,243.241,0.944856,1.43385,238.733,246.032
2016-02-29 22:00,0.0,281.705,281.267,253.621,283.514,282.175,259.614,0.0,0.0,248.879,263.629
2016-02-29 23:00,-0.00613143,284.087,283.611,255.16,285.895,284.061,259.977,-0.00259574,-0.00619004,249.245,263.782
