# timestamp,IR_016,IR_039,IR_087,IR_097,IR_108,IR_120,IR_134,VIS006,VIS008,WV_062,WV_073
2015-04-01 00:00,-0.0,272.836,257.339,245.587,253.669,248.941,235.846,-0.0,0.00195453,221.596,233.773
2015-04-01 01:00,-0.00150888,278.279,267.618,251.429,266.338,261.654,243.383,-0.0,-0.0,225.058,240.835
2015-04-01 02:00,-0.0,287.01,285.546,262.89,287.543,284.492,261.301,-0.0,-0.0,231.156,250.748
2015-04-01 03:00,-0.0,286.864,285.321,262.995,287.27,284.349,260.942,-0.0,-0.0,232.633,251.552
2015-04-01 04:00,-0.0,275.932,272.12,254.69,273.686,270.148,252.982,-0.0,-0.0,232.251,249.928
2015-04-01 05:00,-0.0,285.045,282.214,261.198,283.23,279.361,257.53,-0.0,-0.0,230.835,249.408
2015-04-01 06:00,0.00154062,284.73,281.029,259.902,282.231,278.458,256.285,-0.0,-0.0,229.769,248.348
2015-04-01 07:00,-0.0,276.376,267.326,252.29,264.618,258.774,242.097,-0.0,-0.0,225.835,241.348
2015-04-01 08:00,-0.0,281.346,274.916,255.858,274.156,269.821,250.104,-0.0,-0.0,226.963,244.53
2015-04-01 09:00,-0.00888216,284.41,281.029,259.793,281.943,278.156,256.16,-0.0,-0.0,229.852,248.241
2015-04-01 10:00,0.505375,287.587,283.611,261.305,284.921,281.588,259.127,0.331841,0.624743,231.787,250.135
2015-04-01 11:00,0.482326,291.686,284.642,261.731,285.757,282.467,258.515,0.260912,0.493699,232.709,249.928
2015-04-01 12:00,0.355311,294.933,285.658,262.681,286.172,281.882,257.653,0.166348,0.413569,230.43,248.669
2015-04-01 13:00,0.280274,298.339,289.165,264.747,289.568,285.065,259.37,0.117976,0.334693,231.236,249.408
2015-04-01 14:00,0.225768,300.769,292.108,266.756,292.73,288.167,262.017,0.0897509,0.269621,231.943,250.748
2015-04-01 15:00,0.196772,301.826,293.641,267.74,294.533,289.964,262.373,0.0762251,0.235007,231.787,251.652
2015-04-01 16:00,0.191133,302.511,293.235,267.642,294.021,288.861,263.083,0.0787291,0.224251,232.175,250.849
2015-04-01 17:00,0.188295,300.317,289.805,265.758,289.835,284.779,258.882,0.0885717,0.232338,232.02,250.238
2015-04-01 18:00,0.173955,299.95,293.031,267.544,294.021,289.551,262.965,0.0805914,0.225322,233.896,253.309
2015-04-01 19:00,0.191789,297.549,291.279,266.458,292.209,288.306,263.318,0.123636,0.257429,233.896,253.595
2015-04-01 20:00,0.134214,274.073,272.256,254.572,273.215,272.086,256.785,0.242635,0.260008,234.827,253.309
2015-04-01 21:00,0.179667,222.276,213.031,222.659,211.825,211.983,213.241,0.269142,0.279053,210.278,211.295
2015-04-01 22:00,-0.00728487,204.719,209.734,220.736,207.702,207.651,208.54,-0.0,-0.0,207.502,208.371
2015-04-01 23:00,-0.144579,232.213,224.616,227.248,223.758,221.875,220.489,-0.0724496,-0.137025,219.982,222.096
2015-04-02 00:00,-0.0,237.078,225.937,228.564,224.384,220.685,218.601,-0.0,-0.0,217.491,222.956
2015-04-02 01:00,-0.0,245.913,225.937,228.934,222.806,218.857,215.873,-0.0,-0.0,214.293,219.608
2015-04-02 02:00,-0.0,272.061,256.992,245.451,253.269,245.824,232.387,-0.0,-0.0,220.801,235.146
2015-04-02 03:00,-0.00122336,247.601,231.14,231.45,228.001,224.474,219.551,-0.0,-0.0,217.229,223.999
2015-04-02 04:00,0.0012282,247.601,230.265,230.387,225.919,223.905,219.362,-0.0,-0.0,213.845,219.134
2015-04-02 05:00,-0.0,248.394,234.208,232.146,230.853,227.787,222.329,-0.0,0.00133384,219.382,225.604
2015-04-02 06:00,-0.0,256.589,244.16,237.415,241.58,238.978,230.44,-0.0,-0.0,224.661,233.461
2015-04-02 07:00,-0.0,281.346,275.823,256.434,276.01,272.405,251.944,-0.0,-0.0,228.048,246.595
2015-04-02 08:00,-0.00316345,260.395,252.853,242.656,250.415,248.121,239.765,-0.0,-0.0,225.739,236.9
2015-04-02 09:00,-0.0,266.797,259.206,245.723,258.678,256.18,243.808,-0.0,-0.0,228.312,242.23
2015-04-02 10:00,0.176658,282.923,278.845,258.691,279.613,276.784,256.535,0.219964,0.314729,230.266,247.917
2015-04-02 12:00,0.492592,299.765,272.256,254.572,274.467,271.121,255.027,0.315914,0.457094,233.603,249.721
2015-04-02 13:00,0.300339,300.769,282.331,260.984,283.088,278.76,258.147,0.165905,0.338881,233.382,250.442
2015-04-02 14:00,0.262329,300.769,288.736,265.153,289.701,284.492,260.461,0.11924,0.303866,234.543,251.652
2015-04-02 15:00,0.194817,301.826,293.235,268.13,293.892,288.722,262.965,0.072098,0.230545,234.897,252.244
2015-04-02 16:00,0.182742,302.256,293.336,268.033,294.149,289.137,263.2,0.0691337,0.2172,235.593,252.828
2015-04-02 17:00,0.190477,301.214,293.031,268.033,294.149,289.689,263.436,0.0877536,0.229061,235.593,253.5
2015-04-02 18:00,0.194635,300.134,293.031,267.838,294.149,289.964,263.787,0.0963645,0.238126,235.936,254.162
2015-04-02 19:00,0.236987,298.63,291.174,266.458,292.73,288.999,263.787,0.144919,0.281343,235.867,254.162
2015-04-02 20:00,0.0916989,292.174,288.736,265.153,290.632,287.609,262.847,0.127332,0.151824,235.867,254.814
2015-04-02 21:00,0.590159,282.408,267.618,251.552,264.27,261.477,244.512,0.450937,0.5958,224.258,236.179
2015-04-02 22:00,-0.00714757,238.442,222.198,226.092,218.13,216.652,215.873,-0.0,-0.0,211.135,214.511
2015-04-02 23:00,-0.167038,222.276,202.646,217.576,201.728,201.271,204.658,-0.0818809,-0.150884,202.222,202.271
2015-04-03 00:00,-0.0,218.393,206.1,219.183,204.584,203.351,205.825,-0.0,-0.0,205.663,205.491
2015-04-03 01:00,-0.00150157,213.142,209.734,220.954,207.702,206.513,208.096,-0.0,-0.0,207.502,208.371
2015-04-03 02:00,-0.0,213.142,214.358,223.283,213.381,212.329,213.035,-0.0,-0.0,212.607,213.382
2015-04-03 03:00,-0.0,225.382,218.082,224.102,215.993,215.683,215.674,-0.0,-0.0,212.765,215.332
2015-04-03 04:00,-0.0,218.393,216.471,223.283,215.628,214.364,213.857,-0.0,-0.0,212.922,214.787
2015-04-03 05:00,0.00132054,230.231,222.552,226.287,220.519,219.165,218.601,-0.0,-0.0,215.734,218.895
2015-04-03 06:00,0.0015393,225.382,219.247,224.908,218.824,217.29,217.055,-0.0,-0.0,216.15,218.653
2015-04-03 07:00,-0.0,218.393,222.198,226.481,221.838,220.384,219.172,-0.0,-0.0,218.264,220.763
2015-04-03 08:00,0.00316032,218.393,219.247,224.507,218.13,217.29,217.25,-0.0,-0.0,216.424,217.918
2015-04-03 09:00,-0.0,222.276,213.479,222.027,213.381,212.329,213.653,-0.0,-0.0,212.287,213.382
2015-04-03 10:00,0.397905,233.989,217.285,223.076,217.072,216.652,216.663,0.709274,0.845702,215.31,216.652
2015-04-03 11:00,0.330552,247.601,225.937,227.628,225.615,225.038,223.592,0.733966,0.817255,221.819,225.011
2015-04-03 12:00,0.317452,250.598,236.06,232.834,235.93,235.435,231.743,0.850859,0.935991,226.216,231.53
2015-04-03 13:00,0.239995,253.81,238.83,234.681,238.693,238.747,233.819,0.717348,0.800042,226.871,232.185
2015-04-03 14:00,0.229877,254.396,238.09,234.183,238.693,238.282,233.819,0.602669,0.687835,226.311,231.364
2015-04-03 15:00,0.240748,257.605,238.83,234.017,237.451,236.396,232.227,0.437272,0.525301,225.156,230.863
2015-04-03 16:00,0.21462,294.043,276.718,258.022,277.377,273.2,255.28,0.123348,0.262632,232.557,249.928
2015-04-03 17:00,0.160335,298.045,292.108,267.348,292.989,288.445,262.728,0.0571601,0.208724,233.677,252.244
2015-04-03 18:00,0.167451,297.549,292.005,267.348,293.119,288.722,263.083,0.060362,0.224286,234.113,252.634
2015-04-03 19:00,0.183385,296.114,291.487,266.756,292.73,288.445,263.436,0.080442,0.247594,234.897,253.117
2015-04-03 20:00,0.0370934,291.19,288.52,265.355,290.367,287.048,262.373,0.0596731,0.0823856,234.401,252.828
2015-04-03 21:00,1.44134,275.02,245.248,239.115,240.631,238.515,230.111,0.991559,1.47028,219.863,225.408
2015-04-03 22:00,-0.00701654,278.075,270.468,253.02,269.679,266.835,249.971,-0.0,-0.0,229.685,244.647
2015-04-03 23:00,-0.160101,281.165,275.823,256.664,276.772,273.99,255.658,-0.0837992,-0.152816,232.709,248.025
2015-04-04 00:00,-0.0,287.729,286.217,263.411,288.087,285.35,261.898,-0.0,-0.0,236.071,252.634
2015-04-04 01:00,-0.0,280.239,273.865,255.742,274.623,271.283,252.335,-0.0,-0.0,231.787,246.483
2015-04-04 02:00,-0.0,286.864,285.095,262.681,286.86,284.061,261.779,-0.0,-0.0,232.86,252.439
2015-04-04 03:00,-0.0,275.707,266.442,251.305,263.745,260.405,244.932,-0.0,-0.0,225.254,240.964
2015-04-04 04:00,-0.0,270.434,255.409,244.21,252.262,248.121,235.691,-0.0,-0.0,221.708,234.082
2015-04-04 05:00,-0.00131993,230.231,222.198,226.481,222.162,220.984,219.739,-0.0,-0.0,217.622,219.843
2015-04-04 06:00,-0.0,233.989,228.769,228.934,228.001,226.701,224.481,-0.0,-0.0,221.145,225.604
2015-04-04 07:00,-0.0,255.521,246.942,238.963,246.355,244.973,236.765,-0.0,-0.0,226.963,236.614
2015-04-04 08:00,-0.0,280.427,275.306,256.205,276.01,273.517,254.519,-0.0,-0.0,229.007,246.258
2015-04-04 09:00,-0.0,285.202,283.032,261.198,284.921,282.028,259.735,-0.0,0.00885355,229.263,249.303
2015-04-04 10:00,0.411551,286.864,285.321,262.786,287.679,285.065,261.66,0.33059,0.500713,231.709,250.135
2015-04-04 12:00,0.398535,296.635,287.978,264.543,289.032,284.779,261.301,0.194608,0.427891,232.709,251.452
2015-04-04 13:00,0.373159,301.302,281.742,260.876,283.938,280.406,259.37,0.239359,0.386512,232.935,251.652
2015-04-04 14:00,0.355583,296.531,273.333,255.626,275.242,272.565,256.035,0.281078,0.402453,230.916,249.928
2015-04-04 15:00,0.240237,279.081,260.854,247.332,258.865,256.18,244.512,0.210005,0.326437,228.312,240.964
2015-04-04 16:00,0.211487,299.203,287.432,264.236,287.407,281.441,257.777,0.107219,0.259638,229.935,249.093
2015-04-04 17:00,0.207624,295.26,283.611,261.412,283.938,279.511,256.909,0.178186,0.286608,230.916,250.442
2015-04-04 18:00,0.168319,278.279,272.662,255.16,273.372,271.605,254.773,0.299142,0.331444,230.674,248.669
2015-04-04 19:00,0.480558,260.395,229.673,230.387,228.583,227.787,225.709,0.648007,0.761419,221.708,225.604
2015-04-04 20:00,0.656523,262.074,224.616,227.628,223.443,222.462,220.86,0.730581,0.893832,218.137,221.658
2015-04-04 21:00,1.22346,260.395,217.285,224.102,215.628,214.03,212.619,0.98278,1.45685,211.47,213.382
2015-04-04 22:00,-0.0,271.531,271.848,254.454,274.933,272.883,254.773,-0.0,-0.0,233.085,250.646
2015-04-04 23:00,-0.176407,273.338,274.524,256.089,277.377,276.323,259.249,-0.0905977,-0.160576,233.603,252.731
2015-04-05 00:00,-0.0,271.261,269.343,253.381,270.981,269.494,253.24,-0.0,-0.0,231.076,248.025
2015-04-05 01:00,-0.0,277.026,270.746,253.741,270.332,267.004,249.438,-0.0,-0.0,229.769,246.483
2015-04-05 02:00,-0.0,278.883,274.392,256.205,276.01,273.2,255.532,-0.0,-0.0,231.236,250.544
2015-04-05 03:00,-0.00121962,280.613,277.727,258.134,279.466,276.631,257.406,-0.0,0.00123128,231.787,251.152
2015-04-05 04:00,0.0012257,287.729,285.882,263.307,287.543,284.779,261.898,-0.0,0.00123742,232.251,252.731
2015-04-05 05:00,0.00131939,278.279,275.694,256.892,277.226,275.396,257.653,-0.0,-0.0,233.75,252.731
2015-04-05 06:00,0.00153826,281.883,277.977,258.802,278.873,274.773,254.646,-0.0,-0.0,232.633,250.646
2015-04-05 07:00,0.00200123,266.797,254.69,243.79,252.262,247.501,236.0,-0.0,-0.0,226.027,237.888
2015-04-05 08:00,-0.0,252.585,238.83,234.681,236.695,232.976,226.402,-0.0,-0.0,222.368,231.53
2015-04-05 09:00,-0.0,257.605,248.583,239.57,247.662,245.399,236.153,-0.0,-0.0,228.048,240.964
2015-04-05 10:00,0.701976,243.066,222.198,225.107,221.838,220.685,220.115,0.891543,1.09524,217.491,218.653
2015-04-05 11:00,0.458655,270.151,247.357,239.57,246.575,244.112,236.918,0.552309,0.644825,225.739,237.888
2015-04-05 12:00,0.329956,270.151,251.339,241.354,250.207,247.708,238.428,0.374288,0.521018,227.601,237.888
2015-04-05 13:00,0.254372,250.598,233.392,231.274,233.041,232.725,228.949,0.574794,0.657548,225.058,230.524
2015-04-05 14:00,0.241035,259.954,244.815,237.415,245.248,243.896,237.222,0.369239,0.475426,228.136,237.327
2015-04-05 15:00,0.217581,273.586,259.039,246.399,259.421,256.367,245.628,0.243796,0.343303,229.769,241.475
2015-04-05 16:00,0.213579,261.251,248.784,239.871,248.52,247.293,239.913,0.411599,0.506643,229.178,240.835
2015-04-05 17:00,0.209931,287.3,270.746,253.14,270.169,265.65,250.104,0.214979,0.325066,229.348,244.881
2015-04-05 18:00,0.264687,292.053,279.823,258.58,280.493,276.323,256.41,0.339002,0.431269,231.63,249.617
2015-04-05 19:00,0.477199,288.291,265.243,249.029,263.393,257.301,241.374,0.641158,0.80972,229.601,243.214
2015-04-05 20:00,0.588165,287.01,251.721,242.225,249.368,243.461,232.867,0.697198,0.842796,226.499,239.656
2015-04-05 21:00,0.246219,253.81,238.585,235.173,234.895,232.221,226.574,0.319659,0.381144,221.93,230.524
2015-04-05 22:00,-0.00677206,204.719,204.418,218.73,203.179,201.271,205.127,-0.0,-0.0,202.954,203.524
2015-04-05 23:00,-0.152293,222.276,203.247,217.342,201.728,200.845,203.228,-0.0802872,-0.150848,202.469,203.113
2015-04-06 00:00,-0.00190057,218.393,210.707,220.736,209.394,208.397,209.42,-0.0,-0.0,209.023,209.707
2015-04-06 01:00,-0.00149148,222.276,213.921,222.868,212.997,211.284,211.146,-0.0,-0.0,210.624,212.505
2015-04-06 02:00,-0.00129714,225.382,217.285,223.694,215.26,213.356,213.857,-0.0,-0.00130954,213.078,215.6
2015-04-06 03:00,-0.00121851,227.984,218.082,224.102,216.355,215.027,213.653,-0.0,-0.00123016,213.234,215.867
2015-04-06 04:00,-0.00122499,250.598,236.832,233.513,233.577,230.946,224.126,-0.0,-0.0,219.744,227.694
2015-04-06 05:00,-0.00131891,232.213,226.583,228.004,225.31,223.905,221.23,-0.0,-0.0,219.744,223.793
2015-04-06 06:00,-0.0,235.601,227.845,228.749,226.82,225.874,223.233,-0.0,-0.0,220.801,225.21
2015-04-06 07:00,-0.00200053,253.206,242.37,236.306,241.58,239.208,232.387,-0.0,-0.0,224.156,233.773
2015-04-06 08:00,-0.00315169,260.827,252.479,241.5,251.652,249.955,239.322,-0.0,-0.0,224.76,239.39
2015-04-06 09:00,0.00869735,262.869,251.339,241.061,250.415,247.708,237.827,-0.0,-0.0,226.122,237.748
2015-04-06 10:00,0.214432,282.408,277.224,257.12,277.828,275.085,254.773,0.272338,0.335546,232.784,251.949
2015-04-06 11:00,0.381927,292.174,288.628,264.95,290.101,287.048,263.67,0.184787,0.485415,235.038,257.421
2015-04-06 12:00,0.347955,296.219,290.651,266.059,291.16,287.748,263.2,0.14551,0.413399,236.408,257.595
2015-04-06 13:00,0.341269,299.579,288.628,265.052,289.166,285.919,263.2,0.211898,0.360937,236.94,257.855
2015-04-06 14:00,0.357788,298.242,285.095,262.89,286.997,284.205,262.373,0.284005,0.375318,237.657,258.2
2015-04-06 15:00,0.299361,296.738,285.321,263.203,286.585,284.061,262.61,0.219156,0.336537,237.268,258.372
2015-04-06 16:00,0.332744,296.84,284.755,262.471,286.033,283.629,262.492,0.310687,0.395675,237.398,258.713
2015-04-06 17:00,0.307708,297.248,278.721,258.58,280.054,277.548,259.005,0.212288,0.346604,237.528,257.855
2015-04-06 18:00,0.183562,296.323,288.412,265.052,288.763,284.779,262.136,0.134033,0.234621,236.408,257.682
2015-04-06 19:00,0.0699404,282.234,276.845,257.346,277.226,274.929,256.535,0.110796,0.157162,236.004,256.805
2015-04-06 20:00,0.832954,277.24,220.379,225.306,218.13,216.652,216.269,0.893763,1.07343,216.012,217.418
2015-04-06 21:00,0.65393,291.931,279.213,259.683,277.678,271.444,251.028,0.451687,0.642808,232.175,250.849
2015-04-06 22:00,-0.0,218.393,212.578,222.027,209.394,208.026,209.856,-0.0,-0.0,206.702,206.968
2015-04-06 23:00,-0.19703,227.984,210.224,220.298,208.977,207.651,209.42,-0.0942925,-0.158555,210.278,210.032
2015-04-07 00:00,-0.0,218.393,203.838,217.809,203.179,202.113,203.708,-0.0,-0.0,204.795,203.524
2015-04-07 01:00,-0.00148834,218.393,208.734,220.077,207.269,205.349,207.197,-0.0,-0.0,206.498,206.606
2015-04-07 02:00,-0.0,213.142,204.988,218.502,204.12,203.351,206.286,-0.0,-0.0,204.795,204.328
2015-04-07 03:00,-0.0,218.393,213.031,221.6,212.219,211.635,212.411,-0.0,-0.0,211.8,212.207
2015-04-07 04:00,-0.0,213.142,208.223,220.077,208.131,206.513,208.318,-0.0,0.00123605,208.652,208.711
2015-04-07 05:00,-0.0,222.276,215.218,222.659,213.763,211.635,211.992,-0.0,-0.0,211.8,212.8
2015-04-07 06:00,-0.0,233.989,222.552,226.674,221.838,218.235,215.074,-0.0,0.0015522,216.56,222.956
2015-04-07 07:00,-0.0,272.58,267.18,250.681,266.678,264.106,247.415,-0.0,-0.0,233.677,251.949
2015-04-07 08:00,-0.0,284.57,281.148,260.876,281.655,277.853,256.16,-0.0,-0.0,236.274,254.349
2015-04-07 09:00,-0.00866169,277.026,277.476,258.246,278.873,275.706,255.658,-0.0,-0.0,235.731,254.999
2015-04-07 10:00,0.562093,280.613,275.694,256.778,276.923,274.147,255.28,0.558295,0.600205,236.874,255.911
2015-04-07 11:00,0.76674,292.653,278.101,258.469,280.347,279.661,259.977,0.739042,0.777525,239.532,259.22
2015-04-07 12:00,0.664058,295.476,276.336,257.346,278.128,276.631,258.147,0.652362,0.704786,239.043,258.798
2015-04-07 13:00,0.420557,294.268,276.336,257.572,278.128,275.861,257.406,0.347804,0.44268,237.977,257.942
2015-04-07 14:00,0.333683,297.349,284.642,263.099,285.34,281.735,259.249,0.240981,0.362351,237.977,257.421
2015-04-07 15:00,0.220365,295.583,285.433,263.515,285.201,280.85,257.9,0.125499,0.260874,236.609,256.36
2015-04-07 16:00,0.227067,296.427,285.546,263.411,285.618,281.441,258.638,0.14084,0.273219,235.799,256.805
2015-04-07 17:00,0.274709,296.84,287.432,264.441,288.763,286.343,263.318,0.203521,0.316335,237.977,259.135
2015-04-07 18:00,0.345368,294.043,281.029,260.553,281.076,277.701,256.41,0.316791,0.423873,235.455,256.539
2015-04-07 19:00,0.488504,299.485,279.458,259.683,280.639,277.396,257.406,0.388606,0.511525,236.475,257.942
2015-04-07 20:00,0.411619,296.219,287.102,264.339,287.679,284.779,261.779,0.315638,0.462598,237.333,259.471
2015-04-07 21:00,0.253065,291.065,289.486,265.859,291.16,288.999,264.605,0.428539,0.456222,237.913,260.463
2015-04-07 22:00,-0.00654908,281.526,283.841,262.366,286.722,285.065,262.965,-0.0,-0.0,239.104,260.381
2015-04-07 23:00,-0.170286,285.357,285.546,262.995,287.407,285.777,263.436,-0.0841056,-0.148992,239.227,260.545
2015-04-08 00:00,-0.00188777,283.261,282.799,261.519,284.641,282.321,261.062,-0.0,-0.0,238.981,259.387
2015-04-08 01:00,-0.00148532,270.434,272.256,254.926,274.467,274.147,258.638,-0.0,-0.0,239.349,258.628
2015-04-08 02:00,-0.0,272.836,273.997,255.626,276.315,276.169,259.614,-0.0,0.00130611,239.714,259.804
2015-04-08 03:00,-0.0,273.831,276.336,257.346,278.576,278.458,261.54,-0.0,-0.0,239.834,260.217
2015-04-08 04:00,-0.0,273.088,275.694,256.778,277.978,277.548,259.856,-0.0,-0.0,240.134,260.052
2015-04-08 05:00,0.00131813,282.234,280.066,259.574,280.639,278.156,257.282,-0.0,-0.0,238.483,257.158
2015-04-08 06:00,-0.0,282.059,276.336,257.572,276.468,271.444,250.633,-0.0,-0.0,235.108,253.5
2015-04-08 07:00,-0.00199934,280.613,274.524,257.12,271.785,265.48,246.319,-0.0,-0.0,231.865,250.135
2015-04-08 08:00,-0.0,280.799,276.718,257.685,276.163,271.605,250.765,-0.0,-0.0,233.677,253.405
2015-04-08 09:00,-0.0,277.026,275.046,256.664,276.315,274.147,255.909,-0.0,-0.0,236.742,256.716
2015-04-08 10:00,0.446895,274.787,271.848,254.217,273.843,272.405,254.9,0.50759,0.550204,237.333,255.821
2015-04-08 11:00,0.484492,291.315,274.916,256.434,275.857,273.517,255.027,0.418947,0.513406,236.675,255.639
2015-04-08 12:00,0.606407,297.749,281.624,261.091,283.088,279.959,257.777,0.486326,0.554002,236.94,256.091
2015-04-08 13:00,0.457838,299.013,285.321,263.515,286.86,284.205,261.54,0.364115,0.480373,237.528,257.942
2015-04-08 14:00,0.239109,297.146,288.412,265.456,288.222,284.492,260.942,0.128617,0.295354,237.268,256.716
2015-04-08 15:00,0.22507,297.248,287.76,265.052,287.815,283.917,260.34,0.122587,0.276387,237.006,256.894
2015-04-08 16:00,0.208054,293.24,279.945,260.228,279.022,274.617,253.497,0.125668,0.276936,233.159,250.442
2015-04-08 17:00,0.214121,294.268,281.86,261.198,281.366,276.015,253.497,0.136276,0.287256,234.615,252.244
2015-04-08 18:00,0.336998,281.526,252.101,242.799,246.135,241.475,229.116,0.311275,0.441598,220.686,230.863
2015-04-08 19:00,0.549187,279.859,244.38,238.349,242.747,238.515,228.278,0.610307,0.727698,224.258,235.295
2015-04-08 20:00,0.652166,272.322,238.83,234.845,237.2,234.461,228.782,0.658634,0.821018,222.15,230.011
2015-04-08 21:00,1.04646,276.594,249.978,241.354,247.229,241.698,230.931,0.708832,1.03726,221.596,232.669
2015-04-08 22:00,-0.00644501,238.442,224.279,227.058,221.511,220.081,218.218,-0.0,-0.0,216.287,219.372
2015-04-08 23:00,-0.203127,259.505,238.338,235.01,233.577,228.056,221.782,-0.0883825,-0.145257,215.024,224.204
2015-04-09 00:00,-0.00188167,230.231,220.006,225.107,217.427,215.356,215.074,-0.0,-0.0,213.388,216.131
2015-04-09 01:00,-0.00296483,277.869,270.189,253.381,269.186,265.99,247.959,-0.0,-0.0,226.778,245.114
2015-04-09 02:00,-0.0,280.613,276.971,257.685,277.978,275.085,255.532,-0.0,-0.0,228.224,248.348
2015-04-09 03:00,0.00121559,283.594,279.58,259.683,280.201,276.784,255.406,-0.0,-0.0,227.601,248.669
2015-04-09 04:00,-0.00122324,268.382,253.411,243.509,250.207,245.612,233.976,-0.0,0.00123494,221.371,234.542
2015-04-09 05:00,-0.0,263.636,247.357,239.419,244.349,240.576,230.111,-0.0,-0.0,220.219,231.198
2015-04-09 06:00,-0.00153698,256.589,241.218,235.985,238.938,235.917,227.94,-0.0,-0.0,220.337,228.782
2015-04-09 07:00,-0.00199885,268.986,254.145,243.368,251.447,246.876,233.661,-0.0,-0.0,220.686,234.389
2015-04-09 08:00,0.00314395,251.944,236.318,233.513,234.371,231.203,226.056,-0.0,-0.0,219.744,225.994
2015-04-09 09:00,-0.00859103,272.836,262.931,248.642,261.791,257.671,242.956,-0.0,-0.0,225.546,240.835
2015-04-09 10:00,0.505675,275.932,266.59,250.303,265.654,262.888,247.142,0.474693,0.78796,227.959,243.457
2015-04-09 12:00,0.659804,298.918,283.611,261.731,286.033,283.917,260.701,0.555027,0.633671,229.263,250.95
2015-04-09 13:00,0.341182,285.357,269.059,252.777,270.006,267.171,251.159,0.338876,0.425586,229.769,245.804
2015-04-09 14:00,0.364061,297.749,287.102,264.133,289.032,286.626,263.436,0.295107,0.398882,230.593,252.439
2015-04-09 15:00,0.212644,298.918,291.591,266.954,292.989,289.276,263.905,0.0961734,0.254679,230.916,252.146
2015-04-09 16:00,0.24078,295.151,287.432,264.236,289.166,286.202,262.847,0.180215,0.29143,230.755,251.949
2015-04-09 17:00,0.259812,287.444,278.474,258.58,279.907,278.307,259.37,0.326307,0.380329,230.835,250.95
2015-04-09 18:00,0.171113,295.583,287.76,264.133,288.763,285.208,261.898,0.126047,0.217664,230.835,252.047
2015-04-09 19:00,0.354913,295.151,286.328,263.411,286.447,283.629,261.779,0.271234,0.465332,231.787,252.731
2015-04-09 20:00,0.353778,281.346,261.34,245.859,260.888,257.671,242.097,0.488019,0.601954,227.147,241.854
2015-04-09 21:00,0.682451,260.827,245.676,238.04,246.575,244.328,236.307,0.61182,0.851087,226.592,237.608
2015-04-09 22:00,-0.0126911,258.576,248.985,240.469,247.878,245.186,235.227,-0.0,-0.0,224.46,236.614
2015-04-09 23:00,-0.204754,266.797,258.365,246.667,257.361,254.855,242.097,-0.0854948,-0.141583,224.86,238.303
2015-04-10 00:00,-0.0,285.357,283.148,261.625,284.079,281.588,259.977,-0.0,-0.0,228.662,249.198
2015-04-10 01:00,-0.00147962,276.594,278.474,258.58,281.221,279.511,260.098,-0.0,-0.0,230.916,251.252
2015-04-10 02:00,-0.0,280.799,272.796,254.926,272.264,268.67,249.171,-0.0,-0.0,225.739,242.848
2015-04-10 03:00,-0.0,272.58,268.199,252.29,268.191,265.82,249.171,-0.0,-0.0,225.643,243.336
2015-04-10 04:00,-0.0,283.093,280.549,259.683,282.087,279.061,258.27,-0.0,-0.0,228.835,248.775
2015-04-10 05:00,-0.00131758,283.594,279.945,259.244,280.785,278.307,257.9,-0.0,-0.0,229.007,247.808
2015-04-10 06:00,0.00153681,287.444,286.217,263.411,288.358,286.06,262.492,-0.0,-0.0,230.184,251.751
2015-04-10 07:00,0.00199841,281.883,277.601,257.572,278.427,275.861,255.909,-0.0,-0.0,228.488,246.929
2015-04-10 08:00,-0.00314152,285.97,284.3,262.049,286.447,283.773,260.461,-0.0,-0.0,229.601,250.135
2015-04-10 09:00,-0.0,285.357,283.726,261.944,285.618,283.339,260.942,-0.0,-0.0,229.517,249.303
2015-04-10 10:00,0.199599,285.97,283.841,261.625,285.757,282.904,260.098,0.281667,0.380624,229.769,249.928
2015-04-10 11:00,0.425989,287.587,280.909,259.793,281.51,278.609,258.147,0.246321,0.54894,229.517,247.917
2015-04-10 12:00,0.268668,278.482,268.916,251.922,269.021,266.667,251.553,0.262058,0.39058,230.511,245.114
2015-04-10 13:00,0.389995,297.749,284.414,261.731,286.447,283.484,261.062,0.281444,0.398708,231.473,250.646
2015-04-10 14:00,0.302966,299.391,289.165,265.052,290.632,287.188,262.728,0.188195,0.323013,231.943,251.352
2015-04-10 15:00,0.287614,298.242,287.651,264.236,289.3,286.343,262.492,0.204244,0.314449,231.943,251.452
2015-04-10 16:00,0.239043,291.19,282.799,261.305,284.781,282.613,261.182,0.262325,0.327613,231.787,251.051
2015-04-10 17:00,0.246469,285.202,276.08,256.205,278.128,276.631,258.147,0.348627,0.405439,231.473,250.442
2015-04-20 01:00,-0.00145775,288.152,286.992,264.543,288.897,286.343,262.255,-0.0,-0.0,232.405,254.068
2015-04-20 02:00,-0.0,288.012,286.439,264.339,288.222,285.493,262.373,-0.0,-0.0,232.709,253.88
2015-04-22 17:00,0.208241,296.84,289.593,266.159,290.897,287.329,263.2,0.141313,0.276702,232.481,251.352
2015-04-22 18:00,0.246086,296.635,289.165,265.959,290.5,287.329,263.436,0.164823,0.307768,233.603,251.949
2015-04-22 19:00,0.245414,296.531,290.229,266.657,291.817,288.027,262.847,0.149953,0.326941,233.603,252.342
2015-04-22 20:00,0.0603406,291.809,288.736,265.557,290.101,286.907,262.492,0.110041,0.112463,234.472,252.342
2015-04-22 21:00,0.288018,289.91,287.322,264.645,289.166,285.635,261.898,0.34141,0.407079,232.784,251.252
2015-04-22 22:00,-0.0,288.705,286.772,264.133,288.358,285.35,261.301,-0.0,-0.0,233.159,250.95
2015-04-22 23:00,-0.15818,287.01,283.032,261.731,283.656,279.661,257.282,-0.0468758,-0.0958153,231.315,249.093
2015-04-23 00:00,-0.074469,282.753,276.08,257.459,275.396,271.444,252.464,-0.0246059,-0.0531767,226.685,243.577
2015-04-23 01:00,-0.00145326,271.531,254.871,244.21,251.242,246.457,232.066,-0.0,-0.0,220.916,232.669
2015-04-23 02:00,0.00127819,268.686,250.371,241.646,246.355,241.027,229.781,-0.0,-0.0,219.26,229.489
2015-04-23 03:00,-0.0,277.24,263.867,250.051,261.971,256.18,238.876,-0.0,0.00122089,223.746,238.165
2015-04-23 04:00,-0.0,257.103,235.011,233.681,229.444,224.19,218.792,-0.0,-0.0,214.734,222.313
2015-04-23 05:00,0.00131862,277.026,267.326,252.656,265.826,261.121,245.35,-0.0,-0.0,225.835,240.706
2015-04-23 06:00,-0.0,280.05,271.574,255.16,269.842,264.279,244.932,-0.0,-0.0,225.739,241.602
2015-04-23 07:00,0.00199625,277.869,269.059,253.741,268.524,263.933,246.182,-0.0,-0.0,225.449,241.475
2015-04-23 08:00,-0.0,274.314,261.982,248.512,259.974,254.089,237.977,-0.0,-0.0,222.04,236.325
2015-04-23 09:00,0.00808548,265.095,248.583,241.207,244.122,238.978,229.283,-0.0,-0.0,218.264,228.96
2015-04-23 10:00,0.342571,271.531,255.941,244.488,253.669,250.156,237.977,0.38674,0.537983,224.46,235.74
2015-04-23 12:00,0.252573,270.713,249.185,240.171,246.135,242.805,232.387,0.284501,0.400694,220.686,230.863
2015-04-23 13:00,0.246252,261.251,230.559,230.921,227.708,225.038,221.782,0.35139,0.457227,217.491,222.096
2015-04-23 14:00,0.203054,259.954,242.142,236.625,241.58,239.895,234.291,0.318752,0.426449,225.546,233.773
2015-04-23 15:00,0.235045,294.268,282.448,261.305,282.517,278.307,257.777,0.151909,0.280819,229.852,247.917
2015-04-23 16:00,0.225155,297.549,288.736,265.153,289.434,285.777,262.255,0.137022,0.268507,230.266,250.442
2015-04-23 17:00,0.216888,294.602,285.546,263.099,286.585,282.904,260.219,0.152381,0.281079,230.101,249.408
2015-04-23 18:00,0.245575,293.93,287.212,264.236,288.358,285.35,262.61,0.206364,0.316893,232.709,251.352
2015-04-23 19:00,0.188551,294.602,289.165,265.355,290.367,286.626,263.2,0.135915,0.25209,233.75,252.537
2015-04-23 20:00,0.234842,291.563,281.86,260.984,280.785,276.323,255.406,0.21077,0.279762,228.921,246.818
2015-04-23 21:00,0.0659948,275.251,261.662,248.252,259.051,255.614,241.953,0.335266,0.333128,224.359,236.325
2015-04-23 22:00,-0.0053383,288.012,285.658,263.203,287.543,284.061,261.182,-0.0,-0.00538934,232.784,251.652
2015-04-23 23:00,-0.168099,282.581,279.336,259.464,279.907,275.706,255.406,-0.0467019,-0.0901565,230.755,249.093
2015-04-24 00:00,-0.081586,263.636,244.16,239.115,239.426,233.969,224.834,-0.0245613,-0.0530803,216.15,225.408
2015-04-24 01:00,-0.00145197,251.944,237.339,234.35,234.371,230.17,223.233,-0.0,-0.0,219.382,228.782
2015-04-24 02:00,-0.0,222.276,218.474,224.908,217.072,215.356,215.274,-0.0,-0.0,214.441,216.909
2015-04-24 03:00,-0.00120929,213.142,212.119,222.449,211.428,209.497,210.504,-0.0,-0.0,210.966,211.602
2015-04-24 04:00,-0.0,213.142,213.921,223.283,212.219,210.219,211.781,-0.0,0.0012333,210.796,212.8
2015-04-24 05:00,0.00131896,218.393,218.474,225.306,217.78,216.008,215.474,-0.0,-0.0,215.024,217.418
2015-04-24 06:00,-0.0,227.984,224.95,227.438,223.758,222.462,221.415,-0.0,-0.0,218.009,222.313
2015-04-24 07:00,-0.0,251.944,240.984,236.466,239.426,236.635,231.257,-0.0,-0.0,225.156,232.508
2015-04-24 08:00,-0.00310861,251.944,238.338,234.845,235.414,231.968,227.26,-0.0,-0.0,220.57,228.242
2015-04-24 09:00,-0.0,265.446,251.339,242.225,248.733,244.544,235.072,-0.0,-0.0,222.906,233.928
2015-04-24 10:00,0.590933,284.888,278.968,258.358,279.907,276.477,255.784,0.424203,0.713305,229.852,248.241
2015-04-24 11:00,0.406104,292.294,285.658,263.203,286.86,283.049,259.735,0.21256,0.491983,230.916,249.513
2015-04-24 12:00,0.470969,296.427,255.23,244.626,253.469,246.666,236.46,0.362343,0.518904,229.093,238.986
2015-04-24 13:00,0.235079,281.346,265.696,250.681,263.745,259.139,244.652,0.206359,0.371695,228.4,242.478
2015-04-24 14:00,0.227613,282.234,264.482,249.797,263.04,258.957,244.372,0.219172,0.34994,226.311,238.165
2015-04-24 15:00,0.282023,296.84,283.611,261.519,283.372,277.853,254.9,0.182047,0.324185,231.156,248.562
2015-04-24 16:00,0.207713,297.549,288.195,264.441,289.032,284.349,260.34,0.117247,0.269613,231.787,250.135
2015-04-24 17:00,0.242607,297.248,287.978,264.849,288.897,284.779,261.421,0.155697,0.307328,233.01,251.051
2015-04-24 18:00,0.0426972,292.414,288.303,264.747,289.434,285.635,261.898,0.0550134,0.104952,233.159,251.652
2015-04-24 19:00,0.138561,288.291,275.436,255.626,274.312,269.657,248.634,0.169462,0.248686,230.018,247.04
2015-04-24 20:00,0.8697,273.831,200.125,217.576,198.671,197.752,201.016,0.965736,1.16109,201.72,200.502
2015-04-24 21:00,0.384832,222.276,196.665,215.909,194.798,194.933,198.719,0.586506,0.699319,198.438,196.01
2015-04-24 22:00,-0.00528822,213.142,202.034,218.502,200.733,199.543,203.708,-0.0,-0.0,202.469,202.696
2015-04-24 23:00,-0.115157,225.382,218.082,224.708,216.355,213.694,213.447,-0.0354556,-0.0766243,215.167,217.918
2015-04-25 00:00,-0.0886853,232.213,224.616,228.004,222.162,219.777,218.41,-0.0260515,-0.0511618,217.491,221.878
2015-04-25 01:00,-0.0,257.103,248.177,240.913,246.135,241.921,233.503,-0.0,-0.00146464,223.329,236.179
2015-04-25 02:00,-0.0,263.255,250.566,242.369,248.307,244.112,233.819,-0.0,-0.0,222.368,235.444
2015-04-25 03:00,-0.0,274.314,262.616,248.771,261.069,256.555,240.938,-0.0,-0.0,224.054,238.578
2015-04-25 04:00,-0.0,275.251,262.616,249.029,260.706,255.614,238.577,-0.0,-0.00123355,222.259,236.325
2015-04-25 05:00,-0.0,272.061,259.373,246.934,257.361,252.927,238.727,-0.0,-0.0,222.692,235.444
2015-04-25 06:00,0.00153922,276.376,268.773,252.534,268.69,264.451,247.142,-0.0,-0.0,227.42,243.336
2015-04-25 07:00,-0.0,275.02,271.437,254.572,273.057,269.329,253.753,-0.0,-0.0,230.674,247.917
2015-04-25 08:00,-0.0,286.271,284.528,262.049,286.86,283.917,260.942,-0.0,-0.0,231.315,250.032
2015-04-25 09:00,-0.00800827,279.473,279.702,259.024,281.943,279.661,259.492,-0.0,-0.0,230.43,249.198
2015-04-25 10:00,0.63756,277.24,265.696,250.681,267.69,265.309,251.291,0.572871,0.709334,230.511,247.59
2015-04-25 11:00,0.664272,289.247,260.692,247.728,262.685,261.654,249.705,0.575006,0.663129,230.511,247.151
2015-04-25 12:00,0.60932,300.225,261.34,248.252,264.095,263.237,250.765,0.517835,0.619736,231.473,248.241
2015-04-25 13:00,0.447652,297.749,266.738,251.552,267.857,265.82,252.335,0.364335,0.441421,231.63,247.917
2015-04-25 14:00,0.295662,297.749,287.869,264.543,289.3,285.777,262.136,0.165627,0.322609,231.552,250.34
2015-04-25 15:00,0.255081,297.749,286.992,263.618,288.493,284.636,261.062,0.143589,0.274499,231.865,250.34
2015-04-25 16:00,0.297955,297.349,285.994,263.307,287.815,284.492,261.182,0.211433,0.319425,231.076,250.442
2015-04-25 17:00,0.240612,297.248,288.195,264.441,289.3,285.493,261.54,0.140636,0.283658,232.481,251.452
2015-04-25 18:00,0.272491,295.368,285.77,263.099,287.27,283.917,260.701,0.197532,0.335391,233.085,252.342
2015-04-25 19:00,0.206714,294.823,289.911,265.557,291.16,287.188,262.255,0.118141,0.281731,234.041,253.117
2015-04-25 20:00,0.18272,292.534,289.272,265.254,290.632,287.329,263.083,0.166922,0.281554,234.615,253.405
2015-04-25 21:00,0.0919038,289.514,287.102,264.133,288.628,285.635,261.898,0.389074,0.463912,234.615,253.021
2015-04-25 22:00,-0.0,287.444,284.982,262.576,285.895,282.904,259.614,-0.0,-0.0,234.543,252.634
2015-04-25 23:00,-0.10433,283.76,277.601,258.022,278.128,275.085,255.153,-0.0331261,-0.0737293,231.394,248.133
2015-04-26 00:00,-0.0686644,284.249,277.852,258.134,277.678,273.359,251.814,-0.0214193,-0.0456058,229.769,248.882
2015-04-26 01:00,-0.0,222.276,218.862,224.708,218.478,216.972,217.055,-0.00122743,-0.0,216.56,217.918
2015-04-26 02:00,-0.001277,246.775,232.839,231.45,230.294,227.246,223.233,-0.0,-0.0,218.391,223.377
2015-04-26 03:00,-0.0,276.376,265.243,250.429,263.569,258.774,242.527,-0.0,-0.0,224.76,239.789
2015-04-26 04:00,-0.0,282.059,277.476,257.91,277.828,275.085,255.027,-0.0,-0.0,229.093,246.483
2015-04-26 05:00,-0.00131972,286.121,284.071,262.049,286.033,283.194,260.34,-0.0,-0.0,231.709,251.152
2015-04-26 06:00,-0.0,283.428,280.066,259.902,280.054,274.929,253.24,-0.0,-0.0,229.935,248.669
2015-04-26 07:00,-0.0019961,279.667,273.466,255.16,273.529,269.657,251.028,-0.0,-0.0,229.852,246.145
2015-04-26 08:00,0.00310333,273.338,269.767,253.261,271.142,266.835,252.205,-0.0,-0.0,234.827,249.408
2015-04-26 09:00,-0.0,269.576,264.329,250.051,265.654,261.477,248.768,-0.0,-0.0,235.593,248.348
2015-04-26 10:00,0.382316,287.444,286.105,263.515,288.493,286.343,262.61,0.323706,0.505755,236.874,254.349
2015-04-26 11:00,0.376789,290.558,287.869,264.441,290.101,287.748,263.2,0.195838,0.45195,236.675,254.722
2015-04-26 12:00,0.333323,294.268,290.017,266.059,291.948,288.722,263.905,0.150777,0.396436,236.742,255.275
2015-04-26 13:00,0.266483,296.738,291.798,266.855,293.248,289.826,263.67,0.113553,0.325298,237.333,255.639
2015-04-26 14:00,0.220333,297.947,292.417,267.74,293.635,289.964,264.138,0.0901052,0.273888,237.657,255.275
2015-04-26 15:00,0.195568,298.436,291.902,267.249,293.248,289.413,263.553,0.0845804,0.247152,236.874,254.722
2015-04-26 16:00,0.189482,298.533,291.902,267.446,293.506,289.413,263.67,0.0868514,0.237318,236.874,254.814
2015-04-26 17:00,0.23703,298.339,290.335,266.358,291.948,288.999,263.436,0.147879,0.280228,238.42,255.73
2015-04-26 18:00,0.245803,297.449,290.229,265.758,292.079,289.137,263.318,0.165226,0.303087,238.981,256.539
2015-04-26 19:00,0.184734,295.26,291.902,267.446,293.506,290.375,264.488,0.118963,0.270556,239.41,256.982
2015-04-26 20:00,0.214044,292.889,290.756,266.756,292.989,290.375,264.953,0.226539,0.338869,239.471,257.333
2015-04-26 21:00,0.0,289.247,289.165,265.456,291.817,289.826,264.721,0.480076,0.457934,238.42,257.158
2015-04-26 22:00,-0.00519494,288.291,288.412,265.052,291.16,289.551,264.488,-0.0,-0.0,239.41,257.508
2015-04-26 23:00,-0.150784,287.729,288.087,264.645,290.897,289.689,264.953,-0.0396212,-0.0813618,239.593,257.942
2015-04-27 00:00,-0.0920131,286.864,287.651,264.543,290.632,289.276,264.837,-0.0229139,-0.0473571,239.104,257.595
2015-04-27 01:00,-0.00144866,286.421,286.882,264.236,289.701,288.306,263.553,-0.0,-0.0,237.977,256.716
2015-04-27 02:00,-0.0,285.818,285.882,263.618,288.087,286.202,262.492,-0.0,-0.0,236.675,255.366
2015-04-27 03:00,0.00120946,283.428,284.755,262.995,287.815,286.907,263.67,-0.0,-0.0,238.483,256.091
2015-04-27 04:00,0.00122245,285.665,286.217,263.515,289.032,287.888,264.255,-0.0,-0.0,237.203,255.911
2015-04-27 05:00,-0.0,284.73,285.546,263.203,288.358,287.188,264.022,-0.0,-0.0,237.203,256.001
2015-04-27 06:00,-0.0,284.888,285.433,262.786,288.222,287.048,263.318,-0.0,-0.0,237.268,256.001
2015-04-27 07:00,-0.0,272.58,269.626,253.14,270.981,267.673,252.723,-0.0,-0.0,237.203,252.731
2015-04-27 08:00,-0.0,282.753,282.682,260.769,284.921,283.339,260.942,-0.0,-0.0,236.071,255.183
2015-04-27 09:00,0.00792944,281.346,280.429,259.683,282.66,280.257,259.614,-0.0,-0.0,235.317,253.69
2015-04-27 11:00,0.378807,289.779,288.195,264.339,290.764,289.276,264.372,0.190536,0.492235,236.341,256.271
2015-04-27 12:00,0.337016,294.156,290.651,265.959,292.6,290.375,264.372,0.147528,0.423561,236.139,256.271
2015-04-27 13:00,0.267509,296.943,292.929,267.446,294.788,292.006,265.069,0.11251,0.342437,236.207,256.36
2015-04-27 14:00,0.218157,298.436,294.346,268.13,296.182,292.948,265.532,0.0866242,0.287075,236.341,256.181
2015-04-27 15:00,0.1935,299.203,294.446,269.0,296.559,293.35,265.878,0.0765367,0.263794,235.386,256.36
2015-04-27 16:00,0.210288,298.144,291.694,267.052,294.149,291.735,265.301,0.122334,0.270066,235.731,256.539
2015-04-27 17:00,0.184846,297.947,293.133,267.348,294.788,292.141,265.647,0.0981495,0.254616,235.662,256.805
2015-04-27 18:00,0.192405,297.449,293.438,267.74,295.677,292.948,265.762,0.102218,0.268515,235.867,256.982
2015-04-27 19:00,0.201727,296.427,293.944,268.033,296.433,293.883,266.222,0.11091,0.298871,235.662,257.246
2015-04-27 20:00,0.221449,294.043,292.417,266.855,294.916,293.082,265.993,0.1875,0.342801,237.006,257.769
2015-04-27 21:00,0.293864,289.91,290.123,265.557,292.989,291.735,265.301,0.995258,1.18669,237.398,258.028
2015-04-27 22:00,-0.00515159,288.291,289.593,265.153,292.209,290.921,265.762,-0.0,-0.0,237.137,258.286
2015-04-27 23:00,-0.139946,288.012,288.736,264.645,291.423,290.101,264.953,-0.0351087,-0.0758746,236.742,258.028
2015-04-28 00:00,-0.0918799,287.444,287.869,264.031,290.5,288.999,264.605,-0.0228808,-0.0454697,236.475,257.508
2015-04-28 01:00,-0.00144775,285.665,284.642,262.155,286.722,284.779,261.421,-0.0,-0.00146159,234.041,255.639
2015-04-28 02:00,-0.00127653,286.271,286.328,263.411,288.763,287.329,263.67,-0.0,-0.0,234.401,256.982
2015-04-28 03:00,-0.00120961,279.667,273.865,255.626,271.625,267.506,249.171,-0.0,-0.0,229.263,248.133
2015-04-28 04:00,-0.0,280.427,273.599,255.742,272.104,268.505,248.903,-0.0,-0.0,229.433,247.808
2015-04-28 05:00,-0.0,282.753,281.624,260.445,283.23,281.441,259.249,-0.0,-0.0,234.543,255.183
2015-04-28 06:00,0.00154038,280.427,276.08,256.892,276.62,273.99,253.625,-0.0,-0.0,230.755,250.34
2015-04-28 07:00,-0.0,275.02,265.545,250.177,263.217,258.957,242.671,-0.0,0.00201504,225.931,243.336
2015-04-28 09:00,0.00788942,274.073,265.846,250.051,265.482,262.361,245.628,-0.0,-0.0,224.661,242.602
2015-04-28 10:00,0.460668,281.165,275.306,255.974,275.55,272.883,252.464,0.390047,0.670251,227.147,248.348
2015-04-28 11:00,0.343157,286.121,278.968,258.58,279.17,275.861,254.646,0.226693,0.48349,228.048,249.408
2015-04-28 13:00,0.289609,292.414,279.091,259.024,277.678,271.765,249.838,0.0,0.379204,226.499,247.04
2015-04-28 14:00,0.228046,297.549,291.902,266.756,292.989,289.413,262.492,0.0933464,0.301886,232.935,255.457
2015-04-28 15:00,0.185743,294.933,286.217,263.307,286.172,282.028,257.406,0.0948411,0.263385,229.517,251.652
2015-04-28 16:00,0.242751,292.414,280.669,259.574,280.931,277.548,254.773,0.181213,0.314678,229.178,250.544
2015-04-28 17:00,0.215579,295.69,286.439,263.515,287.134,283.049,258.638,0.122575,0.292305,230.266,252.047
2015-04-28 18:00,0.21428,294.713,288.52,264.849,289.835,286.626,261.301,0.134868,0.296733,232.02,253.974
2015-04-28 19:00,0.184641,294.602,290.44,265.758,291.948,288.999,263.318,0.109435,0.276947,231.076,253.69
2015-04-28 20:00,0.114487,291.563,290.229,265.355,292.209,289.964,263.787,0.0969358,0.18091,232.251,254.814
2015-04-28 21:00,0.206434,272.322,265.243,249.542,264.965,262.712,247.279,1.04872,1.25044,228.662,242.971
2015-04-28 22:00,-0.0,281.346,274.655,255.393,273.843,271.605,252.723,-0.0,-0.0,230.755,248.025
2015-04-28 23:00,-0.139528,280.613,277.727,257.233,279.318,276.938,257.406,-0.0371917,-0.0756481,232.328,251.252
2015-04-29 00:00,-0.0575718,283.924,281.505,259.902,282.66,280.554,259.977,-0.0182797,-0.039959,231.63,251.552
2015-04-29 01:00,-0.0,275.02,271.848,253.98,273.372,271.121,254.773,-0.0,-0.0,231.709,250.95
2015-04-29 02:00,-0.00127638,264.377,265.092,249.542,267.354,267.171,253.625,-0.0,-0.0,231.473,250.646
2015-04-29 03:00,-0.0,268.073,266.738,251.056,269.021,268.339,254.773,-0.0,-0.0,230.996,250.748
2015-04-29 04:00,-0.0,267.761,265.995,250.177,268.191,267.004,253.111,-0.0,-0.0,231.315,250.135
2015-04-29 05:00,-0.0,265.095,265.995,250.177,267.522,267.004,253.111,-0.0,-0.0,230.018,249.303
2015-04-29 06:00,-0.0,265.446,266.59,250.931,269.186,268.67,254.009,-0.0,-0.0,229.517,249.825
2015-04-29 07:00,0.00199587,263.636,264.788,249.414,266.338,265.48,252.723,-0.0,-0.0,229.178,248.669
2015-04-29 08:00,-0.0,268.382,265.243,249.797,266.508,264.967,249.037,-0.0,-0.0,226.871,245.114
2015-04-29 09:00,0.00784902,274.314,266.145,250.806,265.997,261.477,244.652,-0.0,-0.0,224.258,241.854
2015-04-29 10:00,0.398568,281.165,273.065,254.572,273.057,269.329,249.705,0.418924,0.568879,226.122,245.114
2015-04-29 11:00,0.28059,286.717,281.742,259.902,283.088,280.702,257.158,0.208681,0.409597,228.488,248.562
2015-04-29 12:00,0.337584,291.686,284.982,262.049,286.172,282.758,259.37,0.172282,0.441188,229.935,249.198
2015-04-29 13:00,0.264307,293.472,284.982,262.366,285.757,281.588,257.653,0.129797,0.346884,229.263,248.133
2015-04-29 14:00,0.362321,288.841,255.764,244.765,254.066,248.736,238.278,0.269552,0.411699,226.685,238.441
2015-04-29 15:00,0.438401,282.581,240.277,236.146,239.911,238.515,233.026,0.388066,0.501508,225.931,234.542
2015-04-29 16:00,0.416818,273.831,235.275,232.834,234.633,233.474,228.614,0.442065,0.531464,224.76,231.031
2015-04-29 17:00,0.335098,297.549,263.401,249.029,260.158,253.51,240.06,0.239562,0.379791,229.178,241.602
2015-04-29 18:00,0.413647,298.436,262.616,248.771,260.888,252.341,240.646,0.308271,0.458015,228.488,240.446
2015-04-29 19:00,0.281492,290.685,279.458,259.354,279.318,275.706,253.111,0.211357,0.378016,227.87,244.998
2015-04-29 20:00,0.735021,289.381,263.867,249.924,262.15,255.803,240.938,0.583977,0.797955,226.122,238.303
2015-04-29 21:00,2.04496,284.73,279.213,258.913,280.201,277.243,254.264,2.02004,3.09676,229.348,246.929
2015-04-29 22:00,-0.00507107,280.613,275.436,257.12,276.468,271.444,252.075,-0.0,-0.0,230.018,246.595
2015-04-29 23:00,-0.141708,265.095,258.703,246.667,259.791,257.115,247.279,-0.0370859,-0.075433,231.709,245.575
2015-04-30 00:00,-0.0592956,267.444,261.501,247.991,262.507,259.684,246.182,-0.0167352,-0.0399083,230.835,245.46
2015-04-30 01:00,-0.0014462,285.202,284.642,262.576,287.27,284.492,261.898,-0.0,-0.0,233.677,252.537
2015-04-30 02:00,-0.0,263.255,258.195,245.995,259.421,257.486,247.415,-0.0,-0.0,233.896,247.261
2015-04-30 03:00,-0.00121002,281.165,279.823,259.574,282.231,278.156,257.53,-0.0,-0.0,234.041,251.252
2015-04-30 04:00,-0.00122357,285.818,286.105,263.307,289.032,287.888,263.318,-0.0,-0.0,234.897,254.162
2015-04-30 05:00,-0.00132151,285.357,286.105,263.099,288.763,287.469,262.965,-0.0,-0.0,237.006,255.091
2015-04-30 06:00,-0.0,285.045,285.77,263.307,288.628,287.329,263.318,-0.0,-0.0,240.957,257.158
2015-04-30 07:00,-0.0,285.045,285.77,262.89,288.358,287.469,263.318,-0.0,-0.0,241.189,257.769
2015-04-30 08:00,0.00309184,284.57,285.208,262.261,288.087,286.767,262.847,-0.0,-0.0,241.874,257.508
2015-04-30 09:00,-0.0,284.249,285.321,262.261,288.087,287.048,262.965,-0.0,-0.0,243.472,259.22
2015-04-30 10:00,0.348669,285.357,286.105,262.681,288.628,288.027,264.138,0.330643,0.563203,244.006,259.97
2015-04-30 11:00,0.35842,289.779,288.52,264.339,290.764,289.413,264.022,0.190478,0.492727,244.479,260.463
2015-04-30 12:00,0.322789,293.816,291.174,266.259,293.377,291.329,264.138,0.143534,0.426685,244.894,260.952
2015-04-30 13:00,0.265344,296.635,293.031,267.642,295.17,292.679,265.069,0.10784,0.348245,245.355,261.355
2015-04-30 14:00,0.228265,298.436,293.944,268.227,296.056,293.35,265.416,0.0992129,0.296509,245.253,261.515
2015-04-30 15:00,0.201474,298.822,294.245,268.324,296.182,293.483,265.993,0.0871086,0.262545,244.997,261.755
2015-04-30 16:00,0.192605,298.63,293.843,268.033,295.93,293.216,265.762,0.087057,0.252927,245.304,262.072
2015-04-30 17:00,0.223868,296.114,290.123,265.959,292.209,289.826,264.605,0.141153,0.291727,245.253,261.755
2015-04-30 18:00,0.228017,295.902,291.07,266.557,293.119,290.648,264.721,0.139523,0.30177,245.809,262.23
2015-04-30 19:00,0.197828,295.26,293.031,267.935,295.297,292.814,266.108,0.110913,0.283386,246.603,262.545
2015-04-30 20:00,0.2291,292.771,292.211,267.249,294.533,292.948,266.108,0.176736,0.339226,246.944,263.629
2015-04-30 21:00,3.71689,288.43,289.486,265.456,292.079,291.329,265.878,6.29417,8.44296,247.474,264.01
2015-04-30 22:00,-0.00503375,286.864,288.195,264.645,290.764,289.964,265.647,-0.0,-0.0,247.949,263.934
2015-04-30 23:00,-0.138755,286.569,287.541,264.031,290.101,289.551,265.185,-0.03481,-0.0752291,247.949,264.01
