# timestamp,IR_016,IR_039,IR_087,IR_097,IR_108,IR_120,IR_134,VIS006,VIS008,WV_062,WV_073
2015-05-01 00:00,-0.060356,286.121,286.992,264.236,289.434,288.861,264.953,-0.0175211,-0.0400417,247.76,263.552
2015-05-01 01:00,-0.00141132,285.512,286.439,264.031,288.763,288.167,264.605,-0.0,-0.00142482,247.996,263.09
2015-05-01 02:00,-0.0,285.202,286.105,263.721,288.358,287.469,264.138,-0.0,-0.0,247.996,263.322
2015-05-01 03:00,-0.0,278.684,279.702,259.464,281.799,280.85,261.421,-0.0,-0.0,248.277,263.012
2015-05-01 04:00,0.0012329,283.261,283.726,261.944,285.895,284.492,263.67,-0.0,-0.0,248.371,263.244
2015-05-01 05:00,-0.00134582,285.045,285.658,262.89,287.679,286.626,264.372,-0.0,-0.0,248.043,263.706
2015-05-01 06:00,-0.0,284.41,285.433,262.786,287.407,286.767,263.905,-0.0,-0.0,248.043,263.706
2015-05-01 07:00,0.00210125,283.924,285.208,262.681,287.679,286.767,264.138,-0.0,-0.0,248.324,263.782
2015-05-01 08:00,-0.0,284.087,285.208,262.576,287.407,286.767,264.255,-0.0,-0.0,247.996,263.934
2015-05-01 09:00,-0.0,283.594,285.095,262.471,287.27,286.907,264.022,-0.0,-0.0,248.09,264.314
2015-05-01 10:00,0.33861,285.202,285.658,263.099,288.087,287.469,264.255,0.2867,0.492662,247.522,264.238
2015-05-01 11:00,0.371458,289.779,288.52,264.543,290.632,289.276,265.185,0.18518,0.511694,246.944,264.615
2015-05-01 12:00,0.321036,292.889,291.07,266.259,292.86,291.057,265.878,0.121851,0.460453,247.041,264.839
2015-05-01 13:00,0.260308,294.713,292.622,267.544,294.405,292.276,265.878,0.0948752,0.379401,246.993,264.989
2015-05-01 14:00,0.219694,296.008,293.641,268.033,295.424,293.483,266.222,0.0802664,0.325095,246.701,264.989
2015-05-01 15:00,0.193037,296.531,293.235,268.13,295.297,293.216,266.337,0.0738527,0.284385,246.357,264.989
2015-05-01 16:00,0.178869,296.738,294.346,268.807,295.93,294.016,266.337,0.0670342,0.270868,245.96,264.839
2015-05-01 17:00,0.187327,295.69,292.52,267.935,294.661,292.814,265.532,0.0813735,0.271343,245.759,264.464
2015-05-01 18:00,0.2002,294.933,291.383,267.249,293.377,291.6,265.416,0.116961,0.305192,245.507,263.706
2015-05-01 19:00,0.250965,290.041,286.439,263.721,288.358,287.329,263.436,0.224704,0.369853,245.253,263.322
2015-05-01 20:00,0.186966,290.301,289.805,266.059,291.686,290.101,264.953,0.199157,0.31053,245.91,263.706
2015-05-01 21:00,-0.0975796,287.587,287.978,264.849,290.101,288.861,264.953,-0.0550804,-0.13135,246.75,263.782
2015-05-01 22:00,-0.00435555,286.569,287.322,264.339,289.434,288.445,264.721,-0.0,-0.0,246.701,264.01
2015-05-01 23:00,-0.129438,286.121,286.882,264.031,289.032,287.888,264.837,-0.0324725,-0.0677575,246.75,263.782
2015-05-02 00:00,-0.0723581,285.665,286.217,263.618,288.493,287.469,264.138,-0.0189631,-0.0382642,247.186,263.858
2015-05-02 01:00,-0.0,277.869,278.101,258.691,280.785,279.511,260.822,-0.0,-0.0,247.474,262.857
2015-05-02 02:00,-0.0,285.045,285.882,262.995,287.815,286.907,263.787,-0.0,-0.0,247.331,263.858
2015-05-02 03:00,-0.0,284.73,285.77,262.786,287.679,286.626,264.022,-0.0,-0.0,246.109,263.552
2015-05-02 04:00,-0.0,284.249,285.321,262.786,287.407,286.626,263.905,-0.0,-0.0,245.456,263.399
2015-05-02 05:00,-0.0,283.594,285.095,262.471,287.134,286.343,263.67,-0.0,-0.0,244.322,263.012
2015-05-02 06:00,-0.0,283.76,285.321,262.681,287.679,287.188,264.022,-0.0,-0.0,243.579,263.167
2015-05-02 07:00,0.00210091,283.76,284.755,262.366,287.407,286.907,264.255,-0.0,-0.0,244.006,263.322
2015-05-02 08:00,-0.0,283.261,284.982,262.049,287.407,287.048,264.372,-0.0,-0.0,245.456,264.162
2015-05-02 09:00,-0.0,283.261,284.642,262.049,287.134,286.343,264.255,-0.0,-0.0,244.79,263.706
2015-05-02 10:00,0.332442,284.888,285.433,262.89,287.679,287.048,264.372,0.264419,0.518685,245.304,264.162
2015-05-02 11:00,0.356014,289.113,288.52,264.747,290.367,289.276,265.185,0.153673,0.517984,245.507,264.54
2015-05-02 12:00,0.320191,292.771,290.965,266.458,292.86,291.464,265.532,0.120491,0.46692,245.405,264.69
2015-05-02 13:00,0.263059,294.491,292.417,267.74,294.405,292.41,266.108,0.0967123,0.380888,245.304,264.69
2015-05-02 14:00,0.228085,295.69,292.622,268.227,294.533,292.948,266.222,0.0984778,0.329386,244.583,264.765
2015-05-02 15:00,0.228237,294.38,290.017,266.159,292.209,290.511,265.185,0.133693,0.317369,244.269,264.839
2015-05-02 16:00,0.213457,294.933,291.591,267.052,293.506,291.735,265.762,0.122151,0.30467,244.479,264.839
2015-05-02 17:00,0.189803,294.823,291.694,267.642,293.764,291.6,265.416,0.0900506,0.277514,244.322,264.464
2015-05-02 18:00,0.177099,294.268,292.417,268.13,294.277,292.141,266.222,0.0783826,0.266156,244.269,264.01
2015-05-02 19:00,0.177175,292.889,291.902,267.935,293.892,291.871,265.993,0.0959105,0.275634,244.531,264.086
2015-05-02 20:00,0.177104,290.685,290.44,266.557,292.47,291.057,265.416,0.165466,0.289774,245.456,264.389
2015-05-02 21:00,-0.0616605,287.729,288.195,265.456,290.5,288.999,264.953,-0.0522079,-0.1245,245.96,263.934
2015-05-02 22:00,-0.0,286.864,287.541,264.849,289.568,288.306,264.255,-0.0,-0.0,245.96,263.706
2015-05-02 23:00,-0.0908926,286.421,287.322,264.339,289.568,288.445,265.069,-0.0283532,-0.0603694,246.258,264.01
2015-05-03 00:00,-0.0533605,285.818,286.882,264.441,289.032,288.306,264.138,-0.0160317,-0.036493,246.505,264.162
2015-05-03 01:00,-0.0,285.357,286.55,264.031,288.897,288.027,264.605,-0.00119431,-0.0,246.059,264.01
2015-05-03 02:00,-0.00126085,285.045,285.994,263.721,288.222,287.609,264.372,-0.0,-0.0,246.357,263.244
2015-05-03 03:00,-0.00120811,284.57,285.658,263.825,288.087,287.188,264.138,-0.0,-0.0,246.208,263.244
2015-05-03 04:00,0.00123387,284.41,285.658,263.825,288.087,287.188,264.372,-0.0,-0.0,245.709,263.706
2015-05-03 05:00,0.00134686,283.924,285.321,263.099,287.543,286.907,264.488,-0.0,-0.0,245.859,263.782
2015-05-03 06:00,-0.0,284.087,285.208,263.099,287.407,287.048,263.787,-0.0,-0.0,245.859,263.629
2015-05-03 07:00,-0.0,275.48,277.35,258.358,280.201,279.211,260.942,-0.0,-0.0,245.658,263.012
2015-05-03 08:00,-0.0,283.594,285.095,263.307,287.27,286.626,264.255,-0.0,-0.0,246.109,264.238
2015-05-03 09:00,-0.0,283.76,285.208,263.203,287.134,286.626,263.905,-0.0,-0.0,246.603,264.615
2015-05-03 10:00,0.509644,285.045,284.3,262.89,286.31,285.493,263.905,0.345212,0.64829,246.798,264.238
2015-05-03 12:00,0.326042,293.007,291.07,267.249,292.86,290.921,265.647,0.121012,0.462175,245.96,264.01
2015-05-03 13:00,0.264093,294.602,292.211,268.324,293.764,291.329,265.993,0.0956215,0.377124,244.217,263.476
2015-05-03 14:00,0.233504,295.796,291.902,267.935,293.506,291.193,265.647,0.0988538,0.326051,243.039,262.701
2015-05-03 15:00,0.242088,295.796,289.699,266.954,291.686,289.551,265.069,0.13177,0.308412,242.929,262.701
2015-05-03 16:00,0.202499,294.602,289.911,266.954,291.423,288.999,263.905,0.101372,0.283523,243.202,262.466
2015-05-03 17:00,0.187359,294.156,289.379,266.557,290.764,288.306,263.2,0.0890592,0.270452,240.371,260.545
2015-05-03 18:00,0.204313,289.247,281.386,261.731,281.221,277.853,256.16,0.145587,0.292041,236.341,255.366
2015-05-03 19:00,0.13159,292.294,291.591,267.935,293.248,291.193,265.532,0.0767541,0.215509,241.419,262.466
2015-05-03 20:00,0.136022,290.939,289.911,267.151,291.817,290.101,265.185,0.130874,0.230951,242.042,262.388
2015-05-03 21:00,0.0293486,284.57,281.386,261.412,282.231,279.959,258.023,-0.0248494,-0.0,238.041,258.028
2015-05-03 22:00,-0.00430808,285.045,283.264,262.261,284.361,282.613,260.461,-0.0,-0.0,237.977,259.554
2015-05-03 23:00,-0.121744,276.594,266.738,251.305,266.167,262.361,245.211,-0.0323389,-0.0650688,233.159,249.093
2015-05-04 00:00,-0.0773972,281.346,276.845,258.691,276.62,273.832,254.009,-0.0203878,-0.0382004,236.139,253.69
2015-05-04 01:00,-0.00141027,284.57,283.38,263.099,284.781,283.194,260.942,-0.0,-0.00142375,240.607,259.638
2015-05-04 02:00,-0.0,279.667,274.392,256.778,274.933,271.605,252.075,-0.0,-0.0,235.247,253.974
2015-05-04 03:00,-0.0,284.888,285.321,264.031,287.543,286.202,263.787,-0.0,-0.0,236.609,258.967
2015-05-04 04:00,-0.0,280.239,277.727,259.134,278.278,275.706,257.282,-0.0,-0.0,232.175,252.537
2015-05-04 05:00,-0.0,282.753,281.386,261.731,283.088,281.146,260.461,-0.0,-0.0,231.787,252.828
2015-05-04 06:00,-0.0,271.798,266.59,251.799,266.678,264.106,250.104,-0.0,-0.0,229.601,244.294
2015-05-04 07:00,0.00210014,269.576,260.528,248.382,258.865,254.664,241.374,-0.0,-0.0,225.449,239.922
2015-05-04 08:00,-0.0,253.206,246.313,239.57,246.794,243.461,235.846,-0.0,-0.0,228.224,238.578
2015-05-04 09:00,-0.0198493,245.913,237.841,234.35,237.2,235.917,231.419,-0.0,-0.0,225.156,232.508
2015-05-04 11:00,0.310539,261.666,244.38,238.195,242.283,239.667,232.867,0.388423,0.530825,225.156,233.146
2015-05-04 12:00,0.298303,287.01,275.306,258.469,273.215,268.835,248.903,0.169015,0.421164,226.592,243.577
2015-05-04 14:00,0.315064,279.278,254.69,244.349,253.069,249.955,238.577,0.3312,0.464052,225.643,238.165
2015-05-04 15:00,0.302329,249.156,220.006,225.107,220.852,219.165,218.41,0.581776,0.670314,219.624,222.096
2015-05-04 16:00,0.330945,254.396,204.988,218.957,203.179,203.351,206.286,0.678537,0.758112,203.894,204.721
2015-05-04 17:00,0.336751,254.966,206.1,218.957,204.12,204.159,207.197,0.721202,0.78993,202.713,202.696
2015-05-04 18:00,0.455448,260.395,225.937,228.192,224.384,223.332,220.115,0.867662,0.983238,219.624,224.204
2015-05-04 19:00,0.579926,267.123,239.317,235.823,237.702,235.677,230.44,0.685437,0.855915,223.952,231.198
2015-05-04 20:00,0.594549,258.576,227.219,228.934,221.511,220.984,219.172,0.614683,0.739234,210.278,214.787
2015-05-04 21:00,-0.0,222.276,218.474,224.102,218.478,217.607,217.055,-0.0237461,-0.0283137,216.56,217.164
2015-05-04 22:00,-0.00428621,253.81,253.963,243.93,255.633,254.664,244.932,-0.0,-0.0,229.935,246.145
2015-05-04 23:00,-0.10722,259.045,256.469,245.995,257.55,255.803,245.489,-0.030261,-0.0673523,228.048,244.412
2015-05-05 00:00,-0.0567172,259.505,255.587,245.314,256.406,254.281,243.949,-0.0174627,-0.0381729,226.499,242.23
2015-05-05 01:00,-0.00141007,267.761,260.528,248.642,260.706,257.486,244.231,-0.0,-0.0,225.835,241.98
2015-05-05 02:00,-0.0,270.151,262.616,250.303,263.04,259.684,244.932,-0.0,-0.0,225.643,242.354
2015-05-05 03:00,-0.0024179,275.251,269.059,254.572,269.186,265.99,249.971,-0.0,-0.0,227.691,245.46
2015-05-05 04:00,-0.0,264.377,262.141,249.797,263.745,261.831,249.305,-0.0,-0.0,228.921,247.371
2015-05-05 05:00,-0.0,263.255,260.854,248.252,261.971,260.045,248.499,-0.0,-0.0,229.348,247.04
2015-05-05 06:00,-0.0,254.396,249.781,240.913,249.579,247.915,239.322,-0.0,-0.0,227.147,239.523
2015-05-05 07:00,-0.0020997,251.944,243.496,237.258,242.049,238.978,231.094,-0.0,-0.0,224.76,236.179
2015-05-05 08:00,-0.00337096,262.869,253.411,244.07,252.868,250.757,239.913,-0.0,-0.0,227.147,240.185
2015-05-05 09:00,-0.00984779,279.278,277.601,259.354,279.907,277.701,258.638,-0.0,-0.0,234.329,253.88
2015-05-05 10:00,0.375957,285.97,283.726,263.307,285.061,282.613,260.822,0.353692,0.453353,235.317,254.629
2015-05-05 11:00,0.514545,294.38,280.308,261.305,282.374,279.661,259.977,0.387591,0.519464,233.085,253.974
2015-05-05 12:00,0.353673,293.356,283.726,263.515,284.22,280.998,259.735,0.23079,0.418458,233.308,252.925
2015-05-05 13:00,0.362498,284.73,264.329,250.555,263.217,261.299,246.182,0.324719,0.434913,230.018,246.818
2015-05-05 14:00,0.232233,295.042,287.869,266.159,288.222,284.636,261.062,0.100903,0.322373,233.456,254.256
2015-05-05 15:00,0.216363,294.823,287.432,265.959,288.222,285.065,261.898,0.100818,0.287332,233.603,254.536
2015-05-05 16:00,0.20413,295.151,288.303,266.756,289.568,285.777,262.847,0.0984034,0.275277,233.53,254.443
2015-05-05 17:00,0.203926,293.702,287.432,266.159,288.222,284.922,261.779,0.124936,0.277848,233.677,254.536
2015-05-05 18:00,0.288136,294.156,284.185,263.928,285.479,282.467,261.54,0.228392,0.361034,233.896,254.536
2015-05-05 19:00,0.560038,282.923,269.201,253.261,269.679,267.506,252.205,0.697476,0.774796,231.236,248.669
2015-05-05 20:00,0.449695,262.074,248.784,241.207,247.662,247.085,239.173,0.568453,0.677794,227.329,238.165
2015-05-05 21:00,-0.0268929,230.231,228.769,229.118,228.583,227.517,225.709,-0.0227701,-0.02715,224.054,226.948
2015-05-05 22:00,-0.00426552,235.601,229.673,229.118,228.871,226.974,222.873,-0.0,-0.0,226.499,229.664
2015-05-05 23:00,-0.116546,244.063,240.984,235.823,241.58,240.802,235.691,-0.0322218,-0.0624319,230.184,236.469
2015-05-06 00:00,-0.0669865,254.966,252.101,242.081,251.652,251.947,242.956,-0.0189058,-0.0381485,232.251,244.881
2015-05-06 01:00,-0.00140995,261.666,260.528,248.252,262.685,261.477,250.104,-0.0,-0.0,233.603,249.825
2015-05-06 02:00,-0.0,266.131,264.635,250.931,266.167,264.795,252.205,-0.0,-0.0,236.542,251.152
2015-05-06 03:00,-0.00120942,262.475,263.245,249.669,264.965,263.586,251.422,-0.0,0.00122098,235.317,250.34
2015-05-06 04:00,-0.00123547,259.954,260.365,247.859,261.971,262.008,250.104,-0.0,-0.0,233.75,249.513
2015-05-06 05:00,-0.0,264.009,266.145,251.18,268.358,268.173,254.646,-0.0,-0.0,234.041,252.342
2015-05-06 06:00,-0.0,271.261,269.485,253.741,271.625,270.311,256.035,-0.0,-0.0,233.677,251.152
2015-05-06 07:00,-0.0,276.594,275.436,257.91,277.226,273.675,255.28,-0.0,-0.0,232.709,250.135
2015-05-06 08:00,-0.0,274.314,272.527,255.974,274.312,272.246,255.784,-0.0,-0.0,230.835,249.198
2015-05-06 09:00,-0.0,275.932,273.599,256.549,275.857,273.2,255.784,-0.0,-0.0,230.184,248.241
2015-05-06 10:00,0.782553,275.02,269.626,253.741,270.819,269.821,254.264,0.787941,0.928824,231.865,248.987
2015-05-06 11:00,0.720867,287.3,264.635,250.555,263.393,263.063,250.896,0.637551,0.843047,230.348,244.764
2015-05-06 12:00,0.386906,297.248,279.458,260.553,280.931,277.701,258.27,0.241384,0.443142,234.543,252.731
2015-05-06 13:00,0.420192,296.738,276.591,258.58,278.725,276.938,259.005,0.328981,0.434859,240.899,257.421
2015-05-06 14:00,0.464699,286.421,269.908,254.217,272.423,271.765,256.909,0.466179,0.548106,241.704,257.246
2015-05-06 15:00,0.399395,291.065,268.487,253.501,270.819,269.657,256.285,0.323356,0.429701,241.704,257.07
2015-05-06 16:00,0.215413,292.294,284.755,264.133,285.618,283.049,261.301,0.17099,0.296004,241.93,258.628
2015-05-06 17:00,0.204805,294.043,285.882,264.645,286.997,283.773,261.421,0.102917,0.270641,241.986,258.457
2015-05-06 18:00,0.203315,293.472,288.52,266.954,289.701,286.626,263.67,0.125197,0.273678,241.817,258.798
2015-05-06 19:00,0.274375,292.414,284.869,263.928,286.447,283.917,262.373,0.224738,0.310118,242.929,259.304
2015-05-06 20:00,0.134582,278.883,276.463,258.469,277.678,275.706,258.147,0.200769,0.232917,236.808,254.907
2015-05-06 21:00,-0.025868,272.58,270.189,254.099,272.264,269.657,253.881,-0.0438047,-0.0522305,241.015,255.639
2015-05-06 22:00,-0.0,283.594,283.38,263.099,285.34,283.049,261.182,-0.0,-0.00428659,240.134,256.805
2015-05-06 23:00,-0.0902352,280.799,280.669,260.984,283.088,281.293,261.898,-0.0281481,-0.0623301,240.899,258.628
2015-05-07 00:00,-0.0635153,286.421,286.217,264.747,288.222,286.767,264.022,-0.0188951,-0.0346608,240.841,259.97
2015-05-07 01:00,-0.0,285.665,285.433,264.339,287.407,285.635,263.318,-0.0,-0.0,240.074,259.471
2015-05-07 02:00,-0.0,283.76,283.956,263.203,285.895,284.205,263.083,-0.0,-0.0,240.724,259.554
2015-05-07 03:00,-0.0,283.428,283.264,262.995,285.618,283.917,262.492,-0.0,-0.0,241.131,260.627
2015-05-07 04:00,-0.0,277.869,277.977,259.134,280.347,279.661,261.301,-0.0,-0.0,240.782,259.97
2015-05-07 05:00,-0.00134903,283.76,284.071,262.89,286.31,284.922,263.67,-0.0,-0.0,241.986,262.23
2015-05-07 06:00,-0.0,284.57,286.328,264.849,288.628,287.469,264.372,-0.0,-0.0,242.322,262.151
2015-05-07 07:00,-0.0,283.594,285.994,264.339,288.628,287.469,264.721,-0.0,-0.0,241.419,261.993
2015-05-07 08:00,-0.0033611,281.883,285.321,264.031,288.222,286.767,264.488,-0.0,-0.0,241.419,261.675
2015-05-07 09:00,-0.00969397,281.346,284.528,263.411,287.407,286.343,264.605,-0.0,-0.0,242.211,261.675
2015-05-07 10:00,0.59984,285.512,285.546,263.928,287.951,287.329,264.953,0.662062,0.605574,242.6,261.515
2015-05-07 11:00,0.642435,292.174,285.658,263.928,288.493,287.469,264.721,0.601686,0.605096,242.71,261.675
2015-05-07 12:00,0.640876,298.822,285.546,264.441,288.628,287.609,264.721,0.594583,0.617177,243.202,262.072
2015-05-07 13:00,0.587775,300.134,285.433,264.133,288.358,287.888,265.069,0.539514,0.582702,243.418,262.23
2015-05-07 14:00,0.260172,296.219,290.44,267.74,292.47,290.375,265.647,0.136865,0.337261,242.875,262.151
2015-05-07 15:00,0.226793,296.008,290.651,267.838,292.6,290.648,265.993,0.113976,0.302819,242.71,262.23
2015-05-07 16:00,0.238789,293.356,288.087,266.358,290.101,288.167,264.721,0.180565,0.354784,242.71,262.072
2015-05-07 17:00,0.23745,290.041,285.095,264.236,286.86,285.919,263.67,0.244939,0.341009,242.322,261.675
2015-05-07 18:00,0.227013,292.889,287.322,265.658,289.3,287.469,264.605,0.17998,0.302106,241.817,261.595
2015-05-07 19:00,0.198086,292.653,290.756,268.033,292.73,290.784,265.878,0.12706,0.287849,241.986,261.834
2015-05-07 20:00,0.181526,290.558,290.229,267.642,292.209,290.784,265.993,0.175654,0.301072,242.378,261.755
2015-05-07 21:00,-0.0,287.871,288.736,266.458,291.029,290.101,265.762,-0.0211274,-0.0503825,242.378,261.993
2015-05-07 22:00,-0.0,287.155,288.087,266.059,290.5,289.689,265.647,-0.0,-0.00426802,242.489,262.388
2015-05-07 23:00,-0.104325,286.717,287.651,265.557,289.968,288.999,265.878,-0.0301131,-0.0622358,242.433,262.545
2015-05-08 00:00,-0.0531893,285.97,286.882,265.557,289.166,288.027,265.069,-0.0145275,-0.0329116,242.875,262.466
2015-05-08 01:00,-0.0,286.271,286.992,265.153,289.166,288.306,264.837,-0.0,-0.0,242.655,262.151
2015-05-08 02:00,-0.0,285.818,286.772,265.052,288.897,287.888,265.069,-0.0,-0.0,242.433,262.545
2015-05-08 03:00,-0.00121043,285.202,286.328,264.747,288.493,287.748,265.185,-0.0,-0.0,241.93,261.993
2015-05-08 04:00,0.00123662,285.045,285.994,264.645,288.358,287.469,264.953,-0.0,-0.0,241.015,261.914
2015-05-08 05:00,-0.0,284.73,285.77,264.236,287.815,287.188,264.488,0.00114269,-0.0,240.724,261.675
2015-05-08 06:00,-0.00159308,282.234,283.264,262.786,286.033,284.636,263.553,-0.0,-0.0,239.653,261.113
2015-05-08 07:00,-0.0,281.526,282.331,262.261,284.501,283.629,262.728,-0.0,-0.0,239.166,260.463
2015-05-08 08:00,-0.00335598,283.924,284.982,263.721,287.134,286.343,264.138,-0.0,-0.0,238.546,260.135
2015-05-08 09:00,-0.0,283.261,284.642,263.721,287.134,286.626,264.372,-0.0,-0.0,237.849,259.887
2015-05-08 10:00,0.325576,284.73,285.321,263.825,287.543,286.626,264.022,0.266476,0.50399,238.168,259.887
2015-05-08 11:00,0.342922,288.977,287.978,265.557,290.101,288.722,265.069,0.155873,0.502901,236.94,258.2
2015-05-08 12:00,0.317295,292.294,290.229,267.446,291.948,289.964,264.953,0.119831,0.449382,238.231,258.628
2015-05-08 13:00,0.25518,294.268,291.694,268.518,293.506,291.057,265.416,0.0915255,0.366749,237.398,258.286
2015-05-08 14:00,0.211707,295.151,292.827,269.384,294.533,292.141,265.647,0.0745792,0.310455,237.592,258.713
2015-05-08 15:00,0.183587,295.796,293.031,269.096,294.788,292.276,265.993,0.0634207,0.272824,236.808,258.713
2015-05-08 16:00,0.211075,296.635,291.174,268.13,292.989,290.648,265.532,0.1034,0.280064,235.799,258.543
2015-05-08 17:00,0.230053,295.796,289.593,267.052,291.686,289.413,264.837,0.142179,0.301758,236.139,258.457
2015-05-08 18:00,0.228109,294.602,289.379,266.756,291.029,288.584,264.138,0.143977,0.318218,238.104,258.882
2015-05-08 19:00,0.274821,294.043,288.843,266.657,290.632,288.445,265.185,0.199449,0.387208,239.104,259.554
2015-05-08 21:00,-0.0241323,280.613,281.386,261.625,283.797,282.758,262.373,-0.0204328,-0.048726,238.231,258.372
2015-05-08 22:00,-0.00421032,287.444,287.212,265.355,289.166,287.748,264.488,-0.0,-0.0,238.231,258.713
2015-05-08 23:00,-0.0876053,286.864,287.541,265.557,289.835,288.584,265.301,-0.0260616,-0.0573683,237.721,258.457
2015-05-09 00:00,-0.0548821,286.271,286.55,264.95,288.763,287.469,264.372,-0.0159736,-0.0346292,237.072,257.682
2015-05-09 01:00,-0.0,285.97,286.55,264.849,288.897,287.888,265.069,-0.0,-0.0,237.203,257.595
2015-05-09 02:00,0.00252525,285.665,286.439,264.543,288.763,287.748,264.372,-0.0,-0.0,237.333,257.07
2015-05-09 03:00,-0.00121097,284.888,286.105,264.543,288.493,287.329,264.605,-0.0,-0.0,237.592,257.158
2015-05-09 04:00,-0.0,284.888,285.994,264.236,288.222,287.329,264.255,-0.0,-0.0,237.333,257.07
2015-05-09 05:00,-0.0,279.081,281.386,261.305,284.921,284.349,262.728,-0.0,-0.0,238.42,257.769
2015-05-09 06:00,0.0031868,284.73,285.546,264.031,288.087,287.329,264.372,-0.0,-0.0,237.463,257.855
2015-05-09 07:00,-0.0,275.707,279.702,260.337,283.514,283.194,262.728,-0.0,-0.0,236.742,257.158
2015-05-09 08:00,-0.00335074,277.451,280.187,260.876,283.514,282.758,262.492,-0.0,-0.0,236.408,256.45
2015-05-09 09:00,0.00954039,277.661,280.066,260.553,283.372,282.758,261.898,-0.0,-0.0,235.799,256.271
2015-05-09 10:00,0.681912,282.408,279.091,260.011,282.374,281.882,261.779,0.614624,0.699535,235.731,256.001
2015-05-09 11:00,0.653523,295.151,280.066,260.876,283.088,282.321,262.255,0.507225,0.634112,236.139,256.271
2015-05-09 12:00,0.62366,299.203,279.336,260.661,282.517,281.735,261.66,0.491166,0.592585,236.139,255.73
2015-05-09 13:00,0.546183,298.144,279.091,260.228,282.231,281.441,262.017,0.468477,0.5532,236.609,255.911
2015-05-09 14:00,0.350555,297.549,284.528,263.928,286.722,284.779,262.61,0.232461,0.386791,236.874,256.181
2015-05-09 15:00,0.324324,297.549,281.505,262.049,284.22,282.321,262.255,0.203457,0.345284,236.207,256.091
2015-05-09 16:00,0.225511,295.26,284.982,263.928,286.585,283.629,260.581,0.128148,0.27809,235.799,255.275
2015-05-09 17:00,0.345669,297.146,280.187,260.876,282.66,280.998,261.182,0.246991,0.360889,236.475,256.001
2015-05-09 18:00,0.266696,292.414,284.071,263.515,285.061,282.175,259.614,0.17465,0.33866,235.178,254.443
2015-05-09 19:00,0.714037,295.476,276.08,258.246,279.318,278.76,259.856,0.578848,0.680985,236.542,256.894
2015-05-09 20:00,0.981214,286.569,274.655,257.572,278.427,278.307,260.581,0.791498,0.930355,237.721,257.07
2015-05-09 21:00,-0.0,271.261,272.931,256.205,276.315,275.706,258.023,-0.0198081,-0.0,235.799,255.73
2015-05-09 22:00,-0.00419409,266.131,265.846,251.676,268.024,267.004,251.683,-0.0,-0.0,233.53,250.544
2015-05-09 23:00,-0.0874932,284.087,281.742,261.838,282.517,280.85,259.735,-0.0280304,-0.0596822,233.75,252.634
2015-05-10 00:00,-0.0582918,276.811,269.201,253.86,269.021,266.16,248.903,-0.0174196,-0.0346171,230.511,246.371
2015-05-10 01:00,-0.00141015,284.73,282.682,262.471,284.501,282.321,260.34,-0.0,-0.0,234.615,254.907
2015-05-10 02:00,-0.0,269.576,258.195,246.801,257.17,254.281,241.229,-0.0,-0.0,225.835,239.39
2015-05-10 03:00,-0.0,285.045,284.642,263.825,286.585,285.065,262.136,-0.0,-0.0,233.53,254.536
2015-05-10 04:00,-0.0,272.322,271.711,255.51,273.686,272.246,255.658,-0.0,-0.0,232.405,251.949
2015-05-10 05:00,-0.0,273.586,274.655,257.346,277.678,276.938,259.005,-0.0,-0.0,233.01,254.068
2015-05-10 06:00,-0.0,284.73,284.755,263.928,286.997,285.493,262.492,-0.0,-0.0,232.557,253.213
2015-05-10 07:00,0.00209687,284.249,284.528,263.928,286.722,285.208,263.083,-0.0,-0.0,232.251,253.69
2015-05-10 08:00,-0.0,281.165,278.721,260.011,279.76,276.938,256.285,-0.0,-0.0,230.018,249.928
2015-05-10 09:00,-0.00946382,283.924,283.956,263.307,286.31,284.922,262.61,-0.0,-0.0,233.159,253.974
2015-05-10 10:00,0.390239,285.045,283.726,263.099,285.34,283.629,260.942,0.311534,0.57407,232.784,253.117
2015-05-10 12:00,0.317829,291.931,288.843,266.756,290.367,287.748,263.553,0.122852,0.434799,231.943,253.021
2015-05-10 13:00,0.253631,285.665,274.392,257.006,273.843,270.473,250.765,0.142158,0.362445,228.575,245.345
2015-05-10 14:00,0.219529,285.818,273.065,256.205,272.264,268.339,249.572,0.131826,0.319082,227.238,243.698
2015-05-10 15:00,0.223431,284.249,268.773,253.621,267.354,263.759,247.415,0.142824,0.325653,228.224,242.354
2015-05-10 16:00,0.206622,287.871,278.101,259.464,277.978,274.304,254.009,0.13121,0.300626,229.007,245.46
2015-05-10 17:00,0.176081,294.268,287.651,266.358,288.222,283.484,259.249,0.0817115,0.249554,229.852,249.513
2015-05-10 18:00,0.173741,293.93,289.379,267.052,290.367,286.767,261.898,0.0779842,0.253594,231.552,251.252
2015-05-10 19:00,0.174227,292.889,289.165,266.855,289.835,286.767,262.136,0.0931692,0.253039,232.633,251.85
2015-05-10 20:00,0.0536154,290.041,288.195,266.259,289.968,287.188,263.553,0.102141,0.121788,233.603,252.731
2015-05-10 21:00,-0.0,279.278,277.852,259.683,279.76,277.396,258.76,-0.0,-0.0,234.041,252.828
2015-05-10 22:00,-0.0,284.57,282.448,262.155,284.501,281.882,261.062,-0.0,-0.0,233.823,253.213
2015-05-10 23:00,-0.0873911,285.97,283.148,263.307,283.514,280.108,258.515,-0.0259979,-0.057228,231.943,251.452
2015-05-11 00:00,-0.0514196,268.986,265.846,251.552,265.482,263.412,249.037,-0.0145123,-0.0311467,229.935,246.483
2015-05-11 01:00,-0.00141037,275.707,268.63,254.217,267.522,263.586,246.869,-0.0,-0.0,226.405,243.093
2015-05-11 02:00,-0.00126355,245.913,229.373,230.565,225.31,220.984,217.055,-0.0,-0.00127563,214.588,220.989
2015-05-11 03:00,-0.0,253.81,237.086,234.845,234.107,228.856,223.053,-0.0,-0.0,216.695,226.187
2015-05-11 04:00,-0.0,238.442,225.282,228.378,221.838,218.857,216.466,-0.0,-0.0,213.078,219.134
2015-05-11 05:00,-0.0,242.013,236.576,233.681,236.186,234.216,228.949,-0.0,-0.0,224.258,231.859
2015-05-11 06:00,-0.0,233.989,227.533,228.934,226.82,225.597,223.053,-0.0,-0.0,220.57,224.811
2015-05-11 07:00,0.00209617,233.989,230.265,230.027,228.293,226.426,223.77,-0.0,-0.0,219.744,225.21
2015-05-11 08:00,-0.0,230.231,225.611,227.817,224.072,222.753,220.302,-0.0,-0.0,219.26,223.167
2015-05-11 09:00,-0.00938749,238.442,237.339,233.849,235.93,234.216,229.615,-0.0,-0.0,223.224,231.198
2015-05-11 10:00,0.373098,237.078,222.552,226.287,221.511,220.384,218.982,0.75625,0.901713,217.752,220.535
2015-05-11 11:00,0.279187,243.066,229.97,229.484,229.729,228.59,225.185,0.734045,0.819608,222.368,226.948
2015-05-11 12:00,0.252163,252.585,232.56,230.921,231.957,230.946,227.431,0.658146,0.728687,223.746,229.137
2015-05-11 13:00,0.191871,251.282,236.832,233.681,236.186,235.435,231.419,0.645271,0.706026,225.449,232.508
2015-05-11 14:00,0.256292,247.601,223.94,227.058,223.758,223.043,221.782,0.584847,0.654743,219.137,222.096
2015-05-11 15:00,0.201978,249.89,236.576,233.175,236.441,235.435,231.905,0.72681,0.791645,224.86,232.347
2015-05-11 16:00,0.219602,254.396,237.086,234.183,236.695,235.435,230.276,0.5888,0.660486,223.538,232.022
2015-05-11 17:00,0.273686,250.598,231.713,230.921,231.131,230.17,227.601,0.644812,0.73795,223.013,228.603
2015-05-12 02:00,-0.00126406,244.063,226.583,228.934,223.443,219.472,216.071,-0.0,-0.0,214.145,221.436
2015-05-12 03:00,-0.00121273,274.314,274.392,256.664,276.62,275.706,256.41,-0.0,-0.0,234.041,258.628
2015-05-12 04:00,-0.00123905,276.155,278.101,258.691,280.054,279.361,259.005,-0.0,-0.0,236.341,261.755
2015-05-12 05:00,-0.0,278.482,281.029,260.661,283.938,283.629,262.728,-0.0,-0.0,235.936,263.706
2015-05-12 06:00,-0.0,273.586,266.442,250.806,264.965,262.712,247.415,-0.0,-0.0,230.674,250.544
2015-05-12 07:00,-0.0,263.636,253.779,243.368,252.262,248.532,234.604,-0.0,-0.0,226.216,242.725
2015-05-12 08:00,-0.0,244.063,225.937,228.004,223.125,220.685,217.055,-0.0,-0.00336616,214.145,220.306
2015-05-12 09:00,-0.0,260.395,251.53,241.936,250.623,247.501,235.691,-0.0,-0.0,228.488,244.647
2015-05-12 10:00,0.309629,276.155,273.599,255.277,275.703,273.99,255.532,0.35926,0.43994,235.108,259.638
2015-05-12 11:00,0.306715,286.717,280.789,260.228,281.655,279.511,258.76,0.225277,0.44022,233.968,259.554
2015-05-12 12:00,0.411311,291.809,282.214,261.091,283.23,281.441,259.856,0.31284,0.541927,235.386,262.23
2015-05-12 13:00,0.293439,274.787,258.703,246.801,256.598,254.472,241.374,0.307901,0.434371,227.055,242.848
2015-05-12 14:00,0.307436,276.594,256.992,245.587,254.461,251.156,237.676,0.318741,0.460812,227.147,245.46
2015-05-12 15:00,0.266808,265.095,240.277,235.499,236.695,234.216,227.601,0.318036,0.436392,222.799,231.53
2015-05-12 16:00,0.37196,263.255,216.058,224.102,213.763,212.329,211.992,0.508048,0.618133,212.287,213.668
2015-05-12 17:00,0.36693,267.444,223.597,227.628,220.184,217.607,215.474,0.458071,0.572024,214.879,219.134
2015-05-12 18:00,0.473147,265.791,216.058,223.283,214.517,213.356,213.653,0.62238,0.744226,213.541,214.511
2015-05-12 19:00,0.606031,266.797,215.218,222.868,213.381,212.329,212.619,0.722564,0.86467,212.607,213.668
2015-05-12 20:00,0.56112,257.605,221.117,225.897,218.478,216.331,214.872,0.533038,0.683926,214.145,217.418
2015-05-12 21:00,-0.0215837,227.984,220.006,225.504,217.427,215.356,215.674,-0.0,-0.02179,213.541,215.867
2015-05-12 22:00,-0.00415158,270.713,257.683,246.801,254.461,249.753,235.691,-0.0,-0.0,221.258,239.656
2015-05-12 23:00,-0.0848593,278.684,272.256,255.393,271.303,267.84,248.903,-0.0259459,-0.0571136,226.871,249.617
2015-05-13 00:00,-0.0651082,251.944,241.218,236.625,239.426,235.193,229.449,-0.0174085,-0.034595,225.254,232.988
2015-05-13 01:00,-0.0,268.382,255.05,244.21,253.069,248.532,234.916,-0.0,-0.0,221.031,237.468
2015-05-13 02:00,-0.0,268.382,259.54,247.332,256.98,250.757,240.207,-0.0,-0.0,226.122,241.093
2015-05-13 03:00,-0.0,270.713,263.556,249.542,261.611,256.742,244.09,-0.0,-0.0,229.348,244.881
2015-05-13 04:00,-0.0,272.58,264.482,249.924,262.685,260.225,245.072,-0.0,-0.0,225.058,243.577
2015-05-13 05:00,0.00135233,282.059,282.566,261.519,284.781,284.061,262.847,-0.0,-0.0,232.175,257.855
2015-05-13 06:00,-0.0,280.05,280.789,260.661,283.372,282.467,261.062,-0.0,-0.0,231.236,255.548
2015-05-13 07:00,-0.00209462,279.081,280.789,260.337,282.517,280.85,260.822,-0.0,-0.0,231.315,255.911
2015-05-13 08:00,0.00332857,260.827,255.05,244.488,254.657,250.957,241.953,-0.0,-0.0,230.018,242.848
2015-05-13 09:00,-0.0,276.811,276.08,257.685,277.528,273.675,254.137,-0.0,-0.0,231.394,254.068
2015-05-13 10:00,0.709737,274.073,261.34,248.512,260.524,257.671,247.551,0.571379,0.845731,228.224,242.478
2015-05-13 11:00,0.591076,290.813,267.618,252.29,267.522,261.477,247.006,0.446955,0.645516,229.433,246.818
2015-05-13 12:00,0.242759,272.322,263.867,248.9,264.095,262.888,248.768,0.302386,0.452454,229.433,246.371
2015-05-13 13:00,0.323508,290.041,273.199,255.858,272.582,266.835,247.823,0.192811,0.425128,228.048,246.371
2015-05-13 14:00,0.231426,280.427,264.788,249.924,262.685,258.774,243.241,0.209278,0.365557,225.931,240.185
2015-05-13 15:00,0.218406,258.096,244.16,238.349,243.438,242.805,236.153,0.424313,0.522541,226.685,234.996
2015-05-13 16:00,0.302656,258.096,237.591,234.017,236.695,235.917,231.581,0.490403,0.589384,223.642,230.354
2015-05-13 17:00,0.512276,283.093,245.248,238.195,247.229,246.246,239.618,0.481615,0.586361,228.835,239.255
2015-05-13 18:00,0.477343,275.48,240.984,235.662,238.693,234.706,229.116,0.483202,0.623266,223.952,231.695
2015-05-13 19:00,0.63738,289.381,255.409,244.903,254.461,250.757,241.374,0.550198,0.678,227.959,240.053
2015-05-13 20:00,0.84321,272.322,241.682,236.466,243.209,242.585,237.373,0.836837,1.02571,230.43,238.303
2015-05-13 21:00,-0.0210902,245.913,247.563,239.871,248.733,248.532,241.519,-0.0,-0.0,231.315,242.105
2015-05-13 22:00,-0.00413937,251.282,245.676,238.657,245.024,243.896,237.07,-0.0,-0.0,227.51,237.468
2015-05-13 23:00,-0.113051,251.944,240.984,235.499,238.693,236.396,230.768,-0.0319067,-0.0618213,223.746,231.364
2015-05-14 00:00,-0.0462573,267.761,259.373,246.801,257.928,254.855,243.241,-0.0145059,-0.0294034,228.224,242.725
2015-05-14 01:00,-0.00141138,275.707,271.711,254.69,271.142,268.505,253.625,-0.0,-0.00142487,230.184,248.025
2015-05-14 02:00,0.00126519,235.601,231.997,231.274,231.683,230.429,226.918,-0.0,-0.0,223.952,228.423
2015-05-14 03:00,-0.001214,246.775,237.841,234.35,236.441,233.969,228.782,-0.0,-0.0,223.329,231.364
2015-05-14 04:00,0.00124031,238.442,228.155,229.665,227.414,226.151,223.949,-0.0,-0.0,221.258,224.204
2015-05-14 05:00,-0.0,273.831,267.909,252.412,269.021,264.451,247.279,-0.0,-0.0,230.018,246.483
2015-05-14 06:00,-0.0,266.797,264.021,249.797,264.792,263.063,250.633,-0.0,-0.0,230.266,246.929
2015-05-14 07:00,-0.0,282.753,282.799,261.838,285.061,283.194,261.54,-0.0,-0.0,231.394,250.238
2015-05-14 08:00,-0.0,265.095,258.365,245.451,257.928,255.614,242.671,-0.0,-0.0,227.691,239.789
2015-05-14 09:00,-0.0,282.234,282.566,261.519,285.201,284.205,261.66,-0.0,-0.0,230.184,250.032
2015-05-14 10:00,0.436898,272.58,261.179,247.859,258.678,255.235,242.956,0.449904,0.596047,225.352,237.888
2015-05-14 11:00,0.373982,280.799,266.293,251.056,265.826,261.831,247.142,0.32615,0.52858,229.178,244.175
2015-05-14 12:00,0.262605,283.428,272.391,254.808,271.625,268.007,248.634,0.166761,0.383471,228.224,244.647
2015-05-14 13:00,0.277598,293.24,289.379,265.959,290.897,288.027,262.373,0.104463,0.40664,231.076,251.252
2015-05-14 14:00,0.319176,258.576,229.97,230.565,229.158,228.056,225.185,0.442829,0.534387,222.585,225.994
2015-05-14 15:00,0.285243,296.943,287.432,264.747,290.234,287.888,263.436,0.171602,0.333438,232.633,252.342
2015-05-14 16:00,0.286791,295.902,285.546,263.618,287.815,285.493,262.255,0.208882,0.337788,233.896,253.405
2015-05-14 17:00,0.285495,293.007,281.386,260.661,283.514,280.257,256.285,0.199499,0.350731,232.86,252.439
2015-05-14 18:00,0.44743,295.902,284.642,263.307,287.815,286.06,263.2,0.360799,0.45601,235.936,256.181
2015-05-14 19:00,0.4814,290.171,279.945,260.011,281.799,280.257,259.977,0.397013,0.504937,233.677,253.88
2015-05-14 20:00,0.432683,290.429,286.439,264.031,288.897,287.048,263.318,0.342717,0.500229,237.398,257.246
2015-05-14 21:00,-0.0206425,285.818,285.321,263.099,287.407,285.777,262.728,-0.0,-0.0,234.615,255.639
2015-05-14 22:00,-0.00412811,279.081,272.931,255.043,271.464,269.329,251.291,-0.0,-0.0,227.691,246.371
2015-05-14 23:00,-0.105908,240.898,229.373,229.665,227.708,226.151,223.413,-0.0318834,-0.0617761,220.219,223.793
2015-05-15 00:00,-0.0582489,247.601,237.339,233.513,236.695,234.95,228.614,-0.0159562,-0.0294029,223.224,229.664
2015-05-15 01:00,-0.0,237.078,229.072,228.934,228.293,226.974,225.185,-0.0,-0.00142533,221.371,225.408
2015-05-15 02:00,-0.00126581,247.601,236.576,233.175,235.414,233.225,227.601,-0.0,-0.0,224.76,231.695
2015-05-15 03:00,-0.0,249.156,242.824,236.625,242.515,242.143,234.916,-0.0,-0.0,227.238,234.542
2015-05-15 04:00,-0.0,284.249,284.869,262.786,287.679,286.485,263.436,-0.0,-0.0,231.394,253.213
2015-05-15 05:00,-0.0,280.427,276.463,257.346,277.828,275.396,253.497,-0.0,-0.0,229.935,249.928
2015-05-15 06:00,-0.00159489,277.24,274.524,256.434,275.087,269.329,250.765,-0.0,-0.0,229.348,246.818
2015-05-15 07:00,-0.0,240.898,237.841,233.681,237.451,236.396,231.905,-0.0,-0.0,225.643,233.304
2015-05-15 08:00,-0.00331681,218.393,218.082,223.489,218.478,218.235,217.25,-0.0,-0.0,216.15,216.909
2015-05-15 09:00,-0.0,222.276,220.379,224.708,219.847,218.857,218.41,-0.0,-0.0,216.963,218.653
2015-05-15 10:00,0.527428,243.066,226.902,228.192,226.221,225.038,222.692,0.649559,0.835009,219.744,224.204
2015-05-15 11:00,0.38753,249.89,228.155,228.378,228.001,226.974,225.185,0.662614,0.752083,222.799,226.187
2015-05-15 12:00,0.435713,279.473,247.973,240.32,247.012,243.024,236.153,0.404812,0.537364,225.931,235.887
2015-05-15 13:00,0.253178,288.291,280.669,260.876,280.931,277.548,255.784,0.124918,0.362251,228.4,245.918
2015-05-15 14:00,0.242628,293.124,285.994,264.339,287.27,283.773,259.37,0.112787,0.324996,229.935,248.669
2015-05-15 15:00,0.260638,291.931,282.096,261.198,283.797,280.702,258.515,0.182413,0.319405,229.433,247.917
2015-05-15 16:00,0.215087,286.864,274.524,257.006,274.933,270.148,249.171,0.15591,0.303063,227.51,243.336
2015-05-15 17:00,0.393597,263.636,230.85,231.098,228.583,226.426,223.413,0.46773,0.580354,220.454,225.604
2015-05-15 18:00,0.344466,267.444,254.328,243.509,254.854,253.316,242.671,0.485494,0.613438,229.769,242.23
2015-05-15 19:00,0.42108,259.954,247.15,239.419,247.229,246.666,238.876,0.582683,0.701106,228.048,239.39
2015-05-15 20:00,0.500154,257.103,230.559,230.207,229.158,228.324,225.709,0.524876,0.64717,222.04,226.379
2015-05-15 21:00,-0.0202361,230.231,226.261,228.004,226.221,225.318,223.77,-0.0,-0.0,220.916,223.999
2015-05-15 22:00,-0.00411777,245.913,240.75,235.985,240.392,239.208,234.447,-0.0,-0.0,226.592,234.542
2015-05-15 23:00,-0.0893771,261.666,247.357,239.57,245.914,242.585,234.134,-0.025889,-0.0546138,223.538,232.347
2015-05-16 00:00,-0.0479717,232.213,225.611,227.817,225.31,223.905,221.965,-0.0145063,-0.0311338,219.982,222.956
2015-05-16 01:00,-0.0,243.066,237.086,233.005,236.441,235.193,231.743,-0.00119582,-0.0,224.86,231.53
2015-05-16 02:00,-0.0,249.89,241.682,235.985,240.87,239.438,233.503,-0.0,-0.0,225.352,233.146
2015-05-16 03:00,-0.00121533,240.898,235.8,233.005,234.895,234.461,230.276,-0.0,-0.0,224.46,230.863
2015-05-16 04:00,0.00124159,239.711,233.666,232.146,232.23,231.714,227.94,-0.0,-0.0,224.054,228.96
2015-05-16 05:00,-0.0,235.601,234.208,231.973,234.107,233.225,230.604,-0.0,-0.0,225.643,231.031
2015-05-16 06:00,-0.0,256.589,249.185,240.021,247.662,245.824,237.827,-0.0,-0.0,227.78,237.608
2015-05-16 07:00,-0.0,283.261,284.185,262.576,286.447,285.635,262.728,-0.0,-0.0,231.473,251.85
2015-05-16 08:00,-0.0,282.923,283.495,261.944,286.172,285.208,262.373,-0.0,-0.0,233.456,251.949
2015-05-16 09:00,-0.0,273.831,266.886,252.168,265.997,261.654,244.231,-0.0,-0.0,226.216,241.98
2015-05-16 10:00,0.48688,271.261,252.29,244.07,248.52,241.027,229.946,0.463771,0.626707,221.371,233.928
2015-05-16 11:00,0.35203,258.576,237.841,233.681,235.672,231.968,226.402,0.439083,0.55029,222.368,229.664
2015-05-16 12:00,0.371423,268.986,247.357,239.57,246.355,243.679,236.613,0.3906,0.527829,227.601,238.441
2015-05-16 13:00,0.422376,275.48,249.583,241.061,248.307,246.035,239.173,0.410263,0.546401,229.007,239.523
2015-05-16 14:00,0.346946,287.587,264.175,250.177,264.618,260.942,246.869,0.270851,0.420958,230.511,245.46
2015-05-16 15:00,0.213167,291.065,281.86,261.412,282.517,278.307,256.035,0.111365,0.296098,230.674,248.348
2015-05-16 16:00,0.214288,293.816,286.328,264.645,287.951,284.922,260.461,0.099922,0.288449,231.156,249.825
2015-05-16 17:00,0.254698,294.823,286.772,264.645,288.763,285.777,261.898,0.145235,0.313108,233.159,252.047
2015-05-16 18:00,0.399578,293.587,270.049,254.454,270.495,265.65,249.171,0.281935,0.429424,232.86,247.808
2015-05-16 19:00,0.420065,296.943,277.601,259.024,278.873,274.929,254.392,0.31823,0.497418,235.038,251.85
2015-05-16 20:00,0.426503,286.421,274.916,256.778,275.703,272.086,249.572,0.379175,0.545401,230.511,247.699
2015-05-16 21:00,-0.0,279.278,271.299,254.808,271.142,268.007,248.903,-0.0,-0.0,228.312,245.114
2015-05-16 22:00,-0.00821664,280.05,275.046,257.233,274.623,271.605,252.205,-0.0,-0.0,228.835,246.818
2015-05-16 23:00,-0.0893301,264.739,251.147,242.225,248.093,244.328,233.344,-0.0278658,-0.0593316,222.368,232.988
2015-05-17 00:00,-0.0616843,278.482,271.023,254.926,270.495,266.498,247.142,-0.0159586,-0.0345966,226.311,244.294
2015-05-17 01:00,-0.0014129,279.473,274.524,256.892,274.778,271.605,251.814,-0.0,-0.0,228.048,246.371
2015-05-17 02:00,-0.0,253.81,238.83,235.173,235.414,232.725,226.574,-0.0,-0.0,219.382,226.57
2015-05-17 03:00,-0.0,278.684,273.333,255.742,274.0,270.473,250.633,-0.0,-0.0,230.43,248.241
2015-05-17 04:00,0.00124223,277.451,270.468,253.98,270.657,268.173,247.823,-0.0,-0.0,229.178,245.575
2015-05-17 05:00,-0.0,281.705,281.386,261.198,283.372,281.735,260.701,-0.0,-0.0,232.86,250.748
2015-05-17 06:00,-0.0015952,278.883,275.951,257.91,277.226,275.085,255.406,-0.0,-0.0,229.178,246.707
2015-05-17 07:00,-0.0,281.346,281.624,261.198,284.361,283.049,261.421,-0.0,-0.0,231.552,250.849
2015-05-17 08:00,-0.0,281.705,282.566,261.838,285.201,284.205,262.017,-0.0,-0.0,232.251,251.552
2015-05-17 09:00,-0.0,281.705,282.331,261.305,284.921,284.349,262.373,-0.0,-0.0,233.603,251.85
2015-05-17 10:00,0.383262,282.923,281.386,261.305,283.656,281.588,260.581,0.303571,0.549185,233.968,251.051
2015-05-17 11:00,0.338941,286.569,285.546,263.721,288.087,286.343,263.083,0.16445,0.492126,234.401,251.552
2015-05-17 12:00,0.318427,290.558,288.195,265.456,290.632,288.445,263.553,0.120722,0.443822,233.896,251.652
2015-05-17 13:00,0.26064,292.653,289.805,266.557,292.209,289.689,263.787,0.0948007,0.368755,232.481,251.452
2015-05-17 14:00,0.215615,294.043,290.86,267.348,293.248,290.375,263.905,0.0770814,0.312809,232.633,251.552
2015-05-17 15:00,0.194178,294.38,291.174,267.642,293.506,290.375,264.022,0.0680761,0.277205,231.236,250.849
2015-05-17 16:00,0.186979,294.602,290.545,267.348,292.989,290.375,263.905,0.0765189,0.259554,231.473,250.849
2015-05-17 17:00,0.198231,295.151,289.379,266.657,291.423,288.445,263.436,0.0927547,0.26859,232.097,250.34
2015-05-17 18:00,0.239405,298.144,283.956,263.307,285.34,279.361,257.777,0.126005,0.291775,232.633,249.093
2015-05-17 19:00,0.47292,296.943,273.997,256.434,275.242,269.984,251.683,0.357422,0.474236,232.328,247.808
2015-05-17 20:00,0.70271,293.472,272.931,255.626,273.686,268.505,250.501,0.546414,0.702189,233.53,247.808
2015-05-17 21:00,-0.0,267.123,260.854,247.991,260.706,257.301,246.732,-0.0,-0.0,232.481,245.23
2015-05-17 22:00,-0.00409975,259.045,254.509,244.07,255.633,253.51,244.512,-0.0,-0.0,232.328,244.412
2015-05-17 23:00,-0.101041,274.787,269.908,253.261,271.142,266.16,250.236,-0.0278539,-0.0569341,231.473,247.151
2015-05-18 00:00,-0.0548393,281.346,277.852,258.691,277.678,274.617,254.392,-0.0159611,-0.031142,228.488,246.258
2015-05-18 01:00,-0.002827,265.446,253.411,243.65,251.447,246.666,236.46,-0.0,-0.0,224.661,236.179
2015-05-18 02:00,-0.00126781,266.466,256.819,245.723,256.598,252.341,240.793,-0.0,-0.0,226.685,239.39
2015-05-18 03:00,0.00121671,277.451,272.256,255.043,271.945,269.165,250.633,-0.0,0.00122834,227.601,243.818
2015-05-18 04:00,-0.0,271.798,267.618,252.656,269.679,266.498,251.814,-0.0,-0.0,230.511,247.261
2015-05-18 05:00,-0.00135491,268.382,265.092,250.681,266.847,263.933,250.896,-0.0,-0.0,231.63,248.348
2015-05-18 06:00,-0.0,282.753,283.148,261.838,285.757,284.349,262.255,-0.0,-0.0,231.709,250.544
2015-05-18 07:00,-0.00208985,282.408,282.799,262.155,285.618,284.349,261.898,-0.0,-0.0,232.86,250.95
2015-05-18 08:00,-0.0,271.261,264.482,249.669,263.92,261.121,247.142,-0.0,-0.0,227.238,241.475
2015-05-18 09:00,-0.0,278.482,276.336,257.572,277.075,273.675,255.784,-0.0,-0.00894875,231.076,247.699
2015-05-18 10:00,0.665732,259.045,246.313,238.657,245.471,243.243,236.46,0.691299,0.887675,227.78,236.033
2015-05-18 11:00,0.574739,274.073,251.339,241.936,252.262,250.757,242.241,0.622887,0.715621,229.769,241.728
2015-05-18 12:00,0.60866,290.558,261.179,248.121,263.745,263.412,251.028,0.533541,0.640986,232.328,248.455
2015-05-18 13:00,0.414561,292.653,266.738,252.168,268.524,266.667,253.625,0.310447,0.463167,232.557,249.093
2015-05-18 14:00,0.466404,288.012,260.528,247.991,262.863,260.942,249.705,0.370476,0.495133,233.53,247.917
2015-05-18 15:00,0.231367,295.042,286.992,265.456,288.897,285.065,261.062,0.109548,0.29351,233.75,250.849
2015-05-18 16:00,0.318939,290.429,270.329,254.454,272.423,270.311,254.392,0.229009,0.344085,233.456,249.825
2015-05-18 17:00,0.265236,294.491,280.308,261.198,282.087,278.76,259.614,0.168431,0.290673,234.257,251.352
2015-05-18 18:00,0.216514,291.686,287.651,265.355,289.835,287.329,263.2,0.152157,0.286344,235.593,252.634
2015-05-18 19:00,0.235992,291.44,287.76,265.456,289.968,287.469,263.083,0.156611,0.318737,234.257,252.244
2015-05-18 20:00,0.542303,288.291,283.611,262.786,286.033,283.629,260.701,0.434678,0.591286,234.185,251.352
2015-05-18 21:00,-0.0192288,267.761,262.458,249.158,263.217,260.764,249.305,-0.0,-0.0194126,233.456,247.371
2015-05-18 22:00,-0.00409204,279.667,277.476,258.802,279.022,275.861,257.406,-0.0,-0.0,234.041,249.721
2015-05-18 23:00,-0.122149,266.131,261.501,248.9,263.217,260.764,248.903,-0.0318226,-0.0640299,234.686,247.917
2015-05-19 00:00,-0.068564,255.521,255.23,244.626,257.739,257.671,247.551,-0.0188672,-0.0346097,235.108,247.151
2015-05-19 01:00,-0.0,266.797,262.774,249.669,264.618,261.299,249.572,-0.0,-0.0,235.038,248.348
2015-05-19 02:00,-0.0,266.466,261.822,248.9,263.569,261.477,249.438,-0.0,-0.0,234.257,248.025
2015-05-19 03:00,-0.0,277.026,273.599,256.205,274.623,271.605,254.009,-0.0,-0.0,233.968,248.669
2015-05-19 04:00,-0.0,275.932,272.527,255.393,274.778,271.444,253.625,-0.0,-0.0,236.071,250.238
2015-05-19 05:00,-0.0,258.576,259.206,246.533,260.341,259.502,248.094,-0.0,-0.0,239.104,248.882
2015-05-19 06:00,-0.00159541,281.883,281.148,260.876,283.514,280.998,259.492,-0.0,-0.0,241.015,253.405
2015-05-19 07:00,-0.0,282.753,282.682,261.519,285.061,283.773,261.062,-0.0,-0.0,240.371,254.629
2015-05-19 08:00,-0.00329204,280.239,279.336,259.464,281.076,278.76,259.127,-0.0,0.00332351,235.867,250.748
2015-05-19 09:00,-0.0,282.234,282.331,261.091,285.061,283.629,261.062,-0.0,-0.0,234.401,251.85
2015-05-19 10:00,0.421255,281.705,278.968,258.58,281.076,278.458,257.777,0.324251,0.57993,232.784,250.748
2015-05-19 12:00,0.316469,290.813,287.651,264.543,289.434,286.485,262.136,0.125857,0.430834,232.633,251.352
2015-05-19 13:00,0.268172,293.007,288.412,265.153,289.968,286.626,262.373,0.106484,0.358492,234.401,251.652
2015-05-19 14:00,0.270198,295.26,287.869,265.254,289.568,286.343,261.66,0.1389,0.334482,233.159,250.95
2015-05-19 15:00,0.256573,293.816,283.956,262.576,285.201,280.702,258.515,0.14612,0.319156,233.896,249.928
2015-05-19 16:00,0.261957,293.702,276.08,258.022,276.468,272.086,254.519,0.208517,0.310385,234.827,249.825
2015-05-19 17:00,0.395715,288.43,265.092,251.799,267.69,264.451,250.236,0.560395,0.639903,235.867,249.093
2015-05-19 18:00,0.617204,287.444,246.523,239.267,247.878,247.501,241.374,0.691874,0.785463,237.072,242.478
2015-05-19 19:00,0.666375,296.84,272.662,255.51,274.933,271.765,254.137,0.583207,0.743901,239.714,251.152
2015-05-19 20:00,0.532083,291.19,281.978,261.625,283.797,280.406,259.249,0.450514,0.596037,242.042,253.309
2015-05-19 21:00,-0.0,285.512,283.841,262.995,286.033,283.917,260.701,-0.0,-0.0,239.653,252.146
2015-05-19 22:00,-0.00408516,284.57,283.148,262.681,285.201,282.613,260.219,-0.0,-0.00412422,240.43,252.244
2015-05-19 23:00,-0.119772,256.062,250.566,242.513,251.242,249.144,241.953,-0.0338037,-0.0616441,239.714,243.818
2015-05-20 00:00,-0.0634389,268.986,260.692,248.121,260.706,256.742,245.072,-0.0188723,-0.0328881,239.288,245.575
2015-05-20 01:00,-0.00141486,265.791,260.528,248.771,260.341,256.928,247.006,-0.0,-0.0,239.593,245.23
2015-05-20 02:00,-0.0,259.954,252.853,243.93,253.269,250.757,242.384,-0.0,-0.0,238.919,243.937
2015-05-20 03:00,-0.0,273.831,271.023,255.393,271.464,267.339,251.814,-0.0,-0.0,240.43,249.513
2015-05-20 04:00,-0.00124414,245.913,245.89,239.721,247.662,247.501,240.793,-0.0,-0.0,238.919,242.602
2015-05-20 05:00,-0.0,253.206,252.853,243.65,254.066,253.122,244.792,-0.0,-0.0,239.227,246.032
2015-05-20 06:00,-0.00159546,245.01,244.815,238.963,246.794,246.457,240.06,-0.0,-0.0,239.043,242.478
2015-05-20 07:00,0.00208758,245.01,245.032,238.657,246.794,246.666,239.913,-0.0,-0.0,238.671,242.354
2015-05-20 08:00,-0.0,246.775,245.248,239.115,247.012,246.666,239.765,-0.0,-0.0,239.166,242.602
2015-05-20 09:00,-0.00871952,245.913,246.733,239.721,248.946,247.915,241.374,-0.0,-0.0,239.043,243.577
2015-05-20 10:00,0.687749,259.954,246.942,240.021,248.733,248.327,241.229,0.692187,0.812228,238.357,243.698
2015-05-20 12:00,0.370845,280.613,248.985,240.913,250.623,249.955,241.953,0.752362,0.824145,237.463,244.412
2015-05-20 13:00,0.516078,278.279,256.992,245.723,258.678,258.04,247.415,0.606718,0.689685,238.42,248.775
2015-05-20 14:00,0.579365,282.059,260.201,248.121,262.15,261.477,250.765,0.668184,0.744571,240.665,251.452
2015-05-20 15:00,0.350878,275.707,256.992,245.995,258.865,258.224,248.229,0.502065,0.57234,243.039,251.152
2015-05-20 16:00,0.448502,277.869,257.854,246.265,259.791,259.502,248.499,0.574282,0.675212,244.164,252.146
2015-05-20 17:00,0.27406,296.114,275.951,258.358,277.528,273.832,256.66,0.15916,0.313925,244.583,254.536
2015-05-20 18:00,0.591092,294.156,269.908,254.454,272.741,271.926,256.535,0.485702,0.590136,245.557,255.548
2015-05-20 19:00,0.476248,293.356,272.12,255.858,273.372,270.635,255.406,0.400513,0.474303,246.009,255.73
2015-05-20 20:00,0.815263,288.43,270.607,254.808,272.264,269.329,254.264,0.640532,0.837886,247.09,256.271
2015-05-20 21:00,-0.018706,283.594,282.214,262.049,283.797,281.293,260.461,-0.0,-0.0,246.406,256.628
2015-05-20 22:00,-0.0040791,283.261,282.096,261.944,283.938,281.588,260.219,-0.0,-0.0,242.875,255.548
2015-05-20 23:00,-0.122104,284.249,283.264,262.576,285.34,282.758,260.219,-0.033799,-0.0640061,238.671,252.634
2015-05-21 00:00,-0.0617443,259.505,255.587,245.723,257.361,256.367,246.869,-0.0174263,-0.0346303,238.671,247.699
2015-05-21 01:00,-0.0014156,254.396,254.871,245.451,257.739,256.742,247.142,-0.0,-0.0,238.671,247.808
2015-05-21 02:00,-0.00127003,257.605,255.23,245.587,256.598,255.803,247.142,-0.0,-0.0,239.41,248.455
2015-05-21 03:00,-0.0,261.251,262.616,250.177,265.31,265.309,252.594,-0.0,-0.0,238.981,252.828
2015-05-21 04:00,-0.0,270.989,268.054,253.501,268.855,265.99,251.944,-0.0,-0.0,237.137,251.352
2015-05-21 05:00,-0.0,267.444,265.243,251.676,266.678,265.309,252.205,-0.0,0.00136927,236.94,251.85
2015-05-21 06:00,-0.0,280.799,279.458,260.553,281.076,279.211,258.515,-0.0,-0.0,237.913,253.974
2015-05-21 07:00,-0.0,280.427,279.091,259.793,280.054,278.911,258.27,-0.0,-0.0,232.633,252.342
2015-05-21 08:00,-0.00327911,280.799,279.458,260.011,280.347,278.458,258.392,-0.0,-0.0,232.86,252.244
2015-05-21 09:00,0.00864837,282.234,282.448,262.261,284.781,283.484,262.017,-0.0,-0.0,235.178,253.88
2015-05-21 10:00,0.382639,282.923,282.448,262.049,284.641,283.049,261.301,0.290465,0.519502,235.247,253.974
2015-05-21 12:00,0.389405,294.491,283.032,263.411,285.201,282.613,260.34,0.23141,0.429754,235.662,253.213
2015-05-21 13:00,0.324212,294.713,286.55,265.254,288.628,286.06,263.083,0.17354,0.376219,235.178,254.162
2015-05-21 14:00,0.33843,296.219,285.095,264.543,288.087,285.635,262.492,0.211141,0.37436,234.897,254.722
2015-05-21 15:00,0.318188,296.635,284.3,263.928,287.407,285.493,262.373,0.209541,0.353819,235.317,255.183
2015-05-21 16:00,0.247853,289.647,271.023,255.626,271.464,267.004,251.291,0.177776,0.312379,233.085,249.825
2015-05-21 17:00,0.2961,265.791,243.496,238.349,239.911,237.581,231.743,0.359646,0.476865,223.434,230.354
2015-05-21 18:00,0.20356,291.931,284.869,263.825,286.31,282.613,258.27,0.126022,0.309364,233.382,253.117
2015-05-21 19:00,0.264987,292.534,287.432,265.758,289.568,287.188,262.847,0.205211,0.37518,235.317,254.999
2015-05-21 20:00,0.850803,258.096,232.839,232.834,234.107,232.474,227.94,0.783015,1.02325,224.46,227.323
2015-05-21 21:00,-0.0184826,277.869,274.916,257.459,274.778,274.147,255.784,-0.0,-0.0,229.685,246.483
2015-05-21 23:00,-0.0892254,285.97,285.77,264.441,288.222,286.767,263.553,-0.0298212,-0.0616326,232.481,253.974
2015-05-22 00:00,-0.0497571,281.346,277.727,258.802,278.725,276.784,256.41,-0.0159801,-0.0329111,231.473,249.928
2015-05-22 01:00,-0.00141638,283.261,281.86,262.155,283.656,282.028,260.219,-0.0,-0.0,231.63,252.244
2015-05-22 02:00,-0.0,257.605,245.463,239.721,244.122,242.585,234.134,-0.0,-0.0,225.643,233.617
2015-05-22 03:00,-0.0,259.045,251.53,243.509,248.733,248.532,239.765,-0.0,-0.0,225.643,233.773
2015-05-22 04:00,-0.0,283.76,284.414,263.515,286.722,285.919,263.2,-0.0,-0.0,233.677,255.091
2015-05-22 05:00,-0.0,283.261,284.071,263.515,286.86,286.06,263.436,-0.0,0.0013697,233.53,255.183
2015-05-22 06:00,-0.0,283.594,284.3,263.721,286.86,286.06,263.787,-0.0,-0.0,234.185,255.366
2015-05-22 07:00,0.00208511,283.428,284.071,263.618,286.722,285.919,263.436,-0.0,-0.0,232.935,254.907
2015-05-22 08:00,-0.0,282.753,283.611,262.995,286.172,285.208,263.083,-0.0,-0.0,232.328,253.69
2015-05-22 09:00,0.00857801,282.923,283.264,262.786,286.033,285.065,262.965,-0.0,-0.0,232.328,253.117
2015-05-22 10:00,0.33549,283.594,283.841,263.099,286.447,285.35,262.847,0.272697,0.51482,232.251,253.5
2015-05-22 11:00,0.345521,287.444,286.217,265.052,288.493,287.188,263.553,0.162898,0.487561,231.394,253.69
2015-05-22 12:00,0.318228,290.685,288.195,266.259,290.234,288.027,263.318,0.127523,0.43163,232.02,253.88
2015-05-22 13:00,0.265558,292.414,289.486,267.052,291.555,288.861,264.488,0.10134,0.360608,232.175,253.785
2015-05-22 14:00,0.220955,293.356,289.911,267.642,292.079,289.276,264.255,0.0811605,0.309997,231.156,253.309
2015-05-22 15:00,0.21742,292.653,286.55,265.052,288.222,285.35,260.942,0.100531,0.305119,231.076,251.85
2015-05-22 16:00,0.194779,292.414,284.869,264.236,286.31,282.467,259.735,0.0978785,0.274977,229.935,250.442
2015-05-22 17:00,0.203327,288.841,279.823,260.984,280.931,278.004,256.035,0.136228,0.278454,229.093,248.025
2015-05-22 18:00,0.314062,288.841,276.718,258.802,277.226,274.147,253.881,0.241742,0.374713,228.488,246.929
2015-05-22 19:00,0.227128,291.19,287.978,266.259,290.632,288.445,264.022,0.159341,0.294813,231.076,252.634
2015-05-22 20:00,0.290528,289.381,286.328,265.254,288.493,286.202,262.61,0.258604,0.360991,231.865,252.731
2015-05-22 21:00,-0.0,279.081,273.065,256.664,272.899,270.311,252.205,-0.0,-0.0,227.42,245.23
2015-05-22 22:00,-0.00406936,284.41,283.264,263.099,285.757,284.061,261.301,-0.0,-0.0,230.755,252.439
2015-05-22 23:00,-0.0892291,284.73,285.095,264.133,287.679,286.626,263.553,-0.0278343,-0.0616351,232.097,253.595
2015-05-23 00:00,-0.0617936,283.594,283.495,263.099,285.618,284.349,262.847,-0.0174402,-0.034658,231.236,252.244
2015-05-23 01:00,-0.0014172,283.261,283.956,263.721,286.585,285.777,263.318,-0.0,-0.0,232.02,253.405
2015-05-23 02:00,-0.0012716,283.093,283.956,263.618,286.997,286.202,263.905,-0.0,-0.0,232.405,253.595
2015-05-23 03:00,-0.0,282.923,283.726,263.411,286.585,286.06,263.67,-0.0,-0.0,232.633,253.974
2015-05-23 04:00,0.001246,282.753,283.495,263.411,286.447,285.777,263.787,-0.0,-0.0,231.709,253.5
2015-05-23 05:00,-0.0,282.234,283.148,263.099,285.895,285.493,263.318,-0.0,-0.0,231.552,253.405
2015-05-23 06:00,0.00159546,279.081,276.718,258.913,277.528,275.24,256.535,-0.0,-0.0,229.178,249.093
2015-05-23 07:00,-0.0,254.966,243.94,238.657,242.515,240.35,232.707,-0.0,-0.0,224.359,233.617
2015-05-23 08:00,-0.0,278.075,275.436,258.134,276.772,274.929,255.658,-0.0,-0.0,228.312,248.669
2015-05-23 09:00,-0.0,270.434,262.458,249.797,260.888,258.224,243.949,-0.0,-0.0,225.156,240.185
2015-05-23 10:00,0.341301,276.594,270.468,254.69,271.142,268.835,251.291,0.346775,0.509955,226.963,245.575
2015-05-23 12:00,0.319607,290.429,288.195,266.159,290.632,288.722,264.138,0.128075,0.443352,231.315,252.925
2015-05-23 13:00,0.215844,284.249,275.436,257.572,274.312,271.926,252.205,0.138258,0.31265,226.311,242.971
2015-05-23 14:00,0.231457,277.869,259.706,247.2,257.55,253.51,238.577,0.194594,0.365315,224.86,238.714
2015-05-23 15:00,0.216545,281.526,261.017,249.797,256.98,250.957,236.918,0.161084,0.301376,222.692,236.469
2015-05-23 16:00,0.22078,278.279,259.706,248.252,257.361,253.122,238.428,0.18021,0.320706,223.746,236.033
2015-05-23 17:00,0.241192,282.059,266.59,251.922,264.618,260.764,244.231,0.181693,0.347342,226.311,241.348
2015-05-23 18:00,0.326106,283.428,264.635,252.412,261.971,257.115,241.084,0.23507,0.409305,222.259,236.757
2015-05-23 19:00,0.319213,283.924,269.343,254.454,267.522,263.237,245.072,0.267519,0.401187,224.661,240.576
2015-05-23 20:00,0.337411,287.01,278.35,260.119,277.978,275.24,254.264,0.279337,0.378485,226.685,245.46
2015-05-23 21:00,-0.0,240.898,228.155,229.301,226.82,225.038,221.782,-0.0,-0.0,218.642,222.529
2015-05-23 22:00,-0.0,253.81,243.273,237.884,241.58,239.208,233.026,-0.0,-0.00410451,223.329,232.347
2015-05-23 23:00,-0.103331,264.377,256.469,245.04,255.439,253.51,243.099,-0.0298262,-0.0592721,227.87,240.316
2015-05-24 00:00,-0.051519,262.074,251.912,242.513,249.998,247.708,237.222,-0.0159944,-0.0329406,225.546,237.468
2015-05-24 01:00,-0.0,269.283,261.982,248.382,260.341,259.321,247.142,-0.0,-0.00143162,227.329,239.523
2015-05-24 02:00,0.0012724,278.684,275.306,257.459,276.01,274.46,256.035,-0.0,-0.0,229.093,248.133
2015-05-24 03:00,-0.0,282.408,282.682,262.155,285.34,284.492,262.61,-0.0,-0.0,229.852,252.047
2015-05-24 04:00,-0.0,264.377,258.871,247.067,257.928,254.281,243.241,-0.0,-0.0,228.136,241.221
2015-05-24 05:00,-0.0,275.932,272.256,255.393,272.899,271.283,254.392,-0.0,-0.0,228.488,246.818
2015-05-24 06:00,-0.0,281.526,281.505,261.412,284.079,283.194,261.54,-0.0,-0.0,229.769,250.849
2015-05-24 07:00,0.00208243,276.376,272.12,255.277,272.899,271.283,253.24,-0.0,-0.0,228.136,245.575
2015-05-24 08:00,-0.0,278.075,274.524,256.664,275.703,274.147,255.909,-0.0,-0.0,228.312,247.151
2015-05-24 09:00,-0.0,264.739,256.819,245.177,255.633,254.089,243.099,-0.0,-0.0,226.963,239.656
2015-05-24 10:00,0.208379,270.434,263.088,249.158,263.393,261.299,246.732,0.305819,0.378668,227.959,243.093
2015-05-24 12:00,0.365084,288.43,268.054,252.168,267.522,263.586,248.768,0.290445,0.479888,230.018,244.412
2015-05-24 13:00,0.254289,289.91,285.321,262.995,285.895,283.629,261.182,0.11802,0.359408,231.865,248.241
2015-05-24 14:00,0.230566,292.653,286.992,264.747,288.763,285.35,260.942,0.0983022,0.318614,232.86,250.238
2015-05-24 15:00,0.183067,294.38,291.694,267.642,294.149,291.6,264.605,0.0656792,0.267829,235.525,252.634
2015-05-24 16:00,0.318602,293.816,272.527,255.043,273.529,269.0,249.705,0.194227,0.345771,236.274,247.808
2015-05-24 17:00,0.181429,295.368,289.486,266.557,291.686,287.188,261.182,0.0707839,0.24781,237.657,252.731
2015-05-24 18:00,0.167986,293.472,291.174,267.838,293.506,290.921,264.372,0.0748598,0.249925,237.913,253.405
2015-05-24 19:00,0.170005,292.053,289.911,267.052,292.47,289.826,264.022,0.105189,0.257445,237.268,253.5
2015-05-24 20:00,0.173511,289.381,288.303,265.959,290.897,289.137,264.488,0.210786,0.297027,236.675,253.88
2015-05-24 21:00,-0.0,286.421,286.55,264.543,289.3,287.888,264.138,-0.0,-0.0181166,237.657,254.907
2015-05-24 22:00,-0.0,285.818,285.882,264.031,288.628,287.329,264.255,-0.0,-0.0,237.463,254.999
2015-05-24 23:00,-0.103353,285.357,285.882,263.928,288.628,287.188,264.138,-0.0318214,-0.0640275,237.913,255.548
2015-05-25 00:00,-0.065291,284.888,285.433,263.721,288.222,287.329,264.255,-0.0189122,-0.0329576,238.546,256.181
2015-05-25 01:00,-0.0,284.41,285.321,263.618,288.087,287.188,264.372,-0.0,-0.0,238.483,256.271
2015-05-25 02:00,-0.00127322,284.249,284.982,263.618,287.815,287.188,264.488,-0.0,-0.0,239.532,256.894
2015-05-25 03:00,0.00122174,283.924,284.869,263.099,287.679,286.907,264.372,-0.0,-0.0,239.288,257.421
2015-05-25 04:00,-0.0,283.261,284.528,262.995,287.27,286.907,263.905,-0.0,-0.0,239.104,257.246
2015-05-25 05:00,-0.0,283.093,284.185,262.995,287.134,286.907,263.787,-0.0,-0.0,239.41,257.595
2015-05-25 06:00,-0.0,282.753,284.071,262.89,286.86,286.767,264.605,-0.0,-0.0,239.471,257.333
2015-05-25 07:00,-0.0,282.408,283.841,262.681,286.722,286.343,263.787,-0.0,-0.0,239.104,257.595
2015-05-25 08:00,-0.0,282.408,283.611,262.366,286.585,286.343,264.605,-0.0,0.00328345,239.104,257.942
2015-05-25 09:00,-0.00837208,281.526,283.495,262.366,286.585,286.343,264.138,-0.0,-0.0,238.608,258.2
2015-05-25 10:00,0.381765,282.753,283.611,262.261,286.86,286.485,264.255,0.383099,0.499611,238.733,258.2
2015-05-25 12:00,0.312504,291.065,289.593,266.358,292.209,290.784,265.878,0.12709,0.4397,238.671,258.372
2015-05-25 13:00,0.264637,293.587,291.798,267.838,294.405,292.679,266.108,0.0992302,0.366401,238.104,258.2
2015-05-25 14:00,0.223092,295.042,293.133,269.0,295.803,293.75,266.795,0.0777788,0.311339,237.528,257.769
2015-05-25 15:00,0.189832,295.476,293.641,269.096,296.056,294.016,266.452,0.065873,0.271761,237.203,257.508
2015-05-25 16:00,0.183719,295.583,292.725,268.615,295.043,292.814,266.337,0.0649273,0.254827,236.808,257.158
2015-05-25 17:00,0.180165,294.823,291.798,268.033,294.149,291.735,265.762,0.0724968,0.248519,236.609,256.716
2015-05-25 18:00,0.170709,294.38,291.902,268.227,294.021,291.735,265.762,0.0732083,0.243964,237.203,256.982
2015-05-25 19:00,0.173882,292.534,290.965,267.838,293.377,291.329,265.993,0.105558,0.26166,237.398,257.158
2015-05-25 20:00,0.174505,289.91,289.379,266.557,291.948,290.511,265.532,0.205569,0.298728,237.913,257.421
2015-05-25 21:00,-0.0,287.155,287.651,265.557,290.5,289.551,264.837,-0.0,-0.0179759,238.041,257.855
2015-05-25 22:00,-0.00406042,286.271,287.102,264.849,289.835,288.861,265.185,-0.00343795,-0.0,238.608,258.286
2015-05-25 23:00,-0.0916354,285.357,286.55,264.339,289.166,288.445,264.953,-0.0278519,-0.0593022,238.981,258.543
2015-05-26 00:00,-0.0481361,285.045,286.105,264.031,288.763,288.167,265.069,-0.0160116,-0.0329761,239.349,258.628
2015-05-26 01:00,-0.0,284.249,285.658,264.031,288.493,287.748,265.069,-0.0,-0.0,239.653,258.882
2015-05-26 02:00,-0.0,284.087,285.321,263.825,288.087,287.888,264.953,-0.0,-0.0,239.954,258.882
2015-05-26 03:00,-0.00122246,283.76,285.208,263.515,287.815,287.609,264.953,-0.0,-0.0,240.371,259.304
2015-05-26 04:00,-0.00124778,283.428,284.982,263.411,287.543,287.188,265.069,-0.0,-0.0,240.134,258.967
2015-05-26 05:00,-0.0,282.753,284.528,263.203,287.27,286.907,264.837,-0.0,-0.0,239.349,258.713
2015-05-26 06:00,0.00159516,282.408,284.3,262.995,287.134,286.907,264.605,-0.0,-0.0,239.288,258.967
2015-05-26 07:00,-0.00207956,281.883,283.956,262.786,286.86,286.767,264.372,-0.0,-0.0,239.349,258.713
2015-05-26 08:00,-0.0,281.705,283.726,262.681,286.447,286.485,264.837,-0.0,-0.0,239.653,258.713
2015-05-26 09:00,-0.0,281.165,283.264,262.471,286.172,286.06,264.488,-0.0,-0.0,239.288,258.628
2015-05-26 10:00,0.374261,282.753,283.611,262.471,286.585,286.485,264.255,0.377825,0.523161,239.349,258.628
2015-05-26 11:00,0.370117,287.871,286.217,264.031,289.3,288.584,265.532,0.20097,0.499561,239.532,259.051
2015-05-26 12:00,0.318762,291.19,290.017,267.151,292.6,291.464,266.795,0.127625,0.446542,239.349,258.798
2015-05-26 13:00,0.267454,293.816,292.211,268.324,295.043,293.216,266.795,0.0979689,0.369589,238.733,258.882
2015-05-26 14:00,0.223781,295.368,293.438,269.192,295.93,293.75,266.795,0.0794125,0.310641,238.795,258.628
2015-05-26 15:00,0.195059,295.69,293.539,269.0,295.803,293.483,266.222,0.0687051,0.275694,238.483,258.286
2015-05-26 16:00,0.179422,295.902,293.031,269.192,295.424,292.679,265.878,0.0637508,0.253916,238.357,258.028
2015-05-26 17:00,0.168141,295.26,293.742,269.575,296.182,293.883,267.137,0.0620953,0.243788,238.733,258.967
2015-05-26 18:00,0.164532,294.491,293.539,269.192,296.056,294.016,266.566,0.0715368,0.246912,238.981,259.22
2015-05-26 19:00,0.213959,291.19,287.76,265.153,289.166,287.188,262.255,0.136566,0.30573,236.609,256.001
2015-05-26 20:00,0.419514,287.871,281.267,261.412,281.655,279.661,257.406,0.368118,0.53133,233.308,252.537
2015-05-26 21:00,-0.0176844,286.569,287.322,264.747,289.835,289.276,265.301,-0.0,-0.0178535,236.675,258.628
2015-05-26 22:00,-0.0040589,283.594,283.148,262.049,285.061,284.061,262.017,-0.0,-0.0,234.615,255.639
2015-05-26 23:00,-0.110474,283.76,284.071,262.261,286.31,286.06,263.436,-0.0338329,-0.0640704,236.139,257.158
2015-05-27 00:00,-0.0688073,284.41,286.105,263.825,288.763,288.584,265.762,-0.0174777,-0.0364692,237.913,258.882
2015-05-27 01:00,-0.0,284.087,285.658,263.618,288.222,288.306,265.301,-0.0,-0.0,239.227,259.22
2015-05-27 02:00,-0.0,283.428,285.321,263.411,287.815,288.027,265.185,-0.0,-0.0,239.349,259.22
2015-05-27 03:00,-0.00122318,283.093,284.982,263.411,287.679,287.748,264.953,-0.0,-0.0,239.774,259.22
2015-05-27 04:00,-0.0024967,282.923,284.642,262.995,287.407,287.329,265.301,-0.0,-0.0,240.074,258.882
2015-05-27 05:00,0.0013586,282.234,284.3,262.89,286.86,287.048,264.953,-0.0,-0.0,239.834,258.967
2015-05-27 06:00,-0.0,282.408,284.071,262.681,286.722,286.767,265.069,-0.0,-0.0,239.954,259.22
2015-05-27 07:00,-0.0,281.705,283.611,262.366,286.447,286.485,265.069,-0.0,-0.0,240.014,258.967
2015-05-27 08:00,-0.0,281.705,283.38,262.471,286.172,286.202,264.488,-0.0,-0.0,240.607,259.135
2015-05-27 09:00,-0.0,281.526,283.032,261.838,285.757,286.06,264.255,-0.0,-0.0,240.312,259.051
2015-05-27 10:00,0.337127,282.408,283.611,262.261,286.31,286.485,264.488,0.335088,0.532722,240.074,258.882
2015-05-27 11:00,0.348067,286.569,285.994,263.825,288.628,287.888,265.185,0.178196,0.502576,239.593,258.543
2015-05-27 12:00,0.310165,288.977,285.658,263.825,287.134,285.493,261.54,0.13656,0.428362,237.592,256.271
2015-05-27 13:00,0.264561,292.174,289.165,265.859,291.16,288.999,263.553,0.107973,0.367009,238.231,257.246
2015-05-27 14:00,0.222808,294.491,291.902,267.838,294.277,292.141,265.416,0.0824477,0.309915,238.231,257.508
2015-05-27 15:00,0.194042,295.368,293.438,269.192,295.93,293.883,266.452,0.0662478,0.271727,238.857,258.372
2015-05-27 16:00,0.175085,295.583,293.843,269.384,296.307,294.016,266.566,0.0612018,0.24649,239.043,258.114
2015-05-27 17:00,0.165001,295.042,293.438,269.0,296.056,294.016,266.222,0.0607416,0.240814,239.349,258.543
2015-05-27 18:00,0.164984,294.043,292.827,268.904,295.297,293.216,266.566,0.0717336,0.240839,239.471,258.457
2015-05-27 19:00,0.178307,292.653,291.487,267.838,293.764,291.871,265.762,0.103444,0.260016,240.312,258.882
2015-05-27 20:00,0.176294,289.647,289.486,266.458,292.209,290.511,265.416,0.194697,0.294053,240.43,258.967
2015-05-27 21:00,-0.0,286.864,287.541,265.153,290.101,289.137,265.185,-0.0,-0.0177485,241.015,258.882
2015-05-27 22:00,-0.00811613,285.97,286.992,264.645,289.434,288.584,265.185,-0.0,-0.0,240.43,259.22
2015-05-27 23:00,-0.11993,285.202,286.439,264.441,288.763,288.027,265.185,-0.0338482,-0.0640993,241.361,259.804
2015-05-28 00:00,-0.0688514,284.73,285.658,263.928,288.358,287.609,264.372,-0.0189463,-0.0347548,241.533,259.721
2015-05-28 01:00,-0.0,284.249,285.433,263.928,287.951,287.609,264.721,-0.0,-0.0,241.419,259.638
2015-05-28 02:00,-0.0,282.059,283.38,262.471,286.172,285.208,263.2,-0.0,-0.0,242.266,259.721
2015-05-28 04:00,-0.00124891,282.923,284.414,262.995,286.86,286.202,263.787,-0.0,-0.0,242.984,259.638
2015-05-28 05:00,-0.00135891,282.923,284.071,262.786,286.722,286.06,264.605,-0.0,-0.0,242.765,259.387
2015-05-28 06:00,-0.0,282.408,283.841,262.681,286.447,285.777,263.787,-0.0,-0.0,242.489,259.051
2015-05-28 07:00,-0.0,282.059,283.611,262.576,286.172,285.635,263.318,-0.0,-0.0,241.986,258.713
2015-05-28 08:00,0.00323171,281.705,283.611,262.681,286.31,286.06,263.67,-0.0,-0.0,241.189,258.2
2015-05-28 09:00,-0.00817472,281.705,283.495,262.471,286.172,285.635,263.787,-0.0,-0.0,240.253,257.682
2015-05-28 10:00,0.343361,282.923,283.956,262.995,286.722,286.06,263.553,0.341284,0.497358,240.489,257.421
2015-05-28 11:00,0.350156,287.444,286.217,264.849,288.897,287.609,264.022,0.182712,0.476819,239.043,256.36
2015-05-28 12:00,0.318915,291.19,289.272,266.756,291.948,290.375,264.721,0.128684,0.435154,239.288,256.181
2015-05-28 13:00,0.269269,293.93,291.798,268.518,294.021,291.871,264.953,0.0986338,0.360529,238.795,256.181
2015-05-28 14:00,0.228434,295.796,292.725,269.192,294.788,292.141,264.837,0.0812901,0.305819,238.546,255.821
2015-05-28 15:00,0.199278,296.114,292.725,269.384,294.405,291.464,264.605,0.0717428,0.270884,237.913,254.999
2015-05-28 16:00,0.143331,293.93,289.911,267.838,291.948,288.861,263.2,0.07636,0.195102,237.785,254.814
2015-05-28 17:00,0.248132,296.114,286.328,264.849,287.951,284.492,260.461,0.158331,0.321299,236.274,253.785
2015-05-28 18:00,0.364362,285.512,269.059,253.501,270.819,270.148,255.532,0.459918,0.503248,236.874,251.552
2015-05-28 19:00,0.367595,289.247,270.746,254.69,271.303,267.673,252.335,0.336478,0.414572,236.609,250.95
2015-05-28 20:00,0.346474,291.563,285.77,264.645,287.407,284.061,260.219,0.338992,0.4897,236.609,254.256
2015-05-28 21:00,-0.0174929,285.818,285.994,264.441,288.222,286.485,262.847,-0.0,-0.0,237.977,254.999
2015-05-28 22:00,-0.0121738,278.075,273.865,256.205,273.529,268.835,251.028,-0.0,-0.0,236.475,249.721
2015-05-28 23:00,-0.0823484,282.581,282.448,261.838,284.361,280.85,258.638,-0.0278897,-0.0593826,237.849,254.068
2015-05-29 00:00,-0.0516737,283.924,283.841,262.366,286.31,284.636,261.779,-0.0160424,-0.0313006,237.072,254.256
2015-05-29 01:00,-0.0,283.093,282.682,261.731,284.641,282.321,260.34,-0.0,-0.0,233.968,252.244
2015-05-29 02:00,-0.0,274.073,270.189,253.741,270.657,268.505,252.335,-0.0,-0.0,232.86,247.04
2015-05-29 03:00,-0.0,249.89,245.032,238.657,245.914,244.112,236.765,-0.0,-0.0,232.175,238.714
2015-05-29 04:00,-0.00124945,260.827,260.528,247.597,262.507,261.477,249.171,-0.0,-0.0,237.463,250.34
2015-05-29 05:00,-0.0,261.666,261.017,248.382,263.217,262.361,250.369,-0.0,-0.0,238.919,251.949
2015-05-29 06:00,-0.0,263.255,263.088,249.286,265.654,264.795,251.944,-0.0,-0.0,238.041,251.85
2015-05-29 07:00,-0.0,264.377,264.021,249.797,265.997,264.967,252.464,-0.0,-0.0,244.111,254.999
2015-05-29 08:00,-0.0,272.836,271.023,254.099,273.057,270.635,254.773,-0.0,-0.0,246.258,257.333
2015-05-29 09:00,0.008111,275.02,273.199,255.277,275.087,273.517,256.035,-0.0,-0.0,245.557,257.769
2015-05-29 10:00,0.364989,282.059,280.187,259.793,282.66,280.85,259.977,0.386294,0.460597,245.608,259.387
2015-05-29 12:00,0.380249,292.889,283.495,261.838,285.061,282.467,260.581,0.184277,0.452073,245.456,259.471
2015-05-29 13:00,0.289316,293.124,288.087,264.747,289.166,286.485,262.136,0.120048,0.36752,245.456,260.545
2015-05-29 14:00,0.227433,293.587,290.86,266.557,292.079,289.689,263.67,0.0815249,0.305026,244.945,260.952
2015-05-29 15:00,0.198232,294.491,291.798,267.642,293.248,290.784,264.721,0.0679364,0.268425,243.899,260.708
2015-05-29 16:00,0.180823,294.602,291.798,267.935,293.506,291.057,0.0,0.0601474,0.247748,242.099,260.135
2015-05-29 17:00,0.171233,293.93,291.798,268.227,293.635,290.921,264.953,0.0610453,0.240198,240.841,260.381
2015-05-29 18:00,0.168067,293.007,291.279,267.642,292.989,290.784,264.488,0.0702024,0.242068,239.166,259.721
2015-05-29 19:00,0.169358,291.563,290.44,267.249,292.209,289.964,264.953,0.0984082,0.254789,237.721,258.798
2015-05-29 20:00,0.154616,288.977,288.736,266.059,290.632,288.861,264.488,0.183279,0.273165,235.936,258.457
2015-05-29 21:00,-0.0,285.818,286.439,264.543,288.628,287.188,263.436,-0.0,-0.0,235.247,257.855
2015-05-29 22:00,-0.00405844,285.818,286.217,264.236,288.628,287.329,264.255,-0.0,-0.0,235.525,258.457
2015-05-29 23:00,-0.0894605,280.05,276.718,258.022,277.978,276.015,256.035,-0.0298998,-0.0594182,232.251,253.021
2015-05-30 00:00,-0.0482633,284.087,284.642,263.099,286.722,285.777,262.965,-0.0160539,-0.031323,234.756,258.2
2015-05-30 01:00,-0.0,284.41,285.321,263.721,287.407,286.626,263.67,-0.0,-0.0,236.408,259.22
2015-05-30 02:00,-0.0,281.526,280.669,260.769,282.803,281.293,259.856,-0.0,-0.0,234.615,256.181
2015-05-30 03:00,-0.0,273.831,274.524,257.12,277.377,275.396,258.392,-0.0,-0.0,235.867,257.158
2015-05-30 04:00,-0.00124998,270.713,266.738,252.045,268.191,265.48,251.028,-0.0,-0.0,232.709,251.751
2015-05-30 05:00,-0.0,273.088,273.333,256.778,276.163,274.46,258.27,-0.0,-0.0,237.072,257.508
2015-05-30 06:00,-0.0,279.081,279.945,260.769,282.517,280.998,261.421,-0.0,-0.0,237.463,258.628
2015-05-30 07:00,0.00207325,282.753,284.414,263.099,286.722,286.06,264.372,-0.0,-0.0,237.528,259.554
2015-05-30 08:00,-0.0,282.234,284.3,263.203,287.134,286.626,264.138,-0.0,-0.0,237.528,259.804
2015-05-30 09:00,-0.00804837,281.883,284.3,263.411,286.997,286.907,264.022,-0.0,-0.0,237.721,260.217
2015-05-30 10:00,0.418368,282.753,284.414,263.203,287.407,287.329,264.953,0.43295,0.516227,238.168,261.033
2015-05-30 11:00,0.465566,288.841,284.755,263.515,287.679,286.907,264.255,0.345356,0.494974,238.857,260.708
2015-05-30 12:00,0.379257,292.534,288.736,266.159,291.16,290.238,265.301,0.20628,0.448809,240.43,261.515
2015-05-30 13:00,0.267183,293.587,292.005,268.518,294.021,292.276,265.762,0.0976505,0.364825,240.371,261.435
2015-05-30 14:00,0.228074,295.476,293.944,269.86,295.93,293.883,266.795,0.0789353,0.309246,240.782,261.993
2015-05-30 15:00,0.197163,296.427,294.446,270.145,296.559,294.415,267.023,0.0667752,0.270706,240.724,261.834
2015-05-30 16:00,0.181259,296.114,294.546,270.523,296.935,294.944,266.909,0.0616627,0.24998,240.957,261.993
2015-05-30 17:00,0.171632,295.796,294.044,270.05,296.307,294.149,266.681,0.064247,0.244406,240.841,261.755
2015-05-30 18:00,0.159476,294.156,293.235,269.67,295.424,293.75,266.452,0.0665633,0.226762,240.724,261.755
2015-05-30 19:00,0.16313,292.653,292.005,268.615,294.405,292.814,266.108,0.0958396,0.248714,239.714,261.675
2015-05-30 20:00,0.364677,288.291,284.642,263.721,286.585,284.636,260.701,0.321911,0.485663,238.42,258.543
2015-05-30 21:00,-0.0347294,287.155,288.52,266.059,291.029,290.511,266.337,-0.0,-0.0,241.76,262.701
2015-05-30 22:00,-0.00405961,286.121,287.869,265.355,290.367,289.964,265.878,-0.0,-0.0,241.647,262.935
2015-05-30 23:00,-0.103655,285.357,286.882,264.543,289.568,289.276,265.993,-0.0299198,-0.0570798,241.647,262.466
2015-05-31 00:00,-0.0672743,284.73,286.55,264.441,288.897,288.584,265.532,-0.018987,-0.0348294,242.155,262.935
2015-05-31 01:00,-0.00142491,284.249,285.994,264.236,288.628,288.584,265.762,-0.0,-0.0,241.817,263.552
2015-05-31 02:00,-0.00255665,283.428,285.658,263.721,288.358,288.584,265.878,-0.0,-0.0,241.476,263.629
2015-05-31 03:00,-0.001226,283.428,285.433,263.515,287.951,288.167,265.416,-0.0,-0.0,241.189,263.476
2015-05-31 04:00,-0.0,283.261,285.321,263.721,287.679,288.027,265.878,-0.0,-0.0,242.489,263.629
2015-05-31 05:00,-0.0,282.923,284.982,263.411,287.407,287.888,265.647,-0.0,-0.0,242.544,264.086
2015-05-31 06:00,-0.0,282.408,284.642,262.995,287.134,287.469,265.647,-0.0,-0.0,242.489,264.238
2015-05-31 07:00,-0.0,282.059,284.185,262.995,286.722,287.188,264.953,-0.0,-0.0,242.042,264.389
2015-05-31 08:00,-0.0,281.526,283.956,262.681,286.585,286.907,265.185,-0.0,-0.0,241.704,263.476
2015-05-31 09:00,-0.0,281.346,283.841,262.049,286.31,286.202,264.488,-0.0,-0.0,239.834,262.151
2015-05-31 10:00,0.347393,282.408,284.071,262.681,286.722,286.767,264.488,0.334247,0.542013,238.671,260.871
2015-05-31 11:00,0.352256,287.155,286.882,264.543,289.3,288.584,265.069,0.178953,0.489505,237.785,259.804
2015-05-31 12:00,0.320232,291.065,290.017,266.954,292.47,291.193,266.337,0.128098,0.440392,237.333,259.804
2015-05-31 13:00,0.269955,294.043,292.622,268.711,294.916,293.216,266.108,0.0979588,0.36403,238.546,260.708
2015-05-31 14:00,0.230368,296.008,294.546,269.86,297.06,295.339,267.023,0.0805649,0.311778,237.913,260.381
2015-05-31 15:00,0.205559,293.472,286.217,265.456,286.033,281.882,257.406,0.0910395,0.27457,234.401,254.629
2015-05-31 16:00,0.191411,295.26,291.694,268.421,293.119,290.648,263.553,0.0714197,0.260384,236.874,257.942
2015-05-31 17:00,0.173824,295.26,292.929,268.807,294.788,292.545,265.416,0.0674559,0.244949,236.742,259.22
2015-05-31 18:00,0.234114,291.44,284.528,263.411,283.797,280.85,258.147,0.137232,0.318167,232.935,253.595
2015-05-31 19:00,0.213567,288.977,283.032,263.099,284.079,281.146,258.638,0.163875,0.279618,232.175,252.537
2015-05-31 20:00,0.171253,290.301,290.123,267.052,292.47,291.193,265.762,0.177954,0.282911,237.721,260.463
2015-05-31 21:00,-0.0,287.3,287.978,265.456,290.367,289.413,265.532,-0.0,-0.0,238.857,260.708
2015-05-31 22:00,-0.00406143,285.512,285.994,264.133,288.222,286.907,263.905,-0.0,-0.00410025,237.333,259.051
2015-05-31 23:00,-0.0990169,273.831,264.788,250.051,262.329,260.045,244.792,-0.029942,-0.0595021,226.871,243.818
