# timestamp,IR_016,IR_039,IR_087,IR_097,IR_108,IR_120,IR_134,VIS006,VIS008,WV_062,WV_073
2016-08-01 00:00,-0.193862,290.171,288.736,257.798,291.686,289.276,263.083,-0.0497402,-0.100823,234.257,253.785
2016-08-01 01:00,-0.00215578,289.779,288.628,257.798,291.423,288.999,262.847,0.0,-0.00217639,233.234,253.785
2016-08-01 02:00,0.0,278.075,279.091,253.14,282.517,281.735,260.461,0.0,0.0,233.159,254.162
2016-08-01 03:00,-0.00170129,288.977,288.087,258.022,290.897,288.722,262.61,0.0,0.0,232.097,253.405
2016-08-01 04:00,-0.0017246,290.041,288.628,258.134,291.555,289.137,263.318,0.0,0.0,231.787,253.405
2016-08-01 05:00,0.0,290.429,289.272,257.798,291.948,289.413,263.436,0.0,0.0,231.865,253.5
2016-08-01 06:00,0.0,287.587,286.439,256.205,289.166,287.188,262.017,0.0,0.0,233.234,254.068
2016-08-01 07:00,0.0,278.684,278.35,251.552,280.931,280.406,259.005,0.0,0.0,233.01,252.925
2016-08-01 08:00,0.0,285.045,283.956,254.926,285.757,284.349,260.822,0.0,0.0,232.328,252.244
2016-08-01 09:00,0.103643,290.171,287.978,256.778,290.101,287.329,261.66,0.368568,0.251121,232.935,251.751
2016-08-01 10:00,0.0606747,290.939,288.195,257.12,290.367,287.748,262.136,0.161459,0.100633,233.677,253.021
2016-08-01 11:00,0.0395112,290.939,289.058,257.233,291.948,289.551,262.728,0.100362,0.0573404,233.603,252.634
2016-08-01 12:00,0.0214672,291.19,289.379,257.12,292.209,290.101,262.965,0.0742197,0.0469569,233.53,253.88
2016-08-01 13:00,0.0175859,291.315,288.951,257.12,291.817,289.276,262.492,0.058319,0.035508,233.382,253.69
2016-08-01 14:00,0.0156525,290.558,287.869,256.664,290.101,287.469,261.779,0.050803,0.0329211,232.481,252.731
2016-08-01 15:00,0.0260516,289.779,286.439,256.434,288.358,286.06,261.54,0.0504179,0.0338151,233.085,253.5
2016-08-01 16:00,0.0338347,290.685,287.541,257.006,289.701,287.188,261.898,0.0583566,0.0468093,231.394,253.021
2016-08-01 17:00,0.0619191,292.771,285.546,256.32,287.815,285.493,261.54,0.0706623,0.0584343,231.156,253.213
2016-08-01 18:00,0.15049,293.816,283.956,255.277,286.172,284.205,261.182,0.151065,0.137833,231.236,253.117
2016-08-01 19:00,0.217794,299.203,286.992,256.778,289.032,286.343,261.66,0.21431,0.196106,231.63,253.117
2016-08-01 20:00,0.613165,302.426,286.992,257.346,288.897,286.343,261.779,0.514291,0.505683,231.394,252.828
2016-08-01 21:00,0.989443,298.339,288.087,257.91,289.968,287.048,261.301,0.682247,0.723755,232.251,252.925
2016-08-01 22:00,-0.0715945,288.291,287.322,257.12,289.434,287.188,261.66,-0.121238,-0.216837,232.935,253.88
2016-08-01 23:00,-0.344976,290.171,288.736,258.022,290.897,288.445,262.847,-0.0853803,-0.171458,233.382,254.907
2016-08-02 00:00,-0.151706,290.301,289.058,258.246,291.423,289.276,263.083,-0.041993,-0.0913047,233.456,254.907
2016-08-02 01:00,0.0,289.381,288.195,258.022,290.632,288.584,262.965,-0.00181552,0.0,233.234,254.722
2016-08-02 02:00,0.0,290.301,289.486,258.469,291.948,289.689,262.965,0.0,0.0,233.159,254.256
2016-08-02 03:00,0.0,290.301,289.272,258.691,291.948,289.551,263.083,0.0,0.0,233.53,254.629
2016-08-02 04:00,0.00171698,288.568,287.978,257.91,290.367,288.584,262.965,0.0,0.0,233.603,255.091
2016-08-02 05:00,0.0,278.883,279.458,253.741,282.803,282.028,260.701,0.0,0.0,233.75,255.548
2016-08-02 06:00,0.0,282.753,282.096,254.926,284.781,283.917,261.421,0.0,0.0,234.041,256.36
2016-08-02 07:00,0.0,289.514,288.628,257.91,290.897,289.137,263.318,0.0,0.0,234.472,256.628
2016-08-02 08:00,-0.0075875,290.041,289.272,258.134,291.817,290.101,264.022,0.0,0.0,234.615,257.246
2016-08-02 09:00,0.405524,290.041,289.058,258.691,291.555,289.826,263.67,0.52407,0.430948,234.329,256.805
2016-08-02 10:00,0.191594,291.065,288.843,258.58,291.423,289.964,264.022,0.269141,0.228594,234.897,256.716
2016-08-02 11:00,0.247439,290.171,286.439,257.685,288.897,287.609,263.083,0.341495,0.339734,234.257,256.36
2016-08-02 12:00,0.195194,292.414,286.328,257.798,289.032,287.609,263.436,0.248664,0.222371,232.481,255.911
2016-08-02 13:00,0.0117308,291.315,289.486,259.683,292.079,289.964,263.787,0.0558702,0.0325682,231.394,255.366
2016-08-02 14:00,0.0156587,291.315,289.699,260.011,292.209,290.238,263.318,0.0475085,0.0276647,231.076,255.091
2016-08-02 15:00,0.193594,287.01,283.956,256.664,286.722,285.635,262.255,0.256381,0.251823,230.266,254.722
2016-08-02 16:00,0.0351029,291.44,288.303,259.244,290.367,288.167,262.61,0.0562588,0.0417668,230.593,254.349
2016-08-02 17:00,0.0808166,291.686,287.978,259.134,290.632,289.413,263.67,0.0900959,0.0815892,231.709,254.999
2016-08-02 18:00,0.178608,295.151,286.992,258.469,290.101,288.999,264.022,0.172267,0.169339,232.097,255.639
2016-08-02 19:00,0.198543,299.765,289.805,260.228,292.47,290.511,264.255,0.196401,0.178611,232.328,256.181
2016-08-02 20:00,0.58937,304.95,289.699,260.553,292.34,290.648,264.721,0.479449,0.478337,233.603,256.894
2016-08-02 21:00,1.65646,306.176,290.545,260.876,293.377,291.6,265.069,1.05316,1.17725,233.53,256.716
2016-08-02 22:00,-0.126323,289.514,289.165,260.119,292.079,290.375,264.837,-0.160437,-0.255062,234.041,256.894
2016-08-02 23:00,-0.32535,289.779,289.699,260.228,292.34,290.784,264.372,-0.0888624,-0.185421,233.968,256.894
2016-08-03 00:00,-0.208605,288.568,288.412,259.464,291.423,289.964,264.372,-0.0515157,-0.105299,234.543,257.769
2016-08-03 01:00,-0.00213255,289.91,289.486,260.228,291.948,290.238,264.255,0.0,-0.00215293,234.756,258.114
2016-08-03 02:00,0.00180671,285.97,286.439,258.802,289.166,288.306,263.787,0.0,0.0,236.071,258.372
2016-08-03 03:00,-0.00168607,287.444,286.882,259.134,290.101,288.445,263.905,0.0,0.0,237.398,259.051
2016-08-03 04:00,0.0,282.753,283.956,257.346,287.407,287.188,263.787,0.0,0.0,237.721,259.554
2016-08-03 05:00,-0.00188735,282.408,284.414,257.459,287.543,287.048,263.787,0.0,0.0,238.919,259.887
2016-08-03 06:00,-0.00231857,283.428,285.095,258.246,287.679,287.329,264.022,0.0,0.0,239.349,260.871
2016-08-03 07:00,0.0,286.421,286.882,259.134,289.568,288.722,264.721,0.0,0.0,239.653,261.435
2016-08-03 08:00,0.0,285.202,286.439,258.802,288.897,288.167,264.488,0.0,0.0,240.193,261.755
2016-08-03 09:00,0.725827,284.57,285.321,258.246,288.222,287.469,263.787,0.838031,0.865995,240.899,261.834
2016-08-03 10:00,0.41125,290.813,287.651,260.011,289.835,288.999,264.488,0.459334,0.419599,241.76,262.545
2016-08-03 11:00,0.106611,292.294,289.379,260.876,291.423,289.826,264.255,0.161641,0.120145,242.6,262.545
2016-08-03 12:00,0.0860453,292.414,288.52,260.661,290.764,289.276,264.372,0.125977,0.0959166,242.099,262.151
2016-08-03 13:00,0.0322789,292.053,289.272,261.198,291.16,289.551,264.488,0.0745378,0.0488812,242.266,260.952
2016-08-03 14:00,0.0130542,291.563,289.805,261.519,291.686,289.826,264.255,0.0486331,0.0276759,241.131,260.381
2016-08-03 15:00,0.166354,290.558,287.76,260.228,289.968,288.722,263.67,0.213379,0.216823,238.919,259.22
2016-08-03 16:00,0.053933,291.931,289.379,261.305,291.817,289.689,264.138,0.0817722,0.0658448,238.671,259.22
2016-08-03 17:00,0.115918,292.534,288.412,260.876,290.632,288.999,264.022,0.134667,0.127912,239.593,259.22
2016-08-03 18:00,0.0808536,294.933,289.379,261.519,291.555,289.413,264.138,0.100055,0.084766,238.294,258.372
2016-08-03 19:00,0.258024,297.549,288.843,261.519,291.029,289.413,264.022,0.256825,0.242594,235.867,257.508
2016-08-03 20:00,0.490098,298.242,288.195,261.198,290.632,288.722,263.67,0.451796,0.439157,234.686,256.539
2016-08-03 21:00,1.5519,301.478,281.978,257.346,283.514,281.146,259.735,1.10437,1.3046,233.382,254.162
2016-08-03 22:00,-0.112604,278.883,275.823,253.621,277.226,275.085,257.158,-0.143012,-0.22736,232.784,253.405
2016-08-03 23:00,-0.248998,285.512,281.029,257.12,282.946,280.108,257.9,-0.0746675,-0.172822,232.481,253.785
2016-08-04 00:00,-0.146722,287.01,282.916,258.134,284.921,281.735,259.492,-0.0462816,-0.101654,232.633,253.309
2016-08-04 01:00,-0.00212073,290.939,289.272,261.944,291.029,288.445,262.728,0.0,-0.002141,232.328,254.443
2016-08-04 02:00,-0.00179792,288.152,285.994,260.337,288.087,285.065,261.421,0.0,0.0,233.085,253.595
2016-08-04 03:00,0.0,290.429,288.951,261.625,290.764,288.445,263.318,0.0,0.0,233.085,254.722
2016-08-04 04:00,-0.00170162,290.429,289.272,262.049,291.292,288.861,263.436,0.0,0.0,234.185,255.639
2016-08-04 05:00,-0.0018785,290.939,289.486,262.366,291.423,289.137,263.905,0.0,0.0,234.257,255.457
2016-08-04 06:00,0.0,289.91,288.736,261.731,290.897,288.584,263.553,0.0,0.0,234.257,255.821
2016-08-04 07:00,-0.00335436,287.587,286.55,260.553,288.763,286.202,262.492,0.0,0.0,234.756,255.366
2016-08-04 08:00,-0.00739654,289.514,288.303,261.519,290.5,288.306,262.965,0.0,0.0,235.317,256.091
2016-08-04 09:00,0.317601,289.247,287.541,260.876,290.101,288.167,263.318,0.537824,0.412247,236.609,257.158
2016-08-04 10:00,0.448362,291.686,285.095,259.683,288.087,286.626,263.083,0.442899,0.426022,236.207,257.158
2016-08-04 11:00,0.34034,297.146,285.321,259.902,288.358,287.048,264.022,0.319716,0.29845,236.139,257.421
2016-08-04 12:00,0.107667,293.124,289.058,261.944,291.16,289.276,264.138,0.136742,0.114131,237.072,258.028
2016-08-04 13:00,0.0161491,291.809,290.017,262.366,292.079,289.964,263.905,0.0571797,0.0326069,235.867,257.682
2016-08-04 14:00,0.0195895,289.779,285.882,259.683,286.86,284.492,260.701,0.0541821,0.0342796,233.456,254.907
2016-08-04 15:00,0.00993545,291.686,290.123,262.576,292.209,290.101,264.605,0.0378555,0.0213147,235.038,257.855
2016-08-04 16:00,0.0112939,292.053,290.123,262.576,292.209,289.964,264.022,0.0382501,0.0228037,235.455,257.769
2016-08-04 17:00,0.0242799,293.007,290.017,262.366,292.079,289.826,264.022,0.0491102,0.0326827,235.455,257.855
2016-08-04 18:00,0.147892,293.93,288.52,261.519,290.897,288.722,264.255,0.176625,0.16345,234.827,257.333
2016-08-04 19:00,0.165794,297.749,290.017,262.366,291.948,289.826,264.255,0.172129,0.151438,234.543,256.982
2016-08-04 20:00,0.51242,302.848,289.805,262.576,291.686,289.413,263.905,0.43633,0.414443,234.185,256.539
2016-08-04 21:00,1.3055,301.999,289.699,262.155,291.817,289.413,264.138,0.883259,0.929977,234.329,256.628
2016-08-04 22:00,-0.0506218,290.171,288.951,262.049,291.555,289.413,264.022,-0.0428614,-0.0511057,233.603,256.181
2016-08-04 23:00,-0.35889,289.247,288.412,261.731,290.897,288.999,264.255,-0.0911616,-0.186337,234.041,256.36
2016-08-05 00:00,-0.157098,291.44,290.651,262.681,293.119,291.057,264.605,-0.0459504,-0.100927,234.041,256.805
2016-08-05 01:00,-0.00210879,290.041,289.911,261.944,292.209,290.511,264.255,0.0,0.0,233.603,256.982
2016-08-05 02:00,0.0,290.685,290.335,262.261,292.86,291.057,265.069,0.0,0.0,233.01,256.805
2016-08-05 03:00,0.0,289.779,288.52,260.984,290.764,288.861,263.083,0.0,0.0,231.943,256.181
2016-08-05 04:00,0.0,282.923,284.528,258.358,287.134,286.343,263.083,0.0,0.0,232.251,257.333
2016-08-05 05:00,-0.00186966,283.093,282.916,257.459,285.895,284.922,262.017,0.0,0.0,232.405,256.716
2016-08-05 06:00,0.0,284.888,282.799,257.459,284.921,283.194,260.461,0.0,0.0,232.02,255.821
2016-08-05 07:00,0.0,283.924,281.267,256.434,283.514,281.588,258.638,0.0,0.0,232.175,255.366
2016-08-05 08:00,0.0,280.799,282.214,256.892,285.618,285.065,263.083,0.0,0.0,234.257,258.543
2016-08-05 09:00,0.749434,280.982,281.624,256.664,285.061,284.779,263.2,0.793181,0.780242,234.401,258.628
2016-08-05 10:00,0.463733,291.931,283.495,257.685,286.86,285.777,263.2,0.430036,0.423579,234.185,258.457
2016-08-05 11:00,0.296207,296.114,283.956,258.022,286.86,285.493,262.728,0.286627,0.276423,233.159,257.421
2016-08-05 12:00,0.219145,288.152,276.336,253.501,276.468,273.359,252.723,0.234219,0.22124,229.178,250.442
2016-08-05 13:00,0.0616971,285.665,274.785,252.29,273.686,270.311,251.159,0.104478,0.0860153,227.329,247.151
2016-08-05 14:00,0.024824,291.931,288.843,260.337,290.764,288.445,262.965,0.0564178,0.0369324,231.787,256.45
2016-08-05 15:00,0.0459704,292.771,288.843,260.553,290.897,288.722,262.847,0.0662744,0.0514272,231.709,256.271
2016-08-05 16:00,0.0866322,284.087,268.054,248.642,265.138,260.942,244.09,0.114811,0.110276,226.311,244.764
2016-08-05 17:00,0.0337488,293.702,290.017,261.198,292.079,289.413,263.787,0.053721,0.0395228,233.896,257.508
2016-08-05 18:00,0.0327336,294.156,291.383,261.731,293.635,291.329,264.721,0.06071,0.0424883,234.615,258.372
2016-08-05 19:00,0.104836,295.796,290.44,261.305,292.209,289.964,264.022,0.12561,0.103841,233.382,257.595
2016-08-05 20:00,0.245578,296.531,290.229,261.412,292.34,289.964,263.787,0.252487,0.221362,233.603,257.421
2016-08-05 21:00,0.542613,296.008,291.383,261.731,293.506,291.193,264.953,0.448988,0.43575,233.456,257.942
2016-08-05 22:00,-0.137547,292.174,290.756,261.625,292.989,290.784,264.255,-0.0776403,-0.138861,232.02,256.628
2016-08-05 23:00,-0.26345,291.809,290.86,261.838,293.248,291.057,265.185,-0.0857932,-0.189246,231.473,256.001
2016-08-06 00:00,-0.198488,291.931,290.965,261.412,293.377,291.329,264.721,-0.0576203,-0.117369,231.63,256.271
2016-08-06 01:00,-0.00419348,291.44,290.545,261.519,292.989,290.921,264.138,0.0,-0.00211678,231.473,255.821
2016-08-06 02:00,0.0,287.871,284.642,257.798,285.757,283.629,259.614,0.0,0.0,230.266,252.047
2016-08-06 03:00,0.0,291.563,290.651,261.519,293.248,291.057,264.721,0.0,0.0,230.996,255.639
2016-08-06 04:00,0.0,291.065,290.545,261.091,292.86,291.057,264.488,0.0,0.0,231.156,256.181
2016-08-06 05:00,0.0,290.171,289.911,260.445,292.47,290.511,264.605,0.0,0.0,230.916,256.894
2016-08-06 06:00,-0.00228219,291.19,290.229,260.984,292.6,290.238,264.488,0.0,-0.00230401,231.076,256.36
2016-08-06 07:00,-0.00330958,290.685,290.017,260.337,292.47,290.648,264.605,0.0,0.0,231.552,257.333
2016-08-06 08:00,0.00721476,290.813,289.911,260.553,292.34,290.375,264.721,0.0,0.0,232.405,257.508
2016-08-06 09:00,0.992228,285.97,285.546,258.246,288.087,287.188,263.787,0.92208,0.977281,233.896,257.595
2016-08-06 10:00,0.310617,289.381,286.217,258.358,288.897,287.609,263.905,0.413284,0.407662,234.827,257.769
2016-08-06 11:00,0.199523,291.065,286.328,258.469,288.897,287.329,263.436,0.26185,0.239198,233.677,257.595
2016-08-06 12:00,0.0197791,291.931,289.699,260.337,291.948,289.964,264.372,0.0730774,0.038121,232.935,257.682
2016-08-06 13:00,0.0132288,291.931,290.545,260.876,292.989,291.057,264.953,0.0522705,0.0281945,233.677,257.769
2016-08-06 14:00,0.0169923,292.414,290.756,260.876,293.119,290.784,264.721,0.0464823,0.0277116,233.53,257.682
2016-08-06 15:00,0.0174018,292.414,290.756,260.984,292.86,291.057,264.605,0.0431498,0.0263522,234.257,258.543
2016-08-06 16:00,0.0238687,292.653,290.651,261.091,292.73,290.648,264.605,0.0468011,0.0317064,233.085,258.028
2016-08-06 17:00,0.0459369,292.889,290.44,260.661,292.47,290.648,264.372,0.0674938,0.0531961,233.53,258.457
2016-08-06 18:00,0.0280952,293.587,290.86,260.876,292.989,290.921,264.605,0.0541841,0.0362426,233.308,258.543
2016-08-06 19:00,0.0931809,295.476,290.335,260.876,292.34,289.964,264.488,0.117505,0.0940716,232.481,257.855
2016-08-06 20:00,0.258387,298.045,290.335,260.984,292.6,290.238,263.553,0.263526,0.231215,232.633,256.805
2016-08-06 21:00,0.67343,297.146,290.229,261.198,292.34,289.689,264.022,0.549074,0.528786,232.784,256.001
2016-08-06 22:00,-0.0835759,291.563,290.017,261.198,291.948,289.689,263.67,-0.0707636,-0.0421874,232.481,256.36
2016-08-06 23:00,-0.345382,291.563,290.123,260.553,292.209,289.826,263.905,-0.097478,-0.197082,233.603,257.942
2016-08-07 00:00,-0.157617,291.931,290.123,260.769,292.079,289.826,264.022,-0.0548116,-0.110818,233.677,258.372
2016-08-07 01:00,0.0,291.563,290.123,260.553,291.948,289.689,263.905,0.0,-0.00210452,232.935,258.372
2016-08-07 02:00,-0.00177113,291.44,289.911,260.876,291.948,289.689,263.787,0.0,0.0,232.86,257.855
2016-08-07 03:00,0.0,291.065,289.593,260.011,291.423,288.999,263.318,0.0,0.0,232.633,256.45
2016-08-07 04:00,-0.00167842,273.088,261.822,244.626,260.524,257.301,243.383,0.0,0.0,227.329,240.446
2016-08-07 05:00,-0.00185199,288.568,283.726,256.892,284.921,281.735,257.9,0.0,0.0,230.018,249.198
2016-08-07 06:00,0.0,289.647,286.217,258.58,287.951,284.492,259.856,0.0,0.0,230.755,250.34
2016-08-07 07:00,0.00328755,290.813,287.322,259.464,289.032,285.635,260.942,0.0,0.0,231.552,250.95
2016-08-07 08:00,0.0,288.291,283.032,256.549,284.079,280.406,257.282,0.0,0.0,229.685,249.093
2016-08-07 09:00,0.0750979,290.685,287.869,259.464,289.568,286.343,261.182,0.423902,0.277991,231.552,250.95
2016-08-07 10:00,0.0178334,290.939,287.978,259.683,289.701,286.626,262.017,0.135896,0.0630136,231.315,251.552
2016-08-07 11:00,0.0174924,291.065,287.978,259.793,289.835,286.626,261.779,0.0888648,0.0428877,231.63,251.252
2016-08-07 12:00,0.0539977,291.809,287.432,259.024,288.897,285.777,261.301,0.103631,0.070868,231.865,251.352
2016-08-07 13:00,0.0235323,291.065,287.102,258.691,288.087,284.922,260.098,0.0722272,0.04306,231.709,250.442
2016-08-07 14:00,0.226232,246.775,220.379,224.305,219.847,219.165,218.41,0.538113,0.59145,214.879,216.909
2016-08-07 15:00,0.238763,246.775,220.006,223.489,219.508,218.857,219.927,0.724408,0.800975,216.424,217.669
2016-08-07 16:00,0.225002,249.89,229.072,228.749,229.158,228.856,226.229,0.632192,0.704302,224.258,228.242
2016-08-07 17:00,0.216367,259.505,248.985,237.728,249.368,248.532,239.765,0.460283,0.505131,228.575,239.523
2016-08-07 18:00,0.189131,279.278,266.442,246.667,265.654,262.712,248.499,0.264688,0.268261,230.266,244.175
2016-08-07 19:00,0.212644,294.491,282.566,256.205,283.23,279.661,258.147,0.242304,0.228721,231.315,249.513
2016-08-07 20:00,0.233011,287.871,278.226,253.98,278.278,275.396,253.497,0.262221,0.256083,229.601,246.032
2016-08-07 21:00,0.378533,268.073,247.973,237.258,247.229,245.186,236.153,0.384604,0.452213,225.156,235.146
2016-08-07 22:00,-0.0382958,249.89,245.248,236.146,243.895,243.679,237.373,-0.032425,-0.0386619,226.216,235.887
2016-08-07 23:00,-0.380739,254.966,248.985,237.884,248.307,247.501,238.428,-0.113039,-0.214653,225.931,236.469
2016-08-08 00:00,-0.159229,244.063,233.938,230.207,233.31,231.968,227.94,-0.0544008,-0.118449,222.906,228.06
2016-08-08 01:00,0.0,274.551,266.886,247.2,268.191,264.106,246.732,0.0,-0.00209218,229.093,244.881
2016-08-08 02:00,0.0,266.466,256.469,241.936,254.263,251.552,239.618,0.0,0.0,224.76,237.043
2016-08-08 03:00,-0.00164723,260.827,254.509,240.171,254.066,252.536,241.664,0.0,0.0,226.405,240.446
2016-08-08 04:00,0.0,256.589,255.941,241.646,256.98,256.555,246.044,0.0,0.0,229.935,244.53
2016-08-08 05:00,0.0,267.123,264.329,246.399,265.654,264.451,250.369,0.0,0.0,230.266,247.699
2016-08-08 06:00,0.0,282.923,277.476,253.501,279.466,276.015,257.034,0.0,0.0,230.674,250.646
2016-08-08 07:00,-0.00326578,289.381,285.095,257.572,285.895,282.467,259.735,0.0,0.0,231.394,250.849
2016-08-08 08:00,0.0,289.113,284.982,257.459,286.033,282.321,259.735,0.0,0.0,230.996,250.748
2016-08-08 09:00,0.285125,287.444,283.611,256.892,285.061,281.441,259.856,0.48283,0.366355,231.236,250.544
2016-08-08 10:00,0.349393,291.809,284.185,257.459,286.172,283.917,260.822,0.345136,0.280378,231.865,251.85
2016-08-08 11:00,0.130197,282.923,271.162,248.771,270.169,266.16,247.959,0.226835,0.237606,231.709,248.025
2016-08-08 12:00,0.225218,293.472,284.3,257.12,286.31,283.773,260.942,0.300531,0.28376,233.53,252.342
2016-08-08 13:00,0.135394,291.563,285.433,257.798,286.722,284.061,261.062,0.19314,0.161946,234.113,252.537
2016-08-08 14:00,0.0392496,291.065,285.77,257.91,287.134,284.349,261.182,0.0686806,0.0462289,234.257,252.537
2016-08-08 15:00,0.00995329,291.315,287.322,259.134,288.358,284.779,261.301,0.0389769,0.0200969,233.677,252.537
2016-08-08 16:00,0.0226403,291.44,286.772,258.802,287.951,284.636,260.822,0.0468588,0.0292058,234.041,252.634
2016-08-08 17:00,0.01895,291.563,286.992,259.024,288.087,284.492,261.182,0.0412583,0.0259637,233.53,252.342
2016-08-08 18:00,0.031308,292.534,287.322,258.913,288.493,284.922,260.581,0.0622948,0.0442502,233.53,252.439
2016-08-08 19:00,0.125516,295.796,287.322,259.024,288.763,285.065,261.062,0.143386,0.116659,233.456,252.731
2016-08-08 20:00,0.358574,296.738,286.882,258.802,288.222,284.779,261.182,0.358805,0.317126,233.603,252.342
2016-08-08 21:00,0.766388,296.635,287.322,259.134,288.763,285.35,261.54,0.594825,0.567391,233.159,252.342
2016-08-08 22:00,-0.0352649,288.43,285.658,257.91,287.543,284.205,261.062,-0.0298587,-0.0712041,233.603,252.439
2016-08-08 23:00,-0.336983,290.813,287.651,259.024,289.166,286.06,261.301,-0.107513,-0.212011,233.75,253.117
2016-08-09 00:00,-0.180198,290.813,287.869,259.134,289.701,286.343,262.136,-0.0610295,-0.131543,234.543,253.213
2016-08-09 01:00,-0.00412012,290.813,288.195,259.134,289.968,286.626,262.017,0.0,-0.00207976,234.401,253.595
2016-08-09 02:00,0.0,290.685,287.978,259.134,289.835,286.767,261.54,0.0,0.0,234.401,253.595
2016-08-09 03:00,0.0,289.514,287.432,259.024,289.166,286.202,261.898,0.0,0.0,234.968,253.974
2016-08-09 04:00,-0.0016629,289.247,286.992,258.358,288.897,286.202,261.779,0.0,0.0,234.543,253.69
2016-08-09 05:00,0.0,290.813,288.087,259.354,289.835,286.626,261.66,0.0,0.0,234.041,253.595
2016-08-09 06:00,0.0,290.429,287.978,259.244,290.101,287.188,261.66,0.0,0.0,234.827,253.405
2016-08-09 07:00,0.0,290.685,288.303,259.464,290.367,287.329,262.373,0.0,0.0,235.936,254.162
2016-08-09 08:00,0.00695864,290.301,288.195,259.464,290.234,287.469,262.017,0.0,0.0,236.675,254.068
2016-08-09 09:00,0.0537392,290.558,288.412,259.574,290.5,287.469,262.492,0.47776,0.271265,236.874,253.974
2016-08-09 10:00,0.0180021,0.0,288.195,259.902,290.234,286.907,262.136,0.137181,0.0681531,236.94,254.443
2016-08-09 11:00,0.0100346,290.939,288.195,259.683,290.101,287.188,262.136,0.0807148,0.0379896,237.398,254.443
2016-08-09 12:00,0.00541072,291.19,288.303,259.902,290.367,287.329,262.017,0.0565021,0.0273122,237.137,254.536
2016-08-09 13:00,0.0058904,291.315,288.412,259.902,290.367,287.048,262.017,0.0498739,0.0252735,237.721,254.536
2016-08-09 14:00,0.00523584,291.44,288.628,260.119,290.234,287.329,262.728,0.0398986,0.0198221,238.357,255.091
2016-08-09 15:00,0.0199168,292.053,288.52,260.011,290.101,287.329,262.373,0.0442667,0.0276474,238.733,255.275
2016-08-09 16:00,0.0163623,292.174,288.843,260.011,290.632,287.609,262.728,0.0394305,0.0228721,238.041,254.999
2016-08-09 17:00,0.0352279,292.414,288.303,260.119,290.367,287.469,262.492,0.0573604,0.0437719,237.137,254.814
2016-08-09 18:00,0.0266536,292.771,288.628,260.228,290.5,287.609,262.492,0.0531001,0.0364055,236.004,254.068
2016-08-09 19:00,0.0479412,293.702,289.058,260.445,290.764,287.888,262.728,0.0828748,0.0584827,235.731,254.068
2016-08-09 20:00,0.250151,297.749,289.165,260.445,290.897,287.888,262.255,0.257189,0.222478,235.038,253.117
2016-08-09 21:00,0.821529,297.749,289.058,260.661,291.029,288.167,262.61,0.618908,0.607343,234.401,252.828
2016-08-09 22:00,-0.032613,291.065,288.951,260.228,290.897,287.888,262.61,-0.0276134,-0.0329248,234.968,253.5
2016-08-09 23:00,-0.448543,285.357,283.726,257.12,286.31,284.779,261.66,-0.134761,-0.253196,235.525,253.309
2016-08-10 00:00,-0.176062,290.429,287.212,259.244,288.493,285.35,261.54,-0.0628894,-0.133309,237.333,254.068
2016-08-10 01:00,-0.00204769,290.429,287.432,259.354,288.763,285.635,261.898,0.0,-0.00206727,237.463,253.974
2016-08-10 02:00,0.0,288.568,286.661,258.802,288.358,286.06,262.136,0.0,0.0,237.203,254.068
2016-08-10 03:00,-0.0016315,290.685,288.52,259.793,290.5,287.609,262.728,0.0,0.0,237.006,254.349
2016-08-10 04:00,-0.00165515,290.429,288.087,259.354,290.234,287.748,263.083,0.0,0.0,237.657,254.722
2016-08-10 05:00,-0.00182565,290.685,289.058,260.011,291.423,289.276,263.67,0.0,0.0,238.546,255.457
2016-08-10 06:00,-0.00223461,291.563,290.86,260.984,293.506,291.329,264.953,0.0,0.0,239.41,255.821
2016-08-10 07:00,0.003223,291.44,290.965,260.984,293.764,291.735,265.069,0.0,0.00325382,238.671,255.821
2016-08-10 08:00,0.00687752,291.44,290.44,260.445,293.248,291.464,264.721,0.0,0.0,238.168,255.639
2016-08-10 09:00,0.111545,291.315,290.44,260.661,292.86,290.784,264.605,0.519449,0.337835,238.795,256.716
2016-08-10 10:00,0.0497388,291.809,290.335,260.445,292.86,290.784,264.837,0.168455,0.104993,238.857,257.855
2016-08-10 11:00,0.319216,297.848,283.148,257.12,286.86,285.635,262.847,0.300074,0.289279,238.42,257.07
2016-08-10 12:00,0.196789,298.822,284.755,257.91,287.951,286.485,263.318,0.198722,0.176798,238.857,257.942
2016-08-10 13:00,0.0515737,292.889,289.379,260.119,291.817,289.689,263.905,0.0848395,0.0580173,238.357,258.028
2016-08-10 14:00,0.0222636,292.053,289.593,260.228,291.686,289.964,264.022,0.0598782,0.0383421,238.795,257.421
2016-08-10 15:00,0.0846919,295.368,285.77,258.246,288.763,287.048,263.318,0.0885811,0.080472,239.471,258.2
2016-08-10 16:00,0.035267,292.771,289.593,260.011,291.948,290.101,263.905,0.0597211,0.0432336,240.899,259.387
2016-08-10 17:00,0.0488284,293.702,290.229,259.683,292.209,290.511,264.837,0.0723501,0.057511,241.419,259.804
2016-08-10 18:00,0.0879447,295.368,290.44,260.228,292.73,291.057,264.953,0.106375,0.0919563,242.042,260.135
2016-08-10 19:00,0.220332,299.391,290.44,260.445,292.73,291.329,264.837,0.211994,0.198172,241.93,260.052
2016-08-10 20:00,0.71538,299.013,284.414,257.12,287.134,286.202,263.318,0.636123,0.673869,241.704,259.97
2016-08-10 21:00,0.537563,295.368,289.593,260.011,292.079,290.375,264.953,0.460704,0.476519,241.246,259.471
2016-08-10 22:00,-0.0605522,291.065,290.44,260.011,292.6,290.784,264.605,-0.0256347,-0.0305655,240.665,259.22
2016-08-10 23:00,-0.342896,283.594,284.414,257.006,287.407,286.626,263.318,-0.120971,-0.23559,240.253,258.967
2016-08-11 00:00,-0.226554,285.357,285.882,257.685,288.763,287.469,264.022,-0.0739558,-0.151561,240.371,259.051
2016-08-11 01:00,-0.00203527,290.813,290.123,260.119,292.47,290.921,264.721,0.0,0.0,240.193,259.135
2016-08-11 02:00,-0.00173475,291.315,290.86,260.337,293.506,291.735,265.185,0.0,0.0,240.548,259.387
2016-08-11 03:00,-0.00324723,290.171,289.911,259.683,292.73,291.057,265.416,0.0,0.0,240.665,259.721
2016-08-11 04:00,-0.0016474,290.558,289.699,259.793,292.34,290.511,264.255,0.0,0.0,240.782,259.97
2016-08-11 05:00,0.0,283.428,283.956,257.12,287.27,286.343,263.318,0.0,0.0,240.43,259.554
2016-08-11 06:00,0.0,290.171,289.486,259.793,292.209,290.375,264.605,0.0,0.0,240.371,259.471
2016-08-11 07:00,0.0,285.512,285.658,258.022,289.166,287.609,263.905,0.0,0.0,240.899,259.638
2016-08-11 08:00,0.0,291.315,291.279,260.876,293.635,291.735,265.301,0.0,0.0,241.015,260.299
2016-08-11 09:00,0.115911,291.931,290.965,260.661,293.764,291.871,265.301,0.490707,0.321801,241.93,260.789
2016-08-11 10:00,0.0681445,292.174,290.545,260.337,292.86,291.057,265.069,0.180786,0.11466,241.704,260.299
2016-08-11 12:00,0.0542171,293.124,290.123,260.337,292.73,290.784,264.721,0.102522,0.074805,241.533,260.463
2016-08-11 13:00,0.0855202,295.151,289.272,259.574,292.079,290.101,264.721,0.106118,0.0878263,241.131,260.789
2016-08-11 14:00,0.0524124,293.93,289.165,259.354,291.817,289.826,264.372,0.0765512,0.0634962,240.782,260.217
2016-08-11 15:00,0.179449,299.203,283.611,256.778,287.407,285.919,262.728,0.146664,0.150971,240.548,261.113
2016-08-11 16:00,0.0163863,292.414,291.174,260.661,293.506,291.871,265.301,0.0458917,0.0292683,240.193,260.871
2016-08-11 17:00,0.134427,294.602,287.651,258.913,290.101,288.722,264.488,0.142561,0.141195,239.774,260.381
2016-08-11 18:00,0.121133,298.045,289.593,259.793,292.34,290.511,264.372,0.126538,0.117526,239.349,260.627
2016-08-11 19:00,0.311354,301.826,287.869,259.024,290.632,289.137,264.488,0.284033,0.28594,238.671,260.627
2016-08-11 20:00,0.373133,299.672,290.651,260.011,292.86,290.921,265.069,0.3516,0.334169,238.483,260.627
2016-08-11 21:00,1.19657,297.649,286.772,258.246,289.701,288.306,264.022,0.821762,0.986538,238.795,261.033
2016-08-11 22:00,-0.0564074,290.301,289.699,259.574,292.34,290.511,264.837,-0.02388,0.0,238.041,260.708
2016-08-11 23:00,-0.418484,289.381,288.195,258.913,290.897,288.999,263.905,-0.139343,-0.275327,237.785,260.217
2016-08-12 00:00,-0.265394,283.76,283.38,256.778,286.447,285.35,262.847,-0.084839,-0.161305,237.137,259.304
2016-08-12 01:00,-0.00202281,281.346,282.566,255.858,285.757,284.922,262.965,0.0,0.0,237.006,258.882
2016-08-12 02:00,0.0,290.041,288.843,259.354,291.423,289.689,264.372,0.0,0.0,237.006,258.713
2016-08-12 03:00,-0.00161573,287.3,287.541,258.469,289.835,288.306,263.2,0.0,0.0,236.742,258.543
2016-08-12 04:00,0.0,290.939,290.229,260.228,292.73,290.648,264.953,0.0,0.0,236.94,258.372
2016-08-12 05:00,0.0,286.864,285.994,257.798,289.434,287.188,262.61,0.0,0.0,236.94,258.628
2016-08-12 06:00,-0.00221133,291.44,290.44,260.119,292.6,290.511,264.837,0.0,0.0,236.274,258.457
2016-08-12 07:00,-0.00318132,289.514,288.412,259.683,291.029,288.999,264.022,0.0,0.0,236.542,258.286
2016-08-12 08:00,0.0,287.729,287.212,258.58,289.701,288.027,263.905,0.0,-0.00678563,236.609,258.457
2016-08-12 09:00,0.814097,290.301,289.593,259.574,291.948,290.238,264.372,0.791413,0.82188,236.408,258.713
2016-08-12 10:00,0.0593357,291.931,290.756,260.445,293.248,291.329,264.488,0.181635,0.115198,236.341,258.372
2016-08-12 11:00,0.0277552,291.809,290.965,260.769,293.377,291.6,265.185,0.108956,0.0662303,236.408,258.457
2016-08-12 12:00,0.023518,292.174,290.86,260.984,293.506,291.735,264.488,0.0811823,0.0511384,237.137,258.286
2016-08-12 13:00,0.01623,291.931,290.86,260.553,293.506,291.871,265.416,0.0599646,0.0372389,237.072,258.2
2016-08-12 14:00,0.00917717,291.809,290.651,260.661,293.506,291.464,264.605,0.0466218,0.0277947,237.072,258.028
2016-08-12 15:00,0.0199507,292.534,290.651,260.661,293.119,291.193,264.605,0.0485652,0.0289533,237.203,257.595
2016-08-12 16:00,0.117318,293.587,288.303,259.464,291.292,289.689,264.022,0.130308,0.119713,236.94,257.769
2016-08-12 17:00,0.0326262,293.24,290.756,260.769,293.248,291.193,264.721,0.0575511,0.0398002,237.398,258.372
2016-08-12 18:00,0.0488556,294.156,290.965,260.661,293.635,291.735,264.953,0.0787288,0.058869,236.808,258.543
2016-08-12 19:00,0.181324,298.045,290.651,260.445,293.248,291.464,265.532,0.192761,0.170853,237.333,259.387
2016-08-12 20:00,0.408476,297.649,288.843,259.134,291.423,290.101,265.069,0.386846,0.384889,237.333,259.887
2016-08-12 21:00,1.15337,298.726,289.165,259.464,291.817,290.375,264.372,0.78239,0.932882,237.333,260.052
2016-08-12 22:00,-0.0527109,290.939,290.86,260.228,293.248,291.464,265.301,-0.0223151,-0.0266074,237.333,259.554
2016-08-12 23:00,-0.496691,291.44,290.651,260.119,293.248,291.329,264.837,-0.153284,-0.285867,237.657,259.804
2016-08-13 00:00,-0.193435,287.729,288.303,258.802,290.764,289.826,264.488,-0.0750664,-0.157312,237.592,260.052
2016-08-13 01:00,-0.00201031,290.939,290.545,260.011,293.248,291.329,265.069,0.0,0.0,237.398,260.135
2016-08-13 02:00,0.0017164,281.346,282.566,256.434,286.172,285.635,263.2,0.0,-0.00173281,237.721,260.217
2016-08-13 03:00,0.0,285.665,285.77,257.91,288.222,287.469,264.255,0.0,0.0,237.977,260.217
2016-08-13 04:00,-0.00163195,283.594,283.956,257.346,287.134,286.202,263.2,0.0,0.0,237.785,259.97
2016-08-13 05:00,0.0,286.569,286.328,258.358,289.032,287.609,263.67,0.0,0.0,237.977,260.381
2016-08-13 06:00,0.0,281.526,281.86,256.205,285.201,284.492,262.847,0.0,0.0,238.168,260.135
2016-08-13 07:00,0.0,277.451,279.823,255.16,283.372,283.339,262.492,0.0,0.0,238.608,260.463
2016-08-13 08:00,-0.00664628,280.05,280.789,255.393,283.656,283.484,262.136,0.0,0.0,239.043,260.052
2016-08-13 09:00,0.816869,283.76,283.495,257.12,286.447,286.202,263.553,0.931056,0.919833,238.733,260.627
2016-08-13 10:00,0.114642,292.174,290.335,260.445,292.34,290.648,264.372,0.209665,0.148144,238.919,260.463
2016-08-13 11:00,0.0176962,291.686,290.756,260.984,293.119,291.329,265.185,0.100603,0.0561484,238.42,259.887
2016-08-13 12:00,0.0199201,291.931,290.44,260.769,292.86,291.057,265.069,0.0781985,0.0457058,238.357,259.804
2016-08-13 13:00,0.147644,291.315,287.322,258.802,289.434,287.888,263.553,0.248769,0.24445,238.42,259.471
2016-08-13 14:00,0.0118059,292.414,290.86,260.876,292.989,290.921,264.837,0.0499802,0.0238375,238.483,259.638
2016-08-13 15:00,0.0137247,292.294,291.07,261.305,293.506,291.464,265.185,0.0422571,0.0264522,238.104,259.638
2016-08-13 16:00,0.0126254,292.653,291.174,260.984,293.506,291.464,265.069,0.0395526,0.0242175,238.795,259.638
2016-08-13 17:00,0.0285828,293.24,290.756,260.661,293.119,290.921,264.953,0.0495544,0.0371006,238.733,259.554
2016-08-13 18:00,0.19579,293.702,286.992,259.134,289.568,288.027,264.255,0.201872,0.199256,239.043,259.22
2016-08-13 19:00,0.335475,294.268,285.095,257.685,287.679,286.485,262.965,0.367891,0.369286,238.981,259.051
2016-08-13 20:00,0.989002,301.999,280.669,255.974,284.361,283.484,262.255,0.816773,0.924724,239.41,259.135
2016-08-13 21:00,1.04087,296.738,284.982,257.91,287.679,285.919,263.2,0.753748,0.912556,239.894,259.22
2016-08-13 22:00,-0.0246986,291.809,290.756,261.091,292.86,291.057,264.488,0.0,-0.0249347,239.954,259.887
2016-08-13 23:00,-0.361995,289.647,288.951,260.119,291.16,289.276,264.372,-0.139671,-0.272936,240.548,259.887
2016-08-14 00:00,-0.287828,291.065,289.911,260.445,292.079,290.101,264.372,-0.0925171,-0.174886,240.724,259.804
2016-08-14 01:00,-0.00399559,283.261,282.682,256.778,285.757,284.205,262.61,0.0,-0.00201689,240.607,259.721
2016-08-14 02:00,-0.00341442,290.685,290.123,260.661,292.34,290.375,264.837,0.0,0.0,240.841,259.721
2016-08-14 03:00,0.0,290.301,289.699,260.445,292.079,289.689,264.488,0.0,0.0,241.131,259.554
2016-08-14 04:00,0.0,291.19,290.756,261.305,293.377,291.329,264.837,0.0,0.0,241.476,259.97
2016-08-14 05:00,-0.00179102,290.939,290.545,260.984,292.47,290.375,264.488,0.0,0.0,241.647,260.381
2016-08-14 06:00,0.0,283.594,283.495,257.798,286.447,284.922,262.847,0.0,0.00220936,242.211,260.952
2016-08-14 07:00,0.0,278.684,279.823,255.277,283.088,282.175,261.54,0.0,0.0,242.489,260.789
2016-08-14 08:00,0.0,285.512,285.433,258.358,287.679,286.485,263.67,0.0,0.0,242.042,261.113
2016-08-14 09:00,0.196724,291.19,290.651,260.984,292.989,291.329,265.069,0.610743,0.430311,242.155,261.675
2016-08-14 10:00,0.290248,291.563,285.882,258.134,287.951,286.767,263.318,0.343274,0.330232,242.6,261.834
2016-08-14 11:00,0.0937159,293.472,289.379,260.445,291.423,289.276,264.022,0.156554,0.12274,242.765,262.23
2016-08-14 12:00,0.0253789,292.294,290.965,261.198,293.248,291.329,264.953,0.0828833,0.051243,242.433,262.466
2016-08-14 13:00,0.0162519,292.053,291.279,261.198,293.892,292.006,265.532,0.0612964,0.0387807,242.655,262.779
2016-08-14 14:00,0.017063,292.294,291.487,261.412,294.149,292.276,265.762,0.0511208,0.0331271,242.82,263.476
2016-08-14 15:00,0.00749114,291.931,291.902,261.731,294.277,292.679,265.878,0.0380564,0.0201673,242.984,264.314
2016-08-14 16:00,0.0126365,292.414,291.902,261.625,294.149,292.679,265.762,0.0385174,0.0216873,243.147,264.69
2016-08-14 17:00,0.0490617,293.93,290.86,261.091,293.119,291.6,265.762,0.0680802,0.0550341,243.202,264.914
2016-08-14 18:00,0.23098,292.174,286.105,258.134,288.222,287.469,263.67,0.263886,0.284298,243.256,264.389
2016-08-14 19:00,0.168276,297.749,291.07,261.305,293.377,291.464,265.647,0.175094,0.157604,243.418,264.69
2016-08-14 20:00,0.416317,301.037,291.591,261.519,293.764,292.141,265.762,0.37323,0.361579,243.472,264.238
2016-08-14 21:00,1.07135,299.858,291.279,261.519,293.635,292.006,265.762,0.706843,0.800663,243.364,263.858
2016-08-14 22:00,-0.0232066,290.939,290.44,260.769,292.989,290.784,264.721,-0.019649,-0.0234284,243.147,262.545
2016-08-14 23:00,-0.479425,290.685,290.017,260.769,292.209,290.648,264.721,-0.15701,-0.292231,243.31,262.309
2016-08-15 00:00,-0.261711,290.301,289.699,260.553,291.948,290.375,264.721,-0.094008,-0.18148,243.899,262.623
2016-08-15 01:00,-0.00198526,290.429,289.593,260.337,291.686,289.826,264.372,0.0,-0.00200424,244.322,262.935
2016-08-15 02:00,-0.00169802,289.91,289.379,260.337,291.292,289.276,264.837,0.0,0.0,244.374,263.167
2016-08-15 03:00,0.0,289.91,289.272,260.228,291.292,288.999,264.372,0.0,0.0,244.374,262.388
2016-08-15 04:00,-0.00161659,289.113,288.087,259.902,290.234,288.167,263.67,0.0,0.0,243.953,261.834
2016-08-15 05:00,0.00178249,290.558,288.951,260.553,290.764,288.445,263.67,0.0,0.0,244.322,261.515
2016-08-15 06:00,0.0,277.661,280.429,255.974,283.797,283.484,262.017,0.0,0.00219797,244.322,261.355
2016-08-15 07:00,-0.00312088,278.279,280.549,256.089,283.514,282.904,261.898,0.0,0.0,244.111,260.463
2016-08-15 08:00,-0.00650177,278.279,280.549,255.858,283.372,282.467,262.017,0.0,0.0,244.217,260.299
2016-08-15 09:00,1.06245,279.667,280.549,255.858,283.656,282.904,261.898,1.10271,1.07261,244.269,259.804
2016-08-15 10:00,0.273089,292.534,287.432,259.793,289.434,287.048,262.965,0.313524,0.261681,244.164,259.554
2016-08-15 11:00,0.0735931,291.809,288.52,260.445,290.101,287.609,263.436,0.159001,0.110164,244.322,259.471
2016-08-15 13:00,0.27943,294.933,282.448,257.346,284.781,283.049,260.822,0.302939,0.256727,244.842,259.554
2016-08-15 14:00,0.491188,289.647,279.58,255.858,282.374,281.441,261.062,0.60048,0.607259,244.997,259.304
2016-08-15 15:00,0.333586,285.512,279.58,255.742,282.087,280.85,260.822,0.397753,0.389751,244.426,258.457
2016-08-15 16:00,0.227666,293.587,281.386,256.664,284.22,283.049,261.301,0.215254,0.200474,244.374,258.457
2016-08-15 17:00,0.382102,291.315,280.187,255.974,283.088,282.321,262.255,0.374364,0.385754,244.687,258.967
2016-08-15 18:00,0.233038,295.26,285.095,258.802,287.134,285.065,262.136,0.232212,0.21446,244.79,258.798
2016-08-15 19:00,0.38039,296.114,283.611,258.246,286.033,284.205,262.255,0.378913,0.355276,244.635,258.713
2016-08-15 20:00,0.964037,300.858,280.669,256.32,283.938,283.049,261.66,0.803209,0.851985,244.583,258.713
2016-08-15 21:00,0.777953,293.356,284.982,258.913,287.543,285.065,262.017,0.652704,0.692571,243.953,257.682
2016-08-15 22:00,-0.0218572,290.558,288.412,260.445,289.968,287.048,262.373,0.0,-0.0220662,243.147,257.333
2016-08-15 23:00,-0.379438,289.647,287.322,260.119,289.3,286.485,262.847,-0.143626,-0.292932,242.378,257.333
2016-08-16 00:00,-0.283179,290.558,288.195,260.661,289.835,287.048,262.017,-0.0932429,-0.177355,242.042,256.805
2016-08-16 01:00,-0.00197273,289.247,287.869,260.769,289.835,287.048,262.255,0.0,0.0,241.986,256.45
2016-08-16 02:00,0.0,290.171,288.303,260.876,290.367,287.329,262.61,0.0,0.0,242.322,256.716
2016-08-16 03:00,0.0,289.514,288.087,260.661,289.968,287.188,262.965,0.0,0.0,242.099,256.271
2016-08-16 04:00,-0.00160896,286.717,285.994,259.793,288.358,286.06,262.373,0.0,0.0,242.042,256.628
2016-08-16 05:00,0.0,280.799,282.096,257.12,285.479,283.917,262.017,0.0,0.0,241.874,257.07
2016-08-16 06:00,0.00216598,278.684,280.789,256.778,284.079,283.194,261.421,0.0,0.0,241.986,256.894
2016-08-16 07:00,0.0,278.279,280.669,256.434,283.656,282.758,261.421,0.0,0.0,241.93,256.628
2016-08-16 08:00,0.0,285.97,284.869,259.134,286.997,284.636,261.421,0.0,0.0,241.874,256.181
2016-08-16 09:00,1.39966,283.924,280.308,256.434,281.51,279.81,259.005,1.27625,1.41304,241.986,255.639
2016-08-16 10:00,0.106955,291.686,287.978,260.876,289.568,286.767,262.373,0.224427,0.154923,241.874,255.821
2016-08-16 11:00,0.144924,291.809,284.185,258.358,285.201,282.904,260.219,0.215275,0.177111,241.874,254.722
2016-08-16 12:00,0.328791,280.427,257.683,243.084,259.974,259.321,247.959,0.478332,0.522658,242.322,251.252
2016-08-16 13:00,0.289985,292.174,271.711,251.18,272.104,269.329,253.625,0.303154,0.316656,242.6,252.342
2016-08-16 14:00,0.0394251,292.771,289.272,261.625,291.16,288.584,263.436,0.0723259,0.0490891,243.039,256.628
2016-08-16 15:00,0.0675158,293.007,288.412,260.984,290.5,287.888,262.492,0.0931586,0.0732102,242.6,255.639
2016-08-16 16:00,0.122805,293.356,286.105,259.683,288.358,285.635,261.54,0.153289,0.139317,242.929,255.457
2016-08-16 17:00,0.107958,294.491,286.55,259.902,288.087,285.635,261.54,0.120334,0.103472,242.378,254.907
2016-08-16 18:00,0.14298,296.323,288.951,261.519,291.292,288.861,262.847,0.154689,0.134724,242.378,255.73
2016-08-16 19:00,0.244944,297.649,288.843,260.984,290.764,288.722,263.2,0.248872,0.228739,242.266,255.821
2016-08-16 20:00,0.517634,299.485,288.736,260.876,290.897,288.722,263.436,0.448778,0.434964,241.93,255.457
2016-08-16 21:00,0.546793,292.414,287.322,260.228,289.701,287.469,262.728,0.462968,0.501176,241.533,255.183
2016-08-16 22:00,-0.0206323,290.301,288.412,260.769,290.367,287.748,262.255,0.0,-0.0208295,241.304,254.536
2016-08-16 23:00,-0.405313,291.19,288.52,260.445,290.5,288.027,261.66,-0.149208,-0.297995,241.533,254.999
2016-08-17 00:00,-0.28606,289.381,287.212,259.574,289.166,286.907,261.66,-0.0968827,-0.175902,240.841,254.443
2016-08-17 01:00,-0.00392039,279.278,272.796,251.305,275.396,271.605,254.137,0.0,-0.00197893,240.724,252.439
2016-08-17 02:00,0.0,275.251,268.054,248.512,270.495,266.835,250.501,0.0,0.0,240.548,251.552
2016-08-17 03:00,-0.00157641,269.283,263.401,245.587,264.27,262.008,249.438,0.0,0.0,240.43,250.34
2016-08-17 04:00,0.0,287.444,283.611,257.346,285.201,281.882,259.249,0.0,0.00161667,240.782,253.117
2016-08-17 05:00,0.0,278.684,271.848,250.429,273.843,270.311,252.853,0.0,0.0,241.131,252.439
2016-08-17 06:00,0.00215492,284.888,279.213,254.69,280.201,276.631,255.784,0.0,0.0,240.724,252.731
2016-08-17 07:00,0.00308203,290.171,288.303,259.793,289.968,287.888,262.728,0.0,0.0,240.193,253.88
2016-08-17 08:00,0.00636455,291.065,289.486,260.553,292.079,289.964,262.965,0.0,0.0,239.714,254.068
2016-08-17 09:00,0.188266,290.685,289.379,260.445,291.817,289.689,263.436,0.573856,0.418145,239.834,254.349
2016-08-17 10:00,0.116796,291.809,289.486,260.876,291.948,289.551,263.318,0.225471,0.160361,240.312,254.907
2016-08-17 11:00,0.109536,292.534,289.379,260.769,291.817,289.551,263.318,0.176861,0.144015,240.253,255.366
2016-08-17 12:00,0.0618262,292.889,289.699,260.876,292.079,290.101,263.787,0.113934,0.0789394,240.134,255.457
2016-08-17 13:00,0.0340535,0.0,289.593,260.876,292.079,289.826,263.318,0.0,0.052316,239.41,255.457
2016-08-17 14:00,0.0236707,291.931,289.805,260.984,292.079,289.826,263.083,0.0601257,0.0385006,239.349,255.821
2016-08-17 15:00,0.0237736,292.294,289.699,260.984,292.079,289.826,263.67,0.0550901,0.0378961,239.471,255.911
2016-08-17 16:00,0.0405542,293.124,289.486,260.769,291.948,289.551,263.553,0.0633092,0.0486185,239.653,256.091
2016-08-17 17:00,0.0424251,293.007,289.699,260.876,291.817,289.826,263.2,0.0695251,0.0525022,239.104,255.639
2016-08-17 18:00,0.0843857,294.602,289.486,260.445,291.817,289.551,263.083,0.109196,0.0900146,238.919,255.639
2016-08-17 19:00,0.202801,297.248,289.272,260.661,291.555,289.276,263.436,0.208135,0.190263,238.919,255.911
2016-08-17 20:00,0.521044,300.317,289.058,260.011,291.292,289.137,262.965,0.435884,0.42838,238.795,255.639
2016-08-17 21:00,1.09133,299.108,288.736,259.793,290.897,288.584,263.2,0.682166,0.791196,239.104,255.821
2016-08-17 22:00,-0.0195163,290.685,288.951,259.793,291.029,288.861,263.083,0.0,0.0,238.981,256.539
2016-08-17 23:00,-0.469554,290.813,288.843,259.683,290.764,288.584,263.083,-0.165654,-0.30725,239.166,256.181
2016-08-18 00:00,-0.278544,290.939,288.736,259.464,290.632,288.445,262.965,-0.0960842,-0.177056,239.349,256.45
2016-08-18 01:00,-0.00194768,290.558,288.52,259.134,290.367,288.027,263.2,0.0,-0.0019663,239.288,256.539
2016-08-18 02:00,-0.00167049,290.301,288.303,259.574,290.234,287.609,262.492,0.0,0.0,238.981,256.45
2016-08-18 03:00,0.0,282.923,283.495,257.006,286.447,284.922,261.66,0.0,0.0,239.227,256.628
2016-08-18 04:00,0.0,285.97,285.546,258.022,287.815,286.343,262.61,0.0,0.0,239.471,257.333
2016-08-18 05:00,0.0,279.278,281.029,255.51,284.361,283.917,261.54,0.0,0.0,239.954,258.2
2016-08-18 06:00,0.0,282.408,282.331,256.32,285.201,284.636,262.255,0.0,0.0,239.954,258.543
2016-08-18 07:00,0.0,287.155,285.77,258.246,288.222,286.343,262.61,0.0,0.0,240.489,258.543
2016-08-18 08:00,0.0,285.512,285.208,257.459,287.679,286.343,262.728,0.0,0.0,240.841,258.713
2016-08-18 09:00,1.06886,281.165,282.096,255.974,284.921,284.492,262.373,1.24019,1.23894,241.93,259.387
2016-08-18 10:00,0.497515,285.818,282.682,256.205,285.618,284.922,262.492,0.576232,0.56387,243.147,260.381
2016-08-18 11:00,0.449185,289.514,283.611,256.434,286.31,285.777,262.373,0.501337,0.489552,243.256,260.871
2016-08-18 12:00,0.38773,288.977,283.841,256.778,286.447,286.06,263.2,0.442344,0.442893,243.846,261.834
2016-08-18 13:00,0.162986,290.558,285.321,257.798,287.543,287.048,263.083,0.186927,0.169031,242.6,261.755
2016-08-18 14:00,0.0907997,293.356,288.628,259.464,290.764,289.137,263.436,0.118106,0.102296,242.433,261.595
2016-08-18 15:00,0.00626118,292.414,290.017,260.661,291.555,289.276,264.022,0.0360491,0.0189631,242.155,261.675
2016-08-18 16:00,0.145896,291.065,287.322,258.691,289.434,288.027,263.905,0.175091,0.16266,240.607,261.113
2016-08-18 17:00,0.154882,291.686,285.546,257.572,287.951,286.626,263.2,0.163633,0.157746,240.134,261.113
2016-08-18 18:00,0.247355,296.427,285.433,257.685,287.951,286.626,262.965,0.233757,0.223942,241.59,261.834
2016-08-18 19:00,0.374206,296.635,285.882,258.246,288.087,286.626,263.2,0.367325,0.361178,241.304,260.708
2016-08-18 20:00,0.942382,297.449,282.096,256.549,285.201,284.492,262.373,0.813872,0.872108,240.782,260.463
2016-08-18 21:00,0.917819,294.268,286.439,258.58,288.493,286.907,263.318,0.694982,0.790994,241.361,260.052
2016-08-18 22:00,0.0,282.923,283.148,256.549,285.34,284.922,262.255,0.0,-0.0186731,240.957,260.135
2016-08-18 23:00,-0.514853,288.012,286.105,258.134,287.951,286.626,263.318,-0.181636,-0.320528,241.246,260.135
2016-08-19 00:00,-0.304371,291.44,289.593,260.445,291.292,288.861,263.436,-0.101785,-0.183336,241.189,260.299
2016-08-19 01:00,-0.00387038,290.685,289.486,259.902,291.292,289.137,263.553,0.0,0.0,241.189,260.545
2016-08-19 02:00,-0.00166135,290.558,289.593,260.119,291.686,289.551,263.436,0.0,0.0,240.724,260.463
2016-08-19 03:00,-0.00156083,290.429,289.593,260.011,291.686,289.276,263.787,0.0,0.0,240.548,260.789
2016-08-19 04:00,0.00158628,288.568,287.869,259.244,290.234,288.445,263.67,0.0,0.0,240.841,260.952
2016-08-19 05:00,-0.00174895,291.19,290.229,260.337,292.34,290.238,264.372,0.0,0.0,241.015,261.275
2016-08-19 06:00,0.0,290.939,290.123,260.337,292.209,290.101,263.787,0.0,0.00215354,240.665,260.789
2016-08-19 07:00,0.0,288.012,288.195,259.354,290.632,288.999,263.318,0.0,0.0,240.899,260.789
2016-08-19 08:00,0.0,290.685,289.593,260.119,291.948,289.826,263.905,0.0,0.0,241.015,260.708
2016-08-19 09:00,0.333735,291.065,289.911,260.228,292.079,289.964,264.372,0.741753,0.547503,241.131,260.952
2016-08-19 10:00,0.0282919,291.563,290.335,260.445,292.47,290.511,264.138,0.167683,0.0952078,241.304,260.871
2016-08-19 11:00,0.0178993,291.44,289.911,260.228,292.34,289.964,264.372,0.0974267,0.0542111,241.76,260.545
2016-08-19 12:00,0.0218671,292.053,290.335,260.553,292.209,289.964,263.905,0.0771451,0.0441523,241.93,260.217
2016-08-19 13:00,0.0266907,292.414,289.699,260.337,292.209,289.689,264.255,0.0703079,0.0449097,241.419,259.887
2016-08-19 14:00,0.113251,294.38,288.951,260.011,291.029,289.137,263.67,0.128225,0.105028,241.189,259.721
2016-08-19 15:00,0.0438648,292.771,289.272,260.337,291.16,289.137,263.553,0.0700358,0.0531409,241.131,259.387
2016-08-19 16:00,0.0977954,291.686,287.869,259.683,290.101,288.306,263.553,0.122592,0.112835,241.476,259.554
2016-08-19 17:00,0.021965,292.653,289.805,260.661,292.079,289.689,263.787,0.0488189,0.0318765,241.817,259.97
2016-08-19 18:00,0.0415907,293.472,290.123,260.769,292.47,290.101,264.255,0.0690751,0.0516779,241.647,260.135
2016-08-19 19:00,0.107325,295.902,290.229,260.661,292.209,290.238,264.138,0.139803,0.112519,242.211,260.299
2016-08-19 20:00,0.199292,295.042,290.44,261.091,292.73,290.648,264.372,0.238379,0.201197,242.875,260.463
2016-08-19 21:00,0.57821,294.713,290.651,261.091,292.86,290.648,263.905,0.496011,0.491568,242.71,260.627
2016-08-19 22:00,-0.0175613,290.939,290.229,260.769,292.34,290.375,264.138,0.0,-0.0177292,242.929,260.871
2016-08-19 23:00,-0.40221,290.813,289.379,260.011,291.817,289.551,264.138,-0.164898,-0.316295,243.953,260.952
2016-08-20 00:00,-0.273937,290.939,289.593,260.228,291.817,289.689,264.022,-0.0966424,-0.174128,244.058,260.871
2016-08-20 01:00,-0.00192273,288.841,288.303,259.464,290.632,288.999,263.787,-0.00162797,-0.00194111,244.006,261.033
2016-08-20 02:00,0.0,289.779,288.736,259.683,290.897,288.861,263.67,0.0,0.0,243.899,261.194
2016-08-20 03:00,-0.00155308,289.779,289.165,259.683,291.555,289.689,264.372,0.0,0.0,244.164,261.355
2016-08-20 04:00,0.0,291.315,290.86,260.769,293.119,291.193,265.185,0.0,0.0,244.058,261.834
2016-08-20 05:00,-0.00174073,291.19,290.651,260.769,292.989,291.057,264.605,0.0,0.0,243.793,261.675
2016-08-20 06:00,0.0,291.065,290.756,260.445,293.119,291.329,265.185,0.0,0.0,242.433,261.435
2016-08-20 07:00,0.0,290.685,290.123,260.769,292.47,290.648,264.605,0.0,0.0,240.312,260.299
2016-08-20 08:00,0.0,290.813,290.229,260.769,292.6,290.648,264.255,0.0,0.0,239.104,259.304
2016-08-20 09:00,0.176289,291.44,290.44,260.984,292.86,290.511,264.255,0.671685,0.444935,239.043,259.387
2016-08-20 10:00,0.194224,292.053,284.755,258.134,286.86,284.922,262.136,0.25269,0.210428,238.357,258.713
2016-08-20 11:00,0.115285,293.702,286.661,259.683,288.897,286.626,262.847,0.15401,0.126733,238.357,258.713
2016-08-20 12:00,0.116749,294.933,285.77,258.691,288.087,285.777,262.136,0.137465,0.12339,238.231,258.882
2016-08-20 13:00,0.222596,293.007,273.997,251.552,276.01,274.929,256.909,0.206062,0.215735,239.41,258.114
2016-08-20 14:00,0.293881,286.121,271.848,250.806,274.623,273.832,257.406,0.287882,0.308664,238.546,257.855
2016-08-20 15:00,0.150524,284.087,273.065,251.429,275.087,274.147,256.535,0.154,0.165893,238.733,257.333
2016-08-20 16:00,0.119525,291.931,281.624,256.205,283.797,281.146,259.735,0.128117,0.119384,238.42,256.716
2016-08-20 17:00,0.0618783,293.124,285.994,258.913,287.679,284.922,261.421,0.0791705,0.0610816,238.294,257.158
2016-08-20 18:00,0.449006,279.859,267.764,248.382,269.679,269.494,254.264,0.635431,0.697755,238.546,255.275
2016-08-20 19:00,0.460007,294.38,276.591,253.501,278.725,277.243,258.023,0.436857,0.456037,238.231,255.911
2016-08-20 20:00,0.997325,297.146,271.984,251.18,274.156,273.359,256.535,0.852527,0.968257,237.721,255.366
2016-08-20 21:00,1.66133,285.97,266.886,248.121,269.35,269.0,254.9,1.23575,1.64586,236.742,254.162
2016-08-20 22:00,-0.0334036,265.791,266.886,247.728,268.855,268.505,253.881,0.0,0.0,236.94,253.405
2016-08-20 23:00,-0.409423,266.131,265.995,247.332,268.191,267.506,253.497,-0.169792,-0.324765,237.463,253.595
2016-08-21 00:00,-0.221342,279.473,273.466,251.676,275.857,273.517,255.909,-0.0873161,-0.170133,237.203,253.785
2016-08-21 01:00,-0.0019103,276.811,271.299,250.555,273.215,270.96,254.773,0.0,0.0,237.785,253.785
2016-08-21 02:00,0.0,278.279,271.984,251.056,274.0,270.96,254.646,0.0,0.0,237.528,253.5
2016-08-21 03:00,0.0,288.291,285.546,258.358,287.815,284.636,260.461,0.0,0.0,238.041,254.722
2016-08-21 04:00,-0.00157139,290.171,288.412,260.119,290.5,287.888,262.728,0.0,0.0,237.528,254.536
2016-08-21 05:00,0.0,290.429,287.76,260.011,289.568,286.626,261.779,0.0,-0.00174915,237.137,254.443
2016-08-21 06:00,-0.00211187,279.667,275.176,253.501,276.62,274.304,255.909,0.0,0.0,237.333,253.117
2016-08-21 07:00,0.00300781,276.155,269.626,249.669,270.981,268.835,253.881,0.0,0.0,237.528,253.021
2016-08-21 08:00,0.0,280.982,274.655,252.899,277.075,274.304,255.909,0.0,0.0,237.592,253.405
2016-08-21 09:00,1.0739,281.346,272.662,251.552,274.156,271.444,254.137,1.10694,1.22558,238.104,253.309
2016-08-21 10:00,0.166568,291.563,287.541,260.011,289.434,286.767,261.54,0.24983,0.182575,237.977,254.907
2016-08-21 11:00,0.308012,295.69,282.916,257.572,284.641,281.588,259.856,0.334685,0.313548,238.483,254.907
2016-08-21 12:00,0.171661,297.045,282.214,256.778,282.946,279.959,259.37,0.184001,0.160397,238.733,254.536
2016-08-21 13:00,0.313369,298.918,267.618,248.771,269.35,267.171,252.982,0.299281,0.301371,238.671,253.69
2016-08-21 14:00,0.110785,293.816,286.217,259.244,287.815,285.208,261.301,0.130652,0.106518,238.483,255.366
2016-08-21 15:00,0.362842,280.799,260.201,245.177,262.685,262.185,250.633,0.349739,0.375183,238.294,252.439
2016-08-21 16:00,0.2317,290.171,264.482,247.2,266.167,264.106,250.633,0.210193,0.218492,237.785,251.949
2016-08-21 17:00,0.146008,296.635,281.267,255.974,282.231,278.911,257.777,0.14695,0.134888,237.657,253.405
2016-08-21 18:00,0.234723,298.045,278.598,254.336,279.318,275.706,256.16,0.22188,0.215867,237.398,252.634
2016-08-21 19:00,0.509737,303.998,271.848,250.806,273.057,268.505,252.335,0.440402,0.470501,237.592,251.85
2016-08-21 20:00,0.975905,306.623,269.908,250.051,270.495,266.667,251.683,0.815425,0.93338,237.785,251.751
2016-08-21 21:00,1.5698,291.686,262.3,246.265,263.569,261.121,249.037,1.12105,1.47275,237.721,250.442
2016-08-21 22:00,0.0,268.686,260.854,245.177,262.329,259.684,248.634,0.0,-0.0160617,236.94,250.032
2016-08-21 23:00,-0.457595,268.382,260.854,245.177,261.971,259.684,247.959,-0.188487,-0.35376,237.268,249.617
2016-08-22 00:00,-0.251911,285.97,280.789,255.393,282.66,278.911,257.53,-0.0992549,-0.183815,236.808,253.213
2016-08-22 01:00,-0.00379585,286.271,283.032,256.664,284.361,281.441,259.249,0.0,-0.00191607,236.742,253.021
2016-08-22 02:00,-0.00163412,288.705,285.77,258.469,287.679,284.779,260.822,0.0,0.0,236.341,253.309
2016-08-22 03:00,0.0,289.647,287.102,258.691,288.763,286.907,262.373,0.0,0.0,236.274,253.69
2016-08-22 04:00,0.0,288.841,286.772,258.469,288.493,286.626,262.373,0.0,0.0,236.071,253.69
2016-08-22 05:00,-0.00172451,289.647,287.322,258.691,289.032,286.907,262.136,0.0,0.0,236.004,253.309
2016-08-22 06:00,-0.00210142,290.041,287.651,259.024,289.166,287.188,262.017,0.0,0.0,235.593,253.213
2016-08-22 07:00,0.0,289.779,287.541,258.469,289.166,286.767,261.421,0.0,0.0,235.108,252.828
2016-08-22 08:00,-0.00605091,289.113,286.882,258.134,288.628,286.767,262.017,0.0,0.0,234.897,252.731
2016-08-22 09:00,0.496209,290.171,287.432,258.58,289.166,287.188,261.779,0.924307,0.751429,235.178,252.731
2016-08-22 10:00,0.157777,291.931,287.432,258.691,289.166,287.048,261.54,0.275275,0.21238,235.386,252.828
2016-08-22 11:00,0.100295,292.414,287.541,258.802,289.3,287.329,262.373,0.185081,0.140197,235.317,253.213
2016-08-22 12:00,0.177334,294.043,286.439,258.022,0.0,286.626,261.898,0.212066,0.186412,235.247,253.213
2016-08-22 13:00,0.0609418,292.174,287.541,258.913,289.434,287.329,261.898,0.109491,0.0825328,235.178,253.309
2016-08-22 14:00,0.118793,292.414,286.661,258.246,288.628,286.767,261.66,0.154226,0.137252,234.686,253.117
2016-08-22 15:00,0.0929958,293.24,286.661,258.358,288.493,286.907,261.182,0.113853,0.0964222,234.329,253.117
2016-08-22 16:00,0.0739315,293.124,287.102,258.134,288.897,287.048,261.779,0.104689,0.0849332,234.113,252.828
2016-08-22 17:00,0.0841728,294.043,287.76,258.469,289.434,287.469,261.898,0.109824,0.0919428,233.456,252.537
2016-08-22 18:00,0.140239,296.008,287.76,258.358,289.701,287.748,262.017,0.15559,0.141579,233.159,252.342
2016-08-22 19:00,0.284147,298.822,287.978,258.691,289.968,288.027,262.017,0.260046,0.251005,233.159,252.342
2016-08-22 20:00,0.617887,301.74,287.978,258.358,290.101,288.027,262.136,0.4766,0.496423,233.159,252.342
2016-08-22 21:00,1.11835,298.822,288.087,258.58,290.101,288.027,261.66,0.665579,0.809965,233.159,252.146
2016-08-22 22:00,0.0,289.779,287.869,258.469,289.835,287.888,262.373,0.0,0.0,233.603,252.439
2016-08-22 23:00,-0.431195,290.301,287.978,258.58,290.101,288.027,262.136,-0.175658,-0.332648,233.75,252.342
2016-08-23 00:00,-0.220115,290.041,287.76,258.358,289.835,288.167,262.373,-0.0900443,-0.174779,233.75,252.244
2016-08-23 01:00,-0.0018856,289.779,287.432,258.246,289.568,287.188,261.421,0.0,0.0,233.234,251.949
2016-08-23 02:00,-0.00162512,287.3,285.882,257.459,288.087,286.06,261.301,0.0,-0.00164066,234.472,251.949
2016-08-23 03:00,0.00153009,289.113,287.322,258.358,289.166,287.188,261.779,0.0,0.0,234.968,252.047
2016-08-23 04:00,0.0,289.247,287.102,258.358,289.032,286.767,261.66,0.0,0.0,234.968,252.342
2016-08-23 05:00,0.0,289.91,287.541,258.691,289.3,287.329,261.779,0.0,0.0,234.827,252.439
2016-08-23 06:00,0.0,289.779,287.322,258.469,289.3,286.767,261.898,0.0,0.0,235.038,252.925
2016-08-23 07:00,0.0,287.444,285.994,258.246,288.087,286.202,261.779,0.0,0.0,235.108,253.309
2016-08-23 08:00,0.0,289.514,287.76,259.134,289.968,287.748,262.373,0.0,0.0,234.897,253.5
2016-08-23 09:00,0.31752,290.939,288.52,259.793,290.632,288.445,262.255,0.851337,0.64111,234.756,253.595
2016-08-23 10:00,0.0960648,291.563,288.412,259.464,290.234,288.027,262.728,0.215545,0.140626,234.897,253.595
2016-08-23 11:00,0.363297,292.174,284.869,257.91,287.407,285.635,261.66,0.416682,0.395383,235.317,253.69
2016-08-23 12:00,0.0311138,291.809,289.165,260.337,291.292,288.722,262.847,0.0914291,0.0554315,234.897,254.256
2016-08-23 13:00,0.0580182,292.653,288.736,260.011,291.16,288.722,262.847,0.0957286,0.0720896,234.041,254.256
2016-08-23 14:00,0.056804,292.534,287.432,258.913,289.568,287.048,262.017,0.0850067,0.0666826,234.401,254.722
2016-08-23 15:00,0.044028,291.065,288.195,259.354,290.5,288.306,262.965,0.0766871,0.0634984,234.615,254.999
2016-08-23 16:00,0.0191453,292.174,289.699,260.011,291.948,289.689,262.847,0.0475501,0.0296367,233.896,255.091
2016-08-23 17:00,0.0152067,292.174,289.379,260.228,291.686,289.413,263.553,0.0409675,0.0223303,234.543,254.907
2016-08-23 18:00,0.179414,289.113,284.755,257.006,287.27,285.493,261.898,0.257288,0.261087,235.525,254.907
2016-08-23 19:00,0.0797385,293.93,289.272,259.574,291.555,288.861,262.492,0.113709,0.0910929,235.799,254.722
2016-08-23 20:00,0.29999,296.008,288.736,259.244,290.5,288.027,262.255,0.31198,0.276523,236.609,254.536
2016-08-23 21:00,0.182407,289.647,287.102,258.469,289.3,286.767,261.898,0.301867,0.251114,237.203,254.722
2016-08-23 22:00,-0.0290005,290.939,289.165,259.902,291.292,288.306,262.255,-0.0122773,-0.0146389,236.408,254.162
2016-08-23 23:00,-0.405416,291.44,289.699,260.119,292.47,289.689,262.61,-0.180129,-0.344453,236.341,254.162
2016-08-24 00:00,-0.223165,291.315,289.165,260.119,291.686,288.861,262.492,-0.0934387,-0.178258,236.874,254.629
2016-08-24 01:00,-0.00187334,289.113,287.651,259.024,289.835,287.048,261.779,0.0,0.0,236.475,254.443
2016-08-24 02:00,0.0,285.97,284.185,256.892,286.585,284.205,260.942,0.0,0.0,237.333,254.256
2016-08-24 03:00,0.0,276.376,269.343,248.9,269.515,267.339,250.765,0.0,0.0,232.328,245.804
2016-08-24 04:00,0.0,285.045,280.789,254.69,281.799,279.061,256.535,0.0,0.0,234.113,251.051
2016-08-24 05:00,0.0,289.247,285.994,257.91,287.407,284.492,259.492,0.0,0.0,233.75,252.342
2016-08-24 06:00,0.0,290.558,287.541,259.024,289.032,285.635,260.701,0.0,0.0,234.615,253.213
2016-08-24 07:00,0.0,290.558,287.978,259.024,289.434,286.202,261.062,0.0,0.0,234.185,253.309
2016-08-24 08:00,-0.00593624,290.301,287.651,258.913,289.3,286.202,261.66,0.0,0.0,233.896,253.5
2016-08-24 09:00,1.30325,288.152,286.217,258.022,288.222,285.493,261.301,1.6312,1.83055,234.472,253.785
2016-08-24 10:00,0.352259,291.931,287.322,258.469,289.166,286.767,261.54,0.420828,0.365369,237.137,0.0
2016-08-24 11:00,0.0206521,291.065,289.058,259.574,291.029,288.584,262.61,0.0983594,0.0495177,237.333,255.457
2016-08-24 12:00,0.00732914,290.939,289.486,259.574,291.686,288.999,262.728,0.0636071,0.0314466,237.913,256.271
2016-08-24 13:00,0.0193563,291.809,289.379,259.683,291.817,289.276,263.2,0.0605129,0.0345731,237.657,256.628
2016-08-24 14:00,0.0766857,290.939,285.994,257.798,288.087,285.919,262.373,0.098514,0.0854276,236.542,255.821
2016-08-24 15:00,0.0289625,291.931,288.52,259.464,290.632,287.888,262.492,0.0479789,0.0305107,236.609,255.548
2016-08-24 16:00,0.042177,291.931,287.102,258.58,289.166,286.343,261.898,0.0584365,0.0425802,236.94,255.639
2016-08-24 17:00,0.0554029,292.174,287.541,259.024,289.434,286.767,261.898,0.0703643,0.0559325,237.072,255.548
2016-08-24 18:00,0.016209,292.294,289.699,260.011,291.817,289.137,263.2,0.0466621,0.0261823,236.207,255.366
2016-08-24 19:00,0.0653404,293.124,289.486,259.464,291.555,288.999,262.728,0.0999395,0.0744767,236.207,255.911
2016-08-24 20:00,0.1841,294.38,289.272,259.464,291.555,288.999,262.61,0.222682,0.18586,236.274,255.821
2016-08-24 21:00,0.840604,293.472,288.736,258.691,291.16,288.584,262.728,0.618277,0.642909,236.675,255.911
2016-08-24 22:00,-0.0138716,290.939,289.165,259.464,291.555,288.999,263.2,0.0,-0.0140042,236.808,256.001
2016-08-24 23:00,-0.463428,290.813,289.272,259.134,291.555,0.0,263.083,-0.197869,-0.36389,236.004,256.181
2016-08-25 00:00,-0.279643,289.381,286.328,257.346,288.087,285.493,260.219,-0.107063,-0.189029,234.113,254.999
2016-08-25 01:00,-0.00186115,290.685,289.379,258.913,291.423,288.999,263.553,0.0,0.0,234.827,256.805
2016-08-25 02:00,-0.00160727,289.647,287.432,257.459,289.166,286.626,261.898,0.0,0.0,233.75,255.911
2016-08-25 03:00,-0.001515,290.041,287.978,258.134,289.968,287.609,261.779,0.0,0.00152949,234.041,256.001
2016-08-25 04:00,0.0,290.041,288.087,258.58,290.234,288.167,262.255,0.0,0.0,232.481,255.183
2016-08-25 05:00,0.0,287.729,284.3,256.32,285.061,282.467,258.515,0.0,0.0,230.101,252.342
2016-08-25 06:00,0.00207085,281.883,273.466,250.177,273.057,269.657,249.037,0.0,0.0,227.691,246.145
2016-08-25 07:00,0.0,280.982,274.785,250.806,275.087,272.405,252.853,0.0,0.0,230.018,247.699
2016-08-25 08:00,0.0,290.171,287.978,258.358,290.367,287.748,262.017,0.0,0.0,232.633,253.69
2016-08-25 09:00,0.121893,288.152,285.658,257.91,287.815,284.779,260.34,0.464429,0.307645,231.473,252.439
2016-08-25 10:00,0.35389,242.013,226.261,226.287,225.31,224.474,222.692,0.591066,0.670498,220.454,223.999
2016-08-25 11:00,0.302619,244.063,218.862,222.659,218.13,217.607,218.025,0.799341,0.906092,216.15,217.164
2016-08-25 12:00,0.25498,246.775,229.673,227.817,229.444,228.59,226.402,0.594865,0.659284,222.692,226.76
2016-08-25 13:00,0.292095,253.206,223.252,225.306,222.806,221.875,220.675,0.529963,0.594288,219.503,221.878
2016-08-25 14:00,0.247468,251.944,229.673,228.192,229.729,228.856,227.089,0.619628,0.68938,223.952,227.694
2016-08-25 15:00,0.228167,250.598,237.086,231.274,236.948,236.396,232.066,0.581702,0.641413,227.147,232.347
2016-08-25 16:00,0.323815,266.131,228.769,228.004,228.293,226.701,224.126,0.526674,0.573709,221.596,225.994
2016-08-25 17:00,0.303931,253.81,222.552,225.107,222.485,221.579,220.302,0.623957,0.697738,218.517,221.213
2016-08-25 18:00,0.399902,258.096,219.247,223.899,219.167,218.235,218.025,0.721238,0.814014,216.963,218.165
2016-08-25 19:00,0.518775,259.505,220.006,224.305,219.847,219.165,218.982,0.792436,0.908519,216.963,219.608
2016-08-25 21:00,0.800796,263.636,234.477,230.743,234.371,233.969,229.946,0.714882,0.922689,224.86,230.863
2016-08-25 22:00,0.0132871,255.521,254.328,241.5,254.657,253.896,243.667,0.0,0.0,228.048,242.848
2016-08-25 23:00,-0.42213,267.761,264.021,246.934,265.31,263.759,249.705,-0.182018,-0.355138,230.266,246.818
2016-08-26 00:00,-0.289338,261.251,255.587,242.369,255.827,253.896,243.099,-0.110242,-0.189868,226.871,241.348
2016-08-26 01:00,-0.00184903,264.377,255.409,242.799,254.657,252.341,241.808,0.0,0.0,229.517,242.105
2016-08-26 02:00,0.0,251.282,247.357,237.884,248.307,246.457,237.827,0.0,0.0,228.575,239.922
2016-08-26 03:00,0.00150754,251.944,245.032,236.306,244.575,242.364,234.291,0.0,0.0,225.352,236.614
2016-08-26 04:00,0.00153514,250.598,239.559,232.663,238.446,235.193,228.278,0.0012998,0.0,221.93,232.347
2016-08-26 05:00,-0.00169303,243.066,230.85,228.564,229.444,226.151,221.965,0.0,0.0,217.881,225.408
2016-08-26 06:00,0.0,245.01,240.039,233.175,238.693,236.872,231.094,0.0,0.0,223.952,233.304
2016-08-26 07:00,0.0,213.142,211.654,219.855,211.028,210.931,211.358,0.0,0.0,209.926,210.67
2016-08-26 08:00,0.0,222.276,216.471,222.868,215.26,214.364,215.074,0.0,0.0,213.388,214.787
2016-08-26 09:00,1.71332,240.898,225.611,225.897,224.384,223.043,221.598,2.34339,3.12677,218.642,221.658
2016-08-26 10:00,0.550341,267.444,254.871,241.646,254.263,252.144,242.097,1.01029,1.0817,227.238,240.053
2016-08-26 11:00,0.347261,245.913,203.838,217.342,203.652,203.757,206.286,0.765782,0.868603,204.349,203.929
2016-08-26 12:00,0.323228,249.89,207.178,218.272,205.946,205.74,208.318,0.789931,0.878834,206.498,207.326
2016-08-26 13:00,0.326673,255.521,198.787,215.909,198.14,197.752,202.5,0.762843,0.841808,201.72,200.041
2016-08-26 14:00,0.295385,253.206,200.774,216.392,200.227,199.981,202.5,0.791802,0.861194,202.469,201.84
2016-08-26 15:00,0.296571,256.062,202.034,216.869,201.728,201.271,204.422,0.761866,0.83961,202.713,203.113
2016-08-26 16:00,0.296092,256.589,204.988,217.809,203.652,203.351,203.947,0.517681,0.560318,204.122,204.328
2016-08-26 17:00,0.324023,262.869,223.252,226.481,218.824,216.008,213.241,0.470987,0.495595,213.078,216.909
2016-08-26 18:00,0.401102,270.713,239.317,233.849,235.414,232.474,225.185,0.501135,0.526746,220.454,230.524
2016-08-26 19:00,0.465915,282.408,256.118,243.084,254.657,251.552,239.618,0.493562,0.521916,232.557,245.804
2016-08-26 20:00,0.621991,285.97,266.738,249.158,265.997,262.712,246.182,0.605918,0.654945,233.234,248.775
2016-08-26 21:00,0.535951,279.667,269.485,250.303,269.679,267.171,250.236,0.491605,0.595182,236.274,252.731
2016-08-26 22:00,-0.0127428,281.705,276.463,254.099,276.62,274.147,254.009,0.0,0.0,235.455,253.405
2016-08-26 23:00,-0.509136,288.012,283.495,258.246,283.514,280.554,257.9,-0.205745,-0.373821,236.808,255.548
2016-08-27 00:00,-0.306022,288.291,286.439,260.011,287.951,285.635,262.017,-0.111335,-0.188265,237.463,257.07
2016-08-27 01:00,-0.00183699,288.43,287.978,261.091,290.234,288.445,263.787,0.0,0.0,238.608,258.543
2016-08-27 02:00,-0.00158965,291.065,289.805,262.049,291.686,289.276,264.022,0.0,0.0,238.546,257.942
2016-08-27 03:00,-0.00150014,288.43,287.978,261.198,290.5,288.584,263.905,0.0,0.0,237.913,257.158
2016-08-27 04:00,0.0,289.514,288.52,261.305,291.029,288.861,263.67,0.0,0.0,238.231,257.158
2016-08-27 05:00,0.0,289.247,289.165,262.049,291.686,289.551,264.605,0.0,0.0,237.849,256.982
2016-08-27 06:00,0.0,288.43,288.412,261.625,290.897,289.276,264.255,0.0,0.0,237.463,256.271
2016-08-27 07:00,-0.00290511,290.685,289.911,262.576,292.6,290.375,264.488,0.0,0.0,238.168,256.45
2016-08-27 08:00,0.00577465,290.429,289.699,262.366,292.34,290.101,264.605,0.0,0.0,238.608,256.805
2016-08-27 09:00,0.573478,290.685,289.911,262.366,292.6,290.238,264.255,1.21391,1.01318,239.41,256.716
2016-08-27 10:00,0.0636074,291.686,290.335,262.786,292.6,290.511,264.372,0.190569,0.118552,239.288,256.539
2016-08-27 11:00,0.023369,291.563,290.545,262.89,293.119,290.921,264.837,0.105528,0.0576702,239.104,256.539
2016-08-27 12:00,0.0128709,291.809,290.756,262.995,293.506,291.329,265.185,0.0731708,0.0371256,239.104,256.894
2016-08-27 13:00,0.0104516,291.44,290.545,263.099,293.248,290.784,264.255,0.0543602,0.0286397,239.043,256.539
2016-08-27 14:00,0.00795529,291.563,290.335,263.307,292.989,290.648,264.488,0.0449049,0.0227555,238.857,256.805
2016-08-27 15:00,0.021479,292.174,290.229,262.89,292.86,290.375,264.372,0.0470702,0.0293376,239.043,256.271
2016-08-27 16:00,0.0552008,292.534,289.486,262.576,291.948,289.689,264.022,0.0739119,0.0622085,238.671,256.36
2016-08-27 17:00,0.110094,292.771,288.843,262.155,291.292,288.999,263.67,0.140415,0.10974,238.857,256.45
2016-08-27 18:00,0.145562,294.043,288.951,262.366,291.292,288.999,264.255,0.162022,0.133745,238.981,256.716
2016-08-27 19:00,0.207367,296.531,289.165,262.261,291.16,288.861,263.67,0.206349,0.179134,238.357,256.36
2016-08-27 20:00,0.219304,294.823,289.165,262.366,291.029,288.445,263.436,0.239961,0.200963,238.168,256.001
2016-08-27 21:00,0.669922,287.871,285.882,260.553,288.358,286.626,262.847,0.590532,0.639267,238.041,255.821
2016-08-27 22:00,0.0,276.594,276.208,254.69,278.128,276.938,257.53,0.0,0.0,236.207,252.925
2016-08-27 23:00,-0.536702,277.451,273.732,253.02,275.242,273.359,253.753,-0.212709,-0.368907,234.897,250.849
2016-08-28 00:00,-0.301068,279.667,273.997,253.741,274.778,271.444,251.553,-0.112403,-0.186675,233.53,248.882
2016-08-28 01:00,-0.00182504,278.279,274.392,253.741,275.396,273.359,254.137,0.0,0.0,236.139,251.452
2016-08-28 02:00,0.00158093,284.41,281.742,258.022,283.088,280.702,257.9,0.0,0.0,236.742,253.021
2016-08-28 03:00,-0.00149279,288.568,285.433,260.228,286.585,283.773,260.581,0.0,-0.00150706,236.675,253.69
2016-08-28 04:00,0.0,285.357,283.38,259.244,285.201,282.904,260.461,0.0,0.0,236.94,253.974
2016-08-28 05:00,0.0,283.594,283.148,258.802,285.757,283.917,261.301,0.0,0.0,237.268,254.349
2016-08-28 06:00,0.00204147,289.247,286.55,260.769,288.358,285.208,261.301,0.0,0.0,237.398,254.536
2016-08-28 07:00,0.0,290.558,288.736,262.155,290.764,287.888,263.083,0.0,0.0,239.104,256.181
2016-08-28 08:00,0.0,290.558,288.843,261.944,290.632,288.167,262.492,0.0,0.0,239.349,256.271
2016-08-28 09:00,0.785431,289.381,285.658,259.902,286.722,283.629,259.005,1.26354,1.11011,237.333,253.69
2016-08-28 10:00,0.083566,289.113,283.841,258.802,284.921,281.441,257.53,0.195617,0.148879,236.675,253.117
2016-08-28 11:00,0.0312198,290.813,287.432,261.091,289.166,286.06,261.66,0.110141,0.0656631,237.657,255.911
2016-08-28 12:00,0.0423413,291.44,286.992,261.091,288.763,285.919,261.062,0.0904051,0.0650483,237.785,255.639
2016-08-28 13:00,0.0313856,290.813,286.105,260.445,287.407,284.492,259.977,0.0695989,0.0482828,237.528,255.548
2016-08-28 14:00,0.0703426,291.44,285.658,260.228,287.134,284.349,260.098,0.103385,0.0803944,237.463,255.457
2016-08-28 15:00,0.0430099,291.44,286.217,260.228,287.815,284.636,261.301,0.0653353,0.0498065,235.731,254.629
2016-08-28 16:00,0.03343,289.514,283.38,259.024,284.361,280.85,256.66,0.0598762,0.0467302,234.257,251.949
2016-08-28 17:00,0.0488826,290.171,283.38,258.58,284.22,280.702,256.785,0.0721349,0.0592199,233.968,251.949
2016-08-28 18:00,0.0853182,293.007,285.882,260.011,287.543,284.061,259.492,0.10558,0.0877902,235.593,254.536
2016-08-28 19:00,0.189067,294.38,286.328,260.445,288.087,284.922,259.977,0.201922,0.184367,236.675,254.814
2016-08-28 20:00,0.469873,292.414,277.977,255.277,278.873,274.46,253.24,0.44685,0.46749,232.405,249.928
2016-08-28 21:00,0.651315,291.809,284.071,258.691,285.201,281.588,257.653,0.495522,0.571775,231.865,251.652
2016-08-28 22:00,0.0,282.234,275.951,253.86,274.623,272.565,253.24,-0.00995743,0.0,229.769,246.929
2016-08-28 23:00,-0.495861,289.514,286.882,260.876,288.763,285.635,261.182,-0.1972,-0.341319,231.156,253.117
2016-08-29 00:00,-0.230361,288.152,283.841,258.802,284.501,280.85,256.909,-0.0955328,-0.182728,229.517,250.748
2016-08-29 01:00,-0.00181318,285.665,279.58,256.434,280.201,276.784,254.773,0.0,0.0,228.312,248.987
2016-08-29 02:00,0.0,284.888,278.598,255.626,279.318,276.015,254.392,0.0,0.0,228.312,248.455
2016-08-29 03:00,0.0,289.113,287.102,261.091,289.032,286.202,261.301,0.0,0.0,229.517,252.047
2016-08-29 04:00,0.0,290.429,288.951,261.944,291.16,288.722,262.728,0.0,0.00152863,230.755,252.828
2016-08-29 05:00,0.0,290.171,289.058,262.155,291.686,288.861,263.787,0.0,0.0,230.511,252.146
2016-08-29 06:00,-0.00203195,290.429,289.379,262.471,292.079,288.999,263.318,0.0,0.0,230.916,251.949
2016-08-29 07:00,-0.00287311,290.301,288.951,262.049,291.292,288.584,262.61,0.0,0.0,230.755,251.652
2016-08-29 08:00,0.00567335,288.977,286.105,260.228,287.679,284.349,260.219,0.0,0.0,228.662,249.513
2016-08-29 09:00,0.868011,287.729,282.566,258.022,283.088,279.211,256.035,1.76387,1.66499,228.748,248.775
2016-08-29 10:00,0.0987716,289.779,285.546,260.228,286.585,283.917,259.249,0.200711,0.139602,230.184,251.652
2016-08-29 11:00,0.125127,279.859,265.394,247.465,263.393,259.684,242.956,0.20306,0.184221,225.546,241.348
2016-08-29 12:00,0.0940029,287.155,277.977,254.926,277.377,275.085,254.009,0.137335,0.109788,229.601,248.882
2016-08-29 13:00,0.0553545,292.534,288.087,261.412,290.367,287.888,262.373,0.0861369,0.0619252,232.481,254.907
2016-08-29 15:00,0.0126658,290.939,287.869,261.091,290.101,287.048,261.54,0.0396793,0.0242951,231.63,252.342
2016-08-29 16:00,0.0502271,293.124,289.486,261.838,292.34,290.238,263.905,0.0632456,0.0520074,232.935,254.536
2016-08-29 17:00,0.0349949,291.563,287.651,260.445,289.968,287.469,261.421,0.0557047,0.0409822,232.86,255.183
2016-08-29 18:00,0.118519,291.563,283.841,257.91,285.479,282.613,258.638,0.1338,0.124638,231.473,253.309
2016-08-29 19:00,0.248342,288.841,273.599,251.676,273.057,269.494,248.903,0.24684,0.248536,227.329,246.032
2016-08-29 20:00,0.446809,289.113,272.662,250.931,272.582,268.835,248.364,0.407414,0.423322,226.685,244.881
2016-08-29 21:00,0.476346,291.686,287.102,259.134,289.032,286.767,261.301,0.353935,0.4122,232.481,254.907
2016-08-29 22:00,-0.0113161,287.01,281.978,256.32,282.517,279.361,256.035,0.0,0.0,233.677,252.244
2016-08-29 23:00,-0.389287,287.729,285.77,258.358,287.679,285.065,259.735,-0.17893,-0.329379,236.004,256.001
2016-08-30 00:00,-0.270376,288.568,284.414,258.022,285.895,282.613,257.777,-0.100649,-0.167071,235.525,254.068
2016-08-30 01:00,-0.00180142,288.568,286.55,258.913,288.897,286.202,260.942,0.0,-0.00181864,235.455,255.183
2016-08-30 02:00,-0.0015637,285.97,280.909,256.205,281.655,278.004,255.153,0.0,0.0,233.01,251.552
2016-08-30 03:00,-0.0014783,288.012,285.433,258.469,287.407,284.636,260.219,0.0,0.0,234.827,254.907
2016-08-30 04:00,-0.0015073,287.587,283.264,257.346,284.501,280.998,257.406,0.0,0.00152171,233.308,252.731
2016-08-30 05:00,0.0,288.43,286.217,259.134,288.222,285.493,260.701,0.0,0.0,235.731,256.45
2016-08-30 06:00,0.00202256,284.087,282.566,256.892,284.079,281.882,259.37,0.0,0.0,234.329,254.814
2016-08-30 07:00,0.0,284.57,277.224,253.501,277.528,273.832,252.464,0.0,0.0,230.101,249.093
2016-08-30 08:00,0.0,288.977,285.546,258.469,287.543,284.922,259.37,0.0,0.0,233.53,253.974
2016-08-30 09:00,1.16327,287.729,281.742,256.205,283.088,279.511,255.28,1.64157,1.66372,232.02,251.552
2016-08-30 10:00,0.0545787,290.171,287.102,259.244,289.434,286.343,260.701,0.176445,0.110201,233.75,254.814
2016-08-30 11:00,0.0287322,290.813,288.087,260.011,290.367,287.748,262.255,0.103945,0.0632877,234.686,255.457
2016-08-30 12:00,0.064593,293.587,288.736,260.119,291.292,288.861,263.318,0.101569,0.0726632,235.799,256.539
2016-08-30 13:00,0.220153,293.124,285.77,258.58,288.222,285.919,261.66,0.258682,0.238889,235.317,255.639
2016-08-30 14:00,0.0133005,290.939,288.303,260.228,290.5,288.027,262.61,0.0461724,0.0268554,235.178,255.639
2016-08-30 15:00,0.0646798,285.045,272.662,250.931,272.264,268.339,247.551,0.0944953,0.0857839,229.433,246.707
2016-08-30 17:00,0.106632,286.271,272.662,251.305,271.945,267.84,246.869,0.133052,0.128898,229.348,246.929
2016-08-30 18:00,0.0759754,290.939,284.3,257.798,285.618,282.321,258.638,0.113274,0.0883736,232.405,252.634
2016-08-30 19:00,0.0890051,292.653,286.328,259.244,287.951,284.779,259.249,0.121312,0.0986224,234.257,254.068
2016-08-30 20:00,0.281093,292.653,283.264,257.685,284.501,281.293,257.282,0.287952,0.269767,232.633,251.751
2016-08-30 21:00,0.83208,293.007,287.102,259.683,289.3,286.626,261.421,0.594174,0.698342,233.896,253.974
2016-08-30 22:00,-0.0108997,289.779,288.843,260.445,291.292,289.137,263.318,0.0,0.0,235.525,255.73
2016-08-30 23:00,-0.406184,291.315,290.017,261.412,292.6,290.375,263.905,-0.182802,-0.336181,235.867,256.001
2016-08-31 00:00,-0.0554698,291.065,289.805,261.305,292.34,289.826,263.905,-0.0176123,-0.035,235.178,255.73
2016-08-31 01:00,-0.00178976,290.813,289.911,261.412,292.34,289.826,264.022,0.0,0.0,236.675,256.716
2016-08-31 02:00,-0.0015552,291.065,289.911,261.198,292.34,290.101,263.905,0.0,0.0,236.207,256.716
2016-08-31 03:00,0.00147115,291.19,290.651,261.625,293.377,291.329,264.605,0.0,0.0,236.408,256.982
2016-08-31 04:00,0.0,291.065,290.756,261.625,293.635,291.6,265.185,0.0,0.00151487,236.475,257.421
2016-08-31 05:00,-0.00165563,291.065,290.965,261.519,293.635,291.735,265.185,0.0,0.0,237.268,257.942
2016-08-31 06:00,-0.0020133,291.19,290.86,261.519,293.635,291.735,264.953,0.0,0.0,236.94,258.2
2016-08-31 07:00,0.0,290.558,290.545,261.305,293.377,291.329,264.837,0.0,0.0,237.657,258.114
2016-08-31 08:00,-0.00557679,290.939,290.651,261.731,293.635,291.464,264.837,0.0,0.0,237.721,258.2
2016-08-31 09:00,0.658117,290.685,290.756,261.412,293.377,291.329,265.185,1.67168,1.21808,237.849,258.457
2016-08-31 10:00,0.0598204,291.686,290.86,261.944,293.506,291.6,264.721,0.177274,0.110719,238.041,258.882
2016-08-31 11:00,0.0209383,291.931,290.965,261.412,293.764,291.735,264.953,0.0975065,0.0528463,237.528,258.798
2016-08-31 12:00,0.0147831,291.931,291.174,261.944,293.764,292.006,265.069,0.067278,0.03358,237.721,258.967
2016-08-31 13:00,0.00449777,291.809,291.174,261.838,294.021,292.41,265.647,0.0495074,0.0242174,237.721,259.051
2016-08-31 14:00,0.0186418,292.294,291.07,261.412,293.635,291.871,264.953,0.0496067,0.0309185,237.977,259.638
2016-08-31 15:00,0.00507978,291.931,291.798,261.838,294.533,292.948,265.647,0.0333331,0.0166671,237.721,259.638
2016-08-31 16:00,0.00775389,292.174,292.005,261.838,294.661,293.082,265.878,0.0317318,0.0169607,237.592,260.299
2016-08-31 17:00,0.00843849,292.653,292.005,261.731,295.043,293.483,265.647,0.0345335,0.019878,237.398,260.545
2016-08-31 18:00,0.0281748,293.24,292.005,261.412,294.916,293.216,265.647,0.0561308,0.0368101,237.398,260.789
2016-08-31 19:00,0.10258,294.823,291.591,261.305,294.405,292.814,265.878,0.129358,0.107968,237.721,261.113
2016-08-31 20:00,0.301412,296.219,291.279,260.876,294.021,292.545,265.762,0.302686,0.279526,238.294,261.113
2016-08-31 21:00,0.248468,291.686,291.174,260.876,293.892,292.276,265.647,0.324332,0.313554,239.288,261.435
2016-08-31 22:00,-0.010509,290.939,291.383,261.091,294.149,292.679,265.993,0.0,0.0,240.014,261.675
2016-08-31 23:00,-0.451499,291.809,291.902,261.305,294.661,293.216,265.993,-0.192671,-0.33548,239.653,261.755
