# timestamp,IR_016,IR_039,IR_087,IR_097,IR_108,IR_120,IR_134,VIS006,VIS008,WV_062,WV_073
2016-03-01 00:00,0.00212765,285.818,286.772,256.32,289.568,288.167,261.54,0.0,0.0,248.971,264.162
2016-03-01 01:00,0.0,286.569,287.651,256.892,290.367,289.137,261.779,0.0,0.0,249.606,264.765
2016-03-01 02:00,-0.0013621,287.01,287.651,257.12,290.764,289.413,261.898,0.0,0.0,248.879,264.464
2016-03-01 03:00,-0.00125001,285.818,286.439,256.434,289.032,287.748,261.182,0.0,0.0,248.231,263.629
2016-03-01 04:00,0.0,286.717,287.322,256.892,290.234,288.584,260.942,0.0,0.0,246.847,263.552
2016-03-01 05:00,-0.00128702,286.717,287.651,257.346,290.632,289.137,261.779,0.0,0.0,245.099,263.012
2016-03-01 06:00,0.0,287.01,287.322,257.12,290.101,288.445,261.062,0.0,0.0,243.686,262.072
2016-03-01 07:00,-0.00178998,285.202,285.321,256.205,288.222,286.626,260.942,0.0,0.0,242.042,260.627
2016-03-01 08:00,0.0,276.594,278.226,252.656,280.639,280.406,258.147,0.0,0.0,242.155,259.638
2016-03-01 09:00,0.0,284.57,285.095,255.974,287.815,286.626,260.461,0.0,0.00496201,241.189,259.554
2016-03-01 10:00,-1.1503,286.121,286.439,256.664,289.568,288.027,260.34,-4.8698,-4.06455,240.607,259.135
2016-03-01 11:00,0.201554,288.568,285.77,256.778,289.032,287.748,260.822,0.319432,0.260872,239.774,258.028
2016-03-01 12:00,0.0427757,287.871,286.772,257.006,290.234,288.722,261.182,0.144873,0.0917674,239.532,257.595
2016-03-01 13:00,0.0551476,288.568,286.105,256.664,289.3,287.748,261.182,0.111098,0.0767928,239.894,257.158
2016-03-01 14:00,0.0125273,287.155,286.992,257.346,290.234,288.584,260.942,0.0649668,0.0331985,240.312,257.158
2016-03-01 15:00,0.0227081,287.01,286.328,257.12,289.568,287.888,261.182,0.0624873,0.0386862,240.253,256.36
2016-03-01 16:00,0.0528265,286.864,285.208,256.089,288.358,286.907,260.581,0.0918104,0.0757869,240.371,255.275
2016-03-01 17:00,0.0469329,287.155,284.982,255.858,288.222,286.626,259.856,0.0819597,0.0651497,239.894,254.722
2016-03-01 18:00,0.179946,286.421,280.429,253.741,283.514,282.175,258.392,0.217861,0.210529,239.593,254.536
2016-03-01 19:00,0.0776404,289.113,285.994,256.549,289.166,287.469,260.461,0.140606,0.111042,239.894,254.907
2016-03-01 20:00,0.265174,290.813,285.095,255.626,288.222,286.343,259.856,0.326836,0.315151,239.774,254.907
2016-03-01 21:00,0.690288,289.247,284.755,255.16,287.815,286.06,259.735,0.631223,0.752638,240.193,254.722
2016-03-01 22:00,-0.0109627,284.888,284.528,254.808,287.815,285.919,259.37,0.0,0.0,239.894,253.69
2016-03-01 23:00,-0.00694305,275.932,271.023,247.728,272.264,267.506,249.171,-0.00293934,-0.00700942,239.532,248.669
2016-03-02 00:00,0.00213579,281.705,280.789,253.14,283.514,282.028,257.9,0.0,0.0,239.349,252.925
2016-03-02 01:00,0.0,285.045,284.642,254.808,287.543,285.635,259.492,0.0,0.0,239.41,253.785
2016-03-02 02:00,0.0,274.787,275.694,250.177,278.873,278.307,256.535,0.0,0.0,240.193,254.256
2016-03-02 03:00,-0.00125325,282.581,281.505,253.261,284.501,282.613,257.777,0.0,0.0,240.193,254.999
2016-03-02 04:00,0.0,277.026,275.951,250.931,279.466,278.156,256.535,0.0,0.0,240.782,254.999
2016-03-02 05:00,0.0,282.408,281.624,253.381,284.781,283.049,258.392,0.0,0.0,240.841,255.457
2016-03-02 06:00,0.0,274.073,274.392,249.542,277.226,276.323,256.16,0.0,0.0,241.073,255.548
2016-03-02 07:00,-0.00179888,276.811,276.208,250.177,279.466,278.307,256.785,0.0,0.0,241.59,256.001
2016-03-02 08:00,-0.00256473,280.427,280.549,252.534,283.088,282.028,258.515,0.0,0.0,241.533,256.539
2016-03-02 09:00,0.0,282.753,282.096,253.381,284.641,282.904,258.023,0.0,0.0,241.93,256.894
2016-03-02 10:00,-14.0923,285.97,285.882,254.926,288.493,286.626,259.492,-47.7279,-39.8358,242.099,257.158
2016-03-02 11:00,0.523752,286.121,276.971,250.806,279.76,279.061,256.785,0.559707,0.600629,242.155,257.421
2016-03-02 12:00,0.424183,291.19,278.968,251.552,281.655,280.702,257.777,0.422007,0.430914,242.433,257.769
2016-03-02 13:00,0.105869,288.291,284.755,255.043,287.679,286.202,259.735,0.156868,0.127875,242.655,258.713
2016-03-02 14:00,0.230673,286.717,279.213,252.168,281.943,280.998,257.777,0.271851,0.280083,242.929,258.798
2016-03-02 15:00,0.0268568,286.717,285.658,255.51,288.628,287.048,259.977,0.0634316,0.0413839,243.579,259.387
2016-03-02 16:00,0.0138498,286.717,286.105,255.626,289.166,287.609,260.461,0.0457338,0.0279644,243.526,259.887
2016-03-02 17:00,0.0876756,288.152,284.414,254.336,287.27,286.202,260.34,0.102691,0.0973651,244.006,260.708
2016-03-02 18:00,0.115586,288.152,284.414,254.454,287.134,286.06,260.098,0.133326,0.12853,244.374,260.952
2016-03-02 19:00,0.0536668,288.43,286.772,255.974,289.835,288.306,261.301,0.0999672,0.0736846,244.217,261.275
2016-03-02 20:00,0.600146,289.91,279.945,252.29,282.803,282.175,258.27,0.592833,0.683302,244.164,260.627
2016-03-02 21:00,0.416139,288.012,285.546,255.51,288.358,286.907,261.062,0.405961,0.447516,244.217,260.871
2016-03-02 22:00,0.0111847,286.121,286.772,256.32,289.701,288.027,261.062,0.0,0.0,244.531,261.355
2016-03-02 23:00,-0.00349309,285.512,285.994,255.742,289.032,287.609,260.942,-0.00295759,-0.00352648,244.687,261.595
2016-03-03 00:00,0.00214401,284.249,285.095,255.277,287.951,286.907,260.581,0.0,0.0,244.217,261.675
2016-03-03 01:00,-0.00161838,285.045,286.105,255.858,288.897,287.609,261.062,0.0,0.0,241.59,260.789
2016-03-03 02:00,0.0,285.357,286.105,255.626,289.166,287.888,260.942,0.0,0.0,240.548,260.627
2016-03-03 03:00,-0.00125657,286.271,287.102,256.434,290.5,288.999,261.301,0.0,0.0,239.714,260.135
2016-03-03 04:00,0.00123442,286.271,287.322,256.778,290.5,289.276,261.66,0.0,0.0,237.333,258.967
2016-03-03 05:00,0.0,286.421,287.322,256.892,290.5,289.137,261.66,0.0,0.0,236.139,258.798
2016-03-03 06:00,0.0,286.421,287.212,256.549,290.367,288.861,261.182,0.0,0.00147497,235.593,258.114
2016-03-03 07:00,-0.00180805,286.421,286.882,256.778,289.968,288.722,260.942,0.0,0.0,234.756,256.181
2016-03-03 08:00,0.00258442,283.261,283.148,255.393,286.722,284.779,259.37,0.0,0.0,234.472,256.001
2016-03-03 09:00,-0.0050676,285.97,286.439,256.664,289.835,288.027,260.34,0.0,0.0,234.041,255.548
2016-03-03 10:00,1.42491,286.121,286.772,256.664,289.968,288.722,260.461,6.63557,5.03485,233.75,255.366
2016-03-03 11:00,0.165126,287.444,285.321,256.205,288.628,287.188,260.219,0.28386,0.212169,233.677,254.629
2016-03-03 12:00,0.33652,290.685,281.742,254.336,284.22,283.194,258.882,0.41404,0.427325,233.968,254.722
2016-03-03 13:00,0.214263,290.939,281.624,254.099,284.641,283.484,258.882,0.230749,0.231491,234.041,254.814
2016-03-03 14:00,0.0108596,286.569,286.55,256.32,289.701,287.888,260.461,0.0617368,0.0344566,233.677,255.366
2016-03-03 15:00,0.00563147,286.271,286.882,256.664,290.101,288.445,260.822,0.0464895,0.0241625,234.113,255.457
2016-03-03 16:00,0.00689942,286.569,286.882,256.664,290.101,288.584,260.581,0.0420604,0.0222892,234.968,256.181
2016-03-03 17:00,0.0436794,287.01,284.755,255.626,287.815,286.343,259.614,0.0678027,0.0543863,235.799,255.457
2016-03-03 18:00,0.0467249,288.43,286.328,256.205,289.434,287.888,260.701,0.0791239,0.0539104,237.333,256.805
2016-03-03 19:00,0.141038,291.065,285.433,255.393,288.358,287.188,260.461,0.161031,0.151015,237.913,257.508
2016-03-03 20:00,0.423979,291.315,283.611,254.69,286.722,285.635,259.977,0.415073,0.441408,238.168,258.2
2016-03-03 21:00,0.604973,287.587,283.956,255.277,286.997,285.777,259.37,0.527295,0.628719,237.006,257.682
2016-03-03 22:00,-0.0114135,285.97,286.661,256.778,289.701,288.306,260.701,0.0,0.0,236.609,257.421
2016-03-03 23:00,-0.00702964,286.717,286.992,256.778,290.101,288.445,261.182,-0.00595198,-0.00709684,235.867,257.595
2016-03-04 00:00,0.0,285.97,287.102,257.346,290.367,289.137,261.54,0.0,0.0,234.897,257.508
2016-03-04 01:00,-0.00162331,285.97,286.992,257.685,290.234,288.861,261.301,0.0,0.0,233.75,256.628
2016-03-04 02:00,0.0,285.97,287.212,257.346,290.234,288.584,261.54,0.0,0.0,233.603,256.628
2016-03-04 03:00,0.0,285.97,286.882,257.233,289.835,288.027,261.301,0.0,0.0,233.456,257.07
2016-03-04 04:00,0.0,285.512,286.439,257.233,289.434,288.027,260.942,0.0,0.0,233.823,257.246
2016-03-04 05:00,0.00129937,286.121,286.882,257.572,290.234,288.861,261.54,0.0,0.0,234.615,256.716
2016-03-04 06:00,0.0,286.271,286.661,257.459,289.835,288.306,260.822,0.0,0.0,234.401,255.911
2016-03-04 07:00,0.0,284.888,284.982,256.549,288.222,286.343,260.942,0.0,0.0,232.935,254.999
2016-03-04 08:00,0.0,278.279,278.845,253.501,281.799,280.85,257.777,0.0,0.0,232.175,253.785
2016-03-04 09:00,-0.00514938,280.05,280.187,253.86,283.372,281.882,258.147,0.0,0.0,233.01,254.349
2016-03-04 10:00,1.83128,284.249,283.841,255.858,286.722,285.065,259.249,3.66492,3.36144,232.935,254.536
2016-03-04 11:00,0.0935667,287.01,285.994,257.346,289.166,287.329,260.098,0.254347,0.164064,232.481,254.256
2016-03-04 12:00,0.0677885,287.871,285.994,257.233,289.032,287.469,260.581,0.154529,0.105287,232.175,253.974
2016-03-04 13:00,0.024292,287.3,286.328,257.685,289.568,287.888,260.581,0.0917647,0.0528213,232.175,253.88
2016-03-04 14:00,0.00926548,286.864,287.212,258.134,290.764,289.276,261.182,0.0601455,0.0296212,232.02,253.5
2016-03-04 15:00,0.00981612,286.717,286.55,258.022,289.835,288.167,261.062,0.0498678,0.0283142,232.481,253.785
2016-03-04 16:00,0.046746,287.155,285.546,257.346,288.628,287.188,259.977,0.0698466,0.055521,231.552,253.595
2016-03-04 17:00,0.0507785,288.43,285.433,257.233,288.628,286.907,260.461,0.0749326,0.0585874,232.097,253.309
2016-03-04 18:00,0.0415622,288.841,286.105,258.134,289.032,287.329,260.461,0.0746041,0.0570649,231.473,253.5
2016-03-04 19:00,0.440384,293.24,279.702,254.454,282.803,282.175,259.249,0.407097,0.444594,231.076,252.925
2016-03-04 20:00,0.207345,291.563,286.328,258.246,289.434,287.748,260.581,0.259158,0.229263,230.674,252.925
2016-03-04 21:00,0.735323,288.977,284.528,257.233,287.543,286.343,259.856,0.615185,0.724678,229.517,252.244
2016-03-04 22:00,0.0,284.888,285.095,257.233,288.358,286.907,260.942,0.0,0.0,230.018,252.634
2016-03-04 23:00,-0.00353673,285.202,285.321,258.134,288.493,286.907,260.822,-0.00598909,-0.00714108,230.018,252.047
2016-03-05 00:00,0.0,284.73,284.869,258.022,287.679,284.922,259.005,0.0,0.0,229.263,250.748
2016-03-05 01:00,-0.00162832,281.705,281.148,255.742,283.514,280.108,256.285,0.0,0.0,229.178,249.617
2016-03-05 02:00,0.0,281.165,281.86,256.089,285.061,283.917,259.127,0.0,0.0,229.935,250.34
2016-03-05 03:00,0.0,283.76,282.682,256.664,285.34,283.194,257.777,0.0,0.0,229.517,249.825
2016-03-05 04:00,-0.00124162,273.586,267.326,246.533,266.847,264.967,247.687,0.0,0.0,228.136,242.725
2016-03-05 05:00,0.00130372,282.753,281.505,255.16,284.22,282.321,257.9,0.0,0.0,229.433,249.303
2016-03-05 06:00,0.00147276,286.121,286.328,257.91,289.568,287.609,260.219,0.0,0.0,230.266,250.544
2016-03-05 07:00,0.00182725,273.338,265.846,246.934,266.167,259.139,243.099,0.0,0.0,228.835,241.221
2016-03-05 08:00,0.00262582,284.249,284.185,256.778,287.27,285.635,259.37,0.0,0.00265092,230.101,250.34
2016-03-05 09:00,-0.00523508,284.087,284.414,257.459,287.679,286.06,260.098,0.0,0.0,229.517,250.135
2016-03-05 10:00,1.29845,284.087,281.148,255.043,282.946,280.702,255.658,2.47365,2.29402,227.87,247.261
2016-03-05 11:00,0.0920971,284.57,281.267,255.277,282.946,280.406,255.532,0.246248,0.176168,226.499,246.483
2016-03-05 12:00,0.0543,287.155,284.071,256.778,286.86,284.636,258.76,0.153252,0.0991965,229.007,248.348
2016-03-05 13:00,0.444026,283.093,269.343,248.642,271.303,269.329,249.971,0.522249,0.566435,228.488,246.371
2016-03-05 14:00,0.490371,294.713,260.036,244.07,262.507,260.405,246.457,0.525828,0.56955,228.4,244.175
2016-03-05 15:00,0.206731,268.986,257.511,242.081,257.55,256.18,244.652,0.319327,0.331393,228.575,243.214
2016-03-05 16:00,0.202756,264.377,249.978,237.572,250.83,249.55,240.5,0.389745,0.430135,228.312,240.576
2016-03-05 17:00,0.302165,294.602,259.039,243.226,260.524,257.671,244.652,0.260739,0.286079,228.921,243.937
2016-03-05 18:00,0.278272,268.382,250.175,237.728,251.652,250.757,241.808,0.521713,0.581931,229.769,241.093
2016-03-05 19:00,0.754094,293.472,249.385,237.728,251.447,251.156,241.519,0.699469,0.799795,229.178,241.475
2016-03-05 20:00,1.03026,299.108,246.523,236.784,248.733,247.501,239.322,0.92494,1.08634,230.348,240.185
2016-03-05 21:00,1.12891,261.251,239.559,232.834,240.392,239.667,233.976,0.955845,1.2963,228.312,235.444
2016-03-05 22:00,0.0,277.451,272.796,250.177,273.529,268.505,248.634,0.0,0.0,227.78,243.093
2016-03-05 23:00,-0.00711764,285.512,283.495,255.974,286.31,283.484,257.282,-0.00301325,-0.00718568,232.097,251.452
2016-03-06 00:00,-0.00216919,284.249,284.642,256.32,287.679,285.777,260.219,0.0,0.0,238.981,255.548
2016-03-06 01:00,-0.0016334,285.512,285.994,256.664,288.897,287.048,260.34,0.0,0.0,240.43,256.271
2016-03-06 02:00,0.0,285.818,286.55,256.778,289.434,287.469,260.701,0.0,0.0,239.774,256.539
2016-03-06 03:00,0.0,285.665,286.328,256.664,289.3,287.748,261.182,0.0,0.0,239.043,256.716
2016-03-06 04:00,0.00124537,285.818,286.328,257.12,289.434,287.748,261.062,0.0,0.0,238.546,257.158
2016-03-06 05:00,0.0,286.271,286.661,256.778,289.835,288.167,260.34,0.0,0.0,237.528,256.716
2016-03-06 06:00,0.0014789,286.271,286.55,256.892,289.835,288.027,260.581,0.0,0.0,237.592,257.246
2016-03-06 07:00,0.0,285.818,286.217,256.434,289.3,287.609,261.182,0.0,0.0,236.874,256.894
2016-03-06 08:00,-0.00264755,285.512,285.882,256.549,289.032,287.609,260.942,0.0,0.0,236.475,256.716
2016-03-06 09:00,0.0,286.121,286.55,256.778,289.568,288.167,260.822,0.0,0.0,235.799,256.45
2016-03-06 10:00,0.879274,285.512,283.726,255.393,286.585,284.492,257.9,2.0304,1.69466,234.756,255.275
2016-03-06 11:00,0.0668046,285.512,283.726,255.51,286.585,284.636,258.638,0.230294,0.154156,234.401,255.911
2016-03-06 12:00,0.038467,287.01,286.217,256.664,289.3,287.888,260.581,0.136794,0.0854365,234.329,257.246
2016-03-06 13:00,0.0517222,288.291,286.105,257.12,289.3,287.748,260.942,0.111047,0.0801899,234.472,257.333
2016-03-06 14:00,0.244844,266.466,230.559,228.378,227.118,224.19,220.675,0.338173,0.358418,216.695,221.658
2016-03-06 15:00,0.25046,266.466,229.97,228.192,228.293,224.756,219.927,0.336946,0.369448,216.83,223.793
2016-03-06 16:00,0.0300336,287.444,286.328,257.459,289.032,287.609,260.461,0.0670411,0.0482374,230.916,253.785
2016-03-06 17:00,0.0360206,287.871,284.755,256.434,287.134,285.065,259.249,0.0634371,0.0465472,229.601,253.117
2016-03-06 18:00,0.0660172,288.291,284.755,257.006,287.27,285.635,259.249,0.0894346,0.0766455,230.674,252.925
2016-03-06 19:00,0.269987,294.823,284.642,257.346,287.679,286.06,260.098,0.255387,0.251274,232.02,254.256
2016-03-06 20:00,0.432356,294.043,283.032,256.664,285.618,284.349,259.614,0.421124,0.449616,231.709,252.634
2016-03-06 21:00,0.645055,291.686,283.148,256.778,285.34,282.028,256.909,0.53898,0.65979,232.405,252.342
2016-03-06 23:00,-0.00716221,283.428,281.505,255.51,283.656,281.293,256.909,-0.00606423,-0.00723068,228.488,249.093
2016-03-07 00:00,-0.00217776,285.202,284.414,257.798,286.997,285.065,259.005,0.0,0.0,228.748,250.442
2016-03-07 01:00,0.0,266.466,254.69,240.766,253.469,249.753,236.153,0.0,-0.00165423,225.254,236.9
2016-03-07 02:00,-0.00138485,233.989,233.392,229.665,232.772,231.459,227.601,0.0,0.0,224.86,230.011
2016-03-07 03:00,0.0,279.859,276.336,253.621,277.528,273.517,251.944,0.0,0.0,227.959,244.764
2016-03-07 04:00,-0.00124921,280.427,276.845,253.381,278.278,274.773,253.497,0.0,0.0,228.921,247.04
2016-03-07 05:00,0.00131279,278.482,273.865,252.29,276.772,272.405,252.464,0.0,0.0,230.266,248.133
2016-03-07 06:00,0.0014852,274.073,274.524,252.899,278.278,276.477,255.027,0.0,0.0,230.348,248.882
2016-03-07 07:00,-0.00184759,262.475,253.226,240.32,252.868,250.357,237.977,-0.00156436,0.00186526,227.055,236.614
2016-03-07 08:00,0.00266999,240.898,233.392,229.847,233.041,231.203,226.918,0.0,0.0,224.054,229.314
2016-03-07 09:00,0.0,235.601,230.265,228.564,230.294,229.121,226.402,0.0,0.0,222.04,225.21
2016-03-07 10:00,1.32824,233.989,221.481,224.507,221.511,220.984,219.739,1.98148,2.49032,219.982,221.436
2016-03-07 11:00,0.488609,247.601,229.072,228.004,229.158,228.856,226.056,0.918902,1.05771,223.849,226.379
2016-03-07 12:00,0.292505,262.475,255.764,241.646,256.98,255.614,244.652,0.699918,0.749807,232.633,246.258
2016-03-07 13:00,0.418774,284.57,262.931,245.451,265.31,264.795,250.633,0.595625,0.634166,237.528,250.238
2016-03-07 14:00,0.495117,287.729,265.394,247.2,268.524,268.339,252.594,0.526276,0.552142,235.867,250.646
2016-03-07 15:00,0.456044,288.705,266.145,247.859,270.169,269.494,252.982,0.487066,0.505184,233.823,249.928
2016-03-07 16:00,0.312903,276.811,264.94,246.801,267.185,266.835,251.683,0.496464,0.509551,231.552,248.669
2016-03-07 17:00,0.359,262.475,244.815,235.985,245.024,244.328,236.307,0.599419,0.64368,228.136,236.614
2016-03-07 18:00,0.493389,289.113,262.931,245.859,265.482,264.451,249.037,0.519405,0.542935,229.263,245.575
2016-03-07 19:00,0.613363,265.791,239.317,233.513,239.669,238.978,233.503,0.848364,0.956409,229.685,235.74
2016-03-07 20:00,1.05024,286.421,253.411,240.913,254.461,253.51,242.097,1.07803,1.22993,230.101,242.971
2016-03-07 21:00,0.61052,264.377,255.587,241.936,256.98,256.18,245.072,0.623144,0.776778,232.251,245.804
2016-03-07 22:00,0.0,230.231,227.845,227.817,228.293,228.056,225.535,0.0,-0.0125204,223.329,225.604
2016-03-07 23:00,-0.00720717,242.013,232.839,230.207,233.577,232.474,228.614,-0.0061023,-0.00727606,226.685,233.146
2016-03-08 00:00,0.00218643,233.989,233.938,230.743,234.107,233.474,229.283,0.0,0.0,225.835,230.011
2016-03-08 01:00,-0.00164381,263.255,261.982,245.723,263.92,263.063,248.768,0.0,0.0,231.156,248.348
2016-03-08 02:00,0.0,253.81,253.411,240.766,254.263,252.536,241.808,0.0,-0.00140219,230.266,244.412
2016-03-08 03:00,0.0,265.095,258.195,243.226,258.116,255.803,242.241,0.0,0.0,230.018,244.175
2016-03-08 04:00,0.0,276.811,274.261,251.922,275.857,274.46,254.392,0.0,0.0,231.076,251.85
2016-03-08 05:00,0.0,268.686,265.846,247.2,267.857,266.835,250.501,0.0,0.0,231.156,248.669
2016-03-08 06:00,0.0,275.707,276.463,253.381,279.318,278.307,257.282,0.0,0.0,233.456,253.5
2016-03-08 07:00,-0.00185821,275.02,273.865,251.552,275.703,274.147,253.497,0.0,0.0,231.709,252.537
2016-03-08 08:00,0.0,284.888,284.3,257.006,286.447,284.779,259.492,0.0,0.0,232.097,256.628
2016-03-08 09:00,-0.0055178,279.473,275.823,252.045,276.62,274.617,252.982,0.0,0.0,230.511,253.021
2016-03-08 10:00,0.261236,282.923,283.38,255.974,286.172,285.208,259.856,0.973229,0.685708,232.02,258.882
2016-03-08 11:00,0.351608,268.986,249.185,238.04,246.135,243.024,233.026,0.442642,0.476407,226.027,236.614
2016-03-08 12:00,0.196784,274.073,258.703,242.369,256.598,254.281,239.47,0.290511,0.285263,226.871,241.602
2016-03-08 13:00,0.0675759,287.444,284.414,256.664,286.86,284.922,259.492,0.129897,0.0977233,231.156,256.628
2016-03-08 14:00,0.0318507,287.01,284.3,256.778,286.585,284.779,258.515,0.082188,0.0551232,230.43,255.639
2016-03-08 15:00,0.0593809,286.569,283.148,256.32,285.618,284.061,258.392,0.0865244,0.0724959,230.348,255.548
2016-03-08 16:00,0.0379632,287.871,286.661,257.91,289.968,288.445,261.062,0.0642867,0.0492764,230.916,255.548
2016-03-08 17:00,0.239026,268.686,249.185,238.503,249.579,247.085,235.846,0.312663,0.338124,228.312,241.348
2016-03-08 18:00,0.299934,270.713,247.357,236.943,245.914,244.328,234.604,0.348319,0.390497,227.691,234.694
2016-03-08 19:00,0.410049,271.798,251.912,239.115,251.652,249.348,237.676,0.449927,0.504789,229.852,240.446
2016-03-08 20:00,0.755012,279.081,255.941,241.207,255.827,253.51,240.5,0.709995,0.840074,230.43,243.698
2016-03-08 21:00,1.16247,273.586,248.38,237.572,247.878,246.035,236.153,0.85861,1.15693,230.266,239.789
2016-03-08 22:00,0.0126692,265.095,256.992,241.354,256.406,253.896,240.354,0.0,0.0,230.101,242.602
2016-03-08 23:00,-0.0108788,263.636,251.721,238.503,249.368,247.293,235.846,-0.00614071,-0.00732187,229.433,239.922
2016-03-09 00:00,0.0,263.636,256.118,240.32,255.244,253.122,239.913,0.0,0.0,230.674,244.998
2016-03-09 01:00,-0.00164913,279.667,275.951,250.806,276.315,274.147,252.075,0.0,0.0,233.53,252.634
2016-03-09 02:00,-0.00139306,273.586,275.436,250.681,278.576,278.156,256.66,0.0,0.0,237.592,259.804
2016-03-09 03:00,-0.00127824,282.753,282.448,254.336,285.618,284.061,259.005,0.0,0.0,239.227,260.871
2016-03-09 04:00,-0.00125719,269.283,272.391,248.642,276.163,276.323,256.035,0.0,0.00126921,242.099,260.952
2016-03-09 05:00,0.0,283.924,284.642,254.336,287.543,286.06,259.735,0.0,0.0,243.579,261.914
2016-03-09 06:00,0.0,285.97,286.882,255.16,289.968,288.306,260.461,0.0,0.0,243.202,261.914
2016-03-09 07:00,0.0,285.512,286.439,254.926,289.3,287.888,260.219,0.0,0.0,243.526,261.834
2016-03-09 08:00,0.00271705,280.799,281.148,251.799,284.079,282.758,258.27,0.0,0.0,242.544,260.627
2016-03-09 09:00,0.0,285.202,285.994,254.099,288.897,287.609,259.735,0.0,0.0,241.817,260.217
2016-03-09 10:00,0.533418,286.421,286.55,254.572,289.701,288.027,260.219,1.16675,0.942405,241.131,259.387
2016-03-09 11:00,0.0592347,286.271,286.105,254.336,289.434,287.609,259.856,0.223764,0.142602,240.548,258.543
2016-03-09 12:00,0.165167,289.113,284.755,253.501,287.543,286.06,259.005,0.218246,0.189484,240.724,258.286
2016-03-09 13:00,0.219756,293.93,276.336,249.542,279.613,277.853,255.532,0.221435,0.220023,240.665,258.114
2016-03-09 14:00,0.0800336,289.113,282.096,252.412,284.921,282.904,257.53,0.11635,0.0960437,240.607,258.114
2016-03-09 15:00,0.262786,287.444,273.199,247.859,276.62,276.169,255.027,0.237645,0.243074,240.371,257.855
2016-03-09 16:00,0.145941,287.871,277.977,249.797,281.221,280.108,256.785,0.143019,0.140515,240.782,258.457
2016-03-09 17:00,0.3795,285.357,273.065,247.465,276.62,276.323,255.153,0.415545,0.460906,240.782,258.882
2016-03-09 18:00,0.372434,288.012,272.662,247.067,275.703,275.706,255.909,0.363747,0.413924,241.073,258.967
2016-03-09 19:00,0.266734,292.414,281.148,251.552,284.079,282.175,257.9,0.247016,0.258765,240.489,259.051
2016-03-09 20:00,1.07341,293.24,272.796,247.2,275.55,275.551,255.406,0.930498,1.14173,240.782,259.051
2016-03-09 21:00,0.959425,289.779,279.945,250.931,282.946,281.735,257.282,0.688427,0.886512,240.43,258.967
2016-03-09 22:00,-0.0129454,273.586,273.333,247.332,276.772,276.015,255.406,0.0,0.0,240.253,258.798
2016-03-09 23:00,-0.00729833,276.376,274.392,247.991,277.678,276.631,255.532,-0.00617948,-0.0073681,239.774,258.543
2016-03-10 00:00,0.0,274.073,274.655,247.597,277.377,276.784,255.784,0.0,0.0,239.894,258.286
2016-03-10 01:00,0.0,277.661,276.845,248.382,279.76,278.458,256.785,0.0,0.0,239.471,258.286
2016-03-10 02:00,0.0,275.251,275.176,247.597,277.528,276.631,255.784,0.0,0.0,239.288,258.028
2016-03-10 03:00,0.0,285.665,285.546,252.656,288.493,286.485,259.614,0.0,0.0,239.043,258.372
2016-03-10 04:00,0.0,282.753,282.096,251.18,285.201,283.194,257.9,0.0,0.0,239.166,258.286
2016-03-10 05:00,0.0,285.357,285.994,251.922,289.032,287.469,259.37,0.0,0.0,239.532,258.967
2016-03-10 06:00,0.0,286.271,286.55,252.534,290.101,288.306,259.735,0.0,0.0,239.166,258.798
2016-03-10 07:00,0.00376066,285.818,286.439,251.552,289.701,288.167,259.856,0.0,0.0,238.733,258.457
2016-03-10 08:00,0.0,285.818,286.439,251.552,289.701,288.306,259.977,0.0,0.0,238.104,258.457
2016-03-10 09:00,-0.00573007,285.357,285.546,250.681,288.493,286.626,258.515,0.0,0.0,238.357,258.372
2016-03-10 10:00,0.61828,286.569,285.208,250.303,288.493,286.626,258.882,1.01427,0.897273,238.357,258.628
2016-03-10 11:00,0.242374,288.152,283.495,248.9,286.172,284.922,258.147,0.323028,0.312661,238.42,258.713
2016-03-10 12:00,0.0397201,287.01,285.77,249.924,288.897,287.048,259.005,0.126116,0.0801997,238.981,259.304
2016-03-10 13:00,0.419016,284.41,273.065,243.93,275.55,275.706,255.027,0.445005,0.49778,240.312,259.22
2016-03-10 14:00,0.177418,288.977,278.35,246.13,281.366,280.702,256.285,0.184592,0.183668,240.43,259.721
2016-03-10 15:00,0.00548333,285.97,286.55,249.797,289.568,288.306,259.492,0.0429452,0.022143,240.782,260.627
2016-03-10 16:00,0.00538753,286.569,286.661,250.177,289.701,288.306,259.977,0.0376333,0.0190366,241.304,261.113
2016-03-10 17:00,0.00995545,286.569,286.439,250.051,289.701,288.167,259.856,0.0397379,0.0229728,241.533,261.355
2016-03-10 18:00,0.0309345,287.444,286.439,250.303,289.434,288.167,259.856,0.0592771,0.0427361,242.544,261.755
2016-03-10 19:00,0.0352896,287.871,287.102,250.681,290.101,288.861,260.219,0.0808508,0.0544883,243.093,262.623
2016-03-10 20:00,0.12073,289.381,286.661,249.797,289.835,288.584,260.34,0.182924,0.153959,244.006,263.167
2016-03-10 21:00,0.593612,289.113,284.982,248.382,287.951,286.626,259.977,0.509402,0.63168,244.426,263.012
2016-03-10 22:00,0.0,284.087,284.528,249.414,287.27,286.202,259.37,0.0,0.0,242.099,262.466
2016-03-10 23:00,-0.00734457,284.249,284.414,249.414,287.543,286.343,259.614,-0.00621863,-0.00741478,240.134,261.834
2016-03-11 00:00,-0.00221303,280.613,281.029,247.991,283.797,283.049,258.27,0.0,0.0,240.665,261.595
2016-03-11 01:00,-0.00166004,272.58,273.997,245.451,276.772,276.938,255.784,0.0,0.0,240.665,260.135
2016-03-11 02:00,0.0,282.581,282.566,249.286,285.201,283.917,258.638,0.0,0.0,239.593,260.789
2016-03-11 03:00,0.0,270.151,273.333,245.177,276.01,276.477,256.035,0.0,0.0,238.546,259.887
2016-03-11 04:00,0.0,280.427,279.458,248.252,282.374,280.998,257.777,0.0,0.0,236.341,259.554
2016-03-11 05:00,0.0,272.061,273.865,245.451,276.468,276.477,255.784,0.0,0.0,234.827,258.2
2016-03-11 06:00,0.00151214,275.48,275.951,246.265,279.17,278.911,257.158,0.0,0.0015266,234.686,258.2
2016-03-11 07:00,-0.00189184,274.787,276.08,246.13,279.022,278.609,257.53,0.0,0.0,234.968,257.855
2016-03-11 08:00,-0.00276711,276.811,276.336,246.667,279.76,278.911,257.158,0.0,0.0,235.731,257.333
2016-03-11 09:00,-0.00584418,286.121,286.439,251.305,289.568,287.888,260.098,0.0,0.0,235.038,257.333
2016-03-11 10:00,0.170747,286.121,286.439,251.676,289.434,287.748,260.219,0.809599,0.58609,235.731,257.246
2016-03-11 11:00,0.0442208,286.421,286.217,251.429,289.3,287.609,260.098,0.202185,0.120537,235.593,257.07
2016-03-11 12:00,0.0270909,286.717,286.105,251.799,289.3,287.748,259.977,0.12303,0.0745905,236.274,256.805
2016-03-11 13:00,0.0359238,287.729,285.77,252.412,288.897,287.329,260.098,0.0973332,0.065281,236.609,255.639
2016-03-11 14:00,0.00449136,286.569,0.0,253.381,289.701,288.167,260.34,0.0557748,0.0272058,237.398,255.639
2016-03-11 15:00,0.00409774,286.717,286.661,253.98,290.234,288.722,261.062,0.0427912,0.0206846,236.94,255.366
2016-03-11 16:00,0.00268511,286.121,286.772,254.099,290.234,288.722,260.822,0.0375124,0.0176201,236.874,255.183
2016-03-11 17:00,0.00283567,286.864,286.439,253.98,289.701,288.027,260.461,0.0372148,0.0200394,236.475,255.183
2016-03-11 18:00,0.0811464,290.939,283.032,252.412,286.722,284.922,259.249,0.0961891,0.0933912,235.593,255.457
2016-03-11 19:00,0.0206809,287.3,286.55,254.336,289.968,288.445,260.942,0.0735442,0.045933,236.542,255.73
2016-03-11 20:00,0.0663613,288.291,286.772,254.217,289.968,288.306,260.942,0.15251,0.105279,237.721,256.45
2016-03-11 21:00,0.253355,288.43,286.772,254.572,289.835,288.306,261.66,0.368698,0.327715,236.742,256.181
2016-03-11 22:00,0.0,286.569,286.328,254.336,289.434,287.748,261.301,0.0,0.0,236.274,255.821
2016-03-11 23:00,-0.0147825,286.864,286.55,253.98,289.701,287.888,261.301,-0.00625817,-0.00746192,236.207,255.639
2016-03-12 00:00,0.0,286.569,285.994,254.572,289.166,287.609,261.301,0.0,0.0,236.742,256.001
2016-03-12 01:00,0.0,285.202,285.321,254.336,288.358,286.626,261.182,0.0,0.0,237.137,256.001
2016-03-12 02:00,-0.00140599,286.121,286.439,255.277,289.701,288.027,261.54,0.0,0.0,236.742,255.821
2016-03-12 03:00,0.0,286.421,286.328,255.51,289.568,287.609,260.822,0.0,0.0,235.386,254.999
2016-03-12 04:00,0.0,286.271,286.217,255.16,289.568,288.027,261.301,0.0,0.0,235.178,254.722
2016-03-12 05:00,0.0,286.121,286.105,255.51,289.434,287.748,261.182,0.0,0.0,235.386,254.999
2016-03-12 06:00,0.0,285.665,285.658,255.16,288.763,287.048,260.701,0.0,0.0,235.455,255.091
2016-03-12 07:00,0.00190366,284.41,284.071,254.808,287.27,285.777,260.461,0.0,0.0,235.178,255.275
2016-03-12 08:00,0.0,286.121,285.994,255.742,289.166,287.469,260.701,0.0,0.0,234.041,255.091
2016-03-12 09:00,0.0,279.859,280.549,253.02,284.22,283.339,259.614,0.0,0.0,233.382,255.275
2016-03-12 10:00,0.397447,283.76,283.611,254.336,286.722,285.493,261.182,0.90601,0.771628,232.784,255.275
2016-03-12 11:00,0.0392175,287.01,286.55,255.858,289.835,288.445,261.301,0.195543,0.114378,232.405,255.821
2016-03-12 12:00,0.0244343,287.155,286.328,255.858,289.568,288.445,261.301,0.117924,0.0666032,232.709,256.45
2016-03-12 13:00,0.0142914,286.864,286.661,256.32,289.968,288.584,261.301,0.077141,0.0396772,231.787,256.001
2016-03-12 14:00,0.0268346,286.864,282.566,254.336,284.641,281.441,256.285,0.0719491,0.0466569,229.685,252.634
2016-03-12 15:00,0.00816656,286.864,286.105,255.858,289.032,287.469,260.581,0.0460974,0.0247339,231.63,256.271
2016-03-12 16:00,0.0133832,287.3,287.212,256.778,290.234,289.137,262.373,0.04306,0.022969,231.865,256.805
2016-03-12 17:00,0.01979,288.568,287.102,257.006,290.5,289.137,262.017,0.0490716,0.0299687,230.348,256.001
2016-03-12 18:00,0.118104,292.534,285.208,256.089,288.763,287.609,261.301,0.121916,0.119233,230.996,255.911
2016-03-12 19:00,0.0886038,289.91,285.77,256.32,288.628,286.907,260.822,0.127361,0.101932,229.852,254.443
2016-03-12 20:00,0.326927,288.43,278.226,252.168,280.785,278.911,254.9,0.356657,0.355441,226.871,248.987
2016-03-12 21:00,1.23511,292.294,283.495,255.51,287.407,286.626,260.942,0.81411,1.08119,229.348,254.629
2016-03-12 22:00,-0.013833,279.081,279.58,253.261,283.23,283.049,259.249,0.0,0.0,230.755,253.88
2016-03-12 23:00,-0.0111577,287.3,287.322,257.233,290.632,289.137,261.421,-0.00629812,-0.0112643,232.02,252.634
2016-03-13 00:00,0.0,285.97,286.328,257.006,289.701,288.445,261.66,0.0,0.00225263,231.473,252.244
2016-03-13 01:00,0.0,284.249,282.799,255.16,285.34,283.339,257.653,0.0,0.0,228.835,249.617
2016-03-13 02:00,0.0,283.76,284.185,256.205,287.543,286.06,261.062,0.0,0.0,230.018,252.439
2016-03-13 03:00,-0.00129439,286.569,286.661,256.892,289.835,288.306,261.301,0.0,0.0,229.433,252.731
2016-03-13 04:00,0.0,286.421,286.772,257.233,289.835,288.584,261.66,0.0,0.0,229.601,253.595
2016-03-13 05:00,0.00134293,286.569,286.55,257.12,289.568,287.888,261.421,0.0,0.0,230.835,254.068
2016-03-13 06:00,0.00152666,284.888,285.321,256.434,288.493,287.048,260.098,0.0,0.0,230.996,254.722
2016-03-13 07:00,0.0,279.278,280.909,253.98,284.361,283.773,259.735,0.0,0.0,230.996,255.183
2016-03-13 08:00,0.0,279.278,280.429,253.621,283.656,282.758,259.249,0.0,0.0,231.552,255.366
2016-03-13 09:00,-0.00608997,283.76,283.611,255.043,286.172,284.779,260.098,0.0,0.0,232.633,255.73
2016-03-13 10:00,1.21705,280.239,278.845,252.412,282.087,281.588,259.005,1.24125,1.36831,233.085,256.091
2016-03-13 11:00,0.773037,290.939,279.091,252.534,282.374,281.293,258.147,0.650893,0.689377,233.53,255.275
2016-03-13 12:00,0.446085,292.534,279.702,253.14,282.946,282.467,258.882,0.447492,0.482168,234.615,255.911
2016-03-13 13:00,0.0248756,287.871,285.658,255.626,288.358,286.485,259.977,0.093275,0.0502267,234.543,256.001
2016-03-13 14:00,0.0816534,289.779,284.869,255.51,287.543,285.919,260.34,0.123187,0.089928,234.401,255.73
2016-03-13 15:00,0.010851,286.569,285.994,256.205,288.763,286.907,260.822,0.0470859,0.0273867,234.968,255.457
2016-03-13 16:00,0.0120077,286.717,285.095,255.974,287.679,285.635,260.219,0.0451863,0.0282859,233.896,253.88
2016-03-13 17:00,0.0211413,287.3,285.095,255.742,287.407,285.35,259.249,0.0537008,0.0369952,232.784,252.439
2016-03-13 18:00,0.162908,293.587,281.86,254.217,284.921,283.049,259.249,0.16115,0.144925,233.382,252.731
2016-03-13 19:00,0.763803,298.726,272.931,249.414,277.075,276.938,257.53,0.707557,0.78976,234.756,254.068
2016-03-13 20:00,0.950759,294.156,275.306,250.806,278.725,278.458,258.023,0.855319,0.978793,233.677,254.068
2016-03-13 21:00,1.20447,283.594,274.392,250.555,277.226,277.243,257.158,0.987139,1.28614,232.557,253.021
2016-03-13 22:00,-0.0141504,276.155,277.224,252.168,280.201,279.81,258.27,0.0,0.0,232.328,253.309
2016-03-13 23:00,-0.00748614,267.761,264.94,245.859,266.508,265.65,248.634,-0.0063385,-0.0113366,227.42,246.145
2016-03-14 00:00,0.0,272.58,272.796,249.924,275.55,275.085,256.035,0.0,0.0,228.224,250.442
2016-03-14 01:00,-0.00167706,278.684,277.977,253.261,280.931,280.257,258.392,0.0,0.0,229.685,251.949
2016-03-14 02:00,0.0,274.787,276.336,252.29,279.76,279.511,258.882,0.0,0.0,231.236,252.925
2016-03-14 03:00,-0.00129865,285.045,284.185,256.434,287.134,285.065,260.219,0.0,0.0,231.473,253.405
2016-03-14 04:00,0.0,286.421,286.217,257.572,289.3,287.609,261.421,0.0,0.0,232.557,255.091
2016-03-14 05:00,0.0,286.569,286.439,257.346,289.434,287.888,261.301,0.0,0.0,231.236,254.814
2016-03-14 06:00,-0.00153418,286.421,286.439,257.233,289.3,287.748,261.421,0.0,0.0,230.755,255.548
2016-03-14 07:00,0.00192821,286.271,286.328,256.778,289.032,287.469,261.182,0.0,0.0,229.685,255.639
2016-03-14 08:00,0.0,283.594,283.264,255.277,286.585,284.636,260.34,0.0,0.0,230.674,256.091
2016-03-14 09:00,0.0,285.202,285.658,256.32,288.628,286.626,260.942,0.0,0.0,230.184,254.629
2016-03-14 10:00,0.479631,285.97,283.841,255.626,286.86,284.779,259.735,0.748085,0.637127,229.348,252.731
2016-03-14 11:00,0.0423349,285.665,284.3,255.858,286.86,284.779,259.614,0.193563,0.115397,228.312,252.537
2016-03-14 12:00,0.0144339,286.717,286.217,257.006,289.166,287.188,260.581,0.109991,0.0558591,228.488,253.5
2016-03-14 13:00,0.0247433,285.357,282.096,254.572,284.361,282.028,257.282,0.092779,0.0570967,228.488,253.117
2016-03-14 14:00,0.153766,268.073,243.273,233.849,239.669,236.872,227.77,0.217823,0.232854,221.484,231.031
2016-03-14 15:00,0.193299,287.3,275.694,251.676,277.377,274.929,253.625,0.215169,0.206064,228.835,251.452
2016-03-14 16:00,0.319238,281.526,267.764,246.934,269.021,267.506,250.369,0.369407,0.396147,228.921,249.303
2016-03-14 17:00,0.158807,276.155,263.401,244.349,263.393,260.584,245.072,0.205858,0.21424,227.601,243.457
2016-03-14 18:00,0.159209,283.924,273.199,249.924,274.156,271.283,250.896,0.182459,0.176966,228.662,248.882
2016-03-14 19:00,0.50744,291.065,278.968,253.381,280.785,279.511,256.909,0.492017,0.497831,230.018,253.117
2016-03-14 20:00,1.00827,296.114,278.598,253.621,281.943,281.441,258.638,0.848432,0.951934,230.018,254.443
2016-03-14 21:00,0.945942,270.151,246.942,236.625,245.248,244.112,235.537,0.742796,0.939582,225.352,232.829
2016-03-14 22:00,-0.0144797,285.202,285.433,257.233,288.358,287.048,261.301,0.0,-0.0146181,232.784,258.543
2016-03-14 23:00,-0.0113015,285.512,285.994,256.664,288.628,287.329,261.779,-0.00956899,-0.0114096,234.615,259.471
2016-03-15 00:00,0.0,284.41,285.208,256.892,288.222,287.048,261.301,0.0,0.0,236.408,259.471
2016-03-15 01:00,0.0,286.271,286.772,257.91,289.568,288.027,261.421,0.0,0.0,233.01,257.855
2016-03-15 02:00,-0.00141968,282.923,282.448,255.742,284.781,283.049,258.515,0.0,0.0,231.394,255.548
2016-03-15 03:00,0.0,286.121,286.661,257.798,289.434,287.748,261.54,0.0,0.0,231.63,256.982
2016-03-15 04:00,0.0,284.73,285.882,257.233,288.628,287.469,261.301,0.0,0.0,231.709,256.894
2016-03-15 05:00,0.0,285.665,285.77,256.892,288.493,286.767,260.701,0.0,0.0,234.185,257.508
2016-03-15 06:00,0.0,285.97,286.772,257.12,289.835,288.306,261.182,0.0,0.0,236.408,258.286
2016-03-15 07:00,0.00194095,286.121,286.661,257.459,289.968,288.306,261.301,0.0,0.0,234.329,255.911
2016-03-15 08:00,0.0,283.924,285.095,256.778,288.493,287.188,260.701,0.0,0.0,234.185,255.091
2016-03-15 09:00,0.0,284.41,284.982,256.664,288.222,286.626,260.581,0.0,0.0,233.968,254.162
2016-03-15 10:00,0.510575,286.421,285.321,256.664,288.358,286.767,260.34,0.786005,0.656034,233.308,253.785
2016-03-15 11:00,0.162786,283.428,277.098,251.922,278.128,276.169,252.982,0.28273,0.235979,230.018,247.808
2016-03-15 12:00,0.133687,286.271,281.386,254.217,283.938,281.882,257.406,0.187981,0.147016,231.709,250.849
2016-03-15 13:00,0.0298875,286.569,285.882,256.892,288.897,287.188,260.34,0.0967571,0.0603464,232.557,253.5
2016-03-15 14:00,0.0559565,280.982,272.931,249.797,273.686,270.473,249.438,0.10099,0.0847371,229.517,247.151
2016-03-15 15:00,0.269442,289.91,279.58,253.741,282.803,281.588,258.638,0.255513,0.265217,231.787,253.595
2016-03-15 16:00,0.0384603,287.3,284.185,256.434,286.722,284.779,258.76,0.0651286,0.0455225,230.916,253.117
2016-03-15 17:00,0.0294302,286.121,283.264,256.089,286.31,284.205,258.023,0.0617031,0.0452748,230.511,252.146
2016-03-15 18:00,0.248547,267.444,246.523,236.625,245.471,243.679,233.661,0.33128,0.375575,227.147,234.694
2016-03-15 19:00,0.165178,291.931,284.755,257.233,287.815,286.202,260.098,0.176115,0.164698,231.156,252.439
2016-03-15 20:00,0.433561,293.356,284.185,256.664,287.134,285.35,260.098,0.401183,0.412694,231.787,253.309
2016-03-15 21:00,0.753969,288.568,283.38,256.205,286.172,284.779,259.249,0.600082,0.692671,230.835,253.117
2016-03-15 22:00,0.0,285.665,285.882,257.798,289.032,287.329,260.701,0.0,0.0,230.266,253.5
2016-03-15 23:00,-0.0113747,283.76,283.264,256.205,285.618,284.061,258.882,-0.00963092,-0.00765561,229.601,252.047
2016-03-16 00:00,0.00225959,278.684,275.565,251.552,277.377,274.929,253.368,0.0,0.0,230.184,251.452
2016-03-16 01:00,0.0,283.428,283.956,255.974,287.27,285.635,260.822,0.0,0.0,231.63,255.73
2016-03-16 02:00,0.0,285.045,285.77,256.778,288.763,287.188,260.822,0.0,0.0,232.935,256.539
2016-03-16 03:00,0.00130744,285.357,285.994,256.434,289.032,287.748,260.822,0.0,0.0,234.897,256.539
2016-03-16 04:00,0.0,284.73,285.208,256.205,288.493,287.048,260.701,0.0,0.0,236.341,256.982
2016-03-16 05:00,0.0,285.512,285.994,255.742,289.166,287.609,260.701,0.0,0.0,237.203,256.36
2016-03-16 06:00,0.0,283.594,284.185,254.926,287.27,285.777,259.856,0.0,0.0,237.721,256.45
2016-03-16 07:00,-0.00195401,284.41,284.869,255.393,288.222,286.485,260.34,0.0,0.0,238.041,256.091
2016-03-16 08:00,0.00581241,284.249,284.755,255.51,288.087,286.626,259.735,0.0,0.0,238.294,255.366
2016-03-16 09:00,0.0,285.357,285.321,255.974,288.493,287.048,259.614,0.0,0.0,238.357,255.73
2016-03-16 10:00,0.214704,285.818,285.546,255.974,288.763,287.048,260.098,0.672622,0.476865,0.0,0.0
2016-03-16 11:00,0.028813,285.97,285.882,256.089,289.3,287.748,260.219,0.191682,0.112198,238.483,255.639
2016-03-16 12:00,0.0165846,285.97,285.882,255.858,289.166,287.329,259.977,0.110331,0.0597969,238.357,255.548
2016-03-16 13:00,0.0104938,286.121,285.77,256.32,289.166,287.329,259.977,0.075523,0.0406107,239.166,256.271
2016-03-16 14:00,0.00733336,286.121,286.217,256.32,289.434,287.329,259.977,0.0546405,0.0266525,238.42,256.36
2016-03-16 15:00,0.00537111,286.271,286.105,256.205,289.568,287.748,260.461,0.0432033,0.0216898,237.333,255.457
2016-03-16 16:00,0.00661189,286.271,286.217,256.434,289.434,287.609,260.219,0.0380683,0.0200253,235.799,255.183
2016-03-16 17:00,0.00838568,286.421,286.217,256.549,289.3,287.329,260.098,0.0414175,0.0225756,236.542,254.814
2016-03-16 18:00,0.0191883,287.155,286.105,256.549,289.032,287.048,259.614,0.0582173,0.0371291,235.662,254.443
2016-03-16 19:00,0.140246,286.864,279.336,252.534,281.51,278.911,254.773,0.1807,0.16621,231.156,250.442
2016-03-16 20:00,0.305141,293.472,285.433,256.32,288.087,286.06,259.492,0.305337,0.283164,238.671,256.271
2016-03-16 21:00,0.350346,283.261,281.742,254.454,284.501,283.194,258.76,0.435489,0.406373,235.525,254.722
2016-03-16 22:00,-0.0151772,285.045,283.956,255.393,286.447,284.349,258.27,0.0,0.0,234.615,254.162
2016-03-16 23:00,-0.0152649,285.818,284.414,255.626,286.722,284.636,258.76,-0.00969359,-0.0115581,237.006,254.629
2016-03-17 00:00,0.0,266.466,268.199,247.332,271.464,271.444,253.368,0.0,0.00229096,238.041,254.349
2016-03-17 01:00,-0.00169494,270.989,271.574,249.414,274.778,274.304,254.519,0.0,0.0,233.677,252.146
2016-03-17 02:00,0.0,266.131,267.18,246.801,269.515,269.494,252.723,0.0,0.0,233.896,252.146
2016-03-17 03:00,0.0,270.434,270.746,247.597,272.899,272.565,253.625,0.0,0.0,235.247,253.309
2016-03-17 04:00,0.0,261.666,261.662,242.799,262.863,262.008,247.279,0.0,0.0,234.257,250.238
2016-03-17 05:00,0.0013655,251.944,247.15,235.173,247.662,245.824,234.76,0.0,0.0,231.156,243.937
2016-03-17 06:00,0.0,278.075,276.463,249.669,279.17,277.396,255.532,0.0,0.0,236.808,254.536
2016-03-17 07:00,0.0,273.831,271.162,247.332,274.0,272.565,252.853,0.0,0.0,235.038,252.925
2016-03-17 08:00,0.0,281.165,279.702,251.799,281.943,279.959,256.035,0.0,0.00296461,233.085,253.88
2016-03-17 10:00,0.119826,285.357,284.414,255.043,287.27,284.779,258.76,0.524194,0.362916,230.101,249.303
2016-03-17 11:00,0.37351,285.665,277.977,252.168,280.054,277.548,254.519,0.470938,0.44266,228.835,245.804
2016-03-17 12:00,0.213988,263.255,249.781,237.572,249.579,247.708,237.373,0.356394,0.377466,227.329,236.033
2016-03-17 13:00,0.25404,270.151,254.69,240.32,255.244,253.703,242.671,0.394832,0.416322,230.266,241.475
2016-03-17 14:00,0.109569,274.787,265.394,245.04,263.92,262.361,245.905,0.206572,0.20206,227.329,237.748
2016-03-17 15:00,0.0508608,287.155,283.726,255.277,286.447,283.917,258.147,0.0895273,0.0770206,237.398,253.785
2016-03-17 16:00,0.0580198,287.444,279.702,253.621,282.087,279.661,256.909,0.0837363,0.0718868,239.532,254.536
2016-03-17 17:00,0.0696946,282.753,277.601,252.534,278.128,276.323,254.009,0.128643,0.109763,232.709,246.145
2016-03-17 18:00,0.0861112,263.636,258.703,241.936,256.98,257.671,245.211,0.251135,0.247924,231.394,241.728
2016-03-17 19:00,0.107381,289.247,284.3,255.858,286.585,284.349,259.005,0.152676,0.124771,242.211,258.543
2016-03-17 20:00,1.04006,294.268,270.746,248.771,273.372,273.042,255.027,0.955953,1.08717,242.6,257.769
2016-03-17 21:00,1.49647,284.57,269.908,247.597,272.264,271.605,252.853,1.17344,1.54799,241.59,256.716
2016-03-17 22:00,0.0,271.261,272.796,249.542,275.396,275.085,256.285,0.0,0.0,242.211,259.387
2016-03-17 23:00,-0.0115236,275.707,275.306,251.305,278.278,277.701,256.785,-0.00975703,-0.0116338,242.322,259.97
2016-03-18 00:00,-0.00227908,274.787,274.655,250.681,277.678,277.091,256.285,0.0,0.0,241.817,259.887
2016-03-18 01:00,-0.00170109,279.667,280.549,253.86,283.514,282.175,258.882,0.0,0.0,241.189,259.804
2016-03-18 02:00,0.0,282.408,282.682,255.043,285.757,284.205,259.735,0.0,0.0,240.43,260.135
2016-03-18 03:00,0.0,283.261,283.956,255.277,286.722,285.35,259.614,0.0,0.0,239.532,260.299
2016-03-18 04:00,0.0,284.57,284.755,255.858,287.951,286.06,260.098,0.0,0.0,238.919,260.217
2016-03-18 05:00,-0.00137146,286.421,286.992,256.549,290.101,288.584,261.182,0.0,0.0,238.483,260.052
2016-03-18 06:00,0.0,285.97,287.432,257.12,290.5,288.999,261.421,0.0,0.0,237.721,260.299
2016-03-18 07:00,0.00198106,285.665,286.882,256.664,289.968,288.861,260.822,0.0,0.0,237.721,260.052
2016-03-18 08:00,0.0,286.121,286.992,256.32,290.101,288.584,261.182,0.0,0.0,237.785,259.887
2016-03-18 09:00,0.0,286.271,287.212,256.32,290.367,289.137,261.66,0.0,0.0,238.546,260.708
2016-03-18 10:00,0.223978,286.864,287.212,256.549,290.234,289.137,261.898,0.616336,0.452238,239.593,260.789
2016-03-18 11:00,0.220286,289.113,286.105,256.089,289.3,287.888,261.062,0.291644,0.24261,238.231,260.627
2016-03-18 12:00,0.0560197,287.3,286.439,256.32,289.166,288.027,260.942,0.144272,0.0942587,236.207,259.638
2016-03-18 13:00,0.11599,278.075,264.329,245.177,264.618,261.477,243.525,0.167102,0.153802,230.184,248.455
2016-03-18 14:00,0.132431,290.429,285.321,256.205,288.493,287.329,260.942,0.151559,0.139574,234.756,259.051
2016-03-18 15:00,0.100065,289.113,285.546,256.549,288.628,287.329,261.66,0.125393,0.119879,232.557,258.028
2016-03-18 16:00,0.0197247,288.568,287.212,257.572,290.5,288.999,261.66,0.0501027,0.0318613,233.53,257.508
2016-03-18 17:00,0.0291958,289.113,287.102,257.346,290.367,288.999,261.898,0.0576801,0.042107,233.234,257.158
2016-03-18 18:00,0.11451,289.647,282.799,254.808,285.201,283.484,257.9,0.129274,0.115604,229.348,253.309
2016-03-18 19:00,0.153503,292.414,286.772,257.12,289.968,288.584,261.54,0.191536,0.171283,230.916,255.821
2016-03-18 20:00,0.40927,294.156,285.321,256.434,288.358,286.907,260.34,0.421523,0.407015,230.511,254.256
2016-03-18 21:00,0.649023,291.44,286.328,257.12,289.166,287.188,261.301,0.605097,0.611054,231.076,254.443
2016-03-18 22:00,-0.0159327,286.121,285.321,256.664,288.087,286.202,259.735,0.0,0.0,230.511,253.69
2016-03-18 23:00,-0.0193325,282.923,277.35,252.777,278.576,275.085,251.683,-0.00982126,-0.0117104,226.592,248.025
2016-03-19 00:00,-0.00228903,278.883,270.329,248.771,270.332,266.667,245.767,0.0,0.0,225.058,243.457
2016-03-19 01:00,-0.00170735,262.074,244.598,235.662,242.283,238.515,227.601,0.0,0.0,218.767,228.96
2016-03-19 02:00,0.0,259.954,243.719,235.337,241.815,238.978,229.615,0.0,0.0,220.57,229.489
2016-03-19 03:00,-0.0013213,260.395,246.313,235.985,244.8,242.143,232.387,0.0,0.0,221.708,231.53
2016-03-19 04:00,0.0,268.986,258.025,241.791,256.789,253.51,237.977,0.0,0.0,222.04,236.469
2016-03-19 05:00,0.0,273.088,263.712,244.626,263.92,261.299,244.372,0.0,0.0,225.254,240.835
2016-03-19 06:00,-0.00157446,258.576,250.954,238.503,251.036,248.736,238.876,0.0,0.0,226.499,238.441
2016-03-19 07:00,0.0,275.707,271.162,248.382,272.104,270.473,250.369,0.0,0.0,227.601,244.998
2016-03-19 08:00,-0.00299985,286.121,285.994,256.434,289.032,287.188,260.461,0.0,0.0,228.4,249.928
2016-03-19 09:00,-0.00699705,285.97,285.882,256.32,289.166,287.329,260.219,0.0,0.0,229.685,250.442
2016-03-19 10:00,0.175173,286.121,285.77,256.089,288.897,286.767,259.977,0.54878,0.389066,229.685,250.646
2016-03-19 11:00,0.110658,287.871,285.658,255.974,288.628,286.907,260.098,0.22085,0.155604,229.263,250.032
2016-03-19 12:00,0.115856,288.568,285.77,256.089,288.897,286.907,260.098,0.166762,0.123982,229.685,250.34
2016-03-19 13:00,0.0223933,287.3,285.546,256.205,288.493,286.626,259.856,0.0860511,0.0504319,230.018,250.34
2016-03-19 14:00,0.0188469,286.864,284.642,255.858,287.27,285.065,258.76,0.0687407,0.0409814,229.178,250.646
2016-03-19 15:00,0.0266013,286.121,281.624,253.741,283.656,281.146,255.909,0.0630653,0.0402834,228.224,249.408
2016-03-19 16:00,0.0262286,286.121,281.624,253.98,283.514,280.998,256.16,0.0632919,0.0436909,228.748,249.093
2016-03-19 17:00,0.145611,290.041,278.721,252.656,281.366,279.211,256.66,0.154991,0.145602,227.959,249.617
2016-03-19 18:00,0.364849,266.466,240.514,233.344,239.183,238.049,230.44,0.455317,0.509266,222.799,230.694
2016-03-19 19:00,0.326215,287.01,275.436,250.681,277.828,276.477,255.658,0.385324,0.41675,229.178,251.152
2016-03-19 20:00,0.556481,287.729,269.626,247.2,270.006,267.506,248.768,0.556136,0.620129,227.055,246.707
2016-03-19 21:00,0.901974,280.613,269.485,247.597,269.515,268.67,250.633,0.843125,1.04901,225.931,245.69
2016-03-19 22:00,-0.0163348,267.123,260.201,242.513,259.791,258.224,243.808,0.0,-0.016491,227.51,243.577
2016-03-19 23:00,-0.0155684,280.239,276.336,250.555,277.528,275.551,253.625,-0.00988633,-0.0157173,227.87,249.617
2016-03-20 00:00,-0.00229912,264.377,256.644,240.766,256.213,254.281,241.808,0.0,0.0,226.685,240.446
2016-03-20 01:00,-0.00171371,269.865,261.982,243.084,262.685,260.764,244.512,0.0,-0.0017301,226.963,243.214
2016-03-20 02:00,-0.00144429,271.261,273.199,248.9,276.315,275.861,256.66,0.0,0.0,228.312,251.152
2016-03-20 03:00,0.0,271.798,272.256,248.642,274.778,274.304,254.137,0.0,0.0,227.51,250.238
2016-03-20 04:00,0.0,261.251,257.854,240.766,258.304,256.928,243.241,0.0,0.0,226.499,242.105
2016-03-20 05:00,-0.00138375,266.797,263.088,243.93,263.92,263.237,247.279,0.0,0.0,226.122,243.818
2016-03-20 06:00,0.0,269.283,264.329,243.93,265.482,264.106,248.094,0.0,0.0,226.963,245.114
2016-03-20 07:00,0.0,282.059,279.458,252.045,281.799,279.511,256.785,0.0,0.0,228.835,251.152
2016-03-20 08:00,0.0,284.087,283.611,254.099,286.585,284.636,259.856,0.0,0.0,230.43,254.256
2016-03-20 09:00,0.0,284.888,285.321,254.69,288.087,286.485,260.219,0.0,0.0,231.315,254.536
2016-03-20 10:00,0.132015,286.864,286.55,255.277,289.3,287.329,260.581,0.502997,0.349853,231.943,254.907
2016-03-20 11:00,0.027303,286.717,286.661,255.16,289.434,287.469,260.701,0.175032,0.0945053,232.02,254.999
2016-03-20 12:00,0.0299058,287.729,286.772,255.277,289.568,288.027,260.942,0.109076,0.0603834,233.085,255.457
2016-03-20 13:00,0.00857049,287.155,286.882,255.393,289.835,288.027,261.182,0.0725662,0.0380706,233.603,256.36
2016-03-20 14:00,0.0129992,287.3,286.772,255.626,289.701,288.027,261.421,0.0587009,0.0335378,232.935,255.911
2016-03-20 15:00,0.00928218,287.444,286.882,255.742,289.701,288.027,261.301,0.0471552,0.0254353,233.382,255.911
2016-03-20 16:00,0.043163,287.871,285.208,254.69,287.951,286.343,260.34,0.0675548,0.0541394,232.175,255.275
2016-03-20 17:00,0.0442675,287.729,285.321,255.277,287.951,285.919,260.219,0.0702773,0.0558633,230.674,254.814
2016-03-20 18:00,0.0886098,285.045,277.35,250.931,278.427,276.169,253.111,0.115218,0.100639,227.691,248.669
2016-03-20 19:00,0.158613,288.705,280.909,252.899,283.088,281.146,256.535,0.178497,0.170264,228.048,251.051
2016-03-20 20:00,0.375458,289.381,276.208,250.303,277.528,274.46,251.814,0.379429,0.394332,229.007,249.721
2016-03-20 21:00,1.04271,285.665,269.767,247.332,269.679,267.339,248.499,0.834484,1.02384,225.156,242.105
2016-03-20 22:00,0.0,282.581,278.35,251.799,279.76,277.091,253.111,0.0,0.0,227.055,248.348
2016-03-20 23:00,-0.0156723,280.239,275.436,249.669,275.703,273.675,252.853,-0.0132697,-0.0158221,226.592,244.881
2016-03-21 00:00,0.0,285.818,285.095,255.742,287.815,286.06,260.098,0.0,0.0,229.517,251.751
2016-03-21 01:00,0.0,287.3,286.992,256.778,290.234,288.584,261.779,0.0,0.0,231.076,252.925
2016-03-21 02:00,-0.00144949,286.121,286.439,256.32,289.701,288.027,261.421,0.0,0.0,229.852,253.5
2016-03-21 03:00,0.0,286.421,286.772,256.549,289.701,288.306,261.182,0.0,0.0,230.101,254.722
2016-03-21 04:00,0.00131343,285.818,286.328,256.205,289.166,287.609,261.66,0.0,-0.00132598,229.007,253.88
2016-03-21 05:00,0.0,285.512,285.546,255.742,288.493,286.907,260.822,0.0,0.0,229.348,253.88
2016-03-21 06:00,0.00159182,277.026,269.059,246.667,269.021,266.329,246.319,0.0,0.0,225.643,243.336
2016-03-21 07:00,0.00202403,283.594,281.505,253.86,283.23,280.998,256.285,0.0,0.0,227.51,250.032
2016-03-21 08:00,0.0,280.982,275.176,249.797,275.55,273.042,251.028,0.0,0.0,226.778,246.145
2016-03-21 09:00,0.0,286.271,284.642,256.089,287.407,285.065,258.023,0.0,0.0,229.007,252.537
2016-03-21 10:00,0.155976,287.01,286.55,257.12,289.835,288.027,261.66,0.449019,0.314933,229.852,0.0
2016-03-21 11:00,0.115508,288.705,286.217,257.006,289.568,288.027,260.822,0.221681,0.155483,231.943,251.85
2016-03-21 12:00,0.0593868,288.705,286.992,257.572,290.234,288.861,262.136,0.127641,0.080708,233.382,253.213
2016-03-21 13:00,0.0272928,288.705,287.322,257.572,290.632,289.276,261.779,0.0823249,0.0516631,232.935,254.256
2016-03-21 14:00,0.0172688,287.871,287.541,258.134,290.897,289.551,261.898,0.0597043,0.033415,232.251,254.068
2016-03-21 15:00,0.0118987,288.012,287.541,257.91,290.764,289.137,262.017,0.0458956,0.0266944,232.784,254.349
2016-03-21 16:00,0.0300059,288.977,287.212,257.91,290.5,289.276,262.492,0.0541257,0.0368781,231.943,254.068
2016-03-21 17:00,0.0441617,288.291,285.208,256.549,287.815,286.202,259.37,0.0677723,0.0501568,230.101,252.342
2016-03-21 18:00,0.089972,284.57,276.718,251.799,278.576,276.477,252.723,0.118946,0.111548,227.601,247.481
2016-03-21 19:00,0.0800812,289.113,284.071,256.664,286.722,284.779,259.856,0.118658,0.0970161,229.601,251.949
2016-03-21 20:00,0.256299,293.356,286.992,257.798,290.101,288.445,261.421,0.275727,0.255705,230.674,254.068
2016-03-21 21:00,0.494927,287.3,281.386,254.808,283.088,281.441,257.158,0.442999,0.499658,227.42,249.198
2016-03-21 22:00,0.0,286.421,286.439,258.134,289.3,287.888,261.898,0.0,0.0,229.517,253.405
2016-03-21 23:00,-0.0157776,286.864,287.432,258.691,290.234,288.861,262.136,-0.0133589,-0.0159284,230.996,254.256
2016-03-22 00:00,-0.00231973,286.271,286.882,258.358,289.835,288.445,262.373,0.0,0.0,230.511,254.162
2016-03-22 01:00,0.0,286.421,286.992,258.358,290.101,288.722,262.136,0.0,-0.00174326,229.517,253.974
2016-03-22 02:00,0.0,286.717,287.322,258.246,290.5,289.276,262.255,0.0,0.0,230.101,254.443
2016-03-22 03:00,0.0,285.045,285.77,257.233,288.628,287.329,261.54,0.0,0.0,229.348,253.595
2016-03-22 04:00,0.0,284.73,285.321,257.12,288.087,286.626,261.421,0.0,0.0,229.433,254.443
2016-03-22 05:00,0.0,285.512,285.658,257.572,288.358,287.048,261.421,0.0,0.0,229.517,254.443
2016-03-22 06:00,0.0,283.428,281.742,255.277,284.22,282.467,258.27,0.0,0.0,229.263,253.117
2016-03-22 07:00,-0.002039,285.818,285.882,257.572,288.493,286.907,261.182,0.0,0.0,229.433,254.256
2016-03-22 08:00,0.0,281.346,281.978,255.393,285.201,283.917,260.461,0.0,-0.00313132,230.018,254.814
2016-03-22 09:00,0.0,285.665,286.328,257.685,289.3,287.748,262.255,0.0,0.0,230.511,255.275
2016-03-22 10:00,0.280962,288.152,287.102,258.58,289.835,288.167,262.136,0.538383,0.418008,230.593,255.457
2016-03-22 11:00,0.182475,288.291,285.658,257.685,287.815,286.343,260.942,0.280033,0.226436,229.935,254.814
2016-03-22 12:00,0.122478,275.932,266.293,246.399,265.826,264.279,247.415,0.213165,0.194632,225.739,243.214
2016-03-22 13:00,0.020372,288.43,287.322,259.354,290.367,288.861,262.61,0.0790576,0.0462752,228.835,255.73
2016-03-22 14:00,0.0444507,287.3,282.566,256.205,284.921,283.049,258.147,0.0825571,0.0636944,229.263,254.814
2016-03-22 15:00,0.0184553,288.291,287.978,259.354,291.029,289.964,262.728,0.0491105,0.0306093,229.685,256.36
2016-03-22 16:00,0.0169173,288.152,287.978,259.134,291.029,289.689,263.2,0.0462771,0.028903,230.511,256.894
2016-03-22 17:00,0.0371749,287.729,284.071,257.12,286.31,284.349,258.638,0.0664491,0.0514303,229.433,254.162
2016-03-22 18:00,0.130702,283.76,270.746,249.542,270.981,268.007,247.823,0.163997,0.157387,225.643,246.595
2016-03-22 19:00,0.147739,290.558,285.77,258.134,288.087,286.485,260.942,0.170732,0.159229,230.916,256.181
2016-03-22 20:00,0.42643,289.113,275.306,252.168,275.242,272.883,252.205,0.40174,0.406252,227.238,248.025
2016-03-22 21:00,0.203037,287.155,286.439,258.913,288.897,287.609,262.017,0.284543,0.261524,230.593,256.45
2016-03-22 22:00,-0.0353085,282.234,276.971,253.14,277.377,274.929,252.982,0.0,0.0,227.055,248.775
2016-03-22 23:00,-0.0158844,278.883,269.767,248.771,270.495,267.004,245.211,-0.0134493,-0.0200453,229.601,250.748
2016-03-23 00:00,-0.00233027,286.421,286.55,258.691,289.032,287.609,261.54,0.0,0.00235255,230.996,255.73
2016-03-23 01:00,-0.00173344,286.569,285.77,258.358,288.087,286.343,259.735,0.0,0.0,229.348,255.457
2016-03-23 02:00,0.0,284.57,283.495,257.12,285.618,283.629,258.76,0.0,0.0,229.263,254.162
2016-03-23 03:00,-0.00134109,285.045,283.148,257.006,285.061,283.049,258.515,0.0,0.0,229.517,254.999
2016-03-23 04:00,0.0,287.3,287.102,259.464,289.701,287.888,262.373,0.0,0.0,229.601,255.275
2016-03-23 05:00,0.0,286.717,286.105,258.691,288.493,286.626,260.822,0.0,0.0,228.748,254.629
2016-03-23 06:00,-0.00160988,286.864,287.102,259.024,289.835,288.027,262.017,0.0,0.0,229.601,255.73
2016-03-23 07:00,0.0,285.045,283.38,257.006,285.479,283.484,258.76,0.0,0.0,228.488,254.162
2016-03-23 08:00,0.0,286.717,287.541,259.244,290.101,288.722,262.255,0.0,0.0,230.184,256.805
2016-03-23 09:00,0.0,285.665,284.869,257.798,287.407,285.777,260.461,0.0,0.0,229.517,255.457
2016-03-23 10:00,0.688846,285.512,279.945,254.926,281.655,279.81,256.66,0.761789,0.738009,227.959,253.021
2016-03-23 11:00,0.304095,265.095,247.973,236.943,245.693,244.112,234.134,0.441843,0.462398,222.476,231.859
2016-03-23 12:00,0.117128,278.684,265.696,246.533,264.965,261.299,243.525,0.200251,0.175097,224.054,243.577
2016-03-23 13:00,0.0726573,282.581,273.599,251.18,274.0,270.635,249.971,0.134483,0.115998,225.352,246.258
2016-03-23 14:00,0.167174,261.666,244.598,235.662,243.209,241.698,232.867,0.245588,0.255322,223.329,232.508
2016-03-23 15:00,0.161682,262.074,241.218,234.017,239.669,238.049,230.768,0.237064,0.250813,222.15,231.364
2016-03-23 16:00,0.166164,262.074,240.984,233.849,240.392,239.208,231.581,0.229721,0.246386,223.013,232.022
2016-03-23 17:00,0.115394,277.24,261.179,245.314,261.069,257.301,240.354,0.151209,0.158103,223.746,240.446
2016-03-23 18:00,0.103693,286.864,278.474,255.043,279.17,276.477,254.009,0.126374,0.111028,225.643,247.699
2016-03-23 19:00,0.290699,279.859,261.501,245.04,259.974,256.742,240.793,0.308511,0.31961,222.585,238.441
2016-03-23 20:00,0.364917,288.43,276.591,253.14,276.923,273.675,251.683,0.367224,0.374445,225.835,247.04
2016-03-23 21:00,0.797455,286.717,275.823,252.656,276.468,273.99,252.335,0.645847,0.770075,225.931,246.258
2016-03-23 22:00,0.0,281.346,277.224,253.86,278.427,275.551,253.368,0.0,0.0,226.592,246.371
2016-03-23 23:00,-0.019991,268.686,255.764,241.646,254.461,250.957,237.676,-0.013541,-0.0201821,223.538,235.295
2016-03-24 00:00,0.0,273.088,264.788,247.067,262.863,256.367,241.953,0.0,0.0,225.931,240.185
2016-03-24 01:00,-0.00174023,276.155,271.984,251.056,273.057,268.339,249.705,0.0,0.0,226.592,244.056
2016-03-24 02:00,-0.00146565,260.827,255.05,241.936,255.244,253.122,242.671,0.0,0.0,226.592,240.835
2016-03-24 03:00,0.0,272.836,266.145,247.465,265.826,262.712,245.211,0.0,0.0,225.156,240.185
2016-03-24 04:00,0.0,273.088,264.788,246.533,264.618,259.139,243.241,0.0,0.0,227.78,241.728
2016-03-24 05:00,0.0,273.586,267.033,247.728,267.69,263.759,247.142,0.0,0.0,228.312,243.698
2016-03-24 06:00,0.00161918,284.087,281.386,255.393,283.088,280.108,256.035,0.0,0.0,227.87,246.371
2016-03-24 07:00,0.0,280.799,277.852,253.621,280.054,277.853,255.28,0.0,0.0,228.575,246.371
2016-03-24 08:00,0.0,257.103,247.769,237.415,247.662,244.544,236.918,0.0,-0.00320466,227.959,236.757
2016-03-24 09:00,-0.00801343,279.081,277.977,253.261,280.785,279.211,256.785,0.0,0.0,229.517,248.025
2016-03-24 10:00,0.777101,275.932,269.626,248.382,270.819,269.0,250.104,0.794102,0.852162,228.662,244.998
2016-03-24 11:00,0.300375,258.096,245.463,235.662,245.471,244.328,236.307,0.477256,0.524131,228.488,237.468
2016-03-24 12:00,0.371366,296.114,277.098,252.656,280.639,279.211,257.158,0.329588,0.32297,230.593,249.093
2016-03-24 13:00,0.0925051,289.514,282.214,255.16,284.641,281.735,257.653,0.129591,0.101879,231.076,248.348
2016-03-24 14:00,0.133846,271.798,262.458,244.07,261.791,260.584,245.905,0.237505,0.240064,230.996,240.964
2016-03-24 15:00,0.194004,267.444,252.29,239.57,252.465,250.156,239.618,0.273031,0.289817,230.184,239.255
2016-03-24 16:00,0.110081,279.081,269.485,247.465,270.819,268.339,249.572,0.149128,0.143819,230.348,245.23
2016-03-24 17:00,0.230283,286.121,276.591,252.777,279.466,278.156,256.535,0.247207,0.251858,230.348,249.408
2016-03-24 18:00,0.368385,291.563,274.655,251.305,277.978,276.631,255.532,0.33713,0.351333,230.511,249.721
2016-03-24 19:00,0.379302,295.151,276.208,252.168,278.576,276.477,255.153,0.35142,0.374908,230.348,250.032
2016-03-24 20:00,0.834273,293.702,276.718,252.29,279.318,278.307,256.41,0.756833,0.845257,230.511,251.352
2016-03-24 21:00,0.659482,287.155,279.336,253.261,281.655,279.361,255.784,0.575832,0.651916,230.916,251.552
2016-03-24 22:00,0.0,268.986,265.545,245.723,266.167,265.138,248.768,0.0,0.0,230.755,247.04
2016-03-24 23:00,-0.0362313,271.798,272.527,249.542,274.467,274.46,255.532,-0.0170427,-0.0284493,232.557,253.117
2016-03-25 00:00,0.0,270.434,270.885,248.771,272.899,272.405,253.881,0.0,0.0,234.185,255.091
2016-03-25 01:00,-0.00174714,271.531,268.199,246.934,268.855,267.84,250.104,0.0,0.0,233.234,249.303
2016-03-25 02:00,0.0,272.322,273.865,249.924,276.01,275.861,255.532,0.0,0.0,238.294,257.158
2016-03-25 03:00,0.00135155,273.586,275.176,250.429,277.678,277.243,256.41,0.0,0.0,242.655,259.887
2016-03-25 04:00,0.0,282.581,282.096,254.099,284.501,283.049,258.76,0.0,0.0,243.74,260.463
2016-03-25 05:00,0.0,285.045,285.658,255.626,288.087,286.485,260.461,0.0,0.0,243.793,261.033
2016-03-25 06:00,0.0,285.97,286.105,255.974,288.628,286.907,259.977,0.0,0.0,243.686,260.627
2016-03-25 07:00,0.0,286.121,286.55,256.778,289.166,287.469,260.34,0.0,0.0,244.111,261.435
2016-03-25 08:00,-0.00321211,286.864,287.102,256.778,289.835,287.888,260.822,0.0,0.0,244.269,261.194
2016-03-25 09:00,-0.00825423,285.512,285.658,256.089,288.358,286.767,259.977,0.0,0.0,244.426,261.435
2016-03-25 10:00,0.358371,286.569,285.546,255.858,287.815,286.202,259.977,0.541843,0.465167,244.894,261.515
2016-03-25 11:00,0.109913,288.291,286.217,256.089,288.628,287.048,260.219,0.223352,0.162747,244.583,261.113
2016-03-25 12:00,0.0888868,289.91,286.217,256.32,288.763,287.048,260.942,0.142995,0.103197,245.048,261.515
2016-03-25 13:00,0.0485544,288.977,286.439,256.32,288.628,286.907,260.701,0.0978156,0.0659215,245.048,261.355
2016-03-25 14:00,0.0766299,289.113,285.77,256.549,288.087,286.485,260.098,0.109339,0.0888235,245.304,261.595
2016-03-25 15:00,0.0862805,288.291,284.755,256.32,287.27,285.919,260.701,0.107367,0.095024,245.859,261.914
2016-03-25 16:00,0.0697719,288.705,285.208,256.205,287.815,286.343,260.34,0.0908016,0.0730477,245.456,261.834
2016-03-25 17:00,0.0437701,288.152,285.882,257.12,288.087,286.343,260.942,0.0764365,0.0607593,245.405,262.151
2016-03-25 18:00,0.08916,289.514,285.433,256.892,287.543,285.777,259.856,0.12317,0.102646,245.253,261.834
2016-03-25 19:00,0.257506,290.041,283.611,255.742,285.895,284.492,259.856,0.28847,0.285964,245.151,261.914
2016-03-25 20:00,0.142478,290.939,287.212,258.134,289.701,287.748,260.942,0.188494,0.14384,244.635,261.515
2016-03-25 21:00,0.36076,290.301,287.432,258.022,289.835,287.748,261.301,0.374615,0.32985,244.842,261.595
2016-03-25 22:00,-0.019178,287.01,287.322,257.91,289.568,287.748,261.062,0.0,0.0,244.583,261.755
2016-03-25 23:00,-0.0486435,287.3,287.212,257.459,289.568,287.609,261.062,-0.0240254,-0.0409238,244.687,261.595
2016-03-26 00:00,0.0,286.717,286.772,257.459,289.166,287.469,260.701,0.0,0.0,245.202,261.914
2016-03-26 01:00,-0.00175417,287.01,287.869,258.134,290.234,288.306,261.421,0.0,0.0,245.355,261.993
2016-03-26 02:00,0.0,287.01,287.76,257.91,290.5,289.137,261.779,0.0,0.0,245.507,262.466
2016-03-26 03:00,0.0,286.421,287.322,257.685,289.968,288.584,261.779,0.0,0.0,245.658,262.701
2016-03-26 04:00,0.0,283.594,285.433,256.664,287.815,287.048,260.701,0.0,0.00135399,245.099,262.701
2016-03-26 05:00,0.0,286.864,287.541,257.685,290.101,288.861,262.255,0.0,0.0,245.202,262.935
2016-03-26 06:00,0.0,286.421,287.651,257.91,290.367,289.137,262.017,0.0,0.0,244.997,263.012
2016-03-26 07:00,0.0,286.121,286.992,257.459,289.701,288.584,261.54,0.0,0.0,244.842,263.09
2016-03-26 08:00,0.0,280.799,281.978,254.69,284.501,283.629,259.492,0.0,0.0,243.846,262.545
2016-03-26 09:00,0.0,282.923,283.611,255.51,286.033,285.208,259.735,0.0,-0.00859129,243.686,262.466
2016-03-26 10:00,0.196039,287.444,287.651,257.685,290.234,288.861,261.182,0.435714,0.321609,242.322,262.466
2016-03-26 11:00,0.0434462,287.729,288.087,258.134,290.897,289.413,261.421,0.171667,0.0986884,242.322,262.623
2016-03-26 12:00,0.0220754,287.01,287.869,257.798,290.764,289.276,261.66,0.10654,0.0601733,242.266,262.151
2016-03-26 13:00,0.13168,290.041,286.105,257.006,288.763,287.748,261.421,0.166534,0.151449,242.489,262.388
2016-03-26 14:00,0.158409,288.705,282.916,255.393,285.479,284.061,259.735,0.195199,0.192764,242.489,262.309
2016-03-26 15:00,0.0547605,287.871,287.651,258.022,290.101,288.445,261.779,0.0938352,0.0723957,242.655,262.779
2016-03-26 16:00,0.0283617,288.705,287.76,258.134,290.764,289.964,262.136,0.0502106,0.0351402,242.765,263.552
2016-03-26 17:00,0.0464099,288.841,287.212,257.91,290.234,289.137,262.017,0.0681888,0.0551219,243.364,263.552
2016-03-26 18:00,0.070242,289.779,287.432,257.91,290.234,288.861,262.492,0.0898715,0.0740652,243.579,263.399
2016-03-26 19:00,0.120531,291.686,287.541,257.91,290.234,288.722,262.017,0.135513,0.115699,243.526,263.552
2016-03-26 20:00,0.266161,293.702,287.76,258.134,290.234,288.722,261.898,0.262918,0.238849,243.31,263.476
2016-03-26 21:00,0.539669,290.813,286.882,257.572,289.3,287.888,261.421,0.479783,0.510776,242.875,263.399
2016-03-26 22:00,-0.0197409,286.864,287.651,258.246,289.968,288.445,261.779,0.0,0.0,242.765,263.244
2016-03-26 23:00,-0.0938862,287.155,287.322,257.685,289.968,288.167,261.66,-0.0345623,-0.0659365,242.489,263.322
2016-03-27 00:00,-0.00474808,286.569,287.869,257.91,290.632,289.413,262.492,0.0,0.0,242.489,263.629
2016-03-27 01:00,-0.00176131,285.97,287.322,257.346,290.234,288.999,262.373,0.0,0.0,242.433,263.399
2016-03-27 02:00,0.0,287.3,288.303,257.798,291.029,289.689,262.373,0.0,0.0,241.874,263.399
2016-03-27 03:00,0.0,283.924,285.095,255.974,287.407,286.767,261.301,0.0,0.0,241.476,262.623
2016-03-27 04:00,0.0,282.581,284.3,255.16,286.31,285.635,260.581,0.0,0.0,241.246,262.23
2016-03-27 05:00,0.0,285.97,287.212,257.006,289.968,288.861,262.017,0.0,0.0,240.782,262.701
2016-03-27 06:00,-0.00164812,282.408,283.38,254.572,285.895,285.208,259.977,0.0,0.00166388,240.841,261.595
2016-03-27 07:00,0.0,285.512,286.328,256.434,289.3,287.888,261.062,0.0,0.0,241.647,261.834
2016-03-27 08:00,-0.00329075,286.271,287.212,256.892,290.101,288.722,261.54,0.0,0.0,241.874,262.309
2016-03-27 09:00,0.0,282.923,283.956,254.69,286.722,285.777,260.098,0.0,-0.00886576,242.322,262.466
2016-03-27 10:00,0.29381,287.444,287.212,256.32,290.101,288.722,261.301,0.477635,0.391537,241.986,261.914
2016-03-27 11:00,0.0357855,287.729,288.087,257.006,291.16,290.101,261.779,0.163617,0.090319,241.874,261.993
2016-03-27 12:00,0.114049,290.939,286.992,256.434,289.835,288.722,261.66,0.16156,0.128424,242.211,262.545
2016-03-27 13:00,0.0697011,289.779,287.102,256.664,289.835,288.861,261.779,0.109601,0.0837708,241.986,262.545
2016-03-27 14:00,0.0972743,289.247,286.439,256.434,289.166,288.027,261.54,0.126527,0.111013,241.647,262.545
2016-03-27 15:00,0.0182064,288.012,287.76,257.459,290.764,289.551,262.136,0.0484482,0.0288836,241.76,262.545
2016-03-27 16:00,0.0205816,288.152,287.541,257.006,290.367,289.276,262.255,0.0501009,0.0298689,241.647,262.857
2016-03-27 17:00,0.0190718,288.568,287.869,257.233,290.5,288.999,261.66,0.0461374,0.0288812,241.874,262.623
2016-03-27 18:00,0.0405019,289.91,287.76,257.346,290.5,288.999,261.898,0.0672669,0.0487524,242.042,262.545
2016-03-27 19:00,0.0611061,290.558,287.978,257.685,290.897,289.413,262.136,0.0968009,0.0736303,241.93,262.466
2016-03-27 20:00,0.203322,292.771,288.303,258.134,291.029,289.826,261.898,0.227041,0.199316,241.704,262.545
2016-03-27 21:00,0.668667,293.124,287.76,257.798,290.5,289.413,262.255,0.537852,0.594052,242.266,262.545
2016-03-27 22:00,-0.0203356,287.155,287.869,257.798,291.029,289.413,262.136,-0.0172181,0.0,242.155,262.623
2016-03-27 23:00,-0.131547,284.888,285.882,256.434,288.493,287.469,261.421,-0.0591711,-0.103754,242.433,262.623
2016-03-28 00:00,0.0,286.864,287.978,257.346,290.632,289.551,261.898,0.0,0.0,242.433,262.935
2016-03-28 01:00,-0.00176857,287.444,288.412,257.572,291.292,290.238,262.965,0.0,0.0,241.76,263.09
2016-03-28 02:00,-0.00148857,284.73,285.882,256.205,288.493,287.609,262.017,0.0,0.0,240.841,262.935
2016-03-28 03:00,0.0,285.97,287.102,256.892,289.701,288.584,261.779,0.0,0.0,239.954,262.466
2016-03-28 04:00,0.0,287.01,287.869,257.233,290.632,289.137,262.017,0.0,0.0,239.043,262.309
2016-03-28 05:00,0.0,286.271,287.102,256.778,289.701,288.584,261.779,0.0,0.0,237.977,261.914
2016-03-28 06:00,0.0,285.357,286.217,256.089,288.897,287.188,260.581,0.0,0.0,237.657,261.275
2016-03-28 07:00,0.0,286.121,286.55,256.205,289.434,288.027,261.301,0.0,0.0,237.006,259.887
2016-03-28 08:00,0.0,287.155,287.76,256.549,290.632,289.276,261.898,0.0,0.0,237.137,260.052
2016-03-28 09:00,0.0,287.01,287.978,256.434,290.5,289.276,261.66,0.0,0.0,237.977,260.871
2016-03-28 10:00,0.463029,287.444,285.658,255.043,288.222,287.048,260.701,0.564164,0.524462,238.42,260.708
2016-03-28 11:00,0.045992,287.444,287.322,255.858,289.968,288.167,261.66,0.173738,0.10715,236.408,259.22
2016-03-28 12:00,0.0501235,284.41,280.308,252.412,282.231,280.108,254.773,0.129164,0.0924049,231.315,253.021
2016-03-28 13:00,0.0313963,285.357,280.789,252.656,282.517,279.959,254.9,0.0895434,0.0600564,230.511,252.828
2016-03-28 14:00,0.00562119,287.3,287.651,256.32,290.897,289.137,261.421,0.0499742,0.0255372,235.386,256.36
2016-03-28 15:00,0.0233494,287.871,286.992,256.778,290.234,288.861,261.66,0.0527197,0.0379781,236.071,256.982
2016-03-28 16:00,0.0115526,288.012,287.541,256.892,290.764,289.276,261.779,0.0380394,0.0220302,234.686,256.001
2016-03-28 17:00,0.0108771,288.43,287.651,256.778,290.764,289.137,262.017,0.0391409,0.0219622,234.185,255.911
2016-03-28 18:00,0.0202112,288.43,287.76,256.778,291.029,289.551,261.898,0.0552874,0.0345305,234.185,255.821
2016-03-28 19:00,0.212388,284.087,271.574,248.252,271.142,268.505,249.305,0.241437,0.246185,227.78,244.998
2016-03-28 20:00,0.0998347,290.558,287.541,256.549,290.764,289.137,261.898,0.171546,0.130433,233.823,255.457
2016-03-28 21:00,0.457411,291.44,287.432,257.006,290.897,289.276,261.898,0.443418,0.428322,235.731,255.911
2016-03-28 22:00,-0.020965,287.155,287.541,257.12,290.897,289.137,261.66,0.0,-0.0211654,237.203,256.181
2016-03-28 23:00,-0.194589,287.587,287.76,257.12,290.897,289.413,262.255,-0.0771207,-0.133752,237.528,255.73
2016-03-29 00:00,-0.00239697,287.155,287.432,257.459,290.632,289.137,262.255,0.0,0.00241988,237.785,256.001
2016-03-29 01:00,-0.00177595,285.97,285.994,257.233,289.032,287.469,261.54,0.0,-0.00179292,238.919,256.894
2016-03-29 02:00,-0.00149454,280.427,274.129,251.056,274.312,270.473,249.572,0.0,0.0,232.709,248.562
2016-03-29 03:00,-0.00137359,286.271,285.994,257.233,288.763,286.907,260.34,0.0,0.0,236.742,256.091
2016-03-29 04:00,0.0,286.121,285.77,257.233,289.3,287.329,260.942,0.0,0.0,237.006,256.271
2016-03-29 05:00,0.00144518,284.73,284.755,256.32,287.679,286.06,260.942,0.0,0.0,237.592,256.539
2016-03-29 06:00,0.0,279.667,280.308,254.099,283.372,282.321,259.37,0.0,0.0,236.675,256.45
2016-03-29 07:00,0.00215281,284.249,284.414,256.205,287.27,285.635,260.219,0.0,0.0,233.456,254.999
2016-03-29 08:00,0.0,285.357,285.095,256.434,287.815,286.343,260.581,0.0,0.0,234.401,255.366
2016-03-29 09:00,0.0,279.667,280.549,253.98,283.23,282.028,259.249,0.0,0.0,235.799,255.548
2016-03-29 10:00,0.141321,287.444,287.102,257.685,289.968,287.888,261.301,0.386581,0.241444,236.071,255.73
2016-03-29 11:00,0.0909575,288.568,286.439,257.572,289.568,287.748,261.062,0.195496,0.130677,235.867,256.001
2016-03-29 12:00,0.0259879,288.012,286.882,257.91,289.968,288.167,261.062,0.106352,0.0590317,237.203,256.539
2016-03-29 13:00,0.0230369,288.291,286.772,257.91,289.968,288.167,261.66,0.0780211,0.0465142,237.592,256.982
2016-03-29 14:00,0.0140094,287.871,287.322,258.022,290.5,288.861,262.136,0.0521915,0.0254579,237.977,257.333
2016-03-29 15:00,0.0297623,287.729,286.55,257.572,289.701,288.027,261.54,0.0580689,0.0418043,238.546,257.769
2016-03-29 16:00,0.0102479,287.729,287.651,258.469,290.897,289.137,262.136,0.0390458,0.0206916,238.671,258.286
2016-03-29 17:00,0.00814257,288.291,287.978,258.58,291.029,289.276,262.492,0.0379186,0.0191809,238.608,258.372
2016-03-29 19:00,0.0569008,289.247,286.992,258.246,289.968,288.167,261.182,0.0963557,0.0713108,237.137,257.333
2016-03-29 20:00,0.248728,291.563,282.096,255.742,283.797,280.702,257.034,0.265105,0.236334,233.456,253.309
2016-03-29 21:00,0.420685,290.813,287.322,258.469,290.5,288.722,261.779,0.417414,0.404798,236.408,257.682
2016-03-29 22:00,-0.0216328,287.3,287.651,258.469,290.764,288.999,262.373,0.0,0.0,235.247,257.158
2016-03-29 23:00,-0.191821,287.729,287.541,258.58,290.632,288.861,262.136,-0.0953302,-0.176815,234.257,256.539
2016-03-30 00:00,-0.00240871,286.121,284.185,256.778,286.447,284.061,258.392,0.0,0.0,232.328,254.162
2016-03-30 01:00,-0.00178345,286.271,285.882,257.685,288.897,286.767,260.581,0.0,0.0,232.175,255.183
2016-03-30 02:00,0.0,284.249,282.448,255.858,283.938,281.588,256.785,0.0,0.0,230.593,253.213
2016-03-30 03:00,-0.00137933,282.923,281.978,255.393,283.797,280.998,256.785,0.0,0.0,230.184,252.537
2016-03-30 04:00,0.0,282.059,278.598,253.741,280.493,278.004,255.153,0.0,0.0,229.601,251.85
2016-03-30 05:00,0.0,283.594,281.978,255.742,284.501,282.321,258.27,0.0,0.0,230.674,254.722
2016-03-30 06:00,-0.00167862,285.202,283.38,256.32,285.479,283.194,257.9,0.0,0.0,229.178,252.731
2016-03-30 07:00,0.0,273.586,263.401,244.765,262.329,258.957,242.097,0.0,0.0,225.058,240.835
2016-03-30 08:00,-0.00341655,256.062,241.218,233.513,238.199,236.157,228.782,0.0,0.0,221.819,230.694
2016-03-30 09:00,0.00970921,279.859,274.655,250.931,274.778,271.926,251.291,0.0,0.0,227.42,247.151
2016-03-30 11:00,0.245666,283.594,273.466,250.429,274.312,271.444,250.501,0.322261,0.296919,227.42,247.04
2016-03-30 12:00,0.27335,262.869,240.277,233.849,238.446,236.872,229.946,0.382705,0.408513,222.04,229.137
2016-03-30 13:00,0.137652,269.576,252.101,239.721,251.036,247.293,235.227,0.223387,0.231613,224.86,236.9
2016-03-30 14:00,0.145256,261.666,241.451,234.017,239.911,238.049,230.768,0.23415,0.242528,223.329,230.524
2016-03-30 15:00,0.0813288,283.093,274.129,251.429,274.933,271.926,250.765,0.123513,0.110778,227.42,246.371
2016-03-30 16:00,0.164917,273.831,259.373,243.509,258.491,255.803,241.953,0.235972,0.242642,225.739,239.922
2016-03-30 17:00,0.283119,259.954,229.373,229.665,228.871,228.056,225.009,0.407174,0.449937,221.371,225.21
2016-03-30 18:00,0.297388,261.251,235.8,232.146,234.371,233.474,229.116,0.428843,0.475365,223.013,227.509
2016-03-30 19:00,0.556007,266.466,221.841,226.092,221.511,220.685,220.675,0.712786,0.824196,219.382,220.306
2016-03-30 20:00,0.621183,279.473,249.385,238.349,248.52,245.399,233.976,0.624726,0.712504,223.849,235.444
2016-03-30 21:00,0.938695,266.797,231.14,230.565,229.444,228.59,225.36,0.81135,1.0069,222.04,226.379
2016-03-30 22:00,-0.0223428,275.707,267.764,248.121,268.358,265.138,247.551,-0.0189176,-0.0225564,228.4,247.371
2016-03-30 23:00,-0.243622,285.512,283.38,256.778,285.479,283.339,258.882,-0.117363,-0.228989,230.674,254.256
2016-03-31 00:00,0.0,282.753,278.845,254.099,279.466,276.784,254.264,0.0,0.0,229.093,250.748
2016-03-31 01:00,-0.00179107,283.428,279.823,254.926,280.785,277.853,254.646,0.0,0.0,229.348,252.439
2016-03-31 02:00,0.0,284.41,281.978,255.974,283.797,281.146,256.66,0.0,0.0,229.433,253.117
2016-03-31 03:00,0.0,286.421,285.433,257.572,287.27,285.065,259.856,0.0,0.0,229.007,254.256
2016-03-31 04:00,-0.00137144,278.279,271.162,249.414,270.332,267.339,247.142,0.0,0.0,225.739,244.647
2016-03-31 05:00,0.0,286.421,285.208,257.685,287.679,285.493,259.492,0.0,0.0,229.769,254.443
2016-03-31 06:00,0.0,285.202,282.799,256.549,284.501,282.321,257.653,0.0,0.0,228.575,253.595
2016-03-31 07:00,-0.00218822,275.932,275.694,252.777,278.576,277.853,257.406,0.0,0.0,229.769,254.443
2016-03-31 08:00,0.00346063,269.576,266.886,247.859,268.191,267.171,250.369,0.0,0.0,227.959,249.721
2016-03-31 09:00,0.0,275.251,267.618,247.067,267.016,264.623,246.594,0.0,-0.0101576,226.685,244.175
2016-03-31 10:00,0.414914,279.081,275.176,252.045,276.315,274.929,254.009,0.565518,0.582345,229.517,251.751
2016-03-31 11:00,0.366258,287.3,279.823,254.572,281.366,279.661,256.41,0.414447,0.390494,230.018,254.629
2016-03-31 12:00,0.295237,292.053,273.065,251.305,274.623,272.565,252.205,0.302508,0.2959,230.101,253.021
2016-03-31 13:00,0.120776,292.294,282.214,256.434,285.061,283.339,259.37,0.149245,0.12193,231.943,256.716
2016-03-31 14:00,0.022281,287.587,286.55,258.358,288.763,286.626,260.219,0.0648494,0.0379586,232.02,256.894
2016-03-31 15:00,0.0347745,285.357,279.823,254.69,281.366,278.458,254.009,0.0719731,0.0546109,230.43,252.731
2016-03-31 16:00,0.0344509,285.512,280.308,255.16,281.655,278.911,254.646,0.0648211,0.0489499,232.097,254.162
2016-03-31 17:00,0.0946588,279.473,265.545,246.801,263.569,260.225,242.956,0.129381,0.122868,226.311,242.971
2016-03-31 18:00,0.0401996,288.841,286.217,258.802,288.763,286.767,260.942,0.069383,0.0499494,235.799,258.543
2016-03-31 19:00,0.0937718,289.247,285.321,258.022,287.543,285.493,259.492,0.129019,0.106502,234.401,256.716
2016-03-31 20:00,0.188938,290.301,285.77,258.358,288.087,285.919,260.219,0.219041,0.193679,234.472,257.07
2016-03-31 21:00,0.400869,290.685,287.76,259.244,290.632,288.999,262.847,0.416057,0.398174,235.525,259.135
2016-03-31 22:00,-0.0230994,286.271,287.212,258.691,290.101,288.584,262.847,0.0,0.0,235.731,259.554
2016-03-31 23:00,-0.338503,285.665,285.658,257.798,288.222,286.767,261.062,-0.157636,-0.290478,235.038,258.882
