# timestamp,IR_016,IR_039,IR_087,IR_097,IR_108,IR_120,IR_134,VIS006,VIS008,WV_062,WV_073
2015-07-01 02:00,0.00134061,273.338,265.846,248.771,265.997,262.888,245.35,-0.0,-0.0,227.055,244.056
2015-07-01 03:00,0.00125,240.898,232.839,231.625,232.23,230.429,226.918,-0.0,-0.0,220.219,225.604
2015-07-01 04:00,-0.00124052,272.322,265.995,249.286,266.508,264.795,247.823,-0.0,-0.0,226.963,244.294
2015-07-01 05:00,-0.0,260.395,245.89,238.195,242.515,238.978,229.946,-0.0,-0.0,221.596,231.695
2015-07-01 06:00,-0.0,254.396,240.277,234.845,238.938,236.872,228.949,-0.0,-0.0,222.04,229.314
2015-07-01 07:00,-0.0,257.605,244.16,236.466,242.747,240.35,231.581,-0.0,-0.0,222.799,232.022
2015-07-01 08:00,-0.0,264.739,254.145,242.513,253.867,251.354,237.827,-0.0,-0.0,224.258,237.043
2015-07-01 09:00,-0.0,278.482,277.224,255.742,279.466,278.156,256.16,-0.0,-0.0,229.685,250.544
2015-07-01 10:00,-0.114495,279.081,277.098,256.205,279.022,277.243,255.658,-0.161571,-0.231178,228.662,249.198
2015-07-01 11:00,0.450942,276.376,266.59,249.542,267.016,263.933,246.044,0.359994,0.559311,227.147,243.336
2015-07-01 12:00,0.347353,262.869,239.559,234.515,237.2,234.216,226.746,0.386839,0.492839,220.57,228.242
2015-07-01 13:00,0.333634,268.382,242.824,236.784,240.152,235.917,227.431,0.327091,0.438757,220.219,228.423
2015-07-01 14:00,0.2581,293.356,286.328,262.261,286.722,282.758,257.034,0.111559,0.255101,228.312,250.34
2015-07-01 15:00,0.28443,296.427,285.321,261.412,287.407,284.492,260.34,0.172616,0.267231,229.685,253.213
2015-07-01 16:00,0.288063,291.315,280.549,258.358,282.66,280.554,259.005,0.248037,0.294103,231.787,254.443
2015-07-01 17:00,0.452585,268.986,251.147,241.061,250.415,249.348,239.025,0.612533,0.659787,224.56,239.121
2015-07-01 18:00,0.505606,291.065,271.848,253.621,274.778,274.304,256.785,0.457801,0.51044,230.996,253.974
2015-07-01 19:00,0.69686,297.349,273.732,254.808,276.315,274.773,256.16,0.554486,0.65549,231.156,253.5
2015-07-01 20:00,0.712892,277.451,255.409,243.368,254.066,251.156,238.428,0.641861,0.805869,224.86,238.578
2015-07-02 01:00,-0.0015452,283.594,283.611,259.902,286.033,284.492,260.581,-0.0,-0.00155998,230.996,253.69
2015-07-02 02:00,-0.0,283.261,283.495,260.011,286.31,284.636,261.062,-0.0,-0.0,231.394,253.88
2015-07-02 03:00,-0.0,271.531,271.299,253.261,273.843,272.883,255.28,-0.0,-0.0,230.101,250.544
2015-07-02 04:00,-0.0,274.314,274.916,255.277,278.427,277.091,257.9,-0.0,0.00125222,231.156,253.974
2015-07-02 05:00,-0.0,265.791,257.854,244.488,257.55,255.045,242.097,-0.0,-0.0,226.216,241.221
2015-07-02 06:00,-0.00147838,265.791,255.587,243.084,255.049,252.927,240.207,-0.0,-0.0,225.449,238.578
2015-07-02 07:00,-0.00182091,281.526,281.742,258.913,284.22,282.904,259.977,-0.0,-0.0,231.63,253.5
2015-07-02 08:00,-0.0,275.932,271.711,253.02,272.423,270.798,252.464,-0.0,-0.0,228.312,246.929
2015-07-02 09:00,-0.0,268.382,260.036,245.451,259.606,257.671,242.527,-0.0,-0.0,225.546,240.964
2015-07-02 10:00,-0.037717,265.791,254.69,242.799,252.667,249.753,237.525,-0.191609,-0.228465,224.46,237.327
2015-07-02 11:00,0.599849,252.585,221.481,225.701,220.184,218.235,217.445,0.660805,0.833491,215.167,218.165
2015-07-02 12:00,0.388083,259.505,229.072,229.665,227.414,225.038,221.415,0.461084,0.568731,218.009,222.956
2015-07-02 13:00,0.318176,266.466,239.317,234.845,236.186,232.221,224.481,0.326995,0.438628,219.014,226.76
2015-07-02 14:00,0.245325,284.73,270.049,252.168,268.855,264.106,245.211,0.161896,0.28045,225.546,241.475
2015-07-02 15:00,0.218487,291.686,280.909,258.022,281.366,275.861,251.159,0.109883,0.228868,227.78,247.151
2015-07-02 16:00,0.242232,284.57,266.442,249.669,265.31,259.321,240.06,0.174815,0.283938,224.46,240.576
2015-07-02 17:00,0.169263,296.427,292.622,266.059,295.043,291.735,263.2,0.0679638,0.172643,231.473,252.925
2015-07-02 18:00,0.216284,289.514,277.852,256.664,278.278,273.675,249.971,0.143014,0.241227,226.871,245.23
2015-07-02 19:00,0.290274,286.271,268.199,251.056,266.847,261.121,241.664,0.243411,0.338133,224.258,241.221
2015-07-03 01:00,-0.00154618,279.473,274.129,254.926,274.467,270.311,248.768,-0.0,-0.0,227.959,247.481
2015-07-03 02:00,-0.00134144,282.059,280.308,258.134,282.231,280.108,257.158,-0.0,-0.0,230.266,252.146
2015-07-03 03:00,-0.00125016,272.061,260.854,247.465,259.791,255.045,238.428,-0.0,-0.0,223.538,240.185
2015-07-03 04:00,-0.0,276.376,269.343,251.922,269.842,267.339,247.959,-0.0,-0.0,225.643,245.23
2015-07-03 05:00,-0.0,281.165,280.789,258.469,283.088,282.028,259.977,-0.0,-0.0,230.593,252.634
2015-07-03 06:00,-0.0,282.234,283.264,260.119,286.31,286.06,262.373,-0.0,-0.0,231.709,254.536
2015-07-03 07:00,0.00181958,280.613,280.308,258.134,282.66,282.028,260.581,-0.0,-0.0,230.184,252.828
2015-07-03 08:00,-0.0,280.799,282.331,259.134,285.201,285.065,262.255,-0.0,-0.0,230.996,254.814
2015-07-03 09:00,-0.0,279.667,279.945,257.685,282.517,282.175,259.614,-0.0,-0.0,230.511,253.213
2015-07-03 10:00,-0.0746749,280.613,281.978,259.024,284.781,285.208,262.255,-0.158068,-0.226166,231.394,254.349
2015-07-03 11:00,0.374438,284.087,284.528,260.661,287.543,287.469,263.083,0.229578,0.436675,231.552,254.349
2015-07-03 12:00,0.356764,290.041,288.843,263.411,291.948,290.784,264.138,0.156335,0.375971,231.865,254.443
2015-07-03 13:00,0.291717,294.491,292.005,265.658,295.043,293.216,264.837,0.116998,0.298934,231.552,254.068
2015-07-03 14:00,0.24876,296.738,294.044,266.855,297.06,294.812,265.069,0.0961546,0.249318,231.156,253.785
2015-07-03 15:00,0.211719,296.738,292.929,266.358,295.803,293.35,263.787,0.0833777,0.213743,231.156,252.439
2015-07-03 16:00,0.185113,297.947,294.945,267.544,298.055,295.471,265.301,0.0687432,0.181964,231.865,253.213
2015-07-03 17:00,0.174236,297.248,294.245,267.052,297.06,294.415,265.301,0.0693369,0.172384,231.787,253.405
2015-07-03 18:00,0.205579,297.146,292.211,265.959,295.17,292.276,264.022,0.102698,0.199243,232.02,253.88
2015-07-03 19:00,0.194829,294.713,291.902,265.355,294.788,292.545,264.372,0.120186,0.205121,233.01,254.162
2015-07-04 01:00,-0.0,279.278,279.091,257.572,281.943,279.81,258.27,-0.0,-0.0,231.076,253.021
2015-07-04 02:00,-0.00134181,266.466,268.054,251.056,270.169,269.657,254.9,-0.0,-0.0,230.101,250.238
2015-07-04 03:00,-0.0012502,268.986,267.764,250.931,268.358,267.506,251.553,-0.0,-0.0,229.348,248.133
2015-07-04 04:00,-0.0,263.255,260.365,246.13,262.863,260.045,245.072,-0.0,-0.0,229.769,247.151
2015-07-04 05:00,-0.00130788,268.686,259.54,245.451,257.17,254.472,241.808,-0.0,-0.0,224.661,237.888
2015-07-04 06:00,0.00147686,280.05,277.852,256.664,279.613,277.701,256.285,-0.0,-0.0,230.184,249.617
2015-07-04 07:00,0.00181829,257.103,246.523,238.04,243.667,241.475,233.503,-0.0,-0.0,222.368,229.314
2015-07-04 08:00,0.00255216,247.601,238.585,234.35,236.441,234.461,228.782,-0.0,-0.0,222.04,229.137
2015-07-04 09:00,-0.0,268.073,269.201,251.799,272.264,271.765,254.9,-0.0,-0.0,231.076,250.442
2015-07-04 10:00,-0.185118,268.073,269.767,252.168,272.899,272.565,255.28,-0.219435,-0.224265,231.236,250.849
2015-07-04 11:00,0.678248,280.982,267.033,250.429,270.981,270.96,254.9,0.596148,0.632561,230.916,250.748
2015-07-04 12:00,0.854143,295.583,268.343,251.552,272.264,271.444,255.28,0.739096,0.795977,231.236,250.646
2015-07-04 13:00,0.550215,285.512,258.025,245.04,259.791,258.04,243.667,0.58094,0.604162,229.517,245.46
2015-07-04 14:00,0.561954,290.813,266.145,250.051,267.69,265.65,249.705,0.596282,0.614603,229.517,247.151
2015-07-04 15:00,0.509893,290.301,278.101,257.685,281.076,279.061,257.406,0.526122,0.532974,231.943,251.652
2015-07-04 16:00,0.496242,291.315,276.208,256.32,278.725,276.631,256.035,0.510791,0.538641,229.263,248.348
2015-07-04 17:00,0.500996,293.007,276.336,256.434,279.17,277.243,257.158,0.462487,0.489979,231.394,250.032
2015-07-04 18:00,0.514937,272.836,243.719,237.415,242.515,238.978,229.946,0.576696,0.639986,223.013,231.53
2015-07-04 19:00,0.33857,285.045,278.101,257.685,281.366,279.959,259.005,0.406503,0.386634,232.251,250.646
2015-07-05 01:00,-0.00154802,269.865,265.545,249.414,265.997,263.586,245.628,-0.0,-0.0,226.405,242.848
2015-07-05 02:00,-0.00134215,270.713,267.618,250.931,269.186,267.004,249.572,-0.0,-0.0,227.055,243.937
2015-07-05 03:00,-0.0,269.865,264.635,249.158,264.792,262.537,244.512,-0.0,-0.0,224.86,240.964
2015-07-05 04:00,-0.0,249.89,240.514,235.01,238.446,236.396,229.449,-0.0,-0.0,222.585,230.011
2015-07-05 05:00,-0.0,242.013,240.75,235.499,241.58,240.35,234.604,-0.0,-0.0,226.499,234.694
2015-07-05 06:00,-0.0,268.686,267.18,250.303,267.522,265.65,249.705,-0.0,-0.0,228.312,244.056
2015-07-05 07:00,-0.0,257.103,255.587,242.942,255.827,255.425,244.652,-0.0,-0.0,228.662,241.221
2015-07-05 08:00,0.0025498,232.213,232.839,231.098,233.577,233.225,229.781,-0.0,-0.0,225.931,230.524
2015-07-05 09:00,0.00467835,261.251,255.764,244.07,256.213,251.552,240.06,-0.0,-0.0,227.87,239.922
2015-07-05 10:00,-0.0367735,273.586,271.574,253.14,273.843,271.926,250.633,-0.186816,-0.185625,228.048,245.918
2015-07-05 11:00,0.730091,284.41,280.308,258.58,283.938,283.194,260.701,0.700224,0.691411,229.685,249.408
2015-07-05 12:00,0.465977,277.026,265.545,249.029,266.678,265.138,249.037,0.476628,0.536734,229.685,243.698
2015-07-05 13:00,0.311052,246.775,232.28,230.921,232.772,232.221,228.949,0.513752,0.592668,226.778,230.354
2015-07-05 14:00,0.309505,279.667,253.04,242.081,253.269,249.753,239.173,0.326048,0.412379,229.433,240.316
2015-07-05 15:00,0.170315,280.982,273.065,253.741,273.529,270.798,252.335,0.152525,0.234768,230.43,246.032
2015-07-05 16:00,0.306077,258.096,239.559,234.845,239.669,238.747,233.185,0.440151,0.518274,228.748,234.694
2015-07-05 17:00,0.430679,295.042,253.963,243.368,254.066,251.552,242.527,0.329366,0.410252,230.674,242.105
2015-07-05 18:00,0.34596,290.041,265.394,249.924,266.338,261.654,246.869,0.324123,0.4278,230.755,245.345
2015-07-05 19:00,0.334844,305.874,288.843,258.134,291.292,288.999,261.779,0.293957,0.28289,233.234,255.275
2015-07-06 01:00,-0.00154889,274.787,269.908,252.534,270.169,266.667,249.705,-0.0,-0.0,227.87,242.725
2015-07-06 02:00,0.00134246,243.066,241.682,235.823,241.815,240.802,235.072,-0.0,-0.0,227.238,235.592
2015-07-06 03:00,-0.0,232.213,224.95,226.866,223.443,221.283,221.046,-0.0,-0.0,217.881,221.213
2015-07-06 04:00,-0.00123951,222.276,217.685,223.283,216.715,216.008,216.663,-0.0,-0.0,214.734,215.867
2015-07-06 05:00,-0.0,222.276,213.479,222.027,212.997,212.329,214.265,-0.0,0.00131945,212.607,212.505
2015-07-06 06:00,-0.0,230.231,228.463,229.118,228.583,227.787,224.834,-0.0,0.00148946,221.708,225.994
2015-07-06 07:00,-0.00181582,237.078,229.97,229.665,229.158,228.056,225.009,-0.0,-0.0,220.454,225.21
2015-07-06 08:00,-0.0025476,250.598,238.09,234.183,236.441,232.976,227.431,-0.0,-0.0,221.258,228.242
2015-07-06 09:00,-0.0,222.276,213.921,222.027,213.763,213.016,214.062,-0.0,-0.0,213.234,213.668
2015-07-06 10:00,-0.0,218.393,216.471,223.283,215.993,215.027,215.873,-0.154886,-0.147742,214.734,215.6
2015-07-06 11:00,0.626642,277.661,253.595,242.369,254.657,251.947,242.241,0.557926,0.658721,229.769,242.971
2015-07-06 12:00,0.671962,282.059,246.942,238.81,247.662,244.973,236.46,0.637752,0.747802,227.42,238.165
2015-07-06 13:00,0.516513,282.581,251.721,241.646,252.465,249.55,239.47,0.541104,0.605413,227.055,240.835
2015-07-06 14:00,0.285809,293.587,282.331,260.445,282.374,277.548,254.9,0.159807,0.275838,228.488,247.04
2015-07-06 15:00,0.392541,289.514,264.635,249.286,265.482,261.831,248.229,0.308821,0.392991,229.178,244.881
2015-07-06 16:00,0.422048,290.171,252.479,242.081,252.465,248.121,238.577,0.368301,0.452203,227.87,239.39
2015-07-06 17:00,0.374434,277.026,254.145,242.942,253.867,250.757,240.354,0.37721,0.437516,227.055,239.121
2015-07-06 18:00,0.359476,259.505,240.277,235.337,239.669,238.049,233.503,0.579336,0.678398,224.959,233.773
2015-07-06 19:00,0.546127,258.576,233.666,231.625,233.577,232.725,229.283,0.73798,0.863222,223.952,229.137
2015-07-06 20:00,0.572471,255.521,226.261,227.817,225.615,225.318,222.873,0.683566,0.79529,220.454,223.793
2015-07-06 21:00,1.00574,233.989,217.285,223.283,217.427,216.652,216.859,0.851556,1.21061,215.734,216.652
2015-07-06 22:00,-0.0124331,227.984,223.597,226.866,222.806,220.685,220.489,-0.0,-0.0,218.137,222.096
2015-07-06 23:00,-0.128266,235.601,232.28,230.743,231.408,229.647,227.431,-0.0320872,-0.0647462,222.585,228.06
2015-07-07 00:00,-0.0708302,244.063,238.83,234.515,237.451,235.193,230.44,-0.0216565,-0.0456852,223.434,231.364
2015-07-07 01:00,-0.00154973,235.601,229.97,229.484,229.158,227.787,225.185,-0.0,-0.0,222.259,226.379
2015-07-07 02:00,-0.00268549,232.213,228.463,228.934,228.293,227.517,225.009,-0.0,-0.0,221.708,225.21
2015-07-07 03:00,-0.0,225.382,222.552,226.481,222.485,222.462,221.965,-0.0,-0.0,220.101,221.658
2015-07-07 04:00,-0.00247851,256.062,251.53,240.913,250.207,248.941,239.618,-0.0,-0.0,226.685,237.888
2015-07-07 05:00,-0.00130648,249.89,243.94,236.306,243.209,241.251,233.819,-0.0,-0.0,225.546,235.295
2015-07-07 06:00,-0.0,249.156,247.357,238.657,247.446,246.035,237.676,-0.0,-0.0,226.963,238.027
2015-07-07 07:00,-0.00181465,240.898,236.318,233.513,236.186,233.969,229.615,-0.0,-0.0,223.642,230.863
2015-07-07 08:00,0.00254555,246.775,243.496,236.466,242.747,241.027,234.447,-0.0,-0.0,226.871,235.887
2015-07-07 09:00,-0.00466769,244.063,237.841,233.681,237.2,235.193,230.768,-0.0,-0.0,224.46,232.347
2015-07-07 10:00,-0.0364597,230.231,225.611,226.481,225.31,224.474,223.77,-0.154352,-0.147233,221.258,223.377
2015-07-07 11:00,0.368062,246.775,236.832,232.491,236.948,235.917,230.931,0.606873,0.69101,226.122,233.304
2015-07-07 12:00,0.362251,251.282,233.938,231.274,233.842,233.225,228.949,0.661029,0.753497,225.739,231.364
2015-07-07 13:00,0.369504,258.096,244.598,236.943,244.575,243.679,236.918,0.610906,0.679852,227.87,236.757
2015-07-07 14:00,0.44347,259.505,221.841,225.701,222.485,221.579,220.86,0.693203,0.7776,219.982,221.436
2015-07-07 15:00,0.328305,251.282,225.611,227.628,226.221,225.597,223.77,0.611269,0.699164,222.585,225.011
2015-07-07 16:00,0.313208,248.394,226.902,227.817,226.82,225.874,224.481,0.697157,0.775837,222.906,225.408
2015-07-07 17:00,0.31663,256.062,234.745,231.973,235.155,234.216,229.615,0.659238,0.745866,226.499,232.829
2015-07-07 18:00,0.401422,257.605,231.997,230.743,231.957,231.203,227.431,0.722899,0.818747,225.739,229.664
2015-07-07 19:00,0.54438,259.045,225.282,227.058,225.31,224.756,223.413,0.833391,0.946506,222.259,223.167
2015-07-07 20:00,0.729931,259.954,236.576,233.005,236.441,235.677,230.768,0.951769,1.18397,227.51,233.461
2015-07-07 21:00,0.334797,239.711,237.086,233.175,237.702,236.872,231.743,0.535447,0.600884,228.312,233.617
2015-07-07 22:00,-0.0062514,263.255,259.039,244.626,259.421,257.486,245.35,-0.0,-0.0,231.236,244.881
2015-07-07 23:00,-0.0847189,256.062,254.509,242.799,256.213,255.045,245.072,-0.0272085,-0.0589854,231.943,244.056
2015-07-08 00:00,-0.0984787,252.585,252.29,241.354,253.469,252.536,244.652,-0.0266821,-0.0516984,232.633,243.577
2015-07-08 01:00,-0.00155053,247.601,246.942,238.04,247.878,247.085,239.322,-0.0,-0.0,232.175,240.053
2015-07-08 02:00,-0.0,227.984,224.95,227.058,224.694,224.474,222.692,-0.0,-0.0,222.476,223.793
2015-07-08 03:00,-0.0,222.276,222.552,225.701,222.806,222.462,220.489,-0.0,-0.0,220.801,221.878
2015-07-08 04:00,-0.0,225.382,225.611,227.248,225.615,225.318,223.413,-0.0,-0.0,222.906,224.408
2015-07-08 05:00,-0.0,230.231,227.845,228.378,228.001,227.246,225.185,-0.0,-0.0,223.118,226.57
2015-07-08 06:00,-0.00147387,222.276,222.552,225.701,222.806,221.579,221.23,-0.0,-0.0,219.624,221.436
2015-07-08 07:00,-0.00181353,237.078,235.275,231.973,235.93,235.193,230.44,-0.0,-0.0,227.51,232.669
2015-07-08 08:00,-0.0,245.01,245.676,237.258,246.355,246.035,239.025,-0.0,-0.0,231.63,238.986
2015-07-08 09:00,-0.0,254.966,250.954,240.32,251.652,250.357,241.374,-0.0,-0.0,232.251,241.728
2015-07-08 10:00,-0.109185,255.521,252.666,241.5,253.069,251.354,241.808,-0.27734,-0.330686,230.018,239.523
2015-07-08 11:00,0.445185,245.913,236.318,232.491,236.695,235.917,231.905,0.797579,0.91191,229.263,233.304
2015-07-08 12:00,0.358767,251.282,240.039,234.183,240.631,240.35,234.291,0.800361,0.894468,230.996,236.9
2015-07-08 13:00,0.314482,254.396,239.074,233.849,239.183,238.282,233.026,0.750736,0.822382,229.178,234.082
2015-07-08 14:00,0.315585,260.395,240.984,234.681,240.87,239.667,233.661,0.438763,0.519538,230.916,236.325
2015-07-08 15:00,0.251168,258.096,243.049,236.146,242.978,241.698,234.916,0.357661,0.441276,231.315,236.614
2015-07-08 16:00,0.241764,267.123,250.954,240.021,249.998,248.121,238.128,0.293405,0.387266,232.097,239.922
2015-07-08 17:00,0.276287,264.739,247.973,238.503,247.229,245.612,237.222,0.336277,0.430595,231.473,238.714
2015-07-08 18:00,0.325233,268.382,251.53,240.171,250.207,248.327,238.428,0.349381,0.449418,230.511,238.441
2015-07-08 19:00,0.400092,271.261,254.871,242.656,255.439,253.316,241.374,0.415326,0.550544,231.315,241.093
2015-07-08 20:00,0.682328,261.251,241.682,235.985,241.107,240.123,235.691,0.692452,0.825644,229.685,234.082
2015-07-08 21:00,1.71879,269.576,255.05,242.369,254.461,253.703,239.322,1.12179,1.95213,232.251,243.937
2015-07-08 22:00,-0.00628678,266.797,259.871,244.626,258.678,258.04,244.372,-0.0,-0.0,231.315,241.98
2015-07-08 23:00,-0.0878259,275.02,275.565,254.336,279.17,278.609,256.909,-0.0272661,-0.0591104,236.004,254.907
2015-07-09 00:00,-0.0985801,281.705,282.096,257.572,284.781,283.339,259.735,-0.028379,-0.0497612,240.43,257.855
2015-07-09 01:00,-0.0015513,282.234,283.032,258.358,285.34,284.205,260.701,-0.0,-0.0,239.471,257.246
2015-07-09 02:00,-0.0,281.705,282.682,257.798,285.201,284.205,260.219,-0.0,-0.0,241.533,258.028
2015-07-09 03:00,-0.0,281.346,282.448,258.358,284.921,284.205,260.581,-0.0,-0.0,240.548,257.769
2015-07-09 04:00,-0.0,279.081,282.096,258.022,285.061,284.349,260.701,-0.0,-0.0,243.202,258.372
2015-07-09 05:00,-0.0,277.869,280.187,257.12,283.23,282.175,259.37,-0.0,-0.0,243.953,258.028
2015-07-09 06:00,-0.0,266.466,267.473,249.797,270.819,269.494,253.497,-0.0,-0.0,244.479,256.181
2015-07-09 07:00,-0.00181245,271.798,271.574,252.168,274.778,273.2,255.784,-0.0,-0.0,245.202,256.894
2015-07-09 08:00,-0.00254196,281.165,282.448,258.358,285.061,283.917,260.461,-0.0,-0.0,245.809,259.721
2015-07-09 09:00,-0.0,280.613,282.799,258.134,285.757,284.779,260.942,-0.0,-0.0,245.405,259.638
2015-07-09 10:00,-0.036392,279.667,282.916,258.022,286.172,285.208,261.301,-0.215691,-0.257179,245.151,260.381
2015-07-09 11:00,0.457553,285.512,284.3,258.913,287.134,286.343,261.66,0.327388,0.448915,244.79,259.887
2015-07-09 12:00,0.348989,288.705,286.882,260.661,289.166,287.329,261.66,0.155659,0.364909,244.322,259.721
2015-07-09 13:00,0.292265,291.315,288.951,262.155,291.16,289.276,262.255,0.116343,0.295059,243.633,259.471
2015-07-09 14:00,0.238145,293.24,290.545,263.203,292.47,289.964,263.2,0.0879317,0.238613,242.875,259.135
2015-07-09 15:00,0.200293,294.491,291.591,264.339,293.635,290.921,262.728,0.0716956,0.200564,243.526,259.721
2015-07-09 16:00,0.186632,295.151,292.314,264.849,294.405,291.464,263.318,0.0667501,0.17867,244.217,259.887
2015-07-09 17:00,0.168875,295.26,292.52,265.153,294.661,292.006,263.436,0.0641981,0.16701,244.217,260.052
2015-07-09 18:00,0.188565,294.491,290.965,264.339,293.119,290.648,263.318,0.0978545,0.194461,243.899,260.217
2015-07-09 19:00,0.161136,292.053,289.593,263.411,291.686,289.276,262.61,0.127184,0.181977,243.633,259.97
2015-07-09 20:00,0.293529,292.294,288.303,262.786,290.5,288.027,261.779,0.228159,0.301193,243.686,259.471
2015-07-09 21:00,0.379516,287.444,287.102,262.049,289.701,288.167,262.136,0.555034,0.626963,244.269,260.545
2015-07-09 22:00,-0.0,284.888,285.77,261.305,288.222,287.048,261.898,-0.0,-0.0,244.583,260.952
2015-07-09 23:00,-0.105613,276.594,278.35,256.434,280.931,280.257,259.37,-0.0298075,-0.0621967,244.058,260.217
2015-07-10 00:00,-0.0888115,284.57,285.433,260.553,288.087,287.048,262.255,-0.0250655,-0.0498114,243.793,260.463
2015-07-10 01:00,-0.0,283.261,284.414,260.119,287.27,285.919,261.898,-0.0,-0.0,243.793,260.217
2015-07-10 02:00,-0.00268681,283.924,284.869,260.228,287.543,286.485,261.898,-0.0,-0.0,243.899,260.627
2015-07-10 03:00,-0.0,283.76,284.869,260.119,287.27,286.343,261.66,-0.0,-0.0,243.793,261.033
2015-07-10 04:00,-0.0,282.753,283.726,259.793,286.447,285.208,261.66,-0.0,-0.0,243.31,260.871
2015-07-10 05:00,-0.0,274.551,275.176,254.572,277.828,277.091,257.9,-0.0,-0.0,242.6,259.804
2015-07-10 06:00,0.00147243,276.811,277.224,255.742,280.054,278.911,258.638,-0.0,0.00148651,242.489,259.97
2015-07-10 07:00,-0.0,277.451,277.727,256.089,280.639,279.511,258.882,-0.0,-0.0,242.378,259.97
2015-07-10 08:00,-0.0,281.346,281.86,258.246,284.361,283.049,260.219,-0.0,-0.0,242.266,259.887
2015-07-10 09:00,-0.0,282.581,283.726,259.574,286.447,285.777,261.54,-0.0,-0.0,241.817,260.217
2015-07-10 10:00,-0.0364517,282.923,284.642,259.793,287.27,287.048,262.61,-0.185182,-0.220801,241.76,260.789
2015-07-10 11:00,0.373206,285.512,286.217,260.661,288.897,288.027,262.492,0.217926,0.422246,240.665,260.545
2015-07-10 12:00,0.354728,290.429,288.843,262.576,291.029,289.551,262.728,0.155443,0.370685,241.817,260.381
2015-07-10 13:00,0.294024,293.587,290.756,263.721,292.989,290.784,262.965,0.119865,0.294636,241.533,260.217
2015-07-10 14:00,0.241356,295.476,292.929,265.254,295.424,293.216,263.905,0.0877971,0.240053,241.073,260.789
2015-07-10 15:00,0.208086,296.635,294.145,265.859,296.935,294.679,264.721,0.0715756,0.200228,241.93,261.675
2015-07-10 16:00,0.183071,296.943,294.945,266.358,297.558,295.602,265.416,0.0639059,0.178336,241.361,261.515
2015-07-10 17:00,0.166792,296.635,294.846,266.159,297.683,295.471,265.301,0.0611479,0.163179,241.533,260.708
2015-07-10 18:00,0.163806,295.583,294.044,265.758,296.559,294.282,264.721,0.0650663,0.165372,241.419,259.97
2015-07-10 19:00,0.16058,294.268,292.725,264.645,295.043,292.814,264.721,0.0852647,0.16761,241.986,260.545
2015-07-10 20:00,0.172241,291.931,290.965,263.928,293.248,291.193,263.67,0.145836,0.212529,242.042,260.299
2015-07-10 21:00,0.266187,288.568,289.165,262.995,291.686,290.101,263.787,0.478933,0.503872,242.211,260.789
2015-07-10 22:00,-0.0063591,286.864,287.978,261.944,290.764,289.826,263.318,-0.0,-0.0,242.82,261.355
2015-07-10 23:00,-0.105834,286.271,287.432,261.625,290.101,289.413,264.138,-0.0323591,-0.062327,242.71,261.435
2015-07-11 00:00,-0.0711192,285.665,287.102,261.198,289.835,289.413,263.67,-0.0234175,-0.0478661,242.929,261.834
2015-07-11 01:00,-0.00155272,284.888,286.55,260.769,289.434,289.137,263.787,-0.0,-0.0,243.31,261.993
2015-07-11 02:00,-0.0,284.087,286.105,260.119,289.032,288.445,263.318,-0.0,-0.0,243.202,261.435
2015-07-11 03:00,-0.0,283.924,285.77,260.228,288.493,288.584,263.67,-0.0,-0.0,242.929,261.595
2015-07-11 04:00,-0.0,283.428,285.546,259.793,288.358,288.167,263.083,-0.0,-0.0,242.71,261.515
2015-07-11 05:00,0.0013045,283.093,285.095,259.683,287.951,288.027,263.083,-0.0,-0.0,241.476,260.627
2015-07-11 06:00,-0.0,282.753,284.528,259.354,287.407,287.048,262.847,-0.0,-0.0,241.073,259.638
2015-07-11 07:00,-0.00181047,282.408,284.414,259.464,287.27,287.048,262.847,-0.0,-0.0,240.665,259.135
2015-07-11 08:00,-0.00253905,282.581,283.956,259.024,286.86,286.343,261.779,-0.0,-0.0,240.782,259.051
2015-07-11 09:00,-0.0,282.234,283.841,259.024,286.585,286.202,261.779,-0.0,-0.0,240.548,258.882
2015-07-11 10:00,-0.0731516,282.059,283.841,259.244,286.86,286.343,262.136,-0.216781,-0.221553,239.288,257.855
2015-07-11 11:00,0.372502,285.665,285.546,260.445,288.358,287.329,262.847,0.228391,0.414967,238.231,256.539
2015-07-11 12:00,0.354168,290.041,288.412,262.049,290.897,289.137,262.847,0.157828,0.354418,238.168,256.45
2015-07-11 13:00,0.295737,293.93,290.86,264.133,292.86,290.101,262.61,0.117835,0.287587,238.546,256.805
2015-07-11 14:00,0.239173,296.008,292.417,265.153,294.149,291.057,262.965,0.0891638,0.23245,237.785,256.894
2015-07-11 15:00,0.246664,295.902,288.195,262.681,290.234,287.329,261.779,0.152515,0.237554,237.333,256.091
2015-07-11 16:00,0.264451,292.174,283.032,258.913,285.34,282.904,259.249,0.217125,0.304194,237.072,255.821
2015-07-11 17:00,0.295093,290.939,281.505,258.134,283.656,281.441,258.882,0.299244,0.382785,236.808,255.275
2015-07-11 18:00,0.252108,293.587,285.994,261.198,287.815,285.065,260.461,0.199798,0.28506,237.268,255.366
2015-07-11 19:00,0.189847,294.38,288.843,262.786,290.5,287.748,261.301,0.128594,0.186185,237.333,255.821
2015-07-11 20:00,0.723037,284.41,270.329,252.29,272.741,271.765,255.027,0.664553,0.821192,235.317,253.595
2015-07-11 21:00,0.192711,288.152,286.661,261.519,288.763,286.767,261.182,0.353531,0.356681,234.897,255.275
2015-07-11 22:00,-0.012792,286.421,286.217,261.198,288.763,287.188,261.421,-0.0,-0.0,233.159,254.722
2015-07-11 23:00,-0.0972166,286.271,286.328,261.305,289.032,287.469,262.136,-0.0299321,-0.0594824,234.472,255.639
2015-07-12 00:00,-0.0889845,285.512,285.994,260.876,288.628,287.329,261.898,-0.0251143,-0.0519047,236.004,256.628
2015-07-12 01:00,-0.00155337,284.73,285.77,260.337,288.358,287.329,262.136,-0.0,-0.0,234.897,256.001
2015-07-12 02:00,-0.0013437,284.57,285.433,260.553,288.087,287.329,261.779,-0.0,-0.0,235.247,256.271
2015-07-12 03:00,-0.0,284.249,285.321,260.337,288.222,287.329,262.373,-0.0,-0.0,236.071,256.628
2015-07-12 04:00,-0.0,284.249,285.433,260.228,288.087,287.609,263.2,-0.0,-0.0,236.609,256.982
2015-07-12 05:00,-0.0,283.76,285.095,260.011,288.087,287.469,262.847,-0.0,-0.0,236.004,257.855
2015-07-12 06:00,0.00147105,283.76,284.982,260.119,287.951,287.469,263.2,-0.0,-0.0,236.207,258.114
2015-07-12 07:00,-0.0,283.261,284.869,260.119,287.815,287.609,262.847,-0.0,-0.0,236.274,258.457
2015-07-12 08:00,-0.00253788,283.261,284.869,259.793,287.951,287.609,262.847,-0.0,-0.0,235.178,258.713
2015-07-12 10:00,-0.073533,282.923,284.869,259.793,287.815,287.748,262.728,-0.217911,-0.222708,234.968,259.051
2015-07-12 11:00,0.384483,286.121,286.55,260.984,289.568,288.999,263.2,0.222453,0.439913,234.827,258.628
2015-07-12 12:00,0.372149,291.44,289.911,262.681,292.6,291.329,264.022,0.154923,0.375707,235.799,258.882
2015-07-12 13:00,0.312597,294.823,292.622,264.645,295.297,293.35,264.138,0.119472,0.302436,235.386,258.798
2015-07-12 14:00,0.251224,296.84,293.944,265.254,296.684,294.282,265.185,0.0890069,0.241035,235.247,258.457
2015-07-12 15:00,0.207328,297.749,294.646,266.259,297.184,294.679,265.069,0.0726862,0.201134,235.317,258.628
2015-07-12 16:00,0.185536,297.649,294.446,266.059,296.935,294.149,264.837,0.0663582,0.177621,236.408,258.967
2015-07-12 17:00,0.234499,296.531,290.229,263.515,292.6,290.375,263.436,0.134782,0.229829,236.742,259.387
2015-07-12 18:00,0.267502,296.323,289.593,262.786,292.079,289.689,262.965,0.156672,0.261937,237.137,259.135
2015-07-12 19:00,0.213485,294.823,290.86,263.515,293.377,291.193,263.083,0.162453,0.267361,236.808,258.882
2015-07-12 20:00,0.600588,293.124,280.308,257.798,283.372,281.735,259.856,0.528537,0.615877,236.274,258.457
2015-07-12 22:00,-0.00643332,287.871,288.412,262.155,290.764,289.276,263.083,-0.0,-0.00649482,236.475,258.882
2015-07-12 23:00,-0.112177,286.864,287.212,261.412,289.701,288.167,263.083,-0.0324932,-0.0625853,236.274,258.543
2015-07-13 00:00,-0.0930264,284.087,284.3,259.793,286.86,285.35,261.301,-0.0268137,-0.0499551,235.867,258.2
2015-07-13 01:00,-0.00155399,285.357,285.77,260.661,287.951,286.907,262.492,-0.0,-0.0,235.455,258.372
2015-07-13 02:00,-0.0,286.717,287.432,261.838,289.968,288.584,262.728,-0.0,-0.0,234.968,258.967
2015-07-13 03:00,-0.0,286.121,287.102,261.625,289.701,288.861,263.083,-0.0,-0.0,233.677,258.713
2015-07-13 04:00,-0.0,282.753,278.968,256.778,279.907,277.243,254.137,-0.0,-0.0,230.511,253.213
2015-07-13 05:00,-0.0013035,286.121,287.322,262.155,290.367,289.413,263.905,-0.0,-0.0,233.677,258.543
2015-07-13 06:00,-0.0,285.665,286.992,261.731,289.835,289.413,263.67,-0.0,-0.0,234.615,259.135
2015-07-13 07:00,-0.0,284.73,286.328,261.305,289.166,288.584,263.436,-0.0,-0.0,235.867,259.304
2015-07-13 08:00,-0.0,284.41,285.994,261.198,288.763,288.445,263.787,-0.0,0.00256115,236.542,259.471
2015-07-13 09:00,-0.0,283.924,285.433,260.769,288.358,287.888,262.847,-0.0,-0.0,237.006,259.638
2015-07-13 10:00,-0.0740537,283.594,285.208,260.661,288.087,287.748,263.2,-0.219454,-0.224285,237.398,259.638
2015-07-13 11:00,0.402657,286.864,286.992,261.944,289.968,288.999,263.318,0.227286,0.432317,237.203,259.721
2015-07-13 12:00,0.37142,292.053,290.44,263.825,292.86,291.329,263.905,0.15462,0.371846,237.463,259.638
2015-07-13 13:00,0.309853,295.26,292.827,265.456,295.17,293.082,264.605,0.117416,0.295315,238.608,259.887
2015-07-13 14:00,0.254311,296.943,293.742,266.159,296.056,293.35,264.488,0.0903459,0.240583,239.104,260.299
2015-07-13 15:00,0.211769,297.549,293.843,266.458,296.056,293.483,263.67,0.0752805,0.205633,237.721,259.721
2015-07-13 16:00,0.183543,297.449,294.346,266.657,296.433,293.75,264.605,0.0635137,0.182075,237.463,259.554
2015-07-13 17:00,0.167342,297.349,293.843,266.557,296.182,293.216,264.372,0.0607234,0.167218,237.137,259.554
2015-07-13 18:00,0.172481,296.323,292.827,266.059,295.043,292.276,264.138,0.0832087,0.17413,236.742,259.051
2015-07-13 19:00,0.156161,294.823,292.622,265.758,295.043,292.276,263.905,0.0889075,0.173963,237.137,258.967
2015-07-13 20:00,0.169242,293.007,291.487,264.849,293.892,291.6,264.255,0.147277,0.21832,237.785,259.051
2015-07-13 21:00,0.540148,271.798,258.534,245.177,257.928,255.425,241.229,0.558975,0.696788,226.122,239.656
2015-07-13 22:00,-0.0,287.587,287.651,262.576,290.234,288.722,262.61,-0.0,-0.0,236.408,258.028
2015-07-13 23:00,-0.0857837,286.271,286.55,261.838,289.166,288.027,262.373,-0.0275504,-0.0567404,233.823,257.682
2015-07-14 00:00,-0.0970733,285.045,285.321,261.305,287.407,285.777,260.822,-0.0268381,-0.0540007,234.615,256.716
2015-07-14 01:00,-0.00155457,273.831,261.017,246.801,259.606,255.235,237.977,-0.0,-0.0,225.643,240.835
2015-07-14 02:00,-0.00134388,274.073,264.635,248.512,263.92,260.942,243.525,-0.0,-0.0,226.499,242.602
2015-07-14 03:00,-0.0,272.322,259.706,245.314,259.236,255.803,239.322,-0.0,-0.0,225.449,240.964
2015-07-14 04:00,-0.0,265.095,251.339,241.354,250.207,246.876,234.604,-0.0,-0.0,222.04,234.845
2015-07-14 05:00,-0.0,280.427,275.823,255.51,277.075,274.773,252.723,-0.0,-0.0,229.601,249.721
2015-07-14 06:00,-0.0,282.234,280.187,258.246,281.943,279.959,256.785,-0.0,-0.0,230.916,253.213
2015-07-14 07:00,-0.0,282.408,280.429,258.134,282.087,280.702,257.777,-0.0,-0.0,230.674,253.021
2015-07-14 08:00,-0.00253612,282.923,282.566,259.354,285.061,284.061,260.098,-0.0,0.00256036,231.236,254.999
2015-07-14 09:00,-0.00465596,283.76,285.208,260.984,288.222,288.027,263.083,-0.0,-0.0,233.159,257.246
2015-07-14 10:00,-0.0,283.594,285.095,260.984,288.222,288.306,263.318,-0.158166,-0.150871,234.113,257.682
2015-07-14 11:00,0.49068,284.41,280.909,257.91,282.374,280.702,257.158,0.29136,0.553271,231.236,253.595
2015-07-14 12:00,0.342826,288.705,285.208,260.876,286.447,284.492,259.856,0.169978,0.361694,231.552,254.256
2015-07-14 13:00,0.2768,295.368,292.929,265.758,295.424,293.082,264.721,0.113521,0.27508,233.382,256.982
2015-07-14 14:00,0.228958,290.558,280.187,258.022,279.907,276.015,252.075,0.12473,0.240106,227.691,246.707
2015-07-14 15:00,0.229077,293.124,280.909,258.802,281.51,275.551,250.765,0.1202,0.234524,228.575,248.348
2015-07-14 16:00,0.151286,293.356,286.661,262.681,287.27,284.061,258.023,0.0822495,0.157555,229.178,250.34
2015-07-14 17:00,0.228248,283.261,266.145,250.555,263.217,260.045,243.525,0.186046,0.256224,223.746,237.888
2015-07-14 18:00,0.173981,291.931,284.185,260.769,283.656,280.406,255.784,0.115138,0.183719,228.662,248.987
2015-07-14 19:00,0.413089,281.526,258.703,245.723,254.263,250.557,237.222,0.336135,0.446827,222.906,235.146
2015-07-14 20:00,0.233661,295.796,287.541,262.89,289.3,286.907,259.735,0.245322,0.301945,229.769,252.439
2015-07-14 21:00,0.348525,279.859,268.63,251.429,268.024,265.65,248.364,0.393461,0.498464,226.122,243.093
2015-07-14 22:00,-0.00650919,276.155,264.329,249.286,261.611,256.928,240.646,-0.0,-0.0,222.259,238.714
2015-07-14 23:00,-0.106705,254.966,242.142,235.985,237.702,235.677,228.614,-0.0301157,-0.0598474,219.137,227.136
2015-07-15 00:00,-0.0892278,283.093,280.429,257.572,281.943,279.81,256.035,-0.0268619,-0.0480431,228.921,250.95
2015-07-15 01:00,-0.00311022,282.581,281.505,258.913,283.514,282.467,259.977,-0.0,-0.0,228.921,249.928
2015-07-15 02:00,-0.0,253.206,240.75,235.337,239.426,237.345,230.44,-0.0,-0.0,222.906,230.694
2015-07-15 03:00,-0.0,262.074,252.101,241.646,249.998,248.327,237.07,-0.0,-0.0,223.329,234.082
2015-07-15 04:00,-0.00123663,277.869,273.732,253.98,275.242,273.359,252.075,-0.0,-0.0,227.691,247.151
2015-07-15 05:00,-0.0,273.831,265.545,248.642,267.185,264.279,246.319,-0.0,-0.0,226.871,243.457
2015-07-15 06:00,-0.0,270.989,268.199,250.303,0.0,0.0,0.0,0.0,0.0,0.0,0.0
2015-07-15 07:00,-0.00180725,270.713,265.394,249.414,265.654,262.361,246.319,-0.0,0.00182452,226.963,243.214
2015-07-15 08:00,-0.0,276.155,273.466,253.261,275.242,273.517,253.753,-0.0,-0.0,228.921,247.481
2015-07-15 09:00,-0.0,281.346,281.505,258.802,284.079,283.049,260.098,-0.0,-0.0,229.601,252.342
2015-07-15 10:00,-0.0377728,281.346,281.386,258.913,283.938,282.904,260.098,-0.159911,-0.152536,230.755,252.047
2015-07-15 11:00,0.311215,281.883,278.721,256.892,281.221,279.511,257.158,0.23124,0.378311,230.266,250.34
2015-07-15 12:00,0.474521,294.156,282.566,259.683,284.921,283.194,260.34,0.284374,0.426175,231.709,253.309
2015-07-15 13:00,0.29995,294.933,292.005,265.456,294.405,291.871,263.318,0.115107,0.29846,233.085,253.785
2015-07-15 14:00,0.249732,297.248,292.417,265.859,294.661,291.329,263.553,0.104974,0.243179,231.865,253.595
2015-07-15 15:00,0.280094,294.491,285.433,261.519,287.134,284.779,261.421,0.211259,0.290897,232.097,253.309
2015-07-15 16:00,0.316174,294.491,282.799,259.793,284.921,282.467,259.492,0.248871,0.324009,232.935,253.213
2015-07-15 17:00,0.205579,296.531,290.756,264.95,292.73,289.689,262.728,0.106452,0.202398,233.159,252.828
2015-07-15 18:00,0.307051,285.97,268.487,251.18,267.522,262.712,245.35,0.243098,0.34018,226.027,240.316
2015-07-15 19:00,0.382131,286.121,269.767,252.045,269.35,264.967,245.35,0.300924,0.431646,228.136,242.848
2015-07-15 20:00,0.204391,291.931,288.087,262.995,289.968,286.485,260.219,0.180924,0.253241,231.865,251.652
2015-07-15 21:00,0.478283,285.665,281.86,259.244,283.514,281.146,257.282,0.452604,0.596468,230.835,249.617
2015-07-15 22:00,-0.00654767,269.283,263.556,247.991,263.04,260.764,245.905,-0.0,-0.0,227.959,243.093
2015-07-15 23:00,-0.0801886,279.667,278.101,256.778,280.639,277.853,256.785,-0.0276612,-0.0569685,231.394,251.652
2015-07-16 00:00,-0.0992271,281.346,278.474,257.006,280.054,277.701,255.658,-0.0268849,-0.0520913,230.755,250.646
2015-07-16 01:00,-0.00155561,284.888,283.841,260.011,285.757,284.061,259.856,-0.0,-0.0,231.63,252.146
2015-07-16 02:00,-0.00134394,283.924,282.566,259.134,284.781,282.758,259.249,-0.0,-0.0,230.43,251.652
2015-07-16 03:00,-0.00124887,280.239,277.601,256.434,279.022,277.091,254.646,-0.0,-0.0,228.921,248.669
2015-07-16 04:00,-0.0,280.799,277.35,256.32,278.873,276.631,254.646,-0.0,-0.0,228.835,248.775
2015-07-16 05:00,-0.0,282.059,281.386,258.691,283.656,282.467,259.37,-0.0,-0.0,230.101,251.552
2015-07-16 06:00,-0.0,282.581,284.528,260.553,287.543,287.188,262.728,-0.0,-0.0,231.315,253.69
2015-07-16 07:00,-0.0,279.667,283.148,260.011,287.134,286.343,262.136,-0.0,-0.0,231.865,254.068
2015-07-16 08:00,-0.0,281.526,283.956,260.445,287.543,287.048,262.61,-0.0,-0.0,232.02,254.068
2015-07-16 09:00,-0.0,280.239,283.38,259.793,287.27,286.626,262.847,-0.0,-0.0,230.593,252.925
2015-07-16 10:00,-0.114808,281.165,283.032,259.683,286.31,285.635,261.301,-0.291623,-0.309081,229.769,251.949
2015-07-16 11:00,0.354368,277.451,270.049,251.429,270.169,267.84,249.037,0.337548,0.440806,226.122,242.725
2015-07-16 12:00,0.40878,289.113,277.977,256.778,278.427,273.042,251.553,0.223803,0.415791,228.312,246.032
2015-07-16 13:00,0.303579,289.113,280.429,257.798,281.51,278.156,254.009,0.149484,0.313002,228.136,246.483
2015-07-16 14:00,0.242113,288.977,280.789,258.022,281.076,278.156,254.646,0.122699,0.256917,228.136,245.804
2015-07-16 15:00,0.247341,285.202,271.023,252.534,268.191,264.279,245.489,0.146868,0.26592,224.76,238.85
2015-07-16 16:00,0.207639,291.44,280.669,258.58,281.51,277.243,252.205,0.111389,0.222425,228.835,247.917
2015-07-16 17:00,0.201651,294.043,287.541,262.261,288.493,284.779,257.777,0.0946949,0.20529,230.593,250.544
2015-07-16 18:00,0.240523,288.977,278.101,256.664,276.923,273.359,250.896,0.153159,0.254863,227.055,244.412
2015-07-16 19:00,0.319438,286.569,270.607,252.29,272.104,267.673,245.072,0.295261,0.419239,228.224,245.23
2015-07-16 20:00,0.618716,268.986,238.585,234.017,234.895,233.225,226.918,0.574689,0.708537,219.863,225.799
2015-07-16 21:00,0.736453,285.357,279.702,257.685,281.221,278.911,255.153,0.531175,0.77103,229.263,249.513
2015-07-16 22:00,-0.00658646,285.665,285.433,261.412,287.951,286.626,261.54,-0.0,-0.0,231.156,253.5
2015-07-16 23:00,-0.089274,256.062,244.16,236.466,239.669,238.515,231.419,-0.0302353,-0.0570807,220.454,227.509
2015-07-17 00:00,-0.101296,282.581,282.682,259.464,284.641,282.028,258.392,-0.0285889,-0.0541397,229.263,250.032
2015-07-17 01:00,-0.0,270.151,263.401,248.121,262.15,254.472,240.5,-0.0,-0.0,227.87,241.602
2015-07-17 02:00,-0.0,280.239,278.226,256.434,279.907,278.458,256.035,-0.0,-0.0,228.488,248.133
2015-07-17 03:00,-0.00124863,266.797,258.871,245.177,257.928,254.472,239.913,-0.0,-0.0,225.739,239.922
2015-07-17 04:00,-0.0,282.753,284.3,260.228,287.134,286.767,262.728,-0.0,-0.0,230.101,252.047
2015-07-17 05:00,-0.0,270.434,265.846,249.414,265.997,258.224,243.808,-0.0,-0.0,229.685,244.175
2015-07-17 06:00,-0.0,282.408,283.495,259.464,285.618,284.779,261.182,-0.0,-0.0,230.43,250.748
2015-07-17 07:00,-0.00180606,281.526,282.916,259.134,285.895,285.635,261.301,-0.0,-0.0,232.097,251.85
2015-07-17 08:00,-0.0,281.346,282.214,258.802,284.921,284.205,260.581,-0.0,-0.0,231.943,251.452
2015-07-17 09:00,-0.00466417,276.594,275.951,255.16,277.978,274.147,254.009,-0.0,-0.0,232.251,249.617
2015-07-17 10:00,-0.0777143,276.376,276.718,255.974,280.347,277.701,256.16,-0.230302,-0.2746,232.633,251.652
2015-07-17 11:00,0.422269,285.665,277.476,256.089,279.907,274.773,253.368,0.309507,0.432668,232.784,250.135
2015-07-17 12:00,0.57013,297.947,262.931,248.121,262.685,255.045,242.241,0.37632,0.51369,233.382,244.53
2015-07-17 13:00,0.311446,293.702,290.965,264.339,293.506,291.193,263.083,0.123666,0.303581,234.185,253.595
2015-07-17 14:00,0.273292,296.114,290.229,264.133,292.47,289.689,262.255,0.131373,0.258104,234.756,253.5
2015-07-17 15:00,0.227534,296.219,287.978,263.099,290.897,287.888,262.136,0.11532,0.211915,235.038,253.5
2015-07-17 16:00,0.186573,297.146,293.742,266.259,296.182,293.35,263.67,0.0669369,0.180375,236.207,254.536
2015-07-17 17:00,0.212939,298.144,291.798,264.849,294.277,291.735,263.553,0.0930095,0.197913,236.808,254.536
2015-07-17 18:00,0.188257,296.738,291.279,264.645,294.277,291.6,263.2,0.0956381,0.178053,236.808,254.256
2015-07-17 19:00,0.222737,295.26,290.229,264.236,292.989,290.238,262.965,0.139198,0.224866,236.874,254.349
2015-07-17 20:00,0.192753,291.931,290.545,264.339,293.119,290.784,263.318,0.151547,0.231662,237.006,254.162
2015-07-17 21:00,0.873366,287.3,285.77,261.305,288.628,286.907,261.779,0.627436,0.881715,237.977,254.349
2015-07-17 22:00,-0.0132511,285.512,285.994,261.198,288.628,287.329,262.017,-0.0,-0.0,237.785,254.629
2015-07-17 23:00,-0.0864659,283.093,283.495,259.683,286.447,284.922,260.942,-0.025245,-0.0541815,237.977,254.814
2015-07-18 00:00,-0.0894501,283.428,283.956,260.337,286.722,285.635,261.54,-0.0286119,-0.0541831,237.657,255.091
2015-07-18 01:00,-0.0,277.026,278.226,256.664,281.076,280.108,258.638,-0.0,-0.0,237.657,254.907
2015-07-18 02:00,-0.0,282.408,283.264,259.464,286.033,285.065,261.421,-0.0,-0.0,237.849,255.73
2015-07-18 03:00,-0.0,282.923,284.3,260.011,286.86,286.485,261.54,-0.0,-0.0,237.268,255.183
2015-07-18 04:00,-0.0,279.473,278.721,256.892,280.785,279.361,257.9,-0.0,-0.0,236.542,252.439
2015-07-18 05:00,-0.0,279.081,278.101,256.205,280.347,279.211,256.785,-0.0,-0.0,236.675,251.751
2015-07-18 06:00,0.00146745,281.346,283.148,259.683,285.895,285.777,261.898,-0.0,-0.0,237.268,253.974
2015-07-18 07:00,-0.0,281.705,282.799,259.464,285.618,285.208,261.301,-0.0,-0.0,236.609,253.5
2015-07-18 08:00,-0.0,280.982,281.624,258.358,284.781,284.205,261.062,-0.0,-0.0,237.268,254.162
2015-07-18 09:00,-0.00466882,280.239,281.86,258.358,284.361,284.205,261.062,-0.0,-0.0,236.874,253.405
2015-07-18 10:00,-0.0395454,280.239,281.742,258.358,284.641,284.636,261.301,-0.167415,-0.199617,236.94,254.162
2015-07-18 11:00,0.294922,282.059,281.386,258.022,284.079,283.484,260.942,0.24971,0.380095,237.203,253.213
2015-07-18 12:00,0.366762,289.647,288.412,261.944,291.029,290.375,262.965,0.160444,0.38261,238.231,254.907
2015-07-18 13:00,0.304234,293.472,291.174,263.618,294.149,292.545,263.905,0.119727,0.304979,238.857,255.366
2015-07-18 14:00,0.240972,294.713,292.725,264.543,295.677,293.883,264.721,0.0908458,0.245051,238.795,255.275
2015-07-18 15:00,0.206201,296.008,293.843,265.658,296.809,294.944,264.721,0.0730844,0.204945,238.546,255.548
2015-07-18 16:00,0.182945,296.427,294.245,265.959,297.184,295.339,264.953,0.062761,0.178326,238.608,255.639
2015-07-18 17:00,0.165163,295.796,294.044,265.959,296.935,294.812,264.605,0.0599329,0.168444,238.546,255.821
2015-07-18 18:00,0.163959,295.042,293.336,265.456,296.182,294.282,264.138,0.0652306,0.165527,237.657,255.73
2015-07-18 19:00,0.166395,293.472,292.211,264.747,295.043,293.082,263.553,0.0849793,0.178652,237.463,255.821
2015-07-18 20:00,0.177899,291.44,290.44,263.721,293.248,291.871,263.905,0.142902,0.211836,237.721,255.366
2015-07-18 21:00,0.282699,287.155,287.541,262.049,290.234,289.551,263.436,0.413442,0.441075,237.977,256.181
2015-07-18 22:00,-0.0,284.888,285.882,260.769,288.493,287.888,262.728,-0.0,-0.0,238.357,256.45
2015-07-18 23:00,-0.0776695,283.924,285.095,260.337,287.815,287.329,262.728,-0.0252933,-0.0542852,238.231,256.539
2015-07-19 00:00,-0.101455,283.093,284.3,260.228,286.997,286.767,262.373,-0.028634,-0.054225,238.608,256.894
2015-07-19 01:00,-0.00155689,282.581,283.841,260.011,286.31,286.343,262.492,-0.0,-0.0,237.721,256.45
2015-07-19 02:00,-0.00134384,282.408,283.38,259.683,286.172,285.919,262.017,-0.0,-0.0,237.333,256.539
2015-07-19 03:00,-0.0,281.346,282.916,258.913,285.618,285.493,262.136,-0.0,-0.0,237.006,256.982
2015-07-19 04:00,-0.00123507,280.982,282.682,259.024,285.34,285.35,262.017,-0.0,-0.0,237.398,257.333
2015-07-19 05:00,-0.0,280.799,282.448,259.024,285.061,284.779,262.017,-0.0,-0.0,236.874,257.246
2015-07-19 06:00,-0.00146695,280.239,282.096,258.913,284.641,284.636,262.61,-0.0,0.00148097,236.207,257.508
2015-07-19 07:00,-0.0,279.859,281.742,258.691,284.22,284.349,261.66,-0.0,-0.0,235.936,257.595
2015-07-19 08:00,-0.0,279.473,281.624,258.691,283.938,284.349,261.898,-0.0,-0.0,236.808,258.286
2015-07-19 09:00,-0.0,279.278,281.386,258.134,283.797,284.205,261.54,-0.0,-0.0,236.542,258.457
2015-07-19 10:00,-0.121034,279.278,281.386,258.358,283.656,283.917,262.61,-0.239117,-0.285111,236.675,258.028
2015-07-19 11:00,0.393452,283.093,283.726,259.574,286.033,286.06,262.492,0.232666,0.447653,236.274,257.682
2015-07-19 12:00,0.374776,289.647,288.087,262.681,290.764,289.826,263.083,0.157371,0.384511,235.867,257.421
2015-07-19 13:00,0.305565,293.93,291.694,264.95,294.405,292.545,264.488,0.117601,0.302014,235.799,257.333
2015-07-19 14:00,0.250893,295.583,292.929,265.658,295.803,293.617,264.605,0.0906174,0.242664,236.341,257.682
2015-07-19 15:00,0.207278,296.635,294.044,266.358,296.684,294.547,265.416,0.0742507,0.201211,236.874,257.855
2015-07-19 16:00,0.190333,296.943,293.944,266.458,296.684,294.415,265.185,0.0665929,0.182624,236.94,257.942
2015-07-19 18:00,0.161466,295.151,293.438,265.959,296.056,294.016,264.721,0.0633546,0.157045,236.675,258.372
2015-07-19 19:00,0.160472,293.587,292.622,265.758,295.17,293.216,265.069,0.082414,0.169974,236.742,258.543
2015-07-19 20:00,0.172283,291.563,291.174,264.849,293.764,292.141,264.138,0.134356,0.201393,236.94,259.051
2015-07-19 21:00,0.274735,287.871,288.412,263.099,290.897,289.826,264.022,0.380648,0.42865,237.528,259.387
2015-07-19 22:00,-0.00670439,285.512,286.661,261.731,289.434,288.584,264.138,-0.0,-0.0,237.463,259.387
2015-07-19 23:00,-0.0897873,284.57,285.77,261.412,288.358,288.167,263.787,-0.0304091,-0.0604304,237.721,259.638
2015-07-20 00:00,-0.0915766,283.924,285.208,260.984,287.815,287.609,263.67,-0.025284,-0.0502457,237.657,260.052
2015-07-20 01:00,-0.00155723,283.093,284.982,260.661,287.407,287.329,264.022,-0.0,-0.0,237.721,260.627
2015-07-20 02:00,-0.00134376,282.753,284.414,260.337,286.86,286.626,263.787,-0.0,-0.0,237.785,260.871
2015-07-20 03:00,-0.0012478,281.883,283.956,259.574,286.31,286.485,263.436,-0.0,-0.0,237.657,260.871
2015-07-20 04:00,-0.0,282.059,284.071,260.119,286.585,286.767,264.022,-0.0,-0.0,236.742,260.952
2015-07-20 05:00,-0.0,281.883,283.956,259.683,286.447,286.343,263.553,-0.0,-0.0,236.609,260.708
2015-07-20 06:00,0.00146648,281.883,283.726,259.683,286.172,286.202,263.318,-0.0,-0.0,236.274,260.545
2015-07-20 07:00,-0.00180488,281.346,283.38,259.683,285.895,285.919,263.436,-0.0,-0.0,237.006,261.033
2015-07-20 08:00,0.00253592,280.799,283.032,259.574,285.479,285.777,263.436,-0.0,-0.0,236.341,260.952
2015-07-20 09:00,-0.0,280.239,282.214,258.802,284.361,284.636,262.492,-0.0,-0.0,235.867,260.871
2015-07-20 10:00,-0.0412676,280.799,282.448,259.134,285.061,285.35,263.436,-0.27953,-0.291635,236.808,261.595
2015-07-20 11:00,0.416311,284.57,285.433,260.553,287.679,287.888,264.372,0.231486,0.470475,238.168,262.072
2015-07-20 12:00,0.382668,291.065,289.699,263.721,292.209,291.464,265.416,0.162002,0.395524,238.981,262.388
2015-07-20 13:00,0.311109,294.823,293.031,265.959,295.677,294.282,265.762,0.120883,0.314083,239.593,262.388
2015-07-20 14:00,0.255487,297.045,295.045,266.557,297.683,295.865,266.222,0.0918622,0.250863,240.312,262.545
2015-07-20 15:00,0.216282,297.848,295.244,266.855,297.807,295.471,266.337,0.0754045,0.210322,240.489,262.151
2015-07-20 16:00,0.185117,298.045,295.541,267.151,297.931,295.865,265.762,0.0637578,0.182135,240.489,262.545
2015-07-20 17:00,0.175955,296.635,293.438,266.059,295.424,292.679,263.553,0.0652677,0.172562,239.714,261.435
2015-07-20 18:00,0.160941,296.008,294.646,266.657,297.184,295.208,265.762,0.0631487,0.164461,240.724,262.857
2015-07-20 19:00,0.162448,294.602,293.641,265.758,295.93,294.149,264.953,0.0865201,0.179872,240.489,263.012
2015-07-20 20:00,0.310924,294.713,290.123,263.721,292.34,290.511,264.022,0.225105,0.318446,240.548,262.623
2015-07-20 21:00,0.46153,288.705,288.412,262.366,290.897,289.826,264.488,0.473045,0.588558,240.841,262.857
2015-07-20 22:00,-0.0,286.121,287.212,261.412,289.568,288.999,264.255,-0.0,-0.0,240.841,263.012
2015-07-20 23:00,-0.0839564,284.73,286.217,261.198,288.763,288.584,264.255,-0.0253878,-0.0605421,240.489,262.779
2015-07-21 00:00,-0.101603,283.924,285.882,260.337,288.222,288.027,264.022,-0.0269889,-0.054304,241.246,263.399
2015-07-21 01:00,-0.00155754,283.093,285.321,260.119,287.679,287.748,264.022,-0.0,-0.00157243,241.304,263.629
2015-07-21 02:00,-0.0,282.581,285.095,260.337,287.407,287.748,264.138,-0.0,-0.0,241.131,264.238
2015-07-21 03:00,-0.0012475,282.234,284.3,259.793,286.722,286.907,263.553,-0.0,-0.0,241.246,263.706
2015-07-21 04:00,-0.0,281.346,283.726,259.574,286.172,286.202,263.436,-0.0,-0.0,241.246,263.244
2015-07-21 05:00,-0.0,281.165,283.38,259.244,285.895,286.485,263.436,-0.0,-0.0,241.419,263.476
2015-07-21 06:00,0.00146605,280.613,283.148,259.354,285.618,285.919,263.787,-0.0,0.00148007,241.817,263.244
2015-07-21 07:00,-0.0,280.613,283.032,259.464,285.479,285.777,263.2,-0.0,-0.0,242.266,263.399
2015-07-21 08:00,-0.00253669,279.667,281.86,258.802,0.0,284.492,262.847,-0.0,0.00256094,241.93,262.623
2015-07-21 09:00,-0.00468883,279.473,281.624,258.246,284.079,284.205,262.017,-0.0,-0.0,241.647,262.388
2015-07-21 11:00,0.395519,283.594,284.528,259.793,286.722,286.485,263.083,0.235466,0.455452,241.76,262.072
2015-07-21 12:00,0.0,289.514,0.0,262.261,289.968,288.584,263.787,0.166572,0.388056,241.93,261.834
2015-07-21 14:00,0.277482,0.0,0.0,264.133,292.6,290.784,264.372,0.121166,0.248421,241.476,261.914
2015-07-21 15:00,0.218875,295.796,292.108,265.355,294.277,292.141,264.953,0.0872889,0.209759,241.246,262.072
2015-07-21 16:00,0.184608,295.583,293.031,266.259,295.297,293.216,264.953,0.0675566,0.181635,241.533,262.072
2015-07-21 17:00,0.168755,295.69,293.539,266.557,295.803,293.617,265.185,0.066491,0.170369,241.817,262.545
2015-07-21 18:00,0.195622,294.043,290.651,264.543,292.47,290.648,264.255,0.114287,0.197492,241.817,262.23
2015-07-21 20:00,0.120924,289.91,289.379,264.133,291.16,289.551,263.67,0.16306,0.18086,241.874,262.151
2015-07-21 21:00,0.236427,287.444,287.651,263.203,289.835,288.861,263.787,0.460419,0.477374,242.378,262.545
2015-07-21 22:00,-0.00678392,285.665,286.882,262.576,289.032,288.167,263.787,-0.0,-0.0,242.155,262.701
2015-07-21 23:00,-0.10814,284.73,285.994,261.519,288.358,287.329,263.318,-0.033064,-0.060652,241.874,262.857
2015-07-22 00:00,-0.0877174,280.613,284.414,261.091,287.951,287.329,263.2,-0.0236314,-0.0483032,242.82,262.935
2015-07-22 01:00,-0.00155782,279.278,282.682,260.011,286.172,285.919,262.728,-0.0,-0.0,242.489,262.857
2015-07-22 02:00,-0.0,279.859,283.032,260.119,286.31,286.06,263.2,-0.0,-0.00135636,242.6,263.012
2015-07-22 03:00,-0.0,279.473,282.682,260.011,285.757,285.493,262.61,-0.0,-0.0,242.929,263.322
2015-07-22 04:00,-0.0,279.473,282.799,260.119,286.033,286.06,263.083,-0.0,-0.0,242.984,263.706
2015-07-22 05:00,-0.0,279.081,282.331,259.793,285.618,285.635,263.436,-0.0,-0.0,242.875,263.858
2015-07-22 06:00,-0.0,279.278,282.331,259.902,285.34,285.065,262.965,-0.0,-0.0,243.147,263.476
2015-07-22 07:00,-0.0,278.482,281.978,259.354,285.34,285.35,262.847,-0.0,-0.0,243.039,263.476
2015-07-22 08:00,0.00253772,277.661,281.386,259.244,285.061,284.922,262.965,-0.0,-0.0,242.71,263.399
2015-07-22 09:00,0.0046976,277.451,281.148,259.134,284.641,284.779,262.847,-0.0,-0.0,243.202,263.476
2015-07-22 10:00,-0.130658,278.279,281.978,259.244,285.479,284.922,262.492,-0.36876,-0.351753,242.875,263.244
2015-07-22 11:00,0.700471,287.01,281.505,258.913,284.921,284.922,262.373,0.634708,0.638932,242.929,263.322
2015-07-22 12:00,0.449341,291.686,285.882,261.305,288.493,287.048,262.965,0.280874,0.411013,243.31,262.935
2015-07-22 13:00,0.309269,292.653,289.058,263.515,290.764,288.861,263.436,0.138103,0.303672,243.579,262.857
2015-07-22 14:00,0.245378,294.602,291.798,265.153,293.635,291.464,264.372,0.0928293,0.238939,244.374,263.09
2015-07-22 15:00,0.2072,296.323,292.929,266.059,294.661,0.0,264.488,0.0736564,0.201197,243.633,0.0
2015-07-22 17:00,0.266537,292.414,286.217,261.944,287.679,285.777,262.373,0.222855,0.307765,243.31,262.388
2015-07-22 18:00,0.220314,295.368,290.335,264.645,292.6,289.964,263.553,0.130413,0.228325,242.71,262.545
2015-07-22 19:00,0.161131,295.69,292.211,265.859,294.405,292.545,264.837,0.0946206,0.17579,242.71,262.388
2015-07-22 20:00,0.218118,296.635,289.593,263.825,292.079,290.101,263.787,0.203525,0.269637,243.039,262.545
2015-07-22 21:00,0.299371,294.268,287.212,262.576,289.568,288.027,263.436,0.428962,0.488223,242.655,262.309
2015-07-22 22:00,-0.0136477,288.43,286.217,261.838,288.358,287.329,262.728,-0.0,-0.0,242.875,262.545
2015-07-22 23:00,-0.102314,285.818,285.433,261.091,287.679,286.626,262.61,-0.028027,-0.0546838,243.093,262.857
2015-07-23 00:00,-0.0758054,284.41,284.755,261.198,286.997,286.06,263.083,-0.0236468,-0.0503487,243.31,263.244
2015-07-23 01:00,-0.00155805,283.924,284.755,261.091,287.27,286.907,263.318,-0.0,-0.0,243.793,263.476
2015-07-23 02:00,-0.00134336,283.261,284.642,261.198,286.997,286.626,263.318,-0.0,-0.0,243.846,263.629
2015-07-23 03:00,0.0,0.0,0.0,0.0,0.0,0.0,0.0,-0.0,0.0,0.0,0.0
2015-07-23 04:00,-0.00123345,282.581,284.185,0.0,286.722,286.626,263.553,-0.0,-0.0,243.686,263.934
2015-07-23 05:00,-0.00129878,282.234,283.956,260.553,286.31,286.343,263.318,-0.0,-0.0,243.579,263.934
2015-07-23 07:00,0.0018045,281.883,283.726,260.661,286.172,0.0,263.67,-0.0,-0.0,243.147,0.0
2015-07-23 08:00,-0.0,281.165,283.264,260.011,285.757,286.06,264.138,-0.0,-0.0,242.71,263.322
2015-07-23 09:00,0.0,0.0,0.0,0.0,0.0,0.0,0.0,0.0,0.0,0.0,0.0
2015-07-23 10:00,-0.0449583,280.613,0.0,259.574,285.201,285.635,263.2,-0.304529,-0.317716,242.042,263.244
2015-07-23 12:00,0.0,290.171,289.058,263.411,291.423,0.0,264.372,0.165344,0.391262,241.817,263.012
2015-07-23 13:00,0.312521,294.043,291.902,265.456,294.277,0.0,265.185,0.0,0.0,242.155,263.09
2015-07-23 14:00,0.246401,296.427,294.145,266.855,296.559,294.679,265.647,0.0,0.243501,0.0,0.0
2015-07-23 15:00,0.0,297.848,294.546,267.052,296.809,294.282,265.069,0.0814604,0.210181,242.155,263.09
2015-07-23 18:00,0.0,0.0,287.978,262.995,290.101,288.167,262.965,0.204007,0.302097,242.211,261.834
2015-07-23 19:00,0.183765,0.0,290.651,0.0,293.248,290.921,264.605,0.131487,0.214264,241.76,261.834
2015-07-23 20:00,0.194669,294.713,290.756,264.95,293.248,291.464,264.488,0.172318,0.23673,241.533,261.595
2015-07-23 21:00,0.516272,288.012,286.217,262.049,288.763,287.188,262.492,0.532154,0.679835,241.304,261.275
2015-07-23 22:00,0.0,286.121,0.0,261.731,289.032,0.0,0.0,-0.0,-0.0,0.0,261.595
2015-07-23 23:00,-0.0753615,285.045,285.994,261.731,288.358,287.469,263.905,-0.0255234,-0.0517357,241.817,261.675
2015-07-24 00:00,-0.0938176,284.087,285.095,260.984,287.815,287.048,263.67,-0.0270418,-0.0523952,241.817,261.755
2015-07-24 01:00,0.0,283.428,284.755,260.661,0.0,287.469,263.553,-0.0,0.0,0.0,262.388
2015-07-24 02:00,-0.0,282.581,284.3,260.445,286.722,286.626,263.318,-0.0,-0.0,241.986,262.309
2015-07-24 03:00,-0.00124652,282.059,283.726,259.902,286.172,285.777,262.847,-0.0,-0.0,242.099,262.388
2015-07-24 04:00,-0.00123305,0.0,0.0,0.0,0.0,0.0,0.0,-0.0,0.0,0.0,0.0
2015-07-24 05:00,-0.0,280.982,282.799,0.0,285.479,285.208,262.728,-0.0,-0.0,0.0,261.834
2015-07-24 06:00,0.0,281.165,283.148,260.011,285.757,285.919,0.0,-0.0,-0.0,241.817,261.993
2015-07-24 07:00,-0.0,0.0,0.0,259.464,285.34,285.208,262.965,-0.0,-0.0,241.93,0.0
2015-07-24 08:00,-0.0,280.427,282.682,259.354,285.201,285.493,263.318,-0.0,-0.0,242.042,261.993
2015-07-24 09:00,-0.0,280.05,282.448,259.024,284.781,0.0,0.0,-0.0,-0.0,241.874,261.515
2015-07-24 11:00,0.394425,283.76,284.071,0.0,286.447,286.06,263.318,0.241478,0.0,241.131,260.871
2015-07-24 12:00,0.383034,289.779,288.412,262.576,0.0,289.413,263.67,0.0,0.377633,241.246,260.952
2015-07-24 13:00,0.307292,294.38,291.798,264.849,294.277,292.41,264.022,0.124745,0.30173,240.43,260.789
2015-07-24 14:00,0.249124,296.84,294.446,266.657,296.935,294.944,265.416,0.0937479,0.242773,240.899,260.871
2015-07-24 16:00,0.0,298.63,295.442,267.642,298.055,295.471,265.301,0.0669757,0.0,240.371,260.871
2015-07-24 17:00,0.170533,298.045,0.0,0.0,297.683,294.944,265.185,0.0672887,0.167149,240.014,260.052
2015-07-24 18:00,0.0,0.0,0.0,266.059,0.0,292.948,264.372,0.0,0.173992,239.894,258.882
2015-07-24 19:00,0.21136,294.38,289.486,263.721,291.686,289.137,262.017,0.141857,0.226392,238.608,257.333
2015-07-24 20:00,0.162705,292.174,290.335,0.0,292.989,290.921,263.67,0.178719,0.213095,238.919,258.372
2015-07-24 21:00,0.240842,0.0,0.0,0.0,0.0,0.0,263.436,0.407841,0.0,239.471,0.0
2015-07-25 01:00,0.0,0.0,0.0,0.0,286.722,0.0,0.0,0.0,0.0,239.894,258.628
2015-07-25 02:00,0.0,0.0,284.3,0.0,286.86,285.777,262.255,-0.0,-0.0,240.134,258.286
2015-07-25 03:00,0.0,0.0,284.071,260.445,0.0,0.0,261.898,-0.0,-0.0,239.471,257.595
2015-07-25 07:00,-0.0,281.883,282.799,259.244,285.479,284.922,262.255,-0.0,-0.0,239.227,0.0
2015-07-25 08:00,-0.0,0.0,0.0,0.0,0.0,0.0,0.0,0.0,0.0,0.0,0.0
2015-07-25 09:00,-0.00473059,0.0,0.0,0.0,285.34,284.779,262.017,-0.0,0.0,239.043,257.595
2015-07-25 11:00,0.0,284.73,284.3,260.228,0.0,285.777,262.255,0.250063,0.432032,239.834,257.682
2015-07-25 14:00,0.260429,0.0,0.0,265.254,294.533,291.6,263.67,0.0,0.0,0.0,0.0
2015-07-25 15:00,0.224216,297.749,293.336,265.758,295.55,292.41,264.138,0.0823098,0.0,240.312,257.682
2015-07-25 20:00,0.0,0.0,278.101,256.778,280.347,0.0,258.392,0.614328,0.732493,0.0,257.595
2015-07-25 22:00,-0.00694379,0.0,285.77,0.0,288.222,286.626,262.255,-0.0,-0.0,0.0,257.942
2015-07-26 02:00,-0.0,282.581,0.0,0.0,285.757,284.205,261.182,-0.0,-0.0013556,239.593,257.769
2015-07-26 04:00,-0.0,0.0,280.669,0.0,282.946,281.882,260.822,-0.0,-0.0,0.0,0.0
2015-07-26 05:00,0.0,0.0,277.852,256.32,0.0,279.81,259.37,-0.0,-0.0,0.0,0.0
2015-07-26 07:00,0.0,280.427,280.789,258.246,283.514,0.0,0.0,0.0,0.0,0.0,0.0
2015-07-26 09:00,-0.0,272.836,273.466,0.0,276.163,0.0,256.41,-0.0,-0.0,0.0,255.457
2015-07-26 10:00,0.0,0.0,0.0,0.0,275.55,275.085,256.785,0.0,0.0,0.0,255.183
2015-07-26 12:00,0.0,290.813,0.0,0.0,0.0,0.0,262.255,0.0,0.0,0.0,0.0
2015-07-26 14:00,0.0,0.0,292.52,0.0,0.0,0.0,263.436,0.0,0.237787,0.0,0.0
2015-07-26 16:00,0.3515,0.0,282.566,258.58,284.641,0.0,0.0,0.332858,0.0,0.0,257.595
2015-07-26 17:00,0.0,296.323,283.956,259.902,0.0,0.0,259.856,0.197808,0.0,235.593,257.682
2015-07-26 18:00,0.0,0.0,280.909,257.346,0.0,280.702,0.0,0.0,0.421291,234.401,256.716
2015-07-26 19:00,0.314415,295.151,281.742,258.58,283.797,0.0,259.37,0.287858,0.31484,234.827,256.894
2015-07-26 22:00,-0.00698369,278.684,0.0,0.0,0.0,278.76,258.147,0.0,0.0,0.0,257.855
2015-07-26 23:00,-0.0939146,0.0,0.0,255.858,0.0,0.0,0.0,-0.0256508,0.0,0.0,0.0
2015-07-27 01:00,-0.00311728,0.0,0.0,259.244,0.0,0.0,0.0,-0.0,-0.0,248.231,0.0
2015-07-27 02:00,-0.00134253,281.705,282.916,0.0,285.34,0.0,261.54,-0.0,-0.0,0.0,0.0
2015-07-27 03:00,0.0,280.799,281.978,0.0,284.501,283.773,261.898,-0.0,-0.0,0.0,263.09
2015-07-27 05:00,0.0,0.0,0.0,0.0,0.0,0.0,0.0,0.0,0.0,0.0,0.0
2015-07-27 06:00,-0.00146438,282.581,283.841,259.024,286.172,285.919,262.847,-0.0,-0.0,246.208,263.244
2015-07-27 08:00,0.00254676,282.059,284.071,259.464,286.447,286.343,262.728,-0.0,-0.0,245.91,263.167
2015-07-27 09:00,-0.0,281.526,283.726,259.134,286.172,286.06,262.847,-0.0,-0.00480393,245.709,263.09
2015-07-27 10:00,-0.212587,281.883,283.956,259.244,286.31,286.202,262.847,-0.359995,-0.429239,246.109,263.322
2015-07-27 13:00,0.308252,0.0,292.417,264.849,294.661,292.679,264.605,0.121681,0.29648,246.159,0.0
2015-07-27 16:00,0.27664,294.823,286.328,261.412,0.0,286.767,262.255,0.205602,0.288594,246.109,0.0
2015-07-27 17:00,0.224672,297.248,290.965,264.031,292.989,290.648,264.372,0.130522,0.216886,246.307,0.0
2015-07-27 19:00,0.170553,295.26,293.944,266.059,296.684,294.679,265.878,0.0948346,0.182463,246.059,263.934
2015-07-27 21:00,0.224426,288.841,289.272,262.995,291.817,290.784,264.721,0.414591,0.453143,246.159,263.706
2015-07-27 22:00,-0.0,285.818,287.212,261.731,289.701,289.137,264.138,-0.0,-0.0,246.847,263.858
2015-07-27 23:00,-0.0728227,284.57,286.105,260.984,288.493,288.027,263.787,-0.0231221,-0.0490126,247.041,264.086
2015-07-28 00:00,-0.0780182,283.924,285.321,260.661,287.679,287.188,263.2,-0.0220193,-0.0484702,247.807,264.01
2015-07-28 01:00,-0.0,283.428,284.755,260.011,286.86,286.485,263.787,-0.0,-0.0,247.665,263.934
2015-07-28 03:00,-0.0,282.059,283.956,260.011,286.31,286.06,262.965,-0.0,-0.0,249.062,264.54
2015-07-28 04:00,-0.0,281.883,283.841,259.683,286.172,286.485,263.436,-0.0,-0.0,249.381,265.137
2015-07-28 05:00,-0.0,281.705,283.726,259.354,286.033,286.485,263.2,-0.0,-0.0,249.471,265.36
2015-07-28 06:00,-0.0,280.982,283.38,259.244,285.757,286.06,262.492,-0.0,-0.0,248.925,265.36
2015-07-28 07:00,-0.0018059,281.526,283.495,259.464,285.757,285.919,263.2,-0.0,-0.0,248.787,264.765
2015-07-28 08:00,-0.0,281.346,283.148,259.134,285.34,285.208,263.083,-0.0,-0.0,248.649,264.464
2015-07-28 10:00,-0.168363,279.859,281.742,258.246,284.079,283.773,261.898,-0.427658,-0.509917,248.557,264.389
2015-07-28 11:00,0.483458,285.97,283.264,259.464,285.618,284.779,261.779,0.309503,0.494032,248.557,264.314
2015-07-28 12:00,0.399928,291.563,290.123,263.515,292.6,291.6,264.721,0.16682,0.397814,248.833,264.765
2015-07-28 13:00,0.313334,295.583,293.438,265.355,295.93,294.149,265.416,0.12123,0.30795,249.062,265.063
2015-07-28 14:00,0.252775,298.144,295.837,267.151,298.426,296.127,266.108,0.092551,0.24657,248.879,265.063
2015-07-28 15:00,0.215918,299.579,297.107,268.227,299.898,297.818,267.137,0.0762837,0.208573,248.649,265.36
2015-07-28 16:00,0.228275,300.042,294.646,266.657,297.309,294.812,266.222,0.10118,0.211897,248.603,264.839
2015-07-28 17:00,0.225575,300.134,293.438,265.658,295.93,293.483,264.953,0.0982652,0.206279,248.371,264.615
2015-07-28 18:00,0.183315,298.339,296.033,267.544,298.795,296.389,266.681,0.0759893,0.175428,248.417,264.914
2015-07-28 19:00,0.301659,0.0,291.383,264.849,294.149,291.464,263.905,0.191024,0.304543,248.277,264.086
2015-07-28 20:00,0.472189,297.146,287.651,262.366,290.367,288.584,262.61,0.352552,0.481037,248.231,263.706
2015-07-28 21:00,1.03761,279.667,273.466,253.86,277.226,275.861,258.147,0.810961,1.14825,248.324,262.309
2015-07-28 22:00,0.0,273.831,274.655,254.926,277.828,276.169,257.777,-0.0,-0.0,248.231,262.466
2015-07-28 23:00,-0.0911678,285.818,286.661,261.519,289.032,288.167,263.905,-0.0257306,-0.0521556,248.137,264.162
2015-07-29 00:00,-0.0720503,274.551,275.306,254.572,278.278,276.938,258.76,-0.0237241,-0.0484927,247.996,262.466
2015-07-29 01:00,-0.00155872,279.278,280.308,257.798,282.66,281.441,260.942,-0.0,-0.0,247.996,263.012
2015-07-29 02:00,-0.0,277.24,277.476,255.858,280.493,278.609,258.76,-0.0,-0.0,247.57,262.23
2015-07-29 03:00,-0.00124474,267.761,269.626,251.305,273.057,272.565,256.909,-0.0,-0.0,247.617,261.033
2015-07-29 04:00,-0.0,268.382,269.767,252.045,273.686,273.042,256.66,-0.0,0.00124289,247.807,261.515
2015-07-29 05:00,-0.0,275.251,276.591,255.742,278.725,277.548,258.638,-0.0,-0.0,247.712,262.151
2015-07-29 06:00,-0.0,276.594,277.098,255.858,280.054,278.458,258.638,-0.0,-0.0,248.09,262.545
2015-07-29 07:00,-0.0,266.466,269.626,251.429,273.529,273.2,256.909,-0.0,-0.0,247.76,261.675
2015-07-29 08:00,-0.0,283.594,284.982,259.793,287.27,287.048,263.67,-0.0,-0.0,247.807,264.01
2015-07-29 09:00,-0.00479129,282.581,284.642,259.793,286.722,286.626,263.67,-0.0,-0.0,247.522,264.162
2015-07-29 10:00,-0.119297,282.408,284.3,259.464,286.585,286.767,263.787,-0.454537,-0.42153,247.522,264.839
2015-07-29 11:00,0.432839,286.717,287.212,261.091,289.701,289.137,264.138,0.232767,0.454692,247.855,265.655
2015-07-29 12:00,0.380469,292.534,291.279,263.721,293.764,292.814,265.532,0.163549,0.387061,247.665,265.36
2015-07-29 13:00,0.299737,295.902,293.944,265.557,296.684,294.944,265.762,0.119017,0.302602,247.379,264.54
2015-07-29 14:00,0.245105,298.63,295.935,266.657,298.549,296.519,266.222,0.0922354,0.242293,247.186,264.615
2015-07-29 16:00,0.360407,296.427,281.267,258.134,283.656,282.175,260.581,0.284467,0.373103,247.522,263.322
2015-07-29 17:00,0.259047,299.672,290.335,263.099,292.079,289.413,263.436,0.153121,0.235207,247.379,263.244
2015-07-29 18:00,0.430019,297.848,280.669,258.022,282.66,280.554,259.492,0.338319,0.437971,247.426,262.545
2015-07-29 19:00,0.535165,297.947,277.852,256.089,281.366,279.061,259.005,0.465948,0.596348,247.379,262.23
2015-07-29 20:00,0.759556,293.356,275.176,254.69,277.828,276.477,257.777,0.628663,0.788357,247.949,261.993
2015-07-29 21:00,0.976393,288.705,282.448,258.691,285.061,282.467,260.098,0.710971,1.04487,248.184,262.545
2015-07-29 22:00,-0.00710256,273.338,274.261,253.86,277.226,276.015,257.53,-0.0,-0.0,248.417,261.755
2015-07-29 23:00,-0.0973903,283.093,282.566,258.913,285.201,283.194,260.701,-0.0283457,-0.0583783,248.277,262.701
2015-07-30 00:00,-0.082093,278.075,278.35,255.974,280.931,279.361,258.638,-0.0237345,-0.0485138,248.51,262.072
2015-07-30 01:00,-0.00155872,281.883,280.909,257.459,283.514,281.441,260.701,-0.00131977,-0.0,248.649,262.466
2015-07-30 02:00,-0.0,272.061,273.199,253.381,276.01,275.24,258.27,-0.0,-0.0,248.649,262.23
2015-07-30 03:00,0.00124437,278.075,279.58,257.12,281.366,280.85,259.977,-0.0,0.00125627,248.371,262.388
2015-07-30 04:00,0.00123076,265.791,267.909,250.681,271.625,271.926,256.285,-0.0,-0.0,248.695,260.952
2015-07-30 05:00,-0.00129643,278.883,281.148,257.798,282.517,281.735,261.301,-0.0,-0.0,248.833,263.012
2015-07-30 06:00,-0.0,284.249,285.433,260.119,287.543,287.329,263.787,-0.0,-0.0,248.879,264.765
2015-07-30 07:00,-0.0,279.667,280.187,257.346,282.946,282.028,260.701,-0.0,-0.0,249.062,264.389
2015-07-30 08:00,-0.00255556,283.76,285.208,259.683,287.407,286.907,263.2,-0.0,-0.0,248.371,264.69
2015-07-30 09:00,-0.0,282.923,284.869,259.464,286.997,287.048,263.67,-0.0,-0.0,247.426,264.69
2015-07-30 10:00,-0.191639,282.753,284.755,259.464,286.997,287.048,263.436,-0.486781,-0.580412,247.234,264.615
2015-07-30 12:00,0.387343,292.534,291.279,263.618,293.892,292.545,265.301,0.16768,0.385166,246.603,264.69
2015-07-30 13:00,0.310918,296.323,294.145,265.557,296.935,295.471,266.108,0.120295,0.301418,246.554,264.765
2015-07-30 14:00,0.249339,298.144,295.738,266.358,298.302,296.258,266.337,0.0947863,0.241448,245.759,264.464
2015-07-30 15:00,0.208339,299.203,296.523,266.855,299.041,296.78,266.222,0.0757868,0.200983,245.608,264.314
2015-07-30 17:00,0.194858,299.765,294.646,265.557,297.434,294.415,265.185,0.0838679,0.181967,245.355,264.162
2015-07-30 18:00,0.199073,299.391,294.646,265.859,296.935,294.282,265.762,0.0947119,0.185664,245.507,264.314
2015-07-30 19:00,0.191051,297.449,293.641,265.456,296.056,293.75,265.647,0.114936,0.195415,245.304,264.615
2015-07-30 20:00,0.233312,295.476,292.417,264.543,294.533,292.545,265.069,0.204729,0.265521,245.304,264.162
2015-07-30 22:00,-0.0,287.155,287.978,261.731,290.5,289.964,264.255,-0.0,-0.0,245.099,264.765
2015-07-30 23:00,-0.109722,285.97,286.882,261.091,289.3,288.722,264.488,-0.0283866,-0.0584625,244.479,264.086
2015-07-31 00:00,-0.0721108,284.41,286.105,260.119,288.358,288.167,263.787,-0.022048,-0.0485334,244.374,263.858
2015-07-31 01:00,-0.00155868,283.76,285.546,260.337,287.679,287.329,264.138,-0.00131973,-0.0,244.531,263.858
2015-07-31 02:00,-0.00268287,283.261,285.095,260.011,287.407,287.609,263.67,-0.0,-0.0,245.355,264.54
2015-07-31 03:00,0.001244,282.753,284.755,259.683,286.86,287.048,263.905,-0.0,-0.0,246.059,264.839
2015-07-31 04:00,-0.0,282.408,284.185,259.574,286.447,286.626,263.67,-0.0,-0.0,245.859,264.69
2015-07-31 05:00,-0.0,281.526,283.956,259.244,285.895,286.202,264.138,-0.0,-0.0,246.258,265.36
2015-07-31 06:00,-0.0,281.346,283.495,259.134,285.479,286.06,264.022,-0.0,-0.0,246.603,265.655
2015-07-31 07:00,-0.0,280.982,283.032,258.691,285.061,285.493,263.67,-0.0,-0.0,246.208,265.655
2015-07-31 08:00,-0.0,280.427,282.682,258.469,284.781,285.208,264.022,-0.0,-0.0,245.96,265.875
2015-07-31 09:00,-0.0,280.239,282.448,258.134,284.361,285.208,263.787,-0.0,-0.0,246.208,266.094
2015-07-31 10:00,-0.20708,280.05,282.214,258.022,284.22,285.208,263.2,-0.584449,-0.62718,246.109,266.456
2015-07-31 11:00,0.419909,284.57,285.208,259.793,287.407,287.469,264.138,0.233777,0.481995,246.603,266.312
2015-07-31 12:00,0.405674,291.315,290.123,262.995,292.6,292.006,265.762,0.169288,0.409552,246.798,266.529
2015-07-31 13:00,0.319924,295.796,294.044,265.456,296.684,295.471,266.909,0.125021,0.316771,247.186,266.745
2015-07-31 14:00,0.255212,298.144,296.425,266.756,299.041,297.559,267.592,0.094449,0.252533,248.324,0.0
2015-07-31 15:00,0.218408,299.108,297.107,267.151,299.654,298.076,267.819,0.0768354,0.208074,248.417,267.103
2015-07-31 16:00,0.191167,299.485,297.879,267.935,300.627,298.976,267.932,0.0655151,0.183804,248.464,267.317
2015-07-31 17:00,0.176403,299.391,297.879,267.642,300.627,298.848,267.932,0.0644031,0.171554,247.665,267.388
2015-07-31 18:00,0.166243,297.848,297.01,267.446,299.898,298.076,267.478,0.06718,0.167833,247.234,266.673
2015-07-31 19:00,0.17273,296.427,295.541,266.756,298.178,296.78,267.137,0.089022,0.181963,247.283,266.456
2015-07-31 20:00,0.181342,293.93,294.044,265.758,296.684,295.865,266.909,0.14283,0.221394,246.993,266.673
2015-07-31 21:00,0.281057,289.247,290.651,263.515,292.86,292.679,266.222,0.396618,0.453991,247.379,266.745
2015-07-31 22:00,-0.0,286.121,288.195,261.944,290.5,290.511,264.837,-0.0,-0.0,247.426,266.817
2015-07-31 23:00,-0.0976668,285.512,287.322,261.305,289.434,289.551,265.069,-0.0284262,-0.0554628,247.807,267.032
