# timestamp,IR_016,IR_039,IR_087,IR_097,IR_108,IR_120,IR_134,VIS006,VIS008,WV_062,WV_073
2016-10-01 00:00,0.0,288.43,286.328,257.006,288.358,285.777,260.098,0.0,0.0,237.913,255.73
2016-10-01 01:00,0.0,288.705,286.105,256.778,288.358,285.635,259.977,0.0,0.0,236.742,253.785
2016-10-01 02:00,-0.00138026,287.444,286.55,257.459,288.897,286.626,260.942,0.0,-0.00139346,237.333,253.88
2016-10-01 03:00,0.0,288.705,287.432,258.022,289.701,287.188,0.0,0.0,0.0,238.168,255.366
2016-10-01 04:00,-0.00130773,287.444,286.772,257.685,289.701,287.609,260.942,0.0,0.0,238.608,255.73
2016-10-01 05:00,0.0,289.247,288.52,258.469,291.292,288.861,261.421,0.0,0.0,239.104,256.45
2016-10-01 06:00,0.00165286,288.841,287.869,258.246,290.5,288.167,261.779,0.0,0.0,238.919,257.158
2016-10-01 07:00,0.0,289.247,287.978,258.246,290.632,288.167,260.942,0.0,0.0,238.857,256.716
2016-10-01 08:00,0.0,289.514,288.195,258.58,290.764,288.167,261.182,0.0,0.0,238.42,256.36
2016-10-01 09:00,0.0,288.152,286.328,257.346,288.763,286.485,260.822,-0.00876215,0.0,238.795,256.805
2016-10-01 10:00,0.259126,288.977,285.433,257.233,287.407,284.922,259.856,0.455681,0.36222,238.919,256.716
2016-10-01 11:00,0.217909,292.053,283.38,255.974,285.618,282.613,258.27,0.289933,0.265387,238.42,256.628
2016-10-01 12:00,0.0306469,289.91,287.432,258.58,289.3,286.343,259.977,0.120476,0.0707196,238.483,257.158
2016-10-01 13:00,0.0219591,290.041,287.978,258.58,289.968,287.329,260.822,0.0829521,0.0477486,239.043,257.246
2016-10-01 14:00,0.0145885,290.171,287.869,258.58,289.701,286.767,260.701,0.0629956,0.03682,238.483,257.595
2016-10-01 15:00,0.0164199,290.171,287.651,258.58,289.568,287.188,260.34,0.0556109,0.0317724,238.231,257.246
2016-10-01 16:00,0.0303466,290.813,287.651,258.691,289.568,287.048,260.581,0.063068,0.0431698,238.608,257.508
2016-10-01 17:00,0.0628475,291.931,287.541,258.358,289.701,287.609,261.062,0.097557,0.0770444,238.42,257.508
2016-10-01 18:00,0.139909,293.472,287.212,258.469,289.568,287.469,261.062,0.166445,0.144822,237.785,257.07
2016-10-01 19:00,0.242207,295.151,287.76,258.691,290.101,287.888,261.182,0.261372,0.239728,238.483,257.595
2016-10-01 20:00,0.646503,296.84,287.869,258.913,290.367,288.445,0.0,0.547393,0.554781,238.546,257.769
2016-10-01 21:00,0.935929,291.19,288.087,258.691,290.367,288.445,261.779,0.548619,0.726828,238.231,258.028
2016-10-01 22:00,-0.00706362,289.381,288.087,258.913,290.5,288.306,262.136,0.0,0.0,238.104,257.855
2016-10-01 23:00,-0.0151299,288.291,287.212,258.246,289.835,287.748,261.421,-0.028183,-0.0122196,238.168,257.682
2016-10-02 00:00,-0.00200576,289.647,288.412,259.134,291.029,288.861,261.421,0.0,0.0,238.795,258.114
2016-10-02 01:00,0.0,286.569,286.55,258.022,289.032,287.609,261.898,0.0,0.0,238.981,258.286
2016-10-02 02:00,0.0,289.381,288.628,259.354,291.16,289.276,262.017,0.0,0.00138773,239.41,258.372
2016-10-02 03:00,-0.0012938,285.512,285.658,258.022,288.222,286.767,261.54,0.0,0.0,239.653,258.798
2016-10-02 04:00,0.0,280.799,280.549,254.926,282.66,282.028,259.856,0.0,0.0,239.834,258.457
2016-10-02 05:00,0.0,288.43,287.76,258.802,290.367,288.584,261.54,0.0,0.0,239.593,259.22
2016-10-02 06:00,0.0,289.779,288.736,259.244,291.16,289.137,262.136,0.0,0.0,239.166,259.22
2016-10-02 07:00,0.00215782,289.647,288.736,259.024,291.16,289.137,262.136,0.0,0.0,239.593,258.628
2016-10-02 08:00,0.0,288.568,287.869,258.691,290.632,288.722,262.017,0.0,0.0,239.288,258.713
2016-10-02 09:00,0.0,289.779,288.843,259.244,291.423,289.413,262.373,0.0,-0.0102982,239.227,258.967
2016-10-02 10:00,0.141464,290.041,289.058,259.244,291.817,289.826,262.017,0.410664,0.285632,238.795,258.628
2016-10-02 11:00,0.191175,292.294,288.628,259.024,291.16,289.276,262.492,0.282532,0.224584,238.981,259.554
2016-10-02 12:00,0.070286,291.931,288.843,259.024,291.423,289.826,262.61,0.146918,0.102002,239.166,259.554
2016-10-02 13:00,0.0423516,291.065,288.951,259.244,291.555,289.689,262.847,0.103274,0.0684103,238.483,259.22
2016-10-02 14:00,0.024871,290.685,289.379,259.134,292.079,290.238,262.61,0.0718459,0.0443096,238.357,258.798
2016-10-02 15:00,0.0699964,291.686,288.303,259.024,291.16,289.276,262.255,0.0987763,0.0775935,238.671,259.051
2016-10-02 16:00,0.0235305,291.315,289.379,259.464,291.948,290.375,262.492,0.0609416,0.0419213,238.671,259.135
2016-10-02 17:00,0.0601039,292.053,288.843,259.244,291.555,289.826,262.255,0.0865128,0.0682633,238.546,259.135
2016-10-02 18:00,0.121077,292.771,288.412,258.691,291.029,289.276,262.255,0.152266,0.125829,238.357,258.882
2016-10-02 19:00,0.21537,294.156,288.412,258.802,290.897,289.137,262.492,0.241112,0.219845,238.795,259.051
2016-10-02 20:00,0.45067,295.69,288.843,259.134,291.292,289.551,262.728,0.440554,0.421889,239.227,259.304
2016-10-02 21:00,0.633898,288.705,287.322,258.022,289.701,288.306,261.779,0.487927,0.601172,238.795,259.22
2016-10-02 22:00,-0.013784,289.779,288.843,258.58,291.16,289.413,262.255,0.0,0.0,238.357,258.882
2016-10-02 23:00,-0.0149724,287.444,286.217,257.233,288.763,287.048,260.822,-0.0152125,-0.0151155,237.849,258.628
2016-10-03 00:00,0.0,289.779,288.736,259.024,291.16,289.137,262.492,0.0,0.0,237.333,258.628
2016-10-03 01:00,0.0,289.247,288.52,258.802,290.897,288.861,262.965,0.0,0.0,236.808,258.286
2016-10-03 02:00,0.0,288.568,287.869,258.469,290.367,288.722,262.136,0.0,0.0,236.542,258.028
2016-10-03 03:00,-0.00128932,289.647,288.628,259.024,291.029,289.276,262.373,0.0,0.0,236.675,258.028
2016-10-03 04:00,-0.0012995,289.514,288.736,259.024,291.16,289.413,262.61,0.0,0.0,236.475,258.028
2016-10-03 05:00,0.0,288.977,287.76,258.358,289.968,288.027,262.136,0.0,0.0,236.742,257.682
2016-10-03 06:00,0.0,289.247,287.651,258.358,289.968,287.888,261.898,0.0,0.0,236.675,257.246
2016-10-03 07:00,0.0,289.381,287.978,258.58,290.101,288.027,262.017,0.0,0.0,237.592,257.595
2016-10-03 08:00,0.0,289.247,287.978,258.691,290.101,288.027,261.779,0.0,0.0,238.104,257.769
2016-10-03 09:00,0.0,288.291,287.212,258.134,289.3,287.329,260.822,0.0,-0.0101516,237.203,257.333
2016-10-03 10:00,0.399716,289.91,286.882,258.022,288.897,286.767,260.581,0.520675,0.434578,237.137,257.333
2016-10-03 11:00,0.506557,293.124,283.38,256.089,285.34,283.194,259.856,0.520597,0.507872,237.721,257.855
2016-10-03 12:00,0.0484889,290.685,286.217,257.685,287.951,285.065,260.219,0.126899,0.082329,237.333,256.805
2016-10-03 13:00,0.0492741,291.065,287.322,258.022,289.032,286.343,260.822,0.106459,0.0720447,237.137,257.158
2016-10-03 14:00,0.063092,291.44,285.77,257.346,287.815,285.065,260.34,0.0931743,0.0711016,237.137,256.894
2016-10-03 15:00,0.196871,285.357,279.458,254.217,281.655,280.554,258.76,0.283257,0.280755,237.006,256.628
2016-10-03 16:00,0.0888953,289.247,282.096,255.277,283.797,281.882,259.127,0.145831,0.129009,237.072,256.45
2016-10-03 17:00,0.116187,290.171,285.095,256.892,286.86,284.349,259.492,0.148202,0.132531,237.072,256.539
2016-10-03 18:00,0.100252,292.534,285.658,257.346,287.27,284.205,259.977,0.131872,0.0957887,237.785,256.894
2016-10-03 19:00,0.0699399,291.686,286.992,257.685,288.087,285.35,260.34,0.126604,0.0803476,237.913,256.805
2016-10-03 20:00,0.311609,293.816,286.328,257.798,287.543,284.492,259.492,0.32716,0.285226,237.463,256.539
2016-10-03 21:00,0.123512,289.514,286.992,258.022,288.493,285.35,260.219,0.296303,0.270168,237.721,256.45
2016-10-03 22:00,-0.00672985,289.381,286.55,257.798,287.815,284.779,259.856,0.0,0.0,237.721,256.001
2016-10-03 23:00,-0.0118558,283.924,280.429,254.099,281.943,279.661,257.777,-0.0150574,-0.0149614,237.657,255.275
2016-10-04 00:00,-0.00197925,288.841,286.439,257.91,287.815,284.636,259.614,0.0,0.0,238.294,255.73
2016-10-04 01:00,0.0,286.717,284.071,257.006,286.447,283.484,258.515,0.0,0.0,238.231,255.821
2016-10-04 02:00,0.0,288.43,286.55,258.134,288.358,285.777,259.977,0.0,0.0,238.294,256.001
2016-10-04 03:00,-0.00128494,289.381,286.992,258.58,288.628,285.777,260.822,0.0,0.0,238.795,256.716
2016-10-04 04:00,-0.00129551,289.647,287.432,258.802,289.032,286.06,260.34,0.0,0.0,239.166,256.539
2016-10-04 05:00,0.0,289.247,287.541,258.802,289.3,286.485,260.822,0.0,0.0,238.231,256.36
2016-10-04 06:00,0.0,289.514,287.76,259.134,289.701,286.767,260.822,0.0,0.0,238.168,256.628
2016-10-04 07:00,0.00214244,289.514,287.651,258.691,289.3,286.485,261.182,0.0,0.0,238.041,256.894
2016-10-04 08:00,0.0,289.113,286.992,258.469,288.763,285.919,260.219,0.0,0.0,237.006,256.628
2016-10-04 09:00,0.0,288.568,286.772,258.358,288.628,285.777,260.942,0.0,0.0,238.104,257.158
2016-10-04 11:00,0.453004,266.466,249.385,237.572,248.307,248.121,238.428,0.936594,1.05293,225.931,236.033
2016-10-04 12:00,0.0973223,291.315,286.217,258.358,287.679,284.636,259.735,0.172296,0.120583,238.231,256.36
2016-10-04 13:00,0.257348,291.19,283.956,256.549,286.172,284.205,259.977,0.303034,0.282176,237.333,255.275
2016-10-04 14:00,0.0367904,290.813,287.322,258.58,289.166,286.485,260.942,0.078499,0.0490276,235.799,254.999
2016-10-04 15:00,0.0524798,291.065,287.212,258.469,289.434,286.767,260.822,0.0783452,0.0585585,235.867,254.907
2016-10-04 16:00,0.104544,290.558,286.217,257.798,288.628,286.202,261.062,0.131006,0.111172,235.799,255.183
2016-10-04 17:00,0.206087,287.587,281.505,255.742,284.22,282.613,259.977,0.269439,0.257012,236.004,254.907
2016-10-04 18:00,0.135003,291.563,285.433,257.459,287.407,284.636,259.614,0.17527,0.147197,236.874,255.548
2016-10-04 19:00,0.539621,295.151,279.823,254.572,281.655,279.81,257.53,0.487767,0.4957,235.317,253.69
2016-10-04 20:00,0.994505,291.686,270.468,249.669,271.142,267.506,247.279,0.845613,0.944452,231.709,247.261
2016-10-04 21:00,0.376775,282.234,279.945,254.808,282.803,280.998,257.9,0.375312,0.447503,236.475,255.548
2016-10-04 22:00,-0.0065765,288.841,285.77,257.572,287.407,284.492,258.882,0.0,0.0,236.341,255.639
2016-10-04 23:00,-0.0117375,288.012,286.55,258.022,288.493,286.06,260.581,-0.0124226,-0.0148121,237.006,256.894
2016-10-05 00:00,0.0,289.247,288.087,259.134,290.234,287.748,261.54,0.0,0.0,237.913,257.942
2016-10-05 01:00,0.0,288.841,287.541,258.691,289.701,287.469,261.182,0.0,0.0,237.072,257.508
2016-10-05 02:00,0.0,288.568,285.77,257.91,287.951,285.493,259.249,0.0,0.0,236.004,256.628
2016-10-05 03:00,0.0,287.871,285.77,257.346,287.27,285.065,259.37,0.0,0.0,234.686,255.911
2016-10-05 04:00,-0.0012916,285.818,281.148,254.926,281.799,278.004,253.497,0.0,0.0,231.865,252.146
2016-10-05 05:00,0.0,288.291,286.661,257.91,288.897,286.626,260.461,0.0,0.0,233.896,255.73
2016-10-05 06:00,0.0,289.381,288.087,258.802,290.5,288.584,261.421,0.0,0.0,233.968,256.36
2016-10-05 07:00,0.0,286.717,284.3,256.549,286.31,284.349,258.882,0.0,0.0,233.53,254.536
2016-10-05 08:00,0.0,284.41,282.096,255.16,284.22,282.028,258.27,0.0,0.0,233.308,255.091
2016-10-05 09:00,-0.0097723,280.05,271.162,248.9,271.142,268.007,248.229,0.0,0.0,231.156,247.481
2016-10-05 10:00,0.211189,289.247,286.439,257.798,288.222,285.777,259.735,0.464915,0.351793,236.071,256.982
2016-10-05 11:00,0.077669,291.065,289.272,258.913,291.555,289.689,262.255,0.2212,0.149695,238.671,258.713
2016-10-05 12:00,0.0599384,291.44,289.058,259.024,291.817,290.375,262.728,0.14661,0.0986111,241.015,259.471
2016-10-05 13:00,0.0752233,292.174,288.52,258.691,291.16,289.689,262.61,0.125935,0.096654,242.042,259.471
2016-10-05 14:00,0.0841368,291.315,288.303,258.58,290.897,288.999,262.255,0.12248,0.102823,242.544,259.387
2016-10-05 15:00,0.0387931,291.315,288.951,259.464,291.686,289.689,262.61,0.0797691,0.0559485,242.378,259.135
2016-10-05 16:00,0.0713459,291.315,288.195,258.913,290.897,289.276,262.255,0.101865,0.0833264,242.155,259.135
2016-10-05 17:00,0.0639184,292.053,288.843,259.354,291.555,289.689,262.373,0.0953536,0.0768207,242.322,258.882
2016-10-05 18:00,0.104979,293.356,288.951,259.354,291.555,289.826,262.255,0.142524,0.116946,242.266,259.304
2016-10-05 19:00,0.237651,295.26,288.843,259.574,291.686,289.964,262.255,0.259302,0.234976,242.433,259.135
2016-10-05 20:00,0.538609,296.008,288.843,259.354,291.423,289.551,262.492,0.492233,0.496287,242.433,259.22
2016-10-05 21:00,0.143934,289.381,288.843,259.244,291.555,289.826,262.373,0.345295,0.339057,241.93,259.804
2016-10-05 22:00,0.0,289.514,289.165,259.683,291.948,290.238,262.965,-0.00544541,0.0,242.6,260.135
2016-10-05 23:00,-0.00871711,290.301,289.486,260.119,292.209,290.648,262.847,-0.00984102,-0.0117339,242.6,259.804
2016-10-06 00:00,0.0,288.977,288.736,259.574,291.686,289.826,262.61,0.0,0.0,242.489,259.97
2016-10-06 01:00,-0.00154713,289.647,289.486,260.011,292.209,290.511,263.083,0.0,0.0,242.765,260.217
2016-10-06 02:00,0.0,289.247,289.058,259.574,291.817,290.238,262.728,0.0,0.0,242.544,260.463
2016-10-06 03:00,0.0,290.041,289.699,259.902,292.47,290.784,262.965,0.0,0.0,242.155,260.789
2016-10-06 04:00,0.0,289.247,289.593,260.228,292.34,290.921,263.083,0.0,0.0,242.71,261.113
2016-10-06 05:00,-0.00139109,288.705,289.165,259.902,292.209,290.511,263.553,0.0,0.0,242.655,261.194
2016-10-06 06:00,-0.00162781,287.729,288.628,259.574,291.686,290.375,263.787,0.0,0.0,243.526,261.275
2016-10-06 07:00,0.0,289.779,290.017,260.337,292.86,291.057,263.905,0.0,0.0021477,243.418,261.595
2016-10-06 08:00,0.0,289.381,289.805,260.119,292.86,291.464,263.67,0.0,0.0,242.544,261.435
2016-10-06 09:00,0.0,289.647,289.911,260.119,292.6,291.057,264.255,-0.00815729,0.0,242.378,261.914
2016-10-06 10:00,0.128715,290.813,290.017,260.119,292.47,290.784,263.318,0.390521,0.27072,242.211,261.834
2016-10-06 11:00,0.376277,292.889,287.651,259.134,290.5,289.276,263.2,0.408761,0.408543,241.986,261.834
2016-10-06 12:00,0.115869,293.124,289.165,260.337,291.817,290.238,262.728,0.169799,0.134973,241.76,261.515
2016-10-06 13:00,0.0377321,291.931,289.805,260.553,292.34,290.648,263.436,0.0871301,0.0536762,243.147,262.151
2016-10-06 14:00,0.065149,292.174,289.272,260.011,291.686,290.101,263.553,0.095279,0.0687614,242.929,262.072
2016-10-06 15:00,0.0250196,291.315,289.699,260.337,292.209,290.238,263.083,0.055314,0.0350817,243.039,262.151
2016-10-06 16:00,0.0435253,291.686,289.272,260.228,292.079,290.238,262.728,0.0665728,0.0481938,242.765,261.834
2016-10-06 17:00,0.0137563,291.065,289.593,260.337,292.079,290.101,262.965,0.0504723,0.0277756,242.322,261.515
2016-10-06 18:00,0.131045,294.043,286.882,258.58,289.568,288.306,262.373,0.144858,0.128622,242.211,261.675
2016-10-06 19:00,0.474158,293.007,284.3,257.572,287.679,286.767,262.373,0.501836,0.516088,242.82,261.435
2016-10-06 20:00,0.867362,296.84,285.882,258.246,288.897,287.748,262.728,0.752754,0.796845,242.71,261.435
2016-10-06 21:00,0.0783737,289.779,289.379,260.228,291.423,289.551,262.847,0.376034,0.36924,241.533,261.275
2016-10-06 22:00,0.0,282.581,283.841,257.346,287.27,286.767,262.373,0.0,0.0,240.371,261.033
2016-10-06 23:00,-0.0115118,288.705,288.087,259.574,290.234,288.584,262.373,-0.00974699,-0.0145273,240.014,261.194
2016-10-07 00:00,-0.001942,287.444,287.212,259.354,289.835,288.584,262.728,0.0,0.0,239.834,261.113
2016-10-07 01:00,0.0,290.171,289.593,260.445,291.817,289.964,262.017,0.0,0.0,239.349,261.113
2016-10-07 02:00,-0.00134809,289.91,289.165,260.011,291.555,289.413,262.847,0.0,0.0,239.894,261.675
2016-10-07 03:00,0.0,290.041,289.699,260.337,291.948,289.964,263.67,0.0,0.0,239.774,261.834
2016-10-07 04:00,-0.00128401,282.753,283.495,257.12,286.722,285.919,262.255,0.0,0.0,239.532,261.435
2016-10-07 05:00,0.0,290.429,289.911,260.661,292.34,290.375,263.318,0.0,0.0,237.849,260.871
2016-10-07 06:00,-0.001623,290.301,290.229,260.769,292.86,291.057,263.67,0.0,0.0,235.038,259.554
2016-10-07 07:00,0.0,290.041,289.911,260.769,292.73,290.921,263.436,0.0,0.0,233.677,258.628
2016-10-07 08:00,0.00336173,290.171,289.911,260.769,292.6,290.784,263.67,0.0,0.0,233.53,258.457
2016-10-07 09:00,0.0,290.171,289.911,260.553,292.6,290.648,263.083,0.0,0.0,232.633,257.595
2016-10-07 10:00,0.0545077,290.301,290.123,260.661,292.86,291.193,263.436,0.369212,0.198103,231.943,257.246
2016-10-07 11:00,0.0249885,290.685,290.017,260.553,292.86,291.057,263.553,0.157171,0.0828898,232.02,256.894
2016-10-07 12:00,0.183418,292.889,288.412,259.683,290.764,289.276,262.965,0.238631,0.214528,232.251,257.246
2016-10-07 13:00,0.0206486,291.315,289.911,260.553,292.47,290.648,263.787,0.0757602,0.0434291,232.481,257.769
2016-10-07 14:00,0.0074267,290.685,290.651,260.984,293.248,291.6,263.787,0.051563,0.0254922,231.943,257.855
2016-10-07 15:00,0.0543887,284.888,276.208,252.412,276.772,273.675,251.291,0.0944632,0.0816589,228.224,249.408
2016-10-07 16:00,0.121194,277.451,261.982,244.07,260.888,257.671,241.808,0.165854,0.176415,225.643,242.354
2016-10-07 17:00,0.0921111,283.261,270.885,249.414,270.169,267.673,247.142,0.132584,0.122439,228.224,246.595
2016-10-07 18:00,0.232444,274.314,256.819,241.207,254.461,252.341,236.918,0.322335,0.339989,223.746,233.617
2016-10-07 19:00,0.0597457,291.315,288.628,260.119,292.47,290.511,261.421,0.11382,0.0804225,231.865,256.45
2016-10-07 20:00,0.484047,286.717,276.463,252.534,276.01,274.304,251.814,0.495536,0.537542,227.601,247.261
2016-10-07 21:00,0.171924,278.883,271.023,249.924,270.819,268.173,248.634,0.291136,0.318208,228.575,246.258
2016-10-07 22:00,0.0,289.647,289.165,260.011,291.686,289.964,262.017,0.0,0.0,230.674,255.821
2016-10-07 23:00,-0.00855317,288.291,285.546,258.022,287.543,285.777,259.735,-0.00965594,-0.0115132,229.935,252.731
2016-10-08 00:00,0.0,285.97,283.264,256.778,284.361,281.735,257.53,0.0,0.0,229.433,252.731
2016-10-08 01:00,-0.00153303,264.009,252.479,239.721,251.856,249.753,239.025,0.0,0.0,226.871,238.578
2016-10-08 02:00,0.0,288.43,287.978,259.464,290.5,288.722,261.898,0.0,0.0,229.433,254.722
2016-10-08 03:00,-0.00126836,267.444,257.511,241.791,256.598,254.664,241.953,0.0,0.0,225.546,238.986
2016-10-08 04:00,-0.00256067,280.613,273.599,250.931,273.372,270.798,250.765,0.0,0.0,227.42,248.348
2016-10-08 05:00,-0.00138333,283.428,277.224,252.899,277.377,274.929,252.335,0.0,0.0,227.78,249.408
2016-10-08 06:00,0.0,251.944,235.011,230.565,232.772,230.17,224.657,0.0,0.0,218.517,224.61
2016-10-08 07:00,0.00211255,266.131,250.76,238.195,247.878,245.399,233.976,0.0,0.0,222.906,234.082
2016-10-08 08:00,0.0,269.865,256.819,241.061,253.469,250.557,237.222,0.0,0.0,224.56,237.327
2016-10-08 09:00,0.0,240.898,226.583,227.628,225.003,223.905,221.23,0.0,0.0,216.56,219.843
2016-10-08 10:00,0.410181,266.797,248.784,237.101,245.914,242.805,232.066,0.516256,0.581981,223.224,234.542
2016-10-08 11:00,0.308778,264.739,241.451,234.017,238.693,235.917,227.94,0.428642,0.45672,221.258,229.489
2016-10-08 12:00,0.188632,270.713,252.29,239.115,250.623,247.915,236.307,0.300415,0.299255,223.224,234.845
2016-10-08 13:00,0.246887,256.589,227.219,227.248,225.31,223.619,219.927,0.397613,0.430518,217.752,222.529
2016-10-08 14:00,0.260773,256.062,220.75,225.107,219.508,218.547,218.218,0.418881,0.45733,215.734,218.165
2016-10-08 15:00,0.25047,259.045,223.597,226.287,222.485,220.984,218.601,0.363722,0.401192,218.767,222.956
2016-10-08 16:00,0.250367,266.466,235.538,231.45,231.408,228.324,222.692,0.335344,0.392707,217.881,226.379
2016-10-08 17:00,0.0956028,289.247,279.213,253.381,279.76,275.396,251.422,0.117503,0.112084,228.312,248.775
2016-10-08 18:00,0.266887,281.346,254.871,241.061,251.447,246.035,232.066,0.282076,0.314035,221.258,234.389
2016-10-08 19:00,0.506919,278.883,243.94,235.823,240.87,237.581,227.089,0.531197,0.592837,220.916,231.859
2016-10-08 20:00,0.843986,285.665,252.29,239.419,248.093,242.585,231.581,0.695697,0.852054,220.57,233.617
2016-10-08 21:00,0.285256,271.261,263.245,245.587,263.569,260.225,245.905,0.322035,0.383978,227.78,244.998
2016-10-08 22:00,0.0,250.598,249.385,238.349,251.036,250.357,240.646,0.0,0.0,229.601,241.98
2016-10-08 23:00,-0.0084751,268.986,264.94,246.533,267.016,265.82,250.633,-0.0095678,-0.0114082,229.433,248.455
2016-10-09 00:00,-0.0019188,288.841,287.322,259.024,290.101,287.469,260.581,0.0,0.0,229.348,250.95
2016-10-09 01:00,-0.00152624,285.818,280.789,255.393,281.366,277.396,253.24,0.0,0.0,226.685,247.04
2016-10-09 02:00,0.0,281.526,271.711,250.177,271.945,268.007,247.006,0.0,0.0,225.352,242.105
2016-10-09 03:00,0.00126444,270.989,255.23,241.791,253.469,247.501,232.867,0.0,0.0,222.799,235.146
2016-10-09 04:00,0.0,225.382,218.862,223.899,217.427,216.008,215.873,0.0,0.0,216.012,217.669
2016-10-09 05:00,0.0,242.013,229.373,228.004,227.118,225.318,222.511,0.0,0.0,218.137,221.213
2016-10-09 06:00,0.0,257.605,243.273,235.01,242.283,240.123,231.905,0.0,0.0,223.538,231.695
2016-10-09 07:00,0.0,249.156,236.318,231.45,234.107,232.221,226.746,0.0,0.0,221.258,227.877
2016-10-09 08:00,0.0,283.093,277.098,252.777,278.278,274.929,252.205,0.0,0.0,228.136,247.917
2016-10-09 09:00,0.0,284.57,276.845,253.02,278.278,274.46,249.705,0.0,0.0,225.739,245.23
2016-10-09 10:00,0.631692,277.026,260.201,244.07,257.739,250.757,236.0,0.668566,0.740223,223.849,237.185
2016-10-09 11:00,0.28533,268.686,250.175,237.884,248.52,245.824,234.916,0.428131,0.452141,224.56,234.236
2016-10-09 12:00,0.162337,279.081,263.245,245.04,263.745,260.764,242.956,0.299718,0.284529,225.058,238.027
2016-10-09 13:00,0.0242537,288.841,285.77,257.572,287.679,284.779,258.638,0.0850758,0.0542179,229.348,252.634
2016-10-09 14:00,0.0627912,289.91,283.726,256.089,284.921,280.702,256.535,0.100001,0.0769753,227.691,249.928
2016-10-09 15:00,0.17691,272.061,243.719,235.337,239.426,235.435,226.229,0.22944,0.236718,217.752,227.323
2016-10-09 16:00,0.251315,264.377,233.392,230.743,230.853,228.856,223.949,0.311368,0.33399,219.137,225.011
2016-10-09 17:00,0.342299,264.009,223.94,226.866,221.511,220.685,218.792,0.428835,0.47692,217.229,220.075
2016-10-09 18:00,0.4424,262.074,220.006,225.306,219.167,217.922,217.639,0.562653,0.631634,215.873,217.669
2016-10-09 19:00,0.548978,265.791,223.597,227.248,222.485,221.875,220.115,0.621186,0.712576,218.264,220.763
2016-10-09 20:00,0.652627,269.865,240.984,234.35,239.183,237.345,229.615,0.617813,0.732073,222.368,230.524
2016-10-09 21:00,0.0354175,245.01,231.14,230.027,229.444,227.787,224.657,0.209916,0.214537,220.219,225.011
2016-10-09 22:00,-0.0059226,252.585,236.576,232.146,234.371,232.474,227.77,0.0,0.0,220.57,227.694
2016-10-09 23:00,-0.00559969,258.096,239.074,233.344,236.695,234.216,227.089,-0.0094825,-0.0113064,220.337,227.877
2016-10-10 00:00,-0.00190768,254.396,235.538,232.146,231.408,229.121,224.481,0.0,0.0,217.491,224.61
2016-10-10 01:00,-0.00151964,275.707,263.088,245.587,261.611,256.555,239.618,0.0,0.0,223.434,240.053
2016-10-10 02:00,0.0,259.954,239.799,233.681,234.371,231.459,224.834,0.0,0.0,217.881,225.604
2016-10-10 03:00,0.0,253.81,236.318,232.319,232.502,229.647,224.657,0.0,0.0,218.767,226.76
2016-10-10 04:00,-0.00127321,260.827,245.032,236.146,242.049,238.515,230.111,0.0,0.0,220.57,231.364
2016-10-10 05:00,-0.00137584,259.954,243.94,235.173,241.107,238.282,229.283,0.0,0.0,220.219,230.354
2016-10-10 06:00,0.0,249.156,233.392,230.387,230.012,227.246,223.592,0.0,0.0,218.009,224.811
2016-10-10 07:00,0.0,259.505,243.719,234.845,241.344,238.049,230.276,0.0,0.0,221.819,232.508
2016-10-10 08:00,-0.00330989,249.89,239.074,232.491,237.2,235.677,229.781,0.0,0.0,222.585,229.838
2016-10-10 09:00,-0.00910357,255.521,241.451,233.513,239.911,237.815,230.44,0.0,0.0,222.04,231.364
2016-10-10 10:00,0.482372,267.444,252.666,239.115,251.856,249.55,237.525,0.670982,0.753665,224.56,236.179
2016-10-10 11:00,0.316141,254.966,235.538,231.274,234.895,233.474,228.278,0.498431,0.542944,224.661,232.185
2016-10-10 12:00,0.183385,277.661,266.442,246.399,266.847,264.795,247.823,0.276038,0.276564,228.224,247.808
2016-10-10 13:00,0.0817084,288.291,282.214,254.808,282.946,280.406,256.41,0.141309,0.117591,227.238,249.198
2016-10-10 14:00,0.0825018,285.97,278.968,252.899,278.278,275.396,252.723,0.123197,0.10752,224.661,242.971
2016-10-10 15:00,0.0535389,287.155,280.789,254.217,281.221,278.458,253.881,0.100206,0.0824985,226.685,247.917
2016-10-10 16:00,0.0954947,282.408,269.343,247.991,266.167,262.361,244.09,0.12792,0.123747,223.224,239.656
2016-10-10 17:00,0.362509,265.791,220.379,226.092,218.478,216.972,216.859,0.472919,0.526187,215.024,217.164
2016-10-10 18:00,0.260625,276.155,253.595,239.267,250.207,246.666,233.344,0.313668,0.330775,220.337,231.859
2016-10-10 19:00,0.0714126,290.041,287.76,258.691,289.3,286.767,260.34,0.107973,0.0875442,229.935,253.88
2016-10-10 20:00,0.119606,290.171,286.772,258.358,287.679,285.777,259.492,0.151905,0.125394,229.093,252.047
2016-10-10 21:00,0.0801502,246.775,229.373,229.118,227.118,226.151,221.782,0.237521,0.242749,215.024,218.41
2016-10-10 22:00,0.0,265.446,249.385,238.04,247.878,244.328,231.905,0.0,0.0,221.708,233.928
2016-10-10 23:00,-0.00832644,290.685,289.593,259.683,292.209,290.101,262.965,-0.00939997,-0.00840603,231.236,255.73
2016-10-11 00:00,-0.00379374,289.113,287.541,258.58,289.3,286.907,260.581,-0.00160608,0.0,230.348,254.629
2016-10-11 01:00,0.0,288.841,288.087,258.802,290.632,288.584,262.373,0.0,0.0,233.968,256.894
2016-10-11 02:00,0.0,289.779,289.379,259.244,291.817,289.964,262.965,0.0,0.0,235.593,257.421
2016-10-11 03:00,0.00125689,290.171,289.805,259.354,291.948,289.964,263.083,0.0,0.0,238.104,258.628
2016-10-11 04:00,-0.00126976,285.665,284.869,257.006,287.543,286.202,261.421,0.0,0.0,240.312,259.304
2016-10-11 05:00,0.0,289.247,288.628,259.134,291.029,288.861,262.728,0.0,0.0,240.489,259.554
2016-10-11 06:00,0.0,288.841,287.651,258.802,289.3,286.767,261.54,0.0,0.00161976,239.834,258.967
2016-10-11 07:00,0.0,289.247,287.541,259.244,289.568,287.329,261.182,0.0,0.0,239.714,259.22
2016-10-11 08:00,-0.00329275,289.381,288.195,259.464,290.5,288.445,261.779,0.0,0.0,239.774,259.638
2016-10-11 09:00,0.0,288.841,287.322,259.354,289.434,287.329,261.421,-0.00759997,0.0,239.043,259.638
2016-10-11 10:00,0.561662,290.041,287.76,259.464,289.968,288.027,262.017,0.653893,0.626097,239.894,260.217
2016-10-11 11:00,0.032909,290.171,289.058,260.553,291.555,289.551,262.255,0.167184,0.0959792,238.919,260.052
2016-10-11 12:00,0.0159152,290.301,289.379,260.661,291.948,290.101,262.373,0.100103,0.0527927,237.977,259.804
2016-10-11 13:00,0.0139576,290.171,289.593,261.091,292.209,290.101,262.847,0.0723845,0.0387504,238.041,259.97
2016-10-11 14:00,0.0120412,290.685,290.123,261.198,292.73,291.057,263.67,0.0560739,0.0303907,237.592,260.217
2016-10-11 15:00,0.067866,290.685,288.303,260.337,290.632,288.999,262.61,0.0909816,0.0770791,237.006,259.887
2016-10-11 16:00,0.0143081,291.19,289.699,260.984,291.817,289.964,262.965,0.0460356,0.0245563,236.94,260.217
2016-10-11 17:00,0.0531381,289.779,283.264,257.233,284.079,280.85,255.658,0.0846907,0.0662687,235.108,255.911
2016-10-11 18:00,0.146038,290.558,279.58,255.742,280.201,276.938,253.368,0.164866,0.156885,234.041,253.88
2016-10-11 19:00,0.131136,291.065,284.642,258.246,285.757,283.049,258.638,0.191585,0.158348,235.867,257.158
2016-10-11 20:00,0.495002,292.174,283.726,257.91,285.34,283.339,258.515,0.514012,0.518592,236.004,256.894
2016-10-11 21:00,0.506722,288.705,285.546,258.913,286.997,284.492,259.127,0.390037,0.558072,235.593,257.421
2016-10-11 22:00,-0.00570536,290.171,289.805,261.305,292.079,290.238,263.436,0.0,0.0,237.721,260.545
2016-10-11 23:00,-0.0110076,290.429,289.699,261.305,291.817,289.964,263.2,-0.00699012,-0.00555644,237.268,260.052
2016-10-12 00:00,-0.00377275,288.568,288.628,260.661,291.16,289.689,263.67,0.0,-0.00190441,236.808,259.887
2016-10-12 01:00,-0.00150695,287.01,287.212,259.793,289.434,287.888,262.728,0.0,0.0,236.408,259.97
2016-10-12 02:00,0.0,288.977,288.736,260.661,291.029,289.137,263.2,0.0,-0.00133728,236.071,259.387
2016-10-12 03:00,0.0,289.381,289.593,261.091,292.079,290.101,263.436,0.0,0.0,235.525,259.051
2016-10-12 04:00,0.0,288.012,288.52,260.553,291.292,289.826,263.553,0.0,0.0,234.968,259.638
2016-10-12 05:00,0.0,290.813,290.229,261.198,292.86,290.921,263.553,0.0,0.0,234.897,259.554
2016-10-12 06:00,0.00159993,290.041,289.486,261.091,291.686,289.551,263.2,0.0,0.0,235.593,259.97
2016-10-12 07:00,0.00208364,290.171,289.379,260.769,291.292,289.137,262.847,0.0,0.0,236.274,260.052
2016-10-12 08:00,0.0,289.514,288.628,260.445,290.5,288.445,262.017,0.0,0.0,235.731,259.721
2016-10-12 09:00,0.0,287.01,285.882,258.913,287.815,286.06,261.421,0.0,0.0,235.178,259.051
2016-10-12 10:00,0.286317,289.647,286.661,259.793,288.628,286.626,262.017,0.464646,0.349273,234.185,258.628
2016-10-12 11:00,0.574088,291.809,282.566,257.572,285.618,284.779,261.66,0.498543,0.48298,234.041,258.114
2016-10-12 12:00,0.130157,291.931,287.432,259.793,289.3,287.329,262.017,0.179807,0.168286,233.896,257.421
2016-10-12 13:00,0.266164,293.007,283.148,257.685,286.033,285.065,261.301,0.32025,0.295226,234.615,257.333
2016-10-12 14:00,0.0151037,290.685,289.593,261.091,291.686,289.276,262.847,0.0575473,0.0289714,234.615,257.421
2016-10-12 15:00,0.00709459,290.301,289.699,261.625,292.079,289.689,263.083,0.0444516,0.0214872,233.603,257.158
2016-10-12 16:00,0.00574561,290.558,289.699,261.625,292.47,290.375,262.728,0.0389184,0.0188517,233.677,256.894
2016-10-12 17:00,0.0094201,290.429,289.165,261.519,291.817,289.551,262.492,0.0438679,0.0237754,233.308,256.539
2016-10-12 18:00,0.0338949,291.065,288.843,261.091,291.292,289.276,262.373,0.071747,0.0475263,233.308,256.091
2016-10-12 19:00,0.0777705,292.534,289.593,261.519,292.209,290.101,262.965,0.133891,0.0942168,232.935,256.805
2016-10-12 20:00,0.270233,292.653,288.195,261.091,290.764,288.445,261.779,0.333174,0.287175,232.709,255.73
2016-10-12 21:00,0.864792,287.729,284.071,258.469,285.618,283.049,258.515,0.686455,1.09132,230.755,252.828
2016-10-12 22:00,0.0,289.91,288.628,261.305,290.897,288.584,262.255,0.0,0.0,231.394,255.183
2016-10-12 23:00,-0.00818738,290.429,288.843,261.198,291.16,288.584,262.373,-0.00693225,-0.0110209,231.473,255.548
2016-10-13 00:00,0.0,290.171,288.843,261.412,291.029,288.445,261.898,-0.00158856,-0.00189412,231.552,254.999
2016-10-13 01:00,0.0,289.381,288.195,260.984,290.5,288.306,262.017,0.0,0.0,231.156,254.999
2016-10-13 02:00,-0.00132027,287.587,286.55,260.011,288.763,286.767,261.66,0.0,0.0,231.236,255.091
2016-10-13 03:00,0.0,285.665,285.546,259.354,288.222,286.202,262.136,0.0,0.0,230.996,255.457
2016-10-13 04:00,0.0,287.729,286.217,259.683,288.763,286.626,261.898,0.0,0.00127516,231.156,255.366
2016-10-13 05:00,0.0,289.113,288.195,260.769,290.5,288.167,262.136,0.0,0.0,231.236,255.275
2016-10-13 06:00,0.00159549,288.841,287.651,260.445,289.968,287.748,261.66,0.0,0.0,231.236,255.457
2016-10-13 07:00,-0.00207654,287.729,286.55,260.011,289.032,286.907,261.66,0.0,0.0,230.916,255.639
2016-10-13 08:00,0.0,290.041,289.165,261.412,291.16,288.722,262.728,0.0,0.0,231.156,256.001
2016-10-13 09:00,0.0,288.568,287.651,260.769,290.234,288.167,262.492,0.0,0.0,230.674,256.45
2016-10-13 10:00,0.121717,290.558,289.165,261.625,291.948,289.826,263.083,0.412232,0.25805,231.156,256.091
2016-10-13 11:00,0.0222259,290.558,289.593,261.944,292.209,290.101,263.2,0.166231,0.0860136,230.674,255.457
2016-10-13 13:00,0.00703046,290.429,290.017,262.155,292.73,290.648,263.083,0.0669676,0.0319395,230.018,255.548
2016-10-13 14:00,0.0,0.0,0.0,0.0,0.0,0.0,0.0,0.0,0.0,0.0,0.0
2016-10-13 15:00,0.00142405,290.429,289.805,262.261,292.73,290.648,263.67,0.0409951,0.0186896,229.178,254.536
2016-10-13 16:00,0.00721035,290.685,289.379,262.049,292.34,289.964,262.847,0.039072,0.020382,229.178,254.162
2016-10-13 17:00,0.0410079,291.065,287.76,261.091,290.764,288.167,261.898,0.070778,0.0493614,227.51,252.537
2016-10-13 18:00,0.104166,290.429,282.682,258.246,283.938,280.702,256.41,0.134701,0.116634,227.87,250.032
2016-10-13 19:00,0.115,291.315,285.546,259.683,287.27,284.492,258.76,0.163759,0.129292,227.147,250.544
2016-10-13 20:00,0.505421,290.685,275.436,253.86,274.933,270.311,248.229,0.489073,0.515112,225.643,245.23
2016-10-13 21:00,0.652096,286.271,280.909,257.459,281.366,277.091,253.24,0.552128,0.789995,226.027,248.241
2016-10-13 22:00,0.0,285.045,279.702,256.892,280.347,276.169,252.853,0.0,0.0,226.592,247.808
2016-10-13 23:00,-0.00541422,285.665,279.458,256.205,280.054,276.938,254.646,-0.00687631,-0.00819896,226.216,245.804
2016-10-14 00:00,0.0,289.91,288.087,262.049,290.897,288.167,261.779,-0.00158019,0.0,229.601,252.047
2016-10-14 01:00,-0.00149495,289.91,288.412,262.261,291.029,288.306,262.373,0.0,0.0,229.935,252.146
2016-10-14 02:00,-0.00131605,289.514,287.76,261.838,290.367,287.329,261.182,0.0,0.0,230.511,251.751
2016-10-14 03:00,0.0,289.514,287.76,261.944,290.234,287.188,261.062,0.0,0.0,230.43,251.751
2016-10-14 04:00,0.00125986,288.977,287.102,261.519,289.3,286.343,261.062,0.0,0.0,230.755,251.552
2016-10-14 05:00,0.0,289.247,287.212,261.838,289.701,286.485,260.822,0.0,0.0,230.348,251.552
2016-10-14 06:00,0.0,289.514,287.541,261.838,289.835,286.907,261.301,0.0,0.0,230.266,251.652
2016-10-14 07:00,0.0020695,289.514,287.651,262.155,289.968,286.907,261.182,0.0,0.0,230.835,252.244
2016-10-14 08:00,0.0,289.514,287.76,262.261,289.835,287.048,260.701,0.0,0.0,231.315,252.828
2016-10-14 09:00,-0.00860478,289.381,287.432,261.838,289.434,286.485,261.062,0.0,0.0,231.394,252.537
2016-10-14 10:00,0.0372841,289.779,287.432,261.838,289.568,286.202,260.942,0.389344,0.213296,230.755,252.146
2016-10-14 11:00,0.0261055,289.514,286.55,261.305,288.358,284.922,259.735,0.164197,0.0790653,230.916,251.152
2016-10-14 12:00,0.0184322,289.381,285.882,260.769,287.679,284.205,259.37,0.105344,0.053499,230.511,251.452
2016-10-14 13:00,0.0176431,289.381,285.433,260.445,287.134,283.917,259.127,0.0776794,0.0427481,230.101,251.552
2016-10-14 14:00,0.0228171,288.705,283.726,259.574,284.501,280.85,256.909,0.0656853,0.0414634,229.517,249.825
2016-10-14 15:00,0.0628874,288.977,281.978,258.358,282.946,279.511,256.535,0.0919715,0.0721461,228.662,248.562
2016-10-14 16:00,0.0434344,290.301,285.208,260.769,287.134,284.061,259.127,0.0698741,0.0511579,229.685,251.152
2016-10-14 17:00,0.0142606,290.171,286.772,261.625,288.897,285.635,259.735,0.0496392,0.0287938,230.593,251.85
2016-10-14 18:00,0.0514321,290.558,285.882,261.198,287.815,284.492,258.515,0.0935465,0.0673086,230.511,251.85
2016-10-14 19:00,0.173918,288.977,275.823,255.393,276.163,271.605,249.171,0.209729,0.188882,226.405,244.412
2016-10-14 20:00,0.254156,292.414,285.77,261.305,287.679,284.205,259.37,0.314514,0.266454,230.184,251.252
2016-10-14 21:00,1.88357,287.871,283.841,260.337,285.757,282.467,257.9,1.10944,1.8189,229.601,250.849
2016-10-14 22:00,0.0,288.012,284.528,260.337,286.447,283.339,258.27,0.0,0.0,229.601,251.051
2016-10-14 23:00,-0.00805751,290.041,287.102,261.838,289.3,286.202,260.822,-0.00682228,-0.00813453,230.755,251.949
2016-10-15 00:00,0.0,289.647,287.541,262.049,289.434,286.626,261.062,-0.00157207,0.0,230.835,252.244
2016-10-15 01:00,0.0,289.113,287.102,262.049,289.3,286.485,260.461,0.0,0.0,230.593,251.949
2016-10-15 02:00,-0.00131194,288.43,286.772,261.838,288.897,286.06,261.062,0.0,0.0,230.755,252.342
2016-10-15 03:00,0.0,289.247,286.661,261.731,288.628,285.493,260.822,0.0,0.0,230.916,252.537
2016-10-15 04:00,-0.0012567,290.171,287.322,261.944,288.897,286.06,261.062,0.0,0.0,230.835,252.925
2016-10-15 05:00,-0.00135824,288.43,286.55,261.091,288.222,285.919,260.581,0.0,0.0,231.315,253.117
2016-10-15 06:00,0.0,287.729,286.328,261.412,288.358,285.919,261.301,0.0,0.0,231.394,253.117
2016-10-15 07:00,0.0,283.093,283.611,259.464,286.585,284.636,260.822,0.0,0.0,231.315,253.117
2016-10-15 08:00,-0.00322485,280.613,281.86,258.469,285.061,283.629,261.182,0.0,0.0,231.156,253.021
2016-10-15 09:00,0.0,283.093,283.032,259.024,285.895,283.773,260.581,0.0,-0.00856587,231.473,252.537
2016-10-15 10:00,0.3048,288.291,285.208,260.011,287.134,284.636,260.581,0.516147,0.384642,231.552,252.244
2016-10-15 11:00,0.146454,291.315,285.77,260.661,287.27,284.349,260.098,0.228927,0.166809,231.315,252.146
2016-10-15 12:00,0.449056,293.007,281.624,258.246,284.361,282.613,260.219,0.486048,0.47438,231.473,252.439
2016-10-15 15:00,0.212338,277.661,267.18,246.399,269.021,267.673,248.903,0.28331,0.276898,225.643,244.881
2016-10-15 16:00,0.265868,278.883,266.145,246.265,269.679,268.505,249.971,0.353609,0.375046,226.685,245.114
2016-10-15 17:00,0.360186,280.239,252.479,239.721,252.667,251.156,240.354,0.407474,0.404535,222.368,237.888
2016-10-15 18:00,0.196889,291.065,280.308,253.14,282.66,279.211,254.009,0.217609,0.178404,226.499,246.483
2016-10-15 19:00,0.29807,291.809,282.799,253.86,285.201,282.175,254.9,0.313014,0.25512,226.122,246.929
2016-10-15 20:00,1.09025,295.151,282.331,253.621,284.921,282.175,255.406,0.858179,0.847269,225.156,245.918
2016-10-15 21:00,3.0977,270.989,260.692,242.942,259.791,257.671,242.956,1.7638,3.18697,222.799,238.027
2016-10-15 22:00,-0.010053,283.428,281.624,253.02,284.501,281.882,254.9,-0.004519,-0.00517134,226.027,245.69
2016-10-15 23:00,-0.00251279,280.05,274.261,249.669,275.857,273.2,250.896,-0.00225909,-0.0025852,224.054,243.698
2016-10-16 00:00,0.0,284.888,284.3,254.336,287.815,285.919,257.777,0.0,0.0,225.931,247.59
2016-10-16 01:00,0.00139873,283.924,283.148,254.217,286.585,284.779,257.034,0.0,0.0,226.963,247.371
2016-10-16 02:00,-0.00123311,283.594,282.448,253.501,285.479,283.339,255.784,0.0,0.0,225.546,246.818
2016-10-16 03:00,-0.00233727,284.249,283.841,254.336,287.407,285.777,258.023,0.0,0.0,226.405,248.241
2016-10-16 04:00,0.0,283.76,281.267,252.656,283.514,280.998,254.009,0.0,0.0,225.352,246.032
2016-10-16 05:00,0.0,285.97,285.658,255.393,289.032,287.048,258.638,0.0,0.0,226.405,248.241
2016-10-16 06:00,0.0,285.512,283.956,254.336,286.997,284.779,256.66,0.0,0.0,225.931,247.59
2016-10-16 07:00,0.0,284.41,283.956,254.454,287.679,286.343,258.392,0.0,0.0,226.499,249.721
2016-10-16 08:00,0.0,284.57,284.869,254.572,288.493,287.188,259.735,0.0,0.0,227.055,250.34
2016-10-16 09:00,0.0,286.717,287.212,255.393,291.029,289.276,259.37,0.0,-0.00811511,227.329,250.032
2016-10-16 10:00,0.698007,288.291,285.321,254.454,288.897,287.329,258.882,0.880749,0.781115,227.959,250.238
2016-10-16 11:00,0.171145,288.568,285.77,254.572,289.434,287.748,258.27,0.333376,0.249443,228.048,250.544
2016-10-16 12:00,0.0460453,287.587,286.105,254.572,289.568,287.609,258.392,0.161643,0.0970003,228.136,250.238
2016-10-16 13:00,0.0184405,287.01,286.439,254.808,290.234,288.167,258.27,0.0964581,0.0517417,228.136,250.238
2016-10-16 14:00,0.0158913,286.569,286.217,254.099,289.434,287.748,258.882,0.0727329,0.0401299,228.4,250.34
2016-10-16 15:00,0.047514,288.152,284.869,253.14,287.815,286.202,258.023,0.0866541,0.0572632,228.662,250.238
2016-10-16 16:00,0.359136,283.428,276.336,249.924,280.347,280.702,256.41,0.440399,0.472829,228.921,250.032
2016-10-16 17:00,0.390513,284.888,275.565,249.286,279.613,279.81,256.035,0.45004,0.466918,229.263,249.825
2016-10-16 18:00,0.545046,287.01,275.306,248.642,279.17,279.511,255.28,0.591287,0.633651,229.348,249.513
2016-10-16 19:00,1.02279,296.219,276.336,249.286,280.493,280.702,255.532,0.874116,0.95613,228.748,249.303
2016-10-16 20:00,1.2022,296.943,280.308,251.429,284.079,282.904,256.785,0.909944,1.04619,229.433,249.408
2016-10-16 21:00,0.309327,279.473,277.476,249.924,281.221,280.554,255.784,1.52953,2.06857,229.517,250.238
2016-10-16 22:00,-0.00494882,276.594,275.951,249.286,279.907,279.661,255.153,0.0,0.0,230.674,250.442
2016-10-16 23:00,0.0,275.251,274.916,249.029,279.17,279.211,255.28,-0.00224228,-0.00256596,230.593,250.849
2016-10-17 00:00,-0.00173322,281.346,280.669,251.552,284.501,283.339,257.034,0.0,0.0,230.674,251.352
2016-10-17 01:00,0.0,285.665,285.658,253.98,289.032,287.048,258.27,0.0,0.0,230.916,251.751
2016-10-17 02:00,-0.00245889,285.665,286.105,254.217,289.701,288.027,258.76,0.0,0.0,232.175,252.439
2016-10-17 03:00,-0.00116561,286.271,286.105,254.217,289.434,287.469,258.515,0.0,0.0,230.996,252.047
2016-10-17 04:00,-0.00117904,285.97,285.77,254.099,288.763,286.767,258.27,0.0,0.0,230.996,252.537
2016-10-17 05:00,0.0,283.594,280.789,251.552,282.517,279.81,253.881,0.0,0.0,228.575,249.198
2016-10-17 06:00,-0.00148797,285.357,284.071,253.261,286.722,284.349,256.535,0.0,0.0,228.488,250.646
2016-10-17 07:00,0.0,272.322,260.201,241.207,257.739,254.281,235.691,0.0,0.0,221.484,235.444
2016-10-17 08:00,-0.00300863,273.586,261.982,242.369,261.25,257.856,240.5,0.0,0.0,222.906,239.523
2016-10-17 09:00,0.0,285.045,285.433,253.501,288.493,286.626,258.023,0.0,0.0,228.312,251.252
2016-10-17 10:00,0.338462,286.421,284.869,253.14,288.087,286.202,258.023,0.698739,0.515875,228.048,251.352
2016-10-17 11:00,0.193942,285.665,278.474,249.669,279.613,276.477,251.028,0.319661,0.258651,225.546,247.481
2016-10-17 12:00,0.365743,285.665,270.885,246.934,272.741,271.283,249.838,0.392203,0.401217,224.56,247.261
2016-10-17 13:00,0.340997,293.007,275.823,253.02,279.17,278.307,257.9,0.325,0.342454,231.236,255.821
2016-10-17 14:00,0.342996,288.012,276.208,253.14,279.17,278.76,258.638,0.312553,0.3323,231.63,256.539
2016-10-17 15:00,0.358458,280.427,276.08,252.899,279.022,279.061,258.515,0.522568,0.564715,231.787,256.181
2016-10-17 16:00,0.310679,283.093,276.208,252.777,279.318,279.061,258.515,0.369761,0.378746,231.943,256.45
2016-10-17 17:00,0.242622,286.569,280.066,254.926,282.517,281.588,259.005,0.27345,0.261162,231.552,256.45
2016-10-17 18:00,0.226781,287.01,269.201,248.771,269.021,265.309,246.732,0.252738,0.252431,225.643,246.258
2016-10-17 19:00,0.0729192,290.685,286.992,258.802,288.897,286.202,260.34,0.137201,0.0954285,229.769,254.999
2016-10-17 20:00,0.102373,290.429,288.412,259.683,290.5,288.027,261.66,0.177692,0.139525,230.348,255.366
2016-10-17 21:00,0.321721,289.647,288.951,260.337,291.555,289.137,262.255,0.817203,1.29919,230.266,255.366
2016-10-17 22:00,0.0,0.0,287.432,259.244,289.568,286.907,260.34,0.0,0.0,229.348,253.88
2016-10-17 23:00,-0.00787899,290.041,288.843,260.119,291.555,289.276,262.492,-0.00667113,-0.00795432,231.236,255.183
2016-10-18 00:00,-0.0018297,282.581,275.436,252.045,275.703,272.246,249.971,0.0,-0.00184719,226.499,246.258
2016-10-18 01:00,-0.00147297,288.152,285.546,258.358,287.543,284.636,258.882,0.0,0.0,230.266,253.785
2016-10-18 02:00,-0.00130029,285.045,278.721,254.099,279.466,276.323,252.205,0.0,0.0,227.959,249.617
2016-10-18 03:00,0.0,285.045,279.58,254.454,279.907,276.323,253.24,0.0,0.0,227.959,249.093
2016-10-18 04:00,0.0,275.932,262.774,245.314,259.974,255.992,239.322,0.0,0.0,222.692,238.165
2016-10-18 05:00,0.0,257.605,237.841,232.663,234.371,230.688,224.126,0.0,0.0,216.15,224.204
2016-10-18 06:00,0.0,256.062,242.597,235.01,238.446,234.461,227.601,0.0,0.0,218.391,229.489
2016-10-18 07:00,0.00204177,270.713,266.59,247.465,267.185,265.82,247.959,0.0,0.00206129,225.058,244.647
2016-10-18 08:00,-0.0031745,258.096,246.102,237.101,243.438,239.895,230.931,0.0,0.0,220.454,232.347
2016-10-18 09:00,-0.00813542,259.505,247.15,236.943,244.8,241.698,232.707,0.0,0.0,221.031,231.53
2016-10-18 10:00,0.3951,272.58,265.846,247.067,266.508,264.106,246.732,0.496028,0.536421,225.739,244.412
2016-10-18 11:00,0.529635,285.818,274.392,251.552,276.62,274.929,254.646,0.568675,0.56182,228.136,248.241
2016-10-18 12:00,0.403954,275.02,254.871,241.207,253.867,250.957,237.222,0.493155,0.516882,221.819,235.887
2016-10-18 13:00,0.27786,287.444,277.476,253.621,279.318,277.243,255.532,0.315709,0.298614,229.007,249.303
2016-10-18 14:00,0.376727,284.57,278.35,253.98,281.51,280.406,258.27,0.351656,0.364741,229.178,250.135
2016-10-18 15:00,0.0914087,287.3,280.669,255.626,282.946,280.406,257.034,0.12285,0.105466,228.835,248.775
2016-10-18 16:00,0.0264867,288.841,283.38,256.664,284.641,280.702,256.16,0.0685247,0.0460521,227.601,247.808
2016-10-18 17:00,0.264747,274.551,252.29,240.32,251.856,248.121,236.765,0.337608,0.352024,223.849,237.888
2016-10-18 18:00,0.208606,286.864,271.162,249.797,270.169,265.82,246.457,0.224497,0.216504,223.329,240.835
2016-10-18 19:00,0.449279,282.234,261.501,245.04,260.158,255.425,239.618,0.477233,0.511301,223.434,239.523
2016-10-18 20:00,0.571835,285.97,265.394,246.801,263.569,258.408,240.06,0.484172,0.561557,222.692,238.441
2016-10-18 21:00,5.88545,260.395,240.277,234.681,236.441,232.474,224.657,14.9496,17.8251,216.963,225.408
2016-10-18 22:00,-0.00509609,264.009,249.583,238.503,247.229,243.896,233.344,0.0,0.0,221.93,232.022
2016-10-18 23:00,-0.00782365,284.73,277.852,254.217,278.873,274.773,252.335,-0.00441618,-0.00526563,227.055,246.258
2016-10-19 00:00,0.0,283.428,280.429,255.858,282.374,279.959,257.158,0.0,0.0,228.575,248.562
2016-10-19 01:00,0.0,285.97,282.566,256.664,284.641,281.441,257.282,0.0,0.0,229.093,249.303
2016-10-19 02:00,0.0,285.202,279.58,255.393,280.785,276.784,253.497,0.0,0.0,227.51,247.04
2016-10-19 03:00,0.0,286.121,280.429,255.858,281.366,277.701,254.009,0.0,0.0,226.871,246.145
2016-10-19 04:00,0.0,285.818,280.669,256.089,281.799,278.307,254.773,0.0,0.0,227.055,246.258
2016-10-19 05:00,0.0,279.278,279.091,255.393,281.943,279.959,257.406,0.0,0.0,227.691,248.241
2016-10-19 06:00,0.00156998,280.982,279.213,255.16,281.366,278.609,256.535,0.0,0.0,227.691,247.04
2016-10-19 07:00,0.0,279.859,275.306,253.501,276.315,272.246,250.501,0.0,0.0,225.931,244.294
2016-10-19 08:00,0.0,283.594,274.524,253.02,273.686,267.673,246.044,0.0,0.0,223.746,240.576
2016-10-19 09:00,-0.0080225,283.261,278.35,255.16,279.022,274.304,251.422,0.0,0.0,226.405,244.53
2016-10-19 10:00,0.489089,285.665,274.655,253.02,273.686,268.007,246.182,0.627082,0.592517,224.156,241.348
2016-10-19 11:00,0.293914,287.01,276.718,254.099,277.377,273.675,251.159,0.363462,0.32015,226.311,243.336
2016-10-19 12:00,0.0708133,287.871,280.789,256.089,281.51,277.853,254.137,0.143898,0.104852,226.778,244.53
2016-10-19 13:00,0.0252018,288.977,284.414,258.469,286.172,282.175,257.406,0.0884015,0.05452,229.093,248.025
2016-10-19 14:00,0.021699,288.841,283.841,258.246,285.34,281.441,256.909,0.0695532,0.0438129,228.488,246.707
2016-10-19 15:00,0.045153,289.514,284.414,258.246,286.585,282.758,257.653,0.081395,0.0558779,228.224,247.151
2016-10-19 16:00,0.0635353,288.43,283.032,257.459,284.22,280.406,256.285,0.0938289,0.0760762,227.42,245.69
2016-10-19 17:00,0.176788,275.251,257.166,241.791,255.633,252.341,237.977,0.229336,0.235788,223.538,234.694
2016-10-19 18:00,0.266686,269.283,251.147,238.963,249.998,248.327,238.128,0.343685,0.372179,225.449,235.592
2016-10-19 19:00,0.48865,260.395,234.477,230.565,234.371,232.976,228.446,0.625258,0.720582,223.118,229.664
2016-10-19 20:00,0.712764,263.636,231.713,229.665,231.131,229.909,225.709,0.697373,0.847503,221.708,227.877
2016-10-19 21:00,0.0,230.231,228.155,227.438,228.001,227.246,224.834,-0.623079,-1.11439,221.258,226.187
2016-10-19 22:00,-0.005025,243.066,237.591,231.799,237.451,236.157,230.44,0.0,0.0,223.118,232.185
2016-10-19 23:00,-0.0051802,255.521,239.559,233.513,237.951,235.435,228.949,-0.00438607,-0.00522972,220.916,229.838
2016-10-20 00:00,0.0,245.913,237.339,231.799,236.695,235.435,229.946,0.0,0.0,223.952,232.185
2016-10-20 01:00,-0.00146297,252.585,247.973,237.728,248.093,246.666,237.977,0.0,0.0,225.835,238.714
2016-10-20 02:00,0.0,273.088,265.394,247.332,265.654,262.537,246.732,0.0,0.0,226.405,242.602
2016-10-20 03:00,0.0,285.202,280.549,256.32,281.943,278.156,254.392,0.0,0.0,226.963,245.804
2016-10-20 04:00,0.0,283.594,277.098,254.454,278.873,274.617,253.753,0.0,0.0,228.224,246.483
2016-10-20 05:00,-0.00134214,285.665,280.909,256.892,282.946,279.211,256.035,0.0,0.0,228.136,246.707
2016-10-20 06:00,-0.00156589,288.568,284.755,259.134,286.722,282.758,257.653,0.0,0.0,227.691,246.371
2016-10-20 07:00,0.0,283.428,276.718,253.621,276.923,272.724,251.422,0.0,0.0,226.963,244.175
2016-10-20 08:00,0.0,272.061,260.036,243.79,260.158,256.928,241.229,0.0,0.0,224.76,236.179
2016-10-20 09:00,0.0,251.282,243.496,233.849,243.209,241.921,234.916,0.0,0.0,225.546,235.146
2016-10-20 10:00,0.315657,262.869,254.145,240.617,254.461,253.122,241.084,0.534532,0.550437,227.78,240.706
2016-10-20 11:00,0.315705,290.813,283.148,257.798,284.921,281.588,256.785,0.353109,0.306918,228.748,246.818
2016-10-20 12:00,0.0759239,289.647,283.148,258.134,285.061,281.146,256.285,0.156694,0.112579,228.312,247.04
2016-10-20 13:00,0.189815,290.685,283.264,257.685,285.201,282.028,257.406,0.263269,0.233606,228.048,246.707
2016-10-20 14:00,0.146264,273.088,258.365,243.226,259.236,256.18,241.374,0.231874,0.219923,225.546,236.469
2016-10-20 15:00,0.0438672,287.729,281.505,257.12,282.803,278.458,255.027,0.0940937,0.0693822,228.575,246.483
2016-10-20 16:00,0.0519297,288.977,279.823,256.32,281.655,277.853,254.773,0.0917063,0.0704008,229.007,246.929
2016-10-20 17:00,0.0651824,290.939,280.066,256.549,282.087,278.004,255.28,0.0965823,0.0756764,228.575,246.707
2016-10-20 18:00,0.45758,290.558,261.501,245.587,263.92,262.712,249.438,0.425841,0.450007,228.575,246.258
2016-10-20 19:00,0.799858,290.171,259.871,244.21,262.507,262.008,248.768,0.724106,0.818681,228.662,246.032
2016-10-20 20:00,0.986663,280.982,256.992,242.513,259.421,259.139,247.142,0.885349,1.05564,228.835,245.23
2016-10-20 21:00,-0.180075,254.966,255.05,241.354,256.789,256.367,245.35,-0.304939,-0.363593,228.224,243.577
2016-10-20 22:00,0.0,253.81,249.978,238.503,251.447,250.156,240.938,0.0,0.0,226.685,241.602
2016-10-20 23:00,-0.00514594,258.576,255.764,242.225,257.361,256.742,246.182,-0.00435706,-0.00519514,228.136,244.056
2016-10-21 00:00,0.0,272.061,266.59,248.252,268.524,266.835,251.028,0.0,0.0,228.575,246.258
2016-10-21 01:00,0.0,274.314,268.487,249.286,270.006,267.339,251.159,0.0,0.0,228.224,246.032
2016-10-21 02:00,0.0,275.707,267.473,249.286,269.021,266.498,250.765,0.0,0.0,228.662,245.918
2016-10-21 03:00,-0.00122438,272.322,263.867,246.801,265.826,263.063,248.903,0.0,0.0,228.921,245.804
2016-10-21 04:00,0.0,255.521,254.509,240.913,256.021,255.235,243.808,0.0,0.0,228.575,243.937
2016-10-21 05:00,-0.00133909,253.206,253.04,240.617,254.263,253.122,242.384,0.0,0.0,229.348,243.457
2016-10-21 06:00,0.0,260.395,257.854,243.084,259.421,258.04,245.489,0.0,0.0,229.348,244.647
2016-10-21 07:00,-0.0020214,260.395,258.195,242.942,259.421,258.224,247.006,0.0,0.0,230.266,245.69
2016-10-21 08:00,-0.00312461,269.865,264.482,247.2,266.508,264.106,249.838,0.0,0.0,229.935,246.595
2016-10-21 09:00,0.0,271.261,267.473,248.642,268.69,266.835,250.896,0.0,0.0,228.748,246.595
2016-10-21 10:00,0.929173,279.278,266.145,248.252,268.358,265.82,250.501,0.861656,0.923166,227.51,246.145
2016-10-21 11:00,0.589327,286.421,265.243,247.332,267.857,266.498,251.028,0.538901,0.555296,227.959,246.483
2016-10-21 12:00,0.419778,289.381,270.885,250.555,272.899,271.444,254.009,0.411971,0.416567,228.488,247.917
2016-10-21 13:00,0.415764,283.76,268.487,249.286,270.981,270.148,253.368,0.530346,0.540711,228.488,247.699
2016-10-21 14:00,0.290565,270.151,256.992,242.799,258.678,257.671,244.792,0.560821,0.596147,225.835,242.105
2016-10-21 15:00,0.383149,279.473,261.501,245.451,263.04,261.477,248.094,0.536957,0.56021,227.238,245.575
2016-10-21 16:00,0.341188,276.376,262.931,246.265,264.965,264.106,249.838,0.422602,0.455756,227.601,246.258
2016-10-21 17:00,0.301256,279.473,260.201,245.04,261.25,258.591,243.949,0.406175,0.421492,225.643,241.98
2016-10-21 18:00,0.404689,282.581,256.294,242.799,257.739,256.18,243.808,0.460226,0.496679,226.405,242.23
2016-10-21 19:00,0.714298,290.558,255.941,242.225,257.739,255.614,244.09,0.682757,0.746479,226.216,243.336
2016-10-21 20:00,0.789693,279.278,253.595,241.354,254.263,252.536,241.084,0.747023,0.868719,225.546,240.835
2016-10-21 21:00,-0.119978,260.827,257.511,243.368,259.051,257.671,244.792,-0.20317,-0.242249,225.449,242.23
2016-10-21 22:00,-0.00489285,261.251,257.854,243.368,258.865,257.301,244.09,0.0,0.0,224.86,241.728
2016-10-21 23:00,-0.00766944,264.739,261.017,245.04,262.329,261.121,246.869,-0.00432914,-0.00516184,226.027,244.175
2016-10-22 00:00,-0.00179765,268.073,259.206,245.04,260.524,257.115,242.384,0.0,0.0,225.739,242.23
2016-10-22 01:00,-0.0014536,275.02,269.201,250.051,270.981,269.165,252.075,0.0,0.0,229.178,247.481
2016-10-22 02:00,0.0,270.434,267.618,248.9,270.006,268.835,253.24,0.0,0.0,230.101,248.669
2016-10-22 03:00,0.0,266.131,266.442,248.252,267.522,267.339,252.075,0.0,0.0,230.43,248.669
2016-10-22 04:00,0.0,274.787,271.711,250.931,273.372,272.086,254.264,0.0,0.0,229.769,249.093
2016-10-22 05:00,0.0,286.121,281.624,257.006,283.23,280.108,256.66,0.0,0.0,229.348,249.408
2016-10-22 06:00,-0.00155787,278.075,272.931,252.045,275.396,273.675,254.9,0.0,0.0,229.685,249.721
2016-10-22 07:00,-0.00201468,288.841,284.528,259.134,286.31,282.758,258.27,0.0,0.0,230.184,249.825
2016-10-22 08:00,0.00310808,284.73,282.448,257.459,284.641,281.882,258.023,0.0,0.0,230.511,250.34
2016-10-22 09:00,0.00769406,285.97,281.624,256.892,283.088,280.257,257.282,0.0,0.0,230.996,251.051
2016-10-22 10:00,0.0455368,289.514,286.328,260.011,287.543,284.349,259.37,0.411263,0.214536,232.097,251.751
2016-10-22 11:00,0.190132,290.041,284.982,258.913,285.757,282.613,258.638,0.308554,0.279927,232.86,251.652
2016-10-22 12:00,0.417233,282.234,267.326,248.512,269.515,268.835,253.368,0.667966,0.694774,233.308,251.352
2016-10-22 13:00,0.450409,285.512,271.437,250.681,273.843,273.2,255.532,0.498702,0.515466,233.382,251.552
2016-10-22 14:00,0.271341,270.989,266.145,247.859,268.191,267.673,252.594,0.523233,0.555788,234.041,251.352
2016-10-22 15:00,0.338983,278.482,270.607,250.177,272.899,272.405,255.027,0.461722,0.46721,234.257,252.342
2016-10-22 16:00,0.293246,278.482,272.662,251.552,275.396,274.929,256.285,0.425642,0.438032,234.257,252.925
2016-10-22 17:00,0.28294,286.717,274.785,252.777,277.528,276.323,256.909,0.291099,0.283984,233.53,252.244
2016-10-22 18:00,0.472876,289.647,274.261,252.656,277.377,276.631,256.66,0.447686,0.45121,234.041,252.439
2016-10-22 19:00,0.751035,298.63,274.524,252.899,276.923,275.24,255.909,0.631137,0.675862,234.185,252.537
2016-10-22 20:00,0.39825,291.809,283.032,257.685,284.501,281.588,258.515,0.407447,0.396473,235.593,253.405
2016-10-22 21:00,0.0,285.512,281.148,256.32,282.66,280.108,257.158,-0.0765463,-0.18254,234.543,252.342
2016-10-22 22:00,0.0,281.346,281.386,255.974,283.797,282.467,259.249,0.0,0.0,233.896,253.88
2016-10-22 23:00,-0.00254062,288.291,286.439,258.913,288.493,286.202,260.581,-0.00430227,-0.00512981,235.247,254.536
2016-10-23 00:00,-0.00179032,290.041,288.52,260.228,290.764,288.167,261.421,-0.00151587,0.0,234.897,254.629
2016-10-23 01:00,0.0,289.91,289.593,260.876,291.948,289.826,262.61,0.0,0.0,235.662,256.805
2016-10-23 02:00,0.0,289.381,289.593,260.119,292.209,290.511,263.436,0.0,0.0,234.756,257.595
2016-10-23 03:00,0.0,289.247,289.805,260.661,292.6,291.329,263.318,0.0,0.0,235.936,259.304
2016-10-23 04:00,0.0,288.291,289.165,260.011,292.079,290.648,263.787,0.0,0.0,235.662,259.97
2016-10-23 05:00,-0.00133315,288.43,288.843,259.902,291.292,289.964,0.0,0.0,0.0,235.525,259.554
2016-10-23 06:00,0.0,286.864,286.772,258.802,289.568,288.027,262.255,0.0,0.0,236.071,259.554
2016-10-23 07:00,-0.002008,288.705,288.195,259.464,290.367,288.584,262.373,0.0,0.0,237.006,259.554
2016-10-23 08:00,-0.00309159,284.888,284.528,257.346,286.86,285.777,261.301,0.0,-0.00312115,237.657,259.887
2016-10-23 09:00,0.0,287.01,286.772,258.58,288.628,287.188,261.54,0.0,0.0,239.104,260.627
2016-10-23 10:00,0.594381,289.647,288.303,258.913,290.5,288.861,262.373,0.688674,0.615855,240.665,261.993
2016-10-23 11:00,0.195723,291.809,289.165,259.574,291.423,289.826,262.373,0.270561,0.213724,243.526,263.012
2016-10-23 12:00,0.0723298,291.44,289.699,259.793,291.948,290.375,262.61,0.140856,0.0949276,245.202,264.01
2016-10-23 13:00,0.0183163,290.813,290.44,259.902,292.989,291.193,263.2,0.0790928,0.0443794,245.658,264.086
2016-10-23 14:00,0.017323,291.19,290.44,259.793,293.248,291.6,263.67,0.0600029,0.0333874,245.608,263.629
2016-10-23 15:00,0.0488315,291.44,288.951,259.024,291.555,289.689,262.61,0.0739209,0.0522861,245.253,262.935
2016-10-23 16:00,0.0465761,290.685,288.303,258.58,291.029,288.999,261.779,0.0699669,0.050055,245.048,262.23
2016-10-23 17:00,0.051236,290.813,288.52,258.58,290.632,288.722,261.54,0.0797659,0.0600687,244.997,262.388
2016-10-23 18:00,0.196663,288.152,284.414,256.205,286.997,285.493,260.942,0.282055,0.279581,245.405,262.151
2016-10-23 19:00,0.204161,292.294,288.195,258.358,290.234,288.167,261.66,0.225682,0.194662,245.405,262.23
2016-10-23 20:00,0.49996,291.19,287.212,257.685,289.3,287.329,261.66,0.480391,0.493397,246.059,262.309
2016-10-23 21:00,0.0,288.012,287.432,258.022,289.434,287.329,261.301,-0.123327,-0.220574,245.91,262.151
2016-10-23 22:00,0.00477306,288.568,288.087,258.469,290.367,288.167,261.301,0.0,0.0,245.809,262.23
2016-10-23 23:00,-0.00252536,289.381,288.087,258.022,289.968,287.888,261.182,-0.00427644,-0.00509901,245.304,261.515
2016-10-24 00:00,-0.00178326,287.587,286.882,257.685,289.032,287.048,260.701,0.0,0.0,244.269,260.545
2016-10-24 01:00,-0.00144487,274.073,276.591,252.045,277.828,278.004,257.9,0.0,0.0,243.846,259.135
2016-10-24 02:00,-0.00127996,289.381,287.651,258.58,289.434,286.767,260.942,0.0,0.0,243.472,259.97
2016-10-24 03:00,0.0,288.841,287.541,258.58,289.568,287.048,260.942,0.0,0.0,241.874,258.713
2016-10-24 04:00,0.0,288.977,287.651,258.469,289.568,286.907,261.062,0.0,0.0,243.202,259.22
2016-10-24 05:00,-0.00133026,285.202,284.414,257.12,286.585,284.349,259.856,0.0,0.0,243.256,258.286
2016-10-24 06:00,0.0,289.113,286.992,258.246,288.493,285.777,260.581,0.0,0.0,243.039,257.855
2016-10-24 07:00,0.0,288.977,286.439,257.798,288.087,285.208,259.977,0.0,0.0,243.579,257.855
2016-10-24 08:00,0.0,287.444,285.095,257.233,286.722,284.061,259.492,0.0,0.0,242.489,256.628
2016-10-24 09:00,-0.00748361,285.512,282.214,254.572,282.946,280.108,257.406,0.0,0.0,242.875,256.36
2016-10-24 10:00,0.306668,287.155,282.331,255.393,283.797,280.998,258.27,0.601306,0.505136,241.93,255.548
2016-10-24 11:00,0.20949,290.429,284.528,256.32,285.895,282.613,258.76,0.317228,0.252164,241.59,255.183
2016-10-24 12:00,0.0193953,289.514,286.439,257.572,287.815,284.779,259.249,0.0985316,0.0489517,240.841,255.911
2016-10-24 13:00,0.213428,285.357,279.091,253.98,281.51,279.511,258.023,0.348956,0.328775,240.014,255.73
2016-10-24 14:00,-0.00158129,289.381,286.55,258.469,288.222,285.208,259.249,0.0455217,0.015964,237.977,254.629
2016-10-24 15:00,0.104,285.97,279.58,254.336,281.076,278.911,256.535,0.150954,0.140992,238.041,254.536
2016-10-24 16:00,0.00452641,289.381,286.992,258.58,288.222,285.35,259.856,0.0421575,0.0198019,237.785,254.536
2016-10-24 17:00,0.0631022,288.43,284.642,257.572,286.722,284.205,259.127,0.104045,0.0804701,236.475,253.88
2016-10-24 18:00,0.0827504,288.152,282.448,256.664,284.361,281.146,257.282,0.165763,0.150782,235.525,252.146
2016-10-24 19:00,0.180075,291.315,285.208,257.91,287.27,284.492,259.614,0.232333,0.201996,236.94,253.69
2016-10-24 20:00,0.0969835,289.779,287.432,259.244,289.3,286.202,259.977,0.227026,0.155505,236.004,253.69
2016-10-24 21:00,-0.0611903,288.568,287.102,259.024,288.897,286.202,260.34,-0.103619,-0.0617753,236.542,254.162
2016-10-24 22:00,0.0,288.841,287.541,259.244,289.434,286.626,260.942,0.0,0.0,236.609,254.629
2016-10-24 23:00,0.0,288.43,286.328,258.58,288.493,286.202,259.856,-0.00425162,-0.00506941,237.463,254.722
2016-10-25 00:00,-0.00177646,289.247,287.76,259.683,289.835,286.907,260.581,0.0,0.0,237.006,255.366
2016-10-25 01:00,-0.00144073,289.247,288.303,259.793,290.764,288.027,261.54,0.0,0.0,237.203,255.366
2016-10-25 02:00,0.0,289.779,289.165,260.337,291.817,289.276,262.136,0.0,0.0,237.398,256.45
2016-10-25 03:00,0.0,287.587,286.439,259.024,289.166,287.048,261.062,0.0,0.0,237.657,256.45
2016-10-25 04:00,0.00122884,288.977,287.322,259.134,289.568,286.907,261.182,0.0,0.0,238.294,256.271
2016-10-25 05:00,0.0,288.568,287.102,259.244,288.897,286.343,260.34,0.0,0.0,238.231,256.805
2016-10-25 06:00,-0.00154615,289.247,287.102,258.913,288.628,285.493,260.219,0.0,0.0,238.42,255.275
2016-10-25 07:00,0.0,287.444,286.772,258.691,289.032,286.485,260.34,0.0,0.0,239.043,257.421
2016-10-25 08:00,0.0,284.249,283.726,256.664,285.201,283.917,259.856,0.0,0.0,239.104,257.508
2016-10-25 10:00,0.500382,288.705,286.772,258.358,288.763,286.343,260.581,0.87559,0.87562,239.227,257.855
2016-10-25 11:00,0.231649,291.065,287.322,258.913,289.166,286.485,260.461,0.323454,0.262584,238.231,257.07
2016-10-25 12:00,0.14385,291.315,286.661,258.358,288.897,286.202,260.461,0.210565,0.162455,238.357,256.805
2016-10-25 13:00,0.271704,287.871,281.267,255.626,283.088,281.293,259.37,0.395938,0.397456,237.849,255.548
2016-10-25 14:00,0.0365205,290.558,286.55,258.802,288.493,285.635,260.219,0.0833546,0.0496939,237.398,255.091
2016-10-25 15:00,0.0298349,290.041,286.882,258.802,288.897,285.919,259.977,0.0669422,0.0436742,236.808,254.722
2016-10-25 16:00,0.0212127,290.041,287.322,259.134,289.166,286.06,260.219,0.0602969,0.0367123,236.609,254.629
2016-10-25 17:00,0.0400421,290.685,286.772,259.134,288.628,285.635,259.735,0.0762831,0.0505311,236.808,254.068
2016-10-25 18:00,0.146149,290.171,285.433,258.022,287.543,284.922,259.735,0.185616,0.157793,237.006,254.068
2016-10-25 19:00,0.0749088,290.301,287.212,259.244,288.897,285.635,260.461,0.141487,0.0988941,237.203,254.068
2016-10-25 20:00,0.359186,291.44,286.772,259.134,288.493,285.635,259.856,0.36789,0.333377,236.675,253.595
2016-10-25 21:00,0.0,289.247,287.102,260.228,288.897,285.777,260.219,-0.0448118,-0.0534312,236.207,252.925
2016-10-25 22:00,-0.00932905,288.841,286.992,259.902,288.763,285.635,259.977,0.0,0.0,235.525,252.634
2016-10-25 23:00,-0.00499327,286.569,284.982,258.802,287.27,284.492,259.856,-0.00422779,-0.005041,235.662,252.439
2016-10-26 00:00,-0.00176992,287.729,285.77,259.244,288.087,285.635,259.856,0.0,0.0,235.317,252.342
2016-10-26 01:00,0.0,289.647,287.978,260.228,290.101,287.469,260.34,0.0,0.0,235.593,252.439
2016-10-26 02:00,-0.00127403,287.729,285.882,259.354,288.763,285.919,260.098,0.0,0.0,234.968,251.751
2016-10-26 03:00,0.0,288.568,287.102,260.228,289.434,286.485,260.581,0.0,0.0,233.968,250.95
2016-10-26 04:00,0.0,289.514,287.76,260.984,290.101,287.188,260.34,0.0,0.0,234.401,251.352
2016-10-26 05:00,0.0,289.247,286.55,260.119,288.358,285.065,259.735,0.0,0.0,233.823,250.646
2016-10-26 06:00,0.0,283.428,280.789,256.32,282.087,280.108,257.9,0.0,0.0,233.456,250.032
2016-10-26 07:00,0.0,269.865,269.767,249.414,272.264,271.283,254.264,0.0,0.0,233.677,250.135
2016-10-26 08:00,0.00608491,287.587,284.528,259.024,286.033,282.613,258.515,0.0,0.0,234.257,250.646
2016-10-26 09:00,0.00727991,289.247,286.328,259.244,287.679,284.061,259.127,0.0,0.0,234.113,250.95
2016-10-26 10:00,0.310741,289.247,286.439,259.683,288.087,285.208,259.37,0.584675,0.418282,234.543,251.452
2016-10-26 11:00,0.0533063,289.647,287.322,260.337,289.434,286.202,260.098,0.197897,0.115911,234.756,252.244
2016-10-26 13:00,0.0241397,290.429,287.541,260.119,289.701,286.907,260.581,0.0864729,0.0468663,235.038,252.342
2016-10-26 14:00,0.019134,289.91,287.541,260.228,289.568,286.767,260.822,0.0621029,0.0338047,234.615,251.949
2016-10-26 15:00,0.0464331,288.841,280.308,256.205,282.517,279.211,256.535,0.0722885,0.0529256,234.686,250.849
2016-10-26 16:00,0.0715164,289.647,279.458,256.32,282.231,279.061,256.909,0.0888967,0.0706639,233.968,250.646
2016-10-26 17:00,0.0251442,290.429,287.432,260.337,289.701,286.485,259.492,0.0581915,0.0355384,233.677,250.748
2016-10-26 18:00,0.134732,292.534,286.328,259.902,288.897,285.635,259.614,0.157289,0.131899,233.53,250.748
2016-10-26 19:00,0.110348,291.931,287.102,260.445,289.701,286.626,259.856,0.157358,0.114334,232.935,250.34
2016-10-26 20:00,0.452968,289.381,283.611,258.134,285.479,282.175,257.653,0.478164,0.457298,232.02,249.303
2016-10-26 21:00,-0.0467597,281.526,276.463,254.099,278.128,275.24,254.137,-0.0395914,-0.0472067,232.175,248.775
2016-10-26 22:00,0.00461417,286.121,283.148,258.358,285.061,281.882,257.53,0.0,0.0,232.784,250.135
2016-10-26 23:00,-0.00248314,280.799,279.823,256.664,282.087,279.81,257.158,-0.00420494,-0.00501375,233.456,250.34
2016-10-27 00:00,-0.00176363,286.717,284.3,259.134,286.033,282.758,258.638,0.0,0.0,233.603,250.849
2016-10-27 01:00,0.0,286.421,284.3,259.244,286.722,283.194,258.27,0.0,0.0,232.633,250.34
2016-10-27 02:00,0.0,286.271,283.264,258.469,285.479,281.882,258.392,0.0,0.0,232.328,250.646
2016-10-27 03:00,0.0012088,288.012,286.105,259.793,288.222,285.065,259.492,0.0,0.0,232.633,250.95
2016-10-27 04:00,0.0,288.841,286.105,260.011,288.087,284.636,258.882,0.0,0.0,232.02,250.34
2016-10-27 05:00,0.0,285.045,279.945,255.858,281.366,278.609,254.519,0.0,0.0,230.43,247.917
2016-10-27 06:00,0.00153855,289.113,286.992,260.337,289.434,286.343,259.977,0.0,0.0,231.394,251.352
2016-10-27 07:00,-0.0019816,288.705,286.55,259.902,288.358,285.635,259.856,0.0,0.0,231.076,251.051
2016-10-27 08:00,0.0,286.864,284.3,258.134,286.31,283.484,258.638,0.0,0.0,229.769,249.093
2016-10-27 09:00,0.0,277.661,276.591,254.217,278.128,276.631,255.909,0.0,0.0,229.263,248.133
2016-10-27 10:00,1.05597,283.594,276.08,254.099,276.163,273.2,251.944,1.04563,1.06607,228.575,246.818
2016-10-27 11:00,0.0496568,289.247,286.328,259.902,287.951,284.922,259.492,0.192703,0.104441,231.473,250.849
2016-10-27 12:00,0.187457,290.171,285.095,259.354,286.997,284.205,260.098,0.261052,0.21415,232.097,251.252
2016-10-27 13:00,0.0391782,290.301,286.772,260.337,288.358,285.208,260.098,0.0979368,0.0621544,232.784,251.252
2016-10-27 14:00,0.0208162,289.514,285.882,259.902,287.543,284.349,259.127,0.0664329,0.0371808,232.784,250.95
2016-10-27 15:00,0.0992635,286.569,278.226,255.277,279.17,276.323,254.646,0.13371,0.118433,229.769,248.133
2016-10-27 16:00,0.129888,287.587,280.429,257.006,281.366,277.853,255.027,0.165611,0.145014,230.348,248.133
2016-10-27 17:00,0.0825236,289.91,282.682,257.798,284.22,280.85,257.158,0.106948,0.0850127,230.755,249.617
2016-10-27 18:00,0.102647,290.813,286.217,259.683,288.222,285.35,260.098,0.133843,0.107774,231.865,250.95
2016-10-27 19:00,0.348272,281.526,266.442,247.991,267.016,263.237,244.231,0.401435,0.416604,226.122,242.354
2016-10-27 20:00,0.525618,287.729,276.463,253.621,276.62,272.883,251.291,0.50067,0.530643,228.048,244.998
2016-10-27 21:00,-0.0419897,276.376,266.145,247.597,265.826,261.831,244.09,-0.0711053,-0.0847823,226.592,241.348
2016-10-27 22:00,0.0,289.247,286.772,260.119,288.763,285.777,260.581,0.0,0.0,231.236,250.95
2016-10-27 23:00,-0.00494041,287.871,286.105,260.011,288.087,285.635,260.34,-0.00209152,-0.00249382,232.328,251.152
2016-10-28 00:00,0.0,289.113,287.102,260.661,289.3,286.485,260.701,0.0,0.0,232.02,251.152
2016-10-28 01:00,-0.00142921,289.381,287.432,260.876,289.701,286.626,260.701,0.0,0.0,232.328,251.051
2016-10-28 02:00,0.0,288.841,286.772,260.445,288.897,286.202,260.701,0.0,0.00128063,232.481,250.95
2016-10-28 03:00,0.00120647,288.152,285.321,259.464,286.997,283.484,258.147,0.0,0.0,231.63,250.135
2016-10-28 04:00,-0.0012217,282.753,275.436,254.099,274.778,269.165,247.415,0.0,0.0,227.42,243.937
2016-10-28 05:00,0.0,280.799,270.607,250.681,270.006,265.99,245.211,0.0,0.0,225.835,241.221
2016-10-28 06:00,-0.0015348,275.707,263.867,246.801,263.04,258.774,241.374,0.0,0.0,223.118,236.325
2016-10-28 07:00,0.0,288.43,286.439,259.902,288.358,285.065,259.37,0.0,0.0,230.835,249.617
2016-10-28 08:00,0.0,288.977,286.882,260.228,288.897,285.919,260.461,0.0,0.0,230.996,249.721
2016-10-28 09:00,0.0,288.841,287.102,260.445,289.3,286.485,260.098,0.0,0.0,230.916,250.238
2016-10-28 10:00,0.613443,288.152,285.433,259.574,288.087,285.208,259.977,0.865669,0.769442,230.916,249.825
2016-10-28 11:00,0.142011,290.558,286.992,260.228,289.3,286.485,260.581,0.265237,0.18132,231.236,250.442
2016-10-28 12:00,0.106692,290.685,287.102,260.011,289.568,286.907,260.822,0.17437,0.122742,232.481,251.051
2016-10-28 13:00,0.0487373,290.429,286.882,260.228,288.897,286.202,260.34,0.114274,0.0738048,232.784,251.352
2016-10-28 14:00,0.255685,285.818,281.742,257.685,284.079,282.321,258.882,0.343113,0.352289,233.159,251.552
2016-10-28 15:00,0.250693,285.665,277.601,255.277,279.318,277.091,254.646,0.335015,0.317124,230.916,249.093
2016-10-28 16:00,0.0951446,290.685,284.869,259.024,287.134,284.922,260.098,0.109144,0.0945049,232.557,251.949
2016-10-28 17:00,0.0101522,290.429,287.651,260.553,289.701,286.626,261.062,0.0472773,0.0256232,232.557,252.047
2016-10-28 18:00,0.311735,275.707,254.328,241.791,252.868,249.753,236.613,0.354841,0.385578,224.86,236.9
2016-10-28 19:00,0.168115,291.19,284.982,259.464,286.722,283.917,258.76,0.214763,0.175677,229.263,249.513
2016-10-28 20:00,0.315324,291.315,287.322,260.769,289.701,286.767,260.219,0.349134,0.299973,230.916,251.252
2016-10-28 21:00,0.0,288.705,286.992,260.661,289.3,286.626,260.34,0.0,0.0,231.394,251.252
2016-10-28 22:00,-0.00452077,288.977,287.102,260.769,289.434,286.626,260.822,0.0,0.0,231.865,251.152
2016-10-28 23:00,-0.00245782,288.012,284.755,259.683,286.86,283.339,257.653,-0.00208103,-0.00248132,230.348,249.303
2016-10-29 00:00,0.0,289.514,287.76,261.519,290.367,287.469,260.581,0.0,0.0,232.633,251.051
2016-10-29 01:00,0.0,288.841,287.322,261.519,289.701,286.626,260.701,0.0,0.0,232.709,251.152
2016-10-29 02:00,0.0,285.512,284.642,259.574,287.27,284.922,259.856,0.0,0.0,231.473,251.051
2016-10-29 03:00,0.0,288.977,287.322,261.412,289.835,286.907,260.822,0.0,0.0,231.473,250.442
2016-10-29 04:00,-0.00121944,288.977,287.651,261.519,290.367,287.469,260.822,0.0,0.0012311,231.156,250.442
2016-10-29 05:00,0.00131653,284.087,284.3,259.464,286.722,284.636,260.098,0.0,0.0,229.348,249.617
2016-10-29 06:00,-0.00153109,289.247,286.772,261.519,289.166,285.777,259.735,0.0,0.0,229.007,248.987
2016-10-29 07:00,-0.0019686,285.357,279.702,257.006,280.639,276.631,253.625,0.0,0.0,227.42,246.032
2016-10-29 08:00,-0.00299382,279.278,270.468,251.799,269.679,264.795,245.489,0.0,0.0,224.054,240.835
2016-10-29 09:00,-0.00698687,281.526,274.392,253.381,273.843,269.984,249.971,0.0,0.0,225.739,241.093
2016-10-29 10:00,0.425592,284.41,276.591,254.926,276.163,272.246,250.633,0.573281,0.585901,226.499,244.647
2016-10-29 11:00,0.223486,290.041,280.549,258.134,280.639,275.24,251.553,0.299904,0.251165,224.76,243.214
2016-10-29 12:00,0.0499243,290.301,286.439,260.876,288.493,284.922,259.249,0.133153,0.0806425,227.87,247.59
2016-10-29 13:00,0.0696909,291.931,282.799,259.244,285.061,280.554,256.16,0.111635,0.0798648,228.835,247.481
2016-10-29 14:00,0.0290699,287.587,281.86,258.358,283.23,279.211,254.773,0.0779426,0.0521739,226.871,245.114
2016-10-29 15:00,0.0303291,289.113,284.3,260.011,285.757,281.588,257.034,0.0693349,0.0443976,227.691,246.371
2016-10-29 16:00,0.268154,264.377,230.85,230.743,228.001,224.756,222.147,0.326215,0.354733,217.36,222.529
2016-10-29 17:00,0.343385,262.475,222.552,227.248,220.852,218.547,216.859,0.434676,0.485678,215.734,218.41
2016-10-29 18:00,0.469169,263.255,221.117,225.897,219.847,218.547,218.218,0.585321,0.664373,216.83,219.134
2016-10-29 19:00,0.526052,272.58,236.576,233.513,234.107,230.946,225.36,0.546064,0.630096,219.382,226.187
2016-10-29 20:00,0.806379,267.444,220.75,226.481,218.13,217.29,216.466,0.708819,0.882446,213.995,216.909
2016-10-29 21:00,-0.0351078,243.066,227.533,229.484,225.615,222.753,220.115,0.0,0.0,216.424,222.096
2016-10-29 22:00,-0.00447752,237.078,227.533,228.378,226.522,225.318,223.053,0.0,0.0,219.503,223.586
2016-10-29 23:00,-0.00244598,239.711,232.56,231.45,231.957,230.17,226.574,-0.00414201,-0.00493872,222.692,229.314
2016-10-30 00:00,0.0,245.01,232.28,230.921,230.012,227.787,223.949,0.0,0.0,219.503,225.21
2016-10-30 01:00,0.0,248.394,234.745,232.834,232.772,229.909,224.657,0.0,0.0,219.014,227.136
2016-10-30 02:00,0.0,260.395,248.985,240.171,245.914,243.024,233.661,0.0,0.0,222.799,232.988
2016-10-30 03:00,0.0,244.063,229.072,230.027,226.522,224.474,220.86,0.0,0.0,216.963,222.313
2016-10-30 04:00,0.0,242.013,227.533,228.564,225.919,223.332,219.739,0.0,0.0,217.752,225.011
2016-10-30 05:00,0.0,253.206,235.275,232.834,231.408,227.517,222.329,0.0,-0.00132649,215.734,222.743
2016-10-30 06:00,0.0,239.711,231.427,230.207,230.012,227.787,223.233,0.0,0.0,219.863,226.76
2016-10-30 07:00,0.00196214,237.078,228.463,229.301,226.82,223.905,220.86,0.0,0.0,218.137,224.204
2016-10-30 08:00,0.00297774,237.078,227.219,228.749,224.694,222.753,219.739,0.0,0.0,216.963,222.743
2016-10-30 09:00,-0.00689251,227.984,219.628,225.306,217.78,215.356,213.857,0.0,0.0,213.995,217.164
2016-10-30 10:00,0.887679,240.898,219.247,225.107,218.824,218.235,216.663,1.09323,1.34425,216.012,218.895
2016-10-30 11:00,0.493909,254.966,218.474,224.908,217.072,214.697,214.265,0.695786,0.790932,213.388,216.652
2016-10-30 12:00,0.416915,254.396,211.184,221.6,210.218,208.397,210.718,0.695369,0.778412,209.569,211.295
2016-10-30 13:00,0.401255,259.954,216.058,223.694,214.517,212.329,212.202,0.613779,0.684068,212.922,214.511
2016-10-30 14:00,0.34224,259.505,211.184,222.659,209.394,206.895,209.42,0.576802,0.636986,209.569,210.353
2016-10-30 15:00,0.303029,260.395,216.88,224.708,214.517,211.983,211.992,0.541513,0.596478,211.964,214.511
2016-10-30 16:00,0.287865,254.966,223.252,227.438,222.162,220.685,218.982,0.546438,0.598421,216.15,220.535
2016-10-30 17:00,0.35181,259.045,223.597,227.058,222.162,220.384,218.601,0.597199,0.668966,216.424,220.306
2016-10-30 18:00,0.402874,262.074,226.261,228.192,224.384,222.753,219.739,0.581482,0.653289,216.963,222.096
2016-10-30 19:00,0.634858,269.283,214.79,223.489,213.381,211.983,211.992,0.699807,0.813251,212.287,213.668
2016-10-30 20:00,0.805957,271.261,220.006,225.504,217.78,216.331,215.873,0.703563,0.876737,214.588,216.909
2016-10-30 21:00,0.0,237.078,221.481,225.701,218.824,216.652,214.468,0.0,0.0,213.693,216.909
2016-10-30 22:00,-0.00443645,222.276,218.082,224.305,215.993,214.697,214.671,0.0,0.0,213.078,215.061
2016-10-30 23:00,-0.00486932,225.382,209.734,221.6,209.394,209.133,210.504,-0.00206142,-0.00491587,208.838,209.707
2016-10-31 00:00,-0.00174094,264.009,247.563,238.04,244.349,240.35,229.615,0.0,-0.00175758,219.503,231.198
2016-10-31 01:00,0.0,281.526,275.436,253.14,275.396,271.444,249.971,0.0,0.0,228.662,251.452
2016-10-31 02:00,0.0,274.073,261.34,245.587,259.051,254.855,239.322,0.0,0.0,224.359,242.602
2016-10-31 03:00,0.0,267.123,257.854,242.799,255.049,253.703,240.354,0.0,0.0,224.76,238.85
2016-10-31 04:00,-0.00121509,281.705,274.392,251.429,274.0,270.635,249.305,0.0,0.0,227.42,249.513
2016-10-31 05:00,0.00131136,261.666,246.523,236.625,243.667,240.802,231.257,0.0,0.0,223.329,234.082
2016-10-31 06:00,0.00152379,254.396,237.591,232.663,234.107,231.459,225.36,0.0,0.0,219.137,227.323
2016-10-31 07:00,0.0,259.505,240.984,233.681,235.93,232.474,225.009,0.0,0.0,215.734,224.61
2016-10-31 08:00,0.0,277.24,264.94,245.859,261.791,257.671,240.646,0.0,0.0,227.691,244.175
2016-10-31 09:00,-0.0067998,287.871,285.321,257.459,286.447,284.061,258.515,0.0,0.0,233.382,257.421
2016-10-31 10:00,0.400676,268.986,250.371,238.195,249.368,245.612,233.185,0.624938,0.596115,226.871,241.854
2016-10-31 11:00,0.460121,284.087,276.08,252.29,276.62,274.929,253.497,0.611683,0.616465,231.63,253.213
2016-10-31 12:00,0.374021,283.924,273.865,251.056,274.467,272.883,252.594,0.445068,0.44138,232.86,254.349
2016-10-31 13:00,0.133142,289.779,282.916,256.32,284.361,282.028,258.147,0.183591,0.149776,235.178,258.372
2016-10-31 14:00,0.136842,289.247,286.55,258.246,288.358,286.767,260.701,0.0,0.190778,236.207,260.381
2016-10-31 15:00,0.174318,287.01,283.148,255.742,285.34,284.205,260.219,0.252465,0.240821,237.657,260.381
2016-10-31 16:00,0.119676,288.012,284.869,257.006,286.997,285.208,260.942,0.178971,0.160047,237.721,260.708
2016-10-31 17:00,0.248775,285.512,279.58,254.217,281.655,281.146,259.614,0.29344,0.29792,237.913,259.804
2016-10-31 18:00,0.21828,288.291,282.331,256.205,284.501,283.194,259.856,0.291442,0.281815,239.104,259.804
2016-10-31 19:00,0.10258,290.429,287.651,258.022,289.434,287.048,261.062,0.171154,0.124882,241.59,260.708
2016-10-31 20:00,0.43748,287.729,283.264,256.205,285.201,284.061,259.977,0.47778,0.454464,242.82,260.789
2016-10-31 21:00,-0.0304037,277.24,279.336,253.741,281.51,281.146,259.127,-0.0257427,-0.0306943,243.039,260.789
2016-10-31 22:00,-0.00439748,283.924,282.799,255.626,284.641,283.049,259.37,0.0,0.0,241.817,260.627
2016-10-31 23:00,-0.00242386,282.408,281.978,255.393,284.641,283.484,260.34,-0.00205228,-0.00244703,242.378,260.052
