# timestamp,IR_016,IR_039,IR_087,IR_097,IR_108,IR_120,IR_134,VIS006,VIS008,WV_062,WV_073
2014-01-01 00:00,-0.00253823,255.521,241.913,235.823,240.87,237.109,231.905,-0.0,-0.0,225.352,233.146
2014-01-01 01:00,-0.0,237.078,230.265,229.665,229.729,228.056,225.883,-0.0,0.00191262,220.801,226.57
2014-01-01 02:00,-0.0,235.601,231.713,229.484,230.853,229.385,226.229,-0.0,-0.0,222.585,228.603
2014-01-01 03:00,-0.0,239.711,236.832,232.663,236.948,236.396,231.743,-0.0,-0.0,225.835,232.829
2014-01-01 04:00,-0.0,259.505,255.409,243.226,256.213,254.089,243.808,-0.0,-0.0,229.517,243.093
2014-01-01 05:00,-0.0,267.761,265.243,250.051,267.016,265.138,251.944,-0.0,-0.0,230.511,248.133
2014-01-01 06:00,-0.00207818,282.059,280.187,259.464,282.231,278.76,258.638,-0.0,-0.0,231.236,250.238
2014-01-01 07:00,-0.0,253.206,248.985,239.57,250.207,249.348,241.664,-0.00254138,-0.0,230.43,241.602
2014-01-01 08:00,-0.0,258.576,249.185,239.57,249.368,246.876,239.322,-0.0,-0.0,230.593,240.316
2014-01-01 09:00,0.93322,264.739,250.175,241.061,249.998,246.666,240.207,0.747445,1.01853,230.101,239.39
2014-01-01 10:00,0.389051,286.864,277.476,257.12,277.528,272.405,253.368,0.293988,0.540586,230.916,247.699
2014-01-01 11:00,0.30996,292.534,287.76,264.031,288.897,285.065,260.942,0.122342,0.447033,230.996,250.34
2014-01-01 12:00,0.276459,294.38,288.52,264.339,289.166,285.35,260.219,0.0993055,0.402583,230.184,250.646
2014-01-01 13:00,0.284597,295.902,287.102,263.721,287.815,283.773,259.735,0.148288,0.390918,230.101,250.238
2014-01-01 14:00,0.294394,296.008,286.105,262.576,287.543,284.492,261.301,0.192613,0.388091,231.156,251.652
2014-01-01 15:00,0.246491,295.368,286.882,262.995,288.358,285.208,261.54,0.166571,0.372687,231.943,252.828
2014-01-01 16:00,0.149832,288.43,282.799,260.445,284.361,282.175,261.301,0.144702,0.277711,232.175,253.405
2014-01-01 17:00,0.180286,296.219,291.383,266.358,292.6,289.137,263.318,0.0576431,0.300379,233.53,254.536
2014-01-01 18:00,0.223369,277.026,265.092,249.286,265.654,263.586,248.903,0.395557,0.489329,231.394,248.775
2014-01-01 19:00,0.281191,258.576,210.707,219.632,208.977,208.766,211.992,0.531354,0.571519,206.905,205.491
2014-01-01 20:00,0.642802,297.549,224.95,226.092,218.824,217.29,218.218,0.581957,0.685467,215.167,218.165
2014-01-01 21:00,0.944242,273.831,226.261,227.248,225.31,223.619,222.511,0.97486,1.19927,219.863,222.743
2014-01-01 22:00,-0.0,268.073,259.206,245.859,257.55,253.703,239.47,-0.0,-0.0,225.931,240.964
2014-01-01 23:00,0.00443402,230.231,222.552,225.306,221.838,220.685,219.172,-0.0,-0.0,218.264,220.306
2014-01-02 00:00,-0.0,253.206,243.94,236.466,241.58,239.438,232.387,-0.0,-0.0,224.258,232.022
2014-01-02 01:00,-0.00189493,239.711,230.265,228.934,228.293,226.974,223.233,-0.0,-0.0,220.219,224.408
2014-01-02 02:00,-0.00161518,259.505,249.781,239.419,248.307,245.824,237.373,-0.0,-0.0,226.311,235.887
2014-01-02 03:00,0.0015118,266.466,251.147,240.171,249.579,245.824,234.291,-0.0,-0.0,221.371,232.508
2014-01-02 04:00,-0.0015341,283.428,279.945,259.024,280.785,277.853,255.784,-0.0,-0.0,228.662,249.093
2014-01-02 05:00,-0.0,283.594,280.187,258.58,281.51,278.76,256.66,-0.0,-0.0,228.488,249.408
2014-01-02 06:00,-0.00207097,275.932,266.886,250.177,265.654,261.477,243.808,-0.0,-0.0,223.746,242.23
2014-01-02 07:00,-0.0,275.707,268.916,250.806,269.35,266.498,248.903,-0.0,-0.0,228.136,246.145
2014-01-02 08:00,-0.00635222,285.512,284.755,261.305,287.27,285.208,261.779,-0.0,-0.0,230.266,253.213
2014-01-02 09:00,0.42343,260.395,248.985,238.81,248.307,246.457,236.46,0.537777,0.721369,226.405,236.325
2014-01-02 10:00,0.273878,276.811,267.473,249.542,267.69,265.309,249.037,0.281838,0.5062,229.093,245.345
2014-01-02 11:00,0.311024,291.563,287.651,262.576,289.166,286.485,262.017,0.124742,0.465093,231.709,253.69
2014-01-02 12:00,0.282027,294.933,291.487,265.254,293.248,290.238,264.372,0.0909682,0.422,233.382,255.911
2014-01-02 13:00,0.239697,296.323,292.725,266.059,294.277,291.329,264.605,0.0719026,0.366439,233.677,256.894
2014-01-02 14:00,0.216634,297.349,292.725,265.758,293.892,290.921,264.255,0.0721328,0.330514,235.038,258.028
2014-01-02 15:00,0.293923,291.686,283.032,260.011,285.201,283.339,261.301,0.295893,0.449772,235.593,258.457
2014-01-02 16:00,0.219956,290.685,283.726,260.228,285.479,283.339,262.373,0.198123,0.383877,235.799,258.457
2014-01-02 17:00,0.235535,291.065,283.611,260.119,285.618,283.917,262.728,0.218623,0.342056,237.592,258.967
2014-01-02 18:00,0.19097,289.779,284.071,261.091,285.895,284.779,262.61,0.202426,0.286986,238.483,259.554
2014-01-02 19:00,0.488698,267.444,230.265,229.665,229.158,227.787,225.883,0.564818,0.720358,222.259,226.76
2014-01-02 20:00,0.831987,277.661,213.031,221.386,210.625,209.133,210.073,0.983871,1.13952,210.102,210.67
2014-01-02 21:00,0.689581,261.251,245.676,236.943,246.135,245.399,239.765,0.6863,0.842736,232.02,239.39
2014-01-02 22:00,-0.0,278.482,273.466,254.217,273.372,270.96,252.464,-0.0,-0.0,228.224,247.808
2014-01-02 23:00,-0.00444894,287.587,287.102,262.471,289.434,287.609,263.083,-0.0,-0.0,235.108,256.36
2014-01-03 00:00,-0.00254422,288.012,288.087,262.786,290.5,288.999,264.605,-0.0,-0.0,238.231,258.628
2014-01-03 01:00,-0.0,280.427,280.066,258.358,282.374,280.702,260.822,-0.0,-0.0,236.207,257.333
2014-01-03 02:00,-0.0,265.095,266.738,250.177,267.69,267.673,255.027,-0.0,0.00162968,237.592,253.405
2014-01-03 03:00,-0.0,288.012,288.303,263.099,290.367,288.999,265.301,-0.0,-0.0,239.471,260.381
2014-01-03 04:00,-0.0,287.3,288.736,263.515,291.292,290.648,265.878,-0.0,-0.0,241.704,263.012
2014-01-03 05:00,-0.0,286.864,288.736,262.995,291.16,290.511,265.878,-0.0,-0.0,242.875,263.476
2014-01-03 06:00,-0.0,286.569,288.52,262.89,290.897,290.101,265.647,-0.0,-0.0,244.635,264.54
2014-01-03 07:00,-0.00296832,286.421,288.087,262.681,290.367,289.826,265.993,-0.0,-0.0,245.507,264.54
2014-01-03 08:00,-0.0,286.717,288.087,262.366,290.632,289.964,265.416,-0.0,-0.0,246.406,265.36
2014-01-03 09:00,0.36209,286.717,288.195,262.155,290.632,290.101,265.532,0.400914,0.646745,246.798,265.875
2014-01-03 10:00,0.331061,290.558,290.545,263.307,292.47,291.6,265.878,0.147342,0.522764,246.847,266.094
2014-01-03 11:00,0.314447,293.816,293.133,265.052,295.17,293.617,266.909,0.107292,0.490394,246.75,266.312
2014-01-03 12:00,0.284254,296.323,294.945,266.059,297.06,295.339,267.478,0.0868716,0.441494,246.652,266.312
2014-01-03 13:00,0.245434,297.146,295.639,266.557,297.807,295.734,267.478,0.0684957,0.390358,246.993,266.673
2014-01-03 14:00,0.214294,298.144,296.523,267.052,298.426,296.78,268.158,0.0608245,0.338036,248.231,267.388
2014-01-03 15:00,0.214067,298.045,294.245,265.658,296.433,294.282,266.337,0.0803379,0.331763,249.017,267.246
2014-01-03 16:00,0.191782,297.549,293.843,265.355,295.93,294.016,266.452,0.07525,0.301048,250.318,267.246
2014-01-03 17:00,0.210147,296.427,292.314,264.441,294.277,292.006,266.337,0.100153,0.327763,250.843,266.745
2014-01-03 18:00,0.257658,297.349,291.798,264.441,294.021,291.871,265.416,0.133114,0.371812,252.289,267.459
2014-01-03 19:00,0.313369,295.26,288.843,262.786,290.764,288.999,265.069,0.222939,0.434299,253.64,267.174
2014-01-03 20:00,0.251544,295.583,294.846,266.259,296.684,295.208,267.023,0.124045,0.393481,254.669,269.063
2014-01-03 21:00,0.282386,293.007,293.539,265.355,295.803,294.944,268.271,0.218747,0.436727,255.212,269.745
2014-01-03 22:00,-0.0898826,289.779,291.383,264.031,293.635,293.483,267.705,-0.0253678,-0.0604946,255.518,270.686
2014-01-03 23:00,-0.00446281,288.705,290.44,262.995,292.6,292.545,267.023,-0.0,-0.0,254.747,269.542
2014-01-04 00:00,-0.0,287.3,288.195,261.838,289.434,287.888,263.436,-0.0,-0.0,253.276,267.174
2014-01-04 01:00,-0.00189508,282.753,281.86,258.913,280.054,274.46,254.137,-0.0,-0.0,249.471,262.857
2014-01-04 02:00,-0.00161315,284.41,283.148,259.683,282.517,278.004,255.28,-0.0,-0.0,249.516,263.552
2014-01-04 03:00,-0.0,282.059,280.308,258.469,277.226,269.984,249.171,-0.0,-0.0,246.456,260.463
2014-01-04 04:00,-0.00152859,282.581,281.029,258.358,279.318,274.617,253.111,-0.0,-0.0,247.283,262.072
2014-01-04 05:00,-0.0,282.234,280.789,257.91,279.613,275.551,253.625,-0.0,-0.0,247.617,262.388
2014-01-04 06:00,-0.0,283.093,282.331,258.58,281.943,278.458,256.285,-0.0,-0.0,248.231,263.476
2014-01-04 07:00,0.00295148,280.799,278.35,256.892,276.315,271.283,250.369,-0.0,-0.0,245.253,259.22
2014-01-04 08:00,-0.0,280.799,278.968,256.892,277.978,273.832,252.464,-0.0,-0.0,245.859,260.135
2014-01-04 09:00,0.441213,282.753,279.58,257.572,278.128,273.517,251.553,0.423385,0.772081,244.583,260.052
2014-01-04 10:00,0.376284,288.568,285.095,260.553,285.201,282.321,258.515,0.191884,0.591406,245.304,261.993
2014-01-04 11:00,0.320255,292.294,289.379,263.099,289.835,286.767,260.942,0.127604,0.494484,245.202,263.322
2014-01-04 12:00,0.293232,294.933,290.756,264.133,291.16,286.485,260.461,0.10559,0.447455,244.164,262.701
2014-01-04 13:00,0.248439,297.045,291.798,265.254,291.686,286.767,259.735,0.0871628,0.385228,243.418,262.309
2014-01-04 14:00,0.215607,297.749,293.336,265.959,293.635,288.584,261.421,0.0711652,0.336955,244.687,263.09
2014-01-04 15:00,0.190916,298.436,295.144,266.855,296.307,293.082,264.837,0.055842,0.306049,245.809,264.69
2014-01-04 16:00,0.184676,299.203,294.945,267.052,296.433,293.617,265.301,0.0554206,0.295003,246.798,265.581
2014-01-04 17:00,0.201154,298.339,293.742,266.159,295.803,293.35,265.762,0.0755782,0.310962,246.75,265.655
2014-01-04 18:00,0.223862,298.436,293.133,266.259,295.297,292.948,266.452,0.0923103,0.339003,247.807,266.021
2014-01-04 19:00,0.235007,297.449,293.438,266.657,295.424,292.948,266.337,0.106541,0.354946,246.798,264.839
2014-01-04 20:00,0.44639,295.151,287.541,262.786,289.032,286.767,263.2,0.394289,0.614786,246.456,263.09
2014-01-04 21:00,0.268633,293.24,291.694,265.153,293.764,292.141,266.337,0.277995,0.409814,245.809,265.286
2014-01-04 22:00,-0.0,288.841,290.123,264.031,292.47,291.464,265.993,-0.0,-0.0310888,245.202,265.728
2014-01-04 23:00,0.00447558,288.152,290.017,263.928,292.209,291.6,266.108,-0.0,-0.0,244.269,265.875
2014-01-05 00:00,0.00254862,287.444,289.593,263.307,291.817,291.735,266.452,-0.0,-0.0,243.899,266.312
2014-01-05 01:00,-0.0,287.444,289.058,263.307,291.423,291.193,266.108,-0.0,-0.0,243.256,265.655
2014-01-05 02:00,-0.00161189,285.665,285.433,261.198,286.997,286.06,262.965,-0.0,-0.0,240.014,262.623
2014-01-05 03:00,-0.0,285.818,286.992,262.049,288.897,288.445,264.605,-0.0,-0.0,240.607,263.782
2014-01-05 04:00,0.00152564,286.421,288.412,262.576,290.5,290.238,265.762,-0.0,-0.0,240.724,264.69
2014-01-05 05:00,0.00167922,285.818,287.102,262.049,289.032,288.584,265.069,-0.0,-0.0,241.361,264.086
2014-01-05 06:00,-0.00204842,285.357,287.102,262.049,289.032,288.861,264.488,-0.0,-0.0,242.655,265.063
2014-01-05 07:00,-0.00293451,285.202,287.212,261.944,289.434,289.276,265.532,-0.0,-0.0,241.476,264.765
2014-01-05 08:00,-0.0,285.512,287.651,261.944,289.835,289.964,265.878,-0.0,-0.0,241.817,265.728
2014-01-05 09:00,0.467705,285.045,286.992,261.305,288.628,289.137,265.416,0.422405,0.818439,242.875,266.312
2014-01-05 10:00,0.366201,289.514,290.335,263.307,292.73,292.545,266.795,0.145912,0.578475,243.633,266.601
2014-01-05 11:00,0.337925,293.472,293.235,265.153,295.677,294.415,267.137,0.110046,0.522468,243.039,266.312
2014-01-05 12:00,0.293804,295.902,294.746,266.358,297.06,295.734,267.251,0.0900693,0.467079,242.765,265.728
2014-01-05 13:00,0.25832,297.045,295.541,267.151,298.055,295.996,267.478,0.0744577,0.409218,243.526,266.166
2014-01-05 14:00,0.225452,297.848,295.837,266.954,298.178,296.127,266.795,0.0639739,0.35925,243.899,266.094
2014-01-05 15:00,0.196692,298.144,296.621,267.642,298.918,296.91,268.158,0.0529006,0.322388,244.687,266.384
2014-01-05 16:00,0.202113,298.144,293.843,266.159,295.677,293.883,266.795,0.086059,0.305478,244.479,265.36
2014-01-05 17:00,0.187157,298.144,295.541,267.348,297.683,295.602,267.023,0.0606209,0.301806,244.945,266.239
2014-01-05 18:00,0.21049,297.848,295.442,267.151,297.807,295.865,267.592,0.0700596,0.341469,244.945,265.875
2014-01-05 19:00,0.240079,297.749,294.245,266.557,296.433,294.282,267.023,0.0985099,0.359832,244.479,265.286
2014-01-05 20:00,0.285699,295.69,292.725,265.758,294.788,292.948,265.878,0.15584,0.429872,244.583,265.063
2014-01-05 21:00,0.320389,292.414,291.591,264.747,293.764,292.141,266.337,0.251179,0.485178,244.997,264.989
2014-01-05 22:00,-0.0,287.729,288.52,262.89,290.367,289.276,264.488,-0.0267744,-0.0,242.875,264.086
2014-01-05 23:00,-0.0,286.864,288.303,262.681,290.367,290.101,265.069,-0.0,-0.0,242.099,264.086
2014-01-06 00:00,-0.0,285.818,286.882,261.944,288.493,287.888,264.022,-0.0,-0.0,241.817,263.476
2014-01-06 01:00,-0.0,285.202,286.217,261.198,288.358,287.888,263.787,-0.0,-0.0,241.704,262.466
2014-01-06 02:00,-0.0,285.818,287.212,261.519,289.434,289.413,265.185,-0.0,-0.0,242.042,262.779
2014-01-06 03:00,-0.0,285.665,287.541,262.049,289.968,289.964,265.647,-0.0,-0.0,241.647,263.012
2014-01-06 04:00,-0.0,283.76,284.071,260.011,286.033,285.493,261.301,-0.0,-0.0,240.489,261.194
2014-01-06 05:00,-0.0,278.883,274.392,253.741,275.242,273.042,252.982,-0.0,-0.0,235.247,254.536
2014-01-06 06:00,-0.0,277.451,272.256,252.045,272.582,270.798,251.159,-0.0,-0.0,234.329,253.69
2014-01-06 07:00,-0.0,281.346,280.429,257.798,281.799,280.554,258.76,-0.0,-0.0,235.247,257.158
2014-01-06 08:00,-0.00604779,282.408,282.799,259.134,284.641,284.061,261.54,-0.0,-0.0,236.139,260.052
2014-01-06 09:00,0.36512,282.753,282.682,258.58,284.501,283.773,260.34,0.421563,0.70371,235.662,259.554
2014-01-06 10:00,0.360324,288.705,288.303,262.155,290.5,289.137,264.022,0.158056,0.582906,237.137,259.97
2014-01-06 11:00,0.28695,291.19,289.486,262.89,291.686,289.413,263.2,0.118468,0.464467,237.072,259.887
2014-01-06 12:00,0.29607,295.26,293.235,265.052,295.55,293.617,265.878,0.0959755,0.466285,237.528,261.033
2014-01-06 13:00,0.254468,296.427,294.044,265.557,296.182,294.016,266.108,0.0768659,0.413818,237.657,261.275
2014-01-06 14:00,0.215798,297.549,294.746,266.259,297.184,294.547,265.301,0.0650346,0.348332,236.94,260.627
2014-01-06 15:00,0.208254,298.045,293.641,265.758,295.803,293.35,265.416,0.0822866,0.316535,237.913,261.355
2014-01-06 16:00,0.214864,298.822,293.133,265.557,295.17,292.276,264.953,0.086019,0.330093,236.609,260.217
2014-01-06 17:00,0.263546,280.613,259.706,244.349,258.116,254.664,239.765,0.21358,0.404166,227.51,240.446
2014-01-06 18:00,0.237753,295.26,289.486,263.203,292.079,289.964,263.905,0.141159,0.361502,237.333,259.387
2014-01-06 19:00,0.407345,284.087,263.088,247.067,260.706,258.591,243.949,0.315247,0.558243,228.921,241.348
2014-01-06 20:00,0.254733,295.26,294.044,266.059,296.809,294.944,266.566,0.113639,0.398195,236.475,259.804
2014-01-06 21:00,0.300835,292.414,292.108,265.254,294.788,293.216,265.993,0.22475,0.452589,236.94,259.97
2014-01-06 22:00,-0.0324383,288.43,289.379,263.307,291.948,290.921,265.762,-0.0549308,-0.0654967,238.041,260.463
2014-01-06 23:00,-0.00449774,287.155,288.412,262.681,290.897,289.964,265.301,-0.0,0.00454074,237.657,259.97
2014-01-07 00:00,0.00255137,286.864,287.978,262.576,290.5,289.689,264.837,-0.0,-0.0,236.808,259.804
2014-01-07 01:00,-0.0,286.271,287.432,262.049,289.968,289.137,264.488,-0.0,-0.0,235.936,258.628
2014-01-07 02:00,-0.00160886,285.818,286.882,261.731,289.434,288.584,264.488,-0.0,-0.0,234.329,258.028
2014-01-07 03:00,0.00150168,285.357,285.994,261.625,288.628,287.469,263.553,-0.0,-0.0,234.041,258.028
2014-01-07 04:00,-0.0,284.41,284.071,260.228,286.447,285.208,261.54,-0.0,-0.0,234.615,257.421
2014-01-07 05:00,-0.0,280.427,278.598,256.664,280.054,278.307,257.406,-0.0,-0.0,232.633,253.309
2014-01-07 06:00,-0.00203274,283.924,284.642,260.337,287.134,286.06,262.61,-0.0,-0.0,235.178,257.942
2014-01-07 07:00,-0.0,279.473,276.336,255.51,276.01,273.2,253.24,-0.0,-0.0,231.787,252.342
2014-01-07 08:00,-0.0,268.382,258.025,243.509,256.789,254.281,239.913,-0.0,-0.0,226.963,241.475
2014-01-07 09:00,0.603578,282.581,281.505,258.246,282.946,281.882,259.249,0.450925,1.00363,232.633,255.275
2014-01-07 10:00,0.415621,281.883,273.732,253.381,274.156,271.444,251.291,0.263003,0.662517,229.433,249.513
2014-01-07 11:00,0.333194,288.568,281.505,258.022,282.374,279.511,256.41,0.157178,0.521388,230.835,252.342
2014-01-07 12:00,0.298346,292.174,286.328,261.091,287.134,283.484,259.005,0.114822,0.453509,230.674,253.405
2014-01-07 13:00,0.247853,290.939,282.214,258.913,282.517,279.361,255.658,0.109592,0.392015,230.101,251.252
2014-01-07 14:00,0.221993,291.809,282.566,258.913,282.66,279.81,256.41,0.104308,0.334942,229.178,249.721
2014-01-07 15:00,0.231385,296.84,289.058,263.307,290.5,287.469,262.017,0.122446,0.33054,231.552,254.814
2014-01-07 16:00,0.213599,298.045,291.174,264.849,293.377,290.511,263.553,0.0958627,0.320516,232.86,256.45
2014-01-07 17:00,0.215671,296.738,290.44,264.236,292.47,289.551,263.787,0.113599,0.322801,233.968,257.07
2014-01-07 18:00,0.214278,292.653,286.439,261.412,288.087,285.493,261.66,0.158137,0.349338,234.329,256.36
2014-01-07 19:00,0.244686,288.43,281.742,258.691,282.374,280.406,259.37,0.200944,0.421614,233.896,254.349
2014-01-07 20:00,0.270405,294.043,290.335,264.236,292.209,289.689,263.905,0.164198,0.446711,234.543,255.821
2014-01-07 22:00,-0.0,277.869,275.565,255.043,276.923,275.085,256.035,-0.0281413,-0.0335543,231.473,251.85
2014-01-07 23:00,-0.0,283.924,282.566,259.024,284.361,282.175,259.977,-0.0,-0.0,234.329,254.349
2014-01-08 00:00,-0.00255213,285.357,283.495,259.683,285.061,282.613,259.614,-0.0,-0.0,234.329,254.814
2014-01-08 01:00,-0.0,285.665,285.546,260.984,287.815,286.06,262.492,-0.0,-0.0,234.756,256.001
2014-01-08 02:00,-0.0,283.924,281.86,258.802,283.23,280.998,258.27,-0.0,-0.0,232.405,253.405
2014-01-08 03:00,-0.0,282.581,280.429,257.346,281.799,280.108,257.653,-0.0,0.00151359,233.085,253.213
2014-01-08 04:00,-0.0,265.446,251.53,240.32,249.368,245.612,233.819,-0.0,-0.0,223.952,235.887
2014-01-08 05:00,-0.0,251.282,235.275,231.45,232.23,229.909,223.949,-0.0,-0.0,220.219,226.76
2014-01-08 06:00,-0.0,277.661,271.848,251.799,271.303,269.0,250.896,-0.0,-0.0,228.312,247.261
2014-01-08 07:00,-0.0,280.982,277.852,255.277,279.17,277.091,255.784,-0.0,-0.0,230.593,252.146
2014-01-08 08:00,0.00590074,280.613,278.845,255.742,280.347,279.061,256.909,-0.0,0.00595715,230.593,251.652
2014-01-08 09:00,0.343672,283.428,283.148,258.58,285.479,284.636,261.421,0.484978,0.693915,232.02,254.536
2014-01-08 10:00,0.339522,287.3,286.105,260.553,288.493,287.048,262.255,0.16427,0.560892,231.315,254.629
2014-01-08 11:00,0.317672,292.294,290.44,263.203,292.86,291.057,264.372,0.115274,0.489503,231.394,256.181
2014-01-08 12:00,0.295537,294.38,291.591,263.515,293.248,291.057,263.787,0.0992293,0.46126,230.593,254.722
2014-01-08 13:00,0.217791,292.294,286.217,260.769,286.86,284.061,258.882,0.0910344,0.346508,229.178,250.849
2014-01-08 14:00,0.185484,290.939,282.799,257.798,283.088,279.959,256.035,0.0867901,0.305524,229.685,250.442
2014-01-08 15:00,0.212868,281.705,261.017,245.859,258.491,254.472,240.207,0.164562,0.332866,223.329,237.043
2014-01-08 16:00,0.256673,280.799,260.036,244.765,257.739,254.472,239.025,0.214361,0.386334,226.216,240.576
2014-01-08 17:00,0.255581,289.779,276.336,254.926,276.468,273.042,251.944,0.194124,0.374389,230.348,249.513
2014-01-08 18:00,0.253049,290.685,279.336,255.974,279.76,276.323,253.368,0.167732,0.386851,230.996,251.152
2014-01-08 19:00,0.251589,294.823,288.736,262.471,289.568,286.343,260.461,0.121282,0.378211,231.394,253.974
2014-01-08 20:00,0.389535,290.171,277.727,255.393,276.772,273.675,253.111,0.292916,0.511511,229.433,249.303
2014-01-08 21:00,0.630298,285.357,272.527,253.261,271.625,269.329,251.028,0.52379,0.695242,228.048,247.59
2014-01-08 22:00,-0.0340102,264.739,250.954,239.419,249.368,246.246,235.227,-0.0287964,-0.0343353,224.56,236.469
2014-01-08 23:00,-0.0,282.923,278.598,256.205,279.76,278.307,256.035,-0.0,-0.0,230.674,252.634
2014-01-09 00:00,0.00255247,285.818,286.661,260.769,288.628,288.027,263.318,-0.0,-0.0,232.251,257.158
2014-01-09 01:00,-0.0,283.093,281.86,257.685,283.088,281.882,259.856,-0.0,-0.0,231.63,254.068
2014-01-09 02:00,-0.00160518,283.924,284.185,259.244,286.447,285.777,261.779,-0.0,-0.0,232.709,256.271
2014-01-09 03:00,-0.00149671,278.684,276.336,254.926,277.377,276.169,257.653,-0.0,-0.0,229.935,250.032
2014-01-09 04:00,-0.0,273.338,267.033,248.642,267.354,264.967,247.415,-0.0,-0.0,230.184,248.987
2014-01-09 05:00,-0.0,283.924,285.882,260.228,288.358,288.167,264.255,-0.0,-0.0,233.382,257.942
2014-01-09 06:00,-0.0,283.924,285.433,260.228,288.222,287.748,264.022,-0.0,-0.0,232.709,256.982
2014-01-09 07:00,-0.00286575,283.76,285.658,260.337,288.358,288.027,263.67,-0.0,-0.0,232.709,257.158
2014-01-09 08:00,-0.0,282.059,281.742,258.134,284.079,283.484,261.062,-0.0,-0.0,233.085,255.548
2014-01-09 09:00,0.413297,284.249,285.882,260.553,288.628,288.306,264.372,0.419926,0.751047,234.185,257.07
2014-01-09 10:00,0.395559,288.291,287.651,261.625,289.701,288.306,262.965,0.169341,0.63715,232.784,256.091
2014-01-09 11:00,0.347586,290.813,287.432,261.305,289.3,286.907,260.942,0.131928,0.534833,231.315,254.068
2014-01-09 12:00,0.253573,293.007,290.017,262.89,292.209,289.551,263.2,0.0936612,0.407191,231.709,255.275
2014-01-09 13:00,0.248379,291.065,281.978,257.685,281.799,278.307,254.646,0.107488,0.388668,229.093,249.303
2014-01-09 14:00,0.222192,292.653,284.3,259.244,284.781,280.554,255.027,0.0919974,0.359891,229.517,251.252
2014-01-09 15:00,0.182784,297.349,293.336,265.456,295.55,292.948,264.372,0.0675864,0.302492,231.865,256.36
2014-01-09 16:00,0.202917,295.69,288.628,261.838,289.568,286.06,259.977,0.103678,0.33201,231.076,254.629
2014-01-09 17:00,0.241603,289.113,276.08,254.454,276.163,272.405,251.553,0.155808,0.369028,229.685,248.882
2014-01-09 18:00,0.210856,293.356,287.212,261.625,288.628,286.06,260.822,0.138178,0.33243,233.01,255.457
2014-01-09 19:00,0.214487,296.323,293.031,265.052,295.17,292.276,264.605,0.0900268,0.344239,234.686,257.682
2014-01-09 20:00,0.345063,294.823,288.303,262.049,290.234,287.469,262.373,0.204745,0.49374,233.75,256.001
2014-01-09 21:00,0.563357,286.421,274.785,253.98,274.0,271.283,251.814,0.427819,0.650829,229.007,246.818
2014-01-09 22:00,-0.0,287.3,287.432,261.838,289.166,288.167,263.2,-0.0588488,-0.0701683,234.257,256.539
2014-01-09 23:00,-0.0,282.753,279.823,257.006,280.201,277.243,255.027,-0.0,-0.0,232.481,252.925
2014-01-10 00:00,0.00255239,286.569,287.541,261.625,289.968,289.276,264.022,-0.0,-0.0,236.004,259.135
2014-01-10 01:00,0.0018899,285.512,286.661,260.876,289.166,288.445,264.138,-0.0,-0.0,236.408,259.135
2014-01-10 02:00,-0.0016031,284.57,285.208,260.119,287.543,286.626,262.136,-0.0,-0.0,236.542,258.628
2014-01-10 03:00,-0.0,283.261,283.148,259.024,285.479,283.773,260.461,-0.0,-0.0,236.207,256.716
2014-01-10 04:00,0.00150913,283.76,283.841,259.354,286.722,285.208,261.779,-0.0,-0.0,236.004,256.894
2014-01-10 05:00,-0.00165518,284.249,285.321,260.445,287.951,286.626,263.2,-0.0,-0.0,234.756,256.271
2014-01-10 06:00,-0.0,283.594,283.841,259.464,286.447,284.922,261.54,-0.0,-0.0,233.308,254.907
2014-01-10 07:00,-0.00284844,275.02,277.224,255.974,279.76,279.061,259.614,-0.0,-0.0,234.472,254.536
2014-01-10 08:00,-0.00575772,283.594,284.185,259.902,286.585,285.065,262.017,-0.0,-0.0,234.543,254.629
2014-01-10 09:00,0.31545,284.087,283.611,259.354,285.757,284.349,261.062,0.496026,0.545941,234.686,254.349
2014-01-10 10:00,0.456991,289.247,284.185,260.011,285.895,283.773,260.461,0.242782,0.619669,233.823,253.88
2014-01-10 11:00,0.334413,290.939,287.432,261.838,288.763,285.777,260.942,0.126296,0.497914,232.557,253.117
2014-01-10 12:00,0.303525,294.823,290.651,264.031,292.47,288.999,262.373,0.0981776,0.445868,234.185,253.405
2014-01-10 13:00,0.254169,296.635,292.005,265.052,293.377,289.689,263.2,0.0783624,0.380714,233.603,253.405
2014-01-10 14:00,0.210078,297.848,292.929,265.557,294.405,290.648,262.847,0.0641169,0.324295,234.041,253.405
2014-01-10 15:00,0.207075,298.918,292.314,265.355,294.021,289.826,262.728,0.0783597,0.301318,234.543,253.88
2014-01-10 16:00,0.209827,294.933,287.541,262.366,288.897,286.06,261.66,0.130284,0.315396,234.257,253.595
2014-01-10 17:00,0.215144,295.902,288.087,262.681,289.568,286.485,261.779,0.139799,0.318224,235.386,253.88
2014-01-10 18:00,0.190411,298.242,293.539,266.458,295.17,291.464,264.022,0.0671752,0.308735,235.593,254.814
2014-01-10 19:00,0.294655,290.558,275.951,254.454,276.468,271.283,248.634,0.272728,0.485932,233.677,250.849
2014-01-10 20:00,0.471609,259.954,220.75,223.899,220.519,220.685,219.739,0.720595,0.840047,217.752,219.608
2014-01-10 21:00,0.757378,258.576,229.072,228.378,228.583,228.324,226.574,0.802812,0.986415,223.952,226.187
2014-01-10 22:00,-0.141816,271.798,259.206,245.451,257.55,253.122,238.727,-0.0600379,-0.143172,224.86,236.757
2014-01-10 23:00,-0.0,276.155,273.333,253.621,275.396,272.086,254.264,-0.0,-0.0,233.085,249.617
2014-01-11 00:00,-0.00255189,280.239,274.129,253.86,274.778,271.444,250.501,-0.0,-0.0,229.433,245.345
2014-01-11 01:00,-0.0,273.831,267.909,250.806,268.524,264.795,248.634,-0.0,-0.0,230.43,247.261
2014-01-11 02:00,-0.00160087,273.088,265.995,248.642,265.31,261.654,246.182,-0.0,-0.0,225.931,240.835
2014-01-11 03:00,-0.0,245.01,235.538,231.098,234.107,232.221,227.94,-0.0,-0.0,222.585,227.877
2014-01-11 04:00,-0.0,282.581,279.091,257.459,279.613,276.477,255.28,-0.0,-0.0,229.433,247.808
2014-01-11 05:00,0.00165007,262.074,249.781,238.963,246.794,243.896,235.072,-0.0,-0.0,222.259,230.863
2014-01-11 06:00,0.00200018,275.707,268.199,250.177,267.185,264.795,248.229,-0.0,-0.0,226.685,240.964
2014-01-11 07:00,-0.0,259.954,250.371,239.267,248.733,247.708,237.676,-0.0,-0.0,225.931,235.146
2014-01-11 08:00,-0.00568784,269.283,262.3,245.995,261.431,258.408,244.932,-0.0,-0.0,229.007,242.602
2014-01-11 09:00,1.09052,251.282,242.597,234.35,241.58,240.576,234.134,1.34304,1.95168,225.449,233.304
2014-01-11 10:00,0.438131,289.514,283.956,260.011,285.061,281.293,258.76,0.221814,0.615599,230.916,249.093
2014-01-11 11:00,0.330804,292.294,289.058,262.89,290.632,287.469,261.421,0.116534,0.48998,231.552,250.544
2014-01-11 12:00,0.290457,294.933,290.123,263.825,291.817,288.027,261.421,0.0954785,0.439851,231.865,250.95
2014-01-11 13:00,0.235079,295.476,289.805,263.825,290.764,287.048,260.701,0.0796165,0.360178,231.473,250.34
2014-01-11 14:00,0.218727,296.635,289.911,263.411,291.292,286.907,260.581,0.0724228,0.326909,231.787,250.238
2014-01-11 15:00,0.233679,297.947,289.593,263.618,291.423,287.609,261.421,0.116559,0.31533,231.394,250.748
2014-01-11 16:00,0.214404,294.38,286.439,261.838,287.679,284.779,260.461,0.149964,0.310564,230.996,250.544
2014-01-11 17:00,0.181233,294.713,287.651,261.731,288.493,285.35,261.421,0.106885,0.286435,232.709,251.85
2014-01-11 18:00,0.145526,289.647,284.642,260.011,286.172,283.917,260.822,0.156156,0.260379,234.329,252.925
2014-01-11 19:00,0.319764,286.421,275.565,254.454,276.163,273.832,253.753,0.269197,0.461173,232.097,248.025
2014-01-11 20:00,0.270413,294.38,288.951,262.786,290.632,287.188,262.492,0.185456,0.409497,233.234,252.828
2014-01-11 21:00,1.08811,267.761,226.261,226.287,226.82,226.974,222.511,1.40389,1.73204,223.013,226.57
2014-01-11 22:00,-0.036109,218.393,213.031,219.632,212.609,212.329,213.035,-0.0611469,-0.0729084,211.135,211.295
2014-01-11 23:00,-0.0,218.393,216.471,221.6,215.993,215.356,215.873,-0.0,-0.0,214.734,215.332
2014-01-12 00:00,-0.00255098,222.276,221.841,223.283,221.182,220.685,219.362,-0.0,-0.0,218.642,219.608
2014-01-12 01:00,-0.00188634,222.276,219.628,222.868,219.508,218.857,218.601,-0.0,-0.0,217.096,218.653
2014-01-12 02:00,-0.0,233.989,231.713,228.378,231.683,230.946,227.089,-0.0,-0.0,224.46,229.137
2014-01-12 03:00,-0.0,253.206,247.357,237.101,247.229,246.457,237.525,-0.0,-0.0,227.78,237.888
2014-01-12 04:00,-0.0,273.088,262.3,246.265,261.431,257.671,240.938,-0.0,-0.0,223.746,239.255
2014-01-12 05:00,-0.0,273.088,262.3,246.667,261.25,256.928,240.5,-0.0,-0.0,223.538,237.748
2014-01-12 06:00,-0.0,260.827,245.248,236.466,242.283,237.109,228.614,-0.0,-0.0,219.624,228.06
2014-01-12 07:00,-0.0,273.831,266.738,248.771,266.847,263.237,246.319,-0.0,-0.0,226.963,243.093
2014-01-12 08:00,-0.0,279.081,275.176,254.099,275.242,272.405,252.723,-0.0,-0.0,227.329,245.114
2014-01-12 09:00,0.551056,283.594,282.096,258.469,284.079,281.588,258.76,0.466578,0.834485,228.921,249.408
2014-01-12 10:00,0.273241,280.239,273.199,252.656,273.372,270.311,251.028,0.219785,0.455157,228.312,245.345
2014-01-12 11:00,0.281123,282.923,273.732,252.899,273.843,270.96,251.291,0.180572,0.447735,228.921,245.114
2014-01-12 12:00,0.275625,292.414,287.212,261.838,288.493,285.065,260.34,0.102915,0.428623,230.593,249.825
2014-01-12 13:00,0.256094,295.902,289.593,263.411,291.292,287.048,260.701,0.0890778,0.387114,230.511,250.34
2014-01-12 14:00,0.271394,297.749,289.165,263.099,291.292,287.748,262.017,0.153192,0.375191,230.835,250.442
2014-01-12 15:00,0.247561,296.219,287.76,262.261,289.3,286.343,261.898,0.15084,0.332847,230.674,250.442
2014-01-12 16:00,0.213156,295.042,287.541,262.261,288.897,285.777,260.942,0.129195,0.317499,230.835,250.135
2014-01-12 17:00,0.247294,294.156,285.433,260.769,287.543,284.779,261.062,0.180831,0.346747,231.236,250.544
2014-01-12 18:00,0.215891,294.38,287.651,262.049,289.166,286.485,261.66,0.146235,0.331291,232.175,251.452
2014-01-12 19:00,0.259069,285.045,275.694,254.926,277.377,276.169,257.53,0.304314,0.429156,233.823,251.252
2014-01-12 20:00,0.140308,293.24,290.545,264.031,292.6,289.689,263.67,0.107376,0.247886,234.113,252.828
2014-01-12 21:00,0.734059,284.41,264.021,248.121,262.15,258.04,241.664,0.587537,0.764235,223.329,237.608
2014-01-12 22:00,-0.0,270.713,254.145,242.225,251.447,246.876,232.867,-0.0310812,-0.0370596,220.801,232.669
2014-01-12 23:00,-0.0,274.551,264.329,247.991,263.217,258.774,242.956,-0.0,-0.0,226.122,241.093
2014-01-13 00:00,-0.0,256.589,240.514,233.681,238.446,236.157,227.26,-0.0,-0.0,221.708,229.137
2014-01-13 01:00,-0.00188422,260.395,246.942,237.415,245.248,241.698,233.026,-0.0,-0.0,222.906,233.928
2014-01-13 02:00,-0.0,270.151,256.819,243.368,253.867,250.557,237.525,-0.0,-0.0,222.799,235.887
2014-01-13 03:00,-0.00148532,272.322,262.616,246.667,261.25,257.856,242.814,-0.0,-0.0,224.359,239.789
2014-01-13 04:00,-0.00149797,267.123,257.511,244.07,256.598,252.732,238.876,-0.0,-0.0,222.692,237.468
2014-01-13 05:00,-0.0,263.255,247.973,238.04,246.794,242.805,232.227,-0.0,-0.0,221.484,232.508
2014-01-13 06:00,-0.0,278.684,272.527,253.02,273.057,270.148,250.104,-0.0,-0.0,227.51,246.032
2014-01-13 07:00,-0.0,278.684,273.865,253.98,273.686,269.165,249.305,-0.0,-0.0,226.122,244.998
2014-01-13 08:00,-0.0,276.155,269.626,250.806,269.679,265.82,247.279,-0.0,-0.0,226.311,245.114
2014-01-13 09:00,0.24827,283.261,283.032,258.913,285.201,283.917,260.581,0.367868,0.563948,230.43,253.69
2014-01-13 10:00,0.0872461,285.357,285.321,260.011,287.543,285.919,261.421,0.101087,0.185432,230.593,254.349
2014-01-13 11:00,0.328372,291.065,288.195,262.261,290.101,287.748,261.898,0.127689,0.510772,230.835,253.213
2014-01-13 12:00,0.276171,293.702,289.165,262.89,290.5,287.469,261.182,0.104571,0.431204,231.315,252.925
2014-01-13 13:00,0.252209,297.146,293.031,265.153,294.405,291.6,263.318,0.0833059,0.398718,231.63,255.275
2014-01-13 14:00,0.228711,295.583,286.661,260.984,287.407,283.773,257.9,0.0911291,0.351903,230.43,252.439
2014-01-13 15:00,0.227896,294.268,281.505,257.91,282.66,278.458,253.497,0.118518,0.334017,231.394,252.731
2014-01-13 16:00,0.214242,293.587,282.682,258.246,283.656,279.81,255.658,0.122247,0.326786,231.315,252.731
2014-01-13 17:00,0.280816,276.155,251.53,238.963,248.946,246.035,235.227,0.248334,0.423361,224.156,234.236
2014-01-13 18:00,0.303366,281.705,262.141,245.859,258.491,255.614,241.808,0.238599,0.447061,225.449,237.608
2014-01-13 19:00,0.218613,297.045,294.245,266.059,296.307,293.35,265.878,0.0709547,0.34025,235.386,257.855
2014-01-13 20:00,0.355436,294.38,287.541,261.731,287.543,284.636,259.614,0.184672,0.492038,232.02,252.047
2014-01-13 21:00,0.331437,293.007,289.379,263.307,291.16,288.306,262.017,0.21289,0.461525,235.178,256.001
2014-01-13 22:00,-0.0,289.247,288.52,262.471,290.234,287.609,262.373,-0.0315357,-0.0376016,235.317,256.45
2014-01-13 23:00,0.00453696,287.3,284.755,260.011,285.757,282.758,258.638,-0.0,-0.0,234.472,254.536
2014-01-14 00:00,0.0025479,280.239,276.971,255.51,277.828,275.085,254.9,-0.0,-0.0,232.709,251.751
2014-01-14 01:00,-0.00188189,266.797,257.854,243.368,255.439,251.947,240.5,-0.0,-0.0,227.238,239.656
2014-01-14 02:00,0.00159329,285.512,284.642,259.683,286.033,284.061,260.34,-0.0,-0.0,234.686,256.36
2014-01-14 03:00,-0.0,285.818,285.882,260.661,288.087,286.767,262.61,-0.0,-0.0,233.456,257.595
2014-01-14 04:00,0.00149408,285.818,285.882,260.876,288.222,286.907,262.492,-0.0,-0.0,233.308,257.333
2014-01-14 05:00,0.00163428,284.888,284.982,260.119,286.86,285.635,262.017,-0.0,-0.0,233.823,257.855
2014-01-14 06:00,-0.0,285.045,285.882,260.553,287.951,286.626,262.017,-0.0,-0.0,235.178,259.051
2014-01-14 07:00,-0.0,284.41,284.414,259.793,286.585,285.065,261.301,-0.0,-0.0,235.662,258.543
2014-01-14 08:00,-0.0,283.261,281.978,258.246,283.938,282.028,258.392,-0.0,-0.0,234.615,256.36
2014-01-14 09:00,0.710796,285.512,286.328,260.984,288.763,287.329,262.255,0.842562,1.36342,237.006,259.22
2014-01-14 10:00,0.41221,287.587,286.217,256.778,288.628,286.907,261.301,0.223989,0.616838,234.827,255.911
2014-01-14 11:00,0.373206,291.563,288.843,258.134,291.029,288.722,261.898,0.149449,0.5156,236.542,257.508
2014-01-14 12:00,0.308154,294.043,290.651,258.913,292.209,289.689,262.373,0.115034,0.414615,236.475,257.333
2014-01-14 13:00,0.252645,295.583,291.902,259.464,294.021,291.329,262.965,0.0894499,0.35027,236.808,257.855
2014-01-14 14:00,0.227466,296.427,291.591,260.011,293.892,291.193,263.083,0.0898859,0.30666,238.104,258.028
2014-01-14 15:00,0.233611,296.531,289.379,258.469,291.423,289.137,262.017,0.119918,0.295356,238.608,258.028
2014-01-14 16:00,0.219668,296.531,289.058,258.246,291.292,288.722,261.779,0.119704,0.290614,239.043,258.114
2014-01-14 17:00,0.222438,296.738,288.843,258.134,290.897,288.306,261.779,0.12216,0.291503,238.608,257.682
2014-01-14 18:00,0.226343,293.472,286.439,256.434,288.628,286.343,261.062,0.15123,0.30334,239.104,257.855
2014-01-14 19:00,0.228323,291.065,283.611,255.626,285.895,283.629,259.005,0.194522,0.353481,238.981,256.36
2014-01-14 20:00,0.3728,291.315,281.86,254.336,283.656,281.441,258.147,0.342202,0.519664,240.014,255.911
2014-01-14 21:00,0.29562,291.065,288.843,258.134,290.632,288.306,261.779,0.269649,0.417025,239.104,257.508
2014-01-14 22:00,-0.0355864,286.569,285.321,256.089,287.407,285.065,260.098,-0.030781,-0.0707963,237.913,255.366
2014-01-14 23:00,-0.00428168,286.271,285.433,256.089,287.679,285.919,259.977,-0.0,-0.00425903,240.312,258.372
2014-01-15 00:00,-0.0,283.76,283.264,254.69,285.479,283.484,259.249,-0.0,-0.00238954,240.014,257.942
2014-01-15 01:00,-0.00177341,284.41,282.916,254.572,284.781,282.758,258.023,-0.0,-0.0,238.294,256.45
2014-01-15 02:00,-0.00150083,284.087,283.264,254.69,285.479,283.339,259.005,-0.0,-0.0,238.608,257.158
2014-01-15 03:00,-0.0013956,283.76,282.799,255.16,284.641,282.175,258.27,-0.0,-0.0,234.968,256.45
2014-01-15 04:00,-0.0,276.155,270.329,247.859,270.495,267.506,248.364,-0.0,-0.0,229.433,249.617
2014-01-15 05:00,-0.0,265.446,261.822,243.65,261.971,260.225,245.767,-0.0,-0.00152894,227.147,247.481
2014-01-15 06:00,0.00185568,280.05,275.565,250.429,275.857,272.724,251.422,-0.0,-0.0,227.238,249.513
2014-01-15 07:00,-0.00260638,280.982,278.968,252.168,280.639,278.911,256.285,-0.0,-0.0,229.348,253.117
2014-01-15 08:00,-0.0,283.428,283.841,255.277,286.447,285.35,260.461,-0.0,-0.0,230.916,255.73
2014-01-15 09:00,1.49157,280.982,277.727,251.305,278.278,276.631,254.264,1.42597,2.57692,228.048,251.85
2014-01-15 10:00,0.467088,277.026,267.473,245.859,266.508,264.451,248.499,0.316352,0.696926,225.931,245.69
2014-01-15 11:00,0.302905,277.661,267.033,246.13,266.338,264.106,246.732,0.222003,0.443905,227.42,243.698
2014-01-15 12:00,0.266513,286.717,277.977,252.534,279.318,275.706,252.594,0.146186,0.386339,230.43,248.669
2014-01-15 13:00,0.248982,295.368,290.335,258.913,292.209,288.861,261.421,0.0906786,0.348035,230.43,253.5
2014-01-15 14:00,0.204468,296.219,291.07,259.683,292.6,288.999,261.54,0.0769383,0.28612,230.835,253.595
2014-01-15 15:00,0.289293,292.653,281.742,254.572,284.501,282.467,259.127,0.249284,0.367033,231.473,253.213
2014-01-15 17:00,0.204651,297.549,288.736,258.134,290.234,286.343,260.34,0.090543,0.266745,230.266,252.244
2014-01-15 18:00,0.212585,296.84,290.965,259.793,292.47,289.413,261.898,0.0983813,0.292274,230.43,252.925
2014-01-15 19:00,0.414905,290.558,272.527,249.029,272.741,269.165,245.072,0.418198,0.578135,227.959,243.093
2014-01-15 20:00,0.643013,282.581,249.781,236.146,250.207,246.457,230.931,0.812381,0.936755,221.708,230.354
2014-01-15 21:00,1.17905,278.075,239.799,233.005,238.693,237.345,232.227,0.98739,1.27943,223.329,232.988
2014-01-15 22:00,-0.035954,247.601,236.06,230.743,233.842,233.722,226.918,-0.0621981,-0.0715277,219.382,225.799
2014-01-15 23:00,-0.0042809,242.013,236.318,230.921,235.155,234.706,229.615,-0.0,-0.00425826,222.692,230.524
2014-01-16 00:00,-0.0,269.865,259.206,242.656,258.304,255.235,240.207,-0.0,-0.0,223.642,237.043
2014-01-16 01:00,-0.00177081,274.787,265.995,246.265,266.678,263.412,244.372,-0.0,-0.0,224.46,239.523
2014-01-16 02:00,-0.0,274.073,266.738,246.265,268.024,264.451,246.319,-0.0,-0.0,226.685,242.105
2014-01-16 03:00,-0.0,240.898,231.427,229.484,231.131,227.517,221.415,-0.0,-0.0,216.963,223.586
2014-01-16 04:00,-0.0,239.711,235.011,230.743,234.633,232.976,228.446,-0.0,-0.0,221.708,230.863
2014-01-16 05:00,-0.00153191,232.213,229.673,228.934,228.871,228.59,224.657,-0.0,-0.0,220.916,226.57
2014-01-16 06:00,-0.00184765,239.711,237.591,232.146,237.451,237.109,230.768,-0.0,0.00183788,223.849,232.508
2014-01-16 07:00,-0.0,239.711,239.559,233.175,238.938,238.049,232.227,-0.0,-0.0,224.258,233.928
2014-01-16 08:00,-0.0,263.636,257.511,242.225,259.051,255.803,241.664,-0.0,-0.0,227.78,241.475
2014-01-16 09:00,0.473358,270.434,261.982,244.349,264.444,260.405,245.211,0.900766,0.847538,228.136,242.848
2014-01-16 10:00,0.577739,287.3,275.176,251.922,277.978,275.551,254.773,0.426688,0.614469,228.488,247.699
2014-01-16 11:00,0.559317,288.705,270.049,248.9,271.945,269.984,251.683,0.469739,0.607147,226.592,245.23
2014-01-16 12:00,0.314261,292.294,285.546,257.346,286.997,282.904,257.53,0.145068,0.427597,228.136,247.59
2014-01-16 13:00,0.233505,293.472,287.978,258.802,289.3,285.208,259.127,0.0839669,0.340576,229.517,248.133
2014-01-16 14:00,0.198786,294.268,287.978,258.58,289.3,285.065,259.37,0.0699769,0.282806,228.921,248.987
2014-01-16 15:00,0.177949,294.933,289.486,259.464,291.029,286.907,259.614,0.057602,0.258453,229.517,249.093
2014-01-16 16:00,0.183305,295.69,289.058,259.024,290.632,286.767,259.735,0.0655099,0.25658,230.018,249.408
2014-01-16 17:00,0.193946,295.69,288.303,259.024,290.101,286.202,260.219,0.0813368,0.264243,230.348,249.928
2014-01-16 18:00,0.217804,295.583,287.978,258.913,289.434,0.0,259.977,0.104143,0.289318,231.156,0.0
2014-01-16 19:00,0.26542,295.042,287.978,258.913,289.701,286.06,260.34,0.146635,0.345777,231.315,250.95
2014-01-16 20:00,0.323507,293.93,288.087,259.354,289.701,286.202,260.219,0.205495,0.4299,232.405,251.85
2014-01-16 21:00,1.4433,279.667,218.862,223.489,217.78,217.29,216.269,1.21142,1.54201,214.145,215.867
2014-01-16 22:00,-0.0362433,258.096,242.37,233.849,239.426,236.635,228.614,-0.0626985,-0.0721032,220.337,229.838
2014-01-16 23:00,-0.0,274.073,266.145,246.533,267.354,264.279,246.594,-0.0,-0.0,229.007,245.114
2014-01-17 00:00,-0.0,253.206,248.583,237.258,247.878,246.666,235.846,-0.0,-0.0,225.643,238.578
2014-01-17 01:00,-0.0,249.89,245.89,235.985,245.248,244.544,236.46,-0.0,-0.0,225.449,238.441
2014-01-17 02:00,-0.00149514,237.078,231.997,229.118,231.683,230.946,226.402,-0.0,-0.0,220.801,227.323
2014-01-17 03:00,-0.0,259.954,260.201,244.488,263.04,262.537,249.037,-0.0,-0.0,229.093,247.151
2014-01-17 04:00,-0.0,258.096,256.992,243.084,259.421,258.591,245.905,-0.0,-0.0,226.592,243.457
2014-01-17 05:00,-0.0,246.775,244.815,236.306,245.471,246.035,238.128,-0.0,-0.0,225.835,238.165
2014-01-17 06:00,-0.0,246.775,240.75,233.849,240.152,238.978,231.257,-0.0,-0.0,222.15,232.022
2014-01-17 07:00,-0.00257415,232.213,231.427,229.118,230.574,229.909,225.535,-0.0,-0.0,221.708,227.323
2014-01-17 08:00,-0.0,239.711,233.938,229.665,232.772,231.968,226.746,-0.0,-0.0,220.801,228.603
2014-01-17 09:00,1.66977,235.601,226.261,226.092,226.221,225.597,222.329,2.47594,3.0846,220.219,223.586
2014-01-17 10:00,0.4079,256.062,233.666,229.118,232.772,230.946,225.009,0.585449,0.673266,219.982,225.994
2014-01-17 11:00,0.312143,251.944,238.83,231.973,238.938,238.747,232.707,0.616552,0.683546,224.86,233.461
2014-01-17 12:00,0.363829,290.041,261.501,244.626,263.393,260.584,247.006,0.311878,0.41546,227.78,243.698
2014-01-17 13:00,0.291536,290.558,272.527,250.681,273.372,269.165,250.633,0.189695,0.367064,228.136,245.23
2014-01-17 14:00,0.205818,293.816,287.76,259.244,289.032,285.065,259.614,0.0780114,0.292142,228.488,248.133
2014-01-17 15:00,0.19761,294.491,280.909,255.858,282.517,276.938,254.519,0.0887682,0.260638,230.593,247.481
2014-01-17 16:00,0.219464,295.26,285.882,258.802,287.679,284.205,259.492,0.117694,0.277245,232.02,249.513
2014-01-17 17:00,0.219678,295.151,286.992,258.802,288.628,285.208,259.735,0.125999,0.285123,232.633,250.95
2014-01-17 18:00,0.255464,295.368,286.992,259.134,288.763,285.635,259.977,0.171864,0.334784,233.085,251.949
2014-01-17 19:00,0.396822,288.705,275.306,252.534,277.528,276.477,256.909,0.446802,0.53594,234.257,252.731
2014-01-17 20:00,0.133752,291.563,286.217,258.358,287.27,283.773,258.147,0.10696,0.223414,232.935,251.452
2014-01-17 21:00,1.78142,290.041,238.338,233.005,234.371,229.385,220.302,1.42554,1.78792,217.752,223.586
2014-01-17 22:00,-0.072899,213.142,215.218,222.238,214.517,214.697,214.062,-0.0630552,-0.0362567,213.078,214.787
2014-01-17 23:00,-0.00427563,227.984,218.082,223.694,217.427,216.652,215.074,-0.0,-0.0,213.388,216.131
2014-01-18 00:00,-0.0,240.898,220.006,224.908,216.355,214.03,211.358,-0.0,-0.0,211.47,214.233
2014-01-18 01:00,-0.00176502,218.393,211.184,220.517,210.625,210.219,210.073,-0.0,-0.0,209.569,210.67
2014-01-18 02:00,-0.0,222.276,213.921,222.027,211.428,211.284,210.289,-0.0,-0.0,209.748,211.602
2014-01-18 03:00,-0.0,253.206,248.583,237.728,248.733,247.708,237.827,-0.0,-0.0,225.254,238.165
2014-01-18 04:00,-0.0,204.719,205.549,218.73,204.584,204.559,205.825,-0.0,-0.0,205.449,205.868
2014-01-18 05:00,-0.0,213.142,203.838,217.809,202.217,202.529,204.185,-0.0,-0.0,203.894,203.524
2014-01-18 06:00,-0.0,213.142,207.178,219.409,206.392,205.74,207.197,-0.0,-0.0,206.702,206.968
2014-01-18 07:00,-0.0,213.142,206.1,218.041,205.043,204.955,206.515,-0.0,-0.0,205.233,205.868
2014-01-18 08:00,-0.00493675,222.276,216.058,222.659,214.89,214.03,213.447,-0.0,-0.0,213.078,214.787
2014-01-18 09:00,1.2894,235.601,226.261,226.092,226.221,225.318,222.692,2.23058,2.40484,219.137,223.999
2014-01-18 10:00,0.434046,260.395,240.514,233.175,240.152,238.978,231.905,0.723495,0.850008,224.46,234.389
2014-01-18 11:00,0.371753,255.521,220.379,224.507,218.13,216.652,214.671,0.590528,0.674455,211.135,216.652
2014-01-18 12:00,0.308967,255.521,220.75,223.899,219.167,217.607,216.071,0.422786,0.515473,214.441,216.909
2014-01-18 13:00,0.311566,259.505,230.85,229.118,229.158,228.056,223.949,0.420729,0.511299,219.744,225.994
2014-01-18 14:00,0.260289,257.103,226.261,226.866,225.31,224.756,221.598,0.531334,0.594923,218.767,223.377
2014-01-18 15:00,0.231469,253.206,229.97,228.749,230.012,229.647,225.535,0.537365,0.600592,221.371,227.509
2014-01-18 16:00,0.252316,254.396,226.902,227.438,226.522,225.874,223.77,0.539919,0.617633,218.767,224.408
2014-01-18 17:00,0.34284,264.377,216.471,222.868,215.26,214.697,214.468,0.572779,0.654023,213.234,214.511
2014-01-18 18:00,0.456497,274.314,211.654,221.17,211.028,210.219,210.718,0.581769,0.682467,209.748,211.295
2014-01-18 19:00,0.637323,276.594,0.0,0.0,211.428,210.931,0.0,0.75965,0.888892,0.0,0.0
2014-01-18 20:00,0.907276,281.526,234.477,230.743,232.772,229.909,223.053,0.88068,1.08799,217.622,224.204
2014-01-18 21:00,0.755935,0.0,0.0,0.0,0.0,0.0,0.0,0.580185,0.0,0.0,0.0
2014-01-18 22:00,-0.036569,278.279,269.059,248.642,268.69,264.967,245.211,-0.063262,-0.109127,226.499,242.354
2014-01-18 23:00,-0.00427114,275.251,265.243,246.399,264.27,260.942,243.099,-0.0,-0.0,224.76,240.053
2014-01-19 00:00,-0.0,268.686,254.328,240.469,252.465,248.736,234.916,-0.0,-0.00237761,222.692,235.444
2014-01-19 01:00,-0.00176184,268.382,261.822,244.765,262.685,260.405,245.072,-0.0,-0.0,227.238,244.056
2014-01-19 02:00,-0.0,256.062,245.463,235.985,245.024,242.143,233.344,-0.0,-0.0014811,222.368,234.996
2014-01-19 03:00,-0.00138252,273.088,270.049,249.669,271.142,268.339,249.971,-0.0,-0.0,229.769,246.707
2014-01-19 04:00,-0.0,268.686,256.294,241.354,254.854,251.156,237.222,-0.0,-0.0,223.746,237.327
2014-01-19 05:00,-0.0,270.713,260.036,244.349,259.236,255.425,240.06,-0.0,-0.0,224.86,239.523
2014-01-19 06:00,-0.0,264.009,252.853,239.57,250.623,247.501,235.537,-0.0,-0.0,222.692,235.74
2014-01-19 07:00,-0.0,258.576,243.496,235.337,238.446,234.706,225.883,-0.0,-0.0,218.642,229.314
2014-01-19 08:00,-0.0,269.865,257.511,241.936,256.213,252.732,238.577,-0.0,-0.0,223.224,237.185
2014-01-19 09:00,3.9756,257.605,239.074,232.663,237.2,233.722,225.185,4.08353,5.6847,218.517,227.509
2014-01-19 10:00,0.433276,259.954,234.477,230.387,232.23,229.647,224.126,0.508897,0.635135,219.503,225.799
2014-01-19 11:00,0.34732,264.009,235.011,230.921,232.502,230.17,224.481,0.418152,0.529896,218.517,226.187
2014-01-19 12:00,0.283369,268.686,242.37,233.849,239.669,236.157,227.601,0.283359,0.42362,220.101,229.137
2014-01-19 13:00,0.273733,270.434,239.799,233.005,236.441,232.474,224.304,0.256121,0.403192,216.695,225.408
2014-01-19 14:00,0.25,258.096,231.427,228.934,230.012,228.856,224.657,0.300336,0.407555,219.382,224.811
2014-01-19 15:00,0.229303,270.989,245.248,235.662,242.049,239.438,230.768,0.23423,0.354084,220.686,231.031
2014-01-19 16:00,0.251158,277.026,253.04,239.721,250.207,247.085,235.072,0.242857,0.367653,222.692,234.694
2014-01-19 17:00,0.242917,289.514,275.046,251.429,274.467,270.635,249.171,0.176619,0.336184,227.238,245.575
2014-01-19 18:00,0.273964,287.871,272.931,250.555,271.945,268.505,248.903,0.248644,0.389308,227.78,245.69
2014-01-19 19:00,0.240685,285.512,273.333,251.429,275.242,274.304,255.532,0.284962,0.368457,229.433,251.85
2014-01-19 20:00,0.986733,288.705,225.611,226.674,225.003,223.619,219.739,1.10388,1.33206,219.014,221.658
2014-01-19 21:00,1.40853,283.594,242.824,235.173,240.631,238.049,229.615,1.11259,1.4751,221.258,229.664
2014-01-19 22:00,-0.0365994,246.775,233.938,230.743,233.041,231.714,226.574,-0.0633145,-0.0728116,221.145,227.323
2014-01-19 23:00,-0.00426543,283.261,280.789,255.043,282.66,279.81,256.909,-0.0,-0.0,229.685,249.617
2014-01-20 00:00,-0.00238632,267.444,255.941,240.913,255.244,251.75,237.373,-0.0,-0.0,221.258,235.295
2014-01-20 01:00,-0.0,254.396,240.277,233.849,239.183,236.396,227.601,-0.0,-0.0,220.57,228.96
2014-01-20 02:00,-0.0,238.442,230.85,229.301,230.294,229.647,225.009,-0.0,-0.0,220.337,226.76
2014-01-20 03:00,0.00137905,238.442,233.392,230.743,233.041,231.968,227.431,-0.0,-0.0,221.708,228.242
2014-01-20 04:00,-0.00138635,235.601,227.533,228.192,227.708,225.597,222.329,-0.0,-0.0,219.26,225.21
2014-01-20 05:00,-0.0,249.89,240.277,234.017,237.951,236.635,230.111,-0.0,-0.0,221.258,231.695
2014-01-20 06:00,-0.0,227.984,224.279,226.481,223.758,223.619,222.147,-0.0,-0.0,219.014,222.096
2014-01-20 07:00,-0.00252656,230.231,227.845,227.628,227.414,226.974,222.873,-0.0,-0.0,221.258,225.994
2014-01-20 08:00,-0.00482429,245.01,241.913,234.515,241.815,240.35,233.185,-0.0,-0.0,223.538,234.542
2014-01-20 09:00,5.41645,271.261,267.033,247.332,267.857,265.99,250.501,8.9016,11.3144,227.42,244.412
2014-01-20 10:00,0.363469,272.061,258.365,242.656,258.116,255.425,241.953,0.397961,0.544608,226.216,238.714
2014-01-20 11:00,0.388652,289.514,283.148,256.778,284.22,280.257,256.41,0.16503,0.534207,227.601,246.258
2014-01-20 12:00,0.333164,290.429,279.945,255.043,280.639,277.091,255.406,0.191644,0.413028,228.136,245.23
2014-01-20 13:00,0.303008,292.771,281.029,255.51,281.799,278.307,255.784,0.19486,0.377412,229.263,246.483
2014-01-20 14:00,0.280231,291.44,281.505,255.51,282.66,279.81,257.282,0.206333,0.354772,230.674,248.133
2014-01-20 15:00,0.187828,260.395,247.973,237.101,246.794,246.246,237.222,0.276757,0.349772,226.499,234.694
2014-01-20 16:00,0.239042,258.096,236.318,231.625,235.672,235.193,230.111,0.396455,0.457013,226.499,231.364
2014-01-20 17:00,0.299105,256.589,231.713,229.484,231.683,231.714,228.278,0.741653,0.812063,225.546,229.664
2014-01-20 18:00,0.404596,259.954,232.56,230.387,232.772,232.725,227.94,0.675427,0.779423,225.058,229.838
2014-01-20 19:00,0.555989,268.073,240.984,234.681,241.107,240.802,234.447,0.677112,0.82109,227.51,235.592
2014-01-20 20:00,1.01838,288.152,234.477,231.625,233.842,232.221,227.94,1.04616,1.2306,224.359,230.694
2014-01-20 21:00,1.72003,293.356,255.05,241.646,253.469,248.736,235.537,1.30409,1.66341,224.56,234.542
2014-01-20 22:00,-0.0730792,263.636,254.328,240.913,254.657,252.536,240.646,-0.126422,-0.181732,225.643,239.121
2014-01-20 23:00,-0.00425849,270.989,259.706,243.79,259.236,255.614,240.938,-0.00368345,-0.0,223.224,237.468
2014-01-21 00:00,-0.0,259.045,254.871,241.646,256.98,256.18,244.372,-0.0,-0.0,226.592,241.475
2014-01-21 01:00,-0.0,256.589,255.23,241.791,257.928,258.04,246.319,-0.0,-0.0,229.263,244.294
2014-01-21 02:00,-0.00148236,276.811,273.333,251.429,275.396,272.565,253.497,-0.0,-0.0,229.601,246.707
2014-01-21 03:00,-0.0,282.923,280.549,255.742,282.087,279.061,257.158,-0.0,-0.0,231.552,248.025
2014-01-21 04:00,0.00138223,278.684,275.436,252.899,277.678,275.085,255.28,-0.0,-0.0,232.935,248.987
2014-01-21 05:00,-0.00301105,269.865,266.59,248.121,269.515,268.339,252.982,-0.0,-0.0,235.525,249.617
2014-01-21 06:00,-0.0,265.791,264.635,246.801,267.857,267.171,252.982,-0.0,-0.0,237.849,250.95
2014-01-21 07:00,-0.0,281.526,279.091,255.043,281.076,278.609,256.535,-0.0,-0.0,235.799,250.442
2014-01-21 08:00,-0.0,275.707,275.306,252.534,277.978,276.323,256.035,-0.0,-0.0,233.75,249.721
2014-01-21 09:00,-25.7679,282.059,281.029,259.024,283.088,280.85,260.34,-32.7264,-39.0213,238.546,253.309
2014-01-21 10:00,0.565661,286.569,275.046,255.277,276.315,273.517,256.41,0.378991,0.754804,235.108,249.617
2014-01-21 11:00,0.328212,289.247,278.474,257.346,279.76,276.323,257.406,0.197285,0.45276,235.108,250.032
2014-01-21 12:00,0.435665,297.848,279.458,258.358,281.221,278.004,258.27,0.323136,0.499647,235.731,250.442
2014-01-21 13:00,0.401115,293.007,275.046,255.393,277.678,276.323,258.392,0.333707,0.459978,236.542,251.552
2014-01-21 14:00,0.519347,287.587,272.796,253.86,275.703,274.773,258.023,0.58111,0.634629,236.609,251.949
2014-01-21 15:00,0.263883,278.883,270.607,252.534,272.264,271.444,256.035,0.278306,0.40545,238.231,252.537
2014-01-21 16:00,0.224228,292.053,279.336,257.91,280.347,276.938,257.777,0.112141,0.311994,237.977,252.828
2014-01-21 17:00,0.275834,294.156,282.799,260.337,284.501,281.441,260.461,0.216716,0.366276,237.006,252.047
2014-01-21 18:00,0.192823,293.93,280.669,259.134,281.51,276.938,256.909,0.13182,0.301372,235.038,249.928
2014-01-21 19:00,0.265473,292.053,274.261,254.926,274.467,270.798,253.24,0.281352,0.42116,234.897,247.59
2014-01-21 20:00,0.785382,298.533,262.774,247.597,263.217,259.684,246.732,0.759657,0.932653,234.827,245.46
2014-01-21 21:00,1.00615,300.769,274.524,255.393,275.242,270.311,252.723,0.880463,1.10657,235.038,248.669
2014-01-21 22:00,-0.0,271.261,262.616,248.771,263.217,260.045,247.551,-0.0653037,-0.0778648,234.756,245.46
2014-01-21 23:00,0.00450423,272.836,264.635,249.542,265.138,260.942,248.229,-0.0,-0.0,236.071,246.707
2014-01-22 00:00,-0.0,261.666,254.328,242.942,254.854,252.536,243.525,-0.0,-0.0,236.408,245.23
2014-01-22 01:00,-0.0,273.586,271.023,252.534,270.657,267.339,251.553,-0.0,-0.0,235.108,248.133
2014-01-22 02:00,-0.0,254.396,245.89,238.657,244.349,237.815,229.116,-0.0,-0.0,228.748,239.39
2014-01-22 03:00,0.00145385,251.944,249.781,240.021,250.415,248.532,240.207,-0.0,0.00146774,233.677,244.764
2014-01-22 04:00,0.00146039,249.89,246.523,238.349,245.248,242.143,234.916,-0.0,-0.0,227.51,238.578
2014-01-22 05:00,-0.0,253.206,245.676,238.04,245.248,242.364,234.291,-0.0,-0.0,224.46,236.614
2014-01-22 06:00,-0.00190678,251.282,237.591,232.834,236.186,232.725,227.431,-0.0,-0.0,221.819,229.838
2014-01-22 07:00,0.00264455,244.063,236.576,233.005,236.186,233.474,228.614,-0.0,-0.0,223.013,231.859
2014-01-22 08:00,-0.0,258.576,251.721,241.5,252.667,249.955,240.06,-0.0,-0.0,225.835,240.446
2014-01-22 09:00,-2.54371,253.81,246.942,237.884,246.575,244.758,236.918,-3.23063,-4.28005,225.352,237.185
2014-01-22 10:00,0.327523,266.466,255.587,243.226,256.021,253.122,242.384,0.39076,0.460912,227.329,242.354
2014-01-22 11:00,0.279135,273.338,262.616,247.2,263.393,261.121,249.305,0.381129,0.510292,229.348,246.145
2014-01-22 12:00,0.357947,287.587,264.635,248.9,266.167,264.106,250.501,0.289767,0.458321,229.433,246.483
2014-01-22 13:00,0.289615,294.043,274.129,254.572,274.467,270.148,253.497,0.169401,0.38702,229.935,247.699
2014-01-22 14:00,0.321841,290.939,275.176,255.043,275.857,272.565,254.646,0.2413,0.398087,228.748,247.59
2014-01-22 15:00,0.247711,293.702,275.176,255.16,274.467,268.505,249.971,0.172493,0.341229,228.662,246.032
2014-01-22 16:00,0.23,290.939,275.565,255.51,274.623,270.148,251.553,0.133761,0.331879,228.835,245.69
2014-01-22 17:00,0.208658,296.84,287.651,263.203,288.493,284.349,261.182,0.0956965,0.298425,232.784,252.925
2014-01-22 18:00,0.206989,295.26,288.195,263.203,289.032,285.35,262.017,0.113615,0.31129,233.308,253.595
2014-01-22 19:00,0.485459,291.563,270.049,252.412,271.945,269.329,252.594,0.46299,0.595772,232.481,251.252
2014-01-22 20:00,0.375104,292.294,280.187,258.469,279.022,274.46,254.009,0.216238,0.499548,229.348,247.261
2014-01-22 21:00,0.792143,295.902,281.978,259.793,283.514,279.959,259.492,0.608868,0.84509,232.481,252.925
2014-01-22 22:00,-0.114936,227.984,217.685,224.102,215.26,211.635,210.073,-0.0973157,-0.116034,212.765,216.652
2014-01-22 23:00,-0.0,222.276,221.117,224.908,220.852,218.235,217.25,-0.0,-0.0,218.767,222.313
2014-01-23 00:00,-0.00251409,239.711,230.265,229.847,228.001,223.905,219.739,-0.00212868,-0.00253812,219.014,226.76
2014-01-23 01:00,-0.0,233.989,222.552,226.481,220.519,216.652,215.674,-0.0,-0.0,215.734,220.075
2014-01-23 02:00,-0.00156347,233.989,228.155,228.749,226.82,224.19,220.86,-0.0,-0.0,221.371,226.187
2014-01-23 03:00,-0.00144995,235.601,232.839,230.743,232.502,230.946,226.574,-0.0,-0.0,223.642,230.354
2014-01-23 04:00,-0.0,237.078,234.745,231.098,233.842,232.221,228.278,-0.0,-0.0,224.56,230.863
2014-01-23 05:00,-0.0,238.442,236.06,231.973,236.441,235.435,230.276,-0.0,-0.0,226.311,232.988
2014-01-23 06:00,-0.0,240.898,240.514,234.183,240.87,240.123,234.76,-0.0,-0.0,227.055,235.295
2014-01-23 07:00,-0.0,254.396,251.339,241.061,251.652,250.557,241.519,-0.0,-0.0,229.852,242.105
2014-01-23 08:00,-0.0,251.282,248.784,238.657,249.579,248.327,239.618,-0.0,-0.0,229.517,241.728
2014-01-23 09:00,-0.908818,251.944,247.357,238.349,247.662,246.246,239.322,-1.73136,-2.29377,230.018,239.523
2014-01-23 10:00,0.375506,281.346,274.655,253.86,274.933,272.405,254.009,0.254352,0.596444,231.156,248.241
2014-01-23 11:00,0.335697,290.939,286.439,261.519,288.087,284.492,260.219,0.143186,0.491796,230.43,250.748
2014-01-23 12:00,0.293916,291.563,283.495,260.011,284.079,279.959,256.909,0.124429,0.422128,229.263,248.348
2014-01-23 13:00,0.249308,296.219,291.174,265.254,292.6,289.137,263.787,0.0830123,0.367639,231.156,251.452
2014-01-23 14:00,0.212625,297.146,292.108,265.456,293.506,289.413,263.787,0.0697222,0.318884,232.633,252.047
2014-01-23 15:00,0.213016,290.301,274.655,254.572,272.899,267.171,247.823,0.124488,0.316735,227.87,243.093
2014-01-23 16:00,0.21487,293.124,280.308,257.91,280.054,275.24,254.137,0.126859,0.311902,231.473,248.025
2014-01-23 17:00,0.187479,295.151,288.087,263.515,289.835,286.485,262.492,0.107227,0.266986,233.234,252.146
2014-01-23 18:00,0.188337,297.045,292.108,265.859,292.73,289.137,263.787,0.0833565,0.290968,232.935,253.021
2014-01-23 19:00,0.252503,290.813,281.742,259.024,281.799,278.307,256.909,0.166454,0.389659,230.674,247.261
2014-01-23 20:00,0.215357,250.598,222.198,224.908,222.485,222.462,220.86,0.41421,0.467041,215.873,218.165
2014-01-23 21:00,1.1178,272.58,233.666,231.45,233.31,231.459,227.431,1.09388,1.36099,222.799,228.782
2014-01-23 22:00,-0.0379698,280.982,277.852,257.12,278.873,276.323,257.158,-0.0321489,-0.0383328,230.835,250.544
2014-01-23 23:00,-0.00448319,282.923,279.945,258.358,281.943,278.609,258.76,-0.0,-0.0,230.835,251.152
2014-01-24 00:00,-0.00250843,276.594,271.023,252.899,271.303,268.007,252.205,-0.0,-0.00253241,229.263,246.032
2014-01-24 01:00,-0.0,286.121,285.095,261.305,286.997,284.205,261.898,-0.0,-0.0,230.755,250.34
2014-01-24 02:00,-0.0,284.888,282.214,259.244,283.797,281.146,259.37,-0.0,-0.0,232.328,249.928
2014-01-24 03:00,-0.0,285.818,285.208,261.305,287.134,284.779,262.61,-0.0,-0.0,232.709,251.652
2014-01-24 04:00,-0.0,285.818,285.546,261.519,287.951,286.06,262.965,-0.0,-0.0,232.557,251.85
2014-01-24 05:00,-0.0,285.512,285.546,261.519,288.087,286.202,263.67,-0.0,-0.0,233.53,252.439
2014-01-24 06:00,-0.00188983,285.202,285.546,261.944,288.222,286.626,263.083,-0.0,-0.0,234.543,252.439
2014-01-24 07:00,-0.00261227,285.512,285.77,261.519,288.493,287.188,263.787,-0.0,-0.0,234.401,252.342
2014-01-24 08:00,-0.0,285.045,285.095,261.412,287.815,286.202,262.965,-0.0,-0.0,234.329,252.342
2014-01-24 09:00,-0.155358,284.73,284.869,261.305,287.543,285.777,262.847,-1.05233,-1.25474,234.686,251.949
2014-01-24 10:00,0.308147,288.012,286.661,262.576,289.032,286.767,263.083,0.171087,0.499788,233.01,251.552
2014-01-24 11:00,0.324271,292.174,288.736,263.721,290.5,287.469,263.083,0.130845,0.47571,232.784,251.352
2014-01-24 12:00,0.296244,295.368,290.44,264.441,291.948,288.445,262.965,0.108346,0.419414,231.787,251.152
2014-01-24 13:00,0.287432,298.242,290.545,264.747,291.686,287.888,262.965,0.129401,0.380773,231.865,251.152
2014-01-24 14:00,0.32587,293.816,280.066,258.58,282.087,279.661,259.492,0.30819,0.445682,233.085,250.748
2014-01-24 16:00,0.274077,253.206,214.358,222.027,213.381,213.356,213.447,0.831877,0.898092,212.765,213.092
2014-01-24 17:00,0.336369,258.576,211.184,220.517,211.028,210.219,210.718,0.822881,0.892192,210.624,210.984
2014-01-24 18:00,0.403606,261.666,216.471,222.449,215.628,215.027,214.872,0.85735,0.941631,214.293,215.867
2014-01-24 19:00,0.486724,262.869,222.552,225.897,222.485,221.283,220.115,0.889848,0.988213,219.744,221.436
2014-01-24 20:00,0.568718,264.009,241.682,235.985,242.049,241.251,236.153,0.897811,1.03026,229.517,237.043
2014-01-24 21:00,0.45507,283.093,273.065,254.454,274.312,271.444,252.853,0.409091,0.52181,229.263,246.145
2014-01-24 22:00,-0.0375421,259.045,255.941,244.07,256.021,253.896,243.525,-0.0317868,-0.0379009,228.748,243.457
2014-01-24 23:00,-0.0,248.394,243.94,237.101,244.122,242.143,235.072,-0.0,-0.0,225.058,236.179
2014-01-25 00:00,-0.00250242,265.446,254.145,242.513,253.867,250.357,237.827,-0.00211879,-0.00252634,224.959,237.468
2014-01-25 01:00,-0.0,277.24,269.767,251.676,270.332,267.004,249.037,-0.0,-0.0,228.048,244.294
2014-01-25 02:00,-0.0,279.081,275.694,255.51,277.226,275.396,256.285,-0.0,-0.0,230.593,248.348
2014-01-25 03:00,-0.0,262.475,249.583,241.061,246.575,240.35,231.905,-0.0,-0.0,223.118,233.304
2014-01-25 04:00,-0.00144693,259.505,247.973,239.721,246.355,241.475,232.387,-0.0,-0.0,224.86,234.845
2014-01-25 05:00,-0.00157264,260.827,248.177,238.81,246.355,244.112,234.291,-0.0,-0.0,223.118,231.53
2014-01-25 06:00,-0.00188142,275.48,268.487,250.806,267.857,264.279,247.279,-0.0,-0.0,226.685,242.971
2014-01-25 07:00,-0.0,250.598,236.318,232.146,234.895,232.221,226.229,-0.0,-0.0,220.801,228.06
2014-01-25 08:00,-0.0048368,249.89,236.06,232.319,233.842,230.688,225.36,-0.0,-0.0,220.916,228.423
2014-01-25 09:00,-0.590759,268.986,256.992,244.21,254.263,250.357,237.373,-0.700273,-0.95425,223.746,235.592
2014-01-25 10:00,0.280333,285.202,281.624,258.58,283.372,280.998,258.882,0.202833,0.499133,230.348,249.198
2014-01-25 11:00,0.297496,285.357,278.101,256.205,278.278,275.24,255.406,0.182997,0.474897,229.517,246.258
2014-01-25 12:00,0.291552,292.174,285.77,260.876,286.86,283.339,259.492,0.123428,0.43087,230.348,249.721
2014-01-25 13:00,0.305988,295.69,284.982,260.769,286.172,282.613,260.219,0.197281,0.413773,230.43,250.135
2014-01-25 14:00,0.239921,295.796,286.217,261.305,286.86,282.028,258.27,0.110425,0.336617,229.685,248.775
2014-01-25 15:00,0.319635,286.864,270.468,252.168,270.819,267.171,250.369,0.329468,0.434931,228.835,245.46
2014-01-25 16:00,0.221801,283.261,272.12,253.02,273.843,272.086,255.027,0.313653,0.405637,230.184,247.481
2014-01-25 17:00,0.295334,267.761,247.15,238.81,246.355,244.544,237.07,0.366683,0.488577,228.4,237.185
2014-01-25 18:00,0.272297,283.261,268.63,250.555,268.024,265.138,249.838,0.24021,0.408752,231.076,244.53
2014-01-25 19:00,0.255876,291.563,284.755,260.661,286.447,284.205,262.017,0.230381,0.371111,232.175,251.652
2014-01-25 20:00,0.308191,294.491,286.328,260.876,287.815,284.205,259.492,0.218204,0.453295,231.63,251.85
2014-01-25 21:00,0.949986,267.761,222.552,226.481,222.806,222.169,221.415,1.05184,1.27686,220.57,222.096
2014-01-25 22:00,0.0370343,244.063,235.8,231.973,235.672,234.461,229.449,-0.0627138,-0.0747767,226.027,231.364
2014-01-25 23:00,-0.00445726,242.013,234.745,231.973,233.842,233.225,228.949,-0.0,-0.0,222.799,228.06
2014-01-26 00:00,-0.00249606,242.013,233.938,231.274,232.502,230.429,227.089,-0.00211341,-0.00251992,223.642,228.603
2014-01-26 01:00,-0.0,230.231,226.583,227.248,226.221,225.597,223.592,-0.0,-0.0,221.484,224.204
2014-01-26 02:00,-0.00155156,230.231,226.583,227.248,226.82,226.426,224.126,-0.0,-0.0,222.15,225.011
2014-01-26 03:00,-0.0,237.078,236.06,232.146,236.186,235.435,231.257,-0.0,0.00145166,226.871,232.988
2014-01-26 04:00,0.00144239,259.505,254.509,243.084,255.049,253.896,243.525,-0.0,-0.0,229.769,242.725
2014-01-26 05:00,-0.0,273.586,268.487,251.18,268.191,264.106,248.903,-0.0,-0.0,230.996,245.69
2014-01-26 06:00,-0.0,263.255,252.666,241.5,251.447,247.085,238.278,-0.0,-0.0,227.959,237.327
2014-01-26 07:00,-0.0,275.707,269.626,250.429,270.819,268.339,251.159,-0.0,-0.0,230.511,247.151
2014-01-26 08:00,0.00478547,280.427,278.226,255.51,279.76,278.307,257.653,-0.0,-0.0,229.685,251.949
2014-01-26 09:00,-0.381652,283.594,284.3,259.354,286.585,285.919,262.965,-0.40393,-0.57795,230.674,256.091
2014-01-26 10:00,0.282859,285.665,283.495,258.58,285.201,283.917,261.062,0.204661,0.514014,230.43,254.443
2014-01-26 11:00,0.303694,287.729,282.799,258.022,283.938,281.735,259.249,0.164222,0.502407,229.178,252.439
2014-01-26 12:00,0.256924,290.813,284.755,259.244,285.618,283.339,259.977,0.129628,0.428154,229.093,251.751
2014-01-26 13:00,0.251518,288.291,277.727,254.336,277.528,274.617,253.368,0.129679,0.384429,229.601,250.849
2014-01-26 14:00,0.244979,296.008,289.379,262.049,291.16,288.306,262.965,0.127164,0.345503,231.552,257.07
2014-01-26 15:00,0.249043,295.042,284.071,259.024,284.781,282.028,258.76,0.158884,0.340299,231.156,254.349
2014-01-26 16:00,0.207858,290.558,279.213,256.32,279.022,275.861,254.646,0.131749,0.305975,229.935,250.34
2014-01-26 17:00,0.248129,288.291,273.997,253.02,273.215,269.821,252.335,0.175425,0.365731,229.769,246.929
2014-01-26 18:00,0.27934,285.357,268.63,249.797,267.016,263.412,246.594,0.213589,0.391362,227.959,243.577
2014-01-26 19:00,0.320647,288.568,272.12,252.412,271.303,268.007,248.903,0.320298,0.436466,228.048,245.69
2014-01-26 20:00,0.188612,289.779,282.916,258.58,283.088,280.554,258.638,0.182191,0.262827,232.935,253.213
2014-01-26 21:00,0.101274,289.647,288.843,261.944,290.897,289.137,264.138,0.166733,0.187444,235.799,257.682
2014-01-26 22:00,-0.0364532,284.41,281.505,257.685,282.231,280.406,258.882,-0.0617297,-0.0736033,233.75,253.785
2014-01-26 23:00,-0.00444253,277.869,272.527,252.045,272.741,270.148,251.291,-0.0,-0.0,232.097,251.552
2014-01-27 00:00,-0.00248937,283.594,281.148,257.459,282.231,280.702,259.005,-0.00210774,-0.0,233.159,254.443
2014-01-27 01:00,-0.0,279.278,275.694,254.217,276.62,273.99,254.646,-0.0,-0.0,231.865,250.34
2014-01-27 02:00,-0.0,285.202,284.982,260.011,286.997,285.35,262.847,-0.0,-0.0,234.827,257.855
2014-01-27 03:00,-0.0,280.982,280.308,257.233,281.655,280.108,259.249,-0.0,-0.0,233.677,255.275
2014-01-27 04:00,-0.0,283.76,284.071,259.464,286.172,284.779,262.255,-0.0,-0.0,233.823,255.73
2014-01-27 05:00,-0.0,278.279,278.845,256.434,281.366,279.959,259.127,-0.0,-0.0,232.481,253.88
2014-01-27 06:00,-0.00186474,270.713,270.746,251.922,272.741,272.086,255.909,-0.0,-0.0,232.481,251.949
2014-01-27 07:00,-0.0,262.475,262.141,246.801,264.618,263.933,250.896,-0.0,-0.0,231.787,249.928
2014-01-27 08:00,-0.0047354,269.865,268.487,250.555,270.819,268.505,252.594,-0.0,-0.0,231.156,249.928
2014-01-27 09:00,-0.0,266.131,266.442,249.414,269.35,268.007,253.625,-0.474658,-0.404256,232.709,251.949
2014-01-27 10:00,0.425525,251.282,229.97,228.934,229.729,228.324,224.834,0.650283,0.738691,222.476,226.57
2014-01-27 11:00,0.279193,240.898,225.937,226.481,225.615,225.038,223.413,0.726526,0.822313,221.819,223.793
2014-01-27 12:00,0.303264,254.966,231.997,229.847,232.23,231.203,227.431,0.77629,0.845507,224.76,229.664
2014-01-27 13:00,0.248976,247.601,225.282,226.866,225.003,224.19,221.782,0.705074,0.771109,221.258,223.377
2014-01-27 14:00,0.218019,248.394,229.373,228.378,229.444,228.324,225.535,0.720656,0.777201,224.359,227.877
2014-01-27 15:00,0.172632,249.156,238.09,233.005,237.951,237.581,232.387,0.712197,0.775497,227.78,233.928
2014-01-27 16:00,0.16257,254.966,248.177,238.81,248.733,248.121,241.084,0.452271,0.55216,231.236,241.475
2014-01-27 17:00,0.173663,292.889,288.951,263.618,290.897,287.748,262.728,0.0609167,0.285526,232.935,250.34
2014-01-27 18:00,0.178109,294.491,290.756,264.339,292.989,289.413,263.2,0.0591154,0.283383,232.405,250.032
2014-01-27 19:00,0.138678,292.294,289.272,263.618,291.292,288.167,263.318,0.070146,0.23637,234.329,251.552
2014-01-27 20:00,0.185965,291.563,289.379,263.515,291.423,288.584,263.318,0.110219,0.295024,235.038,252.731
2014-01-27 21:00,0.822493,295.902,280.429,258.246,282.374,279.211,258.638,0.639165,0.858793,233.823,252.146
2014-01-27 22:00,-0.0,286.271,285.546,261.412,287.679,286.06,262.373,-0.0606336,-0.0722964,232.86,253.117
2014-01-27 23:00,-0.00442665,276.155,267.033,250.303,266.338,263.063,246.319,-0.0,-0.0,228.488,242.848
2014-01-28 00:00,-0.0,281.165,276.971,255.858,277.978,275.551,255.28,-0.0021018,-0.00250608,230.916,248.241
2014-01-28 01:00,-0.0,247.601,245.248,237.728,247.012,246.457,240.06,-0.0,-0.0,232.328,240.576
2014-01-28 02:00,-0.0,262.074,255.23,243.226,255.827,253.703,243.525,-0.0,-0.0,232.935,242.602
2014-01-28 03:00,-0.0,284.888,285.095,260.661,287.951,286.485,263.083,-0.0,0.00144331,234.329,252.634
2014-01-28 04:00,-0.0,284.57,284.869,260.228,287.134,285.35,262.255,-0.0,-0.0,234.827,253.5
2014-01-28 05:00,-0.0,284.087,285.095,260.445,287.815,286.907,264.022,-0.0,-0.0,235.247,254.162
2014-01-28 06:00,-0.0,284.249,285.095,260.011,287.951,286.767,263.2,-0.0,-0.0,234.329,254.162
2014-01-28 07:00,-0.00254998,283.594,284.528,259.793,287.27,286.06,263.2,-0.0,-0.0,234.686,254.162
2014-01-28 08:00,-0.00468657,283.594,284.414,260.011,287.134,285.919,263.2,-0.0,-0.0,233.382,254.068
2014-01-28 09:00,-0.138121,283.428,283.611,259.464,286.172,284.922,262.61,-0.467788,-0.627487,232.405,253.309
2014-01-28 10:00,0.293231,286.569,286.217,260.769,288.493,286.767,263.553,0.186209,0.486342,233.53,254.443
2014-01-28 11:00,0.318773,290.171,288.412,262.261,290.367,288.167,264.022,0.134952,0.47235,234.257,254.722
2014-01-28 12:00,0.303849,293.587,290.335,263.618,292.6,289.964,264.488,0.112181,0.426245,234.401,255.275
2014-01-28 13:00,0.259103,295.583,292.314,264.339,294.277,291.464,264.605,0.0906143,0.372467,233.53,255.639
2014-01-28 14:00,0.223075,296.84,292.827,265.153,294.533,291.464,264.953,0.0740901,0.318526,233.085,254.443
2014-01-28 15:00,0.200489,297.848,292.929,265.254,294.788,291.329,264.837,0.066724,0.283134,232.633,254.068
2014-01-28 16:00,0.209025,297.549,291.383,264.339,293.119,289.964,263.905,0.0934068,0.289571,232.633,254.068
2014-01-28 17:00,0.223257,293.702,285.77,261.305,287.815,284.922,262.136,0.153326,0.319305,233.308,253.785
2014-01-28 18:00,0.188052,296.635,292.211,264.849,294.533,291.329,264.605,0.0808181,0.274707,233.53,254.536
2014-01-28 19:00,0.489824,298.726,275.694,255.16,277.978,275.706,258.023,0.397961,0.563592,234.968,254.256
2014-01-28 20:00,0.257749,294.38,291.174,264.031,293.248,290.511,264.721,0.141741,0.364835,234.543,255.275
2014-01-28 21:00,0.276497,291.44,290.229,263.515,292.73,290.921,265.185,0.219776,0.404468,235.867,256.36
2014-01-28 22:00,-0.0,287.01,287.541,262.261,290.234,288.861,264.953,-0.0594388,-0.0354359,235.936,256.45
2014-01-28 23:00,-0.00440966,285.97,286.882,261.625,289.701,288.445,264.837,-0.0,-0.0,235.867,256.716
2014-01-29 00:00,-0.00247502,285.512,286.217,261.519,288.897,287.888,264.605,-0.00209559,-0.00249868,235.525,256.45
2014-01-29 01:00,-0.0,285.202,285.77,260.984,288.493,287.188,264.372,-0.0,-0.0,233.677,255.275
2014-01-29 02:00,-0.0,284.41,285.546,260.769,288.087,286.907,263.787,-0.0,-0.0,233.603,255.821
2014-01-29 03:00,-0.0,284.087,285.208,260.553,287.815,286.907,263.905,-0.0,-0.0,232.709,255.639
2014-01-29 04:00,-0.0,282.059,282.331,259.244,284.641,283.339,261.182,-0.0,-0.0,232.02,254.443
2014-01-29 05:00,0.00154984,280.982,279.458,256.664,280.493,279.211,258.76,-0.0,-0.0,229.935,251.051
2014-01-29 06:00,-0.0,259.045,250.954,239.871,249.998,247.915,238.278,-0.0,-0.0,226.592,237.043
2014-01-29 07:00,-0.0,270.713,262.931,246.533,262.329,260.584,245.35,-0.0,-0.0,227.691,242.105
2014-01-29 08:00,-0.0,265.446,256.469,243.509,253.269,250.957,239.765,-0.0,-0.0,224.86,235.887
2014-01-29 09:00,-0.182264,261.251,250.175,239.115,248.52,246.246,236.153,-0.411527,-0.55202,226.685,237.043
2014-01-29 10:00,0.375141,254.966,238.338,232.491,236.186,234.95,229.449,0.478683,0.672107,224.46,229.314
2014-01-29 11:00,0.26575,265.446,246.942,237.884,245.024,242.364,233.819,0.3539,0.49751,225.739,234.389
2014-01-29 12:00,0.244255,283.428,272.256,252.412,271.464,268.339,249.838,0.161852,0.389541,227.691,242.971
2014-01-29 13:00,0.219913,282.408,269.059,250.177,267.354,264.451,247.279,0.148005,0.357217,226.778,239.789
2014-01-29 15:00,0.216773,281.526,264.329,248.121,262.685,258.591,242.384,0.15606,0.328854,225.254,237.608
2014-01-29 16:00,0.361174,275.707,246.733,238.195,246.794,245.612,238.428,0.36972,0.487732,228.312,238.165
2014-01-29 17:00,0.322466,290.171,260.036,246.399,259.791,256.367,245.628,0.226826,0.386901,231.315,243.214
2014-01-29 18:00,0.337609,0.0,0.0,0.0,0.0,0.0,0.0,0.335304,0.0,0.0,0.0
2014-01-29 19:00,0.515036,285.818,252.666,242.081,253.867,252.341,243.808,0.555011,0.703581,231.865,243.093
2014-01-29 20:00,0.268481,297.848,283.956,260.769,284.921,280.554,258.882,0.191311,0.313986,231.787,249.513
2014-01-29 21:00,0.616309,296.531,286.772,262.471,288.628,285.065,261.301,0.450017,0.72495,232.784,251.352
2014-01-29 22:00,-0.0,285.045,283.38,260.553,284.641,281.882,260.701,-0.0290795,-0.0693458,233.896,251.051
2014-01-29 23:00,-0.0043916,260.395,256.294,244.07,257.928,256.555,246.732,-0.00371836,-0.0,234.472,247.04
2014-01-30 00:00,-0.00246738,277.869,272.662,254.217,273.843,269.0,251.944,-0.00208913,-0.0,234.615,249.513
2014-01-30 01:00,-0.00181848,285.045,284.528,260.984,286.722,284.779,261.66,-0.0,-0.0,234.329,252.047
2014-01-30 02:00,-0.0,285.665,285.77,261.412,287.951,286.202,262.728,-0.0,-0.0,233.382,251.949
2014-01-30 03:00,-0.0,285.665,285.658,261.091,288.087,286.202,262.492,-0.0,0.0014348,234.041,252.047
2014-01-30 04:00,0.00142402,280.982,278.598,256.892,280.347,276.784,256.41,-0.0,-0.0,232.633,249.721
2014-01-30 05:00,-0.0,283.261,282.448,259.024,284.079,282.028,259.614,-0.0,0.00155893,230.43,248.987
2014-01-30 06:00,-0.0,271.261,264.482,247.991,263.745,261.654,246.869,-0.0,-0.0,226.685,239.656
2014-01-30 07:00,-0.00252012,275.251,272.662,253.501,274.0,272.246,254.009,-0.0,-0.0,229.263,247.04
2014-01-30 08:00,-0.0,283.76,284.071,260.119,286.585,285.208,262.017,-0.0,-0.0,230.43,250.544
2014-01-30 09:00,-0.0542765,283.261,283.495,259.902,286.31,284.636,262.136,-0.321691,-0.328772,230.184,250.95
2014-01-30 10:00,0.367875,286.271,283.956,260.337,286.033,284.061,261.301,0.216681,0.532867,230.101,249.825
2014-01-30 11:00,0.349574,291.19,288.087,262.576,289.968,287.609,262.61,0.146896,0.491468,229.935,250.544
2014-01-30 12:00,0.326299,295.368,291.694,264.95,293.764,290.648,264.372,0.118619,0.449369,229.769,251.552
2014-01-30 13:00,0.0,0.0,0.0,0.0,0.0,0.0,0.0,0.0,0.0,0.0,0.0
2014-01-30 14:00,0.270234,298.045,289.486,264.236,291.029,287.469,262.373,0.144179,0.341333,230.996,250.95
2014-01-30 15:00,0.255105,297.146,288.412,263.618,290.367,287.329,263.318,0.163961,0.325441,231.156,251.552
2014-01-30 16:00,0.227645,298.726,290.545,264.747,292.6,289.137,263.67,0.121942,0.29783,231.394,251.652
2014-01-30 17:00,0.204641,298.144,291.279,265.355,292.86,288.999,263.436,0.0966109,0.277968,231.156,251.252
2014-01-30 18:00,0.260681,293.356,282.448,259.683,284.079,280.85,259.127,0.186947,0.372469,231.315,250.646
2014-01-30 19:00,0.259346,294.933,287.978,263.099,289.835,287.188,263.318,0.17994,0.36001,231.63,252.047
2014-01-30 20:00,0.398955,293.472,282.916,259.793,283.514,280.85,258.76,0.308519,0.520914,228.835,246.371
2014-01-30 21:00,0.141695,291.931,288.951,263.928,290.897,287.888,263.083,0.187158,0.228879,231.943,253.021
2014-01-30 22:00,-0.0335468,287.3,284.3,260.984,286.172,283.339,260.219,-0.056808,-0.0677349,230.593,250.442
2014-01-30 23:00,-0.0,287.729,287.322,262.576,289.968,288.306,264.372,-0.0,-0.0,231.315,252.537
2014-01-31 00:00,-0.00245946,284.087,280.429,257.91,281.51,279.211,257.653,-0.00208242,-0.00248297,228.921,248.133
2014-01-31 01:00,-0.0,281.346,276.336,255.393,277.678,275.24,254.392,-0.0,-0.0,228.224,247.371
2014-01-31 02:00,-0.00153009,285.97,285.095,260.661,287.27,285.35,262.255,-0.0,-0.0,230.511,252.439
2014-01-31 03:00,-0.0,285.818,286.217,261.198,288.628,287.469,264.022,-0.0,-0.0,231.552,253.021
2014-01-31 04:00,-0.00141941,285.512,286.105,261.838,288.897,287.888,264.255,-0.0,-0.0,231.076,252.244
2014-01-31 05:00,-0.0,285.357,286.217,261.198,289.032,288.027,264.488,-0.0,-0.0,230.348,252.828
2014-01-31 06:00,-0.0,284.41,286.105,261.091,289.032,288.722,265.069,-0.0,-0.0,230.184,253.974
2014-01-31 07:00,-0.0,284.57,285.882,261.198,288.897,288.584,265.301,-0.0,-0.0,231.394,254.443
2014-01-31 08:00,-0.0,283.76,285.321,260.661,288.358,288.027,265.185,-0.0,-0.0,230.835,254.068
2014-01-31 09:00,-0.0,283.594,284.755,260.119,287.679,287.329,264.605,-0.207805,-0.198221,230.266,253.69
2014-01-31 10:00,0.468043,269.283,259.54,244.626,258.678,257.115,244.09,0.432732,0.771235,227.147,238.303
2014-01-31 11:00,0.340438,277.451,265.696,247.859,264.965,262.712,247.687,0.272846,0.556204,227.329,241.475
2014-01-31 12:00,0.302048,289.91,281.978,258.691,282.374,279.511,257.9,0.159464,0.459197,229.263,249.198
2014-01-31 13:00,0.244412,292.889,286.105,260.445,287.27,284.061,259.127,0.126797,0.367983,229.685,252.047
2014-01-31 14:00,0.224718,267.444,252.853,240.766,252.059,251.354,241.229,0.302129,0.441267,229.007,238.85
2014-01-31 15:00,0.149633,285.665,278.721,256.089,278.873,276.938,257.158,0.126694,0.261141,230.593,246.818
2014-01-31 16:00,0.193992,300.589,296.621,267.642,298.795,295.865,267.251,0.0609799,0.273246,231.63,256.001
2014-01-31 17:00,0.187288,300.769,297.01,267.642,299.654,296.78,267.592,0.0588098,0.265461,231.865,256.628
2014-01-31 18:00,0.19944,298.63,294.145,266.259,296.307,293.75,266.337,0.0844326,0.276132,232.633,256.36
2014-01-31 19:00,0.272012,297.449,290.44,263.825,292.86,290.101,264.488,0.176928,0.363725,233.234,256.36
2014-01-31 20:00,0.247531,296.323,294.145,265.758,296.684,294.679,267.137,0.110426,0.346632,233.677,256.894
2014-01-31 21:00,0.323965,292.534,290.123,263.307,292.34,290.511,265.416,0.240615,0.418869,232.633,255.639
2014-01-31 22:00,-0.032715,289.381,289.699,263.203,292.34,291.193,266.108,-0.0553996,-0.0990834,233.53,256.805
2014-01-31 23:00,-0.0,287.155,287.432,261.625,289.835,288.861,264.837,-0.00368516,-0.00439399,232.709,256.091
