# timestamp,IR_016,IR_039,IR_087,IR_097,IR_108,IR_120,IR_134,VIS006,VIS008,WV_062,WV_073
2016-01-01 00:00,-0.0016252,288.568,288.843,262.471,291.948,290.238,263.787,0.0,0.0,235.731,256.628
2016-01-01 01:00,0.0,287.3,287.978,261.731,290.764,289.276,263.67,0.0,0.0,236.071,256.805
2016-01-01 02:00,0.0,287.587,288.195,261.519,290.897,289.276,264.022,0.0,0.0,236.609,257.07
2016-01-01 03:00,0.00115258,288.152,288.628,262.155,291.292,289.551,263.553,0.0,0.0,237.203,257.682
2016-01-01 04:00,0.0,287.729,287.651,261.305,290.234,288.584,263.436,0.0,0.0,237.333,258.114
2016-01-01 05:00,0.0,288.43,288.52,261.731,291.029,289.551,263.553,0.0,0.0,237.977,258.028
2016-01-01 06:00,-0.0014318,281.705,282.448,258.358,285.34,284.349,262.373,0.0,0.0,238.981,258.882
2016-01-01 07:00,0.0,283.924,283.956,258.802,286.722,285.35,262.255,0.0,0.0,239.41,259.22
2016-01-01 08:00,-0.00255759,280.613,281.148,257.459,284.22,283.629,261.779,0.0,0.0,239.714,259.22
2016-01-01 09:00,0.0,282.408,282.331,257.798,285.061,284.205,261.421,0.0,0.0,240.548,259.471
2016-01-01 10:00,-0.381794,278.279,279.702,256.089,282.66,282.467,261.301,-0.785071,-0.825951,240.841,259.471
2016-01-01 11:00,0.322526,290.171,285.77,259.902,288.493,287.188,263.083,0.372862,0.313086,241.304,260.299
2016-01-01 12:00,0.0156361,288.841,289.165,261.731,291.817,290.238,264.138,0.116504,0.0599851,241.874,260.708
2016-01-01 13:00,0.00895845,288.977,289.272,261.838,291.686,290.375,264.605,0.0758511,0.0384374,241.59,260.708
2016-01-01 14:00,0.00563071,288.841,289.165,261.731,291.817,289.964,264.138,0.0572101,0.0265278,241.647,260.789
2016-01-01 15:00,0.00523782,288.977,289.272,262.049,291.948,290.375,264.372,0.0458269,0.0211516,241.476,260.789
2016-01-01 16:00,0.0141926,288.977,288.951,261.519,291.686,289.964,264.138,0.0480673,0.0250744,241.361,260.627
2016-01-01 17:00,0.021732,289.113,288.736,261.731,291.423,289.826,263.905,0.0568742,0.0339069,241.189,260.708
2016-01-01 18:00,0.00742311,288.977,289.379,262.049,291.817,290.648,264.605,0.0565662,0.0299763,241.76,261.755
2016-01-01 19:00,0.0377991,289.381,289.165,261.625,291.686,290.101,264.372,0.105615,0.0686888,242.155,262.072
2016-01-01 20:00,0.206373,289.247,288.951,261.731,291.555,290.375,264.605,0.270841,0.239598,242.155,262.309
2016-01-01 21:00,0.0,287.587,288.412,261.305,291.16,289.689,264.605,0.0,0.0,242.322,262.623
2016-01-01 22:00,0.0,288.43,288.843,261.519,291.555,290.238,264.488,0.0,0.0,242.155,262.23
2016-01-01 23:00,0.0,288.568,288.951,261.838,291.423,289.826,264.022,0.0,0.0,242.544,262.779
2016-01-02 00:00,-0.0016285,288.705,289.165,261.731,291.686,290.238,263.905,0.0,0.00164407,242.655,262.701
2016-01-02 01:00,0.0,288.291,289.058,261.625,291.423,290.101,264.488,0.0,0.0,242.433,262.857
2016-01-02 02:00,-0.00120864,288.705,289.379,261.838,292.079,290.784,264.953,0.0,0.0,242.655,262.935
2016-01-02 03:00,0.0,288.705,289.379,262.049,291.817,290.375,264.721,0.0,0.0,242.655,263.012
2016-01-02 04:00,0.0,288.568,289.272,261.625,291.686,290.375,264.721,0.0,0.0,242.544,262.857
2016-01-02 05:00,0.0,288.152,288.628,261.412,291.16,289.826,264.721,0.0,0.0,242.875,263.167
2016-01-02 06:00,0.0,288.568,289.593,262.049,291.948,290.648,264.605,0.0,0.0,243.579,263.706
2016-01-02 07:00,0.0,288.841,289.486,261.838,292.079,290.511,264.837,0.0,0.0,243.633,263.782
2016-01-02 08:00,0.0,288.705,289.593,261.731,292.079,290.784,265.069,0.0,0.0,243.846,263.934
2016-01-02 09:00,0.0,288.705,289.486,261.412,292.079,290.648,264.837,0.0,0.0,243.633,264.01
2016-01-02 10:00,-1.20188,282.923,284.071,258.58,286.447,285.635,263.2,-0.973382,-1.31888,243.633,264.01
2016-01-02 11:00,0.454382,288.841,286.328,259.902,288.628,287.609,263.553,0.55864,0.534132,244.217,264.238
2016-01-02 12:00,0.0782449,289.647,288.412,261.091,291.16,289.689,264.488,0.159,0.10743,243.364,264.314
2016-01-02 13:00,0.0111957,289.113,289.486,261.625,291.948,290.648,265.069,0.0796268,0.0384293,243.202,264.464
2016-01-02 14:00,0.00375043,289.113,289.699,261.731,292.34,290.921,265.301,0.0555709,0.026504,242.82,264.389
2016-01-02 15:00,0.0017433,289.113,290.017,262.049,292.73,291.464,265.532,0.0428055,0.0211196,242.875,264.54
2016-01-02 16:00,0.00354043,289.113,290.123,262.155,293.119,291.871,265.301,0.0389698,0.0178714,243.364,264.54
2016-01-02 17:00,0.00590893,289.247,290.335,262.155,293.119,292.006,265.532,0.0400247,0.0198847,243.364,264.615
2016-01-02 18:00,0.00246351,289.647,290.44,262.471,293.506,292.41,265.647,0.0500605,0.0273577,244.111,265.063
2016-01-02 19:00,0.00750495,289.381,290.335,262.366,293.377,292.41,265.301,0.0857848,0.0454602,243.793,264.989
2016-01-02 20:00,0.0404445,289.247,290.017,262.366,292.989,292.006,265.647,0.188344,0.132701,243.74,264.54
2016-01-02 21:00,0.0,288.841,289.911,261.625,292.34,290.921,264.837,0.0,0.0,243.899,264.389
2016-01-02 22:00,0.0,288.841,289.486,261.519,291.948,290.648,264.488,0.0,0.0,244.058,264.238
2016-01-02 23:00,0.0,288.705,288.951,261.838,291.555,290.101,264.372,0.0,0.0,243.686,264.238
2016-01-03 00:00,0.0,288.43,288.628,261.519,290.764,289.276,264.255,0.0,0.0,243.686,264.086
2016-01-03 01:00,0.0,288.705,289.058,261.944,291.555,290.101,264.372,0.0,0.0,243.31,264.238
2016-01-03 02:00,-0.00120942,287.729,288.303,261.838,290.632,289.276,264.255,0.0,0.0,243.74,263.858
2016-01-03 03:00,0.0,288.43,289.058,261.944,291.423,289.826,264.605,0.0,0.0,243.579,264.01
2016-01-03 04:00,0.0,288.568,289.272,262.261,291.686,290.375,264.953,0.0,0.0,243.039,263.476
2016-01-03 05:00,0.0,288.705,289.379,261.731,291.686,290.101,264.488,0.0,0.0,242.875,263.399
2016-01-03 06:00,0.0,288.977,289.593,262.155,291.817,290.648,264.372,0.0,0.0,243.147,263.858
2016-01-03 07:00,-0.00178399,288.43,289.165,261.625,291.423,290.101,264.605,0.0,0.0,242.984,264.162
2016-01-03 08:00,-0.002545,282.408,282.331,257.572,284.781,284.061,262.255,0.0,0.00256933,242.875,263.629
2016-01-03 09:00,-0.00479573,279.667,279.823,255.974,282.231,282.028,261.182,0.0,0.0,242.71,263.399
2016-01-03 10:00,-0.301897,287.01,286.55,260.011,288.897,287.469,263.67,-0.596436,-0.609566,242.875,263.322
2016-01-03 11:00,0.187313,288.43,285.208,259.244,287.543,286.06,263.083,0.306623,0.271049,242.875,263.552
2016-01-03 12:00,0.100212,290.301,288.195,260.769,290.367,288.722,263.905,0.177654,0.12014,242.875,263.167
2016-01-03 13:00,0.0268593,289.647,289.165,261.838,291.423,289.964,264.255,0.0890718,0.0519725,242.433,263.399
2016-01-03 14:00,0.00749301,289.247,289.699,261.731,291.948,290.511,264.372,0.0586849,0.0302586,242.489,263.399
2016-01-03 15:00,0.00522132,289.113,289.486,261.625,291.948,290.511,264.488,0.0456825,0.022842,242.82,263.244
2016-01-03 16:00,0.00529843,289.113,289.486,261.625,291.817,290.511,264.488,0.0433663,0.0196133,242.82,263.476
2016-01-03 17:00,0.0117805,289.514,288.951,261.519,291.292,289.826,264.022,0.046548,0.0277507,243.846,263.934
2016-01-03 18:00,0.0147143,289.381,289.272,261.198,291.686,290.101,264.605,0.0602164,0.0346616,244.322,264.01
2016-01-03 19:00,0.111741,290.685,288.195,261.091,290.5,288.861,264.138,0.157685,0.13161,244.426,263.782
2016-01-03 20:00,0.0495365,289.113,289.379,261.412,291.686,290.101,264.605,0.184547,0.130026,244.531,263.782
2016-01-03 21:00,0.0,283.428,283.38,257.685,285.895,284.636,262.61,0.0,0.0,244.374,263.399
2016-01-03 22:00,-0.00367484,276.594,278.474,255.277,280.931,280.85,261.182,0.0,0.0,244.687,263.706
2016-01-03 23:00,0.0,278.684,279.336,255.626,281.655,281.441,261.301,0.0,0.0,244.945,263.476
2016-01-04 00:00,0.0,289.113,289.486,261.625,291.686,289.964,264.721,0.0,0.0,244.842,263.552
2016-01-04 01:00,-0.00135301,288.291,288.843,261.519,291.16,289.551,264.372,0.0,0.0,244.997,263.476
2016-01-04 02:00,-0.00121022,288.43,288.628,261.091,291.029,289.413,264.255,0.0,0.0,245.405,263.934
2016-01-04 03:00,0.0,288.568,289.165,261.412,291.423,289.826,264.605,0.0,0.0,245.809,264.086
2016-01-04 04:00,-0.00116422,289.113,289.593,261.731,292.079,290.511,264.721,0.0,0.0,245.709,264.162
2016-01-04 05:00,0.0,289.247,289.379,261.625,291.948,290.101,264.138,0.0,0.0,245.709,263.934
2016-01-04 06:00,0.00142722,278.684,280.066,256.434,282.231,281.882,261.54,0.0,0.0,245.759,263.706
2016-01-04 07:00,0.0,286.121,286.105,259.793,288.222,287.048,263.2,0.0,0.00179831,245.507,263.476
2016-01-04 08:00,0.0,287.444,287.869,260.984,290.234,288.861,263.553,0.0,0.0,245.759,263.858
2016-01-04 09:00,0.00477671,288.977,289.593,261.731,292.209,290.784,264.488,0.0,0.0,245.608,263.934
2016-01-04 10:00,-0.0486702,289.381,289.699,262.155,292.47,291.193,264.953,-0.494508,-0.393084,245.709,263.782
2016-01-04 11:00,0.0438234,289.514,290.123,262.049,292.73,291.6,265.532,0.21733,0.126407,245.304,263.782
2016-01-04 12:00,0.012531,289.514,289.911,262.366,292.47,291.057,264.837,0.111405,0.0600911,244.687,263.552
2016-01-04 13:00,0.0111851,289.514,289.699,262.049,292.079,290.784,264.721,0.0795515,0.0406513,244.531,263.167
2016-01-04 14:00,0.108519,290.558,287.541,260.984,290.101,288.861,264.138,0.137825,0.119001,244.894,263.552
2016-01-04 15:00,0.248442,285.97,280.789,256.892,283.23,283.339,262.017,0.26037,0.263095,244.687,263.244
2016-01-04 16:00,0.325945,287.01,279.945,256.664,282.803,282.467,261.779,0.329681,0.339733,244.739,263.476
2016-01-04 17:00,0.166344,288.977,283.495,258.58,285.618,284.779,263.083,0.190552,0.181764,244.687,263.399
2016-01-04 18:00,0.480876,284.888,280.187,256.434,282.66,282.613,261.66,0.5725,0.633333,244.687,263.552
2016-01-04 19:00,0.0850219,290.301,288.628,261.625,290.632,289.413,264.605,0.134586,0.108226,244.687,263.706
2016-01-04 20:00,0.165025,289.247,289.165,261.731,291.16,289.689,264.605,0.230138,0.205804,244.79,263.706
2016-01-04 21:00,-0.0122799,284.087,285.095,259.354,287.407,286.485,263.318,0.0,0.0,243.74,263.629
2016-01-04 22:00,-0.00370009,283.261,283.38,258.134,285.757,284.922,263.083,0.0,0.0,243.472,263.552
2016-01-04 23:00,0.0,289.113,289.699,262.049,292.079,290.511,265.069,0.0,0.0,242.82,264.01
2016-01-05 00:00,0.0016388,285.045,285.433,259.574,288.087,287.048,263.2,0.0,0.0,241.76,263.552
2016-01-05 01:00,0.0,288.977,289.486,262.261,291.686,290.238,264.721,0.0,0.0,240.371,263.476
2016-01-05 02:00,0.0,269.865,261.34,245.314,260.888,258.408,243.949,0.0,0.0,232.175,248.241
2016-01-05 03:00,0.0,275.48,268.916,249.924,268.855,266.16,248.094,0.0,0.0,235.108,253.974
2016-01-05 04:00,0.0,288.705,289.165,261.944,291.292,289.551,263.905,0.0,0.0,239.593,262.23
2016-01-05 05:00,0.00124594,278.482,281.148,257.12,283.372,283.339,262.255,0.0,0.0,239.774,262.388
2016-01-05 06:00,0.00142584,288.152,289.272,261.838,291.423,290.238,264.605,0.0,0.0,239.471,262.779
2016-01-05 07:00,-0.00177872,288.841,289.272,261.944,291.686,290.375,264.721,0.0,0.0,240.074,263.09
2016-01-05 08:00,0.0,279.278,280.669,256.778,282.946,282.904,261.66,0.0,0.0,238.795,262.072
2016-01-05 09:00,-0.00475918,281.526,282.214,257.685,284.641,283.773,261.779,0.0,0.0,234.686,260.299
2016-01-05 10:00,-0.283658,280.239,278.474,255.393,280.054,278.458,258.147,-0.440316,-0.477282,233.677,257.595
2016-01-05 11:00,0.16941,284.087,277.977,254.926,278.725,276.323,254.646,0.355941,0.310387,231.473,253.309
2016-01-05 12:00,0.169188,287.3,281.624,257.006,282.946,281.588,259.492,0.252015,0.224577,235.455,259.22
2016-01-05 13:00,0.219067,275.932,259.039,243.79,258.116,255.235,241.374,0.319865,0.324972,230.674,245.69
2016-01-05 14:00,0.407338,282.753,268.343,249.542,269.515,267.506,251.028,0.454056,0.481028,235.867,256.001
2016-01-05 15:00,0.0919049,284.57,278.474,254.69,279.318,277.548,256.785,0.133608,0.122544,234.329,253.021
2016-01-05 16:00,0.0474495,285.665,281.624,256.664,282.946,280.702,258.392,0.0863028,0.0691934,236.207,257.158
2016-01-05 17:00,0.296452,285.045,274.524,252.29,275.857,274.773,255.784,0.318711,0.340635,234.113,253.595
2016-01-05 18:00,0.0315818,289.647,289.165,261.731,291.686,290.375,264.721,0.0761068,0.0515044,238.546,262.151
2016-01-05 19:00,0.0807017,290.301,289.379,261.519,291.817,290.784,264.837,0.127342,0.0925831,238.608,261.834
2016-01-05 20:00,0.123649,289.91,289.805,262.049,292.6,291.193,264.837,0.217441,0.163241,238.671,261.834
2016-01-05 21:00,-0.0125972,288.841,289.805,261.944,292.34,291.057,265.185,0.0,-0.0127176,238.168,261.515
2016-01-05 22:00,-0.00372608,289.113,289.699,262.049,292.34,291.329,264.953,0.0,0.0,237.849,261.194
2016-01-05 23:00,-0.00222729,289.113,289.593,261.838,292.209,290.784,264.488,0.0,0.0,238.546,261.435
2016-01-06 00:00,0.0,288.841,289.593,262.049,292.209,290.784,264.837,0.0,0.0,238.857,261.113
2016-01-06 01:00,-0.00135651,288.291,289.165,261.625,291.948,290.784,264.721,0.0,0.0,238.608,260.871
2016-01-06 02:00,0.0012119,288.977,289.486,262.155,292.079,290.921,265.069,0.0,0.0,238.608,260.952
2016-01-06 03:00,-0.00115369,288.568,289.699,262.155,292.34,290.921,265.185,0.0,0.0,238.546,260.952
2016-01-06 04:00,0.0,288.841,289.699,262.049,292.209,291.057,264.605,0.0,0.0,238.981,261.113
2016-01-06 05:00,0.0,288.841,289.486,262.261,291.948,290.648,264.721,0.0,0.0,239.349,261.435
2016-01-06 06:00,-0.00142453,284.087,285.321,260.119,288.358,287.048,263.67,0.0,0.0,240.134,261.675
2016-01-06 07:00,0.0,286.271,287.212,261.091,289.835,288.584,264.022,0.0,0.0,240.43,261.914
2016-01-06 08:00,0.0,280.239,281.978,258.022,284.641,284.492,262.136,0.0,0.0,240.371,261.834
2016-01-06 09:00,0.0,279.081,281.505,257.459,283.797,283.917,262.017,0.0,0.0,240.548,261.755
2016-01-06 10:00,-0.276613,280.982,282.214,258.358,284.501,284.205,262.61,-0.624554,-0.605058,241.131,261.914
2016-01-06 11:00,0.27028,288.012,285.994,260.876,288.493,287.188,263.2,0.356574,0.298247,240.782,261.834
2016-01-06 12:00,0.0250617,288.977,289.486,262.786,291.817,290.511,265.069,0.124666,0.0664159,240.548,261.993
2016-01-06 13:00,0.0156335,289.113,289.486,262.89,291.948,290.648,264.837,0.086985,0.0428394,240.665,262.151
2016-01-06 14:00,0.0205234,289.514,289.272,262.89,291.817,290.375,264.605,0.0679287,0.037672,240.724,262.151
2016-01-06 15:00,0.00346108,289.247,289.805,262.995,292.079,290.511,264.953,0.0439574,0.0192179,240.957,262.466
2016-01-06 16:00,0.00525816,289.247,289.699,262.995,292.079,290.648,264.721,0.0430367,0.0212337,240.841,262.545
2016-01-06 17:00,0.003887,289.381,289.699,263.099,292.079,290.511,264.721,0.041139,0.0176587,241.131,262.701
2016-01-06 18:00,0.00725255,289.514,289.911,263.411,292.209,290.648,264.255,0.0552665,0.0268469,241.647,262.623
2016-01-06 19:00,0.0181984,289.647,289.699,263.515,292.079,290.921,264.837,0.0893698,0.0514428,241.361,262.623
2016-01-06 20:00,0.102518,289.514,289.593,262.995,291.817,290.648,264.837,0.213058,0.159951,242.378,262.857
2016-01-06 21:00,0.0,288.152,288.628,262.366,291.029,289.826,264.837,0.0,0.0,242.155,262.779
2016-01-06 22:00,0.0,285.512,286.772,261.519,289.166,288.167,263.787,0.0,0.0,242.489,263.012
2016-01-06 23:00,-0.00447107,286.121,287.102,262.049,289.568,288.584,263.905,0.0,0.0,241.986,262.779
2016-01-07 00:00,0.0,281.165,283.148,259.354,285.895,285.35,262.965,0.0,0.0,242.655,262.857
2016-01-07 01:00,0.0,279.278,281.148,257.685,283.656,283.484,262.136,0.0,0.0,242.433,262.466
2016-01-07 02:00,0.0,279.278,281.624,258.134,283.938,283.629,262.728,0.0,0.0,242.71,262.623
2016-01-07 03:00,0.0,281.883,282.566,258.913,285.201,284.349,262.61,0.0,0.0,243.039,262.701
2016-01-07 04:00,0.00116366,285.202,285.095,260.228,287.679,286.767,263.436,0.0,0.0,243.093,262.935
2016-01-07 05:00,0.0,281.165,282.214,258.58,284.921,284.492,262.373,0.0,0.0,243.633,263.244
2016-01-07 06:00,0.0,287.729,288.087,262.261,290.234,289.137,263.553,0.0,0.0,243.256,263.012
2016-01-07 07:00,0.0,282.408,282.566,259.024,285.061,284.492,262.373,0.0,0.0,243.364,263.244
2016-01-07 08:00,0.0025241,284.249,284.3,259.902,286.585,285.493,262.728,0.0,0.0,243.039,263.706
2016-01-07 09:00,-0.00472856,288.841,289.593,263.307,291.817,290.375,264.255,0.0,0.0,243.202,263.476
2016-01-07 10:00,-0.0902454,288.841,289.699,263.307,292.209,290.921,264.721,-0.458464,-0.364432,243.526,263.858
2016-01-07 11:00,0.0314694,289.381,289.805,263.307,292.34,291.057,265.069,0.21849,0.114373,243.472,263.706
2016-01-07 12:00,0.0908158,290.041,289.058,262.786,291.423,290.375,264.488,0.172348,0.120138,243.579,263.552
2016-01-07 13:00,0.00892378,288.977,289.699,263.411,292.34,291.057,264.721,0.0755575,0.0382886,243.633,263.476
2016-01-07 14:00,-0.00372549,289.113,290.335,263.928,292.73,291.735,265.069,0.052047,0.0225666,243.526,263.552
2016-01-07 15:00,0.00345365,289.113,290.017,263.411,292.47,291.057,265.185,0.045325,0.02092,243.31,263.399
2016-01-07 16:00,0.00174786,289.247,290.335,263.515,292.86,291.735,265.416,0.0369978,0.0176457,242.984,263.399
2016-01-07 17:00,0.00387294,289.247,290.123,263.618,292.73,291.464,265.185,0.0409901,0.0175948,243.039,263.552
2016-01-07 18:00,0.00962183,289.381,289.911,262.89,292.34,291.329,264.837,0.0529541,0.0291414,243.793,263.934
2016-01-07 19:00,0.0108328,289.247,289.699,262.995,292.34,291.057,264.488,0.0856066,0.0437455,244.217,263.934
2016-01-07 20:00,0.3105,289.113,288.736,262.261,291.16,290.101,264.372,0.324759,0.322688,243.899,263.782
2016-01-07 21:00,0.0,287.3,288.628,262.366,291.029,289.689,264.255,0.0,0.0,243.579,263.552
2016-01-07 22:00,0.0,288.291,289.165,262.786,291.817,290.511,264.721,0.0,0.0,243.633,263.629
2016-01-07 23:00,-0.00224395,287.3,288.195,262.155,290.5,289.413,264.372,0.0,0.0,244.164,263.706
2016-01-08 00:00,-0.00164968,285.202,286.439,261.198,288.628,288.027,263.67,0.0,0.0,243.793,263.629
2016-01-08 01:00,0.0,284.888,285.095,260.553,287.679,286.485,262.728,0.0,0.0,243.686,263.244
2016-01-08 02:00,-0.00121368,279.667,280.308,257.798,283.514,283.049,261.898,0.0,0.0,243.579,263.167
2016-01-08 03:00,0.0,288.152,289.058,262.786,291.292,289.964,264.255,0.0,0.0,243.686,263.706
2016-01-08 04:00,0.0,288.012,288.843,262.681,291.029,289.689,264.138,0.0,0.0,243.793,263.858
2016-01-08 05:00,0.00124409,288.43,289.165,262.89,291.16,290.101,264.721,0.0,0.0,244.217,263.934
2016-01-08 06:00,0.0,285.357,286.439,260.984,288.763,287.748,264.255,0.0,0.0,244.426,264.01
2016-01-08 07:00,0.0,287.444,288.52,262.155,290.5,289.413,264.138,0.0,0.0,244.842,264.01
2016-01-08 08:00,0.0,288.012,288.843,262.049,291.16,290.101,264.138,0.0,0.0,244.739,264.54
2016-01-08 09:00,-0.00471546,287.3,287.651,261.625,290.101,288.861,264.255,0.0,0.0,244.997,264.54
2016-01-08 10:00,-0.310227,286.421,287.102,261.091,289.434,288.584,264.138,-0.562862,-0.581644,244.945,264.01
2016-01-08 11:00,0.321264,289.381,287.541,261.198,289.968,288.861,264.138,0.410687,0.375211,244.945,264.615
2016-01-08 12:00,0.0125188,289.381,289.805,262.786,292.209,291.329,265.069,0.113946,0.0568731,245.099,264.54
2016-01-08 13:00,0.0133689,289.247,290.017,262.786,292.6,291.329,265.069,0.0773496,0.0382407,244.739,264.464
2016-01-08 14:00,0.00743788,289.113,289.911,263.203,292.47,291.193,264.721,0.0582532,0.0262814,245.048,264.69
2016-01-08 15:00,0.0017229,289.113,290.017,262.786,292.6,291.329,265.185,0.0437634,0.0191331,244.635,264.314
2016-01-08 16:00,0.00348565,289.113,290.123,262.89,292.47,291.329,264.837,0.0398425,0.0175949,244.894,264.615
2016-01-08 17:00,0.00578778,288.977,290.017,262.576,292.6,291.464,265.185,0.042471,0.0214247,245.304,264.765
2016-01-08 18:00,0.0311117,289.514,289.593,262.155,292.34,291.329,264.953,0.0688951,0.0459057,246.456,265.655
2016-01-08 19:00,0.068059,290.301,289.699,262.471,292.34,291.057,264.488,0.118284,0.0867911,247.426,265.581
2016-01-08 20:00,0.12529,289.647,289.699,262.681,292.209,290.648,264.255,0.219743,0.171662,247.234,265.434
2016-01-08 21:00,0.0,288.705,289.593,262.89,292.079,290.648,264.605,0.0,0.0,246.554,265.063
2016-01-08 22:00,0.0,283.428,283.148,259.024,286.172,285.065,262.136,0.0,0.0,246.208,264.54
2016-01-08 23:00,0.0,283.093,283.264,258.913,286.172,285.065,262.492,0.0,0.0,246.159,264.54
2016-01-09 00:00,0.0,284.888,285.546,260.337,287.951,286.767,262.728,0.0,0.0,246.009,264.54
2016-01-09 01:00,-0.00136203,288.291,289.165,262.366,291.423,289.964,264.372,0.0,0.0,244.531,264.162
2016-01-09 02:00,0.00121461,286.717,286.772,260.984,289.3,288.027,263.083,0.0,0.0,243.472,263.782
2016-01-09 03:00,0.0,277.24,278.721,256.32,281.799,281.882,261.301,0.0,0.0,243.147,263.012
2016-01-09 04:00,-0.00116345,276.594,279.58,256.089,282.087,282.175,260.942,0.0,0.0,242.655,263.244
2016-01-09 05:00,0.0,284.73,285.658,259.574,287.951,287.048,263.083,0.0,0.0,242.544,263.629
2016-01-09 06:00,0.0,288.705,290.017,262.471,292.6,291.464,264.605,0.0,0.0,242.042,263.552
2016-01-09 07:00,-0.00176998,288.705,289.911,262.471,292.34,291.193,264.721,0.0,0.0,242.211,263.322
2016-01-09 08:00,0.0,288.705,289.486,261.944,291.686,290.375,264.138,0.0,0.0,242.099,263.476
2016-01-09 09:00,0.0,281.165,283.032,258.134,285.757,285.777,262.728,0.0,0.0,242.378,263.09
2016-01-09 10:00,-0.131021,279.667,282.448,257.798,285.201,285.065,262.728,-0.628632,-0.529093,240.312,262.072
2016-01-09 11:00,0.447426,285.202,282.799,258.022,285.618,285.208,262.255,0.522899,0.489876,237.849,260.381
2016-01-09 12:00,0.462806,284.73,280.187,256.32,282.374,281.882,260.581,0.54807,0.546154,236.139,258.713
2016-01-09 13:00,0.342649,284.888,278.845,256.089,280.785,280.406,258.638,0.418225,0.415559,236.071,257.855
2016-01-09 14:00,0.237561,287.01,283.956,259.244,286.447,285.493,261.898,0.323714,0.286675,236.341,259.051
2016-01-09 15:00,0.175316,284.57,283.148,258.358,285.618,285.065,261.66,0.216839,0.190874,235.936,258.372
2016-01-09 16:00,0.293657,248.394,231.14,228.749,231.683,231.203,227.94,0.588495,0.643802,228.224,229.137
2016-01-09 17:00,0.320954,251.282,231.14,228.749,231.408,230.688,228.109,0.688329,0.76058,227.959,228.96
2016-01-09 18:00,0.402354,255.521,229.97,227.817,230.574,230.17,226.918,0.772056,0.862875,227.87,228.782
2016-01-09 19:00,0.284245,284.57,277.727,255.16,278.725,276.477,255.28,0.403122,0.398161,234.968,252.439
2016-01-09 20:00,0.306971,270.989,269.201,249.542,271.625,271.444,254.773,0.705474,0.85888,235.108,251.949
2016-01-09 21:00,0.0,272.836,273.199,251.799,274.623,273.832,256.035,0.0,0.0,235.247,250.95
2016-01-09 22:00,0.0,284.087,283.841,259.024,286.447,285.065,261.062,0.0,0.0,234.968,254.907
2016-01-09 23:00,0.0,287.587,287.541,261.305,289.968,288.584,262.492,0.0,0.0,235.178,256.628
2016-01-10 00:00,0.0,285.045,285.095,260.119,287.951,286.907,262.728,0.0,0.0,233.677,255.366
2016-01-10 01:00,0.0,270.713,267.18,248.771,267.69,266.329,249.305,0.0,0.0,231.473,245.918
2016-01-10 02:00,0.00121557,286.121,285.546,260.228,287.951,286.767,262.255,0.0,0.0012272,233.085,253.405
2016-01-10 03:00,0.0,267.123,259.039,244.07,257.928,256.18,242.956,0.0,0.0,230.101,241.093
2016-01-10 04:00,0.0,280.613,273.865,253.14,273.843,271.605,251.814,0.0,0.0,230.348,245.46
2016-01-10 05:00,0.0,239.711,236.576,230.921,236.186,234.95,230.604,0.0,0.0,228.488,232.669
2016-01-10 06:00,0.0,248.394,245.89,236.146,246.355,245.186,238.128,0.0,0.0,231.709,240.576
2016-01-10 07:00,0.0,244.063,243.94,235.01,244.349,243.461,236.46,0.0,0.0,230.184,238.165
2016-01-10 08:00,-0.00251225,233.989,235.538,230.743,235.414,234.95,230.931,0.0,0.0,228.488,232.669
2016-01-10 09:00,0.0,232.213,231.427,228.378,231.408,230.688,227.431,0.0,0.0,226.685,229.137
2016-01-10 10:00,-0.129532,230.231,230.265,227.817,230.012,229.909,226.056,-0.365582,-0.305131,225.931,227.694
2016-01-10 11:00,0.42849,242.013,225.611,225.897,225.919,225.597,223.592,0.816304,0.941511,223.746,225.21
2016-01-10 12:00,0.359225,244.063,224.279,225.504,224.384,223.619,222.692,0.801383,0.892457,222.585,223.377
2016-01-10 13:00,0.337662,247.601,222.552,224.507,222.485,221.875,220.86,0.831361,0.91502,221.258,221.436
2016-01-10 14:00,0.281532,245.913,222.198,224.908,222.162,221.875,220.675,0.791962,0.867629,220.219,220.989
2016-01-10 15:00,0.459482,288.977,277.476,255.043,280.054,279.211,259.249,0.51824,0.543495,239.227,255.457
2016-01-10 16:00,0.0138579,288.977,287.978,260.876,290.764,288.861,262.847,0.0528008,0.0297296,239.288,255.366
2016-01-10 17:00,0.038287,289.647,287.978,260.553,290.632,288.584,262.492,0.0745603,0.0521815,237.785,254.443
2016-01-10 18:00,0.0734147,290.558,287.432,260.228,290.5,288.722,262.492,0.104269,0.0836799,238.733,255.639
2016-01-10 19:00,0.0704803,290.041,288.52,260.876,291.16,289.137,263.083,0.122335,0.0853849,239.349,255.73
2016-01-10 20:00,0.438413,275.251,274.916,252.412,277.075,276.631,258.147,0.567723,0.685602,241.246,257.508
2016-01-10 21:00,0.0,283.76,282.331,256.892,284.361,282.904,260.098,0.0,0.0,242.433,259.135
2016-01-10 22:00,0.0,286.421,286.882,259.464,289.032,287.329,262.255,0.0,0.0,242.544,260.952
2016-01-10 23:00,0.0,287.155,287.869,260.228,290.5,289.276,263.67,0.0,0.0,240.312,261.834
2016-01-11 00:00,-0.00166112,288.291,289.593,260.661,292.34,291.193,264.138,0.0,0.0,240.193,263.552
2016-01-11 01:00,0.00136588,283.594,284.642,258.134,287.134,286.202,262.492,0.0,0.0,240.134,262.23
2016-01-11 02:00,0.0,279.278,280.669,255.51,283.088,282.613,260.942,0.0,0.0,241.817,262.935
2016-01-11 03:00,0.00115546,287.444,288.736,259.683,290.764,289.551,263.787,0.0,0.0,245.759,264.914
2016-01-11 04:00,-0.00116339,282.753,283.148,256.778,285.618,284.492,261.421,0.0,0.0,247.283,265.137
2016-01-11 05:00,0.0,286.717,286.661,259.134,289.032,287.609,262.492,0.0,0.0,245.809,264.914
2016-01-11 06:00,0.00141925,288.012,289.058,260.769,291.423,289.964,263.787,0.0,0.0,246.159,265.801
2016-01-11 07:00,0.00176655,279.473,281.029,255.626,283.23,282.613,260.581,0.0,0.0,245.709,265.137
2016-01-11 08:00,-0.00250905,287.444,288.303,260.228,290.764,289.276,263.436,0.0,0.0,245.91,265.286
2016-01-11 09:00,-0.00468498,282.753,283.38,256.778,285.479,284.492,262.136,0.0,0.0,243.472,263.706
2016-01-11 10:00,-0.0428212,286.864,287.102,259.244,289.032,287.888,262.728,-0.398823,-0.389075,243.846,263.934
2016-01-11 11:00,0.069277,289.113,288.628,260.337,290.764,289.137,263.2,0.239959,0.158953,243.202,262.935
2016-01-11 12:00,0.321318,288.841,284.185,257.91,286.585,285.065,261.779,0.401485,0.381079,242.155,262.388
2016-01-11 13:00,0.0532215,289.247,288.412,260.661,290.897,289.413,263.436,0.114534,0.0783567,241.704,262.779
2016-01-11 14:00,0.0147855,288.43,288.52,260.876,291.029,289.276,263.318,0.0672887,0.037317,241.704,262.701
2016-01-11 15:00,0.03933,288.841,287.322,260.228,289.835,288.306,263.2,0.069497,0.0483377,242.71,263.012
2016-01-11 16:00,0.153677,287.3,281.978,257.572,284.361,283.194,261.062,0.179826,0.179551,240.665,261.914
2016-01-11 17:00,0.0438533,288.977,287.322,260.769,289.701,288.306,263.318,0.074261,0.053897,240.312,262.072
2016-01-11 18:00,0.143685,290.041,285.77,260.119,288.493,286.907,262.847,0.157557,0.140303,238.671,261.515
2016-01-11 19:00,0.188726,290.685,286.661,260.769,289.166,287.748,262.847,0.213059,0.204644,237.072,260.545
2016-01-11 20:00,0.699399,281.526,275.951,254.572,278.278,277.701,258.515,0.563641,0.731606,237.137,259.304
2016-01-11 21:00,0.0,287.01,287.651,261.519,290.101,288.861,263.2,0.0,0.0,236.139,260.052
2016-01-11 22:00,0.00389795,281.883,281.742,258.022,284.361,283.629,261.66,0.0,0.0,235.108,258.967
2016-01-11 23:00,-0.00227922,283.76,284.071,259.574,286.172,284.922,262.255,0.0,0.0,234.401,258.543
2016-01-12 00:00,0.0,287.155,287.432,261.625,290.234,288.445,263.787,0.0,0.0,234.756,258.628
2016-01-12 01:00,0.0,279.859,281.029,258.469,283.514,282.467,261.062,0.0,0.0,233.968,256.982
2016-01-12 04:00,-0.00116341,281.346,281.267,259.024,284.361,282.904,260.942,0.0,0.0,234.543,255.091
2016-01-12 05:00,0.0,287.444,287.76,262.995,290.632,288.722,263.436,0.0,0.0,235.593,255.639
2016-01-12 06:00,-0.00141844,277.24,278.598,257.459,281.655,280.85,260.701,0.0,0.0,236.004,255.457
2016-01-12 07:00,-0.00176507,286.569,285.77,261.944,288.628,287.188,262.61,0.0,0.0,237.137,255.911
2016-01-12 08:00,0.0,283.093,282.799,259.902,285.895,284.636,261.301,0.0,0.0,237.592,255.73
2016-01-12 09:00,0.0,287.587,287.541,262.786,290.367,288.445,263.2,0.0,0.0,237.006,255.73
2016-01-12 10:00,-0.212997,279.473,279.336,258.246,282.66,281.441,260.942,-0.541034,-0.516081,238.104,256.181
2016-01-12 11:00,0.358618,288.012,283.726,260.769,286.722,285.065,262.017,0.436817,0.400156,238.104,255.911
2016-01-12 12:00,0.364426,290.171,280.187,259.024,283.088,282.175,260.701,0.390314,0.39621,237.785,255.639
2016-01-12 13:00,0.502421,288.291,277.727,256.778,280.347,279.959,260.34,0.52847,0.56532,239.043,256.628
2016-01-12 14:00,0.2895,288.291,281.029,259.024,283.938,282.467,261.182,0.337234,0.344392,239.714,256.982
2016-01-12 15:00,0.165418,287.155,282.916,260.011,285.895,284.492,261.54,0.187708,0.184215,240.193,257.508
2016-01-12 16:00,0.297738,285.665,278.845,257.91,281.366,280.702,260.581,0.314754,0.338809,240.253,257.769
2016-01-12 17:00,0.391162,287.01,277.852,257.12,280.931,280.257,260.219,0.397114,0.423656,239.104,258.028
2016-01-12 18:00,0.11479,289.514,286.217,262.471,288.897,287.048,263.2,0.144797,0.122983,237.849,257.682
2016-01-12 19:00,0.478289,284.73,278.101,257.798,280.931,280.554,260.822,0.493002,0.538845,236.808,256.36
2016-01-12 20:00,0.52871,287.155,282.331,260.337,285.061,283.629,261.182,0.461648,0.542105,236.94,256.45
2016-01-12 21:00,0.0,279.473,278.968,258.022,281.799,280.998,260.581,0.0,0.0,237.528,256.894
2016-01-12 22:00,-0.00392931,285.045,285.433,262.049,288.222,286.626,262.847,0.0,0.0,236.207,256.091
2016-01-12 23:00,-0.00228843,285.357,285.321,261.944,287.815,286.485,262.847,0.0,0.0,236.808,256.271
2016-01-13 00:00,-0.00166905,283.76,283.495,260.876,286.31,284.922,261.898,0.0,0.0,236.408,256.539
2016-01-13 01:00,-0.00136987,281.526,281.148,259.134,283.938,283.194,261.062,0.0,0.0,236.274,256.539
2016-01-13 02:00,-0.00121862,284.249,284.071,260.769,286.447,285.35,262.255,0.0,0.00123027,237.268,257.333
2016-01-13 03:00,0.0,282.753,282.214,260.011,284.781,283.773,261.898,0.0,0.0,238.483,257.855
2016-01-13 04:00,0.0,277.24,277.977,257.233,280.639,280.554,260.461,0.0,0.0,238.294,257.595
2016-01-13 05:00,0.0,283.924,284.185,260.769,286.997,285.635,262.728,0.0,0.0,238.671,257.855
2016-01-13 06:00,-0.00141773,282.408,282.331,259.793,285.479,284.349,261.898,0.0,0.0,237.203,256.805
2016-01-13 07:00,0.0,287.155,286.882,262.471,289.968,288.167,263.318,0.0,0.0,237.528,257.421
2016-01-13 08:00,0.0,276.594,278.226,257.12,281.076,280.998,261.301,0.0,0.0,236.609,257.508
2016-01-13 09:00,0.0,284.57,284.982,261.305,287.679,286.202,262.492,0.0,0.0,236.139,257.769
2016-01-13 10:00,-0.170036,275.932,277.727,257.233,280.931,280.702,260.942,-0.575878,-0.514985,237.268,257.682
2016-01-13 11:00,0.640787,284.41,278.101,257.346,281.366,281.146,261.182,0.632979,0.66594,236.808,257.07
2016-01-13 12:00,0.634276,288.43,277.727,257.006,280.931,280.85,260.942,0.616017,0.659172,236.609,257.158
2016-01-13 13:00,0.503585,290.939,278.35,257.798,281.943,281.441,260.822,0.486228,0.515088,236.408,256.36
2016-01-13 14:00,0.474588,289.647,278.101,257.572,281.366,280.998,260.461,0.473478,0.497696,234.897,255.091
2016-01-13 15:00,0.352005,288.152,277.852,257.572,281.366,280.85,260.822,0.332597,0.346786,235.038,255.366
2016-01-13 16:00,0.428802,285.512,276.845,256.778,280.054,279.81,260.581,0.454558,0.483117,235.317,254.907
2016-01-13 17:00,0.281744,291.065,279.091,258.469,282.517,281.588,261.182,0.265769,0.267256,234.543,254.722
2016-01-13 18:00,0.451965,290.813,277.977,257.91,281.51,281.293,261.301,0.412266,0.439821,233.159,255.275
2016-01-13 19:00,0.491466,289.514,279.823,258.469,282.946,282.321,261.182,0.462682,0.499634,232.784,254.907
2016-01-13 20:00,0.72091,281.526,277.35,256.892,280.347,280.257,260.461,0.630968,0.744157,233.159,255.091
2016-01-13 21:00,0.0,276.376,277.601,257.233,280.785,280.406,260.942,0.0,0.0,232.328,254.907
2016-01-13 22:00,-0.00396147,278.279,278.845,258.022,282.231,281.588,260.942,0.0,0.0,231.63,253.88
2016-01-13 23:00,0.0,276.376,277.476,257.459,280.785,280.406,260.098,0.0,0.00231976,232.02,253.117
2016-01-14 00:00,0.0,275.251,276.845,257.12,280.054,279.959,259.977,0.0,0.0,233.234,253.595
2016-01-14 01:00,0.00137191,275.707,276.971,257.346,280.201,280.108,260.219,0.0,0.0,233.75,253.595
2016-01-14 02:00,0.0,276.376,277.476,257.346,280.639,280.406,260.701,0.0,0.0,234.543,254.068
2016-01-14 03:00,-0.00115688,277.869,277.852,257.798,281.221,280.702,260.942,0.0,0.0,234.041,254.162
2016-01-14 04:00,-0.00116358,277.026,277.601,257.459,280.785,280.257,260.701,0.0,0.0,234.257,254.722
2016-01-14 05:00,0.0,276.155,277.35,257.459,280.493,280.108,260.581,0.0,0.0,232.86,253.88
2016-01-14 06:00,0.0,275.48,276.591,256.892,280.054,279.661,260.219,0.0,0.0,235.178,254.629
2016-01-14 07:00,0.00176262,279.859,279.213,258.58,282.66,281.293,260.461,0.0,0.0,235.731,254.629
2016-01-14 08:00,-0.00250172,277.869,278.35,258.022,281.51,280.998,260.822,-0.0021182,0.0,234.472,254.536
2016-01-14 10:00,-0.170197,274.551,276.208,256.664,279.318,278.911,260.098,-0.648475,-0.558428,232.86,253.595
2016-01-14 11:00,0.626999,281.165,276.971,256.549,280.054,279.511,259.856,0.695452,0.708952,234.968,253.785
2016-01-14 12:00,0.462336,286.421,278.101,257.233,280.931,280.257,260.34,0.48604,0.494949,235.799,254.349
2016-01-14 13:00,0.392269,289.514,278.721,257.91,281.655,280.998,260.701,0.395574,0.391569,232.328,253.309
2016-01-14 14:00,0.453199,285.818,277.35,256.892,280.054,279.661,260.098,0.506452,0.513102,231.473,252.731
2016-01-14 15:00,0.447615,285.202,276.463,256.549,279.613,279.211,259.735,0.469437,0.496399,230.916,251.85
2016-01-14 16:00,0.422184,283.428,276.718,256.205,279.613,279.211,260.219,0.467451,0.491793,234.113,253.309
2016-01-14 17:00,0.444348,286.864,276.463,256.434,279.613,279.361,260.098,0.438402,0.463803,235.662,254.443
2016-01-14 18:00,0.472602,289.91,276.718,256.664,280.054,279.511,259.614,0.43742,0.465426,235.386,253.405
2016-01-14 19:00,0.517994,288.705,276.971,256.778,280.201,279.661,260.098,0.453012,0.488542,233.968,253.5
2016-01-14 20:00,0.865842,283.428,274.524,255.043,277.075,276.323,256.909,0.679301,0.809964,231.552,251.652
2016-01-14 21:00,0.0,274.787,275.694,255.51,278.427,277.853,258.27,0.0,0.0,230.101,250.95
2016-01-14 22:00,0.00399443,262.475,255.05,243.084,254.263,252.732,240.646,0.0,0.0,225.449,239.789
2016-01-14 23:00,0.0,263.255,256.294,243.93,255.827,254.281,242.241,0.0,0.0,225.254,238.578
2016-01-15 00:00,0.0,248.394,239.799,234.515,238.693,235.677,230.604,0.0,-0.00169325,223.224,231.198
2016-01-15 01:00,0.0,266.466,261.501,247.597,261.25,259.139,245.489,0.0,0.0,226.311,242.971
2016-01-15 02:00,0.0,275.707,274.785,255.51,277.226,276.169,257.406,0.0,0.0,228.488,249.825
2016-01-15 03:00,0.0,261.666,253.595,242.513,251.856,249.955,238.577,0.0,0.0,224.86,238.027
2016-01-15 04:00,0.0,271.798,267.764,251.18,269.515,268.173,251.422,0.0,0.0,227.147,245.575
2016-01-15 05:00,0.0,259.505,249.583,240.171,247.878,244.973,235.072,0.0,0.0,223.118,235.146
2016-01-15 06:00,0.0,269.576,266.886,250.303,267.857,265.99,249.171,0.0,0.0,226.592,245.114
2016-01-15 07:00,-0.00176165,282.923,279.213,257.685,280.347,275.551,253.24,0.0,0.0,227.959,246.929
2016-01-15 08:00,0.0,259.954,250.371,240.32,249.368,244.973,236.153,0.0,0.0,227.147,237.608
2016-01-15 09:00,0.0,271.531,265.243,248.9,265.138,262.185,246.869,0.0,0.0,228.312,243.093
2016-01-15 10:00,-0.0854432,287.444,287.102,262.471,289.701,287.329,262.136,-0.253206,-0.21565,229.263,249.513
2016-01-15 11:00,0.562937,287.444,264.329,248.642,264.27,259.139,245.211,0.524302,0.562004,229.852,243.698
2016-01-15 12:00,0.0928786,283.093,278.721,256.892,280.054,276.938,255.784,0.204464,0.159403,229.685,247.371
2016-01-15 13:00,0.274809,262.475,248.38,238.81,248.307,247.085,238.876,0.444885,0.474971,228.835,238.165
2016-01-15 14:00,0.24887,265.095,254.69,242.513,255.244,253.703,242.956,0.466367,0.489565,230.511,243.818
2016-01-15 15:00,0.322859,259.505,237.339,232.663,237.702,237.109,232.707,0.739944,0.815717,228.136,234.236
2016-01-15 16:00,0.241849,282.923,259.373,245.177,260.341,257.486,245.072,0.29995,0.31122,231.236,244.294
2016-01-15 17:00,0.0449918,289.381,283.148,259.244,285.061,280.702,257.777,0.0746017,0.0529922,232.097,248.562
2016-01-15 18:00,0.453801,284.249,257.854,243.93,259.421,258.591,247.415,0.41739,0.460465,232.709,246.595
2016-01-15 19:00,0.638629,287.729,256.819,243.084,258.304,256.555,245.905,0.557892,0.631089,232.709,246.032
2016-01-15 20:00,0.919366,278.482,257.683,244.21,259.606,257.671,246.732,0.758635,0.920289,232.709,245.575
2016-01-15 21:00,-0.0174628,285.665,283.726,259.354,286.172,283.339,259.735,0.0,-0.0176298,233.677,249.928
2016-01-15 22:00,-0.0040282,280.799,279.945,256.549,282.946,281.146,259.127,0.0,0.0,234.472,250.442
2016-01-15 23:00,0.0,287.155,285.546,259.793,287.815,284.922,260.581,0.0,0.0,233.677,250.34
2016-01-16 00:00,-0.00168139,283.594,281.86,257.798,284.079,281.735,259.005,0.0,0.0,232.405,249.928
2016-01-16 01:00,0.0,276.155,270.607,250.806,271.945,267.506,250.501,0.0,0.0,232.935,247.699
2016-01-16 02:00,0.00122193,262.074,254.328,241.354,253.669,250.757,240.646,0.0,0.0,231.63,240.185
2016-01-16 03:00,0.0,281.705,277.852,254.926,280.054,276.631,255.153,0.0,0.0,232.405,247.261
2016-01-16 04:00,-0.00116391,286.121,284.982,258.691,287.679,284.779,259.492,0.0,0.0,234.113,249.928
2016-01-16 05:00,-0.0012415,254.396,255.05,241.5,257.55,257.301,246.319,0.0,0.0,236.207,246.595
2016-01-16 06:00,0.0,280.982,277.224,253.98,279.022,275.24,254.773,0.0,0.0,238.357,250.849
2016-01-16 07:00,0.00176086,282.408,282.448,257.233,285.201,283.339,259.614,0.0,0.0,240.014,253.88
2016-01-16 08:00,0.0,272.58,275.046,252.656,277.678,277.243,257.53,0.0,0.0,242.984,256.36
2016-01-16 09:00,0.0,279.667,279.945,255.393,282.66,281.735,259.735,0.0,0.0,244.531,258.882
2016-01-16 10:00,-0.602422,280.799,281.029,256.205,283.514,282.467,260.461,-0.61937,-0.695064,244.687,260.135
2016-01-16 11:00,0.735951,285.512,277.476,254.099,280.347,279.959,259.856,0.675936,0.7178,243.953,260.463
2016-01-16 12:00,0.151327,291.563,286.105,259.244,288.897,287.048,262.373,0.196114,0.155891,243.31,261.033
2016-01-16 13:00,0.0285072,288.705,288.195,260.661,290.632,288.999,263.2,0.0946913,0.0575594,240.899,261.113
2016-01-16 14:00,0.114964,289.91,286.772,260.228,289.3,287.888,262.728,0.163779,0.136328,239.104,261.113
2016-01-16 15:00,0.0101104,288.152,288.628,261.305,291.16,289.689,263.67,0.0499359,0.0255175,237.333,260.871
2016-01-16 16:00,0.0084848,288.568,288.843,261.625,291.423,290.101,264.605,0.0445412,0.0239846,236.408,260.708
2016-01-16 17:00,0.0130647,288.705,288.628,261.412,291.16,289.276,263.67,0.0458278,0.0263792,234.897,259.721
2016-01-16 18:00,0.0572596,287.155,284.185,258.58,285.757,284.061,260.098,0.0969632,0.0786175,231.076,255.183
2016-01-16 19:00,0.0703552,289.247,287.978,261.305,290.632,288.999,263.2,0.119139,0.0845568,232.097,257.855
2016-01-16 20:00,0.145222,288.43,286.55,260.553,289.032,287.188,261.779,0.207089,0.185192,231.473,256.628
2016-01-16 21:00,0.0,282.923,279.213,255.277,280.201,277.701,255.532,0.0,0.0,229.601,252.634
2016-01-16 22:00,-0.00406279,268.382,255.409,241.354,253.867,251.156,238.428,0.0,0.0,224.46,237.748
2016-01-16 23:00,-0.00232681,271.261,259.706,243.93,257.55,254.281,239.913,0.0,0.0,225.058,238.85
2016-01-17 00:00,0.00168562,264.739,256.469,241.936,255.244,253.122,242.097,0.0,0.0,227.51,240.446
2016-01-17 01:00,0.00137826,276.594,269.908,250.051,270.169,267.506,249.171,0.0,0.0,228.835,247.699
2016-01-17 02:00,0.0,278.684,273.199,252.412,273.372,270.635,251.028,0.0,0.0,227.87,247.261
2016-01-17 03:00,0.0,278.075,271.023,251.552,271.464,268.339,250.236,0.0,0.0,227.87,245.575
2016-01-17 04:00,0.0,285.665,285.208,259.902,287.679,285.777,261.898,0.0,0.0,229.601,252.537
2016-01-17 05:00,0.00124144,287.587,287.541,261.305,290.101,288.167,262.847,0.0,0.0,230.018,252.047
2016-01-17 06:00,0.00141583,287.587,287.212,261.625,289.835,287.888,262.255,0.0,0.0,230.835,251.552
2016-01-17 07:00,0.0,287.729,287.432,261.944,290.101,288.027,262.61,0.0,0.0,232.557,252.244
2016-01-17 08:00,-0.00249791,285.665,285.095,260.661,287.951,286.06,261.898,0.0,0.0,232.481,252.146
2016-01-17 09:00,0.0,285.97,285.095,260.661,287.679,285.35,261.421,0.0,0.0,232.784,251.949
2016-01-17 10:00,-0.130444,281.883,280.669,258.134,283.656,282.028,259.856,-0.51542,-0.395074,233.159,252.244
2016-01-17 11:00,0.0248643,288.152,287.322,262.049,290.101,288.027,262.847,0.210526,0.112959,233.01,252.828
2016-01-17 12:00,0.0307996,288.568,287.212,262.261,289.968,287.888,262.965,0.125174,0.068407,233.53,253.117
2016-01-17 13:00,0.00874772,288.291,287.432,262.049,290.5,288.306,263.2,0.0740668,0.0353254,233.968,253.021
2016-01-17 14:00,0.00727816,288.152,287.322,261.838,289.968,288.027,262.492,0.0570022,0.0257171,233.968,253.5
2016-01-17 15:00,0.00335924,288.43,287.541,262.049,290.234,288.306,262.728,0.0455082,0.0203481,233.75,253.69
2016-01-17 16:00,0.0101439,288.568,287.212,262.261,289.835,287.469,262.136,0.0443755,0.0221885,233.382,253.309
2016-01-17 17:00,0.0185803,288.977,287.212,261.944,289.835,287.329,262.847,0.0471957,0.0262611,232.175,252.537
2016-01-17 18:00,0.00910864,288.43,287.541,262.576,289.968,287.748,262.492,0.0520578,0.0275871,232.557,252.925
2016-01-17 19:00,0.0265733,288.705,287.541,262.576,290.101,288.027,262.847,0.0871857,0.0503012,232.405,253.117
2016-01-17 20:00,0.254983,289.381,286.992,262.049,289.568,287.469,262.61,0.279391,0.25742,233.01,253.785
2016-01-17 21:00,0.0,283.924,279.702,257.572,281.655,278.76,255.784,0.0,0.0,228.575,248.882
2016-01-17 22:00,0.0,287.587,287.541,262.366,290.234,288.167,262.847,0.0,0.0,232.709,253.974
2016-01-17 23:00,0.0,287.871,287.322,262.049,289.968,287.748,262.492,0.0,0.0,233.085,254.256
2016-01-18 00:00,-0.0016899,288.291,287.869,262.155,290.5,288.584,262.847,0.0,0.0,232.633,254.349
2016-01-18 01:00,0.0,287.729,287.76,262.155,290.5,288.584,263.318,0.0,0.0,231.865,254.722
2016-01-18 02:00,-0.00122429,287.729,287.541,262.471,290.367,288.445,263.083,0.0,0.0,230.43,254.349
2016-01-18 03:00,-0.00115923,285.357,283.495,259.574,285.479,283.629,259.735,0.0,0.0,230.511,252.828
2016-01-18 04:00,0.0,286.271,285.546,261.305,288.087,286.06,261.66,0.0,0.0,230.43,252.439
2016-01-18 05:00,-0.00124144,287.01,286.55,261.412,289.166,287.188,262.61,0.0,0.0,231.394,254.443
2016-01-18 06:00,0.0,287.729,287.651,262.576,290.367,288.445,263.318,0.0,0.0,231.076,253.785
2016-01-18 07:00,0.0,287.729,287.651,262.681,290.234,288.167,262.847,0.0,0.0,230.511,253.69
2016-01-18 08:00,0.0,286.864,286.55,261.625,288.897,286.485,261.779,0.0,0.0,230.593,253.595
2016-01-18 09:00,0.0,284.249,281.742,258.469,283.797,281.441,258.76,0.0,0.0,228.488,249.928
2016-01-18 10:00,-0.308597,285.818,286.105,260.769,288.897,287.329,262.847,-0.485251,-0.445068,230.018,253.117
2016-01-18 11:00,0.340589,288.568,286.217,261.091,288.897,287.188,262.728,0.429942,0.40011,230.348,253.785
2016-01-18 12:00,0.0890582,289.514,287.102,261.625,289.701,288.027,262.61,0.171612,0.120913,230.266,253.69
2016-01-18 13:00,0.0741435,287.871,283.726,259.464,285.479,283.194,259.127,0.13294,0.103472,230.348,252.047
2016-01-18 14:00,0.0126984,288.568,287.978,262.471,290.764,288.861,263.787,0.0629744,0.0293024,232.328,254.443
2016-01-18 15:00,0.0133924,288.568,288.087,262.786,290.764,289.276,263.553,0.0510268,0.0287308,232.405,255.275
2016-01-18 16:00,0.0286319,289.113,287.978,262.681,290.897,289.276,263.787,0.0598934,0.0391076,233.823,256.45
2016-01-18 17:00,0.0573374,289.514,288.087,262.576,290.897,289.413,264.022,0.0783024,0.0597528,234.897,257.07
2016-01-18 18:00,0.129042,290.685,287.651,262.576,290.5,288.999,263.787,0.143763,0.125705,235.108,257.595
2016-01-18 19:00,0.102091,290.171,288.303,262.995,291.292,289.826,264.721,0.142208,0.116366,235.038,257.855
2016-01-18 20:00,0.309115,289.514,287.541,262.786,290.101,288.445,263.436,0.317812,0.30464,234.185,257.333
2016-01-18 21:00,0.0199226,288.291,288.52,263.307,291.555,289.964,264.255,0.0,0.0,234.686,258.286
2016-01-18 22:00,0.0,288.152,288.628,263.307,291.423,289.964,264.255,0.0,0.0,234.472,258.286
2016-01-18 23:00,-0.0023469,287.871,288.52,263.099,291.292,290.101,264.721,0.0,0.0,234.329,258.713
2016-01-19 00:00,-0.00169423,288.012,288.843,263.411,291.686,290.375,265.185,0.0,0.0,235.108,259.304
2016-01-19 01:00,-0.00138266,287.871,288.736,263.203,291.555,290.375,264.721,0.0,0.0,234.897,259.387
2016-01-19 02:00,0.0,288.012,288.736,263.515,291.555,290.238,264.721,0.0,0.0,235.038,259.638
2016-01-19 03:00,0.0011599,287.729,288.628,263.099,291.16,289.964,264.488,0.0,0.0,235.317,260.052
2016-01-19 04:00,-0.00116474,288.43,288.843,263.618,291.423,290.238,264.605,0.0,0.00117588,235.455,260.299
2016-01-19 05:00,0.0,288.152,288.843,263.411,291.423,290.238,265.185,0.0,0.0,235.317,260.381
2016-01-19 06:00,0.0,288.705,289.165,263.825,291.686,290.375,264.953,0.0,0.0,235.867,260.627
2016-01-19 07:00,-0.00175954,286.569,287.541,262.89,290.101,288.999,264.255,0.0,0.0,235.525,260.789
2016-01-19 08:00,-0.00249738,288.152,289.058,264.031,291.555,290.375,264.605,0.0,0.0,235.108,260.789
2016-01-19 09:00,0.0,287.587,288.303,263.203,290.764,289.413,263.787,0.0,0.0,235.799,260.627
2016-01-19 10:00,-0.0897093,288.012,288.843,263.825,291.423,290.238,264.837,-0.493719,-0.362268,235.525,261.033
2016-01-19 11:00,0.49947,288.841,286.328,262.471,288.897,288.167,263.787,0.563867,0.547821,236.139,260.952
2016-01-19 12:00,0.0704108,289.647,288.628,263.618,291.16,289.826,264.837,0.155522,0.105081,237.072,261.675
2016-01-19 13:00,0.0478314,289.381,288.843,264.031,291.292,290.101,265.069,0.117814,0.0812126,237.398,261.914
2016-01-19 14:00,0.00904198,288.705,289.379,264.441,291.817,290.648,265.185,0.0581843,0.0292109,237.137,262.151
2016-01-19 15:00,0.0316985,289.381,289.058,264.441,291.555,290.511,265.069,0.0635662,0.0421073,237.463,261.914
2016-01-19 16:00,0.0318766,289.247,288.843,264.339,291.555,290.375,264.837,0.0667644,0.0474251,237.785,261.993
2016-01-19 17:00,0.0570738,289.247,288.52,264.133,291.029,289.826,264.953,0.0950898,0.0762063,237.721,262.23
2016-01-19 18:00,0.0562656,290.041,288.843,264.339,291.423,290.238,265.069,0.09528,0.0727085,237.072,262.388
2016-01-19 19:00,0.0359155,289.113,289.379,264.441,291.686,290.511,265.185,0.0967578,0.0593326,237.203,261.993
2016-01-19 20:00,0.101141,289.247,288.303,264.133,290.632,289.137,263.905,0.207973,0.160456,236.542,261.515
2016-01-19 21:00,0.0,288.841,289.699,264.747,292.47,291.464,265.647,0.0,0.0,237.137,262.388
2016-01-19 22:00,0.0,288.705,289.486,264.645,291.817,290.784,264.953,0.0,0.0,236.542,261.993
2016-01-19 23:00,-0.00235716,286.569,285.882,262.471,287.543,285.919,261.898,0.0,0.0,235.593,260.135
2016-01-20 00:00,0.0,285.97,284.414,261.305,285.479,283.629,260.34,0.0,0.0,234.968,258.713
2016-01-20 01:00,0.0,288.291,288.951,264.133,291.423,290.101,265.069,0.0,0.0,237.333,261.834
2016-01-20 02:00,0.0,287.871,288.303,264.031,290.632,289.276,264.372,0.0,0.0,237.006,261.435
2016-01-20 03:00,0.0,284.087,280.669,259.244,281.655,279.211,256.909,0.0,0.0,233.677,254.722
2016-01-20 04:00,0.0,287.01,286.772,263.099,289.032,287.329,263.083,0.0,0.0,236.004,259.135
2016-01-20 05:00,0.0,284.249,280.789,259.464,281.366,279.211,256.66,0.0,0.0,233.677,254.999
2016-01-20 06:00,0.0,287.155,287.102,263.515,289.701,288.167,263.2,0.0,0.0,235.662,258.628
2016-01-20 07:00,0.0,287.155,287.978,263.928,290.367,289.276,264.138,0.0,0.0,236.675,259.887
2016-01-20 08:00,0.0,288.012,288.628,264.236,291.292,289.826,264.372,0.0,0.00252161,235.386,259.387
2016-01-20 09:00,0.0,288.012,288.736,264.339,291.292,289.826,264.255,0.0,0.0,234.615,259.051
2016-01-20 10:00,-0.27484,286.569,286.328,262.786,288.358,286.907,262.255,-0.542983,-0.508691,234.113,257.769
2016-01-20 11:00,0.171849,284.41,278.598,257.91,278.725,276.169,255.153,0.296204,0.254041,232.784,253.309
2016-01-20 12:00,0.402742,284.888,274.129,255.043,273.529,271.605,252.594,0.457252,0.477438,233.01,253.309
2016-01-20 13:00,0.264413,291.809,286.661,262.995,289.3,287.748,263.436,0.311962,0.288822,236.408,259.22
2016-01-20 14:00,0.0180256,288.977,289.165,264.441,291.817,290.511,264.488,0.0717325,0.0418552,237.006,259.638
2016-01-20 15:00,0.0781384,289.514,287.869,263.721,290.5,289.276,264.255,0.105574,0.0889558,235.108,258.882
2016-01-20 16:00,0.0167111,288.705,288.412,264.031,290.897,289.551,263.905,0.0537673,0.0320547,233.234,257.769
2016-01-20 17:00,0.065971,287.729,284.869,261.519,286.585,284.922,261.062,0.0993023,0.0814021,231.709,255.183
2016-01-20 18:00,0.078307,286.121,281.386,259.793,282.66,280.85,257.034,0.123133,0.110678,231.943,254.814
2016-01-20 19:00,0.203935,285.512,279.213,257.572,278.873,277.396,256.285,0.257637,0.251637,229.348,248.775
2016-01-20 20:00,0.574522,284.57,276.463,255.974,276.772,274.147,253.881,0.528486,0.615818,230.916,251.751
2016-01-20 21:00,-0.0220231,277.869,275.951,256.205,277.528,276.169,256.16,0.0,0.0,231.473,253.974
2016-01-20 22:00,0.0,287.871,287.76,264.031,289.968,288.306,263.2,0.0,0.0,232.557,257.246
2016-01-20 23:00,-0.00236756,278.684,280.187,259.024,282.517,281.882,260.942,0.0,0.0,232.405,256.45
2016-01-21 00:00,0.0,275.707,275.823,256.549,277.528,276.631,256.909,0.0,0.0,231.473,254.349
2016-01-21 01:00,0.0,276.811,277.35,257.459,279.76,279.061,259.614,0.0,0.0,232.405,255.821
2016-01-21 02:00,0.00122806,270.434,267.033,250.429,267.354,265.99,249.971,0.0,0.0,230.755,249.198
2016-01-21 03:00,0.0,275.932,275.565,255.626,277.075,276.169,256.785,0.0,0.0,232.02,253.88
2016-01-21 04:00,-0.00116553,283.093,281.505,260.119,283.514,281.882,260.098,0.0,0.0,232.86,255.73
2016-01-21 05:00,-0.00124185,285.045,282.448,260.553,283.938,282.175,259.492,0.0,0.0,231.865,255.091
2016-01-21 06:00,-0.00141552,280.239,279.58,258.691,281.943,280.998,260.219,0.0,0.0,231.865,254.536
2016-01-21 07:00,0.0,277.451,279.458,258.358,281.799,281.293,260.461,0.0,0.0,234.041,256.628
2016-01-21 08:00,-0.0024985,276.155,276.463,256.549,278.427,277.548,257.158,0.0,0.0,232.481,254.162
2016-01-21 09:00,0.0,279.667,281.386,259.574,284.22,283.339,261.54,0.0,0.0,232.405,256.091
2016-01-21 10:00,-0.281784,280.427,281.742,259.683,283.938,283.339,261.182,-0.636229,-0.568955,231.943,255.183
2016-01-21 11:00,0.543441,253.81,236.832,231.799,235.93,234.216,229.283,0.785841,0.863023,224.258,228.782
2016-01-21 12:00,0.407388,279.473,268.343,251.305,268.024,266.16,249.438,0.478791,0.478807,228.575,247.481
2016-01-21 13:00,0.239784,281.346,269.908,252.29,270.495,268.835,251.553,0.290819,0.279151,229.178,248.882
2016-01-21 14:00,0.177859,282.581,271.299,253.381,271.785,269.657,251.944,0.22665,0.21402,229.852,247.699
2016-01-21 15:00,0.265053,265.791,247.563,238.04,246.355,244.544,236.0,0.356267,0.377967,227.42,235.444
2016-01-21 16:00,0.272967,288.705,281.148,259.902,283.656,282.467,260.219,0.279036,0.265495,231.787,254.999
2016-01-21 17:00,0.291827,274.314,261.982,247.067,262.15,260.225,246.594,0.369089,0.377477,228.575,242.725
2016-01-21 18:00,0.306921,266.466,251.53,240.617,250.623,249.753,240.207,0.414285,0.44682,229.093,239.789
2016-01-21 19:00,0.410794,277.661,263.867,248.512,264.27,261.477,247.279,0.451077,0.486001,229.517,244.764
2016-01-21 20:00,0.417918,285.97,278.968,258.691,280.347,277.243,255.153,0.412825,0.464104,229.852,249.303
2016-01-21 21:00,0.0,280.427,278.845,258.246,280.347,278.76,257.53,0.0,0.0,231.315,251.252
2016-01-21 22:00,0.0,271.531,267.033,250.555,267.016,264.106,247.959,0.0,0.0,229.769,244.881
2016-01-21 23:00,0.0,252.585,245.248,237.415,244.122,242.805,235.537,0.0,0.0,228.136,236.325
2016-01-22 00:00,0.0,251.944,245.89,237.258,245.248,244.328,236.613,0.0,0.0,228.835,237.327
2016-01-22 01:00,-0.00138953,237.078,235.275,231.973,235.414,234.216,229.781,0.0,0.0,226.963,231.53
2016-01-22 02:00,0.0,249.89,240.75,235.01,240.152,238.515,231.905,0.0,0.0,226.592,233.146
2016-01-22 03:00,0.00116215,264.377,261.822,247.2,263.04,261.831,248.499,0.0,0.0,230.101,245.918
2016-01-22 04:00,-0.001166,276.155,275.823,256.32,278.427,277.548,258.392,0.0,0.0,230.916,251.152
2016-01-22 05:00,0.0,280.982,280.066,259.244,282.517,281.146,259.856,0.0,0.0,230.835,251.051
2016-01-22 06:00,0.0,262.475,258.025,244.349,258.116,256.555,245.628,0.0,0.0,230.184,243.457
2016-01-22 07:00,0.0,280.613,275.176,255.626,276.163,273.2,253.368,0.0,0.0,230.348,248.241
2016-01-22 08:00,0.00249969,276.811,276.718,256.892,279.17,278.156,258.638,0.0,0.0,230.266,250.544
2016-01-22 09:00,0.0,287.729,286.217,262.681,287.951,285.493,261.062,0.0,0.0,230.184,250.442
2016-01-22 10:00,-1.78914,270.151,268.916,251.429,270.981,270.311,253.881,-1.59675,-2.48969,229.769,247.481
2016-01-22 11:00,0.449348,278.684,275.046,255.51,277.678,276.784,258.147,0.591259,0.563989,231.236,250.748
2016-01-22 12:00,0.327106,290.301,283.032,260.769,285.757,284.349,260.822,0.341071,0.314944,232.251,251.452
2016-01-22 13:00,0.0236812,287.871,286.55,262.89,288.763,286.202,261.898,0.0929629,0.0478152,231.236,251.352
2016-01-22 14:00,0.494148,288.977,280.669,259.464,283.797,283.194,261.062,0.526025,0.5296,230.916,251.452
2016-01-22 15:00,0.269038,285.97,278.474,257.798,280.785,279.511,258.27,0.279502,0.268278,229.935,250.032
2016-01-22 16:00,0.338167,257.103,230.559,228.564,229.444,228.324,225.36,0.491245,0.532182,223.329,226.379
2016-01-22 17:00,0.361238,254.396,229.072,228.192,228.001,227.517,224.834,0.559461,0.617592,221.708,224.61
2016-01-22 18:00,0.369205,276.155,266.738,250.429,267.185,265.65,249.305,0.484819,0.508883,228.048,244.998
2016-01-22 19:00,0.442277,273.088,263.088,247.991,263.745,262.537,247.142,0.54959,0.597482,228.4,244.53
2016-01-22 20:00,0.725206,284.73,278.35,257.346,280.931,279.959,258.76,0.637201,0.732138,229.433,251.252
2016-01-22 21:00,-0.0246462,269.283,261.34,246.801,260.888,256.742,243.099,0.0,0.0,228.136,242.23
2016-01-22 22:00,-0.00428793,286.421,284.869,261.625,286.722,284.205,260.098,0.0,0.0,228.575,249.825
2016-01-22 23:00,-0.00238878,277.451,270.189,251.922,269.515,266.498,248.634,0.0,0.0,227.601,242.725
2016-01-23 00:00,-0.00171212,286.864,286.55,263.307,289.434,287.609,262.492,0.0,-0.00172849,229.935,251.252
2016-01-23 01:00,0.0,287.444,287.212,263.203,289.701,287.748,262.373,0.0,0.0014052,230.101,250.95
2016-01-23 02:00,0.0,285.97,286.55,263.099,289.434,287.748,262.492,0.0,0.0,230.996,251.652
2016-01-23 03:00,0.0,286.569,286.992,262.576,289.835,288.306,262.847,0.0,0.0,231.709,253.021
2016-01-23 04:00,0.0,287.587,288.52,263.515,291.555,289.964,264.022,0.0,0.0,231.865,253.69
2016-01-23 05:00,0.0,278.883,271.023,252.045,270.495,267.171,247.823,0.0,0.0,226.592,244.53
2016-01-23 06:00,0.0,288.152,288.628,263.203,291.686,290.238,264.372,0.0,0.0,232.328,254.536
2016-01-23 07:00,0.0,286.421,287.102,262.681,290.234,288.722,262.492,0.0,0.0,232.175,254.722
2016-01-23 08:00,0.0,284.249,283.264,260.011,285.479,283.773,260.34,0.0,0.0,229.935,252.244
2016-01-23 09:00,0.0,278.482,272.527,253.02,272.899,270.311,251.291,0.0,0.0,228.835,246.145
2016-01-23 11:00,0.138831,281.705,276.08,255.16,277.075,274.773,254.009,0.296424,0.249846,228.136,247.261
2016-01-23 12:00,0.123686,279.473,269.626,251.429,269.35,266.498,248.229,0.217112,0.191871,225.931,242.848
2016-01-23 13:00,0.0364684,288.43,286.328,261.944,289.3,287.188,262.136,0.105348,0.0649712,229.348,252.047
2016-01-23 14:00,0.0410338,289.113,287.322,262.681,290.101,288.445,262.492,0.0876135,0.0612386,229.601,252.828
2016-01-23 15:00,0.0295992,288.568,286.772,262.366,289.3,287.329,262.373,0.071008,0.0448233,230.101,252.537
2016-01-23 16:00,0.0462242,288.568,285.658,261.412,287.679,285.635,261.182,0.0894582,0.0699992,230.184,252.342
2016-01-23 17:00,0.128267,288.977,281.624,259.244,283.938,281.441,257.777,0.145315,0.129493,230.184,251.652
2016-01-23 18:00,0.0483468,289.381,286.992,262.471,289.835,287.748,262.847,0.0837311,0.0621206,230.511,252.925
2016-01-23 19:00,0.227136,284.73,275.694,255.626,276.62,273.359,252.335,0.256421,0.25797,228.662,246.595
2016-01-23 20:00,0.531006,286.421,277.35,256.32,278.278,275.396,253.753,0.478057,0.536082,228.835,247.481
2016-01-23 21:00,-0.0262159,267.123,259.706,245.587,258.865,257.671,244.652,0.0,0.0,227.147,238.986
2016-01-23 22:00,0.0,278.883,273.065,253.741,273.843,270.798,251.028,0.0,0.0,229.178,246.483
2016-01-23 23:00,-0.00239959,287.3,286.882,262.786,289.701,287.748,263.083,0.0,0.0,231.076,252.634
2016-01-24 00:00,0.0,281.705,282.799,260.445,285.618,284.349,261.54,0.0,0.0,230.674,252.146
2016-01-24 01:00,0.0,287.01,286.772,262.786,289.3,287.609,262.373,0.0,0.0,230.593,252.244
2016-01-24 02:00,0.0,284.087,281.624,259.464,283.372,280.998,258.023,0.0,0.0,229.935,249.617
2016-01-24 03:00,0.0,285.97,285.77,262.366,288.087,285.919,261.898,0.0,0.0,230.593,251.252
2016-01-24 04:00,0.0011671,287.444,287.102,263.411,289.701,287.888,262.847,0.0,0.0,230.674,251.949
2016-01-24 05:00,0.0,279.081,272.391,253.621,272.582,269.657,250.236,0.0,0.0,228.662,244.998
2016-01-24 06:00,0.0,285.202,282.566,260.445,284.781,282.613,259.37,0.0,0.0,229.935,250.238
2016-01-24 07:00,0.0,286.271,286.105,262.576,288.493,286.485,261.421,0.0,0.00177791,230.593,252.047
2016-01-24 08:00,-0.00250338,287.587,287.432,263.618,290.234,288.584,263.318,0.0,0.0,230.593,252.731
2016-01-24 09:00,0.0,286.421,286.55,262.681,289.166,287.188,262.017,0.0,0.0,231.63,253.88
2016-01-24 10:00,-0.260005,284.249,281.742,259.464,283.088,280.998,257.777,-0.572378,-0.472482,232.097,253.213
2016-01-24 11:00,0.203922,287.01,283.956,260.876,286.172,284.492,260.581,0.325008,0.260367,232.709,254.814
2016-01-24 12:00,0.0811123,288.977,285.994,262.155,287.815,285.777,261.182,0.167879,0.115249,234.329,256.539
2016-01-24 13:00,0.0320597,287.3,285.095,261.731,286.86,284.779,261.421,0.0995313,0.0604169,234.827,256.805
2016-01-24 14:00,0.042663,286.569,283.611,260.661,285.061,283.194,260.098,0.0903067,0.0628116,234.615,255.548
2016-01-24 15:00,0.0753559,283.428,275.694,255.626,275.396,273.359,253.111,0.113737,0.09923,233.01,251.552
2016-01-24 16:00,0.0509637,287.444,283.495,260.553,285.061,282.758,259.735,0.0876938,0.068048,234.756,256.894
2016-01-24 17:00,0.11866,289.647,285.321,261.838,287.27,285.919,262.373,0.130914,0.121609,235.525,258.457
2016-01-24 18:00,0.231546,290.171,285.658,262.366,288.222,287.188,263.2,0.242288,0.244786,237.463,260.545
2016-01-24 19:00,0.237711,291.44,286.882,262.89,289.3,288.167,264.138,0.248938,0.23051,238.168,260.217
2016-01-24 20:00,0.158527,288.705,287.212,262.89,289.3,287.748,263.083,0.234893,0.180048,237.137,259.304
2016-01-24 21:00,0.0,285.045,282.682,260.228,283.656,281.441,258.023,-0.0237113,0.0,235.247,256.091
2016-01-24 22:00,0.0,287.3,286.439,262.471,288.358,286.343,262.017,0.0,0.0,236.742,259.22
2016-01-24 23:00,-0.00241054,288.291,288.412,263.928,290.764,288.999,264.488,0.0,0.0,237.463,259.638
2016-01-25 00:00,-0.00172138,287.155,287.869,263.618,289.835,288.445,264.255,0.0,-0.00173784,237.913,259.97
2016-01-25 01:00,0.0,286.121,286.772,263.203,289.166,287.748,263.553,0.0,0.0,238.546,260.217
2016-01-25 02:00,0.0,284.888,284.3,261.305,286.172,284.492,261.898,0.0,0.00124537,237.528,258.713
2016-01-25 03:00,0.0,277.661,279.58,258.134,281.655,280.998,260.581,0.0,0.0,238.483,259.387
2016-01-25 04:00,0.0,276.155,276.718,256.089,278.576,278.004,259.005,0.0,0.0,238.104,258.372
2016-01-25 05:00,-0.00124339,280.427,282.214,259.902,284.781,284.205,262.255,0.0,0.00125527,238.857,259.887
2016-01-25 06:00,-0.00141694,283.261,283.38,260.553,285.618,284.205,262.255,0.0,0.0,239.349,260.052
2016-01-25 07:00,-0.00176197,280.799,277.977,256.664,278.725,277.548,256.909,0.0,0.0,237.268,256.36
2016-01-25 08:00,0.00250588,279.667,278.226,257.233,279.907,278.609,258.27,0.0,0.0,237.072,257.508
2016-01-25 09:00,0.00472238,279.278,280.549,258.469,282.946,282.467,261.301,0.0,0.0,238.608,260.052
2016-01-25 10:00,-0.217473,278.075,280.066,258.022,282.803,282.321,261.66,-0.736537,-0.658656,238.42,260.135
2016-01-25 11:00,0.214458,288.012,284.528,260.661,286.31,284.636,260.219,0.3329,0.27665,237.072,258.2
2016-01-25 12:00,0.0299106,288.43,287.978,263.099,290.101,288.306,263.553,0.129159,0.0724718,238.041,259.887
2016-01-25 13:00,0.0404547,288.841,287.212,262.681,289.434,287.888,262.965,0.102759,0.0644864,237.528,259.135
2016-01-25 14:00,0.0194814,287.587,286.55,261.944,288.493,286.767,261.66,0.0749766,0.0464871,237.398,259.051
2016-01-25 15:00,0.0310053,285.818,282.214,259.244,283.23,281.146,258.27,0.0732297,0.0527187,235.108,254.814
2016-01-25 16:00,0.0229189,288.977,288.195,262.995,290.764,289.551,263.318,0.0568302,0.0363598,237.528,259.721
2016-01-25 17:00,0.0161024,288.705,288.628,263.099,290.897,289.689,263.787,0.0575652,0.0361251,237.137,259.471
2016-01-25 18:00,0.0455967,287.871,285.77,261.519,287.543,285.919,260.701,0.0955974,0.0723369,236.274,257.421
2016-01-25 19:00,0.148857,287.871,282.331,259.024,283.372,281.293,257.653,0.207436,0.18472,235.247,255.73
2016-01-25 20:00,0.460973,288.012,281.978,259.244,283.088,281.146,258.147,0.423288,0.458825,235.525,255.091
2016-01-25 21:00,-0.0601195,284.888,283.032,259.574,283.938,281.735,258.638,-0.0254516,-0.0303471,234.968,255.457
2016-01-25 22:00,-0.0044121,285.665,283.38,260.119,285.061,282.904,258.515,0.0,0.0,235.799,256.36
2016-01-25 23:00,-0.00242162,287.587,287.322,262.681,289.701,287.888,262.373,0.0,0.0,236.675,258.457
2016-01-26 00:00,0.0,287.01,286.55,262.155,288.763,286.907,261.54,0.0,0.0,236.274,257.246
2016-01-26 01:00,-0.0013992,285.512,283.38,260.011,284.781,282.758,258.638,0.0,0.0,235.247,255.73
2016-01-26 02:00,-0.00123504,286.717,285.994,261.838,288.087,286.343,261.66,0.0,0.0,236.408,257.855
2016-01-26 03:00,0.00116571,287.155,287.322,262.681,289.434,287.469,262.255,0.0,0.0,237.072,258.967
2016-01-26 04:00,0.0,286.864,285.658,261.519,287.951,285.777,261.062,0.0,0.0,236.408,257.769
2016-01-26 05:00,-0.00124396,283.924,281.148,258.691,281.655,278.911,255.658,0.0,0.0,234.041,254.068
2016-01-26 06:00,0.0,284.249,281.505,258.691,282.66,280.257,257.034,0.0,0.0,233.823,254.536
2016-01-26 07:00,0.0,282.408,277.35,255.974,277.226,274.304,252.464,0.0,0.0,231.943,252.047
2016-01-26 08:00,-0.00250884,281.705,277.476,256.205,277.828,274.929,253.625,0.0,0.0,232.405,252.439
2016-01-26 09:00,0.0,284.249,281.86,258.469,282.517,279.959,256.66,0.0,0.0,233.382,254.443
2016-01-26 10:00,-0.457645,280.982,277.476,255.742,279.022,276.784,255.28,-0.581231,-0.577525,233.159,253.5
2016-01-26 11:00,0.61512,280.982,271.162,251.922,271.303,269.165,250.236,0.751185,0.782222,230.348,250.34
2016-01-26 12:00,0.39898,279.278,267.326,249.542,266.847,264.795,247.279,0.489076,0.514013,229.178,247.59
2016-01-26 13:00,0.135734,284.249,272.256,252.534,272.264,269.0,248.768,0.18855,0.169149,229.517,249.303
2016-01-26 14:00,0.0423437,285.512,280.789,257.798,281.51,279.061,255.658,0.0971001,0.0712475,230.835,252.342
2016-01-26 15:00,0.0715207,281.705,272.527,252.29,272.264,269.494,248.229,0.11836,0.103384,228.312,247.371
2016-01-26 16:00,0.104326,280.613,267.909,250.303,266.508,263.063,244.792,0.147682,0.136592,227.055,245.575
2016-01-26 17:00,0.186945,277.869,255.941,243.084,252.667,247.708,233.344,0.224615,0.226478,221.819,236.325
2016-01-26 18:00,0.263301,275.707,253.411,241.061,250.415,246.666,233.185,0.30334,0.320289,222.259,235.444
2016-01-26 19:00,0.427418,278.075,253.04,240.766,249.789,245.612,233.344,0.442604,0.490486,222.692,235.887
2016-01-26 20:00,0.465984,282.234,269.767,250.303,269.021,265.48,245.905,0.443191,0.547771,228.748,246.818
2016-01-26 21:00,-0.0324447,279.859,274.916,253.501,274.467,271.765,250.104,0.0,-0.0327548,229.263,248.669
2016-01-26 22:00,0.0,265.095,252.101,239.419,249.789,246.457,233.661,0.0,0.0,223.642,235.887
2016-01-26 23:00,-0.00243283,270.989,258.703,243.93,256.406,253.896,239.322,0.0,0.0,224.661,238.986
2016-01-27 00:00,-0.00173085,280.05,273.199,253.14,272.264,269.0,248.499,0.0,0.0,228.748,247.808
2016-01-27 01:00,0.00140171,271.261,259.206,244.349,257.17,253.703,238.577,0.0,0.00141511,224.46,238.714
2016-01-27 02:00,0.0,276.155,266.738,248.9,264.965,261.831,243.383,0.0,0.0,226.592,243.577
2016-01-27 03:00,0.0,274.551,265.696,247.859,264.792,261.654,243.667,0.0,0.0,226.778,243.214
2016-01-27 04:00,0.0,283.428,281.386,257.572,282.66,280.406,257.034,0.0,0.0,229.769,251.949
2016-01-27 05:00,0.0,272.58,262.774,246.265,261.431,258.408,241.953,0.0,0.0,227.055,242.105
2016-01-27 06:00,0.0,278.075,273.065,252.045,272.899,270.635,250.633,0.0,0.0,228.575,246.371
2016-01-27 07:00,0.0,284.57,281.86,257.91,283.514,281.293,256.785,0.0,0.0,230.835,253.69
2016-01-27 08:00,0.0,283.428,279.823,256.205,280.785,278.156,255.28,0.0,0.0,229.517,249.928
2016-01-27 09:00,-0.00475369,283.093,281.148,257.12,282.517,280.257,256.535,0.0,0.0,230.184,252.244
2016-01-27 10:00,-0.0606295,287.444,287.541,261.091,290.101,288.306,261.898,-0.359344,-0.306046,230.593,254.629
2016-01-27 11:00,0.123273,287.871,285.433,259.574,287.543,285.35,259.977,0.258452,0.177788,230.43,254.068
2016-01-27 12:00,0.2104,287.587,278.968,255.858,280.347,277.548,255.28,0.255927,0.22737,230.511,251.352
2016-01-27 13:00,0.0316843,288.43,287.102,260.445,289.568,287.609,261.66,0.0965774,0.057577,232.175,254.814
2016-01-27 14:00,0.0456947,288.568,286.772,260.445,288.897,287.048,261.66,0.0907718,0.055003,233.382,255.366
2016-01-27 15:00,0.0566654,287.01,283.611,258.134,285.34,283.339,258.638,0.100069,0.0768209,233.01,254.349
2016-01-27 16:00,0.0243465,287.871,286.882,259.902,289.3,287.609,261.54,0.0577196,0.0376882,233.234,255.183
2016-01-27 17:00,0.0549227,288.705,286.772,259.683,289.434,287.609,261.54,0.0810052,0.0626023,232.86,254.907
2016-01-27 18:00,0.0922442,288.291,285.208,258.802,287.27,285.635,260.461,0.136226,0.10612,231.787,253.5
2016-01-27 19:00,0.265266,285.357,281.505,256.549,284.079,282.904,259.37,0.312376,0.32321,231.394,253.405
2016-01-27 20:00,0.590087,283.924,274.261,251.799,274.933,273.2,253.111,0.568723,0.652765,229.348,247.699
2016-01-27 21:00,0.0,287.3,287.76,260.445,290.234,288.167,261.779,-0.0298407,-0.0355805,231.315,253.69
2016-01-27 22:00,0.0,282.581,278.474,254.217,279.613,276.938,254.519,0.0,0.0,229.769,249.198
2016-01-27 23:00,0.0,278.883,273.599,251.056,274.467,271.283,251.028,-0.00206947,0.0,230.43,247.917
2016-01-28 00:00,0.0,287.01,286.882,258.802,289.568,287.609,260.942,0.0,0.0,230.266,252.047
2016-01-28 01:00,0.0,285.512,285.882,258.802,288.763,287.329,261.421,0.0,0.0,230.916,252.634
2016-01-28 02:00,0.0,286.121,286.55,258.802,289.3,287.469,262.136,0.0,0.0,230.996,252.439
2016-01-28 03:00,0.0,286.569,286.439,258.691,289.3,287.329,260.701,0.0,0.0,231.236,252.244
2016-01-28 04:00,0.0,287.01,286.439,258.134,289.3,287.469,261.54,0.0,0.00118112,232.097,252.439
2016-01-28 05:00,-0.00124533,278.684,279.945,253.741,283.088,282.467,259.856,0.0,0.0,233.308,253.213
2016-01-28 06:00,0.0,282.408,283.032,255.858,285.895,284.492,260.461,0.0,0.0,234.329,253.88
2016-01-28 07:00,-0.00176588,284.57,284.642,257.346,286.997,285.35,260.581,0.0,0.00178276,235.867,254.722
2016-01-28 08:00,0.00251612,281.705,282.331,255.626,284.781,283.917,260.098,0.0,0.0,238.42,255.73
2016-01-28 10:00,-0.129604,287.3,288.195,259.793,290.897,289.276,262.255,-0.768146,-0.588791,243.256,258.882
2016-01-28 11:00,0.0815341,288.43,287.978,259.574,290.632,289.276,262.728,0.226829,0.146989,244.79,259.804
2016-01-28 12:00,0.109107,290.041,287.432,259.134,289.968,288.722,262.255,0.182265,0.133966,244.842,260.463
2016-01-28 13:00,0.168282,290.939,285.994,258.134,288.897,287.609,261.54,0.197697,0.174138,244.687,260.789
2016-01-28 14:00,0.196061,289.514,283.956,257.459,286.447,285.493,260.942,0.231221,0.213841,244.374,260.299
2016-01-28 15:00,0.158024,288.568,284.185,257.798,286.86,285.919,260.822,0.191141,0.17093,244.269,259.887
2016-01-28 16:00,0.00161607,288.012,287.212,259.902,289.835,288.027,261.779,0.0369447,0.0114206,244.374,260.217
2016-01-28 17:00,0.0229188,288.568,288.303,260.228,291.16,289.964,262.965,0.0552305,0.0355968,244.164,260.871
2016-01-28 18:00,0.0383815,289.381,288.412,260.337,291.16,289.964,262.61,0.0758277,0.0538173,244.583,261.033
2016-01-28 19:00,0.166292,291.809,287.76,260.011,290.764,289.137,263.2,0.181759,0.161777,243.846,261.355
2016-01-28 20:00,0.117325,289.247,288.843,260.661,291.555,290.375,263.083,0.198678,0.149617,242.765,261.355
2016-01-28 21:00,-0.0385724,287.871,288.736,260.445,291.555,290.511,263.436,-0.0326592,-0.0778824,242.042,261.515
2016-01-28 22:00,0.0,287.729,288.951,260.769,291.817,290.648,263.905,0.0,0.0,241.986,262.545
2016-01-28 23:00,0.0,285.665,287.212,259.574,289.701,288.861,262.847,0.0,0.0,241.304,262.388
2016-01-29 00:00,0.0,286.717,288.087,260.228,290.234,289.137,263.436,0.0,0.0,240.607,262.151
2016-01-29 01:00,0.0,287.871,288.843,261.091,291.423,290.101,263.905,0.0,0.0,239.714,262.072
2016-01-29 02:00,0.0,288.152,288.951,260.984,291.686,290.375,263.905,0.0,0.0,238.357,261.595
2016-01-29 03:00,0.0,288.152,289.058,261.091,291.817,290.648,263.905,0.0,0.0,238.671,261.275
2016-01-29 04:00,0.0,288.012,289.486,261.305,292.34,291.329,264.488,0.0,0.0,237.398,261.194
2016-01-29 05:00,0.0,287.01,288.412,260.769,291.16,290.101,263.787,0.0,0.0,235.867,260.871
2016-01-29 06:00,0.0,285.357,286.55,259.464,289.434,288.445,262.847,0.0,0.0,234.615,259.638
2016-01-29 07:00,0.0,287.155,288.303,260.661,291.029,289.689,263.553,0.0,0.0017845,235.455,259.638
2016-01-29 08:00,0.0,286.569,287.869,260.661,290.632,289.551,263.318,0.0,0.0,234.329,259.22
2016-01-29 09:00,0.0,288.012,288.951,260.984,291.555,290.375,263.905,0.0,0.0,233.085,258.543
2016-01-29 10:00,-0.419723,285.045,285.546,258.913,288.087,286.626,262.373,-0.888447,-0.776848,232.633,257.682
2016-01-29 11:00,0.236813,289.381,286.992,259.793,289.568,287.888,262.255,0.327661,0.25657,233.308,257.421
2016-01-29 12:00,0.044008,288.977,287.76,260.228,290.234,288.722,262.728,0.134141,0.0829335,234.827,258.114
2016-01-29 13:00,0.113107,290.685,287.212,260.228,289.835,288.167,262.728,0.157839,0.120532,234.543,257.246
2016-01-29 14:00,0.0592791,289.381,287.322,260.445,289.835,288.167,262.847,0.0989068,0.0704068,234.329,256.982
2016-01-29 15:00,0.0385419,288.841,287.541,260.445,290.234,288.445,262.965,0.0707056,0.0486379,235.867,257.942
2016-01-29 16:00,0.0675788,288.841,286.882,260.011,289.568,288.167,262.61,0.09264,0.0779712,235.662,258.457
2016-01-29 17:00,0.0228057,288.841,288.195,260.661,290.632,289.413,263.318,0.0564433,0.0371922,235.731,258.713
2016-01-29 18:00,0.110214,289.91,286.772,260.119,289.3,287.609,262.965,0.136387,0.113407,233.677,257.421
2016-01-29 19:00,0.26385,289.91,283.38,258.134,285.34,283.484,259.37,0.276713,0.266372,233.75,256.271
2016-01-29 20:00,0.376694,288.977,284.3,258.58,286.31,284.205,259.614,0.375534,0.386429,232.633,256.181
2016-01-29 21:00,0.0,286.421,287.432,260.445,290.101,288.861,263.553,-0.036065,-0.0430021,235.455,259.721
2016-01-29 22:00,0.0,286.717,287.651,260.553,290.234,288.999,263.2,0.0,0.0,237.333,260.463
2016-01-29 23:00,0.0,286.717,287.432,260.445,289.835,288.167,262.61,0.0,0.0,237.006,259.97
2016-01-30 00:00,-0.00174543,284.087,281.505,256.892,282.946,280.554,256.66,-0.00147786,0.0,235.108,255.183
2016-01-30 01:00,0.0,285.357,285.994,259.683,287.951,286.626,262.017,0.0,0.0,239.288,260.217
2016-01-30 02:00,0.0,286.271,287.212,260.445,289.701,288.306,262.728,0.0,0.0,239.894,261.275
2016-01-30 03:00,-0.00116998,286.864,287.76,260.445,290.367,288.999,263.2,0.0,0.0,240.193,261.675
2016-01-30 04:00,0.00117171,287.3,287.978,260.876,290.5,289.137,263.318,0.0,0.0,239.894,261.914
2016-01-30 05:00,0.00124703,286.271,286.992,259.902,289.568,288.306,263.436,0.0,0.0,240.371,261.834
2016-01-30 06:00,0.0,286.121,287.212,260.228,289.701,288.306,263.553,0.0,0.0,240.841,262.23
2016-01-30 07:00,0.00176954,286.717,287.76,260.553,290.234,288.861,263.318,0.0,0.0,241.189,262.623
2016-01-30 08:00,0.0,286.717,287.651,260.337,290.234,288.861,263.318,0.0,0.0,241.073,262.857
2016-01-30 09:00,-0.00481438,286.864,287.651,260.337,289.968,288.445,262.728,0.0,0.0,241.76,263.167
2016-01-30 10:00,-0.305711,287.01,288.087,260.445,290.234,288.861,263.083,-0.97067,-0.771585,242.544,263.476
2016-01-30 11:00,0.114528,288.43,288.087,260.769,290.367,288.861,263.2,0.26667,0.184997,242.042,263.322
2016-01-30 12:00,0.0992282,290.041,287.541,260.011,289.701,287.888,262.373,0.187801,0.13848,241.93,263.012
2016-01-30 13:00,0.208544,277.24,260.036,243.226,258.491,255.045,239.322,0.282519,0.273699,229.852,245.918
2016-01-30 14:00,0.107655,279.859,267.473,247.597,264.965,260.942,243.383,0.16466,0.154261,228.224,244.53
2016-01-30 15:00,0.159929,275.251,254.328,240.469,252.059,247.708,233.185,0.204471,0.203437,224.76,239.39
2016-01-30 16:00,0.160195,279.278,259.706,243.79,257.17,252.144,235.846,0.199386,0.200541,226.778,243.937
2016-01-30 17:00,0.27057,267.761,236.318,230.743,232.23,228.856,221.415,0.334029,0.357746,217.491,224.61
2016-01-30 18:00,0.433997,263.636,215.64,220.298,212.609,210.219,210.073,0.522655,0.582776,209.926,211.295
2016-01-30 19:00,0.579829,267.761,228.155,225.897,225.615,221.875,217.055,0.62941,0.726461,217.229,222.956
2016-01-30 20:00,0.466405,287.3,278.101,254.572,278.873,276.323,253.24,0.415156,0.452754,229.007,252.925
2016-01-30 21:00,-0.523047,282.408,277.601,254.217,278.427,275.551,253.111,-0.0805205,-0.240021,230.018,253.117
2016-01-30 22:00,0.0,276.811,269.201,248.642,268.69,265.99,246.869,0.0,0.0,227.691,247.04
2016-01-30 23:00,-0.00247892,272.58,263.401,245.314,262.507,260.225,244.09,-0.0020989,0.0,227.51,244.647
2016-01-31 00:00,-0.0017504,259.505,247.15,235.499,245.693,243.461,234.604,-0.00148206,0.0,225.546,235.74
2016-01-31 01:00,0.0,262.869,248.177,236.466,246.135,243.461,231.905,0.0,0.0,223.013,235.295
2016-01-31 02:00,0.0,257.103,240.277,231.799,237.702,234.95,226.229,0.0,0.0,220.101,229.838
2016-01-31 03:00,0.0,246.775,231.713,228.004,230.012,227.787,222.692,0.0,0.0,218.642,225.604
2016-01-31 04:00,0.0,253.206,235.538,229.847,232.772,229.385,222.329,0.0,0.0,217.229,226.379
2016-01-31 05:00,0.00124801,239.711,226.583,225.306,224.694,222.462,219.551,0.0,0.0,216.963,221.436
2016-01-31 06:00,0.0,233.989,229.373,225.897,228.871,227.787,223.413,0.0,0.0,220.101,225.994
2016-01-31 07:00,-0.0017717,254.966,240.984,232.146,237.951,235.193,227.431,0.0,0.0,220.101,229.137
2016-01-31 08:00,0.0,265.446,251.912,238.195,249.789,246.035,233.503,0.0,0.00255477,222.476,234.082
2016-01-31 09:00,0.0,279.859,273.732,250.806,274.0,269.984,249.305,0.0,0.0,225.352,243.577
2016-01-31 10:00,-0.59326,281.165,275.694,252.29,276.163,271.926,250.236,-0.789348,-0.855616,225.835,244.998
2016-01-31 11:00,0.488089,277.026,255.05,240.617,252.262,246.246,232.867,0.557426,0.60162,221.145,233.146
2016-01-31 12:00,0.200287,280.799,265.243,245.587,264.095,259.139,240.646,0.272806,0.26081,222.368,239.121
2016-01-31 13:00,0.147406,278.075,265.092,244.903,264.792,260.764,243.525,0.207428,0.199119,224.46,240.185
2016-01-31 14:00,0.159081,266.466,250.76,237.258,249.789,247.501,237.07,0.245963,0.253123,224.76,235.74
2016-01-31 15:00,0.10352,275.02,262.931,244.21,262.507,260.045,243.525,0.159119,0.155961,225.739,241.348
2016-01-31 16:00,0.0303026,286.121,282.566,255.51,284.079,281.293,257.158,0.0648182,0.0450834,228.048,251.352
2016-01-31 17:00,0.0816374,284.888,276.208,251.922,276.468,272.724,251.291,0.111772,0.0999535,226.592,247.808
2016-01-31 18:00,0.19057,281.705,267.618,246.533,266.338,262.712,243.667,0.20923,0.209305,224.054,240.835
2016-01-31 19:00,0.359784,275.932,253.04,238.349,251.242,246.876,233.819,0.387028,0.425745,222.799,235.592
2016-01-31 20:00,0.376732,279.473,265.394,244.07,264.095,260.405,243.667,0.363835,0.421933,225.352,241.602
2016-01-31 21:00,-0.0537997,265.791,255.05,239.267,254.657,251.354,239.322,-0.0455521,-0.108628,226.405,240.446
2016-01-31 22:00,-0.00468448,279.859,273.466,249.542,273.057,269.329,248.768,0.0,0.0,225.643,244.764
2016-01-31 23:00,0.0,277.869,269.201,247.067,268.855,265.48,245.489,0.0,0.0,224.56,242.848
