# timestamp,IR_016,IR_039,IR_087,IR_097,IR_108,IR_120,IR_134,VIS006,VIS008,WV_062,WV_073
2014-04-01 00:00,-0.0,268.073,262.931,249.029,263.04,260.584,246.732,-0.0,0.00201379,227.42,243.577
2014-04-01 01:00,-0.00153526,262.869,257.339,245.587,257.17,255.235,244.372,-0.0,-0.0,227.601,241.093
2014-04-01 02:00,-0.00131885,270.434,265.243,250.931,265.826,263.933,250.501,-0.0,-0.0,229.685,244.647
2014-04-01 03:00,-0.0,273.088,269.485,253.741,270.169,266.329,251.159,-0.0,-0.0,230.593,247.699
2014-04-01 04:00,0.00244831,259.505,257.511,246.265,257.55,254.281,244.09,-0.0,-0.0,229.178,244.175
2014-04-01 05:00,-0.00130775,266.466,261.017,248.642,260.888,256.18,243.241,-0.0,-0.0,228.224,244.294
2014-04-01 06:00,-0.00151147,254.396,247.973,241.061,245.471,241.475,233.661,-0.0,-0.0,224.156,237.043
2014-04-01 07:00,-0.00194274,258.096,249.978,241.936,248.307,243.896,234.447,-0.0,-0.0,222.585,236.469
2014-04-01 08:00,-0.0,254.396,245.89,239.721,244.122,239.667,231.419,-0.0,-0.0,222.476,234.996
2014-04-01 09:00,-0.0,256.062,253.04,242.942,253.867,251.75,241.664,-0.0,-0.0,227.959,242.478
2014-04-01 10:00,0.282554,264.377,260.036,247.2,262.685,261.121,249.037,0.402354,0.40195,230.916,247.481
2014-04-01 11:00,0.604895,288.841,264.329,249.669,265.482,262.361,249.037,0.491074,0.625046,230.996,247.151
2014-04-01 12:00,0.508912,283.76,255.764,244.626,256.406,255.235,243.383,0.50758,0.611743,228.921,244.412
2014-04-01 13:00,0.278736,293.93,282.331,260.769,282.374,277.853,255.658,0.131114,0.335706,233.896,250.748
2014-04-01 14:00,0.256918,295.26,284.528,262.471,284.501,279.361,256.16,0.125816,0.297228,233.968,251.051
2014-04-01 15:00,0.242193,293.007,278.968,259.134,277.978,272.565,251.814,0.131983,0.274422,231.315,247.481
2014-04-01 16:00,0.213328,293.356,283.956,262.366,283.938,280.257,258.147,0.138189,0.246505,233.53,252.244
2014-04-01 17:00,0.217734,296.531,287.212,264.031,288.087,283.917,260.34,0.11668,0.246249,234.615,253.974
2014-04-01 18:00,0.247447,293.124,284.071,262.155,284.501,281.146,258.392,0.193187,0.304966,235.178,253.974
2014-04-01 19:00,0.338749,273.088,260.201,247.465,259.791,259.139,248.903,0.54157,0.616002,230.348,244.294
2014-04-01 20:00,0.0713193,284.73,279.823,259.683,280.347,277.548,257.158,0.120772,0.147431,235.799,253.974
2014-04-01 21:00,0.639935,276.594,248.985,241.354,245.248,241.475,232.547,0.495914,0.646052,221.596,231.53
2014-04-01 22:00,-0.00849639,283.261,278.101,258.691,278.278,274.304,253.497,-0.0,-0.0,233.01,251.152
2014-04-01 23:00,-0.0623197,284.888,280.909,260.445,280.931,276.784,255.784,-0.0316596,-0.0566239,233.75,252.731
2014-04-02 00:00,-0.0,283.428,278.721,259.134,279.17,274.46,252.594,-0.0,-0.0,232.557,250.34
2014-04-02 01:00,-0.0,283.428,278.721,259.354,278.278,273.042,251.683,-0.0,-0.0,233.677,250.646
2014-04-02 02:00,0.00131663,283.594,279.336,259.574,279.17,274.773,254.009,-0.0,-0.0,235.731,252.047
2014-04-02 03:00,-0.00122604,283.924,279.823,260.011,280.347,275.861,254.392,-0.0,-0.0,232.02,251.452
2014-04-02 04:00,-0.0012232,275.48,273.865,255.742,275.857,273.832,255.909,-0.0,-0.0,234.041,253.213
2014-04-02 05:00,-0.0,284.087,281.148,260.553,281.51,277.396,256.285,-0.0,0.00131953,231.63,250.748
2014-04-02 06:00,-0.0,279.278,271.023,253.86,270.657,266.16,246.869,-0.0,-0.0,230.184,246.483
2014-04-02 07:00,0.00194184,285.357,283.38,261.519,284.361,281.441,259.127,-0.0,-0.0,235.178,253.974
2014-04-02 08:00,0.00299071,283.428,282.566,261.198,283.938,280.998,259.005,-0.0,-0.0,234.968,254.256
2014-04-02 09:00,-0.0,285.818,285.208,262.681,287.27,285.35,262.017,-0.0,-0.0,236.139,255.275
2014-04-02 10:00,0.0259127,286.569,286.439,263.515,288.897,287.048,262.965,0.197462,0.143882,238.041,255.548
2014-04-02 11:00,0.399915,291.065,288.736,265.153,291.292,288.999,264.488,0.18442,0.504673,238.168,255.366
2014-04-02 12:00,0.38062,295.368,290.756,266.259,292.6,289.689,263.905,0.146486,0.438841,238.857,255.73
2014-04-02 13:00,0.339992,298.242,290.017,265.758,291.686,288.722,263.787,0.171615,0.363044,238.42,256.181
2014-04-02 14:00,0.29805,297.749,289.165,265.052,290.764,287.888,262.728,0.182783,0.333239,237.849,256.181
2014-04-02 15:00,0.24295,293.356,285.095,262.786,287.407,284.922,262.373,0.221024,0.310505,238.231,256.271
2014-04-02 16:00,0.223101,288.291,280.308,259.574,282.517,280.85,260.701,0.282802,0.347615,237.592,255.73
2014-04-02 17:00,0.218616,286.271,277.35,258.022,278.576,277.243,258.638,0.272967,0.353409,237.528,254.629
2014-04-02 18:00,0.297113,291.686,281.029,259.902,283.088,281.146,260.581,0.29805,0.379832,238.168,255.639
2014-04-02 19:00,0.273202,289.514,278.474,258.246,279.76,278.004,259.856,0.294081,0.305747,238.104,255.183
2014-04-02 20:00,0.0617683,260.827,259.54,245.995,260.524,259.502,249.438,0.223724,0.2529,238.231,250.544
2014-04-02 21:00,1.69067,274.551,222.552,226.674,222.162,219.165,212.202,1.50733,2.12506,217.622,220.989
2014-04-02 22:00,-0.00830974,204.719,219.247,224.305,218.13,217.922,217.639,-0.0,-0.0,215.024,215.332
2014-04-02 23:00,-0.102084,266.797,266.293,251.056,267.354,266.16,252.982,-0.0471461,-0.0780759,236.341,251.85
2014-04-03 00:00,-0.0,270.713,271.023,254.099,273.215,272.086,256.16,-0.0,-0.0,237.006,254.536
2014-04-03 01:00,-0.00152764,278.482,278.474,258.802,280.785,279.061,259.856,-0.0,-0.0,235.178,254.722
2014-04-03 02:00,-0.0,265.095,267.326,251.552,270.006,269.494,255.532,-0.0,-0.0,235.936,254.068
2014-04-03 03:00,0.00122471,267.444,268.773,252.412,271.464,271.121,256.66,-0.0,-0.0,237.072,254.907
2014-04-03 04:00,-0.0,270.434,270.885,253.86,273.057,272.246,256.16,-0.0,-0.0,236.874,254.907
2014-04-03 05:00,-0.00130639,279.667,279.458,259.244,281.51,279.511,259.127,-0.0,-0.0,236.675,255.183
2014-04-03 06:00,0.00151026,266.797,267.473,251.799,269.021,267.506,252.853,-0.0,-0.0,234.686,252.925
2014-04-03 07:00,-0.00194103,266.797,267.764,251.799,269.679,269.329,254.392,-0.0,-0.0,237.268,254.722
2014-04-03 08:00,-0.00298821,266.797,267.909,251.552,269.842,269.329,254.646,-0.0,-0.0,237.785,255.183
2014-04-03 09:00,-0.0,269.865,269.908,253.381,272.582,271.444,255.909,-0.0,-0.0,238.733,255.639
2014-04-03 10:00,0.352944,276.376,273.199,255.393,275.396,274.46,256.535,0.420586,0.4355,239.653,256.091
2014-04-03 11:00,0.569758,292.294,278.598,258.358,280.785,278.609,258.882,0.455107,0.575205,240.253,257.07
2014-04-03 12:00,0.527054,296.008,275.046,256.32,276.772,274.773,256.535,0.359943,0.529903,240.957,256.982
2014-04-03 13:00,0.304892,291.931,272.12,254.454,271.945,268.007,250.369,0.202635,0.357453,236.874,252.439
2014-04-03 14:00,0.231876,284.087,264.021,249.414,260.524,254.855,238.128,0.160848,0.300372,230.184,242.725
2014-04-03 15:00,0.24372,287.871,274.392,256.089,272.899,268.835,250.369,0.210748,0.319341,236.408,251.452
2014-04-03 16:00,0.213537,295.476,286.882,263.928,287.407,283.629,260.219,0.126013,0.258693,242.544,259.22
2014-04-03 17:00,0.201451,292.294,283.495,261.838,283.656,280.406,258.76,0.169392,0.262285,243.202,259.638
2014-04-03 18:00,0.233684,281.705,269.343,252.656,270.332,268.67,254.137,0.365491,0.435793,242.378,256.539
2014-04-03 19:00,0.228109,283.76,274.524,256.089,276.01,273.359,256.035,0.361009,0.467037,243.093,257.682
2014-04-03 20:00,0.117901,268.986,263.867,250.051,263.393,262.712,249.572,0.211398,0.283567,237.528,252.146
2014-04-03 21:00,1.11054,275.02,203.247,218.73,202.701,202.113,205.361,0.94029,1.2613,204.122,203.113
2014-04-03 22:00,-0.0,204.719,200.774,217.106,199.196,197.752,201.266,-0.0,-0.0,201.207,200.502
2014-04-03 23:00,-0.132077,225.382,209.734,221.386,208.131,206.895,208.096,-0.0624165,-0.102331,207.891,209.047
2014-04-04 00:00,-0.00197135,238.442,225.937,228.564,221.838,219.165,217.832,-0.0,0.0019902,214.879,219.134
2014-04-04 01:00,-0.0,259.045,248.784,240.766,245.914,241.027,230.604,-0.0,-0.00153857,225.643,238.578
2014-04-04 02:00,-0.0,250.598,242.142,237.258,240.152,236.872,229.946,-0.0,-0.0,227.147,236.325
2014-04-04 03:00,-0.0,254.966,246.942,239.721,245.693,243.243,234.134,-0.0,-0.0,230.835,240.835
2014-04-04 04:00,-0.00122147,259.045,253.04,242.799,252.667,250.357,240.207,-0.0,-0.0,235.593,246.707
2014-04-04 05:00,-0.0,258.096,252.29,242.225,252.059,249.955,239.913,-0.0,-0.0,234.897,245.69
2014-04-04 06:00,0.00150977,258.576,249.978,241.061,248.946,246.666,237.373,-0.0,-0.0,233.677,243.818
2014-04-04 07:00,-0.0,278.883,273.065,254.926,273.372,270.311,252.464,-0.0,-0.0,241.647,255.091
2014-04-04 08:00,-0.0,282.923,279.213,258.913,279.17,276.323,255.909,-0.0,-0.0,241.986,256.091
2014-04-04 09:00,-0.0,280.613,279.458,258.913,280.639,278.156,257.653,-0.0,-0.0,242.378,257.595
2014-04-04 10:00,0.540817,281.526,273.466,255.043,275.55,273.517,256.535,0.52492,0.639204,244.269,260.135
2014-04-04 11:00,0.5934,293.93,270.607,253.501,272.423,271.283,255.658,0.456755,0.620857,244.531,259.721
2014-04-04 12:00,0.576483,293.472,268.199,251.799,270.495,270.311,255.784,0.501001,0.614938,245.709,260.217
2014-04-04 13:00,0.310702,294.491,281.267,260.011,281.51,278.76,259.249,0.18234,0.360142,245.304,260.135
2014-04-04 14:00,0.326435,300.134,278.474,258.913,280.347,277.701,259.127,0.220639,0.340871,246.456,261.435
2014-04-04 15:00,0.224995,296.219,287.102,263.825,287.543,284.205,262.255,0.115623,0.25997,246.406,261.595
2014-04-04 16:00,0.236381,296.738,283.956,261.625,284.921,281.588,260.581,0.135262,0.264865,245.859,261.595
2014-04-04 17:00,0.170198,296.219,290.86,266.159,291.555,288.306,264.372,0.0850464,0.208443,245.658,262.466
2014-04-04 18:00,0.154943,294.491,288.843,264.95,289.968,286.626,263.318,0.114618,0.2157,245.759,262.072
2014-04-04 19:00,0.231777,290.041,284.3,261.838,285.061,282.758,261.779,0.245306,0.344489,245.507,262.072
2014-04-04 20:00,0.0560716,279.081,276.208,256.892,277.828,276.938,258.76,0.154296,0.141519,243.633,259.051
2014-04-04 21:00,0.227296,232.213,217.685,223.899,214.89,214.03,215.873,0.324128,0.362318,209.569,210.353
2014-04-04 22:00,-0.00796458,218.393,211.654,221.6,211.028,211.284,211.781,-0.0,-0.0,208.274,208.371
2014-04-04 23:00,-0.125062,280.05,276.718,257.346,278.278,276.015,258.147,-0.0645667,-0.120098,240.841,256.271
2014-04-05 00:00,0.00196398,287.587,286.55,263.515,288.087,286.202,262.847,-0.0,-0.0,243.74,259.97
2014-04-05 01:00,-0.0,287.3,286.882,263.515,288.628,286.767,263.787,-0.0,-0.0,245.253,262.072
2014-04-05 02:00,-0.00131048,286.121,285.994,262.89,287.815,286.06,262.965,-0.0,-0.0,245.91,263.167
2014-04-05 03:00,-0.0,275.251,276.971,257.685,279.17,278.458,260.219,-0.0,-0.0,245.557,262.545
2014-04-05 04:00,-0.0,286.717,287.432,263.721,289.434,287.888,264.721,-0.0,-0.0,244.426,262.779
2014-04-05 05:00,-0.0,287.01,287.432,263.928,289.968,288.999,265.069,-0.0,-0.0,243.364,262.23
2014-04-05 06:00,-0.0,285.97,286.992,263.515,289.166,287.329,263.436,-0.0,-0.0,242.875,261.515
2014-04-05 07:00,0.00193967,285.665,286.661,263.307,288.897,287.469,264.372,-0.0,-0.0,242.544,261.435
2014-04-05 08:00,-0.00298357,285.665,286.772,263.618,289.3,288.167,264.372,-0.0,-0.0,242.433,261.194
2014-04-05 09:00,-0.0,285.818,286.55,263.307,289.3,288.167,264.022,-0.0,-0.0,243.039,261.194
2014-04-05 10:00,0.346125,286.717,287.322,263.515,289.968,288.584,264.255,0.349422,0.524151,242.042,261.355
2014-04-05 11:00,0.393447,291.44,289.593,264.849,291.423,289.551,264.372,0.189487,0.499244,241.361,261.275
2014-04-05 12:00,0.373123,295.69,291.591,266.358,292.86,290.101,265.301,0.1478,0.433964,241.361,261.033
2014-04-05 13:00,0.326451,297.549,290.756,265.959,292.47,289.689,264.605,0.175894,0.386165,242.042,261.275
2014-04-05 14:00,0.297913,296.427,287.869,264.236,289.568,287.188,263.67,0.216547,0.358926,241.874,261.194
2014-04-05 15:00,0.225727,294.933,288.087,264.543,289.835,287.188,263.553,0.159085,0.279258,241.533,261.355
2014-04-05 16:00,0.272431,286.717,278.101,258.358,279.76,278.458,259.977,0.324479,0.405315,241.817,260.299
2014-04-05 17:00,0.236751,296.738,286.328,263.618,287.951,284.636,261.898,0.149453,0.289929,241.476,260.299
2014-04-05 18:00,0.247527,286.569,278.474,258.246,279.907,278.609,259.492,0.344212,0.41373,242.266,260.463
2014-04-05 20:00,0.247937,294.933,290.229,265.758,291.686,288.584,264.255,0.167942,0.311096,242.042,261.033
2014-04-05 21:00,0.247658,291.563,289.486,265.456,291.16,288.306,264.372,0.356475,0.412541,241.817,261.435
2014-04-05 22:00,-0.00780494,282.923,282.214,260.769,284.22,282.467,261.301,-0.0,-0.0,240.841,260.217
2014-04-05 23:00,-0.178747,266.131,267.764,252.045,270.169,269.984,256.285,-0.0846505,-0.140694,240.957,258.372
2014-04-06 00:00,-0.0,287.3,285.433,262.681,287.27,284.922,262.728,-0.0,-0.0,240.665,260.627
2014-04-06 01:00,-0.00151708,287.155,285.882,263.099,287.543,285.208,263.318,-0.0,-0.0,240.548,260.299
2014-04-06 02:00,-0.0,282.408,281.148,260.337,282.946,281.441,261.898,-0.0,-0.0,240.899,259.97
2014-04-06 03:00,-0.00122113,273.088,272.256,254.808,274.778,274.147,258.147,-0.0,-0.0,241.189,259.051
2014-04-06 04:00,-0.0,277.869,276.718,258.134,279.318,277.091,259.614,-0.0,-0.0,241.015,259.471
2014-04-06 05:00,-0.0,286.569,286.55,263.515,288.358,286.202,263.318,-0.0,-0.0,240.957,260.627
2014-04-06 06:00,-0.0,286.717,286.217,263.307,288.358,286.343,263.083,-0.0,-0.0,240.43,260.463
2014-04-06 07:00,-0.0,286.271,285.882,263.203,287.679,285.635,262.965,-0.0,-0.0,239.894,259.887
2014-04-06 08:00,-0.0,286.864,286.217,263.411,288.087,286.202,262.965,-0.0,-0.0,239.714,259.22
2014-04-06 09:00,0.00745551,286.421,286.328,263.099,288.222,286.485,263.2,-0.0,-0.0,239.834,259.135
2014-04-06 10:00,0.282194,287.01,286.882,263.515,288.628,286.343,263.083,0.318578,0.434121,239.41,259.554
2014-04-06 11:00,0.467385,292.414,288.412,264.543,289.701,287.188,263.436,0.208604,0.52672,239.714,259.051
2014-04-06 12:00,0.400539,295.796,289.911,265.254,290.897,287.609,263.67,0.163082,0.444142,239.774,259.304
2014-04-06 13:00,0.310886,297.549,290.229,265.859,291.029,287.748,263.436,0.140014,0.347247,239.954,259.387
2014-04-06 14:00,0.356619,297.045,286.661,263.618,288.222,285.777,263.318,0.282853,0.388489,239.288,258.967
2014-04-06 15:00,0.213381,294.043,282.331,260.661,283.23,280.998,260.461,0.162935,0.272249,239.532,257.942
2014-04-06 16:00,0.221098,297.449,289.699,265.355,290.367,286.907,262.965,0.112987,0.265476,239.593,258.543
2014-04-06 17:00,0.187105,296.84,290.651,266.159,291.686,288.167,264.022,0.0893354,0.2244,240.43,258.798
2014-04-06 18:00,0.179592,296.219,290.651,266.059,291.686,288.445,263.787,0.0906781,0.217903,240.371,258.967
2014-04-06 19:00,0.221859,294.823,287.76,264.339,288.763,285.635,262.373,0.165748,0.263506,240.43,259.304
2014-04-06 20:00,0.307889,297.349,287.651,264.645,286.172,280.998,260.34,0.254626,0.390347,239.349,257.769
2014-04-06 21:00,0.590185,286.121,276.08,257.798,277.528,274.929,257.653,0.423666,0.556969,239.653,256.982
2014-04-06 22:00,-0.0,282.923,281.386,260.553,283.372,280.998,260.461,-0.0,-0.0,241.073,257.246
2014-04-06 23:00,-0.153487,288.012,286.772,263.721,288.628,286.343,262.728,-0.0764453,-0.139762,241.533,257.769
2014-04-07 00:00,-0.0,287.587,286.772,263.618,288.493,286.485,262.847,-0.0,0.00196851,241.189,259.051
2014-04-07 01:00,-0.0015138,287.155,286.882,264.031,289.032,287.188,263.67,-0.0,-0.0,242.433,260.052
2014-04-07 02:00,-0.0,287.155,287.102,263.928,289.3,287.469,264.022,-0.0,-0.0,242.155,259.887
2014-04-07 03:00,-0.0,286.569,286.772,263.825,289.032,287.469,264.138,-0.0,-0.0,242.266,259.471
2014-04-07 04:00,-0.0,286.569,286.328,263.411,288.222,286.626,263.436,-0.0,-0.0,242.042,259.304
2014-04-07 05:00,-0.0,286.121,285.321,262.681,287.543,285.065,262.373,-0.0,-0.0,242.6,258.798
2014-04-07 06:00,-0.0,286.121,285.994,262.995,287.951,286.06,263.2,-0.0,-0.0,243.147,259.051
2014-04-07 07:00,0.00193862,286.121,285.77,263.099,287.951,286.06,263.67,-0.0,-0.0,242.984,259.22
2014-04-07 08:00,0.00297936,285.665,285.658,262.786,287.815,286.06,262.965,-0.0,-0.0,242.378,259.304
2014-04-07 09:00,-0.0148635,285.202,285.321,262.576,287.543,285.919,263.083,-0.0,-0.0,241.874,259.135
2014-04-07 10:00,0.379873,286.421,285.546,262.786,287.27,285.208,261.54,0.344612,0.56156,241.986,258.882
2014-04-07 11:00,0.414614,290.939,287.212,263.928,288.493,285.777,262.61,0.215559,0.495684,241.419,259.051
2014-04-07 12:00,0.393014,295.151,289.805,265.254,290.897,287.748,263.083,0.156158,0.445536,241.704,259.387
2014-04-07 13:00,0.301874,296.943,290.545,265.859,291.16,287.469,262.728,0.116563,0.341599,241.986,259.387
2014-04-07 14:00,0.322381,297.045,287.651,264.236,288.897,286.343,263.083,0.235847,0.352585,241.131,259.135
2014-04-07 15:00,0.270572,294.602,286.328,263.411,287.543,284.922,262.255,0.205739,0.312939,240.899,258.628
2014-04-07 16:00,0.210098,298.144,291.279,266.358,292.079,288.167,263.083,0.0867211,0.237294,240.841,258.798
2014-04-07 17:00,0.217569,293.702,286.105,263.411,287.27,284.922,262.61,0.165076,0.263864,240.253,258.882
2014-04-07 18:00,0.17886,294.713,288.412,264.543,289.568,286.343,263.436,0.114983,0.222369,239.894,259.135
2014-04-07 19:00,0.133582,291.563,287.651,263.825,288.222,285.635,262.492,0.1335,0.203394,239.834,258.798
2014-04-07 20:00,0.170089,275.707,273.865,255.742,275.55,274.617,258.023,0.33399,0.365351,240.548,257.07
2014-04-07 21:00,0.93149,283.428,276.718,257.346,278.427,277.396,259.977,0.732356,1.00757,241.015,258.882
2014-04-07 22:00,-0.00750904,285.045,283.264,261.519,285.061,283.049,261.54,-0.0,-0.0,241.361,259.304
2014-04-07 23:00,-0.146514,288.841,287.978,264.236,289.968,287.748,264.138,-0.0784824,-0.144896,241.246,259.97
2014-04-08 00:00,-0.0,288.012,287.541,263.928,289.568,287.469,263.436,-0.0,-0.0,240.548,259.471
2014-04-08 01:00,-0.0,287.444,287.541,264.236,289.701,288.027,264.488,-0.0,-0.0,240.312,259.304
2014-04-08 02:00,-0.0013051,287.587,287.432,264.133,289.701,288.027,263.905,-0.0,-0.0,237.398,257.508
2014-04-08 03:00,-0.0,287.3,287.212,264.133,289.434,287.469,264.605,-0.0,-0.0,239.532,259.387
2014-04-08 04:00,-0.0,287.01,286.772,263.825,288.897,287.188,264.372,-0.0,-0.0,238.733,258.286
2014-04-08 05:00,-0.0,285.512,285.095,262.786,287.407,285.635,262.847,-0.0,-0.0,237.528,258.457
2014-04-08 06:00,-0.0,283.924,282.682,261.091,284.921,283.194,261.54,-0.0,-0.0,237.913,258.372
2014-04-08 07:00,-0.0,286.121,285.77,262.89,288.087,286.202,262.965,-0.0,-0.0,236.742,257.942
2014-04-08 08:00,-0.00297738,285.97,285.994,262.995,288.358,286.626,263.2,-0.0,-0.0,237.528,258.457
2014-04-08 09:00,-0.0,285.97,286.217,263.203,288.493,286.907,263.905,-0.0,-0.0,239.894,259.387
2014-04-08 10:00,0.3562,287.155,286.772,263.515,288.897,287.048,263.67,0.324794,0.539408,239.774,259.638
2014-04-08 11:00,0.419876,291.563,289.272,265.052,291.029,288.584,264.372,0.191666,0.51604,241.073,260.217
2014-04-08 12:00,0.394269,295.902,291.174,266.557,292.209,288.999,264.138,0.156656,0.446959,240.371,259.638
2014-04-08 13:00,0.306129,297.749,291.694,267.052,293.248,289.964,264.372,0.129599,0.340968,241.476,260.381
2014-04-08 14:00,0.27801,298.533,290.965,266.458,292.47,289.551,264.837,0.150121,0.313603,242.378,260.299
2014-04-08 15:00,0.238538,298.144,290.965,266.458,292.34,289.137,264.255,0.118281,0.266098,242.042,260.463
2014-04-08 16:00,0.229335,293.124,286.328,263.411,287.815,285.635,262.728,0.18525,0.292736,242.099,260.463
2014-04-08 17:00,0.225597,295.368,288.303,264.747,289.434,286.626,263.2,0.150167,0.27932,241.073,260.545
2014-04-08 18:00,0.18811,296.943,291.902,266.855,293.119,289.826,264.255,0.0873886,0.225201,241.817,260.789
2014-04-08 19:00,0.185206,294.823,290.965,266.159,292.34,289.689,265.532,0.112009,0.23372,242.544,261.435
2014-04-08 20:00,0.22682,295.151,290.756,266.557,291.817,288.445,263.553,0.145585,0.291775,242.433,260.381
2014-04-08 21:00,0.262507,293.124,288.843,264.95,290.234,287.188,263.318,0.269057,0.32081,241.93,260.217
2014-04-08 22:00,-0.0147438,288.568,287.651,264.133,288.897,286.202,262.965,-0.0,-0.0,239.227,258.286
2014-04-08 23:00,-0.139646,288.012,286.105,263.618,287.27,283.773,261.062,-0.0729555,-0.137982,238.919,257.769
2014-04-09 00:00,-0.0,284.249,279.702,259.134,279.907,276.323,255.406,-0.0,0.00195512,236.274,254.907
2014-04-09 01:00,-0.00150759,279.667,271.299,253.741,270.006,265.138,246.594,-0.0,-0.0,231.709,248.987
2014-04-09 02:00,-0.0,286.421,284.982,262.681,286.172,283.194,260.461,-0.0,-0.0,236.274,257.595
2014-04-09 03:00,0.00121817,286.421,284.642,262.261,285.895,283.194,260.461,-0.0,-0.0,235.867,256.45
2014-04-09 04:00,-0.0,284.087,280.429,259.683,280.931,277.548,256.66,-0.0,-0.0,231.709,252.342
2014-04-09 05:00,-0.0,278.279,270.189,253.14,268.855,264.279,247.279,-0.0,-0.0,227.238,245.114
2014-04-09 06:00,-0.0,270.434,257.339,244.903,256.213,252.341,238.727,-0.0,-0.0,225.643,239.922
2014-04-09 07:00,-0.00193784,280.982,277.35,257.685,278.576,275.24,255.784,-0.0,-0.0,231.63,253.405
2014-04-09 08:00,-0.00297547,268.382,268.343,251.922,270.657,269.329,254.137,-0.0,-0.0,231.865,254.256
2014-04-09 09:00,-0.0,262.869,264.175,249.797,265.654,264.451,251.422,-0.0,-0.0,232.251,252.342
2014-04-09 10:00,0.940947,271.798,263.401,249.286,264.792,262.712,250.104,0.925576,1.08964,232.097,252.439
2014-04-09 11:00,0.758769,290.813,263.556,249.286,264.965,263.412,250.896,0.676588,0.795627,232.175,252.047
2014-04-09 12:00,0.545814,298.918,268.63,253.14,269.186,264.623,249.572,0.37046,0.519799,232.481,252.146
2014-04-09 13:00,0.323773,298.726,281.029,260.769,279.022,271.121,251.422,0.176635,0.360565,232.405,252.146
2014-04-09 14:00,0.280322,296.738,285.882,263.515,284.361,277.853,255.28,0.163855,0.320352,232.251,252.925
2014-04-09 15:00,0.284315,295.151,284.642,262.471,284.361,278.76,256.785,0.20154,0.323079,233.968,253.974
2014-04-09 16:00,0.25666,293.007,283.264,261.519,284.22,280.702,258.638,0.203871,0.312539,235.525,254.999
2014-04-09 17:00,0.259345,272.58,250.76,241.5,251.242,248.736,237.07,0.466925,0.568246,229.517,238.986
2014-04-09 18:00,0.212517,292.294,283.032,261.412,283.938,280.108,258.147,0.195523,0.307464,235.731,254.629
2014-04-09 19:00,0.377392,274.787,245.89,239.267,241.344,239.438,231.905,0.56013,0.645459,221.819,231.695
2014-04-09 20:00,0.724905,270.989,195.924,216.869,193.017,192.954,196.325,0.861165,1.00814,196.259,196.01
2014-04-09 21:00,0.430819,246.775,198.095,217.809,196.503,196.363,200.261,0.41341,0.507427,199.021,199.092
2014-04-09 22:00,-0.0,204.719,202.034,219.183,200.733,199.981,203.228,-0.0,-0.0,201.207,200.502
2014-04-09 23:00,-0.18308,227.984,211.184,222.238,208.556,206.895,209.201,-0.0850074,-0.146075,207.697,209.047
2014-04-10 00:00,-0.0,230.231,218.862,226.287,215.26,210.931,211.57,-0.0,-0.0,212.607,216.392
2014-04-10 01:00,-0.0,213.142,207.704,221.17,205.946,203.757,205.593,-0.0,-0.0,205.015,206.239
2014-04-10 02:00,-0.0,227.984,219.247,226.481,217.072,215.027,215.074,-0.0,-0.0,214.588,217.164
2014-04-10 03:00,-0.0,222.276,215.64,224.305,213.763,210.931,210.932,-0.0,0.00122895,212.287,214.511
2014-04-10 04:00,-0.00121781,225.382,217.685,225.107,215.628,213.016,212.202,-0.0,-0.0,213.693,215.6
2014-04-10 05:00,-0.0,239.711,233.116,232.319,230.574,228.056,224.834,-0.0,-0.0,220.454,227.694
2014-04-10 06:00,-0.0,244.063,239.074,235.499,237.451,233.969,228.782,-0.0,-0.0,223.434,233.146
2014-04-10 07:00,0.00193755,242.013,231.14,231.098,228.293,225.318,222.329,-0.0,-0.0,219.744,225.604
2014-04-10 08:00,-0.0,233.989,226.902,229.118,225.919,224.19,221.23,-0.0,-0.0,219.982,224.204
2014-04-10 09:00,0.00736108,248.394,248.177,240.171,248.733,247.501,240.646,-0.0,-0.0,229.685,241.348
2014-04-10 10:00,0.489285,262.475,254.871,244.07,255.633,254.472,245.489,0.804881,0.931472,230.184,244.175
2014-04-10 11:00,0.434279,289.779,282.331,260.769,283.23,278.76,257.282,0.224361,0.527603,232.481,249.408
2014-04-10 12:00,0.368034,294.043,287.76,264.645,288.897,284.492,259.492,0.150175,0.436462,230.348,249.198
2014-04-10 13:00,0.282942,297.947,281.624,260.445,281.943,276.015,254.9,0.146008,0.339734,230.266,248.025
2014-04-10 14:00,0.268382,296.219,282.448,261.091,282.374,276.323,255.027,0.135376,0.319949,231.394,248.455
2014-04-10 16:00,0.232404,293.587,284.869,262.471,286.31,282.758,260.219,0.170914,0.272166,230.348,249.721
2014-04-10 17:00,0.246162,291.065,282.682,261.091,283.656,280.108,258.392,0.248413,0.329426,233.085,250.748
2014-04-10 18:00,0.163166,286.421,273.065,255.277,270.495,265.82,248.499,0.149547,0.234352,226.311,242.971
2014-04-10 19:00,0.362109,277.026,245.676,238.81,239.911,236.157,229.449,0.386085,0.476145,219.744,227.323
2014-04-10 20:00,0.549667,278.482,237.339,234.681,232.23,227.517,221.965,0.531889,0.671946,219.503,225.604
2014-04-10 21:00,0.73224,273.088,239.074,235.662,233.577,229.121,222.511,0.531417,0.769414,216.83,223.793
2014-04-10 22:00,-0.0,265.446,247.357,240.32,241.58,235.917,227.089,-0.0,-0.0,217.622,227.323
2014-04-10 23:00,-0.137954,270.151,254.69,244.626,250.207,243.896,232.547,-0.0720712,-0.130383,219.744,232.022
2014-04-11 00:00,-0.0,268.686,253.595,243.93,248.093,242.143,230.931,-0.0,-0.0,217.881,228.96
2014-04-11 01:00,-0.00150185,260.827,245.248,238.81,239.911,235.435,228.109,-0.0,-0.0,215.734,224.61
2014-04-11 02:00,-0.00130047,253.81,239.559,236.146,235.93,233.225,226.746,-0.0,-0.0,220.219,227.323
2014-04-11 03:00,-0.0,250.598,235.275,233.344,231.408,227.787,222.329,-0.0,-0.0,218.391,225.408
2014-04-11 04:00,-0.0,250.598,233.938,232.663,230.012,225.318,219.551,-0.0,-0.0,217.881,223.377
2014-04-11 05:00,-0.0,237.078,222.198,228.004,216.715,211.983,211.146,-0.0,-0.0,211.135,215.6
2014-04-11 06:00,-0.0,244.063,232.28,232.319,228.871,225.318,220.302,-0.0,-0.0,217.752,224.408
2014-04-11 07:00,-0.0,275.707,267.618,251.18,267.185,263.237,246.457,-0.0,-0.0,228.748,243.214
2014-04-11 08:00,-0.0,273.586,260.692,247.597,259.051,253.316,237.373,-0.0,-0.0,222.04,235.592
2014-04-11 09:00,-0.0,273.831,262.616,248.771,261.069,256.18,239.913,-0.0,-0.0,221.819,236.757
2014-04-11 10:00,0.452054,277.24,267.18,251.056,266.847,262.361,244.792,0.466481,0.598993,223.849,241.093
2014-04-11 11:00,0.402804,282.923,270.468,252.899,269.679,265.309,247.279,0.294119,0.544693,226.122,242.725
2014-04-11 12:00,0.420434,294.491,281.742,260.445,282.231,277.396,255.658,0.216602,0.44242,229.601,249.303
2014-04-11 13:00,0.456849,299.203,269.201,253.02,270.819,267.84,252.205,0.35126,0.464607,231.63,250.032
2014-04-11 14:00,0.363791,292.534,268.916,252.777,267.69,261.477,245.767,0.331063,0.435228,228.662,245.918
2014-04-11 15:00,0.255665,292.653,281.624,260.445,281.076,275.396,254.519,0.183775,0.309194,231.076,250.032
2014-04-11 16:00,0.237295,290.041,280.429,259.354,281.51,277.853,258.023,0.197531,0.317623,232.328,251.949
2014-04-11 17:00,0.26305,288.568,279.823,259.024,280.931,277.853,257.777,0.289663,0.367147,232.633,252.146
2014-04-11 18:00,0.228281,290.813,282.331,260.553,282.946,278.911,257.777,0.191854,0.283385,233.01,252.047
2014-04-11 19:00,0.146294,285.202,279.702,259.024,280.493,277.396,257.158,0.190565,0.224948,233.603,251.652
2014-04-11 20:00,0.294886,293.124,284.185,262.049,284.361,279.361,257.158,0.211267,0.358773,234.543,252.244
2014-04-11 21:00,0.965282,282.408,261.501,247.597,258.491,253.122,237.827,0.711844,1.00595,225.546,238.986
2014-04-11 22:00,-0.0,267.444,249.978,241.5,245.024,238.282,227.089,-0.0,-0.0,219.26,230.524
2014-04-11 23:00,-0.145902,264.739,244.38,237.884,239.911,234.461,224.481,-0.0716501,-0.129621,218.391,227.694
2014-04-12 00:00,-0.00959129,277.24,266.145,250.681,263.569,257.856,240.646,-0.00162419,-0.00387319,225.352,240.576
2014-04-12 01:00,-0.0,271.531,256.819,244.765,253.669,248.327,234.76,-0.0,-0.0,222.799,235.146
2014-04-12 02:00,-0.0,272.58,261.982,249.286,258.116,251.354,236.765,-0.0,-0.0,221.93,236.469
2014-04-12 03:00,-0.0,273.586,262.616,249.286,258.678,251.947,236.613,-0.0,-0.0,221.031,236.033
2014-04-12 04:00,-0.0,279.667,272.12,254.336,270.981,266.329,247.551,-0.0,-0.0,224.258,241.98
2014-04-12 05:00,-0.0,282.234,276.971,257.233,277.226,273.832,252.853,-0.0,-0.0,226.216,245.46
2014-04-12 06:00,-0.0,278.279,271.162,253.86,269.842,265.82,247.006,-0.0,-0.0,223.746,241.602
2014-04-12 07:00,-0.0,276.594,268.487,251.922,267.185,263.412,246.044,-0.0,-0.0,223.952,240.446
2014-04-12 08:00,-0.0,278.075,271.984,254.099,271.464,268.007,249.838,-0.0,-0.0,225.156,243.093
2014-04-12 09:00,-0.0,278.684,274.392,255.277,274.778,271.444,251.683,-0.0,-0.0,225.835,245.114
2014-04-12 10:00,0.785353,277.24,265.394,249.669,263.745,260.045,243.241,0.701227,0.937017,223.538,239.255
2014-04-12 12:00,0.366067,284.73,266.738,250.429,265.482,259.321,240.646,0.245691,0.488999,224.46,240.316
2014-04-12 13:00,0.267925,283.428,264.94,249.924,262.863,258.224,241.808,0.199743,0.372556,223.746,238.027
2014-04-12 14:00,0.265846,283.924,266.293,250.303,264.095,259.684,243.525,0.232392,0.362686,225.254,239.789
2014-04-12 15:00,0.251221,278.482,260.201,246.934,258.304,253.896,239.765,0.256834,0.356151,224.76,238.027
2014-04-12 16:00,0.235535,281.346,265.995,250.555,264.27,260.045,244.512,0.247018,0.336414,225.643,241.348
2014-04-12 17:00,0.16892,294.268,286.882,263.099,287.679,283.629,258.882,0.0831252,0.221549,231.076,251.452
2014-04-12 18:00,0.273684,287.155,272.527,254.336,271.142,267.171,249.305,0.188548,0.353526,226.499,241.98
2014-04-12 19:00,0.240225,292.053,283.726,261.091,284.22,280.406,256.909,0.136238,0.318023,229.263,248.882
2014-04-12 20:00,0.164369,291.19,285.882,262.786,287.27,284.061,259.614,0.139171,0.235404,230.755,251.252
2014-04-12 21:00,0.470989,289.514,283.38,260.876,284.501,281.293,258.882,0.398786,0.541076,229.935,249.928
2014-04-12 22:00,-0.00688647,279.278,270.885,253.02,270.819,267.171,249.171,-0.0,-0.0,226.027,242.602
2014-04-12 23:00,-0.191495,284.087,279.091,258.134,279.907,277.091,255.909,-0.0761561,-0.131813,228.224,247.808
2014-04-13 00:00,-0.0879775,284.73,280.669,259.574,281.799,278.004,255.909,-0.0340065,-0.0637177,230.755,249.408
2014-04-13 01:00,-0.00149658,285.818,284.185,261.519,285.757,282.467,259.37,-0.00126715,-0.0,233.234,252.537
2014-04-13 02:00,-0.0,283.428,279.702,259.134,280.054,275.551,253.753,-0.0,-0.0,230.755,249.617
2014-04-13 03:00,-0.00121514,282.234,278.226,258.246,277.528,271.926,250.633,-0.0,-0.0,230.348,248.455
2014-04-13 04:00,0.00121677,282.753,278.845,258.469,278.576,273.99,252.723,-0.0,0.0012284,230.755,249.303
2014-04-13 05:00,-0.0,281.883,278.474,258.022,278.427,273.675,252.335,-0.0,-0.0,230.916,249.617
2014-04-13 06:00,-0.0015081,280.982,275.306,256.205,275.242,269.984,249.171,-0.0,-0.0,229.852,248.241
2014-04-13 07:00,-0.0,277.451,269.626,252.656,268.69,263.933,245.767,-0.0,-0.0,226.778,243.818
2014-04-13 08:00,-0.0,274.787,267.033,251.922,265.654,260.584,242.814,-0.0,-0.0,224.359,240.964
2014-04-13 09:00,-0.0,266.797,253.411,243.79,249.789,243.461,231.094,-0.0,-0.0,220.219,232.347
2014-04-13 10:00,0.577492,275.251,265.696,249.924,264.965,261.121,243.667,0.57453,0.641314,225.546,241.854
2014-04-13 11:00,0.611186,282.234,267.033,250.806,266.508,263.063,245.767,0.615309,0.65089,226.311,243.093
2014-04-13 12:00,0.427813,281.883,259.54,246.399,257.928,253.896,240.354,0.411538,0.477129,224.258,237.888
2014-04-13 13:00,0.317838,294.38,283.611,260.876,284.781,280.85,257.9,0.173206,0.361839,230.348,250.34
2014-04-13 14:00,0.302785,297.848,288.52,264.339,290.367,287.188,262.847,0.181899,0.337703,231.943,253.785
2014-04-13 15:00,0.248091,296.427,288.087,263.928,289.568,286.485,262.373,0.14988,0.278894,232.481,253.785
2014-04-13 16:00,0.2472,288.568,281.624,260.337,283.372,281.735,260.822,0.27073,0.349931,232.935,253.88
2014-04-13 17:00,0.179818,295.902,290.545,265.456,291.817,288.167,263.67,0.0920877,0.228385,232.935,254.162
2014-04-13 18:00,0.194815,295.69,289.593,265.052,290.5,287.048,262.017,0.105625,0.243258,232.709,253.785
2014-04-13 19:00,0.271557,294.268,282.682,261.091,282.374,277.396,255.027,0.193216,0.33866,230.184,250.135
2014-04-13 20:00,0.405833,293.24,281.267,259.902,281.655,277.396,255.027,0.343618,0.515068,231.076,251.051
2014-04-13 21:00,0.186607,278.883,277.224,257.346,279.022,277.853,259.127,0.330363,0.325402,234.257,254.256
2014-04-13 22:00,-0.0,274.787,275.694,256.32,277.978,276.938,259.127,-0.0,-0.0,235.178,254.443
2014-04-13 23:00,-0.201979,278.684,278.474,257.798,280.493,279.511,260.461,-0.0757352,-0.133998,235.108,254.629
2014-04-14 00:00,-0.110609,274.551,274.392,255.51,276.01,274.929,258.023,-0.0435969,-0.0770115,233.823,250.646
2014-04-14 01:00,-0.0,282.234,281.978,259.902,283.938,282.175,261.301,-0.00126506,-0.0,233.603,253.595
2014-04-14 02:00,-0.0,270.151,265.545,249.797,265.997,262.888,247.279,-0.0,-0.0,229.263,246.929
2014-04-14 03:00,-0.0,218.393,206.643,220.077,205.497,204.955,207.197,-0.0,-0.0,203.192,203.113
2014-04-14 04:00,-0.0,204.719,200.774,218.041,199.196,199.102,202.255,-0.0,-0.0,200.142,200.041
2014-04-14 05:00,-0.0,204.719,198.095,216.869,197.056,196.831,201.266,-0.0,-0.0,199.589,198.603
2014-04-14 06:00,-0.00150818,213.142,198.787,217.342,197.056,197.752,201.266,-0.0,-0.0,198.438,198.603
2014-04-14 07:00,-0.00193686,204.719,202.034,218.502,201.233,200.415,202.255,-0.0,-0.0,201.973,202.271
2014-04-14 08:00,-0.0,213.142,206.1,219.855,205.497,203.757,205.825,-0.0,-0.0,205.663,205.491
2014-04-14 09:00,-0.00726667,218.393,218.474,224.305,217.427,216.008,216.663,-0.0,0.00733613,214.879,217.164
2014-04-14 10:00,0.511055,242.013,226.902,228.378,226.221,224.756,222.511,0.803603,1.0024,219.503,223.999
2014-04-14 11:00,0.561442,263.255,246.523,238.81,244.575,243.679,236.918,1.01096,1.11472,225.546,235.295
2014-04-14 12:00,0.41134,257.605,236.06,233.681,232.502,233.225,229.946,0.879266,0.946276,219.503,224.408
2014-04-14 13:00,0.29685,251.944,231.427,230.743,230.294,229.121,226.918,0.525665,0.594238,222.585,226.57
2014-04-14 14:00,0.298026,273.088,254.145,243.65,254.263,253.122,243.099,0.396882,0.476143,229.263,242.23
2014-04-14 15:00,0.25571,281.165,260.854,247.597,260.524,258.591,246.732,0.2883,0.355982,229.601,243.577
2014-04-14 16:00,0.221194,277.661,261.179,247.859,260.706,258.408,246.182,0.276358,0.360833,228.488,241.093
2014-04-14 17:00,0.329189,256.062,215.64,223.283,213.381,213.356,214.062,0.57348,0.657319,209.023,209.379
2014-04-14 18:00,0.453545,265.095,207.178,219.632,205.497,204.559,205.593,0.760758,0.861995,205.015,204.721
2014-04-14 19:00,0.54459,261.251,214.358,222.868,212.997,212.329,212.619,0.793798,0.920966,212.287,213.092
2014-04-14 20:00,0.762094,259.954,224.95,227.817,224.384,223.619,221.965,0.893443,1.08897,220.57,222.956
2014-04-14 21:00,0.922704,262.475,244.16,237.728,242.747,240.35,233.503,0.766228,1.11066,224.359,233.461
2014-04-14 22:00,-0.00667713,265.791,260.365,247.332,261.069,258.957,246.869,-0.0,-0.0,228.662,245.345
2014-04-14 23:00,-0.152106,273.088,265.696,250.555,264.792,262.537,248.364,-0.0631789,-0.124586,228.575,243.698
2014-04-15 00:00,-0.12932,274.551,265.545,250.555,263.745,260.584,246.732,-0.0434759,-0.0767976,225.546,241.475
2014-04-15 01:00,-0.00149176,276.155,264.635,250.303,262.507,257.856,242.241,-0.0,-0.0,223.746,238.85
2014-04-15 02:00,-0.0,280.427,273.065,254.926,272.423,268.173,250.104,-0.0,-0.0,226.405,244.647
2014-04-15 03:00,-0.0,232.213,219.628,225.897,217.427,215.683,215.274,-0.0,-0.0,212.922,215.061
2014-04-15 04:00,-0.0,251.282,240.039,235.662,237.702,235.435,229.781,-0.0,-0.0,222.04,230.183
2014-04-15 05:00,-0.0,249.156,238.09,233.849,235.93,233.722,228.278,-0.0,-0.0,222.476,230.011
2014-04-15 06:00,-0.0,247.601,241.682,236.306,240.631,238.747,232.227,-0.0,-0.0,223.849,233.304
2014-04-15 07:00,-0.0,262.869,257.683,245.314,258.304,256.367,244.09,-0.0,-0.0,226.871,242.725
2014-04-15 08:00,-0.0,251.282,247.357,239.721,246.135,245.186,237.977,-0.0,-0.0,225.739,236.179
2014-04-15 09:00,-0.0,266.131,266.738,250.177,268.855,268.173,252.853,-0.0,-0.0,229.769,249.928
2014-04-15 10:00,0.177268,268.986,268.199,251.922,270.657,270.148,255.28,0.362723,0.29827,232.251,251.652
2014-04-15 12:00,0.478232,294.823,269.059,252.412,271.303,269.0,254.137,0.374358,0.496468,233.75,251.552
2014-04-15 13:00,0.308069,296.323,286.105,262.786,287.27,283.339,259.977,0.148435,0.362563,233.308,253.595
2014-04-15 14:00,0.368731,299.013,276.336,257.346,278.873,276.015,257.653,0.271642,0.395705,233.085,253.785
2014-04-15 15:00,0.282299,296.323,279.458,259.024,280.785,278.307,259.249,0.198994,0.304088,233.085,253.88
2014-04-15 16:00,0.307371,294.713,278.474,258.134,280.493,277.243,257.9,0.254518,0.397798,233.603,253.69
2014-04-15 17:00,0.364308,262.475,213.031,222.659,211.428,209.497,208.982,0.608247,0.726719,209.569,210.984
2014-04-15 18:00,0.443868,263.636,209.237,221.17,208.556,207.274,209.42,0.72386,0.819503,208.274,208.371
2014-04-15 19:00,0.652497,269.865,203.838,218.957,202.701,201.694,203.708,0.999145,1.14695,204.795,203.929
2014-04-15 20:00,0.952386,281.705,204.988,219.632,204.584,202.941,205.593,1.09079,1.29263,206.905,205.109
2014-04-15 21:00,0.780668,256.589,233.666,233.005,232.502,230.17,225.36,0.645253,0.863191,220.686,228.782
2014-04-15 22:00,-0.00657983,235.601,228.155,229.847,225.919,223.332,220.489,-0.0,-0.00664273,217.622,223.586
2014-04-15 23:00,-0.225543,232.213,220.379,226.481,218.13,216.331,214.671,-0.0749363,-0.141231,213.995,217.918
2014-04-16 00:00,-0.144147,233.989,222.904,227.628,221.511,218.547,217.639,-0.0449653,-0.0823362,215.734,219.608
2014-04-16 01:00,-0.00148953,268.986,255.05,244.21,253.269,248.121,235.382,-0.0,-0.0,221.371,234.082
2014-04-16 02:00,-0.00129435,269.283,259.54,246.801,259.606,255.803,242.384,-0.0,-0.0,225.352,240.576
2014-04-16 03:00,-0.00121353,252.585,245.463,238.349,242.049,240.35,233.503,-0.0,-0.0,221.93,231.031
2014-04-16 04:00,-0.0,276.376,268.63,251.922,268.358,264.623,247.279,-0.0,-0.0,226.963,243.577
2014-04-16 05:00,-0.0,275.02,270.189,252.656,270.819,267.171,248.768,-0.0,-0.0,227.238,244.764
2014-04-16 06:00,-0.00150846,280.427,279.945,259.134,281.943,279.361,257.9,-0.0,-0.0,232.02,250.032
2014-04-16 07:00,-0.00193677,284.73,281.86,260.011,283.514,280.406,258.882,-0.0,-0.0,231.943,250.849
2014-04-16 08:00,-0.0,265.446,264.329,249.797,266.338,263.933,249.438,-0.0,-0.0,232.633,249.617
2014-04-16 09:00,-0.0072186,268.073,265.394,250.051,266.678,264.279,249.572,-0.0,-0.0,232.633,248.987
2014-04-16 10:00,0.343849,269.865,263.712,249.669,263.745,261.831,247.687,0.392402,0.467879,231.865,248.241
2014-04-16 11:00,0.370096,288.705,283.841,261.305,284.921,281.735,259.127,0.195051,0.484199,234.543,252.244
2014-04-16 12:00,0.353186,292.174,286.772,263.203,287.951,284.349,260.098,0.147604,0.425133,236.609,254.162
2014-04-16 13:00,0.281801,294.491,289.272,264.747,290.5,286.907,262.136,0.105563,0.341394,237.528,255.457
2014-04-16 14:00,0.233077,295.368,289.486,265.052,290.5,286.767,262.136,0.0838719,0.280895,237.072,255.183
2014-04-16 15:00,0.210123,296.84,287.978,263.825,289.3,284.922,261.182,0.0814948,0.24361,237.072,255.73
2014-04-16 16:00,0.216148,296.943,286.55,263.099,288.087,283.629,260.219,0.103592,0.244291,237.721,255.821
2014-04-16 17:00,0.202809,294.602,287.978,264.236,289.3,286.06,262.136,0.113235,0.246291,238.294,256.271
2014-04-16 18:00,0.170159,283.76,272.256,253.501,272.264,268.173,247.551,0.235221,0.28923,233.53,249.198
2014-04-16 19:00,0.540537,265.446,222.198,227.058,219.508,217.922,217.639,0.652972,0.8115,215.593,219.134
2014-04-16 20:00,0.499495,280.799,264.94,249.669,263.745,259.684,243.808,0.548107,0.730183,231.709,245.345
2014-04-16 21:00,1.01402,260.395,226.583,229.665,222.162,220.685,219.362,0.742995,1.08278,213.845,217.164
2014-04-16 22:00,-0.00648712,246.775,230.85,230.921,227.708,225.318,221.598,-0.0,-0.0,219.503,223.377
2014-04-16 23:00,-0.161912,265.446,255.587,244.21,255.633,252.927,241.084,-0.0625324,-0.126179,228.224,240.964
2014-04-17 00:00,-0.102156,287.155,284.982,262.366,286.585,283.629,260.942,-0.0384422,-0.0763942,232.405,250.95
2014-04-17 01:00,-0.0,273.586,260.201,247.465,257.55,252.341,237.827,-0.0,-0.0,221.93,234.845
2014-04-17 02:00,-0.00129336,260.827,240.984,236.306,236.186,231.968,224.834,-0.0,-0.0,216.15,224.204
2014-04-17 03:00,-0.0,258.096,238.83,235.173,234.107,230.17,223.77,-0.0,-0.0,215.734,224.204
2014-04-17 04:00,0.00121612,237.078,229.072,229.847,228.001,226.426,223.233,-0.0,-0.0,220.454,224.408
2014-04-17 05:00,0.00130344,274.551,264.635,249.029,263.745,260.584,244.512,-0.0,-0.0,227.691,242.23
2014-04-17 06:00,-0.0,243.066,242.142,236.466,242.049,241.698,235.537,-0.0,-0.0,227.51,235.592
2014-04-17 07:00,-0.0,278.684,275.046,255.742,275.396,273.042,253.497,-0.0,-0.0,228.136,247.04
2014-04-17 08:00,0.00296166,267.123,264.482,249.669,264.444,263.063,250.236,-0.0,-0.0,228.136,245.114
2014-04-17 09:00,-0.0,261.666,260.692,247.067,262.685,261.831,250.104,-0.0,-0.0,231.076,248.455
2014-04-17 10:00,0.348105,277.451,270.607,253.501,273.215,270.473,254.264,0.410073,0.458391,232.935,251.352
2014-04-17 11:00,0.614605,287.587,263.556,249.414,266.338,264.967,251.683,0.542871,0.639631,233.75,251.051
2014-04-17 12:00,0.379487,295.26,280.669,259.244,282.087,278.609,257.653,0.219338,0.417526,235.386,253.69
2014-04-17 13:00,0.404462,296.635,277.852,257.91,279.022,276.631,258.147,0.29312,0.429091,235.867,254.907
2014-04-17 14:00,0.342068,287.587,276.08,256.664,278.427,276.477,258.023,0.409688,0.501773,235.593,254.349
2014-04-17 15:00,0.213616,268.073,262.774,248.9,264.27,263.933,251.814,0.563342,0.62637,235.386,252.146
2014-04-17 16:00,0.207455,259.505,239.559,235.662,237.451,236.872,232.387,0.607849,0.65863,224.156,232.829
2014-04-17 17:00,0.261292,253.81,228.155,229.118,225.919,225.874,224.834,0.636209,0.710891,218.391,222.313
2014-04-17 18:00,0.401481,263.636,213.921,222.659,212.219,211.983,212.827,0.634049,0.717238,211.135,211.602
2014-04-17 19:00,0.546637,264.377,210.224,221.6,209.808,209.133,210.718,0.776692,0.897665,208.838,209.379
2014-04-17 20:00,0.767714,270.151,210.707,221.6,209.394,208.397,208.982,0.81766,0.974935,209.748,209.707
2014-04-17 21:00,0.696722,249.156,217.685,224.908,215.26,213.356,213.447,0.589914,0.786134,212.765,214.511
2014-04-17 22:00,-0.0,232.213,228.155,229.301,227.414,226.151,223.592,-0.0,-0.0,221.145,225.799
2014-04-17 23:00,-0.172426,233.989,227.219,228.564,226.221,225.318,223.053,-0.0646198,-0.131269,219.982,224.204
2014-04-18 00:00,-0.133982,233.989,224.95,228.378,224.072,222.462,220.675,-0.0415423,-0.0781096,218.391,222.313
2014-04-18 01:00,-0.0,240.898,229.072,229.847,228.583,227.246,223.233,-0.0,-0.0,220.57,225.21
2014-04-18 02:00,0.00129245,272.322,263.712,248.9,263.04,259.684,245.35,-0.0,-0.0,227.147,241.348
2014-04-18 03:00,-0.0,281.705,276.336,257.233,277.226,273.99,253.753,-0.0,-0.0,227.601,245.575
2014-04-18 04:00,-0.0,279.667,274.261,255.626,275.242,272.565,253.111,-0.0,-0.0,227.238,245.114
2014-04-18 05:00,-0.0,271.798,264.635,249.414,263.569,260.584,246.044,-0.0,-0.0,225.835,239.922
2014-04-18 06:00,-0.0,280.799,277.601,257.685,279.17,276.631,256.66,-0.0,-0.0,228.921,247.481
2014-04-18 07:00,-0.00193679,284.57,283.032,261.091,285.34,283.049,260.581,-0.0,-0.0,229.093,249.721
2014-04-18 08:00,-0.00295998,285.045,284.414,261.838,286.722,284.636,262.255,-0.0,0.00298828,230.835,250.646
2014-04-18 09:00,-0.0,283.261,280.789,259.793,281.799,279.959,259.37,-0.0,-0.0,230.266,248.241
2014-04-18 10:00,0.797049,281.705,274.916,256.434,276.01,274.147,256.285,0.661882,0.835618,231.787,249.513
2014-04-18 11:00,0.636543,291.44,269.059,252.412,270.657,269.0,254.009,0.467959,0.623387,231.943,249.721
2014-04-18 12:00,0.517763,296.008,271.162,253.261,272.741,269.984,254.009,0.393971,0.531923,231.865,249.721
2014-04-18 13:00,0.524555,288.152,258.195,245.995,260.158,258.957,248.229,0.553354,0.630274,231.076,247.04
2014-04-18 14:00,0.41956,290.301,266.442,251.552,268.024,266.498,253.24,0.345304,0.450229,232.097,249.093
2014-04-18 16:00,0.179509,295.476,290.229,265.758,291.948,287.888,262.965,0.0626524,0.226877,232.557,252.828
2014-04-18 17:00,0.173495,295.69,290.545,266.159,291.948,288.306,263.083,0.0640325,0.226053,233.823,253.974
2014-04-18 18:00,0.177242,295.042,290.44,266.259,292.209,288.861,263.2,0.0742925,0.228543,234.472,254.443
2014-04-18 20:00,0.216542,291.931,288.52,264.849,290.234,286.907,262.61,0.15913,0.313482,236.004,254.629
2014-04-18 21:00,0.625558,276.811,262.3,249.029,260.158,255.235,241.374,0.529659,0.740424,227.959,243.457
2014-04-18 22:00,-0.00631461,270.989,257.511,245.723,255.827,251.552,238.577,-0.0,-0.00637497,225.546,238.85
2014-04-18 23:00,-0.222249,277.026,266.886,251.676,265.138,261.121,245.211,-0.069078,-0.130648,227.959,242.354
2014-04-19 00:00,-0.0997763,274.073,264.175,249.669,262.863,259.139,243.383,-0.0350674,-0.0722216,225.835,241.221
2014-04-19 01:00,-0.00148348,264.739,249.185,240.766,247.012,242.805,232.066,-0.0,-0.0,221.708,232.508
2014-04-19 02:00,-0.0,285.357,283.956,261.944,285.618,283.049,260.34,-0.0,-0.0,231.865,252.342
2014-04-19 03:00,-0.0,274.314,263.556,249.542,261.431,258.591,243.525,-0.0,-0.0,224.258,238.578
2014-04-19 04:00,-0.00121609,264.009,252.479,242.369,251.036,248.121,236.46,-0.0,-0.0,224.46,235.444
2014-04-19 05:00,-0.0,278.883,272.662,254.69,273.372,268.173,247.279,-0.0,-0.0,228.048,246.145
2014-04-19 06:00,-0.0,277.026,270.329,253.381,271.142,267.004,248.499,-0.0,-0.0,228.748,246.371
2014-04-19 07:00,-0.00193683,285.045,284.869,262.471,287.543,285.777,262.61,-0.0,-0.0,232.02,253.405
2014-04-19 08:00,-0.0,284.57,284.185,261.731,286.31,284.061,261.062,-0.0,-0.0,231.709,253.117
2014-04-19 09:00,-0.0,282.923,281.505,260.445,283.514,281.588,259.614,-0.0,-0.0,230.593,252.244
2014-04-19 10:00,0.295053,285.357,285.095,262.576,287.543,285.919,262.61,0.302414,0.486004,233.01,255.183
2014-04-19 11:00,0.390642,290.171,287.432,263.825,289.166,286.767,263.083,0.191319,0.49877,233.308,254.814
2014-04-19 12:00,0.377779,294.38,289.272,265.355,290.764,287.748,263.318,0.158963,0.425308,234.615,255.183
2014-04-19 13:00,0.317579,296.114,287.432,264.236,288.763,284.922,260.219,0.154906,0.355464,233.53,254.068
2014-04-19 14:00,0.262055,295.476,286.661,263.928,287.679,283.773,259.856,0.135871,0.303204,232.633,253.117
2014-04-19 15:00,0.254954,296.008,286.882,264.031,287.815,284.492,260.942,0.146234,0.283683,233.75,254.349
2014-04-19 16:00,0.254523,291.19,281.148,260.228,282.374,279.211,257.9,0.198031,0.306958,233.085,253.213
2014-04-19 17:00,0.207046,292.053,284.755,262.576,286.033,283.484,260.942,0.156388,0.260154,233.53,254.536
2014-04-19 18:00,0.217,289.381,283.495,261.731,284.501,282.467,261.062,0.204646,0.288537,234.543,255.457
2014-04-19 19:00,0.190296,289.381,282.214,261.091,283.088,280.554,259.249,0.165151,0.230538,232.481,253.595
2014-04-19 20:00,0.727098,273.088,226.583,229.301,223.125,221.283,219.739,0.731064,0.900878,215.593,218.41
2014-04-19 21:00,0.864457,279.859,264.175,249.924,263.569,258.408,240.938,0.654889,0.964586,228.048,241.475
2014-04-19 22:00,-0.0,279.473,270.468,253.86,270.006,266.16,247.687,-0.0,-0.0,229.517,245.46
2014-04-19 23:00,-0.190428,269.283,254.145,243.79,252.059,247.708,235.382,-0.0616486,-0.115914,223.013,235.592
2014-04-20 00:00,-0.125844,282.923,277.476,257.685,278.427,275.24,254.009,-0.0381678,-0.0701602,229.433,249.928
2014-04-20 01:00,-0.00296337,285.045,282.096,260.769,283.656,280.998,258.515,-0.0,-0.0,231.236,252.047
2014-04-20 02:00,-0.00129085,277.451,268.199,251.799,267.857,264.106,244.932,-0.0,-0.0,226.499,244.175
2014-04-20 03:00,-0.0,266.131,262.931,249.286,264.792,262.361,248.094,-0.0,-0.0,229.433,247.59
2014-04-20 04:00,-0.0,266.131,265.092,250.177,266.678,264.967,250.501,-0.0,-0.0,229.769,249.513
2014-04-20 05:00,-0.0,265.791,253.04,243.368,252.059,249.348,238.428,-0.0,-0.0,224.156,236.033
2014-04-20 06:00,0.00150945,268.382,261.982,248.382,262.507,259.139,244.932,-0.0,-0.0,227.147,244.412
2014-04-20 07:00,-0.0,266.466,259.206,246.934,256.98,253.896,240.793,-0.0,-0.0,223.434,236.9
2014-04-20 08:00,0.00295656,278.482,271.574,254.217,271.625,267.506,248.634,-0.0,-0.0,227.147,245.46
2014-04-20 09:00,-0.0,284.087,281.624,260.445,283.656,281.146,258.392,-0.0,-0.0,230.674,251.352
2014-04-20 10:00,0.094435,285.97,285.658,262.786,288.087,285.919,262.61,0.213221,0.238344,231.865,253.595
2014-04-20 11:00,0.377146,288.568,283.956,261.838,285.618,282.904,259.735,0.208542,0.481768,230.348,251.652
2014-04-20 12:00,0.37234,294.043,289.379,265.658,291.16,288.306,263.2,0.153738,0.433909,231.709,253.69
2014-04-20 13:00,0.291006,295.902,290.965,266.458,292.6,289.137,263.2,0.108531,0.344502,231.787,252.439
2014-04-20 14:00,0.242311,297.146,291.07,267.151,292.73,288.861,262.965,0.0888213,0.281918,231.943,252.047
2014-04-20 15:00,0.207752,296.84,290.545,266.657,291.686,287.748,261.898,0.076885,0.24863,230.348,250.748
2014-04-20 16:00,0.201676,291.44,280.308,0.0,280.201,275.396,0.0,0.0970751,0.24544,226.778,244.412
2014-04-20 17:00,0.210972,293.472,282.799,261.731,283.23,278.609,255.28,0.110218,0.261327,228.835,247.699
2014-04-20 18:00,0.148984,293.007,287.76,264.645,289.568,286.343,261.301,0.0991132,0.195172,231.236,252.244
2014-04-20 19:00,0.22035,291.315,282.799,261.625,283.372,279.511,256.66,0.160207,0.287743,229.517,249.303
2014-04-20 20:00,0.522147,274.551,251.339,241.646,251.036,246.876,234.916,0.495153,0.662086,226.216,236.757
2014-04-20 21:00,0.673076,257.103,235.011,233.513,232.23,229.909,225.009,0.569892,0.800852,219.744,225.21
2014-04-20 22:00,-0.0,276.594,265.394,250.555,264.444,260.405,242.527,-0.0,-0.0,225.643,241.221
2014-04-20 23:00,-0.200739,276.376,265.545,250.806,263.569,260.225,244.09,-0.0613762,-0.121032,224.661,240.185
2014-04-21 00:00,-0.110575,278.684,271.848,253.98,271.945,269.657,251.159,-0.0333237,-0.0662224,227.959,244.881
2014-04-21 01:00,-0.00148,285.512,284.3,261.838,286.997,285.065,261.421,-0.0,-0.0,229.685,251.85
2014-04-21 02:00,-0.0,283.261,280.789,259.902,282.803,280.554,258.392,-0.0,-0.0,229.093,249.303
2014-04-21 03:00,-0.001212,280.982,276.08,257.006,277.226,274.773,254.392,-0.0,-0.0,227.42,246.707
2014-04-21 04:00,-0.0,276.376,267.909,251.676,267.69,264.106,246.457,-0.0,-0.0,225.058,241.854
2014-04-21 05:00,-0.0,274.787,266.293,250.429,265.654,262.008,244.512,-0.0,-0.0,225.156,241.475
2014-04-21 06:00,-0.0,277.24,269.767,252.656,269.35,266.329,247.551,-0.0,-0.0,225.352,242.354
2014-04-21 07:00,-0.0,275.932,268.487,251.922,268.191,265.48,247.551,-0.0,-0.0,225.352,241.475
2014-04-21 08:00,-0.0,283.261,282.331,260.876,285.061,283.339,260.461,-0.0,-0.0,229.263,249.617
2014-04-21 09:00,-0.0,284.73,284.982,262.471,288.087,286.626,263.318,-0.0,-0.0,230.511,251.152
2014-04-21 10:00,0.351091,285.512,285.433,262.786,288.222,286.485,262.728,0.351317,0.563893,230.511,251.352
2014-04-21 11:00,0.38288,290.171,287.978,264.441,290.367,288.027,263.318,0.186651,0.507578,230.755,251.552
2014-04-21 12:00,0.362259,294.602,290.756,266.159,292.73,289.964,263.553,0.142617,0.440265,231.156,251.352
2014-04-21 13:00,0.288587,296.531,292.108,267.348,294.021,290.375,263.905,0.107453,0.347509,231.787,251.352
2014-04-21 14:00,0.252086,297.449,291.174,267.052,293.119,289.689,263.67,0.111742,0.293418,231.787,251.452
2014-04-21 15:00,0.23201,297.848,290.965,266.458,292.6,288.861,262.965,0.101729,0.267689,231.709,251.552
2014-04-21 16:00,0.19833,297.349,291.487,267.052,293.119,289.137,263.083,0.0822012,0.23383,232.405,251.85
2014-04-21 17:00,0.254007,294.268,285.77,263.411,287.679,284.492,261.421,0.18198,0.311061,232.251,251.652
2014-04-21 18:00,0.247842,288.841,280.789,260.228,283.656,281.293,259.614,0.268725,0.354616,232.633,251.85
2014-04-21 19:00,0.238747,281.883,275.046,256.549,276.772,275.396,258.023,0.332827,0.396845,233.01,251.949
2014-04-21 20:00,0.477253,289.647,276.718,258.134,276.772,273.042,253.368,0.450577,0.579884,231.156,248.882
2014-04-21 21:00,0.789099,279.278,266.293,250.931,266.167,262.185,246.182,0.668129,0.950831,228.136,243.818
2014-04-21 22:00,-0.00608516,266.466,258.871,246.399,258.304,255.425,242.241,-0.0,-0.0,228.048,243.336
2014-04-21 23:00,-0.138808,264.009,253.411,243.65,252.059,248.532,236.307,-0.0470113,-0.1037,224.661,237.185
2014-04-22 00:00,-0.0991222,266.466,264.175,250.051,264.27,263.063,249.037,-0.0300869,-0.0604195,230.835,247.371
2014-04-22 01:00,-0.0,245.913,229.97,230.387,227.118,225.038,221.598,-0.0,-0.0,217.881,222.313
2014-04-22 02:00,-0.0,269.283,256.294,244.903,253.867,249.753,236.0,-0.0,-0.00130186,222.799,235.146
2014-04-22 03:00,-0.0,258.576,249.583,241.354,247.446,244.328,235.382,-0.0,-0.0,222.259,233.461
2014-04-22 04:00,0.00121637,254.396,247.357,239.57,246.794,244.758,236.918,-0.0,0.001228,224.86,236.757
2014-04-22 05:00,-0.00130459,284.087,279.823,259.134,281.366,278.307,256.41,-0.0,-0.0,228.835,247.481
2014-04-22 06:00,-0.0,285.665,284.528,262.366,286.997,284.492,261.062,-0.0,-0.0,230.266,249.721
2014-04-22 07:00,-0.0,285.512,284.071,261.838,286.31,284.061,260.581,-0.0,-0.0,229.433,249.721
2014-04-22 08:00,0.00295301,262.475,256.118,244.488,257.361,254.664,241.374,-0.0,-0.0,224.56,239.789
2014-04-22 09:00,-0.0,285.512,284.3,262.049,286.447,284.349,260.942,-0.0,-0.0,229.517,249.617
2014-04-22 10:00,0.663717,265.791,258.195,245.587,258.116,256.555,245.489,0.808686,1.11132,229.093,241.221
2014-04-22 11:00,0.423678,289.514,285.208,262.681,286.585,283.773,260.34,0.21392,0.517983,230.835,249.513
2014-04-22 12:00,0.370644,294.823,289.486,265.456,291.423,287.609,262.373,0.149066,0.425638,231.315,250.238
2014-04-22 13:00,0.321054,298.726,282.331,261.412,283.797,278.911,257.282,0.169897,0.347023,231.552,249.617
2014-04-22 14:00,0.245563,295.69,286.105,262.89,286.997,282.467,258.882,0.146173,0.300498,232.175,249.721
2014-04-22 15:00,0.237045,269.865,260.201,246.265,259.606,258.04,246.594,0.353289,0.452032,231.473,244.53
2014-04-22 16:00,0.281292,278.684,265.092,250.177,266.678,265.82,251.814,0.650838,0.694487,233.75,250.135
2014-04-22 17:00,0.196271,269.576,250.76,240.32,248.093,245.824,234.447,0.369436,0.429827,224.258,235.444
2014-04-22 18:00,0.45529,268.986,220.379,226.287,219.167,216.331,213.653,0.757328,0.870426,218.642,221.436
2014-04-22 19:00,0.694434,286.864,262.141,248.9,262.685,261.121,248.768,0.750389,0.889823,232.405,247.808
2014-04-22 20:00,0.854021,272.061,227.219,229.665,225.615,222.753,219.172,0.838794,1.01738,217.229,222.096
2014-04-22 21:00,0.216128,253.81,240.039,236.146,237.702,234.461,227.94,0.343115,0.409113,221.819,231.031
2014-04-22 22:00,-0.0120316,227.984,218.862,224.708,216.355,214.03,214.062,-0.0,-0.0,213.541,215.6
2014-04-22 23:00,-0.146532,222.276,207.178,219.855,206.833,205.74,207.872,-0.0491593,-0.0976916,207.502,207.326
2014-04-23 00:00,-0.110123,218.393,208.734,220.517,208.556,207.274,209.201,-0.0300268,-0.0584145,208.838,209.047
2014-04-23 01:00,-0.0,218.393,205.549,218.957,205.043,204.159,206.286,-0.0,-0.00149106,205.663,205.491
2014-04-23 02:00,-0.0,213.142,206.643,220.077,206.392,206.128,208.096,-0.0,-0.0,207.502,207.326
2014-04-23 03:00,-0.0,225.382,219.247,225.107,218.478,217.607,217.25,-0.0,-0.0,215.024,217.418
2014-04-23 04:00,-0.0,218.393,216.471,224.102,214.141,213.016,213.035,-0.0,-0.0,211.964,213.952
2014-04-23 05:00,-0.0,222.276,212.578,223.283,211.428,210.219,211.358,-0.0,-0.0,209.926,211.602
2014-04-23 06:00,-0.0015105,218.393,213.479,223.076,213.381,212.673,212.827,-0.0,-0.0,215.873,215.6
2014-04-23 07:00,-0.0,237.078,235.538,233.005,235.414,233.969,228.949,-0.0,-0.0,225.643,232.669
2014-04-23 08:00,-0.0,242.013,240.039,235.337,240.152,239.208,233.026,-0.0,-0.0,226.778,235.146
2014-04-23 09:00,-0.0,249.156,243.94,237.728,244.122,241.698,234.604,-0.0,-0.0,225.643,236.614
2014-04-23 10:00,0.607852,254.396,243.496,237.101,242.747,241.027,234.134,0.848505,1.04489,224.959,235.444
2014-04-23 11:00,0.578218,266.131,242.597,237.101,241.344,239.438,232.547,0.681437,0.780957,222.476,232.022
2014-04-23 12:00,0.520985,275.932,249.978,241.061,250.623,249.753,241.229,0.632137,0.727899,228.662,240.964
2014-04-23 13:00,0.295974,292.174,273.599,255.277,273.372,269.0,252.464,0.219461,0.358918,230.101,246.707
2014-04-23 14:00,0.452598,291.19,266.293,251.429,268.855,267.84,253.753,0.40598,0.485577,230.674,248.669
2014-04-23 15:00,0.452231,282.753,258.365,246.533,260.341,258.04,245.072,0.45595,0.522579,229.601,244.53
2014-04-23 16:00,0.441823,283.428,262.931,249.414,265.482,264.967,251.944,0.588365,0.621078,231.315,248.133
2014-04-23 17:00,0.429191,279.859,259.206,247.067,260.888,259.684,247.959,0.607371,0.646113,229.348,245.114
2014-04-23 18:00,0.457695,278.684,259.373,247.067,260.341,259.321,247.415,0.480598,0.547572,229.093,243.937
2014-04-23 19:00,0.537819,258.576,231.14,230.387,231.131,230.429,228.278,0.811387,0.910692,224.156,227.509
2014-04-23 20:00,0.43602,277.026,264.635,249.669,263.393,261.654,247.687,0.456903,0.562221,227.601,242.602
2014-04-23 21:00,0.632352,265.791,255.764,245.04,255.244,251.75,240.207,0.559748,0.725451,223.746,237.468
2014-04-23 22:00,-0.00594976,261.666,256.469,245.314,255.827,252.732,240.207,-0.0,-0.0,224.054,239.523
2014-04-23 23:00,-0.170738,242.013,232.839,232.319,231.408,229.385,226.918,-0.0466334,-0.0945256,221.596,227.877
2014-04-24 00:00,-0.0689291,240.898,235.275,233.005,234.371,232.976,229.283,-0.022083,-0.0488997,223.434,229.489
2014-04-24 01:00,-0.0,247.601,248.583,240.32,249.579,248.736,241.084,-0.0,-0.0,230.916,242.105
2014-04-24 02:00,0.00128849,262.074,262.141,248.642,264.618,263.933,251.814,-0.0,0.00130081,234.185,249.408
2014-04-24 03:00,0.00121173,262.869,263.245,249.158,265.31,264.623,251.944,-0.0,-0.0,234.756,250.238
2014-04-24 04:00,-0.0,284.087,281.148,260.119,282.517,279.81,259.127,-0.0,-0.0,239.532,253.117
2014-04-24 05:00,-0.0,266.131,265.846,250.681,268.191,267.506,254.009,-0.0,-0.0,239.532,252.828
2014-04-24 06:00,-0.0015109,263.636,263.401,249.158,265.826,265.65,252.982,-0.0,-0.0,238.919,252.634
2014-04-24 07:00,-0.0,267.444,266.886,250.931,269.35,268.835,254.137,-0.0,-0.0,240.607,254.162
2014-04-24 08:00,-0.0,269.865,269.343,252.656,271.945,270.635,254.646,-0.0,-0.0,240.489,254.907
2014-04-24 09:00,-0.0,266.797,265.545,250.555,268.524,267.339,253.111,-0.0,-0.0,239.532,254.256
2014-04-24 10:00,0.56712,276.376,268.63,252.045,271.142,269.0,253.753,0.564917,0.639899,239.714,254.536
2014-04-24 11:00,0.404507,291.065,280.789,259.902,282.517,279.661,259.127,0.295943,0.428198,239.227,255.457
2014-04-24 12:00,0.354963,292.771,287.869,264.031,288.763,285.208,261.66,0.144341,0.429084,238.857,255.911
2014-04-24 13:00,0.283018,294.713,288.412,264.747,289.032,285.35,261.54,0.116095,0.337189,238.981,255.911
2014-04-24 14:00,0.370312,295.69,281.267,260.553,283.514,281.735,260.581,0.300849,0.396556,238.483,256.271
2014-04-24 15:00,0.372938,293.356,278.101,258.469,280.931,279.81,259.856,0.325227,0.396245,237.913,256.539
2014-04-24 16:00,0.380442,289.247,276.463,257.572,278.873,278.307,259.735,0.393438,0.442187,237.592,256.181
2014-04-24 17:00,0.380848,291.686,276.591,257.572,279.17,277.853,259.127,0.337942,0.424476,236.408,255.73
2014-04-24 18:00,0.400326,289.514,269.485,253.02,270.169,267.339,250.104,0.427912,0.501076,231.236,248.241
2014-04-24 19:00,0.58084,292.653,275.565,256.778,278.278,277.243,259.005,0.648088,0.718083,237.333,255.457
2014-04-24 20:00,0.514976,276.376,258.195,246.265,256.213,253.316,241.953,0.495152,0.5948,226.592,238.986
2014-04-24 21:00,0.643914,279.667,268.487,252.412,267.185,263.933,247.415,0.597125,0.835804,230.266,244.764
2014-04-24 22:00,-0.00588687,276.155,277.098,257.798,280.201,279.211,259.614,-0.0,-0.0,234.472,255.457
2014-04-24 23:00,-0.17009,277.451,277.852,258.134,280.931,279.511,260.34,-0.0464565,-0.0941669,235.525,255.183
2014-04-25 00:00,-0.0650855,279.081,277.35,257.459,279.17,278.004,259.005,-0.0204686,-0.0469341,236.274,254.629
2014-04-25 01:00,-0.00147429,274.314,276.718,257.798,279.76,279.211,260.701,-0.0,-0.0,236.408,255.821
2014-04-25 02:00,-0.0,268.986,270.607,253.86,273.843,273.675,257.777,-0.0,-0.0,235.731,255.911
2014-04-25 03:00,0.00121174,268.382,269.767,253.381,273.529,273.042,257.406,-0.0,-0.0,234.686,255.091
2014-04-25 04:00,-0.00121701,268.073,269.626,253.261,273.057,272.883,257.653,-0.0,-0.0,235.455,255.366
2014-04-25 05:00,-0.0,275.932,274.655,256.32,277.828,276.323,258.515,-0.0,-0.0,236.274,256.628
2014-04-25 06:00,-0.0,277.026,275.951,256.892,279.022,277.243,258.392,-0.0,-0.0,236.341,256.001
2014-04-25 07:00,-0.0,273.338,272.527,254.926,275.703,274.617,257.406,-0.0,-0.0,236.408,255.821
2014-04-25 08:00,0.00294733,283.76,283.264,261.305,285.895,284.349,261.898,-0.0,-0.0,235.867,256.271
2014-04-25 09:00,-0.0,284.73,284.982,262.261,287.134,285.919,262.847,-0.0,-0.0,236.542,256.539
2014-04-25 10:00,0.389703,285.512,285.321,262.786,288.087,286.907,263.318,0.358653,0.58159,236.071,256.716
2014-04-25 11:00,0.418497,289.381,287.541,263.928,290.101,288.445,263.67,0.20057,0.5062,236.004,256.45
2014-04-25 12:00,0.363458,292.889,290.017,265.355,291.948,289.551,264.255,0.144935,0.433217,236.004,256.628
2014-04-25 13:00,0.312318,295.583,289.805,265.758,292.079,289.826,263.67,0.144919,0.359838,236.542,256.894
2014-04-25 14:00,0.278389,296.738,289.699,265.456,291.817,289.413,264.605,0.145249,0.312953,237.398,257.07
2014-04-25 15:00,0.302853,296.531,287.322,264.441,289.835,288.027,263.318,0.204191,0.32415,237.592,257.942
2014-04-25 16:00,0.228346,295.583,288.843,265.254,291.029,288.584,264.255,0.138441,0.267527,237.657,257.158
2014-04-25 17:00,0.234125,293.356,286.992,263.928,288.897,286.767,263.67,0.178798,0.282709,237.785,256.539
2014-04-25 18:00,0.254928,293.702,287.978,264.543,289.835,287.469,263.083,0.178845,0.314353,238.608,256.894
2014-04-25 19:00,0.230431,292.653,287.869,264.645,289.835,287.748,263.787,0.16993,0.290166,239.894,257.158
2014-04-25 20:00,0.202933,291.19,289.699,265.658,291.686,289.413,264.372,0.179294,0.302856,241.304,257.855
2014-04-25 21:00,0.229635,288.152,287.651,264.236,289.968,288.722,264.138,0.499968,0.563017,241.476,257.682
2014-04-25 22:00,-0.00582702,286.421,286.882,263.928,289.434,287.888,264.138,-0.0,-0.0,241.93,258.286
2014-04-25 23:00,-0.139403,286.121,286.661,263.721,289.166,287.888,263.67,-0.0393442,-0.0827859,242.322,258.543
2014-04-26 00:00,-0.0891075,285.818,286.439,263.307,289.032,288.027,263.905,-0.0251491,-0.048728,242.544,258.543
2014-04-26 01:00,-0.0,285.512,286.105,262.995,288.763,287.748,263.905,-0.0,-0.0,242.433,258.286
2014-04-26 02:00,-0.0,285.045,285.882,263.307,288.628,287.888,264.022,-0.0,-0.0,242.211,258.114
2014-04-26 03:00,-0.0,284.57,285.546,262.89,288.358,287.469,263.905,-0.0,-0.0,241.476,257.855
2014-04-26 04:00,-0.0,284.41,285.546,262.576,288.222,287.469,263.67,-0.0,0.00122894,241.189,257.246
2014-04-26 05:00,-0.00130609,284.087,285.208,262.471,288.222,287.048,263.553,-0.0,-0.0,240.782,256.982
2014-04-26 06:00,-0.00151173,283.76,284.755,262.049,287.815,286.907,263.67,-0.0,-0.0,240.193,256.628
2014-04-26 07:00,-0.0,283.428,284.642,261.944,287.543,286.626,263.318,-0.0,-0.0,239.954,256.805
2014-04-26 08:00,-0.0,283.093,284.3,261.412,287.134,286.343,263.2,-0.0,-0.0,240.607,256.894
2014-04-26 09:00,-0.0,282.753,284.071,261.519,286.86,286.202,262.61,-0.0,-0.0,240.074,256.716
2014-04-26 10:00,0.396062,283.428,284.755,262.261,287.679,286.907,263.67,0.364506,0.59108,240.074,256.894
2014-04-26 11:00,0.396937,289.113,288.087,264.236,290.897,289.826,264.138,0.191569,0.50893,240.134,257.855
2014-04-26 12:00,0.362616,293.007,290.86,266.059,293.506,291.6,265.532,0.145538,0.442151,239.954,258.114
2014-04-26 13:00,0.288709,295.151,292.622,267.249,295.297,293.35,265.532,0.109477,0.352266,240.841,258.967
2014-04-26 14:00,0.238646,296.114,293.742,267.935,296.182,294.016,266.108,0.0844054,0.289723,240.014,258.543
2014-04-26 15:00,0.205489,296.84,294.145,268.13,296.809,294.415,266.108,0.0715015,0.25008,240.841,258.543
2014-04-26 16:00,0.186814,296.635,293.843,268.227,296.307,293.883,265.185,0.0659063,0.230035,240.724,258.543
2014-04-26 17:00,0.216727,296.738,291.279,266.458,293.892,291.464,264.255,0.108019,0.256041,241.189,258.543
2014-04-26 18:00,0.214157,295.796,291.694,266.557,294.021,291.871,265.069,0.111585,0.260554,242.266,259.135
2014-04-26 19:00,0.309293,294.491,288.52,264.747,290.764,289.137,263.905,0.221751,0.362613,242.099,259.051
2014-04-26 20:00,0.419159,293.587,288.195,264.441,290.764,288.999,264.372,0.339799,0.499696,242.155,259.387
2014-04-26 21:00,0.281672,287.729,288.303,264.645,290.764,289.551,264.721,0.566417,0.675366,242.266,260.217
2014-04-26 22:00,-0.0,285.665,287.212,263.721,289.568,288.861,264.721,-0.0,-0.0,242.042,260.463
2014-04-26 23:00,-0.157984,285.512,286.772,263.411,289.3,288.584,264.605,-0.0415133,-0.0852471,242.211,260.789
2014-04-27 00:00,-0.0871101,285.202,286.439,263.411,289.032,288.445,264.488,-0.0219699,-0.0467781,242.211,260.871
2014-04-27 01:00,-0.0,284.57,286.439,263.618,288.897,288.722,265.185,-0.0,-0.0,241.419,261.515
2014-04-27 02:00,-0.0,284.73,286.328,263.099,288.763,288.445,264.721,-0.0,-0.0,240.312,260.871
2014-04-27 03:00,-0.0,284.249,285.994,262.995,288.493,288.167,264.605,-0.0,-0.0,239.954,261.033
2014-04-27 04:00,-0.00121762,283.76,285.433,262.576,288.087,287.888,264.837,-0.0,-0.0,240.253,261.113
2014-04-27 05:00,-0.0,283.428,285.208,262.576,287.679,287.748,264.605,-0.0,-0.0,239.471,260.789
2014-04-27 06:00,-0.0,282.923,284.869,262.261,287.407,287.329,264.255,-0.0,-0.0,238.483,260.052
2014-04-27 07:00,-0.0,282.753,284.869,261.944,287.134,287.329,264.372,-0.0,-0.0,238.42,259.97
2014-04-27 08:00,0.00294324,282.923,284.755,261.944,287.134,287.329,264.605,-0.0,-0.0,237.203,260.217
2014-04-27 09:00,0.00693294,282.408,284.185,261.625,286.722,286.767,263.67,-0.0,-0.0,238.294,260.381
2014-04-27 10:00,0.420246,282.923,284.414,261.838,286.722,286.202,263.553,0.370648,0.618718,239.043,259.804
2014-04-27 11:00,0.407095,288.291,287.76,263.928,289.968,288.584,264.022,0.18924,0.535895,238.919,259.97
2014-04-27 12:00,0.366507,292.771,290.756,265.959,292.989,291.464,264.837,0.146151,0.453561,239.774,260.381
2014-04-27 13:00,0.293371,295.042,292.52,266.954,294.788,292.679,265.647,0.109897,0.364385,239.593,260.708
2014-04-27 14:00,0.242573,296.323,293.641,268.033,295.93,293.483,265.762,0.0860054,0.298462,239.349,260.463
2014-04-27 15:00,0.207688,296.943,294.145,268.227,296.307,293.75,266.108,0.070579,0.255317,239.653,260.135
2014-04-27 16:00,0.191834,296.943,293.336,267.642,295.17,292.679,265.416,0.0697828,0.239574,237.137,259.051
2014-04-27 17:00,0.177551,296.219,294.044,268.13,296.182,293.883,265.532,0.0614401,0.222892,237.849,259.22
2014-04-27 18:00,0.172949,295.476,293.539,267.838,296.056,294.149,265.878,0.0701021,0.232184,237.657,259.471
2014-04-27 19:00,0.193333,293.472,291.174,266.259,293.248,290.921,264.255,0.108421,0.271226,236.675,258.372
2014-04-27 20:00,0.22534,291.686,290.545,266.159,292.73,291.057,264.488,0.198427,0.323042,237.268,258.713
2014-04-27 21:00,0.720513,287.871,287.212,264.031,289.835,288.306,263.787,0.642165,0.842253,237.785,258.2
2014-04-27 22:00,-0.00571592,282.581,283.148,261.412,285.895,284.636,262.61,-0.0,-0.00577056,237.333,257.595
2014-04-27 23:00,-0.152027,285.97,286.439,263.411,289.032,287.748,263.318,-0.0390761,-0.0822219,235.936,256.894
2014-04-28 00:00,-0.0777244,285.202,285.994,262.995,288.493,287.329,263.67,-0.0203695,-0.041102,236.207,256.805
2014-04-28 01:00,-0.00147108,283.924,284.982,262.049,287.951,286.767,263.553,-0.0,-0.0,237.006,257.682
2014-04-28 02:00,-0.0,281.165,282.566,260.984,285.479,284.636,262.017,-0.0,-0.0,236.341,257.769
2014-04-28 03:00,0.00121205,278.279,281.148,260.011,283.938,283.194,261.66,-0.0,-0.0,237.333,258.028
2014-04-28 04:00,-0.00121798,284.57,285.433,262.366,287.951,286.907,263.67,-0.0,-0.0,236.609,257.942
2014-04-28 05:00,-0.0,283.924,284.869,262.049,287.407,286.343,262.847,-0.0,-0.0,235.455,256.539
2014-04-28 06:00,0.00151263,283.594,284.755,262.049,287.27,286.485,262.728,-0.0,-0.0,236.139,256.539
2014-04-28 07:00,-0.0,283.76,285.208,261.944,287.815,287.188,263.2,-0.0,-0.0,238.104,257.07
2014-04-28 08:00,-0.0,283.594,284.869,261.731,287.679,287.188,263.553,-0.0,-0.0,239.593,257.595
2014-04-28 09:00,-0.00690478,283.261,284.755,261.412,287.27,287.048,263.318,-0.0,-0.0,241.304,258.457
2014-04-28 10:00,0.42756,283.76,284.869,261.838,287.543,286.907,263.436,0.392183,0.611501,242.655,258.882
2014-04-28 11:00,0.425416,288.705,287.76,263.618,290.234,288.999,264.022,0.19709,0.51862,242.489,258.543
2014-04-28 12:00,0.372815,293.124,290.44,265.456,292.6,290.375,264.488,0.148783,0.441107,243.846,259.135
2014-04-28 13:00,0.296288,295.26,292.005,266.358,293.892,291.735,264.488,0.111832,0.351376,245.202,259.804
2014-04-28 14:00,0.246529,296.635,292.929,266.954,294.788,292.141,264.837,0.088906,0.291903,245.456,260.135
2014-04-28 15:00,0.209902,296.531,293.336,267.151,295.297,292.41,265.069,0.0732511,0.253432,245.608,260.217
2014-04-28 16:00,0.211157,296.84,292.005,266.458,293.892,291.329,264.953,0.0906013,0.250626,245.91,260.463
2014-04-28 17:00,0.184542,295.368,290.651,265.959,292.209,290.101,263.787,0.101104,0.223881,244.479,259.721
2014-04-28 18:00,0.214524,295.151,290.651,266.059,292.86,290.375,264.255,0.122135,0.268851,243.899,259.471
2014-04-28 19:00,0.255258,293.93,289.486,265.456,291.555,289.137,263.67,0.16905,0.326588,243.526,259.22
2014-04-28 20:00,0.396244,293.007,288.412,264.95,290.764,288.584,263.787,0.339356,0.491993,243.147,258.628
2014-04-28 21:00,0.574034,286.271,286.328,263.411,288.897,287.329,263.436,0.624901,0.703705,243.093,258.798
2014-04-28 22:00,-0.0,283.594,284.528,262.049,287.134,285.493,262.847,-0.0,-0.0,242.655,258.457
2014-04-28 23:00,-0.108245,286.864,287.102,263.825,289.568,288.167,263.553,-0.0320778,-0.0710319,243.31,259.554
2014-04-29 00:00,-0.0683735,286.121,286.661,263.515,289.166,288.027,263.67,-0.0187757,-0.0429088,242.099,259.804
2014-04-29 01:00,-0.0,285.818,286.439,263.307,289.032,287.888,263.787,-0.0,-0.0,241.986,259.97
2014-04-29 02:00,-0.0,285.045,285.994,262.89,288.493,287.469,263.67,-0.0,-0.0,240.074,259.638
2014-04-29 03:00,-0.0,284.57,285.546,262.786,288.087,287.048,263.905,-0.0,-0.0,240.371,260.052
2014-04-29 04:00,-0.0,284.087,285.321,262.471,287.543,287.048,263.2,-0.0,-0.0,240.665,260.463
2014-04-29 05:00,-0.0,283.594,285.095,262.366,287.679,287.048,263.553,-0.0,-0.0,242.211,260.952
2014-04-29 06:00,-0.00151309,283.428,285.208,262.366,287.543,287.469,264.138,-0.0,-0.0,241.704,261.435
2014-04-29 07:00,-0.0,283.261,284.982,262.261,287.543,287.048,264.138,-0.0,-0.0,243.793,262.23
2014-04-29 08:00,-0.00293887,283.261,284.982,262.155,287.407,287.188,264.138,-0.0,-0.0,243.472,262.072
2014-04-29 09:00,-0.00687623,283.093,284.528,261.625,287.134,286.767,263.67,-0.0,-0.0,243.202,261.595
2014-04-29 10:00,0.435247,283.76,284.982,262.155,287.543,287.188,263.787,0.383878,0.604186,242.322,261.275
2014-04-29 11:00,0.411677,288.43,288.087,264.031,290.5,289.551,264.605,0.198204,0.513404,242.6,261.595
2014-04-29 12:00,0.374418,292.534,290.44,265.859,292.86,291.329,264.837,0.151442,0.443003,242.71,261.113
2014-04-29 13:00,0.295647,294.713,292.108,267.151,294.405,292.41,265.301,0.112266,0.352741,242.378,261.435
2014-04-29 14:00,0.245932,295.902,293.031,267.74,295.424,293.216,265.647,0.0879483,0.293005,242.211,260.952
2014-04-29 15:00,0.210707,296.323,293.641,268.227,296.056,293.617,266.222,0.0735319,0.252966,242.155,261.355
2014-04-29 16:00,0.187657,296.531,293.742,268.324,295.93,293.483,265.762,0.0667091,0.231391,242.042,260.952
2014-04-29 17:00,0.208722,296.531,290.965,266.458,293.119,291.057,264.837,0.109464,0.239022,242.211,261.675
2014-04-29 18:00,0.237924,295.476,289.699,265.959,291.817,289.964,264.837,0.152661,0.275853,242.433,261.755
2014-04-29 19:00,0.320512,293.472,287.978,264.543,290.234,288.445,263.905,0.254147,0.39805,242.099,261.515
2014-04-29 20:00,0.400398,292.534,288.52,264.747,290.632,288.861,264.605,0.366293,0.515736,242.266,261.435
2014-04-29 21:00,0.133579,287.729,288.087,264.543,290.367,289.276,264.372,0.452405,0.494472,242.433,261.834
2014-04-29 22:00,-0.00561555,286.271,287.322,263.825,289.701,288.861,264.953,-0.0,-0.0,242.544,262.388
2014-04-29 23:00,-0.140291,286.121,286.992,263.515,289.3,288.722,264.837,-0.0388333,-0.0762635,241.93,262.857
2014-04-30 00:00,-0.0553637,285.045,286.55,263.618,289.032,288.584,265.301,-0.0156255,-0.0353989,242.322,263.09
2014-04-30 01:00,-0.00146942,284.57,286.217,263.203,288.763,288.167,265.416,-0.0,-0.0,242.042,263.322
2014-04-30 02:00,-0.0,284.41,286.105,263.203,288.493,288.445,265.069,-0.0,0.00129926,242.322,263.476
2014-04-30 03:00,-0.0,283.76,285.658,263.203,288.222,288.306,264.953,-0.0,0.00122407,242.489,263.167
2014-04-30 04:00,-0.0,283.428,285.433,262.681,287.815,287.748,264.953,-0.0,-0.0,241.533,263.399
2014-04-30 05:00,-0.0,282.753,284.982,262.576,287.407,287.469,264.837,-0.0,0.00132049,240.724,263.167
2014-04-30 06:00,-0.00151355,282.408,284.528,262.261,287.134,287.329,264.605,-0.0,-0.0,239.894,263.012
2014-04-30 07:00,-0.0,282.408,284.3,261.944,286.722,287.188,264.605,-0.0,-0.0,239.288,263.167
2014-04-30 08:00,-0.00293657,281.883,284.185,261.625,286.31,286.907,264.837,-0.0,-0.0,237.657,262.935
2014-04-30 09:00,-0.0,282.059,283.956,261.412,286.31,286.485,264.372,-0.0,-0.0,236.207,261.993
2014-04-30 10:00,0.424861,282.753,284.869,262.261,286.997,287.188,264.953,0.39101,0.652707,238.546,263.09
2014-04-30 11:00,0.405922,288.012,288.087,264.441,290.5,290.238,265.762,0.192468,0.553234,237.203,262.623
2014-04-30 12:00,0.368858,292.053,291.174,266.756,293.635,292.679,267.137,0.148044,0.476361,237.333,262.623
2014-04-30 13:00,0.287808,292.889,290.651,266.358,292.6,291.329,265.301,0.114228,0.374095,236.408,260.871
2014-04-30 14:00,0.248397,295.69,294.245,268.711,296.684,295.208,267.592,0.0869829,0.31269,239.166,262.779
2014-04-30 15:00,0.212944,296.323,294.846,269.0,297.309,295.602,267.932,0.0726037,0.269807,238.42,262.701
2014-04-30 16:00,0.18985,296.219,294.945,269.192,297.683,296.127,268.045,0.0621064,0.246842,236.874,262.151
2014-04-30 17:00,0.179913,295.69,294.846,269.096,297.558,296.389,268.271,0.0622576,0.238492,237.592,262.466
2014-04-30 18:00,0.181215,295.042,294.446,268.711,297.184,296.258,267.819,0.0695991,0.248959,236.408,262.388
2014-04-30 19:00,0.202249,292.771,291.798,267.348,294.149,293.082,266.337,0.106214,0.286889,234.827,261.113
2014-04-30 20:00,0.213899,290.685,291.383,266.855,293.764,293.35,267.592,0.161422,0.319221,237.721,262.623
2014-04-30 21:00,1.0204,285.512,284.414,262.155,286.172,285.635,262.136,0.905108,1.32448,237.398,260.463
2014-04-30 22:00,-0.0,285.045,286.661,263.411,289.166,289.413,265.647,-0.0,-0.0,240.489,263.782
2014-04-30 23:00,-0.131815,284.249,285.994,262.995,288.358,288.584,265.878,-0.0341657,-0.0706114,240.782,263.934
