# timestamp,IR_016,IR_039,IR_087,IR_097,IR_108,IR_120,IR_134,VIS006,VIS008,WV_062,WV_073
2015-03-01 00:00,-0.0,283.428,277.727,257.233,277.528,273.2,252.594,-0.0,-0.0,229.601,246.818
2015-03-01 01:00,-0.0,279.081,275.823,256.32,276.772,273.675,254.773,-0.0,-0.0,231.076,248.348
2015-03-01 02:00,-0.0,283.093,278.968,257.572,279.907,276.938,256.41,-0.0,-0.0,233.159,249.928
2015-03-01 03:00,-0.0,282.059,275.436,255.16,275.55,271.926,251.422,-0.0,-0.0,232.251,247.59
2015-03-01 04:00,-0.00129034,283.76,279.458,257.91,280.054,276.784,255.027,-0.0,-0.0,231.315,248.241
2015-03-01 05:00,-0.0,281.883,277.852,256.778,278.128,275.396,256.035,-0.0,-0.0,232.481,248.241
2015-03-01 06:00,-0.00158023,255.521,241.913,235.985,240.87,235.917,226.402,-0.0,-0.0,221.596,229.314
2015-03-01 07:00,0.0020401,218.393,214.358,223.283,213.763,212.673,214.062,-0.0,-0.0,212.607,213.382
2015-03-01 08:00,-0.0,227.984,224.279,227.628,223.758,222.169,220.489,-0.0,-0.0,218.642,221.658
2015-03-01 09:00,-0.0,243.066,239.559,235.337,239.669,238.049,232.387,-0.0,-0.0,226.685,234.542
2015-03-01 11:00,0.290898,279.859,264.175,248.252,263.745,260.225,247.142,0.336614,0.460096,229.935,244.056
2015-03-01 13:00,0.27795,296.531,289.165,263.618,289.434,285.065,260.34,0.104739,0.326861,232.935,250.748
2015-03-01 14:00,0.271643,296.84,287.76,262.681,288.358,284.492,260.098,0.167272,0.328038,234.686,251.949
2015-03-01 15:00,0.154701,263.255,253.779,242.513,253.867,253.316,244.652,0.549325,0.598084,232.709,244.056
2015-03-01 16:00,0.171839,292.414,280.789,257.346,281.51,277.091,254.392,0.165564,0.306285,235.108,251.152
2015-03-01 17:00,0.222905,264.009,240.277,235.823,237.702,237.109,232.387,0.444266,0.491792,221.258,231.364
2015-03-01 18:00,0.377956,262.475,214.358,223.283,212.997,211.983,212.411,0.753544,0.852411,212.287,213.668
2015-03-01 19:00,0.455011,266.131,213.479,223.694,212.219,211.284,212.827,0.649174,0.725212,210.452,211.906
2015-03-01 20:00,0.774615,282.059,222.904,227.438,220.852,217.607,214.468,0.841024,1.00811,216.424,218.895
2015-03-01 21:00,1.52883,289.113,211.184,222.449,208.977,206.128,206.515,1.35656,1.68014,211.8,211.295
2015-03-01 22:00,-0.0287018,213.142,204.988,219.632,204.12,202.941,205.361,-0.0,-0.0289761,205.449,205.109
2015-03-01 23:00,-0.0123811,227.984,214.358,223.489,212.609,211.635,211.781,-0.0069887,-0.00833296,212.448,212.8
2015-03-02 00:00,-0.0,218.393,219.628,225.897,218.824,216.972,217.055,-0.0,-0.0,216.15,218.165
2015-03-02 01:00,-0.0,245.01,234.745,232.834,233.842,231.459,225.36,-0.0,-0.00171763,220.57,228.423
2015-03-02 02:00,-0.00142364,230.231,223.94,227.248,222.162,221.579,220.302,-0.0,-0.0,216.963,220.075
2015-03-02 03:00,0.00130386,256.062,253.779,242.799,253.669,252.341,243.383,-0.0,-0.0,226.592,240.964
2015-03-02 04:00,-0.0,279.859,272.12,253.02,272.104,267.673,249.171,-0.0,-0.0,227.238,243.937
2015-03-02 05:00,-0.0,262.475,258.703,246.13,259.236,257.486,245.767,-0.0,-0.0,226.592,243.698
2015-03-02 06:00,-0.0,254.966,241.451,236.466,239.911,236.396,228.782,-0.0,0.00159133,220.219,229.838
2015-03-02 07:00,-0.0,225.382,218.474,225.107,216.715,215.356,216.071,-0.0,-0.0,213.995,216.652
2015-03-02 08:00,0.00319489,243.066,232.56,231.45,231.131,228.324,223.053,-0.0,-0.0,220.101,225.604
2015-03-02 09:00,-0.0,240.898,234.745,231.973,234.107,231.968,228.109,-0.0,0.00910827,222.15,228.603
2015-03-02 10:00,0.385703,256.589,250.566,240.469,251.856,249.753,240.354,0.61128,0.688922,227.78,240.706
2015-03-02 11:00,0.217244,259.954,257.339,244.349,258.491,257.115,246.594,0.565547,0.605587,229.178,244.998
2015-03-02 13:00,0.341105,299.013,276.718,256.089,275.703,269.165,250.896,0.195564,0.379883,229.093,245.575
2015-03-02 14:00,0.26033,296.635,285.433,261.838,285.757,281.293,258.023,0.137763,0.314068,229.433,248.025
2015-03-02 15:00,0.31468,287.3,268.199,250.806,269.35,266.329,251.683,0.260338,0.355278,228.575,245.575
2015-03-02 16:00,0.218432,286.717,270.189,251.922,270.657,265.82,247.959,0.174894,0.317596,229.685,245.804
2015-03-02 17:00,0.245949,279.278,269.485,251.799,270.169,268.173,252.464,0.316616,0.391452,230.511,247.04
2015-03-02 18:00,0.300293,285.818,275.046,255.277,276.923,275.24,256.785,0.394705,0.457633,231.236,250.238
2015-03-02 19:00,0.435079,273.338,241.218,235.985,236.695,235.193,229.946,0.45667,0.575365,220.454,226.57
2015-03-02 20:00,0.635973,266.466,227.219,228.378,226.221,225.597,224.126,0.715727,0.874797,220.57,223.793
2015-03-02 21:00,0.8802,267.761,228.463,229.665,227.708,227.246,225.36,0.817855,0.986708,223.224,225.994
2015-03-02 22:00,-0.0,244.063,229.673,230.027,227.414,225.038,221.415,-0.0,-0.0,219.382,224.811
2015-03-02 23:00,-0.0122582,277.661,265.545,248.512,265.654,261.121,243.241,-0.00691934,-0.00825026,226.685,241.093
2015-03-03 00:00,-0.0,269.283,258.871,245.177,258.678,255.235,242.097,-0.0,-0.0,227.147,240.316
2015-03-03 01:00,-0.0,270.713,266.442,250.429,267.857,265.65,250.896,-0.0,-0.0,229.178,247.261
2015-03-03 02:00,-0.0,275.932,271.299,253.621,273.215,270.311,252.982,-0.0,-0.0,228.748,247.917
2015-03-03 03:00,-0.0,262.475,260.854,246.533,262.507,261.831,248.634,-0.0,-0.0,227.42,246.258
2015-03-03 04:00,-0.00128388,261.666,262.458,248.121,264.444,263.759,250.765,-0.0,-0.0,229.178,247.371
2015-03-03 05:00,-0.0,280.613,276.208,255.858,278.128,275.396,256.285,-0.0,-0.0,229.433,249.303
2015-03-03 06:00,-0.0,263.255,264.329,249.029,266.508,265.99,252.335,-0.0,-0.0,228.575,248.241
2015-03-03 07:00,0.0020286,280.239,275.565,255.16,277.377,273.99,254.137,-0.0,-0.0,228.048,248.025
2015-03-03 08:00,0.0031826,279.667,273.333,253.86,272.741,269.984,251.553,-0.0,-0.0,225.931,243.457
2015-03-03 09:00,-0.00893474,278.883,272.12,252.777,272.582,268.835,249.438,-0.0,-0.0,226.685,243.818
2015-03-03 10:00,0.629285,259.954,245.463,237.258,245.024,243.243,234.916,0.710419,0.947909,224.661,233.146
2015-03-03 11:00,0.595234,291.931,281.86,258.913,283.23,280.85,259.37,0.459919,0.673166,229.433,248.562
2015-03-03 13:00,0.372296,299.013,287.651,262.786,289.3,285.919,262.017,0.219229,0.378949,229.601,249.825
2015-03-03 14:00,0.301138,296.323,282.331,259.354,282.946,278.609,255.406,0.190954,0.325074,228.662,247.371
2015-03-03 15:00,0.250218,284.73,266.59,249.924,265.654,262.361,245.072,0.220007,0.315762,226.311,240.964
2015-03-03 16:00,0.241415,282.753,266.293,249.669,265.997,263.063,247.415,0.250724,0.326565,226.871,241.728
2015-03-03 17:00,0.2012,280.239,267.18,249.797,267.522,264.106,248.768,0.274699,0.34658,228.136,243.937
2015-03-03 18:00,0.384265,266.131,213.479,223.489,212.219,211.284,212.619,0.546308,0.626782,210.796,211.906
2015-03-03 19:00,0.499859,267.761,213.921,223.899,213.381,212.329,213.241,0.797567,0.910898,212.448,213.092
2015-03-03 20:00,0.701052,272.061,209.734,221.6,208.977,208.397,210.718,0.893755,1.04414,209.748,209.379
2015-03-03 21:00,1.14128,274.073,213.479,223.283,212.219,211.284,211.57,0.976129,1.22237,212.287,212.505
2015-03-03 22:00,-0.0252178,225.382,219.628,225.701,218.824,218.857,217.445,-0.0,-0.0,216.15,218.165
2015-03-03 23:00,-0.00809099,235.601,229.373,230.027,229.444,228.324,226.574,-0.00685063,-0.00816834,222.368,227.136
2015-03-04 00:00,-0.0,248.394,236.318,233.849,234.633,230.688,224.657,-0.0,-0.0,219.503,227.694
2015-03-04 01:00,-0.0,232.213,222.904,227.058,220.852,218.235,217.445,-0.0,-0.0,214.879,219.372
2015-03-04 02:00,-0.00141461,230.231,221.841,227.058,219.508,217.922,217.639,-0.0,-0.0,215.873,218.895
2015-03-04 03:00,-0.0,268.686,258.703,245.995,257.928,254.281,240.793,-0.0,-0.0,225.739,240.706
2015-03-04 04:00,-0.00128076,242.013,227.845,229.665,225.31,223.332,220.302,-0.0,-0.0,217.881,222.956
2015-03-04 05:00,-0.0,230.231,223.252,227.817,221.182,219.165,218.601,-0.0,-0.0,215.873,219.608
2015-03-04 06:00,-0.0,248.394,238.585,235.01,236.948,233.722,228.614,-0.0,-0.0,221.596,230.694
2015-03-04 07:00,-0.00202317,242.013,237.339,234.017,236.441,234.461,229.283,-0.0,-0.0,223.329,232.185
2015-03-04 08:00,-0.0,239.711,237.841,233.849,237.951,236.635,231.581,-0.0,-0.0,225.739,232.988
2015-03-04 09:00,-0.0,250.598,248.38,239.267,248.946,247.501,239.173,-0.0,-0.0,228.224,240.446
2015-03-04 10:00,0.322788,260.827,254.145,243.084,256.598,256.18,245.628,0.409956,0.417526,230.101,245.23
2015-03-04 11:00,0.358906,266.797,257.511,244.488,258.865,258.224,247.823,0.698936,0.77079,230.755,246.929
2015-03-04 12:00,0.40207,293.124,269.201,251.922,271.142,269.984,254.646,0.342143,0.463027,231.236,248.882
2015-03-04 13:00,0.417409,296.635,263.556,248.252,265.138,262.361,248.903,0.319637,0.436892,232.097,247.481
2015-03-04 14:00,0.225879,296.008,286.105,261.731,286.722,281.735,258.27,0.1006,0.276809,232.175,249.617
2015-03-04 15:00,0.203634,297.045,289.805,264.031,290.367,285.777,260.942,0.0693747,0.240858,232.251,250.646
2015-03-04 16:00,0.206116,298.045,288.628,263.203,289.166,284.779,260.098,0.0776757,0.23094,232.86,251.751
2015-03-04 17:00,0.19408,296.635,288.412,263.099,289.434,285.35,260.701,0.102438,0.232833,232.481,252.146
2015-03-04 18:00,0.271749,288.43,273.732,253.98,273.057,269.821,251.814,0.242263,0.35128,229.685,247.371
2015-03-04 19:00,0.0778938,276.811,271.984,253.381,273.215,271.283,253.753,0.145709,0.160935,231.787,250.544
2015-03-04 20:00,0.482738,267.123,202.646,219.855,201.233,201.271,205.825,0.64489,0.712076,200.681,200.956
2015-03-04 21:00,0.934082,271.261,200.774,219.183,200.227,198.656,202.5,0.88042,1.09721,201.207,202.271
2015-03-04 22:00,-0.0237439,213.142,204.988,218.957,204.12,203.757,206.286,-0.0,-0.0,202.469,203.113
2015-03-04 23:00,-0.012016,227.984,219.628,225.306,219.167,217.607,218.025,-0.00678262,-0.00808725,215.873,217.918
2015-03-05 00:00,-0.0,243.066,233.938,232.663,233.842,230.17,225.36,-0.0,-0.0,222.692,228.782
2015-03-05 01:00,0.00168117,256.589,247.15,239.419,246.355,243.896,236.46,-0.0,-0.0,226.027,237.185
2015-03-05 02:00,0.00141018,257.103,252.666,242.799,252.868,250.357,239.47,-0.0,-0.0,226.122,242.105
2015-03-05 03:00,-0.00129334,275.02,267.909,251.305,268.024,264.279,247.687,-0.0,-0.0,228.048,244.881
2015-03-05 04:00,-0.00127772,272.58,265.394,250.303,264.27,260.225,245.628,-0.0,-0.0,226.122,242.602
2015-03-05 05:00,-0.0,256.589,250.566,241.646,251.447,248.121,238.727,-0.0,-0.0,228.048,239.922
2015-03-05 06:00,-0.00156513,276.155,268.054,251.922,267.016,260.584,243.099,-0.0,-0.0,226.216,241.602
2015-03-05 07:00,-0.00201795,269.283,259.706,246.801,259.051,254.472,241.664,-0.0,-0.0,226.122,239.255
2015-03-05 08:00,-0.0,279.667,275.565,255.393,275.55,270.635,249.838,-0.0,-0.0,228.835,245.804
2015-03-05 09:00,-0.0,281.346,279.091,257.685,281.076,278.609,257.158,-0.0,-0.0,230.266,248.882
2015-03-05 10:00,0.488892,283.261,276.845,256.205,277.978,274.773,253.368,0.457063,0.575826,228.835,247.481
2015-03-05 11:00,0.340379,281.883,268.199,250.681,267.522,263.586,245.628,0.288199,0.439454,225.835,241.602
2015-03-05 12:00,0.305699,275.02,251.339,240.766,248.307,244.328,231.743,0.282833,0.429209,221.031,231.695
2015-03-05 13:00,0.250555,270.989,246.523,238.04,243.667,240.123,231.257,0.242079,0.366235,221.258,230.011
2015-03-05 14:00,0.238009,278.482,254.145,242.369,250.623,245.612,232.707,0.188235,0.320819,221.371,232.347
2015-03-05 15:00,0.225702,285.202,266.738,249.414,264.965,259.684,241.664,0.167597,0.302189,225.449,240.185
2015-03-05 16:00,0.199346,250.598,228.769,230.027,228.583,227.517,226.056,0.597319,0.659188,217.752,222.529
2015-03-05 17:00,0.317044,262.074,234.477,232.146,232.772,231.714,227.089,0.548646,0.614646,219.982,228.06
2015-03-05 18:00,0.353282,272.061,242.597,237.258,241.344,239.667,233.503,0.588479,0.671101,223.434,234.082
2015-03-05 19:00,0.400106,290.041,261.662,247.465,261.25,257.301,243.525,0.335689,0.475536,228.224,243.818
2015-03-05 20:00,0.545144,285.202,257.854,244.765,256.789,252.341,239.322,0.509558,0.662061,226.027,239.789
2015-03-05 21:00,1.06685,285.512,262.616,247.465,260.524,257.856,245.211,0.928533,1.19739,226.405,241.093
2015-03-05 22:00,-0.0224157,281.165,279.58,258.58,281.655,279.211,259.249,-0.0,-0.0,232.709,252.244
2015-03-05 23:00,-0.00793124,271.531,268.916,251.552,270.495,268.67,252.982,-0.00671536,-0.00800706,231.552,251.152
2015-03-06 00:00,-0.0,275.251,272.256,253.261,273.843,271.121,254.137,-0.0,-0.0,231.865,252.537
2015-03-06 01:00,-0.00167456,284.73,282.331,259.354,283.797,281.146,259.127,-0.0,-0.0,230.755,252.342
2015-03-06 02:00,-0.0,284.888,282.096,259.024,283.514,280.554,258.638,-0.0,-0.0,230.996,251.552
2015-03-06 03:00,0.00128997,269.576,258.365,245.177,258.304,254.855,240.646,-0.0,-0.0,226.778,239.523
2015-03-06 04:00,-0.0,277.451,268.054,251.18,266.678,261.831,243.949,-0.0,-0.0,224.56,241.348
2015-03-06 05:00,-0.0,276.594,267.18,250.931,265.138,260.405,243.383,-0.0,-0.0,224.86,241.475
2015-03-06 06:00,-0.0,258.096,250.566,241.791,249.368,246.457,237.373,-0.0,-0.0,226.592,238.714
2015-03-06 07:00,-0.00201293,273.831,264.175,248.642,264.27,258.957,242.671,-0.0,-0.0,227.147,242.354
2015-03-06 08:00,-0.0,274.073,265.995,249.797,264.965,261.121,244.932,-0.0,-0.0,225.449,241.854
2015-03-06 09:00,-0.0086975,281.705,279.091,257.346,280.347,276.784,255.658,-0.0,-0.0,228.488,249.513
2015-03-06 10:00,0.699243,280.982,273.466,254.099,274.467,272.246,255.027,0.557221,0.820121,229.852,248.669
2015-03-06 11:00,0.666435,292.414,272.662,254.454,274.156,272.405,255.28,0.47532,0.67612,229.433,250.238
2015-03-06 12:00,0.371229,291.931,278.845,257.685,277.828,272.086,251.291,0.209546,0.432121,226.499,246.595
2015-03-06 13:00,0.272536,263.636,241.682,236.146,239.669,237.815,231.419,0.306371,0.424371,223.434,231.53
2015-03-06 14:00,0.189934,293.587,284.755,260.661,284.641,280.85,257.9,0.0964898,0.240678,228.312,249.303
2015-03-06 15:00,0.18015,278.482,271.299,253.02,271.945,271.444,255.658,0.311207,0.379612,229.263,249.408
2015-03-06 16:00,0.263126,290.429,276.845,256.32,278.576,275.396,256.16,0.241017,0.365861,229.433,250.135
2015-03-06 17:00,0.278538,259.954,239.799,235.662,237.702,238.049,233.661,0.460956,0.541951,223.329,227.694
2015-03-06 18:00,0.224169,274.314,258.534,245.859,256.598,254.472,244.372,0.345319,0.416121,228.921,238.441
2015-03-06 19:00,0.180782,290.685,278.598,257.346,279.17,276.938,257.777,0.197906,0.234129,232.935,250.442
2015-03-06 20:00,0.198281,292.534,288.303,263.618,289.968,286.626,262.492,0.114989,0.265988,233.456,252.244
2015-03-06 21:00,0.387166,292.889,284.755,260.876,285.618,281.293,258.023,0.286836,0.458048,232.097,250.646
2015-03-06 22:00,-0.0,285.045,281.148,259.024,282.374,278.307,257.034,-0.0,-0.0,232.251,250.544
2015-03-06 23:00,-0.0117791,275.48,268.916,252.168,269.842,264.795,247.687,-0.0066489,-0.0118917,229.601,247.371
2015-03-07 00:00,-0.0,271.531,267.909,251.429,269.679,267.84,252.982,-0.0,-0.0,231.865,250.34
2015-03-07 01:00,-0.0,245.913,227.533,228.192,227.118,221.875,216.663,-0.0,-0.0,218.137,224.408
2015-03-07 02:00,-0.0,204.719,211.184,222.238,210.218,209.497,210.073,-0.0,-0.0,209.206,210.353
2015-03-07 03:00,-0.0,232.213,227.845,229.301,227.708,226.426,223.592,-0.0,-0.0,222.692,225.994
2015-03-07 04:00,0.00127185,218.393,214.358,223.489,214.141,213.356,214.062,-0.0,-0.0,211.964,213.668
2015-03-07 05:00,-0.0,225.382,220.006,225.701,219.508,217.922,217.639,-0.0,-0.0,216.424,218.41
2015-03-07 06:00,-0.0,225.382,221.841,226.674,220.852,220.384,219.551,-0.0,-0.0,217.229,220.306
2015-03-07 07:00,-0.0,222.276,219.628,225.107,218.824,218.235,217.832,-0.0,-0.0,215.873,218.895
2015-03-07 08:00,-0.0,225.382,222.552,226.674,221.838,221.283,219.362,-0.0,-0.0,218.891,220.989
2015-03-07 09:00,-0.0,232.213,229.072,229.484,228.871,228.056,224.834,-0.0,-0.0,222.476,226.76
2015-03-07 10:00,0.332171,250.598,236.832,233.513,235.672,233.969,228.446,0.44824,0.523979,223.746,231.031
2015-03-07 11:00,0.319416,266.797,249.781,240.469,249.789,247.708,239.025,0.381974,0.468744,227.329,238.027
2015-03-07 12:00,0.25002,269.576,253.595,242.513,253.269,250.557,239.47,0.285698,0.402214,227.42,238.303
2015-03-07 13:00,0.256039,277.451,253.411,242.656,252.059,249.753,240.5,0.269026,0.373716,227.329,238.441
2015-03-07 14:00,0.247985,262.475,243.496,237.258,242.747,241.475,235.382,0.314397,0.409311,227.238,233.617
2015-03-07 15:00,0.151402,280.427,267.909,251.056,266.678,263.933,249.305,0.147677,0.247005,229.685,243.457
2015-03-07 16:00,0.216919,293.124,282.214,259.134,282.946,278.307,255.658,0.138002,0.289167,231.236,249.093
2015-03-07 17:00,0.225908,284.73,274.261,255.51,275.857,274.617,257.158,0.263273,0.334413,231.552,250.032
2015-03-07 18:00,0.307543,266.797,237.841,234.515,236.441,234.216,228.446,0.459378,0.534558,223.329,232.022
2015-03-07 19:00,0.452935,264.377,223.252,227.438,222.806,222.462,221.965,0.717314,0.81456,219.137,219.843
2015-03-07 20:00,0.57145,262.869,204.418,219.409,203.652,203.351,205.593,0.875089,1.00201,204.795,204.328
2015-03-07 21:00,1.01976,272.061,227.533,229.118,226.82,225.038,222.692,1.01947,1.30239,222.799,225.994
2015-03-07 22:00,-0.0,237.078,236.06,233.344,235.672,234.706,231.905,-0.0,-0.0,226.027,231.53
2015-03-07 23:00,-0.0116628,258.096,257.511,245.177,258.491,258.04,247.959,-0.00658327,-0.00784956,231.552,246.258
2015-03-08 00:00,-0.0,251.944,251.147,241.936,253.269,250.757,241.664,-0.0,-0.0,229.769,242.23
2015-03-08 01:00,-0.00166156,259.954,259.206,246.399,261.25,260.764,249.438,-0.0,-0.0,230.511,247.481
2015-03-08 02:00,-0.0,252.585,252.29,242.081,253.669,252.144,241.953,-0.0,-0.0,229.348,244.175
2015-03-08 03:00,-0.0,250.598,247.973,240.021,248.093,246.457,238.727,-0.0,-0.0,227.51,240.053
2015-03-08 04:00,-0.00126903,254.966,255.05,243.79,256.598,255.803,245.905,-0.0,-0.0,230.511,245.69
2015-03-08 05:00,-0.0,251.944,250.371,241.207,250.83,248.736,240.793,-0.0,-0.0,228.748,241.728
2015-03-08 06:00,-0.00155512,262.869,256.644,244.903,256.789,254.472,243.949,-0.0,-0.0,228.575,242.725
2015-03-08 07:00,-0.0,270.989,261.017,247.2,260.158,256.928,243.667,-0.0,-0.0,225.156,238.85
2015-03-08 08:00,-0.0,275.48,269.201,252.412,270.169,267.171,251.944,-0.0,-0.0,230.101,246.483
2015-03-08 09:00,-0.0,283.428,280.909,258.913,282.66,280.108,258.638,-0.0,-0.0,230.511,249.198
2015-03-08 10:00,0.429571,284.249,278.35,257.459,279.022,275.085,254.009,0.372588,0.602917,228.488,245.804
2015-03-08 11:00,0.47232,289.381,275.176,255.742,275.087,271.605,252.982,0.279659,0.556863,227.691,243.577
2015-03-08 12:00,0.309598,287.3,274.392,255.16,273.057,267.84,249.037,0.181081,0.366021,226.216,241.728
2015-03-08 13:00,0.287391,295.151,286.661,262.471,286.997,282.321,258.515,0.117742,0.338494,228.835,248.025
2015-03-08 14:00,0.316758,295.042,281.505,259.244,282.946,279.061,257.282,0.232587,0.346324,229.433,247.481
2015-03-08 15:00,0.243903,296.219,287.102,263.203,288.897,285.493,261.66,0.153086,0.280536,231.236,250.748
2015-03-08 16:00,0.211367,296.114,287.978,263.099,289.568,285.919,261.898,0.133206,0.265522,231.394,251.452
2015-03-08 17:00,0.25955,286.271,268.916,251.429,270.981,268.835,252.205,0.394277,0.464978,232.097,249.721
2015-03-08 18:00,0.333251,254.966,232.28,231.098,232.502,230.946,228.782,0.676451,0.759553,223.538,228.06
2015-03-08 19:00,0.272564,288.841,277.098,256.32,276.923,272.565,252.335,0.227661,0.362554,230.835,247.59
2015-03-08 20:00,0.247756,285.512,273.333,255.043,272.899,269.494,250.765,0.256391,0.305707,229.433,246.595
2015-03-08 21:00,0.711508,284.57,261.822,248.252,260.524,257.115,242.814,0.692269,0.844329,227.238,242.725
2015-03-08 22:00,-0.0191258,251.944,238.585,235.01,234.895,231.203,225.009,-0.0,-0.0,219.137,228.06
2015-03-08 23:00,-0.0115481,247.601,231.14,231.098,229.158,226.151,222.511,-0.00651852,-0.00777235,218.517,224.204
2015-03-09 00:00,-0.0,253.206,241.451,236.466,239.669,236.396,229.946,-0.0,-0.0,221.371,230.524
2015-03-09 01:00,-0.0,242.013,236.832,234.183,235.672,235.435,231.905,-0.0,-0.0,223.224,230.863
2015-03-09 02:00,-0.0,237.078,229.072,230.207,227.118,224.756,223.053,-0.0,-0.0,217.622,222.529
2015-03-09 03:00,-0.0,268.073,254.69,243.65,253.669,246.876,234.604,-0.0,-0.0,223.746,236.614
2015-03-09 04:00,-0.00126629,230.231,227.219,228.564,226.522,225.597,223.592,-0.0,-0.0,221.258,225.011
2015-03-09 05:00,-0.0013458,244.063,244.815,237.884,245.471,244.973,237.977,-0.0,-0.0,228.575,238.85
2015-03-09 06:00,-0.00155204,281.526,277.098,256.778,278.128,275.24,255.406,-0.0,-0.0,229.007,247.04
2015-03-09 07:00,-0.0,265.791,253.779,243.79,252.465,249.955,239.618,-0.0,-0.0,222.799,233.304
2015-03-09 08:00,-0.0,273.338,267.473,250.681,268.024,265.82,250.369,-0.0,-0.0,230.266,245.345
2015-03-09 09:00,-0.0,277.869,275.176,255.858,277.377,274.929,256.66,-0.0,-0.0,230.348,248.987
2015-03-09 10:00,0.761324,275.02,264.021,249.286,267.016,266.835,253.497,0.680424,0.800627,231.076,248.669
2015-03-09 11:00,0.695709,291.931,262.141,248.121,265.31,264.967,252.205,0.603081,0.692326,232.405,248.669
2015-03-09 12:00,0.485761,297.449,281.742,259.244,283.088,279.061,257.653,0.274772,0.480103,233.159,250.34
2015-03-09 13:00,0.335888,298.533,281.978,260.119,283.656,279.661,258.147,0.207071,0.359413,233.382,250.135
2015-03-09 14:00,0.30415,296.738,285.77,262.366,287.679,284.349,261.301,0.212931,0.341619,232.86,250.135
2015-03-09 15:00,0.23707,291.19,281.624,259.902,283.088,280.406,259.735,0.22852,0.327707,233.677,250.238
2015-03-09 16:00,0.116742,250.598,240.277,235.823,241.58,241.475,236.0,0.505436,0.550409,227.329,234.542
2015-03-09 17:00,0.283176,277.661,264.175,248.382,265.31,263.586,248.634,0.414728,0.480335,236.408,250.34
2015-03-09 18:00,0.271551,284.41,270.329,252.777,270.819,267.673,252.335,0.263298,0.390586,234.968,248.882
2015-03-09 19:00,0.290418,291.44,275.176,255.626,274.0,269.165,250.765,0.222403,0.366026,230.184,245.23
2015-03-09 20:00,0.343738,257.103,222.904,226.674,221.838,221.283,221.046,0.57035,0.640876,218.137,219.372
2015-03-09 21:00,0.831081,267.123,230.559,231.098,227.118,226.151,223.949,0.71979,0.903074,217.881,222.313
2015-03-09 22:00,-0.0,222.276,217.285,224.708,216.355,216.008,216.269,-0.0,-0.0,214.734,215.332
2015-03-09 23:00,-0.0152467,225.382,209.237,220.954,208.556,207.274,209.638,-0.00645467,-0.0115443,207.891,208.711
2015-03-10 00:00,0.00222046,222.276,220.006,225.306,219.508,218.857,218.41,-0.0,-0.0,217.36,218.41
2015-03-10 01:00,-0.00164886,222.276,220.006,225.504,219.508,218.547,217.639,-0.0,-0.0,218.137,219.608
2015-03-10 02:00,-0.0,218.393,220.379,225.701,219.847,219.472,218.218,-0.0,-0.00140229,216.83,218.895
2015-03-10 03:00,-0.0,232.213,231.14,230.743,231.408,230.688,227.77,-0.0,-0.0,224.76,228.603
2015-03-10 04:00,0.00126362,258.576,257.339,244.765,258.116,257.115,247.279,-0.0,-0.0,229.517,245.23
2015-03-10 05:00,-0.0,269.283,263.556,248.9,264.27,262.185,249.438,-0.0,-0.0,228.048,244.881
2015-03-10 06:00,-0.0,253.206,249.978,241.061,250.83,249.753,241.519,-0.0,0.00156388,227.959,240.446
2015-03-10 07:00,-0.0,264.377,253.226,243.084,251.447,248.941,239.913,-0.0,-0.0,225.931,235.146
2015-03-10 08:00,-0.0,266.466,260.692,246.934,261.971,259.321,246.594,-0.0,-0.0,227.959,243.093
2015-03-10 09:00,-0.0,268.073,267.326,250.931,270.169,269.165,254.392,-0.0,0.00851161,232.935,250.544
2015-03-10 10:00,0.693564,277.869,263.556,249.029,265.826,263.759,250.633,0.596274,0.721739,234.472,249.303
2015-03-10 11:00,0.601437,293.007,261.501,247.597,263.745,261.477,249.705,0.46422,0.563576,0.0,249.093
2015-03-10 12:00,0.656523,298.045,253.963,242.942,256.789,256.367,246.457,0.564536,0.660734,234.185,247.151
2015-03-10 13:00,0.437293,296.943,261.822,247.465,263.04,260.942,248.768,0.392576,0.482176,234.113,248.562
2015-03-10 14:00,0.478815,297.749,257.854,245.859,260.524,258.957,248.499,0.426632,0.518016,236.071,248.882
2015-03-10 15:00,0.421465,297.045,272.256,254.336,275.703,273.832,257.034,0.349634,0.414427,236.139,252.634
2015-03-10 16:00,0.230382,278.279,271.848,254.099,273.843,273.2,257.034,0.420766,0.433507,237.913,253.405
2015-03-10 17:00,0.23916,292.653,282.448,260.337,283.656,280.998,260.098,0.197082,0.322789,240.074,256.091
2015-03-10 18:00,0.232904,266.797,260.854,247.067,261.971,261.831,249.971,0.554392,0.612227,239.653,252.047
2015-03-10 19:00,0.196968,283.594,275.046,256.089,276.01,275.551,258.638,0.220265,0.240122,240.724,256.539
2015-03-10 20:00,0.329449,254.966,226.261,228.564,225.003,225.038,224.126,0.538976,0.55527,217.752,220.763
2015-03-10 21:00,0.825842,269.576,244.815,237.415,244.575,241.027,232.867,0.742942,0.950981,225.931,235.887
2015-03-10 22:00,-0.0,259.954,247.563,240.171,244.8,241.921,233.661,-0.0,-0.0,223.849,235.592
2015-03-10 23:00,-0.0113236,251.282,244.16,237.101,244.575,242.805,235.382,-0.00958764,-0.00762121,227.147,238.303
2015-03-11 00:00,-0.00220838,258.096,256.294,244.626,257.361,256.367,245.489,-0.0,-0.0,230.755,247.04
2015-03-11 01:00,-0.0,260.395,257.683,245.723,258.865,257.115,246.044,-0.0,-0.0,229.263,246.707
2015-03-11 02:00,-0.0,267.444,258.025,245.177,256.406,253.51,242.384,-0.0,-0.0,227.51,240.706
2015-03-11 03:00,-0.0,260.395,247.973,240.32,246.575,243.679,235.382,-0.0,0.00128628,225.449,234.389
2015-03-11 04:00,-0.0,250.598,236.318,233.513,234.371,231.459,225.535,-0.0,-0.0,221.258,228.242
2015-03-11 05:00,-0.0,258.096,243.273,237.415,240.631,237.345,230.276,-0.0,-0.0,224.359,233.304
2015-03-11 06:00,-0.0,272.061,261.662,247.859,260.341,256.928,242.097,-0.0,-0.0,228.048,243.093
2015-03-11 07:00,-0.0,275.932,269.626,251.922,269.35,266.835,250.765,-0.0,-0.0,231.394,248.562
2015-03-11 08:00,0.00310119,279.081,277.727,256.549,280.054,277.396,256.41,-0.0,-0.0,236.341,256.271
2015-03-11 09:00,0.0083721,283.594,283.611,260.876,285.757,284.205,261.301,-0.0,-0.0,237.072,258.628
2015-03-11 10:00,0.549074,282.234,275.951,255.51,275.857,272.883,254.137,0.510479,0.695621,235.108,253.405
2015-03-11 11:00,0.659895,294.933,284.982,261.625,287.543,286.343,262.492,0.572842,0.588816,237.977,261.355
2015-03-11 12:00,0.409904,294.713,287.432,262.89,288.763,286.343,262.492,0.213445,0.44279,237.072,260.463
2015-03-11 13:00,0.312265,297.848,288.628,263.721,290.101,287.469,263.318,0.172316,0.357597,237.977,260.789
2015-03-11 14:00,0.30923,295.796,286.992,262.786,288.493,286.485,263.436,0.238327,0.364217,239.349,261.113
2015-03-11 15:00,0.262416,296.008,284.869,261.625,286.172,284.205,262.847,0.188084,0.294498,239.288,261.033
2015-03-11 16:00,0.204308,296.943,289.058,264.236,290.5,287.888,263.905,0.10543,0.239215,239.593,262.072
2015-03-11 17:00,0.194924,297.749,292.005,265.959,293.506,290.921,265.185,0.08795,0.229154,241.189,262.623
2015-03-11 18:00,0.179316,297.549,293.539,266.954,294.916,292.276,265.532,0.0684464,0.228514,240.134,262.388
2015-03-11 19:00,0.294958,292.294,286.105,262.366,286.86,285.065,262.728,0.233934,0.39955,236.207,259.387
2015-03-11 20:00,0.140621,293.24,290.651,265.052,292.47,289.413,263.67,0.0928695,0.20443,236.071,258.628
2015-03-11 21:00,0.538315,286.717,272.662,254.217,271.142,268.173,250.765,0.444674,0.563344,230.674,248.987
2015-03-11 22:00,-0.0166117,256.589,243.049,236.943,240.631,238.049,231.419,-0.0,-0.0,223.329,231.695
2015-03-11 23:00,-0.0149518,225.382,209.237,220.954,208.131,208.026,209.42,-0.00949473,-0.011321,208.084,208.027
2015-03-12 00:00,-0.0,225.382,216.471,224.102,215.628,211.983,211.146,-0.0,-0.0,214.145,215.6
2015-03-12 01:00,-0.0,244.063,237.841,235.173,235.414,232.976,228.446,-0.0,-0.0,221.819,230.863
2015-03-12 02:00,-0.0,245.01,235.011,232.319,234.371,232.474,227.089,-0.0,-0.0,222.906,229.314
2015-03-12 03:00,0.00127114,225.382,226.902,228.749,226.221,225.597,224.657,-0.0,-0.0,221.596,224.61
2015-03-12 04:00,-0.0,242.013,233.392,231.799,231.957,230.946,227.431,-0.0,-0.0,221.708,226.187
2015-03-12 05:00,-0.0,277.026,271.984,253.621,272.423,270.148,253.111,-0.0,-0.0,230.348,246.707
2015-03-12 06:00,-0.0,258.096,244.598,238.503,241.58,237.581,230.931,-0.0,-0.0,221.484,229.137
2015-03-12 07:00,-0.0,259.505,250.371,240.766,249.789,244.758,235.382,-0.0,-0.0,227.691,238.027
2015-03-12 08:00,-0.0,260.827,252.666,242.513,251.652,246.876,237.525,-0.0,-0.0,226.311,238.303
2015-03-12 09:00,-0.00831594,275.932,273.997,254.217,276.163,274.46,255.658,-0.0,-0.0,230.018,252.244
2015-03-12 10:00,0.629985,278.482,273.333,253.501,274.0,272.086,254.392,0.652964,0.767595,229.685,249.617
2015-03-12 11:00,0.732063,290.301,275.046,255.043,276.923,274.46,254.9,0.682104,0.712064,231.787,253.213
2015-03-12 12:00,0.638746,292.771,267.18,250.555,268.524,266.835,250.236,0.610384,0.653146,230.674,249.928
2015-03-12 13:00,0.496519,290.813,276.08,255.742,277.075,274.773,254.264,0.524514,0.582976,230.835,250.544
2015-03-12 14:00,0.450161,294.602,279.702,258.134,282.374,280.554,260.461,0.497738,0.55204,235.386,255.639
2015-03-12 15:00,0.331445,286.717,271.848,252.899,272.899,270.473,252.723,0.33966,0.437096,232.557,250.646
2015-03-12 16:00,0.250831,288.152,275.436,255.277,275.55,272.565,253.24,0.206223,0.307056,229.935,247.371
2015-03-12 17:00,0.246904,287.729,275.046,255.277,275.703,272.883,253.753,0.217764,0.323265,231.63,250.238
2015-03-12 18:00,0.323013,274.551,253.226,242.799,250.83,247.501,238.428,0.362161,0.454158,228.575,236.033
2015-03-12 19:00,0.506441,262.475,227.219,228.934,226.82,225.318,224.834,0.757552,0.878648,221.596,224.811
2015-03-12 20:00,0.714047,265.791,220.75,225.701,220.519,220.384,219.362,0.928466,1.08417,218.767,219.608
2015-03-12 21:00,0.62822,265.095,239.317,235.01,238.199,237.581,233.185,0.611134,0.728684,224.258,232.185
2015-03-12 22:00,-0.0,253.206,243.496,237.415,242.283,239.895,233.976,-0.0,-0.0,224.156,233.773
2015-03-12 23:00,-0.0148078,252.585,237.339,233.681,236.695,233.474,226.574,-0.00940331,-0.011212,222.585,228.782
2015-03-13 00:00,-0.0,269.576,258.025,245.314,256.021,252.927,240.06,-0.0,-0.0,224.86,236.614
2015-03-13 01:00,0.00163045,239.711,233.116,231.625,232.502,231.459,228.109,-0.0,-0.0,225.546,228.782
2015-03-13 02:00,-0.0,254.396,245.032,238.657,244.349,243.243,236.0,-0.0,-0.0,226.871,234.389
2015-03-13 03:00,-0.00126825,257.103,248.177,239.57,247.012,245.612,237.525,-0.0,-0.0,225.835,235.887
2015-03-13 04:00,-0.0,240.898,235.8,233.344,234.371,233.722,229.615,-0.0,-0.0,222.585,230.183
2015-03-13 05:00,-0.0,267.123,260.528,245.995,260.158,257.671,245.072,-0.0,-0.0,228.662,242.602
2015-03-13 06:00,-0.0015409,249.89,242.37,236.306,242.049,240.35,233.976,-0.0,-0.0,228.575,234.996
2015-03-13 07:00,-0.00198328,252.585,249.385,240.32,250.415,248.941,240.06,-0.0,0.00200224,230.266,241.348
2015-03-13 08:00,0.00308509,247.601,246.102,238.195,246.355,245.824,238.727,-0.0,-0.0,231.473,239.523
2015-03-13 09:00,-0.0,262.869,259.373,246.13,260.524,258.957,247.415,-0.0,-0.0,230.018,244.412
2015-03-13 10:00,0.482117,259.954,243.719,237.415,244.8,243.461,237.222,0.565925,0.652656,228.748,238.027
2015-03-13 11:00,0.295039,250.598,239.559,234.845,240.392,239.208,233.819,0.547877,0.612643,228.048,234.996
2015-03-13 12:00,0.281977,253.206,231.427,230.921,231.683,230.946,227.431,0.665709,0.739732,226.311,229.489
2015-03-13 13:00,0.226124,254.396,238.338,234.35,238.446,237.815,233.819,0.727544,0.784043,228.835,234.236
2015-03-13 14:00,0.367461,288.705,241.682,236.784,242.978,241.251,235.382,0.627873,0.685699,231.076,237.468
2015-03-13 15:00,0.375039,285.045,247.15,239.419,248.307,246.666,239.47,0.604995,0.663211,231.63,240.835
2015-03-13 16:00,0.337672,286.717,247.563,239.57,248.733,246.876,239.025,0.598552,0.656049,232.175,240.835
2015-03-13 17:00,0.328855,283.924,257.166,245.723,259.606,258.957,247.687,0.437862,0.502555,234.543,247.699
2015-03-13 18:00,0.322689,282.234,262.458,248.512,262.863,261.831,249.971,0.305806,0.398998,230.018,244.175
2015-03-13 19:00,0.341155,296.738,268.916,252.534,269.515,266.16,250.765,0.296835,0.393891,232.328,246.707
2015-03-13 20:00,0.60246,283.924,258.703,245.859,259.051,257.671,247.142,0.623726,0.732169,232.935,245.918
2015-03-13 21:00,1.34103,284.249,242.597,236.943,243.438,242.585,236.46,1.26802,1.57377,231.394,238.027
2015-03-13 22:00,-0.0,235.601,234.477,232.834,234.371,234.216,230.44,-0.0,-0.0,225.931,231.364
2015-03-13 23:00,-0.0146662,240.898,235.538,233.344,234.633,233.474,229.283,-0.00931341,-0.0111048,224.661,230.863
2015-03-14 00:00,-0.00217301,249.156,244.38,237.572,244.8,243.461,237.373,-0.0,-0.0,227.51,237.888
2015-03-14 01:00,-0.00162449,245.01,240.514,235.985,241.815,240.802,234.916,-0.0,-0.00164002,227.51,236.614
2015-03-14 02:00,-0.00137334,232.213,232.839,231.973,233.31,232.474,228.278,-0.0,-0.0,226.216,230.524
2015-03-14 03:00,-0.0,244.063,241.451,236.146,242.049,241.027,234.76,-0.0,-0.0,228.662,236.614
2015-03-14 04:00,-0.0,250.598,249.978,241.061,250.623,249.955,242.671,-0.0,-0.0,230.184,242.105
2015-03-14 05:00,-0.00133369,247.601,241.913,236.625,242.283,240.802,235.691,-0.0,-0.00134644,227.78,235.74
2015-03-14 06:00,-0.0,239.711,238.585,234.681,238.693,238.282,232.707,-0.0,-0.0,227.42,234.236
2015-03-14 07:00,-0.0,261.251,251.721,242.225,252.059,246.457,237.827,-0.0,-0.0,228.835,238.85
2015-03-14 08:00,-0.0,281.883,278.226,257.572,279.318,276.015,255.406,-0.0,-0.0,229.935,247.261
2015-03-14 09:00,-0.0,269.865,258.871,246.399,257.928,251.552,240.5,-0.0,-0.0,228.835,240.446
2015-03-14 10:00,0.607883,276.594,256.118,244.21,255.439,250.957,241.374,0.514693,0.680642,230.101,240.185
2015-03-14 11:00,0.578385,293.472,268.916,252.29,268.358,260.584,245.905,0.344511,0.529597,230.996,244.647
2015-03-14 12:00,0.571357,296.114,264.482,249.797,265.138,260.225,247.006,0.394698,0.501853,230.835,245.23
2015-03-14 13:00,0.350007,289.381,272.931,254.454,273.529,270.473,252.594,0.295027,0.413296,230.511,246.371
2015-03-14 14:00,0.352241,295.583,272.391,254.808,273.215,267.673,251.028,0.328629,0.409285,231.315,247.151
2015-03-14 15:00,0.294782,291.686,272.391,254.454,274.778,272.883,256.16,0.223593,0.316201,232.481,250.748
2015-03-14 16:00,0.214303,289.514,271.848,253.98,272.741,269.329,253.111,0.225781,0.292566,233.234,248.562
2015-03-14 17:00,0.184956,290.301,283.38,260.661,283.938,280.554,258.882,0.202597,0.299019,233.603,251.152
2015-03-14 18:00,0.145594,284.888,277.977,257.12,278.576,275.861,256.16,0.166043,0.224978,233.896,249.825
2015-03-14 19:00,0.210257,293.356,283.264,260.769,284.079,281.293,260.219,0.165194,0.269637,233.085,252.244
2015-03-14 20:00,0.100717,289.247,285.095,262.261,286.447,284.061,261.54,0.134007,0.151068,234.329,253.309
2015-03-14 21:00,0.992047,298.918,278.598,257.91,278.278,273.2,253.881,0.704865,0.980519,231.63,247.808
2015-03-14 22:00,-0.0,260.395,248.784,240.32,247.878,243.679,236.46,-0.0,-0.0,227.959,237.608
2015-03-14 23:00,-0.0145271,286.717,283.611,260.769,285.34,282.321,259.249,-0.00922506,-0.0109995,231.943,250.95
2015-03-15 00:00,-0.0,278.279,277.224,257.233,279.466,277.853,258.76,-0.0,-0.0,232.481,250.95
2015-03-15 01:00,-0.00161863,282.923,281.86,260.228,284.361,281.882,260.34,-0.0,-0.0,230.43,251.051
2015-03-15 02:00,-0.0,285.818,284.071,261.305,285.757,283.194,260.098,-0.0,-0.0,230.996,250.34
2015-03-15 03:00,-0.00126269,232.213,228.769,229.665,227.118,226.701,226.056,-0.0,-0.0,220.57,222.743
2015-03-15 04:00,-0.0,222.276,216.471,224.305,216.355,215.683,216.269,-0.0,-0.0,215.024,216.131
2015-03-15 05:00,-0.0,225.382,222.904,226.481,222.485,221.283,220.489,-0.0,-0.0,220.801,222.743
2015-03-15 06:00,-0.0,222.276,220.75,225.701,220.519,219.165,218.41,-0.0,-0.0,218.391,220.306
2015-03-15 07:00,0.00197647,232.213,233.116,231.625,233.31,232.976,229.946,-0.0,-0.0,226.027,229.838
2015-03-15 08:00,-0.0,247.601,246.733,238.963,247.446,246.457,240.06,-0.0,-0.0,230.184,240.964
2015-03-15 09:00,-0.0,239.711,238.585,234.35,238.938,238.049,233.344,-0.0,-0.0,228.921,234.694
2015-03-15 10:00,0.412457,246.775,239.799,235.01,240.152,239.438,234.76,0.745646,0.877816,228.488,235.146
2015-03-15 11:00,0.212481,249.156,243.94,236.784,244.122,243.679,237.827,0.682507,0.759307,229.685,238.578
2015-03-15 12:00,0.206716,251.282,240.75,235.337,241.344,240.123,234.447,0.572334,0.634423,228.921,236.469
2015-03-15 13:00,0.178484,253.206,245.032,237.884,245.693,245.186,238.577,0.632326,0.689147,230.755,239.656
2015-03-15 14:00,0.359617,273.586,245.89,238.657,246.575,245.612,238.727,0.447709,0.525757,231.236,239.922
2015-03-15 15:00,0.244964,275.932,248.583,240.171,249.998,248.532,240.646,0.536766,0.620129,233.75,241.854
2015-03-15 16:00,0.31738,290.939,258.025,245.859,258.865,254.664,242.671,0.245987,0.348759,235.038,243.577
2015-03-15 17:00,0.290587,293.702,264.021,248.771,263.393,258.408,245.905,0.231761,0.328726,233.382,244.647
2015-03-15 18:00,0.216227,293.816,283.611,261.198,285.34,281.882,259.005,0.143938,0.245392,233.75,250.442
2015-03-15 19:00,0.434073,299.485,275.046,255.742,275.55,269.984,251.553,0.307886,0.447833,233.456,248.987
2015-03-15 20:00,0.226252,292.414,287.978,263.411,289.701,286.626,262.492,0.142448,0.286983,237.913,255.548
2015-03-15 21:00,0.0424432,288.152,286.882,262.366,288.897,286.767,262.965,0.113799,0.0999808,239.043,256.001
2015-03-15 22:00,-0.0,282.059,277.601,257.006,278.576,272.724,253.111,-0.0,-0.0,234.041,250.032
2015-03-15 23:00,-0.0143905,265.446,257.166,244.626,257.361,254.472,243.099,-0.0121844,-0.014528,235.038,244.294
2015-03-16 00:00,-0.0,282.753,279.336,258.022,281.076,277.548,256.285,-0.0,-0.0,235.178,249.513
2015-03-16 01:00,-0.0,281.883,278.226,257.12,279.76,276.015,255.28,-0.0,-0.0,235.593,249.721
2015-03-16 02:00,-0.0,264.739,260.036,246.801,262.507,258.774,246.869,-0.0,-0.0,234.543,246.595
2015-03-16 03:00,-0.0,275.02,271.848,253.501,273.843,271.765,255.406,-0.0,-0.0,234.472,249.513
2015-03-16 04:00,0.00124923,276.155,272.391,253.98,274.623,271.926,255.658,-0.0,-0.0,236.542,251.252
2015-03-16 05:00,-0.0,280.05,278.101,257.006,279.613,277.701,258.515,-0.0,-0.0,237.785,252.731
2015-03-16 06:00,-0.0,263.636,264.94,249.414,267.522,267.004,254.009,-0.0,-0.0,237.657,252.146
2015-03-16 07:00,0.00197333,266.466,265.696,249.669,268.855,267.84,254.137,-0.0,0.00199219,237.977,252.537
2015-03-16 08:00,-0.0,272.322,270.885,252.656,273.843,272.405,255.909,-0.0,-0.0,237.849,252.925
2015-03-16 09:00,-0.00811599,274.551,272.662,253.621,275.857,273.675,256.285,-0.0,-0.0,238.231,253.021
2015-03-16 10:00,0.438456,281.705,275.046,255.393,277.377,275.24,256.66,0.437873,0.510748,238.357,253.117
2015-03-16 12:00,0.432989,297.749,279.702,258.246,280.931,277.396,257.653,0.23856,0.455952,239.774,254.349
2015-03-16 13:00,0.337298,296.738,279.945,258.691,281.799,279.061,259.37,0.224487,0.361113,240.134,255.275
2015-03-16 14:00,0.249586,297.947,289.699,264.133,290.367,286.202,261.66,0.102837,0.292395,240.841,255.821
2015-03-16 15:00,0.313375,295.583,278.968,257.91,281.076,278.004,258.27,0.199523,0.322599,240.724,255.911
2015-03-16 16:00,0.219067,296.531,287.432,262.576,288.628,285.065,261.062,0.120202,0.247108,240.014,255.821
2015-03-16 17:00,0.297983,280.427,269.485,251.429,271.625,270.96,255.909,0.42087,0.491315,239.714,254.814
2015-03-16 18:00,0.330821,287.871,275.046,255.393,277.678,275.551,257.653,0.375164,0.483596,239.227,255.275
2015-03-16 19:00,0.340638,289.514,274.524,254.926,273.843,271.121,253.497,0.322444,0.446289,234.185,249.303
2015-03-16 20:00,0.830517,297.146,269.908,252.045,271.303,269.0,254.264,0.73291,0.953596,238.104,254.068
2015-03-16 21:00,0.981517,270.989,243.94,237.728,242.049,240.35,233.976,0.818828,1.07105,225.254,233.461
2015-03-16 22:00,-0.013555,270.434,257.166,244.626,255.244,251.75,239.618,-0.0,-0.0,227.87,239.39
2015-03-16 23:00,-0.0106923,268.073,265.846,250.555,267.522,266.498,253.24,-0.00905312,-0.0143926,235.386,252.342
2015-03-17 00:00,-0.00213907,268.382,265.995,250.429,267.185,266.835,253.111,-0.0,-0.0,238.357,253.595
2015-03-17 01:00,0.00160719,272.58,267.18,250.681,268.524,265.82,250.633,-0.0,-0.0,234.185,250.544
2015-03-17 02:00,-0.00272478,279.278,274.129,255.16,275.55,272.724,255.532,-0.0,-0.0,236.341,253.405
2015-03-17 03:00,-0.00125742,273.338,271.162,253.621,273.372,271.605,256.035,-0.0,-0.0,239.894,254.814
2015-03-17 04:00,-0.0012471,273.338,270.607,253.381,273.215,271.765,256.535,-0.0,-0.0,240.134,254.629
2015-03-17 05:00,-0.0,264.377,261.34,247.991,263.393,262.008,250.369,-0.0,-0.0,239.714,251.949
2015-03-17 06:00,-0.00153163,264.739,266.145,250.177,268.69,268.505,254.646,-0.0,-0.0,239.349,254.349
2015-03-17 07:00,-0.00197035,267.444,267.909,251.429,270.169,269.821,255.406,-0.0,-0.0,238.919,254.256
2015-03-17 08:00,-0.00305728,265.791,264.635,249.286,267.354,265.99,252.075,-0.0,-0.0,237.137,252.244
2015-03-17 09:00,-0.0,270.713,270.746,252.412,272.741,272.086,256.785,-0.0,-0.0,237.657,254.162
2015-03-17 10:00,0.646236,267.444,265.243,249.414,267.016,266.835,253.625,1.16153,1.46507,238.733,254.162
2015-03-17 11:00,0.52929,288.841,274.392,254.808,276.315,275.24,257.777,0.453895,0.599431,238.919,255.73
2015-03-17 12:00,0.436033,293.007,273.732,254.336,275.857,274.147,256.909,0.337544,0.461163,240.014,256.271
2015-03-17 13:00,0.465336,293.702,273.732,254.808,276.62,276.015,258.147,0.404648,0.472958,239.954,256.36
2015-03-17 14:00,0.312981,297.749,286.661,262.261,288.358,285.065,261.421,0.193654,0.337578,240.193,256.539
2015-03-17 15:00,0.264637,295.368,283.956,260.876,285.061,282.321,260.461,0.168574,0.292135,240.841,257.158
2015-03-17 16:00,0.192649,290.939,283.956,260.876,284.641,282.904,261.421,0.179739,0.261386,241.817,257.855
2015-03-17 17:00,0.309358,256.062,222.552,226.674,221.838,220.685,220.302,0.570284,0.649668,219.26,221.213
2015-03-17 18:00,0.410258,262.869,212.578,222.027,211.428,210.931,213.653,0.708727,0.779812,210.278,210.353
2015-03-17 19:00,0.261637,258.096,247.357,239.115,247.012,246.457,239.618,0.574996,0.648693,231.709,241.475
2015-03-17 20:00,0.595637,264.739,219.247,225.107,218.824,218.235,218.601,0.788944,0.925812,216.83,217.918
2015-03-17 21:00,0.758832,263.636,214.358,222.868,212.997,212.673,214.265,0.717356,0.88509,211.964,212.505
2015-03-17 22:00,-0.0,230.231,224.279,226.866,223.125,222.753,221.965,-0.0,-0.0,218.767,221.436
2015-03-17 23:00,-0.0141248,232.213,219.628,225.306,220.184,219.165,217.832,-0.00896957,-0.0106949,219.137,220.306
2015-03-18 00:00,-0.0,237.078,233.392,231.799,232.772,231.203,227.601,-0.0,-0.0,222.585,229.314
2015-03-18 01:00,-0.00160163,249.156,247.769,239.419,248.307,247.085,239.47,-0.0,-0.0,229.348,240.053
2015-03-18 02:00,-0.0013589,250.598,249.185,240.171,249.579,248.736,240.354,-0.0,-0.0,226.499,238.986
2015-03-18 03:00,0.0012549,242.013,238.83,234.515,238.199,237.581,232.867,-0.0,-0.0,226.405,232.988
2015-03-18 04:00,-0.0,262.475,258.025,245.451,257.739,256.18,245.905,-0.0,-0.0,229.433,243.698
2015-03-18 05:00,-0.0,238.442,235.275,233.175,233.041,229.909,226.574,-0.0,0.00133829,220.101,228.603
2015-03-18 06:00,-0.00152959,235.601,230.559,230.387,230.012,228.856,225.36,-0.0,-0.0,222.259,227.509
2015-03-18 07:00,-0.00196753,243.066,240.984,235.499,240.631,239.667,234.604,-0.0,-0.0,225.058,234.389
2015-03-18 08:00,-0.0,238.442,235.011,231.799,234.371,232.976,228.949,-0.0,-0.0,223.952,230.354
2015-03-18 09:00,-0.0,253.206,247.357,238.349,247.012,245.824,237.676,-0.0,-0.0,226.963,237.748
2015-03-18 10:00,0.388707,243.066,235.538,231.973,235.672,234.95,230.111,0.658235,0.784846,225.254,231.859
2015-03-18 11:00,0.28926,250.598,243.049,235.823,243.438,242.364,236.307,0.619493,0.687118,228.136,236.757
2015-03-18 12:00,0.362102,262.074,242.37,236.306,241.344,239.895,233.503,0.551512,0.607172,224.661,233.773
2015-03-18 13:00,0.296175,262.869,240.75,235.823,240.392,238.515,232.547,0.477532,0.526443,225.352,234.082
2015-03-18 14:00,0.49596,280.982,254.145,242.799,255.827,255.425,246.044,0.669615,0.746991,231.552,244.764
2015-03-18 15:00,0.27518,258.576,240.514,235.173,240.152,238.978,234.604,0.59718,0.668248,227.329,233.617
2015-03-18 16:00,0.0,0.0,0.0,0.0,0.0,0.0,0.0,0.0,0.0,0.0,0.0
2015-03-18 17:00,0.443913,284.087,255.23,243.368,256.98,255.235,244.932,0.521105,0.586967,233.159,245.23
2015-03-18 18:00,0.387754,271.531,244.815,237.884,244.349,243.896,237.827,0.522486,0.604707,230.348,236.614
2015-03-18 19:00,0.375227,287.444,269.908,251.676,270.169,266.667,249.438,0.306241,0.451062,232.935,245.69
2015-03-18 20:00,0.692874,296.84,269.485,250.931,270.332,266.16,249.572,0.541334,0.708504,233.382,247.481
2015-03-18 21:00,0.925581,279.667,268.63,250.806,269.021,266.16,250.104,0.815546,1.10156,232.405,245.804
2015-03-18 22:00,-0.0,282.753,280.669,258.358,282.087,279.511,259.249,-0.0,-0.0,238.733,253.69
2015-03-18 23:00,-0.0139958,285.665,284.528,260.337,286.722,284.349,260.942,-0.00888765,-0.0105972,240.548,254.443
2015-03-19 00:00,-0.0,285.512,284.185,260.011,286.447,284.061,260.942,-0.0,-0.0,237.072,253.021
2015-03-19 01:00,-0.0,282.408,282.566,259.354,285.061,282.613,259.735,-0.0,-0.0,236.94,253.213
2015-03-19 02:00,-0.00135549,284.087,284.071,260.445,286.585,284.349,261.182,-0.0,-0.0,235.593,253.309
2015-03-19 03:00,-0.0,282.059,282.448,259.354,285.061,282.904,259.492,-0.0,0.00126442,233.382,251.652
2015-03-19 04:00,0.00124308,282.234,282.682,259.683,285.34,283.339,260.942,-0.0,-0.0,235.867,252.828
2015-03-19 05:00,-0.00132382,279.081,280.429,258.246,283.514,282.028,260.461,-0.0,-0.0,232.481,251.85
2015-03-19 06:00,-0.00152766,279.278,280.789,258.691,284.079,282.467,259.977,-0.0,-0.0,232.784,251.652
2015-03-19 07:00,-0.0,277.869,279.945,258.134,283.372,282.028,260.34,-0.0,-0.0,232.405,251.152
2015-03-19 08:00,-0.00304539,284.249,283.726,260.011,286.033,284.205,260.701,-0.0,-0.0,233.603,252.439
2015-03-19 09:00,-0.00798827,282.923,283.495,259.574,286.033,284.205,260.098,-0.0,-0.0,232.557,251.652
2015-03-19 10:00,0.760837,283.594,282.448,259.244,285.201,283.339,261.062,0.702763,0.698282,234.756,251.949
2015-03-19 11:00,0.6417,293.816,278.968,257.12,282.517,281.146,259.735,0.551997,0.589254,238.041,253.785
2015-03-19 12:00,0.552743,293.007,278.474,256.434,280.931,280.257,259.614,0.596929,0.644363,240.134,255.639
2015-03-19 13:00,0.369437,289.113,279.945,257.459,282.231,280.998,259.735,0.414396,0.502074,238.671,255.183
2015-03-19 14:00,0.346599,291.809,282.214,259.244,283.938,281.735,259.977,0.328727,0.451632,237.977,255.183
2015-03-19 15:00,0.18017,284.57,278.474,256.892,279.466,277.548,257.53,0.230403,0.287265,239.532,254.162
2015-03-19 16:00,0.230714,253.206,234.208,231.274,234.633,233.722,229.449,0.706168,0.784702,229.852,233.146
2015-03-19 17:00,0.0656875,283.261,278.474,256.32,279.17,276.477,256.785,0.117909,0.163136,236.542,250.748
2015-03-19 18:00,0.246929,287.587,279.823,257.798,281.655,279.661,259.127,0.296295,0.397639,241.647,256.091
2015-03-19 19:00,0.248929,281.705,273.466,253.381,274.933,273.517,255.909,0.388603,0.443717,243.202,255.548
2015-03-19 20:00,0.509896,275.02,247.15,238.81,244.8,241.921,234.604,0.497758,0.605613,225.739,232.508
2015-03-19 21:00,0.62295,257.605,216.88,223.899,215.993,215.027,215.474,0.592568,0.72984,214.293,214.787
2015-03-19 22:00,-0.0121861,222.276,217.285,223.283,216.355,214.364,215.674,-0.0,-0.0,214.588,215.6
2015-03-19 23:00,-0.010402,235.601,226.261,228.004,225.31,224.19,222.692,-0.00880738,-0.0105015,219.137,222.313
2015-03-20 00:00,0.0021067,218.393,211.184,221.17,211.428,209.859,210.932,-0.0,-0.0,211.303,211.602
2015-03-20 01:00,-0.00159081,225.382,218.082,224.102,216.715,215.683,215.274,-0.0,-0.0,215.167,216.652
2015-03-20 02:00,-0.00135216,213.142,211.654,221.386,211.028,210.931,212.411,-0.0,-0.0,210.796,210.67
2015-03-20 03:00,-0.0,222.276,220.006,224.708,219.508,218.235,217.639,-0.0,-0.0,217.229,218.653
2015-03-20 04:00,-0.00124118,222.276,218.082,224.305,217.78,216.972,216.859,-0.0,-0.0,216.287,217.418
2015-03-20 05:00,-0.0,237.078,232.839,230.743,232.772,231.714,228.109,-0.0,-0.0,224.76,230.183
2015-03-20 06:00,0.00152584,245.01,245.248,236.625,245.471,244.544,238.128,-0.0,-0.0,228.312,238.85
2015-03-20 07:00,0.00196236,258.576,255.23,242.799,255.439,254.089,243.667,-0.0,-0.0,228.224,242.354
2015-03-20 08:00,-0.0,270.151,263.088,247.597,263.569,259.321,245.905,-0.0,-0.0,229.348,243.818
2015-03-20 09:00,-0.0,260.827,256.644,243.65,257.55,255.803,245.35,-0.0,-0.0,228.136,242.23
2015-03-20 10:00,0.453313,262.869,253.04,241.354,254.461,252.732,242.527,0.521601,0.610195,229.178,242.354
2015-03-20 11:00,0.688148,290.301,278.226,256.778,281.366,279.361,258.147,0.626136,0.635969,230.018,248.348
2015-03-20 12:00,0.518488,291.809,275.565,254.69,277.226,274.929,253.881,0.41422,0.502338,228.835,245.918
2015-03-20 13:00,0.460436,291.19,271.848,252.656,272.741,270.148,251.028,0.426022,0.496786,227.78,244.294
2015-03-20 14:00,0.414709,286.121,272.931,253.02,274.623,272.086,252.723,0.470838,0.519263,228.488,245.918
2015-03-20 15:00,0.244144,279.081,267.473,249.924,267.857,265.48,248.768,0.302691,0.386064,228.136,243.577
2015-03-20 16:00,0.204144,277.026,264.021,247.728,263.217,260.405,246.182,0.23675,0.332251,227.329,240.446
2015-03-20 17:00,0.21749,279.667,265.995,248.771,264.792,262.185,247.279,0.22321,0.330019,227.147,239.789
2015-03-20 18:00,0.292065,273.338,258.025,244.21,256.789,254.855,243.241,0.325857,0.425393,226.963,238.303
2015-03-20 19:00,0.367653,284.888,270.329,251.056,271.464,267.84,249.171,0.312947,0.465934,228.748,242.971
2015-03-20 20:00,0.096824,289.381,286.992,261.519,289.3,286.202,261.182,0.099914,0.158843,230.916,250.135
2015-03-20 21:00,0.888725,280.613,259.706,245.859,259.236,255.992,243.241,0.699209,0.913101,227.055,240.706
2015-03-20 22:00,-0.0117877,262.074,254.328,242.799,254.066,252.732,243.383,-0.0,-0.0,226.216,240.316
2015-03-20 23:00,-0.0137456,258.096,252.666,242.081,252.465,251.552,243.525,-0.00872876,-0.0104077,226.216,238.441
2015-03-21 00:00,-0.0,253.81,250.371,240.617,252.465,250.557,241.229,-0.0,-0.0,229.935,242.478
2015-03-21 01:00,0.00158556,267.444,266.59,250.303,269.021,268.173,253.625,-0.0,-0.0,231.552,248.455
2015-03-21 02:00,-0.0,222.276,225.937,228.378,224.384,224.756,224.481,-0.0,-0.0,216.15,219.134
2015-03-21 03:00,-0.0,251.944,242.142,235.337,242.515,239.208,230.604,-0.0,-0.0,225.546,235.444
2015-03-21 04:00,-0.0,246.775,244.38,237.572,243.209,242.805,237.525,-0.0,-0.0,227.055,236.614
2015-03-21 05:00,-0.0,262.074,251.53,240.766,251.652,249.144,237.977,-0.0,-0.0,226.216,237.468
2015-03-21 06:00,-0.0,264.377,261.179,247.067,262.329,260.584,246.869,-0.0,-0.0,227.42,243.336
2015-03-21 07:00,-0.0,256.062,249.385,239.267,249.368,246.666,236.46,-0.0,-0.0,226.778,238.303
2015-03-21 08:00,0.00303472,268.986,266.886,249.669,268.855,268.173,253.111,-0.0,0.00306373,232.86,249.198
2015-03-21 09:00,-0.0,268.686,268.916,250.806,271.625,270.635,253.625,-0.0,-0.0,231.943,249.617
2015-03-21 10:00,0.351582,274.787,271.574,252.656,274.156,273.2,256.035,0.396911,0.425931,233.234,251.051
2015-03-21 12:00,0.557433,298.726,283.148,259.683,286.31,284.205,261.182,0.409876,0.511987,234.329,251.949
2015-03-21 13:00,0.33936,295.26,284.642,260.661,286.997,284.349,261.182,0.24974,0.384229,235.038,252.047
2015-03-21 14:00,0.314451,292.174,283.032,259.574,285.201,282.613,260.461,0.270816,0.376044,234.113,251.152
2015-03-21 15:00,0.221034,294.043,282.448,259.464,284.079,279.661,258.023,0.127938,0.267272,235.662,250.544
2015-03-21 16:00,0.203489,295.151,287.869,263.099,289.568,285.919,261.062,0.106108,0.243014,236.609,252.342
2015-03-21 17:00,0.216905,294.043,286.217,261.944,287.815,284.779,260.822,0.13662,0.260371,236.475,253.213
2015-03-21 18:00,0.224554,289.381,283.38,260.119,285.201,282.613,260.581,0.209531,0.294557,235.731,253.595
2015-03-21 19:00,0.32647,274.073,244.815,237.728,240.631,236.635,228.614,0.338034,0.420923,219.863,228.782
2015-03-21 20:00,0.796779,267.761,223.597,226.866,223.125,222.169,221.046,1.01324,1.19581,220.337,222.956
2015-03-21 21:00,1.36008,269.865,221.117,226.481,220.519,219.472,219.362,1.17202,1.56808,218.517,219.843
2015-03-21 22:00,-0.0114143,230.231,221.117,226.287,219.167,217.29,217.832,-0.0,-0.0,215.167,218.165
2015-03-22 00:00,-0.00208605,238.442,236.318,233.175,236.695,235.917,231.581,-0.0,-0.0,226.405,232.988
2015-03-22 01:00,-0.0,259.045,250.954,241.061,252.059,248.941,238.128,-0.0,-0.0,227.42,240.964
2015-03-22 02:00,-0.00134576,280.799,278.35,257.685,280.201,277.701,257.53,-0.0,-0.0,232.405,251.352
2015-03-22 03:00,-0.00124556,282.581,279.091,258.246,279.907,276.323,254.9,-0.0,-0.0,230.43,249.721
2015-03-22 04:00,-0.0,281.165,281.267,259.574,283.656,281.441,259.492,-0.0,-0.0,233.159,252.146
2015-03-22 05:00,0.00131892,277.026,276.971,257.006,279.17,277.548,258.023,-0.0,-0.0,234.897,253.5
2015-03-22 06:00,-0.0,277.451,277.35,257.459,278.873,275.861,255.909,-0.0,-0.0,235.799,253.117
2015-03-22 07:00,-0.0019578,275.932,277.098,257.233,279.466,278.307,258.638,-0.0,-0.0,239.471,256.539
2015-03-22 08:00,-0.0,272.58,273.997,254.572,275.242,274.773,257.777,-0.0,-0.0,239.532,255.821
2015-03-22 09:00,-0.00787603,275.707,275.694,255.974,278.278,277.091,258.515,-0.0,-0.0,239.894,256.716
2015-03-22 10:00,0.189054,281.526,281.86,259.683,284.781,283.339,261.54,0.390175,0.286292,238.919,257.421
2015-03-22 12:00,0.623889,297.349,283.611,261.198,286.31,284.922,262.492,0.551368,0.604405,239.954,258.028
2015-03-22 13:00,0.419604,293.587,284.3,261.412,286.447,284.779,262.373,0.421219,0.527914,240.665,257.508
2015-03-22 14:00,0.331428,293.356,284.755,261.944,286.86,284.779,262.373,0.296655,0.411075,239.653,256.628
2015-03-22 15:00,0.281701,286.271,279.823,259.024,282.374,280.998,260.822,0.358303,0.419639,239.774,256.716
2015-03-22 16:00,0.220263,287.155,279.702,258.802,281.943,280.554,260.461,0.260252,0.335437,238.857,256.539
2015-03-22 17:00,0.234908,284.57,278.474,258.134,279.466,277.853,258.392,0.28205,0.35104,238.483,256.001
2015-03-22 18:00,0.196368,293.356,287.432,263.307,289.032,286.485,262.492,0.140286,0.246258,241.015,258.028
2015-03-22 19:00,0.116703,286.569,284.071,261.412,285.34,283.629,262.373,0.132308,0.197695,242.099,258.882
2015-03-22 20:00,0.628426,286.717,267.033,250.051,269.186,265.82,244.652,0.722491,0.880121,238.733,252.146
2015-03-22 21:00,0.346092,273.831,269.767,252.899,271.625,270.311,254.264,0.544209,0.640567,239.471,253.405
2015-03-22 22:00,-0.0110638,279.278,279.945,259.134,281.799,281.146,261.062,-0.0,-0.0,241.073,258.798
2015-03-22 23:00,-0.0135058,274.551,270.746,253.261,271.785,269.165,251.814,-0.00857652,-0.0102262,235.867,253.213
2015-03-23 00:00,-0.0,281.526,278.845,257.572,281.51,279.061,255.658,-0.0,-0.0,238.104,256.271
2015-03-23 01:00,0.00157539,284.73,284.071,261.838,286.033,284.349,262.017,-0.0,-0.0,239.288,257.595
2015-03-23 02:00,-0.00134268,275.02,276.336,256.778,278.576,278.004,259.735,-0.0,-0.0,239.894,257.07
2015-03-23 03:00,-0.0,285.202,283.956,261.625,286.722,284.492,261.301,-0.0,-0.0,239.532,256.716
2015-03-23 04:00,0.00123594,285.818,285.658,262.576,287.815,285.919,262.61,-0.0,-0.0,240.074,257.682
2015-03-23 05:00,-0.0,285.665,285.321,262.471,287.543,286.06,262.728,-0.0,-0.0,239.41,257.07
2015-03-23 06:00,-0.0,285.202,284.755,261.944,286.997,285.35,261.898,-0.0,-0.0,239.894,257.158
2015-03-23 07:00,-0.0,284.41,284.185,261.731,286.585,284.636,262.136,-0.0,-0.0,238.671,256.539
2015-03-23 08:00,-0.00302515,283.093,284.185,261.731,286.86,285.208,261.779,-0.0,-0.0,238.795,256.539
2015-03-23 09:00,0.00784155,283.428,284.071,261.519,286.585,284.779,261.898,-0.0,-0.0,237.721,256.36
2015-03-23 10:00,0.559914,284.57,282.566,260.337,284.921,283.049,260.461,0.544685,0.58932,236.475,255.639
2015-03-23 12:00,0.64436,299.858,284.071,261.625,286.722,284.922,262.61,0.501005,0.537848,238.231,257.682
2015-03-23 13:00,0.309061,296.84,288.843,264.645,290.101,287.048,262.847,0.153772,0.353832,238.671,258.028
2015-03-23 14:00,0.282054,297.248,288.628,264.543,289.835,286.626,262.017,0.164185,0.321713,238.795,257.508
2015-03-23 15:00,0.219677,297.449,290.017,265.355,291.16,287.609,262.965,0.0977832,0.257262,239.043,257.682
2015-03-23 16:00,0.264605,288.152,274.524,255.277,275.396,273.2,252.723,0.253631,0.36668,236.475,253.021
2015-03-23 17:00,0.312979,254.966,225.611,228.004,224.072,224.19,223.413,0.692381,0.785223,218.891,220.763
2015-03-23 18:00,0.135591,277.869,264.788,249.924,262.507,259.502,247.687,0.206127,0.24733,227.51,240.576
2015-03-23 19:00,0.574987,270.151,208.223,221.814,207.702,206.513,208.982,0.8625,0.996263,207.502,208.027
2015-03-23 20:00,0.0435251,290.685,286.105,262.471,287.407,283.484,258.392,0.0737053,0.11613,238.357,255.275
2015-03-23 21:00,0.844281,274.551,227.845,229.847,225.31,222.169,218.982,0.686257,0.903493,220.57,224.204
2015-03-23 22:00,-0.0107344,255.521,241.451,236.146,239.911,235.917,226.056,-0.0,-0.0,224.359,235.146
2015-03-23 23:00,-0.0133899,274.551,263.245,248.252,261.971,257.301,240.207,-0.0085029,-0.0101384,228.4,243.093
2015-03-24 00:00,-0.0,282.059,277.601,258.246,278.576,274.929,255.027,-0.0,-0.0,233.603,250.849
2015-03-24 01:00,-0.00157047,282.753,277.852,257.459,279.76,275.551,253.753,-0.0,-0.0,234.185,250.442
2015-03-24 02:00,-0.0,285.357,284.071,261.944,285.757,283.194,260.581,-0.0,-0.0,234.968,253.405
2015-03-24 03:00,0.00124134,285.202,283.726,261.731,284.921,282.467,260.461,-0.0,-0.0,235.386,253.785
2015-03-24 04:00,-0.0,275.251,263.245,249.286,260.706,256.18,239.765,-0.0,-0.0,225.352,240.185
2015-03-24 05:00,-0.0,264.377,255.941,244.903,255.439,251.156,237.676,-0.0,-0.0,225.643,240.316
2015-03-24 06:00,-0.0,260.827,251.339,241.936,250.83,247.501,235.537,-0.0,-0.0,225.931,239.922
2015-03-24 07:00,-0.0,271.261,259.206,246.265,257.361,252.536,237.373,-0.0,-0.0,226.122,240.835
2015-03-24 08:00,-0.0,275.932,266.738,250.806,264.965,260.405,242.956,-0.0,-0.0,228.662,243.937
2015-03-24 09:00,-0.0,278.684,270.329,253.02,269.842,265.48,245.489,-0.0,-0.0,230.511,246.818
2015-03-24 10:00,0.504463,270.434,253.04,242.656,249.789,245.824,233.819,0.518655,0.715424,223.746,235.592
2015-03-24 11:00,0.384724,277.869,255.941,244.488,251.652,245.612,232.547,0.363895,0.545862,224.359,236.9
2015-03-24 12:00,0.3082,283.093,266.442,250.429,264.792,260.045,241.953,0.216269,0.413441,229.263,243.457
2015-03-24 13:00,0.29063,284.41,266.59,250.429,264.618,259.321,242.241,0.182529,0.370791,228.748,243.457
2015-03-24 15:00,0.283201,293.702,285.321,262.155,287.134,284.922,262.728,0.224866,0.331653,238.608,257.595
2015-03-24 16:00,0.195301,297.248,290.965,266.059,292.209,288.722,263.436,0.0816206,0.235085,237.398,258.2
2015-03-24 17:00,0.179103,296.635,291.174,266.259,292.47,288.999,263.436,0.0780866,0.222646,237.203,258.114
2015-03-24 18:00,0.145477,296.219,292.314,267.249,293.892,290.511,264.372,0.056346,0.192178,237.006,258.028
2015-03-24 19:00,0.126087,294.043,290.86,265.959,292.34,289.137,263.436,0.0694771,0.179825,235.593,257.682
2015-03-24 20:00,0.348323,295.151,288.087,264.543,289.3,285.777,262.017,0.220529,0.38967,235.593,257.421
2015-03-24 21:00,0.112529,290.301,287.212,263.721,288.897,285.919,262.373,0.175897,0.192253,236.475,257.158
2015-03-24 22:00,-0.0,287.155,284.528,261.838,286.033,282.904,259.856,-0.0,-0.0,236.408,255.275
2015-03-24 23:00,-0.0132766,279.473,268.773,252.412,267.354,262.361,242.671,-0.00843096,-0.0100526,227.238,243.937
2015-03-25 00:00,-0.0,275.932,263.712,249.286,261.791,256.18,239.913,-0.0,-0.0,224.959,239.121
2015-03-25 01:00,-0.00156567,274.787,261.662,248.9,258.678,251.947,236.153,-0.0,-0.0,221.93,236.325
2015-03-25 02:00,-0.0,237.078,220.379,226.287,217.072,213.694,211.992,-0.0,-0.0,212.126,215.6
2015-03-25 03:00,-0.00123934,222.276,215.218,222.659,214.517,213.016,212.411,-0.0,-0.0,212.287,213.952
2015-03-25 04:00,-0.0,218.393,213.921,222.868,212.219,210.931,211.992,-0.0,-0.0,210.796,212.505
2015-03-25 05:00,0.00131477,222.276,220.006,226.287,218.824,216.972,216.663,-0.0,-0.0,215.734,218.41
2015-03-25 06:00,0.00151825,222.276,212.578,222.027,211.428,209.859,210.718,-0.0,-0.0,210.624,211.906
2015-03-25 07:00,-0.001952,232.213,229.373,230.207,229.158,227.246,224.481,-0.0,-0.0,221.258,226.187
2015-03-25 08:00,-0.0,263.636,248.985,240.469,246.575,243.024,232.227,-0.0,-0.0,223.013,232.829
2015-03-25 09:00,-0.00777639,260.395,245.676,238.503,242.515,239.667,230.44,-0.0,-0.0,220.337,229.838
2015-03-25 10:00,0.544947,262.475,237.841,234.515,234.371,230.429,223.77,0.584447,0.782445,217.096,225.408
2015-03-25 11:00,0.378981,262.475,231.14,230.921,228.583,225.597,221.598,0.465133,0.589702,218.009,223.167
2015-03-25 12:00,0.287812,274.314,257.166,244.626,254.657,251.75,239.765,0.279526,0.429435,226.027,237.748
2015-03-25 13:00,0.363363,294.38,283.032,261.091,283.514,280.257,258.515,0.262933,0.404006,230.101,251.452
2015-03-25 14:00,0.374764,290.041,277.224,257.459,277.828,275.706,256.035,0.378466,0.466398,230.101,249.928
2015-03-25 15:00,0.228443,291.563,284.642,262.155,285.201,282.613,260.098,0.192353,0.322367,231.394,252.731
2015-03-25 16:00,0.232324,285.202,279.091,258.913,280.054,278.911,259.249,0.339189,0.393021,232.405,253.69
2015-03-25 17:00,0.183779,293.124,285.546,262.576,286.31,282.467,259.005,0.111309,0.254604,232.633,253.117
2015-03-25 18:00,0.22075,289.247,282.096,260.445,282.231,279.661,258.882,0.219815,0.302901,232.02,253.213
2015-03-25 19:00,0.328186,280.799,255.05,245.177,249.789,244.758,233.185,0.366522,0.453283,221.708,236.325
2015-03-25 20:00,0.506857,288.841,260.036,248.121,254.657,248.121,234.76,0.426473,0.559675,222.692,238.027
2015-03-25 21:00,1.11897,285.512,252.479,243.79,245.914,239.667,227.94,0.766965,1.07587,219.014,231.53
2015-03-25 22:00,-0.0,268.686,248.38,240.913,242.747,236.396,225.36,-0.0,-0.0,217.752,228.96
2015-03-25 23:00,-0.00987445,273.831,257.683,246.533,253.469,247.085,232.547,-0.00836068,-0.0132918,221.708,235.295
2015-03-26 00:00,-0.00204708,274.551,262.141,249.158,259.051,252.732,236.46,-0.0,-0.0,223.538,238.578
2015-03-26 01:00,-0.0,274.787,266.886,251.799,265.654,260.942,242.384,-0.0,-0.0,225.739,243.214
2015-03-26 02:00,-0.0,274.551,262.931,249.669,259.051,255.045,239.322,-0.0,-0.0,219.624,235.146
2015-03-26 03:00,-0.00123742,271.798,258.195,246.801,253.269,246.666,233.661,-0.0,-0.0,220.337,233.773
2015-03-26 04:00,-0.0,269.283,254.145,244.903,249.789,243.679,230.931,-0.0,-0.0,221.708,234.389
2015-03-26 05:00,-0.00131354,271.261,259.206,247.991,256.213,251.156,237.373,-0.0,-0.0,221.93,236.033
2015-03-26 06:00,-0.0,254.966,241.451,236.625,237.951,234.216,227.601,-0.0,-0.0,219.014,228.242
2015-03-26 07:00,-0.0,244.063,226.583,228.934,224.384,220.685,215.873,-0.0,-0.0,214.145,220.306
2015-03-26 08:00,0.00301269,257.103,237.591,234.681,232.23,226.974,220.86,-0.0,-0.0,213.845,222.956
2015-03-26 09:00,-0.0,253.81,231.997,231.274,227.708,222.753,217.639,-0.0,-0.0,213.388,220.075
2015-03-26 10:00,0.476188,245.01,216.058,223.076,212.997,210.576,210.504,0.589274,0.727274,210.796,212.505
2015-03-26 11:00,0.376699,252.585,218.082,224.507,215.993,214.364,213.241,0.558163,0.654961,212.765,215.6
2015-03-26 12:00,0.320372,262.074,222.552,227.248,219.167,216.008,215.474,0.447307,0.531203,213.541,217.418
2015-03-26 13:00,0.290442,259.505,221.117,225.897,219.847,218.547,218.41,0.570636,0.652857,217.36,219.843
2015-03-26 14:00,0.271886,258.096,219.247,224.908,218.478,216.972,217.25,0.522879,0.597246,215.734,217.669
2015-03-26 15:00,0.24047,254.396,224.279,227.817,223.443,222.462,220.489,0.489724,0.568589,218.517,221.658
2015-03-26 16:00,0.225497,256.062,239.799,235.337,238.938,238.049,232.387,0.396788,0.480741,225.352,232.508
2015-03-26 17:00,0.246392,259.954,244.815,238.195,244.8,243.461,236.153,0.40128,0.489339,227.42,237.468
2015-03-26 18:00,0.129617,285.357,278.845,258.58,279.17,276.015,256.66,0.132225,0.222298,231.236,248.562
2015-03-26 19:00,0.5206,277.026,224.95,229.301,218.478,215.027,213.653,0.48024,0.6401,211.135,214.787
2015-03-26 20:00,0.774005,275.02,220.379,226.481,217.427,214.697,213.857,0.733882,0.91379,213.078,214.511
2015-03-26 21:00,1.13969,279.278,245.463,239.267,239.911,234.461,225.535,0.810577,1.14138,219.137,227.877
2015-03-26 22:00,-0.00985738,260.827,242.824,237.728,238.446,234.706,226.746,-0.0,-0.0,220.916,228.423
2015-03-26 23:00,-0.0261158,278.684,271.711,254.69,271.625,268.173,251.683,-0.0138201,-0.0197741,229.769,244.764
2015-03-27 00:00,-0.0,282.581,276.336,257.233,276.01,271.605,251.159,-0.0,-0.0,230.348,247.151
2015-03-27 01:00,-0.0015564,282.581,276.591,257.91,276.01,270.635,249.037,-0.0,-0.0,229.348,245.804
2015-03-27 02:00,-0.00133123,263.636,246.102,240.913,238.446,231.714,223.592,-0.0,-0.0,217.491,225.994
2015-03-27 03:00,-0.0,247.601,227.533,229.847,222.485,219.777,217.055,-0.0,-0.0,213.845,217.418
2015-03-27 04:00,-0.0,227.984,219.247,225.504,217.072,215.027,214.468,-0.0,-0.0,213.388,216.131
2015-03-27 05:00,-0.0,242.013,231.14,231.274,227.414,224.474,220.675,-0.0,-0.0,217.622,223.586
2015-03-27 06:00,-0.00151588,240.898,232.28,232.146,230.012,228.056,224.304,-0.0,-0.0,219.26,225.604
2015-03-27 07:00,-0.0,243.066,230.85,231.274,228.001,224.474,220.86,-0.0,-0.0,216.424,223.167
2015-03-27 08:00,-0.00300899,237.078,222.198,227.438,215.993,213.694,213.653,-0.0,-0.0,208.652,213.092
2015-03-27 09:00,-0.00771569,222.276,213.921,222.449,211.825,210.931,211.146,-0.0,-0.0,212.126,212.207
2015-03-27 10:00,0.418582,239.711,213.479,221.6,211.825,210.931,211.358,0.677554,0.845168,210.796,212.207
2015-03-27 11:00,0.381411,254.396,223.94,227.438,222.162,219.777,218.025,0.616252,0.710059,215.167,219.608
2015-03-27 12:00,0.297805,253.81,222.198,225.897,220.184,218.857,217.445,0.524113,0.592713,217.096,219.372
2015-03-27 13:00,0.328168,255.521,219.628,224.908,218.478,217.922,217.639,0.62246,0.708084,216.012,217.669
2015-03-27 14:00,0.257526,255.521,229.673,229.847,228.871,227.517,223.592,0.45929,0.543485,223.224,227.877
2015-03-27 15:00,0.236075,264.009,237.339,234.183,233.842,230.946,226.056,0.308424,0.386969,219.382,225.011
2015-03-27 16:00,0.272979,262.869,225.937,228.749,224.072,222.462,219.927,0.400198,0.483555,218.264,221.436
2015-03-27 17:00,0.308131,260.395,226.902,229.301,226.522,225.038,222.692,0.470296,0.568943,221.819,225.994
2015-03-27 18:00,0.382804,261.666,229.072,229.847,228.293,227.246,224.834,0.575179,0.688981,222.259,225.799
2015-03-27 19:00,0.476935,261.251,229.373,229.847,228.871,228.056,225.185,0.640244,0.771625,222.585,226.57
2015-03-27 20:00,0.665293,270.713,240.039,235.662,238.938,236.157,229.615,0.700026,0.854238,224.86,231.859
2015-03-27 21:00,0.224816,254.396,236.832,233.513,235.93,234.706,230.276,0.237939,0.27425,222.692,228.96
2015-03-27 22:00,-0.00959767,253.81,240.984,235.499,237.451,234.706,229.615,-0.0,-0.0,219.26,226.57
2015-03-27 23:00,-0.0388573,248.394,235.8,233.681,232.772,230.946,227.601,-0.0191919,-0.0326906,217.881,223.377
2015-03-28 00:00,-0.0020288,250.598,246.942,239.115,246.135,245.186,237.222,-0.0,-0.0,226.592,237.888
2015-03-28 01:00,-0.0,249.89,249.185,240.021,250.207,249.55,242.097,-0.0,-0.0,230.916,241.728
2015-03-28 02:00,-0.00132858,264.377,260.692,247.728,262.507,260.942,248.903,-0.0,-0.00134128,232.02,246.818
2015-03-28 03:00,-0.0,283.093,279.823,259.902,280.201,276.015,256.035,-0.0,-0.0,231.394,248.987
2015-03-28 04:00,-0.0,284.087,281.148,260.769,281.366,278.156,257.777,-0.0,0.00124043,232.633,248.775
2015-03-28 05:00,-0.0,281.526,277.977,258.358,279.613,276.323,256.535,-0.0,-0.0,232.935,249.928
2015-03-28 06:00,-0.0,281.165,277.727,258.246,278.427,274.617,255.658,-0.0,-0.0,232.328,249.408
2015-03-28 07:00,-0.0,278.883,275.951,257.233,276.315,273.042,254.773,-0.0,-0.0,231.236,249.093
2015-03-28 08:00,-0.0,284.41,282.448,260.445,283.514,279.511,257.777,-0.0,-0.0,231.709,249.825
2015-03-28 09:00,-0.0,281.705,278.226,257.798,279.466,276.631,256.16,-0.0,-0.0,232.481,248.882
2015-03-28 10:00,0.384834,286.569,284.528,261.838,286.585,283.773,261.182,0.304816,0.56397,232.251,251.051
2015-03-28 11:00,0.36159,290.558,286.661,263.203,288.358,285.35,261.779,0.175372,0.492636,232.86,251.652
2015-03-28 12:00,0.379637,295.042,289.593,265.254,290.764,287.048,262.255,0.142661,0.452168,233.159,252.439
2015-03-28 13:00,0.267719,296.323,289.699,265.658,290.897,286.767,262.136,0.102415,0.324009,233.75,252.537
2015-03-28 14:00,0.225246,297.248,291.383,266.358,292.209,288.027,262.136,0.0802402,0.274543,233.085,253.021
2015-03-28 15:00,0.241848,297.349,289.379,264.849,290.764,287.188,262.136,0.13903,0.278856,233.968,253.69
2015-03-28 16:00,0.207936,296.219,289.058,264.645,290.101,286.343,262.373,0.117015,0.250884,234.257,253.785
2015-03-28 17:00,0.202133,296.738,289.486,265.355,290.632,286.767,262.373,0.105674,0.247891,235.317,254.256
2015-03-28 18:00,0.209635,296.738,289.379,264.849,290.764,286.907,261.898,0.110769,0.259378,235.731,254.536
2015-03-28 19:00,0.373266,291.686,277.476,257.685,279.613,277.548,258.515,0.375085,0.488642,236.675,254.814
2015-03-28 20:00,0.319626,273.831,261.017,246.667,260.158,257.671,243.667,0.416986,0.4939,233.823,248.669
2015-03-28 21:00,0.471923,289.381,280.308,258.913,279.613,275.706,254.137,0.42404,0.602835,233.308,251.252
2015-03-28 22:00,0.00935235,265.446,253.411,242.799,253.069,249.955,239.618,-0.0,-0.00944176,225.643,234.542
2015-03-28 23:00,-0.0546108,286.864,283.956,261.838,285.201,282.467,260.581,-0.0244794,-0.0486466,232.935,253.021
2015-03-29 00:00,-0.0,287.587,285.77,262.576,287.679,285.065,261.898,-0.0,-0.0,234.329,253.785
2015-03-29 01:00,0.00154759,287.3,285.994,262.995,287.951,285.208,261.779,-0.0,-0.0,234.827,254.068
2015-03-29 02:00,-0.00132602,287.01,285.658,262.786,287.543,284.922,261.898,-0.0,-0.0,233.896,253.974
2015-03-29 03:00,-0.0,286.121,284.3,262.155,285.895,282.613,260.098,-0.0,-0.0,232.935,253.021
2015-03-29 04:00,-0.0,284.087,281.978,260.769,282.374,278.609,256.535,-0.0,-0.0,231.709,251.652
2015-03-29 05:00,-0.00131032,279.667,277.476,257.459,278.576,275.861,255.406,-0.0,-0.0,231.865,251.552
2015-03-29 06:00,-0.00151387,282.234,280.789,259.574,281.799,279.211,258.023,-0.0,-0.0,232.328,252.244
2015-03-29 07:00,-0.00194604,283.093,280.909,259.574,282.087,279.061,257.406,-0.0,-0.0,231.552,251.85
2015-03-29 08:00,-0.00300219,280.613,276.718,257.12,277.377,273.359,253.753,-0.0,-0.0,230.835,250.748
2015-03-29 09:00,-0.0,282.753,278.968,258.913,278.128,272.565,251.814,-0.0,-0.0,230.755,249.513
2015-03-29 10:00,0.638437,283.76,269.767,254.099,267.354,258.774,241.084,0.582961,0.770921,225.739,243.093
2015-03-29 11:00,0.753746,287.729,259.039,247.728,256.789,249.955,237.525,0.650124,0.757396,225.156,242.602
2015-03-29 12:00,0.560293,292.889,264.94,250.931,263.92,256.928,241.808,0.45086,0.565649,227.87,246.145
2015-03-29 13:00,0.35573,295.583,271.574,254.926,268.358,259.684,242.097,0.256016,0.401573,227.329,245.46
2015-03-29 14:00,0.508173,288.43,260.692,247.859,260.524,256.367,242.956,0.593515,0.652064,228.835,246.595
2015-03-29 15:00,0.317878,289.647,266.145,251.429,265.997,260.764,245.35,0.279956,0.37247,230.43,247.59
2015-03-29 16:00,0.213711,292.534,278.474,257.798,273.529,269.0,248.768,0.115247,0.288956,226.871,242.105
2015-03-29 17:00,0.296878,268.686,233.116,231.274,227.118,224.474,220.302,0.33554,0.452324,214.879,220.763
2015-03-29 18:00,0.421257,267.123,212.578,222.238,210.218,205.74,207.197,0.561834,0.693884,208.652,212.505
2015-03-29 19:00,0.425156,268.986,211.184,221.17,209.394,208.026,208.761,0.712968,0.820936,209.569,210.032
2015-03-29 20:00,0.774114,272.322,203.838,218.73,202.217,201.271,204.422,0.945509,1.11075,204.573,203.113
2015-03-29 21:00,0.990971,272.836,232.28,230.743,229.444,226.426,222.329,0.797101,1.09048,220.686,227.509
2015-03-29 22:00,-0.0,244.063,233.666,232.663,230.574,227.517,222.147,-0.0,-0.0,219.503,227.509
2015-03-29 23:00,-0.0701214,233.989,219.247,225.306,218.13,216.331,216.269,-0.0350833,-0.0707917,216.012,218.895
2015-03-30 00:00,0.00201134,227.984,219.628,225.306,217.072,215.356,214.872,-0.0,-0.0,212.922,215.6
2015-03-30 01:00,-0.00154337,227.984,216.88,223.694,215.26,213.694,213.857,-0.0,0.00155812,213.388,214.787
2015-03-30 02:00,-0.00132354,235.601,227.845,228.564,226.221,225.318,222.511,-0.0,-0.0,219.382,223.167
2015-03-30 03:00,-0.0,246.775,235.538,232.491,234.633,232.474,226.746,-0.0,-0.0,221.258,227.136
2015-03-30 04:00,-0.00122628,260.827,250.175,240.766,248.307,245.612,235.846,-0.0,-0.0,223.746,234.845
2015-03-30 05:00,-0.0,258.576,243.94,237.415,241.58,237.581,229.116,-0.0,-0.0,219.26,230.011
2015-03-30 06:00,-0.0,248.394,230.85,230.207,227.708,224.756,220.86,-0.0,-0.0,216.83,222.096
2015-03-30 07:00,-0.0,246.775,234.477,232.146,232.772,230.17,225.535,-0.0,-0.0,220.801,226.948
2015-03-30 08:00,-0.0,249.156,237.339,233.344,235.93,233.474,227.94,-0.0,-0.0,220.801,227.877
2015-03-30 09:00,0.00763142,254.396,245.676,237.572,244.122,242.143,234.291,-0.0,-0.0,224.054,234.082
2015-03-30 10:00,0.429236,275.707,263.088,247.991,262.15,258.408,242.384,0.448947,0.637264,223.952,238.714
2015-03-30 11:00,0.335727,262.475,244.598,237.258,242.049,240.35,232.707,0.430878,0.581544,223.013,231.198
2015-03-30 12:00,0.274479,278.684,265.394,249.542,263.569,260.045,245.072,0.246926,0.419984,227.238,240.316
2015-03-30 13:00,0.282093,292.889,281.86,260.228,281.655,276.323,254.009,0.133151,0.366626,227.601,245.345
2015-03-30 14:00,0.248571,287.871,270.885,253.261,269.186,263.759,246.044,0.135633,0.308107,225.156,239.121
2015-03-30 15:00,0.20999,296.323,286.55,263.618,287.134,282.321,257.9,0.0921517,0.253363,229.348,248.669
2015-03-30 16:00,0.2591,285.202,264.788,249.669,259.974,257.671,241.084,0.197766,0.335024,221.371,233.461
2015-03-30 17:00,0.259759,275.251,253.226,242.942,249.579,247.085,236.307,0.269712,0.367138,223.538,232.185
2015-03-30 18:00,0.257784,282.408,266.145,250.177,265.138,261.121,246.044,0.242517,0.361456,228.224,242.354
2015-03-30 19:00,0.446563,269.576,226.261,228.564,219.847,217.922,215.674,0.483621,0.591324,210.624,213.952
2015-03-30 20:00,0.755324,272.836,212.578,222.238,209.394,207.651,209.42,0.740956,0.893555,208.084,209.047
2015-03-30 21:00,0.877572,261.251,207.704,219.855,206.392,206.128,208.096,0.734399,0.968376,206.084,206.606
2015-03-30 22:00,-0.00890101,240.898,220.379,225.701,216.355,214.03,211.781,-0.0,-0.0,212.922,215.332
2015-03-30 23:00,-0.104376,255.521,233.116,232.491,228.293,223.619,218.792,-0.0508827,-0.0957945,215.452,222.096
2015-03-31 00:00,0.00200293,246.775,228.769,229.484,225.919,222.753,218.601,-0.0,-0.0,217.622,222.529
2015-03-31 01:00,-0.0,262.869,245.89,238.349,242.049,237.581,227.94,-0.0,-0.0,221.484,231.53
2015-03-31 02:00,-0.0,251.944,231.997,231.973,230.012,225.874,221.046,-0.0,-0.0,217.881,225.011
2015-03-31 03:00,-0.00245786,238.442,224.95,227.817,221.838,220.384,219.362,-0.0,-0.0,214.879,217.918
2015-03-31 04:00,-0.00122518,279.667,272.527,254.336,270.981,267.673,250.104,-0.0,-0.0,226.311,242.848
2015-03-31 05:00,-0.00130854,284.888,281.267,259.354,283.088,279.211,256.16,-0.0,-0.0,229.601,249.825
2015-03-31 06:00,-0.0,273.831,263.401,248.382,261.791,257.856,242.814,-0.0,-0.0,225.449,239.789
2015-03-31 07:00,-0.00194374,248.394,232.839,231.274,229.444,227.246,222.873,-0.0,-0.0,218.009,222.743
2015-03-31 08:00,-0.0,264.739,249.781,240.469,247.012,242.585,233.344,-0.0,-0.0,222.15,232.022
2015-03-31 09:00,-0.0,266.131,252.29,241.936,249.368,245.399,233.026,-0.0,-0.0,221.708,231.031
2015-03-31 10:00,0.432917,280.239,270.607,253.14,270.006,266.329,247.687,0.420454,0.629874,225.058,240.316
2015-03-31 11:00,0.390057,287.155,279.336,258.134,279.613,275.861,254.9,0.22818,0.519082,228.312,245.69
2015-03-31 12:00,0.417163,285.665,264.175,248.9,264.444,260.584,245.211,0.32408,0.46891,226.027,240.964
2015-03-31 13:00,0.251966,291.931,282.916,260.337,283.088,278.76,255.406,0.123874,0.318379,229.601,246.929
2015-03-31 14:00,0.283886,297.349,283.841,261.305,284.921,280.406,258.023,0.155944,0.324347,231.236,249.513
2015-03-31 15:00,0.251725,290.685,274.785,255.626,272.741,267.84,247.006,0.180512,0.312478,227.959,243.698
2015-03-31 16:00,0.245893,278.075,253.963,242.656,249.998,246.035,234.447,0.233138,0.33875,223.224,233.617
2015-03-31 17:00,0.21961,273.338,262.141,247.859,262.329,260.225,247.006,0.398616,0.466975,230.916,246.707
2015-03-31 18:00,0.382154,287.3,266.145,250.303,267.185,264.451,249.705,0.4752,0.576289,233.234,250.135
2015-03-31 19:00,0.424357,285.357,256.819,245.04,254.263,249.144,237.07,0.387622,0.51494,225.254,237.608
2015-03-31 20:00,0.416819,292.294,272.662,254.69,270.657,263.586,243.808,0.332997,0.46492,227.42,242.602
2015-03-31 21:00,0.799224,292.771,277.727,258.022,276.62,270.96,249.305,0.587662,0.796248,231.156,246.032
2015-03-31 22:00,-0.00869325,283.594,277.35,257.685,276.923,271.765,250.633,-0.0,-0.0,230.266,246.258
2015-03-31 23:00,-0.119287,283.594,277.727,257.572,277.828,273.2,252.723,-0.0611317,-0.120427,229.935,247.151
