# timestamp,IR_016,IR_039,IR_087,IR_097,IR_108,IR_120,IR_134,VIS006,VIS008,WV_062,WV_073
2013-10-01 00:00,-0.00201617,242.013,232.839,230.565,231.131,228.324,223.77,-0.0,-0.0,220.337,226.948
2013-10-01 01:00,0.00156667,238.442,231.14,229.847,229.444,226.426,223.053,-0.0,-0.0,219.744,226.379
2013-10-01 02:00,-0.00135826,243.066,235.8,232.319,234.633,232.474,228.109,-0.0,-0.0,223.013,229.137
2013-10-01 03:00,-0.00127695,246.775,241.913,235.337,241.58,239.208,232.867,-0.0,-0.0,224.258,234.389
2013-10-01 04:00,0.00128908,265.446,252.29,240.469,250.415,245.824,234.76,-0.0,-0.0,223.849,235.592
2013-10-01 05:00,-0.0,245.913,239.559,234.017,237.702,235.917,230.931,-0.0,-0.0,222.368,230.863
2013-10-01 06:00,-0.00165588,251.282,250.954,240.766,253.269,251.947,242.671,-0.0,-0.0,228.4,242.971
2013-10-01 07:00,-0.0,253.81,253.595,241.646,255.827,254.664,244.652,-0.0,-0.0,227.87,244.412
2013-10-01 08:00,-0.00374872,263.636,259.706,244.903,262.15,259.864,247.823,-0.0,-0.0,230.916,247.808
2013-10-01 09:00,-0.0157978,276.811,276.208,254.69,278.427,275.706,255.784,-0.013376,-0.0159488,230.101,249.513
2013-10-01 10:00,1.08699,280.05,254.509,241.5,255.827,254.281,243.949,1.0019,1.20851,227.147,243.336
2013-10-01 11:00,0.614514,284.249,256.819,243.084,255.244,251.156,240.207,0.527671,0.614535,225.835,239.39
2013-10-01 12:00,0.699244,292.053,251.912,240.32,254.066,253.316,244.231,0.681262,0.773621,228.835,242.971
2013-10-01 13:00,0.608155,299.108,250.566,240.021,253.069,252.536,243.525,0.606692,0.66108,230.43,243.698
2013-10-01 14:00,0.57463,290.685,247.563,238.04,250.207,250.357,241.953,0.634278,0.699327,230.266,242.602
2013-10-01 15:00,0.496851,295.26,250.566,240.32,253.069,251.75,242.671,0.474053,0.539034,229.263,243.457
2013-10-01 16:00,0.449038,279.278,245.463,237.101,246.575,245.824,239.47,0.49426,0.570441,228.136,238.714
2013-10-01 17:00,0.433435,290.301,262.931,246.667,264.965,262.888,250.104,0.40929,0.470295,230.266,248.133
2013-10-01 18:00,0.473081,289.779,254.69,242.369,254.854,251.75,240.646,0.430128,0.500041,226.685,241.348
2013-10-01 19:00,0.609783,300.947,266.145,249.029,267.185,263.759,248.903,0.518077,0.577533,227.147,244.998
2013-10-01 20:00,1.33479,300.769,263.712,247.728,266.847,266.16,252.075,1.16196,1.351,229.685,248.882
2013-10-01 21:00,2.61114,293.472,266.145,249.158,269.186,267.673,252.723,1.77624,2.39953,230.184,249.093
2013-10-01 22:00,-0.0,261.666,262.931,247.332,266.508,266.16,252.594,-0.0,-0.0,231.473,249.617
2013-10-01 23:00,-0.122539,283.924,276.208,254.217,277.075,272.565,252.594,-0.0877914,-0.0951618,228.662,246.371
2013-10-02 00:00,-0.00201896,270.713,265.545,248.512,266.508,262.888,246.732,-0.0,-0.0,227.42,244.53
2013-10-02 01:00,-0.0,262.074,259.373,244.903,259.974,256.742,243.949,-0.0,-0.0,228.312,244.881
2013-10-02 02:00,-0.0,204.719,212.119,221.17,211.028,209.497,210.718,-0.0,-0.0,209.926,210.984
2013-10-02 03:00,-0.0,233.989,232.28,230.027,231.131,230.429,226.746,-0.0,-0.0,223.013,228.423
2013-10-02 04:00,0.00129193,225.382,222.904,225.897,222.806,222.169,219.927,-0.0,-0.0,219.014,221.436
2013-10-02 05:00,-0.0,238.442,237.339,233.005,237.951,237.109,232.387,-0.0,-0.0,225.058,232.988
2013-10-02 06:00,-0.0,250.598,249.185,239.115,248.946,247.293,239.025,-0.0,-0.0,225.739,239.656
2013-10-02 07:00,0.00222904,232.213,223.94,226.866,221.511,220.081,219.172,-0.0,-0.0,216.695,220.306
2013-10-02 08:00,-0.0,232.213,222.904,225.897,221.838,220.384,218.41,-0.0,-0.0,217.752,220.535
2013-10-02 09:00,-0.0,233.989,227.219,227.438,226.522,225.597,223.233,-0.0139981,-0.0166906,220.686,223.999
2013-10-02 10:00,0.384617,258.096,237.339,232.319,235.672,232.474,226.229,0.497052,0.579034,223.013,229.314
2013-10-02 11:00,0.40255,253.206,223.252,225.701,223.443,222.169,221.23,0.691415,0.783768,219.014,221.436
2013-10-02 12:00,0.282087,254.966,233.666,231.45,233.842,232.474,227.94,0.593878,0.656156,224.86,230.694
2013-10-02 13:00,0.425927,282.753,256.118,242.942,257.361,255.614,243.808,0.51936,0.570808,227.42,242.848
2013-10-02 14:00,0.448683,274.787,246.102,237.728,247.012,244.758,235.227,0.561542,0.622012,224.959,237.327
2013-10-02 15:00,0.290984,301.913,289.379,261.625,290.632,284.922,258.882,0.137803,0.210366,229.348,248.348
2013-10-02 16:00,0.170534,293.472,283.726,258.802,283.372,279.061,256.16,0.111718,0.139491,229.517,246.371
2013-10-02 17:00,0.260127,298.242,280.429,257.346,280.347,274.147,253.24,0.186014,0.220433,230.266,247.699
2013-10-02 18:00,0.599061,295.151,259.54,245.177,261.069,258.774,245.489,0.594445,0.652786,229.601,245.575
2013-10-02 19:00,0.786508,298.726,259.706,245.723,259.791,256.367,243.667,0.713755,0.829926,229.769,245.575
2013-10-02 20:00,0.371252,294.713,283.148,258.691,283.514,278.307,254.519,0.357596,0.374801,230.593,248.241
2013-10-02 21:00,0.986869,293.702,281.742,257.685,282.231,277.396,254.519,1.05152,1.17541,231.709,249.093
2013-10-02 22:00,-0.0,280.239,276.336,255.277,277.828,273.675,253.753,-0.0,-0.00853296,229.935,248.348
2013-10-02 23:00,-0.116473,269.576,265.545,248.642,268.024,266.835,252.075,-0.0906213,-0.0953401,230.916,249.198
2013-10-03 00:00,-0.0,267.123,268.199,249.924,271.785,270.473,254.264,-0.0,-0.0,231.787,249.928
2013-10-03 01:00,-0.0,286.121,284.982,259.244,287.543,284.922,260.701,-0.0,-0.0,231.709,250.544
2013-10-03 02:00,-0.0,270.434,270.049,251.056,273.529,271.765,255.027,-0.0,-0.0,232.481,250.34
2013-10-03 03:00,-0.0,272.58,270.746,251.552,273.529,271.444,255.28,-0.0,-0.0,233.896,251.552
2013-10-03 04:00,-0.0,285.97,284.528,259.244,286.997,284.349,260.461,-0.0,-0.0,231.943,251.051
2013-10-03 05:00,0.00140731,283.594,280.308,256.892,281.51,278.76,256.535,-0.0,-0.0,228.662,247.371
2013-10-03 06:00,-0.00166857,279.859,274.916,253.621,276.163,272.565,252.464,-0.0,-0.0,228.662,247.04
2013-10-03 07:00,-0.00224168,275.02,268.916,250.806,269.842,267.339,250.765,-0.0,-0.0,227.78,244.647
2013-10-03 08:00,-0.0,263.636,259.373,244.903,260.706,258.591,246.457,-0.0,-0.0,228.312,244.53
2013-10-03 09:00,-0.0173331,276.155,273.065,252.899,275.242,272.086,254.009,-0.0293519,-0.0349977,228.748,248.241
2013-10-03 10:00,0.87409,288.291,274.916,253.14,276.315,273.675,255.406,0.583102,0.755427,228.921,247.699
2013-10-03 11:00,0.76168,295.476,261.179,246.13,262.329,260.045,248.229,0.543466,0.653761,229.769,246.483
2013-10-03 12:00,0.641015,296.427,254.871,242.369,256.98,256.742,246.594,0.587707,0.670118,229.769,245.46
2013-10-03 13:00,0.611165,300.225,254.145,242.225,256.98,256.742,246.457,0.564285,0.626059,230.835,245.804
2013-10-03 14:00,0.543928,297.449,252.479,241.936,254.263,252.536,242.527,0.524599,0.578098,229.517,242.971
2013-10-03 15:00,0.495726,294.156,256.992,244.07,259.974,258.408,246.869,0.561376,0.612231,230.43,246.595
2013-10-03 16:00,0.483246,290.558,260.854,245.723,263.393,263.063,250.501,0.499622,0.544303,230.184,248.241
2013-10-03 17:00,0.37537,301.302,271.299,251.799,272.264,269.165,253.111,0.262006,0.309686,230.266,248.669
2013-10-03 18:00,0.264221,301.74,293.336,264.133,295.043,290.238,262.017,0.150036,0.198063,230.674,251.051
2013-10-03 19:00,0.258925,299.391,292.929,263.721,294.916,290.648,263.083,0.206856,0.227672,230.835,251.552
2013-10-03 20:00,0.309231,296.427,291.279,262.89,293.506,289.689,262.492,0.365404,0.339632,231.552,251.652
2013-10-03 21:00,0.286438,290.558,285.77,259.244,287.134,283.339,258.882,0.31715,0.333665,229.935,249.825
2013-10-03 22:00,-0.0,269.283,253.779,241.5,251.036,246.876,235.537,-0.0,-0.0,223.118,234.082
2013-10-03 23:00,-0.123012,265.095,246.523,237.415,245.024,242.364,234.447,-0.0881306,-0.0923452,223.746,232.988
2013-10-04 00:00,-0.00202503,262.074,250.371,238.963,248.946,245.612,234.76,-0.0,-0.0,224.359,234.694
2013-10-04 01:00,-0.00157344,276.155,266.59,247.859,264.444,262.361,245.767,-0.0,-0.0,225.352,239.523
2013-10-04 02:00,-0.00136473,258.096,256.992,243.368,258.304,257.856,247.279,-0.0,-0.00137777,230.101,245.345
2013-10-04 03:00,0.00128405,258.576,254.328,241.646,255.049,253.51,243.241,-0.0,-0.0,227.959,241.854
2013-10-04 04:00,0.00129782,253.206,253.963,242.081,256.598,255.803,244.792,-0.0,-0.0,228.662,245.69
2013-10-04 05:00,-0.00141139,252.585,253.963,241.791,256.213,255.992,246.044,-0.0,-0.0,230.674,246.145
2013-10-04 06:00,-0.0,251.282,252.479,240.469,254.263,253.51,243.949,-0.0,0.00169106,229.007,244.412
2013-10-04 07:00,-0.0,247.601,243.719,235.662,244.8,243.243,235.072,-0.0,-0.0,225.643,237.748
2013-10-04 08:00,-0.00386593,256.062,256.294,242.799,258.865,257.856,246.732,-0.0,-0.0,231.394,247.917
2013-10-04 09:00,-0.0,259.954,259.373,244.765,261.25,259.684,247.415,-0.0308335,-0.0183821,230.755,248.133
2013-10-04 10:00,0.604689,271.798,250.371,239.871,251.856,250.156,240.5,0.809273,0.912422,230.018,243.214
2013-10-04 11:00,0.693539,283.093,247.15,238.81,246.794,244.112,235.537,0.752598,0.851634,227.78,240.576
2013-10-04 12:00,0.681295,291.686,247.769,238.657,248.946,246.246,236.918,0.741437,0.828799,228.4,241.728
2013-10-04 13:00,0.576234,289.381,255.587,242.799,257.17,255.803,245.072,0.70474,0.772651,230.348,246.595
2013-10-04 14:00,0.533306,286.421,256.819,243.509,258.865,257.856,246.869,0.55838,0.619822,232.405,248.455
2013-10-04 15:00,0.479863,284.41,254.69,242.369,256.98,256.18,245.211,0.488391,0.54764,232.02,247.481
2013-10-04 16:00,0.389312,281.883,251.53,240.617,252.667,251.354,241.953,0.685504,0.738503,228.048,242.354
2013-10-04 17:00,0.49962,285.818,251.912,240.766,253.269,250.957,240.793,0.553802,0.623716,227.87,242.725
2013-10-04 18:00,0.456489,282.923,253.226,240.913,254.461,252.927,243.241,0.604505,0.685698,230.266,244.294
2013-10-04 19:00,0.748325,296.943,268.487,249.669,271.142,270.311,254.392,0.700672,0.761792,232.02,250.748
2013-10-04 20:00,0.315292,268.382,258.365,243.65,258.678,258.591,246.869,0.404742,0.424408,226.871,241.348
2013-10-04 21:00,0.995901,260.827,225.282,226.674,225.31,224.19,222.511,0.889559,1.1601,220.101,223.377
2013-10-04 22:00,-0.00853635,245.01,238.09,233.005,236.948,234.706,228.614,-0.0,-0.0,223.013,230.694
2013-10-04 23:00,-0.148557,265.446,250.76,240.021,250.623,247.708,237.525,-0.0856396,-0.0861572,225.156,237.327
2013-10-05 00:00,0.00202832,261.251,254.69,241.791,255.049,251.156,238.577,-0.0,-0.0,225.254,239.789
2013-10-05 01:00,-0.0,261.666,261.982,245.995,264.444,263.759,249.971,-0.0,0.00159099,227.691,245.918
2013-10-05 02:00,-0.0,243.066,237.591,232.663,236.948,235.917,230.44,-0.0,-0.0,223.118,231.53
2013-10-05 03:00,-0.0,258.576,258.195,243.93,260.888,259.864,248.094,-0.0,-0.0,228.835,246.258
2013-10-05 04:00,-0.0,257.605,259.039,244.626,262.329,262.008,249.572,-0.0,-0.0,230.101,248.241
2013-10-05 05:00,-0.0,256.062,257.511,243.368,259.974,259.684,249.037,-0.0,-0.0,228.921,246.707
2013-10-05 06:00,-0.00168159,257.103,256.644,243.368,259.051,258.774,248.229,-0.0,-0.0,229.433,246.707
2013-10-05 07:00,-0.0,273.831,269.626,250.051,271.625,268.339,252.205,-0.0,-0.0,230.674,249.093
2013-10-05 08:00,-0.0,257.605,255.764,242.656,256.789,254.472,244.372,-0.0,-0.0,230.511,245.46
2013-10-05 09:00,-0.0191674,253.206,253.963,241.207,256.598,255.425,245.905,-0.0324581,-0.0387014,231.156,245.69
2013-10-05 10:00,0.740981,282.234,252.666,240.617,255.049,253.896,244.09,0.632796,0.741616,231.236,244.294
2013-10-05 11:00,0.601224,293.472,272.662,252.29,274.156,268.67,250.896,0.349678,0.453811,232.02,247.59
2013-10-05 12:00,0.580376,300.317,270.049,251.429,270.495,265.309,249.572,0.424611,0.48353,231.787,246.818
2013-10-05 13:00,0.605392,298.144,265.243,247.859,268.69,268.007,253.625,0.543993,0.609682,231.236,249.617
2013-10-05 14:00,0.503317,295.583,250.76,240.32,252.465,248.121,238.727,0.475583,0.531701,229.517,241.98
2013-10-05 15:00,0.471443,280.239,255.23,241.936,256.789,255.614,244.512,0.572317,0.634188,228.835,246.032
2013-10-05 16:00,0.400943,281.165,249.385,238.963,248.733,246.035,236.613,0.409678,0.46849,224.661,238.85
2013-10-05 17:00,0.455862,283.594,244.38,236.466,244.122,242.143,234.291,0.42117,0.488646,223.013,235.887
2013-10-05 18:00,0.583483,299.579,259.039,244.765,260.706,259.139,247.415,0.50338,0.574732,229.433,246.483
2013-10-05 19:00,0.957193,306.176,255.409,242.656,258.491,257.856,247.142,0.86331,0.98525,229.769,246.145
2013-10-05 20:00,1.35291,310.713,261.982,246.265,264.792,262.712,249.971,1.17701,1.38292,231.156,248.133
2013-10-05 21:00,1.53263,293.93,281.267,257.346,283.797,281.146,259.249,1.13202,1.38268,230.835,251.252
2013-10-05 22:00,-0.00858223,278.279,278.968,255.974,282.231,280.406,259.249,-0.0,-0.0,230.593,251.751
2013-10-05 23:00,-0.148887,277.869,266.293,248.512,265.138,260.764,243.667,-0.0858298,-0.0799523,228.224,244.175
2013-10-06 00:00,0.0020318,283.594,283.264,258.469,285.618,283.484,260.822,-0.0,-0.0,233.234,253.88
2013-10-06 01:00,-0.0,278.482,275.823,253.98,277.377,273.99,255.153,-0.0,-0.0,232.633,251.252
2013-10-06 02:00,0.00136945,281.346,279.945,256.434,282.087,278.458,257.282,-0.0,-0.0,231.943,251.949
2013-10-06 03:00,-0.00128913,283.261,281.267,257.12,282.946,280.998,258.392,-0.0,-0.0,230.266,251.452
2013-10-06 04:00,0.00130397,280.799,276.845,254.572,278.128,275.24,253.881,-0.0,-0.0,228.488,248.775
2013-10-06 05:00,-0.0,283.261,282.799,257.91,285.061,283.484,260.098,-0.0,-0.0,231.865,252.634
2013-10-06 06:00,-0.0,282.923,282.916,258.358,285.34,283.484,260.822,-0.0,-0.0,233.01,252.731
2013-10-06 07:00,-0.0,282.408,282.331,257.91,284.921,283.339,261.062,-0.0,-0.0,233.308,252.634
2013-10-06 08:00,-0.0,281.883,282.096,258.022,284.641,283.194,260.34,-0.0,-0.0,233.308,252.537
2013-10-06 09:00,-0.0202231,281.705,282.096,257.798,284.361,283.049,260.822,-0.0342458,-0.0408329,234.113,252.925
2013-10-06 10:00,0.58393,285.665,283.611,258.691,285.895,284.205,260.822,0.318976,0.456397,233.75,252.828
2013-10-06 11:00,0.613534,293.816,287.432,260.769,289.032,286.06,261.062,0.2621,0.422317,233.308,252.731
2013-10-06 12:00,0.486065,298.726,290.335,262.786,291.292,287.329,261.062,0.197861,0.3284,232.633,252.342
2013-10-06 13:00,0.388917,302.932,293.438,264.747,294.149,289.137,261.779,0.152753,0.258273,232.784,251.751
2013-10-06 14:00,0.328616,304.794,294.546,265.153,294.661,289.137,260.822,0.122688,0.210287,232.784,251.85
2013-10-06 15:00,0.356782,301.478,284.642,259.354,285.061,280.554,258.023,0.224496,0.28248,231.315,250.135
2013-10-06 16:00,0.342141,302.171,276.591,255.043,277.978,273.675,254.646,0.211255,0.269347,230.996,250.34
2013-10-06 17:00,0.560844,296.427,265.545,248.512,269.021,268.67,253.753,0.522466,0.579719,231.865,250.748
2013-10-06 18:00,0.560506,296.943,264.021,247.597,265.482,263.933,250.501,0.462581,0.534074,230.348,247.808
2013-10-06 19:00,0.562938,307.999,280.187,257.006,281.51,276.784,256.16,0.425633,0.497017,232.405,251.252
2013-10-06 20:00,1.24172,304.159,267.473,249.286,269.842,268.835,254.009,1.07136,1.22974,234.968,252.828
2013-10-06 21:00,2.10485,287.871,263.867,247.465,266.847,266.667,252.853,1.48971,1.99421,236.475,253.213
2013-10-06 22:00,-0.00863081,269.283,268.343,249.924,271.142,269.657,254.392,-0.0,-0.0,235.247,253.021
2013-10-06 23:00,-0.158761,264.009,262.141,246.13,265.482,265.48,251.944,-0.0833423,-0.076934,234.401,251.552
2013-10-07 00:00,0.00203545,261.251,261.822,245.723,264.27,263.933,250.633,-0.0,-0.0,234.543,250.442
2013-10-07 01:00,-0.0,276.155,273.466,252.412,276.01,273.359,255.153,-0.0,-0.0,233.968,250.748
2013-10-07 02:00,-0.00137194,284.73,284.071,258.691,286.172,284.061,260.822,-0.0,-0.0,233.456,251.949
2013-10-07 03:00,-0.00129178,283.924,283.148,258.469,285.479,283.484,260.219,-0.0,0.00130413,233.53,251.751
2013-10-07 04:00,0.00130714,278.075,276.463,254.572,278.427,276.631,258.023,-0.0,-0.0,234.401,251.85
2013-10-07 05:00,-0.0,269.283,267.033,249.286,269.35,267.171,252.075,-0.0,-0.0,232.02,249.198
2013-10-07 06:00,-0.00169492,264.009,257.166,243.226,257.361,254.472,243.525,-0.0,-0.0,231.709,244.53
2013-10-07 07:00,-0.0,267.761,260.528,245.451,260.888,256.742,244.512,-0.0,-0.0,231.236,244.881
2013-10-07 08:00,-0.0,269.283,263.556,247.332,264.444,259.502,246.457,-0.0,-0.0,232.02,246.707
2013-10-07 09:00,-0.0213894,256.589,256.294,242.656,258.865,258.408,246.869,-0.0543311,-0.0647817,232.405,247.59
2013-10-07 10:00,0.642191,268.073,248.784,238.81,248.946,246.246,236.46,0.632623,0.735605,226.216,237.888
2013-10-07 11:00,0.772482,294.38,264.329,247.332,267.016,266.498,252.464,0.684535,0.777072,234.041,251.452
2013-10-07 12:00,0.645757,298.339,263.245,246.801,265.997,265.48,251.553,0.608213,0.674475,234.257,251.452
2013-10-07 13:00,0.501119,291.809,257.166,243.226,258.116,256.18,244.231,0.467974,0.526741,231.473,246.371
2013-10-07 14:00,0.415514,287.155,252.479,240.913,253.069,250.357,240.06,0.37913,0.444238,229.601,242.725
2013-10-07 15:00,0.326762,284.73,254.69,241.646,252.868,247.501,234.447,0.280798,0.339733,226.592,238.986
2013-10-07 16:00,0.276174,297.449,280.308,256.434,278.873,272.883,251.291,0.154499,0.219068,230.184,247.04
2013-10-07 17:00,0.399565,293.816,267.909,249.669,268.191,265.65,248.634,0.32926,0.379101,230.101,247.59
2013-10-07 18:00,0.658655,298.144,264.94,247.991,267.522,266.667,251.553,0.634879,0.69193,231.865,249.825
2013-10-07 19:00,0.777631,304.794,273.466,252.777,276.315,274.773,257.034,0.675977,0.753662,235.317,254.349
2013-10-07 20:00,0.972806,303.755,279.458,256.205,281.799,279.511,258.76,0.829374,0.920937,236.207,255.457
2013-10-07 21:00,1.67186,288.012,274.655,253.621,277.528,276.631,257.9,1.22501,1.54719,236.139,255.548
2013-10-07 22:00,-0.0,272.322,273.599,253.261,277.075,276.323,258.27,-0.0,-0.0,235.178,255.275
2013-10-07 23:00,-0.108224,286.421,283.726,258.691,285.757,283.194,260.701,-0.0862428,-0.0739101,235.178,254.999
2013-10-08 00:00,-0.0,270.713,269.485,250.806,272.423,270.473,254.137,-0.0,-0.0,235.525,254.443
2013-10-08 01:00,-0.0,262.869,264.788,247.991,268.024,267.673,253.368,-0.0,-0.0,235.867,254.068
2013-10-08 02:00,-0.00137451,262.074,264.021,247.597,267.185,267.339,253.24,-0.0,-0.0,234.827,253.021
2013-10-08 03:00,0.00129449,280.613,279.336,256.434,282.087,279.511,258.515,-0.0,-0.0,234.897,253.595
2013-10-08 04:00,-0.00131037,263.636,264.788,247.991,267.354,267.004,252.982,-0.0,-0.0,234.897,252.439
2013-10-08 05:00,-0.0,267.444,266.738,249.029,268.855,268.173,253.24,-0.0,-0.0,234.041,251.85
2013-10-08 06:00,-0.0,278.684,276.591,254.099,278.427,276.169,256.035,-0.0,-0.0,233.085,252.146
2013-10-08 07:00,-0.0,283.428,282.916,258.022,285.201,283.339,260.219,-0.0,-0.0,232.557,252.731
2013-10-08 08:00,0.00403107,282.408,282.331,257.459,284.501,283.049,260.098,-0.0,-0.0,231.943,252.244
2013-10-08 09:00,-0.113417,272.836,269.059,250.681,270.006,265.309,249.838,-0.076824,-0.114501,229.935,247.917
2013-10-08 10:00,0.668337,288.977,282.096,257.572,284.079,280.85,258.76,0.375539,0.52138,230.101,250.95
2013-10-08 11:00,0.651594,294.043,273.199,252.777,274.312,269.0,252.205,0.365475,0.491286,229.263,248.025
2013-10-08 12:00,0.470587,297.248,285.658,259.793,286.033,281.441,256.535,0.213341,0.342286,228.4,248.562
2013-10-08 13:00,0.367281,300.589,290.229,262.155,290.764,286.06,259.492,0.156732,0.261038,229.935,250.748
2013-10-08 14:00,0.325652,301.478,284.3,259.134,284.781,279.959,257.777,0.167835,0.243001,232.02,252.146
2013-10-08 15:00,0.341903,303.346,283.38,258.469,284.22,279.661,257.406,0.187498,0.256729,232.405,253.021
2013-10-08 16:00,0.279375,300.769,286.55,260.119,286.997,282.175,258.76,0.162561,0.219921,231.709,252.537
2013-10-08 17:00,0.266839,304.557,294.044,264.543,294.661,289.689,262.373,0.126522,0.191267,233.085,253.88
2013-10-08 18:00,0.199329,296.219,285.658,259.134,285.618,282.028,259.249,0.180732,0.210742,231.63,250.748
2013-10-08 19:00,0.436795,297.749,277.476,254.926,278.576,275.396,255.532,0.413653,0.468139,234.756,252.634
2013-10-08 20:00,0.557411,298.533,286.439,260.553,287.815,284.492,259.614,0.514606,0.57291,236.341,256.271
2013-10-08 21:00,0.425545,291.686,0.0,261.519,290.632,287.888,262.136,0.675577,0.655159,237.398,257.769
2013-10-08 22:00,-0.0,288.152,287.322,260.553,289.032,287.048,262.017,-0.0,-0.0,238.795,258.372
2013-10-08 23:00,-0.0861653,278.482,276.971,254.926,279.318,278.307,258.76,-0.0891684,-0.0644363,237.006,256.271
2013-10-09 00:00,0.00204331,283.924,283.264,258.246,285.757,283.339,260.461,-0.0,-0.0,239.41,259.554
2013-10-09 01:00,-0.0,277.026,278.226,255.393,280.785,279.959,259.856,-0.0,-0.0,239.166,259.97
2013-10-09 02:00,-0.0,283.594,283.38,258.469,285.895,284.205,261.421,-0.0,-0.0,239.532,260.381
2013-10-09 03:00,-0.0,278.684,280.429,256.664,283.23,282.321,261.182,-0.0,-0.0,240.253,261.033
2013-10-09 04:00,0.00131366,284.087,284.185,258.691,286.172,284.636,261.779,-0.0,-0.0,238.919,260.381
2013-10-09 05:00,-0.0,285.202,285.433,259.464,287.543,286.202,262.61,-0.0,-0.0,239.166,260.381
2013-10-09 06:00,0.00170852,277.661,281.029,257.12,284.361,283.773,261.66,-0.0,-0.0,239.349,261.194
2013-10-09 07:00,-0.0,281.526,282.916,258.246,285.757,284.636,261.66,-0.0,-0.0,239.714,260.627
2013-10-09 08:00,-0.0,275.932,279.945,256.434,283.23,282.321,260.942,-0.0,0.00411276,239.894,260.381
2013-10-09 09:00,-0.0241259,280.427,281.742,257.572,284.361,282.758,260.942,-0.0817095,-0.0730697,240.193,260.217
2013-10-09 10:00,0.556256,287.871,285.882,259.683,287.815,286.202,262.136,0.324116,0.428728,239.834,260.135
2013-10-09 12:00,0.485151,299.108,291.902,263.099,292.86,289.551,262.61,0.19836,0.337079,239.653,260.545
2013-10-09 13:00,0.388095,302.171,293.843,264.441,294.533,290.511,263.083,0.15004,0.263174,239.532,260.052
2013-10-09 14:00,0.318434,304.078,295.442,265.456,295.55,291.329,263.318,0.119588,0.215183,239.834,260.299
2013-10-09 15:00,0.279285,305.261,296.327,266.159,296.559,292.276,264.022,0.105898,0.187562,239.532,260.463
2013-10-09 16:00,0.282577,302.341,291.383,263.203,292.079,289.137,262.728,0.163319,0.224502,239.166,260.627
2013-10-09 17:00,0.275745,303.264,294.245,265.254,295.424,291.329,263.787,0.137603,0.212484,238.483,260.299
2013-10-09 18:00,0.28208,292.414,271.711,252.045,270.657,265.48,247.279,0.244144,0.316418,230.674,247.371
2013-10-09 19:00,0.657168,280.239,213.031,222.449,211.028,209.497,210.932,0.813637,0.949276,210.624,212.505
2013-10-09 20:00,0.897689,272.58,219.247,224.908,219.167,218.235,217.445,0.984123,1.17342,216.963,218.165
2013-10-09 21:00,1.75275,269.283,217.685,223.694,217.427,216.331,216.466,1.47511,1.95072,216.012,216.392
2013-10-09 22:00,-0.0175884,253.206,239.074,233.344,237.451,234.216,227.26,-0.0,-0.0,222.368,229.137
2013-10-09 23:00,-0.0735998,287.155,283.38,258.469,286.033,283.484,258.882,-0.0867017,-0.0581505,231.236,250.95
2013-10-10 00:00,0.00204753,282.408,279.702,256.892,280.931,278.004,256.285,-0.0,-0.0,229.263,250.442
2013-10-10 01:00,-0.00159003,272.836,268.054,249.669,268.69,265.48,248.768,-0.0,-0.0,227.147,245.804
2013-10-10 02:00,0.00137991,251.944,243.719,235.823,242.978,241.027,233.503,-0.0,-0.0,224.86,234.845
2013-10-10 03:00,-0.00130013,257.103,248.38,238.81,247.662,245.186,236.153,-0.0,-0.00131256,225.156,237.748
2013-10-10 04:00,-0.0,270.713,264.788,247.597,265.138,262.888,247.551,-0.0,-0.0,229.093,245.804
2013-10-10 05:00,-0.0,259.045,256.819,243.226,257.17,256.928,245.767,-0.0,-0.0,228.662,244.294
2013-10-10 06:00,-0.0,272.322,271.984,252.045,273.215,272.246,255.153,-0.0,-0.0,230.593,252.342
2013-10-10 07:00,-0.0,273.586,273.997,253.381,276.62,275.706,257.777,-0.0,-0.0,231.156,253.69
2013-10-10 08:00,-0.0,268.073,270.746,251.552,274.156,274.147,256.785,-0.0,-0.0,232.557,255.457
2013-10-10 09:00,-0.10297,267.444,269.059,250.177,271.625,271.444,255.784,-0.17437,-0.233898,232.633,255.183
2013-10-10 10:00,0.836527,284.57,272.256,252.29,275.087,274.46,257.53,0.788093,0.915892,233.896,256.894
2013-10-10 11:00,0.724201,299.108,271.848,252.412,274.467,273.832,257.406,0.569546,0.679097,233.75,256.45
2013-10-10 12:00,0.490452,302.932,280.789,257.459,282.231,279.211,258.638,0.286175,0.391291,233.968,256.539
2013-10-10 13:00,0.391288,300.858,288.843,261.944,289.835,286.343,261.54,0.199029,0.294798,234.185,257.595
2013-10-10 14:00,0.336888,302.341,289.486,262.576,290.764,286.907,261.66,0.170278,0.249585,235.455,257.595
2013-10-10 15:00,0.442345,296.323,273.199,252.777,276.315,275.861,257.777,0.352984,0.42088,236.274,256.894
2013-10-10 16:00,0.321349,298.533,282.566,258.134,284.361,280.85,258.638,0.204584,0.281082,236.808,256.805
2013-10-10 17:00,0.215469,300.498,291.694,263.411,292.34,287.748,260.098,0.104733,0.165161,233.456,254.814
2013-10-10 18:00,0.266004,300.134,289.165,262.366,289.701,284.922,257.406,0.13646,0.216417,232.86,253.785
2013-10-10 19:00,0.303264,293.587,283.495,258.802,285.201,282.028,258.638,0.275987,0.351983,233.968,254.068
2013-10-10 20:00,0.88541,298.242,275.436,253.98,275.857,271.444,250.633,0.766649,0.941098,229.601,247.699
2013-10-10 21:00,1.5297,269.283,221.841,225.504,221.511,220.685,220.115,1.22423,1.6501,218.391,219.372
2013-10-10 22:00,0.0088551,245.913,229.072,229.301,227.118,224.19,221.782,-0.0,-0.0,216.695,221.436
2013-10-10 23:00,-0.0609733,255.521,233.666,231.274,230.294,226.151,221.046,-0.0951005,-0.0518367,218.642,224.204
2013-10-11 00:00,-0.0,235.601,220.379,224.908,217.427,215.683,214.872,-0.0,-0.0,213.693,216.392
2013-10-11 01:00,-0.0015932,225.382,218.862,224.908,218.13,216.008,216.466,-0.0,-0.0,214.441,216.392
2013-10-11 02:00,-0.00138274,225.382,219.247,224.708,218.13,215.683,214.872,-0.0,-0.0,214.588,217.164
2013-10-11 03:00,-0.00130305,232.213,225.937,226.866,225.31,223.619,221.046,-0.0,-0.0,218.642,222.743
2013-10-11 04:00,-0.0,235.601,229.373,228.749,228.871,227.787,224.304,-0.0,-0.0,220.686,226.187
2013-10-11 05:00,-0.00144172,235.601,231.14,229.665,230.294,228.59,224.481,-0.0,-0.0,218.891,226.187
2013-10-11 06:00,-0.0,243.066,227.845,229.118,223.758,219.472,216.466,-0.0,-0.0,215.167,220.075
2013-10-11 07:00,-0.0,266.797,264.175,247.597,264.965,262.888,247.823,-0.0,-0.0,227.959,245.114
2013-10-11 08:00,0.00416091,276.594,273.065,252.412,274.0,271.765,253.111,-0.0,-0.0,226.963,244.412
2013-10-11 09:00,-0.38591,257.103,246.313,237.728,244.575,241.921,233.503,-0.210053,-0.3896,222.692,233.146
2013-10-11 10:00,0.435373,270.713,255.587,242.369,255.244,251.75,240.354,0.43744,0.539163,226.122,238.986
2013-10-11 11:00,0.288341,263.255,248.985,238.195,248.093,246.876,238.128,0.422108,0.508741,226.122,236.9
2013-10-11 12:00,0.223182,259.505,247.769,238.04,248.52,247.085,238.278,0.39962,0.469099,227.147,238.986
2013-10-11 13:00,0.340632,293.472,278.721,255.51,277.978,272.724,251.291,0.191042,0.295391,227.147,244.175
2013-10-11 14:00,0.508634,287.587,249.781,238.963,251.856,250.957,242.384,0.473942,0.550912,229.517,242.105
2013-10-11 15:00,0.435454,285.818,248.177,238.503,249.789,249.144,241.664,0.398399,0.475031,228.4,240.835
2013-10-11 16:00,0.329392,295.151,261.179,245.995,259.236,253.703,242.384,0.216689,0.289274,227.055,240.576
2013-10-11 17:00,0.103588,289.91,279.702,255.393,278.278,274.617,253.24,0.130438,0.14212,226.871,243.457
2013-10-11 18:00,0.424969,261.251,222.904,225.897,222.806,221.283,220.115,0.637623,0.739764,218.891,220.989
2013-10-11 19:00,0.230661,286.121,269.908,250.429,269.35,264.795,245.072,0.231919,0.274449,225.931,240.964
2013-10-11 20:00,0.866486,274.073,220.75,225.306,220.184,219.472,219.739,0.984787,1.13047,217.752,219.134
2013-10-11 21:00,1.64236,273.586,238.585,233.344,237.2,234.461,228.446,1.35538,1.763,223.952,231.53
2013-10-11 22:00,-0.0,253.206,248.985,238.503,249.157,247.501,238.876,-0.0,-0.00900472,227.78,238.714
2013-10-11 23:00,-0.0547179,273.586,265.092,247.859,266.167,262.008,244.792,-0.109011,-0.0487421,227.51,242.354
2013-10-12 00:00,-0.00205655,243.066,241.451,235.173,243.895,243.243,236.918,-0.0,-0.0,231.156,238.165
2013-10-12 01:00,0.00159649,238.442,237.841,233.005,239.426,239.208,234.916,-0.0,-0.0,228.662,234.389
2013-10-12 02:00,-0.0,258.576,258.195,244.21,260.158,259.139,247.415,-0.0,-0.0,229.935,245.23
2013-10-12 03:00,-0.0,237.078,235.538,231.973,235.672,235.193,230.111,-0.0,-0.0,226.405,232.508
2013-10-12 04:00,-0.0,237.078,237.339,233.175,237.2,236.635,231.743,-0.0,-0.0,225.931,232.988
2013-10-12 05:00,-0.0,232.213,232.839,230.207,232.772,232.221,227.77,-0.0,-0.0,224.46,230.183
2013-10-12 06:00,-0.0,230.231,229.072,228.378,229.444,228.59,225.535,-0.0,-0.0,222.585,226.76
2013-10-12 07:00,-0.0,244.063,243.273,235.823,244.122,243.243,237.525,-0.0,0.00238374,227.959,237.608
2013-10-12 08:00,-0.0,246.775,244.598,236.466,245.693,244.758,237.222,-0.0,-0.0,227.42,237.888
2013-10-12 09:00,-0.0592662,250.598,247.357,237.415,247.878,246.876,238.727,-0.125452,-0.149582,228.136,239.656
2013-10-12 10:00,0.72108,281.526,259.54,244.488,261.431,260.045,248.364,0.663838,0.779971,229.263,244.881
2013-10-12 11:00,0.690868,293.816,263.245,246.667,265.997,263.412,248.903,0.521473,0.613668,229.852,246.145
2013-10-12 12:00,0.391743,298.242,275.046,253.741,276.62,271.283,252.594,0.232953,0.340303,231.787,247.481
2013-10-12 13:00,0.554469,297.349,259.54,245.04,262.507,261.477,249.438,0.497734,0.571492,232.328,247.481
2013-10-12 14:00,0.531717,294.713,256.469,243.509,259.791,259.502,247.823,0.51822,0.589578,233.01,247.04
2013-10-12 15:00,0.352548,297.349,263.401,247.597,266.678,263.759,249.572,0.251478,0.329103,232.709,247.808
2013-10-12 16:00,0.349648,297.749,268.054,249.669,269.842,265.82,250.369,0.273274,0.341883,233.308,248.348
2013-10-12 17:00,0.405787,298.339,260.365,245.723,261.611,259.684,247.823,0.288561,0.368164,233.234,247.371
2013-10-12 18:00,0.569427,294.491,249.385,239.419,250.415,248.121,238.577,0.494021,0.58747,230.348,241.854
2013-10-12 19:00,0.322781,269.865,252.479,240.617,251.652,249.753,240.793,0.384706,0.437948,229.007,237.608
2013-10-12 20:00,0.827673,272.836,237.086,232.663,237.2,236.396,231.581,1.05259,1.24499,228.312,233.928
2013-10-12 21:00,0.917641,260.827,240.514,234.35,240.87,239.667,233.976,0.951564,1.22828,228.835,236.325
2013-10-12 22:00,-0.0,247.601,243.94,236.146,244.8,243.243,236.46,-0.0,-0.0,228.748,238.85
2013-10-12 23:00,-0.0484313,256.062,250.175,239.721,251.242,249.55,240.793,-0.0929485,-0.042375,231.076,241.602
2013-10-13 00:00,-0.0041227,249.156,247.973,238.349,248.946,248.327,240.938,0.00174534,-0.00208106,233.159,241.98
2013-10-13 01:00,-0.0,254.966,256.469,243.509,259.051,258.774,247.415,-0.0,-0.0,234.543,247.699
2013-10-13 02:00,-0.0,253.81,255.587,242.513,257.928,257.671,247.415,-0.0,-0.0,235.936,248.241
2013-10-13 03:00,-0.0,256.589,256.294,243.226,258.116,256.928,245.905,-0.0,-0.0,232.405,246.258
2013-10-13 04:00,-0.00132739,254.396,252.479,240.766,253.269,251.75,242.241,-0.0,-0.0,232.175,244.294
2013-10-13 05:00,-0.00145088,251.944,248.985,239.267,249.998,248.532,239.765,-0.0,-0.0,229.852,241.602
2013-10-13 06:00,-0.0,256.589,258.025,244.07,260.888,260.405,249.037,-0.0,-0.0,232.935,248.987
2013-10-13 07:00,-0.0,261.251,262.458,246.934,265.138,264.795,251.553,-0.0,-0.0,232.481,250.442
2013-10-13 08:00,-0.0,267.123,263.867,247.597,265.826,264.106,248.768,-0.0,-0.0,231.076,249.093
2013-10-13 09:00,-0.0319975,265.095,263.867,247.332,266.338,265.82,251.814,-0.135461,-0.129214,231.394,250.748
2013-10-13 10:00,0.558807,289.647,277.098,255.393,279.466,276.323,256.535,0.387115,0.512863,233.159,252.342
2013-10-13 11:00,0.534935,294.602,287.541,261.412,288.493,284.922,259.492,0.241111,0.408395,231.236,251.751
2013-10-13 12:00,0.453749,298.918,290.123,262.786,291.16,286.767,259.856,0.187484,0.329822,232.02,252.047
2013-10-13 13:00,0.353171,299.485,288.412,261.838,287.815,282.028,256.285,0.149515,0.260104,230.835,250.032
2013-10-13 14:00,0.288816,294.38,273.997,253.741,269.515,261.654,241.519,0.151895,0.238913,224.56,240.053
2013-10-13 15:00,0.284425,292.414,268.916,250.806,264.792,257.486,240.793,0.167351,0.244559,224.959,239.121
2013-10-13 16:00,0.275865,300.408,286.105,260.661,285.479,279.661,255.153,0.145726,0.214422,230.835,248.775
2013-10-13 17:00,0.389311,297.947,262.458,246.934,263.04,260.045,246.457,0.289267,0.362286,229.093,245.69
2013-10-13 18:00,0.400351,294.268,270.468,251.18,271.464,268.173,251.814,0.328425,0.391597,231.63,249.617
2013-10-13 19:00,0.400215,284.087,259.871,245.04,257.928,253.703,241.084,0.380567,0.455841,228.136,241.475
2013-10-13 20:00,0.484021,292.414,278.101,255.51,277.678,272.405,251.028,0.407013,0.491995,227.691,243.577
2013-10-13 21:00,0.48058,291.809,284.642,259.793,285.34,281.146,256.785,0.432879,0.516143,228.662,247.59
2013-10-13 22:00,-0.0,253.81,249.781,238.963,249.998,248.736,240.06,-0.0,0.00914592,227.959,239.922
2013-10-13 23:00,-0.0421107,247.601,234.745,232.146,233.842,231.459,226.574,-0.106965,-0.0425132,220.337,228.06
2013-10-14 00:00,-0.00413271,242.013,231.427,229.665,230.294,228.324,224.304,-0.00174958,-0.0,220.101,226.76
2013-10-14 01:00,-0.00160342,227.984,223.94,225.897,223.758,223.043,221.23,-0.0,-0.0,218.891,222.529
2013-10-14 02:00,-0.0,225.382,223.252,225.897,223.125,222.753,220.675,-0.0,-0.0,219.014,221.658
2013-10-14 03:00,-0.0,227.984,226.261,226.674,225.919,225.038,222.873,-0.0,-0.0,220.337,223.999
2013-10-14 04:00,-0.0,232.213,228.769,228.004,228.583,228.056,225.36,-0.0,-0.0,222.15,226.187
2013-10-14 05:00,0.00145553,245.01,243.719,235.823,244.349,243.896,237.07,-0.0,-0.0,227.238,237.327
2013-10-14 06:00,0.00174352,256.062,253.04,241.061,253.069,252.144,242.814,-0.0,-0.0,228.224,241.602
2013-10-14 07:00,-0.0,245.01,242.824,235.337,243.209,242.143,236.153,-0.0,-0.0,226.963,236.757
2013-10-14 08:00,-0.0,233.989,232.839,230.027,233.041,232.474,228.614,-0.0,-0.0,224.76,229.664
2013-10-14 09:00,-0.243066,265.791,257.683,243.509,257.928,255.614,243.808,-0.235204,-0.350557,227.329,239.523
2013-10-14 10:00,0.26735,281.346,271.848,251.676,271.464,267.84,249.171,0.273524,0.320513,227.147,242.354
2013-10-14 11:00,0.341274,282.059,271.162,251.18,270.981,268.339,250.236,0.279996,0.384598,229.769,245.23
2013-10-14 12:00,0.455659,300.858,267.033,249.797,266.167,258.774,244.231,0.28323,0.388822,229.093,242.354
2013-10-14 13:00,0.373865,299.95,279.213,256.434,278.873,269.657,249.171,0.182108,0.297288,228.748,244.53
2013-10-14 14:00,0.302172,304.319,294.245,265.153,294.788,288.722,260.581,0.113949,0.214055,230.101,248.241
2013-10-14 15:00,0.268289,302.764,290.965,262.995,291.423,286.343,260.219,0.132425,0.206481,230.835,248.775
2013-10-14 16:00,0.269353,288.841,271.848,252.045,272.899,270.473,252.205,0.293073,0.33468,229.852,246.371
2013-10-14 17:00,0.367604,288.291,268.487,250.555,270.332,269.165,253.497,0.398579,0.443206,230.101,247.808
2013-10-14 18:00,0.519547,294.602,264.635,247.728,266.678,265.309,249.305,0.547899,0.612456,230.674,247.808
2013-10-14 19:00,0.715042,278.684,248.583,238.963,249.579,248.327,239.618,0.856963,0.972157,229.007,239.656
2013-10-14 21:00,0.709683,265.791,246.313,237.572,246.794,244.112,236.46,0.695313,0.859761,229.769,238.303
2013-10-14 22:00,-0.0,245.913,235.011,231.625,233.577,231.203,226.574,-0.0,-0.0,218.517,225.799
2013-10-14 23:00,-0.0390036,254.396,246.102,237.572,245.914,243.679,235.382,-0.0963207,-0.0426578,223.952,236.179
2013-10-15 00:00,-0.00207157,255.521,250.954,240.617,252.465,251.354,240.354,-0.00175399,-0.00209137,226.871,241.093
2013-10-15 01:00,-0.00160707,253.81,248.38,238.503,248.946,246.457,237.827,-0.0,0.00162243,225.546,236.9
2013-10-15 02:00,-0.00139488,251.944,250.175,239.57,251.447,249.348,240.5,-0.0,-0.0,228.748,240.446
2013-10-15 03:00,-0.0,258.096,257.339,243.368,258.491,257.301,245.35,-0.0,-0.0,227.329,242.354
2013-10-15 04:00,-0.00266916,259.505,259.206,244.903,261.971,260.405,248.094,-0.0,-0.0,228.048,244.412
2013-10-15 05:00,0.00146023,255.521,253.595,241.207,254.657,253.316,242.814,-0.0,-0.0,226.778,240.446
2013-10-15 06:00,-0.0,248.394,243.719,235.823,243.667,241.921,234.604,-0.0,-0.0,223.952,233.773
2013-10-15 07:00,-0.0,256.589,255.409,242.513,257.361,256.18,244.652,-0.0,-0.0,226.963,242.848
2013-10-15 08:00,-0.0,265.095,262.616,246.667,264.792,262.537,249.171,-0.0,-0.0,229.007,246.145
2013-10-15 09:00,-0.303184,274.551,269.059,250.177,270.006,265.99,249.705,-0.288794,-0.382603,228.312,243.818
2013-10-15 10:00,0.725802,282.581,263.867,247.597,266.508,265.138,251.159,0.628502,0.710537,229.517,246.818
2013-10-15 11:00,0.541833,296.219,275.565,254.099,277.678,272.883,254.519,0.336282,0.446108,231.709,248.455
2013-10-15 12:00,0.473815,299.013,282.448,257.572,283.372,278.156,256.035,0.250164,0.385585,232.02,248.455
2013-10-15 13:00,0.521172,295.902,255.941,243.368,258.304,257.301,246.869,0.420552,0.505805,232.251,246.145
2013-10-15 14:00,0.357303,300.947,266.59,248.9,266.338,261.299,248.229,0.219923,0.303157,233.234,247.261
2013-10-15 15:00,0.363921,297.449,256.992,243.93,257.361,254.855,245.072,0.249149,0.320111,233.75,244.881
2013-10-15 16:00,0.341975,301.214,281.978,258.022,283.23,278.76,257.777,0.246272,0.307157,233.823,250.032
2013-10-15 17:00,0.365776,301.302,273.599,252.899,274.933,271.283,253.881,0.264979,0.326613,234.615,250.238
2013-10-15 18:00,0.259401,290.939,278.968,256.32,280.639,277.853,257.653,0.26698,0.310493,233.823,250.34
2013-10-15 19:00,0.269976,290.301,276.08,254.454,276.923,274.617,256.035,0.301321,0.303529,234.543,249.928
2013-10-15 20:00,0.25389,282.753,266.886,249.158,264.792,260.764,245.35,0.268012,0.299591,226.027,238.714
2013-10-15 21:00,0.532665,248.394,219.628,224.305,219.508,218.547,217.639,0.587159,0.720391,216.83,219.372
2013-10-15 22:00,-0.0,235.601,229.97,229.301,230.012,228.324,223.77,-0.0,-0.0,223.538,228.423
2013-10-15 23:00,-0.0391417,273.338,271.711,252.168,274.0,272.565,255.28,-0.0939002,-0.0395159,232.709,250.646
2013-10-16 00:00,-0.00207698,262.869,261.34,246.399,262.863,261.654,248.229,-0.00175858,-0.00209684,229.935,245.918
2013-10-16 01:00,-0.0,245.913,243.94,236.625,244.122,242.585,235.382,-0.0,-0.0,227.42,238.441
2013-10-16 02:00,-0.00139812,275.251,267.18,249.158,267.354,262.008,244.792,-0.0,-0.0,230.835,245.345
2013-10-16 03:00,-0.00131861,278.279,272.796,253.621,272.582,265.82,247.006,-0.0,-0.0,232.175,245.46
2013-10-16 04:00,0.00133825,285.665,283.148,258.691,285.34,282.613,259.127,-0.0,-0.0,235.178,250.032
2013-10-16 05:00,0.00146496,272.322,272.12,252.534,274.778,273.359,255.658,-0.0,-0.0,234.401,250.032
2013-10-16 06:00,-0.0,272.836,272.256,252.29,274.623,272.405,255.153,-0.0,-0.0,234.827,250.442
2013-10-16 07:00,-0.0,259.505,261.501,246.399,264.444,264.106,250.765,-0.0,-0.0,235.455,249.617
2013-10-16 08:00,0.00438653,266.466,267.18,249.669,270.657,269.329,253.753,-0.0,-0.0,236.139,250.849
2013-10-16 09:00,-0.0,262.074,264.021,247.728,267.69,267.673,252.594,-0.352531,-0.294238,237.333,251.452
2013-10-16 10:00,0.689677,285.357,269.059,250.931,271.625,270.311,253.753,0.620733,0.679823,236.408,251.452
2013-10-16 11:00,0.763738,292.534,264.329,247.728,267.354,267.171,252.594,0.819393,0.897786,236.475,251.352
2013-10-16 12:00,0.61935,296.943,266.59,249.029,269.35,268.67,253.881,0.614083,0.676018,237.333,251.452
2013-10-16 13:00,0.469586,299.95,270.049,251.429,272.582,270.311,253.881,0.353825,0.433481,236.808,251.552
2013-10-16 14:00,0.308544,304.557,294.446,265.758,294.788,289.276,261.898,0.11135,0.217024,237.721,253.309
2013-10-16 15:00,0.27939,304.319,292.827,264.441,293.119,288.167,261.779,0.13097,0.210638,237.785,254.162
2013-10-16 16:00,0.19444,293.587,284.185,259.793,285.34,282.467,259.856,0.165661,0.204887,239.288,255.366
2013-10-16 17:00,0.30462,285.202,268.916,250.303,269.842,268.835,253.111,0.441034,0.513884,240.782,254.162
2013-10-16 18:00,0.217152,301.39,291.487,263.515,291.817,287.048,260.942,0.148403,0.202003,241.533,256.805
2013-10-16 19:00,0.214379,298.726,292.725,264.645,293.892,289.689,262.61,0.153855,0.210244,242.211,257.508
2013-10-16 20:00,0.325521,292.294,276.463,254.926,275.703,270.635,249.438,0.320163,0.361828,231.787,247.261
2013-10-16 21:00,0.229103,288.291,281.624,257.798,281.221,277.548,256.16,0.227717,0.261462,232.557,248.562
2013-10-16 22:00,-0.0,213.142,206.643,220.298,205.497,204.559,206.515,-0.0,-0.0,206.084,207.326
2013-10-16 23:00,-0.0327383,261.666,258.703,245.177,259.606,258.224,246.182,-0.102562,-0.0330513,234.827,248.025
2013-10-17 00:00,-0.0,262.074,256.469,243.084,256.98,253.51,238.727,-0.00176334,-0.00210251,234.472,247.917
2013-10-17 01:00,-0.0,267.123,266.442,249.542,269.186,267.673,252.594,-0.0,-0.0,237.528,252.731
2013-10-17 02:00,-0.00140145,286.864,284.528,260.119,286.172,283.629,260.219,-0.0,-0.0,239.834,256.271
2013-10-17 03:00,-0.0,284.888,283.956,259.902,285.618,283.194,260.701,-0.0,-0.0,239.104,255.911
2013-10-17 04:00,-0.0,283.924,283.148,259.354,285.34,283.339,260.461,-0.0,-0.0,238.795,256.181
2013-10-17 05:00,-0.0,282.059,280.789,257.798,282.946,280.406,258.515,-0.0,-0.0,237.137,255.275
2013-10-17 06:00,-0.0,283.594,281.86,258.469,283.514,280.85,258.392,-0.0,-0.0,236.207,255.091
2013-10-17 07:00,-0.00243048,270.434,271.023,252.412,273.686,271.926,254.009,-0.0,-0.0,236.139,255.457
2013-10-17 08:00,-0.0,275.707,275.823,254.572,277.828,276.323,256.909,-0.0,-0.0,235.867,255.821
2013-10-17 09:00,-0.322678,272.58,271.162,252.168,272.423,270.635,253.368,-0.390301,-0.511912,235.386,254.068
2013-10-17 10:00,0.740469,287.444,277.852,256.089,279.17,276.477,255.909,0.595152,0.650041,234.968,254.722
2013-10-17 11:00,0.626932,292.174,276.845,255.51,277.377,273.359,252.075,0.484568,0.535754,233.01,251.949
2013-10-17 12:00,0.495578,292.653,272.12,252.656,271.464,267.171,247.415,0.392338,0.440711,230.018,248.241
2013-10-17 13:00,0.373887,296.738,278.845,256.434,277.226,270.473,248.499,0.219537,0.319612,229.935,248.987
2013-10-17 14:00,0.301644,295.368,275.694,254.572,272.741,266.835,245.628,0.172049,0.256109,227.42,245.345
2013-10-17 15:00,0.392683,292.653,275.951,254.926,277.226,275.085,255.153,0.436892,0.478625,232.784,253.213
2013-10-17 16:00,0.219654,298.144,286.661,261.091,286.997,283.339,260.219,0.166458,0.210727,234.041,255.639
2013-10-17 17:00,0.230466,283.261,253.411,241.207,251.856,246.246,235.382,0.371315,0.432101,227.055,239.255
2013-10-17 18:00,0.261764,281.705,269.201,250.806,268.358,265.309,249.037,0.394747,0.456603,233.382,249.721
2013-10-17 19:00,0.324061,291.686,276.336,254.808,276.923,273.2,253.625,0.353763,0.393002,233.823,253.213
2013-10-17 20:00,0.573785,279.081,255.409,243.368,253.867,252.341,241.374,0.621853,0.711675,229.935,242.602
2013-10-17 21:00,1.50033,291.809,270.049,251.056,269.35,263.759,245.211,1.13661,1.51467,232.097,247.699
2013-10-17 22:00,-0.0,279.667,272.12,251.676,271.945,268.173,249.037,-0.0,-0.0,230.916,247.699
2013-10-17 23:00,-0.026291,227.984,211.184,221.6,210.218,208.026,209.42,-0.0723468,-0.0331779,209.926,210.984
2013-10-18 00:00,-0.00208843,225.382,217.685,224.305,215.628,213.356,212.619,-0.00176827,-0.0,212.607,215.867
2013-10-18 01:00,0.00161873,nan,194.386,215.909,193.017,192.445,197.134,-0.0,-0.0,195.592,196.551
2013-10-18 02:00,-0.0,230.231,213.921,223.694,209.394,207.274,208.54,-0.0,-0.0,206.905,210.353
2013-10-18 03:00,-0.00132527,245.913,228.769,229.665,225.003,220.384,216.466,-0.0,-0.0,213.234,220.306
2013-10-18 04:00,-0.0,225.382,208.734,220.736,208.131,204.159,206.286,-0.0,0.0013586,206.498,209.047
2013-10-18 05:00,0.00147454,254.966,237.086,234.183,232.23,225.874,218.601,-0.0,-0.0,216.15,225.408
2013-10-18 06:00,-0.0,257.605,244.815,237.572,242.515,237.581,226.574,-0.0,-0.0,220.219,232.669
2013-10-18 07:00,-0.0,267.761,254.871,242.942,252.059,246.876,233.344,-0.0,-0.0,222.799,234.694
2013-10-18 08:00,0.00447915,260.827,243.719,236.146,241.344,236.872,226.056,-0.0,-0.0,220.219,229.664
2013-10-18 09:00,-0.154516,259.045,251.53,240.766,251.036,247.708,235.072,-0.261656,-0.259988,223.224,238.027
2013-10-18 10:00,0.662993,270.151,251.147,240.766,250.623,247.085,236.307,0.776916,0.867453,224.359,238.165
2013-10-18 11:00,0.481322,256.589,223.94,226.481,222.806,221.283,220.489,0.723045,0.809871,216.695,220.306
2013-10-18 12:00,0.549223,287.01,258.871,245.177,258.491,255.045,240.938,0.578263,0.626483,224.86,241.221
2013-10-18 13:00,0.334415,259.954,225.937,227.817,223.443,221.875,218.601,0.504585,0.552587,215.593,219.843
2013-10-18 14:00,0.332583,266.131,218.862,224.507,215.993,213.694,212.202,0.457596,0.512547,210.278,213.092
2013-10-18 15:00,0.288085,275.48,245.032,237.258,240.87,235.677,225.883,0.288455,0.352386,218.517,228.96
2013-10-18 16:00,0.150278,282.581,266.442,247.728,264.618,259.864,241.808,0.163154,0.210442,227.42,243.336
2013-10-18 17:00,0.310396,260.395,214.79,222.238,212.997,212.329,212.411,0.654803,0.735607,211.47,213.092
2013-10-18 18:00,0.465568,268.686,221.841,225.897,221.511,218.235,216.663,0.781843,0.883822,217.229,220.535
2013-10-18 19:00,0.587976,271.261,213.479,222.659,212.609,211.635,212.202,0.721779,0.840072,212.126,213.092
2013-10-18 20:00,0.948098,277.661,205.549,218.957,203.179,202.529,204.893,1.04358,1.23441,205.233,205.109
2013-10-18 21:00,1.29084,264.377,209.734,220.954,209.394,208.026,209.856,1.15091,1.50063,209.388,209.379
2013-10-18 22:00,-0.0,277.24,269.059,250.555,268.191,264.967,247.279,-0.0,0.00957408,226.216,241.98
2013-10-18 23:00,-0.0263956,267.444,252.853,240.617,251.856,248.532,236.46,-0.0698409,-0.0233169,224.054,235.592
2013-10-19 00:00,-0.00209448,282.408,278.968,255.742,280.931,278.307,255.784,-0.00177339,-0.0021145,229.852,249.825
2013-10-19 01:00,-0.0,283.76,282.331,258.022,284.641,282.175,259.37,-0.0,-0.0,230.916,251.051
2013-10-19 02:00,0.00140834,251.282,247.15,238.04,247.662,246.035,237.222,-0.0,-0.0,224.156,238.714
2013-10-19 03:00,-0.0,257.103,242.37,235.499,240.152,237.109,228.782,-0.0,-0.0,221.031,230.011
2013-10-19 04:00,-0.00134954,264.739,254.328,241.354,253.269,249.955,238.727,-0.0,-0.0,225.352,238.165
2013-10-19 05:00,-0.0,278.075,274.392,253.501,276.468,273.359,254.264,-0.0,-0.0,232.02,250.135
2013-10-19 06:00,-0.0,285.045,284.982,259.134,287.679,286.202,262.492,-0.0,-0.0,234.041,254.814
2013-10-19 07:00,-0.00245839,284.249,285.095,259.134,287.951,287.048,262.61,-0.0,-0.0,235.178,256.539
2013-10-19 08:00,-0.0,283.924,285.433,259.244,288.493,287.609,262.965,-0.0,-0.0,233.896,257.421
2013-10-19 09:00,-0.116378,284.249,285.77,258.913,288.493,287.609,263.318,-0.492687,-0.411218,235.386,258.713
2013-10-19 10:00,0.440588,289.647,286.55,259.574,289.434,288.445,263.553,0.359722,0.428914,237.657,261.435
2013-10-19 11:00,0.584447,297.947,283.611,258.022,286.447,285.777,262.492,0.431632,0.522453,239.043,262.857
2013-10-19 12:00,0.511926,300.498,284.071,258.246,286.722,285.493,262.255,0.385286,0.457601,239.349,262.545
2013-10-19 13:00,0.377853,300.498,290.86,262.366,292.34,289.551,263.436,0.211273,0.316688,238.981,261.755
2013-10-19 14:00,0.360917,296.008,285.321,259.244,287.134,285.493,262.728,0.311976,0.397376,238.294,262.151
2013-10-19 15:00,0.305565,291.19,281.978,257.233,283.372,282.613,260.461,0.313295,0.372352,238.981,261.834
2013-10-19 16:00,0.263851,293.816,285.095,259.134,286.722,284.779,261.66,0.240823,0.300586,239.894,262.151
2013-10-19 17:00,0.285043,296.531,287.322,260.337,289.032,287.048,262.61,0.217989,0.297051,241.647,263.399
2013-10-19 18:00,0.24559,292.889,283.148,257.685,283.372,280.998,258.27,0.253713,0.296277,241.533,260.789
2013-10-19 19:00,0.284326,291.065,281.267,257.459,282.66,281.293,260.34,0.302642,0.340352,240.899,260.135
2013-10-19 20:00,0.260775,295.476,290.44,262.261,291.686,288.722,263.083,0.237358,0.283013,241.189,261.435
2013-10-19 21:00,0.164671,290.813,288.412,260.984,289.835,287.609,262.373,0.295257,0.254258,239.288,259.804
2013-10-19 22:00,-0.0,287.01,283.956,258.691,284.781,281.588,258.392,-0.0,-0.0,239.288,258.543
2013-10-19 23:00,-0.0198784,279.278,278.968,255.858,281.221,279.511,258.76,-0.0448826,-0.0267578,240.782,259.471
2013-10-20 00:00,-0.0,258.096,255.587,241.936,256.789,255.992,244.652,-0.0,-0.00212081,236.675,247.808
2013-10-20 01:00,0.0016271,254.966,253.963,240.913,253.469,252.732,243.383,-0.0,-0.0,234.827,245.114
2013-10-20 02:00,-0.00141191,262.074,259.871,245.04,259.236,257.301,244.792,-0.0,-0.0,235.247,249.825
2013-10-20 03:00,-0.0,258.576,249.583,238.963,248.307,245.612,235.382,-0.0,-0.0,226.871,239.922
2013-10-20 04:00,-0.0,272.836,273.865,253.261,276.468,275.706,257.777,-0.0,-0.0,240.43,259.387
2013-10-20 05:00,-0.0,282.059,282.916,258.469,284.921,283.339,261.421,-0.0,-0.0,242.042,260.627
2013-10-20 06:00,0.00178672,285.665,285.77,260.228,287.679,285.919,262.017,-0.0,-0.0,241.073,260.871
2013-10-20 07:00,-0.0,285.665,285.882,260.228,287.815,286.202,262.728,-0.0,-0.0,244.058,262.23
2013-10-20 08:00,-0.0,286.121,286.55,260.337,288.628,287.188,263.2,-0.0,-0.0,244.635,262.466
2013-10-20 09:00,-0.333238,285.202,285.208,259.683,287.134,285.635,262.728,-0.677166,-0.672848,244.058,261.834
2013-10-20 10:00,0.425501,288.705,287.541,260.876,289.701,288.027,263.2,0.25922,0.429569,244.217,261.834
2013-10-20 11:00,0.456052,293.24,289.486,262.049,291.16,289.137,263.436,0.203916,0.395747,244.322,262.151
2013-10-20 12:00,0.398717,296.943,292.108,263.618,293.635,291.057,264.022,0.159044,0.3256,243.31,262.466
2013-10-20 13:00,0.328651,298.63,291.694,263.411,292.47,289.137,261.898,0.131304,0.267158,242.655,261.355
2013-10-20 14:00,0.367833,299.391,287.978,261.198,289.701,287.469,261.779,0.252981,0.338396,243.039,262.151
2013-10-20 15:00,0.289635,297.947,286.105,260.011,286.447,283.339,257.777,0.176608,0.259914,240.665,259.721
2013-10-20 16:00,0.253844,299.391,291.694,263.203,292.6,289.689,262.728,0.142263,0.225762,243.579,262.309
2013-10-20 18:00,0.248336,296.008,288.843,261.838,289.968,287.188,262.017,0.168474,0.23981,244.945,262.388
2013-10-20 19:00,0.233135,297.749,292.52,264.133,293.635,290.375,262.965,0.133885,0.212851,245.608,263.09
2013-10-20 20:00,0.272993,296.323,292.725,264.133,294.533,291.871,264.605,0.181612,0.262479,247.283,264.01
2013-10-20 22:00,-0.0096877,286.421,283.38,258.58,283.797,281.293,258.147,-0.0,-0.0,241.131,258.114
2013-10-20 23:00,-0.0232905,274.551,263.245,246.399,261.431,259.321,243.949,-0.0422573,-0.0235132,231.156,244.412
2013-10-21 00:00,-0.0021072,288.841,289.379,261.944,291.817,290.238,264.837,-0.00178416,-0.00212735,242.544,262.701
2013-10-21 01:00,-0.0,288.43,289.486,262.261,291.686,290.784,264.605,-0.0,-0.0,240.665,262.701
2013-10-21 02:00,-0.0,287.729,288.951,261.731,291.423,290.238,264.721,-0.0,-0.0,240.489,262.623
2013-10-21 03:00,0.0013357,287.155,287.651,261.198,290.101,288.722,263.67,-0.0,-0.0,244.269,262.623
2013-10-21 04:00,-0.00135728,286.864,287.651,261.305,289.968,288.584,263.083,-0.0,-0.0,244.945,262.701
2013-10-21 05:00,-0.0,286.569,287.102,261.091,289.166,287.748,263.083,-0.0,-0.0,245.253,262.701
2013-10-21 06:00,-0.00179397,286.569,286.882,260.661,289.032,287.329,263.318,-0.0,0.00181112,244.531,262.857
2013-10-21 07:00,-0.0,285.665,284.642,259.574,286.447,284.636,260.581,-0.0,-0.0,242.929,261.194
2013-10-21 08:00,0.0046195,284.41,286.439,260.445,289.032,287.888,263.787,-0.0,-0.0,245.253,263.012
2013-10-21 09:00,-0.31071,281.165,283.956,258.913,287.27,286.485,263.083,-0.986541,-0.94104,244.111,262.857
2013-10-21 10:00,0.955237,274.551,242.37,237.258,235.155,227.787,218.025,0.9349,1.06288,218.009,228.06
2013-10-21 11:00,0.703811,278.075,232.28,232.319,224.694,217.29,211.992,0.775122,0.844409,213.078,221.436
2013-10-21 12:00,0.609563,284.249,247.973,239.57,244.122,237.345,225.36,0.650755,0.713496,223.849,235.146
2013-10-21 13:00,0.494066,279.667,233.938,233.344,225.919,218.235,211.992,0.551756,0.61632,214.588,222.529
2013-10-21 14:00,0.372242,279.473,237.591,234.845,230.294,222.169,214.062,0.356564,0.435271,216.56,225.011
2013-10-21 15:00,0.313043,283.76,252.853,242.369,247.878,240.35,226.574,0.274123,0.344876,222.476,233.928
2013-10-21 16:00,0.286127,288.43,264.021,248.512,260.524,253.703,236.0,0.233063,0.301051,229.685,243.336
2013-10-21 17:00,0.241098,295.042,282.096,258.358,281.076,276.015,252.464,0.145337,0.22356,238.919,254.349
2013-10-21 18:00,0.254157,297.947,287.541,261.519,287.951,283.773,258.392,0.151288,0.228595,241.59,257.855
2013-10-21 19:00,0.259021,297.848,289.805,262.471,290.367,286.343,260.34,0.164484,0.239025,243.093,259.051
2013-10-21 20:00,0.3402,295.69,289.058,262.155,290.234,287.329,262.136,0.29902,0.356536,244.531,260.708
2013-10-21 21:00,0.30396,292.174,290.017,262.786,291.423,288.861,263.083,0.434299,0.412351,245.96,261.595
2013-10-21 22:00,-0.00979834,288.705,287.432,261.625,289.032,286.485,261.54,-0.0,-0.0,241.704,259.887
2013-10-21 23:00,-0.0200516,288.568,287.432,261.091,289.434,287.469,262.017,-0.0254665,-0.0269911,238.168,257.595
2013-10-22 00:00,-0.00211388,288.291,287.322,261.305,289.434,287.329,262.61,-0.00178982,-0.00213409,239.653,258.372
2013-10-22 01:00,-0.0,281.883,281.386,257.572,283.088,281.293,259.856,-0.0,-0.0,242.875,258.543
2013-10-22 02:00,-0.0,281.883,278.35,255.51,279.022,276.631,257.282,-0.0,-0.0,235.936,251.552
2013-10-22 03:00,-0.0,279.278,277.476,255.277,279.76,277.396,256.909,-0.0,-0.0,240.957,255.183
2013-10-22 04:00,-0.0,286.121,285.208,260.661,287.543,285.208,261.062,-0.0,-0.0,242.211,256.271
2013-10-22 05:00,-0.0,286.271,285.546,260.445,,,,-0.0,-0.0,243.147,257.333
2013-10-22 07:00,-0.0,282.234,277.098,255.393,277.377,273.359,251.944,-0.0,-0.0,239.714,251.949
2013-10-22 10:00,0.411878,284.087,273.333,252.29,272.423,268.007,247.279,0.322904,0.45175,232.097,247.917
2013-10-22 11:00,0.40616,285.665,268.199,249.158,265.654,260.584,241.808,0.275116,0.422856,226.685,243.214
2013-10-22 12:00,0.325942,268.986,239.799,233.513,236.186,232.474,225.709,0.334153,0.432222,219.137,226.379
2013-10-22 13:00,0.308875,285.357,262.141,245.451,259.606,253.316,237.373,0.213538,0.326132,225.449,239.922
2013-10-22 14:00,0.227749,278.482,254.69,240.766,252.059,246.876,233.344,0.226739,0.313306,224.86,237.608
2013-10-22 15:00,0.272214,249.156,219.247,223.899,219.167,218.235,218.792,0.612944,0.699641,216.963,218.165
2013-10-22 16:00,0.306283,259.505,208.223,220.077,206.392,205.349,207.197,0.604421,0.678073,208.652,209.047
2013-10-22 17:00,0.316715,253.81,226.261,227.248,225.919,225.318,224.126,0.663757,0.745185,221.819,224.61
2013-10-22 18:00,0.387638,259.045,229.373,228.749,228.583,227.787,225.185,0.550928,0.649133,221.596,226.187
2013-10-22 19:00,0.500939,272.836,236.576,232.491,235.414,232.221,225.883,0.574648,0.705572,220.686,229.137
2013-10-22 20:00,0.675056,287.155,251.721,240.617,247.229,242.143,229.615,0.596182,0.7239,219.26,230.863
2013-10-22 21:00,1.2977,286.864,250.954,240.469,245.471,239.667,227.601,0.947484,1.26264,216.963,228.06
2013-10-22 22:00,-0.00991504,269.865,248.985,239.267,242.747,235.677,223.949,-0.0,0.0100098,215.452,226.76
2013-10-22 23:00,-0.0167861,259.045,243.496,236.306,240.152,233.969,224.481,-0.0198979,-0.0203359,217.36,229.137
2013-10-23 00:00,-0.0,218.393,213.031,221.6,212.219,210.931,211.781,-0.00179566,-0.00214106,210.278,211.295
2013-10-23 01:00,-0.0,222.276,212.119,220.954,210.625,209.133,209.856,-0.0,-0.00165624,209.569,210.353
2013-10-23 02:00,-0.00142307,227.984,222.552,224.908,221.838,220.384,218.982,-0.0,-0.0,216.963,220.075
2013-10-23 03:00,0.00134292,227.984,224.279,226.287,223.125,221.875,221.23,-0.0,-0.0,218.642,222.096
2013-10-23 04:00,-0.0,232.213,231.427,229.847,230.853,229.909,226.574,-0.0,-0.0,221.708,226.76
2013-10-23 05:00,-0.0,268.382,257.511,243.93,255.439,251.156,238.727,-0.0,0.0015133,222.04,234.996
2013-10-23 06:00,-0.0,232.213,226.902,227.248,225.615,224.474,221.965,-0.0,-0.0,219.382,223.167
2013-10-23 07:00,-0.0,245.913,240.75,234.183,240.152,238.282,232.066,-0.0,-0.0,223.642,233.773
2013-10-23 08:00,-0.0,276.155,266.738,248.642,264.792,260.764,243.383,-0.0,-0.0,223.013,238.165
2013-10-23 09:00,-0.912251,275.48,265.846,247.859,265.654,260.942,242.671,-0.965502,-1.38146,223.329,239.121
2013-10-23 10:00,0.614472,285.665,269.485,250.931,270.006,266.16,248.634,0.45204,0.630515,225.739,244.056
2013-10-23 11:00,0.465052,291.065,280.549,256.778,280.931,275.861,252.723,0.23326,0.426121,227.51,245.69
2013-10-23 12:00,0.356684,290.685,277.098,254.69,275.703,271.121,249.971,0.191914,0.322843,226.405,243.093
2013-10-23 13:00,0.337973,299.203,286.328,260.337,286.447,280.108,256.035,0.146074,0.279816,228.488,247.917
2013-10-23 14:00,0.323615,298.144,269.201,250.555,269.021,261.121,244.372,0.170327,0.28382,228.4,243.093
2013-10-23 15:00,0.248124,300.679,290.229,262.681,290.764,284.922,258.638,0.0884574,0.19776,228.4,248.025
2013-10-23 16:00,0.219207,300.589,289.379,262.049,289.835,284.779,259.735,0.0856628,0.175097,230.266,249.513
2013-10-23 17:00,0.231374,300.947,291.902,263.515,292.86,288.306,261.421,0.095185,0.183437,230.916,250.032
2013-10-23 18:00,0.265755,298.822,289.165,262.261,290.5,286.06,260.701,0.152178,0.23883,231.63,250.34
2013-10-23 19:00,0.270172,296.219,287.76,261.305,289.434,285.635,260.461,0.203147,0.272755,232.709,250.849
2013-10-23 20:00,0.370267,294.268,286.992,260.661,288.763,285.065,260.822,0.308052,0.39981,233.823,252.047
2013-10-23 21:00,1.85227,290.429,268.343,249.924,269.186,266.667,249.838,1.53679,2.00153,232.633,248.562
2013-10-23 22:00,-0.0100381,275.251,265.995,247.859,265.997,262.537,245.905,-0.0,-0.0,229.007,244.056
2013-10-23 23:00,-0.0168654,278.075,272.662,252.045,273.843,270.635,252.075,-0.0199919,-0.0170267,230.184,247.917
2013-10-24 00:00,-0.0021279,266.797,260.854,246.265,261.611,259.502,247.279,-0.0,-0.00214824,227.601,242.354
2013-10-24 01:00,0.00164527,284.57,283.38,259.024,286.172,283.773,260.701,-0.0,-0.0,232.251,251.85
2013-10-24 02:00,-0.0,286.421,285.095,259.902,288.087,285.635,261.898,-0.0,-0.0,232.405,251.152
2013-10-24 03:00,-0.00134661,286.271,285.208,259.902,287.815,285.635,261.301,-0.0,-0.0,233.896,251.352
2013-10-24 04:00,-0.00136916,285.512,284.642,260.011,287.27,284.779,260.581,-0.0,-0.0,232.633,251.352
2013-10-24 05:00,-0.0,285.357,284.185,259.574,286.722,284.492,260.701,-0.0,-0.0,233.159,251.252
2013-10-24 06:00,-0.0,285.045,284.185,259.683,286.722,284.349,260.822,-0.0,-0.0,233.382,251.051
2013-10-24 07:00,-0.00252777,285.045,284.185,259.134,286.447,284.061,260.701,-0.0,-0.0,233.603,251.352
2013-10-24 08:00,-0.00476023,285.045,284.071,259.244,286.31,283.917,260.581,-0.0,-0.0,233.53,251.152
2013-10-24 09:00,-0.147096,274.314,274.785,253.98,277.978,276.169,257.282,-1.49455,-1.03952,234.968,252.244
2013-10-24 10:00,0.389282,288.152,285.433,259.902,287.407,284.922,260.942,0.240865,0.398042,235.038,252.342
2013-10-24 11:00,0.745007,300.042,273.065,253.14,276.62,275.24,257.777,0.61801,0.70385,236.207,253.117
2013-10-24 12:00,0.390807,297.349,289.379,262.366,290.234,285.635,260.461,0.160255,0.323773,234.543,251.949
2013-10-24 13:00,0.327467,298.726,283.956,259.354,283.514,277.091,253.625,0.143413,0.277872,233.75,249.617
2013-10-24 14:00,0.273241,297.549,282.448,258.469,280.054,273.042,250.896,0.118317,0.230507,230.996,245.46
2013-10-24 15:00,0.286951,299.672,280.308,257.346,279.76,272.883,251.683,0.145576,0.243008,234.827,248.987
2013-10-24 16:00,0.365736,285.97,252.29,242.513,250.83,244.973,231.743,0.360601,0.429961,226.499,238.441
2013-10-24 17:00,0.306836,275.251,242.824,236.943,237.702,233.969,226.056,0.332762,0.399405,219.744,228.423
2013-10-24 18:00,0.156477,284.73,265.394,248.771,262.863,256.367,240.793,0.159765,0.209081,226.499,240.185
2013-10-24 19:00,0.482993,282.059,244.815,238.195,240.152,235.677,227.77,0.46518,0.552625,220.686,231.53
2013-10-24 20:00,0.853683,288.152,236.06,233.681,231.683,225.597,219.551,0.75542,0.920165,216.83,224.408
2013-10-24 21:00,1.8423,291.44,244.38,237.415,238.938,231.968,221.965,1.34149,1.81341,218.767,227.136
2013-10-24 22:00,-0.0,259.505,237.841,234.845,231.683,222.462,214.872,-0.0,-0.0,213.693,223.167
2013-10-24 23:00,-0.0135582,230.231,213.031,222.449,211.428,209.497,211.358,-0.0172195,-0.0136878,209.569,210.984
2013-10-25 00:00,-0.00213523,233.989,222.552,226.287,219.847,217.922,215.674,-0.0018079,-0.00215564,214.734,218.895
2013-10-25 01:00,-0.0,249.156,233.392,231.098,230.012,226.426,222.692,-0.0,-0.0,217.881,224.204
2013-10-25 02:00,-0.0,259.505,240.984,235.173,236.948,232.976,225.36,-0.0,-0.0,218.264,226.379
2013-10-25 03:00,-0.0,265.095,251.339,240.913,248.52,244.973,234.291,-0.0,-0.0,221.484,232.829
2013-10-25 04:00,-0.0,251.282,236.832,232.834,234.371,232.221,227.089,-0.0,-0.0,219.744,226.948
2013-10-25 05:00,-0.0,263.636,252.479,240.913,251.447,248.532,236.307,-0.0,-0.0,226.122,237.327
2013-10-25 06:00,-0.0,257.103,244.598,236.625,242.049,239.208,231.581,-0.0,-0.0,221.258,230.524
2013-10-25 07:00,-0.0,270.151,263.556,246.801,262.863,261.299,245.628,-0.0,-0.0,228.921,243.336
2013-10-25 08:00,-0.0,284.087,283.611,258.691,286.033,283.917,259.977,-0.0,-0.0,229.685,250.748
2013-10-25 09:00,-0.819248,284.087,283.148,258.691,285.618,283.629,259.614,-1.56073,-1.65416,230.593,250.748
2013-10-25 10:00,0.366098,286.421,281.386,257.346,283.088,280.554,257.9,0.280652,0.379586,230.184,250.032
2013-10-25 11:00,0.360987,283.261,272.12,251.552,271.464,268.505,250.104,0.256829,0.402401,229.348,245.804
2013-10-25 12:00,0.281452,270.989,257.511,243.509,256.598,254.855,242.956,0.28863,0.386504,228.488,239.255
2013-10-25 13:00,0.335342,302.171,293.843,264.849,294.788,290.511,262.492,0.128844,0.278804,231.865,251.949
2013-10-25 14:00,0.294045,302.932,292.827,264.133,294.149,289.689,262.61,0.132923,0.245283,232.097,251.85
2013-10-25 15:00,0.290168,292.053,276.718,254.808,278.576,275.551,254.264,0.261729,0.332399,231.865,249.617
2013-10-25 16:00,0.295634,290.813,275.176,254.336,276.62,274.773,255.658,0.29712,0.363976,232.557,250.032
2013-10-25 17:00,0.247798,301.125,290.335,262.366,291.555,286.343,259.492,0.122574,0.223834,232.784,250.544
2013-10-25 18:00,0.234399,300.769,291.383,263.618,292.6,288.027,261.182,0.12323,0.211893,235.108,252.047
2013-10-25 19:00,0.578507,304.239,280.308,256.664,282.231,278.609,257.158,0.454105,0.57187,234.756,251.751
2013-10-25 20:00,0.0575786,292.053,289.272,262.366,291.555,288.306,261.898,0.0839612,0.0775053,234.472,252.146
2013-10-25 21:00,1.60417,288.977,253.226,241.354,251.652,245.612,230.931,1.26564,1.68392,224.258,234.542
2013-10-25 22:00,-0.0,251.944,245.676,238.195,244.8,243.896,235.846,-0.0,-0.0,224.86,234.845
2013-10-25 23:00,-0.0136263,277.24,271.984,252.045,273.843,270.96,252.464,-0.0115374,-0.0171958,231.236,247.808
2013-10-26 00:00,-0.00214278,273.831,267.18,249.286,267.857,264.279,245.905,-0.0,-0.00216327,228.662,246.145
2013-10-26 01:00,-0.0,272.58,265.696,248.771,266.678,263.237,246.732,-0.0,-0.0,225.643,243.457
2013-10-26 02:00,-0.0,279.278,271.437,251.552,271.303,266.667,247.279,-0.0,-0.0,226.122,242.971
2013-10-26 03:00,-0.0,273.338,270.049,251.429,271.625,267.339,250.236,-0.0,-0.0,227.147,246.145
2013-10-26 04:00,-0.00137723,264.377,264.329,248.382,266.678,264.795,250.236,-0.0,0.0013904,229.093,247.261
2013-10-26 05:00,-0.0,259.505,258.871,245.177,259.236,256.742,245.072,-0.0,-0.0,227.238,244.175
2013-10-26 06:00,-0.0,262.475,263.867,248.252,266.338,265.138,250.369,-0.0,-0.0,228.662,247.59
2013-10-26 07:00,-0.0,260.395,255.587,243.084,255.439,252.927,241.374,-0.0,-0.0,225.739,241.221
2013-10-26 08:00,-0.0,255.521,243.94,236.625,242.283,239.208,232.387,-0.0,-0.0,222.368,231.695
2013-10-26 09:00,-1.32303,275.251,265.092,247.728,265.654,261.121,243.808,-1.96036,-2.33744,226.216,241.602
2013-10-26 10:00,0.299265,276.811,258.871,244.626,255.049,250.557,236.46,0.328157,0.401183,221.708,234.694
2013-10-26 11:00,0.372095,287.01,275.176,253.381,274.312,269.984,249.438,0.230474,0.390778,226.027,243.214
2013-10-26 12:00,0.366242,297.146,290.229,262.681,291.817,288.027,262.017,0.152095,0.323965,228.748,249.617
2013-10-26 13:00,0.272886,296.323,286.328,260.119,286.997,282.758,257.158,0.126245,0.248513,228.835,247.04
2013-10-26 14:00,0.272505,302.341,294.945,265.456,296.433,291.464,261.898,0.0990345,0.22863,231.236,250.95
2013-10-26 15:00,0.241338,302.932,295.639,265.859,297.683,292.814,262.492,0.0851418,0.200649,232.097,251.152
2013-10-26 16:00,0.225693,303.015,295.738,266.259,297.683,292.679,262.965,0.0792837,0.186644,232.709,251.352
2013-10-26 17:00,0.225375,302.848,294.945,265.758,296.935,292.141,263.436,0.0882427,0.190704,232.784,251.252
2013-10-26 18:00,0.220315,301.826,295.144,265.456,297.06,292.41,263.436,0.0984516,0.200796,234.472,251.949
2013-10-26 19:00,0.236579,300.225,294.145,265.052,296.433,291.871,263.083,0.129014,0.234793,235.247,252.047
2013-10-26 20:00,0.15303,295.583,291.591,263.825,294.021,290.511,263.67,0.188957,0.215647,236.139,252.925
2013-10-26 21:00,0.153295,290.171,287.212,261.305,289.032,285.919,261.062,0.221415,0.218485,234.615,252.342
2013-10-26 22:00,-0.0104496,288.43,286.55,260.661,289.032,285.635,261.062,-0.0,-0.0,234.329,252.634
2013-10-26 23:00,-0.0171212,280.05,271.162,251.676,270.006,266.16,248.499,-0.0115972,-0.0138279,226.963,242.105
2013-10-27 00:00,-0.00215055,271.261,268.63,250.931,270.819,268.67,252.853,-0.0,-0.00217111,231.865,249.093
2013-10-27 01:00,0.00166013,278.279,274.524,253.98,276.163,272.724,253.625,-0.0,-0.001676,231.236,248.562
2013-10-27 02:00,-0.0,276.811,272.527,252.899,273.686,270.473,252.075,-0.0,-0.0,230.916,248.241
2013-10-27 03:00,0.00135794,282.581,277.098,255.043,278.427,274.773,253.625,-0.0,-0.0,229.007,247.151
2013-10-27 04:00,-0.0,280.982,276.08,255.16,277.075,273.99,254.009,-0.0,-0.0,229.007,247.59
2013-10-27 05:00,-0.0,270.434,270.468,252.534,272.899,271.444,253.881,-0.0,-0.0,230.018,250.238
2013-10-27 06:00,-0.0,285.665,283.495,259.024,286.033,283.339,259.492,-0.0,-0.0,231.552,250.95
2013-10-27 07:00,-0.0,281.165,280.066,257.233,282.66,279.959,258.515,-0.0,-0.0,231.315,251.252
2013-10-27 08:00,0.00489967,272.061,272.256,252.29,274.623,273.359,256.285,-0.0,-0.0,231.552,250.442
2013-10-27 09:00,-10.6397,264.377,263.712,247.991,267.016,266.329,252.075,-12.4735,-14.8728,231.552,250.032
2013-10-27 10:00,0.778697,280.982,263.088,247.2,265.826,265.65,251.553,0.956017,1.03181,230.835,249.513
2013-10-27 11:00,0.788751,290.558,260.692,245.859,262.329,261.477,248.634,1.09971,1.17057,230.755,247.59
2013-10-27 12:00,0.582927,286.569,262.616,246.399,263.393,263.237,250.896,0.903147,1.00308,230.43,246.595
2013-10-27 13:00,0.405866,276.811,250.175,240.021,251.447,249.55,239.47,0.617136,0.670622,229.348,241.854
2013-10-27 14:00,0.292048,248.394,223.252,226.092,222.485,221.579,220.115,0.564001,0.619791,216.83,219.372
2013-10-27 15:00,0.401797,265.446,237.086,233.513,237.702,236.635,232.066,0.581344,0.637091,225.058,232.669
2013-10-27 16:00,0.377769,262.869,231.713,230.027,230.853,229.647,225.36,0.488415,0.556936,221.819,227.877
2013-10-27 17:00,0.452859,270.434,238.585,234.183,237.702,236.872,231.419,0.529978,0.613526,225.449,233.461
2013-10-27 18:00,0.533242,272.836,233.938,232.146,232.502,230.688,227.94,0.631317,0.724984,221.371,229.137
2013-10-27 19:00,0.624338,272.061,214.79,223.694,212.609,210.931,211.358,0.721778,0.842429,210.796,212.505
2013-10-27 20:00,0.765732,279.859,243.719,236.784,240.87,237.581,230.111,0.710219,0.840413,222.04,232.022
2013-10-27 21:00,1.7572,290.813,254.328,243.084,250.207,243.679,231.743,1.27635,1.70195,221.371,234.082
2013-10-27 22:00,-0.0106022,255.521,240.984,235.337,238.693,234.95,227.77,-0.0,-0.0,221.145,229.664
2013-10-27 23:00,-0.0172125,278.883,268.63,250.051,267.857,262.361,242.956,-0.011659,-0.0104262,226.592,243.457
2013-10-28 00:00,-0.0,280.239,272.796,252.899,272.582,267.84,248.903,-0.0,-0.00217917,226.499,244.412
2013-10-28 01:00,-0.0016653,261.666,246.523,238.04,244.8,239.895,228.949,-0.0,-0.0,222.585,233.461
2013-10-28 02:00,-0.0,271.261,260.201,245.723,259.051,254.664,239.765,-0.0,-0.0,223.224,236.9
2013-10-28 03:00,-0.0,269.283,258.703,244.21,256.598,253.703,240.938,-0.0,-0.0,225.058,237.043
2013-10-28 04:00,0.00138539,267.123,256.294,243.509,254.263,251.552,239.322,-0.0,-0.0,225.449,237.043
2013-10-28 05:00,-0.0,278.482,272.796,251.922,273.215,269.984,251.159,-0.0,-0.0,228.575,245.575
2013-10-28 06:00,-0.0,281.705,278.845,256.664,281.51,278.307,256.909,-0.0,-0.0,229.935,248.775
2013-10-28 07:00,-0.0,262.475,258.365,245.177,258.304,253.51,241.374,-0.0,-0.0,226.216,242.478
2013-10-28 08:00,-0.00494554,257.103,255.23,243.084,255.244,252.536,242.814,-0.0,-0.0,226.778,242.105
2013-10-28 09:00,46.0587,272.58,265.696,248.642,265.482,262.537,247.959,40.6227,58.1237,229.007,244.294
2013-10-28 10:00,0.714817,287.01,269.767,250.931,271.945,269.984,253.881,0.576608,0.692394,228.921,248.455
2013-10-28 11:00,0.443836,290.429,276.208,254.572,277.075,271.926,251.159,0.272924,0.428053,226.311,245.804
2013-10-28 12:00,0.392417,295.69,277.476,255.16,276.163,268.505,248.499,0.205824,0.361109,227.238,244.764
2013-10-28 13:00,0.305691,293.007,277.727,254.926,276.315,271.121,249.438,0.149598,0.287378,226.778,244.412
2013-10-28 14:00,0.238326,288.012,266.442,248.771,262.15,256.367,240.207,0.156597,0.254389,221.93,236.614
2013-10-28 15:00,0.308121,261.666,216.88,224.708,215.628,213.356,213.241,0.423814,0.507718,214.588,216.131
2013-10-28 16:00,0.352235,264.739,213.479,223.283,211.825,210.576,211.146,0.503147,0.589041,210.796,212.207
2013-10-28 17:00,0.293781,283.261,250.371,240.32,245.471,238.747,227.26,0.237738,0.332023,221.484,230.354
2013-10-28 18:00,0.251769,295.583,281.505,257.459,280.931,275.551,252.075,0.155034,0.248014,230.184,247.917
2013-10-28 19:00,0.387462,295.583,271.574,252.045,268.69,260.764,239.913,0.267186,0.395199,225.739,241.98
2013-10-28 20:00,1.00373,282.234,206.1,220.517,203.652,203.351,205.825,1.08846,1.28823,206.292,205.491
2013-10-28 21:00,1.39388,275.932,204.418,220.298,203.179,202.529,205.127,1.17272,1.51408,205.874,204.328
2013-10-28 22:00,0.0107633,222.276,213.921,223.283,211.825,210.576,211.358,-0.0,-0.0108661,209.926,211.906
2013-10-28 23:00,-0.0173069,235.601,224.616,227.248,223.125,221.283,219.172,-0.00879224,-0.0139779,218.891,222.313
2013-10-29 00:00,-0.00216673,235.601,229.97,229.665,228.583,226.701,224.126,-0.00183457,-0.0,221.819,225.799
2013-10-29 01:00,0.00167059,264.739,255.764,243.65,253.069,248.532,237.373,-0.0,-0.0,225.643,237.888
2013-10-29 02:00,-0.0,268.986,267.18,250.051,268.855,266.329,249.971,-0.0,-0.0,229.263,246.929
2013-10-29 03:00,-0.0,281.526,278.968,256.778,280.785,278.156,256.909,-0.0,-0.0,232.02,249.198
2013-10-29 04:00,-0.0,277.661,275.823,254.926,277.678,273.99,254.137,-0.0,-0.0,232.784,250.34
2013-10-29 05:00,-0.0,274.073,272.931,253.14,275.55,272.724,254.519,-0.0,-0.0,230.996,249.928
2013-10-29 06:00,-0.0,284.41,282.214,258.469,284.361,281.735,258.882,-0.0,-0.0,232.328,251.152
2013-10-29 07:00,-0.0,281.346,280.909,257.685,283.372,280.406,258.147,-0.0,-0.0,231.076,250.646
2013-10-29 08:00,-0.0,271.798,266.293,249.158,267.354,262.361,247.415,-0.0,-0.0,230.43,246.929
2013-10-29 09:00,3.17543,282.753,278.474,256.205,279.613,275.706,253.753,4.22499,5.03766,229.433,247.371
2013-10-29 10:00,0.364409,284.888,274.916,253.98,274.933,269.821,248.768,0.280126,0.4163,226.963,244.412
2013-10-29 11:00,0.434958,292.889,284.185,259.134,285.201,280.554,256.785,0.207156,0.404186,229.433,248.241
2013-10-29 12:00,0.369095,290.171,271.437,252.29,269.021,262.537,243.099,0.208341,0.356879,223.642,238.986
2013-10-29 13:00,0.310854,297.649,285.208,260.228,284.921,278.609,254.773,0.136342,0.27283,229.093,247.699
2013-10-29 14:00,0.259135,299.391,288.303,261.731,288.222,282.613,256.785,0.102881,0.226564,229.517,248.348
2013-10-29 15:00,0.244132,299.579,285.77,260.228,285.201,278.911,254.773,0.102854,0.216699,229.093,247.917
2013-10-29 16:00,0.254946,301.653,287.76,261.519,288.358,282.758,259.127,0.128707,0.230799,232.709,251.751
2013-10-29 17:00,0.135048,281.346,263.088,247.597,258.304,255.803,241.664,0.200104,0.218929,220.337,234.845
2013-10-29 18:00,0.455626,267.761,197.389,217.342,195.943,195.891,199.237,0.855421,0.953809,199.021,198.603
2013-10-29 19:00,0.671754,277.026,198.787,217.576,197.601,196.363,201.515,1.00759,1.13901,200.945,200.041
2013-10-29 20:00,0.946568,282.581,211.654,222.449,210.625,209.133,210.718,1.09265,1.30601,211.303,211.602
2013-10-29 21:00,1.72737,283.093,210.707,222.238,206.392,204.559,206.743,1.33699,1.75269,206.905,208.371
2013-10-29 22:00,-0.0,218.393,213.031,222.449,210.625,209.133,209.856,-0.0,-0.0,210.624,211.906
2013-10-29 23:00,-0.0104427,230.231,214.358,223.899,213.381,210.931,212.411,-0.0088418,-0.0140567,210.966,213.092
2013-10-30 00:00,-0.0,225.382,215.218,223.076,212.997,211.284,211.992,-0.0,-0.0,211.135,213.092
2013-10-30 01:00,-0.00167599,227.984,218.474,225.107,215.993,212.673,212.202,-0.0,-0.0,213.693,216.909
2013-10-30 02:00,-0.0,235.601,220.75,226.287,215.993,212.329,211.992,-0.0,-0.0,210.796,215.061
2013-10-30 03:00,0.00136964,225.382,211.654,222.449,209.394,207.651,208.982,-0.0,-0.0,208.464,210.032
2013-10-30 04:00,0.00139362,218.393,213.031,222.238,211.428,209.859,211.146,-0.0,-0.0,210.624,212.207
2013-10-30 05:00,0.00153362,225.382,220.379,225.504,218.824,216.972,215.674,-0.0,0.00154828,215.167,217.669
2013-10-30 06:00,0.00185845,225.382,220.75,225.504,219.167,217.29,217.055,-0.0,-0.0,214.293,218.165
2013-10-30 07:00,0.00260818,242.013,236.06,233.005,234.371,231.714,226.918,-0.0,-0.0,221.596,230.183
2013-10-30 08:00,-0.0,237.078,231.713,231.098,230.853,227.517,223.949,-0.0,-0.0,220.219,227.136
2013-10-30 09:00,3.91916,251.282,236.06,233.344,232.772,228.324,222.692,4.64568,6.06682,218.767,227.877
2013-10-30 10:00,0.538088,262.475,237.591,233.513,235.155,231.968,227.089,0.717668,0.812444,219.137,228.782
2013-10-30 11:00,0.613442,279.473,244.16,237.258,243.895,239.895,230.931,0.709221,0.78346,221.93,234.845
2013-10-30 12:00,0.563826,278.075,245.89,237.728,246.575,245.186,236.307,0.780519,0.85557,226.871,238.441
2013-10-30 13:00,0.492219,288.43,254.69,242.799,255.439,252.536,242.097,0.5174,0.575981,227.055,240.964
2013-10-30 14:00,0.548682,291.686,258.871,245.04,261.431,260.942,248.499,0.621871,0.662712,229.517,245.918
2013-10-30 15:00,0.476024,281.346,256.819,243.79,259.236,258.957,247.823,0.663434,0.72562,230.184,246.483
2013-10-30 16:00,0.364724,273.088,248.177,239.267,248.307,245.824,236.918,0.618636,0.670023,225.254,238.714
2013-10-30 17:00,0.416397,284.087,252.853,242.225,253.469,252.144,242.384,0.538179,0.595862,228.662,242.105
2013-10-30 18:00,0.581328,288.291,249.583,240.171,250.83,250.557,242.527,0.584982,0.672921,231.865,243.336
2013-10-30 19:00,0.590855,270.151,216.88,224.305,215.628,215.027,215.074,0.697355,0.819439,212.448,213.668
2013-10-30 21:00,1.4492,296.635,270.189,251.676,268.69,262.185,242.814,1.01522,1.39338,228.224,242.478
2013-10-30 22:00,-0.0,255.521,234.477,232.319,230.574,226.151,219.362,-0.0,-0.0,215.593,222.529
2013-10-30 23:00,-0.0105031,269.283,255.23,243.368,253.469,247.915,234.916,-0.00889298,-0.014138,224.46,238.165
2013-10-31 00:00,-0.00218377,284.249,281.742,258.134,283.088,279.361,256.035,-0.001849,-0.0,234.113,251.85
2013-10-31 01:00,-0.0,271.261,257.683,244.488,256.406,250.957,234.916,-0.0,-0.0,224.959,238.165
2013-10-31 02:00,-0.0,253.206,232.56,231.45,228.293,224.474,220.115,-0.0,-0.0,214.879,220.535
2013-10-31 03:00,-0.0,237.078,223.597,227.248,220.184,216.652,214.265,-0.0,-0.0,213.995,219.608
2013-10-31 04:00,-0.00139776,246.775,239.559,234.845,237.951,234.706,228.109,-0.0,-0.0,223.952,233.773
2013-10-31 05:00,0.00153854,242.013,233.938,232.491,231.408,228.056,222.873,-0.0,-0.0,220.101,228.06
2013-10-31 06:00,-0.0,243.066,231.713,230.921,229.444,225.318,220.489,-0.0,-0.0,217.36,225.799
2013-10-31 07:00,-0.0,249.89,236.318,233.513,233.842,228.856,222.873,-0.0,-0.0,218.767,227.694
2013-10-31 08:00,0.00508028,273.586,261.34,246.667,258.678,252.144,236.307,-0.0,-0.0,222.906,236.9
2013-10-31 09:00,2.41231,275.02,262.3,247.067,260.158,253.51,237.07,2.35673,3.37205,222.259,236.614
2013-10-31 10:00,0.38792,283.594,269.767,251.676,267.185,258.224,240.5,0.372512,0.482372,223.746,240.316
2013-10-31 11:00,0.466704,287.01,262.3,247.067,259.974,251.947,236.918,0.382679,0.523242,222.906,238.714
2013-10-31 12:00,0.372905,282.059,255.941,243.084,253.069,246.876,231.257,0.274809,0.409586,219.982,232.347
2013-10-31 13:00,0.307247,289.91,268.773,250.681,265.654,258.591,239.765,0.167912,0.307364,222.585,237.748
2013-10-31 14:00,0.277159,279.859,249.583,239.57,244.349,237.815,225.709,0.201146,0.30729,216.012,226.76
2013-10-31 15:00,0.258989,288.012,264.175,247.991,260.706,253.703,236.46,0.157487,0.263842,221.484,235.295
2013-10-31 16:00,0.236559,294.043,275.951,254.572,273.686,266.16,244.932,0.130495,0.231584,225.254,242.23
2013-10-31 17:00,0.286384,288.705,265.995,249.286,262.863,257.115,240.5,0.236995,0.311362,222.476,237.608
2013-10-31 18:00,0.376903,285.512,251.339,241.061,245.914,238.282,226.229,0.353867,0.444947,217.881,229.137
2013-10-31 19:00,0.542029,283.924,233.938,231.625,228.293,221.283,214.872,0.561481,0.681508,212.765,220.306
2013-10-31 20:00,0.733025,283.261,240.277,235.337,237.702,232.976,225.009,0.838144,0.97406,220.101,228.96
2013-10-31 21:00,1.17691,273.831,224.95,227.817,224.384,221.579,218.025,1.03259,1.35175,218.517,223.167
2013-10-31 22:00,-0.0113027,253.81,243.496,236.943,242.283,239.208,232.547,-0.0,-0.0,222.692,232.988
2013-10-31 23:00,-0.00704367,256.589,247.973,239.115,248.946,246.876,237.676,-0.00894579,-0.0106665,230.184,240.964
