# timestamp,IR_016,IR_039,IR_087,IR_097,IR_108,IR_120,IR_134,VIS006,VIS008,WV_062,WV_073
2015-12-01 00:00,0.0016672,284.73,281.148,257.006,283.656,279.361,255.153,0.0,0.0,228.748,248.025
2015-12-01 01:00,-0.00137251,288.152,287.541,261.091,290.234,287.888,260.34,0.0,0.0,229.517,249.825
2015-12-01 02:00,-0.00122367,286.569,285.658,259.793,288.358,286.202,260.219,0.0,0.0,229.601,249.721
2015-12-01 03:00,0.0,288.012,287.432,261.198,290.367,288.027,260.822,0.0,0.00117439,230.511,250.238
2015-12-01 04:00,-0.00117233,284.73,283.495,259.024,285.479,280.85,256.035,0.0,0.0,229.601,248.882
2015-12-01 05:00,0.0,266.797,256.992,242.656,256.021,252.341,240.646,0.0,0.0,228.312,238.441
2015-12-01 06:00,0.0,263.636,256.469,242.942,256.021,253.51,241.953,0.0,0.0,229.093,241.475
2015-12-01 07:00,-0.00178728,285.202,281.624,257.91,283.514,278.004,253.625,0.0,0.0,229.517,248.241
2015-12-01 08:00,0.0,288.152,286.882,261.091,289.701,287.188,259.977,0.0,0.0,229.517,249.617
2015-12-01 09:00,-0.00478909,288.012,287.212,260.984,289.835,287.329,260.219,0.0,0.0,230.511,250.032
2015-12-01 10:00,-0.0496869,286.717,285.321,259.902,288.222,285.065,259.249,-0.546908,-0.451457,232.02,250.748
2015-12-01 11:00,0.0623401,288.012,285.882,259.902,288.358,285.635,259.005,0.253359,0.151046,231.236,249.617
2015-12-01 12:00,0.0436813,287.871,285.095,259.464,287.407,284.349,258.392,0.150581,0.0913477,230.755,248.882
2015-12-01 13:00,0.0467449,287.155,282.916,258.358,284.781,281.588,256.285,0.111198,0.0741585,230.266,248.025
2015-12-01 14:00,0.0576344,289.113,282.331,258.58,284.641,279.959,255.153,0.0975979,0.071324,231.156,248.455
2015-12-01 15:00,0.0620319,287.729,279.945,256.892,280.201,274.929,251.683,0.091914,0.0695832,229.178,246.145
2015-12-01 16:00,0.0749421,288.705,277.601,255.858,277.828,272.565,249.838,0.103296,0.0862156,229.769,245.804
2015-12-01 17:00,0.104124,289.647,278.226,255.742,278.725,273.675,251.422,0.12408,0.11096,228.921,244.764
2015-12-01 18:00,0.274719,292.414,269.908,251.18,270.657,263.759,245.072,0.273057,0.265287,228.048,242.478
2015-12-01 19:00,0.623699,293.702,261.179,245.723,260.888,255.235,241.519,0.561279,0.644053,227.691,239.789
2015-12-01 20:00,0.544157,284.41,265.243,248.512,265.138,258.774,244.372,0.438443,0.531637,228.312,241.093
2015-12-01 21:00,0.0,287.871,284.982,259.244,286.86,283.339,257.777,0.0,0.0,228.575,247.151
2015-12-01 22:00,-0.00386633,271.531,264.021,247.859,264.792,259.502,245.211,0.0,0.0,228.224,243.336
2015-12-01 23:00,0.0,255.521,250.566,240.171,253.069,251.75,241.519,0.0,0.0,228.921,242.105
2015-12-02 00:00,0.0,262.869,256.644,243.509,258.304,256.367,244.512,0.0,0.00168377,229.517,243.698
2015-12-02 01:00,0.0,259.505,254.69,243.368,256.98,255.992,245.35,0.0,0.0,230.101,244.53
2015-12-02 02:00,0.0,257.103,258.365,244.626,261.069,260.584,247.959,0.0,0.0,231.473,246.483
2015-12-02 03:00,0.0,257.605,255.941,243.509,258.678,257.671,246.732,0.0,0.0,231.787,246.032
2015-12-02 04:00,0.0,262.074,258.365,244.488,260.706,259.321,247.551,0.0,0.0,231.552,245.918
2015-12-02 05:00,0.0,286.717,284.071,259.134,285.479,282.467,257.53,0.0,0.0,231.787,249.093
2015-12-02 06:00,0.0,287.3,284.642,259.574,286.31,282.904,257.9,0.0,0.0,231.315,249.408
2015-12-02 07:00,0.0,274.314,271.848,252.045,274.312,272.724,254.137,0.0,0.0,230.835,248.882
2015-12-02 08:00,0.0,273.586,269.059,250.303,271.464,269.329,252.075,0.0,0.0,231.63,248.987
2015-12-02 09:00,0.0,286.121,283.726,259.354,285.479,282.758,258.515,0.0,0.0,231.473,249.408
2015-12-02 10:00,-0.0894926,285.97,283.611,259.244,285.618,282.904,258.023,-0.530413,-0.406566,231.787,250.032
2015-12-02 11:00,0.581731,285.512,278.474,256.205,280.931,279.511,257.158,0.594273,0.54899,231.943,250.135
2015-12-02 12:00,0.483836,288.841,281.386,257.798,284.361,282.467,259.127,0.502769,0.459915,231.865,250.849
2015-12-02 13:00,0.310846,290.429,282.331,258.246,285.201,283.339,258.882,0.361654,0.318333,230.101,250.135
2015-12-02 14:00,0.195895,287.729,279.091,256.549,281.655,279.511,256.535,0.200616,0.180816,229.601,250.032
2015-12-02 15:00,0.202161,269.576,254.871,242.225,254.066,251.947,240.646,0.277968,0.294802,227.601,238.714
2015-12-02 16:00,0.0314417,288.43,286.105,259.793,288.222,285.919,259.37,0.073949,0.042323,234.968,254.162
2015-12-02 17:00,0.0811346,289.113,285.095,259.244,287.134,284.922,259.735,0.121037,0.0897112,238.608,255.183
2015-12-02 18:00,0.315796,284.249,280.669,256.664,283.514,282.175,257.9,0.453743,0.456486,239.532,255.457
2015-12-02 19:00,0.214075,286.864,283.956,258.58,286.585,284.779,259.614,0.341367,0.298967,240.134,255.548
2015-12-02 20:00,1.17652,279.667,275.565,253.501,277.978,277.548,256.785,1.11511,1.4271,240.014,255.366
2015-12-02 21:00,-0.0143223,279.473,280.909,256.549,283.938,282.904,258.882,0.0,0.0,240.312,255.821
2015-12-02 22:00,0.0,282.408,283.148,258.022,286.033,284.205,259.005,0.0,0.0,240.957,256.181
2015-12-02 23:00,-0.00227851,280.239,280.308,256.205,282.946,281.735,258.515,0.0,0.0,240.312,256.181
2015-12-03 00:00,0.0,286.569,285.208,259.354,287.134,284.922,259.856,0.0,0.0,240.253,256.181
2015-12-03 01:00,-0.00137297,287.3,286.55,259.793,288.493,286.202,260.581,0.0,0.0,240.43,256.45
2015-12-03 02:00,0.0,287.871,287.212,260.011,289.434,286.907,260.34,0.0,0.0,240.841,257.158
2015-12-03 03:00,0.0,287.587,286.882,260.011,289.434,286.907,260.219,0.0,0.0,239.471,256.894
2015-12-03 04:00,0.00117052,288.152,287.322,260.228,289.568,287.329,260.34,0.0,0.0,238.857,256.805
2015-12-03 05:00,-0.00125044,287.155,286.772,260.011,289.166,287.188,260.822,0.0,0.0,237.528,256.716
2015-12-03 06:00,0.0,283.76,284.185,258.246,286.86,285.208,260.098,0.0,0.0,237.463,256.716
2015-12-03 07:00,0.0,286.421,286.105,259.134,288.358,286.485,260.34,0.0,0.0,236.874,256.539
2015-12-03 08:00,0.0,283.76,283.956,258.134,286.447,284.922,259.856,0.0,0.0,236.408,256.716
2015-12-03 09:00,0.0,286.421,285.77,259.464,288.087,285.919,260.098,0.0,0.0,236.408,256.36
2015-12-03 10:00,-0.36664,283.924,284.071,258.358,286.31,284.922,260.098,-0.620867,-0.616908,236.609,256.001
2015-12-03 11:00,0.506678,286.421,283.956,258.246,286.722,285.35,260.098,0.537612,0.485622,236.542,255.911
2015-12-03 12:00,0.322667,286.864,283.726,258.246,286.31,284.922,259.977,0.401767,0.367269,236.808,256.36
2015-12-03 13:00,0.0921071,289.381,284.642,258.58,286.997,285.35,259.735,0.148365,0.111132,237.592,256.805
2015-12-03 14:00,0.0205921,288.705,287.432,260.337,289.835,287.609,260.822,0.0729111,0.0415778,237.977,256.894
2015-12-03 15:00,0.0381145,288.977,287.432,260.445,289.968,287.888,261.182,0.0777449,0.048973,238.608,257.246
2015-12-03 16:00,0.0455125,289.381,287.432,260.445,289.968,288.027,261.301,0.0815171,0.0547837,240.134,257.769
2015-12-03 17:00,0.0193505,288.841,287.76,260.553,290.367,288.306,261.779,0.0589827,0.0332104,240.724,258.2
2015-12-03 18:00,0.220385,289.91,286.55,259.793,289.3,287.469,261.182,0.227165,0.2104,241.304,258.543
2015-12-03 19:00,0.21425,290.939,286.992,260.011,289.568,287.609,261.54,0.232804,0.201879,242.042,258.286
2015-12-03 20:00,0.38621,288.012,286.661,259.683,288.897,287.329,261.301,0.423618,0.416486,242.155,258.967
2015-12-03 21:00,0.0,285.512,285.994,259.354,288.222,286.767,260.701,0.0,0.0,242.378,259.135
2015-12-03 22:00,-0.00387579,286.717,286.772,259.683,289.166,287.188,261.182,0.0,0.0,242.6,259.135
2015-12-03 23:00,0.0,288.152,287.978,260.661,290.101,288.167,261.66,0.0,0.0,242.042,259.22
2015-12-04 00:00,0.0,288.152,288.303,260.769,290.5,288.445,262.136,0.0,0.0,242.042,259.638
2015-12-04 01:00,0.00137332,287.155,287.651,260.553,290.234,288.445,262.017,0.0,0.0,242.042,260.052
2015-12-04 02:00,0.0,283.76,285.321,259.354,287.815,286.767,261.421,0.0,0.0,241.304,259.887
2015-12-04 03:00,0.0,288.012,288.412,261.198,291.029,289.413,261.898,0.0,0.0,241.647,260.463
2015-12-04 04:00,0.0,287.729,288.087,260.984,290.367,288.722,262.136,0.0,0.0,241.533,260.217
2015-12-04 05:00,-0.00124892,288.43,288.736,261.198,291.029,289.276,261.898,0.0,0.0,243.093,260.871
2015-12-04 06:00,-0.00142535,286.717,286.992,260.011,289.3,287.888,261.54,0.0,0.0,243.31,260.463
2015-12-04 07:00,0.0,288.012,288.087,260.661,290.234,288.445,262.017,0.0,0.0,243.202,260.627
2015-12-04 08:00,0.0,282.753,283.495,258.134,285.618,284.922,260.461,0.0,0.0,243.74,261.113
2015-12-04 09:00,0.0,285.202,286.217,259.464,288.628,287.609,262.017,0.0,0.0,244.997,262.151
2015-12-04 10:00,-0.299383,285.665,286.105,260.011,288.628,287.888,261.66,-0.538661,-0.491149,245.456,262.779
2015-12-04 11:00,0.052043,289.113,289.486,261.731,291.817,290.375,262.965,0.25888,0.151054,245.456,263.322
2015-12-04 12:00,0.0382188,289.381,289.593,262.261,292.34,291.057,263.083,0.148316,0.0868143,245.557,263.399
2015-12-04 13:00,0.196321,291.686,287.978,261.305,290.764,289.689,263.318,0.227365,0.200476,245.151,263.322
2015-12-04 14:00,0.187818,289.91,287.541,260.769,290.5,289.551,263.083,0.200372,0.193406,244.894,263.244
2015-12-04 15:00,0.0156321,289.247,289.805,262.261,292.6,291.057,263.083,0.0573547,0.0315631,244.79,263.012
2015-12-04 16:00,0.21925,290.558,285.433,259.793,288.628,288.167,262.136,0.228706,0.226658,244.687,263.012
2015-12-04 17:00,0.226753,291.563,285.546,260.011,288.628,288.027,262.492,0.208401,0.207398,244.374,263.399
2015-12-04 18:00,0.163074,291.563,287.651,260.876,290.5,289.413,262.492,0.172593,0.15737,243.899,263.476
2015-12-04 19:00,0.371569,292.889,287.322,260.661,289.968,288.999,263.2,0.338807,0.342658,243.633,263.552
2015-12-04 20:00,0.63138,287.587,285.433,259.793,288.493,287.888,262.61,0.519738,0.584297,243.202,263.322
2015-12-04 21:00,0.0,283.594,284.755,259.683,287.951,287.329,262.373,0.0,0.0,242.765,263.09
2015-12-04 22:00,0.0,286.121,287.212,260.876,289.968,288.999,263.083,0.0,0.0,242.765,262.857
2015-12-04 23:00,0.0,287.871,288.52,261.625,291.292,290.101,263.318,0.0,0.0,242.433,263.012
2015-12-05 00:00,0.00167055,287.871,288.736,261.731,291.423,289.964,262.728,0.0,0.0,242.266,262.545
2015-12-05 01:00,0.0,288.012,288.951,261.944,291.555,289.964,262.728,0.0,0.0,242.6,262.701
2015-12-05 02:00,0.00122337,288.43,289.272,261.838,291.817,290.648,262.965,0.0,0.0,242.655,262.779
2015-12-05 03:00,0.0,288.43,289.593,262.261,292.6,291.193,263.787,0.0,0.0,242.71,263.012
2015-12-05 04:00,-0.00116882,288.568,290.229,262.471,292.989,291.6,263.905,0.0,0.0,242.099,262.857
2015-12-05 05:00,0.0,288.977,290.335,262.576,293.248,292.141,264.022,0.0,0.0,242.266,263.244
2015-12-05 06:00,-0.00142273,288.841,290.335,262.155,293.248,292.141,264.605,0.0,0.0,242.211,263.552
2015-12-05 07:00,0.0,288.152,289.165,261.625,292.079,291.057,263.553,0.0,0.0,241.93,263.782
2015-12-05 08:00,-0.00499641,283.594,284.755,259.244,287.679,287.329,262.492,0.0,0.0,242.099,263.552
2015-12-05 09:00,0.0,285.665,286.55,259.902,289.032,288.445,262.373,0.0,0.0,241.419,263.244
2015-12-05 10:00,-0.069277,288.291,289.379,261.731,291.948,290.648,263.436,-0.410597,-0.349696,241.189,263.244
2015-12-05 11:00,0.217744,288.705,287.76,260.769,290.367,289.276,263.083,0.368726,0.313084,240.724,262.935
2015-12-05 12:00,0.0448874,289.247,289.593,261.944,292.209,291.057,263.436,0.154739,0.0971069,240.134,262.779
2015-12-05 13:00,0.0158651,289.381,289.911,262.261,292.73,291.6,264.022,0.0882737,0.0457622,240.193,262.779
2015-12-05 14:00,0.00942093,289.247,290.017,262.471,292.989,291.871,264.138,0.0638135,0.0342396,239.834,262.701
2015-12-05 15:00,0.0661636,289.113,287.978,260.984,290.632,289.689,262.847,0.0958247,0.0791006,239.894,262.935
2015-12-05 16:00,0.0263595,289.247,289.486,261.944,292.209,291.329,264.022,0.0624919,0.0443525,240.312,263.167
2015-12-05 17:00,0.0291117,289.779,289.593,261.944,292.34,291.193,263.553,0.0624437,0.0431053,240.371,263.399
2015-12-05 18:00,0.0312046,289.91,289.805,262.049,292.73,291.464,264.022,0.0792627,0.0508893,240.665,263.706
2015-12-05 19:00,0.239439,290.558,287.212,260.553,290.101,289.276,263.083,0.266276,0.259768,240.841,263.706
2015-12-05 20:00,0.560324,288.977,286.882,260.337,289.835,288.999,263.318,0.481839,0.556842,241.476,263.476
2015-12-05 21:00,0.0,285.818,287.102,260.553,290.101,289.137,263.2,0.0,0.0,240.957,263.244
2015-12-05 22:00,0.0,286.421,287.76,260.984,290.5,289.689,262.61,0.0,0.0,241.59,263.09
2015-12-05 23:00,0.0,287.3,288.087,260.984,290.632,289.689,262.847,0.0,0.0,241.304,263.244
2015-12-06 00:00,-0.00167173,286.717,287.541,260.876,290.234,289.137,262.965,0.0,0.0,242.266,263.552
2015-12-06 01:00,0.00137424,288.43,289.379,262.155,291.817,290.238,263.553,0.0,0.0,244.322,264.238
2015-12-06 02:00,0.0,287.729,288.628,261.731,291.16,289.551,263.083,0.0,0.0,244.583,264.389
2015-12-06 03:00,-0.00116116,286.717,287.76,261.198,290.101,288.861,262.965,0.0,0.0,244.894,264.01
2015-12-06 04:00,0.0,287.01,287.869,261.198,290.367,288.999,262.255,0.0,0.0,245.507,264.314
2015-12-06 05:00,0.0,287.871,288.628,261.944,291.029,289.551,263.083,0.0,0.0,244.739,263.706
2015-12-06 06:00,0.00142014,288.43,289.165,262.155,291.555,289.964,262.728,0.0,0.0,244.739,263.782
2015-12-06 07:00,0.0,288.012,288.843,262.049,291.029,289.551,262.965,0.0,-0.00177876,245.304,263.858
2015-12-06 08:00,-0.00248678,281.705,283.38,258.691,286.447,285.777,261.898,0.0,0.0,245.709,263.858
2015-12-06 09:00,0.0,288.291,288.951,262.049,291.029,289.413,262.847,0.0,0.0,245.456,263.858
2015-12-06 10:00,-0.0645372,288.43,288.195,261.731,290.234,288.306,262.492,-0.355183,-0.293194,245.557,263.167
2015-12-06 11:00,0.0200769,288.152,288.087,261.519,290.234,288.445,262.61,0.24932,0.121613,245.099,263.09
2015-12-06 12:00,0.00968226,288.152,287.978,261.944,289.835,288.027,261.421,0.128435,0.0586489,245.151,263.09
2015-12-06 13:00,0.00455226,288.291,287.978,261.838,289.835,287.888,262.017,0.0847966,0.0390641,245.658,263.399
2015-12-06 14:00,0.00756004,288.291,287.978,261.625,289.701,288.027,261.898,0.0624105,0.0286212,245.709,263.552
2015-12-06 15:00,0.00349041,288.152,287.978,261.625,289.701,287.888,261.898,0.0502405,0.0229046,246.208,263.706
2015-12-06 16:00,0.0193643,288.568,287.322,261.198,289.166,287.048,261.182,0.0566396,0.0319899,245.759,263.399
2015-12-06 17:00,0.0641262,288.841,287.102,260.445,288.763,287.188,262.255,0.0970738,0.0725864,245.608,263.629
2015-12-06 18:00,0.0384337,289.113,287.651,260.984,289.3,287.329,261.54,0.0833884,0.0557767,244.945,263.322
2015-12-06 19:00,0.0714733,289.247,287.76,261.305,289.568,287.748,261.54,0.148265,0.0974114,244.583,263.167
2015-12-06 20:00,0.200912,288.841,288.087,261.091,289.968,288.306,261.779,0.288451,0.229289,244.583,263.476
2015-12-06 21:00,-0.0146032,284.087,285.546,259.902,287.815,286.907,261.062,0.0,0.0,244.269,263.399
2015-12-06 22:00,-0.00389736,283.924,284.869,259.354,287.27,286.06,260.581,0.0,0.0,243.953,263.012
2015-12-06 23:00,0.0,280.427,282.682,258.358,285.201,284.779,260.942,0.0,-0.00231005,243.899,263.012
2015-12-07 00:00,0.00167304,281.165,283.264,258.691,285.757,285.493,261.301,0.0,0.0,243.899,262.857
2015-12-07 01:00,0.0,283.093,284.528,260.011,286.997,286.06,261.062,0.0,0.0,243.526,262.935
2015-12-07 02:00,0.0012235,284.73,285.321,260.228,287.679,286.907,261.66,0.0,0.0,242.378,262.545
2015-12-07 03:00,0.0,278.883,280.789,257.346,283.088,282.904,260.581,0.0,0.0,241.817,262.072
2015-12-07 04:00,0.0,282.581,284.3,259.244,286.722,285.635,261.66,0.0,0.0,241.246,261.914
2015-12-07 05:00,0.0,282.581,283.38,258.58,285.895,285.208,260.822,0.0,0.0,240.724,261.993
2015-12-07 06:00,0.0,278.075,279.823,256.549,282.087,281.588,259.37,0.0,0.0,240.074,261.275
2015-12-07 07:00,-0.00175705,281.705,283.148,258.358,285.34,284.779,260.461,0.0,0.0,240.074,261.355
2015-12-07 08:00,0.0,284.249,285.546,259.902,287.679,286.626,261.898,0.0,0.0,239.41,261.275
2015-12-07 09:00,0.0,282.753,284.414,258.913,286.585,285.777,261.301,0.0,0.0,239.41,261.355
2015-12-07 10:00,-0.0906872,286.421,286.55,260.445,288.493,287.048,260.942,-0.332734,-0.305181,239.166,260.952
2015-12-07 11:00,0.217193,286.569,285.658,259.902,287.679,286.202,261.062,0.385035,0.301495,238.919,260.871
2015-12-07 12:00,0.0714645,288.568,286.992,260.445,288.763,286.767,260.942,0.187028,0.11806,238.546,260.299
2015-12-07 13:00,0.26056,289.514,283.956,258.913,286.31,285.065,260.219,0.276737,0.256129,238.104,260.135
2015-12-07 14:00,0.00568694,288.43,287.869,261.305,289.968,287.888,261.66,0.0625966,0.0287065,237.849,260.052
2015-12-07 15:00,0.0209888,288.568,288.195,261.519,290.5,288.722,261.54,0.0607183,0.0353158,237.721,260.052
2015-12-07 16:00,0.0176325,289.247,288.412,261.625,290.632,288.722,262.255,0.0567318,0.0338221,237.913,260.299
2015-12-07 17:00,0.0661424,290.041,287.869,260.876,290.234,288.584,262.492,0.0905926,0.0687387,237.913,260.545
2015-12-07 18:00,0.144205,290.558,287.322,260.984,289.568,288.167,262.017,0.164832,0.143157,238.231,260.545
2015-12-07 19:00,0.142905,290.041,287.869,261.305,290.367,288.584,261.66,0.196621,0.155091,238.608,260.463
2015-12-07 20:00,0.15678,288.977,288.303,261.198,290.897,288.999,261.898,0.28024,0.219831,238.857,260.627
2015-12-07 21:00,0.0,288.012,288.736,261.305,291.029,289.276,262.373,0.0,0.0,239.227,260.708
2015-12-07 22:00,-0.00390652,284.888,285.546,259.683,288.493,287.188,261.54,0.0,0.0,239.471,260.381
2015-12-07 23:00,0.0,286.864,286.772,260.337,289.568,287.748,261.421,0.0,0.0,239.227,259.97
2015-12-08 00:00,0.00167448,286.569,287.102,260.228,289.434,288.027,261.182,0.0,0.0,238.795,259.638
2015-12-08 01:00,0.0,286.421,287.102,260.769,289.568,288.167,261.421,0.0,0.0,238.981,259.304
2015-12-08 02:00,0.0,284.41,285.321,259.574,287.815,286.343,260.701,0.0,0.0,239.954,259.638
2015-12-08 03:00,0.0,286.864,287.651,261.091,289.968,288.445,261.182,0.0,-0.00117163,240.134,259.97
2015-12-08 04:00,-0.00116646,285.045,286.328,260.011,288.897,287.609,261.54,0.0,0.0,240.134,259.638
2015-12-08 05:00,0.0,287.444,287.869,261.091,290.367,288.722,262.136,0.0,0.0,240.957,260.217
2015-12-08 06:00,-0.00141508,284.888,286.105,260.011,289.032,288.027,261.66,0.0,0.0,239.714,259.804
2015-12-08 07:00,-0.00175225,282.581,284.414,259.024,287.407,286.767,261.421,0.0,0.0,238.483,259.638
2015-12-08 08:00,0.0,285.818,286.217,258.913,289.166,287.888,261.301,0.0,0.0,236.808,258.882
2015-12-08 09:00,0.0,287.729,287.76,259.574,290.764,288.861,261.182,0.0,0.0,237.203,258.713
2015-12-08 10:00,-0.14071,286.121,286.105,258.358,289.3,287.888,261.301,-0.333381,-0.317034,238.041,259.22
2015-12-08 11:00,0.15656,288.152,286.992,258.469,290.234,288.584,260.942,0.362871,0.23772,237.977,259.051
2015-12-08 12:00,0.0161647,287.587,287.651,258.691,290.897,289.413,260.942,0.150003,0.0728413,237.528,259.135
2015-12-08 13:00,0.00680844,287.444,287.432,258.58,290.764,289.276,261.421,0.0963385,0.0434636,236.94,259.051
2015-12-08 14:00,0.00376008,287.155,287.651,258.134,291.16,289.551,260.822,0.0723829,0.0317694,236.874,259.135
2015-12-08 15:00,0.00519999,287.155,287.869,258.134,291.16,290.101,260.822,0.0564677,0.0273376,235.936,258.713
2015-12-08 16:00,0.00523903,287.3,287.651,258.022,291.292,289.826,261.66,0.0517197,0.0236081,235.799,258.713
2015-12-08 17:00,0.005777,287.3,287.76,257.91,290.897,289.826,260.581,0.0551294,0.0260323,235.867,258.713
2015-12-08 18:00,0.00951056,287.3,287.541,257.798,291.029,289.551,260.822,0.0727634,0.0348209,236.274,259.135
2015-12-08 19:00,0.0211864,287.587,287.869,258.358,291.029,289.689,261.301,0.128977,0.0676246,236.742,259.387
2015-12-08 20:00,0.0686654,287.587,287.541,258.134,291.16,289.826,261.66,0.296565,0.193387,237.333,259.804
2015-12-08 21:00,0.0146747,287.01,287.76,258.58,290.764,289.413,261.301,0.0,0.0,237.137,259.638
2015-12-08 22:00,0.0,287.3,287.869,259.024,290.632,289.551,261.66,0.0,0.0,237.072,260.052
2015-12-08 23:00,0.0,287.3,287.978,259.793,290.897,289.413,261.779,0.0,0.0,237.785,260.299
2015-12-09 00:00,0.00331499,287.871,288.195,260.011,291.029,289.551,262.373,0.0,0.0,238.104,260.789
2015-12-09 01:00,0.0,287.729,288.087,259.793,291.029,289.826,262.728,0.0,0.0,238.041,260.789
2015-12-09 02:00,-0.00121025,288.012,288.628,259.902,291.555,289.826,262.136,0.0,0.0,238.608,261.194
2015-12-09 03:00,0.00114743,288.012,288.736,260.553,291.555,290.375,262.255,0.0,0.0,238.671,261.275
2015-12-09 04:00,0.0,288.43,288.951,260.553,291.555,290.238,262.847,0.0,0.0,238.483,261.435
2015-12-09 05:00,0.00122798,288.43,288.843,260.553,291.686,290.238,262.847,0.0,0.0,237.657,261.355
2015-12-09 06:00,-0.00279392,288.291,288.736,260.119,291.686,289.964,263.2,0.0,0.0,237.203,261.113
2015-12-09 07:00,0.0,288.012,288.412,260.337,291.292,289.964,262.61,0.0,-0.00194689,237.137,260.952
2015-12-09 08:00,0.0,288.012,288.412,259.902,291.292,289.964,262.492,0.0,0.0,236.874,261.033
2015-12-09 09:00,-0.00439454,285.357,286.992,258.691,289.835,288.861,261.779,0.0,0.0,236.675,260.871
2015-12-09 10:00,-0.186247,287.01,287.212,258.246,290.101,288.445,261.301,-0.315194,-0.269765,237.203,260.789
2015-12-09 11:00,0.29681,288.291,285.658,257.572,288.493,287.609,260.942,0.436108,0.342147,236.542,260.708
2015-12-09 12:00,0.074823,288.841,286.772,258.134,289.701,288.306,261.182,0.192692,0.124605,236.675,260.708
2015-12-09 13:00,0.0159489,287.3,287.869,258.358,290.5,288.861,261.421,0.101216,0.0513351,236.675,260.463
2015-12-09 14:00,0.0131965,287.587,287.541,258.134,290.367,288.999,260.701,0.0763042,0.0382282,236.341,260.381
2015-12-09 15:00,0.00868375,287.587,287.322,257.91,290.234,288.584,261.421,0.0600081,0.029348,236.475,260.463
2015-12-09 16:00,0.00349745,287.3,287.651,257.798,290.5,289.276,261.062,0.0517902,0.0256103,236.542,260.381
2015-12-09 17:00,0.00385441,287.444,287.869,257.798,291.16,289.689,261.062,0.0551735,0.0260531,236.475,260.299
2015-12-09 18:00,0.00475604,287.587,288.087,258.246,291.029,289.964,260.942,0.072775,0.0375055,236.139,260.299
2015-12-09 19:00,0.0176404,287.729,287.978,258.358,291.16,290.101,261.421,0.125385,0.0675673,236.475,260.463
2015-12-09 20:00,0.0427377,287.729,288.087,258.691,291.423,290.101,261.66,0.261582,0.163697,237.006,260.381
2015-12-09 21:00,0.0148167,287.871,288.195,259.024,291.292,290.375,261.779,0.0,0.0,237.785,261.033
2015-12-09 22:00,0.0,287.729,288.52,259.464,291.555,290.375,262.017,0.0,0.0,238.483,261.275
2015-12-09 23:00,0.0,287.871,288.52,259.902,291.555,290.101,262.965,0.0,0.0,239.834,261.755
2015-12-10 00:00,-0.00165917,287.729,288.52,259.793,291.16,289.689,262.255,0.0,0.0,240.43,262.466
2015-12-10 01:00,-0.00136168,288.291,288.843,260.119,291.555,290.511,263.318,0.0,0.0,240.253,262.857
2015-12-10 02:00,-0.00121046,288.291,288.628,260.553,291.292,289.964,263.083,0.0,0.0,240.312,262.623
2015-12-10 03:00,0.0,288.291,288.52,260.337,291.292,289.689,262.136,0.0,0.0,240.193,262.388
2015-12-10 04:00,0.0,288.43,288.628,260.553,291.423,289.826,262.847,0.0,0.0,240.782,262.623
2015-12-10 05:00,0.00122663,288.568,288.736,260.119,291.555,289.964,262.373,0.0,0.0,241.476,263.012
2015-12-10 06:00,0.0,288.012,288.628,259.902,291.16,289.826,262.728,0.0,0.0,241.476,262.779
2015-12-10 07:00,0.0,288.152,288.736,259.793,291.555,290.101,262.728,0.0,0.0,241.131,262.779
2015-12-10 08:00,0.0,287.871,288.52,259.464,291.423,289.551,261.66,0.0,0.0,240.841,262.466
2015-12-10 09:00,0.0,287.871,288.412,259.244,291.16,289.826,262.255,0.0,0.0,240.782,262.309
2015-12-10 10:00,-0.101009,287.871,288.195,258.58,290.897,289.689,261.779,-0.274219,-0.227583,239.954,262.072
2015-12-10 11:00,0.0139975,288.012,288.195,258.58,291.292,290.101,262.017,0.290185,0.14192,239.653,262.072
2015-12-10 12:00,0.00654624,287.587,288.195,258.58,291.16,289.551,261.779,0.148636,0.0700593,239.227,261.355
2015-12-10 13:00,0.00457423,287.729,287.978,258.022,291.16,289.689,261.54,0.0948291,0.0463779,238.795,261.113
2015-12-10 14:00,0.00378034,287.587,288.087,258.469,291.029,289.964,261.301,0.0709071,0.0319406,238.546,261.033
2015-12-10 15:00,0.00347992,287.3,287.76,257.572,290.897,289.137,260.822,0.0566836,0.025482,236.874,260.545
2015-12-10 16:00,0.00525262,287.155,287.541,257.459,290.632,288.861,260.942,0.0501253,0.0216969,236.675,259.638
2015-12-10 17:00,0.0038569,287.155,287.651,257.572,290.632,289.551,260.581,0.0552091,0.02607,234.897,259.22
2015-12-10 18:00,0.00713384,287.3,287.541,257.685,290.897,289.551,260.461,0.0704252,0.0348254,235.038,259.304
2015-12-10 19:00,0.0,287.444,287.869,258.022,291.029,289.689,260.942,0.118286,0.0595514,234.968,258.967
2015-12-10 20:00,0.0255206,287.729,288.303,258.358,291.423,290.101,260.942,0.25194,0.153335,236.004,259.471
2015-12-10 21:00,0.0,287.729,288.195,258.358,291.16,290.101,262.255,0.0,0.0,236.542,259.804
2015-12-10 22:00,0.0,287.729,288.52,258.913,291.686,290.101,261.54,0.0,0.0,237.072,259.721
2015-12-10 23:00,0.0,288.012,288.628,259.244,291.686,290.648,262.136,0.0,0.0,237.006,259.804
2015-12-11 00:00,0.00166096,288.568,288.52,259.244,291.292,289.826,262.255,0.0,0.0,235.867,259.304
2015-12-11 01:00,0.0,288.291,288.412,259.793,291.292,289.689,262.373,0.0,0.0,235.662,259.387
2015-12-11 02:00,0.00121071,288.43,288.412,260.228,291.16,289.413,261.779,0.0,0.0,235.178,258.882
2015-12-11 03:00,0.0,287.587,287.322,259.793,289.835,288.027,261.301,0.0,0.0,233.677,257.333
2015-12-11 04:00,0.0,287.729,287.322,259.683,289.968,288.306,261.062,0.0,0.0,233.308,257.158
2015-12-11 05:00,0.0,287.3,286.217,258.358,288.358,286.343,259.614,0.0,0.0,232.405,255.73
2015-12-11 06:00,-0.00139216,287.01,286.217,258.58,288.222,286.626,259.735,0.0,0.0,231.552,256.091
2015-12-11 07:00,0.0,288.152,288.628,259.902,291.555,289.964,262.847,0.0,0.0,233.308,256.982
2015-12-11 08:00,-0.0024059,288.291,288.087,259.244,291.029,289.137,261.421,0.0,0.0,232.328,256.805
2015-12-11 09:00,-0.00432119,279.667,273.599,250.303,272.899,270.798,249.572,0.0,0.0,226.216,246.371
2015-12-11 10:00,-0.0240495,284.73,285.095,256.892,287.951,286.767,260.461,-0.237417,-0.216744,229.517,253.69
2015-12-11 11:00,0.163196,288.841,286.882,258.58,289.968,288.027,259.977,0.371246,0.247795,229.178,252.537
2015-12-11 12:00,0.049391,288.43,286.661,258.134,289.568,287.609,260.34,0.175531,0.0927358,230.018,251.751
2015-12-11 13:00,0.0275466,287.729,286.661,257.798,289.968,287.888,259.856,0.111042,0.0594792,230.101,251.85
2015-12-11 14:00,0.0265287,286.717,284.528,256.892,287.543,285.35,257.406,0.097274,0.0576372,229.935,251.252
2015-12-11 15:00,0.074947,281.705,270.049,248.642,270.657,266.498,245.489,0.127327,0.109957,224.156,243.457
2015-12-11 16:00,0.168267,274.787,255.587,240.021,252.262,249.348,233.344,0.226675,0.225104,219.382,232.347
2015-12-11 17:00,0.140846,282.923,271.437,249.924,271.945,269.657,246.732,0.182851,0.173885,225.449,244.175
2015-12-11 18:00,0.0879645,287.587,282.916,255.393,285.34,282.904,256.16,0.136125,0.107131,230.184,250.032
2015-12-11 19:00,0.365998,285.97,273.732,250.681,274.467,271.283,248.229,0.375209,0.368705,225.931,243.818
2015-12-11 20:00,0.169227,287.871,285.095,257.459,287.543,284.922,257.53,0.200473,0.200175,229.093,250.646
2015-12-11 21:00,0.0,268.986,252.666,239.871,249.368,243.896,229.946,0.0,0.0,217.229,230.524
2015-12-11 22:00,-0.00390919,272.322,258.534,243.93,257.928,252.341,235.691,0.0,0.0,220.916,235.592
2015-12-11 23:00,-0.00228123,273.831,261.662,245.451,260.524,256.367,239.322,0.0,0.0,220.454,237.468
2015-12-12 00:00,0.0,252.585,232.28,230.207,227.708,223.332,217.832,0.0,0.0,213.234,219.134
2015-12-12 01:00,0.0013634,285.97,282.799,257.572,285.201,281.882,255.909,0.0,0.0,231.156,248.775
2015-12-12 02:00,-0.001211,287.871,287.102,260.119,290.5,288.167,260.581,0.0,0.0,234.257,251.452
2015-12-12 03:00,-0.0011468,287.729,286.661,260.119,289.968,287.748,261.182,0.0,0.0,233.159,250.95
2015-12-12 04:00,-0.00115075,286.864,286.55,260.119,289.568,287.048,260.581,0.0,-0.00129638,233.159,251.352
2015-12-12 05:00,-0.001224,285.818,282.682,258.134,285.618,282.321,257.777,0.0,0.0,232.633,250.135
2015-12-12 06:00,0.0,286.864,285.546,259.244,288.358,285.493,259.005,0.0,0.0,232.328,249.928
2015-12-12 07:00,0.0,286.421,285.208,258.913,288.087,285.208,259.856,0.0,0.0,230.996,249.408
2015-12-12 08:00,0.00479176,285.818,281.86,256.664,283.656,280.108,254.9,0.0,0.0,229.263,247.371
2015-12-12 09:00,0.0,283.924,279.336,255.393,281.076,277.091,252.853,0.0,0.0,228.835,246.371
2015-12-12 10:00,-0.0689275,286.121,284.642,258.246,287.27,284.636,258.392,-0.181454,-0.181184,229.007,248.987
2015-12-12 11:00,0.122273,287.3,284.528,257.798,286.997,283.629,257.9,0.355022,0.218773,229.093,248.455
2015-12-12 12:00,0.195407,287.871,283.032,256.32,285.34,281.882,256.909,0.313881,0.235061,228.662,247.481
2015-12-12 13:00,0.320217,270.434,256.992,241.354,257.361,255.803,242.097,0.488959,0.477527,226.499,238.714
2015-12-12 14:00,0.127261,287.155,280.308,254.926,281.799,278.609,255.027,0.189386,0.136947,227.601,246.258
2015-12-12 15:00,0.246147,283.428,273.997,251.18,276.315,274.773,253.368,0.294698,0.279264,227.329,246.929
2015-12-12 16:00,0.149128,282.753,273.065,251.056,275.703,272.883,252.335,0.183591,0.162071,227.147,245.804
2015-12-12 17:00,0.165983,286.421,273.065,250.681,275.55,273.2,252.594,0.192439,0.169594,226.871,246.145
2015-12-12 18:00,0.368348,282.234,274.916,250.806,277.528,275.861,252.982,0.492664,0.468506,225.931,245.575
2015-12-12 19:00,0.442683,282.581,277.852,253.501,280.785,279.211,254.773,0.464763,0.435377,226.405,246.929
2015-12-12 20:00,1.00093,273.586,254.509,241.207,253.269,249.348,235.227,0.830352,0.985466,222.04,235.146
2015-12-12 21:00,0.0153537,276.811,271.023,249.542,271.625,269.165,247.279,0.0,0.0,225.058,242.725
2015-12-12 22:00,0.00392311,268.073,253.595,240.171,251.856,248.532,234.76,0.0,0.0,220.57,232.669
2015-12-12 23:00,0.0,281.165,274.916,251.922,276.468,273.517,250.104,0.0,0.0,224.661,242.971
2015-12-13 00:00,-0.0016649,275.02,265.545,246.13,265.31,262.008,243.383,0.0,0.0,223.746,238.441
2015-12-13 01:00,0.00136435,266.466,251.147,239.419,248.733,245.186,233.819,0.0,0.0,221.484,232.347
2015-12-13 02:00,-0.00121133,249.89,240.984,233.681,239.669,238.515,231.419,0.0,0.0,223.224,232.508
2015-12-13 03:00,0.00114665,242.013,237.086,231.973,236.441,236.157,230.768,0.0,0.0,224.054,231.364
2015-12-13 04:00,0.00115011,277.661,271.574,250.177,272.741,270.635,250.633,0.0,-0.00129566,227.147,243.457
2015-12-13 05:00,0.0,288.012,287.212,259.134,290.5,288.027,260.461,0.0,0.0,228.136,248.025
2015-12-13 06:00,-0.00138752,287.01,285.433,257.91,288.493,285.35,258.882,0.0,0.0,228.488,247.917
2015-12-13 07:00,-0.00171025,284.41,282.214,255.51,284.361,279.959,254.9,0.0,0.0,228.488,246.929
2015-12-13 08:00,-0.00238607,269.283,257.339,241.936,257.739,252.144,239.618,0.0,0.0,226.963,239.39
2015-12-13 09:00,0.00425238,271.261,262.141,244.21,261.791,255.045,241.229,0.0,0.0,226.592,240.185
2015-12-13 10:00,-0.0220126,278.482,272.12,249.542,274.0,268.339,247.687,-0.152116,-0.14879,228.4,244.647
2015-12-13 11:00,0.626917,284.41,256.469,241.354,255.827,251.156,237.07,0.618891,0.665192,227.329,238.578
2015-12-13 12:00,0.336416,285.97,269.485,247.465,269.842,265.48,245.072,0.371568,0.352723,224.86,240.576
2015-12-13 13:00,0.513175,280.239,250.76,238.195,251.447,250.357,238.577,0.529426,0.562493,225.739,239.255
2015-12-13 14:00,0.222732,287.3,270.049,248.252,272.264,268.007,248.094,0.236795,0.21875,225.546,243.577
2015-12-13 15:00,0.430076,274.073,253.04,239.115,255.244,254.855,243.241,0.498784,0.537679,226.499,241.728
2015-12-13 16:00,0.31957,282.059,256.992,240.913,259.421,258.591,245.072,0.344947,0.363968,226.499,242.602
2015-12-13 17:00,0.158291,287.444,271.711,247.859,273.372,269.821,249.838,0.179133,0.171799,227.147,244.881
2015-12-13 18:00,0.258875,292.053,275.046,250.806,278.278,274.929,252.335,0.250872,0.246152,227.691,244.764
2015-12-13 19:00,0.476895,294.491,270.049,248.512,273.057,269.329,249.305,0.443096,0.462189,226.963,244.294
2015-12-13 20:00,0.217272,283.924,281.148,252.899,284.921,283.629,258.023,0.338235,0.310666,226.685,247.917
2015-12-13 21:00,0.0155732,284.41,283.726,254.217,287.543,286.06,259.249,0.0,-0.017544,227.78,251.652
2015-12-13 22:00,0.0,284.57,285.095,254.336,288.493,287.469,259.856,0.0,0.0,234.113,256.091
2015-12-13 23:00,-0.00229052,288.012,288.303,256.32,291.686,290.375,262.017,0.0,0.0,239.593,258.967
2015-12-14 00:00,0.00500114,288.152,288.52,256.549,291.686,290.238,262.017,0.0,0.0,238.795,260.463
2015-12-14 01:00,0.00136536,287.3,287.651,256.089,290.632,289.137,262.136,0.0,0.0,238.608,261.595
2015-12-14 02:00,-0.00121169,287.444,287.76,256.434,291.029,289.964,262.136,0.0,0.0,236.742,260.789
2015-12-14 03:00,-0.00114652,287.587,288.303,256.778,291.423,290.238,262.61,0.0,0.0,236.742,260.545
2015-12-14 04:00,0.0,284.888,285.546,255.742,288.628,287.609,261.421,0.0,0.0,236.274,259.804
2015-12-14 05:00,0.0,287.3,287.212,256.549,290.5,288.999,261.898,0.0,0.0,236.207,258.543
2015-12-14 06:00,0.0,287.587,287.432,256.434,290.632,288.861,261.182,0.0,0.0,236.542,257.682
2015-12-14 07:00,0.00170596,287.729,287.869,257.12,291.16,290.101,261.54,0.0,0.0,234.472,257.07
2015-12-14 08:00,0.0,280.239,274.392,249.669,274.312,270.635,248.499,0.0,0.0,228.575,248.562
2015-12-14 09:00,0.00421964,279.859,272.256,248.382,272.899,269.0,246.869,0.0,0.0,227.147,246.818
2015-12-14 10:00,-0.0211448,256.062,235.011,230.565,230.574,227.517,220.675,-0.104371,-0.0952829,214.441,222.956
2015-12-14 11:00,0.354574,271.798,258.365,240.913,257.55,255.045,238.876,0.474006,0.482663,223.642,240.316
2015-12-14 12:00,0.438756,263.255,238.585,232.146,236.441,233.722,225.36,0.555476,0.588609,217.881,225.994
2015-12-14 13:00,0.338601,267.444,246.313,235.337,245.248,243.243,233.503,0.453321,0.470283,222.476,233.617
2015-12-14 14:00,0.330037,264.377,231.14,229.301,227.708,224.756,219.739,0.423744,0.444874,215.31,221.658
2015-12-14 15:00,0.37351,263.255,215.218,223.076,211.825,209.859,211.57,0.485617,0.532559,209.206,210.984
2015-12-14 16:00,0.0124371,288.568,287.978,258.358,290.897,289.137,262.492,0.0526523,0.0286994,231.865,255.457
2015-12-14 17:00,0.00976012,288.705,288.195,258.358,291.292,289.689,262.255,0.0495833,0.0275896,232.328,255.457
2015-12-14 18:00,0.00959873,288.568,288.52,258.469,291.686,289.964,262.728,0.0609542,0.0314941,233.603,255.821
2015-12-14 19:00,0.0884512,289.91,287.76,258.246,290.897,288.999,262.61,0.146787,0.110728,235.455,256.091
2015-12-14 20:00,0.461487,289.113,285.658,256.892,288.763,286.907,261.301,0.419158,0.465899,235.867,255.911
2015-12-14 21:00,-0.0159921,278.279,278.845,252.899,281.799,281.441,259.614,0.0,0.0,237.849,256.716
2015-12-14 22:00,0.0,277.661,278.474,252.29,281.221,280.702,259.977,0.0,0.0,237.528,256.716
2015-12-14 23:00,-0.00232126,277.451,278.35,252.534,281.221,280.702,259.492,0.0,0.0,237.137,256.45
2015-12-15 00:00,0.00168799,288.291,287.978,257.572,290.234,288.167,261.779,0.0,0.0,237.721,257.421
2015-12-15 01:00,-0.00138173,275.48,276.463,251.429,279.318,278.911,258.882,0.0,0.0,237.203,256.805
2015-12-15 02:00,0.0,277.026,277.601,251.799,280.201,279.81,258.27,0.0,0.0,235.936,256.181
2015-12-15 03:00,0.0,275.707,276.845,251.552,279.76,279.211,258.638,0.0,0.0,236.609,256.091
2015-12-15 04:00,0.0,278.075,276.591,251.676,278.576,276.477,255.406,0.0,0.0,234.257,253.117
2015-12-15 05:00,0.0,285.202,282.682,254.808,284.641,281.882,257.406,0.0,0.0,233.896,253.309
2015-12-15 06:00,-0.00139851,286.421,284.642,256.089,286.997,284.205,258.882,0.0,0.0,233.968,253.309
2015-12-15 07:00,0.0,287.729,286.992,257.12,289.835,287.469,261.182,0.0,0.0,236.139,254.999
2015-12-15 08:00,0.0,285.512,282.448,255.16,284.22,281.293,256.909,0.0,0.0,232.405,251.051
2015-12-15 09:00,0.0,282.923,279.702,253.501,281.655,278.911,255.658,0.0,0.0,231.787,250.849
2015-12-15 10:00,-0.020588,281.883,275.306,251.552,276.315,272.883,250.633,-0.0871589,-0.0831391,230.266,247.808
2015-12-15 11:00,0.113516,287.3,284.869,256.778,287.543,285.208,259.249,0.313973,0.221563,231.076,251.949
2015-12-15 12:00,0.0306445,288.568,287.651,258.913,290.897,288.999,262.373,0.152797,0.0859373,233.75,253.88
2015-12-15 13:00,0.014115,288.568,287.869,258.691,291.029,289.137,262.373,0.0976012,0.0522498,235.317,254.536
2015-12-15 14:00,0.0135303,288.43,287.978,259.134,291.292,289.551,262.492,0.0720098,0.0390276,234.827,254.629
2015-12-15 15:00,0.0389906,287.3,282.916,256.205,284.22,281.293,255.658,0.0870349,0.0644127,231.709,251.452
2015-12-15 16:00,0.108438,288.841,284.3,257.346,287.543,285.493,260.581,0.124927,0.111269,231.394,252.828
2015-12-15 17:00,0.0253728,288.291,286.217,258.246,289.166,287.048,261.062,0.0677545,0.0413787,231.787,252.047
2015-12-15 18:00,0.0191786,288.705,287.651,259.134,290.764,288.722,262.373,0.0791627,0.0484049,233.968,253.117
2015-12-15 19:00,0.123528,290.171,287.212,258.358,290.367,288.445,261.898,0.179299,0.142524,232.784,253.213
2015-12-15 20:00,0.074945,288.841,287.541,258.58,290.764,288.722,262.492,0.162165,0.134509,230.43,253.405
2015-12-15 22:00,0.0,288.43,288.628,258.913,291.686,290.238,263.083,0.0,0.0,230.266,256.001
2015-12-15 23:00,0.0,288.291,288.736,259.464,291.555,289.826,263.318,0.0,0.0,231.473,257.07
2015-12-16 00:00,0.0,288.152,288.412,258.802,291.16,289.551,262.965,0.0,0.0,231.787,257.246
2015-12-16 01:00,0.0,288.291,288.303,258.913,291.16,289.551,263.083,0.0,0.0,232.709,258.372
2015-12-16 02:00,0.00122609,287.155,287.541,258.358,290.367,288.722,262.61,0.0,0.00123781,231.865,257.508
2015-12-16 03:00,0.0,287.587,287.432,258.58,290.101,288.445,263.083,0.0,0.0,232.481,257.682
2015-12-16 04:00,-0.00116117,287.871,288.303,259.024,291.029,289.551,262.847,0.0,0.0,232.709,258.543
2015-12-16 05:00,0.0012327,270.434,258.195,242.369,256.406,253.316,239.765,0.0,0.00124449,226.027,239.789
2015-12-16 06:00,-0.0013963,275.02,264.482,245.451,264.095,261.654,244.792,0.0,0.0,228.4,245.46
2015-12-16 07:00,-0.00171664,287.3,286.882,257.685,289.835,288.027,262.728,0.0,0.0,231.156,255.457
2015-12-16 08:00,0.0,288.568,288.628,258.691,291.686,289.964,263.083,0.0,0.0,231.315,256.091
2015-12-16 09:00,-0.00420392,287.729,288.195,258.691,291.292,289.689,263.083,0.0,0.0,230.755,255.911
2015-12-16 10:00,-0.0198679,288.568,288.951,259.244,291.948,290.375,263.787,-0.100933,-0.100289,230.996,255.821
2015-12-16 11:00,0.0459931,288.841,288.736,259.134,291.948,290.238,263.67,0.279086,0.162515,230.996,255.457
2015-12-16 12:00,0.0205357,288.841,288.736,259.134,291.948,290.101,263.553,0.144896,0.0794727,230.43,255.183
2015-12-16 13:00,0.0212358,289.381,288.736,259.793,291.817,290.238,263.2,0.0998907,0.0547881,230.996,255.457
2015-12-16 14:00,0.0774587,290.301,287.432,258.913,290.5,289.137,263.318,0.12297,0.0997039,231.156,255.73
2015-12-16 15:00,0.0354833,289.647,288.087,259.354,291.029,289.137,263.083,0.0751092,0.0537338,231.943,255.639
2015-12-16 16:00,0.00889179,288.977,288.52,259.574,291.292,289.413,262.728,0.0527007,0.0287257,233.456,255.73
2015-12-16 17:00,0.0351212,289.779,288.087,259.574,291.029,289.137,263.318,0.0726907,0.047276,234.543,256.091
2015-12-16 18:00,0.117332,291.19,287.212,258.913,289.968,288.027,262.492,0.150031,0.13054,236.274,256.36
2015-12-16 19:00,0.0387178,289.91,288.843,259.902,291.686,290.101,263.2,0.122189,0.0781759,236.274,256.271
2015-12-16 20:00,0.322141,289.91,287.978,259.354,291.029,289.413,262.965,0.356681,0.358577,237.203,256.091
2015-12-16 21:00,0.0,286.569,286.55,258.58,289.568,288.027,262.492,0.0,0.0,236.808,256.36
2015-12-16 22:00,0.00403331,278.279,280.066,255.277,283.514,283.194,261.182,0.0,0.00407187,236.609,256.36
2015-12-16 23:00,0.0,284.249,284.528,257.91,287.679,286.202,262.136,0.0,0.0,237.333,256.271
2015-12-17 00:00,-0.0016929,287.01,286.882,259.134,289.835,288.027,262.965,0.0,0.0,237.977,256.539
2015-12-17 01:00,0.0,285.665,285.994,258.691,289.032,287.469,262.728,0.0,0.0,238.671,256.982
2015-12-17 02:00,-0.00122656,288.841,288.628,260.119,291.555,289.826,263.2,0.0,0.0,238.608,257.508
2015-12-17 03:00,0.00115911,288.705,288.736,260.011,291.686,289.964,263.318,0.0,0.0,238.608,257.508
2015-12-17 04:00,0.0,288.152,288.412,260.011,291.292,289.689,263.318,0.0,0.0,238.733,258.028
2015-12-17 05:00,0.0,279.667,282.096,256.664,285.061,284.779,261.421,0.0,0.0,238.981,258.372
2015-12-17 06:00,0.0,288.43,288.52,260.119,291.029,289.137,263.318,0.0,0.0,238.795,258.2
2015-12-17 07:00,0.0,283.594,283.38,257.572,286.722,285.635,261.54,0.0,0.0,239.043,257.855
2015-12-17 08:00,0.00237538,277.661,279.336,255.043,283.088,282.758,260.822,0.0,0.0,239.166,257.855
2015-12-17 09:00,0.0,277.661,279.213,255.16,282.803,282.467,260.942,0.0,0.0,238.857,257.682
2015-12-17 10:00,-0.0192127,277.24,279.702,255.16,283.23,283.049,261.062,-0.130139,-0.135775,238.733,257.682
2015-12-17 11:00,0.589962,285.357,280.669,255.742,284.361,284.061,261.301,0.604682,0.579928,238.231,257.595
2015-12-17 12:00,0.495325,290.429,281.148,255.974,284.501,283.773,260.942,0.47764,0.461861,238.42,256.982
2015-12-17 13:00,0.343103,291.065,282.214,256.664,285.201,284.205,261.421,0.334581,0.308161,237.592,256.716
2015-12-17 14:00,0.500459,285.818,279.336,254.926,282.517,281.882,260.34,0.500931,0.50916,237.657,256.539
2015-12-17 15:00,0.440397,283.76,278.101,254.336,281.076,280.702,260.098,0.568346,0.577272,237.977,256.45
2015-12-17 16:00,0.371768,282.753,279.336,255.277,282.231,281.588,259.856,0.515087,0.510007,238.42,256.716
2015-12-17 17:00,0.438817,285.512,277.098,253.741,280.347,280.108,259.249,0.546585,0.553272,238.546,257.158
2015-12-17 18:00,0.533255,287.155,276.971,253.86,280.347,280.108,259.005,0.656,0.688029,238.733,257.855
2015-12-17 19:00,0.533425,286.717,280.429,255.742,283.514,282.613,260.098,0.549706,0.552696,238.231,257.855
2015-12-17 20:00,0.884449,283.924,279.458,254.926,283.23,282.467,260.461,0.69339,0.777157,238.357,257.682
2015-12-17 21:00,0.0168788,275.48,277.476,253.741,280.785,280.406,260.219,0.0,-0.0170401,237.977,257.421
2015-12-17 22:00,0.0,275.02,276.971,253.261,280.639,280.406,259.735,0.0,0.0,238.357,257.421
2015-12-17 23:00,-0.0023382,280.799,282.331,255.626,285.757,285.065,262.136,0.0,0.0,237.528,258.028
2015-12-18 00:00,0.0,278.482,281.148,255.16,284.361,284.061,261.54,0.0,0.0,236.542,258.713
2015-12-18 01:00,-0.00138533,281.705,282.566,255.974,285.34,284.922,261.301,0.0,0.0,238.671,259.97
2015-12-18 02:00,0.0,285.97,285.882,258.691,288.358,286.907,262.373,0.0,0.0,239.714,260.052
2015-12-18 03:00,0.0,276.376,278.968,254.926,281.943,281.882,260.461,0.0,0.0,240.074,259.471
2015-12-18 04:00,0.0,286.569,286.328,258.134,288.628,286.907,262.492,0.0,0.0,243.579,261.675
2015-12-18 05:00,0.0,286.864,287.432,257.798,289.701,288.445,262.965,0.0,0.0,245.709,263.858
2015-12-18 06:00,0.0,286.421,286.882,257.685,288.897,287.469,262.373,0.0,0.0,246.059,264.989
2015-12-18 07:00,0.0,288.152,288.52,259.024,290.764,289.137,263.905,0.0,0.0,245.709,264.914
2015-12-18 08:00,0.0,288.291,289.165,258.913,291.292,290.101,263.436,0.0,0.0,245.709,265.434
2015-12-18 09:00,0.0,288.568,289.272,259.024,291.555,290.101,264.022,0.0,0.0,245.859,266.673
2015-12-18 10:00,-0.0186149,288.152,288.843,258.913,290.897,289.551,263.67,-0.0945675,-0.0939645,244.842,266.456
2015-12-18 11:00,0.0943078,289.113,289.165,259.244,291.029,289.826,263.67,0.292784,0.182485,244.894,266.094
2015-12-18 12:00,0.421673,292.174,281.978,255.742,285.061,284.922,261.898,0.412633,0.425704,244.583,265.655
2015-12-18 13:00,0.225394,292.053,283.841,256.549,286.86,286.202,262.492,0.249097,0.229944,244.058,265.581
2015-12-18 14:00,0.380787,288.841,281.267,255.043,284.22,284.205,262.017,0.338861,0.360891,244.006,265.286
2015-12-18 15:00,0.0568695,289.647,287.322,258.358,289.701,288.445,263.318,0.0872743,0.0627956,243.633,265.286
2015-12-18 16:00,0.00889486,288.977,289.272,259.574,291.555,290.238,263.787,0.0497063,0.0251437,243.147,265.212
2015-12-18 17:00,0.0760153,289.91,288.195,258.58,290.5,289.413,263.67,0.0973682,0.0806774,242.433,264.765
2015-12-18 18:00,0.0429768,290.041,289.058,259.134,291.555,290.375,264.022,0.0828846,0.0602606,242.322,264.615
2015-12-18 19:00,0.0559698,289.91,289.486,259.574,291.817,290.784,263.905,0.115512,0.0776942,241.986,264.314
2015-12-18 20:00,0.19477,289.91,289.165,259.464,291.555,290.238,263.905,0.254239,0.221211,238.919,263.09
2015-12-18 21:00,0.0,288.43,288.843,259.354,291.292,289.826,263.67,0.0,0.0,238.981,262.935
2015-12-18 22:00,-0.00407256,286.421,287.541,258.58,289.701,288.722,263.787,0.0,0.0,238.608,262.779
2015-12-18 23:00,-0.00234437,281.705,282.916,256.089,285.895,285.35,262.255,0.0,0.0,239.471,262.545
2015-12-19 00:00,-0.00169825,286.569,287.869,259.024,290.101,289.551,263.436,0.0,0.0,239.834,263.244
2015-12-19 01:00,0.0,288.43,289.272,259.574,291.555,290.238,263.67,0.0,0.0013999,239.288,263.09
2015-12-19 02:00,0.0,282.923,284.3,257.233,286.86,286.343,262.965,0.0,0.0,239.043,262.701
2015-12-19 03:00,0.00115907,288.152,289.165,259.902,291.817,290.375,264.138,0.0,0.0,239.471,263.09
2015-12-19 04:00,0.00115956,287.871,288.52,259.464,291.292,290.238,264.138,0.0,0.0,238.981,263.012
2015-12-19 05:00,-0.00122923,284.888,286.328,258.358,288.897,288.306,263.2,0.0,0.0,238.671,262.857
2015-12-19 06:00,0.0,287.729,288.736,259.464,291.16,289.964,263.318,0.0,0.0,238.919,262.701
2015-12-19 07:00,-0.00170464,287.729,289.058,259.793,291.817,290.784,264.605,0.0,0.0,238.795,262.466
2015-12-19 08:00,0.0,288.977,290.017,260.337,292.73,291.6,264.372,0.0,0.0,238.231,262.545
2015-12-19 09:00,-0.00411746,288.568,289.486,260.337,292.6,291.329,264.255,0.0,0.0,238.608,262.309
2015-12-19 10:00,-0.0180684,289.113,290.123,260.661,293.119,292.141,264.721,-0.0917909,-0.0912056,239.532,262.388
2015-12-19 11:00,0.0556798,289.247,290.335,260.984,293.377,292.679,265.069,0.276129,0.160606,240.371,262.779
2015-12-19 12:00,0.0173615,289.381,290.229,260.769,293.248,292.141,264.721,0.13818,0.077121,241.189,262.857
2015-12-19 13:00,0.0118927,289.381,290.017,260.876,293.119,292.276,264.721,0.0886121,0.0456244,241.533,263.012
2015-12-19 14:00,0.00583662,289.381,290.229,260.876,293.119,292.006,264.953,0.0658914,0.0294621,241.986,263.476
2015-12-19 15:00,0.00533491,289.113,290.123,260.661,292.989,292.276,264.488,0.0511933,0.0233389,242.266,263.629
2015-12-19 16:00,0.00711558,289.113,290.123,260.337,292.86,291.871,264.605,0.0451856,0.0233467,241.76,263.322
2015-12-19 17:00,0.0175286,289.113,289.379,260.661,292.079,290.784,264.022,0.0544185,0.0314598,241.189,262.779
2015-12-19 18:00,0.0333688,289.779,289.379,260.228,292.209,290.648,264.255,0.0766876,0.0457192,241.131,262.701
2015-12-19 19:00,0.0801789,290.301,289.272,260.228,292.079,290.511,263.905,0.132823,0.0985422,240.957,262.545
2015-12-19 20:00,0.393889,289.779,288.303,259.793,290.897,289.276,263.2,0.36073,0.348962,240.841,262.23
2015-12-19 21:00,-0.0176192,287.871,288.52,260.011,291.292,289.551,263.2,0.0,0.0,240.489,261.755
2015-12-19 22:00,0.00409374,287.729,287.869,259.574,290.5,288.722,262.965,0.0,0.0,240.548,261.033
2015-12-19 23:00,0.0,287.444,287.541,259.464,290.101,288.306,262.728,0.0,0.0,240.193,261.033
2015-12-20 00:00,0.0,285.97,285.321,258.358,288.358,286.626,262.255,0.0,0.0,240.253,261.033
2015-12-20 01:00,0.0,286.864,286.661,258.913,289.3,287.609,262.255,0.0,-0.00140128,239.714,260.463
2015-12-20 02:00,0.0,287.155,287.541,260.011,290.234,288.584,262.847,0.0,0.0,239.043,260.545
2015-12-20 03:00,0.0,287.155,287.541,259.574,290.101,288.306,262.847,0.0,0.0,239.349,260.952
2015-12-20 04:00,-0.00115907,288.43,288.736,259.683,291.16,289.276,262.61,0.0,0.0,238.981,260.871
2015-12-20 05:00,0.0,287.871,288.628,259.683,291.16,289.689,262.728,0.0,0.0,239.774,261.435
2015-12-20 06:00,0.0,287.871,288.52,259.793,291.292,289.689,263.553,0.0,0.0,240.014,261.275
2015-12-20 07:00,0.00170082,286.864,287.651,259.024,290.367,288.861,263.083,0.0,0.0,239.593,261.033
2015-12-20 08:00,-0.00234975,286.569,287.541,259.134,289.835,288.306,262.136,0.0,0.0,239.471,260.463
2015-12-20 09:00,0.0,287.01,287.541,259.134,289.968,288.306,262.965,0.0,0.0,239.532,260.627
2015-12-20 10:00,-0.0175678,287.729,288.087,259.244,290.367,288.445,262.61,-0.0743729,-0.0709428,239.471,260.545
2015-12-20 11:00,0.112675,288.977,288.412,259.683,290.897,289.276,262.373,0.333906,0.219379,239.714,260.789
2015-12-20 12:00,0.10463,289.779,288.087,259.464,290.764,289.276,262.847,0.19785,0.14084,240.371,261.113
2015-12-20 13:00,0.100134,290.301,287.76,259.134,290.5,288.861,262.61,0.155436,0.115533,240.074,261.033
2015-12-20 14:00,0.011688,288.43,288.52,259.354,291.292,289.689,262.61,0.0676243,0.0373659,240.607,260.871
2015-12-20 15:00,0.00711672,288.43,288.736,259.683,291.292,289.689,262.965,0.0512186,0.0251466,240.312,260.545
2015-12-20 16:00,0.0106714,288.568,288.195,259.574,290.764,289.137,262.373,0.0481889,0.0251379,240.371,260.135
2015-12-20 17:00,0.0077833,288.568,288.303,259.793,290.897,288.999,261.779,0.0494258,0.0255375,239.774,259.387
2015-12-20 18:00,0.0832634,290.171,287.322,259.134,290.234,288.445,262.017,0.114813,0.0912644,240.074,258.798
2015-12-20 19:00,0.208391,290.171,286.992,259.244,289.568,288.306,261.898,0.238199,0.210383,239.288,258.457
2015-12-20 20:00,0.326318,288.43,286.882,259.134,289.568,288.027,262.017,0.35042,0.337472,239.043,258.2
2015-12-20 21:00,-0.0180425,288.012,287.869,259.244,290.5,9.96921e+36,261.66,0.0,0.0,239.41,258.028
2015-12-20 22:00,0.00411598,287.871,288.195,259.574,290.764,288.861,262.136,0.0,0.0,238.981,257.942
2015-12-20 23:00,0.0,288.012,287.978,259.574,290.764,288.861,262.492,0.0,0.0,239.227,258.2
2015-12-21 00:00,0.0,288.012,288.303,259.683,290.897,289.137,262.492,0.0,0.0,239.41,258.028
2015-12-21 01:00,0.0,288.152,288.52,259.793,291.555,289.689,262.136,0.0,0.0,239.834,258.286
2015-12-21 02:00,0.0,287.871,288.195,259.683,290.764,288.861,262.728,0.0,0.0,240.193,258.543
2015-12-21 03:00,-0.00115913,287.871,288.087,259.793,290.5,288.445,262.017,0.0,0.0,240.014,258.798
2015-12-21 04:00,0.0,287.444,287.869,259.683,290.367,288.306,261.898,0.0,0.00116968,239.288,258.967
2015-12-21 05:00,0.00122705,275.48,277.727,253.381,280.639,280.406,259.249,0.0,0.0,239.104,258.882
2015-12-21 06:00,0.0,286.569,286.328,258.358,288.358,286.626,261.301,0.0,0.0,239.714,259.554
2015-12-21 07:00,0.0,287.3,287.541,258.802,289.835,288.167,262.017,0.0,0.0,239.774,259.887
2015-12-21 08:00,0.0,285.665,286.328,258.469,288.763,287.329,261.301,0.0,0.0,237.072,259.135
2015-12-21 09:00,0.0,287.871,287.651,259.793,290.101,288.167,261.66,0.0,0.0,234.686,257.682
2015-12-21 10:00,-0.0171084,287.587,287.322,259.683,289.701,287.469,261.66,-0.0724284,-0.0690879,233.603,257.07
2015-12-21 11:00,0.065125,288.152,287.102,259.793,289.434,287.188,260.822,0.303277,0.172587,231.943,255.911
2015-12-21 12:00,0.0525349,288.568,286.55,259.574,288.897,286.626,260.822,0.169029,0.102538,231.943,255.275
2015-12-21 13:00,0.0119468,288.291,287.432,260.228,289.968,287.609,261.301,0.0930615,0.0482442,231.865,255.183
2015-12-21 14:00,0.0156015,288.291,287.212,260.119,289.434,287.048,261.301,0.0710024,0.0393766,231.315,254.536
2015-12-21 15:00,0.00711922,287.729,287.102,260.011,289.434,287.048,261.54,0.0527436,0.0251555,230.593,253.595
2015-12-21 16:00,0.0106678,288.152,286.992,259.683,289.3,286.907,261.062,0.0496783,0.0269245,230.43,253.213
2015-12-21 17:00,0.00777493,288.152,287.212,259.793,289.835,287.329,260.822,0.0493727,0.0235478,229.517,252.439
2015-12-21 18:00,0.0189921,288.43,287.322,259.464,289.835,287.748,260.822,0.0643222,0.0359505,229.852,252.828
2015-12-21 19:00,0.062272,288.705,287.102,259.464,289.568,287.329,260.942,0.123026,0.0873157,230.018,253.309
2015-12-21 20:00,0.315078,287.729,283.726,257.459,285.895,283.484,258.515,0.33347,0.333995,227.959,250.95
2015-12-21 21:00,-0.0185059,277.026,268.054,248.512,265.482,260.584,242.527,0.0,0.0,223.746,242.105
2015-12-21 22:00,0.00413928,259.505,246.733,236.625,243.667,241.475,232.707,0.0,0.0,223.013,232.022
2015-12-21 23:00,0.0,285.512,284.3,257.798,286.447,284.061,259.127,0.0,0.0,228.835,251.751
2015-12-22 00:00,0.00170706,285.818,285.095,258.246,287.815,285.493,260.098,0.0,0.0,228.312,250.748
2015-12-22 01:00,0.0013909,287.729,286.661,259.354,289.434,287.048,260.581,0.0,0.0,227.959,250.95
2015-12-22 02:00,-0.00122942,284.57,284.3,258.022,286.997,284.779,259.856,0.0,0.0,228.835,250.95
2015-12-22 03:00,0.0,287.155,285.994,259.354,288.493,286.06,260.098,0.0,0.0,228.575,249.721
2015-12-22 04:00,-0.00115815,285.818,285.321,258.691,287.951,285.635,259.614,0.0,0.0,228.312,249.513
2015-12-22 05:00,-0.001226,272.58,268.487,248.771,269.021,267.171,248.499,0.0,0.0,226.122,242.971
2015-12-22 06:00,0.0,285.512,285.433,258.134,288.222,286.343,260.461,0.0,0.0,231.473,253.5
2015-12-22 07:00,0.0,287.01,287.541,258.913,290.632,288.861,262.136,0.0,0.0,239.104,257.07
2015-12-22 08:00,0.00233385,287.444,287.651,258.691,290.764,289.137,262.136,0.0,0.0,245.405,260.052
2015-12-22 09:00,0.0,285.97,286.661,257.91,289.568,288.027,261.779,0.0,0.0,246.208,260.381
2015-12-22 10:00,-0.0166865,286.271,286.661,258.358,289.568,288.306,261.898,-0.0423853,-0.050538,244.269,260.217
2015-12-22 11:00,0.485641,288.012,285.77,257.91,288.763,287.329,261.54,0.564517,0.556762,244.322,260.789
2015-12-22 12:00,0.175816,288.568,285.095,257.233,287.951,286.626,261.54,0.267953,0.227195,243.364,260.135
2015-12-22 13:00,0.114921,289.91,287.212,258.58,290.101,288.584,262.017,0.172309,0.135357,243.526,260.052
2015-12-22 14:00,0.0546581,288.977,287.76,258.691,290.367,288.722,262.492,0.0958635,0.0689758,243.686,260.135
2015-12-22 15:00,0.0106811,288.705,288.951,259.464,291.686,289.826,263.083,0.0557691,0.0287551,243.899,260.052
2015-12-22 16:00,0.0124399,288.705,289.058,260.119,291.948,290.511,262.965,0.052664,0.0287058,244.006,260.871
2015-12-22 17:00,0.0407683,289.247,288.087,259.244,291.029,289.413,262.373,0.0772555,0.0548773,244.374,261.194
2015-12-22 18:00,0.270027,288.977,284.642,257.572,287.679,286.485,261.54,0.30083,0.301304,244.374,261.435
2015-12-22 19:00,0.144699,290.041,287.651,259.134,290.5,288.999,262.373,0.183774,0.159994,244.006,261.515
2015-12-22 20:00,0.124684,288.977,289.058,259.793,291.817,290.238,262.728,0.224336,0.17308,243.472,262.466
2015-12-22 21:00,0.0,288.152,289.058,259.793,291.817,290.648,262.728,0.0,0.0,243.472,262.545
2015-12-22 22:00,0.00416366,286.864,287.978,259.134,290.632,289.276,262.847,-0.00352537,0.0,243.633,262.701
2015-12-22 23:00,-0.00237169,287.729,288.303,259.793,291.16,289.689,262.61,0.0,0.0,243.364,262.23
2015-12-23 00:00,0.0,287.729,288.195,259.574,290.897,289.276,262.965,0.0,0.0,243.418,261.993
2015-12-23 01:00,0.0,287.729,288.412,259.793,290.897,289.137,262.728,0.0,0.0,243.147,261.914
2015-12-23 02:00,0.00123009,287.587,287.978,259.464,290.5,288.861,262.728,0.0,0.0,242.433,262.072
2015-12-23 03:00,0.00115928,287.444,287.869,259.354,290.632,289.137,262.373,0.0,0.0,241.015,261.675
2015-12-23 04:00,0.0,287.444,288.195,259.902,291.029,289.551,262.965,0.0,0.0,239.471,261.435
2015-12-23 05:00,0.0,288.152,289.165,260.445,292.079,290.784,263.67,0.0,0.0,237.592,261.355
2015-12-23 06:00,0.0,287.587,288.843,260.337,291.817,290.511,263.67,0.0,0.0,237.592,261.033
2015-12-23 07:00,0.0,286.569,287.541,259.354,290.5,289.276,263.083,0.0,0.0,236.808,260.708
2015-12-23 08:00,0.0,288.012,289.165,260.011,292.209,290.921,263.436,0.0,0.0,237.137,261.033
2015-12-23 09:00,0.0,286.864,287.869,259.354,290.764,289.276,262.61,0.0,0.0,237.072,260.708
2015-12-23 10:00,-0.0162985,288.152,289.058,260.011,291.817,290.375,262.965,-0.0551997,-0.0822716,236.874,260.381
2015-12-23 11:00,0.224631,289.247,288.412,259.683,291.029,290.101,262.965,0.387434,0.302372,236.542,260.217
2015-12-23 12:00,0.0282365,289.113,289.593,260.011,292.47,291.464,263.436,0.152412,0.0890827,236.542,259.97
2015-12-23 13:00,0.081553,289.91,288.52,259.683,291.292,289.964,263.436,0.150287,0.10897,237.657,260.217
2015-12-23 14:00,0.0742394,289.381,287.212,259.024,289.968,288.584,261.898,0.114138,0.0808662,237.137,259.887
2015-12-23 15:00,0.072992,288.152,286.992,258.913,289.568,288.306,262.492,0.116068,0.0862709,236.742,259.471
2015-12-23 16:00,0.0444005,288.705,287.651,259.134,290.234,288.584,262.61,0.0812027,0.0591689,236.207,259.135
2015-12-23 17:00,0.0600987,289.247,287.978,259.464,290.632,289.137,262.728,0.095205,0.0743736,236.341,258.967
2015-12-23 18:00,0.0567097,289.647,287.978,259.683,290.5,288.861,262.965,0.0940314,0.0667938,236.808,259.804
2015-12-23 19:00,0.449351,287.587,282.682,256.089,285.34,284.922,261.301,0.455977,0.495202,236.207,259.804
2015-12-23 20:00,0.585705,288.568,284.982,257.798,287.815,286.907,261.779,0.48939,0.567963,234.686,259.471
2015-12-23 21:00,0.0,287.155,288.195,259.683,290.764,289.276,262.847,0.0,0.0,235.178,259.387
2015-12-23 22:00,0.0,285.97,286.772,258.691,289.3,288.167,262.373,0.0,0.0,235.731,259.97
2015-12-23 23:00,-0.00237917,285.97,286.661,259.024,289.3,288.027,262.492,0.0,0.0,236.408,260.135
2015-12-24 00:00,0.0,288.291,289.058,260.769,291.817,290.648,263.436,0.0,0.0,237.137,260.463
2015-12-24 01:00,-0.001394,284.73,285.994,259.134,288.897,287.748,262.847,0.0,0.0,237.785,260.217
2015-12-24 02:00,-0.00123079,287.587,288.628,260.553,291.16,289.826,263.436,0.0,0.0,238.231,259.97
2015-12-24 03:00,-0.00115939,286.421,287.541,259.793,290.234,288.861,262.965,0.0,0.0,238.671,259.471
2015-12-24 04:00,0.0,285.512,286.217,259.134,289.032,287.888,262.255,0.0,0.0,238.483,259.051
2015-12-24 05:00,-0.001224,287.871,288.303,260.553,291.029,289.551,262.847,0.0,0.0,238.104,258.372
2015-12-24 06:00,0.00138022,288.152,288.843,260.661,291.817,290.375,263.2,0.0,0.0,237.203,257.158
2015-12-24 07:00,-0.00168648,288.152,288.736,260.553,291.948,290.511,263.318,0.0,0.0,236.742,256.805
2015-12-24 08:00,0.0,287.871,288.52,260.553,291.686,290.238,262.847,0.0,0.0,237.268,256.628
2015-12-24 09:00,0.0,288.152,288.52,260.228,291.817,290.511,263.436,0.0,0.0,236.341,256.271
2015-12-24 10:00,-0.0159415,286.271,286.661,259.134,289.568,288.167,262.136,-0.0539907,-0.0643758,236.408,256.001
2015-12-24 11:00,0.437101,286.717,285.095,258.246,287.951,286.907,262.017,0.583607,0.568571,237.203,256.716
2015-12-24 12:00,0.216066,288.841,286.217,258.691,288.763,287.329,262.255,0.296907,0.257467,236.742,257.158
2015-12-24 13:00,0.180197,288.291,285.321,258.134,287.815,286.485,261.54,0.256322,0.247411,236.071,257.246
2015-12-24 14:00,0.0332344,288.705,287.651,259.464,290.101,288.306,261.779,0.0877291,0.057236,234.185,257.07
2015-12-24 15:00,0.101469,289.247,286.55,258.802,289.166,287.888,262.492,0.129624,0.111424,232.935,257.07
2015-12-24 16:00,0.0887332,288.841,287.102,259.134,289.701,288.027,262.373,0.132229,0.114664,231.63,257.07
2015-12-24 18:00,0.16026,289.779,285.77,257.572,288.222,286.767,262.017,0.183584,0.161792,231.236,257.246
2015-12-24 19:00,0.331201,288.841,283.495,256.664,286.172,285.493,261.898,0.344029,0.358496,231.865,257.855
2015-12-24 20:00,0.251422,289.647,287.76,258.469,290.234,288.445,262.136,0.290289,0.284593,236.139,259.97
2015-12-24 21:00,0.0201837,284.888,285.321,256.778,287.815,286.626,261.54,0.0,0.0,238.104,260.789
2015-12-24 22:00,0.0,286.717,286.217,256.892,288.493,286.626,260.942,0.0,0.0,239.349,260.135
2015-12-24 23:00,0.0,287.01,287.102,257.685,289.568,288.167,261.898,0.0,0.0,239.104,259.887
2015-12-25 00:00,0.0,284.41,283.495,255.858,286.172,284.205,259.735,0.0,0.0,236.675,255.73
2015-12-25 01:00,-0.00139562,286.421,285.882,257.233,288.222,286.06,260.461,0.0,0.0,236.475,255.821
2015-12-25 02:00,-0.00123151,284.888,285.321,256.549,287.951,286.767,261.54,0.0,0.0,237.528,256.716
2015-12-25 03:00,-0.00115952,282.234,282.096,254.69,285.061,284.205,261.182,0.0,0.0,239.41,257.942
2015-12-25 04:00,0.0,286.717,286.772,257.12,289.434,288.167,262.492,0.0,0.0,239.593,258.543
2015-12-25 05:00,0.0,283.924,283.841,255.742,286.585,285.35,260.942,0.0,0.0,238.546,257.942
2015-12-25 06:00,0.0,287.587,287.76,257.798,291.029,289.276,262.255,0.0,0.0013916,238.919,257.421
2015-12-25 07:00,0.0,283.924,283.611,255.974,286.86,284.922,260.822,0.0,0.0,236.874,256.45
2015-12-25 08:00,0.00231181,278.075,277.852,253.261,281.799,280.554,259.37,0.0,0.0,234.897,255.73
2015-12-25 09:00,0.0,279.667,279.213,253.621,282.517,281.588,259.856,0.0,0.0,236.004,256.45
2015-12-25 10:00,-0.015613,281.883,281.148,254.572,284.641,283.339,260.098,-0.052878,-0.063049,237.333,257.158
2015-12-25 11:00,0.560288,286.569,281.267,254.572,284.22,283.049,259.977,0.582212,0.557074,237.137,257.246
2015-12-25 12:00,0.472653,288.568,277.727,252.534,280.931,279.959,258.638,0.457366,0.459233,239.227,257.421
2015-12-25 13:00,0.238215,289.779,283.611,256.089,286.585,285.35,260.822,0.262817,0.24778,240.548,258.713
2015-12-25 14:00,0.244495,290.171,282.682,255.626,285.479,284.349,261.182,0.266634,0.254731,239.532,257.855
2015-12-25 15:00,0.0533926,288.43,285.882,257.12,288.358,286.485,261.779,0.0934287,0.0646836,237.785,257.421
2015-12-25 16:00,0.0797876,287.729,283.726,256.089,286.033,284.061,259.127,0.109591,0.0895004,234.968,254.349
2015-12-25 17:00,0.0830954,287.587,283.956,256.089,286.31,284.349,259.37,0.112898,0.0955953,235.038,254.349
2015-12-25 18:00,0.0681576,287.729,283.841,255.742,286.31,283.629,258.515,0.107458,0.0854182,232.557,252.828
2015-12-25 19:00,0.591267,289.381,276.971,252.656,280.639,279.511,257.777,0.520765,0.552322,231.865,251.652
2015-12-25 20:00,0.880968,283.594,278.598,253.14,281.655,280.406,258.147,0.694911,0.813373,230.835,250.849
2015-12-25 21:00,0.0,279.278,278.968,252.899,282.087,280.85,258.882,0.0,0.0,230.184,250.544
2015-12-25 22:00,0.00424342,277.24,277.098,252.045,279.613,278.307,256.41,0.0,0.0,228.312,248.882
2015-12-25 23:00,0.0,283.261,282.096,255.043,284.501,282.467,258.515,0.0,0.0,228.136,249.721
2015-12-26 00:00,0.0,278.279,280.066,253.741,283.088,282.175,259.492,0.0,0.0,229.093,251.152
2015-12-26 01:00,-0.00139729,285.665,285.095,257.459,288.087,285.777,260.701,0.0,0.0,228.921,249.928
2015-12-26 02:00,-0.00123227,278.279,278.968,253.741,281.943,280.85,258.147,0.0,0.0,228.575,249.928
2015-12-26 03:00,0.00115967,285.357,284.528,257.572,287.407,285.065,259.856,0.0,0.0,230.184,250.544
2015-12-26 04:00,0.0,286.864,285.994,258.469,288.763,286.485,260.942,0.0,0.0,232.175,251.85
2015-12-26 05:00,0.00122212,285.818,285.095,257.685,287.679,285.493,260.461,0.0,0.0,232.557,251.85
2015-12-26 06:00,0.0,284.249,283.495,256.778,286.447,284.492,259.492,0.0,0.0,233.456,251.949
2015-12-26 07:00,0.0,283.924,283.726,256.664,286.033,284.061,260.098,0.0,0.0,233.53,251.949
2015-12-26 08:00,-0.00230496,283.093,282.331,255.742,284.781,283.049,260.219,0.0,0.0,233.968,252.439
2015-12-26 09:00,-0.00395118,284.888,284.3,257.12,286.722,284.492,259.37,0.0,0.0,234.472,252.244
2015-12-26 10:00,-0.0153106,285.512,284.414,257.346,286.997,284.779,260.098,-0.0518538,-0.0618278,235.247,252.634
2015-12-26 11:00,0.479903,286.271,283.956,256.434,286.447,284.492,259.977,0.565964,0.527749,236.071,252.731
2015-12-26 12:00,0.092682,288.012,285.208,257.346,287.543,285.065,259.856,0.208257,0.136753,236.808,252.828
2015-12-26 13:00,0.226482,287.871,283.38,256.664,285.757,283.773,259.005,0.295802,0.260268,236.94,252.634
2015-12-26 14:00,0.0606564,288.152,285.433,257.459,287.679,285.065,259.735,0.117626,0.0849406,237.657,253.5
2015-12-26 15:00,0.163677,284.888,282.331,256.205,285.061,283.339,259.127,0.260601,0.249659,238.294,253.595
2015-12-26 16:00,0.0478225,288.291,284.982,257.685,287.407,284.922,259.856,0.0794828,0.0536441,238.42,253.309
2015-12-26 17:00,0.0713702,288.291,285.095,257.685,287.815,285.35,259.977,0.097993,0.0759472,237.913,253.309
2015-12-26 18:00,0.0632714,288.43,285.546,258.134,288.358,285.777,260.219,0.0972229,0.0733394,237.592,252.925
2015-12-26 19:00,0.256966,288.977,284.071,257.459,286.86,284.779,259.977,0.263377,0.235528,237.785,253.309
2015-12-26 20:00,0.297569,287.587,285.095,258.022,287.815,285.493,260.581,0.321238,0.292903,237.463,253.021
2015-12-26 21:00,-0.0216034,286.569,285.658,258.246,288.222,286.06,260.098,0.0,-0.0218099,237.203,252.925
2015-12-26 22:00,0.0,286.717,285.77,258.58,288.358,286.06,260.219,0.0,0.0,237.592,253.5
2015-12-26 23:00,0.00240312,285.818,285.208,258.358,287.951,285.919,260.701,0.0,0.0,237.006,253.69
2015-12-27 00:00,0.0,287.01,286.328,259.134,289.3,286.767,260.942,0.0,0.0,237.333,253.974
2015-12-27 01:00,0.0,286.569,286.105,258.913,288.897,286.485,260.34,0.0,0.0,237.268,254.349
2015-12-27 02:00,-0.00123305,287.01,286.328,259.244,288.897,286.485,260.701,0.0,0.0,237.977,254.999
2015-12-27 03:00,0.00115985,287.155,286.328,259.024,288.763,286.202,261.182,0.0,0.0,238.357,255.091
2015-12-27 04:00,0.0,277.869,279.702,254.926,283.088,282.175,259.614,0.0,0.0,238.919,255.183
2015-12-27 05:00,0.0,286.717,286.217,258.691,288.763,286.485,260.822,0.0,0.0,238.919,255.457
2015-12-27 06:00,0.0,285.97,285.658,258.58,288.358,286.202,260.461,0.0,0.00138813,239.532,255.911
2015-12-27 07:00,0.0,285.512,285.095,257.798,287.679,285.777,260.581,0.0,0.0,238.795,255.639
2015-12-27 08:00,0.00229836,284.249,284.071,257.233,286.997,285.208,260.34,0.0,0.0,237.137,255.457
2015-12-27 09:00,-0.00393132,286.864,286.328,258.913,289.3,287.048,261.062,0.0,0.0,235.108,254.722
2015-12-27 10:00,-0.0300647,285.97,285.208,258.358,288.087,285.919,260.581,-0.0509114,-0.0607041,234.827,254.349
2015-12-27 11:00,0.224821,287.871,285.77,258.58,288.222,285.919,260.461,0.395353,0.288077,235.108,254.443
2015-12-27 12:00,0.52549,286.569,281.386,255.626,284.079,283.049,259.249,0.572054,0.555776,234.401,254.349
2015-12-27 13:00,0.021709,287.729,286.439,258.913,289.166,286.907,260.822,0.106201,0.0535736,233.896,254.256
2015-12-27 14:00,0.0156564,287.3,286.439,259.134,289.032,286.767,260.581,0.0745663,0.0395151,232.935,254.068
2015-12-27 15:00,0.179598,287.729,281.029,255.974,284.501,283.194,259.977,0.188199,0.172339,232.557,253.69
2015-12-27 16:00,0.206985,285.512,280.909,255.51,283.938,282.904,259.735,0.245655,0.225038,233.234,253.88
2015-12-27 17:00,0.227165,286.271,281.386,256.089,284.641,283.773,259.856,0.25428,0.23711,232.86,253.88
2015-12-27 18:00,0.133161,288.291,284.982,258.022,287.543,285.635,260.098,0.164176,0.125,232.557,253.595
2015-12-27 19:00,0.42045,287.587,282.331,256.32,285.201,283.917,260.098,0.424345,0.424469,232.557,253.595
2015-12-27 20:00,0.279217,284.41,283.148,256.549,286.033,284.636,260.461,0.373284,0.341231,232.251,253.88
2015-12-27 21:00,-0.0224284,280.982,281.978,256.089,284.781,283.773,260.098,0.0,0.0,232.328,253.595
2015-12-27 22:00,0.0,285.202,284.755,257.572,287.543,285.635,260.942,0.0,0.0,231.787,253.405
2015-12-27 23:00,0.0,286.864,285.77,258.134,288.628,286.343,260.942,0.0,0.0,232.633,253.5
2015-12-28 00:00,-0.00172738,284.249,284.071,257.346,286.86,285.208,260.461,0.0,0.0,232.175,253.213
2015-12-28 01:00,0.0,285.357,285.095,257.798,287.679,286.06,260.701,0.0,0.0,232.251,253.213
2015-12-28 02:00,0.0,285.665,285.321,257.91,287.951,286.202,261.062,0.0,0.0,232.557,253.309
2015-12-28 03:00,0.0,284.57,284.642,257.798,287.407,285.777,260.822,0.0,0.0,232.557,253.405
2015-12-28 04:00,0.0,284.249,283.726,257.12,286.722,284.779,260.701,0.0,0.0,233.308,253.69
2015-12-28 05:00,0.0,286.569,285.994,258.246,288.628,286.767,260.822,0.0,0.0,233.968,254.068
2015-12-28 06:00,0.00137334,281.346,281.86,255.51,284.641,283.773,260.219,0.0,0.0,234.401,254.907
2015-12-28 07:00,0.0,283.261,283.032,255.974,285.895,284.779,260.461,0.0,0.0,234.756,254.999
2015-12-28 08:00,0.0,279.278,281.029,255.043,283.797,283.484,260.701,0.0,-0.00231392,234.543,255.275
2015-12-28 09:00,0.0,280.239,281.505,255.277,284.501,283.484,260.581,0.0,0.0039498,234.968,255.183
2015-12-28 10:00,0.0,279.859,281.386,255.277,284.22,283.629,260.34,-0.0500449,-0.0447532,234.897,255.275
2015-12-28 11:00,0.409871,285.665,283.841,256.892,286.722,285.493,261.062,0.494712,0.440201,235.108,255.275
2015-12-28 12:00,0.0250878,287.871,287.102,258.58,289.835,287.748,261.062,0.145658,0.0759828,235.178,255.639
2015-12-28 13:00,0.0482879,288.568,286.105,258.358,289.166,287.329,261.062,0.118567,0.0779992,235.731,255.911
2015-12-28 14:00,0.0626283,288.841,286.772,258.134,289.568,287.748,261.301,0.111026,0.0829854,235.731,255.911
2015-12-28 15:00,0.0124392,287.871,287.869,259.134,290.764,288.999,262.255,0.0571752,0.0304983,235.731,256.271
2015-12-28 16:00,0.00530027,287.871,287.978,259.464,291.16,289.689,262.255,0.0448773,0.0214038,235.247,256.001
2015-12-28 17:00,0.00576318,288.152,288.087,259.574,291.555,289.826,262.373,0.0471702,0.0232731,235.317,255.821
2015-12-28 18:00,0.00698577,288.012,288.195,259.244,291.686,289.826,262.492,0.0591484,0.0305611,235.593,255.821
2015-12-28 19:00,0.0133821,288.012,288.087,259.134,291.423,289.826,262.017,0.0963102,0.0506627,235.867,256.181
2015-12-28 20:00,0.0507897,288.012,287.76,259.244,290.897,289.413,262.017,0.202731,0.139176,236.408,256.36
2015-12-28 21:00,-0.0233453,287.587,287.651,258.913,290.5,288.722,261.898,0.0,-0.0235685,236.675,256.36
2015-12-28 22:00,0.00433343,286.271,286.55,258.246,289.568,287.888,261.421,0.0,0.0,236.808,256.181
2015-12-28 23:00,0.0,286.864,286.661,258.58,289.701,287.888,261.66,0.0,0.0,236.94,256.001
2015-12-29 00:00,0.0017311,286.569,286.55,258.469,289.568,287.748,261.66,0.0,0.0,236.609,255.911
2015-12-29 01:00,0.0,286.121,285.77,258.134,288.763,287.048,261.301,0.0,0.0,236.274,255.821
2015-12-29 02:00,0.0,287.3,287.212,258.802,290.234,288.445,261.421,0.0,0.0,235.317,255.548
2015-12-29 03:00,-0.00116028,286.864,286.772,259.024,289.835,288.167,261.421,0.0,0.0,233.01,254.536
2015-12-29 04:00,0.0,285.512,286.105,258.469,289.166,287.609,261.421,0.0,0.0,233.308,254.349
2015-12-29 05:00,0.0,283.261,284.414,257.572,287.543,286.202,261.182,0.0,-0.0012312,233.823,254.629
2015-12-29 06:00,0.0,287.587,287.541,259.464,290.764,288.722,261.898,0.0,0.0,233.677,254.629
2015-12-29 07:00,0.0,287.729,287.76,259.354,290.764,288.999,261.54,0.0,0.0,234.113,255.366
2015-12-29 08:00,0.0,287.3,287.541,259.024,290.632,288.861,261.779,0.0,0.0,234.827,255.457
2015-12-29 09:00,0.0,287.155,287.432,258.691,290.5,288.861,262.136,0.0,0.0,234.472,255.639
2015-12-29 10:00,-0.029083,287.155,286.992,258.246,290.101,288.584,261.898,-0.0369369,-0.0440416,233.308,255.821
2015-12-29 11:00,0.0439527,288.152,287.651,258.913,290.897,289.276,262.255,0.282832,0.159742,232.935,255.73
2015-12-29 12:00,0.00718458,287.871,287.76,258.913,290.897,288.999,262.255,0.136871,0.0652793,233.603,255.548
2015-12-29 13:00,0.0144974,288.012,287.541,258.691,290.5,288.584,261.898,0.0961537,0.0487867,233.085,254.722
2015-12-29 14:00,0.0156553,288.152,287.541,259.134,290.5,288.584,262.017,0.0745612,0.0395124,232.557,253.88
2015-12-29 15:00,0.0124293,288.291,287.212,258.802,290.632,288.722,261.898,0.0586331,0.0304741,233.308,253.974
2015-12-29 16:00,0.00882087,287.729,287.432,258.802,290.5,288.861,261.54,0.0507866,0.0249345,233.159,254.349
2015-12-29 17:00,0.00383347,288.012,287.76,258.802,290.632,288.861,261.779,0.0503098,0.0251557,232.935,254.536
2015-12-29 18:00,0.0348104,288.705,287.651,259.024,290.632,288.861,261.779,0.0785972,0.0515434,233.456,254.536
2015-12-29 19:00,0.442485,291.315,283.841,257.006,287.543,286.626,261.421,0.39437,0.396334,234.401,255.275
2015-12-29 20:00,0.45843,287.3,284.528,257.006,287.815,286.485,261.301,0.412412,0.426656,235.936,256.716
2015-12-29 21:00,0.0,287.587,287.869,258.58,290.632,288.999,262.136,0.0,-0.0246011,235.108,256.628
2015-12-29 22:00,0.0,282.059,283.032,255.277,286.447,285.635,261.182,0.0,0.0,235.108,256.716
2015-12-29 23:00,0.0,284.57,284.755,256.434,288.087,287.048,261.779,0.0,0.0,236.874,257.421
2015-12-30 00:00,0.0,280.427,282.331,254.572,285.757,285.208,260.581,0.0,0.0,236.139,257.07
2015-12-30 01:00,0.00140443,288.291,288.195,258.246,291.292,289.551,262.255,0.0,0.0,236.408,256.894
2015-12-30 02:00,0.0,286.717,286.55,257.006,289.701,288.167,261.898,0.0,0.0,236.408,257.07
2015-12-30 03:00,0.0,288.291,288.412,257.91,291.817,290.238,262.492,0.0,0.0,237.072,257.246
2015-12-30 04:00,-0.00115541,288.012,288.412,257.572,291.555,290.101,262.965,0.0,0.0,237.203,257.333
2015-12-30 05:00,0.0,287.444,287.869,257.12,291.029,289.413,262.492,0.0,0.0,237.592,257.508
2015-12-30 06:00,0.0,287.729,287.978,256.892,291.029,289.413,262.728,0.0,0.0,238.231,257.769
2015-12-30 07:00,0.0,286.717,287.212,256.434,290.234,288.861,262.728,0.0,0.0,239.166,258.114
2015-12-30 08:00,0.0,287.01,287.432,256.434,290.101,288.584,262.61,0.0,0.0,239.043,258.114
2015-12-30 09:00,0.00387739,287.444,287.541,256.549,290.632,288.999,262.728,0.0,0.0,239.714,258.457
2015-12-30 10:00,-0.0143261,288.43,288.412,257.346,291.423,289.964,262.492,-0.0363896,-0.0433891,240.724,258.798
2015-12-30 11:00,0.132845,288.43,287.76,256.549,290.632,288.861,262.61,0.337439,0.214584,240.841,259.304
2015-12-30 12:00,0.0179985,288.152,288.412,257.572,291.423,289.826,262.136,0.14325,0.0726824,241.073,259.387
2015-12-30 13:00,0.00967052,288.43,288.736,258.358,291.817,290.101,262.847,0.0921152,0.0439334,241.304,259.721
2015-12-30 14:00,0.00782555,288.43,288.52,258.246,291.817,290.511,263.083,0.0679153,0.0355516,240.489,259.387
2015-12-30 15:00,0.0195135,288.841,288.087,258.358,291.292,289.826,262.373,0.0630842,0.0358183,239.954,258.967
2015-12-30 16:00,0.0493179,289.247,287.432,258.022,290.632,289.137,262.61,0.0760581,0.0533458,239.653,259.387
2015-12-30 17:00,0.00956078,288.568,288.303,258.469,291.423,289.689,262.847,0.0485706,0.0250957,239.653,259.387
2015-12-30 18:00,0.0115624,288.43,288.52,258.802,291.292,289.689,262.847,0.0606973,0.0303497,239.349,259.051
2015-12-30 19:00,0.0165395,288.705,288.628,259.134,291.686,290.101,262.965,0.098028,0.056772,238.857,258.713
2015-12-30 20:00,0.0706991,288.705,288.52,259.134,291.423,289.826,263.083,0.209513,0.149887,238.733,258.457
2015-12-30 21:00,0.0,287.3,287.76,258.58,290.764,289.276,262.728,0.0,-0.0257583,238.294,257.942
2015-12-30 22:00,-0.00439937,287.155,287.541,258.58,290.367,288.999,262.61,0.0,0.0,237.463,257.769
2015-12-30 23:00,0.0,287.3,287.322,258.913,290.5,289.137,262.017,0.0,0.0,236.274,257.158
2015-12-31 00:00,0.00173882,286.717,287.212,259.134,290.101,288.445,262.017,0.0,0.0,235.731,256.628
2015-12-31 01:00,0.0,287.729,288.087,259.793,291.029,289.276,262.728,0.0,0.0,234.968,256.091
2015-12-31 02:00,-0.00123648,287.444,287.651,259.902,290.5,288.722,262.61,0.0,0.0,234.756,256.001
2015-12-31 03:00,0.0,286.864,287.212,259.574,290.101,288.584,262.61,0.0,0.0,234.329,256.181
2015-12-31 04:00,0.0,285.97,286.328,258.691,289.3,287.748,261.66,0.0,0.0,233.896,255.911
2015-12-31 05:00,-0.001218,286.271,286.772,258.802,289.434,288.306,262.136,0.0,0.0,234.041,256.181
2015-12-31 06:00,0.00136877,286.421,286.772,258.802,289.568,288.306,262.373,0.0,0.0,233.677,256.36
2015-12-31 07:00,0.0,287.155,287.212,259.134,289.968,288.306,262.373,0.0,0.0,233.603,256.45
2015-12-31 08:00,0.00227448,284.57,284.185,257.685,286.86,285.635,261.54,0.0,0.0,233.896,256.539
2015-12-31 09:00,0.0,280.799,281.624,256.434,284.781,284.061,260.701,0.0,0.0,234.185,256.894
2015-12-31 10:00,-0.014129,287.444,286.992,259.134,289.835,288.167,262.61,-0.0358889,-0.0285281,233.968,256.894
2015-12-31 11:00,0.142684,288.841,287.978,259.902,290.632,288.999,262.373,0.369981,0.243081,234.113,256.982
2015-12-31 12:00,0.133429,289.514,287.869,259.793,290.632,289.551,262.61,0.216789,0.16019,234.472,257.246
2015-12-31 13:00,0.11851,290.558,287.432,259.244,290.5,289.276,262.373,0.174063,0.139177,234.686,257.333
2015-12-31 14:00,0.0508445,289.247,287.978,260.119,291.029,289.689,263.2,0.0993461,0.0690989,234.113,256.982
2015-12-31 15:00,0.0372129,288.705,287.76,259.793,290.764,289.276,262.728,0.0750194,0.0518806,233.75,256.539
2015-12-31 16:00,0.203963,289.514,285.208,258.58,287.951,287.048,261.779,0.212892,0.209463,234.543,256.982
2015-12-31 17:00,0.0152587,288.705,288.195,259.902,290.897,289.413,262.847,0.0613675,0.0346602,235.593,257.246
2015-12-31 18:00,0.0414715,288.977,288.195,259.683,290.897,289.551,262.61,0.0858339,0.055824,235.662,256.982
2015-12-31 19:00,0.0756338,289.514,288.195,259.683,290.897,289.413,263.083,0.133647,0.0929561,235.799,256.805
2015-12-31 20:00,0.0837202,288.43,288.303,259.793,291.16,289.689,262.728,0.20675,0.140867,235.799,256.894
2015-12-31 21:00,-0.0268057,287.155,287.869,259.464,290.5,289.137,262.965,-0.0226963,-0.0270619,235.936,257.682
2015-12-31 22:00,0.0,286.569,287.212,259.134,289.835,288.306,262.373,0.0,0.00447658,236.274,257.595
2015-12-31 23:00,0.0,285.045,284.755,257.91,287.815,286.767,261.898,0.0,0.0,237.137,258.114
