# timestamp,IR_016,IR_039,IR_087,IR_097,IR_108,IR_120,IR_134,VIS006,VIS008,WV_062,WV_073
2016-05-01 00:00,-0.140819,287.587,286.439,258.022,289.166,286.907,261.421,-0.0455246,-0.0904687,233.456,251.751
2016-05-01 01:00,-0.00194909,287.3,285.994,257.91,288.628,286.06,260.581,0.0,-0.00196772,232.175,251.051
2016-05-01 02:00,-0.00168283,282.753,280.187,254.69,282.087,279.661,256.909,0.0,0.0,230.755,249.513
2016-05-01 03:00,0.0,271.261,266.293,247.2,267.69,265.309,247.551,0.0,0.0,227.51,243.698
2016-05-01 04:00,0.0016294,274.551,271.711,250.051,273.843,272.405,253.753,0.0,0.0,229.769,248.241
2016-05-01 05:00,-0.00181587,283.428,279.945,254.217,281.943,279.061,255.909,0.0,0.0,229.433,248.455
2016-05-01 06:00,0.0,287.871,286.992,258.022,290.101,287.888,261.421,0.0,0.0,232.709,251.452
2016-05-01 07:00,0.0,287.444,286.772,258.022,289.835,287.609,262.017,0.0,0.0,232.784,251.751
2016-05-01 08:00,0.0,285.357,285.095,257.233,288.087,286.343,261.421,0.0,0.0,232.557,251.85
2016-05-01 09:00,0.144196,287.587,286.661,258.246,289.568,287.188,261.779,0.396794,0.272952,232.481,251.452
2016-05-01 10:00,0.0164238,287.729,286.772,258.358,289.701,287.469,261.779,0.135584,0.0704686,232.328,251.85
2016-05-01 11:00,0.0355982,286.864,283.264,256.32,285.34,282.613,258.147,0.108507,0.0694811,230.755,250.032
2016-05-01 12:00,0.0138689,287.871,285.994,258.022,288.493,286.06,260.461,0.066053,0.0367538,232.86,251.85
2016-05-01 13:00,0.00428973,288.568,287.978,258.802,291.16,288.861,262.373,0.044796,0.0216537,232.784,252.439
2016-05-01 14:00,0.0192168,288.977,286.55,257.91,289.3,286.907,261.062,0.0488124,0.0297474,232.02,251.452
2016-05-01 15:00,0.00490811,289.381,287.76,258.58,290.5,288.027,262.017,0.0332455,0.0173426,232.328,252.146
2016-05-01 16:00,0.0174948,289.247,286.55,258.246,289.032,286.343,259.856,0.0412643,0.0277546,230.511,250.544
2016-05-01 17:00,0.0474663,286.421,279.823,254.808,280.785,278.004,255.532,0.0746379,0.0629807,230.266,248.241
2016-05-01 18:00,0.0428127,291.44,287.869,259.134,290.764,288.167,262.255,0.0671286,0.0512261,232.097,252.828
2016-05-01 19:00,0.258521,285.045,271.848,249.542,271.945,269.0,250.104,0.297064,0.325204,230.755,247.151
2016-05-01 20:00,0.497885,292.294,279.58,253.98,280.201,278.156,256.41,0.477588,0.509007,230.184,249.198
2016-05-01 21:00,0.726644,291.065,282.682,255.277,284.921,282.028,258.392,0.596022,0.672458,230.674,251.85
2016-05-01 22:00,-0.0538933,283.594,278.721,253.02,280.054,276.938,254.9,0.0,-0.0181362,230.266,250.95
2016-05-01 23:00,-0.253009,282.059,275.951,251.056,277.075,274.147,253.368,-0.0835105,-0.18183,232.251,251.949
2016-05-02 00:00,-0.121084,287.444,286.328,257.006,288.897,286.767,261.54,-0.0392635,-0.0806272,235.731,257.07
2016-05-02 01:00,-0.0019595,288.152,287.869,257.572,290.367,288.445,263.318,-0.0016591,0.0,236.742,258.628
2016-05-02 02:00,0.0,288.012,287.869,257.233,290.764,288.722,262.728,0.0,-0.00170746,238.357,259.051
2016-05-02 03:00,0.0,288.291,287.978,256.778,290.764,288.999,263.083,0.0,0.0,238.671,259.471
2016-05-02 04:00,0.0,288.291,288.087,257.346,290.897,289.413,263.553,0.0,0.0,239.593,259.22
2016-05-02 05:00,-0.00182641,288.012,288.087,257.006,291.16,289.551,263.318,0.0,0.0,240.312,260.052
2016-05-02 06:00,0.0,288.152,288.087,256.664,291.029,289.551,263.2,0.0,0.0,241.93,260.871
2016-05-02 07:00,-0.00336151,288.152,288.195,256.664,291.029,289.551,263.67,0.0,0.0,242.099,261.435
2016-05-02 08:00,0.00784434,287.01,287.322,255.974,290.234,288.999,263.083,0.0,0.0,241.304,260.708
2016-05-02 09:00,0.312088,287.729,287.212,255.974,289.968,288.584,262.847,0.484448,0.437599,241.073,260.708
2016-05-02 10:00,0.0407551,288.43,287.978,256.089,290.897,289.413,263.436,0.144931,0.0864039,241.246,260.789
2016-05-02 11:00,0.00946056,288.291,288.195,256.778,291.292,289.826,263.553,0.0821049,0.0429795,241.015,260.627
2016-05-02 12:00,0.0069215,288.43,288.195,256.434,290.897,289.551,263.318,0.0600694,0.0279507,240.899,260.708
2016-05-02 13:00,0.111411,290.301,285.095,255.277,287.951,286.626,262.373,0.143917,0.135549,240.607,260.708
2016-05-02 14:00,0.0256054,289.247,287.76,256.32,290.367,288.861,263.436,0.0542001,0.0387753,240.074,260.627
2016-05-02 15:00,0.0686837,290.429,286.992,256.205,289.568,288.027,262.847,0.08827,0.079246,240.489,260.708
2016-05-02 16:00,0.0449705,290.041,287.541,256.664,290.367,288.999,263.318,0.0613454,0.0491838,240.371,261.194
2016-05-02 17:00,0.0189783,290.429,288.52,257.233,291.423,289.964,264.488,0.0459112,0.0301082,239.714,260.708
2016-05-02 18:00,0.0998255,293.587,287.76,256.549,290.5,288.861,263.436,0.118063,0.102379,239.166,260.708
2016-05-02 19:00,0.264315,296.008,286.439,255.974,288.763,286.907,262.965,0.260227,0.254431,238.231,259.471
2016-05-02 20:00,0.694315,302.848,283.495,254.808,285.201,282.758,258.882,0.550635,0.593114,235.936,256.45
2016-05-02 21:00,1.99377,301.39,280.429,252.656,281.799,278.609,255.909,1.14234,1.49827,234.686,254.536
2016-05-02 22:00,-0.0370439,286.271,283.611,254.69,285.34,282.758,258.515,0.0,-0.018699,235.593,257.07
2016-05-02 23:00,-0.255257,285.202,281.267,253.621,282.803,280.702,257.282,-0.0805893,-0.170342,234.113,255.639
2016-05-03 00:00,-0.137393,285.512,281.505,253.621,282.946,280.406,256.785,-0.0417034,-0.0785131,234.329,255.73
2016-05-03 01:00,-0.00196998,279.667,270.329,247.465,268.855,264.623,246.044,0.0,0.0,227.959,246.483
2016-05-03 02:00,0.0,279.081,270.049,247.597,269.35,265.82,246.457,0.0,0.0,229.178,248.133
2016-05-03 03:00,0.0,280.799,272.662,248.771,272.899,269.165,248.903,0.0,0.0,232.175,251.652
2016-05-03 04:00,0.0,285.97,283.956,254.572,285.479,283.629,258.515,0.0,0.0,236.542,258.713
2016-05-03 05:00,0.0,283.76,279.336,252.412,280.639,278.307,255.153,0.0,0.0,233.308,255.183
2016-05-03 06:00,0.00228439,288.152,288.303,256.434,291.292,289.826,263.67,0.0,0.0,238.981,261.515
2016-05-03 07:00,0.0,288.291,288.52,256.549,291.555,290.238,263.2,0.0,0.0,238.919,261.435
2016-05-03 08:00,-0.00800012,288.012,288.52,256.778,291.423,290.101,263.67,0.0,0.0,238.671,261.113
2016-05-03 09:00,0.200632,287.871,287.322,255.974,289.701,288.445,263.083,0.41053,0.337583,238.231,260.952
2016-05-03 10:00,0.024279,288.568,287.869,256.205,290.632,288.999,263.67,0.140473,0.0857888,237.913,261.435
2016-05-03 11:00,0.0565786,289.779,287.432,255.974,289.835,288.445,263.083,0.11577,0.0761593,237.977,261.355
2016-05-03 12:00,0.174458,293.472,285.77,255.393,288.358,287.469,263.083,0.187202,0.176126,237.785,260.871
2016-05-03 13:00,0.221168,291.809,284.414,254.926,287.134,286.343,262.965,0.250086,0.269379,238.104,261.113
2016-05-03 14:00,0.0319872,289.381,288.087,256.664,290.897,289.413,264.022,0.0585004,0.0400433,238.231,261.033
2016-05-03 15:00,0.0539444,289.113,286.882,256.664,289.701,288.306,263.553,0.0820068,0.077977,238.357,261.194
2016-05-03 16:00,0.0487021,289.514,287.541,257.346,290.101,288.584,263.553,0.0687266,0.0529498,238.483,261.275
2016-05-03 17:00,0.0203256,290.041,288.628,258.134,291.555,289.689,263.905,0.0470397,0.0314638,239.593,261.755
2016-05-03 18:00,0.104506,292.174,287.651,257.12,290.367,288.861,263.905,0.126025,0.102308,239.288,261.515
2016-05-03 19:00,0.231218,296.427,287.651,257.459,290.367,288.999,263.553,0.235619,0.221034,239.166,261.515
2016-05-03 20:00,0.654646,304.478,288.52,257.798,291.423,289.964,263.67,0.527766,0.566037,239.834,261.755
2016-05-03 21:00,1.80375,303.755,289.486,258.358,292.34,291.057,265.069,1.01816,1.28894,239.104,262.151
2016-05-03 22:00,-0.0382314,288.291,288.951,258.022,291.948,291.057,264.953,0.0,-0.0192985,240.074,262.466
2016-05-03 23:00,-0.29683,288.291,289.058,258.022,292.079,291.057,264.605,-0.0850072,-0.176275,240.43,263.244
2016-05-04 00:00,-0.151296,288.012,288.52,257.685,291.292,290.238,264.372,-0.0397558,-0.0737377,240.841,263.167
2016-05-04 01:00,0.0,286.121,286.992,257.006,289.701,288.584,263.553,0.0,0.0,240.014,262.466
2016-05-04 02:00,-0.00341662,285.045,285.208,255.974,287.679,286.767,262.017,0.0,0.0,239.166,261.275
2016-05-04 03:00,0.0,285.357,286.661,256.892,289.032,288.027,263.553,0.0,0.0,239.774,262.072
2016-05-04 04:00,0.0,284.73,285.433,256.205,287.815,286.907,262.255,0.0,0.0,239.834,261.834
2016-05-04 05:00,0.00184742,286.121,286.217,256.664,288.763,287.469,263.2,0.0,0.0,240.371,261.675
2016-05-04 06:00,0.0,285.202,285.882,256.778,288.222,286.907,262.61,0.0,0.0,240.724,261.595
2016-05-04 07:00,0.0,287.155,287.212,257.346,289.701,288.167,262.728,0.0,0.0,240.371,261.675
2016-05-04 08:00,0.0,288.291,287.76,257.91,289.835,288.167,262.965,-0.00690755,0.0,240.193,261.033
2016-05-04 09:00,0.17775,288.012,287.322,257.346,289.835,288.306,263.2,0.396773,0.32627,240.371,261.194
2016-05-04 10:00,0.0442076,288.568,287.978,257.91,290.367,288.584,263.553,0.146319,0.0811458,240.014,261.194
2016-05-04 11:00,0.0963545,290.171,287.432,257.685,289.835,288.445,262.847,0.163166,0.144727,239.714,260.952
2016-05-04 12:00,0.0862207,290.558,287.541,257.91,290.234,289.137,263.2,0.122645,0.104454,240.665,261.033
2016-05-04 13:00,0.0427657,290.301,288.195,258.246,290.897,289.413,263.67,0.0724193,0.0532486,240.43,260.708
2016-05-04 14:00,0.033248,289.91,288.303,258.246,291.292,290.101,264.022,0.056302,0.0413118,241.015,261.275
2016-05-04 15:00,0.0269625,289.514,288.52,258.691,291.423,289.826,263.67,0.0539598,0.0395931,240.489,260.545
2016-05-04 16:00,0.0524326,289.381,287.651,258.022,290.5,289.137,263.553,0.0687059,0.0567148,239.774,259.721
2016-05-04 17:00,0.0243812,290.558,288.412,258.58,291.292,289.413,263.553,0.0458744,0.032819,239.834,259.97
2016-05-04 18:00,0.0585469,292.653,288.412,259.024,291.16,289.551,263.67,0.0777067,0.060704,239.774,260.052
2016-05-04 19:00,0.169604,297.248,288.628,259.134,291.292,289.413,264.022,0.173016,0.156784,240.489,260.627
2016-05-04 20:00,0.565245,304.078,288.52,259.244,291.423,289.826,263.2,0.465371,0.472913,240.899,260.708
2016-05-04 21:00,2.14667,304.715,288.628,259.134,291.029,289.276,264.022,1.20757,1.44727,240.607,260.545
2016-05-04 22:00,-0.0197492,288.291,288.087,259.024,291.029,288.999,263.553,0.0,-0.019938,240.782,260.463
2016-05-04 23:00,-0.30832,286.717,286.661,258.134,289.3,288.167,263.436,-0.0857748,-0.17342,241.246,260.871
2016-05-05 00:00,-0.131247,286.271,286.328,258.134,288.628,287.188,262.728,-0.0355605,-0.0689008,242.544,261.914
2016-05-05 01:00,-0.00199112,288.291,287.432,258.246,289.701,287.888,263.083,0.0,0.0,243.579,262.23
2016-05-05 02:00,0.0,285.357,285.77,257.459,287.951,286.485,262.255,0.0,0.0,244.479,262.779
2016-05-05 03:00,0.0,288.152,287.869,258.802,289.968,288.167,262.965,0.0,0.0,244.374,263.012
2016-05-05 04:00,-0.0016636,286.569,286.661,258.134,288.763,287.048,262.965,0.0,0.0,243.74,262.466
2016-05-05 05:00,0.00185786,286.271,286.328,257.91,288.763,287.329,262.728,0.0,0.0,242.6,261.914
2016-05-05 06:00,0.0023153,287.01,286.882,257.685,289.166,286.907,262.847,0.0,0.0,241.704,261.755
2016-05-05 07:00,-0.00345633,282.923,281.267,254.926,283.088,281.882,260.098,0.0,0.0,241.533,261.113
2016-05-05 08:00,-0.00831848,287.155,286.992,258.246,289.166,287.329,262.728,0.0,0.0,241.93,261.914
2016-05-05 09:00,0.391256,287.01,286.55,257.685,289.032,287.048,262.492,0.503539,0.426596,242.655,262.072
2016-05-05 10:00,0.255525,289.91,286.328,257.685,288.763,287.048,262.492,0.304246,0.26603,242.82,262.309
2016-05-05 11:00,0.145275,291.44,286.882,257.798,289.434,287.888,262.728,0.184506,0.158491,242.489,262.857
2016-05-05 12:00,0.132569,291.315,286.882,258.022,289.166,287.748,262.965,0.155979,0.13036,242.984,262.857
2016-05-05 13:00,0.0313336,289.91,287.978,258.469,290.367,288.722,263.436,0.0699429,0.0460118,242.544,262.779
2016-05-05 14:00,0.0319528,289.91,287.978,258.802,290.764,288.999,263.436,0.0573553,0.0400002,242.655,263.012
2016-05-05 15:00,0.3504,291.809,281.505,255.51,284.781,284.492,262.017,0.341289,0.33767,242.655,263.476
2016-05-05 17:00,0.0677002,292.414,287.978,259.024,290.367,288.999,263.905,0.0802503,0.0642465,244.111,264.314
2016-05-05 18:00,0.094877,295.476,288.736,259.793,291.292,289.826,264.022,0.105771,0.0925912,244.842,264.914
2016-05-05 19:00,0.253043,299.858,288.52,259.574,290.897,289.413,263.905,0.236713,0.23074,244.426,265.063
2016-05-05 20:00,0.632055,303.181,288.087,259.134,290.632,289.137,264.721,0.516706,0.543797,244.531,264.914
2016-05-05 21:00,1.3471,299.95,288.628,259.464,291.16,289.826,264.837,0.869314,1.06593,244.426,265.212
2016-05-05 22:00,-0.0204262,287.871,288.628,259.354,291.16,289.826,264.953,0.0,0.0,244.322,265.286
2016-05-05 23:00,-0.315569,288.841,289.272,259.793,291.948,290.921,265.069,-0.0827918,-0.166023,245.048,265.137
2016-05-06 00:00,-0.110942,288.43,289.058,259.464,291.686,290.511,264.372,-0.0313114,-0.0640012,245.099,264.989
2016-05-06 01:00,-0.00200177,288.291,288.843,259.354,291.555,290.511,264.837,0.0,0.0,245.709,265.212
2016-05-06 02:00,-0.00172542,285.357,286.661,257.91,289.434,288.584,264.138,0.0,0.0,244.997,264.989
2016-05-06 03:00,0.0,283.76,284.642,257.006,287.134,286.06,263.083,0.0,0.0,243.899,264.01
2016-05-06 04:00,0.0,281.883,282.799,256.205,285.34,284.922,262.373,0.0,0.0,242.655,263.934
2016-05-06 05:00,0.0,283.594,284.3,256.778,287.407,286.485,262.965,0.0,0.0,241.015,263.244
2016-05-06 06:00,-0.00233064,288.152,288.843,259.024,291.686,290.375,264.372,0.0,0.0,239.471,262.779
2016-05-06 07:00,-0.00348772,283.924,280.789,254.336,281.221,279.361,256.785,0.0,0.0,236.207,256.539
2016-05-06 08:00,0.0,288.012,288.195,258.246,290.764,289.413,262.965,0.0,0.0,239.288,261.595
2016-05-06 09:00,0.410044,286.717,284.185,256.089,286.172,284.636,260.219,0.540064,0.505956,237.528,259.471
2016-05-06 10:00,0.166639,288.977,285.882,257.12,288.222,286.626,261.062,0.231795,0.188259,237.333,260.135
2016-05-06 11:00,0.072432,285.97,280.669,254.454,281.51,279.661,256.66,0.140461,0.108507,234.472,256.091
2016-05-06 12:00,0.080798,283.924,275.565,251.552,275.857,273.675,251.944,0.131001,0.116281,232.935,253.117
2016-05-06 13:00,0.0369999,286.569,282.096,255.393,283.514,282.028,258.638,0.0807293,0.0617772,235.178,257.682
2016-05-06 14:00,0.0894261,289.91,285.433,257.233,287.679,286.343,262.728,0.107085,0.103178,237.463,261.914
2016-05-06 15:00,0.0257212,289.779,288.195,259.244,290.632,289.276,264.372,0.0477044,0.0333863,239.166,263.244
2016-05-06 16:00,0.0561482,291.065,288.195,259.024,290.632,289.551,264.372,0.073952,0.0642429,239.593,263.629
2016-05-06 17:00,0.0798577,293.007,288.412,259.134,291.16,290.238,264.255,0.0905359,0.083354,240.074,263.629
2016-05-06 18:00,0.161184,295.902,288.195,259.354,290.897,289.964,264.372,0.15922,0.153153,240.371,263.322
2016-05-06 19:00,0.293463,297.749,287.541,258.691,290.101,289.137,264.022,0.279534,0.279809,241.073,263.167
2016-05-06 20:00,0.67984,301.913,286.217,258.134,289.032,288.167,263.905,0.565106,0.614258,241.131,263.399
2016-05-06 21:00,1.35602,293.356,282.682,256.434,285.757,285.065,263.318,0.940501,1.23063,242.378,263.782
2016-05-06 22:00,-0.0423021,285.357,286.439,258.134,288.897,288.167,264.022,0.0,-0.0213533,242.155,264.162
2016-05-06 23:00,-0.287062,288.705,289.379,259.354,292.079,291.057,264.721,-0.0759547,-0.15396,242.155,264.389
2016-05-07 00:00,-0.0903766,287.3,288.087,258.802,290.632,289.826,264.255,-0.0270077,-0.0617216,242.042,264.615
2016-05-07 01:00,-0.00402494,286.569,287.651,258.246,290.367,289.276,264.138,0.0,-0.00203171,242.875,264.989
2016-05-07 02:00,-0.00173399,287.444,287.76,258.58,290.367,288.999,264.022,0.0,0.0,242.211,264.765
2016-05-07 03:00,0.00163887,287.587,288.736,258.913,291.16,290.238,264.605,0.0,0.0,242.489,265.212
2016-05-07 04:00,-0.00168058,288.291,289.165,259.134,291.948,290.648,264.255,0.0,0.0,242.875,264.839
2016-05-07 05:00,0.00187861,288.152,288.628,258.802,291.555,290.375,264.255,0.0,0.0,243.472,265.063
2016-05-07 06:00,0.0,288.43,289.058,258.913,291.686,290.511,264.837,0.0,0.0,242.984,264.765
2016-05-07 07:00,-0.00351895,286.864,287.322,258.022,289.835,288.306,263.2,0.0,0.0,242.489,264.238
2016-05-07 08:00,0.0,286.864,287.102,258.022,289.835,288.445,262.728,0.0,0.0,242.544,264.314
2016-05-07 09:00,0.0885821,288.43,288.628,258.58,290.897,289.826,263.436,0.32501,0.223572,242.929,264.765
2016-05-07 10:00,0.0197193,288.977,289.486,258.913,292.079,290.784,264.953,0.130231,0.0716679,244.217,265.655
2016-05-07 11:00,0.153796,292.653,285.546,257.12,288.493,287.609,263.2,0.177571,0.150561,244.894,265.875
2016-05-07 12:00,0.0154502,289.381,289.486,259.134,292.209,291.057,264.837,0.0668619,0.0381282,245.151,266.239
2016-05-07 13:00,0.136511,294.823,284.3,256.549,287.543,286.626,263.553,0.146887,0.156478,245.709,266.312
2016-05-07 14:00,0.324352,292.889,281.267,255.393,284.361,284.636,262.728,0.285441,0.321007,246.258,266.601
2016-05-07 15:00,0.0257147,289.91,288.951,259.024,291.555,290.648,264.721,0.0456187,0.0309053,245.809,266.166
2016-05-07 16:00,0.0224542,290.429,289.379,258.691,291.817,291.057,265.185,0.0422487,0.0289657,246.109,266.745
2016-05-07 17:00,0.044651,291.686,289.058,259.134,291.817,290.921,264.837,0.0630098,0.0505418,244.842,266.166
2016-05-07 18:00,0.127916,294.933,288.52,258.802,291.16,290.648,264.953,0.132374,0.12595,242.489,265.655
2016-05-07 19:00,0.252367,298.822,288.736,258.691,291.16,290.238,264.721,0.239527,0.236288,243.093,265.36
2016-05-07 20:00,0.705673,306.991,289.165,258.58,291.948,291.057,265.185,0.555563,0.603056,241.533,263.858
2016-05-07 21:00,1.61486,302.085,288.843,257.798,291.686,290.784,264.953,0.980099,1.2119,242.875,264.238
2016-05-07 22:00,0.0,288.291,289.165,258.022,291.686,290.648,264.953,-0.0185671,-0.0221384,243.633,264.765
2016-05-07 23:00,-0.244442,288.291,289.058,258.246,291.555,290.375,264.488,-0.0651569,-0.141669,244.322,265.137
2016-05-08 00:00,-0.120372,287.3,287.978,257.572,290.5,289.689,264.721,-0.0317081,-0.0675127,243.472,264.69
2016-05-08 01:00,-0.00202321,287.444,288.303,257.572,291.16,290.101,264.953,0.0,0.0,242.929,264.389
2016-05-08 02:00,0.0,287.729,288.303,257.572,291.029,289.964,264.488,0.0,0.0,242.155,263.858
2016-05-08 03:00,-0.00164684,287.155,287.978,257.572,290.764,289.413,264.255,0.0,0.0,241.986,263.476
2016-05-08 04:00,-0.00168902,285.512,285.77,256.32,288.222,287.188,262.965,0.0,0.0,241.533,263.322
2016-05-08 05:00,0.00188889,278.279,279.702,253.261,282.374,281.882,261.182,0.0,0.0,240.665,262.072
2016-05-08 06:00,0.0,284.888,284.982,256.089,287.27,286.485,262.255,0.0,0.0,239.288,261.675
2016-05-08 07:00,0.0,281.526,282.096,255.043,285.618,284.492,261.898,0.0,0.0,239.043,261.515
2016-05-08 08:00,0.0,288.291,288.736,257.572,291.292,289.964,263.787,0.0,0.0,238.546,261.275
2016-05-08 09:00,0.230023,288.012,287.651,257.346,290.5,288.861,263.67,0.389521,0.304792,238.294,260.789
2016-05-08 10:00,0.0784265,289.247,287.76,257.346,290.632,289.137,263.787,0.162689,0.106888,237.785,260.381
2016-05-08 11:00,0.0557833,289.779,287.869,257.798,290.5,288.999,263.083,0.114143,0.0797818,237.398,259.804
2016-05-08 12:00,0.0325742,289.247,287.76,257.798,290.367,288.722,263.553,0.0812899,0.057117,237.721,260.135
2016-05-08 13:00,0.156308,292.294,283.611,256.205,286.722,285.208,262.255,0.166034,0.164975,237.977,259.887
2016-05-08 14:00,0.208069,288.291,280.429,254.572,283.088,282.613,261.301,0.182656,0.171397,236.874,259.22
2016-05-08 16:00,0.123473,286.864,279.945,254.572,282.803,282.175,261.182,0.127776,0.125912,234.756,257.595
2016-05-08 17:00,0.256998,286.421,278.968,253.86,281.655,281.293,260.942,0.264555,0.277207,235.867,257.421
2016-05-08 18:00,0.172022,294.491,284.3,257.12,286.722,285.35,262.728,0.161686,0.143395,236.475,257.855
2016-05-08 19:00,0.463413,299.672,281.029,255.626,283.938,282.904,261.421,0.395813,0.424752,236.742,258.372
2016-05-08 20:00,0.894901,295.902,279.702,254.454,282.374,281.882,261.062,0.76555,0.872303,237.528,258.798
2016-05-08 21:00,1.01231,294.713,283.148,256.664,286.033,284.492,262.017,0.713272,0.914789,237.528,259.135
2016-05-08 22:00,-0.0455298,276.811,277.852,253.741,280.931,280.85,260.822,0.0,-0.0229825,237.592,259.554
2016-05-08 23:00,-0.264985,280.05,279.213,254.926,282.374,281.588,260.822,-0.0657614,-0.142984,237.721,260.217
2016-05-09 00:00,-0.0942151,276.594,276.971,253.02,279.613,279.511,260.461,-0.0250711,-0.0570695,237.528,260.545
2016-05-09 01:00,-0.00203398,276.811,277.601,253.02,280.201,279.959,260.219,0.0,0.0,238.231,261.194
2016-05-09 02:00,-0.00175114,280.239,279.823,254.572,282.946,282.028,261.062,0.0,0.0,237.913,261.355
2016-05-09 03:00,-0.00165479,278.279,277.727,253.501,280.931,280.108,260.461,0.0,0.0,237.849,261.113
2016-05-09 04:00,0.0,278.482,278.35,253.261,281.221,280.554,260.822,0.0,0.0,239.774,261.675
2016-05-09 05:00,0.0,275.707,276.336,252.29,279.17,279.511,259.977,0.0,0.0,241.073,261.755
2016-05-09 06:00,0.0,276.594,276.718,252.534,279.613,279.661,259.735,0.0,0.0,240.193,261.595
2016-05-09 07:00,0.0,278.075,278.35,253.381,281.221,280.85,260.701,0.0,0.0,240.193,261.595
2016-05-09 08:00,0.0,274.314,275.951,252.168,279.17,279.211,260.219,0.0,0.0,240.312,261.435
2016-05-09 09:00,0.715091,278.684,276.08,252.412,279.318,279.361,259.977,0.68857,0.750238,240.899,261.755
2016-05-09 10:00,0.604496,288.568,275.951,252.168,279.318,279.511,260.098,0.538243,0.57484,241.476,262.072
2016-05-09 11:00,0.310705,297.045,280.187,254.572,283.372,281.882,261.062,0.280743,0.269199,241.76,262.779
2016-05-09 12:00,0.0222602,289.381,288.412,258.358,291.029,289.413,264.022,0.0710411,0.0414885,241.93,262.545
2016-05-09 13:00,0.0142007,289.113,288.412,258.358,291.029,289.826,264.022,0.0553091,0.0358412,241.073,261.993
2016-05-09 14:00,0.0191411,289.381,288.303,258.246,290.897,289.551,263.905,0.0486201,0.0322067,241.419,262.23
2016-05-09 15:00,0.007344,289.113,288.628,258.469,291.292,289.826,264.255,0.0341998,0.0172998,241.361,262.545
2016-05-09 16:00,0.0162106,289.381,288.412,258.246,291.029,289.551,264.138,0.0369533,0.023919,241.419,262.623
2016-05-09 17:00,0.0324527,290.813,288.52,258.691,290.897,289.413,264.138,0.0526655,0.0382235,241.874,262.857
2016-05-09 18:00,0.0962082,295.042,288.087,258.246,290.5,288.999,263.787,0.106832,0.0923511,242.211,262.857
2016-05-09 19:00,0.320711,299.485,286.439,257.346,288.897,287.329,263.67,0.285295,0.276645,242.099,263.167
2016-05-09 20:00,0.796872,308.976,288.951,258.58,291.423,290.101,264.488,0.601768,0.646077,242.544,263.858
2016-05-09 21:00,1.40982,300.858,288.951,258.58,291.16,290.101,264.721,0.87894,1.06925,242.929,264.389
2016-05-09 22:00,-0.0236659,287.729,288.736,258.58,291.029,289.689,265.069,-0.0200379,-0.0238921,243.472,264.839
2016-05-09 23:00,-0.267458,288.291,288.843,258.691,291.423,290.101,264.138,-0.0702795,-0.144318,244.111,265.212
2016-05-10 00:00,-0.0975204,288.152,288.843,258.469,291.423,290.101,264.605,-0.0275234,-0.0601655,244.322,265.507
2016-05-10 01:00,-0.00408954,284.888,286.439,256.778,288.897,288.027,263.787,0.0,-0.00206432,244.894,265.137
2016-05-10 02:00,-0.00175971,286.864,287.869,258.022,290.367,289.137,264.255,0.0,0.0,244.842,264.839
2016-05-10 03:00,-0.00166271,288.291,288.951,258.802,291.423,290.101,264.605,0.0,-0.0016786,245.151,264.839
2016-05-10 04:00,-0.00170576,287.871,288.52,258.802,291.292,290.101,264.605,0.0,0.0,245.456,264.765
2016-05-10 05:00,-0.00190921,287.3,288.412,258.358,291.029,289.826,264.721,0.0,0.0,245.608,264.839
2016-05-10 06:00,0.0,284.41,284.528,256.434,286.86,285.919,262.492,0.0,0.0,245.405,264.464
2016-05-10 07:00,0.0,286.717,287.76,258.246,290.234,289.276,264.255,0.0,0.0,245.91,264.914
2016-05-10 08:00,-0.00914551,286.421,286.992,257.572,289.3,287.888,263.083,0.0,-0.00923293,245.709,264.989
2016-05-10 09:00,0.246516,288.43,287.869,258.022,291.029,289.689,264.255,0.394257,0.33183,245.709,264.989
2016-05-10 10:00,0.263824,289.779,283.611,255.858,286.447,285.493,262.492,0.298934,0.297681,245.658,264.839
2016-05-10 11:00,0.0,0.0,0.0,0.0,0.0,0.0,0.0,0.0,0.0,0.0,0.0
2016-05-10 12:00,0.0615729,290.301,287.978,257.685,290.5,289.276,264.138,0.101371,0.0863354,245.809,265.801
2016-05-10 13:00,0.0141924,288.977,289.058,258.469,291.686,290.511,264.605,0.0528734,0.0315218,245.91,265.434
2016-05-10 14:00,0.00510279,288.841,289.486,259.134,291.948,290.784,265.185,0.0367245,0.0193184,245.759,265.655
2016-05-10 15:00,0.0110142,289.113,289.272,259.902,291.948,291.057,265.185,0.0341943,0.019768,245.608,265.875
2016-05-10 16:00,0.0199483,290.429,289.165,260.228,291.817,290.784,264.953,0.0401143,0.0264325,245.557,265.728
2016-05-10 17:00,0.0554235,291.563,288.52,259.793,291.292,290.238,264.721,0.0698182,0.0559533,245.405,265.507
2016-05-10 18:00,0.104029,294.933,288.628,260.119,291.292,290.238,265.185,0.110768,0.103432,245.048,265.434
2016-05-10 19:00,0.273663,302.085,289.379,260.553,291.817,290.648,265.301,0.247157,0.247628,244.635,265.728
2016-05-10 20:00,0.886545,311.484,289.593,260.553,291.948,290.648,265.185,0.670118,0.730882,244.322,265.801
2016-05-10 21:00,1.53599,301.478,288.628,260.337,291.16,289.689,264.837,0.959207,1.17879,244.322,265.507
2016-05-10 22:00,-0.0492781,288.705,289.272,260.445,291.948,290.784,265.301,0.0,0.0,244.217,265.655
2016-05-10 23:00,-0.195493,287.729,288.843,260.445,291.292,290.238,265.185,-0.0591156,-0.131575,244.111,265.434
2016-05-11 00:00,-0.100864,287.155,287.76,259.574,290.234,288.999,264.605,-0.0253895,-0.0577941,244.006,265.434
2016-05-11 01:00,-0.00205558,284.888,285.433,258.58,287.815,286.626,263.083,0.0,0.0,244.111,265.728
2016-05-11 02:00,0.0,279.278,281.267,255.742,283.23,283.194,261.779,0.0,0.0,244.111,265.286
2016-05-11 03:00,0.0,286.121,286.217,258.469,288.087,286.626,262.728,0.0,0.0,242.984,265.063
2016-05-11 04:00,0.00171404,285.818,284.185,257.12,285.757,284.205,260.942,0.0,0.0,240.841,262.309
2016-05-11 05:00,0.0,283.594,280.429,255.043,281.799,279.211,256.41,0.0,0.0,239.043,259.721
2016-05-11 06:00,0.0,287.3,287.869,259.024,290.367,289.137,263.787,0.0,0.00242851,241.704,264.839
2016-05-11 07:00,-0.00364147,287.871,287.76,258.802,290.101,288.445,263.553,0.0,0.0,240.253,264.086
2016-05-11 09:00,0.46884,280.613,279.945,254.69,282.231,281.441,260.822,0.544411,0.58151,236.341,262.23
2016-05-11 10:00,0.656312,283.924,272.662,250.931,273.529,272.086,254.009,0.706064,0.799001,230.43,255.73
2016-05-11 11:00,0.484774,288.43,270.468,249.669,270.981,269.494,252.205,0.48864,0.524366,230.184,254.068
2016-05-11 12:00,0.273367,291.563,272.931,251.18,274.778,272.883,254.9,0.267625,0.27598,231.709,255.73
2016-05-11 13:00,0.0609952,284.249,276.971,252.899,277.075,274.617,252.853,0.10449,0.0887873,231.709,254.999
2016-05-11 14:00,0.0663197,280.427,270.607,248.9,270.169,267.673,249.572,0.105826,0.0978554,230.101,250.849
2016-05-11 15:00,0.101562,273.338,256.992,241.791,254.657,252.341,239.025,0.145047,0.143299,225.546,240.835
2016-05-11 16:00,0.0486171,284.249,277.476,253.261,278.278,275.706,254.519,0.0759952,0.0679596,231.076,254.999
2016-05-11 17:00,0.136492,278.482,261.017,244.626,260.158,256.367,241.084,0.162481,0.16099,226.499,242.971
2016-05-11 18:00,0.132317,284.087,274.392,251.429,274.623,272.565,252.335,0.162715,0.162207,230.511,251.252
2016-05-11 19:00,0.251032,298.144,285.882,257.685,287.951,286.202,261.062,0.239974,0.247301,232.633,259.387
2016-05-11 20:00,0.666772,270.151,233.666,231.799,231.408,229.121,224.834,0.69404,0.799747,219.382,225.21
2016-05-11 21:00,0.971137,292.771,280.669,255.626,281.943,279.361,256.16,0.676469,0.820494,228.835,254.999
2016-05-11 22:00,-0.025693,275.251,265.995,247.2,265.31,262.888,246.319,0.0,-0.0259386,226.963,247.04
2016-05-11 23:00,-0.291304,288.43,288.736,259.902,291.423,289.826,264.022,-0.0716071,-0.147044,233.159,260.052
2016-05-12 00:00,-0.0822984,285.045,284.185,257.798,285.895,280.257,257.9,-0.02555,-0.0553901,231.943,257.158
2016-05-12 01:00,-0.00206641,284.41,283.148,256.664,284.501,278.76,254.773,-0.00174962,-0.00208616,230.916,256.271
2016-05-12 02:00,0.0,287.729,288.087,259.464,290.897,289.413,264.255,0.0,0.0,231.076,258.882
2016-05-12 03:00,0.0,287.729,287.651,259.134,290.101,288.584,262.728,0.0,0.0,229.852,257.158
2016-05-12 04:00,0.0,276.811,272.12,251.056,270.981,262.008,245.35,0.0,0.0,228.312,247.151
2016-05-12 05:00,0.0,285.665,283.726,257.346,285.479,283.339,259.614,0.0,0.0,228.575,252.634
2016-05-12 06:00,0.0,287.729,287.76,259.134,290.632,288.584,262.965,0.0,0.0,229.178,254.907
2016-05-12 07:00,0.00367132,278.075,271.848,250.555,272.104,264.623,247.551,0.0,0.0,229.007,247.59
2016-05-12 08:00,0.0,279.081,274.655,252.412,275.087,267.171,248.094,0.0,0.0,229.348,248.241
2016-05-12 09:00,0.459176,272.322,262.931,245.723,263.04,260.225,245.35,0.544297,0.622502,228.921,244.764
2016-05-12 10:00,0.242085,263.636,252.853,240.617,253.469,252.144,241.519,0.432722,0.500437,228.921,241.98
2016-05-12 11:00,0.366303,294.043,259.54,244.07,258.678,253.316,240.5,0.323802,0.348872,228.748,242.105
2016-05-12 12:00,0.252616,290.041,260.854,245.177,260.706,256.367,243.525,0.25002,0.26537,228.662,242.23
2016-05-12 13:00,0.189989,295.042,268.487,249.414,267.857,260.584,244.652,0.174068,0.177491,228.224,243.937
2016-05-12 14:00,0.108384,293.356,275.436,252.899,275.55,267.84,248.364,0.101485,0.0952601,229.007,246.707
2016-05-12 15:00,0.177409,293.007,273.599,252.777,273.529,268.007,251.028,0.170931,0.175399,229.935,248.775
2016-05-12 16:00,0.0423789,290.429,282.682,257.685,285.201,281.735,258.515,0.055934,0.0465591,229.517,251.85
2016-05-12 17:00,0.187794,298.533,265.995,248.252,265.482,258.591,244.512,0.155573,0.159582,229.348,243.818
2016-05-12 18:00,0.176314,299.297,277.727,255.043,279.318,273.359,252.594,0.157282,0.160518,229.935,249.198
2016-05-12 19:00,0.638885,304.715,257.683,243.93,257.17,253.122,242.814,0.540943,0.62254,229.178,243.093
2016-05-12 20:00,0.189075,294.602,288.303,260.984,291.029,288.722,262.847,0.23497,0.203197,230.018,251.751
2016-05-12 21:00,0.51195,294.713,286.992,260.553,289.701,287.188,262.373,0.462365,0.447931,229.007,250.849
2016-05-12 22:00,-0.0268374,257.103,248.784,239.267,249.579,247.708,239.913,-0.0227232,-0.027094,228.575,239.656
2016-05-12 23:00,-0.284575,264.739,253.963,241.791,252.059,246.876,237.373,-0.0722847,-0.148436,226.592,238.441
2016-05-13 00:00,-0.0910999,259.045,247.973,238.81,247.229,243.679,236.46,-0.0257114,-0.0557398,227.51,237.468
2016-05-13 01:00,-0.00207723,271.798,261.822,245.859,259.791,255.045,241.953,0.0,0.0,225.931,240.053
2016-05-13 02:00,0.0,256.062,248.177,238.04,246.575,244.758,236.613,0.0,0.0,225.931,235.887
2016-05-13 03:00,0.0,271.531,262.616,245.995,261.971,259.321,244.932,0.0,0.0,226.778,240.706
2016-05-13 04:00,0.00173041,246.775,231.427,230.387,228.293,226.151,223.053,0.0,0.0,219.624,223.999
2016-05-13 05:00,0.00193898,279.667,273.466,251.676,273.372,270.311,251.159,0.0,0.0,227.147,243.698
2016-05-13 06:00,0.0,280.799,274.655,252.29,275.55,272.405,252.335,0.0,0.0,228.048,244.764
2016-05-13 07:00,0.0,284.41,281.029,255.742,282.374,279.81,257.158,0.0,0.0,228.748,247.371
2016-05-13 08:00,0.0,283.093,279.458,254.808,280.785,278.609,256.41,0.0,0.0,229.852,247.808
2016-05-13 09:00,0.257297,277.451,270.468,249.669,271.464,268.835,250.765,0.424814,0.428599,229.517,244.53
2016-05-13 10:00,0.0191282,287.587,287.102,258.802,290.234,288.167,262.136,0.126327,0.0656575,231.865,250.544
2016-05-13 11:00,0.0758815,280.799,274.655,252.168,275.087,273.2,253.497,0.163542,0.136964,230.996,244.647
2016-05-13 12:00,0.173944,262.074,252.666,240.32,253.069,252.341,242.527,0.317658,0.328832,229.852,241.602
2016-05-13 13:00,0.0765307,277.869,272.12,250.177,273.057,270.96,253.111,0.160796,0.14594,230.43,247.699
2016-05-13 14:00,0.201432,283.924,253.411,240.766,254.066,250.357,240.354,0.309801,0.351372,231.156,241.602
2016-05-13 15:00,0.0868622,291.686,276.845,253.501,277.978,273.359,252.982,0.0901199,0.0852224,233.01,247.917
2016-05-13 16:00,0.189438,297.248,266.293,247.859,267.354,262.361,247.415,0.14879,0.159794,232.175,246.595
2016-05-13 17:00,0.155328,290.939,266.886,248.121,265.997,261.654,247.006,0.163537,0.170448,232.405,245.575
2016-05-13 18:00,0.335106,300.317,264.635,247.067,265.826,262.361,248.094,0.310376,0.341486,232.405,246.818
2016-05-13 19:00,0.260467,298.045,282.448,256.664,284.079,279.661,256.909,0.25131,0.24665,234.686,250.135
2016-05-13 20:00,0.443935,299.765,278.101,254.099,279.76,275.706,255.28,0.383602,0.414412,235.386,250.135
2016-05-13 21:00,1.91468,298.436,264.021,246.934,265.997,263.237,249.438,1.35192,1.76906,236.071,249.513
2016-05-13 22:00,-0.028084,270.151,263.245,246.399,262.685,258.591,245.628,-0.0237787,-0.0567049,236.274,246.258
2016-05-13 23:00,-0.215458,287.444,285.208,258.246,287.134,283.629,259.005,-0.0608092,-0.140178,236.874,252.146
2016-05-14 00:00,-0.0805619,276.594,273.865,251.305,276.468,275.24,256.66,-0.0235212,-0.0504819,236.408,252.342
2016-05-14 01:00,0.0,269.865,270.329,249.924,273.057,272.565,255.532,0.0,-0.00210801,235.455,252.439
2016-05-14 02:00,-0.00179377,271.798,271.437,250.555,273.843,273.517,256.16,0.0,0.0,235.108,253.117
2016-05-14 03:00,0.0,278.883,275.176,253.14,277.678,276.169,257.034,0.0,0.0,233.896,252.828
2016-05-14 04:00,0.0,284.73,283.264,257.346,285.479,283.339,259.856,0.0,0.0,233.382,253.213
2016-05-14 05:00,-0.00194867,283.924,282.799,256.892,285.34,283.194,259.614,0.0,0.0,231.552,252.537
2016-05-14 06:00,0.0,275.932,276.591,253.381,279.318,278.156,258.638,0.0,0.0,231.076,251.85
2016-05-14 07:00,0.0,278.482,278.474,254.217,281.221,279.81,259.127,0.0,0.0,230.674,251.051
2016-05-14 08:00,0.00982292,283.924,283.148,256.892,285.618,283.339,259.977,0.0,0.0,231.076,251.352
2016-05-14 09:00,0.214714,287.3,284.869,257.572,287.407,284.779,259.856,0.352902,0.26777,231.394,250.95
2016-05-14 10:00,0.0342869,288.152,286.217,258.691,288.763,286.06,260.942,0.132251,0.0730754,230.916,250.238
2016-05-14 11:00,0.0275446,288.568,286.328,258.802,289.166,286.485,260.822,0.0932879,0.0556159,230.835,250.34
2016-05-14 12:00,0.0920124,283.594,274.524,251.922,276.315,273.042,252.853,0.137058,0.122136,230.018,246.032
2016-05-14 13:00,0.051002,289.647,285.433,257.91,288.222,285.065,260.219,0.0803689,0.0600711,231.076,249.617
2016-05-14 14:00,0.182284,289.91,272.662,251.056,275.087,273.2,254.519,0.161895,0.169871,232.405,249.303
2016-05-14 15:00,0.0513805,290.558,281.978,255.858,284.641,281.146,258.882,0.0631841,0.0506366,233.456,250.544
2016-05-14 16:00,0.0236777,289.514,285.095,257.685,287.815,285.065,260.701,0.042206,0.0301945,234.827,251.152
2016-05-14 17:00,0.090472,293.587,279.945,255.277,282.231,278.76,257.158,0.0971823,0.0886104,234.897,251.552
2016-05-14 18:00,0.290878,296.114,271.162,250.429,273.057,270.96,254.392,0.256936,0.273023,235.525,251.949
2016-05-14 19:00,0.375064,304.636,282.096,256.32,284.501,281.146,259.127,0.320981,0.333863,235.662,253.213
2016-05-14 20:00,0.848893,306.845,286.105,258.469,289.032,286.485,261.062,0.66485,0.691728,235.525,253.309
2016-05-14 21:00,1.26753,295.476,276.718,253.621,279.466,276.631,257.034,0.936934,1.20517,235.731,253.785
2016-05-14 22:00,-0.0294461,287.444,285.77,257.798,288.358,286.06,261.301,-0.0249319,-0.0594551,235.867,254.629
2016-05-14 23:00,-0.285179,288.291,287.102,258.58,289.701,287.329,261.779,-0.0736659,-0.151272,236.071,254.814
2016-05-15 00:00,-0.0978408,287.587,285.77,257.685,288.493,285.919,260.822,-0.0260359,-0.0564435,236.808,254.999
2016-05-15 01:00,-0.00419772,287.155,286.328,258.022,289.166,286.907,261.182,0.0,0.0,236.609,255.183
2016-05-15 02:00,0.0,287.3,286.439,258.022,289.3,287.048,262.373,0.0,0.0,237.977,255.821
2016-05-15 03:00,-0.00170164,286.271,285.77,257.459,288.493,286.485,261.898,0.0,0.0,236.742,254.629
2016-05-15 04:00,-0.00174646,285.512,285.321,257.346,287.951,286.06,261.301,0.0,0.0,237.913,255.183
2016-05-15 05:00,0.0,285.818,285.321,257.12,287.815,285.635,261.301,0.0,0.0,238.104,254.907
2016-05-15 06:00,0.0,287.587,286.882,257.685,289.835,287.609,262.017,0.0,-0.00248588,238.357,255.091
2016-05-15 07:00,0.0,287.729,286.992,257.685,289.835,287.748,261.898,0.0,0.0,238.483,255.548
2016-05-15 08:00,0.00999185,287.444,286.661,257.346,289.568,287.188,261.66,0.0,-0.0100874,238.919,255.275
2016-05-15 09:00,0.0744826,288.152,286.992,257.798,289.835,287.469,262.017,0.283789,0.175454,238.546,255.639
2016-05-15 10:00,0.10625,289.113,286.439,257.685,289.3,287.188,261.66,0.176711,0.130252,238.671,255.73
2016-05-15 11:00,0.0687486,289.381,286.328,257.572,288.897,286.767,261.779,0.130001,0.0948547,238.671,256.091
2016-05-15 12:00,0.195807,289.779,282.448,255.393,285.201,283.629,260.581,0.232105,0.22862,239.714,255.821
2016-05-15 13:00,0.269094,289.381,280.909,254.454,283.656,282.467,260.34,0.296193,0.297403,240.014,256.539
2016-05-15 14:00,0.210307,289.647,283.841,256.549,286.585,285.065,261.779,0.229868,0.218751,240.253,256.628
2016-05-15 15:00,0.015903,288.841,286.992,257.798,289.3,287.048,262.017,0.0476456,0.0284051,240.724,256.805
2016-05-15 16:00,0.0137071,289.381,286.772,257.91,289.032,287.048,262.017,0.0422028,0.0264182,241.131,256.982
2016-05-15 17:00,0.0242999,290.301,286.55,257.91,289.032,286.907,261.779,0.0502937,0.0340725,241.361,256.982
2016-05-15 18:00,0.136708,294.268,286.661,257.798,289.166,287.048,262.017,0.146352,0.126911,242.211,257.333
2016-05-15 19:00,0.235618,291.065,284.642,256.892,287.407,285.919,261.54,0.284753,0.2704,242.266,257.682
2016-05-15 20:00,0.622724,301.302,286.661,257.91,289.166,287.048,262.136,0.527259,0.540174,242.71,257.769
2016-05-15 21:00,1.48926,298.045,286.992,258.469,289.568,287.469,262.373,0.996382,1.1142,241.76,257.682
2016-05-15 22:00,-0.0618794,288.012,287.102,258.802,289.701,287.469,262.373,-0.0261966,-0.0624709,240.724,257.158
2016-05-15 23:00,-0.273262,287.729,287.212,259.024,289.835,287.748,262.61,-0.0702375,-0.142863,240.548,257.421
2016-05-16 00:00,-0.106892,283.924,283.726,257.233,286.31,284.922,261.421,-0.026199,-0.0567969,239.471,257.421
2016-05-16 01:00,-0.00421929,287.871,287.322,258.691,289.835,288.027,262.847,0.0,0.0,238.546,257.158
2016-05-16 02:00,0.0,287.01,286.55,258.246,288.628,286.907,262.017,0.0,0.0,238.483,257.682
2016-05-16 03:00,0.0,288.012,287.102,258.469,289.3,287.188,262.017,0.0,0.0,237.849,257.333
2016-05-16 04:00,0.00175434,283.428,283.032,256.32,285.757,284.205,260.942,0.0,0.00177111,237.398,257.246
2016-05-16 05:00,0.0,279.667,280.066,254.454,283.23,282.467,260.701,0.0,0.0,235.178,256.271
2016-05-16 06:00,0.0,280.239,280.909,255.393,283.797,282.758,260.34,0.0,0.0,234.543,255.73
2016-05-16 07:00,0.0,277.451,279.091,254.217,282.231,281.735,259.735,0.0,0.0,234.041,255.639
2016-05-16 08:00,-0.0101599,277.869,278.721,253.741,281.655,280.85,259.614,0.0,0.0,234.401,255.73
2016-05-16 09:00,0.537418,283.594,281.267,255.043,284.079,282.758,260.219,0.537764,0.517894,234.472,256.001
2016-05-16 10:00,0.0340255,288.152,286.217,257.798,288.493,286.06,261.421,0.131243,0.0763351,234.185,255.73
2016-05-16 11:00,0.0709324,288.705,285.321,256.892,287.407,285.065,260.822,0.141428,0.122431,233.53,255.275
2016-05-16 12:00,0.0425383,289.647,285.095,257.12,287.679,284.922,260.219,0.0850004,0.0601229,232.86,254.629
2016-05-16 13:00,0.0141591,288.568,286.439,257.572,288.493,286.202,261.421,0.0551472,0.0328773,232.709,254.349
2016-05-16 14:00,0.0280391,289.247,286.439,258.022,288.763,286.343,261.421,0.0550351,0.0373139,233.382,254.814
2016-05-16 15:00,0.0538252,289.647,286.105,258.022,288.358,286.06,261.779,0.0735394,0.0592797,233.968,254.907
2016-05-16 16:00,0.0984358,280.982,266.145,246.934,265.826,262.712,245.211,0.130821,0.124535,229.007,243.093
2016-05-16 17:00,0.0904279,289.247,285.321,257.346,287.543,285.35,260.581,0.110848,0.10083,233.382,254.256
2016-05-16 18:00,0.248126,279.859,258.703,243.368,257.361,254.664,240.793,0.276571,0.299646,228.662,239.523
2016-05-16 19:00,0.25341,290.685,280.187,254.454,281.51,278.609,255.658,0.258837,0.251772,231.236,250.646
2016-05-16 20:00,0.916304,305.569,272.391,250.555,274.156,269.657,252.464,0.752864,0.867247,232.481,250.238
2016-05-16 21:00,1.45676,300.042,284.982,257.459,287.27,284.779,260.581,0.999025,1.13795,233.308,252.537
2016-05-16 22:00,-0.0325838,286.271,285.658,257.459,288.222,286.06,261.062,-0.0275886,-0.0657905,233.01,253.309
2016-05-16 23:00,-0.226611,286.717,285.994,257.685,288.493,286.202,261.301,-0.0625668,-0.134283,233.085,253.309
2016-05-17 00:00,-0.11605,286.864,286.105,257.91,288.628,286.343,261.421,-0.0287589,-0.057151,232.481,253.021
2016-05-17 01:00,0.0,287.155,286.55,257.685,289.032,286.485,260.822,0.0,0.0,233.159,253.117
2016-05-17 02:00,-0.0018189,287.587,286.661,257.798,289.3,286.907,261.301,0.0,0.0,233.234,253.309
2016-05-17 03:00,0.00171677,287.01,286.439,257.91,288.897,286.343,260.942,0.0,0.00173319,234.472,253.88
2016-05-17 04:00,0.0,285.97,285.321,257.233,287.815,285.777,260.701,0.0,0.0,235.108,254.162
2016-05-17 05:00,0.0,286.864,286.217,257.685,288.897,286.626,261.182,0.0,0.0,235.317,254.256
2016-05-17 06:00,-0.00248938,286.569,286.439,257.685,289.3,286.907,261.301,0.0,0.0,236.207,254.629
2016-05-17 07:00,0.0,287.729,286.992,258.246,289.968,287.469,261.66,0.0,0.0,236.874,254.999
2016-05-17 08:00,0.0,287.587,286.882,258.022,289.701,287.469,262.017,0.0,0.0,237.463,255.275
2016-05-17 09:00,0.204507,287.587,286.882,258.358,289.835,287.888,262.373,0.356497,0.291476,237.913,255.821
2016-05-17 10:00,0.0263725,288.568,287.541,258.358,290.5,288.445,262.017,0.130787,0.0722668,238.168,255.457
2016-05-17 11:00,0.0434139,289.247,287.212,258.246,290.367,288.306,262.255,0.100602,0.0645901,237.657,255.366
2016-05-17 12:00,0.0204063,288.705,287.541,259.024,290.897,289.137,262.492,0.067672,0.0394859,237.528,255.366
2016-05-17 13:00,0.0155718,288.977,287.76,258.58,291.029,289.137,262.965,0.0515398,0.0300121,237.333,255.548
2016-05-17 14:00,0.00764677,288.705,287.978,258.58,291.292,289.551,263.318,0.038847,0.0192997,237.072,255.73
2016-05-17 15:00,0.00489327,288.841,288.52,258.691,291.686,290.238,263.553,0.0321092,0.0172902,236.808,255.457
2016-05-17 16:00,0.00872174,289.381,288.628,258.469,292.079,290.511,263.67,0.0316486,0.0188681,235.867,255.275
2016-05-17 17:00,0.0647691,292.534,287.541,258.022,290.897,289.413,263.2,0.0754048,0.0667505,236.675,255.548
2016-05-17 18:00,0.127127,295.583,287.432,258.246,290.632,288.999,262.373,0.131558,0.12042,237.592,255.73
2016-05-17 20:00,1.00983,312.912,288.195,259.024,291.029,288.999,263.318,0.755777,0.813159,238.608,256.805
2016-05-17 21:00,2.61438,310.907,287.869,258.802,290.764,288.722,262.61,1.49418,1.80797,240.371,257.246
2016-05-17 22:00,-0.0344011,287.3,287.212,258.246,290.101,288.167,262.492,-0.0291273,-0.0347299,240.724,257.682
2016-05-17 23:00,-0.198939,287.01,286.992,258.134,289.835,287.888,263.318,-0.0631656,-0.135568,241.647,258.286
2016-05-18 00:00,-0.111074,287.729,287.322,257.91,290.234,288.306,262.965,-0.0265258,-0.0546302,241.986,258.713
2016-05-18 01:00,-0.00213111,288.012,287.978,258.802,290.764,288.999,262.965,0.0,0.0,241.93,258.967
2016-05-18 02:00,0.0,287.3,286.882,258.134,289.835,287.888,262.373,0.0,0.0,242.544,258.882
2016-05-18 03:00,-0.00172422,288.43,288.303,258.691,291.555,289.826,263.436,0.0,0.0,241.647,258.543
2016-05-18 04:00,0.0,287.729,287.541,258.134,290.367,288.861,262.61,0.0,0.0,241.189,258.286
2016-05-18 05:00,-0.00198603,287.3,287.432,258.246,290.234,288.445,262.965,0.0,0.0,241.189,258.286
2016-05-18 06:00,0.0,285.818,285.994,257.459,288.897,287.469,262.61,0.0,0.0,240.724,258.457
2016-05-18 07:00,-0.00384069,286.864,286.882,257.798,290.234,288.722,262.965,0.0,0.0,240.899,258.2
2016-05-18 08:00,0.0,287.155,287.322,257.685,290.367,288.999,262.373,0.0,0.0,240.957,258.457
2016-05-18 09:00,0.308358,287.3,286.328,257.233,289.166,287.469,262.61,0.411713,0.371173,240.548,258.628
2016-05-18 10:00,0.232828,288.291,284.642,256.664,287.134,285.635,261.66,0.295703,0.280548,240.724,258.628
2016-05-18 11:00,0.387943,288.43,279.945,253.98,282.374,281.441,259.977,0.475317,0.511451,241.015,258.713
2016-05-18 12:00,0.147869,292.771,285.658,256.549,288.087,286.485,261.779,0.164055,0.140703,240.489,259.135
2016-05-18 13:00,0.0113231,288.43,287.541,257.459,289.968,288.027,262.373,0.0467378,0.0214338,239.714,258.713
2016-05-18 14:00,0.0140191,288.977,287.432,257.459,289.968,288.167,262.492,0.0431633,0.0257329,240.193,259.135
2016-05-18 15:00,0.0415942,289.247,286.55,256.664,288.897,287.188,262.492,0.0631848,0.0518723,240.782,259.22
2016-05-18 16:00,0.0473449,289.514,287.102,257.459,289.968,288.167,263.436,0.0685696,0.0540867,241.533,259.721
2016-05-18 17:00,0.0593582,291.19,286.992,257.233,289.701,288.027,263.083,0.07653,0.0653734,241.986,259.887
2016-05-18 18:00,0.188225,291.19,284.414,256.32,286.997,285.777,262.136,0.204524,0.191607,242.378,260.135
2016-05-18 19:00,0.328975,303.755,288.303,257.91,291.029,289.276,263.318,0.288733,0.289592,242.71,260.299
2016-05-18 20:00,0.800144,306.845,287.541,257.685,290.234,288.722,262.61,0.62927,0.674674,242.544,260.381
2016-05-18 22:00,-0.0728382,287.01,287.322,257.006,290.234,288.722,263.318,-0.030836,-0.0735345,242.322,260.381
2016-05-18 23:00,-0.210886,287.587,287.869,257.346,290.632,288.999,263.436,-0.0637703,-0.131797,241.874,260.135
2016-05-19 00:00,-0.123221,286.864,287.102,257.346,289.835,288.167,263.318,-0.0291157,-0.0578601,241.073,259.804
2016-05-19 01:00,-0.00214177,287.155,287.322,257.798,290.101,288.584,262.965,0.0,0.0,240.782,259.304
2016-05-19 02:00,0.0,287.729,287.869,258.134,290.367,288.722,263.318,0.0,0.0,240.841,259.638
2016-05-19 03:00,-0.00173158,287.3,287.212,257.685,289.835,288.445,262.847,0.0,0.0,240.548,259.721
2016-05-19 04:00,0.0,287.587,287.651,257.91,290.632,289.137,263.083,0.0,0.0,240.607,260.052
2016-05-19 05:00,0.0,287.729,287.76,257.685,290.632,289.137,262.847,0.0,0.0,240.312,260.217
2016-05-19 06:00,0.0,287.155,287.102,257.233,290.101,288.584,262.728,0.0,0.0,240.014,259.804
2016-05-19 07:00,0.0,285.818,285.546,256.32,288.222,286.485,262.136,0.0,0.0,240.074,260.052
2016-05-19 08:00,0.0,285.97,285.994,256.549,288.628,286.907,262.492,0.0,0.0,240.43,260.052
2016-05-19 09:00,0.550059,288.291,286.439,257.006,289.3,287.888,262.847,0.535099,0.543502,240.607,260.217
2016-05-19 10:00,0.0411836,288.43,287.869,257.572,290.764,289.276,263.083,0.13948,0.0869344,240.957,260.217
2016-05-19 11:00,0.0182349,288.705,288.087,257.572,290.897,289.276,263.787,0.0907068,0.0529265,241.189,260.708
2016-05-19 12:00,0.0118921,288.705,288.303,257.459,290.764,289.137,263.553,0.0647296,0.0360174,241.76,261.194
2016-05-19 13:00,0.012737,288.705,288.303,258.022,291.029,289.551,263.436,0.0515254,0.0300038,241.93,261.435
2016-05-19 14:00,0.0216665,289.381,287.541,257.798,290.234,288.584,263.67,0.0464019,0.0308803,242.322,261.755
2016-05-19 15:00,0.0807461,292.534,282.331,255.742,285.34,283.917,261.421,0.0839057,0.0765776,242.433,261.595
2016-05-19 16:00,0.0647862,290.685,287.212,257.572,289.968,288.722,263.787,0.078062,0.0691789,242.378,261.914
2016-05-19 17:00,0.0579963,292.534,287.978,258.134,290.632,289.137,263.905,0.075371,0.0639973,242.378,262.309
2016-05-19 18:00,0.128544,296.635,288.303,258.691,291.029,289.413,264.138,0.130074,0.120277,242.433,262.545
2016-05-19 19:00,0.382636,302.68,287.76,258.022,290.367,288.999,264.372,0.334154,0.337754,242.099,262.623
2016-05-19 20:00,1.01599,312.79,288.736,258.58,291.423,289.964,264.372,0.751444,0.81453,243.147,263.167
2016-05-19 21:00,2.5262,310.778,288.951,259.024,291.423,290.238,264.255,1.45861,1.79108,243.472,263.167
2016-05-19 22:00,-0.0386714,288.43,288.628,258.802,291.423,290.238,264.372,-0.065486,-0.0780822,243.846,263.244
2016-05-19 23:00,-0.263596,287.729,288.628,259.024,291.555,290.238,264.488,-0.0686726,-0.143293,243.579,263.322
2016-05-20 00:00,-0.121093,287.871,288.628,258.691,291.16,289.826,264.372,-0.0317352,-0.0582146,243.846,263.322
2016-05-20 01:00,0.0,287.155,287.978,258.246,290.632,289.413,264.022,0.0,-0.00217294,243.472,262.935
2016-05-20 02:00,0.0,288.012,288.087,258.358,290.632,288.861,263.905,0.0,-0.00186108,243.31,263.322
2016-05-20 03:00,-0.00173884,287.3,287.869,258.134,290.234,288.722,263.787,0.0,0.0,243.472,263.322
2016-05-20 04:00,0.00178477,288.152,288.736,258.691,291.292,289.551,263.553,0.0,0.00180183,242.82,262.701
2016-05-20 05:00,-0.00200373,287.444,288.087,258.691,290.764,289.689,263.787,0.0,0.0,241.59,262.545
2016-05-20 06:00,0.00252789,288.012,288.303,258.358,291.16,289.689,263.905,0.0,0.0,241.073,262.23
2016-05-20 07:00,0.0,288.012,288.52,258.58,291.292,289.964,264.255,0.0,0.0,241.246,262.545
2016-05-20 08:00,0.0,287.01,287.76,258.134,290.367,288.999,264.255,0.0,0.0,240.841,262.623
2016-05-20 09:00,0.0462372,288.43,288.843,258.802,291.423,290.375,263.905,0.254468,0.163377,240.371,262.779
2016-05-20 10:00,0.022401,288.705,288.843,259.134,291.686,290.511,264.721,0.123285,0.0678454,240.489,262.857
2016-05-20 11:00,0.0159387,288.841,288.843,259.134,291.555,290.375,264.372,0.0867556,0.0482733,240.607,262.779
2016-05-20 12:00,0.0169823,289.247,288.843,259.244,291.555,290.101,264.488,0.0661429,0.0394327,240.841,263.167
2016-05-20 13:00,0.00849073,288.977,289.058,259.464,291.817,290.511,264.488,0.046729,0.024287,241.647,263.552
2016-05-20 14:00,0.00509829,289.113,289.379,259.793,292.079,290.784,265.185,0.0366921,0.0193014,242.042,263.706
2016-05-20 15:00,0.00489406,289.113,289.486,259.683,292.079,290.784,265.185,0.0310785,0.0160578,241.874,264.086
2016-05-20 16:00,0.00622936,289.779,289.699,259.574,292.34,290.921,265.069,0.0316463,0.0176089,242.099,264.01
2016-05-20 17:00,0.0188784,290.939,289.593,259.902,292.209,290.921,264.953,0.0422443,0.0285883,242.099,264.238
2016-05-20 18:00,0.0846004,295.26,289.486,259.683,292.079,290.784,265.416,0.0968346,0.0838275,241.704,263.858
2016-05-20 19:00,0.382138,306.991,289.593,260.119,292.34,290.784,264.605,0.323556,0.329235,241.76,264.086
2016-05-20 20:00,1.30809,319.098,289.699,260.228,292.47,290.921,265.416,0.93852,1.04384,241.874,264.086
2016-05-20 21:00,2.88181,314.046,289.699,260.011,292.209,291.057,265.416,1.61409,2.04042,241.361,264.086
2016-05-20 22:00,-0.0411995,288.291,288.843,259.902,291.555,290.375,265.069,-0.069767,-0.0831866,240.957,264.01
2016-05-20 23:00,-0.286586,288.43,288.736,259.354,291.555,290.238,264.953,-0.0736621,-0.149829,241.073,263.858
2016-05-21 00:00,-0.118929,288.841,289.058,259.464,291.686,290.375,264.721,-0.0319282,-0.061497,241.246,263.782
2016-05-21 01:00,-0.00216289,288.568,289.058,259.244,291.686,290.375,264.953,0.0,0.0,242.155,264.01
2016-05-21 02:00,-0.00185148,288.705,289.165,259.574,291.686,290.375,264.721,0.0,0.0,242.544,263.782
2016-05-21 03:00,0.0,288.43,288.843,259.244,291.423,289.826,264.837,0.0,0.0,242.71,264.01
2016-05-21 04:00,0.0,288.43,288.736,259.244,291.292,289.826,264.255,0.0,0.0,243.039,264.086
2016-05-21 05:00,0.0,287.155,287.212,258.246,289.835,288.306,264.022,0.0,0.0,243.256,264.086
2016-05-21 06:00,0.0,286.271,286.105,257.798,288.628,287.329,263.2,0.0,0.0,242.984,264.238
2016-05-21 07:00,0.0,287.871,288.195,258.691,290.764,289.413,264.138,0.0,0.0,243.364,264.389
2016-05-21 08:00,0.0109711,288.291,288.736,258.913,291.292,289.964,264.837,0.0,0.0,243.793,264.765
2016-05-21 09:00,0.068561,288.568,289.165,259.134,291.686,290.511,264.721,0.270902,0.184577,244.058,264.765
2016-05-21 10:00,0.0297909,289.113,289.058,259.354,291.555,290.238,264.488,0.12612,0.0751893,243.953,264.914
2016-05-21 11:00,0.0181986,289.113,289.058,258.802,291.686,290.648,265.069,0.0828218,0.0459314,243.686,264.989
2016-05-21 12:00,0.0186747,289.647,289.058,259.244,291.686,290.101,264.953,0.0661223,0.0377065,243.686,264.615
2016-05-21 13:00,0.00566033,289.514,289.699,259.902,292.34,290.921,264.953,0.0443315,0.0228578,243.74,264.765
2016-05-21 14:00,0.00254937,290.171,290.44,260.119,292.86,291.6,265.416,0.035616,0.0167293,243.953,265.434
2016-05-21 15:00,0.00611813,290.429,290.44,260.337,292.989,291.6,265.416,0.0321173,0.0172945,244.164,265.063
2016-05-21 16:00,0.0074752,290.813,290.651,260.553,293.248,291.871,265.185,0.0305913,0.0176089,243.31,265.137
2016-05-21 17:00,0.0202226,292.294,290.651,260.445,293.248,291.6,265.762,0.0433768,0.0299433,243.846,265.212
2016-05-21 18:00,0.0344464,292.889,290.756,260.984,293.506,292.141,265.301,0.0596572,0.04426,244.322,265.581
2016-05-21 19:00,0.167843,295.583,289.911,260.445,292.34,291.329,265.185,0.179332,0.169447,244.583,265.36
2016-05-21 20:00,1.09639,316.038,290.86,260.984,293.506,292.141,265.647,0.820137,0.914896,244.687,265.507
2016-05-21 22:00,-0.0881098,289.514,290.335,260.553,292.86,291.735,265.878,-0.0746024,-0.133428,245.557,265.655
2016-05-21 23:00,-0.206657,289.514,290.123,260.337,292.86,291.6,265.878,-0.0699904,-0.146043,245.809,265.728
2016-05-22 00:00,-0.102136,289.514,290.229,260.228,292.73,291.464,265.416,-0.027179,-0.0530295,246.208,265.801
2016-05-22 01:00,0.0,289.247,290.123,259.902,292.73,291.6,265.301,0.0,0.0,246.75,265.948
2016-05-22 02:00,-0.00185941,288.43,289.379,259.793,291.817,290.784,265.185,0.0,0.0,247.09,266.094
2016-05-22 03:00,0.0,287.871,288.303,259.024,291.029,289.826,264.837,0.0,0.0,247.76,266.021
2016-05-22 04:00,0.0,288.43,289.058,259.464,291.423,290.238,264.488,0.0,0.0,247.474,266.094
2016-05-22 05:00,-0.00202067,288.43,288.843,259.244,291.16,289.689,264.372,0.0,0.0,248.184,266.166
2016-05-22 06:00,0.0,288.841,289.058,259.354,291.423,290.238,264.837,0.0,0.0,248.324,266.529
2016-05-22 07:00,0.0,279.278,280.549,255.277,283.656,283.339,261.779,0.0,0.0,248.649,265.875
2016-05-22 08:00,-0.0111244,286.569,286.992,257.91,289.166,287.748,263.553,0.0,0.0,249.108,265.875
2016-05-22 09:00,0.55396,287.871,286.772,257.91,289.3,288.167,264.022,0.603047,0.661976,248.833,266.021
2016-05-22 10:00,0.0520107,289.247,288.736,258.691,291.029,289.413,263.905,0.14784,0.086263,248.741,266.094
2016-05-22 11:00,0.309119,292.174,284.071,256.434,286.722,286.202,263.083,0.329087,0.341904,248.043,266.239
2016-05-22 12:00,0.151058,295.583,284.071,256.778,286.997,285.919,263.2,0.162391,0.152502,246.847,265.434
2016-05-22 13:00,0.186794,293.587,281.624,255.51,284.641,283.773,262.728,0.182121,0.200008,243.846,264.914
2016-05-22 14:00,0.0191224,290.171,288.736,259.134,291.16,289.964,264.255,0.0431758,0.0270273,243.31,265.434
2016-05-22 15:00,0.00244751,289.514,289.699,259.464,292.34,290.921,265.069,0.0300484,0.0148255,242.875,265.063
2016-05-22 16:00,0.00249174,289.647,290.017,259.683,292.6,291.329,265.301,0.0284817,0.0150934,242.155,264.839
2016-05-22 17:00,0.012131,290.685,290.017,259.683,292.73,291.6,265.416,0.0376615,0.0231332,242.489,264.839
2016-05-22 18:00,0.0657225,294.823,290.017,259.793,292.73,291.6,265.185,0.0834707,0.0695104,242.489,264.914
2016-05-22 19:00,0.347223,306.475,289.805,259.464,292.6,291.057,265.069,0.300752,0.306221,243.147,264.989
2016-05-22 20:00,0.589615,296.323,285.095,257.12,287.543,286.485,263.905,0.564451,0.574313,243.526,264.914
2016-05-22 21:00,0.307451,290.301,287.978,258.802,289.968,288.861,264.372,0.361258,0.348397,243.793,265.137
2016-05-22 22:00,-0.0946062,288.705,288.843,259.134,291.029,289.551,264.138,-0.0801029,-0.191021,244.687,265.212
2016-05-22 23:00,-0.286856,289.113,289.593,259.464,291.948,290.784,264.605,-0.0794881,-0.157963,244.531,265.212
2016-05-23 00:00,-0.111553,289.247,289.805,259.354,292.34,290.921,265.069,-0.0323125,-0.0592735,243.846,264.989
2016-05-23 01:00,-0.00218369,288.977,289.379,259.024,291.817,290.375,264.953,0.0,0.0,242.322,264.238
2016-05-23 02:00,-0.00186723,289.113,289.272,258.913,291.817,290.375,264.372,0.0,0.0,241.76,264.162
2016-05-23 03:00,-0.00175996,288.705,289.272,258.802,291.555,290.238,264.138,0.0,0.0,242.042,264.01
2016-05-23 04:00,0.0,288.291,288.195,258.691,290.632,288.722,262.965,0.0,0.0,241.533,263.09
2016-05-23 05:00,0.0,288.705,288.843,258.691,291.686,290.101,263.905,0.0,0.0,240.782,263.167
2016-05-23 06:00,0.0,288.152,288.412,258.358,291.292,290.101,264.022,0.0,0.0,241.476,263.322
2016-05-23 07:00,0.0,288.43,288.736,258.246,291.423,290.101,263.67,0.0,0.0,240.489,263.09
2016-05-23 08:00,-0.0112735,288.291,288.736,258.358,291.423,289.964,263.787,0.0,0.0,240.782,263.09
2016-05-23 09:00,0.0223881,288.705,288.951,258.246,291.555,290.101,264.138,0.227472,0.135613,241.647,263.244
2016-05-23 10:00,0.270613,290.685,282.799,255.393,285.757,284.636,261.779,0.291903,0.295655,242.378,263.552
2016-05-23 11:00,0.367948,291.686,280.066,253.741,282.66,282.028,260.822,0.376926,0.41274,242.433,263.167
2016-05-23 12:00,0.334304,290.939,280.066,253.621,282.517,282.175,260.581,0.369264,0.38033,241.817,262.857
2016-05-23 13:00,0.0820805,291.563,287.651,257.233,290.101,288.722,263.2,0.105444,0.0871513,241.986,263.399
2016-05-23 14:00,0.0191251,289.647,289.058,258.246,291.16,289.689,264.372,0.0550568,0.0321799,240.665,263.476
2016-05-23 15:00,0.0110151,289.647,289.379,258.802,0.0,290.648,264.138,0.0362697,0.0210053,239.834,263.629
2016-05-23 16:00,0.00872121,289.91,289.805,258.913,292.34,291.329,265.185,0.0337565,0.018867,239.954,264.086
2016-05-23 17:00,0.0215618,291.19,289.911,258.913,292.47,291.329,264.721,0.0444998,0.0312914,239.593,264.086
2016-05-23 18:00,0.104781,296.738,289.593,258.913,292.34,291.329,264.953,0.113877,0.107362,239.41,264.238
2016-05-23 19:00,0.382648,305.646,289.272,258.691,292.079,290.921,264.953,0.325675,0.34003,238.041,263.399
2016-05-23 20:00,1.29707,318.281,289.593,258.913,292.079,290.921,264.837,0.933118,1.04698,237.072,263.167
2016-05-23 21:00,2.21009,307.714,288.843,258.134,291.555,290.101,264.605,1.31253,1.62156,236.475,263.012
2016-05-23 22:00,-0.102056,284.73,285.994,257.459,288.222,287.469,263.436,-0.0864103,-0.206062,235.662,262.151
2016-05-23 23:00,-0.2106,288.705,289.379,258.691,292.079,291.057,264.372,-0.0668679,-0.138198,235.317,262.309
2016-05-24 00:00,-0.0944949,287.729,288.195,258.246,290.5,289.551,263.67,-0.0250027,-0.0536615,236.207,262.701
2016-05-24 01:00,-0.00219394,286.569,286.105,257.346,288.763,287.469,262.847,0.0,-0.00221492,235.455,261.675
2016-05-24 02:00,0.00187494,257.605,242.824,234.183,241.58,238.049,230.44,0.0,0.0,223.642,233.928
2016-05-24 03:00,0.00176676,273.586,264.482,245.04,263.569,261.299,244.932,0.0,0.0,229.348,247.261
2016-05-24 04:00,0.0,282.408,278.474,252.412,279.17,276.938,255.406,0.0,0.0,231.865,255.548
2016-05-24 05:00,0.0,280.05,276.463,251.429,276.315,273.832,253.24,0.0,0.0,232.935,255.548
2016-05-24 06:00,0.0,282.753,278.845,252.412,279.466,276.784,255.027,0.0,0.0,233.234,256.001
2016-05-24 07:00,-0.00398722,285.818,284.982,256.434,286.722,285.493,260.942,0.0,0.0,234.686,259.721
2016-05-24 08:00,0.0,287.729,287.869,257.798,289.835,288.584,262.965,0.0,0.0,234.543,260.217
2016-05-24 09:00,0.066555,287.587,285.882,256.434,288.087,286.626,260.822,0.28176,0.190375,234.041,258.543
2016-05-24 10:00,0.0184989,288.841,288.951,258.358,291.555,290.101,264.022,0.115906,0.0634977,235.108,260.135
2016-05-24 11:00,0.0340482,289.247,288.303,258.134,291.029,289.689,264.255,0.0922513,0.0572894,234.329,260.052
2016-05-24 12:00,0.0101806,289.113,289.272,258.691,291.948,290.921,263.905,0.0574662,0.0291209,234.113,259.887
2016-05-24 13:00,0.00566126,289.113,289.699,258.691,292.47,291.193,264.721,0.0431404,0.0214327,234.185,260.217
2016-05-24 14:00,0.00382564,289.247,289.379,259.134,292.209,290.921,264.488,0.0356308,0.0167363,234.543,260.217
2016-05-24 15:00,0.00489628,289.381,289.593,259.024,292.34,291.329,264.372,0.0310926,0.0148293,234.113,260.381
2016-05-24 16:00,0.0485905,291.19,288.52,258.802,291.686,290.511,264.372,0.0632946,0.0528285,234.113,260.463
2016-05-24 17:00,0.0929663,292.889,288.303,258.58,291.292,290.511,264.372,0.0981079,0.0938551,235.178,261.275
2016-05-24 18:00,0.117223,297.947,290.017,259.464,292.989,292.006,264.953,0.123073,0.11361,236.341,261.914
2016-05-24 19:00,0.386136,305.416,289.058,259.024,291.948,290.921,264.837,0.331996,0.34361,236.071,261.755
2016-05-24 20:00,1.05481,314.105,289.272,259.244,292.079,290.921,264.953,0.795812,0.868572,235.799,261.675
2016-05-24 21:00,2.27344,309.181,289.165,258.913,292.079,290.784,264.605,1.34953,1.65901,235.662,261.275
2016-05-24 22:00,-0.110677,288.841,289.379,258.802,291.948,290.648,264.372,-0.0937097,-0.223469,235.455,261.275
2016-05-24 23:00,-0.207272,288.977,289.379,258.802,291.948,290.784,264.255,-0.0674987,-0.144867,235.593,261.275
2016-05-25 00:00,-0.0861365,288.705,289.165,258.58,291.686,290.511,264.138,-0.0251488,-0.0539751,235.108,261.113
2016-05-25 01:00,-0.00220408,288.705,289.165,258.913,291.423,289.826,264.138,0.0,0.0,235.108,260.708
2016-05-25 02:00,0.0,288.568,288.52,257.91,291.029,289.413,263.67,0.0,0.0,235.108,260.052
2016-05-25 03:00,0.0,285.97,285.433,256.778,287.951,286.06,262.255,0.0,0.0,234.686,259.554
2016-05-25 04:00,-0.00181974,286.569,286.328,257.12,288.493,286.767,262.492,0.0,0.0,233.968,259.051
2016-05-25 05:00,0.0020445,282.059,282.096,254.808,284.781,283.917,261.062,0.0,0.00206404,234.185,259.051
2016-05-25 06:00,0.0,280.613,281.267,254.336,283.938,283.194,260.942,0.0,0.00261026,234.185,258.543
2016-05-25 07:00,0.00400883,283.76,283.148,255.393,285.757,284.492,261.779,0.0,0.0,234.543,258.372
2016-05-25 08:00,0.0,286.271,286.105,256.664,288.493,287.188,262.373,0.0,0.0,234.401,258.628
2016-05-25 09:00,0.0330004,288.705,288.195,257.798,290.632,288.861,263.2,0.232845,0.144369,233.968,257.769
2016-05-25 10:00,0.384104,288.568,282.916,255.043,285.757,284.779,261.66,0.378381,0.365404,233.75,258.114
2016-05-25 11:00,0.0181496,288.705,288.087,257.91,290.367,288.722,263.2,0.0902827,0.0458079,233.456,257.595
2016-05-25 12:00,0.0610803,289.91,287.212,257.798,289.968,288.584,262.492,0.10056,0.0822189,233.01,256.894
2016-05-25 13:00,0.0268945,289.381,287.978,258.246,290.764,289.137,262.965,0.0671162,0.0457291,233.085,256.982
2016-05-25 14:00,0.0102036,289.113,288.303,258.246,291.16,289.137,263.318,0.042117,0.0231776,232.709,256.982
2016-05-25 15:00,0.00367276,289.381,288.736,258.58,291.423,289.413,263.67,0.0321338,0.0173034,232.86,256.45
2016-05-25 16:00,0.022427,290.171,288.195,258.58,291.029,289.276,263.67,0.0443074,0.0314463,232.784,256.181
2016-05-25 17:00,0.0592709,292.294,288.195,258.358,290.897,289.276,263.318,0.0741363,0.0611975,232.405,255.821
2016-05-25 18:00,0.204629,295.583,286.772,257.685,289.701,288.306,263.318,0.197066,0.193969,232.251,255.548
2016-05-25 19:00,0.401542,307.643,288.843,258.913,291.686,289.964,264.022,0.338302,0.347183,232.328,255.457
2016-05-25 20:00,1.27227,318.794,289.165,259.134,292.079,290.375,263.905,0.922986,1.0145,232.557,255.911
2016-05-25 21:00,1.80869,304.478,287.651,258.58,290.632,289.413,263.905,1.14207,1.31842,232.633,255.457
2016-05-25 22:00,-0.0603798,283.093,283.264,256.205,286.31,285.208,261.66,-0.15337,-0.304785,233.01,255.183
2016-05-25 23:00,-0.257497,278.279,279.213,253.741,281.943,281.588,260.942,-0.072674,-0.146226,233.01,255.091
2016-05-26 00:00,-0.10157,274.551,275.951,251.922,278.427,278.307,259.735,-0.0278234,-0.0512707,233.085,255.183
2016-05-26 01:00,-0.00442819,277.24,277.601,252.412,280.201,279.959,259.856,0.0,0.0,233.159,255.366
2016-05-26 02:00,-0.00188999,276.811,278.35,253.381,281.221,280.998,260.34,0.0,0.0,233.234,255.639
2016-05-26 03:00,0.0,279.081,280.308,253.98,283.23,282.758,261.182,0.0,0.0,233.603,256.001
2016-05-26 04:00,-0.00182625,277.24,279.091,253.381,282.517,282.467,261.062,0.0,0.0,233.159,256.091
2016-05-26 05:00,0.00205198,277.026,279.336,253.14,282.517,282.467,261.421,0.0,0.0,233.53,256.539
2016-05-26 06:00,-0.00259597,279.278,279.945,253.741,283.088,282.613,260.942,0.0,0.0,233.75,257.246
2016-05-26 07:00,0.0,278.684,279.823,253.501,282.803,282.175,260.942,0.0,0.0,234.401,257.246
2016-05-26 08:00,-0.0116912,286.569,286.882,257.459,289.434,287.888,262.847,0.0,-0.011803,234.329,258.114
2016-05-26 09:00,0.665906,285.818,284.3,255.974,287.407,286.485,262.728,0.600794,0.617168,234.686,258.114
2016-05-26 10:00,0.110627,290.041,287.76,257.798,290.234,288.584,263.436,0.177969,0.126576,234.968,258.372
2016-05-26 11:00,0.0703006,290.429,288.087,258.134,290.5,288.861,263.318,0.119047,0.0778409,235.525,259.304
2016-05-26 12:00,0.0339335,289.779,287.978,258.469,290.632,288.999,263.67,0.077575,0.0530998,235.662,259.471
2016-05-26 13:00,0.00991018,288.841,288.736,259.244,291.423,289.964,263.553,0.0503456,0.0285855,235.386,259.471
2016-05-26 14:00,0.0063786,289.247,289.272,259.464,292.079,290.784,264.022,0.0399655,0.0206066,236.004,259.638
2016-05-26 15:00,0.00612225,289.514,289.911,259.902,292.86,291.871,265.301,0.0362859,0.0197785,236.274,259.804
2016-05-26 16:00,0.00996784,289.779,290.017,260.011,293.119,292.006,265.301,0.0390339,0.0251578,236.475,260.627
2016-05-26 17:00,0.0282827,291.686,290.123,259.683,293.248,292.141,265.301,0.0592971,0.0448691,237.203,261.275
2016-05-26 18:00,0.112402,297.848,290.229,259.464,293.119,292.141,265.416,0.129537,0.118204,237.592,261.033
2016-05-26 19:00,0.448675,310.452,289.805,259.464,292.73,291.6,265.069,0.361402,0.386824,237.721,260.871
2016-05-26 20:00,1.40066,322.135,289.911,259.244,292.6,291.193,264.953,0.91302,1.07089,237.463,260.299
2016-05-26 21:00,2.49509,313.214,289.165,259.464,291.948,290.648,264.721,1.27786,1.70182,238.168,260.871
2016-05-26 22:00,-0.132699,287.01,287.651,258.58,290.632,289.413,264.721,-0.112356,-0.200951,237.913,260.299
2016-05-26 23:00,-0.21658,286.421,286.882,257.685,289.568,288.445,263.67,-0.0687668,-0.142123,238.168,260.217
2016-05-27 00:00,-0.0841226,288.291,288.52,258.691,291.292,289.964,264.255,-0.025438,-0.0545958,238.483,260.052
2016-05-27 01:00,0.0,286.717,287.541,257.91,290.101,288.722,263.318,0.0,0.0,238.608,259.721
2016-05-27 02:00,-0.00189732,288.705,288.736,258.802,291.292,289.826,264.138,0.0,0.0,238.168,259.804
2016-05-27 03:00,0.0,288.43,288.628,258.691,291.423,289.826,263.436,0.0,0.0,238.42,259.554
2016-05-27 04:00,0.0,284.888,284.528,256.664,287.543,285.919,262.136,0.0,0.0,238.42,259.051
2016-05-27 05:00,0.0,282.581,282.799,255.742,285.757,284.349,261.421,0.0,0.0,238.231,259.304
2016-05-27 06:00,-0.00260599,275.932,277.727,253.02,281.221,280.998,260.34,0.0,0.0,238.231,259.135
2016-05-27 07:00,-0.00404933,275.48,277.224,252.777,280.785,280.406,260.34,0.0,0.00408804,238.671,259.135
2016-05-27 08:00,0.0,274.787,277.098,252.777,280.347,280.406,260.461,-0.0100071,-0.0119319,238.795,259.304
2016-05-27 09:00,0.780563,277.451,277.098,252.777,280.054,279.81,259.735,0.881202,1.02881,238.919,259.051
2016-05-27 10:00,0.791749,288.705,279.213,254.336,282.087,281.882,260.942,0.807566,0.82906,238.857,259.051
2016-05-27 11:00,0.0498749,289.779,287.76,259.024,289.968,288.167,262.965,0.117089,0.0663726,239.349,259.554
2016-05-27 13:00,0.0099122,288.977,288.303,258.913,290.764,288.999,263.2,0.0491569,0.0257322,239.593,259.471
2016-05-27 14:00,0.00638006,288.977,288.52,259.244,291.029,289.551,264.022,0.0399747,0.0206114,238.733,259.304
2016-05-27 15:00,0.00489864,289.113,288.52,259.024,291.16,289.276,263.787,0.0342183,0.0185455,238.546,259.135
2016-05-27 16:00,0.00996819,289.381,288.52,259.683,291.16,289.413,264.138,0.0348152,0.0213849,238.671,259.304
2016-05-27 17:00,0.0175048,290.939,288.843,259.134,291.423,289.964,264.138,0.0467442,0.0312662,238.546,259.387
2016-05-27 18:00,0.0826913,295.583,288.736,259.354,291.555,289.964,264.022,0.100398,0.0866321,238.357,259.387
2016-05-27 19:00,0.465948,310.056,288.951,259.244,291.555,289.826,263.905,0.382766,0.390334,238.231,259.554
2016-05-27 20:00,1.66279,324.065,288.52,259.354,291.029,289.413,263.553,1.13571,1.26565,237.977,259.22
2016-05-27 21:00,2.4527,309.52,287.869,258.913,290.632,288.999,263.787,1.42709,1.71379,237.203,259.051
2016-05-27 22:00,-0.147043,288.291,288.303,259.024,291.029,289.413,263.905,-0.186752,-0.296898,237.721,259.387
2016-05-27 23:00,-0.207654,285.97,284.185,256.549,285.895,283.917,260.098,-0.064776,-0.143437,236.475,256.716
2016-05-28 00:00,-0.0815733,288.291,288.195,258.802,291.029,289.413,263.67,-0.0255807,-0.0549021,238.608,259.887
2016-05-28 01:00,0.0,288.012,288.195,258.58,290.897,289.413,263.553,0.0,0.0,238.671,260.052
2016-05-28 02:00,0.0,287.729,288.087,258.58,290.897,289.276,264.022,0.0,0.0,238.733,260.627
2016-05-28 03:00,0.0,287.587,288.087,258.469,291.029,289.551,263.436,0.0,0.0,237.657,260.217
2016-05-28 04:00,0.0,285.665,286.217,257.572,289.166,287.888,263.2,0.0,0.0,236.408,259.22
2016-05-28 05:00,0.0,288.012,287.651,258.358,290.632,288.722,263.318,0.0,0.0,235.936,259.304
2016-05-28 06:00,0.0,286.271,286.992,258.022,289.835,288.167,263.083,0.0,0.0,235.317,259.135
2016-05-28 07:00,-0.00406815,286.717,286.772,258.022,289.3,287.888,262.965,0.0,0.0,235.731,259.304
2016-05-28 08:00,0.0,288.43,288.303,258.358,290.764,288.999,263.553,0.0,-0.0120542,236.004,259.135
2016-05-28 09:00,0.118511,288.705,287.869,258.246,290.632,288.861,263.2,0.273663,0.184904,235.799,258.882
2016-05-28 10:00,0.0331043,288.152,286.217,257.572,288.087,285.919,260.581,0.130804,0.0779817,235.455,257.508
2016-05-28 11:00,0.00679961,288.568,288.303,258.913,291.029,289.276,263.67,0.0729248,0.0388995,236.207,258.798
2016-05-28 12:00,0.00848486,288.705,288.303,258.802,291.029,289.137,263.318,0.0589098,0.0308375,236.274,258.798
2016-05-28 13:00,0.03116,284.73,278.101,253.14,278.278,275.085,252.853,0.071954,0.0543364,231.236,251.452
2016-05-28 14:00,0.0689218,279.667,265.995,246.667,263.393,259.684,242.814,0.109147,0.0979284,222.368,238.303
2016-05-28 15:00,0.0930911,277.661,256.992,241.936,253.469,248.532,234.447,0.12549,0.126132,224.054,237.888
2016-05-28 16:00,0.0398743,285.512,276.718,253.02,277.075,273.517,251.291,0.0675231,0.0591253,230.266,250.95
2016-05-28 17:00,0.0578891,285.512,277.224,252.777,278.278,275.861,253.881,0.0877703,0.0788294,229.601,249.825
2016-05-28 18:00,0.0826426,293.356,285.77,257.459,288.087,285.919,260.701,0.10298,0.0897294,232.557,255.73
2016-05-28 19:00,0.429712,306.549,284.755,256.892,286.722,284.349,259.37,0.360483,0.373845,232.481,255.183
2016-05-28 20:00,1.90898,327.237,288.412,259.134,291.029,289.413,263.2,1.30293,1.45939,233.823,257.682
2016-05-28 21:00,3.30478,317.865,289.165,259.464,291.817,290.238,263.553,1.77741,2.2404,234.543,258.372
2016-05-28 22:00,-0.164582,288.012,288.195,258.802,291.029,289.413,263.553,-0.209027,-0.332311,234.041,257.769
2016-05-28 23:00,-0.209558,288.841,288.843,258.802,291.555,289.964,263.905,-0.0653699,-0.139185,233.677,257.682
2016-05-29 00:00,-0.0789858,287.729,287.978,257.91,290.632,288.861,263.2,-0.025722,-0.0552052,234.756,257.855
2016-05-29 01:00,-0.00224326,288.705,288.628,258.469,291.292,289.689,263.436,-0.00189937,0.0,235.317,258.028
2016-05-29 02:00,-0.00191152,287.587,287.869,257.798,290.367,288.861,263.318,0.0,0.0,235.593,258.114
2016-05-29 03:00,0.0,285.665,286.439,256.892,289.032,287.469,262.61,0.0,0.0,236.004,257.942
2016-05-29 04:00,0.0,286.717,286.55,256.892,289.166,287.609,262.61,0.0,0.0,236.071,257.942
2016-05-29 05:00,0.0,288.568,287.978,257.685,290.897,289.137,262.965,0.0,0.00209274,236.341,258.372
2016-05-29 06:00,0.0,288.291,287.869,257.12,290.5,288.722,262.965,0.0,0.0,237.072,258.882
2016-05-29 07:00,0.0,283.594,283.726,254.69,286.722,285.35,261.421,0.0,0.0,237.528,259.554
2016-05-29 08:00,0.0120543,285.512,285.658,255.51,288.222,286.767,262.492,-0.0102063,-0.0121695,237.528,259.471
2016-05-29 09:00,0.0749972,288.43,288.195,256.664,290.632,288.861,262.965,0.272143,0.173061,236.94,259.22
2016-05-29 10:00,0.051445,288.841,287.978,256.549,290.5,288.722,262.728,0.14312,0.0816149,237.977,259.304
2016-05-29 11:00,0.0317275,289.514,287.869,255.974,290.367,288.722,262.492,0.0997791,0.0594857,237.528,259.051
2016-05-29 12:00,0.00509178,288.568,288.412,256.434,290.897,288.999,262.965,0.0560456,0.0274158,237.785,259.135
2016-05-29 13:00,0.0255014,290.301,286.882,256.089,289.701,287.748,262.136,0.0599779,0.0457693,238.168,259.304
2016-05-29 14:00,0.0127667,289.647,288.303,257.006,290.897,289.137,262.373,0.0410763,0.0231998,238.294,259.22
2016-05-29 15:00,0.0245023,290.429,288.303,257.12,291.029,289.137,263.083,0.0446041,0.0296839,238.608,259.554
2016-05-29 16:00,0.0635524,290.171,287.102,256.549,289.835,288.306,262.492,0.0812421,0.0717082,238.671,259.638
2016-05-29 17:00,0.00942192,290.171,289.165,257.685,291.423,289.826,263.436,0.035329,0.019024,238.857,259.721
2016-05-29 18:00,0.0483097,292.414,289.058,257.685,291.555,289.826,263.905,0.0712516,0.0550646,239.043,259.887
2016-05-29 19:00,0.336215,305.261,289.272,257.346,291.948,290.101,263.67,0.291371,0.29151,239.349,260.135
2016-05-29 20:00,1.77601,324.928,289.379,257.572,291.948,290.238,263.905,1.25025,1.37922,239.288,260.708
2016-05-29 21:00,2.54897,311.8,289.165,257.572,291.817,290.238,263.905,1.51276,1.83381,239.593,260.627
2016-05-29 22:00,-0.186489,289.113,289.058,257.006,291.817,290.511,263.905,-0.3158,-0.47068,239.593,260.627
2016-05-29 23:00,-0.22259,289.113,288.951,257.459,291.686,290.101,263.905,-0.0706749,-0.146067,240.134,260.381
2016-05-30 00:00,-0.0916321,288.43,288.52,257.006,291.029,289.551,263.083,-0.0284477,-0.0585884,241.015,260.627
2016-05-30 01:00,0.0,288.977,288.843,257.233,291.423,289.826,263.436,0.0,0.0,241.015,260.952
2016-05-30 02:00,-0.00191838,288.43,288.52,256.549,291.16,289.551,263.436,0.0,0.0,241.073,260.952
2016-05-30 03:00,0.0,288.568,288.736,257.12,291.292,289.964,263.553,0.0,0.0,241.874,261.194
2016-05-30 04:00,0.00185041,287.444,287.541,256.549,290.101,288.722,263.553,0.0,0.0,241.59,261.355
2016-05-30 05:00,0.0,287.444,287.322,256.434,289.835,288.306,263.436,0.0,0.0,241.476,261.033
2016-05-30 06:00,0.00263352,286.717,286.772,255.974,289.434,288.027,262.965,0.0,0.0,240.074,260.789
2016-05-30 07:00,-0.00410279,288.012,288.195,256.778,290.764,289.137,263.083,0.0,0.0,239.349,260.217
2016-05-30 08:00,0.0,288.43,288.303,257.12,291.029,289.413,263.083,-0.0102967,-0.0122773,239.774,260.545
2016-05-30 09:00,0.0959519,288.568,288.195,256.778,290.897,289.276,262.847,0.279835,0.182975,239.41,260.627
2016-05-30 10:00,0.0991362,289.514,288.087,257.233,290.897,289.276,263.318,0.170986,0.122325,239.349,260.708
2016-05-30 12:00,0.0101858,289.381,289.058,257.798,291.555,290.101,263.553,0.0574954,0.0308496,239.166,260.627
2016-05-30 13:00,0.00566869,289.91,289.486,257.91,292.209,290.511,264.138,0.0419971,0.0200301,239.227,260.545
2016-05-30 14:00,0.0038311,290.301,290.017,258.134,292.86,291.329,263.905,0.0335192,0.0154709,238.483,260.463
2016-05-30 15:00,0.00245072,290.939,290.651,258.58,293.377,291.464,264.372,0.0290503,0.0136078,238.546,260.463
2016-05-30 16:00,0.00373854,291.44,290.965,258.913,293.892,292.006,264.372,0.0274336,0.013839,238.671,260.708
2016-05-30 17:00,0.0121115,292.414,290.965,258.802,293.764,291.871,264.721,0.0376008,0.0244545,238.981,260.871
2016-05-30 18:00,0.0420514,293.587,290.651,258.802,293.506,291.735,264.605,0.0632975,0.0503151,239.288,260.871
2016-05-30 19:00,0.0770347,294.602,290.965,259.024,293.764,292.141,264.953,0.108709,0.0877418,238.795,261.275
2016-05-30 20:00,0.70158,309.249,290.756,259.024,293.635,292.141,264.605,0.557207,0.602922,239.41,261.435
2016-05-30 21:00,0.378522,295.368,290.965,258.913,293.892,292.41,265.185,0.435671,0.406024,238.981,261.194
2016-05-30 22:00,-0.321889,289.647,289.805,258.469,292.73,291.329,264.488,-0.36339,-0.649932,239.593,261.194
2016-05-30 23:00,-0.280735,289.779,289.805,257.91,292.86,291.464,264.372,-0.0760634,-0.147378,239.774,261.515
2016-05-31 00:00,-0.0982616,289.91,289.911,257.798,292.989,291.6,264.953,-0.0285993,-0.0527005,239.593,261.275
2016-05-31 01:00,-0.00226187,289.647,289.911,257.572,292.989,291.735,264.488,0.0,-0.00228349,239.774,261.435
2016-05-31 02:00,0.0,288.841,289.379,257.233,292.34,291.193,264.953,0.0,0.0,239.894,261.435
2016-05-31 03:00,0.00181014,289.381,289.805,257.12,292.73,291.329,264.488,0.0,0.0,239.834,261.355
2016-05-31 04:00,0.0,289.247,289.593,257.233,292.6,291.735,264.721,0.0,0.0,239.774,261.595
2016-05-31 05:00,0.00208556,289.113,289.593,256.892,292.6,291.057,264.721,0.0,0.0,239.532,261.355
2016-05-31 06:00,0.0,288.841,289.379,256.664,292.47,291.193,264.255,0.0,0.0,239.532,261.113
2016-05-31 07:00,-0.00411855,288.841,289.165,256.778,292.34,291.057,264.605,0.0,0.0,239.349,261.113
2016-05-31 08:00,0.0,288.012,288.628,256.778,291.686,290.648,263.787,0.0,0.0,239.653,261.113
2016-05-31 09:00,0.0318473,288.977,289.058,257.233,291.948,290.784,264.138,0.251674,0.150041,238.546,260.545
2016-05-31 10:00,0.0183472,288.977,288.843,257.346,291.686,290.101,263.787,0.114956,0.0592724,238.42,260.381
2016-05-31 11:00,0.00679887,288.977,288.843,257.346,291.686,290.238,264.022,0.0729169,0.0366073,237.528,259.887
2016-05-31 12:00,0.0033962,289.779,289.486,257.346,292.079,290.648,263.553,0.0531978,0.0240007,237.463,259.721
2016-05-31 13:00,0.00425292,290.429,289.805,257.91,292.209,290.511,264.255,0.0432113,0.0200367,237.721,259.721
2016-05-31 14:00,0.00383226,291.065,290.017,258.469,292.6,290.784,264.372,0.0356924,0.0167652,237.072,259.554
2016-05-31 15:00,0.00367685,291.44,290.335,258.58,292.6,290.375,263.787,0.0300941,0.014848,236.274,259.051
2016-05-31 16:00,0.0062312,292.174,290.545,258.691,292.86,290.648,264.138,0.0316557,0.0150978,235.867,258.967
2016-05-31 17:00,0.00403635,292.294,290.651,259.134,292.86,291.057,263.905,0.0341757,0.0176581,235.799,258.967
2016-05-31 18:00,0.0249047,293.124,290.545,258.802,292.989,290.784,264.138,0.0553527,0.0361427,234.686,258.713
2016-05-31 19:00,0.108503,296.427,290.335,258.802,292.6,290.648,263.787,0.135298,0.113523,234.615,258.286
2016-05-31 20:00,0.780723,309.181,289.699,258.58,292.079,289.964,263.436,0.612071,0.636387,234.257,257.855
2016-05-31 21:00,0.458199,292.653,287.978,257.572,290.5,288.861,263.318,0.447642,0.444788,234.041,257.508
2016-05-31 22:00,-0.251902,286.717,285.994,256.778,288.628,287.188,262.965,-0.533213,-0.76293,234.401,257.682
2016-05-31 23:00,-0.22658,288.012,287.212,257.233,289.835,288.027,263.2,-0.0719417,-0.154403,234.827,257.855
