# timestamp,IR_016,IR_039,IR_087,IR_097,IR_108,IR_120,IR_134,VIS006,VIS008,WV_062,WV_073
2016-07-01 00:00,-0.143371,288.705,285.208,256.664,287.407,284.922,260.219,-0.0395229,-0.0740537,229.263,248.882
2016-07-01 01:00,-0.0023936,282.408,277.601,252.29,278.576,273.517,252.723,0.0,0.0,229.178,245.23
2016-07-01 02:00,0.00200898,286.864,283.841,255.742,285.201,282.467,259.127,0.0,-0.00202818,229.852,248.025
2016-07-01 03:00,-0.00187115,284.57,282.096,254.572,283.514,280.85,257.9,0.0,0.0,229.433,248.241
2016-07-01 04:00,-0.00190377,285.97,282.799,255.16,284.921,281.588,258.27,0.0,0.0,229.517,248.241
2016-07-01 05:00,0.0,283.261,281.742,254.926,284.501,282.904,259.977,0.0,0.0,229.348,248.562
2016-07-01 06:00,0.00266619,285.665,283.611,255.858,284.921,281.441,258.147,0.0,0.00269167,229.263,248.025
2016-07-01 07:00,0.00409413,285.97,282.331,255.393,283.656,279.061,255.532,0.0,0.0,228.662,247.261
2016-07-01 08:00,0.0,287.01,283.956,255.626,285.479,280.998,257.406,0.0,0.0,230.593,248.562
2016-07-01 09:00,0.51855,285.202,280.429,254.217,282.946,279.81,258.023,0.538841,0.535405,231.076,248.882
2016-07-01 10:00,0.490952,285.045,276.718,251.922,279.318,277.243,257.034,0.568324,0.565346,231.787,249.093
2016-07-01 11:00,0.340937,289.113,278.598,253.261,281.366,279.81,258.023,0.357873,0.351269,232.02,249.617
2016-07-01 12:00,0.312511,290.171,280.669,254.099,283.656,282.175,259.37,0.357214,0.361071,232.097,250.135
2016-07-01 13:00,0.190231,291.065,281.505,254.808,284.22,282.904,259.977,0.201336,0.19205,231.943,250.032
2016-07-01 14:00,0.118873,291.563,285.433,256.32,287.815,285.777,260.581,0.132376,0.109574,232.481,250.748
2016-07-01 15:00,0.125825,290.171,284.755,255.858,287.27,285.065,260.822,0.152492,0.144463,232.633,250.849
2016-07-01 16:00,0.066123,291.809,286.217,256.205,288.358,286.202,260.701,0.0929583,0.0768313,233.456,251.452
2016-07-01 17:00,0.384096,289.779,279.58,253.501,282.66,282.175,259.735,0.418132,0.433705,233.968,251.452
2016-07-01 18:00,0.411443,292.534,279.458,253.501,282.517,281.735,259.614,0.388664,0.407626,232.86,251.452
2016-07-01 19:00,0.409193,307.857,287.212,256.778,289.434,286.907,261.062,0.344837,0.339406,233.896,252.244
2016-07-01 20:00,1.13027,319.199,286.992,256.778,289.3,286.767,261.421,0.812635,0.832903,234.401,252.244
2016-07-01 21:00,1.80314,311.925,286.882,256.434,289.166,286.767,261.54,1.07534,1.20303,233.456,252.047
2016-07-01 22:00,0.454977,289.113,286.661,256.205,289.032,286.485,261.421,0.605359,0.721799,233.234,252.146
2016-07-01 23:00,-0.262763,285.357,284.642,254.808,286.447,284.492,260.098,-0.0834305,-0.165797,233.308,251.751
2016-07-02 00:00,-0.149963,288.977,286.772,255.858,289.032,286.485,260.942,-0.0423245,-0.0807449,233.01,251.552
2016-07-02 01:00,0.0,288.705,286.55,255.974,288.763,286.202,260.701,0.0,0.0,233.159,251.352
2016-07-02 02:00,-0.00200698,288.43,286.661,256.205,289.032,286.626,261.301,0.0,0.0,233.382,252.047
2016-07-02 03:00,0.0,288.43,286.772,256.205,289.032,286.626,261.898,0.0,0.0,233.53,252.244
2016-07-02 04:00,0.0,278.883,279.58,252.412,282.66,281.441,259.37,0.0,0.0,233.823,252.731
2016-07-02 05:00,0.0,287.444,285.546,255.393,287.679,285.635,260.942,0.0,0.0,234.185,252.828
2016-07-02 06:00,-0.00265896,286.717,285.321,255.16,287.543,285.493,260.701,0.0,0.0,233.968,253.021
2016-07-02 07:00,0.0,289.113,287.102,255.742,289.166,286.626,261.182,0.0,0.0,233.456,253.309
2016-07-02 08:00,0.0,287.444,286.439,255.742,289.032,286.907,261.182,0.0,-0.0114153,232.251,252.731
2016-07-02 09:00,0.369729,289.247,286.992,256.549,289.3,286.907,261.182,0.434229,0.337141,233.456,252.731
2016-07-02 10:00,0.215549,290.041,286.328,255.742,288.628,286.485,261.301,0.277016,0.229267,233.968,253.5
2016-07-02 11:00,0.0304135,290.041,287.869,256.778,290.367,288.167,261.779,0.103004,0.0637704,234.686,254.162
2016-07-02 12:00,0.0208572,290.301,288.087,256.32,290.5,288.584,262.136,0.0765255,0.049132,234.472,254.629
2016-07-02 13:00,0.0302845,290.685,288.303,256.892,291.029,288.861,262.728,0.0708204,0.046589,235.178,255.457
2016-07-02 14:00,0.0323149,290.558,288.195,256.892,290.897,288.999,262.255,0.0612885,0.0443683,235.799,255.73
2016-07-02 15:00,0.0592213,290.813,287.76,256.778,290.367,288.722,262.61,0.0814818,0.0697521,235.731,255.821
2016-07-02 16:00,0.0686172,291.19,287.651,256.549,290.367,288.722,262.492,0.0876752,0.0768302,236.207,256.628
2016-07-02 17:00,0.129794,292.414,286.992,256.205,289.568,288.167,262.61,0.142752,0.132386,237.463,257.682
2016-07-02 18:00,0.18417,294.602,286.772,255.974,289.3,287.888,263.2,0.19622,0.193678,238.42,258.286
2016-07-02 19:00,0.418607,307.857,288.412,256.892,291.029,289.137,263.083,0.354434,0.35282,238.42,258.028
2016-07-02 20:00,1.0801,316.749,288.52,257.12,291.292,289.551,263.553,0.800493,0.837933,239.653,258.798
2016-07-02 21:00,1.82765,310.254,287.978,256.778,290.632,288.861,262.847,1.16281,1.32849,239.954,258.286
2016-07-02 22:00,0.388172,289.247,288.412,257.006,291.029,289.413,263.318,0.602551,0.718451,240.957,258.967
2016-07-02 23:00,-0.229826,288.012,287.651,256.32,290.101,288.306,263.436,-0.0778372,-0.159101,241.59,259.051
2016-07-03 00:00,-0.146522,287.3,287.212,256.089,289.434,287.888,263.2,-0.0422932,-0.0806852,242.984,259.804
2016-07-03 01:00,0.0,286.121,285.658,255.51,288.358,286.767,262.728,0.0,-0.00241234,242.211,259.135
2016-07-03 02:00,0.0,289.247,288.52,256.778,291.029,288.999,262.847,0.0,-0.00202383,242.433,259.304
2016-07-03 03:00,0.0,289.381,288.412,256.892,290.897,288.861,262.847,0.0,0.0,242.211,259.135
2016-07-03 04:00,-0.00189763,289.113,288.195,256.434,290.632,288.999,262.61,0.0,0.0,242.322,258.967
2016-07-03 05:00,0.00211482,287.155,286.661,256.32,289.166,287.469,262.847,0.0,0.0,241.986,258.713
2016-07-03 06:00,0.00265137,287.587,286.992,256.32,289.701,288.027,262.373,0.0,0.0,241.93,258.713
2016-07-03 07:00,0.0,280.982,281.978,253.98,284.921,284.205,261.062,0.0,0.0,241.246,258.2
2016-07-03 08:00,0.0,289.113,288.303,257.12,290.897,289.137,263.083,0.0,0.0,240.548,258.028
2016-07-03 09:00,0.217364,289.779,288.303,257.12,290.764,289.137,262.847,0.357859,0.292589,240.548,257.855
2016-07-03 11:00,0.0984432,291.563,288.412,257.459,290.897,289.276,263.2,0.154796,0.113582,239.714,257.769
2016-07-03 12:00,0.0365407,291.065,288.736,257.91,291.555,289.689,263.436,0.088397,0.05797,240.134,257.855
2016-07-03 13:00,0.0274188,290.939,289.165,258.022,291.948,290.511,263.553,0.0672026,0.0451636,238.981,257.595
2016-07-03 14:00,0.0219824,291.065,289.272,258.469,292.209,290.511,263.67,0.0525529,0.0339416,239.104,257.769
2016-07-03 15:00,0.0148077,290.813,289.593,259.134,292.47,290.784,263.67,0.0449267,0.027407,239.043,257.855
2016-07-03 16:00,0.0336843,291.809,288.951,258.691,291.817,290.238,263.905,0.057041,0.0428228,237.913,256.716
2016-07-03 17:00,0.0468255,293.124,289.272,258.913,292.209,290.511,263.436,0.0645681,0.0513251,237.463,256.628
2016-07-03 18:00,0.11047,297.549,289.593,259.464,292.6,290.784,264.022,0.119517,0.108428,235.867,255.821
2016-07-03 19:00,0.385805,308.14,289.911,260.119,292.989,291.193,264.372,0.328286,0.327485,236.341,256.091
2016-07-03 20:00,1.20589,319.895,289.911,260.119,292.989,291.193,264.721,0.888453,0.948419,234.756,255.275
2016-07-03 21:00,1.64904,309.044,289.593,259.902,292.6,291.057,264.255,1.08252,1.2328,234.472,255.548
2016-07-03 22:00,0.258512,289.91,0.0,260.445,292.86,291.329,264.605,0.547205,0.717705,0.0,255.275
2016-07-03 23:00,-0.24932,290.301,289.911,260.553,292.86,291.057,264.372,-0.0833285,-0.172218,235.247,255.73
2016-07-04 00:00,-0.15636,290.171,289.911,260.445,292.86,291.329,264.837,-0.042252,-0.0806065,235.247,256.539
2016-07-04 01:00,0.0,289.779,289.699,260.337,292.47,291.057,264.488,0.0,0.0,235.731,256.982
2016-07-04 02:00,0.00200206,288.43,288.736,259.574,291.555,290.101,264.255,0.0,0.0,235.867,256.982
2016-07-04 03:00,0.0,290.041,289.911,260.445,292.73,291.057,264.721,0.0,0.0,235.662,257.421
2016-07-04 04:00,0.00189419,288.977,289.272,260.553,292.209,290.648,264.488,0.0,0.0,234.543,257.246
2016-07-04 05:00,0.0,288.841,288.736,260.337,291.423,290.238,264.488,0.0,0.0,234.543,257.333
2016-07-04 06:00,-0.00264342,288.012,286.439,259.024,288.897,287.048,262.373,0.0,0.0,233.896,255.821
2016-07-04 07:00,0.00403913,290.171,290.229,261.198,293.119,291.6,264.837,0.0,0.0,234.329,257.246
2016-07-04 08:00,0.0,289.779,289.911,261.091,292.86,291.193,264.372,0.0,0.0,234.756,257.246
2016-07-04 09:00,0.0978609,290.558,289.805,260.984,292.6,290.921,264.837,0.31072,0.209942,235.317,257.769
2016-07-04 10:00,0.0969306,290.685,289.058,260.445,291.686,290.238,264.605,0.190405,0.148743,235.867,258.028
2016-07-04 11:00,0.176125,292.174,287.978,260.119,290.897,289.551,264.255,0.212751,0.192033,236.341,258.286
2016-07-04 12:00,0.0243877,291.065,289.911,260.769,292.47,291.057,264.605,0.0737466,0.0439659,237.072,258.543
2016-07-04 13:00,0.213722,292.653,286.661,259.134,289.701,288.445,263.787,0.233533,0.239091,237.268,258.628
2016-07-04 14:00,0.045275,291.809,289.593,260.876,292.34,290.784,265.069,0.0854306,0.0718265,237.398,258.882
2016-07-04 15:00,0.0185126,291.315,289.911,261.412,292.86,291.329,264.721,0.0459787,0.0299033,237.137,258.967
2016-07-04 16:00,0.011228,291.315,290.545,261.731,293.506,292.006,265.301,0.0390832,0.0239301,236.874,259.22
2016-07-04 18:00,0.113509,297.449,290.44,261.838,293.377,292.006,265.416,0.119485,0.109948,235.593,258.713
2016-07-04 19:00,0.37991,308.351,290.965,262.155,293.892,292.41,265.532,0.324919,0.331241,236.408,259.22
2016-07-04 20:00,1.25754,320.336,290.86,261.838,293.764,292.41,266.108,0.927597,1.00346,236.341,259.387
2016-07-04 21:00,2.5821,317.865,290.756,261.838,293.764,292.276,265.762,1.59884,1.89584,235.936,259.304
2016-07-04 22:00,0.323983,289.779,289.911,261.519,292.989,291.735,265.647,0.548631,0.719576,235.593,259.304
2016-07-04 23:00,-0.275222,289.647,290.123,261.305,292.86,291.464,265.532,-0.0776766,-0.165388,235.525,259.304
2016-07-05 00:00,-0.136234,290.429,290.545,261.731,293.635,292.141,265.416,-0.0393875,-0.0838636,234.041,258.967
2016-07-05 01:00,-0.0023837,287.871,288.52,260.661,291.292,290.238,264.953,0.0,0.0,233.456,258.967
2016-07-05 02:00,0.0,283.924,285.321,259.354,288.358,287.888,263.553,0.0,0.0,234.401,258.882
2016-07-05 03:00,-0.00186032,289.514,289.699,261.731,292.34,290.921,264.837,0.0,0.0,234.113,258.543
2016-07-05 04:00,-0.0018905,286.717,287.541,260.553,290.101,288.861,264.488,0.0,0.0,234.185,258.286
2016-07-05 05:00,0.0,290.558,290.229,262.049,292.73,291.057,265.069,0.0,0.0,234.329,258.628
2016-07-05 06:00,-0.00263512,289.514,289.165,261.625,292.079,290.511,264.605,0.0,0.0,233.968,258.628
2016-07-05 07:00,-0.0040196,284.57,285.77,259.574,288.493,287.748,263.905,0.0,0.0,234.329,258.882
2016-07-05 08:00,0.0,290.558,290.545,262.261,293.119,291.735,264.953,0.0,0.0,234.615,259.638
2016-07-05 09:00,0.0619877,290.685,290.756,262.576,293.377,292.006,265.647,0.262425,0.162709,234.329,259.97
2016-07-05 10:00,0.0272428,291.065,290.651,262.576,293.248,292.006,265.532,0.131808,0.0785806,234.113,260.545
2016-07-05 11:00,0.0141171,291.065,290.86,262.576,293.377,292.141,265.185,0.0856624,0.0475067,233.53,260.217
2016-07-05 12:00,0.0139515,291.19,290.44,262.366,293.119,291.735,265.532,0.0634934,0.0369728,233.53,259.721
2016-07-05 13:00,0.0173404,291.315,290.545,262.786,293.119,291.871,265.878,0.0550578,0.0306358,233.085,259.471
2016-07-05 14:00,0.112582,292.653,288.412,261.198,290.897,289.551,264.255,0.121619,0.112352,233.234,259.135
2016-07-05 15:00,0.0703587,293.93,286.882,260.876,289.835,288.027,263.787,0.078385,0.0648005,233.677,259.051
2016-07-05 16:00,0.128497,294.156,286.105,260.445,289.032,287.609,263.787,0.127811,0.123428,233.159,258.798
2016-07-05 17:00,0.052162,293.93,289.165,261.731,291.817,290.101,264.837,0.0702118,0.0553612,232.86,258.798
2016-07-05 18:00,0.0889451,297.146,290.44,262.681,292.989,291.193,265.069,0.102577,0.0897953,233.308,258.543
2016-07-05 19:00,0.372121,306.771,290.229,262.366,292.989,291.464,265.069,0.32157,0.323393,233.159,257.855
2016-07-05 20:00,1.26263,319.797,290.545,262.366,293.119,291.6,265.185,0.948213,1.01699,232.784,257.855
2016-07-05 21:00,2.85291,318.997,290.545,262.681,293.377,292.141,265.185,1.7664,2.07984,233.382,257.682
2016-07-05 22:00,0.326037,289.91,290.017,262.155,292.86,291.193,265.185,0.55211,0.724138,232.935,256.982
2016-07-05 23:00,-0.235511,289.113,289.058,261.519,291.948,290.238,264.721,-0.0720079,-0.158508,232.86,256.805
2016-07-06 00:00,-0.145991,289.247,288.736,261.091,291.686,290.101,264.488,-0.0421399,-0.0837425,232.784,256.716
2016-07-06 01:00,-0.00238017,290.301,289.699,261.305,292.34,290.784,264.372,0.0,0.0,232.709,256.982
2016-07-06 02:00,-0.00199595,283.261,283.611,258.134,286.722,285.635,262.492,0.0,0.0,232.784,256.628
2016-07-06 03:00,0.0,290.301,289.699,261.305,292.34,290.648,264.605,0.0,0.0,232.784,256.716
2016-07-06 04:00,-0.00188658,290.171,289.805,260.661,292.6,290.784,264.837,0.0,0.0,233.234,256.894
2016-07-06 05:00,0.0,289.91,289.058,260.661,292.079,290.238,264.138,0.0,0.0,232.784,256.181
2016-07-06 06:00,0.0,288.841,287.978,259.902,290.897,288.999,263.787,0.0,0.0,232.709,256.271
2016-07-06 07:00,0.0,289.779,289.272,260.228,291.948,289.964,263.905,0.0,0.0,232.02,255.911
2016-07-06 08:00,-0.0107485,286.271,285.77,258.134,288.493,287.188,262.965,0.0,0.0,232.557,255.821
2016-07-06 09:00,0.150851,290.429,289.593,260.337,292.209,290.238,264.022,0.319313,0.228439,233.896,256.001
2016-07-06 10:00,0.148457,291.563,287.102,259.244,289.568,287.748,263.2,0.208395,0.161709,234.968,256.45
2016-07-06 11:00,0.261672,291.19,286.217,258.58,288.628,287.469,263.436,0.30539,0.304633,234.543,256.45
2016-07-06 12:00,0.0768197,292.534,286.328,258.913,289.3,287.609,263.67,0.099043,0.0722663,234.185,256.181
2016-07-06 13:00,0.0,0.0,0.0,0.0,0.0,0.0,0.0,0.0,0.0,0.0,0.0
2016-07-06 14:00,0.255021,293.124,283.264,257.006,286.31,285.065,262.136,0.24004,0.224787,235.455,256.805
2016-07-06 15:00,0.120986,288.977,282.566,255.858,284.361,283.049,260.581,0.140069,0.13336,235.386,256.181
2016-07-06 16:00,0.0374261,290.813,286.772,258.246,288.897,286.485,261.421,0.0602084,0.0403028,231.865,255.73
2016-07-06 17:00,0.104311,291.931,287.102,259.134,289.568,288.027,263.083,0.130215,0.12286,232.784,257.07
2016-07-06 18:00,0.0919927,296.531,289.272,259.902,292.079,290.101,263.787,0.105152,0.0897764,233.159,257.07
2016-07-06 19:00,0.349014,303.015,288.52,259.354,291.16,289.551,263.905,0.316617,0.309759,232.251,256.716
2016-07-06 20:00,1.11142,314.685,288.303,259.902,291.029,289.551,264.372,0.887593,0.933649,232.86,256.271
2016-07-06 21:00,3.10355,318.59,289.805,260.337,292.47,290.375,264.605,1.83281,2.14323,233.53,256.716
2016-07-06 22:00,0.197618,289.91,289.379,260.553,292.209,290.511,264.488,0.446195,0.465517,232.86,256.36
2016-07-06 23:00,-0.235018,289.91,289.272,260.876,292.079,290.101,264.022,-0.0773848,-0.158176,232.175,256.091
2016-07-07 00:00,-0.125872,290.301,289.699,260.876,292.47,290.648,264.255,-0.0392646,-0.0836019,232.557,256.45
2016-07-07 01:00,-0.00237624,289.381,288.736,260.228,291.555,289.826,264.488,0.0,-0.00239895,231.865,256.181
2016-07-07 02:00,0.0,285.357,281.978,256.549,283.514,280.702,257.777,0.0,0.0,229.433,252.828
2016-07-07 03:00,-0.00185341,285.357,285.546,258.802,288.222,287.048,263.318,0.0,0.0,230.835,255.183
2016-07-07 04:00,0.0,289.779,288.628,260.228,291.16,289.137,263.436,0.0,0.0,230.835,254.907
2016-07-07 05:00,0.0,285.512,285.882,258.691,288.628,287.469,262.847,0.0,0.0,230.835,254.814
2016-07-07 06:00,-0.00261756,288.152,285.994,258.802,287.951,285.635,260.701,0.0,0.0,229.348,252.634
2016-07-07 07:00,0.0,287.871,286.772,259.464,289.701,287.888,263.436,0.0,0.0,230.674,254.999
2016-07-07 08:00,-0.0212149,282.234,281.978,256.549,285.34,284.205,261.779,0.0,0.0,230.674,255.275
2016-07-07 09:00,0.204048,289.647,287.869,260.011,290.234,288.306,263.2,0.356333,0.283249,230.674,255.183
2016-07-07 11:00,0.522009,291.065,280.909,256.089,284.22,283.917,262.136,0.507982,0.519845,230.996,254.536
2016-07-07 12:00,0.405507,293.24,281.742,256.664,284.781,284.061,262.492,0.423258,0.439381,230.511,254.814
2016-07-07 13:00,0.219937,290.813,284.642,258.022,286.997,285.635,262.017,0.256053,0.224961,229.935,254.068
2016-07-07 14:00,0.0233099,289.381,285.658,258.469,287.407,284.922,260.098,0.053727,0.0366065,228.488,251.352
2016-07-07 15:00,0.0222254,290.301,286.439,258.913,288.493,285.777,261.182,0.0491363,0.0336567,229.093,252.244
2016-07-07 16:00,0.18214,282.753,271.984,250.555,273.215,271.444,251.944,0.191188,0.18766,226.027,246.145
2016-07-07 17:00,0.229993,291.686,280.669,256.089,283.23,281.882,259.37,0.227568,0.222742,229.769,252.828
2016-07-07 18:00,0.28206,291.315,281.978,256.205,284.361,282.321,259.977,0.314099,0.304875,229.348,252.342
2016-07-07 19:00,0.278005,298.045,285.658,258.469,288.087,286.202,262.255,0.28571,0.27292,229.433,252.439
2016-07-07 20:00,0.880802,300.317,278.474,254.336,280.493,278.911,257.53,0.745773,0.800577,227.959,248.987
2016-07-07 21:00,1.29925,296.114,277.977,254.217,280.201,278.156,256.909,1.01172,1.15891,228.4,249.825
2016-07-07 22:00,0.200433,288.291,285.546,258.469,286.997,284.349,260.701,0.395981,0.472148,228.921,251.252
2016-07-07 23:00,-0.312569,285.357,279.213,254.572,280.347,277.548,254.519,-0.0882171,-0.170927,226.592,246.595
2016-07-08 00:00,-0.158692,282.753,276.463,253.02,277.528,274.929,253.753,-0.044788,-0.0801043,226.778,246.707
2016-07-08 01:00,-0.00474378,280.613,273.333,251.429,274.156,270.148,250.501,0.0,0.0,227.238,245.46
2016-07-08 02:00,0.0,277.24,271.437,249.797,271.625,269.657,251.028,0.0,0.0,227.42,244.294
2016-07-08 03:00,0.0,276.376,265.995,246.934,265.482,262.361,245.35,0.0,0.0,226.122,243.336
2016-07-08 04:00,0.00187806,285.818,281.505,255.742,283.372,280.85,258.023,0.0,0.0,229.093,249.617
2016-07-08 05:00,0.0,287.729,284.185,257.233,286.722,283.917,259.856,0.0,0.0,228.575,250.135
2016-07-08 06:00,0.0,289.113,287.432,259.354,289.968,287.609,262.728,0.0,0.0,229.517,251.751
2016-07-08 07:00,0.0,287.01,282.566,256.434,284.079,280.998,258.023,0.0,0.0,228.312,249.093
2016-07-08 08:00,-0.020933,289.91,288.628,260.119,291.292,288.999,263.083,0.0,0.0,229.093,251.452
2016-07-08 09:00,0.0258886,289.91,288.951,260.011,291.686,289.276,263.553,0.252078,0.143748,230.018,251.751
2016-07-08 10:00,0.0078753,290.301,288.951,260.337,291.555,289.276,263.553,0.110022,0.0516788,230.593,252.439
2016-07-08 11:00,0.00710011,290.171,288.736,260.228,291.029,288.584,263.2,0.0741437,0.0334506,231.236,252.244
2016-07-08 12:00,0.269477,292.174,280.308,255.51,283.514,282.467,261.301,0.256316,0.259687,230.43,252.439
2016-07-08 13:00,0.156374,293.007,284.528,258.022,287.815,286.06,262.373,0.166728,0.160793,230.266,252.439
2016-07-08 14:00,0.112705,290.939,284.869,257.91,287.134,285.635,261.898,0.105299,0.091549,229.348,252.439
2016-07-08 15:00,0.159306,288.705,283.841,257.12,286.31,284.779,261.54,0.215396,0.205711,228.575,251.352
2016-07-08 16:00,0.0336836,290.685,286.217,258.469,288.087,285.777,260.701,0.0686589,0.0478597,228.748,250.95
2016-07-08 17:00,0.0227297,291.809,288.628,259.793,290.764,288.167,262.728,0.0464149,0.0323958,228.4,251.652
2016-07-08 18:00,0.13641,292.294,279.945,254.69,281.076,278.307,255.153,0.147942,0.142356,226.685,246.483
2016-07-08 19:00,0.235791,292.534,280.187,254.926,281.221,278.307,256.41,0.241845,0.243851,227.78,248.348
2016-07-08 20:00,0.891775,309.113,286.328,258.134,288.628,286.343,261.182,0.724862,0.753482,228.312,250.646
2016-07-08 21:00,1.1643,300.134,287.432,258.913,289.968,287.888,261.898,0.84877,0.922423,229.178,251.051
2016-07-08 22:00,1.02072,290.171,288.087,259.464,290.632,288.027,262.847,0.691395,1.03048,229.517,251.452
2016-07-08 23:00,-0.33762,290.301,289.272,259.902,292.079,289.689,263.083,-0.0879577,-0.170424,229.685,251.552
2016-07-09 00:00,-0.148454,287.3,285.208,257.006,286.722,284.349,259.614,-0.0446919,-0.0799325,230.266,251.252
2016-07-09 01:00,-0.00236714,290.685,289.805,260.228,292.6,290.921,263.787,0.0,0.0,230.266,252.439
2016-07-09 02:00,0.0,290.429,289.911,260.011,292.86,290.784,263.787,0.0,0.0,230.43,252.146
2016-07-09 03:00,0.0,290.429,290.123,260.228,293.119,291.193,264.255,0.0,0.0,229.852,252.244
2016-07-09 04:00,-0.00187347,290.301,289.593,259.793,292.6,290.511,264.138,0.0,0.0,229.685,252.047
2016-07-09 05:00,0.0,289.91,289.486,260.119,292.6,290.648,264.138,0.0,0.0,229.935,252.439
2016-07-09 06:00,-0.0025988,290.041,289.593,260.119,292.6,290.648,263.553,0.0,0.00262365,230.184,252.146
2016-07-09 07:00,-0.00393644,290.171,289.486,259.902,292.34,290.375,263.553,0.0,0.0,230.755,251.949
2016-07-09 08:00,0.0,290.429,289.593,260.228,292.6,290.648,263.436,0.0,0.0,231.315,251.85
2016-07-09 09:00,0.131451,290.301,289.272,260.119,292.209,290.238,263.318,0.322769,0.212332,231.315,252.047
2016-07-09 10:00,0.0434894,291.065,289.593,260.228,292.47,290.238,263.905,0.140595,0.0798275,231.076,252.047
2016-07-09 11:00,0.0237142,291.19,289.486,260.445,292.34,290.375,263.67,0.0883467,0.0502759,231.552,252.146
2016-07-09 12:00,0.0245257,291.44,289.379,260.228,292.209,290.101,263.553,0.0726805,0.0442145,232.02,252.439
2016-07-09 13:00,0.0246306,291.563,289.272,259.902,292.209,290.238,263.553,0.0601106,0.0380305,231.787,252.047
2016-07-09 14:00,0.0220306,291.931,289.593,259.793,292.34,290.511,263.67,0.0493763,0.0313994,231.473,252.342
2016-07-09 15:00,0.0135863,291.686,289.805,260.228,292.6,290.375,263.905,0.0376477,0.0224446,232.175,252.244
2016-07-09 16:00,0.0137231,291.563,289.911,260.769,292.86,290.648,263.787,0.0359142,0.0214111,231.709,252.047
2016-07-09 17:00,0.0173801,292.294,290.017,260.337,293.119,291.057,264.138,0.0407512,0.0256446,231.315,252.047
2016-07-09 18:00,0.0567031,295.042,290.335,260.876,293.377,291.6,263.905,0.073962,0.0603395,231.156,251.85
2016-07-09 19:00,0.345031,306.991,290.335,260.769,293.506,291.464,264.022,0.298629,0.29608,231.315,251.552
2016-07-09 21:00,1.80808,308.7,267.764,248.382,266.338,258.224,243.808,1.45125,1.7515,230.755,244.056
2016-07-09 22:00,0.348096,265.095,255.587,241.354,254.066,249.955,239.322,0.471571,0.562277,229.433,238.986
2016-07-09 23:00,-0.29766,277.026,270.189,248.771,271.464,269.657,251.028,-0.0821831,-0.156785,230.835,245.345
2016-07-10 00:00,-0.125063,289.247,288.412,259.464,291.423,289.413,263.2,-0.0390125,-0.0830651,231.63,252.047
2016-07-10 01:00,-0.00236199,289.381,289.058,259.793,292.079,290.375,263.787,0.0,0.0,231.394,252.828
2016-07-10 02:00,0.0,290.429,289.911,260.119,292.73,290.921,264.372,0.0,0.0,231.787,252.925
2016-07-10 03:00,0.0,290.685,290.229,260.119,293.119,291.464,264.488,0.0,0.0,232.097,253.213
2016-07-10 04:00,0.0,290.685,290.123,260.337,293.119,291.329,264.255,0.0,0.0,232.405,253.213
2016-07-10 05:00,0.0,290.685,290.335,260.445,293.377,291.6,264.488,0.0,0.0,232.633,253.213
2016-07-10 06:00,0.00258901,290.685,290.335,260.337,293.248,291.464,264.255,0.0,0.0,233.085,253.213
2016-07-10 07:00,0.00391458,289.247,287.978,258.691,290.234,286.907,260.581,0.0,0.0,233.159,253.021
2016-07-10 08:00,0.0,290.171,289.699,259.793,292.6,290.648,263.905,0.0,-0.0102832,233.308,253.595
2016-07-10 09:00,0.160271,289.91,289.379,259.574,292.079,290.238,263.905,0.327945,0.256189,234.113,253.785
2016-07-10 10:00,0.0198491,290.685,289.486,260.119,292.209,290.238,263.787,0.131088,0.0841632,234.113,253.88
2016-07-10 11:00,0.13069,292.653,287.212,258.913,290.367,288.306,262.965,0.173025,0.155929,234.615,253.405
2016-07-10 12:00,0.0175382,291.563,289.058,259.683,291.555,289.551,263.787,0.0638531,0.0371823,235.386,253.974
2016-07-10 13:00,0.0159478,291.315,289.911,260.228,292.47,290.511,264.022,0.051557,0.0292733,235.593,254.256
2016-07-10 14:00,0.0337057,292.294,289.058,259.683,291.686,289.413,263.787,0.0570772,0.0405718,236.071,254.349
2016-07-10 15:00,0.0420002,291.809,288.736,259.464,291.292,289.276,264.022,0.0627556,0.0511315,236.207,254.443
2016-07-10 16:00,0.108539,291.315,287.432,259.134,290.101,288.167,263.436,0.127815,0.119652,236.742,254.443
2016-07-10 17:00,0.0842214,291.809,287.869,259.354,290.632,288.722,262.728,0.0996077,0.0958235,236.94,254.162
2016-07-10 18:00,0.232922,292.053,284.869,257.685,287.407,286.343,262.373,0.253006,0.261448,236.94,254.443
2016-07-10 19:00,0.322021,302.341,288.843,260.119,291.423,289.276,263.318,0.293753,0.284462,237.137,254.256
2016-07-10 20:00,0.974416,311.484,288.52,259.793,291.292,289.137,263.436,0.759963,0.764816,237.333,254.068
2016-07-10 21:00,1.90955,308.07,288.736,259.902,291.292,288.861,263.436,1.28016,1.35739,237.463,254.162
2016-07-10 22:00,0.143142,287.01,286.217,258.58,288.763,287.048,262.492,0.605989,0.72255,237.913,254.536
2016-07-10 23:00,-0.315873,290.685,289.058,260.119,291.292,288.722,262.965,-0.0873304,-0.182224,237.849,254.999
2016-07-11 00:00,-0.173976,287.3,287.102,258.58,289.3,287.609,262.492,-0.0472488,-0.0894765,238.231,255.457
2016-07-11 01:00,0.0,288.152,287.102,258.913,289.701,287.609,262.728,0.0,0.0,238.857,255.73
2016-07-11 02:00,0.0,290.558,288.951,259.793,291.16,288.584,263.318,0.0,0.0,239.349,256.36
2016-07-11 03:00,0.0,290.301,288.951,259.902,291.029,288.584,263.2,0.0,0.0,239.532,256.45
2016-07-11 04:00,0.0,289.514,288.628,259.464,290.897,288.584,262.61,0.0,0.0,240.312,256.894
2016-07-11 05:00,-0.00206979,290.171,288.951,259.683,291.686,289.413,263.2,0.0,0.00208958,239.653,257.158
2016-07-11 06:00,-0.00257897,290.429,289.379,259.902,291.686,289.137,262.847,0.0,0.0,238.919,257.07
2016-07-11 07:00,0.0,288.977,287.102,258.913,289.434,287.188,262.728,0.0,0.0,240.489,258.114
2016-07-11 08:00,0.0,278.883,279.945,255.043,283.23,282.758,261.54,0.0,0.0,240.957,258.286
2016-07-11 09:00,0.651706,281.346,280.066,255.043,283.372,283.049,261.301,0.620773,0.603108,241.476,258.028
2016-07-11 10:00,0.605928,287.587,280.429,255.277,283.656,283.194,261.54,0.543416,0.547329,241.874,258.628
2016-07-11 11:00,0.423817,292.771,282.799,256.434,285.479,284.492,261.66,0.405213,0.403831,241.93,258.798
2016-07-11 12:00,0.168557,292.534,285.658,258.134,287.679,285.635,262.255,0.220022,0.196757,242.765,259.22
2016-07-11 13:00,0.37139,288.152,278.845,254.217,281.366,280.85,260.461,0.460628,0.465747,242.82,258.798
2016-07-11 14:00,0.35533,293.356,282.331,256.778,284.921,283.629,261.54,0.334896,0.329924,242.82,258.457
2016-07-11 15:00,0.143316,286.569,281.029,255.51,282.803,281.146,260.219,0.169466,0.164643,241.59,258.114
2016-07-11 16:00,0.238292,291.315,283.264,257.459,285.618,284.061,261.898,0.252466,0.233013,241.59,258.457
2016-07-11 17:00,0.0133678,291.315,287.869,259.354,289.032,286.343,261.898,0.0418786,0.0283408,241.476,258.114
2016-07-11 18:00,0.127181,293.93,286.882,259.024,288.358,286.202,262.255,0.141416,0.12685,241.304,259.051
2016-07-11 19:00,0.325866,301.214,287.322,259.244,289.032,286.485,262.61,0.297009,0.278667,241.704,259.304
2016-07-11 20:00,1.13949,314.743,288.195,259.902,289.968,287.469,262.847,0.869488,0.878728,242.155,259.721
2016-07-11 21:00,2.68241,311.547,287.869,259.793,289.835,287.748,263.2,1.69452,1.80361,242.155,260.135
2016-07-11 22:00,0.221896,289.247,288.52,260.011,290.897,288.999,264.488,0.563636,0.67205,242.322,260.871
2016-07-11 23:00,-0.333804,289.514,289.165,260.769,291.686,290.101,264.605,-0.0923988,-0.174978,242.211,261.435
2016-07-12 00:00,-0.173483,290.429,290.545,261.091,293.248,291.871,265.069,-0.0471149,-0.0925274,242.489,261.993
2016-07-12 01:00,0.0,290.429,290.651,261.198,293.506,292.141,265.647,0.0,0.0,242.875,262.309
2016-07-12 02:00,-0.00197081,289.514,289.486,260.661,292.209,291.057,265.301,0.0,0.0,242.655,262.701
2016-07-12 03:00,-0.00366417,291.065,290.545,261.305,292.989,291.6,264.837,0.0,0.0,242.6,261.834
2016-07-12 04:00,0.0,290.171,290.123,261.091,292.86,291.193,265.069,0.0,0.0,242.489,261.435
2016-07-12 05:00,0.0,289.779,289.911,260.769,292.209,290.648,264.488,0.0,0.0,242.211,261.355
2016-07-12 06:00,0.0,290.429,290.44,261.305,293.119,291.329,265.069,0.0,0.0,241.986,261.435
2016-07-12 07:00,0.0,290.939,290.86,261.625,293.377,292.006,264.721,0.0,0.0,241.986,261.755
2016-07-12 08:00,0.0,289.247,289.486,260.661,291.817,290.375,264.255,0.0,0.0,241.76,261.275
2016-07-12 09:00,0.662853,282.581,282.682,257.006,285.757,285.777,263.318,0.689853,0.724955,241.874,261.595
2016-07-12 10:00,0.504405,289.247,284.755,258.691,287.27,287.048,263.787,0.49487,0.493061,241.986,261.595
2016-07-12 11:00,0.450923,294.043,282.331,256.778,285.479,285.208,263.436,0.436338,0.457643,242.155,261.595
2016-07-12 12:00,0.128319,293.007,288.736,260.876,291.423,290.238,264.837,0.15032,0.13132,242.155,261.595
2016-07-12 13:00,0.0130651,291.563,290.86,261.944,293.248,291.6,265.185,0.0503945,0.02638,242.155,261.275
2016-07-12 14:00,0.0389182,291.931,289.805,261.625,292.47,291.057,265.301,0.0626087,0.0471482,241.189,261.033
2016-07-12 15:00,0.207593,290.558,284.185,258.358,287.134,286.626,263.905,0.220757,0.232033,240.841,260.627
2016-07-12 16:00,0.0436675,293.472,289.699,261.519,292.47,290.511,264.721,0.0581007,0.0428253,241.131,260.789
2016-07-12 17:00,0.0307452,293.24,290.756,261.944,293.119,291.735,265.647,0.0486683,0.0350877,241.189,261.595
2016-07-12 18:00,0.111856,297.248,290.86,262.049,293.635,292.006,265.762,0.116764,0.105191,242.042,261.914
2016-07-12 19:00,0.356572,306.845,291.07,262.155,293.506,292.006,265.185,0.308401,0.30579,242.266,262.23
2016-07-12 20:00,1.09606,315.594,290.651,261.625,292.989,291.6,265.416,0.848954,0.892998,242.6,263.629
2016-07-12 21:00,2.7552,316.477,290.651,261.625,293.119,291.735,265.532,1.77739,2.0398,243.364,264.914
2016-07-12 22:00,0.30754,290.685,291.07,261.625,293.248,291.871,265.301,0.585886,0.698581,244.006,265.434
2016-07-12 23:00,-0.268368,290.685,291.07,261.625,293.377,291.871,265.993,-0.0757422,-0.16127,244.531,265.728
2016-07-13 00:00,-0.140319,290.939,291.174,261.091,293.377,292.006,265.647,-0.0386817,-0.0823608,243.953,265.212
2016-07-13 01:00,-0.00234423,290.685,290.651,260.769,292.989,291.464,265.532,0.0,0.0,244.111,263.629
2016-07-13 02:00,0.0,290.429,290.335,261.198,292.86,291.329,265.301,0.0,0.0,244.217,262.779
2016-07-13 03:00,0.0,290.171,289.805,260.984,292.47,290.511,264.488,0.0,0.0,244.164,261.755
2016-07-13 04:00,0.0,289.779,288.736,260.337,291.292,289.137,263.905,0.0,0.0,244.164,260.952
2016-07-13 06:00,0.0,290.171,289.058,260.553,291.029,288.722,263.905,0.0,0.0,243.846,260.217
2016-07-13 07:00,0.0,281.705,282.214,257.006,284.921,283.773,262.136,0.0,0.0,244.058,259.887
2016-07-13 08:00,0.0,287.871,286.328,259.024,288.358,286.626,262.965,0.0,0.0,243.953,259.387
2016-07-13 09:00,0.57618,285.97,283.264,257.346,285.618,284.349,262.017,0.583041,0.553313,243.74,259.304
2016-07-13 10:00,0.663358,286.717,280.187,256.205,282.946,281.882,261.421,0.738674,0.763052,243.74,259.22
2016-07-13 11:00,0.0741122,292.174,288.195,260.011,290.101,287.609,263.083,0.127526,0.084475,243.74,259.304
2016-07-13 12:00,0.424107,292.653,283.264,257.346,286.172,285.208,262.965,0.47233,0.485012,243.899,259.97
2016-07-13 13:00,0.0145261,291.19,289.379,261.091,291.292,288.999,264.255,0.0553464,0.0263969,243.686,260.052
2016-07-13 14:00,0.0765652,293.24,288.195,260.228,290.632,288.584,263.787,0.0911982,0.0799174,243.686,259.887
2016-07-13 15:00,0.0753877,292.053,287.76,259.683,290.101,288.167,263.787,0.09313,0.0786038,243.633,259.887
2016-07-13 16:00,0.0910815,291.809,287.869,259.793,290.101,287.888,263.318,0.101416,0.089433,243.039,259.554
2016-07-13 17:00,0.050796,293.124,288.736,260.445,290.5,288.306,263.436,0.0758315,0.0607282,243.147,259.135
2016-07-13 18:00,0.228313,295.476,286.105,258.913,288.493,286.907,262.492,0.214071,0.221214,243.093,259.051
2016-07-13 19:00,0.347044,295.476,284.642,258.246,286.86,285.635,262.965,0.388001,0.40069,243.147,259.051
2016-07-13 20:00,0.890552,296.738,281.505,256.434,284.361,283.484,262.017,0.807556,0.876866,243.202,259.135
2016-07-13 21:00,1.49339,297.146,282.096,256.892,285.061,284.205,262.61,1.10862,1.27409,243.633,259.051
2016-07-13 22:00,0.482651,280.05,281.386,256.892,284.501,284.061,262.136,0.749209,0.893319,243.039,258.628
2016-07-13 23:00,-0.228874,281.165,281.86,256.549,284.501,284.061,262.255,-0.0753619,-0.154042,243.256,258.967
2016-07-14 00:00,-0.126848,280.982,281.978,256.549,284.781,284.061,262.017,-0.0385546,-0.0853738,243.039,258.798
2016-07-14 01:00,-0.00233757,281.346,281.978,256.664,284.641,284.205,262.492,0.0,-0.00235991,243.202,258.798
2016-07-14 02:00,-0.00196031,280.239,281.505,256.434,284.361,283.917,262.728,0.0,0.0,243.526,258.713
2016-07-14 03:00,0.0,281.526,281.742,256.32,284.781,284.349,262.728,0.0,0.0,243.953,259.135
2016-07-14 04:00,-0.00184749,279.859,281.386,256.32,284.641,283.917,262.492,0.0,0.0,243.686,259.22
2016-07-14 05:00,0.0,285.665,284.755,258.134,287.134,286.06,263.436,0.0,0.0,243.793,259.135
2016-07-14 06:00,-0.00254745,285.97,285.095,258.246,287.679,286.202,262.847,0.0,0.0,243.953,259.638
2016-07-14 07:00,-0.00382394,287.871,286.328,258.691,288.763,287.048,263.318,0.0,0.0,243.526,259.304
2016-07-14 08:00,0.00963551,290.429,289.165,260.228,291.029,289.276,264.138,0.0,0.0,243.899,259.721
2016-07-14 09:00,0.600978,281.705,281.86,256.434,284.781,284.492,262.965,0.690579,0.707844,244.217,259.554
2016-07-14 10:00,0.500684,286.271,281.86,255.974,284.501,284.205,262.728,0.52991,0.529928,244.322,259.471
2016-07-14 11:00,0.464752,289.779,281.386,256.32,284.361,284.061,262.61,0.456384,0.461939,244.583,260.627
2016-07-14 12:00,0.192032,291.809,285.658,258.246,287.815,286.767,263.318,0.228227,0.200982,244.531,260.463
2016-07-14 13:00,0.0639553,292.414,287.869,259.134,289.835,288.167,263.67,0.0996868,0.0704364,244.426,259.97
2016-07-14 14:00,0.0298576,291.44,288.736,259.683,290.367,288.722,263.787,0.0626514,0.0432487,244.531,259.471
2016-07-14 15:00,0.0271933,291.686,288.195,259.354,290.234,288.027,263.083,0.0544215,0.0386841,244.479,259.22
2016-07-14 16:00,0.0549012,293.124,287.541,259.134,289.568,287.748,263.318,0.0707836,0.0592051,244.583,259.304
2016-07-14 17:00,0.0735216,293.587,288.736,260.011,290.632,288.999,263.905,0.0916781,0.0769235,244.894,259.804
2016-07-14 18:00,0.125656,296.531,288.843,259.574,290.897,289.413,264.372,0.134937,0.120669,244.894,260.135
2016-07-14 19:00,0.331783,305.028,289.379,259.793,291.423,290.101,264.255,0.29391,0.286551,244.842,260.381
2016-07-14 20:00,1.0122,315.872,289.486,259.683,291.555,289.964,264.488,0.75456,0.780294,245.253,260.299
2016-07-14 21:00,2.11343,315.369,289.805,260.337,291.948,290.238,264.372,1.25841,1.42065,245.608,260.871
2016-07-14 22:00,0.508725,290.813,289.593,260.337,291.817,290.375,264.721,0.574316,0.684785,245.658,260.627
2016-07-14 23:00,-0.233956,290.685,289.486,260.011,291.817,289.964,264.488,-0.074953,-0.165973,245.405,260.627
2016-07-15 00:00,-0.136127,290.685,289.805,260.337,292.079,290.511,264.255,-0.0411636,-0.0850744,245.709,261.194
2016-07-15 01:00,-0.00233054,290.685,289.911,260.553,292.079,290.511,264.488,0.0,0.0,245.809,261.275
2016-07-15 02:00,-0.00195468,289.113,289.058,259.793,291.423,289.826,264.605,0.0,0.0,246.009,261.515
2016-07-15 03:00,-0.00181675,286.717,287.102,258.802,289.434,288.306,263.787,0.0,0.0,246.258,261.914
2016-07-15 04:00,0.0,290.041,289.699,260.553,291.948,290.238,264.721,0.0,0.0,246.357,262.466
2016-07-15 05:00,0.0,290.301,289.805,260.661,292.079,290.101,264.488,0.0,0.0,246.554,262.388
2016-07-15 06:00,-0.00253654,288.841,288.628,260.119,291.292,289.826,264.488,0.0,0.0,246.554,262.466
2016-07-15 07:00,0.0,289.381,289.486,260.553,291.817,290.238,265.185,0.0,0.0,246.75,263.012
2016-07-15 08:00,-0.00950133,288.841,288.736,260.119,291.029,289.276,264.138,0.0,0.0,247.041,263.012
2016-07-15 09:00,0.102043,290.685,290.335,260.876,292.34,290.511,264.721,0.320913,0.19132,247.09,263.244
2016-07-15 10:00,0.0202773,291.315,290.44,261.091,292.6,290.784,264.953,0.127049,0.0655078,246.798,263.244
2016-07-15 11:00,0.0288068,291.686,290.229,260.876,292.6,290.921,265.532,0.091465,0.0557409,247.09,263.552
2016-07-15 12:00,0.0264562,291.809,290.545,261.091,292.73,290.921,264.837,0.0716814,0.0445152,246.554,263.399
2016-07-15 13:00,0.0203623,291.931,290.545,260.876,292.73,291.193,264.953,0.0578795,0.0352404,246.701,263.629
2016-07-15 14:00,0.0519438,292.294,289.486,260.337,291.817,290.511,265.185,0.0769663,0.0642394,246.701,263.629
2016-07-15 15:00,0.106318,290.939,288.412,259.793,290.632,289.413,264.837,0.141309,0.133544,246.652,263.552
2016-07-15 16:00,0.0436741,291.931,289.379,260.553,291.292,289.413,264.138,0.0676184,0.0491306,246.603,263.012
2016-07-15 17:00,0.141701,294.713,286.217,258.913,288.628,287.329,263.436,0.142616,0.133609,246.847,263.012
2016-07-15 18:00,0.229881,295.69,286.439,259.024,288.763,287.748,263.436,0.237461,0.219701,246.701,263.167
2016-07-15 19:00,0.318454,303.592,289.272,260.553,291.555,289.276,264.488,0.284253,0.27308,246.896,263.09
2016-07-15 20:00,0.93046,311.484,289.165,260.337,291.16,289.137,263.905,0.729548,0.739255,246.75,263.167
2016-07-15 21:00,2.36192,310.648,288.951,260.228,291.029,288.999,264.022,1.50771,1.62701,246.75,262.935
2016-07-15 22:00,0.18027,290.429,289.486,260.553,291.292,289.276,264.138,0.610537,0.727972,246.505,263.167
2016-07-15 23:00,-0.232594,289.247,288.628,260.119,290.764,289.137,263.787,-0.0745166,-0.15866,246.554,262.701
2016-07-16 00:00,-0.125932,290.171,289.379,260.119,291.16,289.413,264.255,-0.0382762,-0.0814975,246.554,262.623
2016-07-16 01:00,-0.00232317,290.558,289.699,260.445,291.423,289.413,264.022,0.0,-0.00234538,246.307,262.151
2016-07-16 02:00,0.0,289.113,288.303,259.683,290.632,288.445,263.787,0.0,0.0,246.059,261.834
2016-07-16 04:00,-0.00183582,290.429,289.805,260.337,291.948,289.964,264.255,0.0,0.0,246.258,262.388
2016-07-16 05:00,0.00203475,290.301,289.911,260.337,292.209,290.648,265.069,0.0,0.0,245.96,262.545
2016-07-16 06:00,-0.00252544,290.171,289.805,260.228,292.34,290.784,264.721,0.0,0.0,246.208,262.466
2016-07-16 07:00,0.0,289.381,289.593,260.119,292.209,290.511,265.185,0.0,0.0,245.809,262.701
2016-07-16 08:00,0.0,290.813,290.44,260.011,292.47,291.193,265.185,0.0,0.0,245.658,262.545
2016-07-16 09:00,0.31205,290.558,290.017,260.011,292.47,291.193,264.953,0.427773,0.360038,245.809,263.09
2016-07-16 10:00,0.0773951,291.809,290.86,260.553,293.377,291.871,264.953,0.175897,0.106921,246.009,263.706
2016-07-16 11:00,0.0168387,291.563,291.279,260.661,294.021,292.679,265.993,0.0875807,0.046142,246.406,264.54
2016-07-16 12:00,0.0335488,292.771,291.174,260.337,293.764,292.679,265.878,0.0777421,0.0516956,246.009,264.314
2016-07-16 13:00,0.0305625,292.889,291.279,260.228,293.764,292.41,265.647,0.0665415,0.0426089,246.456,265.507
2016-07-16 14:00,0.0168874,291.931,291.383,260.337,293.764,292.545,265.532,0.0560943,0.0314748,246.505,265.137
2016-07-16 15:00,0.0432759,292.534,291.07,260.119,293.377,292.006,265.993,0.0690957,0.0486827,246.798,265.212
2016-07-16 16:00,0.0137271,292.294,291.279,260.769,293.892,292.814,265.878,0.0401513,0.0264569,245.355,264.086
2016-07-16 17:00,0.0267377,293.356,291.174,260.769,293.764,292.41,265.301,0.0498052,0.0364409,243.686,262.388
2016-07-16 18:00,0.142546,297.649,289.379,259.683,291.948,290.648,264.721,0.141458,0.134624,243.686,261.675
2016-07-16 19:00,0.297463,301.214,288.412,259.574,290.632,288.999,264.138,0.28111,0.275119,243.526,260.952
2016-07-16 20:00,0.757758,309.453,289.165,259.902,291.292,289.413,264.022,0.580933,0.603656,243.31,260.627
2016-07-16 21:00,1.8388,311.547,289.379,260.011,291.029,289.137,263.905,1.1531,1.30535,243.526,260.299
2016-07-16 22:00,0.580729,290.301,288.52,259.574,290.367,288.306,263.318,0.655603,0.87942,243.579,260.381
2016-07-16 23:00,-0.331105,284.41,283.841,257.12,286.447,285.208,262.373,-0.0846327,-0.176595,243.093,259.97
2016-07-17 00:00,-0.164032,289.91,288.195,259.134,289.968,288.306,262.965,-0.0462951,-0.0909175,243.147,259.638
2016-07-17 01:00,-0.00231545,288.152,287.651,258.58,289.568,288.027,262.965,0.0,0.0,243.472,259.804
2016-07-17 02:00,0.0,289.647,288.52,258.802,290.764,288.861,263.436,0.0,0.0,244.006,260.052
2016-07-17 03:00,-0.00180557,289.113,288.195,258.358,290.367,288.722,263.318,0.0,0.0,244.006,260.052
2016-07-17 04:00,0.0,287.444,286.992,258.134,289.032,288.027,263.67,0.0,0.0,243.899,259.97
2016-07-17 05:00,0.0,289.779,288.736,258.802,290.632,289.276,263.436,0.0,0.0,243.686,260.135
2016-07-17 06:00,0.0,290.301,289.486,259.244,291.686,290.511,264.488,0.0,0.0,243.793,260.381
2016-07-17 07:00,-0.00375352,290.171,289.486,259.464,291.686,290.375,264.605,0.0,0.0,243.899,260.381
2016-07-17 08:00,0.0,290.685,289.699,259.574,291.948,290.784,264.488,0.0,0.0,243.846,259.97
2016-07-17 09:00,0.166712,291.19,289.911,260.011,292.209,291.057,264.837,0.359304,0.29071,244.006,260.299
2016-07-17 10:00,0.0695579,291.19,289.699,259.793,291.948,290.921,264.372,0.180148,0.128053,244.217,260.135
2016-07-17 11:00,0.0482104,291.563,289.379,259.244,291.686,290.648,264.605,0.126541,0.0876084,244.426,260.299
2016-07-17 12:00,0.0441926,291.931,289.379,259.354,291.555,290.511,264.605,0.10028,0.0695996,244.635,260.708
2016-07-17 13:00,0.0422317,292.174,289.165,259.024,291.292,290.101,264.488,0.0850782,0.0602777,244.479,260.217
2016-07-17 14:00,0.0298877,292.053,289.379,259.574,291.555,290.238,264.488,0.0671156,0.0485399,244.687,260.217
2016-07-17 15:00,0.0272066,292.053,289.805,259.793,292.079,290.784,264.138,0.0586365,0.0436969,244.058,260.217
2016-07-17 16:00,0.0561613,293.472,289.058,259.464,291.16,289.964,264.372,0.075026,0.0617381,243.526,259.721
2016-07-17 17:00,0.0842307,294.602,288.628,259.134,290.764,289.413,264.022,0.0984868,0.0877355,243.633,259.304
2016-07-17 18:00,0.122643,297.749,289.058,259.902,291.029,288.999,263.318,0.1311,0.117624,243.31,258.543
2016-07-17 19:00,0.301435,303.015,288.628,259.574,290.897,288.861,263.083,0.26823,0.259736,243.093,257.769
2016-07-17 20:00,0.714449,306.101,286.55,258.246,288.897,287.048,262.373,0.569889,0.593175,243.093,257.508
2016-07-17 21:00,1.50442,305.722,279.091,254.808,280.785,277.853,257.034,1.09375,1.35243,242.82,255.911
2016-07-17 22:00,0.315593,264.009,259.54,244.626,261.25,259.684,248.768,0.801637,0.955831,242.322,251.452
2016-07-17 23:00,-0.335126,270.434,263.556,246.667,264.792,261.654,249.572,-0.0893289,-0.169165,241.817,251.652
2016-07-18 00:00,-0.179365,274.073,267.18,247.991,268.358,264.967,250.765,-0.0461028,-0.0905398,241.986,252.146
2016-07-18 01:00,-0.0023074,268.382,261.822,245.451,263.217,260.584,248.768,0.0,-0.00232946,242.099,251.552
2016-07-18 02:00,0.0,271.531,265.394,247.2,266.847,263.759,250.104,0.0,0.0,241.93,252.244
2016-07-18 03:00,0.00179971,272.061,265.696,247.465,266.678,263.412,250.236,0.0,0.0,242.099,252.244
2016-07-18 04:00,-0.00182351,268.073,261.982,245.587,263.217,260.942,249.171,0.0,0.0,242.211,251.85
2016-07-18 05:00,0.0,266.466,261.662,245.04,263.04,260.405,248.499,0.0,0.0,242.433,251.552
2016-07-18 06:00,0.0,267.444,261.982,245.314,263.04,260.764,249.305,0.0,0.0,242.489,251.85
2016-07-18 07:00,0.0,265.446,260.528,244.903,262.15,260.045,248.634,0.0,0.0,242.984,251.949
2016-07-18 08:00,-0.00910912,276.594,271.023,250.177,272.423,267.506,251.944,0.0,0.0,242.984,253.974
2016-07-18 09:00,0.541336,286.421,278.101,253.86,279.613,274.617,254.9,0.471444,0.515282,243.202,254.999
2016-07-18 10:00,0.263047,292.771,284.185,256.549,286.033,282.904,259.492,0.302762,0.282159,243.579,256.982
2016-07-18 11:00,0.256046,296.943,279.58,254.454,280.785,276.631,256.41,0.243382,0.231669,243.039,255.275
2016-07-18 12:00,0.215901,298.726,278.226,253.98,279.466,274.617,255.027,0.199285,0.192952,242.042,254.814
2016-07-18 13:00,0.238975,298.533,274.392,252.168,275.55,270.311,252.594,0.215912,0.223607,241.986,254.162
2016-07-18 14:00,0.179386,294.933,281.978,255.742,284.22,280.406,258.147,0.181603,0.177164,241.647,256.36
2016-07-18 15:00,0.173163,295.583,273.466,251.18,274.312,270.798,253.625,0.1529,0.15359,241.246,253.405
2016-07-18 16:00,0.0848745,293.472,288.195,258.802,290.5,289.137,263.905,0.102511,0.0907262,240.489,256.982
2016-07-18 17:00,0.0855772,294.602,288.951,259.134,291.292,289.964,264.255,0.101894,0.090445,240.371,256.982
2016-07-18 18:00,0.170205,297.349,288.412,259.134,290.632,289.276,263.787,0.171377,0.164092,240.014,256.716
2016-07-18 19:00,0.340012,300.498,287.76,258.802,290.367,289.276,264.022,0.310658,0.312233,240.134,256.982
2016-07-18 20:00,0.731896,310.907,289.486,259.464,291.817,290.511,264.488,0.556557,0.591114,239.834,256.805
2016-07-18 21:00,0.602805,297.449,289.486,259.902,292.079,290.784,264.372,0.469743,0.543941,240.014,256.36
2016-07-18 22:00,0.232118,290.041,288.951,259.244,291.423,289.964,263.553,0.68787,0.82018,240.014,256.181
2016-07-18 23:00,-0.234184,289.113,287.541,258.691,289.835,288.306,262.847,-0.0678339,-0.155542,239.653,255.73
2016-07-19 00:00,-0.130748,290.171,289.165,259.354,291.686,290.648,264.255,-0.0378014,-0.0804865,239.774,256.716
2016-07-19 01:00,-0.00459807,290.041,289.165,259.574,291.948,290.921,264.488,-0.00194659,0.0,240.014,256.628
2016-07-19 02:00,-0.00192989,288.977,288.52,259.024,290.897,289.826,264.138,0.0,0.0,239.593,256.36
2016-07-19 03:00,0.0,290.041,289.165,260.011,291.555,290.511,264.138,0.0,0.0,239.653,256.181
2016-07-19 04:00,0.0,288.568,287.978,259.024,290.632,289.413,263.787,0.0,0.0,239.471,256.001
2016-07-19 05:00,0.00201177,287.444,284.982,257.572,286.86,284.061,260.461,0.0,0.0,239.593,255.091
2016-07-19 06:00,0.0,288.705,287.651,259.024,290.234,288.722,263.2,0.0,0.00251503,239.41,255.821
2016-07-19 07:00,0.0,287.587,285.77,258.022,287.815,285.35,261.301,0.0,0.0,238.795,255.091
2016-07-19 08:00,-0.00898219,280.799,279.945,255.393,282.66,280.85,259.127,0.0,0.0,238.981,254.443
2016-07-19 09:00,0.284285,287.444,285.658,257.91,288.087,286.626,262.136,0.454663,0.398615,238.608,254.999
2016-07-19 10:00,0.255986,291.065,285.321,258.246,287.407,285.635,261.898,0.311131,0.279275,238.857,254.722
2016-07-19 11:00,0.0701962,291.563,288.628,259.574,290.764,289.137,262.847,0.143464,0.102635,239.043,254.999
2016-07-19 12:00,0.27992,295.368,285.095,258.022,287.815,286.626,262.492,0.29101,0.295116,239.104,255.457
2016-07-19 13:00,0.0393677,291.686,288.628,260.228,290.897,289.137,263.553,0.0827142,0.0588801,239.043,255.911
2016-07-19 14:00,0.0585151,292.534,288.195,259.574,290.367,288.999,263.436,0.0858774,0.0669511,239.166,255.821
2016-07-19 15:00,0.0457725,292.294,288.412,259.683,290.632,288.999,263.553,0.0733213,0.0562015,239.894,256.271
2016-07-19 16:00,0.0411938,292.414,288.843,259.683,291.16,289.551,263.553,0.0665866,0.0516694,239.954,256.271
2016-07-19 17:00,0.117685,293.93,287.432,259.024,289.701,288.306,263.553,0.132481,0.12421,240.014,256.001
2016-07-19 18:00,0.342037,296.219,285.208,258.022,288.087,287.048,262.965,0.34025,0.36234,240.371,256.36
2016-07-19 19:00,0.313305,303.755,289.058,259.902,291.292,289.826,263.787,0.278294,0.271669,240.43,256.716
2016-07-19 20:00,0.832457,312.729,289.379,260.337,291.817,290.375,264.255,0.625223,0.653346,240.312,256.716
2016-07-19 21:00,1.69215,312.422,289.486,260.011,292.209,290.784,264.372,1.02015,1.17853,240.489,256.982
2016-07-19 22:00,0.391506,290.558,289.486,260.011,292.079,290.648,264.605,0.773471,0.922247,240.43,256.805
2016-07-19 23:00,-0.31811,289.91,288.951,259.574,291.555,290.375,263.905,-0.0828747,-0.160575,240.665,256.716
2016-07-20 00:00,-0.168244,289.247,288.628,259.793,291.292,289.964,264.022,-0.0430042,-0.0865283,240.665,256.628
2016-07-20 01:00,-0.00229036,289.247,288.736,259.354,290.897,289.964,263.905,0.0,0.0,240.782,256.716
2016-07-20 02:00,0.0,287.01,286.661,258.246,289.3,288.584,263.083,0.0,0.0,240.665,257.07
2016-07-20 03:00,-0.00357502,289.91,288.628,259.683,291.16,289.689,263.67,0.0,0.0,240.899,256.716
2016-07-20 04:00,0.0,286.569,285.882,258.022,288.763,287.469,262.847,0.0,-0.00182793,240.899,257.07
2016-07-20 05:00,0.0,281.346,282.096,256.32,285.061,284.061,261.779,0.0,0.0,241.246,256.805
2016-07-20 06:00,0.0,284.73,284.755,257.459,287.134,286.343,262.728,0.0,0.0,241.533,257.769
2016-07-20 07:00,0.0,288.705,287.978,259.134,290.101,288.306,263.553,0.0,0.0,241.476,257.508
2016-07-20 08:00,-0.0088573,282.753,283.611,257.346,286.447,285.635,262.728,0.0,0.0,241.647,257.682
2016-07-20 09:00,0.258197,289.514,288.087,259.464,290.367,288.999,263.787,0.450893,0.374706,241.817,258.372
2016-07-20 10:00,0.0788072,291.19,289.165,260.011,291.423,289.826,263.905,0.18613,0.129809,242.322,258.713
2016-07-20 11:00,0.0533632,291.563,288.736,259.793,291.029,289.276,263.905,0.125279,0.0955028,242.71,259.721
2016-07-20 12:00,0.090454,292.294,288.843,260.119,291.292,289.826,264.605,0.124642,0.0931093,243.256,260.708
2016-07-20 13:00,0.0510634,292.174,289.272,260.011,291.555,290.101,264.953,0.0864707,0.0662806,243.364,261.675
2016-07-20 14:00,0.247146,290.685,284.071,257.572,286.86,286.202,263.318,0.265428,0.295471,243.31,261.595
2016-07-20 15:00,0.113834,291.563,286.992,259.244,289.434,288.445,264.022,0.132003,0.136158,243.472,261.993
2016-07-20 16:00,0.255934,289.247,283.726,257.459,286.033,285.493,262.965,0.323463,0.361733,243.364,262.151
2016-07-20 17:00,0.204645,290.429,284.071,258.022,286.722,285.919,262.847,0.254813,0.261965,242.875,261.275
2016-07-20 18:00,0.308392,297.146,283.841,257.91,286.722,285.919,263.436,0.274106,0.288106,242.929,261.515
2016-07-20 19:00,0.30967,300.679,288.736,260.445,291.029,289.276,264.255,0.289882,0.277677,242.82,261.914
2016-07-20 20:00,0.603815,299.391,285.994,258.802,288.493,287.329,263.436,0.52532,0.548069,242.929,261.755
2016-07-20 21:00,1.68302,302.596,287.322,259.574,289.434,288.306,264.022,1.17461,1.26484,243.472,262.151
2016-07-20 22:00,0.300984,290.041,289.699,260.984,292.079,290.101,264.605,0.891949,1.06351,243.899,262.23
2016-07-20 23:00,-0.297448,290.429,289.911,260.769,292.209,290.238,264.837,-0.0822363,-0.165467,243.899,262.466
2016-07-21 00:00,-0.161123,285.045,283.611,257.346,286.172,284.922,262.61,-0.0454741,-0.0924946,244.006,262.388
2016-07-21 01:00,-0.00228138,284.41,282.916,257.346,285.895,284.779,261.898,0.0,0.0,244.322,262.623
2016-07-21 02:00,0.0,277.451,278.845,255.16,281.655,281.588,261.898,0.0,0.0,244.739,262.779
2016-07-21 03:00,-0.00178117,281.883,280.789,256.434,283.514,282.467,261.898,0.0,0.0,245.304,263.167
2016-07-21 04:00,0.0,290.429,289.486,260.661,291.423,289.137,264.022,0.0,0.0,245.557,263.552
2016-07-21 05:00,-0.00199579,285.045,283.495,257.346,285.895,284.205,261.898,0.0,0.0,245.709,263.552
2016-07-21 06:00,-0.00246775,278.482,277.977,254.808,280.931,280.257,260.219,0.0,0.0,245.91,263.552
2016-07-21 07:00,0.0,279.278,277.977,254.926,281.221,279.959,260.701,0.0,0.0,245.658,263.476
2016-07-21 08:00,0.0,287.587,287.978,259.683,290.101,288.584,264.255,0.0,0.0,246.406,263.934
2016-07-21 09:00,0.445466,286.121,283.726,257.572,285.618,284.492,262.728,0.51687,0.483038,246.554,263.629
2016-07-21 10:00,0.504196,288.152,278.35,255.043,281.799,281.293,261.779,0.441014,0.504809,246.554,263.858
2016-07-21 11:00,0.515299,292.889,276.591,254.099,279.76,279.81,260.581,0.47129,0.525133,246.406,263.706
2016-07-21 12:00,0.438565,292.889,276.971,253.741,279.613,279.511,260.34,0.405909,0.433794,246.554,263.858
2016-07-21 13:00,0.0291969,291.686,288.843,260.228,291.292,289.276,264.022,0.0679826,0.0486353,246.307,263.934
2016-07-21 14:00,0.109301,292.771,286.217,258.58,288.358,286.626,263.2,0.117885,0.110346,246.059,263.782
2016-07-21 15:00,0.355181,284.087,277.727,254.217,280.493,280.406,261.062,0.433807,0.477268,246.009,263.706
2016-07-21 16:00,0.267209,288.43,277.476,254.454,280.201,280.257,261.898,0.24739,0.258418,246.406,263.858
2016-07-21 17:00,0.0802686,294.491,287.651,259.793,289.835,287.748,263.436,0.0872196,0.0688806,246.456,264.086
2016-07-21 18:00,0.26553,296.943,283.38,257.459,286.172,285.208,262.61,0.241718,0.249474,246.701,264.615
2016-07-21 19:00,0.256007,301.214,289.805,260.876,291.686,289.689,264.605,0.247727,0.233192,246.75,264.54
2016-07-21 20:00,0.965473,313.033,288.52,260.228,290.632,289.276,264.488,0.770484,0.820655,246.505,264.615
2016-07-21 21:00,0.723752,290.939,283.38,257.685,285.895,285.208,263.2,0.640238,0.703407,246.652,264.69
2016-07-21 22:00,0.539323,284.73,285.882,258.802,287.951,286.485,263.083,1.0655,1.45194,246.603,264.765
2016-07-21 23:00,-0.234837,290.939,289.593,260.769,291.423,289.137,264.138,-0.0662788,-0.145897,246.652,264.765
2016-07-22 00:00,-0.141461,289.647,289.165,260.553,291.423,289.689,264.138,-0.0399249,-0.0856879,246.307,264.839
2016-07-22 01:00,-0.00454423,288.705,288.628,260.337,290.764,289.137,264.372,0.0,0.0,246.652,265.063
2016-07-22 02:00,-0.00381818,287.587,287.432,259.464,289.701,287.888,264.138,0.0,0.0,246.307,264.765
2016-07-22 03:00,0.0,289.779,289.699,260.553,291.686,290.238,264.837,0.0,0.0,246.208,264.765
2016-07-22 04:00,-0.00179721,289.113,289.486,260.553,291.555,289.964,264.372,0.0,0.0,246.456,264.765
2016-07-22 05:00,0.0,290.171,290.017,260.769,292.079,290.101,264.605,0.0,0.0,246.406,264.389
2016-07-22 06:00,0.0,289.381,289.593,260.661,291.817,289.964,264.721,0.0,-0.00247934,246.944,264.314
2016-07-22 07:00,-0.00363394,290.685,290.017,260.769,292.209,290.375,264.721,0.0,0.0,246.798,264.615
2016-07-22 08:00,-0.00861391,283.924,283.726,257.233,286.447,285.065,262.492,0.0,0.0,246.993,264.314
2016-07-22 09:00,0.405098,287.871,285.433,258.469,287.27,285.777,262.847,0.47162,0.443052,247.522,264.162
2016-07-22 10:00,0.0418628,291.563,289.911,260.984,291.817,289.826,264.605,0.155959,0.0845261,247.665,264.615
2016-07-22 11:00,0.0779431,291.563,289.699,260.661,291.686,289.826,264.372,0.131989,0.0959012,247.807,264.839
2016-07-22 12:00,0.0159976,291.44,289.911,260.553,291.686,289.689,264.255,0.0677259,0.0376847,247.712,264.839
2016-07-22 13:00,0.0818007,292.174,287.102,259.134,289.3,287.469,263.436,0.107601,0.104703,247.996,264.389
2016-07-22 14:00,0.244709,291.315,280.187,255.51,283.372,283.049,262.61,0.211603,0.228651,247.665,264.54
2016-07-22 15:00,0.0569393,293.356,286.882,259.574,289.3,287.469,263.787,0.0681235,0.0537347,247.426,264.615
2016-07-22 16:00,0.016235,292.053,290.017,260.769,292.209,290.101,264.372,0.0380663,0.0226941,247.522,264.69
2016-07-22 17:00,0.0575389,293.472,289.911,260.876,292.34,290.921,264.721,0.0747766,0.0634925,247.426,264.765
2016-07-22 18:00,0.0706327,296.008,290.86,261.305,293.119,291.6,265.185,0.0871067,0.071308,247.041,264.464
2016-07-22 19:00,0.248515,303.098,291.07,261.519,293.377,291.735,265.878,0.226729,0.215883,246.798,264.54
2016-07-22 20:00,0.747636,307.714,289.911,260.984,292.47,290.784,264.953,0.604783,0.617294,246.652,264.389
2016-07-22 21:00,1.94834,309.113,290.229,261.091,292.47,290.921,264.953,1.26366,1.43002,246.701,264.162
2016-07-22 22:00,0.67943,290.685,290.44,261.198,292.86,291.329,265.532,1.3423,1.82913,246.406,264.162
2016-07-22 23:00,-0.232866,288.568,289.058,260.228,291.555,290.238,265.069,-0.0657223,-0.144672,245.859,263.858
2016-07-23 00:00,-0.121967,289.647,289.486,260.876,291.817,290.648,265.532,-0.037071,-0.0820886,245.809,263.934
2016-07-23 01:00,-0.00226257,291.065,290.86,261.412,293.248,291.6,265.301,0.0,-0.0022842,245.759,264.01
2016-07-23 02:00,0.00190178,290.939,290.86,261.091,293.248,291.464,265.301,0.0,0.0,245.658,263.706
2016-07-23 03:00,0.0,289.247,289.379,260.553,291.686,289.826,265.069,0.0,0.0,245.658,263.706
2016-07-23 04:00,0.0,282.059,282.448,256.778,285.061,284.205,262.965,0.0,0.0,245.557,263.399
2016-07-23 05:00,0.0,290.813,290.123,260.984,292.079,290.375,265.301,0.0,0.0,245.709,263.706
2016-07-23 06:00,-0.00244389,290.685,290.44,261.091,292.6,290.784,265.762,0.0,0.0,245.355,263.629
2016-07-23 07:00,0.0,290.041,290.123,260.876,292.34,290.921,265.069,0.0,0.0,245.709,263.706
2016-07-23 08:00,-0.0084955,290.171,290.229,260.876,292.34,290.511,265.532,0.0,0.0,245.151,263.782
2016-07-23 09:00,0.622064,289.779,289.058,260.337,291.292,289.964,265.301,0.643745,0.645456,244.945,263.476
2016-07-23 10:00,0.0714997,0.0,290.651,261.305,292.73,291.329,265.069,0.156688,0.0976596,244.997,263.706
2016-07-23 11:00,0.33927,295.368,283.495,257.459,286.447,285.35,263.905,0.322392,0.34005,245.253,263.782
2016-07-23 12:00,0.0177946,291.686,290.86,261.412,293.248,291.735,265.301,0.0662932,0.0359294,244.79,264.01
2016-07-23 13:00,0.0102312,291.563,291.279,261.838,293.764,292.141,265.993,0.0495016,0.0250848,244.479,263.706
2016-07-23 14:00,0.0117188,291.563,291.07,261.519,293.506,291.871,265.993,0.0407915,0.0223471,244.111,263.934
2016-07-23 15:00,0.00495229,291.686,291.174,261.838,293.506,291.735,265.878,0.0335447,0.0174987,243.633,263.552
2016-07-23 16:00,0.00749445,291.686,290.756,261.412,293.119,291.329,265.185,0.0327853,0.0189152,243.793,263.399
2016-07-23 17:00,0.0294461,293.124,289.165,260.445,291.555,289.826,264.372,0.0521305,0.0432401,243.256,262.623
2016-07-23 18:00,0.216606,297.248,285.433,259.024,288.628,287.048,264.138,0.205512,0.220228,242.6,262.388
2016-07-23 19:00,0.368295,303.181,285.658,258.802,288.493,286.907,263.67,0.313468,0.325096,242.489,261.993
2016-07-23 20:00,0.595925,303.428,289.272,260.661,291.292,289.964,264.721,0.502211,0.51166,243.093,261.675
2016-07-23 21:00,2.18206,312.237,290.229,260.984,292.47,290.511,264.953,1.35795,1.55857,243.256,261.834
2016-07-23 22:00,4.05806,289.381,288.195,260.011,290.5,288.861,264.488,1.85013,3.46657,243.039,261.435
2016-07-23 23:00,-0.313697,283.428,283.148,257.346,285.757,284.922,262.728,-0.0801831,-0.161335,242.6,260.952
2016-07-24 00:00,-0.171085,284.41,284.414,257.798,286.722,285.493,263.083,-0.044774,-0.0910707,242.544,260.871
2016-07-24 01:00,-0.00450553,290.429,289.486,260.228,291.686,289.964,264.255,0.0,-0.0022743,242.82,260.708
2016-07-24 02:00,-0.0018943,289.91,289.379,260.119,291.423,289.689,264.255,0.0,0.0,242.71,260.463
2016-07-24 03:00,0.0,290.171,289.379,260.011,291.817,290.238,264.721,0.0,0.0,242.71,260.299
2016-07-24 04:00,-0.00178333,285.357,285.095,258.246,287.679,286.343,263.2,0.0,0.0,242.929,260.381
2016-07-24 05:00,0.0,290.041,289.165,260.445,291.423,289.964,264.488,0.0,0.00198985,243.256,260.381
2016-07-24 06:00,0.0,290.041,289.058,260.445,291.423,289.826,264.605,0.0,0.0,243.633,260.545
2016-07-24 07:00,0.0,287.444,286.105,258.469,288.897,287.469,262.965,0.0,0.0,243.793,260.708
2016-07-24 08:00,0.0,283.261,283.495,257.12,286.033,285.065,262.728,0.0,0.0,244.269,260.789
2016-07-24 09:00,0.566447,285.665,283.264,257.12,286.033,284.922,262.61,0.644476,0.661216,244.111,260.627
2016-07-24 10:00,0.45637,290.041,285.321,258.246,287.543,286.626,263.67,0.497321,0.469264,244.479,260.381
2016-07-24 11:00,0.0611468,291.686,289.165,260.337,291.16,289.689,264.488,0.138751,0.0987702,244.531,260.708
2016-07-24 12:00,0.0409721,291.563,289.379,260.119,291.423,290.101,264.488,0.101056,0.071937,244.479,261.113
2016-07-24 13:00,0.0745866,293.472,288.628,260.011,290.897,289.413,264.372,0.108969,0.0900643,244.269,260.952
2016-07-24 14:00,0.0820594,0.0,288.628,259.902,290.897,289.551,264.372,0.105874,0.0920488,244.006,260.789
2016-07-24 15:00,0.0383887,292.053,289.272,260.119,291.292,290.101,264.372,0.0702498,0.0537579,244.374,261.033
2016-07-24 16:00,0.0712118,293.587,288.087,259.464,290.367,288.999,263.67,0.0920291,0.0807215,244.479,261.033
2016-07-24 17:00,0.0843475,294.268,288.412,259.683,290.632,289.413,264.022,0.104291,0.0878572,244.164,260.708
2016-07-24 18:00,0.11835,296.531,289.165,260.228,291.686,290.238,264.488,0.131441,0.11793,244.322,260.871
2016-07-24 19:00,0.299179,302.341,289.272,260.228,291.423,289.964,264.721,0.27456,0.266964,243.686,260.545
2016-07-24 20:00,0.770181,310.056,289.593,260.337,291.686,290.511,264.372,0.588318,0.608512,243.686,260.135
2016-07-24 21:00,1.62912,309.989,289.379,260.228,291.292,289.964,264.372,0.989247,1.13523,243.526,260.463
2016-07-24 22:00,1.03815,289.91,289.165,260.337,291.16,289.826,264.138,2.637,3.14423,243.793,260.217
2016-07-24 23:00,-0.24634,286.271,286.217,258.691,288.493,287.748,264.138,-0.0695253,-0.148033,244.426,260.708
2016-07-25 00:00,-0.170138,285.97,285.882,258.358,288.222,287.188,263.553,-0.039288,-0.0874439,244.635,260.381
2016-07-25 01:00,-0.0022427,280.239,281.978,256.664,284.781,284.922,262.728,0.0,0.0,244.426,260.463
2016-07-25 02:00,-0.00188665,284.73,284.3,257.685,286.997,286.06,262.728,0.0,0.0,244.164,260.052
2016-07-25 03:00,0.0,279.667,281.267,256.32,284.501,284.205,262.61,0.0,0.0,244.322,259.97
2016-07-25 04:00,0.00177624,283.594,283.841,257.459,286.31,285.635,262.373,0.0,0.0,244.111,259.638
2016-07-25 05:00,-0.00392515,284.57,284.071,257.459,286.585,285.635,262.728,0.0,0.0,243.953,259.22
2016-07-25 06:00,0.0,285.357,285.321,258.246,287.543,286.485,263.2,0.0,0.0,243.793,259.387
2016-07-25 07:00,0.0,280.427,281.267,256.205,284.079,283.773,262.255,0.0,0.0,243.74,259.387
2016-07-25 08:00,0.0,279.667,280.909,256.089,283.938,283.773,262.136,0.0,0.0,243.899,259.97
2016-07-25 09:00,0.508096,284.41,282.566,256.778,285.34,284.492,262.255,0.599213,0.586232,244.006,259.804
2016-07-25 11:00,0.242645,295.042,285.095,258.022,286.997,286.06,262.847,0.261478,0.230118,244.894,260.217
2016-07-25 12:00,0.392331,296.323,282.916,256.778,285.757,285.35,262.492,0.368425,0.365476,244.687,259.721
2016-07-25 13:00,0.443397,293.356,281.029,255.742,283.656,283.773,261.898,0.459677,0.477183,244.583,260.135
2016-07-25 14:00,0.230628,295.368,280.909,255.742,283.656,283.194,261.898,0.21182,0.206524,244.583,260.299
2016-07-25 15:00,0.0408748,291.931,287.541,258.913,289.568,287.469,263.2,0.0765585,0.0625236,244.79,259.471
2016-07-25 16:00,0.281162,291.931,281.148,255.51,284.079,283.339,261.54,0.296252,0.310343,244.583,259.304
2016-07-25 17:00,0.428572,292.414,279.823,254.926,282.517,282.467,261.54,0.436579,0.467823,244.374,259.554
2016-07-25 18:00,0.221459,296.84,284.755,257.233,286.997,285.919,262.255,0.222666,0.212707,244.322,259.22
2016-07-25 19:00,0.30337,299.858,287.102,258.691,288.628,287.048,262.492,0.286313,0.280911,244.322,258.882
2016-07-25 20:00,0.548165,300.225,285.994,258.134,287.679,286.202,262.255,0.480707,0.491289,244.217,258.713
2016-07-25 21:00,1.35179,296.943,279.58,255.277,282.66,282.028,260.701,0.948348,1.1419,244.058,258.457
2016-07-25 22:00,3.42256,278.482,278.598,254.336,281.799,281.441,260.942,8.69363,12.0935,243.686,258.372
2016-07-25 23:00,-0.244035,275.48,277.098,253.381,279.907,279.661,259.735,-0.063955,-0.146647,243.846,258.114
2016-07-26 00:00,-0.138409,277.869,277.852,253.86,280.931,280.406,260.34,-0.0364594,-0.0838394,243.472,257.855
2016-07-26 01:00,-0.0022324,275.932,277.476,253.501,280.054,280.257,260.34,0.0,-0.00225374,243.31,258.798
2016-07-26 02:00,0.0,277.869,278.474,253.741,281.076,280.702,260.461,0.0,0.0,243.147,258.713
2016-07-26 03:00,0.00174746,283.093,281.386,255.858,283.797,282.904,261.062,0.0,0.0,243.472,258.798
2016-07-26 04:00,0.0,288.568,287.102,258.246,289.032,286.907,262.255,0.0,0.0,243.74,259.97
2016-07-26 05:00,0.00195406,279.081,279.823,255.043,282.374,282.175,261.182,0.0,0.0,243.472,260.135
2016-07-26 06:00,0.0,278.075,278.35,254.336,281.076,280.702,260.219,0.0,0.0,243.526,259.387
2016-07-26 07:00,-0.00353816,284.41,283.38,257.006,285.895,284.492,262.255,0.0,0.0,243.093,258.543
2016-07-26 08:00,0.0,273.088,273.997,252.29,276.315,274.617,256.909,0.0,0.0,242.929,256.181
2016-07-26 09:00,0.819086,278.482,273.599,251.552,275.396,273.517,256.535,0.725042,0.808122,243.256,255.275
2016-07-26 10:00,0.302869,289.91,281.624,256.434,284.079,282.175,260.098,0.332287,0.314377,243.899,257.682
2016-07-26 11:00,0.218587,293.124,282.331,256.32,284.361,282.467,260.581,0.237066,0.218197,244.111,256.894
2016-07-26 12:00,0.344553,292.653,278.101,254.099,281.076,280.108,260.461,0.334056,0.347846,243.202,256.271
2016-07-26 13:00,0.102496,291.809,284.982,257.572,286.86,284.636,261.421,0.135134,0.11678,244.058,256.982
2016-07-26 14:00,0.0899371,292.294,284.869,257.346,286.86,284.492,260.942,0.107051,0.0934286,244.374,257.158
2016-07-26 15:00,0.0284954,290.813,286.55,258.58,288.222,285.635,260.822,0.0555971,0.0412756,242.765,255.73
2016-07-26 16:00,0.0474969,291.315,281.267,255.974,282.66,278.156,257.034,0.069848,0.0555221,241.874,253.309
2016-07-26 17:00,0.146035,292.053,276.08,253.02,276.923,273.99,255.406,0.170157,0.158252,241.986,252.634
2016-07-26 18:00,0.107722,290.939,284.528,257.233,285.061,282.758,259.856,0.149841,0.125841,242.489,253.974
2016-07-26 19:00,0.18572,296.323,287.651,259.244,289.3,286.626,261.421,0.198199,0.181636,242.378,254.999
2016-07-26 20:00,0.616762,302.426,286.992,258.913,288.763,286.343,261.421,0.524585,0.517938,242.544,254.814
2016-07-26 21:00,1.0993,299.672,286.328,258.469,286.997,284.636,260.219,0.785047,0.829552,241.817,254.256
2016-07-26 22:00,-6.07536,264.739,256.992,243.226,258.491,257.115,246.594,-7.2016,-9.8135,242.655,249.721
2016-07-26 23:00,-0.230169,282.059,275.565,252.656,275.857,271.121,252.982,-0.0682094,-0.156849,242.71,252.537
2016-07-27 00:00,-0.128422,289.514,287.212,258.691,289.166,286.626,261.898,-0.0388337,-0.0864329,242.544,255.183
2016-07-27 01:00,-0.00222187,289.381,287.212,258.913,289.3,286.907,261.779,0.0,0.0,242.489,254.999
2016-07-27 02:00,-0.00187089,289.514,287.541,259.024,289.568,287.329,261.779,0.0,-0.00188877,242.266,255.091
2016-07-27 03:00,0.00174036,289.113,287.322,259.024,289.3,287.048,262.255,0.0,0.0,242.489,254.999
2016-07-27 04:00,0.0,290.041,287.869,258.913,289.835,287.329,261.779,0.0,0.0,243.039,255.091
2016-07-27 05:00,0.0,289.647,287.651,258.913,289.701,287.469,262.136,0.0,0.0,242.655,254.814
2016-07-27 06:00,-0.00239541,288.705,286.217,258.246,288.628,286.202,261.301,0.0,0.0,242.929,254.814
2016-07-27 07:00,0.0,278.075,279.091,254.454,282.087,281.293,260.461,0.0,0.0,242.875,254.256
2016-07-27 08:00,0.0,279.859,279.458,254.69,281.943,280.108,259.249,0.0,0.0,242.378,253.785
2016-07-27 09:00,0.535112,280.05,279.458,254.69,282.374,281.588,260.581,0.679617,0.636696,242.765,254.443
2016-07-27 10:00,0.351459,288.977,282.566,255.742,285.34,284.061,261.54,0.388305,0.367799,241.986,254.536
2016-07-27 12:00,0.125101,292.653,285.882,257.798,288.087,286.485,262.136,0.17099,0.155165,242.875,255.639
2016-07-27 13:00,0.300345,289.91,280.549,255.043,283.656,283.049,261.062,0.307643,0.325403,243.039,256.001
2016-07-27 14:00,0.196888,290.429,281.978,256.089,284.921,284.061,261.66,0.184369,0.185607,242.984,256.805
2016-07-27 15:00,0.089226,292.414,285.095,257.572,288.222,286.626,262.492,0.0954836,0.0813213,243.039,257.158
2016-07-27 16:00,0.0325066,291.686,288.736,259.464,291.16,289.276,262.728,0.0582224,0.042915,243.093,257.07
2016-07-27 17:00,0.0482511,293.24,289.165,259.683,291.555,289.964,263.2,0.0680902,0.0541248,243.039,257.333
2016-07-27 18:00,0.127815,295.796,288.52,259.134,290.632,288.722,263.318,0.140818,0.127483,243.039,257.07
2016-07-27 19:00,0.263438,299.203,288.52,259.244,290.764,288.861,263.318,0.254214,0.242489,242.433,256.982
2016-07-27 20:00,0.666118,306.176,288.736,259.574,291.16,289.413,263.318,0.537823,0.550473,242.544,256.805
2016-07-27 21:00,1.604,309.249,289.486,260.011,292.079,290.511,264.372,0.974805,1.1341,242.82,257.421
2016-07-27 22:00,-0.435618,289.91,289.272,259.793,291.817,290.375,263.905,-1.84419,-2.19891,243.256,258.2
2016-07-27 23:00,-0.216486,290.301,289.593,259.793,292.209,290.784,264.138,-0.0675309,-0.149538,243.74,258.713
2016-07-28 00:00,-0.130683,289.779,289.165,259.574,291.817,290.375,264.255,-0.0385986,-0.0859096,244.322,259.051
2016-07-28 01:00,-0.00221112,289.779,289.486,259.683,292.079,290.648,264.372,-0.00187215,0.0,244.583,259.387
2016-07-28 02:00,-0.00186279,289.779,289.272,260.119,291.948,290.511,264.372,0.0,0.0,245.151,259.887
2016-07-28 03:00,0.00173315,290.429,290.123,260.119,292.86,291.464,264.605,0.0,0.0,245.405,260.545
2016-07-28 04:00,0.00175444,289.514,289.272,259.683,291.686,290.375,264.372,0.0,0.0,245.859,260.545
2016-07-28 05:00,0.00193684,290.813,290.335,260.337,292.989,291.735,265.185,0.0,0.0,246.258,261.435
2016-07-28 06:00,0.0,290.301,290.017,260.119,292.6,291.193,264.488,0.0,0.0,246.652,261.355
2016-07-28 07:00,0.00349073,290.558,290.017,260.228,292.73,291.193,264.605,0.0,0.0,247.283,261.914
2016-07-28 08:00,0.0,289.91,289.593,260.011,292.079,290.648,264.721,0.0,0.0,247.379,261.435
2016-07-28 10:00,0.0473722,291.065,290.44,260.228,292.86,291.464,265.416,0.167733,0.104346,247.331,261.834
2016-07-28 11:00,0.0271282,291.19,290.545,260.553,292.86,291.193,264.953,0.102318,0.0647342,247.283,262.072
2016-07-28 12:00,0.0178907,291.065,290.651,260.445,292.86,291.329,264.488,0.0772549,0.0469605,247.522,262.545
2016-07-28 13:00,0.0219896,291.686,290.44,260.445,293.119,291.735,265.416,0.0657854,0.0414396,247.234,262.151
2016-07-28 14:00,0.0208699,292.053,290.44,260.445,293.119,291.871,265.185,0.0552203,0.0355546,247.283,262.151
2016-07-28 15:00,0.0,0.0,0.0,0.0,0.0,0.0,0.0,0.0,0.0,0.0,0.0
2016-07-28 16:00,0.0275137,292.534,290.545,260.661,293.248,292.141,265.762,0.0518861,0.0378773,247.283,262.545
2016-07-28 17:00,0.0348633,293.007,290.965,260.984,293.635,292.545,265.301,0.0590374,0.0460263,247.617,262.545
2016-07-28 18:00,0.0863015,295.796,290.965,260.876,293.635,292.41,265.762,0.103083,0.0902382,247.331,262.545
2016-07-28 19:00,0.24828,301.74,290.756,260.876,293.506,292.141,265.762,0.229926,0.223238,247.57,262.857
2016-07-28 20:00,0.69329,309.249,290.86,260.984,293.635,292.141,265.185,0.548828,0.574729,247.234,263.244
2016-07-28 21:00,1.61526,304.715,288.628,259.683,291.16,290.511,265.301,1.04837,1.21593,247.331,263.399
2016-07-28 22:00,-0.52173,284.41,285.658,258.246,288.493,288.167,263.905,-1.10437,-1.58015,246.847,263.629
2016-07-28 23:00,-0.327047,290.685,290.756,260.661,293.506,292.141,265.532,-0.0811634,-0.170779,246.554,263.552
2016-07-29 00:00,-0.190276,290.939,290.86,260.769,293.506,292.276,265.532,-0.0460304,-0.0945228,246.406,263.399
2016-07-29 01:00,-0.00220016,289.381,289.272,260.011,291.948,290.784,265.301,0.0,-0.0022212,245.759,263.399
2016-07-29 02:00,-0.00185456,290.939,290.965,260.876,293.506,292.141,265.762,0.0,0.0,245.304,263.244
2016-07-29 03:00,-0.00172586,289.381,289.379,260.119,291.948,290.511,264.953,0.0,0.0,244.635,263.012
2016-07-29 04:00,0.0,282.923,284.3,257.459,286.86,286.767,264.138,0.0,0.0,244.687,263.167
2016-07-29 05:00,0.0,290.685,290.965,261.198,293.635,292.141,265.416,0.0,0.0,244.687,263.167
2016-07-29 06:00,0.00237096,290.685,290.86,261.305,293.506,292.276,265.532,0.0,0.0,243.526,262.072
2016-07-29 07:00,0.0,289.113,289.272,260.445,291.686,290.101,264.721,0.0,0.0,243.526,260.052
2016-07-29 08:00,0.0,287.729,287.102,259.683,289.434,287.748,263.2,0.0,0.0,243.147,259.22
2016-07-29 09:00,0.908498,276.811,270.885,250.555,273.057,271.765,255.784,0.786318,0.896801,242.71,256.894
2016-07-29 10:00,0.160106,291.931,287.432,260.011,290.101,287.748,262.965,0.223494,0.170374,242.322,257.595
2016-07-29 11:00,0.0222415,291.19,289.699,261.198,292.079,289.689,263.67,0.0941593,0.0548879,241.361,257.595
2016-07-29 12:00,0.0322375,291.686,289.379,261.091,291.948,289.826,263.083,0.0803698,0.0506266,241.131,257.682
2016-07-29 13:00,0.0146684,291.065,289.379,260.984,291.423,288.999,263.2,0.0571307,0.032579,240.899,257.421
2016-07-29 14:00,0.0274017,291.563,288.843,261.091,290.897,288.167,263.2,0.0552405,0.0368849,240.607,257.158
2016-07-29 15:00,0.0495975,292.653,286.992,260.011,289.3,287.329,262.728,0.0682404,0.0513234,239.894,256.181
2016-07-29 16:00,0.0725593,293.702,285.77,259.683,288.493,286.343,262.61,0.0805021,0.066938,239.532,255.73
2016-07-29 17:00,0.055003,293.587,287.432,260.337,289.701,287.469,262.728,0.0704243,0.0555288,238.981,255.275
2016-07-29 18:00,0.0848291,295.151,288.303,260.769,290.367,287.888,262.728,0.103166,0.0840829,238.608,255.275
2016-07-29 19:00,0.248642,300.042,288.303,260.769,290.367,288.167,263.2,0.23684,0.213758,238.857,255.366
2016-07-29 20:00,0.678328,306.845,288.412,260.876,290.367,287.888,263.2,0.540836,0.52217,239.532,256.628
2016-07-29 21:00,1.34376,303.015,287.432,260.011,289.701,287.748,262.847,0.912127,0.98454,239.774,256.894
2016-07-29 22:00,-0.551838,286.121,286.105,259.134,288.493,286.626,262.847,-0.778734,-0.928522,239.954,257.246
2016-07-29 23:00,-0.27898,288.977,287.76,260.119,289.835,287.469,262.847,-0.0708635,-0.152089,240.253,257.595
2016-07-30 00:00,-0.183061,289.647,288.412,260.337,290.632,288.722,263.67,-0.0457368,-0.0939201,239.954,257.682
2016-07-30 01:00,-0.00218901,284.73,285.321,258.358,288.493,287.188,263.2,0.0,0.0,239.532,257.855
2016-07-30 02:00,-0.00184621,286.271,286.661,259.244,289.434,288.027,264.022,0.0,0.0,239.349,257.769
2016-07-30 03:00,-0.00171847,290.041,289.165,260.337,291.423,289.826,264.022,0.0,0.0,239.349,258.114
2016-07-30 04:00,0.0,287.729,287.651,259.793,289.968,288.445,263.905,0.0,0.0,239.834,258.628
2016-07-30 05:00,0.0,290.041,289.165,260.337,291.292,289.413,263.905,0.0,0.0,240.074,258.628
2016-07-30 06:00,0.00235873,288.152,288.087,259.902,290.5,288.999,264.255,0.0,0.0,240.253,259.387
2016-07-30 07:00,0.0,285.97,286.772,259.574,289.434,288.445,263.553,0.0,0.0,240.43,259.22
2016-07-30 08:00,0.0,287.3,287.212,259.354,289.968,288.584,263.905,0.0,0.0,240.193,259.387
2016-07-30 09:00,0.706367,283.093,283.611,257.572,286.86,286.626,263.2,0.773986,0.755068,240.014,259.135
2016-07-30 10:00,0.526106,290.939,284.642,258.134,287.543,287.329,263.787,0.496994,0.478461,240.253,259.051
2016-07-30 11:00,0.200585,294.268,288.303,260.119,290.897,289.551,264.953,0.228543,0.197502,239.41,259.051
2016-07-30 12:00,0.0340644,291.809,290.123,260.984,292.209,290.784,264.837,0.094117,0.0615402,239.532,259.135
2016-07-30 13:00,0.0425637,292.294,290.017,260.984,292.34,290.648,264.837,0.0832615,0.0592697,240.312,259.304
2016-07-30 14:00,0.148808,295.902,287.432,259.793,290.5,289.413,264.837,0.144784,0.134417,240.253,259.471
2016-07-30 15:00,0.0682171,293.816,289.272,260.876,291.555,290.375,264.488,0.0892643,0.0663648,240.724,259.887
2016-07-30 16:00,0.112631,295.476,287.651,260.011,290.5,289.551,264.138,0.111259,0.0985466,240.665,259.887
2016-07-30 17:00,0.406696,295.26,284.642,258.358,287.815,287.609,264.255,0.43072,0.43633,240.253,259.887
2016-07-30 18:00,0.194505,296.84,289.058,260.769,291.423,290.238,264.605,0.196056,0.177663,240.193,259.554
2016-07-30 19:00,0.280157,300.769,290.017,260.984,292.47,291.057,264.837,0.258623,0.243553,239.834,260.135
2016-07-30 20:00,0.680394,305.493,290.229,261.198,292.73,291.464,265.185,0.547284,0.549518,239.894,259.638
2016-07-30 21:00,1.24571,301.826,290.017,261.198,292.6,291.057,264.953,0.846696,0.917255,239.532,259.387
2016-07-30 22:00,-0.140757,289.647,289.699,260.769,292.34,290.784,264.721,-0.476716,-0.710515,238.919,259.304
2016-07-30 23:00,-0.331179,290.558,290.017,260.876,292.209,290.921,264.721,-0.0841226,-0.167173,238.795,259.22
2016-07-31 00:00,-0.196772,290.171,289.699,260.769,292.079,290.375,264.837,-0.0479626,-0.0963168,238.857,258.967
2016-07-31 01:00,-0.00435537,290.429,289.911,260.445,292.079,290.375,264.721,0.0,0.0,238.733,258.882
2016-07-31 02:00,0.0,289.113,288.628,259.683,290.897,289.551,264.138,0.0,0.0,238.795,258.882
2016-07-31 03:00,0.0,289.247,288.736,259.793,290.897,289.276,263.787,0.0,0.0,238.919,259.051
2016-07-31 04:00,-0.001732,288.977,288.412,259.354,290.764,288.999,263.905,0.0,0.0,241.361,259.471
2016-07-31 05:00,0.0,285.97,286.105,257.91,288.358,287.188,263.318,0.0,0.0,242.378,259.804
2016-07-31 06:00,-0.0023465,285.357,285.546,256.664,287.951,286.907,263.083,0.0,0.0,237.463,258.713
2016-07-31 07:00,0.00342055,283.924,284.3,255.974,287.27,286.202,263.318,0.0,0.0,235.799,258.286
2016-07-31 08:00,-0.00763055,282.234,283.38,255.277,286.31,285.35,262.728,0.0,0.0,233.159,256.894
2016-07-31 09:00,0.320962,287.871,286.439,256.892,289.166,287.188,262.847,0.471047,0.388836,231.943,255.911
2016-07-31 10:00,0.100485,291.931,288.843,257.91,291.292,289.551,263.436,0.192356,0.13232,231.394,255.73
2016-07-31 11:00,0.114145,283.76,276.591,251.305,277.075,274.617,253.368,0.184889,0.170349,230.018,250.442
2016-07-31 12:00,0.0735849,284.087,275.694,251.056,277.226,274.929,254.264,0.138285,0.121398,229.178,248.882
2016-07-31 13:00,0.067555,293.124,289.379,258.913,292.47,290.511,264.488,0.0945021,0.0741312,230.755,254.536
2016-07-31 14:00,0.0169758,291.44,289.805,258.691,292.6,290.648,263.787,0.0486483,0.0276846,230.835,254.256
2016-07-31 15:00,0.0645166,293.356,286.882,257.233,289.968,288.167,263.2,0.0703836,0.0613756,230.348,253.974
2016-07-31 16:00,0.0463211,291.809,288.303,257.798,290.897,288.861,262.847,0.0699601,0.0556112,230.996,254.349
2016-07-31 17:00,0.157129,288.152,269.343,247.2,268.855,265.48,248.364,0.169428,0.172189,229.601,245.114
2016-07-31 18:00,0.16842,291.44,278.226,251.799,279.76,276.477,255.027,0.184465,0.182509,230.755,249.825
2016-07-31 19:00,0.300108,297.649,279.823,252.777,281.655,278.458,256.16,0.290401,0.295107,231.315,250.238
2016-07-31 20:00,0.435145,299.203,288.736,257.346,290.764,288.722,262.136,0.392518,0.393365,233.308,254.536
2016-07-31 22:00,-0.226311,290.813,290.229,258.469,293.377,291.329,263.905,-0.287426,-0.342712,234.968,255.275
2016-07-31 23:00,-0.283869,290.429,288.951,257.91,291.686,289.413,262.847,-0.0785764,-0.159825,235.038,254.536
