# timestamp,IR_016,IR_039,IR_087,IR_097,IR_108,IR_120,IR_134,VIS006,VIS008,WV_062,WV_073
2015-07-01 02:00,-0.00130083,281.883,283.264,260.661,285.34,285.208,263.67,-0.0,-0.0,234.897,259.22
2015-07-01 03:00,-0.0,276.376,273.466,254.572,274.156,273.359,254.392,-0.0,-0.00125052,232.02,253.405
2015-07-01 04:00,-0.00125407,259.045,250.954,241.061,249.998,248.327,238.577,-0.0,-0.0,226.685,237.888
2015-07-01 05:00,-0.0,260.395,249.385,240.32,246.794,244.973,235.537,-0.0,0.00136484,225.156,235.444
2015-07-01 06:00,-0.0,279.081,278.101,257.346,278.873,278.307,258.515,-0.0,-0.0,232.935,256.45
2015-07-01 07:00,-0.0,265.446,259.706,245.723,258.678,257.671,245.35,-0.0,-0.0,228.748,242.354
2015-07-01 08:00,-0.0,278.482,278.101,257.12,279.613,279.361,259.37,-0.0,-0.0,232.557,255.183
2015-07-01 09:00,-0.0,279.278,279.945,258.134,281.943,281.588,260.581,-0.0,-0.0,232.557,256.805
2015-07-01 10:00,0.516125,279.278,277.852,257.459,279.17,278.004,257.9,0.58267,0.752641,231.076,254.629
2015-07-01 11:00,0.297083,282.234,278.968,258.469,280.054,278.004,257.158,0.199635,0.361812,230.755,253.785
2015-07-01 12:00,0.350266,290.558,288.951,264.747,291.423,290.101,264.372,0.147135,0.372803,233.53,257.421
2015-07-01 13:00,0.294165,294.043,290.965,266.259,293.248,291.193,264.255,0.118523,0.30517,232.175,255.548
2015-07-01 14:00,0.252833,295.902,292.417,267.249,294.661,292.276,264.488,0.0967728,0.253502,231.394,255.366
2015-07-01 15:00,0.217483,297.146,294.646,268.711,297.434,294.812,265.878,0.0783293,0.214647,232.405,256.271
2015-07-01 16:00,0.194612,297.146,294.945,268.904,297.683,295.208,266.108,0.0670283,0.193143,232.709,256.091
2015-07-01 17:00,0.17678,296.114,293.944,268.421,296.809,294.415,265.878,0.0678958,0.185829,233.085,256.181
2015-07-01 18:00,0.263877,284.087,268.773,252.168,266.847,262.888,243.949,0.21017,0.307037,225.835,242.354
2015-07-01 19:00,0.395244,284.73,268.487,252.412,266.847,262.537,244.512,0.307222,0.441541,224.959,241.854
2015-07-01 20:00,0.26645,288.012,283.495,261.944,285.061,283.049,259.127,0.243414,0.31855,230.755,252.342
2015-07-02 01:00,-0.0,282.581,282.682,261.091,285.061,283.773,262.017,-0.0,-0.0,234.401,256.091
2015-07-02 02:00,-0.0,282.408,282.214,260.445,284.079,282.904,260.942,-0.0,-0.0,233.308,255.548
2015-07-02 03:00,-0.00123869,282.581,283.726,261.519,285.895,285.208,262.61,-0.0,-0.0,234.615,257.158
2015-07-02 04:00,-0.0,280.613,280.308,259.902,281.943,280.85,260.34,-0.0,-0.0,233.603,255.548
2015-07-02 05:00,-0.0,279.473,277.476,257.459,278.427,277.396,257.282,-0.0,-0.0,232.557,253.309
2015-07-02 06:00,0.00156624,281.165,281.978,260.553,284.361,283.917,262.017,-0.0,-0.0,234.257,256.271
2015-07-02 07:00,-0.0,275.251,276.08,257.12,278.873,277.548,259.127,-0.0,-0.0,233.234,254.443
2015-07-02 08:00,-0.0,278.684,277.977,257.685,279.613,278.76,258.882,-0.0,-0.0,233.01,253.5
2015-07-02 09:00,-0.0,277.451,275.436,255.858,277.226,275.861,255.658,-0.0,-0.0,232.405,252.925
2015-07-02 10:00,0.346844,281.346,282.566,260.769,284.921,284.779,262.492,0.391563,0.496059,234.686,256.716
2015-07-02 11:00,0.443574,287.01,282.916,261.305,285.34,283.917,262.017,0.247718,0.476398,233.896,256.271
2015-07-02 12:00,0.363829,290.301,286.439,263.721,288.087,285.777,262.017,0.165521,0.386495,231.709,254.814
2015-07-02 13:00,0.318386,290.685,283.148,261.519,283.938,280.406,256.66,0.1511,0.331666,231.552,252.537
2015-07-02 14:00,0.25613,285.045,267.764,252.534,264.965,259.502,241.808,0.167044,0.28828,223.746,239.789
2015-07-02 15:00,0.233503,279.278,262.616,248.121,261.25,257.486,241.374,0.188096,0.299581,226.027,240.576
2015-07-02 16:00,0.271808,270.713,247.563,239.115,246.355,242.585,231.094,0.271983,0.384169,223.746,232.988
2015-07-02 17:00,0.353019,254.396,223.252,226.866,221.838,220.984,219.362,0.457596,0.552962,216.83,219.372
2015-07-02 18:00,0.267793,276.376,256.992,244.903,255.827,252.536,238.428,0.255082,0.349206,223.118,235.592
2015-07-02 19:00,0.345558,279.473,257.683,245.451,255.049,250.557,235.382,0.311725,0.41733,221.93,235.887
2015-07-03 01:00,-0.00146282,267.444,250.371,241.936,247.662,242.143,229.449,-0.0,-0.0,219.744,232.988
2015-07-03 02:00,0.00130141,284.73,284.185,262.366,286.31,284.636,262.492,-0.0,-0.0,232.481,254.722
2015-07-03 03:00,-0.00123867,281.346,278.35,258.58,279.907,277.548,257.158,-0.0,-0.0,230.43,251.352
2015-07-03 04:00,-0.00125356,282.581,279.823,259.354,281.221,279.361,257.282,-0.0,-0.0,230.835,252.634
2015-07-03 05:00,-0.0,283.093,282.682,261.412,284.641,283.629,261.898,-0.0,-0.0,232.175,254.536
2015-07-03 06:00,-0.00156533,279.473,276.718,257.685,278.128,276.015,255.28,-0.0,-0.0,231.315,252.731
2015-07-03 07:00,-0.0,278.279,274.785,255.974,275.55,274.147,254.773,-0.0,-0.0,229.178,249.928
2015-07-03 08:00,-0.0,282.753,283.38,261.305,285.757,285.35,262.847,-0.0,-0.0,233.234,256.539
2015-07-03 09:00,-0.00658314,280.799,281.386,260.228,283.797,282.904,261.779,-0.0,-0.0,232.633,255.911
2015-07-03 10:00,0.320092,282.408,282.916,261.091,285.34,284.492,263.2,0.394213,0.47004,233.968,256.628
2015-07-03 11:00,0.481534,287.444,281.029,260.228,283.514,282.613,261.66,0.387728,0.505202,233.896,256.36
2015-07-03 12:00,0.347467,291.686,287.541,264.031,289.701,287.748,263.553,0.179278,0.364491,234.968,256.805
2015-07-03 13:00,0.289843,294.268,291.279,266.756,293.248,290.648,264.953,0.113266,0.292614,234.041,257.07
2015-07-03 14:00,0.255933,296.323,292.929,267.935,295.17,292.41,265.532,0.092243,0.24965,234.686,257.769
2015-07-03 15:00,0.220309,297.248,294.044,268.615,296.182,293.617,265.878,0.0795519,0.210967,235.178,258.114
2015-07-03 16:00,0.276397,295.368,285.994,263.618,288.087,286.202,262.61,0.207558,0.284022,234.968,257.246
2015-07-03 17:00,0.20529,294.713,287.651,264.236,289.032,286.06,260.942,0.110752,0.212754,233.308,254.907
2015-07-03 18:00,0.1915,296.008,292.827,267.838,295.297,292.679,265.647,0.0923838,0.193331,235.038,257.07
2015-07-03 19:00,0.167388,294.043,291.902,267.249,294.405,291.871,265.301,0.111746,0.188487,234.756,256.539
2015-07-04 01:00,-0.00146353,284.087,284.982,262.471,287.543,287.188,264.255,-0.0,-0.0,234.756,257.07
2015-07-04 02:00,-0.0,283.428,284.642,262.155,287.27,286.907,264.138,-0.0,-0.0,233.968,256.982
2015-07-04 03:00,-0.00123862,283.261,284.3,262.049,286.86,286.626,263.905,-0.0,-0.0,234.615,256.716
2015-07-04 04:00,-0.0,282.581,284.071,262.155,286.722,286.626,263.67,-0.0,-0.0,233.677,256.181
2015-07-04 05:00,-0.0,276.155,273.466,254.926,275.55,273.99,254.392,-0.0,-0.0,231.943,251.85
2015-07-04 06:00,-0.00156442,281.883,283.38,261.519,286.033,286.202,263.787,-0.0,-0.0,233.456,256.181
2015-07-04 07:00,-0.00199692,281.883,283.495,261.412,286.033,285.919,263.905,-0.0,-0.0,233.677,256.805
2015-07-04 08:00,-0.0,274.551,269.485,252.656,269.679,268.173,251.159,-0.0,-0.0,229.093,247.699
2015-07-04 09:00,-0.0,281.705,282.916,260.984,285.479,285.493,263.2,-0.0,-0.0,233.085,256.36
2015-07-04 10:00,0.38036,282.059,283.726,261.519,286.31,286.202,264.255,0.421142,0.531686,234.615,256.805
2015-07-04 11:00,0.363576,286.421,286.105,263.411,288.763,288.027,264.255,0.1919,0.405186,236.071,257.246
2015-07-04 12:00,0.352765,291.563,289.699,265.758,292.209,290.511,265.301,0.15164,0.364356,234.756,256.716
2015-07-04 13:00,0.295729,295.151,291.798,266.954,293.635,291.464,264.488,0.118337,0.296511,233.234,255.366
2015-07-04 14:00,0.262617,294.268,287.76,264.441,287.543,284.636,260.34,0.114104,0.265128,230.835,250.849
2015-07-04 15:00,0.242718,291.809,280.789,259.902,280.347,276.631,254.137,0.138376,0.261374,229.685,248.025
2015-07-04 16:00,0.220156,297.549,292.52,268.033,294.533,291.735,264.953,0.100158,0.212309,232.86,254.907
2015-07-04 17:00,0.195867,287.729,278.721,258.58,279.76,276.477,255.406,0.155091,0.227034,230.184,249.198
2015-07-04 18:00,0.217724,293.587,286.992,264.236,288.087,284.922,259.37,0.133557,0.239992,231.943,252.047
2015-07-04 19:00,0.224571,293.124,290.123,266.557,292.6,290.648,264.372,0.157548,0.233195,233.823,255.366
2015-07-05 01:00,-0.0,284.73,285.433,263.307,287.951,287.188,263.318,-0.0,-0.0,234.185,255.639
2015-07-05 02:00,-0.00260375,284.41,284.755,262.681,287.27,286.202,263.553,-0.0,-0.0,233.382,254.629
2015-07-05 03:00,-0.00123856,283.594,283.841,262.155,286.447,285.208,262.61,-0.0,-0.0,231.156,253.5
2015-07-05 04:00,0.00125299,281.346,279.213,259.024,281.076,279.661,259.127,-0.0,-0.0,230.266,250.95
2015-07-05 05:00,-0.0,280.799,282.566,261.519,285.34,284.349,262.492,-0.0,-0.0,231.787,254.162
2015-07-05 06:00,-0.00156353,278.883,282.566,261.412,286.033,285.35,262.965,-0.0,-0.0,231.315,253.974
2015-07-05 07:00,-0.0,277.661,279.336,259.354,282.231,281.293,259.492,-0.0,-0.0,230.511,251.652
2015-07-05 08:00,-0.0,282.753,282.448,260.984,284.781,283.339,261.301,-0.0,-0.0,231.709,253.309
2015-07-05 09:00,-0.00655871,283.093,283.38,261.625,286.172,285.065,262.61,-0.0,-0.0,230.018,252.731
2015-07-05 10:00,0.499445,281.705,280.789,260.011,282.803,281.735,259.977,0.572131,0.65252,231.156,251.152
2015-07-05 11:00,0.330495,278.482,271.162,253.381,271.625,269.657,252.075,0.291823,0.419452,229.007,244.647
2015-07-05 12:00,0.355287,291.065,287.76,264.031,289.701,287.469,262.61,0.156151,0.350469,230.674,251.652
2015-07-05 13:00,0.299543,294.602,290.86,266.358,292.989,290.101,264.138,0.119957,0.290147,231.315,252.731
2015-07-05 14:00,0.250272,295.151,290.017,265.959,292.079,288.445,262.255,0.102299,0.242209,231.236,252.047
2015-07-05 15:00,0.206867,296.635,293.235,268.421,295.297,292.545,264.837,0.0807349,0.208844,232.02,252.731
2015-07-05 16:00,0.18374,297.045,293.235,268.518,295.677,292.679,265.301,0.0736189,0.187152,231.709,252.731
2015-07-05 17:00,0.115857,292.294,287.651,264.747,289.701,287.048,261.898,0.0950307,0.135241,230.996,251.751
2015-07-05 18:00,0.38787,268.073,244.38,237.101,241.815,239.667,233.026,0.418486,0.537021,226.216,231.859
2015-07-05 19:00,0.272413,299.013,287.541,259.574,289.3,287.469,262.492,0.268011,0.251776,237.006,256.982
2015-07-06 01:00,-0.00146485,239.711,241.682,236.466,244.349,244.112,237.977,-0.0,-0.0,230.348,238.303
2015-07-06 02:00,-0.0,263.255,256.294,245.587,255.827,250.757,240.793,-0.0,-0.0,230.593,241.475
2015-07-06 03:00,-0.0,282.753,281.505,261.305,282.946,278.911,257.653,-0.0,-0.0,231.473,248.882
2015-07-06 04:00,0.00125267,284.888,284.528,263.099,286.997,285.635,262.136,-0.0,-0.0,231.394,250.646
2015-07-06 05:00,-0.0,275.707,269.767,253.02,270.006,267.673,250.236,-0.0,-0.0,229.348,245.114
2015-07-06 06:00,-0.0,283.093,282.799,262.155,285.34,283.773,261.779,-0.0,-0.0,231.473,250.849
2015-07-06 07:00,-0.00199395,283.261,283.956,262.261,286.31,285.065,262.136,-0.0,-0.0,232.557,251.552
2015-07-06 08:00,0.00298213,272.836,270.049,253.381,271.464,266.835,250.236,-0.0,-0.0,230.674,247.699
2015-07-06 09:00,-0.00654894,275.251,269.626,253.381,270.006,266.667,249.171,-0.0,-0.0,228.662,244.998
2015-07-06 10:00,0.471356,257.103,247.15,239.267,245.471,241.921,234.916,0.523814,0.713793,226.778,235.295
2015-07-06 11:00,0.401176,249.89,231.14,230.207,230.574,228.856,226.402,0.559465,0.667077,222.692,226.948
2015-07-06 12:00,0.327933,248.394,225.282,226.866,225.003,223.905,221.965,0.592036,0.681288,221.258,224.204
2015-07-06 13:00,0.307354,253.206,233.116,231.098,232.772,231.968,228.109,0.539305,0.636916,225.643,231.364
2015-07-06 14:00,0.35861,254.966,219.247,224.507,218.824,218.857,217.639,0.624786,0.701448,217.096,217.918
2015-07-06 15:00,0.240487,255.521,235.538,232.319,234.895,233.225,229.615,0.46737,0.540973,225.254,232.347
2015-07-06 16:00,0.121208,291.44,286.439,264.849,287.815,284.349,260.581,0.081824,0.14221,230.266,249.721
2015-07-06 17:00,0.298121,259.045,238.338,234.681,237.451,235.917,231.419,0.425287,0.494322,224.959,230.863
2015-07-06 18:00,0.426708,255.521,226.583,227.628,226.221,225.318,223.592,0.628987,0.720955,221.596,224.408
2015-07-06 19:00,0.516069,257.103,226.261,228.378,225.919,225.597,223.949,0.701286,0.826529,221.258,224.61
2015-07-06 20:00,0.602453,250.598,225.611,228.004,225.919,224.756,223.413,0.682038,0.826895,220.219,223.793
2015-07-06 21:00,-0.0286334,260.827,246.523,238.81,244.575,241.698,231.581,-0.0242439,-0.0289071,223.434,232.185
2015-07-06 22:00,-0.0,250.598,236.832,233.681,234.895,232.725,227.601,-0.0,-0.0,221.031,227.136
2015-07-06 23:00,-0.0650664,277.24,270.049,253.501,269.842,265.82,248.768,-0.023308,-0.0454766,226.592,242.725
2015-07-07 00:00,-0.0880107,213.142,219.247,224.708,219.167,219.165,218.982,-0.0243326,-0.047146,217.229,217.918
2015-07-07 01:00,-0.00146546,242.013,236.318,232.663,235.414,234.216,229.946,-0.0,-0.0,223.952,230.011
2015-07-07 02:00,-0.0,283.261,281.624,260.876,283.514,281.588,258.76,-0.0,-0.0,229.433,249.303
2015-07-07 03:00,-0.0,280.05,276.463,257.459,276.923,274.147,253.625,-0.0,-0.0,228.224,245.918
2015-07-07 04:00,-0.0,268.686,256.644,245.04,256.021,252.927,239.173,-0.0,-0.0,224.359,236.469
2015-07-07 05:00,-0.00134868,279.859,275.823,257.233,276.62,274.304,254.646,-0.0,-0.0,228.136,245.918
2015-07-07 06:00,-0.0,282.753,281.386,260.661,283.372,280.85,259.005,-0.0,-0.0,229.348,249.408
2015-07-07 07:00,-0.00199256,283.76,283.726,262.155,286.172,284.779,261.54,-0.0,-0.0,230.184,250.442
2015-07-07 08:00,-0.0,264.377,251.912,242.369,249.998,246.666,235.382,-0.0,-0.0,223.642,232.829
2015-07-07 09:00,-0.00654082,265.095,253.04,242.225,251.447,248.532,236.765,-0.0,-0.0,226.027,236.325
2015-07-07 10:00,0.383486,249.89,238.338,233.681,237.2,235.677,230.604,0.524511,0.6254,223.952,229.838
2015-07-07 11:00,0.438664,245.913,221.117,225.107,221.182,220.984,219.172,0.678933,0.780954,219.863,220.535
2015-07-07 12:00,0.28432,265.446,249.185,240.617,247.229,244.328,235.846,0.353075,0.445592,225.739,236.325
2015-07-07 13:00,0.28481,280.799,269.343,252.29,268.358,264.967,248.229,0.224045,0.37522,229.433,242.725
2015-07-07 14:00,0.230743,279.667,269.201,252.534,268.69,265.309,249.037,0.19537,0.300747,228.835,242.23
2015-07-07 15:00,0.195016,260.395,242.824,236.466,241.344,239.667,233.185,0.29476,0.370982,224.959,232.829
2015-07-07 16:00,0.27308,258.576,236.318,233.175,235.155,233.722,229.946,0.452742,0.539826,224.156,230.694
2015-07-07 17:00,0.324569,253.81,230.265,229.665,230.012,228.856,226.574,0.567945,0.655343,223.642,228.06
2015-07-07 18:00,0.421205,254.396,226.583,228.004,226.82,226.151,223.053,0.717002,0.817069,222.368,225.408
2015-07-07 19:00,0.507831,257.103,227.845,228.934,227.414,226.701,223.949,0.687968,0.797867,222.15,225.994
2015-07-07 20:00,0.718966,253.206,223.597,226.287,223.125,222.753,221.782,0.796492,0.970046,220.337,222.529
2015-07-07 21:00,-0.0,233.989,230.85,229.665,230.853,229.647,226.918,-0.0249507,-0.0297499,223.224,227.877
2015-07-07 22:00,-0.0,230.231,226.583,228.004,226.522,225.318,223.233,-0.0,-0.0,221.819,225.21
2015-07-07 23:00,-0.0927492,239.711,237.086,233.005,236.948,235.677,230.768,-0.0254694,-0.050614,226.027,232.829
2015-07-08 00:00,-0.0629176,218.393,216.88,223.489,217.427,216.652,217.445,-0.0213089,-0.0435559,215.593,216.131
2015-07-08 01:00,-0.0,225.382,223.597,226.287,223.125,222.169,221.046,-0.0,-0.0,219.014,221.658
2015-07-08 02:00,0.00130235,227.984,221.481,225.107,222.162,220.984,220.675,-0.0,-0.0,218.264,220.075
2015-07-08 03:00,-0.0,225.382,223.94,226.287,224.072,223.619,222.873,-0.0,-0.0,220.801,222.743
2015-07-08 04:00,-0.00125199,254.396,250.371,241.061,251.856,250.957,243.241,-0.0,-0.0,231.156,242.602
2015-07-08 05:00,-0.0,256.589,256.118,244.349,257.739,256.928,246.319,-0.0,-0.0,231.63,245.918
2015-07-08 06:00,-0.00156094,235.601,230.85,229.847,229.158,228.056,225.185,-0.0,-0.0,222.692,226.76
2015-07-08 07:00,0.00199124,243.066,240.277,235.01,240.152,239.438,233.819,-0.0,-0.0,227.51,235.146
2015-07-08 08:00,-0.0,227.984,226.902,228.004,227.118,226.151,224.657,-0.0,0.00300563,222.906,225.21
2015-07-08 09:00,-0.00653438,230.231,229.673,228.749,230.012,228.59,225.535,-0.0,-0.0,224.661,228.603
2015-07-08 10:00,0.796385,238.442,229.97,229.118,229.158,228.59,225.535,1.12383,1.51866,223.434,225.994
2015-07-08 11:00,0.395864,245.01,224.279,226.287,224.384,223.905,222.692,0.738188,0.875419,221.145,222.956
2015-07-08 12:00,0.619439,285.818,250.76,241.061,252.667,251.75,242.671,0.675637,0.748248,230.674,243.093
2015-07-08 13:00,0.435785,264.739,241.682,235.662,241.344,240.802,235.227,0.732832,0.818797,228.835,235.887
2015-07-08 14:00,0.577801,288.152,255.05,244.21,256.789,256.18,246.319,0.80518,0.845474,232.175,244.412
2015-07-08 15:00,0.524613,289.381,246.102,238.81,248.093,247.293,240.207,0.70716,0.748953,232.405,241.093
2015-07-08 16:00,0.337891,281.705,246.313,238.963,247.012,246.035,239.47,0.681369,0.723441,231.865,239.39
2015-07-08 17:00,0.332884,256.062,234.208,231.799,234.371,234.216,230.276,0.716056,0.77386,226.871,231.198
2015-07-08 18:00,0.274928,262.074,256.118,244.07,256.598,256.18,245.905,0.756073,0.814905,232.02,245.345
2015-07-08 19:00,0.569167,271.261,245.248,237.884,246.575,246.035,239.765,0.639873,0.724644,230.916,239.656
2015-07-08 20:00,0.613571,261.251,255.941,244.488,256.789,255.992,246.319,0.75103,0.935888,232.405,245.23
2015-07-08 21:00,-0.0,261.251,260.365,247.067,261.791,260.764,248.903,-0.0514166,-0.0613065,231.394,246.818
2015-07-08 22:00,-0.00454716,248.394,243.94,236.943,244.122,241.921,236.307,-0.0,-0.0,228.312,236.033
2015-07-08 23:00,-0.087881,258.096,256.294,244.349,256.598,254.855,244.652,-0.0255116,-0.0481629,230.511,243.698
2015-07-09 00:00,-0.0683663,242.013,243.94,236.943,245.471,244.544,237.827,-0.0228496,-0.0472241,229.348,238.027
2015-07-09 01:00,-0.00146657,239.711,238.09,232.834,237.2,235.677,231.581,-0.0,-0.0,227.78,234.389
2015-07-09 02:00,-0.0,246.775,244.16,236.784,243.667,242.143,236.46,-0.0,-0.0,229.263,237.327
2015-07-09 03:00,0.00123805,244.063,237.339,233.175,237.2,235.435,231.257,-0.0,0.00124989,226.311,232.185
2015-07-09 04:00,0.00125163,225.382,223.94,225.897,223.758,222.753,221.782,-0.0,-0.0,220.686,221.658
2015-07-09 05:00,-0.0,230.231,227.219,227.817,226.82,225.874,223.949,-0.0,-0.0,222.476,224.408
2015-07-09 06:00,-0.0,225.382,223.252,226.287,223.758,222.753,221.965,-0.0,-0.0,221.596,222.529
2015-07-09 07:00,-0.0,237.078,234.477,231.45,234.107,233.474,228.949,-0.0,-0.0,227.055,231.695
2015-07-09 08:00,0.00297508,249.156,244.16,236.466,243.209,242.364,236.0,-0.0,-0.0,228.921,234.996
2015-07-09 09:00,-0.0,262.074,256.118,243.65,255.439,253.316,242.527,-0.0,-0.00659207,231.156,242.23
2015-07-09 10:00,0.265046,272.322,267.473,251.056,268.524,263.586,247.823,0.374024,0.416236,232.935,248.987
2015-07-09 11:00,0.268312,285.357,277.727,257.233,279.76,277.701,257.653,0.231165,0.313648,234.686,252.634
2015-07-09 12:00,0.491706,284.41,260.365,246.533,262.863,261.299,249.037,0.459789,0.537319,235.593,250.238
2015-07-09 13:00,0.27805,291.315,288.087,264.031,290.101,288.027,262.492,0.117712,0.296981,236.542,256.001
2015-07-09 14:00,0.230097,293.124,287.432,263.515,289.434,286.626,262.136,0.107589,0.239231,237.398,255.821
2015-07-09 15:00,0.279552,295.042,276.845,257.006,278.576,275.396,256.66,0.163239,0.264383,240.548,255.911
2015-07-09 16:00,0.213438,294.602,285.546,262.366,287.134,283.773,260.942,0.0951869,0.197384,244.322,258.882
2015-07-09 17:00,0.18852,294.268,289.272,264.849,291.029,288.167,262.847,0.0744893,0.183072,245.253,259.97
2015-07-09 18:00,0.164506,293.124,291.279,265.758,292.86,290.511,264.255,0.0705721,0.166079,247.76,261.675
2015-07-09 19:00,0.154345,291.563,290.545,265.456,292.73,290.784,264.372,0.0880117,0.178081,247.76,262.151
2015-07-09 20:00,0.152238,289.247,288.843,264.031,291.16,289.551,264.255,0.156921,0.207152,248.324,262.23
2015-07-09 21:00,-0.0313234,285.818,286.882,262.995,288.897,288.027,263.905,-0.0530429,-0.0632457,247.041,262.151
2015-07-09 22:00,-0.0,284.73,285.994,262.471,288.222,287.609,263.905,-0.0,-0.0,246.798,262.072
2015-07-09 23:00,-0.0704201,284.57,285.658,262.366,287.951,287.329,263.67,-0.0212945,-0.0457028,246.554,262.23
2015-07-10 00:00,-0.0792238,283.924,285.433,262.261,287.815,287.748,263.905,-0.0228677,-0.0472616,245.859,262.072
2015-07-10 01:00,-0.00293415,283.76,285.321,262.049,287.543,287.329,263.905,-0.0,-0.0014811,245.709,262.779
2015-07-10 02:00,-0.00130253,283.093,284.869,261.731,287.27,287.188,264.022,-0.0,-0.0,244.945,261.755
2015-07-10 03:00,-0.00123787,282.753,284.642,261.625,287.134,287.048,263.905,-0.0,-0.0,245.304,261.914
2015-07-10 04:00,0.00125126,282.408,284.071,261.412,286.722,286.485,263.787,-0.0,-0.0,245.202,261.675
2015-07-10 05:00,-0.0,282.581,284.071,261.412,286.585,286.343,263.787,-0.0,-0.0,244.945,261.755
2015-07-10 06:00,0.00155931,281.883,283.841,261.198,286.31,286.06,263.436,-0.0,-0.0,245.253,261.834
2015-07-10 07:00,-0.0,281.883,283.726,261.198,285.895,285.919,263.905,-0.0,-0.0,245.608,262.466
2015-07-10 08:00,-0.00297325,281.526,283.38,260.876,285.757,285.919,263.436,-0.0,-0.0,245.456,262.309
2015-07-10 09:00,-0.0,281.526,283.38,260.769,285.757,285.919,263.553,-0.0,-0.0,245.456,262.857
2015-07-10 10:00,0.352324,282.059,283.726,260.984,286.172,286.343,263.67,0.422608,0.533538,245.355,262.935
2015-07-10 11:00,0.329038,285.97,285.77,262.471,288.358,287.609,263.436,0.175118,0.389129,244.842,261.993
2015-07-10 12:00,0.337242,290.429,289.058,264.441,291.292,290.375,264.138,0.13706,0.354085,244.945,261.914
2015-07-10 13:00,0.293741,293.587,291.383,265.859,293.764,291.735,264.953,0.109024,0.288424,245.048,261.515
2015-07-10 14:00,0.248595,295.151,292.725,266.855,294.788,292.679,265.301,0.0870972,0.237125,244.842,261.595
2015-07-10 15:00,0.203689,295.796,293.641,267.446,296.056,294.016,265.416,0.0733307,0.204017,244.739,261.595
2015-07-10 16:00,0.187004,296.323,294.245,267.935,296.559,294.282,266.222,0.0633344,0.182225,244.739,262.466
2015-07-10 17:00,0.168387,296.219,294.245,267.935,296.559,294.547,266.566,0.0591526,0.168188,244.79,262.779
2015-07-10 18:00,0.157482,294.823,293.641,267.544,296.056,294.149,265.878,0.0685216,0.16782,244.583,262.935
2015-07-10 19:00,0.156879,293.472,292.417,266.657,294.661,292.814,265.762,0.0929803,0.177384,244.997,262.857
2015-07-10 20:00,0.256182,291.19,289.805,264.95,291.948,290.101,264.138,0.239156,0.318315,244.531,262.701
2015-07-10 21:00,-0.0323555,287.444,288.195,264.031,290.632,289.413,264.605,-0.0547907,-0.0979945,244.531,262.623
2015-07-10 22:00,-0.0,286.717,287.541,263.203,289.701,288.999,264.372,-0.0,-0.0,244.842,262.779
2015-07-10 23:00,-0.0806106,286.271,287.541,263.307,289.701,288.722,264.837,-0.0255948,-0.0483201,244.79,262.779
2015-07-11 00:00,-0.0864925,286.121,287.212,263.099,289.568,289.276,265.069,-0.024411,-0.0454788,245.202,263.012
2015-07-11 01:00,-0.00146755,285.665,286.772,262.681,289.166,288.445,264.255,-0.0,-0.0,245.151,262.935
2015-07-11 02:00,-0.00130258,285.202,286.55,262.89,288.897,288.445,264.372,-0.0,-0.0,245.304,262.701
2015-07-11 03:00,0.00123767,284.888,286.105,262.471,288.358,287.888,264.255,-0.0,-0.0,245.099,262.388
2015-07-11 04:00,-0.0,284.57,285.994,262.155,288.087,287.609,264.022,-0.0,-0.0,244.687,262.623
2015-07-11 05:00,0.00134642,283.924,285.208,262.049,287.679,287.188,263.905,-0.0,-0.0,244.583,262.309
2015-07-11 06:00,-0.0,283.76,285.321,262.049,287.679,287.329,264.488,-0.0,-0.0,244.269,262.23
2015-07-11 07:00,-0.0,283.428,284.982,261.519,287.134,287.329,263.905,-0.0,-0.0,244.269,262.388
2015-07-11 08:00,-0.0,283.093,284.414,261.519,286.722,286.767,264.022,-0.0,-0.0,244.635,262.623
2015-07-11 09:00,-0.0,282.753,284.3,261.412,286.585,286.343,263.787,-0.0,-0.0,245.048,262.701
2015-07-11 10:00,0.379965,283.093,284.414,261.412,286.722,286.626,263.905,0.445452,0.531134,244.842,262.779
2015-07-11 11:00,0.351944,286.864,286.661,262.89,289.032,288.445,263.787,0.178794,0.397946,244.635,262.701
2015-07-11 12:00,0.347493,291.563,289.593,264.645,291.686,289.964,264.488,0.139128,0.353534,244.583,262.23
2015-07-11 13:00,0.293276,294.38,291.383,265.959,293.377,291.193,264.488,0.108851,0.287968,245.355,262.072
2015-07-11 14:00,0.23962,295.796,292.827,266.954,294.661,292.41,264.721,0.0869511,0.234999,245.099,262.072
2015-07-11 15:00,0.204918,296.531,293.641,267.74,295.677,293.216,265.416,0.073197,0.202029,244.635,262.388
2015-07-11 16:00,0.180132,296.738,294.245,268.13,296.182,293.35,266.108,0.0645795,0.180216,244.635,262.151
2015-07-11 17:00,0.169777,296.427,294.145,267.935,296.182,293.617,265.878,0.0620396,0.167792,244.479,262.23
2015-07-11 18:00,0.154845,295.042,292.52,266.855,294.405,292.276,265.185,0.0775565,0.162931,244.739,261.993
2015-07-11 19:00,0.165628,294.043,292.827,266.756,295.17,293.216,265.532,0.0873175,0.176676,244.842,261.755
2015-07-11 20:00,0.175999,291.315,290.965,265.859,293.377,291.735,265.532,0.160057,0.210586,244.374,261.595
2015-07-11 21:00,-0.0334664,287.3,288.412,263.825,290.764,289.826,264.372,-0.0566719,-0.101359,244.006,261.675
2015-07-11 22:00,-0.0,286.421,287.541,262.995,289.968,289.276,265.069,-0.0,-0.0,243.364,261.033
2015-07-11 23:00,-0.088309,285.665,286.772,262.995,289.166,288.584,264.022,-0.0234995,-0.0509447,241.93,260.627
2015-07-12 00:00,-0.0685243,285.512,286.55,263.099,289.032,288.306,263.787,-0.0213756,-0.0418717,242.042,260.299
2015-07-12 01:00,-0.0,285.665,286.661,262.995,289.166,288.445,264.372,-0.0,-0.0,241.874,260.708
2015-07-12 02:00,-0.0,285.512,287.102,263.203,289.434,288.722,264.721,-0.0,-0.0,241.874,261.435
2015-07-12 03:00,-0.0,285.512,287.102,263.307,289.701,288.999,265.185,-0.0,-0.0,242.211,261.595
2015-07-12 04:00,-0.0,285.512,286.772,263.099,289.3,288.999,264.837,-0.0,-0.0,242.433,261.675
2015-07-12 05:00,-0.0,285.045,286.439,262.89,289.032,288.584,264.372,-0.0,-0.0,241.015,261.194
2015-07-12 06:00,-0.0,284.57,286.328,262.681,288.628,288.306,264.372,-0.0,-0.0,240.193,261.194
2015-07-12 07:00,-0.00198674,283.261,285.321,262.261,287.815,287.469,264.721,-0.0,-0.0,239.471,261.194
2015-07-12 08:00,-0.0,282.753,284.642,261.412,287.134,286.907,264.138,-0.0,-0.0,240.134,261.275
2015-07-12 10:00,0.261481,283.261,284.528,261.412,287.134,287.188,264.255,0.418192,0.410637,239.894,261.033
2015-07-12 11:00,0.393403,287.871,287.651,263.411,290.234,289.551,264.488,0.186374,0.401892,238.42,259.97
2015-07-12 12:00,0.357651,293.007,291.279,265.758,294.021,292.41,265.647,0.145719,0.358355,237.977,259.387
2015-07-12 13:00,0.3028,295.796,293.539,267.348,296.182,294.282,266.108,0.113758,0.293548,237.785,259.22
2015-07-12 14:00,0.25286,297.549,295.045,268.13,297.558,295.339,266.909,0.0911356,0.241479,237.721,258.882
2015-07-12 15:00,0.220504,298.339,295.738,268.904,298.426,295.996,266.566,0.0744094,0.204867,238.231,258.882
2015-07-12 16:00,0.189466,298.144,295.738,269.096,298.549,295.996,267.251,0.0644425,0.181468,237.849,258.798
2015-07-12 17:00,0.17293,297.649,295.738,268.615,298.426,296.258,266.452,0.063398,0.170983,237.849,259.135
2015-07-12 18:00,0.171782,296.219,294.746,268.13,297.309,295.076,266.337,0.0718032,0.171229,237.785,258.543
2015-07-12 19:00,0.161844,294.602,293.742,267.446,296.307,294.679,266.108,0.0895984,0.182244,238.733,259.135
2015-07-12 20:00,0.168175,291.809,291.798,266.259,294.533,293.216,266.566,0.153347,0.208964,238.104,259.304
2015-07-12 22:00,-0.00461789,287.444,288.303,263.825,290.764,290.238,265.416,-0.0,-0.0,237.721,259.387
2015-07-12 23:00,-0.0631774,286.569,288.087,263.411,290.5,290.238,264.837,-0.0213969,-0.0433713,237.592,259.887
2015-07-13 00:00,-0.0830102,286.271,287.651,263.307,290.367,290.375,265.532,-0.0244468,-0.0491891,237.398,259.887
2015-07-13 01:00,-0.0,285.202,286.992,262.786,289.701,289.551,265.069,-0.0,0.00148242,237.398,259.804
2015-07-13 02:00,-0.0,284.73,286.661,262.366,289.166,289.137,264.721,-0.0,-0.0,238.104,259.721
2015-07-13 03:00,-0.0,284.41,285.994,262.155,288.493,288.584,264.837,-0.0,-0.0,238.231,260.052
2015-07-13 04:00,-0.0,283.76,285.546,261.731,288.222,288.445,264.953,-0.0,-0.0,238.671,260.135
2015-07-13 05:00,-0.0,283.093,284.982,261.305,287.679,287.888,264.721,-0.0,-0.0,238.733,260.052
2015-07-13 06:00,-0.0,283.093,284.869,261.412,287.407,287.609,264.372,-0.0,-0.0,238.546,260.052
2015-07-13 07:00,-0.00198583,283.093,284.755,261.519,287.407,287.329,264.488,-0.0,-0.0,238.231,259.97
2015-07-13 08:00,-0.0,283.261,284.414,261.091,287.134,287.188,264.372,-0.0,-0.0,237.977,259.721
2015-07-13 09:00,-0.00652847,282.753,284.071,261.198,286.86,287.048,264.372,-0.0,-0.0,236.742,259.22
2015-07-13 10:00,0.374889,282.753,284.3,261.519,286.86,286.907,264.372,0.415085,0.553153,236.808,258.882
2015-07-13 11:00,0.383178,287.729,287.432,263.203,289.968,289.276,264.605,0.178044,0.400994,237.072,259.051
2015-07-13 12:00,0.356975,292.534,290.545,265.456,293.248,291.871,265.301,0.143171,0.357678,237.398,259.135
2015-07-13 13:00,0.302243,295.26,292.929,267.052,295.424,293.483,265.993,0.111854,0.293007,238.104,259.304
2015-07-13 14:00,0.247266,297.045,294.446,268.13,297.06,295.076,266.108,0.0880754,0.241022,238.168,259.304
2015-07-13 15:00,0.218465,297.549,295.244,268.615,297.807,295.339,267.023,0.0729095,0.204455,238.608,259.554
2015-07-13 16:00,0.195511,298.045,295.442,268.904,298.055,295.734,266.681,0.0629323,0.181068,238.231,258.967
2015-07-13 17:00,0.181387,297.549,294.646,268.324,297.184,294.679,265.878,0.0632388,0.170554,238.919,259.051
2015-07-13 18:00,0.164757,296.427,294.546,268.13,296.935,295.076,267.023,0.0642432,0.164143,239.227,259.051
2015-07-13 19:00,0.154977,294.38,293.641,267.544,296.182,294.282,267.023,0.0839802,0.172105,238.919,259.554
2015-07-13 20:00,0.160455,291.809,291.487,266.358,294.277,292.679,266.222,0.141291,0.200866,237.977,258.967
2015-07-13 21:00,-0.0,287.729,288.843,264.645,291.555,290.784,265.532,-0.0608904,-0.145205,237.977,259.304
2015-07-13 22:00,-0.00463579,286.864,288.195,264.133,290.764,290.238,265.532,-0.0,-0.0,237.849,259.471
2015-07-13 23:00,-0.080993,286.569,287.651,263.825,290.101,289.826,265.185,-0.0235732,-0.0485493,237.268,259.135
2015-07-14 00:00,-0.0650096,286.271,287.322,263.411,289.835,289.551,265.185,-0.0214058,-0.043754,238.671,259.721
2015-07-14 01:00,-0.00146875,286.121,287.212,263.825,289.701,289.137,264.721,-0.0,-0.0,239.41,259.804
2015-07-14 02:00,-0.0,286.271,287.322,263.411,289.434,289.137,265.185,-0.0,-0.0,239.104,260.135
2015-07-14 03:00,-0.00123696,285.512,285.994,262.89,287.951,287.048,263.436,-0.0,-0.0,236.274,258.798
2015-07-14 04:00,0.00124966,285.045,286.439,263.099,288.897,288.584,264.837,-0.0,-0.0,238.42,260.217
2015-07-14 05:00,-0.0,284.41,285.994,263.411,288.358,288.167,264.605,-0.0,-0.0,236.94,259.97
2015-07-14 06:00,-0.0,283.594,283.841,261.731,285.895,285.35,262.255,-0.0,-0.0,236.742,259.135
2015-07-14 07:00,-0.0,280.239,277.727,257.685,279.022,278.004,256.66,-0.0,-0.0,234.401,255.548
2015-07-14 08:00,-0.0,283.428,284.071,261.944,286.172,285.777,263.553,-0.0,-0.0,235.799,259.638
2015-07-14 09:00,-0.0,268.073,259.706,246.13,257.739,255.803,242.814,-0.0,-0.0,226.592,242.354
2015-07-14 10:00,0.400146,274.314,266.738,250.429,267.016,265.309,247.687,0.338803,0.548247,230.348,249.513
2015-07-14 11:00,0.363573,285.202,280.669,259.683,281.366,279.81,257.406,0.221011,0.404694,233.896,256.628
2015-07-14 12:00,0.308027,289.647,284.869,261.944,285.757,283.484,259.856,0.151948,0.305564,233.896,258.882
2015-07-14 13:00,0.285667,293.24,286.105,262.786,287.407,283.773,258.27,0.135314,0.292431,235.038,259.304
2015-07-14 14:00,0.29953,284.73,265.995,250.555,264.618,259.321,241.953,0.194532,0.338475,229.348,247.261
2015-07-14 15:00,0.229145,298.339,295.343,269.096,297.184,294.944,266.566,0.0835349,0.212057,236.94,262.623
2015-07-14 16:00,0.228918,298.533,293.944,268.13,295.803,293.216,265.301,0.0914526,0.219714,236.609,261.515
2015-07-14 17:00,0.207524,298.242,293.843,268.033,296.056,293.617,266.337,0.0901077,0.191601,236.274,261.675
2015-07-14 18:00,0.19234,297.146,294.346,268.615,296.559,294.149,266.795,0.0786825,0.176725,237.268,261.834
2015-07-14 19:00,0.185195,295.151,293.944,268.324,296.182,294.415,266.452,0.0966961,0.190082,236.004,261.435
2015-07-14 20:00,0.719619,284.249,267.618,251.429,264.965,261.299,245.211,0.52842,0.732927,227.329,244.881
2015-07-14 21:00,-0.112072,285.818,285.433,262.89,288.222,286.767,263.083,-0.0316305,-0.113144,236.742,260.052
2015-07-14 22:00,-0.00930746,280.613,278.721,259.134,279.613,273.99,254.137,-0.0,-0.0,233.896,254.068
2015-07-14 23:00,-0.0633726,276.594,274.261,256.089,274.467,269.165,251.814,-0.021463,-0.0460645,233.308,251.751
2015-07-15 00:00,-0.0885443,269.865,261.501,247.597,258.116,255.992,242.527,-0.0244801,-0.0492561,224.359,240.053
2015-07-15 01:00,-0.00146908,275.251,269.059,251.922,268.524,266.667,249.438,-0.0,-0.00148312,227.691,246.371
2015-07-15 02:00,-0.00130251,271.798,262.931,248.252,262.507,260.225,244.231,-0.0,-0.00131496,226.499,243.093
2015-07-15 03:00,-0.0,253.81,240.984,235.823,238.446,236.635,230.111,-0.0,-0.0,221.596,229.664
2015-07-15 04:00,-0.00124924,249.156,236.832,233.344,235.155,232.976,226.918,-0.0,-0.0,222.04,228.603
2015-07-15 05:00,-0.0,256.062,243.94,237.258,242.283,239.208,231.257,-0.0,-0.0,223.224,234.082
2015-07-15 06:00,-0.0,276.155,270.049,252.899,0.0,0.0,0.0,0.0,0.0,0.0,0.0
2015-07-15 07:00,-0.0019843,250.598,239.559,234.681,237.451,235.917,229.615,-0.0,-0.0,222.368,230.011
2015-07-15 08:00,-0.0,284.249,284.414,261.944,286.585,285.777,262.017,-0.0,-0.0,231.473,257.246
2015-07-15 09:00,-0.0,284.087,284.982,262.366,287.27,286.767,263.67,-0.0,-0.0,231.63,257.855
2015-07-15 10:00,0.537471,284.888,284.642,261.944,286.86,286.06,262.847,0.455076,0.656843,231.394,256.982
2015-07-15 11:00,0.325377,284.73,281.386,259.354,282.374,281.146,259.37,0.220397,0.375415,229.769,252.925
2015-07-15 12:00,0.363467,292.053,289.486,265.052,291.817,290.101,264.372,0.15161,0.353451,231.156,256.628
2015-07-15 13:00,0.312978,294.823,291.383,266.358,293.119,291.057,265.069,0.118152,0.303894,230.018,255.457
2015-07-15 14:00,0.241159,296.84,294.346,268.324,296.684,294.679,266.337,0.0891528,0.234891,230.184,256.36
2015-07-15 15:00,0.250872,289.381,279.702,258.358,280.201,276.938,254.646,0.158637,0.283726,228.312,249.303
2015-07-15 16:00,0.231593,294.823,287.978,264.441,289.968,287.329,262.017,0.121194,0.232184,229.852,253.69
2015-07-15 17:00,0.222893,292.053,284.642,262.049,285.34,282.613,259.977,0.125816,0.237526,229.348,251.152
2015-07-15 18:00,0.202503,295.902,292.314,267.544,294.405,292.141,265.301,0.0930256,0.200089,229.769,255.548
2015-07-15 19:00,0.181337,293.816,292.108,266.954,294.021,292.41,265.301,0.0988887,0.189276,231.236,256.716
2015-07-15 20:00,0.170604,292.053,291.694,266.954,294.021,292.679,266.337,0.14445,0.210509,233.823,258.286
2015-07-15 21:00,-0.0388757,287.729,288.736,264.849,291.16,290.238,265.647,-0.065832,-0.117742,235.038,258.457
2015-07-15 22:00,-0.00467171,286.717,287.869,264.133,290.101,289.413,264.953,-0.0,-0.00471637,235.178,258.713
2015-07-15 23:00,-0.0837778,286.569,287.212,263.928,289.434,288.861,264.138,-0.0236448,-0.0461338,234.401,258.543
2015-07-16 00:00,-0.0669029,286.121,287.102,263.721,289.434,288.999,264.953,-0.0214338,-0.0438113,234.472,258.967
2015-07-16 01:00,-0.00293875,285.202,286.55,263.515,288.763,288.584,264.255,-0.0,-0.0,234.401,258.457
2015-07-16 02:00,-0.00130243,284.73,286.217,263.411,288.628,288.306,264.605,-0.0,-0.0,235.178,258.798
2015-07-16 03:00,-0.0,284.57,286.439,263.307,288.628,288.584,264.837,-0.0,-0.0,236.207,259.304
2015-07-16 04:00,0.00124881,283.924,285.658,263.099,287.951,287.609,264.488,-0.0,-0.0,235.936,258.628
2015-07-16 05:00,-0.0,283.428,284.982,262.681,287.407,287.048,264.138,-0.0,-0.0,235.455,259.135
2015-07-16 06:00,-0.0,281.346,282.799,261.412,285.34,284.779,262.965,-0.0,-0.0,234.968,258.543
2015-07-16 07:00,-0.0,282.581,283.956,261.838,286.172,285.777,264.022,-0.0,-0.0,234.329,258.372
2015-07-16 08:00,-0.00296843,281.526,281.978,260.769,283.938,283.773,262.492,-0.0,-0.0,232.935,257.508
2015-07-16 09:00,-0.0,282.923,284.414,262.155,286.585,286.626,263.67,-0.0,-0.0,233.896,258.457
2015-07-16 10:00,0.363453,283.924,284.982,262.366,287.134,287.329,264.255,0.426095,0.508054,234.615,259.135
2015-07-16 11:00,0.38463,287.729,287.432,264.339,289.835,289.276,264.605,0.19226,0.411698,234.686,259.22
2015-07-16 12:00,0.359933,291.44,289.911,265.959,292.209,291.057,265.762,0.146734,0.363374,233.896,258.457
2015-07-16 13:00,0.296371,293.93,292.005,267.151,294.021,292.545,266.337,0.111153,0.29318,234.472,258.457
2015-07-16 14:00,0.252489,295.902,293.235,267.935,295.55,293.483,266.108,0.0889564,0.246349,233.75,258.2
2015-07-16 15:00,0.237626,296.427,292.314,267.74,294.661,292.545,265.185,0.0979162,0.227103,233.677,257.942
2015-07-16 16:00,0.195732,296.219,294.044,268.518,296.307,294.547,267.023,0.0692789,0.191124,233.456,257.942
2015-07-16 17:00,0.178182,293.587,289.699,265.658,290.897,288.861,262.728,0.0806612,0.18879,232.405,255.548
2015-07-16 18:00,0.171787,287.871,279.945,259.024,279.613,276.631,254.137,0.130907,0.199443,230.018,251.352
2015-07-16 19:00,0.407025,284.888,268.054,251.676,265.826,261.831,243.241,0.318715,0.466528,227.147,244.294
2015-07-16 20:00,0.288389,290.558,287.869,263.928,289.166,287.469,261.779,0.217638,0.34178,233.234,256.894
2015-07-16 21:00,-0.0405264,287.01,288.303,264.747,290.632,289.964,265.647,-0.0343136,-0.0818276,235.593,259.135
2015-07-16 22:00,-0.00468969,286.121,287.102,263.721,289.3,289.137,264.372,-0.0,-0.0,235.178,258.713
2015-07-16 23:00,-0.0762741,285.357,286.772,263.721,289.032,288.861,265.532,-0.0215271,-0.0436352,235.936,259.304
2015-07-17 00:00,-0.0723718,284.249,285.546,262.786,287.679,287.748,264.488,-0.0229789,-0.0456648,235.247,258.713
2015-07-17 01:00,-0.00146964,282.923,284.185,261.838,286.31,286.06,263.318,-0.0,-0.0,234.615,258.2
2015-07-17 02:00,-0.00130232,277.451,275.436,256.205,275.242,274.304,255.909,-0.0,-0.0,231.076,251.652
2015-07-17 03:00,-0.0,281.165,280.909,259.793,282.517,281.735,260.461,-0.0,-0.0,232.633,256.716
2015-07-17 04:00,-0.0,281.705,283.495,261.305,285.618,285.35,263.787,-0.0,-0.0,233.968,258.798
2015-07-17 05:00,-0.0,272.836,265.846,250.429,264.965,262.888,246.869,-0.0,-0.0,229.178,248.241
2015-07-17 06:00,-0.0,278.075,274.524,256.205,275.857,273.042,253.368,-0.0,-0.0,231.787,254.162
2015-07-17 07:00,-0.0,279.473,279.823,259.134,281.221,281.293,261.182,-0.0,-0.0,232.86,256.36
2015-07-17 08:00,-0.00296872,279.473,281.624,260.228,282.946,282.904,262.373,-0.0,-0.0,233.234,256.894
2015-07-17 09:00,-0.00655744,277.24,275.694,256.32,276.772,275.706,256.41,-0.0,-0.0,231.787,253.5
2015-07-17 10:00,0.33113,278.279,277.35,257.572,278.873,278.156,258.27,0.420551,0.529301,232.86,254.814
2015-07-17 11:00,0.360262,285.357,285.546,263.099,287.815,287.188,264.022,0.183802,0.401009,233.677,258.028
2015-07-17 12:00,0.38295,291.686,290.017,265.859,292.209,290.921,265.069,0.150863,0.373187,234.329,258.2
2015-07-17 13:00,0.32346,294.156,292.211,267.446,294.405,292.948,266.108,0.115934,0.304515,234.185,258.543
2015-07-17 14:00,0.262052,295.583,293.641,268.615,296.056,294.679,267.023,0.0944775,0.249196,234.756,258.882
2015-07-17 15:00,0.22126,296.635,294.846,269.288,297.309,295.602,267.023,0.0802888,0.212206,234.041,258.286
2015-07-17 16:00,0.208042,296.738,292.827,268.324,295.297,293.082,265.647,0.0840094,0.193874,234.041,257.421
2015-07-17 17:00,0.18824,296.114,294.245,268.904,296.684,294.679,266.681,0.0655406,0.175831,233.896,257.508
2015-07-17 18:00,0.211888,296.531,292.005,267.249,294.405,292.141,265.185,0.0942332,0.20311,234.041,256.982
2015-07-17 19:00,0.371744,296.323,287.541,264.95,290.632,288.445,263.436,0.237356,0.362993,234.329,256.628
2015-07-17 20:00,0.292356,290.685,288.736,265.254,291.16,289.689,264.372,0.221204,0.282591,234.615,256.45
2015-07-17 21:00,-0.0423257,286.121,286.992,264.031,289.3,288.445,264.721,-0.0716741,-0.0854605,234.472,256.36
2015-07-17 22:00,-0.00470767,284.73,285.77,262.995,288.222,287.048,264.022,-0.0,-0.0,234.185,256.271
2015-07-17 23:00,-0.0916615,284.41,285.433,262.681,287.815,287.188,263.787,-0.0258699,-0.0462689,233.234,255.821
2015-07-18 00:00,-0.0669832,284.087,285.433,262.366,287.543,287.048,263.787,-0.0214596,-0.0456916,234.329,256.181
2015-07-18 01:00,-0.00146986,283.76,284.755,261.944,286.997,286.626,263.905,-0.0,-0.0,235.593,256.45
2015-07-18 02:00,-0.0013022,283.093,284.3,261.519,286.585,286.485,263.436,-0.0,-0.0,235.662,256.539
2015-07-18 03:00,-0.0,282.408,283.956,260.984,286.172,286.06,263.436,-0.0,-0.0,234.968,256.45
2015-07-18 04:00,-0.00124796,282.408,283.495,260.769,285.757,285.35,263.436,-0.0,-0.0,234.543,255.911
2015-07-18 05:00,0.00134264,281.165,283.032,260.553,285.201,285.065,263.318,-0.0,-0.0,235.386,256.716
2015-07-18 06:00,-0.00155396,280.427,281.148,259.683,283.088,282.321,261.66,-0.0,0.00156882,235.662,255.821
2015-07-18 07:00,-0.0,280.05,281.624,259.683,283.938,283.773,262.255,-0.0,-0.0,235.525,256.45
2015-07-18 08:00,-0.0,279.667,280.909,259.134,283.23,283.339,261.779,-0.0,-0.0,236.139,256.894
2015-07-18 09:00,-0.00656972,279.473,280.669,258.691,282.946,282.467,261.301,-0.0,-0.0,236.609,256.894
2015-07-18 10:00,0.435186,280.427,281.386,259.134,283.656,283.629,262.373,0.43756,0.576643,236.542,256.982
2015-07-18 11:00,0.340563,284.41,283.38,260.337,285.479,283.917,261.062,0.198731,0.385635,236.139,255.821
2015-07-18 12:00,0.40313,292.053,283.38,260.661,283.938,278.911,256.41,0.202103,0.404306,235.593,253.021
2015-07-18 13:00,0.314747,293.587,289.805,264.236,291.555,288.445,262.373,0.130734,0.311761,236.071,256.001
2015-07-18 14:00,0.261423,295.151,292.108,265.758,294.533,292.141,264.837,0.0928227,0.248598,236.071,256.982
2015-07-18 15:00,0.228601,296.114,292.929,266.259,295.55,292.679,265.416,0.0854317,0.221237,236.475,257.07
2015-07-18 16:00,0.220273,294.602,288.843,263.825,290.897,288.722,263.2,0.128391,0.22399,236.808,256.805
2015-07-18 17:00,0.3105,293.124,282.799,260.119,285.618,283.629,261.421,0.228738,0.324095,237.006,255.821
2015-07-18 18:00,0.332771,293.702,285.77,261.838,287.815,285.777,261.898,0.236603,0.344566,237.913,256.36
2015-07-18 19:00,0.248768,289.779,282.331,259.793,284.501,283.339,261.062,0.287692,0.272586,237.849,255.821
2015-07-18 20:00,0.709753,289.247,276.463,256.089,279.318,277.853,258.515,0.564367,0.697846,238.231,255.366
2015-07-18 21:00,-0.0442926,286.121,286.661,261.944,288.763,287.609,263.083,-0.112507,-0.178864,238.857,256.894
2015-07-18 22:00,-0.00472563,285.665,286.55,261.731,288.763,288.027,263.436,-0.0,-0.0,239.227,257.769
2015-07-18 23:00,-0.0815925,284.73,286.105,261.412,288.222,287.748,263.67,-0.0237477,-0.0463345,240.489,258.628
2015-07-19 00:00,-0.0652092,284.57,285.433,261.198,287.679,286.907,263.318,-0.0230052,-0.0457171,241.419,258.882
2015-07-19 01:00,-0.00147006,283.76,285.095,260.876,287.134,286.626,263.436,-0.0,-0.0,242.155,259.387
2015-07-19 02:00,-0.00260409,280.05,281.148,258.802,283.656,282.613,261.54,-0.0,-0.0,242.765,259.135
2015-07-19 03:00,-0.00123546,282.581,283.841,260.119,286.033,285.493,262.728,-0.0,-0.0,243.039,259.97
2015-07-19 04:00,-0.0,280.982,282.096,259.683,284.22,283.484,261.66,-0.0,-0.0,243.202,260.052
2015-07-19 05:00,-0.0,274.073,274.785,255.393,277.978,277.091,258.515,-0.0,-0.0,242.6,258.713
2015-07-19 06:00,0.00155347,270.434,271.848,253.621,274.933,274.617,258.147,-0.0,-0.0,242.544,257.942
2015-07-19 07:00,-0.0,275.48,275.565,255.974,278.128,277.396,258.638,-0.0,-0.0,242.6,258.372
2015-07-19 08:00,0.0029703,274.551,275.565,256.434,278.278,277.548,258.638,-0.0,0.00299869,241.817,258.457
2015-07-19 09:00,0.00658412,278.279,278.721,258.022,281.799,280.554,260.822,-0.0,-0.0,242.433,259.22
2015-07-19 10:00,0.401635,282.753,284.071,261.198,286.172,285.493,262.847,0.430748,0.567665,241.93,259.887
2015-07-19 11:00,0.398854,287.3,286.992,262.995,289.166,288.027,263.2,0.186322,0.411924,241.361,259.387
2015-07-19 12:00,0.362305,291.315,289.699,264.747,291.948,290.648,264.721,0.150023,0.371108,241.304,260.052
2015-07-19 13:00,0.302089,294.268,291.694,266.657,294.021,292.006,264.837,0.113679,0.297004,241.817,260.299
2015-07-19 14:00,0.245629,295.368,292.929,267.544,294.916,292.679,265.762,0.0911666,0.246279,241.476,261.033
2015-07-19 15:00,0.223306,295.796,292.211,266.756,294.277,292.141,265.647,0.0932047,0.220677,241.59,260.871
2015-07-19 16:00,0.241975,294.38,286.328,263.203,288.628,287.188,263.553,0.171182,0.252324,240.607,260.299
2015-07-19 18:00,0.176452,292.889,287.76,264.133,290.632,288.722,264.022,0.135001,0.203893,238.483,259.304
2015-07-19 19:00,0.268814,293.816,287.432,263.825,289.701,287.609,264.022,0.199474,0.28968,238.671,259.471
2015-07-19 20:00,0.13472,289.247,288.951,264.849,291.555,289.964,265.069,0.150361,0.173101,238.981,259.887
2015-07-19 21:00,-0.0464497,285.665,286.439,262.995,288.628,287.888,264.255,-0.117987,-0.140681,238.42,259.887
2015-07-19 22:00,-0.00474355,284.249,285.321,262.576,287.407,286.626,263.905,-0.0,-0.0,238.357,259.97
2015-07-19 23:00,-0.0663858,283.428,284.982,262.261,287.27,287.048,264.721,-0.0216187,-0.043821,237.785,260.052
2015-07-20 00:00,-0.088804,282.923,284.414,261.838,286.585,286.343,263.553,-0.0260864,-0.0494006,237.137,259.804
2015-07-20 01:00,-0.00294044,283.428,284.3,261.944,286.722,286.626,264.138,-0.0,-0.0,237.072,259.638
2015-07-20 02:00,-0.0,281.705,283.726,261.412,285.757,285.208,263.2,-0.0,-0.0,237.785,259.97
2015-07-20 03:00,-0.00123513,280.982,282.331,260.661,284.641,283.917,262.373,-0.0,-0.0,238.231,260.299
2015-07-20 04:00,0.00124709,278.279,279.458,259.464,282.231,281.146,261.779,-0.0,-0.0,237.913,260.135
2015-07-20 05:00,-0.00134167,277.869,279.336,259.024,282.087,280.998,261.66,-0.0,-0.0,238.231,260.381
2015-07-20 06:00,-0.0,283.093,284.642,261.944,286.722,286.202,263.905,-0.0,-0.0,237.592,260.789
2015-07-20 07:00,-0.0,282.753,284.414,261.731,286.585,286.343,263.787,-0.0,-0.0,237.072,260.789
2015-07-20 08:00,-0.0,282.753,284.3,261.519,286.31,286.202,264.022,-0.0,-0.0,237.849,261.113
2015-07-20 09:00,-0.0,282.753,284.414,261.198,286.447,286.485,264.138,-0.0,-0.0,238.104,261.275
2015-07-20 10:00,0.342246,283.261,284.414,261.305,286.585,286.343,263.905,0.401232,0.504987,238.041,261.435
2015-07-20 11:00,0.415481,287.729,287.322,263.099,289.166,288.306,265.185,0.197155,0.414843,238.546,261.595
2015-07-20 12:00,0.374391,291.44,289.699,264.747,291.686,290.375,265.762,0.156266,0.369985,239.227,262.23
2015-07-20 13:00,0.31506,294.268,291.07,265.758,293.248,291.464,265.301,0.125044,0.298192,237.463,261.435
2015-07-20 14:00,0.27352,295.583,291.798,266.358,293.892,292.276,265.878,0.119346,0.259194,238.608,262.151
2015-07-20 15:00,0.233703,296.008,291.902,266.259,293.892,292.276,266.108,0.116866,0.22802,238.483,262.072
2015-07-20 16:00,0.228615,295.26,290.335,265.658,292.6,291.057,265.416,0.129045,0.227594,238.795,262.151
2015-07-20 17:00,0.263335,295.368,288.412,264.339,290.764,289.137,264.372,0.163902,0.25705,238.357,261.675
2015-07-20 18:00,0.275422,294.38,287.651,264.031,290.101,288.584,264.255,0.190147,0.284471,238.981,261.993
2015-07-20 19:00,0.15937,292.771,291.279,266.059,293.506,291.735,265.532,0.0992941,0.176072,239.41,262.545
2015-07-20 20:00,0.139747,289.381,289.911,265.254,291.948,290.784,265.647,0.133757,0.16562,240.371,262.779
2015-07-20 21:00,-0.0488234,286.121,287.541,263.411,289.701,289.276,265.647,-0.124016,-0.197161,240.489,263.012
2015-07-20 22:00,-0.0047614,285.045,286.439,262.995,288.628,288.167,264.721,-0.0,-0.0,240.782,263.167
2015-07-20 23:00,-0.0715892,284.249,285.882,262.471,288.087,287.888,265.185,-0.021648,-0.0464615,240.724,263.322
2015-07-21 00:00,-0.0743427,283.428,285.433,262.261,287.543,287.748,265.185,-0.023029,-0.0475948,241.189,263.244
2015-07-21 01:00,-0.00147034,282.753,284.755,261.838,286.86,286.767,264.721,-0.0,-0.0,240.724,262.935
2015-07-21 02:00,-0.0,282.923,284.642,261.731,286.585,286.485,264.138,-0.0,-0.0,241.015,262.701
2015-07-21 03:00,-0.0,282.408,284.3,261.838,286.447,286.343,264.721,-0.0,-0.0,240.607,262.857
2015-07-21 04:00,-0.00124666,282.753,284.414,261.625,286.447,286.626,264.605,-0.0,-0.0,241.015,263.552
2015-07-21 05:00,-0.00134121,282.059,283.956,261.091,286.033,285.919,263.905,-0.0,0.00135403,240.253,262.779
2015-07-21 06:00,-0.0,269.283,273.333,255.51,276.772,276.784,260.098,-0.0,-0.0,240.899,262.072
2015-07-21 07:00,0.00198224,269.283,272.931,254.454,276.163,276.015,259.614,-0.0,-0.0,241.073,261.595
2015-07-21 08:00,-0.0,269.283,272.527,254.336,0.0,275.396,259.127,-0.0,-0.0,241.59,261.435
2015-07-21 09:00,-0.0,270.434,272.391,254.572,275.242,274.773,258.76,-0.0,-0.0,241.986,261.435
2015-07-21 11:00,0.700055,291.065,272.527,254.926,275.55,274.773,258.023,0.546548,0.647087,242.042,261.113
2015-07-21 12:00,0.0,291.315,0.0,265.052,291.686,290.238,265.069,0.153543,0.344928,242.099,263.858
2015-07-21 14:00,0.262745,0.0,0.0,269.0,297.309,294.944,266.909,0.0935208,0.243293,241.874,263.858
2015-07-21 15:00,0.215869,298.726,296.718,270.145,299.041,296.91,268.271,0.0781433,0.208457,241.704,263.858
2015-07-21 16:00,0.201063,298.918,296.913,270.05,299.531,297.17,267.932,0.0670235,0.183805,241.817,264.01
2015-07-21 17:00,0.201686,298.63,295.639,269.67,297.807,295.734,267.592,0.0721345,0.180795,240.899,263.399
2015-07-21 18:00,0.16679,296.531,295.343,269.479,297.807,295.602,267.705,0.0697166,0.170516,240.899,263.244
2015-07-21 20:00,0.391875,294.602,289.805,265.959,292.079,289.964,265.069,0.296068,0.407794,240.841,262.779
2015-07-21 21:00,-0.102892,283.76,284.071,262.471,286.722,285.065,263.2,-0.174236,-0.20775,241.647,262.388
2015-07-21 22:00,-0.0,285.665,286.661,263.618,288.763,287.888,264.721,-0.0,-0.0,241.015,262.545
2015-07-21 23:00,-0.058883,285.202,286.772,263.721,288.493,288.167,265.532,-0.0195089,-0.0439383,241.073,262.857
2015-07-22 00:00,-0.0925188,284.73,285.994,263.307,288.087,288.027,265.185,-0.0245759,-0.0494488,241.246,263.322
2015-07-22 01:00,-0.00147044,283.594,285.433,262.786,287.407,287.469,264.953,-0.0,-0.0,241.986,263.782
2015-07-22 02:00,-0.0,283.261,284.869,262.366,286.86,287.048,264.721,-0.0,-0.0,242.544,263.934
2015-07-22 03:00,-0.00123442,282.234,284.3,262.049,286.172,286.343,264.721,-0.0,-0.0,243.039,263.706
2015-07-22 04:00,-0.0,282.059,283.956,262.049,285.895,285.777,264.953,-0.0,-0.0,242.765,264.01
2015-07-22 05:00,-0.0,281.526,283.611,262.049,285.618,285.777,264.138,-0.0,-0.0,242.984,264.162
2015-07-22 06:00,-0.0,281.165,283.38,261.625,285.34,285.493,264.372,-0.0,-0.0,243.364,264.464
2015-07-22 07:00,-0.0019823,280.982,282.916,261.305,284.921,285.065,264.372,-0.0,-0.0,243.633,264.314
2015-07-22 08:00,-0.0,280.982,282.799,261.198,284.641,284.779,263.905,-0.0,-0.0,244.269,264.389
2015-07-22 09:00,-0.0,280.239,282.214,260.984,284.361,284.492,264.721,-0.0,0.00670409,244.217,264.314
2015-07-22 10:00,0.355088,280.799,282.448,260.876,284.501,284.492,263.905,0.429503,0.512118,244.479,264.54
2015-07-22 11:00,0.366512,285.357,285.658,262.995,287.543,287.048,264.953,0.191559,0.401992,244.322,264.389
2015-07-22 12:00,0.364098,291.315,289.805,265.557,291.948,290.784,265.762,0.150814,0.364934,244.739,264.54
2015-07-22 13:00,0.303469,295.26,293.133,267.642,295.043,293.35,266.452,0.117698,0.296487,244.79,264.615
2015-07-22 14:00,0.255342,297.449,294.746,268.904,297.06,294.679,267.365,0.0918487,0.242619,244.79,264.464
2015-07-22 15:00,0.212154,297.848,295.837,269.765,297.931,0.0,267.705,0.0792488,0.207883,244.583,0.0
2015-07-22 17:00,0.190667,297.749,295.837,269.765,298.178,295.996,267.819,0.0689777,0.17674,244.739,264.615
2015-07-22 18:00,0.178827,296.219,295.045,269.192,297.309,295.734,268.045,0.0765969,0.178413,245.048,264.54
2015-07-22 19:00,0.166886,294.156,293.336,268.13,295.55,294.282,266.566,0.10093,0.183525,244.997,264.314
2015-07-22 20:00,0.191433,291.19,291.174,266.855,293.377,292.276,266.452,0.167151,0.2295,244.894,264.01
2015-07-22 21:00,-0.054355,286.421,287.651,264.339,289.701,288.999,265.069,-0.138067,-0.219499,244.374,263.629
2015-07-22 22:00,-0.00479684,285.202,286.328,263.307,288.358,287.748,264.837,-0.0,-0.0,244.687,263.322
2015-07-22 23:00,-0.0717757,283.924,285.658,262.786,287.679,287.188,264.138,-0.0217044,-0.0465827,244.842,263.244
2015-07-23 00:00,-0.0816706,283.428,284.185,262.261,286.31,285.35,263.553,-0.0230501,-0.043974,245.151,263.09
2015-07-23 01:00,-0.0014705,283.261,284.414,262.471,286.447,286.06,263.787,-0.0,-0.0,245.304,263.322
2015-07-23 02:00,-0.00130124,282.923,284.642,262.366,286.585,286.485,264.022,-0.0,-0.0,245.304,263.552
2015-07-23 03:00,0.0,0.0,0.0,0.0,0.0,0.0,0.0,-0.0,0.0,0.0,0.0
2015-07-23 04:00,-0.0,282.923,284.414,0.0,286.585,286.06,264.721,-0.0,-0.0,245.96,264.314
2015-07-23 05:00,0.00134036,282.581,284.185,261.944,286.033,286.202,264.372,-0.0,-0.0,245.759,263.934
2015-07-23 07:00,0.0019825,281.165,282.566,261.091,284.641,0.0,264.022,-0.0,-0.0,244.945,0.0
2015-07-23 08:00,0.00297774,280.613,282.331,261.091,284.22,284.349,264.022,-0.0,-0.0,244.894,263.706
2015-07-23 09:00,0.0,0.0,0.0,0.0,0.0,0.0,0.0,0.0,0.0,0.0,0.0
2015-07-23 10:00,0.447395,280.982,0.0,261.091,284.501,284.492,263.553,0.420899,0.552044,244.531,263.476
2015-07-23 12:00,0.0,292.414,290.756,266.458,292.989,0.0,266.452,0.156919,0.371568,244.217,263.858
2015-07-23 13:00,0.318165,295.26,293.133,267.838,295.55,0.0,266.566,0.0,0.0,243.686,263.782
2015-07-23 14:00,0.271254,297.248,294.945,268.904,297.434,295.602,267.478,0.0,0.246966,0.0,0.0
2015-07-23 15:00,0.0,297.848,295.935,269.67,298.302,296.78,267.592,0.0816589,0.207295,243.147,264.086
2015-07-23 18:00,0.0,0.0,294.245,268.518,296.809,294.547,267.137,0.08165,0.182012,243.633,263.399
2015-07-23 19:00,0.317435,0.0,288.736,0.0,291.423,288.999,264.488,0.221046,0.329455,243.418,262.701
2015-07-23 20:00,0.136535,291.19,290.651,265.959,292.73,291.464,265.878,0.16084,0.185784,243.633,262.779
2015-07-23 21:00,-0.0575979,287.01,287.869,264.543,289.968,289.137,265.301,-0.195072,-0.232594,243.74,263.012
2015-07-23 22:00,0.0,285.97,0.0,263.618,289.032,0.0,0.0,-0.0,-0.0,0.0,262.857
2015-07-23 23:00,-0.0769987,285.357,286.439,263.307,288.493,288.027,264.953,-0.0217315,-0.0414585,243.364,262.466
2015-07-24 00:00,-0.0653637,284.57,285.77,262.995,287.815,287.748,264.721,-0.0199851,-0.0439923,243.472,262.779
2015-07-24 01:00,0.0,283.76,285.321,262.576,0.0,287.048,264.255,-0.0,0.0,0.0,262.779
2015-07-24 02:00,-0.0,283.924,285.208,262.786,287.27,286.767,264.837,-0.0,-0.0,243.472,262.857
2015-07-24 03:00,-0.0,283.093,284.982,262.049,286.86,286.767,264.488,-0.0,-0.0,243.364,263.167
2015-07-24 04:00,-0.0,0.0,0.0,0.0,0.0,0.0,0.0,-0.0,0.0,0.0,0.0
2015-07-24 05:00,-0.0,281.705,283.841,0.0,285.757,285.493,263.905,-0.0,-0.0,0.0,262.935
2015-07-24 06:00,0.0,281.705,283.495,261.198,285.479,285.35,0.0,-0.0,-0.0,243.579,263.012
2015-07-24 07:00,-0.0,0.0,0.0,261.091,285.34,285.065,263.787,-0.0,-0.0,243.472,0.0
2015-07-24 08:00,0.00298054,281.346,282.916,260.984,284.921,284.922,263.67,-0.0,-0.0,243.093,263.322
2015-07-24 09:00,-0.0,281.165,283.032,260.876,285.061,0.0,0.0,-0.0,-0.0,243.093,263.552
2015-07-24 11:00,0.398703,287.729,287.651,0.0,289.835,289.137,265.993,0.197238,0.0,243.147,263.782
2015-07-24 12:00,0.387519,292.534,291.07,266.059,0.0,292.276,266.337,0.0,0.367593,243.093,263.934
2015-07-24 13:00,0.317167,295.151,293.438,267.642,295.677,294.149,266.909,0.120269,0.298591,242.929,263.934
2015-07-24 14:00,0.263819,297.349,295.144,268.807,297.558,295.865,267.705,0.0941267,0.24624,243.147,263.858
2015-07-24 16:00,0.0,297.749,296.131,269.384,298.549,296.78,268.045,0.0677694,0.0,242.489,263.629
2015-07-24 17:00,0.173968,297.045,0.0,0.0,297.807,295.865,267.592,0.065628,0.172153,242.655,263.322
2015-07-24 18:00,0.0,0.0,0.0,267.544,0.0,293.483,265.993,0.0,0.170816,242.489,262.935
2015-07-24 19:00,0.186056,293.472,290.545,265.959,292.34,289.964,263.553,0.115024,0.202742,240.957,260.871
2015-07-24 20:00,0.229746,290.813,288.736,0.0,290.367,288.722,263.67,0.204502,0.273573,241.131,261.033
2015-07-24 21:00,-0.244927,0.0,0.0,0.0,0.0,0.0,262.373,-0.207379,0.0,241.131,0.0
2015-07-25 01:00,0.0,0.0,0.0,0.0,286.722,0.0,0.0,0.0,0.0,241.304,260.627
2015-07-25 02:00,0.0,0.0,284.528,0.0,286.722,286.626,264.721,-0.0,-0.0,241.59,261.033
2015-07-25 03:00,0.0,0.0,284.185,261.519,0.0,0.0,264.138,-0.0,-0.0,241.419,261.435
2015-07-25 07:00,-0.0019833,280.799,282.448,260.769,284.781,285.065,263.905,-0.0,-0.0,240.489,0.0
2015-07-25 08:00,-0.0,0.0,0.0,0.0,0.0,0.0,0.0,0.0,0.0,0.0,0.0
2015-07-25 09:00,-0.00671845,0.0,0.0,0.0,283.797,283.917,263.2,-0.0,0.0,240.371,259.387
2015-07-25 11:00,0.0,285.357,284.982,262.155,0.0,286.907,264.255,0.196182,0.395861,240.724,259.22
2015-07-25 14:00,0.264676,0.0,0.0,269.096,298.302,295.865,267.137,0.0,0.0,0.0,0.0
2015-07-25 15:00,0.241246,299.858,296.621,269.67,299.531,296.78,267.705,0.0811812,0.0,241.419,259.471
2015-07-25 20:00,0.0,0.0,290.017,265.355,292.079,0.0,265.532,0.193049,0.22428,0.0,259.387
2015-07-25 22:00,-0.0,0.0,285.77,0.0,287.951,286.907,264.138,-0.0,-0.0,0.0,259.135
2015-07-26 02:00,-0.00130045,280.613,0.0,0.0,283.23,282.321,261.54,-0.0,-0.00131288,242.544,259.051
2015-07-26 04:00,-0.0,0.0,283.495,0.0,285.757,285.35,263.436,-0.0,-0.0,0.0,0.0
2015-07-26 05:00,0.0,0.0,283.032,260.553,0.0,284.636,263.436,-0.0,-0.0,0.0,0.0
2015-07-26 07:00,0.0,280.982,282.214,260.228,284.501,0.0,0.0,0.0,0.0,0.0,0.0
2015-07-26 09:00,-0.0,280.613,281.86,0.0,284.361,0.0,262.728,-0.0,-0.0,0.0,258.286
2015-07-26 10:00,0.0,0.0,0.0,0.0,284.501,284.061,262.373,0.0,0.0,0.0,258.028
2015-07-26 12:00,0.0,292.294,0.0,0.0,0.0,0.0,264.605,0.0,0.0,0.0,0.0
2015-07-26 14:00,0.0,0.0,294.446,0.0,0.0,0.0,265.532,0.0,0.23641,0.0,0.0
2015-07-26 16:00,0.255818,0.0,286.55,262.995,288.628,0.0,0.0,0.200752,0.0,0.0,257.158
2015-07-26 17:00,0.0,295.476,289.058,264.236,0.0,0.0,263.083,0.140554,0.0,237.721,256.982
2015-07-26 18:00,0.0,0.0,284.3,261.731,0.0,283.917,0.0,0.0,0.230294,236.874,256.539
2015-07-26 19:00,0.362893,297.549,287.541,263.825,289.701,0.0,262.017,0.247791,0.348635,237.203,257.158
2015-07-26 22:00,-0.00973233,285.97,0.0,0.0,0.0,286.626,262.492,0.0,0.0,0.0,258.028
2015-07-26 23:00,-0.0566649,0.0,0.0,261.519,0.0,0.0,0.0,-0.0196274,0.0,0.0,0.0
2015-07-27 01:00,-0.00147045,0.0,0.0,261.198,0.0,0.0,0.0,-0.0,-0.0,237.977,0.0
2015-07-27 02:00,-0.0,283.428,284.528,0.0,286.585,0.0,262.847,-0.0,-0.0,0.0,0.0
2015-07-27 03:00,0.0,282.923,284.414,0.0,286.447,286.06,263.083,-0.0,-0.0,0.0,261.113
2015-07-27 05:00,0.0,0.0,0.0,0.0,0.0,0.0,0.0,0.0,0.0,0.0,0.0
2015-07-27 06:00,-0.0015514,282.059,283.841,260.119,285.895,285.919,264.022,-0.0,-0.0,250.318,264.615
2015-07-27 08:00,-0.0,282.059,283.495,259.902,285.757,285.777,264.022,-0.0,-0.0,250.186,264.914
2015-07-27 09:00,-0.0,281.346,283.264,259.793,285.479,285.35,263.2,-0.0,-0.0,249.335,264.615
2015-07-27 10:00,0.3634,282.234,283.726,259.902,285.895,285.777,263.2,0.403844,0.504452,248.231,264.314
2015-07-27 13:00,0.31207,0.0,293.539,266.657,295.677,293.35,265.993,0.120697,0.285882,247.426,0.0
2015-07-27 16:00,0.197485,299.203,295.738,268.227,0.0,295.602,266.681,0.0750472,0.182105,246.603,0.0
2015-07-27 17:00,0.250744,294.933,287.102,262.786,289.434,287.609,263.436,0.197862,0.275528,246.109,0.0
2015-07-27 19:00,0.163143,295.151,294.044,267.249,296.307,294.415,266.795,0.0912665,0.164703,245.658,263.399
2015-07-27 21:00,-0.150582,288.152,288.951,264.133,290.897,290.375,264.953,-0.254994,-0.380053,246.109,263.09
2015-07-27 22:00,-0.0,286.121,286.439,262.576,288.897,287.888,264.255,-0.0,-0.0,245.91,262.309
2015-07-27 23:00,-0.0799336,286.569,287.541,262.995,289.434,288.722,265.069,-0.0196489,-0.0442536,246.258,262.857
2015-07-28 00:00,-0.0727266,275.932,276.336,256.549,278.725,277.243,258.76,-0.0215521,-0.0440531,246.109,260.708
2015-07-28 01:00,-0.00147036,278.075,279.091,258.134,281.221,279.511,260.461,-0.0,-0.0,246.554,260.952
2015-07-28 03:00,-0.0,283.924,285.882,262.261,287.951,287.888,264.953,-0.0,-0.0,247.712,263.706
2015-07-28 04:00,-0.00124384,283.428,284.982,261.944,287.407,287.188,264.721,-0.0,-0.0,248.137,263.934
2015-07-28 05:00,-0.00133868,283.428,284.528,261.305,286.722,286.485,264.022,-0.0,-0.0,248.464,263.629
2015-07-28 06:00,-0.00155142,282.581,284.185,261.091,286.31,286.202,264.138,-0.0,-0.0,248.557,263.858
2015-07-28 07:00,-0.0,282.753,284.185,260.984,286.172,285.635,263.67,-0.0,-0.0,248.695,264.162
2015-07-28 08:00,0.00299579,281.705,283.495,260.445,285.479,285.35,263.67,-0.0,-0.0,249.381,264.314
2015-07-28 10:00,0.576224,281.705,280.429,258.802,282.803,282.028,262.017,0.487888,0.626482,249.29,263.552
2015-07-28 11:00,0.542926,290.558,278.101,257.685,280.493,279.211,260.34,0.392965,0.512754,249.426,263.09
2015-07-28 12:00,0.414649,293.816,290.545,265.254,292.6,290.511,265.069,0.16904,0.364349,249.696,264.765
2015-07-28 13:00,0.341678,296.531,292.417,266.557,294.021,291.329,264.953,0.138148,0.296497,249.696,264.69
2015-07-28 14:00,0.3277,298.339,288.52,264.645,289.701,286.907,263.083,0.163703,0.28617,249.651,264.086
2015-07-28 15:00,0.226762,299.108,294.945,268.324,296.809,293.483,265.647,0.080432,0.196446,249.516,264.389
2015-07-28 16:00,0.210811,299.391,295.639,268.711,297.309,294.282,266.108,0.0787472,0.183093,249.108,264.615
2015-07-28 17:00,0.258414,294.268,287.322,263.515,289.3,286.767,263.083,0.225996,0.298643,248.971,263.934
2015-07-28 18:00,0.28614,298.242,289.699,264.645,291.686,289.137,263.083,0.165583,0.268093,249.245,264.086
2015-07-28 19:00,0.237805,0.0,291.694,265.758,293.764,291.464,265.185,0.154695,0.245933,248.925,264.314
2015-07-28 20:00,0.49159,288.012,280.909,259.464,282.803,281.735,260.942,0.396869,0.490519,249.108,262.466
2015-07-28 21:00,-0.162841,285.818,285.433,262.049,287.27,285.777,263.083,-0.344692,-0.410993,249.062,262.857
2015-07-28 22:00,0.0,278.684,278.474,258.134,280.493,278.76,259.127,-0.0,-0.0,248.879,261.595
2015-07-28 23:00,-0.0722744,283.76,284.071,260.984,285.895,284.492,262.373,-0.0218552,-0.0443004,249.017,263.012
2015-07-29 00:00,-0.076384,286.121,286.55,262.576,288.493,287.609,264.372,-0.0215581,-0.0440652,249.651,263.934
2015-07-29 01:00,-0.0,285.202,286.328,262.366,288.087,286.907,264.022,-0.0,-0.0,249.381,263.782
2015-07-29 02:00,-0.00129952,284.888,286.105,262.366,288.087,287.469,264.255,-0.0,-0.0,249.651,264.01
2015-07-29 03:00,-0.0012318,284.888,285.882,262.155,287.815,286.907,263.67,-0.0,-0.0,249.83,264.238
2015-07-29 04:00,-0.0,280.427,281.742,259.574,283.372,282.321,262.255,-0.0,-0.0,249.741,263.399
2015-07-29 05:00,-0.0,281.705,282.916,260.228,285.201,284.636,263.2,-0.0,-0.0,249.83,264.54
2015-07-29 06:00,-0.0,282.408,284.071,260.876,286.172,285.777,264.022,-0.0,-0.0,249.651,264.914
2015-07-29 07:00,-0.0,282.234,284.185,261.198,286.033,285.777,264.255,-0.0,-0.0,249.426,264.914
2015-07-29 08:00,-0.0,282.581,284.3,260.876,286.31,286.343,264.372,-0.0,-0.0,249.83,265.36
2015-07-29 09:00,-0.0,281.705,284.071,260.553,286.033,286.202,264.255,-0.0,-0.0,249.919,265.875
2015-07-29 10:00,0.367394,282.923,284.185,260.553,286.31,286.485,264.488,0.402564,0.523633,249.606,265.728
2015-07-29 11:00,0.40464,287.587,287.651,262.681,289.701,289.137,265.416,0.198934,0.417293,249.964,265.875
2015-07-29 12:00,0.384822,293.93,292.211,266.059,294.661,293.617,267.023,0.157519,0.37049,249.786,266.384
2015-07-29 13:00,0.319397,296.84,294.945,267.74,297.309,295.865,267.251,0.121452,0.295419,250.053,266.817
2015-07-29 14:00,0.264554,298.918,296.815,268.904,299.287,297.689,268.271,0.0954063,0.244002,250.142,267.174
2015-07-29 16:00,0.256489,301.302,293.235,266.954,295.55,292.814,266.337,0.112509,0.219944,249.919,266.239
2015-07-29 17:00,0.201634,299.297,294.846,267.74,297.434,294.944,266.909,0.0860788,0.181323,249.875,266.021
2015-07-29 18:00,0.248165,298.144,293.438,266.954,295.424,293.35,266.222,0.137186,0.225691,249.062,265.948
2015-07-29 19:00,0.355091,299.485,289.699,264.95,292.079,289.413,264.488,0.227324,0.335169,248.833,265.286
2015-07-29 20:00,0.238318,292.889,290.545,265.153,292.73,291.193,265.993,0.221001,0.274967,248.557,265.36
2015-07-29 21:00,-0.0885607,280.799,280.789,259.683,283.514,281.588,261.301,-0.374921,-0.625851,247.617,263.858
2015-07-29 22:00,-0.0,279.081,279.702,258.691,282.231,280.406,261.301,-0.0,-0.0,247.041,263.629
2015-07-29 23:00,-0.0568449,287.3,287.978,263.618,289.968,289.137,264.953,-0.017502,-0.0391284,246.554,264.765
2015-07-30 00:00,-0.0909558,286.271,287.76,263.411,289.701,288.999,265.762,-0.0246439,-0.0495857,245.658,264.839
2015-07-30 01:00,-0.00147011,285.512,286.55,262.89,288.628,287.888,264.372,-0.0,-0.0,245.96,264.464
2015-07-30 02:00,-0.00129919,285.045,286.217,262.576,288.222,287.469,264.605,-0.0,-0.0,246.059,264.615
2015-07-30 03:00,-0.0,284.41,285.77,262.261,287.815,287.609,264.488,-0.0,-0.0,245.405,264.615
2015-07-30 04:00,-0.0,280.613,281.505,260.119,283.797,282.613,262.373,-0.0,-0.0,244.635,263.244
2015-07-30 05:00,-0.0,281.165,282.682,260.445,284.921,283.773,262.728,-0.0,-0.0,244.006,263.244
2015-07-30 06:00,-0.0,283.76,285.208,261.838,287.27,287.329,264.721,-0.0,-0.0,244.687,264.389
2015-07-30 07:00,-0.0,284.087,285.546,262.155,287.407,287.048,264.837,-0.0,-0.0,244.945,264.389
2015-07-30 08:00,-0.00300597,284.73,285.77,262.049,287.679,287.469,264.721,-0.0,-0.0,244.687,264.238
2015-07-30 09:00,-0.0,284.41,285.994,262.155,287.815,287.609,265.069,-0.0,-0.0,243.953,264.314
2015-07-30 10:00,0.400168,285.045,285.994,262.366,288.222,287.888,265.416,0.39232,0.510307,243.899,264.464
2015-07-30 12:00,0.390718,293.816,291.798,265.859,294.149,292.814,266.681,0.154669,0.373962,244.058,264.914
2015-07-30 13:00,0.310585,296.427,294.446,267.935,296.684,295.208,267.592,0.119386,0.300089,244.322,265.137
2015-07-30 14:00,0.258773,298.144,296.033,269.0,298.426,296.78,268.158,0.0950824,0.24646,244.322,265.655
2015-07-30 15:00,0.220733,298.726,296.621,269.288,298.918,297.3,268.384,0.0786247,0.209012,244.322,265.948
2015-07-30 17:00,0.175623,297.649,296.327,268.904,298.795,297.17,268.497,0.0657711,0.170483,243.793,265.728
2015-07-30 18:00,0.163467,296.427,295.442,268.324,297.807,296.258,267.592,0.072664,0.169156,243.953,265.801
2015-07-30 19:00,0.169558,294.602,294.546,267.74,296.684,295.734,268.384,0.0924652,0.182784,243.526,265.948
2015-07-30 20:00,0.180258,292.174,292.52,266.358,294.788,293.75,267.819,0.171702,0.227477,243.633,265.801
2015-07-30 22:00,-0.0,286.271,287.869,263.203,289.968,290.101,266.222,-0.0,-0.0,244.426,266.166
2015-07-30 23:00,-0.0594868,285.357,287.322,262.471,289.166,289.137,265.416,-0.0175191,-0.0443888,244.894,266.384
2015-07-31 00:00,-0.0891563,284.57,286.328,262.366,288.087,288.445,265.532,-0.0231087,-0.0459228,244.997,266.312
2015-07-31 01:00,-0.00146995,283.428,285.77,261.838,287.407,287.748,265.416,-0.0,-0.001484,245.507,266.312
2015-07-31 02:00,-0.0,283.594,285.208,261.731,287.134,287.469,264.953,-0.0,-0.0,245.405,266.021
2015-07-31 03:00,-0.0,282.753,284.869,261.198,286.585,286.907,265.301,-0.0,0.00124281,246.258,266.529
2015-07-31 04:00,-0.0,282.059,284.071,260.769,285.895,286.343,264.721,-0.0,-0.0,246.75,266.529
2015-07-31 05:00,-0.00133807,281.346,283.38,260.228,285.201,285.635,265.069,-0.0,-0.0,246.652,266.529
2015-07-31 06:00,-0.0,280.799,283.032,260.011,284.641,285.208,265.069,-0.0,-0.0,247.186,266.888
2015-07-31 07:00,-0.00198917,280.613,282.566,260.119,284.22,284.922,264.953,-0.0,-0.0,247.379,267.246
2015-07-31 08:00,-0.0,280.05,282.331,259.574,283.797,284.492,264.488,-0.0,-0.0,247.474,267.103
2015-07-31 09:00,-0.0,280.05,281.978,259.244,283.938,284.492,263.67,-0.0,-0.0,247.617,267.174
2015-07-31 10:00,0.410289,280.613,282.566,259.683,284.361,285.065,264.605,0.36476,0.538474,247.426,267.317
2015-07-31 11:00,0.429375,287.155,287.102,262.576,288.897,288.722,265.416,0.196318,0.429145,247.283,267.388
2015-07-31 12:00,0.409131,293.472,291.798,265.557,293.892,293.35,266.452,0.162514,0.379897,247.522,267.53
2015-07-31 13:00,0.334076,296.84,294.846,267.74,296.935,295.471,267.819,0.125359,0.306609,247.522,267.742
2015-07-31 14:00,0.280584,299.013,296.718,269.096,299.164,297.559,268.834,0.0974997,0.247244,247.379,0.0
2015-07-31 15:00,0.241246,299.765,297.687,269.955,300.02,298.334,269.059,0.0809341,0.211385,247.186,267.812
2015-07-31 16:00,0.210301,299.391,297.879,269.67,300.141,298.591,269.059,0.0727842,0.184416,247.138,267.6
2015-07-31 17:00,0.191856,299.013,297.687,269.86,300.141,298.591,269.059,0.0655476,0.169904,247.09,267.53
2015-07-31 18:00,0.181181,297.549,296.718,269.096,299.164,297.818,268.609,0.0689464,0.168527,247.186,267.53
2015-07-31 19:00,0.18882,295.476,295.343,268.13,297.807,296.65,268.497,0.0872037,0.179072,247.522,267.6
2015-07-31 20:00,0.195742,292.174,292.929,266.657,295.043,294.282,267.932,0.146794,0.220198,247.57,267.246
2015-07-31 21:00,-0.214062,287.587,289.272,264.236,291.16,291.057,266.452,-0.453116,-0.648326,247.712,267.246
2015-07-31 22:00,-0.00494843,285.97,287.76,263.203,289.701,290.101,265.878,-0.0,-0.0,247.426,267.246
2015-07-31 23:00,-0.0776642,285.357,287.102,262.576,289.032,289.276,266.222,-0.0219194,-0.0444304,247.807,266.888
