# timestamp,IR_016,IR_039,IR_087,IR_097,IR_108,IR_120,IR_134,VIS006,VIS008,WV_062,WV_073
2015-11-01 00:00,-0.0,213.142,203.247,218.272,201.728,200.845,204.893,-0.0,-0.0,202.954,202.696
2015-11-01 01:00,-0.0,213.142,213.479,222.868,211.428,210.219,211.358,-0.0,-0.0,211.964,212.8
2015-11-01 02:00,-0.00142909,238.442,232.839,230.921,231.131,229.121,225.535,-0.0,-0.0,221.371,228.603
2015-11-01 03:00,0.00137477,238.442,233.116,231.799,232.772,231.714,228.446,-0.0,-0.0,224.76,230.524
2015-11-01 04:00,-0.0,247.601,245.676,238.04,246.135,245.399,238.876,-0.0,-0.0,228.921,239.255
2015-11-01 05:00,-0.0,240.898,239.317,234.845,239.183,238.049,234.134,-0.0,-0.0,226.405,234.082
2015-11-01 06:00,-0.0,257.103,256.644,243.93,257.55,256.367,246.457,-0.0,-0.0,229.093,244.881
2015-11-01 07:00,-0.00298467,278.075,273.865,254.217,275.087,272.246,255.28,-0.0,-0.0,230.511,248.455
2015-11-01 08:00,-0.0,285.818,283.841,259.902,286.033,283.194,259.856,-0.0,-0.0,230.018,248.987
2015-11-01 09:00,0.757847,276.811,270.329,251.922,271.945,269.657,253.368,0.741482,0.918109,229.348,246.929
2015-11-01 10:00,0.394171,284.57,271.299,252.777,273.529,270.635,253.24,0.391507,0.443855,229.007,247.261
2015-11-01 11:00,0.622554,288.152,265.995,249.669,268.524,268.007,254.009,0.571818,0.641831,230.101,248.455
2015-11-01 12:00,0.564188,295.902,262.458,247.728,265.31,264.623,251.553,0.57351,0.646287,230.43,247.917
2015-11-01 13:00,0.351817,294.043,271.023,253.02,272.582,270.473,254.9,0.252405,0.338913,230.835,249.198
2015-11-01 14:00,0.303272,290.171,266.59,250.177,268.024,266.16,252.853,0.281431,0.360058,231.943,249.198
2015-11-01 15:00,0.366162,280.799,260.528,246.667,262.15,262.008,250.369,0.304067,0.376771,232.557,248.348
2015-11-01 16:00,0.221537,299.108,289.165,263.203,289.701,285.065,260.461,0.109675,0.196767,232.251,250.032
2015-11-01 17:00,0.171119,293.472,285.095,261.198,286.172,282.904,260.098,0.155073,0.187601,233.603,251.051
2015-11-01 18:00,0.20535,291.809,282.916,259.683,283.938,280.257,259.127,0.207828,0.252662,234.329,251.352
2015-11-01 19:00,0.416959,287.155,261.982,247.991,262.507,259.684,247.415,0.457847,0.541528,234.401,247.151
2015-11-01 20:00,0.787212,270.989,199.463,218.041,200.733,198.656,198.195,1.10776,1.22755,201.207,198.603
2015-11-01 21:00,2.17819,276.811,203.247,218.272,201.233,199.102,201.515,1.61533,2.33551,202.954,200.956
2015-11-01 22:00,-0.0,213.142,207.178,220.736,206.392,204.559,206.743,-0.0,0.00733509,207.891,207.326
2015-11-01 23:00,-0.00609542,225.382,208.734,221.17,207.702,205.349,207.423,-0.00774147,-0.00615369,207.304,208.371
2015-11-02 00:00,-0.0,218.393,209.237,221.17,205.946,204.159,206.515,-0.0,-0.00205128,207.502,208.027
2015-11-02 01:00,-0.0,222.276,212.119,222.027,209.808,208.026,209.638,-0.0,-0.0,210.102,210.984
2015-11-02 02:00,-0.0,237.078,225.282,228.192,222.162,219.472,217.055,-0.0,-0.0,216.15,220.535
2015-11-02 03:00,-0.0,238.442,229.072,230.565,226.522,223.332,220.489,-0.0,-0.0,218.264,224.61
2015-11-02 04:00,-0.0,252.585,248.38,239.267,249.368,246.876,237.525,-0.0,-0.0,228.835,240.835
2015-11-02 05:00,-0.0,230.231,226.261,227.628,225.615,224.474,223.053,-0.0,-0.0,220.57,223.793
2015-11-02 06:00,-0.0,250.598,249.185,239.871,250.623,249.55,240.793,-0.0,-0.0,229.433,242.23
2015-11-02 07:00,-0.0,255.521,256.469,244.07,258.678,258.224,248.364,-0.0,-0.0,230.674,246.145
2015-11-02 08:00,-0.0,262.475,262.931,247.991,265.826,265.48,252.335,-0.0,-0.0,230.43,248.562
2015-11-02 09:00,0.296183,265.791,264.329,248.512,266.678,265.99,252.205,0.501556,0.51497,231.156,248.241
2015-11-02 10:00,0.562151,284.888,262.931,247.465,265.654,263.586,249.838,0.552639,0.613232,231.156,247.59
2015-11-02 11:00,0.579437,292.653,268.773,250.931,270.981,269.494,254.264,0.485034,0.549523,230.43,248.669
2015-11-02 12:00,0.514951,293.124,274.261,253.86,276.315,274.304,256.535,0.52485,0.602988,230.755,249.303
2015-11-02 13:00,0.312549,279.859,266.442,249.542,268.524,267.506,254.009,0.504283,0.560654,231.394,248.987
2015-11-02 14:00,0.32604,293.587,272.662,253.741,275.55,272.724,255.532,0.226798,0.316921,231.315,249.617
2015-11-02 15:00,0.279089,297.349,281.029,258.469,283.088,279.81,259.127,0.227369,0.293596,231.394,250.238
2015-11-02 16:00,0.189896,298.242,289.272,263.099,290.101,285.35,260.822,0.096266,0.181943,233.085,250.544
2015-11-02 17:00,0.257739,292.053,273.732,254.336,272.899,268.835,253.111,0.236319,0.276382,228.748,245.46
2015-11-02 18:00,0.19063,270.989,257.511,244.349,256.789,254.664,244.231,0.278052,0.305659,229.348,241.602
2015-11-02 19:00,0.526486,272.58,241.451,235.173,239.183,237.109,230.768,0.610876,0.732752,226.499,233.146
2015-11-02 20:00,0.934421,275.932,230.85,231.098,229.158,226.426,222.873,0.897078,1.11048,220.337,225.408
2015-11-02 21:00,0.749917,285.357,272.391,253.02,271.625,267.004,247.959,0.622503,0.831309,228.136,243.336
2015-11-02 22:00,-0.0,282.059,273.732,253.741,273.529,269.0,249.438,-0.0,-0.0,227.42,243.214
2015-11-02 23:00,-0.00306447,272.061,267.473,250.806,268.191,265.138,251.159,-0.00518936,-0.00618753,228.136,245.69
2015-11-03 00:00,-0.0020399,273.586,263.401,247.2,262.329,257.671,242.956,-0.0,-0.0020594,225.835,240.053
2015-11-03 01:00,-0.0,259.045,247.973,239.115,247.446,244.544,235.537,-0.0,-0.00163865,224.46,235.295
2015-11-03 02:00,-0.0,255.521,241.682,235.499,240.152,237.345,230.931,-0.0,-0.0,222.906,230.524
2015-11-03 03:00,0.00138283,262.475,251.912,241.5,248.946,245.186,235.072,-0.0,-0.0,225.156,236.614
2015-11-03 04:00,-0.0,278.075,267.764,250.429,265.826,259.684,242.384,-0.0,-0.0,224.054,239.922
2015-11-03 05:00,-0.0,242.013,233.116,231.45,231.957,229.647,226.574,-0.0,0.00163093,221.031,227.509
2015-11-03 06:00,-0.00202284,235.601,226.902,228.192,225.615,224.756,222.692,-0.0,-0.0,219.137,223.167
2015-11-03 07:00,-0.0,238.442,233.938,231.45,233.842,232.976,229.615,-0.0,-0.0,224.46,229.489
2015-11-03 08:00,-0.0,253.81,250.371,240.32,251.036,250.357,242.241,-0.0,-0.0,228.835,239.922
2015-11-03 09:00,0.515272,266.131,263.867,248.121,267.016,267.004,252.982,0.558984,0.585223,230.916,249.408
2015-11-03 10:00,0.664927,288.152,263.556,248.382,267.016,266.16,253.111,0.59162,0.671284,229.348,249.093
2015-11-03 11:00,0.536593,302.426,268.343,251.552,270.819,267.84,253.111,0.394991,0.482023,229.517,248.882
2015-11-03 12:00,0.441719,300.042,267.909,251.056,268.358,263.759,248.499,0.304389,0.408508,227.42,245.918
2015-11-03 13:00,0.298845,295.476,281.267,258.134,280.347,274.46,252.205,0.169066,0.297643,226.778,245.804
2015-11-03 14:00,0.296712,297.947,281.86,258.469,282.374,276.784,254.264,0.208158,0.308107,229.601,248.987
2015-11-03 15:00,0.351522,293.124,265.545,249.542,264.792,262.008,249.438,0.342278,0.398651,230.43,247.04
2015-11-03 16:00,0.288832,269.576,234.477,232.663,233.041,230.429,223.592,0.478875,0.549025,220.101,227.694
2015-11-03 17:00,0.337508,269.576,219.628,224.908,217.072,212.673,210.718,0.681099,0.763623,215.593,217.164
2015-11-03 18:00,0.507061,274.073,195.924,215.909,193.017,191.931,197.932,0.842403,0.936614,195.928,194.891
2015-11-03 19:00,0.65926,283.594,199.463,217.106,196.503,195.891,199.237,0.871149,0.99507,200.681,198.603
2015-11-03 20:00,0.853166,289.647,209.237,222.027,205.043,202.941,204.658,0.802983,0.957436,207.697,206.968
2015-11-03 21:00,1.32422,279.473,213.031,222.868,208.977,206.895,208.982,0.88966,1.22063,209.569,209.707
2015-11-03 22:00,-0.0,245.913,227.845,229.301,224.072,219.472,217.055,-0.0,-0.0,215.31,220.763
2015-11-03 23:00,-0.00616337,264.009,242.597,236.943,237.2,230.17,221.598,-0.00521852,-0.00622229,216.012,225.604
2015-11-04 00:00,-0.0,269.283,251.721,242.081,247.662,241.475,229.946,-0.0,-0.0,218.009,230.011
2015-11-04 01:00,-0.00162859,269.865,254.328,242.656,249.579,243.679,230.931,-0.0,-0.0,219.137,230.694
2015-11-04 02:00,-0.0,271.261,255.23,244.07,250.83,242.585,228.614,-0.0,-0.0,218.642,232.508
2015-11-04 03:00,0.00138689,267.123,251.339,240.469,247.229,242.364,231.257,-0.0,-0.0,219.982,232.022
2015-11-04 04:00,-0.0,275.707,264.788,248.9,262.507,256.742,240.5,-0.0,-0.0,223.746,238.578
2015-11-04 05:00,0.00162063,277.451,268.343,251.305,266.847,260.764,242.384,-0.0,-0.0,225.156,242.23
2015-11-04 06:00,-0.0,275.932,265.092,249.029,262.507,255.992,238.428,-0.0,-0.0,223.746,239.121
2015-11-04 07:00,-0.0,267.761,255.409,244.21,251.036,244.544,233.185,-0.0,-0.0,221.93,234.996
2015-11-04 08:00,-0.0,275.02,265.243,248.9,262.863,256.742,240.793,-0.0,-0.0,225.058,240.316
2015-11-04 09:00,0.56811,270.713,247.563,240.021,242.747,235.677,224.834,0.547826,0.716926,217.491,228.242
2015-11-04 10:00,0.355447,282.408,264.635,248.642,262.15,255.045,237.222,0.329468,0.434391,224.56,239.922
2015-11-04 11:00,0.430611,285.512,256.469,243.79,254.854,248.532,237.222,0.375703,0.476656,223.642,238.714
2015-11-04 12:00,0.347786,292.294,275.436,254.926,274.312,266.835,246.044,0.196313,0.349485,228.136,245.345
2015-11-04 13:00,0.267782,294.602,280.429,258.134,278.576,271.444,248.364,0.128103,0.266287,228.224,246.707
2015-11-04 14:00,0.257763,290.171,266.293,250.429,261.069,251.552,234.291,0.157794,0.270001,222.906,237.185
2015-11-04 15:00,0.230663,294.043,276.463,255.742,273.372,265.48,243.808,0.130862,0.23405,227.055,244.056
2015-11-04 16:00,0.234256,295.583,279.213,257.006,277.678,270.798,247.551,0.126777,0.2304,229.007,246.258
2015-11-04 17:00,0.254532,292.771,271.984,253.501,269.021,261.831,240.793,0.156838,0.261001,224.959,240.964
2015-11-04 18:00,0.306659,291.809,266.59,251.429,262.507,254.664,238.128,0.217726,0.320878,223.538,238.303
2015-11-04 19:00,0.519683,284.73,245.032,238.963,239.426,233.969,225.709,0.44184,0.555128,216.424,225.21
2015-11-04 20:00,0.856421,295.26,256.644,245.723,251.242,243.243,228.446,0.647989,0.835175,222.368,233.928
2015-11-04 21:00,0.901788,294.823,283.841,260.553,284.22,279.511,254.9,0.668099,0.910408,235.593,254.536
2015-11-04 22:00,0.00753744,287.871,284.414,260.445,285.061,281.146,256.785,-0.0,-0.0,236.139,255.73
2015-11-04 23:00,-0.00619874,288.152,284.185,260.119,285.201,282.175,258.147,-0.00524847,-0.006258,236.341,255.821
2015-11-05 00:00,0.00205648,287.587,286.105,261.091,288.087,286.06,261.182,-0.0,-0.0,237.333,257.595
2015-11-05 01:00,-0.0,281.346,280.909,258.134,282.374,281.293,260.219,-0.0,-0.0,238.671,258.457
2015-11-05 03:00,-0.0,287.729,287.322,261.519,289.166,286.767,263.083,-0.0,-0.0,240.899,259.804
2015-11-05 04:00,-0.0,287.01,287.102,261.305,289.032,286.907,262.373,-0.0,-0.0,240.489,260.217
2015-11-05 05:00,-0.0,286.717,285.994,260.661,287.407,284.492,261.062,-0.0,-0.0,239.104,259.304
2015-11-05 06:00,-0.0,276.155,265.696,249.669,263.745,258.591,242.956,-0.0,-0.0,229.178,245.46
2015-11-05 07:00,-0.0,273.831,261.501,247.067,259.421,255.045,240.354,-0.0,-0.0,227.42,241.854
2015-11-05 08:00,-0.00719826,270.151,256.294,242.656,253.669,248.941,234.447,-0.0,-0.0,227.238,240.185
2015-11-05 09:00,0.418167,281.165,271.848,251.676,270.819,266.16,245.211,0.406514,0.562885,233.968,250.646
2015-11-05 10:00,0.376477,277.24,255.23,242.799,251.652,245.186,231.581,0.334543,0.474154,225.931,238.165
2015-11-05 11:00,0.349095,287.155,272.796,252.656,271.303,265.99,245.489,0.208752,0.378864,231.473,248.882
2015-11-05 12:00,0.276626,287.01,272.662,252.168,271.142,266.835,245.628,0.16477,0.305249,229.935,247.04
2015-11-05 13:00,0.210035,297.045,292.622,264.133,293.248,290.238,264.138,0.0849536,0.212043,236.542,257.855
2015-11-05 14:00,0.212838,299.95,295.343,266.259,297.184,294.016,265.647,0.0767937,0.208768,237.398,258.2
2015-11-05 15:00,0.211781,301.913,296.425,266.954,298.178,294.812,266.337,0.0723203,0.199631,238.795,259.135
2015-11-05 16:00,0.213557,302.341,295.541,266.557,297.309,293.483,265.185,0.0817259,0.198546,240.014,259.22
2015-11-05 17:00,0.210336,302.085,296.327,266.756,297.931,294.415,265.532,0.0856642,0.202939,239.834,259.387
2015-11-05 18:00,0.256763,303.51,292.929,264.339,294.405,290.101,262.136,0.124229,0.249557,240.548,257.942
2015-11-05 19:00,0.215116,298.63,293.336,264.95,295.424,292.141,265.301,0.147532,0.243233,240.899,257.246
2015-11-05 20:00,0.068911,268.073,268.343,251.18,269.35,269.165,255.784,0.17504,0.150124,239.834,253.595
2015-11-05 21:00,0.151739,283.428,279.58,256.892,280.931,278.76,257.777,0.303673,0.320305,239.532,254.999
2015-11-05 22:00,-0.0,256.589,258.195,245.314,260.341,260.405,249.572,-0.0,-0.0,237.203,249.928
2015-11-05 23:00,-0.00311752,262.074,262.931,248.121,264.965,264.451,251.291,-0.0026396,-0.00629464,238.795,251.452
2015-11-06 00:00,-0.00206502,286.271,283.148,259.464,283.656,279.81,257.034,-0.0,-0.0,238.857,253.5
2015-11-06 01:00,-0.00163973,261.251,261.982,247.465,265.31,265.138,252.075,-0.0,-0.0,241.131,253.88
2015-11-06 02:00,-0.0,289.247,287.76,261.944,290.101,287.048,262.136,-0.0,-0.0,240.724,256.271
2015-11-06 03:00,-0.0,276.811,275.176,255.16,277.528,274.304,256.66,-0.0,-0.0,240.43,254.629
2015-11-06 04:00,-0.0,275.48,271.023,252.168,272.582,269.984,254.646,-0.0,-0.0,240.957,253.785
2015-11-06 05:00,-0.00163076,265.095,265.394,249.286,267.69,266.835,253.24,-0.0,-0.0,241.93,254.629
2015-11-06 06:00,-0.0,279.667,278.35,256.664,279.907,278.307,259.005,-0.0,-0.0,241.015,255.366
2015-11-06 07:00,-0.0,287.871,287.102,261.305,289.3,287.469,262.728,-0.0,-0.0,239.894,255.911
2015-11-06 08:00,-0.0,287.3,286.882,261.091,289.166,287.329,262.965,-0.0,-0.0,239.288,256.001
2015-11-06 09:00,0.365289,288.012,286.992,260.984,289.568,287.609,262.847,0.30929,0.445611,238.483,255.911
2015-11-06 10:00,0.416021,292.174,287.212,261.519,289.3,286.907,262.728,0.223298,0.419998,237.333,254.999
2015-11-06 11:00,0.368109,295.042,290.123,263.099,292.209,289.137,263.553,0.151228,0.349638,237.657,255.73
2015-11-06 12:00,0.327751,298.339,292.622,264.441,294.277,290.648,263.905,0.122429,0.304932,237.785,255.639
2015-11-06 13:00,0.279389,300.858,294.145,265.355,295.677,291.6,264.138,0.100735,0.257767,237.203,255.366
2015-11-06 14:00,0.24412,302.511,295.541,266.358,297.184,292.948,263.905,0.0828832,0.223273,236.808,255.275
2015-11-06 15:00,0.238534,303.015,294.346,265.959,295.803,291.735,263.787,0.0980133,0.216025,237.072,254.999
2015-11-06 16:00,0.218213,302.932,294.346,266.159,295.803,291.6,264.138,0.0918699,0.198391,236.94,254.907
2015-11-06 17:00,0.218099,302.426,294.546,266.159,296.182,291.871,264.138,0.10134,0.210786,237.203,254.907
2015-11-06 18:00,0.221345,297.848,289.379,262.995,290.764,287.329,262.373,0.179323,0.254006,238.483,254.256
2015-11-06 19:00,0.472103,267.444,245.89,238.503,243.895,243.679,238.278,0.561437,0.667262,230.43,236.033
2015-11-06 20:00,0.133545,293.24,289.165,263.099,289.3,285.635,260.581,0.119184,0.189478,235.317,251.352
2015-11-06 21:00,0.499714,257.605,244.16,237.728,244.349,243.679,238.128,0.583201,0.749919,232.86,239.39
2015-11-06 22:00,-0.0,276.811,264.021,247.991,262.507,256.18,239.765,-0.0,-0.0,225.352,238.85
2015-11-06 23:00,-0.00627226,275.707,269.485,251.305,270.169,264.967,249.572,-0.00265536,-0.00633222,230.511,245.918
2015-11-07 00:00,-0.00207371,283.261,276.336,255.742,274.778,269.821,249.305,-0.00175581,-0.0,225.352,242.971
2015-11-07 01:00,-0.0,276.594,266.145,250.051,264.965,260.225,244.512,-0.0,-0.0,225.254,239.39
2015-11-07 02:00,-0.0,280.982,272.796,253.14,271.142,267.84,250.104,-0.0,-0.0,227.51,242.848
2015-11-07 03:00,-0.00139911,268.986,256.469,244.07,254.263,249.55,237.977,-0.0,-0.0,222.692,236.325
2015-11-07 04:00,-0.0,268.986,257.339,245.04,255.244,253.122,242.241,-0.0,0.00146544,224.054,235.592
2015-11-07 05:00,-0.0,280.982,275.565,254.926,276.01,273.832,254.137,-0.0,-0.0,227.691,244.881
2015-11-07 06:00,-0.0,254.396,245.676,237.415,244.575,242.585,235.072,-0.0,-0.0,227.87,236.469
2015-11-07 07:00,0.00307416,260.395,252.853,241.646,250.415,249.55,240.646,-0.0,-0.0,228.835,238.027
2015-11-07 08:00,-0.0,283.924,281.386,258.358,283.514,280.406,257.282,-0.0,-0.0,231.552,249.093
2015-11-07 09:00,0.688943,282.923,277.35,256.434,278.725,275.706,255.909,0.507241,0.680409,231.787,249.303
2015-11-07 10:00,0.344328,289.514,284.869,260.337,286.447,283.484,259.127,0.197496,0.358833,232.405,250.646
2015-11-07 11:00,0.371891,294.823,288.195,262.576,289.568,285.919,261.062,0.15836,0.349099,232.86,251.552
2015-11-07 12:00,0.333862,298.436,290.756,263.825,291.555,287.469,262.017,0.129109,0.301404,233.085,252.244
2015-11-07 13:00,0.319273,299.858,287.541,262.471,289.032,285.35,261.779,0.190021,0.292655,234.041,252.731
2015-11-07 14:00,0.316441,299.858,287.76,262.366,289.032,285.35,261.898,0.214753,0.304834,234.113,253.021
2015-11-07 15:00,0.217351,301.565,287.76,262.89,288.493,283.773,260.34,0.107846,0.201733,234.543,252.342
2015-11-07 16:00,0.202386,301.653,293.235,265.557,294.405,289.964,263.083,0.0969002,0.194592,234.401,253.117
2015-11-07 17:00,0.239132,301.214,291.902,264.95,292.989,289.276,263.436,0.139481,0.229347,234.968,253.595
2015-11-07 18:00,0.216241,300.408,292.108,264.747,293.506,289.689,263.436,0.138664,0.226334,235.731,254.068
2015-11-07 19:00,0.222626,299.485,292.929,265.859,294.533,290.784,263.318,0.16856,0.246365,237.398,255.457
2015-11-07 20:00,0.262188,297.749,292.929,265.658,294.661,291.193,264.138,0.264568,0.333587,238.608,256.001
2015-11-07 21:00,0.224814,293.124,290.335,264.133,292.34,289.276,263.905,0.3807,0.373822,239.227,255.548
2015-11-07 22:00,0.00784625,290.429,288.951,263.618,290.764,287.888,263.553,-0.0,-0.0,240.607,256.181
2015-11-07 23:00,-0.00315521,264.377,254.871,244.903,250.207,241.251,231.743,-0.00267151,-0.00318537,225.739,236.614
2015-11-08 00:00,-0.0,213.142,202.034,217.576,200.733,199.543,202.5,-0.0,-0.0,201.973,202.696
2015-11-08 01:00,-0.0,213.142,206.1,219.183,205.043,204.159,206.286,-0.0,-0.0,206.292,205.491
2015-11-08 02:00,-0.0,218.393,213.031,222.027,211.825,209.497,210.718,-0.0,-0.0,210.278,211.906
2015-11-08 03:00,-0.0014032,218.393,212.119,222.027,210.625,208.026,209.638,-0.0,-0.0,209.569,210.67
2015-11-08 04:00,0.00145574,225.382,218.082,224.305,216.355,215.356,215.074,-0.0,-0.0,214.588,216.131
2015-11-08 05:00,-0.0,227.984,224.616,226.866,224.384,223.619,221.415,-0.0,-0.0,219.26,221.658
2015-11-08 06:00,-0.002059,237.078,235.538,232.834,234.633,234.216,231.257,-0.0,-0.0,224.258,230.863
2015-11-08 07:00,-0.0,239.711,237.591,233.513,237.702,235.917,231.419,-0.0,-0.0,225.931,233.146
2015-11-08 08:00,-0.0,243.066,241.682,235.337,241.344,239.438,234.134,-0.0,-0.0,226.499,235.74
2015-11-08 09:00,0.413161,261.666,253.595,242.225,252.868,250.557,240.354,0.599697,0.759738,228.224,241.475
2015-11-08 10:00,0.513109,287.729,265.545,249.029,264.965,258.957,244.512,0.409444,0.540374,228.575,243.336
2015-11-08 12:00,0.306315,290.429,272.527,253.621,269.515,262.185,243.099,0.180599,0.327053,224.46,240.835
2015-11-08 13:00,0.248317,294.043,280.308,257.572,279.466,272.565,249.705,0.129993,0.262821,228.4,246.371
2015-11-08 14:00,0.23056,295.796,284.071,259.793,284.641,278.911,254.264,0.103229,0.240076,228.488,247.699
2015-11-08 15:00,0.198536,298.045,289.486,262.89,290.764,285.635,258.515,0.0810835,0.20515,230.101,251.452
2015-11-08 16:00,0.192606,297.549,287.322,261.625,287.679,281.882,256.66,0.086636,0.199309,229.178,249.408
2015-11-08 17:00,0.195092,298.144,288.195,262.471,288.628,283.629,257.777,0.0977621,0.203656,230.018,250.34
2015-11-08 18:00,0.200037,298.822,291.279,264.133,292.47,287.888,261.66,0.115603,0.21958,230.916,252.342
2015-11-08 19:00,0.219936,297.947,290.651,263.515,291.817,287.469,261.182,0.191643,0.275931,233.01,253.213
2015-11-08 20:00,0.303774,297.649,290.44,264.339,291.948,287.888,261.66,0.366139,0.418525,233.823,253.88
2015-11-08 21:00,0.427357,294.491,289.486,263.411,291.292,288.167,262.255,0.504387,0.562183,235.178,254.722
2015-11-08 22:00,-0.0,291.19,289.058,263.203,291.423,288.584,262.728,-0.0,-0.0,233.823,254.256
2015-11-08 23:00,-0.0063495,290.301,287.869,262.89,289.835,286.485,261.421,-0.00268805,-0.0032051,233.382,253.213
2015-11-09 00:00,-0.00209156,287.155,284.982,260.553,286.722,283.917,260.34,-0.0,-0.0,233.456,253.213
2015-11-09 01:00,-0.0,284.888,282.214,259.024,284.501,281.146,259.37,-0.0,-0.0,233.75,252.828
2015-11-09 02:00,-0.00146454,287.01,283.956,259.683,284.781,282.321,258.515,-0.0,-0.0,231.315,250.135
2015-11-09 03:00,-0.00140727,268.073,253.779,243.084,250.83,248.327,237.827,-0.0,-0.0,221.145,232.185
2015-11-09 04:00,-0.0,262.869,245.032,237.884,241.344,237.345,228.278,-0.0,-0.0,219.982,229.489
2015-11-09 05:00,0.00164549,247.601,227.845,228.934,225.003,220.984,217.25,-0.0,-0.0,216.56,220.763
2015-11-09 06:00,-0.0,258.576,242.142,235.01,238.693,233.722,226.918,-0.0,-0.0,221.371,229.489
2015-11-09 07:00,-0.0,249.89,231.713,230.207,228.871,225.874,222.329,-0.0,-0.0,216.56,220.989
2015-11-09 08:00,-0.0,232.213,223.252,226.092,221.838,220.685,219.551,-0.0,-0.00753766,218.009,219.134
2015-11-09 09:00,0.480316,240.898,227.845,228.378,227.414,226.426,224.126,0.640834,0.80818,221.258,225.408
2015-11-09 10:00,0.29451,263.255,246.313,237.415,244.8,242.585,233.503,0.38651,0.483154,224.661,234.542
2015-11-09 11:00,0.288478,268.986,255.23,242.225,254.263,251.947,242.241,0.336079,0.437949,228.921,240.576
2015-11-09 12:00,0.315699,298.242,284.414,260.119,286.172,281.882,258.638,0.169608,0.315481,230.996,249.513
2015-11-09 13:00,0.278868,300.225,292.622,264.95,295.17,290.375,262.136,0.112975,0.281534,231.236,250.95
2015-11-09 14:00,0.237683,301.565,295.144,266.657,297.06,292.814,263.436,0.0888749,0.241173,231.236,250.95
2015-11-09 15:00,0.257951,301.653,287.322,262.155,288.358,282.467,259.005,0.122545,0.247455,229.601,248.987
2015-11-09 16:00,0.371703,302.596,277.852,256.434,279.318,274.46,255.532,0.236295,0.354612,230.916,249.617
2015-11-09 17:00,0.253231,301.037,286.105,261.412,287.951,282.028,257.9,0.152669,0.261006,230.348,249.617
2015-11-09 18:00,0.290088,296.531,278.35,257.006,279.17,273.99,253.753,0.218773,0.316866,230.266,247.808
2015-11-09 19:00,0.30245,297.549,288.303,261.519,289.3,284.636,258.023,0.225426,0.365549,231.236,249.825
2015-11-09 20:00,0.536943,288.012,271.574,252.168,272.104,267.004,247.823,0.53291,0.653363,0.0,243.937
2015-11-09 21:00,0.558063,293.007,284.869,261.091,286.033,281.882,257.406,0.440294,0.589007,231.315,250.135
2015-11-09 22:00,-0.00807503,273.831,256.469,244.349,253.069,247.708,234.291,-0.0,-0.0,221.371,233.304
2015-11-09 23:00,-0.00319475,285.045,278.101,256.32,277.377,273.042,252.075,-0.00270499,-0.00322529,229.517,246.483
2015-11-10 00:00,0.0021007,264.377,253.226,241.936,251.036,247.085,235.382,-0.0,-0.0,223.642,235.592
2015-11-10 01:00,-0.0,256.062,245.676,238.349,244.122,241.698,234.291,-0.0,-0.0,223.849,235.146
2015-11-10 02:00,-0.0,276.811,267.033,249.797,266.167,262.185,244.652,-0.0,-0.0,228.4,244.53
2015-11-10 03:00,-0.0,266.131,248.177,238.81,245.248,240.576,229.781,-0.0,-0.0,220.57,231.031
2015-11-10 04:00,-0.0,282.753,276.208,255.626,275.857,271.765,250.104,-0.0,-0.0,228.4,247.151
2015-11-10 05:00,-0.00165026,256.589,240.514,234.515,238.446,235.917,228.109,-0.0,-0.0,221.371,228.603
2015-11-10 06:00,-0.0,276.811,267.326,249.286,266.847,263.237,245.072,-0.0,-0.0,229.348,245.345
2015-11-10 07:00,-0.0,271.798,260.036,245.451,256.789,253.122,238.727,-0.0,-0.0,222.906,236.325
2015-11-10 08:00,-0.0,247.601,237.086,232.834,235.414,234.461,229.283,-0.0,-0.0,223.013,229.664
2015-11-10 09:00,0.589313,253.206,238.585,233.344,236.441,235.193,229.615,0.681521,0.928697,223.118,228.603
2015-11-10 10:00,0.352538,291.315,287.869,262.471,290.5,288.027,262.492,0.189668,0.411519,231.552,254.629
2015-11-10 11:00,0.368318,296.219,292.827,265.859,295.55,293.216,265.532,0.146755,0.38715,231.552,255.366
2015-11-10 12:00,0.328302,298.63,294.646,266.855,297.434,294.812,265.762,0.120681,0.328207,233.677,256.539
2015-11-10 13:00,0.274731,301.125,296.913,268.421,299.776,296.519,266.681,0.0959817,0.276011,236.742,258.114
2015-11-10 14:00,0.235162,302.68,297.879,269.192,300.627,297.43,267.023,0.0796444,0.236192,238.981,258.713
2015-11-10 15:00,0.212318,303.181,298.453,269.479,300.99,297.689,266.909,0.0701297,0.211992,239.714,258.882
2015-11-10 16:00,0.203151,302.341,296.718,268.615,299.041,295.208,264.953,0.0722637,0.202666,238.608,257.942
2015-11-10 18:00,0.197844,301.913,297.107,269.0,299.531,295.996,266.566,0.0857671,0.212518,238.981,259.051
2015-11-10 19:00,0.210327,300.225,296.033,268.227,298.178,294.812,266.337,0.129515,0.250944,239.834,259.051
2015-11-10 20:00,0.290111,297.947,292.929,266.259,294.916,291.6,264.372,0.29057,0.371463,240.957,258.713
2015-11-10 21:00,0.770252,294.043,287.76,263.099,289.032,285.919,260.942,0.620615,0.8027,238.483,256.45
2015-11-10 22:00,-0.00819689,288.291,284.185,260.876,285.201,282.904,259.614,-0.0,-0.0,236.004,254.162
2015-11-10 23:00,-0.00643042,289.247,287.212,262.681,289.032,286.485,261.66,-0.00272231,-0.00324595,237.913,257.07
2015-11-11 00:00,-0.0,285.202,279.458,258.022,279.613,276.169,253.24,-0.0,-0.0,235.799,252.244
2015-11-11 01:00,-0.00166876,285.818,282.566,260.119,283.656,280.702,257.777,-0.0,-0.0,236.94,254.256
2015-11-11 02:00,-0.0,280.982,272.931,253.98,274.0,270.798,249.305,-0.0,-0.0,235.108,250.646
2015-11-11 03:00,-0.0,288.152,288.087,263.411,290.5,288.999,263.553,-0.0,-0.0,240.724,258.713
2015-11-11 04:00,-0.0,284.73,281.386,259.464,282.66,280.406,257.777,-0.0,-0.0,236.341,253.88
2015-11-11 05:00,-0.00165493,287.444,287.76,263.411,290.5,288.861,264.488,-0.0,-0.0,237.913,257.769
2015-11-11 06:00,-0.0,287.3,287.322,262.681,289.968,288.584,264.022,-0.0,-0.0,234.041,256.539
2015-11-11 07:00,0.00312602,279.667,272.931,253.261,272.899,269.657,249.838,-0.0,-0.0,229.178,247.371
2015-11-11 08:00,-0.0,282.923,277.601,256.664,278.576,275.396,253.753,-0.0,0.00765848,229.178,249.721
2015-11-11 09:00,0.454717,284.73,280.669,258.358,281.943,279.511,257.53,0.433134,0.588176,230.996,251.652
2015-11-11 10:00,0.461678,292.053,284.982,260.984,286.997,284.779,261.66,0.341264,0.469791,232.557,254.256
2015-11-11 11:00,0.398257,296.427,291.383,264.95,292.989,289.964,263.318,0.172267,0.384583,233.382,255.275
2015-11-11 12:00,0.326514,299.579,293.944,266.358,295.93,292.41,264.255,0.123322,0.31994,233.75,254.629
2015-11-11 13:00,0.278614,301.999,295.738,267.74,297.683,293.75,264.837,0.0981983,0.271856,235.038,254.722
2015-11-11 14:00,0.238681,303.428,296.327,268.033,297.931,293.483,264.022,0.0826734,0.23366,235.455,254.629
2015-11-11 15:00,0.207548,303.836,297.107,268.711,299.041,294.415,264.721,0.0710819,0.207177,235.455,254.349
2015-11-11 16:00,0.188597,303.346,296.718,268.615,298.672,293.883,264.605,0.0691629,0.189187,236.004,254.536
2015-11-11 17:00,0.369161,304.872,279.336,258.246,280.493,276.631,256.785,0.245349,0.351317,236.475,253.021
2015-11-11 18:00,0.246528,298.63,284.642,261.519,283.514,276.477,252.464,0.143171,0.264839,230.835,246.929
2015-11-11 19:00,0.33693,291.563,272.527,253.261,270.169,265.138,245.489,0.288866,0.389355,227.329,240.835
2015-11-11 20:00,0.29567,297.248,286.217,262.576,286.31,280.85,255.909,0.253324,0.334032,235.038,251.552
2015-11-11 21:00,0.498997,297.947,289.699,264.133,290.764,286.485,261.66,0.391585,0.49148,237.203,254.068
2015-11-11 22:00,-0.0,289.647,286.992,262.366,288.358,284.922,259.977,-0.0,-0.0,236.341,253.405
2015-11-11 23:00,-0.0,289.113,286.439,262.155,287.815,284.492,259.492,-0.00274002,-0.00326706,236.004,253.974
2015-11-12 00:00,-0.0021194,289.247,287.869,262.471,289.835,287.469,262.017,-0.0,-0.0,237.463,255.548
2015-11-12 01:00,-0.00167474,288.152,285.994,261.412,287.407,284.779,260.461,-0.0,0.00169075,235.936,254.629
2015-11-12 02:00,-0.0,287.587,285.882,261.412,287.27,284.492,260.581,-0.0,-0.0,236.004,254.722
2015-11-12 03:00,-0.00141945,272.836,272.931,253.02,275.087,273.042,255.658,-0.0,-0.0,235.317,253.88
2015-11-12 04:00,-0.0,274.551,272.662,253.14,274.312,271.926,254.9,-0.0,0.00148619,238.041,254.722
2015-11-12 05:00,-0.0,287.3,286.105,261.519,288.087,285.35,261.54,-0.0,-0.0,237.528,256.36
2015-11-12 06:00,-0.0,286.569,285.658,261.091,287.679,285.493,261.66,-0.0,-0.0,237.203,256.271
2015-11-12 07:00,-0.0,286.864,286.105,261.305,288.493,286.485,262.373,-0.0,-0.0,236.808,256.36
2015-11-12 08:00,-0.0,285.97,285.321,260.769,287.27,285.493,261.66,-0.0,-0.0,235.731,256.271
2015-11-12 09:00,0.239075,284.73,281.386,258.58,282.517,279.81,257.282,0.250054,0.326547,233.968,253.5
2015-11-12 10:00,0.354716,290.041,285.321,260.984,286.86,283.629,259.492,0.188872,0.395026,235.317,254.722
2015-11-12 11:00,0.363317,295.151,288.303,262.681,289.032,285.065,259.735,0.157472,0.375523,234.897,254.256
2015-11-12 12:00,0.318357,298.63,289.486,263.515,288.763,282.175,256.66,0.135454,0.321401,234.543,252.828
2015-11-12 13:00,0.274515,299.95,288.736,262.89,288.087,281.882,256.16,0.111702,0.273103,235.038,252.146
2015-11-12 14:00,0.304868,294.268,276.591,256.434,276.01,272.086,251.814,0.230584,0.315082,234.041,251.152
2015-11-12 15:00,0.227263,299.485,285.546,260.876,285.061,278.609,253.881,0.117427,0.237671,233.603,249.721
2015-11-12 16:00,0.242492,299.485,286.661,261.625,287.27,282.175,257.777,0.152463,0.267837,236.139,252.925
2015-11-12 17:00,0.396552,301.39,270.189,252.899,270.495,265.65,250.369,0.268608,0.384329,236.609,0.0
2015-11-12 18:00,0.403932,299.579,272.662,253.621,272.104,265.138,247.823,0.297922,0.430095,236.609,250.442
2015-11-12 19:00,0.30858,296.943,280.909,258.134,280.785,274.304,251.683,0.282749,0.388346,236.94,251.949
2015-11-12 20:00,0.525266,300.769,283.148,259.683,283.514,278.156,255.532,0.450672,0.56564,238.294,253.88
2015-11-12 21:00,1.12094,278.684,256.644,244.488,257.17,255.045,244.652,0.949095,1.26408,238.981,250.34
2015-11-12 22:00,-0.0,258.096,257.511,244.626,258.304,256.555,245.211,-0.0,-0.0,238.294,249.928
2015-11-12 23:00,-0.0032575,257.103,255.23,243.65,255.827,253.896,242.384,-0.00275812,-0.00657728,234.827,248.133
2015-11-13 00:00,-0.00212896,255.521,253.963,242.942,254.461,252.341,242.097,-0.0,-0.0,233.01,247.151
2015-11-13 01:00,-0.0,253.81,250.371,241.061,251.447,249.753,239.765,-0.0,-0.0,232.86,246.032
2015-11-13 02:00,-0.00148287,253.81,251.721,241.5,253.069,251.552,241.664,-0.0,-0.0,233.456,246.929
2015-11-13 03:00,-0.0,257.103,256.469,244.765,257.55,255.614,244.932,-0.0,-0.0,234.041,249.303
2015-11-13 04:00,-0.0,253.81,250.954,241.354,251.447,248.941,239.173,-0.0,0.00149021,230.916,244.764
2015-11-13 05:00,-0.0,252.585,249.385,240.32,249.368,247.293,238.727,-0.0,-0.0,229.517,242.848
2015-11-13 06:00,-0.0020912,252.585,250.76,240.913,251.856,250.156,240.646,-0.0,-0.0,232.175,245.23
2015-11-13 07:00,-0.0,256.062,253.411,241.936,254.657,252.927,241.953,-0.0,-0.0,230.916,245.69
2015-11-13 08:00,-0.0,270.434,265.696,249.029,267.016,264.106,249.572,-0.0,-0.0,233.456,250.442
2015-11-13 09:00,0.933481,268.986,259.373,245.723,260.706,259.502,247.279,0.802174,1.01273,233.085,249.513
2015-11-13 10:00,0.54393,285.665,265.545,248.512,266.338,263.586,248.903,0.47909,0.578613,232.328,249.825
2015-11-13 11:00,0.393312,294.933,283.38,259.244,284.501,279.959,256.41,0.197614,0.405799,232.405,251.452
2015-11-13 12:00,0.294245,297.749,289.699,262.995,290.5,286.06,259.977,0.123214,0.309973,232.097,252.439
2015-11-13 13:00,0.261111,298.918,288.412,262.155,288.763,283.629,257.9,0.107157,0.267641,232.097,250.95
2015-11-13 14:00,0.245742,302.596,292.108,264.747,293.377,287.748,260.942,0.0948552,0.242011,233.01,253.117
2015-11-13 15:00,0.215513,303.428,292.725,265.153,293.635,287.048,259.005,0.0828532,0.217573,231.865,251.85
2015-11-13 16:00,0.211142,302.932,291.798,264.543,292.47,286.343,258.392,0.0924341,0.218005,231.473,251.652
2015-11-13 17:00,0.206002,301.826,290.651,264.236,290.897,285.208,258.27,0.0972737,0.218637,231.236,250.238
2015-11-13 18:00,0.293024,293.702,271.023,252.656,267.016,261.299,241.953,0.204085,0.327635,223.952,238.165
2015-11-13 19:00,0.564953,275.707,220.379,225.701,217.427,213.694,211.358,0.606855,0.729967,210.966,215.332
2015-11-13 20:00,0.686273,296.635,255.587,244.488,250.415,240.35,227.601,0.55157,0.675249,222.585,233.928
2015-11-13 21:00,0.969933,276.155,244.598,238.04,240.631,237.345,230.44,0.761874,1.0146,221.93,230.863
2015-11-13 22:00,-0.0,245.913,240.277,235.337,238.446,236.872,231.743,-0.0,0.00867716,224.359,232.347
2015-11-13 23:00,-0.0,240.898,235.275,232.146,233.577,232.474,228.278,-0.00277659,-0.00331067,223.538,229.664
2015-11-14 00:00,-0.0,269.283,259.706,245.995,259.051,254.089,241.229,-0.0,-0.0,225.254,239.255
2015-11-14 01:00,-0.0,230.231,228.463,229.665,227.708,225.874,224.304,-0.0,-0.0,220.686,225.011
2015-11-14 02:00,-0.0,232.213,217.685,224.908,215.628,214.03,212.827,-0.0,-0.0,210.278,214.233
2015-11-14 03:00,-0.0,230.231,220.006,225.701,218.478,215.356,215.274,-0.0,-0.0,211.964,216.392
2015-11-14 04:00,-0.0,240.898,225.937,228.378,223.443,221.875,219.172,-0.0,-0.0,214.879,219.372
2015-11-14 05:00,-0.00166842,281.705,273.065,253.501,272.264,267.673,248.094,-0.0,-0.0,227.055,242.848
2015-11-14 06:00,-0.00209707,235.601,223.94,227.438,222.162,220.081,219.172,-0.0,-0.0,215.873,219.843
2015-11-14 07:00,-0.00315986,252.585,240.514,234.845,239.669,237.815,230.768,-0.0,-0.0,222.906,231.364
2015-11-14 08:00,-0.00774363,275.932,270.329,251.676,269.679,266.835,250.765,-0.0,-0.0,229.601,246.595
2015-11-14 09:00,0.414511,274.314,265.846,249.029,264.965,262.712,248.364,0.456256,0.585863,227.238,242.354
2015-11-14 10:00,0.663406,290.041,269.201,251.429,270.657,267.673,252.205,0.506152,0.684468,231.552,249.303
2015-11-14 11:00,0.226779,282.923,272.662,253.381,272.423,269.494,252.982,0.190184,0.29654,231.236,245.69
2015-11-14 12:00,0.294155,294.602,284.755,260.553,283.797,278.458,256.785,0.147541,0.321176,231.473,248.987
2015-11-14 13:00,0.307664,300.947,279.458,258.246,277.226,269.657,251.159,0.190581,0.310605,230.835,248.348
2015-11-14 14:00,0.262532,300.134,283.032,260.119,280.785,270.148,249.572,0.136634,0.266258,230.916,247.59
2015-11-14 15:00,0.379611,294.602,260.692,246.667,259.974,255.045,243.667,0.297753,0.375011,231.943,246.258
2015-11-14 16:00,0.475966,283.428,255.23,243.368,255.049,252.341,242.384,0.644596,0.709275,232.251,245.345
2015-11-14 17:00,0.349593,293.124,264.021,247.991,263.217,253.896,237.07,0.407698,0.50876,230.996,243.214
2015-11-14 18:00,0.42941,268.686,222.552,226.866,221.838,219.777,218.41,0.712511,0.809862,219.382,221.658
2015-11-14 19:00,0.439416,268.382,223.252,226.287,221.511,220.384,219.927,0.615934,0.70257,216.424,218.895
2015-11-14 20:00,0.758929,278.482,220.379,225.107,218.478,217.29,217.055,0.891988,1.05656,216.695,218.41
2015-11-14 21:00,1.0423,268.686,224.279,227.058,222.806,221.579,219.551,0.843719,1.14477,219.382,222.313
2015-11-14 22:00,-0.00873935,225.382,217.285,223.694,215.993,214.364,214.062,-0.0,-0.0,214.588,216.131
2015-11-14 23:00,-0.0,246.775,231.997,230.743,229.729,226.974,222.511,-0.00279544,-0.00333314,219.137,225.011
2015-11-15 00:00,-0.00214843,225.382,221.841,225.107,220.519,218.857,218.601,-0.0,-0.0,216.963,219.372
2015-11-15 01:00,-0.0,242.013,230.265,229.484,229.444,227.787,224.481,-0.0,-0.0,220.916,225.604
2015-11-15 02:00,-0.0,267.761,257.339,244.07,256.021,252.341,240.207,-0.0,-0.0,226.592,238.303
2015-11-15 03:00,-0.0,273.088,269.201,251.799,270.169,265.99,250.896,-0.0,-0.0,228.312,247.151
2015-11-15 06:00,-0.00207945,268.073,263.556,247.2,264.965,262.185,248.634,-0.0,-0.0,230.018,247.371
2015-11-15 07:00,-0.0,257.103,256.644,244.07,258.491,256.555,244.932,-0.0,-0.0,228.048,245.46
2015-11-15 08:00,-0.00770349,258.576,252.29,241.354,252.667,249.348,238.128,-0.0,-0.0,223.329,239.656
2015-11-15 09:00,0.596823,264.009,250.175,240.766,249.998,246.876,236.0,0.615964,0.702912,223.434,239.121
2015-11-15 10:00,0.331221,270.434,249.185,238.963,245.914,241.921,230.276,0.39451,0.466421,220.686,232.022
2015-11-15 11:00,0.326643,256.589,222.904,226.092,220.852,219.472,218.025,0.522683,0.59887,215.452,219.608
2015-11-15 12:00,0.270286,261.666,234.477,232.146,231.683,229.909,224.834,0.432227,0.502143,219.624,227.136
2015-11-15 13:00,0.272597,265.095,222.552,226.866,220.184,216.008,215.873,0.510915,0.569683,214.879,219.134
2015-11-15 14:00,0.300045,261.251,227.219,228.378,225.003,222.753,218.982,0.554795,0.596893,217.36,222.743
2015-11-15 15:00,0.336125,269.865,230.265,228.192,227.708,222.462,220.115,0.414778,0.486295,217.752,221.436
2015-11-15 16:00,0.286745,271.798,236.06,231.973,231.408,227.246,220.86,0.307639,0.399119,216.287,221.658
2015-11-15 17:00,0.354506,280.239,247.973,238.503,244.122,239.208,228.782,0.384707,0.444885,220.454,230.694
2015-11-15 18:00,0.293529,279.278,251.721,239.57,248.307,243.024,231.094,0.30357,0.381414,219.26,230.011
2015-11-15 19:00,0.570257,268.073,230.559,229.665,228.871,227.517,225.535,0.683737,0.791932,221.819,225.21
2015-11-15 20:00,0.562494,271.798,250.566,239.721,249.579,247.293,238.876,0.629333,0.725849,228.575,240.316
2015-11-15 21:00,0.810595,289.381,275.565,253.98,275.242,270.798,251.028,0.602904,0.800593,227.959,244.998
2015-11-15 22:00,-0.0,281.526,275.306,254.69,275.396,270.311,252.075,-0.0,-0.0,228.748,246.371
2015-11-15 23:00,-0.00328749,287.01,283.726,258.469,285.061,281.735,258.638,-0.0,-0.0,230.266,248.882
2015-11-16 00:00,-0.0,287.155,284.755,259.024,290.499664307,283.629,259.492,-0.0,-0.0,230.674,249.513
2015-11-16 01:00,-0.0,287.01,284.528,258.58,290.764434814,283.484,259.856,-0.0,-0.0,230.266,249.198
2015-11-16 02:00,0.00148011,286.421,283.956,258.691,285.895,282.467,259.005,-0.0,-0.00166742,230.593,249.303
2015-11-16 03:00,-0.0,284.249,281.978,257.346,283.797,280.702,257.653,-0.0,-0.0,231.236,249.093
2015-11-16 04:00,-0.0,271.531,269.343,250.303,271.464,269.494,253.497,-0.0,-0.0,230.43,248.241
2015-11-16 05:00,-0.0,275.932,271.437,251.552,274.312,271.444,252.982,-0.0,-0.0,229.007,247.481
2015-11-16 06:00,-0.0,280.799,278.101,254.69,279.613,275.551,254.646,-0.0,-0.0,230.266,247.808
2015-11-16 07:00,-0.00314454,268.382,268.054,249.414,270.657,269.165,252.982,-0.0,-0.0,230.996,248.669
2015-11-16 08:00,-0.0,277.026,274.392,253.02,277.075,273.99,254.519,-0.0,-0.0,228.224,248.241
2015-11-16 09:00,0.76824,283.093,277.852,254.926,279.613,276.323,254.9,0.718489,0.759176,227.055,246.595
2015-11-16 10:00,0.410009,288.841,279.336,255.858,279.466,274.304,251.422,0.287593,0.437585,226.405,245.23
2015-11-16 11:00,0.48874,296.114,283.495,258.469,285.34,281.735,258.147,0.34132,0.459226,227.87,248.025
2015-11-16 12:00,0.393521,299.013,287.978,260.876,289.701,286.06,260.822,0.230906,0.375665,228.048,249.617
2015-11-16 13:00,0.277831,296.427,284.755,258.913,286.033,281.882,258.023,0.20668,0.29074,227.51,248.882
2015-11-16 14:00,0.291651,297.749,284.185,258.691,285.34,281.735,258.76,0.197429,0.300397,227.691,248.348
2015-11-16 15:00,0.242797,299.108,288.087,261.305,289.835,286.06,261.062,0.148811,0.251485,229.852,250.238
2015-11-16 16:00,0.232098,299.765,289.165,261.731,290.367,286.06,261.182,0.141451,0.249464,230.511,250.442
2015-11-16 17:00,0.209629,297.146,287.978,261.198,289.568,285.35,262.61,0.143962,0.236158,231.709,251.252
2015-11-16 18:00,0.266703,296.531,286.105,259.793,287.134,283.773,260.461,0.217366,0.298707,230.916,250.646
2015-11-16 19:00,0.246104,298.144,290.756,262.89,292.6,288.584,263.083,0.171496,0.281908,232.251,252.342
2015-11-16 20:00,0.301802,296.943,290.44,262.89,292.34,288.445,262.847,0.2812,0.374376,232.784,252.828
2015-11-16 21:00,0.141538,293.007,289.379,261.731,291.16,287.748,262.61,0.35469,0.318899,234.615,253.5
2015-11-16 22:00,-0.00894701,290.429,287.978,260.876,289.968,286.626,262.136,-0.0,-0.0,233.085,252.537
2015-11-16 23:00,-0.00331036,288.841,285.77,259.354,287.951,284.492,260.581,-0.00326799,-0.0,232.097,251.152
2015-11-17 00:00,-0.00214436,280.799,275.046,253.741,274.156,266.498,246.869,-0.0,-0.0,227.42,245.23
2015-11-17 01:00,-0.0,269.283,259.206,245.04,255.827,248.941,236.46,-0.0,-0.0,223.013,237.185
2015-11-17 02:00,-0.00148465,279.667,272.662,251.429,272.423,267.171,248.229,-0.0,-0.0,227.055,244.647
2015-11-17 03:00,-0.0,267.123,261.501,245.587,261.791,259.139,244.231,-0.0,-0.0,226.216,242.105
2015-11-17 04:00,0.00147495,218.393,207.178,220.077,205.497,204.559,206.515,-0.0,-0.0,205.233,206.239
2015-11-17 05:00,-0.00166235,227.984,211.184,221.814,211.028,208.766,208.982,-0.0,-0.0,208.838,208.711
2015-11-17 06:00,-0.0,232.213,221.481,225.107,217.78,214.697,213.653,-0.0,-0.0,212.448,216.392
2015-11-17 07:00,-0.00315352,237.078,227.845,228.564,225.003,220.685,217.832,-0.0,-0.0,217.491,222.956
2015-11-17 08:00,0.00778414,254.396,243.496,236.943,241.344,236.157,226.918,-0.0,-0.0,219.26,230.863
2015-11-17 09:00,0.576406,273.586,258.025,244.626,256.789,249.348,234.291,0.595494,0.694654,221.371,235.74
2015-11-17 10:00,0.420469,289.514,278.35,255.16,277.528,270.635,249.838,0.255438,0.457485,227.238,245.345
2015-11-17 11:00,0.332875,292.534,278.226,254.808,278.427,272.724,252.205,0.21697,0.353366,228.4,246.707
2015-11-17 12:00,0.488318,295.368,267.618,249.286,269.679,267.171,252.335,0.399382,0.491365,230.101,248.455
2015-11-17 13:00,0.306778,299.013,284.071,258.358,284.641,279.361,257.406,0.176771,0.312969,230.348,249.721
2015-11-17 14:00,0.445139,292.174,262.3,246.667,264.792,263.237,249.838,0.374817,0.443816,230.266,246.929
2015-11-17 15:00,0.409508,286.569,260.854,246.399,262.15,260.764,247.142,0.384962,0.448373,229.852,246.258
2015-11-17 16:00,0.209473,295.69,276.971,254.926,275.703,268.007,247.551,0.130851,0.237316,227.329,243.336
2015-11-17 17:00,0.280965,271.261,244.16,236.625,240.87,238.978,230.931,0.339006,0.40884,220.801,228.603
2015-11-17 18:00,0.272469,293.007,277.727,255.626,277.678,271.605,251.553,0.236887,0.320903,230.266,246.707
2015-11-17 19:00,0.429001,290.558,259.706,245.723,259.974,258.04,246.457,0.59047,0.657555,233.382,246.707
2015-11-17 20:00,0.590276,293.472,266.442,246.801,265.31,258.408,244.652,0.735892,0.870168,233.603,244.53
2015-11-17 21:00,1.37738,287.3,230.265,230.921,225.615,214.697,212.619,1.03299,1.29909,216.963,222.096
2015-11-17 22:00,-0.0,213.142,202.034,217.342,200.227,199.543,202.986,-0.0,-0.0,201.207,200.502
2015-11-17 23:00,0.00666732,222.276,209.237,220.954,207.269,205.74,205.593,-0.0,-0.0,206.498,207.678
2015-11-18 00:00,-0.00215436,246.775,234.477,231.45,231.683,226.151,222.873,-0.0,-0.0,218.517,226.57
2015-11-18 01:00,-0.00169247,242.013,227.845,228.749,226.221,223.905,221.598,-0.0,-0.0,216.15,222.096
2015-11-18 02:00,0.00148918,251.944,234.477,231.274,232.502,230.17,225.185,-0.0,-0.0,218.891,225.994
2015-11-18 03:00,-0.0,261.666,246.313,236.625,244.8,241.921,233.026,-0.0,-0.0,223.013,231.53
2015-11-18 04:00,-0.00147859,259.045,247.357,237.258,246.575,243.896,235.846,-0.0,-0.0,225.546,234.996
2015-11-18 05:00,-0.0,279.278,273.333,251.676,274.156,270.635,252.205,-0.0,-0.0,228.921,245.345
2015-11-18 06:00,-0.0,285.357,282.448,256.778,284.501,281.293,258.392,-0.0,-0.0,230.43,249.093
2015-11-18 07:00,-0.0,269.283,263.088,246.934,264.792,261.831,247.687,-0.0,-0.0,229.348,245.114
2015-11-18 08:00,-0.00781897,258.576,255.764,242.225,256.789,255.045,244.231,-0.0,-0.0,228.4,243.937
2015-11-18 09:00,0.773975,270.434,261.501,245.723,263.569,261.654,247.959,0.671852,0.826822,228.575,245.69
2015-11-18 10:00,0.664478,280.05,258.534,244.488,259.974,258.591,246.457,0.638243,0.72429,227.51,244.998
2015-11-18 11:00,0.51208,281.346,257.339,243.226,258.491,257.115,245.905,0.564503,0.624958,227.238,244.412
2015-11-18 12:00,0.551326,280.982,255.764,243.226,257.928,257.301,247.006,0.691415,0.761489,229.433,245.69
2015-11-18 13:00,0.513906,280.799,256.819,244.07,258.865,258.408,248.094,0.715812,0.786293,230.916,246.818
2015-11-18 14:00,0.484961,277.869,255.764,243.368,258.304,258.04,247.551,0.599112,0.67183,232.251,246.929
2015-11-18 15:00,0.381403,277.661,256.992,243.93,258.865,258.591,248.229,0.588762,0.649183,232.557,247.261
2015-11-18 16:00,0.373155,284.888,261.017,246.533,263.569,262.888,250.765,0.383798,0.460036,233.01,248.562
2015-11-18 17:00,0.23784,299.013,280.789,257.685,280.785,276.323,256.285,0.141299,0.240113,234.968,250.849
2015-11-18 18:00,0.198493,299.579,292.827,264.441,293.764,288.999,262.847,0.0727835,0.203546,236.071,253.021
2015-11-18 19:00,0.189272,298.533,291.798,264.031,292.989,288.584,262.61,0.0986192,0.220478,236.542,253.117
2015-11-18 20:00,1.11275,306.176,274.655,254.572,276.315,272.246,255.406,0.830141,1.08572,237.398,252.047
2015-11-18 21:00,0.264768,287.871,280.789,257.459,281.655,276.938,256.285,0.277981,0.320758,238.168,253.309
2015-11-18 22:00,0.00938239,280.05,269.908,251.552,268.024,262.008,244.652,-0.0,-0.0,228.488,242.971
2015-11-18 23:00,-0.0,264.739,244.38,236.625,238.693,234.461,225.535,-0.0028745,-0.0,218.642,226.948
2015-11-19 00:00,-0.00218868,240.898,223.94,227.248,220.519,218.547,217.445,-0.0,-0.0,215.024,218.165
2015-11-19 01:00,-0.0,222.276,214.79,223.283,213.381,211.635,211.57,-0.0,-0.0,212.607,213.952
2015-11-19 02:00,0.0015104,204.719,204.418,218.272,202.701,201.694,205.361,-0.0,-0.0,204.573,203.929
2015-11-19 03:00,-0.0,218.393,210.707,221.6,209.808,208.397,209.856,-0.0,-0.0,209.388,210.353
2015-11-19 04:00,0.00149874,218.393,211.654,221.6,211.428,209.859,211.358,-0.0,-0.0,210.278,210.67
2015-11-19 05:00,-0.0,235.601,231.997,230.743,231.408,230.429,226.746,-0.0,-0.0,223.849,229.137
2015-11-19 06:00,-0.0,233.989,225.937,228.192,225.31,223.619,220.86,-0.0,-0.0,218.264,222.529
2015-11-19 07:00,-0.00320517,237.078,230.265,229.847,228.583,226.974,223.592,-0.0,-0.0,219.982,225.604
2015-11-19 08:00,-0.0,235.601,230.559,230.027,229.444,228.056,225.009,-0.0,-0.0,221.258,226.379
2015-11-19 09:00,0.174787,256.589,253.226,241.936,253.469,252.732,243.949,0.330135,0.366489,229.685,242.848
2015-11-19 10:00,0.624498,281.526,261.34,247.2,263.569,262.712,250.896,0.633284,0.71844,230.511,247.808
2015-11-19 11:00,0.584727,285.97,257.683,244.488,259.974,259.321,248.364,0.504222,0.618635,230.43,246.818
2015-11-19 12:00,0.314848,293.702,280.789,257.798,280.347,275.24,252.723,0.148853,0.33722,228.136,245.69
2015-11-19 13:00,0.323534,294.156,267.033,250.177,265.482,260.584,246.457,0.211934,0.345445,227.601,242.354
2015-11-19 14:00,0.252686,255.521,225.937,228.378,225.31,224.19,221.598,0.396314,0.476189,219.137,223.999
2015-11-19 15:00,9.96921e+36,9.96921e+36,9.96921e+36,9.96921e+36,9.96921e+36,9.96921e+36,9.96921e+36,9.96921e+36,9.96921e+36,9.96921e+36,9.96921e+36
2015-11-19 16:00,9.96921e+36,9.96921e+36,9.96921e+36,9.96921e+36,9.96921e+36,9.96921e+36,9.96921e+36,9.96921e+36,9.96921e+36,9.96921e+36,9.96921e+36
2015-11-19 17:00,9.96921e+36,9.96921e+36,9.96921e+36,9.96921e+36,9.96921e+36,9.96921e+36,9.96921e+36,9.96921e+36,9.96921e+36,9.96921e+36,9.96921e+36
2015-11-19 18:00,9.96921e+36,9.96921e+36,9.96921e+36,9.96921e+36,9.96921e+36,9.96921e+36,9.96921e+36,9.96921e+36,9.96921e+36,9.96921e+36,9.96921e+36
2015-11-19 19:00,9.96921e+36,9.96921e+36,9.96921e+36,9.96921e+36,9.96921e+36,9.96921e+36,9.96921e+36,9.96921e+36,9.96921e+36,9.96921e+36,9.96921e+36
2015-11-19 20:00,9.96921e+36,9.96921e+36,9.96921e+36,9.96921e+36,9.96921e+36,9.96921e+36,9.96921e+36,9.96921e+36,9.96921e+36,9.96921e+36,9.96921e+36
2015-11-19 21:00,-0.0,9.96921e+36,9.96921e+36,9.96921e+36,9.96921e+36,9.96921e+36,9.96921e+36,-0.0,-0.0,9.96921e+36,9.96921e+36
2015-11-19 22:00,-0.0,9.96921e+36,9.96921e+36,9.96921e+36,9.96921e+36,9.96921e+36,9.96921e+36,-0.0,-0.0,9.96921e+36,9.96921e+36
2015-11-19 23:00,-0.0,9.96921e+36,9.96921e+36,9.96921e+36,9.96921e+36,9.96921e+36,9.96921e+36,-0.0,9.96921e+36,9.96921e+36,9.96921e+36
2015-11-20 00:00,9.96921e+36,9.96921e+36,9.96921e+36,9.96921e+36,9.96921e+36,9.96921e+36,9.96921e+36,-0.0,-0.0,9.96921e+36,9.96921e+36
2015-11-20 01:00,-0.0,9.96921e+36,9.96921e+36,9.96921e+36,9.96921e+36,9.96921e+36,9.96921e+36,-0.0,-0.0,9.96921e+36,9.96921e+36
2015-11-20 02:00,9.96921e+36,9.96921e+36,9.96921e+36,9.96921e+36,9.96921e+36,9.96921e+36,9.96921e+36,-0.0,-0.0,9.96921e+36,9.96921e+36
2015-11-20 03:00,-0.0,9.96921e+36,9.96921e+36,9.96921e+36,9.96921e+36,9.96921e+36,9.96921e+36,-0.0,-0.0,9.96921e+36,9.96921e+36
2015-11-20 04:00,9.96921e+36,9.96921e+36,9.96921e+36,9.96921e+36,9.96921e+36,9.96921e+36,9.96921e+36,-0.0,-0.0,9.96921e+36,9.96921e+36
2015-11-20 05:00,9.96921e+36,9.96921e+36,9.96921e+36,9.96921e+36,9.96921e+36,9.96921e+36,9.96921e+36,-0.0,-0.0,9.96921e+36,9.96921e+36
2015-11-20 06:00,9.96921e+36,9.96921e+36,9.96921e+36,9.96921e+36,9.96921e+36,9.96921e+36,9.96921e+36,-0.0,-0.0,9.96921e+36,9.96921e+36
2015-11-20 07:00,-0.0,9.96921e+36,9.96921e+36,9.96921e+36,9.96921e+36,9.96921e+36,9.96921e+36,-0.0,-0.0,9.96921e+36,9.96921e+36
2015-11-20 08:00,-0.0,9.96921e+36,9.96921e+36,9.96921e+36,9.96921e+36,9.96921e+36,9.96921e+36,-0.0,-0.0,9.96921e+36,9.96921e+36
2015-11-20 09:00,9.96921e+36,9.96921e+36,9.96921e+36,9.96921e+36,9.96921e+36,9.96921e+36,9.96921e+36,-0.0,-0.0,9.96921e+36,9.96921e+36
2015-11-20 10:00,9.96921e+36,9.96921e+36,9.96921e+36,9.96921e+36,9.96921e+36,9.96921e+36,9.96921e+36,9.96921e+36,9.96921e+36,9.96921e+36,9.96921e+36
2015-11-20 11:00,0.57199,283.093,267.909,244.21,270.332,269.984,252.594,0.543007,0.603706,234.185,253.213
2015-11-20 12:00,0.284085,288.841,276.08,247.991,278.278,276.477,255.406,0.282463,0.289432,235.178,253.785
2015-11-20 13:00,0.211202,287.01,276.591,248.512,279.17,277.243,255.532,0.263176,0.265521,235.731,252.925
2015-11-20 14:00,0.330836,279.473,268.916,244.21,271.464,270.635,253.111,0.391579,0.433673,237.592,254.256
2015-11-20 15:00,0.0925834,286.717,282.566,250.806,285.061,282.467,257.53,0.132983,0.128519,239.593,256.001
2015-11-20 16:00,0.0291786,289.113,287.978,253.621,291.029,288.999,260.701,0.0624903,0.0450527,244.006,259.304
2015-11-20 17:00,0.179646,285.202,280.549,249.669,282.803,281.293,257.777,0.208319,0.212905,237.268,253.974
2015-11-20 18:00,0.321476,279.667,266.738,243.084,267.016,265.138,246.732,0.348748,0.380331,232.86,244.998
2015-11-20 19:00,0.305814,281.705,273.997,247.2,274.933,272.565,251.944,0.347514,0.377797,233.968,248.562
2015-11-20 20:00,0.136287,287.3,284.869,253.02,287.679,285.208,258.392,0.219249,0.220144,235.038,250.748
2015-11-20 21:00,0.0,279.278,275.176,247.728,276.62,274.617,252.982,0.0,0.0,233.823,246.145
2015-11-20 22:00,0.0,282.408,278.721,251.18,279.76,275.706,253.24,0.0,0.0,236.139,246.818
2015-11-20 23:00,-0.0020747,247.601,246.102,235.01,247.662,247.085,239.322,0.0,0.0,238.294,242.725
2015-11-21 00:00,0.0,260.395,259.871,241.791,260.158,259.321,246.869,0.0,0.0,241.76,247.371
2015-11-21 01:00,0.0,287.3,285.546,256.778,287.815,284.779,259.005,0.0,0.0,244.945,255.275
2015-11-21 02:00,0.0,280.239,276.845,252.29,278.873,276.938,256.785,0.0,0.0,243.793,256.982
2015-11-21 03:00,-0.00116685,277.026,275.565,251.18,277.075,275.551,256.035,0.0,0.0,244.687,257.682
2015-11-21 04:00,0.00119762,285.512,285.546,256.892,287.407,285.777,260.942,0.0,0.0,245.253,260.871
2015-11-21 05:00,0.0,288.43,288.087,258.134,290.367,288.167,261.54,0.0,0.00132016,244.269,260.708
2015-11-21 06:00,0.0,284.41,284.528,256.089,286.997,285.35,260.701,0.0,0.0,242.875,260.789
2015-11-21 07:00,0.00199371,288.841,288.736,258.246,290.764,288.999,262.017,0.0,0.0,242.82,261.033
2015-11-21 08:00,0.00306149,288.012,288.087,257.798,290.5,288.722,262.728,0.0,0.0,242.765,261.834
2015-11-21 09:00,0.0,287.3,287.322,258.022,289.434,287.748,262.373,0.0,0.0,241.073,261.113
2015-11-21 10:00,0.547302,286.717,285.77,257.12,288.087,286.767,261.421,0.71165,0.670934,241.476,261.515
2015-11-21 11:00,0.0438067,289.91,288.951,259.024,291.686,289.689,263.318,0.170619,0.0972959,241.073,262.23
2015-11-21 12:00,0.102317,290.041,287.76,258.469,290.101,288.584,263.318,0.166599,0.129781,240.899,262.151
2015-11-21 13:00,0.0240277,289.91,289.058,259.024,291.423,289.551,262.492,0.0796814,0.0464933,239.774,261.595
2015-11-21 14:00,0.0626102,289.247,287.541,258.358,289.968,288.306,262.492,0.0986611,0.0807667,239.288,261.595
2015-11-21 15:00,0.0315244,288.977,288.195,258.913,290.632,288.861,262.965,0.0688363,0.0485761,239.104,261.755
2015-11-21 16:00,0.00861024,289.647,289.058,259.134,291.555,289.551,262.847,0.0408256,0.0208621,239.349,262.23
2015-11-21 17:00,0.00979482,289.779,289.805,260.011,292.47,290.648,264.255,0.0431249,0.0217546,240.253,263.167
2015-11-21 18:00,0.0126007,289.91,289.911,260.119,292.6,291.057,263.67,0.0576124,0.0330749,238.981,262.072
2015-11-21 19:00,0.0404138,290.171,289.805,260.119,292.6,290.921,264.138,0.116342,0.0693602,238.294,261.675
2015-11-21 20:00,0.151608,289.514,289.486,259.902,292.209,290.648,264.138,0.245063,0.222629,238.919,261.755
2015-11-21 21:00,0.0,289.247,289.486,260.337,292.079,290.375,263.436,0.0,0.0,238.857,261.595
2015-11-21 22:00,-0.00327653,288.977,289.486,260.119,292.079,290.511,263.436,0.0,0.0,238.671,261.033
2015-11-21 23:00,0.0,288.291,288.52,260.119,291.292,289.826,263.436,0.0,0.0,237.657,260.217
2015-11-22 00:00,0.0,288.977,289.272,260.553,291.948,289.964,263.2,0.0,0.0,237.203,259.22
2015-11-22 01:00,-0.00132625,288.841,289.379,260.445,292.209,290.511,263.2,0.0,0.0,236.609,258.372
2015-11-22 02:00,-0.00120516,288.841,288.736,260.228,291.555,289.826,263.318,0.0,0.0,236.475,257.333
2015-11-22 03:00,0.0,287.729,287.432,259.354,289.968,287.888,261.898,0.0,0.00117705,236.207,256.091
2015-11-22 04:00,0.00119628,286.569,284.528,257.798,286.172,283.484,258.76,0.0,0.0,233.085,252.925
2015-11-22 05:00,0.0013056,275.251,263.245,245.859,259.974,255.235,239.173,0.0,0.0,223.952,238.027
2015-11-22 06:00,0.0,288.841,287.869,260.119,290.101,287.748,261.421,0.0,0.0,232.175,253.69
2015-11-22 07:00,-0.00198669,288.705,288.087,260.011,290.632,288.445,261.898,0.0,0.0,231.315,254.068
2015-11-22 08:00,0.0,282.234,275.823,252.656,276.163,272.405,250.896,0.0,0.0,226.963,247.151
2015-11-22 09:00,0.00712495,269.283,255.941,240.469,253.867,250.757,236.918,0.0,0.0,222.799,235.74
2015-11-22 10:00,0.471671,274.314,261.662,244.07,259.606,256.18,240.5,0.642454,0.703918,224.56,238.986
2015-11-22 11:00,0.0531465,288.568,286.55,259.244,289.032,286.626,260.701,0.179996,0.11178,228.4,251.751
2015-11-22 12:00,0.0977099,280.613,273.466,250.555,274.156,271.605,251.291,0.185585,0.157297,226.871,245.23
2015-11-22 13:00,0.0120727,289.514,288.303,260.011,291.16,288.999,262.017,0.0732571,0.0385956,228.921,252.146
2015-11-22 14:00,0.0349232,289.647,287.869,259.902,290.764,288.584,262.255,0.0739234,0.0493598,230.511,252.244
2015-11-22 15:00,0.0249748,289.514,288.195,259.902,290.764,288.584,261.898,0.0592092,0.0369799,231.394,252.828
2015-11-22 16:00,0.0708305,289.381,285.658,258.691,288.493,286.06,260.701,0.0906895,0.0732517,231.076,252.439
2015-11-22 17:00,0.0412658,288.841,285.658,258.469,287.407,284.636,259.37,0.0748708,0.0555471,229.093,250.95
2015-11-22 18:00,0.0910199,289.514,284.414,257.685,285.895,283.194,257.406,0.126303,0.104653,229.178,250.544
2015-11-22 19:00,0.142023,289.647,286.105,258.913,288.222,285.919,261.182,0.18553,0.155671,230.996,252.925
2015-11-22 20:00,0.71018,279.859,274.524,251.799,276.772,275.396,255.406,0.471615,0.646678,230.101,251.352
2015-11-22 21:00,0.0,275.251,272.796,250.931,274.933,273.042,253.24,0.0,0.0,228.136,249.198
2015-11-22 22:00,0.0,275.707,275.306,252.412,277.978,277.396,257.53,0.0,0.0,229.601,251.949
2015-11-23 00:00,0.0,278.279,278.101,254.217,279.76,278.004,255.784,0.0,0.0,228.312,250.748
2015-11-23 01:00,0.0,277.661,277.098,253.86,278.725,276.477,254.773,0.0,0.0,226.592,248.987
2015-11-23 02:00,0.0,276.811,273.732,251.799,274.623,272.405,251.944,0.0,0.0,225.254,245.804
2015-11-23 03:00,-0.001165,274.073,270.189,248.9,270.332,268.007,248.903,0.0,0.0,225.254,244.056
2015-11-23 04:00,-0.00119497,227.984,226.902,226.287,225.919,224.756,223.77,0.0,0.0,218.891,222.313
2015-11-23 05:00,0.00130357,242.013,230.559,227.248,226.221,224.474,221.23,0.0,0.0,215.873,219.372
2015-11-23 06:00,-0.00152911,222.276,214.79,220.298,214.141,213.694,214.265,0.0,0.0,212.922,213.668
2015-11-23 07:00,-0.00197974,213.142,214.358,220.298,214.141,213.356,212.619,0.0,0.0,212.922,214.233
2015-11-23 08:00,0.0,225.382,214.358,219.632,213.381,212.673,212.827,0.0,0.00305287,212.607,212.8
2015-11-23 09:00,0.0,218.393,216.88,220.736,215.628,215.356,215.074,0.0,0.0,214.588,215.332
2015-11-23 10:00,0.711607,239.711,221.117,223.489,219.847,218.547,218.41,0.931161,1.13204,216.695,218.653
2015-11-23 11:00,0.461219,245.913,228.769,226.866,228.001,226.701,223.233,0.716574,0.81372,220.916,225.011
2015-11-23 12:00,0.332273,251.944,232.839,229.118,231.957,230.429,226.056,0.544664,0.603809,221.93,226.948
2015-11-23 13:00,0.390225,268.986,256.992,241.646,257.17,255.235,242.814,0.708739,0.730756,228.488,241.093
2015-11-23 14:00,0.276985,273.088,261.822,244.349,262.15,260.225,246.044,0.561074,0.557497,227.87,242.23
2015-11-23 15:00,0.352517,253.206,211.654,219.632,211.428,211.635,213.447,0.779432,0.868634,211.636,211.906
2015-11-23 16:00,0.298068,268.073,244.38,234.183,242.283,240.35,232.227,0.657346,0.738298,224.258,234.845
2015-11-23 17:00,0.295634,263.636,243.273,234.681,242.978,240.576,232.867,0.625783,0.690438,224.56,235.887
2015-11-23 18:00,0.29419,266.466,252.101,238.657,252.262,250.957,241.519,0.5626,0.624728,226.499,240.185
2015-11-23 19:00,0.56209,256.589,237.086,231.098,236.695,235.193,229.946,0.713881,0.84297,224.054,231.695
2015-11-23 20:00,0.154611,261.666,252.479,239.115,251.447,249.144,238.876,0.202313,0.255418,226.499,238.578
2015-11-23 21:00,0.00855299,275.932,264.329,246.667,263.217,259.502,242.384,0.0,0.0,224.661,238.165
2015-11-23 22:00,0.0,283.594,279.213,254.808,280.931,277.243,254.392,0.0,0.0,227.691,247.151
2015-11-23 23:00,0.0,270.151,266.59,247.859,267.857,266.16,249.971,0.0,0.0,228.136,245.46
2015-11-24 00:00,0.0,274.314,273.466,251.799,275.703399658,274.304,255.658,0.0,0.0,228.835,247.59
2015-11-24 01:00,0.0,270.434,268.199,248.382,270.494598389,269.165,252.853,0.0,0.0,228.748,247.699
2015-11-24 02:00,0.00120386,282.059,276.971,254.217,278.427,275.396,254.264,0.0,0.0,229.263,247.481
2015-11-24 03:00,0.0,264.739,253.411,238.04,250.83,246.876,235.382,0.0,0.0,226.592,237.327
2015-11-24 04:00,-0.0011937,275.932,271.023,250.931,271.945,268.67,250.765,0.0,0.00120511,228.048,245.114
2015-11-24 05:00,-0.00130157,250.598,248.583,237.101,246.793640137,245.399,236.613,0.0,0.0,225.058,234.389
2015-11-24 06:00,0.0,269.576,256.644,241.646,256.213378906,251.552,237.07,0.0,0.0,224.661,238.165
2015-11-24 07:00,0.0,278.684,268.487,248.771,267.016326904,262.008,242.814,0.0,0.0,224.86,240.053
2015-11-24 08:00,-0.00300558,275.707,264.021,246.13,0.0,258.408,241.229,0.0,0.0,224.76,238.714
2015-11-24 09:00,0.0,266.797,255.05,241.354,253.069091797,249.55,236.613,0.0,0.0,222.906,234.694
2015-11-24 10:00,0.704623,269.865,258.025,242.513,256.597625732,253.51,239.025,0.846792,0.963777,224.359,236.033
2015-11-24 11:00,0.172049,281.883,274.129,251.799,273.529,269.821,249.572,0.299014,0.269682,227.87,243.577
2015-11-24 12:00,0.0882952,288.977,284.414,259.024,286.033,282.904,258.27,0.190297,0.143163,229.769,248.348
2015-11-24 13:00,0.0406324,289.113,286.328,259.902,288.222,284.922,259.127,0.111811,0.0779397,230.184,248.987
2015-11-24 14:00,0.0281585,289.247,286.661,260.011,288.763,285.777,259.249,0.0789759,0.053302,230.018,249.721
2015-11-24 15:00,0.0502889,289.779,286.992,260.445,288.763,285.919,259.977,0.0879978,0.0643083,230.184,250.238
2015-11-24 16:00,0.0295492,289.514,287.432,260.984,289.701,286.767,260.219,0.0691708,0.0473797,230.348,249.928
2015-11-24 17:00,0.0395304,289.91,287.322,260.553,289.568,286.767,260.34,0.0803288,0.057867,229.935,250.032
2015-11-24 18:00,0.0661305,290.041,287.541,260.769,289.835,286.767,259.977,0.114139,0.0821694,230.184,250.34
2015-11-24 19:00,0.196189,291.065,287.651,260.876,290.101,287.469,260.822,0.238787,0.202191,230.593,250.95
2015-11-24 20:00,0.340153,288.841,287.322,260.769,289.968,287.469,260.461,0.336009,0.343405,231.473,251.352
2015-11-24 21:00,-0.00852537,287.729,287.322,260.228,289.835,287.329,260.942,0.0,0.0,232.405,252.146
2015-11-24 22:00,0.00326686,286.864,286.55,260.337,289.166,286.767,260.219,0.0,0.0,233.382,252.342
2015-11-24 23:00,0.0,288.841,288.195,261.198,290.764,288.445,261.66,0.0,-0.00209016,233.896,252.439
2015-11-25 00:00,0.00157178,288.841,288.52,261.412,291.423,289.137,262.136,0.0,0.0,234.827,252.634
2015-11-25 01:00,-0.00132474,288.977,288.843,261.625,291.817,289.689,262.255,0.0,0.0,235.038,252.537
2015-11-25 02:00,0.0,288.841,288.843,261.519,291.817,289.964,262.373,0.0,0.0,234.401,252.828
2015-11-25 03:00,0.0,288.152,289.379,261.625,292.079,290.648,263.083,0.0,0.0,233.382,256.628
2015-11-25 04:00,0.00119245,289.113,290.229,262.049,292.86,291.735,263.905,0.0,0.0,233.75,258.286
2015-11-25 05:00,0.0,288.568,289.805,261.731,292.47,291.193,263.67,0.0,0.0,234.041,258.798
2015-11-25 06:00,0.0,289.647,290.86,262.576,293.892,292.814,264.721,0.0,0.0,234.401,259.135
2015-11-25 07:00,0.0,286.271,287.541,260.337,290.101,288.999,262.373,0.0,0.0,234.113,258.798
2015-11-25 08:00,0.0,288.568,289.486,261.625,291.817,290.238,263.553,0.0,0.0,234.756,259.471
2015-11-25 09:00,-0.00680065,286.569,287.322,260.337,289.835,288.445,262.965,0.0,0.0,234.543,259.135
2015-11-25 10:00,0.480446,289.113,287.869,260.228,289.835,288.306,262.136,0.691547,0.654802,235.247,259.804
2015-11-25 11:00,0.375403,291.19,288.087,260.553,290.5,289.276,263.318,0.40313,0.383613,235.317,260.381
2015-11-25 12:00,0.0403962,290.301,290.44,262.155,292.73,291.193,263.553,0.114011,0.0652517,235.662,261.033
2015-11-25 13:00,0.0673629,291.563,288.951,261.305,291.292,289.826,263.318,0.117529,0.0865542,235.455,261.435
2015-11-25 14:00,0.0141333,289.91,290.44,262.366,292.86,291.464,263.787,0.0583372,0.0321038,235.455,262.072
2015-11-25 15:00,0.00672714,290.171,290.86,262.261,293.248,292.006,264.488,0.0441429,0.0237701,236.675,263.012
2015-11-25 16:00,0.00697304,289.91,290.965,262.049,293.506,292.276,264.255,0.0413284,0.0211191,236.408,262.701
2015-11-25 17:00,0.00792762,290.301,290.965,262.155,293.635,292.276,264.255,0.045308,0.0240102,239.471,264.389
2015-11-25 18:00,0.0280545,290.685,290.965,262.049,293.506,292.276,264.372,0.071261,0.0463461,241.533,264.839
2015-11-25 19:00,0.135308,291.065,290.017,261.519,292.34,291.329,263.905,0.183998,0.157298,242.266,264.69
2015-11-25 20:00,0.0713849,289.647,290.44,262.049,292.989,291.6,263.905,0.217589,0.187375,242.266,264.389
2015-11-25 21:00,0.0,288.977,289.805,261.731,292.34,291.057,263.905,0.0,0.0,242.544,264.314
2015-11-25 22:00,0.00326514,288.152,289.272,261.198,291.817,290.511,264.022,0.0,0.0,241.704,263.476
2015-11-25 23:00,-0.00206996,288.705,289.379,261.944,291.817,290.375,263.553,0.0,0.0,241.647,263.399
2015-11-26 00:00,0.0,288.291,288.951,261.519,291.16,290.101,263.787,0.0,0.0,240.724,263.167
2015-11-26 01:00,0.0,287.729,287.541,260.445,289.835,288.306,262.136,0.0,0.0,240.899,262.623
2015-11-26 02:00,-0.00120277,288.841,288.736,261.198,290.632,288.722,262.492,0.0,0.0,240.782,262.466
2015-11-26 03:00,0.0,278.482,279.702,255.51,281.943,281.735,260.461,0.0,0.00117364,240.43,261.993
2015-11-26 04:00,0.0,280.05,280.549,256.089,282.946,282.758,260.942,0.0,0.0,240.074,262.072
2015-11-26 05:00,0.0,277.24,278.968,255.393,281.943,281.735,260.942,0.0,0.0,239.288,261.914
2015-11-26 06:00,0.0,288.012,288.195,260.553,290.367,288.584,262.728,0.0,0.0,239.41,261.675
2015-11-26 07:00,0.0,288.977,289.165,261.305,291.423,289.551,263.436,0.0,0.0,238.981,261.355
2015-11-26 08:00,0.0,288.43,288.951,261.412,291.029,289.137,262.728,0.0,0.0,238.919,261.435
2015-11-26 09:00,0.0,287.444,286.992,260.011,288.897,287.048,262.373,0.0,0.0,239.41,261.515
2015-11-26 10:00,0.203696,283.261,283.38,257.685,285.201,284.492,261.062,0.646759,0.462697,239.349,260.952
2015-11-26 11:00,0.277756,283.093,280.789,256.549,282.66,282.321,259.856,0.454673,0.439311,239.288,260.789
2015-11-26 12:00,0.265635,289.514,284.755,259.134,286.86,285.635,261.421,0.335075,0.311959,239.774,261.194
2015-11-26 13:00,0.0328146,289.779,288.843,261.519,290.632,288.445,262.61,0.0902983,0.0579746,239.288,261.033
2015-11-26 14:00,0.0141865,289.514,288.843,261.731,290.632,288.584,262.61,0.0600584,0.0304345,239.166,260.789
2015-11-26 15:00,0.111352,289.514,287.432,260.876,289.835,288.027,262.255,0.14285,0.129449,239.593,261.355
2015-11-26 16:00,0.0472005,290.429,288.843,261.731,290.897,289.137,262.847,0.0740085,0.0547112,239.288,260.789
2015-11-26 17:00,0.0377538,290.171,289.272,262.155,291.555,289.689,262.965,0.0689794,0.0461389,239.043,261.033
2015-11-26 18:00,0.140628,290.558,288.412,261.305,290.5,288.861,262.136,0.171028,0.152298,238.919,261.033
2015-11-26 19:00,0.300175,290.171,286.992,260.228,288.763,287.048,262.136,0.320308,0.31965,239.774,261.113
2015-11-26 21:00,0.0,286.569,286.772,259.902,288.493,287.329,262.373,0.0,0.0,240.43,261.914
2015-11-26 22:00,0.0,286.717,286.992,260.228,289.032,287.748,262.373,0.0,0.0,239.41,262.151
2015-11-26 23:00,0.0,289.113,289.379,261.412,291.029,289.137,262.492,0.0,0.0,240.193,262.623
2015-11-27 00:00,0.0,287.444,286.882,260.337,289.166,287.329,262.373,0.0,0.0,240.548,262.309
2015-11-27 01:00,0.0,274.551,277.098,254.572,279.318,279.661,259.249,0.0,0.0,241.015,262.072
2015-11-27 02:00,0.0,287.155,288.195,261.091,290.5,289.551,262.965,0.0,0.0,241.304,262.779
2015-11-27 03:00,0.0,288.152,289.272,261.412,291.817,290.511,263.318,0.0,-0.00117288,241.304,262.779
2015-11-27 04:00,0.0,287.155,287.76,260.445,289.835,288.445,261.898,0.0,0.0,241.015,262.701
2015-11-27 05:00,0.0,286.864,287.541,260.445,289.568,288.027,262.492,0.0,0.0,240.957,262.701
2015-11-27 06:00,-0.00151552,285.357,284.414,259.134,286.447,284.922,261.54,0.0,0.00153001,240.43,261.914
2015-11-27 07:00,0.0,282.059,281.267,257.006,283.372,282.758,260.098,0.0,0.0,240.074,261.755
2015-11-27 08:00,0.0,275.251,276.718,254.217,278.873,278.609,259.127,0.0,0.0,240.489,261.113
2015-11-27 09:00,0.0,284.57,284.869,259.024,286.172,284.779,260.701,0.0,0.0,240.43,261.595
2015-11-27 10:00,0.9476,276.811,277.35,254.572,279.613,279.361,259.005,1.32958,1.47599,239.954,261.515
2015-11-27 11:00,0.552373,284.087,281.267,257.12,283.656,283.339,261.301,0.614343,0.637994,240.899,262.779
2015-11-27 12:00,0.120035,290.939,287.76,261.198,289.701,288.306,262.492,0.175548,0.132199,240.489,263.244
2015-11-27 13:00,0.0432695,290.301,288.951,261.944,290.897,288.999,263.318,0.101186,0.0707251,240.43,263.167
2015-11-27 14:00,0.0925528,290.301,288.951,261.731,291.16,290.101,263.905,0.120561,0.0988282,241.189,263.706
2015-11-27 15:00,0.0473866,289.647,288.52,261.519,290.632,289.276,263.318,0.0859761,0.0632166,241.361,264.086
2015-11-27 16:00,0.0333052,289.91,287.978,261.198,290.367,288.861,263.318,0.0608514,0.0424718,241.419,264.086
2015-11-27 17:00,0.0338627,290.558,289.699,261.944,291.948,290.238,264.255,0.0657758,0.0442412,241.073,264.162
2015-11-27 18:00,0.189654,289.647,287.432,260.876,289.701,288.584,263.318,0.21266,0.201817,240.724,263.706
2015-11-27 19:00,0.0948175,291.19,290.335,262.366,292.73,291.193,264.138,0.150092,0.112372,240.782,263.706
2015-11-27 20:00,0.288832,290.558,290.335,262.681,292.989,291.6,264.138,0.293464,0.306173,239.714,263.244
2015-11-27 21:00,0.0,288.977,290.229,262.576,293.248,292.276,264.255,0.0,0.0,239.471,263.552
2015-11-27 22:00,0.0,288.152,289.699,262.261,292.209,291.329,264.255,0.0,0.0,238.546,263.012
2015-11-27 23:00,0.0,287.155,287.869,261.305,290.234,288.722,263.083,0.0,0.0,238.857,262.935
2015-11-28 00:00,0.0,284.41,284.982,259.793,287.27,286.202,262.492,0.0,0.0,239.166,262.072
2015-11-28 01:00,0.00132396,288.291,288.52,261.412,290.632,288.861,263.083,0.0,0.0,236.675,261.113
2015-11-28 02:00,0.0,289.247,289.593,262.576,291.817,289.964,263.553,0.0,0.0,236.609,260.789
2015-11-28 03:00,-0.00116106,280.613,281.267,257.006,283.23,282.321,260.461,0.0,0.0,236.274,259.804
2015-11-28 04:00,0.0,288.705,289.165,262.366,291.292,289.551,262.965,0.0,0.0,235.867,259.97
2015-11-28 05:00,0.0,288.152,288.303,261.731,290.764,288.861,263.67,-0.00109548,0.0,235.731,260.135
2015-11-28 06:00,0.0,282.408,280.789,257.685,282.66,281.293,259.005,0.0,0.0,234.686,257.942
2015-11-28 07:00,-0.00194597,287.01,286.882,261.091,288.897,287.469,262.728,0.0,0.0,236.071,260.299
2015-11-28 08:00,-0.00293477,283.261,282.916,258.246,284.641,283.339,260.581,0.0,0.0,236.071,259.554
2015-11-28 09:00,0.0,288.705,288.628,261.838,290.632,288.999,262.847,0.0,0.0,235.867,260.135
2015-11-28 10:00,0.231125,289.514,289.805,262.576,292.079,290.375,263.553,0.684927,0.466669,237.072,260.708
2015-11-28 11:00,0.0426027,289.647,289.699,262.576,292.34,290.238,263.2,0.180358,0.105136,237.463,260.789
2015-11-28 12:00,0.0604018,290.558,289.272,262.366,291.817,290.375,263.318,0.139478,0.0914688,236.542,261.113
2015-11-28 13:00,0.136614,290.301,287.869,261.838,290.5,289.276,263.553,0.184021,0.162996,236.742,260.952
2015-11-28 14:00,0.0803835,289.91,288.951,262.471,291.292,289.689,262.728,0.113434,0.0901688,236.475,260.708
2015-11-28 15:00,0.0695965,289.779,288.195,261.625,290.764,289.137,262.847,0.0991702,0.0788303,236.675,260.217
2015-11-28 16:00,0.0316343,289.779,288.303,262.049,290.632,289.137,263.083,0.0684498,0.0461308,236.071,260.052
2015-11-28 17:00,0.131772,289.381,286.661,261.091,289.032,287.329,262.017,0.153833,0.147141,236.207,259.721
2015-11-28 18:00,0.0488003,290.429,289.058,262.471,291.292,289.276,263.2,0.091337,0.0622318,236.139,259.22
2015-11-28 19:00,0.173533,290.939,287.76,261.838,289.968,287.888,262.255,0.195907,0.175192,236.542,259.387
2015-11-28 20:00,0.0580051,288.291,288.52,261.944,290.764,288.999,262.492,0.196451,0.161039,235.799,259.22
2015-11-28 21:00,-0.00846908,288.012,288.195,261.731,290.5,288.861,263.2,0.0,0.0,236.139,259.22
2015-11-28 22:00,-0.00326433,288.977,289.272,262.576,291.555,289.964,263.787,0.0,0.0,236.274,259.387
2015-11-28 23:00,-0.00207032,289.247,290.017,262.995,292.73,291.329,263.787,0.0,0.0,235.867,259.97
2015-11-29 00:00,-0.00157156,288.43,287.76,261.625,290.101,288.167,261.779,0.0,0.0,234.543,258.286
2015-11-29 01:00,0.00132385,288.152,288.736,262.261,291.16,289.413,262.492,0.0,0.0,234.329,258.286
2015-11-29 02:00,0.0,289.113,289.379,262.995,291.948,290.238,263.436,0.0,0.0,234.897,258.2
2015-11-29 03:00,-0.00116037,289.113,289.379,263.099,292.079,290.238,263.436,0.0,0.0,234.543,257.855
2015-11-29 04:00,-0.00118776,287.444,287.978,262.366,290.5,288.861,263.083,0.0,0.0,234.686,257.333
2015-11-29 05:00,0.0,288.291,288.195,261.944,290.764,288.722,262.728,0.0,0.0,234.543,257.333
2015-11-29 06:00,0.00150893,285.357,285.095,260.661,287.543,285.777,261.062,0.0,0.0,233.896,256.539
2015-11-29 07:00,0.0,283.924,283.726,259.574,285.895,284.492,260.461,0.0,0.0,233.382,255.911
2015-11-29 08:00,0.0,284.888,284.414,260.011,286.585,284.636,260.581,0.0,0.0,233.677,256.181
2015-11-29 09:00,0.0,288.568,288.412,262.576,290.632,288.584,262.373,0.0,0.0,233.234,256.181
2015-11-29 10:00,0.40236,288.977,288.52,262.89,290.897,288.861,263.2,0.786178,0.562439,232.784,256.271
2015-11-29 11:00,0.0909482,289.247,287.651,262.049,289.968,287.888,262.136,0.210752,0.144975,232.251,255.457
2015-11-29 12:00,0.0303927,289.381,288.303,262.155,290.764,288.861,262.492,0.11697,0.0697347,232.557,255.366
2015-11-29 13:00,0.0332681,288.012,285.546,260.876,287.407,285.065,259.492,0.0950671,0.0650731,230.755,253.117
2015-11-29 14:00,0.037645,289.381,287.102,261.838,289.434,287.469,260.461,0.078926,0.0542926,231.394,253.785
2015-11-29 15:00,0.0561801,287.729,284.185,259.902,285.201,282.175,257.406,0.0864865,0.0704667,229.601,251.051
2015-11-29 16:00,0.169136,275.02,254.69,243.226,253.669,249.348,235.072,0.216302,0.222334,224.661,238.027
2015-11-29 17:00,0.200089,274.551,253.411,242.081,252.465,248.941,235.691,0.262593,0.264622,220.337,232.347
2015-11-29 18:00,0.118381,286.717,276.718,255.858,277.226,273.359,250.104,0.159065,0.145494,227.959,246.818
2015-11-29 19:00,0.211125,289.779,280.789,258.022,281.366,277.243,252.464,0.227831,0.213144,228.575,248.348
2015-11-29 20:00,0.145453,289.113,287.869,261.944,290.632,288.722,262.017,0.172417,0.176213,232.86,253.213
2015-11-29 21:00,0.0,284.249,279.823,256.892,280.201,276.323,252.464,0.0,0.0,228.748,248.025
2015-11-29 22:00,0.0,267.444,250.954,240.32,249.157,244.973,231.743,0.0,0.0,220.686,232.829
2015-11-29 23:00,0.0,283.093,276.591,255.043,276.923,272.883,251.291,0.0,0.0,225.156,244.294
2015-11-30 00:00,0.0,286.864,285.095,260.876,287.407,284.922,259.127,0.0,0.0,229.433,251.051
2015-11-30 01:00,0.00132382,285.97,281.386,258.913,283.088,279.361,255.28,0.0,0.0,227.147,247.808
2015-11-30 02:00,0.00120121,277.026,275.046,254.808,276.315,274.147,253.881,0.0,-0.00121269,226.778,248.133
2015-11-30 03:00,0.0,276.811,276.08,255.51,277.828,276.477,256.16,0.0,0.0,229.178,250.238
2015-11-30 04:00,0.0,266.466,254.328,242.369,251.856,247.293,235.537,0.0,0.0,222.04,235.444
2015-11-30 05:00,0.0,263.255,253.04,241.207,251.447,248.327,236.0,0.0,0.0,223.746,237.888
2015-11-30 06:00,0.0,276.594,274.916,254.099,276.163,272.086,252.723,0.0,0.0,229.178,249.513
2015-11-30 07:00,0.0,257.605,250.76,239.419,249.579,246.876,238.577,0.0,0.0,226.685,237.748
2015-11-30 08:00,0.0,271.261,265.092,247.991,265.654,263.412,247.551,0.0,0.0,228.662,244.998
2015-11-30 09:00,0.00632867,280.799,276.718,255.043,277.226,270.96,251.028,0.0,0.0,228.4,247.261
2015-11-30 10:00,0.799322,285.665,281.978,258.469,283.514,278.307,255.28,0.84598,0.87421,229.348,249.303
2015-11-30 11:00,0.140372,290.041,287.651,261.625,290.367,288.584,262.255,0.262296,0.185694,229.769,252.439
2015-11-30 12:00,0.500465,285.97,279.336,257.006,282.087,280.85,259.249,0.626198,0.684894,230.101,252.047
2015-11-30 13:00,0.0960708,289.381,284.528,260.119,286.86,284.779,259.977,0.159149,0.128616,229.093,251.552
2015-11-30 14:00,0.00539642,289.514,289.593,262.995,292.34,290.375,263.318,0.0578758,0.030872,230.593,253.405
2015-11-30 15:00,0.158772,276.155,256.469,243.226,253.867,249.55,234.291,0.209598,0.217167,221.484,233.461
2015-11-30 16:00,0.188963,259.954,246.523,237.728,245.914,244.973,236.613,0.29756,0.319137,225.449,236.179
2015-11-30 18:00,0.409913,259.954,225.282,226.866,223.758,223.043,221.415,0.571906,0.648075,218.517,220.989
2015-11-30 19:00,0.298539,281.526,271.162,251.922,271.785,268.835,249.705,0.344052,0.372556,226.963,244.647
2015-11-30 20:00,0.247751,274.551,265.394,248.512,266.338,262.185,245.072,0.259128,0.308971,227.959,244.412
2015-11-30 21:00,0.0,273.586,265.995,248.9,265.826,259.502,244.09,0.0,-0.00855334,226.685,242.23
2015-11-30 22:00,0.00326734,285.665,283.841,259.024,286.172,283.629,259.614,0.0,0.0,230.593,249.721
2015-11-30 23:00,0.0,283.594,280.789,257.459,282.803,280.702,258.023,0.0,0.0,227.78,247.699
