# timestamp,IR_016,IR_039,IR_087,IR_097,IR_108,IR_120,IR_134,VIS006,VIS008,WV_062,WV_073
2016-09-01 00:00,-0.00482865,291.315,290.335,260.769,292.73,290.375,263.318,0.0,-0.0024374,231.076,254.629
2016-09-01 01:00,-0.00183471,291.315,290.017,261.091,292.73,290.238,263.553,0.0,0.0,232.328,254.814
2016-09-01 02:00,0.0,290.939,289.486,260.769,291.817,289.413,263.318,0.0,0.0,232.709,255.366
2016-09-01 03:00,0.0,291.19,290.335,260.984,293.248,290.921,264.138,0.0,0.0,233.234,255.73
2016-09-01 04:00,-0.00148874,287.155,282.448,256.549,283.938,281.146,256.66,0.0,0.0,231.236,251.751
2016-09-01 05:00,0.0,290.685,289.911,260.445,292.6,290.375,263.436,0.0,0.0,234.257,256.805
2016-09-01 06:00,0.0,291.315,291.383,261.412,294.277,292.41,265.185,0.0,0.0,233.456,257.158
2016-09-01 07:00,-0.00267445,290.558,290.335,260.876,293.377,291.464,264.138,0.0,0.0,232.481,256.091
2016-09-01 08:00,0.0,288.841,285.433,257.91,286.997,284.205,258.638,0.0,0.0,231.394,252.925
2016-09-01 09:00,-0.392537,288.43,284.755,257.459,286.585,283.917,258.515,-0.712201,-0.792579,230.996,252.146
2016-09-01 10:00,0.103598,288.43,283.264,256.434,284.641,282.321,256.66,0.26315,0.197557,230.018,250.544
2016-09-01 11:00,0.042012,289.779,285.994,258.469,287.951,285.35,259.249,0.128057,0.0876548,231.473,251.252
2016-09-01 12:00,0.00769908,291.686,291.174,261.412,294.405,292.679,264.605,0.0749662,0.0369202,234.401,256.181
2016-09-01 13:00,0.00615228,292.174,292.005,261.519,295.17,293.617,265.301,0.0533936,0.0263972,234.329,257.07
2016-09-01 14:00,0.00945955,291.19,290.017,260.445,292.209,290.101,262.965,0.0457679,0.0259214,233.53,255.548
2016-09-01 16:00,0.011599,292.414,291.174,260.984,294.405,292.679,264.721,0.0425571,0.026022,232.175,254.999
2016-09-01 17:00,0.0680966,293.587,289.911,259.902,292.86,291.464,264.255,0.088251,0.0757627,232.935,254.907
2016-09-01 18:00,0.0728584,294.156,290.545,260.011,293.506,292.006,264.255,0.0987025,0.0833622,232.633,254.814
2016-09-01 19:00,0.173974,296.114,290.44,259.793,293.119,291.735,264.022,0.188123,0.177754,233.308,254.814
2016-09-01 20:00,0.523621,299.391,290.229,259.134,292.989,291.871,264.138,0.443349,0.472809,235.386,255.091
2016-09-01 21:00,1.37077,299.485,289.699,258.802,292.47,291.464,263.553,0.801888,1.04839,237.592,256.539
2016-09-01 22:00,-0.0279798,290.171,289.272,258.022,291.817,291.057,264.022,0.0,0.0,238.42,257.333
2016-09-02 00:00,0.0,289.91,289.272,258.022,291.686,290.921,263.787,0.0,0.0,240.724,258.286
2016-09-02 01:00,-0.00182243,288.977,288.52,257.572,291.029,290.648,264.022,0.0,0.0,240.899,258.457
2016-09-02 02:00,0.0,290.171,289.272,257.91,291.555,291.057,263.787,0.0,0.0,240.899,258.372
2016-09-02 03:00,0.0,290.171,289.165,257.91,291.292,290.784,263.553,0.0,0.0,241.704,258.798
2016-09-02 04:00,0.00148201,288.705,288.52,257.572,290.764,290.238,263.318,0.0,0.0,241.76,258.628
2016-09-02 05:00,0.0,288.841,288.628,257.91,290.897,290.238,263.553,0.0,0.0,241.874,258.798
2016-09-02 06:00,0.0,289.113,288.736,258.134,291.029,290.375,263.787,0.0,0.0,241.647,259.051
2016-09-02 07:00,-0.00266063,289.647,289.058,258.022,291.292,290.648,264.022,0.0,0.0,241.93,259.051
2016-09-02 08:00,0.0,288.012,287.978,257.459,290.367,289.964,263.787,0.0,0.0,241.361,259.135
2016-09-02 09:00,-0.209542,288.012,287.978,258.134,290.367,289.551,263.2,-0.532258,-0.475978,240.665,258.798
2016-09-02 10:00,0.416799,290.813,286.439,257.459,288.897,288.445,263.2,0.470538,0.438316,240.312,258.543
2016-09-02 11:00,0.247047,294.933,287.869,258.134,289.968,289.276,263.318,0.294745,0.257911,239.954,258.543
2016-09-02 12:00,0.107945,293.702,289.058,258.469,291.029,290.238,263.553,0.169737,0.140113,239.714,257.769
2016-09-02 13:00,0.101636,294.268,288.736,258.469,290.897,290.101,263.787,0.149944,0.129036,239.834,258.2
2016-09-02 14:00,0.0838881,293.587,289.058,258.58,291.292,290.511,263.905,0.126017,0.0997157,239.288,257.769
2016-09-02 15:00,0.094658,293.356,288.843,258.802,291.029,289.964,263.905,0.123469,0.107185,238.857,257.682
2016-09-02 16:00,0.109748,294.823,288.52,259.024,290.764,289.826,263.083,0.128999,0.113404,239.227,257.421
2016-09-02 17:00,0.167179,296.323,288.52,259.134,290.897,289.964,264.022,0.175758,0.160338,238.795,257.421
2016-09-02 18:00,0.173847,296.738,289.593,259.574,291.817,290.784,264.022,0.188466,0.177149,238.671,257.158
2016-09-02 19:00,0.362453,300.317,289.486,259.354,291.817,290.921,263.787,0.321163,0.327624,238.795,257.508
2016-09-02 20:00,0.758442,302.341,289.165,259.793,291.423,290.511,263.787,0.575453,0.633105,238.357,257.07
2016-09-02 21:00,1.26335,299.765,289.911,259.902,292.34,291.057,264.255,0.722755,0.947954,237.657,256.45
2016-09-02 22:00,-0.0133416,289.91,289.272,259.683,291.948,290.921,264.022,0.0,0.0,237.072,255.821
2016-09-02 23:00,-0.545151,289.91,289.486,259.902,292.079,291.057,263.787,-0.196417,-0.355199,236.675,256.271
2016-09-03 00:00,0.0,290.041,289.593,259.793,292.079,290.921,264.488,0.0,0.0,237.203,255.821
2016-09-03 01:00,0.0,289.779,289.379,259.574,292.209,291.193,264.138,0.0,0.0,237.203,256.001
2016-09-03 02:00,0.0,289.647,289.165,259.683,291.817,290.648,264.138,0.0,0.0,237.463,256.001
2016-09-03 03:00,-0.00145981,290.301,289.805,260.119,292.34,291.193,264.022,0.0,0.00147376,237.398,256.001
2016-09-03 04:00,0.0,290.171,289.593,260.011,292.079,290.921,264.138,0.0,0.0,237.006,255.366
2016-09-03 05:00,0.0,288.977,288.951,259.574,291.423,290.511,263.318,0.0,0.0,237.721,255.821
2016-09-03 06:00,0.0,289.91,289.272,259.683,291.686,290.648,264.138,0.0,0.0,238.168,255.73
2016-09-03 07:00,0.0,289.647,289.379,259.574,291.817,290.784,264.022,0.0,0.00267234,238.483,256.36
2016-09-03 08:00,0.0,290.429,289.593,260.011,291.817,291.057,264.022,0.0,0.0,238.483,256.805
2016-09-03 09:00,-0.0983253,290.301,289.379,259.683,291.686,290.648,263.905,-0.499511,-0.446694,238.671,257.07
2016-09-03 10:00,0.221263,292.414,289.805,259.683,291.948,291.329,264.488,0.354966,0.293919,238.671,257.595
2016-09-03 11:00,0.11256,292.771,290.44,260.119,292.6,292.006,264.837,0.216817,0.167613,239.104,258.114
2016-09-03 12:00,0.0791494,292.653,290.335,260.228,292.6,291.871,265.069,0.15528,0.120834,238.919,258.286
2016-09-03 13:00,0.0632163,292.889,290.229,260.337,292.6,292.006,264.837,0.120105,0.0949526,238.608,258.114
2016-09-03 14:00,0.0880598,294.156,289.911,260.119,292.209,291.329,264.721,0.122737,0.103947,238.483,258.286
2016-09-03 15:00,0.103767,293.816,289.805,260.337,292.34,291.464,264.837,0.129078,0.116399,238.546,258.882
2016-09-03 16:00,0.0802029,294.491,290.229,260.661,292.73,291.735,265.301,0.102957,0.0874994,238.608,258.628
2016-09-03 17:00,0.128496,295.151,290.123,260.769,292.34,291.871,265.185,0.140727,0.131134,238.357,258.967
2016-09-03 18:00,0.267412,296.84,289.058,260.337,291.948,291.057,265.069,0.262313,0.261738,238.168,259.135
2016-09-03 19:00,0.281803,298.63,290.335,260.769,292.989,292.006,264.488,0.274482,0.267385,238.483,259.051
2016-09-03 20:00,0.626603,301.037,290.545,260.876,293.119,292.141,265.301,0.513701,0.542223,238.483,259.554
2016-09-03 21:00,1.08878,296.943,290.756,260.984,293.248,292.141,265.185,0.676533,0.868714,238.42,260.052
2016-09-03 22:00,-0.0254911,290.558,290.756,261.198,293.506,292.276,265.647,0.0,0.0,238.608,260.381
2016-09-03 23:00,-0.480351,290.429,290.86,261.091,293.506,292.545,265.878,-0.187217,-0.33869,239.104,260.627
2016-09-04 00:00,0.0,291.065,291.383,261.412,294.149,293.082,265.878,0.0,0.0,238.919,261.113
2016-09-04 01:00,-0.00359649,0.0,291.383,261.625,294.149,293.082,266.108,0.0,-0.00181543,238.919,260.952
2016-09-04 02:00,0.0,290.558,291.279,261.519,294.277,292.948,265.878,0.0,0.0,239.288,261.355
2016-09-04 03:00,0.0,290.813,291.591,261.838,294.533,293.35,265.762,0.0,0.0,239.653,261.515
2016-09-04 04:00,0.0,290.301,290.86,261.305,293.764,292.41,265.762,0.0,0.0,240.253,261.675
2016-09-04 05:00,-0.00160314,291.065,291.694,261.625,294.533,293.216,265.301,0.0,0.0,240.134,261.914
2016-09-04 06:00,0.00191916,291.065,291.07,261.625,294.021,292.276,265.416,0.0,0.0,240.724,261.993
2016-09-04 07:00,0.0,289.113,290.017,260.876,292.86,291.329,264.837,0.0,0.0,241.131,262.309
2016-09-04 08:00,0.0,291.065,290.965,261.305,293.506,291.871,264.953,0.0,0.0,240.782,262.151
2016-09-04 09:00,-0.0926461,291.19,290.44,261.198,292.86,290.784,265.069,-0.431438,-0.374127,241.361,262.072
2016-09-04 10:00,0.011714,291.563,291.279,261.519,293.506,291.6,265.532,0.188446,0.0886948,240.841,262.151
2016-09-04 11:00,0.011283,291.686,291.279,261.731,293.635,291.735,265.069,0.102698,0.0484111,241.189,262.151
2016-09-04 12:00,0.013534,292.294,291.174,261.519,293.506,291.735,265.185,0.0720294,0.0370864,241.189,262.388
2016-09-04 13:00,0.02007,292.771,291.174,261.305,293.635,291.6,265.301,0.0640515,0.0342894,241.246,262.23
2016-09-04 14:00,0.0379837,293.24,290.86,261.198,293.248,291.329,265.301,0.0654701,0.046564,241.246,262.388
2016-09-04 15:00,0.0141136,292.889,291.174,261.519,293.892,292.141,265.416,0.0401955,0.0233158,241.419,262.151
2016-09-04 16:00,0.0051845,292.771,291.798,262.366,294.405,292.41,265.185,0.0318254,0.0157022,241.361,262.151
2016-09-04 17:00,0.00420101,292.534,292.108,262.471,294.788,292.948,265.301,0.0320129,0.0141372,240.957,261.755
2016-09-04 18:00,0.0278214,293.93,291.487,262.049,294.149,292.141,264.605,0.0595836,0.0380005,241.189,261.595
2016-09-04 19:00,0.0703127,294.38,291.174,262.049,293.764,291.6,264.605,0.110047,0.079589,240.193,261.355
2016-09-04 20:00,0.123895,294.156,291.07,261.838,293.635,291.464,264.721,0.201298,0.155504,240.253,261.275
2016-09-04 21:00,0.153717,292.771,291.487,262.049,294.021,292.141,264.837,0.329209,0.246473,239.954,261.355
2016-09-04 22:00,-0.012196,291.686,291.174,261.412,293.635,291.6,265.069,0.0,0.0,239.227,261.355
2016-09-04 23:00,-0.5564,291.065,290.545,261.091,293.119,290.921,264.138,-0.197354,-0.349176,239.653,261.275
2016-09-05 00:00,-0.00233055,290.558,290.123,260.876,292.86,290.921,264.721,0.0,0.0,239.043,260.871
2016-09-05 01:00,-0.00357271,291.44,290.965,261.412,293.506,291.464,264.953,-0.0015125,0.0,240.074,261.033
2016-09-05 02:00,0.0,291.44,291.07,261.731,293.635,291.6,264.605,0.0,0.0,239.954,261.275
2016-09-05 03:00,0.0,291.931,291.383,261.519,293.892,291.871,265.185,0.0,0.0,239.894,260.871
2016-09-05 04:00,0.0,291.563,291.174,261.412,293.892,291.735,264.837,0.0,0.0,238.733,260.135
2016-09-05 05:00,0.0,291.686,291.174,261.731,293.764,291.871,264.488,0.0,0.00161157,239.774,260.545
2016-09-05 06:00,0.0,291.44,290.86,261.519,293.506,291.464,264.721,0.0,0.0,239.714,260.627
2016-09-05 07:00,0.0,291.44,291.174,261.625,293.764,291.6,264.837,0.0,0.0,239.288,261.033
2016-09-05 08:00,0.0,291.44,291.279,261.412,294.021,292.276,264.837,0.0,0.0,239.227,261.194
2016-09-05 09:00,-0.0438012,291.809,291.487,261.519,294.149,292.276,265.185,-0.40795,-0.353759,238.608,260.627
2016-09-05 10:00,0.0235671,291.809,291.487,261.519,294.149,292.141,265.301,0.194554,0.101118,238.857,260.708
2016-09-05 11:00,0.00848282,291.686,291.591,261.838,294.405,292.545,265.532,0.102948,0.0485288,237.137,260.052
2016-09-05 12:00,0.00774585,292.053,291.487,261.838,294.405,292.679,265.532,0.0705028,0.0332346,236.675,259.554
2016-09-05 13:00,0.00772951,292.053,291.279,261.944,294.149,292.276,265.185,0.0536654,0.0265316,235.317,258.286
2016-09-05 14:00,0.016301,292.653,290.86,261.838,294.021,291.735,264.372,0.0506076,0.0287995,235.178,257.855
2016-09-05 15:00,0.0154213,292.771,291.174,262.049,294.149,292.006,264.721,0.0424359,0.0246505,234.827,258.457
2016-09-05 16:00,0.019481,292.889,290.965,261.944,293.892,291.871,265.301,0.0417862,0.026223,234.968,258.543
2016-09-05 17:00,0.0112327,292.771,291.174,262.261,293.764,291.464,265.301,0.0380429,0.0226802,234.543,258.372
2016-09-05 18:00,0.0344968,293.816,291.07,262.261,294.021,291.735,264.372,0.0625895,0.0431187,232.784,256.628
2016-09-05 19:00,0.0235717,292.653,291.07,262.261,293.764,291.329,264.488,0.0743895,0.0432674,232.481,256.091
2016-09-05 20:00,0.118398,293.587,290.545,261.944,293.377,290.921,263.67,0.191903,0.146851,232.175,255.821
2016-09-05 21:00,0.289014,292.653,290.965,262.261,293.764,291.329,264.372,0.386796,0.329425,232.097,255.73
2016-09-05 22:00,0.0,291.44,290.86,261.731,293.892,291.735,264.372,0.0,0.0,232.175,256.001
2016-09-05 23:00,-0.622905,292.053,291.07,262.155,293.892,291.735,264.255,-0.178944,-0.31443,232.481,255.457
2016-09-06 00:00,0.0,289.247,288.628,260.769,290.897,289.137,263.553,0.0,0.0,231.473,255.366
2016-09-06 01:00,-0.0017746,290.939,289.805,261.412,292.209,289.964,264.138,0.0,0.0,231.709,255.183
2016-09-06 02:00,-0.00153157,289.113,287.869,260.228,290.5,288.306,263.318,0.0,0.0,231.63,255.183
2016-09-06 03:00,0.0,290.813,289.379,260.876,291.555,289.276,263.553,0.0,-0.0014526,231.787,254.999
2016-09-06 04:00,0.0,285.818,285.321,259.024,288.087,286.626,262.728,0.0,0.0,231.943,254.999
2016-09-06 05:00,-0.00158957,290.429,289.165,260.984,291.292,288.584,262.847,0.0,0.0,231.394,254.349
2016-09-06 06:00,0.0,291.19,289.272,261.731,291.423,288.584,262.965,0.0,0.0,231.394,253.974
2016-09-06 07:00,0.0,290.685,289.058,261.412,291.029,288.027,262.255,0.0,0.0,231.473,253.88
2016-09-06 08:00,0.0,289.91,288.412,261.091,290.632,287.748,262.373,0.0,0.0,232.251,253.974
2016-09-06 09:00,-0.166183,283.093,283.495,258.246,286.172,284.636,260.942,-0.492473,-0.461371,231.787,253.309
2016-09-06 10:00,0.260792,289.647,285.208,259.354,287.543,285.208,261.66,0.351292,0.305171,231.552,252.828
2016-09-06 11:00,0.0453534,291.686,287.432,260.769,289.032,285.777,261.421,0.129602,0.0829888,230.916,252.146
2016-09-06 12:00,0.368519,296.323,284.755,259.244,287.543,285.35,261.779,0.366218,0.368126,231.156,251.949
2016-09-06 13:00,0.249232,293.24,285.882,260.119,288.493,286.202,262.255,0.300153,0.289122,231.473,251.552
2016-09-06 14:00,0.0299276,292.414,288.628,261.731,290.897,288.167,262.373,0.0633491,0.0453205,231.709,251.85
2016-09-06 15:00,0.0489148,292.414,288.195,261.198,290.234,287.188,262.017,0.0697535,0.050682,230.916,250.95
2016-09-06 16:00,0.0208229,292.053,288.736,261.838,291.16,288.027,261.779,0.0418729,0.0262774,230.511,249.825
2016-09-06 17:00,0.00563179,291.809,288.951,261.838,291.16,287.888,261.421,0.033379,0.0184783,230.674,250.135
2016-09-06 18:00,0.0395767,293.007,288.843,261.944,291.292,287.888,262.136,0.0656229,0.0449495,230.916,250.238
2016-09-06 19:00,0.118548,294.491,288.628,261.731,291.029,288.027,261.779,0.147825,0.11533,230.348,250.748
2016-09-06 20:00,0.331571,295.151,288.628,261.625,290.897,287.748,262.61,0.347308,0.29333,230.018,250.748
2016-09-06 21:00,0.558246,291.931,287.212,260.661,289.3,286.485,261.062,0.513413,0.514998,229.685,250.135
2016-09-06 22:00,-0.0112174,281.526,282.096,257.91,284.921,283.773,260.822,0.0,0.0,230.674,251.352
2016-09-06 23:00,-0.629043,289.247,286.55,260.661,288.493,285.35,261.301,-0.195084,-0.321221,230.511,251.152
2016-09-07 00:00,0.0,289.381,286.439,260.445,288.222,284.922,259.856,0.0,0.0,230.511,250.34
2016-09-07 01:00,0.0,291.19,288.951,261.944,290.897,287.609,261.898,0.0,-0.00177985,230.755,250.849
2016-09-07 02:00,0.0,289.381,287.102,260.984,289.3,286.06,260.701,0.0,0.0,230.266,250.135
2016-09-07 03:00,-0.00286405,290.429,289.165,261.731,292.209,289.413,262.965,0.0,0.0,231.394,251.751
2016-09-07 04:00,0.00144954,290.429,289.272,262.049,291.948,289.137,262.373,0.0,0.0,231.943,251.949
2016-09-07 05:00,-0.00158293,290.558,289.379,261.944,292.47,289.964,263.083,0.0,0.0,232.097,251.85
2016-09-07 06:00,0.00189437,290.813,289.805,262.261,292.86,289.964,263.083,0.0,0.0,232.557,252.244
2016-09-07 07:00,0.0,291.065,290.229,262.155,293.119,290.511,263.67,0.0,0.0,233.01,252.634
2016-09-07 08:00,0.0,291.19,290.229,262.366,293.248,290.511,263.083,0.0,0.0,232.557,252.244
2016-09-07 09:00,-0.0790308,291.19,290.335,262.155,293.377,290.511,263.083,-0.301118,-0.279252,232.405,251.652
2016-09-07 10:00,0.0596296,291.686,289.805,261.731,292.6,289.689,262.492,0.212051,0.126419,230.996,250.95
2016-09-07 11:00,0.0596756,292.414,289.379,261.731,292.34,289.551,262.373,0.137145,0.0889347,232.481,252.047
2016-09-07 12:00,0.0213705,291.931,289.272,260.769,291.817,288.999,262.728,0.083892,0.0470722,233.823,252.537
2016-09-07 13:00,0.0108515,291.809,289.593,261.305,292.34,289.551,262.017,0.0603781,0.0313007,234.543,252.925
2016-09-07 14:00,0.0149857,291.563,289.593,260.661,292.209,289.137,262.492,0.054214,0.0316333,234.041,252.828
2016-09-07 15:00,0.0193414,292.174,289.058,260.553,291.686,288.861,262.492,0.0458537,0.0273368,233.823,252.925
2016-09-07 16:00,0.044343,288.152,283.38,257.006,284.781,281.882,258.147,0.0761945,0.060567,232.175,249.408
2016-09-07 17:00,0.0833031,293.587,287.651,259.902,289.968,287.188,261.301,0.0968328,0.0798232,232.557,251.051
2016-09-07 18:00,0.135753,291.065,286.105,258.691,288.897,286.767,261.898,0.193439,0.167135,233.75,253.213
2016-09-07 19:00,0.186474,293.587,285.208,257.91,287.134,284.205,259.614,0.207457,0.186068,231.943,251.051
2016-09-07 21:00,0.646761,293.472,289.699,260.553,292.47,289.689,262.847,0.513912,0.522355,233.968,252.634
2016-09-07 22:00,-0.0107803,289.647,288.951,260.011,291.817,289.276,262.847,0.0,0.0,233.677,253.595
2016-09-07 23:00,-0.404077,290.041,288.52,260.228,291.16,288.584,262.492,-0.161901,-0.284101,233.823,253.785
2016-09-08 00:00,0.0,289.779,288.52,260.011,291.292,288.861,262.136,0.0,0.0,234.185,253.88
2016-09-08 01:00,0.0,290.041,289.165,260.011,291.686,289.276,262.492,0.0,0.0,235.108,254.629
2016-09-08 02:00,-0.0015151,289.647,288.52,259.902,291.029,288.861,262.728,0.0,0.0,235.247,254.629
2016-09-08 03:00,0.0,289.91,288.736,259.793,291.423,288.861,262.373,0.0,0.0,234.897,254.814
2016-09-08 04:00,-0.0014433,290.813,289.379,259.902,291.686,289.413,263.083,0.0,0.0,235.386,255.275
2016-09-08 05:00,-0.00157638,290.429,289.165,259.683,291.686,289.137,262.61,0.0,0.0,234.543,254.999
2016-09-08 06:00,0.0,290.301,289.272,259.574,291.686,289.276,263.083,0.0,0.0,234.185,255.639
2016-09-08 07:00,0.00258234,288.43,287.978,258.134,290.5,288.445,262.255,0.0,0.0,234.329,255.821
2016-09-08 08:00,-0.0046408,290.939,289.379,258.802,291.16,288.722,262.61,0.0,0.0,233.823,256.181
2016-09-08 09:00,-0.226064,289.514,286.772,257.459,288.358,285.35,259.37,-0.319014,-0.342338,231.63,253.69
2016-09-08 10:00,0.0359968,291.19,289.911,259.134,292.47,289.964,262.255,0.19811,0.102966,231.865,253.117
2016-09-08 11:00,0.0227915,291.315,289.272,259.244,292.209,289.689,262.373,0.115785,0.0603997,231.473,252.439
2016-09-08 12:00,0.00778421,291.19,289.911,259.354,292.73,290.375,262.847,0.0757951,0.0373285,232.481,253.117
2016-09-08 13:00,0.00776242,291.563,289.805,259.574,292.73,290.238,262.492,0.0552084,0.0282118,233.234,252.828
2016-09-08 14:00,0.0040932,291.563,289.699,259.902,292.6,289.689,262.728,0.0427437,0.0206617,232.175,252.925
2016-09-08 15:00,0.0129169,291.809,289.593,259.793,292.47,290.238,262.728,0.043747,0.0260808,230.996,253.117
2016-09-08 16:00,0.00653533,291.931,290.756,259.902,293.635,291.464,263.436,0.0354141,0.0184739,230.996,254.256
2016-09-08 17:00,0.011328,291.809,290.86,259.902,293.892,292.006,263.436,0.0407633,0.0228725,230.018,254.907
2016-09-08 18:00,0.0432169,293.702,291.174,260.337,294.149,292.141,264.138,0.0745908,0.0536985,230.755,256.271
2016-09-08 19:00,0.0959875,294.823,291.487,260.119,294.277,292.814,264.372,0.147768,0.114524,230.266,256.271
2016-09-08 20:00,0.296887,296.323,290.965,259.683,293.635,291.871,263.905,0.343051,0.289147,229.685,255.639
2016-09-08 21:00,0.999225,289.779,281.267,254.572,282.374,279.81,257.034,0.802432,0.987978,228.224,250.238
2016-09-08 22:00,-0.0103736,290.813,289.486,258.802,291.817,289.551,262.492,0.0,0.0,230.018,254.349
2016-09-08 23:00,-0.320361,290.685,289.272,258.913,291.423,288.027,261.66,-0.144666,-0.244364,229.517,253.405
2016-09-09 00:00,0.0,289.381,287.76,257.572,289.835,286.907,260.701,0.0,0.0,229.348,254.068
2016-09-09 02:00,-0.00150701,288.012,285.208,256.205,287.134,284.636,259.127,0.0,0.0,229.007,252.537
2016-09-09 03:00,-0.00141864,291.315,290.965,259.683,293.764,292.006,264.138,0.0,0.00143221,230.101,254.907
2016-09-09 04:00,0.0,290.558,289.593,258.691,292.47,290.375,262.373,0.0,0.0,229.769,253.974
2016-09-09 05:00,0.0,288.568,286.772,257.233,288.493,284.205,257.9,0.0,0.0,229.852,252.342
2016-09-09 06:00,0.0,290.429,289.911,258.802,292.989,291.057,263.318,0.0,0.0,230.996,253.974
2016-09-09 07:00,0.00257002,288.568,285.994,256.778,287.407,282.758,257.282,0.0,0.0,231.552,251.652
2016-09-09 08:00,0.00460838,279.081,275.823,250.931,276.468,270.96,250.765,0.0,0.0,231.315,248.669
2016-09-09 09:00,,,,,,,,,-0.836024,,
2016-09-09 13:00,0.0777413,292.294,288.195,258.134,290.367,287.888,261.062,0.119799,0.0879026,234.257,253.785
2016-09-09 15:00,0.0427031,291.315,288.087,258.022,290.101,287.469,261.301,0.0712177,0.0522562,235.038,253.213
2016-09-09 16:00,0.0366804,291.563,288.628,258.358,290.764,288.167,261.54,0.0632236,,235.038,253.309
2016-09-09 17:00,0.0198826,291.315,0.0,0.0,0.0,0.0,0.0,,0.030109,234.756,253.213
2016-09-09 18:00,,291.809,0.0,0.0,0.0,,,,,,
2016-09-09 19:00,0.217316,288.977,284.642,256.089,287.134,285.065,260.219,0.312245,0.277012,236.274,252.828
2016-09-09 20:00,0.0918303,288.152,285.994,257.12,288.358,286.767,261.182,0.18541,0.135497,235.247,252.925
2016-09-09 21:00,0.0640877,291.065,289.486,258.802,291.817,288.861,261.062,0.198964,0.150968,234.897,252.439
2016-09-09 22:00,-0.0199887,290.685,289.379,258.469,291.948,288.999,262.255,0.0,0.0,235.247,252.925
2016-09-09 23:00,-0.330167,291.44,289.486,258.802,292.47,289.964,262.136,-0.14275,-0.223397,234.257,252.828
2016-09-10 00:00,-0.00223229,290.041,288.843,258.802,291.948,289.551,262.136,0.0,0.0,233.159,252.342
2016-09-10 01:00,-0.00172907,290.813,289.486,258.802,292.34,289.826,262.017,0.0,0.0,233.085,252.731
2016-09-10 02:00,0.0,290.813,289.486,258.691,292.34,289.964,262.136,0.0,0.0,233.234,253.117
2016-09-10 03:00,0.0,287.444,286.439,256.664,289.166,286.907,260.822,0.0,0.0,233.75,253.021
2016-09-10 04:00,0.0,289.113,287.432,257.12,289.968,287.609,260.942,0.0,0.0,233.896,252.925
2016-09-10 05:00,0.00156357,290.041,288.628,257.685,291.029,288.445,261.421,0.0,0.0,234.968,253.405
2016-09-10 06:00,0.0,290.429,288.736,257.91,291.16,288.306,261.062,0.0,0.0,235.178,253.69
2016-09-10 07:00,0.0,289.647,288.087,257.572,290.764,288.167,261.779,0.0,0.0,235.317,253.5
2016-09-10 08:00,0.0,290.301,288.303,257.572,290.367,287.469,260.822,0.0,0.0,235.662,253.69
2016-09-10 09:00,-0.0344752,290.301,288.303,257.685,290.234,287.329,261.301,-0.20433,-0.139219,236.207,254.162
2016-09-10 10:00,0.164011,290.813,287.76,256.892,289.568,287.188,261.062,0.339454,0.233037,236.609,254.068
2016-09-10 11:00,0.0171833,290.685,288.303,257.12,290.367,287.329,261.421,0.113968,0.0549341,236.408,253.785
2016-09-10 12:00,0.0214819,291.19,288.412,257.572,290.632,288.027,261.182,0.0843294,0.0492893,236.609,253.785
2016-09-10 13:00,0.0373739,291.44,288.195,257.346,290.367,287.609,261.421,0.0817481,0.0565968,235.867,253.309
2016-09-10 14:00,0.0656996,291.065,287.76,257.572,290.101,287.888,261.421,0.104302,0.0842914,235.731,253.69
2016-09-10 15:00,0.04019,290.939,288.087,257.006,290.367,288.027,261.301,0.0680576,0.0562803,235.936,253.69
2016-09-10 16:00,0.0170696,291.315,288.951,258.022,291.555,288.999,261.779,0.0433584,0.0251864,236.139,254.162
2016-09-10 17:00,0.00997142,291.563,289.486,258.022,292.209,289.964,262.255,0.0422139,0.0230097,236.274,253.974
2016-09-10 18:00,0.0653653,292.174,288.736,257.685,291.686,289.137,262.255,0.100756,0.0812187,236.207,254.162
2016-09-10 19:00,0.0905709,293.93,289.379,258.358,292.079,289.551,262.255,0.132798,0.100357,236.207,254.068
2016-09-10 20:00,0.235777,294.933,289.165,258.58,291.686,289.137,261.779,0.275251,0.230818,235.799,253.88
2016-09-10 21:00,0.255153,291.809,289.699,258.58,292.34,289.826,262.255,0.366325,0.32479,235.731,253.88
2016-09-10 22:00,-0.00964017,286.569,285.77,256.778,288.897,287.048,261.301,0.0,-0.00973232,235.317,253.785
2016-09-10 23:00,-0.225314,291.563,289.593,258.913,292.209,289.551,262.136,-0.111529,-0.188973,235.525,253.88
2016-09-11 00:00,0.0,289.779,288.843,258.469,291.423,288.861,261.779,0.0,0.0,235.799,253.88
2016-09-11 01:00,-0.00171806,284.888,284.755,256.089,287.679,285.777,261.062,-0.00145468,0.0,235.936,254.256
2016-09-11 02:00,0.0,282.923,282.799,255.51,285.618,284.061,260.461,0.0,0.0,236.139,254.536
2016-09-11 03:00,-0.00140561,290.685,288.843,258.358,290.897,288.445,261.779,0.0,0.0,236.675,254.999
2016-09-11 04:00,0.0,290.429,289.272,259.024,291.686,288.999,262.136,0.0,0.0,236.207,255.275
2016-09-11 05:00,0.0015573,288.977,288.412,258.469,291.029,288.722,262.017,0.0,0.0,236.742,255.457
2016-09-11 06:00,0.00186303,290.813,290.017,259.464,292.47,289.964,262.728,0.0,0.0,236.742,255.639
2016-09-11 07:00,0.0,288.977,288.736,258.802,291.292,289.413,261.898,0.0,0.0,236.742,255.366
2016-09-11 08:00,-0.00454531,289.381,288.843,258.691,291.423,289.276,262.61,0.0,0.0,237.592,255.821
2016-09-11 09:00,-0.0661407,288.977,288.52,258.58,291.029,289.276,262.492,-0.280006,-0.200319,237.203,256.001
2016-09-11 10:00,0.440142,290.685,285.77,257.12,288.493,286.907,261.54,0.507242,0.481379,237.463,255.639
2016-09-11 11:00,0.0229729,290.939,289.805,259.134,292.34,290.101,262.255,0.119138,0.0666784,238.041,255.911
2016-09-11 12:00,0.0665201,292.653,289.165,259.134,291.948,289.826,262.965,0.119271,0.0869078,238.104,256.091
2016-09-11 13:00,0.0202767,291.563,289.805,259.354,292.6,290.375,262.728,0.0660317,0.0393664,238.231,255.73
2016-09-11 14:00,0.0712932,292.294,288.628,258.913,291.555,289.276,262.847,0.0940282,0.0775112,238.671,255.366
2016-09-11 15:00,0.0545556,291.809,288.412,258.469,291.292,289.137,262.136,0.076987,0.0590113,238.733,254.907
2016-09-11 16:00,0.015794,291.44,289.058,259.134,291.686,289.137,262.136,0.0456903,0.0279037,239.104,254.162
2016-09-11 17:00,0.0385804,292.174,288.628,258.802,291.292,288.861,261.898,0.0629122,0.0447195,239.653,255.091
2016-09-11 18:00,0.0824776,293.587,288.087,258.802,290.632,288.027,261.898,0.109739,0.088364,239.471,254.349
2016-09-11 19:00,0.184537,294.823,287.869,258.691,290.234,287.748,261.421,0.205192,0.181812,239.41,253.974
2016-09-11 20:00,0.563812,297.045,286.772,258.469,288.897,286.626,261.062,0.501859,0.503524,240.548,254.349
2016-09-11 21:00,0.958007,287.155,282.799,256.205,285.618,284.061,260.461,0.664551,0.815681,239.714,254.068
2016-09-11 22:00,0.0,289.514,287.541,259.464,289.701,287.329,261.182,0.0,0.0,239.714,254.629
2016-09-11 23:00,-0.232656,288.291,286.439,258.358,288.897,286.626,261.301,-0.101392,-0.15889,240.312,254.443
2016-09-12 00:00,-0.00439022,287.155,285.882,258.246,288.358,286.06,261.301,0.0,0.0,241.073,255.275
2016-09-12 01:00,0.0,288.152,286.439,258.802,288.763,286.485,261.182,0.0,0.0,240.841,255.548
2016-09-12 02:00,0.0,282.234,282.214,256.778,285.201,283.773,260.822,0.0,0.0,241.073,255.911
2016-09-12 03:00,0.0,281.165,281.267,256.434,284.22,283.049,260.581,0.0,0.0,241.189,256.271
2016-09-12 04:00,-0.00141917,287.587,285.994,258.913,288.087,286.202,261.54,0.0,0.0,241.073,256.805
2016-09-12 05:00,0.0,286.717,283.38,257.459,285.618,282.904,259.249,0.0,0.0,240.312,255.73
2016-09-12 06:00,0.0,277.026,273.333,252.168,274.312,271.926,252.982,0.0,0.0,236.071,250.849
2016-09-12 07:00,0.0,274.314,264.94,247.2,263.92,260.764,242.956,0.0,0.0,233.01,246.929
2016-09-12 08:00,-0.00451462,271.798,257.166,242.799,256.213,250.957,236.46,0.0,0.0,230.018,241.854
2016-09-12 09:00,-0.0317749,243.066,221.481,225.701,217.072,214.364,212.202,-0.134519,-0.128315,211.964,215.867
2016-09-12 10:00,0.461439,260.827,245.463,236.466,243.667,241.921,230.768,0.682422,0.757783,230.348,240.835
2016-09-12 11:00,0.446323,263.255,229.97,229.301,225.919,222.169,219.927,0.65828,0.712223,215.734,222.529
2016-09-12 12:00,0.372429,266.466,235.538,232.146,231.408,228.056,224.126,0.521133,0.55211,217.881,224.811
2016-09-12 13:00,0.324965,278.279,247.563,238.503,244.122,240.576,231.257,0.400815,0.411666,227.238,239.656
2016-09-12 14:00,0.30077,275.48,256.469,242.369,255.244,251.75,240.354,0.369783,0.38129,230.43,245.23
2016-09-12 15:00,0.287635,265.095,241.913,235.499,241.58,239.438,232.066,0.527853,0.543978,225.643,236.325
2016-09-12 16:00,0.31797,253.206,222.552,225.504,221.182,219.472,218.41,0.583133,0.622039,216.695,220.763
2016-09-12 17:00,0.378426,256.062,217.285,223.489,216.355,215.027,214.671,0.646894,0.704755,213.845,216.131
2016-09-12 18:00,0.44293,258.576,214.79,222.449,212.997,212.329,213.447,0.582582,0.645146,211.47,213.382
2016-09-12 19:00,0.606497,266.131,229.072,229.301,227.414,225.597,222.329,0.733329,0.824678,219.503,225.011
2016-09-12 20:00,0.969198,269.283,222.552,226.287,221.182,219.472,217.639,1.0219,1.20369,216.695,221.436
2016-09-12 21:00,1.37164,263.636,219.628,224.708,218.13,216.652,216.466,1.01874,1.44549,215.452,217.669
2016-09-12 22:00,-0.00899829,227.984,217.685,223.899,216.355,215.027,214.468,0.0,0.0,213.995,215.6
2016-09-12 23:00,-0.151989,256.589,236.576,232.491,233.041,229.647,223.77,-0.0743537,-0.112524,219.744,227.694
2016-09-13 00:00,0.00217698,222.276,216.058,222.868,214.89,213.694,215.074,0.0,0.0,212.922,214.787
2016-09-13 01:00,-0.00169653,213.142,214.79,222.659,214.517,213.694,213.447,0.0,0.0,213.078,214.233
2016-09-13 02:00,-0.00147574,222.276,223.597,226.481,223.125,221.579,219.739,0.0,0.00148985,218.517,221.658
2016-09-13 03:00,0.00139294,227.984,219.247,224.305,218.13,217.29,216.663,0.0,0.0,215.873,218.41
2016-09-13 04:00,0.0,225.382,214.79,222.238,212.997,211.983,212.202,0.0,0.0,211.303,212.8
2016-09-13 05:00,0.0,248.394,231.713,230.207,228.871,225.597,220.115,0.0,0.0,218.137,224.811
2016-09-13 06:00,0.0,222.276,211.184,220.517,210.625,209.497,211.358,0.0,0.0,210.452,210.984
2016-09-13 07:00,-0.00252269,213.142,214.79,221.6,213.763,213.016,213.241,0.0,0.0,213.078,213.952
2016-09-13 08:00,0.0,218.393,211.654,220.298,211.028,210.219,211.992,0.0,0.0,210.624,211.906
2016-09-13 09:00,-0.0611516,nan,205.549,218.272,205.043,203.757,206.743,-0.129442,-0.0926043,206.084,205.868
2016-09-13 10:00,0.495425,245.01,207.704,219.183,206.833,206.128,208.096,0.781273,0.906542,207.502,207.326
2016-09-13 12:00,0.320122,263.636,232.28,230.743,227.414,223.905,219.739,0.488882,0.517489,215.873,222.956
2016-09-13 13:00,0.336475,270.713,241.682,235.01,238.446,233.969,224.481,0.528708,0.537187,218.642,228.782
2016-09-13 14:00,0.309558,274.314,242.597,235.499,239.669,234.216,226.056,0.443827,0.459748,222.259,232.669
2016-09-13 15:00,0.264745,271.531,250.566,239.871,248.733,245.612,234.134,0.484758,0.522703,228.575,240.446
2016-09-13 16:00,0.309506,280.799,257.854,244.07,258.116,255.045,241.953,0.406526,0.420625,234.041,247.808
2016-09-13 17:00,0.129427,285.818,270.329,250.681,269.515,265.309,246.044,0.177772,0.175671,232.633,247.808
2016-09-13 18:00,0.135848,290.301,278.598,254.926,278.725,274.929,252.205,0.182598,0.173148,235.799,254.068
2016-09-13 19:00,0.139687,293.587,287.869,261.091,288.897,286.343,261.421,0.175502,0.152395,240.371,260.952
2016-09-13 20:00,0.107357,286.864,283.264,257.798,283.372,281.588,259.005,0.206873,0.186867,234.827,253.5
2016-09-13 21:00,0.640979,277.869,273.466,252.656,274.778,273.042,254.264,0.659772,0.824744,233.085,251.051
2016-09-13 22:00,-0.00870689,276.811,275.951,254.454,277.528,276.477,257.158,0.0,-0.00879013,229.433,251.051
2016-09-13 23:00,-0.103377,281.526,280.669,256.892,282.946,281.588,259.37,-0.0536466,-0.0774319,237.913,257.158
2016-09-14 00:00,0.0,276.594,275.951,253.98,277.075,276.015,257.406,0.0,-0.00217981,238.546,256.805
2016-09-14 01:00,0.0,289.381,286.328,259.902,287.815,285.208,260.701,0.0,0.0,238.608,258.028
2016-09-14 02:00,-0.0014682,282.059,278.598,255.393,279.022,276.015,253.497,0.0,0.0,235.386,253.785
2016-09-14 03:00,0.0,281.165,277.098,254.336,277.226,274.929,254.773,0.0,0.0,232.557,253.5
2016-09-14 04:00,0.0,279.667,269.626,250.051,268.358,264.279,245.35,0.0,0.0,230.018,246.595
2016-09-14 05:00,-0.00153905,277.661,273.997,251.922,274.623,272.565,252.464,0.0,0.0,234.897,253.309
2016-09-14 06:00,0.0,285.357,281.978,257.346,282.66,280.406,258.392,0.0,0.0,235.799,256.271
2016-09-14 07:00,0.0,284.57,282.682,257.685,284.22,282.904,260.098,0.0,0.0,237.006,258.2
2016-09-14 08:00,0.0,281.705,281.029,256.892,283.088,281.882,260.822,0.0,0.0,237.721,259.387
2016-09-14 09:00,-0.088386,286.271,285.095,259.354,287.27,285.493,262.373,-0.174618,-0.178462,237.977,259.804
2016-09-14 10:00,0.660808,287.444,283.148,258.134,285.479,284.492,262.255,0.680907,0.648244,237.721,259.887
2016-09-14 11:00,0.393839,295.151,286.328,260.011,288.087,286.06,262.255,0.404569,0.359597,236.874,258.628
2016-09-14 12:00,0.478186,291.563,280.669,257.006,282.517,280.998,259.977,0.616483,0.595996,236.274,256.271
2016-09-14 13:00,0.369991,288.012,269.201,250.303,271.142,270.148,254.646,0.484508,0.482738,233.382,252.244
2016-09-14 14:00,0.245343,245.01,229.072,228.192,228.871,228.324,225.883,0.734061,0.80429,222.04,225.21
2016-09-14 15:00,0.266606,245.913,219.247,224.102,218.824,218.235,218.41,0.753557,0.824616,215.873,217.669
2016-09-14 16:00,0.208191,259.505,244.16,235.823,243.667,242.143,233.661,0.586087,0.605109,224.959,232.669
2016-09-14 17:00,0.240953,254.966,235.538,231.625,234.633,234.216,230.931,0.62426,0.67733,225.546,233.146
2016-09-14 18:00,0.417924,271.261,215.218,222.238,214.517,213.356,213.447,0.778483,0.867949,212.126,213.382
2016-09-14 19:00,0.551224,262.475,221.481,225.107,220.852,219.777,219.172,0.866217,0.996191,218.264,219.372
2016-09-14 20:00,0.693382,262.074,219.628,224.708,218.824,217.922,218.025,0.84096,0.987582,216.287,217.669
2016-09-14 22:00,-0.00843304,257.605,250.566,239.721,250.207,247.915,238.727,0.0,-0.00851366,226.216,237.888
2016-09-14 23:00,-0.0691522,260.827,253.595,241.5,254.066,252.536,242.671,-0.0501866,-0.0565155,228.048,240.706
2016-09-15 00:00,0.0,280.799,276.08,254.217,277.377,275.24,255.027,0.0,0.0,229.601,246.595
2016-09-15 01:00,0.00167564,283.428,281.624,257.459,283.938,282.175,259.977,0.0,0.0,229.935,250.646
2016-09-15 02:00,-0.00146077,286.864,284.755,259.683,287.27,285.065,261.062,0.0,0.0,231.156,252.244
2016-09-15 03:00,0.0,284.41,283.38,258.802,285.757,284.205,260.701,0.0,0.0,231.315,252.537
2016-09-15 04:00,0.0,279.081,279.823,256.434,282.374,281.588,260.098,0.0,0.0,230.348,252.244
2016-09-15 05:00,0.00153316,284.249,282.682,258.246,285.201,283.773,261.421,0.0,0.0,231.943,253.405
2016-09-15 06:00,0.0,287.871,285.546,259.793,287.27,284.779,261.54,0.0,0.0,232.481,254.536
2016-09-15 07:00,0.0025001,281.526,281.86,257.346,284.501,283.049,261.062,0.0,0.0,232.175,254.349
2016-09-15 08:00,0.0,284.087,282.916,258.134,285.479,283.917,261.779,0.0,0.0,232.405,254.349
2016-09-15 09:00,-0.113696,281.165,281.624,257.346,284.361,283.194,261.062,-0.240666,-0.229566,231.943,254.536
2016-09-15 10:00,0.445614,289.647,283.264,258.246,285.618,284.061,261.182,0.483582,0.430865,232.481,254.349
2016-09-15 11:00,0.15974,292.414,285.658,259.683,286.997,284.061,260.34,0.22378,0.170063,232.86,253.69
2016-09-15 12:00,0.278033,294.933,284.414,259.134,286.172,283.773,260.219,0.288836,0.236895,233.823,253.595
2016-09-15 13:00,0.0267003,291.065,287.102,260.553,288.358,285.208,261.301,0.0704811,0.0380549,234.543,254.256
2016-09-15 14:00,0.0303803,291.563,287.541,260.553,288.897,286.202,261.54,0.061969,0.0362473,234.827,254.722
2016-09-15 15:00,0.00916792,290.685,287.651,260.876,289.032,286.202,261.66,0.0388123,0.0185111,235.247,254.443
2016-09-15 16:00,0.0119658,290.813,287.432,260.769,289.032,285.777,261.421,0.0382744,0.0214759,235.247,254.349
2016-09-15 17:00,0.0260587,291.315,287.322,260.445,289.032,285.777,261.54,0.0502565,0.0321539,236.675,254.536
2016-09-15 18:00,0.051411,292.294,287.432,260.445,288.897,285.919,261.301,0.0798042,0.0588228,236.94,254.999
2016-09-15 19:00,0.175881,294.713,286.661,259.902,288.358,285.35,261.301,0.185665,0.161421,237.849,255.548
2016-09-15 20:00,0.307442,293.702,287.322,260.337,288.897,285.919,261.66,0.305303,0.279726,237.849,256.001
2016-09-15 21:00,0.4971,290.939,287.651,260.337,289.032,286.343,261.54,0.444276,0.44609,238.357,256.36
2016-09-15 22:00,0.0,290.171,288.303,260.984,289.968,287.188,262.255,0.0,0.0,238.294,256.539
2016-09-15 23:00,-0.0617924,290.685,288.412,260.876,290.101,287.469,262.373,-0.0440586,-0.0459665,239.471,257.246
2016-09-16 00:00,0.0,290.301,288.843,260.876,290.632,288.027,262.61,0.0,0.0,239.471,257.942
2016-09-16 01:00,-0.00166545,290.301,288.951,260.984,291.029,288.722,262.847,0.0,0.0,239.593,258.798
2016-09-16 02:00,0.0,289.779,288.951,260.984,291.029,288.722,262.847,0.0,0.0,239.653,259.387
2016-09-16 03:00,0.0,290.041,289.379,261.305,291.555,289.413,263.553,0.0,0.0,239.593,259.304
2016-09-16 04:00,0.0,286.864,286.882,259.793,289.434,287.609,262.847,0.0,0.0,239.043,259.387
2016-09-16 05:00,0.0,289.247,289.058,260.984,291.555,289.826,264.022,0.0,0.0,239.104,259.22
2016-09-16 06:00,0.0,288.43,288.087,260.228,290.764,289.137,263.67,0.0,0.0,238.733,259.304
2016-09-16 07:00,0.0,289.91,289.805,260.984,292.209,290.784,264.372,0.0,0.0,236.542,258.628
2016-09-16 08:00,0.0,290.041,290.123,260.876,292.73,291.193,264.022,0.0,0.0,235.108,257.682
2016-09-16 09:00,-0.0274539,289.91,289.486,260.119,291.817,290.101,264.138,-0.116226,-0.110866,237.977,258.543
2016-09-16 10:00,0.0315976,291.19,290.335,260.553,292.989,291.193,264.022,0.208678,0.114839,236.004,257.855
2016-09-16 11:00,0.0233046,291.563,289.379,260.119,291.948,289.964,263.905,0.120858,0.0588185,236.071,256.805
2016-09-16 12:00,0.268737,292.414,284.071,257.459,286.997,286.343,262.255,0.28777,0.271306,237.528,256.628
2016-09-16 13:00,0.158929,290.558,284.414,257.346,286.997,285.635,261.898,0.185193,0.176334,237.333,256.539
2016-09-16 14:00,0.334832,288.977,282.331,256.434,285.34,284.492,261.421,0.358477,0.358985,237.072,256.181
2016-09-16 15:00,0.263831,281.883,276.845,252.656,279.318,278.156,258.392,0.443437,0.455849,236.94,254.999
2016-09-16 16:00,0.117313,285.512,280.066,255.043,281.366,279.511,258.638,0.159152,0.141314,237.268,253.5
2016-09-16 17:00,0.0130742,290.685,287.76,259.024,289.568,286.767,261.421,0.0442796,0.0249318,238.733,256.001
2016-09-16 18:00,0.0223829,291.19,288.843,259.464,290.764,288.306,262.136,0.0583125,0.0365026,240.43,257.246
2016-09-16 19:00,0.0644088,292.534,288.951,259.793,290.897,288.306,262.61,0.107122,0.076636,240.724,257.246
2016-09-16 20:00,0.215303,293.587,289.272,260.119,291.817,289.413,262.61,0.244148,0.201836,240.841,257.421
2016-09-16 21:00,0.668364,291.563,288.951,259.683,291.16,288.584,262.61,0.479787,0.513399,240.489,256.982
2016-09-16 22:00,-0.00793257,289.514,288.087,259.683,290.5,287.748,262.373,-0.0067165,0.0,240.134,256.716
2016-09-16 23:00,-0.0578253,290.301,289.486,259.902,292.209,289.826,263.436,-0.0435206,-0.042162,240.43,257.682
2016-09-17 00:00,0.0,290.685,289.911,260.228,292.47,290.511,263.553,0.0,0.0,240.014,258.114
2016-09-17 01:00,-0.00165541,290.558,290.123,260.228,292.86,290.648,263.905,0.0,0.0,240.782,258.543
2016-09-17 02:00,0.0,290.685,290.123,260.445,292.86,290.784,263.787,0.0,0.0,240.724,258.628
2016-09-17 03:00,-0.00136871,289.247,288.951,259.574,291.423,289.413,263.083,0.0,0.0,240.841,258.967
2016-09-17 04:00,0.0,290.301,289.379,260.011,292.079,289.689,263.905,0.0,0.0,241.015,258.967
2016-09-17 05:00,0.0,290.558,289.911,260.119,292.47,290.511,263.553,0.0,0.0,241.817,259.721
2016-09-17 06:00,0.0,289.91,289.699,259.793,292.209,290.238,263.67,0.0,0.0,241.361,260.135
2016-09-17 07:00,0.0,288.012,287.541,258.913,290.101,288.445,262.965,0.0,0.0,241.361,260.052
2016-09-17 08:00,0.0,290.558,289.805,259.902,292.209,290.238,263.2,0.0,0.0,240.43,259.887
2016-09-17 09:00,-0.0265446,289.91,289.486,260.119,291.686,289.689,263.436,-0.157327,-0.16079,239.593,259.387
2016-09-17 10:00,0.286376,291.315,289.272,260.011,291.686,289.826,263.67,0.38257,0.308388,238.795,258.967
2016-09-17 11:00,0.0496743,290.813,289.593,260.337,291.817,289.689,263.436,0.150918,0.0914486,238.733,258.713
2016-09-17 12:00,0.0851521,292.889,289.272,259.902,291.686,289.689,262.847,0.135813,0.093963,237.849,258.543
2016-09-17 13:00,0.0693699,292.534,289.379,260.228,291.817,289.689,263.67,0.106792,0.0779914,237.398,258.628
2016-09-17 14:00,0.123386,293.007,288.52,259.574,291.16,289.413,263.553,0.14086,0.118967,238.357,258.798
2016-09-17 15:00,0.0328892,291.931,289.699,260.119,292.079,289.689,262.847,0.0612639,0.0398443,237.137,258.882
2016-09-17 16:00,0.102931,293.007,288.412,259.574,291.16,289.276,263.67,0.117711,0.105264,236.874,258.798
2016-09-17 17:00,0.0510227,292.174,289.058,0.0,291.423,289.551,262.965,0.0826987,0.0662277,236.274,258.286
2016-09-17 18:00,0.0692,293.124,289.272,260.228,291.555,289.276,262.847,0.104,0.0785942,234.543,257.246
2016-09-17 20:00,0.405124,296.008,289.272,260.445,291.686,289.276,262.965,0.385895,0.353939,233.159,255.639
2016-09-17 21:00,0.766668,291.931,289.272,260.228,291.686,289.551,262.492,0.493344,0.588238,232.935,255.639
2016-09-17 22:00,0.0,289.91,288.736,260.337,291.029,288.861,262.847,0.0,-0.00777721,232.86,255.091
2016-09-17 23:00,-0.0603023,287.729,286.328,259.134,288.628,286.626,261.66,-0.0456834,-0.0416539,231.709,254.162
2016-09-18 00:00,0.0,285.665,282.566,257.459,284.641,281.882,259.005,0.0,0.00211105,231.787,253.213
2016-09-18 01:00,0.0,290.301,288.412,260.228,290.632,288.027,262.373,0.0,0.0,232.175,254.256
2016-09-18 02:00,0.0,289.647,288.412,260.337,290.632,288.306,262.136,0.0,0.0,233.968,254.722
2016-09-18 03:00,-0.00136289,290.301,289.058,260.228,291.16,288.861,263.083,0.0,0.0,235.108,255.366
2016-09-18 04:00,0.00138558,289.779,288.628,260.119,291.029,288.722,262.61,0.0,0.0,236.139,256.091
2016-09-18 05:00,0.0,289.381,288.412,260.011,290.5,288.167,262.373,0.0,0.00153051,235.936,255.639
2016-09-18 06:00,0.00181262,288.841,287.76,259.683,289.968,287.609,262.136,0.0,0.0,235.593,255.639
2016-09-18 07:00,0.00246747,287.871,286.439,259.464,288.628,286.343,262.017,0.0,0.0,234.329,254.629
2016-09-18 08:00,-0.00434072,287.155,286.105,258.913,288.087,286.06,261.66,0.0,0.0,233.308,254.162
2016-09-18 09:00,-0.0256899,290.041,288.303,260.119,290.101,287.329,262.255,0.0,-0.155613,233.308,254.722
2016-09-18 10:00,0.0961426,290.558,288.195,260.119,289.968,287.188,261.779,0.244211,0.148828,233.159,254.256
2016-09-18 11:00,0.111386,292.053,287.978,260.445,289.968,287.748,261.779,0.178693,0.121328,232.557,254.629
2016-09-18 12:00,0.132974,291.065,286.772,259.574,289.032,287.048,262.373,0.241982,0.206377,232.935,255.275
2016-09-18 13:00,0.017377,291.19,289.379,260.984,291.686,289.276,263.436,0.06554,0.036681,233.159,255.73
2016-09-18 14:00,0.0111137,291.065,289.699,261.198,291.948,289.826,263.67,0.048226,0.0238424,233.159,255.911
2016-09-18 15:00,0.0118676,291.19,289.486,261.198,291.948,289.826,263.553,0.0413097,0.0226309,232.557,256.181
2016-09-18 16:00,0.0415559,291.065,288.951,260.661,291.292,289.276,262.965,0.0726406,0.0554864,232.251,256.181
2016-09-18 17:00,0.0248711,291.563,290.017,261.412,292.34,290.375,263.436,0.0495491,0.0339709,233.382,256.36
2016-09-18 18:00,0.272931,291.44,281.86,257.12,284.361,283.339,260.942,0.297327,0.314151,233.53,256.091
2016-09-18 19:00,0.0700119,293.007,290.123,261.305,292.6,290.375,264.022,0.110654,0.0801054,233.01,256.091
2016-09-18 20:00,0.221076,294.491,289.911,261.625,292.34,290.101,263.67,0.244008,0.207247,233.085,256.271
2016-09-18 21:00,0.227274,289.91,289.058,261.305,291.555,289.276,263.2,0.34363,0.327781,233.823,256.628
2016-09-18 22:00,0.0,289.514,288.628,260.769,291.029,288.999,262.965,0.0,0.0,233.456,256.181
2016-09-18 23:00,-0.0564494,274.551,275.823,253.14,278.427,278.307,259.492,-0.050451,-0.0411588,235.038,256.001
2016-09-19 00:00,0.0,281.346,280.789,255.974,283.372,282.467,260.942,0.0,0.0,234.968,256.716
2016-09-19 01:00,0.0,286.121,284.3,258.246,286.997,284.779,261.421,0.0,0.0,235.799,257.421
2016-09-19 02:00,0.0,276.594,276.08,253.261,279.17,278.307,259.37,0.0,0.0,236.675,257.595
2016-09-19 03:00,0.0,289.381,287.541,260.119,289.434,286.907,262.492,0.0,0.0,236.94,257.682
2016-09-19 04:00,0.00138028,280.982,278.845,254.69,281.51,280.257,259.127,0.0,0.0,236.94,257.855
2016-09-19 05:00,0.0,280.427,277.601,254.217,279.76,278.76,258.882,0.0,0.0,237.463,257.682
2016-09-19 06:00,0.0,282.923,279.945,255.626,281.943,280.554,259.614,0.0,0.0,237.849,258.372
2016-09-19 07:00,-0.0024569,288.291,286.882,259.683,288.628,286.485,262.61,0.0,0.0,237.977,258.798
2016-09-19 08:00,0.0,289.381,287.651,260.011,289.3,286.767,262.847,0.0,0.0,238.168,258.713
2016-09-19 09:00,-0.0497695,287.729,286.882,259.244,288.493,286.485,262.965,-0.147489,-0.125613,237.463,258.028
2016-09-19 10:00,0.225973,290.429,286.882,259.793,288.493,285.919,261.898,0.355329,0.260724,236.808,256.805
2016-09-19 11:00,0.0323471,290.939,287.541,260.119,288.897,286.06,261.54,0.126982,0.0682815,235.867,256.36
2016-09-19 13:00,0.254857,292.771,285.095,259.134,287.134,285.493,261.54,0.310948,0.292451,233.53,256.628
2016-09-19 14:00,0.0292351,291.065,287.212,260.011,288.628,286.202,261.421,0.0624725,0.0393527,233.896,257.07
2016-09-19 15:00,0.0383313,291.563,288.195,260.228,289.835,287.469,262.965,0.0649101,0.0440353,235.247,258.713
2016-09-19 16:00,0.0497411,291.809,287.978,260.445,289.701,287.329,262.61,0.0717106,0.0556455,235.662,259.135
2016-09-19 17:00,0.0278985,291.931,288.843,260.984,290.367,288.027,262.965,0.0571891,0.0385418,235.662,259.471
2016-09-19 18:00,0.11705,293.587,288.628,260.553,290.367,287.888,262.847,0.131648,0.112877,236.408,259.471
2016-09-19 19:00,0.129306,294.38,289.379,260.661,291.292,289.137,263.436,0.149295,0.118674,236.874,260.299
2016-09-19 20:00,0.448206,295.69,289.165,260.984,291.16,289.137,263.67,0.399825,0.371688,237.398,259.887
2016-09-19 21:00,0.327734,289.514,288.628,260.553,290.764,288.861,263.2,0.39433,0.383109,237.006,259.638
2016-09-19 22:00,-0.00728292,289.381,288.951,260.769,291.16,289.137,263.436,0.0,0.0,236.341,259.721
2016-09-19 23:00,-0.0588871,286.569,285.208,259.024,287.27,285.493,262.136,-0.0393629,-0.0375474,236.071,259.051
2016-09-20 00:00,0.0,289.647,287.102,259.902,288.493,285.919,261.421,0.0,0.00207858,234.401,256.716
2016-09-20 01:00,0.0,286.717,284.185,258.246,285.479,283.194,259.249,0.0,0.0,234.041,254.256
2016-09-20 02:00,-0.00142534,285.357,284.185,258.469,286.172,283.773,260.581,0.0,0.0,233.603,254.814
2016-09-20 03:00,0.0,283.261,275.046,253.381,274.467,270.635,250.236,0.0,0.0,228.835,247.151
2016-09-20 04:00,0.0,263.255,259.706,244.903,259.791,258.224,245.211,0.0,0.0,228.662,244.647
2016-09-20 05:00,0.0,254.966,251.721,240.171,252.059,250.957,241.374,0.0,0.0,228.4,241.602
2016-09-20 06:00,0.0,266.797,262.774,246.801,263.217,260.584,247.279,0.0,0.0,230.018,246.818
2016-09-20 07:00,0.0,255.521,252.666,240.766,252.868,252.536,242.384,0.0,0.0,230.43,242.354
2016-09-20 08:00,-0.00428612,262.869,258.025,243.509,258.304,256.742,245.628,0.0,0.0,229.433,242.105
2016-09-20 09:00,-0.0723729,267.123,267.473,249.029,269.186,268.67,252.853,-0.142982,-0.14613,229.178,247.481
2016-09-20 10:00,0.585413,270.713,261.982,246.265,261.971,260.225,246.594,0.793069,0.85368,227.147,243.818
2016-09-20 11:00,0.359944,278.883,262.3,246.533,261.971,258.957,244.231,0.414679,0.411042,226.778,241.728
2016-09-20 12:00,0.123623,283.924,270.049,250.931,269.186,265.138,247.687,0.180642,0.157012,226.122,241.854
2016-09-20 13:00,0.0507617,289.381,283.264,258.913,284.079,279.959,257.777,0.0980478,0.0688631,229.007,247.59
2016-09-20 14:00,0.149283,288.012,277.476,254.69,278.427,275.24,253.24,0.168924,0.154936,228.488,245.69
2016-09-20 15:00,0.0702248,292.294,287.651,261.412,290.367,287.609,261.421,0.0863841,0.0708961,230.593,250.238
2016-09-20 16:00,0.0337073,292.174,288.736,261.944,291.292,288.584,262.017,0.0559382,0.038113,231.473,251.051
2016-09-20 17:00,0.198962,293.587,264.635,247.728,264.095,258.591,243.808,0.179691,0.181521,230.266,243.336
2016-09-20 18:00,0.0930564,293.702,288.412,261.731,290.897,288.584,262.847,0.114469,0.0939459,231.552,251.949
2016-09-20 19:00,0.239237,295.368,287.978,261.519,290.5,288.027,262.61,0.238662,0.220002,229.433,252.244
2016-09-20 20:00,0.551838,298.339,282.916,258.246,284.361,280.554,257.034,0.46724,0.487474,228.136,249.721
2016-09-20 21:00,0.460047,288.977,285.994,260.011,287.543,285.208,260.822,0.389521,0.464445,228.921,251.949
2016-09-20 22:00,-0.00708951,286.421,282.214,257.685,283.23,278.911,257.158,0.0,0.0,228.048,248.562
2016-09-20 23:00,-0.0520798,283.594,278.474,255.974,279.022,272.565,252.205,-0.0518775,-0.0402064,228.748,248.882
2016-09-21 00:00,0.00204329,284.57,280.429,256.434,279.907,278.004,255.658,0.0,0.0,226.592,248.775
2016-09-21 01:00,0.00161697,289.113,287.869,261.198,289.701,287.469,261.779,0.0,0.0,227.691,253.69
2016-09-21 02:00,-0.0014186,286.421,283.495,258.246,284.641,281.882,258.638,0.0,-0.00143216,227.691,252.634
2016-09-21 03:00,0.0,283.093,276.718,254.454,277.226,274.617,254.009,0.0,0.0,227.691,248.562
2016-09-21 04:00,-0.00136996,278.075,274.916,253.621,276.923,275.706,257.158,0.0,0.0,229.769,252.146
2016-09-21 05:00,0.0,285.202,283.611,258.802,285.895,284.205,261.182,0.0,0.0,229.517,254.256
2016-09-21 06:00,-0.00179264,282.059,279.823,257.346,282.231,279.81,258.515,0.0,0.0,229.433,253.69
2016-09-21 07:00,0.0,287.444,284.755,259.354,285.895,282.904,258.882,0.0,0.0,229.263,252.439
2016-09-21 08:00,0.0,288.841,286.992,260.876,288.897,286.06,260.701,0.0,0.00430008,230.511,254.068
2016-09-21 09:00,-0.0234046,289.381,287.978,261.198,289.835,287.329,261.54,-0.1189,-0.14177,230.755,254.814
2016-09-21 10:00,0.157302,290.813,288.195,261.305,290.101,287.888,261.66,0.288572,0.218358,230.674,254.722
2016-09-21 11:00,0.248669,292.653,286.661,260.337,288.358,285.635,259.977,0.28825,0.26599,230.755,254.443
2016-09-21 12:00,0.119925,294.491,289.379,261.519,291.948,290.511,263.67,0.15231,0.129143,231.394,256.716
2016-09-21 13:00,0.0222565,291.931,291.174,262.89,294.277,292.814,264.488,0.0726861,0.0449385,231.236,256.982
2016-09-21 14:00,0.0363553,292.534,290.229,262.261,293.119,291.329,264.372,0.0651157,0.0465843,231.156,256.001
2016-09-21 15:00,0.0571173,292.174,287.869,261.198,290.234,287.888,261.779,0.0787274,0.0657093,230.018,254.536
2016-09-21 16:00,0.029751,291.809,288.52,261.519,291.029,288.999,261.66,0.0526702,0.0354964,230.511,254.999
2016-09-21 17:00,0.0665709,293.124,285.882,260.228,287.815,285.208,259.37,0.086427,0.0731812,230.018,253.69
2016-09-21 18:00,0.0758833,293.24,288.087,261.198,290.234,288.306,261.54,0.0971225,0.0766087,230.593,254.536
2016-09-21 19:00,0.11695,293.816,289.379,261.838,292.079,290.101,263.083,0.155605,0.132526,230.674,255.639
2016-09-21 20:00,0.353909,293.124,287.212,260.876,289.701,287.888,262.255,0.344951,0.348983,230.593,255.183
2016-09-21 21:00,0.709963,290.041,286.882,260.553,289.032,286.767,261.182,0.500937,0.676931,230.511,254.722
2016-09-21 22:00,0.0,289.514,287.978,261.198,290.632,288.306,262.017,0.0,0.0,230.996,255.091
2016-09-21 23:00,-0.0454297,289.514,287.978,261.198,290.367,288.306,261.421,-0.0564157,-0.0366912,230.593,254.907
2016-09-22 00:00,0.002028,290.301,290.017,262.155,292.989,290.648,263.436,0.0,0.0,231.394,255.639
2016-09-22 01:00,-0.00160778,290.813,289.911,262.471,292.73,290.648,263.787,0.0,0.0,232.251,256.181
2016-09-22 02:00,0.0,290.685,290.756,262.681,293.764,292.141,264.372,0.0,0.0,232.633,256.539
2016-09-22 03:00,0.00134054,290.939,291.174,262.89,294.405,293.082,265.301,0.0,0.0,232.784,257.158
2016-09-22 04:00,0.0,290.558,290.651,262.576,293.506,291.871,264.255,0.0,0.0,232.02,257.07
2016-09-22 05:00,0.0,288.43,287.541,260.661,289.701,285.635,260.461,0.0,0.0,230.755,255.091
2016-09-22 06:00,0.0,274.787,264.329,247.2,262.863,254.855,241.084,0.0,0.0,228.662,243.457
2016-09-22 07:00,-0.00242605,290.171,288.303,260.984,291.423,289.137,262.017,0.0,0.0,230.755,256.001
2016-09-22 08:00,-0.00423294,290.813,291.07,262.681,294.149,292.545,264.721,0.0,0.0,230.674,256.36
2016-09-22 09:00,-0.0454442,288.291,288.52,261.412,291.555,289.826,263.67,-0.134671,-0.137636,231.787,256.36
2016-09-22 10:00,0.0330272,290.813,290.123,262.049,292.86,290.511,263.436,0.167784,0.0933601,232.251,256.805
2016-09-22 11:00,0.0623832,290.558,287.978,260.337,289.835,287.748,262.017,0.158459,0.107965,232.633,256.001
2016-09-22 12:00,0.396739,295.042,284.414,258.58,286.86,285.777,261.54,0.424139,0.426829,233.234,256.539
2016-09-22 13:00,0.121091,292.053,287.869,260.119,289.701,287.888,262.965,0.164584,0.14316,233.603,256.716
2016-09-22 14:00,0.0574608,290.939,287.102,259.683,289.032,286.06,261.062,0.0913707,0.0735738,233.085,256.181
2016-09-22 15:00,0.0239708,290.171,286.772,259.244,288.087,285.35,259.492,0.060888,0.0443665,232.405,254.814
2016-09-22 16:00,0.245515,261.666,238.83,233.175,237.451,235.917,229.781,0.35833,0.39165,225.156,229.838
2016-09-22 17:00,0.234635,264.009,246.102,236.625,245.248,244.112,237.222,0.344521,0.374807,229.601,237.185
2016-09-22 18:00,0.19335,283.428,270.746,249.924,270.657,267.673,249.572,0.235801,0.245341,231.156,247.699
2016-09-22 19:00,0.488252,267.444,246.733,237.258,246.794,245.612,237.373,0.596684,0.687174,229.769,237.468
2016-09-22 20:00,0.480085,287.3,275.046,252.656,274.933,272.405,253.111,0.427695,0.467816,231.076,247.371
2016-09-22 21:00,0.892292,290.301,287.76,260.119,290.101,287.748,262.255,0.48568,0.621996,232.784,253.88
2016-09-22 22:00,0.0,290.301,289.486,260.876,292.209,289.964,263.436,0.0,-0.00679709,234.543,255.548
2016-09-23 00:00,0.0,284.57,284.414,257.572,287.134,285.919,262.017,0.0,0.0,235.731,256.716
2016-09-23 01:00,-0.00159877,290.301,289.805,260.553,292.34,290.238,263.905,0.0,0.0,235.936,257.333
2016-09-23 02:00,0.0,289.381,289.379,260.228,292.079,290.101,263.2,0.0,0.0,236.675,257.595
2016-09-23 03:00,-0.00267038,289.91,289.593,260.661,292.209,290.238,263.436,0.0,0.0,235.799,257.421
2016-09-23 04:00,0.00135998,289.381,288.52,260.119,290.632,288.584,262.728,0.0,0.0,235.936,257.508
2016-09-23 05:00,0.00148923,290.301,289.699,260.984,292.079,289.964,263.905,0.0,0.0,236.408,258.286
2016-09-23 06:00,0.0,290.558,289.805,261.305,292.34,290.101,263.905,0.0,0.0,237.333,258.114
2016-09-23 07:00,0.0,290.171,289.911,261.198,292.6,290.511,263.553,0.0,0.0,237.528,258.543
2016-09-23 08:00,0.0,289.647,289.379,261.198,291.948,290.101,263.787,0.0,0.0,237.849,258.628
2016-09-23 09:00,-0.0441471,289.647,289.486,261.305,291.948,290.238,264.138,-0.112138,-0.111423,238.041,258.882
2016-09-23 10:00,0.26633,290.813,288.303,260.661,290.897,289.137,263.436,0.377714,0.322651,238.357,259.304
2016-09-23 11:00,0.116267,291.931,289.593,261.305,291.948,289.964,263.787,0.189314,0.138447,239.41,260.052
2016-09-23 12:00,0.0642839,292.653,289.272,261.091,291.686,289.826,263.436,0.115662,0.081123,240.014,260.789
2016-09-23 13:00,0.0127757,290.939,289.699,261.412,291.817,289.826,263.318,0.0621989,0.0322447,240.489,261.435
2016-09-23 14:00,0.012643,290.939,289.699,260.876,291.423,289.689,263.905,0.0499558,0.0283641,241.304,261.834
2016-09-23 15:00,0.00801118,290.939,289.379,260.876,291.16,288.999,263.553,0.0395678,0.0202194,241.419,261.993
2016-09-23 16:00,0.0108852,290.558,288.52,260.661,290.5,288.584,263.083,0.036866,0.0206049,241.304,261.595
2016-09-23 17:00,0.0163991,291.19,289.165,260.661,291.16,288.861,263.436,0.0429175,0.0255863,240.841,261.033
2016-09-23 18:00,0.139086,292.294,286.992,259.354,289.166,287.329,262.373,0.157018,0.151217,240.134,260.789
2016-09-23 19:00,0.101809,292.771,289.272,260.876,291.292,289.276,263.2,0.141616,0.110124,240.371,261.113
2016-09-23 20:00,0.182147,292.653,289.272,260.769,291.292,289.137,263.905,0.240302,0.192441,240.371,261.113
2016-09-23 21:00,0.115119,289.381,289.058,260.445,291.292,289.689,263.905,0.292414,0.278927,240.548,261.515
2016-09-23 22:00,-0.013136,289.113,288.52,260.445,290.897,289.137,263.436,0.0,0.0,240.253,260.952
2016-09-23 23:00,-0.0444247,289.779,289.379,260.553,291.686,289.826,263.787,-0.0576753,-0.0328896,241.073,261.755
2016-09-24 00:00,0.0,290.558,290.86,261.625,293.506,292.006,265.069,0.0,0.0,240.724,261.993
2016-09-24 01:00,0.0,290.301,290.44,261.091,293.119,0.0,264.721,0.0,0.0,241.189,262.779
2016-09-24 02:00,0.0,290.041,289.805,260.769,291.948,289.964,263.905,0.0,0.0,241.361,262.779
2016-09-24 03:00,0.0,290.685,290.756,261.519,293.119,291.464,264.605,0.0,0.0,241.874,263.244
2016-09-24 04:00,0.0,289.91,290.229,261.305,292.989,291.329,264.837,0.0,0.0,241.874,263.09
2016-09-24 05:00,0.0,290.171,290.017,261.198,292.6,291.057,264.138,0.0,0.0,241.361,262.857
2016-09-24 06:00,-0.00177353,289.514,289.593,260.769,292.079,290.511,264.138,0.0,0.0,242.099,263.399
2016-09-24 07:00,-0.00240615,289.91,290.017,260.984,292.47,290.921,264.488,0.0,0.0,241.874,263.552
2016-09-24 08:00,0.0,290.685,290.651,261.412,293.248,291.6,264.721,0.0,0.0,242.322,263.858
2016-09-24 09:00,-0.0429124,290.685,290.44,261.198,292.86,291.057,264.605,-0.109002,-0.129968,242.099,263.858
2016-09-24 10:00,0.26851,291.19,285.433,258.802,288.493,287.329,263.436,0.358072,0.311739,242.322,264.086
2016-09-24 11:00,0.026929,291.065,290.651,261.091,292.86,291.193,264.255,0.129204,0.0724972,242.322,264.162
2016-09-24 12:00,0.012085,290.939,290.545,261.091,292.86,291.193,264.372,0.0801536,0.042702,242.82,264.314
2016-09-24 13:00,0.00960447,291.065,290.86,261.305,292.989,291.464,264.953,0.0596353,0.0307049,243.093,264.389
2016-09-24 14:00,0.0126735,291.44,290.651,261.305,292.989,291.329,264.837,0.0500763,0.0284325,243.202,264.69
2016-09-24 15:00,0.0187428,291.686,290.229,260.661,292.34,290.511,264.255,0.0464749,0.0270314,242.875,264.615
2016-09-24 16:00,0.131036,291.065,287.322,259.244,289.3,288.306,263.787,0.150242,0.136423,242.875,264.162
2016-09-24 17:00,0.0239477,291.686,289.486,260.553,291.16,289.137,264.138,0.0532259,0.034754,242.489,263.706
2016-09-24 18:00,0.428438,295.368,280.909,255.626,283.938,283.773,261.779,0.377936,0.401768,242.042,263.629
2016-09-24 19:00,0.596152,298.822,282.682,256.892,285.618,284.922,261.898,0.510967,0.542652,241.533,263.476
2016-09-24 20:00,0.971633,297.449,283.495,257.006,286.447,285.493,262.847,0.789918,0.894114,240.193,262.857
2016-09-24 21:00,0.376891,290.685,289.593,260.228,291.817,289.964,263.905,0.404209,0.456592,239.593,262.309
2016-09-24 22:00,-0.00641166,290.558,290.123,260.228,292.209,290.375,263.787,0.0,0.0,238.733,262.151
2016-09-24 23:00,-0.0380833,290.301,289.058,259.464,291.16,289.137,263.67,-0.0644902,-0.0266174,235.317,260.217
2016-09-25 00:00,0.00198402,290.301,289.911,259.902,292.209,290.238,263.67,0.0,0.0,235.178,260.789
2016-09-25 01:00,0.0,289.113,288.087,258.246,290.367,288.167,262.847,0.0,0.0,234.968,260.217
2016-09-25 02:00,0.0,288.977,287.978,258.246,290.234,288.306,262.728,0.0,0.0,235.593,260.463
2016-09-25 03:00,-0.00132478,279.859,276.845,251.799,277.828,276.169,255.784,0.0,0.0,233.677,256.181
2016-09-25 04:00,0.0,280.613,280.909,254.217,283.514,283.339,261.062,0.0,0.00136325,235.386,260.627
2016-09-25 05:00,0.0,282.408,281.267,254.217,284.079,283.339,261.54,0.0,0.0,237.137,260.871
2016-09-25 06:00,0.0,279.081,280.066,253.98,282.946,282.613,261.66,0.0,0.0,238.231,261.194
2016-09-25 07:00,0.00239639,287.3,285.882,257.006,288.087,286.343,261.898,0.0,0.0,237.592,260.789
2016-09-25 08:00,0.0,280.05,279.58,253.86,282.374,281.882,260.34,0.0,0.0,236.542,259.471
2016-09-25 09:00,-0.0208675,284.57,283.032,255.742,286.033,284.779,261.898,-0.123679,-0.126402,236.874,259.887
2016-09-25 10:00,0.14892,291.44,288.412,258.358,290.764,288.584,262.847,0.292301,0.205014,236.542,259.471
2016-09-25 11:00,0.192214,292.653,288.843,258.691,291.029,288.999,262.847,0.244121,0.203148,237.137,258.372
2016-09-25 12:00,0.155512,292.653,288.195,258.913,290.632,288.861,263.2,0.201783,0.175349,237.268,258.882
2016-09-25 13:00,0.0625809,291.931,288.843,259.683,291.029,288.999,263.2,0.107333,0.0842388,237.592,258.457
2016-09-25 14:00,0.00988154,290.813,289.486,260.228,291.686,289.413,263.436,0.0513954,0.0270777,238.483,259.135
2016-09-25 15:00,0.0187941,290.939,289.379,260.337,291.555,289.551,262.965,0.050012,0.0298159,238.795,259.387
2016-09-25 16:00,0.0109549,291.065,289.699,260.553,291.817,289.826,263.318,0.0382613,0.0221192,238.981,260.052
2016-09-25 17:00,0.0240441,291.44,289.593,260.553,291.817,289.826,263.787,0.0547124,0.0348938,240.014,260.545
2016-09-25 18:00,0.0378478,292.053,289.699,260.445,291.817,289.964,263.436,0.0701953,0.0473072,241.073,260.871
2016-09-25 19:00,0.179789,292.889,288.843,260.228,290.897,288.999,263.436,0.204359,0.179021,241.015,260.789
2016-09-25 20:00,0.515016,292.889,287.432,259.683,289.701,287.888,262.255,0.509973,0.515534,239.532,259.97
2016-09-25 21:00,0.110588,288.705,287.76,259.902,289.568,287.609,262.255,0.327721,0.307024,239.532,259.554
2016-09-25 22:00,-0.0125262,290.171,288.628,260.445,290.367,288.027,262.492,0.0,0.0,239.774,259.638
2016-09-25 23:00,-0.0347783,289.779,288.087,259.902,290.101,287.748,262.255,-0.0687091,-0.0234072,240.43,259.22
2016-09-26 00:00,-0.00196998,289.514,287.869,260.011,289.568,286.626,261.54,0.0,0.0,238.42,258.882
2016-09-26 01:00,0.0,290.041,287.869,260.228,289.434,286.485,261.54,0.0,0.0,236.675,257.595
2016-09-26 02:00,0.0,289.779,287.651,260.011,289.032,286.343,261.54,0.0,0.0,235.936,257.333
2016-09-26 03:00,-0.00131972,285.97,284.755,258.358,286.722,284.779,260.942,0.0,0.0,235.108,256.982
2016-09-26 04:00,0.0,288.841,286.992,259.902,288.628,286.202,261.66,0.0,0.0,234.041,256.982
2016-09-26 05:00,0.0,290.301,288.087,260.445,289.434,286.907,262.017,0.0,0.0,234.543,256.36
2016-09-26 06:00,0.0,289.514,287.432,259.683,288.763,285.919,261.182,0.0,0.0,236.139,256.982
2016-09-26 07:00,0.0,290.171,287.869,260.337,289.434,286.485,261.898,0.0,0.0,234.113,256.36
2016-09-26 08:00,0.0,290.041,287.978,260.445,289.701,286.907,261.182,0.0,0.0,232.86,254.722
2016-09-26 09:00,-0.0406105,290.041,287.869,260.228,289.3,286.626,261.182,-0.0859622,-0.102497,234.257,255.275
2016-09-26 10:00,0.252613,291.315,285.095,258.802,286.86,283.629,259.492,0.352624,0.282598,234.686,254.722
2016-09-26 11:00,0.244209,291.19,279.213,255.858,281.221,278.76,258.638,0.285906,0.280024,235.593,254.443
2016-09-26 12:00,0.0506319,291.19,288.087,260.337,289.701,287.048,261.898,0.109747,0.0654284,236.542,256.805
2016-09-26 13:00,0.0160865,290.685,288.412,260.228,290.234,287.469,262.373,0.0667399,0.0357285,236.542,257.508
2016-09-26 14:00,0.099066,291.315,287.541,259.902,289.701,287.329,262.136,0.133008,0.104299,236.874,257.942
2016-09-26 15:00,0.0740403,289.91,287.322,259.574,289.568,286.907,262.255,0.106003,0.0896977,237.398,258.028
2016-09-26 16:00,0.0453371,291.065,288.412,260.337,290.5,288.167,262.965,0.0814267,0.0582534,237.977,258.882
2016-09-26 17:00,0.114676,290.685,287.322,259.244,289.3,287.188,262.017,0.15842,0.141668,235.799,257.855
2016-09-26 18:00,0.18121,291.065,286.55,259.024,288.897,286.767,262.728,0.23168,0.226848,237.006,258.114
2016-09-26 19:00,0.121661,291.563,288.303,259.902,290.5,288.445,262.492,0.166077,0.135357,239.043,259.135
2016-09-26 20:00,0.203867,292.534,289.486,260.337,291.555,289.276,263.553,0.255168,0.205816,238.483,258.628
2016-09-26 21:00,0.5223,288.012,286.55,259.024,288.493,286.767,262.61,0.442231,0.558311,237.657,258.372
2016-09-26 22:00,-0.00612187,290.041,288.843,260.445,291.16,288.584,262.492,0.0,0.0,237.528,257.07
2016-09-26 23:00,-0.0286776,290.685,289.593,260.984,292.079,289.551,262.728,-0.0752719,-0.0202662,237.137,257.07
2016-09-27 00:00,-0.00195625,290.429,290.229,261.412,292.86,290.921,264.022,0.0,0.00197495,237.463,258.2
2016-09-27 01:00,-0.00156441,290.685,290.44,261.519,292.989,290.921,264.022,0.0,0.0,236.609,257.595
2016-09-27 02:00,0.0,290.558,290.651,261.625,293.248,291.329,264.022,0.0,0.0,236.609,257.855
2016-09-27 03:00,0.0,290.939,290.651,261.731,293.119,291.329,264.138,0.0,0.0,236.207,257.855
2016-09-27 04:00,0.00134104,290.558,290.335,261.625,292.989,291.193,263.787,0.0,0.0,236.341,258.114
2016-09-27 05:00,0.0,289.91,289.379,261.091,291.686,289.964,263.318,0.0,0.0,236.139,258.2
2016-09-27 06:00,0.0,288.977,287.212,259.902,288.897,286.626,260.581,0.0,0.0,235.247,257.333
2016-09-27 07:00,0.0,288.291,285.77,258.469,286.997,284.492,259.37,0.0,0.0,233.896,255.911
2016-09-27 08:00,0.00410521,290.939,290.651,261.519,292.989,291.329,264.488,0.0,0.0,236.207,259.554
2016-09-27 09:00,-0.0197675,290.939,290.756,261.944,293.248,291.464,264.953,-0.0836854,-0.0798258,236.004,259.22
2016-09-27 10:00,0.0551015,290.813,290.229,261.412,292.73,290.921,264.022,0.250767,0.146024,236.004,259.051
2016-09-27 11:00,0.121074,292.294,290.017,261.412,292.6,290.784,264.255,0.18965,0.137511,236.542,258.713
2016-09-27 12:00,0.0121865,290.813,290.123,261.412,292.73,290.784,264.255,0.0825465,0.0410101,236.139,257.508
2016-09-27 13:00,0.0129022,291.065,289.593,261.305,291.817,289.689,262.728,0.0641801,0.0341921,235.247,256.271
2016-09-27 14:00,0.0170268,288.977,284.982,258.913,286.585,283.773,258.76,0.0576664,0.0358117,231.63,251.652
2016-09-27 15:00,0.0364508,287.729,280.066,256.434,280.201,276.323,253.24,0.068584,0.0531544,231.473,250.544
2016-09-27 16:00,0.0496238,285.665,275.823,253.14,276.163,272.565,250.501,0.0793643,0.0667976,228.748,246.595
2016-09-27 17:00,0.0575754,286.864,276.463,253.381,276.01,272.405,250.633,0.0910836,0.0780109,229.007,247.261
2016-09-27 18:00,0.0473744,290.301,285.321,258.691,286.86,283.339,258.392,0.084852,0.0662224,231.787,251.552
2016-09-27 19:00,0.217784,289.113,274.261,252.656,273.372,268.505,247.551,0.239505,0.237557,228.835,246.032
2016-09-27 20:00,0.306092,293.007,283.841,258.358,284.641,280.998,255.909,0.331582,0.313563,232.097,250.646
2016-09-27 21:00,0.241917,291.065,288.736,261.198,291.292,288.306,262.255,0.234093,0.27912,234.543,253.5
2016-09-27 22:00,0.0,290.939,289.165,261.519,291.817,288.999,261.421,0.0,0.0,234.329,253.5
2016-09-27 23:00,-0.0198671,289.91,286.661,260.119,288.763,285.635,259.127,-0.0480613,-0.020057,233.085,251.652
2016-09-28 00:00,-0.00194283,286.717,281.742,256.892,283.23,279.661,254.9,0.0,0.0,230.674,247.917
2016-09-28 01:00,-0.00155625,290.171,289.058,261.519,291.555,288.722,262.136,0.0,0.0,232.175,252.047
2016-09-28 02:00,-0.00137476,290.041,288.628,261.519,291.292,288.584,261.54,0.0,0.0,235.038,253.117
2016-09-28 03:00,0.0,290.171,288.303,260.984,290.632,287.329,261.898,0.0,0.0,234.897,253.309
2016-09-28 04:00,0.0,289.647,287.102,260.445,289.032,285.493,260.581,0.0,0.0,233.75,252.342
2016-09-28 05:00,0.0,288.977,285.095,259.354,286.585,282.904,257.777,0.0,0.0,233.968,250.95
2016-09-28 06:00,0.0,288.568,285.433,259.464,286.86,283.339,259.005,0.0,0.0,233.53,251.352
2016-09-28 07:00,0.0,289.113,287.322,260.661,289.166,285.919,260.581,0.0,0.0,234.113,252.731
2016-09-28 08:00,0.0,288.705,286.661,259.793,288.763,285.635,260.822,0.0,0.0,233.896,252.828
2016-09-28 09:00,-0.0192524,289.779,287.651,260.445,289.701,286.767,261.421,-0.0815047,-0.0777456,233.308,252.634
2016-09-28 10:00,0.0834019,290.685,288.195,261.091,290.234,287.188,261.66,0.264811,0.154365,233.823,253.309
2016-09-28 11:00,0.0273524,290.813,288.843,260.984,290.897,288.167,262.61,0.128662,0.0705688,234.185,255.091
2016-09-28 12:00,0.0285191,291.19,288.412,260.984,290.632,287.888,262.136,0.0896892,0.0514138,234.185,256.271
2016-09-28 13:00,0.0194043,290.939,288.951,261.091,291.029,288.445,262.847,0.0657184,0.0359146,235.936,258.2
2016-09-28 14:00,0.0128041,290.813,288.843,260.553,290.764,288.306,262.965,0.0505923,0.0272893,238.608,259.22
2016-09-28 15:00,0.00812376,290.939,289.165,260.661,290.897,288.306,262.728,0.0401238,0.0191366,237.721,259.804
2016-09-28 16:00,0.00553247,290.813,289.058,260.553,290.897,288.445,262.847,0.0374747,0.0181524,237.913,260.135
2016-09-28 17:00,0.0167365,291.315,288.736,260.337,290.5,288.306,262.965,0.0463771,0.0261128,237.657,260.135
2016-09-28 18:00,0.0366451,290.429,287.102,259.464,289.032,286.626,261.898,0.0853253,0.0517936,238.483,259.804
2016-09-28 19:00,0.436662,285.357,279.458,255.043,281.799,281.735,260.219,0.534279,0.545312,238.608,260.217
2016-09-28 20:00,0.251515,292.889,288.628,259.902,290.101,287.888,263.083,0.309756,0.272386,237.977,260.708
2016-09-28 21:00,0.197363,284.73,283.032,257.006,285.201,283.773,261.182,0.334213,0.358649,236.609,259.387
2016-09-28 22:00,0.0,289.647,287.651,259.683,289.3,287.048,262.373,0.0,0.0,236.94,259.97
2016-09-28 23:00,-0.0168563,289.779,288.412,260.119,290.367,288.167,262.373,-0.0404379,-0.0198537,237.333,259.638
2016-09-29 00:00,0.0,290.429,289.272,260.553,291.029,288.722,262.492,0.0,0.0,238.42,259.887
2016-09-29 01:00,-0.00154826,290.041,288.843,260.119,290.632,288.167,262.728,0.0,0.00156306,238.795,260.299
2016-09-29 02:00,0.0,290.041,289.058,260.228,291.029,288.722,263.083,0.0,0.0,239.104,260.299
2016-09-29 03:00,0.0013051,288.841,288.195,259.683,290.367,288.584,262.847,0.0,0.0,238.671,260.052
2016-09-29 04:00,0.0,289.381,287.978,259.574,289.701,287.469,261.779,0.0,0.0,239.227,259.554
2016-09-29 05:00,-0.00145988,290.171,288.951,260.337,290.632,288.306,263.436,0.0,0.0,240.074,260.299
2016-09-29 06:00,0.00174352,290.558,289.058,260.553,291.029,288.584,263.083,0.0,0.0,240.371,259.887
2016-09-29 07:00,-0.00235846,288.568,288.736,260.553,291.292,289.551,263.553,0.0,0.0,240.074,259.887
2016-09-29 08:00,-0.00405585,290.429,290.017,261.198,292.6,290.511,263.083,0.0,0.0,239.954,259.887
2016-09-29 09:00,-0.0187583,284.888,285.321,258.691,287.543,286.343,262.61,-0.0794132,-0.0568129,239.774,258.798
2016-09-29 10:00,0.0631342,290.685,289.272,261.091,291.423,289.137,262.373,0.24352,0.141639,239.954,257.421
2016-09-29 11:00,0.137333,291.686,288.412,260.011,290.5,288.027,262.136,0.206719,0.163294,242.042,257.158
2016-09-29 12:00,0.284013,292.414,284.528,257.572,286.172,283.773,260.098,0.340814,0.319732,241.073,255.821
2016-09-29 13:00,0.0453992,290.041,287.76,259.464,289.701,287.048,261.301,0.0892343,0.0589284,240.548,256.539
2016-09-29 14:00,0.0542089,290.939,287.978,259.902,289.968,287.748,261.54,0.0954207,0.069129,239.532,256.982
2016-09-29 15:00,0.0122218,290.685,288.303,260.228,290.367,287.609,262.136,0.0448422,0.0233064,238.168,256.716
2016-09-29 16:00,0.0333093,289.91,287.322,259.244,289.3,286.767,261.54,0.0634567,0.0490405,238.42,257.246
2016-09-29 17:00,0.0458392,291.315,288.303,259.902,290.632,288.445,262.373,0.0685678,0.0524477,238.168,257.595
2016-09-29 18:00,0.0644906,291.931,289.058,260.337,291.423,289.413,262.61,0.0920469,0.0706877,237.785,257.942
2016-09-29 19:00,0.155259,293.702,288.843,260.553,291.555,289.551,262.255,0.172404,0.149035,236.94,256.45
2016-09-29 20:00,0.190522,292.771,289.593,260.984,291.948,289.689,262.728,0.240005,0.187652,237.006,256.271
2016-09-29 21:00,0.137955,288.568,287.76,260.119,290.101,287.469,261.66,0.389355,0.417823,236.408,255.275
2016-09-29 22:00,-0.0114756,290.429,288.412,260.228,290.632,288.027,261.779,0.0,0.0,236.542,254.999
2016-09-29 23:00,-0.0166885,289.247,287.541,259.683,289.166,286.626,261.301,-0.0400352,-0.016848,236.94,254.999
2016-09-30 00:00,0.0,288.568,287.322,259.134,289.3,286.485,261.54,0.0,0.0,236.542,255.366
2016-09-30 01:00,0.0,288.705,287.651,259.354,289.835,287.609,261.66,0.0,0.0,236.139,255.639
2016-09-30 02:00,-0.0013633,282.581,282.799,256.32,285.34,284.205,261.182,0.0,0.0,236.139,255.639
2016-09-30 03:00,-0.00130041,289.91,288.736,260.011,291.292,289.137,262.847,0.0,0.0,235.386,256.091
2016-09-30 04:00,0.0,289.247,288.951,260.119,291.686,289.413,262.728,0.0,0.0,234.615,255.457
2016-09-30 05:00,0.0,287.729,286.55,258.58,288.358,286.626,261.421,0.0,0.0,235.038,255.275
2016-09-30 06:00,0.00173778,290.041,288.951,259.683,291.292,288.999,262.017,0.0,-0.00175439,235.455,256.45
2016-09-30 07:00,-0.00234923,287.3,286.328,258.469,288.493,286.202,261.182,0.0,0.0,236.408,256.001
2016-09-30 08:00,0.0,289.647,287.978,259.354,290.101,287.469,261.301,0.0,0.0,236.742,256.271
2016-09-30 09:00,-0.0182839,288.841,287.541,259.024,289.434,286.626,260.701,-0.0464429,-0.0553761,236.742,256.181
2016-09-30 10:00,0.375351,290.301,287.322,258.469,289.3,287.329,261.54,0.44973,0.393239,236.341,256.181
2016-09-30 11:00,0.245194,292.534,287.651,258.58,290.101,287.748,261.779,0.282862,0.244444,236.475,255.73
2016-09-30 12:00,0.260302,292.174,285.882,257.798,288.222,286.06,260.942,0.326257,0.31659,236.207,255.639
2016-09-30 13:00,0.0861726,291.19,286.772,258.358,288.897,286.343,261.182,0.128028,0.111618,235.593,255.183
2016-09-30 14:00,0.0858313,290.558,286.882,258.469,289.166,286.767,260.581,0.115066,0.0982054,236.207,255.183
2016-09-30 15:00,0.0163451,290.558,288.087,259.902,290.5,287.748,260.942,0.0472845,0.0288774,235.867,254.536
2016-09-30 16:00,0.0487463,290.685,287.541,259.244,289.968,287.609,260.942,0.068396,0.0506184,236.139,253.974
2016-09-30 17:00,0.0352947,291.19,287.76,259.244,290.234,287.469,261.301,0.0623666,0.0433783,233.308,253.405
2016-09-30 18:00,0.0778296,291.809,287.432,259.024,289.568,286.767,261.421,0.103554,0.084186,233.677,251.949
2016-09-30 19:00,0.118073,292.889,287.651,259.244,290.234,287.188,260.942,0.154305,0.121793,233.234,251.051
2016-09-30 20:00,0.425075,293.472,287.432,259.134,289.968,286.907,260.942,0.395901,0.362383,234.968,252.342
2016-09-30 21:00,0.165071,289.647,287.869,259.354,289.968,287.048,260.942,0.419297,0.499948,236.207,254.349
2016-09-30 22:00,0.0,290.041,288.087,259.464,290.234,287.469,261.062,0.0,0.0,234.401,253.88
2016-09-30 23:00,-0.0165254,289.381,287.541,258.913,289.701,287.188,261.421,-0.020988,-0.0139028,235.593,254.629
