# timestamp,IR_016,IR_039,IR_087,IR_097,IR_108,IR_120,IR_134,VIS006,VIS008,WV_062,WV_073
2013-10-01 00:00,-0.0,272.836,262.3,246.667,261.611,255.045,239.173,-0.0,-0.0,225.058,239.121
2013-10-01 01:00,-0.0,245.913,239.559,234.35,238.199,235.193,228.109,-0.0,-0.0,222.15,231.53
2013-10-01 02:00,0.0013437,242.013,235.011,231.799,233.577,230.946,226.402,-0.0,-0.0,221.258,229.137
2013-10-01 03:00,-0.0,255.521,250.371,240.617,250.83,247.708,237.525,-0.0,-0.0,223.952,239.656
2013-10-01 04:00,-0.0,240.898,230.265,229.665,228.293,226.151,222.692,-0.0,-0.0,219.137,224.61
2013-10-01 05:00,-0.0,240.898,234.208,231.274,233.842,231.714,226.918,-0.0,-0.0,222.15,228.782
2013-10-01 06:00,-0.0,243.066,238.09,232.834,237.451,235.917,230.276,-0.0,-0.0,222.476,231.198
2013-10-01 07:00,0.00229432,258.576,249.978,239.267,250.83,246.035,234.604,-0.0,-0.0,224.86,239.121
2013-10-01 08:00,-0.0,222.276,216.058,222.449,215.628,214.364,213.857,-0.0,-0.0,214.145,215.332
2013-10-01 09:00,-0.022735,237.078,228.463,228.378,226.522,223.905,220.86,-0.057749,-0.0459046,218.891,224.61
2013-10-01 10:00,0.692026,266.131,237.086,232.663,234.107,230.17,225.535,0.699013,0.808953,221.145,229.137
2013-10-01 11:00,0.487477,278.482,250.954,240.171,249.368,243.896,233.503,0.459384,0.51438,223.224,234.082
2013-10-01 12:00,0.541317,295.151,269.626,250.303,271.142,265.65,246.732,0.359106,0.443203,228.488,244.998
2013-10-01 13:00,0.57963,300.408,250.954,240.913,253.669,250.957,241.664,0.503291,0.577707,229.852,242.725
2013-10-01 14:00,0.483249,298.144,267.618,249.797,270.332,266.667,251.291,0.392667,0.486557,230.266,248.133
2013-10-01 15:00,0.473082,287.3,242.142,235.823,243.438,242.585,236.613,0.440197,0.504968,227.055,236.614
2013-10-01 16:00,0.491762,277.451,242.142,235.337,244.122,243.243,237.07,0.648399,0.726377,228.224,237.608
2013-10-01 17:00,0.530653,286.864,247.15,238.195,249.579,249.348,241.374,0.54055,0.622489,230.835,241.98
2013-10-01 18:00,0.466105,305.106,268.054,249.669,268.358,262.008,246.869,0.34806,0.42808,231.156,245.918
2013-10-01 19:00,0.533036,304.478,278.226,256.089,278.725,273.2,253.625,0.416463,0.476881,231.473,247.917
2013-10-01 20:00,0.589971,298.242,280.066,257.006,280.931,276.631,255.027,0.656786,0.694879,228.748,247.371
2013-10-01 21:00,0.400665,268.986,266.886,249.286,269.679,269.0,254.519,0.4604,0.476726,230.835,249.617
2013-10-01 22:00,-0.00721245,262.475,264.329,248.121,267.69,266.667,252.464,-0.0,-0.0,229.093,248.133
2013-10-01 23:00,-0.100954,277.451,266.886,249.669,266.167,262.888,246.869,-0.0804495,-0.0839334,226.778,241.854
2013-10-02 00:00,-0.00195574,244.063,231.997,229.665,230.574,229.385,224.834,-0.0,-0.0,220.916,225.994
2013-10-02 01:00,0.00153885,243.066,229.373,228.934,227.708,225.874,221.965,-0.0,-0.0,217.622,223.377
2013-10-02 02:00,-0.0,225.382,221.841,225.504,221.182,220.384,219.172,-0.0,-0.0,217.229,220.535
2013-10-02 03:00,-0.0,227.984,222.552,225.897,221.182,219.165,217.832,-0.0,-0.0,218.517,221.436
2013-10-02 04:00,-0.0,227.984,216.471,222.868,215.26,213.016,212.619,-0.0,-0.0,212.287,215.332
2013-10-02 05:00,-0.0,225.382,218.862,224.507,216.355,214.364,214.468,-0.0,-0.0,213.078,216.131
2013-10-02 06:00,-0.0,237.078,231.14,229.301,230.574,229.121,225.709,-0.0,-0.0,222.15,227.509
2013-10-02 07:00,-0.0,243.066,238.09,233.175,238.199,236.872,230.768,-0.0,-0.0,225.739,234.236
2013-10-02 08:00,0.00406268,254.396,252.29,240.913,252.059,250.957,242.097,-0.0,-0.0,227.959,241.475
2013-10-02 09:00,-0.0242776,264.739,260.692,245.451,260.888,259.139,246.732,-0.0616675,-0.0735292,228.4,244.412
2013-10-02 10:00,0.77588,285.665,263.401,247.332,263.04,258.408,244.932,0.606403,0.741119,228.048,241.728
2013-10-02 11:00,0.48653,260.827,236.832,232.491,236.695,235.677,231.905,0.610974,0.709178,223.642,230.011
2013-10-02 12:00,0.399847,263.255,236.576,232.663,236.186,234.95,230.111,0.487449,0.560651,223.538,231.031
2013-10-02 13:00,0.307931,274.073,251.912,240.617,251.856,249.955,240.646,0.368008,0.431357,227.959,240.446
2013-10-02 14:00,0.248715,267.444,253.226,241.5,253.669,252.144,242.956,0.343299,0.401486,228.4,241.728
2013-10-02 15:00,0.369965,285.202,264.482,247.991,265.997,264.451,251.028,0.40587,0.461603,230.348,247.481
2013-10-02 16:00,0.320946,292.534,271.848,251.922,271.945,267.004,249.305,0.269629,0.324014,228.4,244.175
2013-10-02 17:00,0.407161,279.667,255.941,243.509,257.361,256.928,246.044,0.629529,0.670882,227.78,243.698
2013-10-02 18:00,0.571973,281.705,250.566,239.871,251.447,249.955,239.025,0.745586,0.823751,228.662,241.348
2013-10-02 19:00,0.757077,302.932,268.054,250.429,271.142,270.473,254.773,0.657499,0.735925,233.01,250.95
2013-10-02 20:00,1.28624,302.256,270.746,252.168,273.057,270.311,254.009,1.03676,1.25085,233.308,250.849
2013-10-02 21:00,1.84611,279.859,255.587,242.942,256.213,252.927,240.5,1.3106,1.80641,227.78,242.354
2013-10-02 22:00,-0.00723939,260.395,259.706,245.587,261.25,259.139,246.182,-0.0,-0.0,231.315,246.929
2013-10-02 23:00,-0.101127,266.131,261.179,246.399,262.507,260.764,247.279,-0.0805874,-0.08708,231.787,247.371
2013-10-03 00:00,-0.0,254.396,256.819,244.349,258.304,256.555,246.044,-0.0,-0.0,234.472,247.261
2013-10-03 01:00,0.00154101,270.989,264.788,248.771,264.27,259.502,246.182,-0.0,-0.0,230.101,245.23
2013-10-03 02:00,-0.0,283.428,281.267,257.685,282.946,279.211,257.282,-0.0,-0.0,234.897,250.95
2013-10-03 03:00,-0.0,275.48,272.391,253.14,274.778,271.926,255.406,-0.0,-0.0,233.382,250.34
2013-10-03 04:00,-0.0,261.666,263.245,247.597,266.167,266.329,252.594,-0.0,-0.0,232.557,249.928
2013-10-03 05:00,-0.00142155,261.251,262.616,247.728,265.654,265.309,252.464,-0.0,-0.0,232.935,249.928
2013-10-03 06:00,-0.0,274.073,272.12,252.777,275.087,272.086,254.646,-0.0,-0.0,233.234,251.152
2013-10-03 07:00,-0.00232118,268.986,257.683,244.07,255.244,251.75,239.173,-0.0,-0.0,225.739,237.327
2013-10-03 08:00,-0.0,270.151,263.712,247.728,264.27,260.764,246.732,-0.0,0.00414674,230.266,244.881
2013-10-03 09:00,-0.156186,253.206,253.595,241.936,256.021,255.803,245.905,-0.176324,-0.262799,230.916,245.69
2013-10-03 10:00,0.851239,284.73,256.118,243.368,259.236,258.408,248.364,0.740625,0.859376,231.236,247.04
2013-10-03 11:00,0.813934,291.44,259.706,245.587,263.04,261.654,250.236,0.652402,0.755978,231.076,248.133
2013-10-03 12:00,0.641127,295.69,257.339,244.07,259.791,259.321,248.903,0.597437,0.680734,230.916,247.699
2013-10-03 13:00,0.436052,298.436,266.145,249.029,267.522,264.279,250.104,0.329425,0.413541,230.674,247.59
2013-10-03 14:00,0.35654,304.239,294.044,265.557,295.803,290.511,263.083,0.140003,0.243878,230.43,250.442
2013-10-03 15:00,0.301676,304.398,289.058,262.995,290.897,284.779,259.856,0.133944,0.212944,231.473,250.849
2013-10-03 16:00,0.261742,304.872,293.742,265.355,295.17,289.276,261.779,0.11714,0.184971,231.315,251.051
2013-10-03 17:00,0.468989,299.579,270.189,252.168,272.582,270.311,255.153,0.355657,0.429556,231.315,250.95
2013-10-03 18:00,0.424248,305.95,283.032,258.913,285.201,280.406,257.777,0.296383,0.376191,231.076,251.552
2013-10-03 19:00,0.278558,301.478,291.487,263.721,293.635,288.722,262.61,0.234027,0.274681,231.315,252.537
2013-10-03 20:00,0.315379,297.749,291.383,263.721,293.635,289.826,263.318,0.36218,0.35865,230.266,251.85
2013-10-03 21:00,1.23994,277.661,265.696,248.642,267.69,264.451,249.438,0.91862,1.23756,228.575,246.371
2013-10-03 22:00,-0.0,289.113,287.212,260.984,289.701,287.048,262.136,-0.00615381,-0.0,231.943,251.751
2013-10-03 23:00,-0.11025,289.91,287.212,260.984,290.101,287.748,262.728,-0.0756883,-0.0782139,230.43,251.552
2013-10-04 00:00,-0.00196135,283.261,277.977,255.393,279.022,275.861,254.009,-0.0,-0.0,228.575,247.261
2013-10-04 01:00,0.00154328,287.01,285.095,260.011,287.679,284.922,260.34,-0.0,-0.0,229.517,250.646
2013-10-04 02:00,-0.0,280.799,274.916,254.217,274.778,270.148,249.971,-0.0,-0.0,227.238,244.056
2013-10-04 03:00,-0.0,276.594,269.485,250.806,270.006,268.339,250.896,-0.0,-0.0,228.224,243.093
2013-10-04 04:00,-0.0,283.76,281.742,257.798,283.797,281.293,258.392,-0.0,-0.0,230.674,249.513
2013-10-04 05:00,-0.00142571,274.787,272.256,252.899,275.242,272.086,255.406,-0.0,-0.0,229.769,249.928
2013-10-04 06:00,-0.00170823,254.966,255.05,242.942,258.116,257.671,247.551,-0.0,-0.0,230.755,246.818
2013-10-04 07:00,-0.0,253.206,253.411,242.081,255.827,255.614,245.905,-0.0,-0.0,231.865,246.371
2013-10-04 08:00,-0.0,251.282,248.985,239.57,250.83,249.753,241.664,-0.0,-0.0,230.511,243.214
2013-10-04 09:00,-0.0280399,252.585,252.666,241.5,254.854,253.51,244.231,-0.0712239,-0.0566158,232.251,246.371
2013-10-04 10:00,0.733694,278.279,254.871,242.942,257.55,256.742,246.732,0.704373,0.816529,233.01,247.917
2013-10-04 11:00,0.786499,291.315,260.365,245.723,262.507,261.654,249.171,0.7161,0.829368,231.787,249.303
2013-10-04 12:00,0.603295,301.037,257.339,244.21,258.116,255.045,243.241,0.496836,0.579443,230.348,246.032
2013-10-04 13:00,0.594043,297.248,255.05,243.084,256.021,252.927,242.671,0.543857,0.613016,229.852,245.804
2013-10-04 14:00,0.499872,292.053,255.23,243.368,255.633,252.341,240.354,0.502872,0.58399,229.093,244.764
2013-10-04 15:00,0.500453,293.472,257.166,244.07,259.051,257.856,246.457,0.483822,0.541061,231.076,248.025
2013-10-04 16:00,0.468997,285.202,256.992,243.65,258.678,257.671,246.594,0.690974,0.756062,231.943,248.241
2013-10-04 17:00,0.351486,275.02,238.09,232.491,237.451,234.706,226.746,0.695173,0.776826,227.42,238.578
2013-10-04 18:00,0.647431,297.349,258.365,244.488,260.888,260.584,249.171,0.707723,0.773938,233.603,249.721
2013-10-04 19:00,0.597124,285.202,268.199,249.669,270.495,269.0,254.009,0.806744,0.922747,233.896,252.342
2013-10-04 20:00,0.376122,289.381,283.148,258.358,285.479,282.758,259.977,0.410326,0.41988,233.603,253.5
2013-10-04 21:00,0.125796,287.729,285.095,260.011,287.27,284.779,260.942,0.248527,0.225776,234.615,253.309
2013-10-04 22:00,-0.00729839,286.421,284.528,258.913,286.722,284.349,260.942,-0.0,-0.0,234.401,253.021
2013-10-04 23:00,-0.131362,275.707,264.329,247.067,264.444,260.764,244.792,-0.0733067,-0.075351,228.835,243.577
2013-10-05 00:00,-0.0,280.239,276.971,254.454,278.873,275.24,254.137,-0.0,-0.0,232.02,250.135
2013-10-05 01:00,-0.00154565,260.395,254.871,242.513,255.827,253.122,242.527,-0.0,-0.0,227.147,243.093
2013-10-05 02:00,-0.0,258.096,259.206,244.903,261.971,261.477,249.171,-0.00114497,-0.0,229.348,247.481
2013-10-05 03:00,-0.00128158,255.521,251.53,240.913,250.83,247.708,237.222,-0.0,-0.00129383,223.642,239.121
2013-10-05 04:00,-0.0,249.89,243.719,236.146,243.438,240.802,232.547,-0.0,-0.0,220.57,233.928
2013-10-05 05:00,0.00142995,245.913,240.984,234.515,240.631,238.515,231.905,-0.0,-0.0,222.259,233.617
2013-10-05 06:00,0.00171503,256.062,255.05,242.369,257.361,256.555,245.211,-0.0,-0.0,228.575,244.764
2013-10-05 07:00,-0.00234867,258.096,256.118,242.513,257.739,256.555,245.767,-0.0,-0.0,228.662,245.23
2013-10-05 08:00,-0.00419942,258.576,252.666,240.913,252.667,248.532,237.977,-0.0,-0.0,225.352,240.964
2013-10-05 09:00,-0.0,264.739,254.871,242.225,253.669,249.348,238.128,-0.0771227,-0.0919571,225.352,238.85
2013-10-05 10:00,0.591515,278.482,254.145,242.081,253.469,249.753,239.025,0.515282,0.59717,226.871,240.835
2013-10-05 11:00,0.657912,290.171,258.871,244.903,257.739,253.316,241.953,0.475533,0.577801,226.311,241.348
2013-10-05 12:00,0.534831,291.315,245.463,237.415,241.344,234.216,228.446,0.445113,0.532572,222.476,233.928
2013-10-05 13:00,0.491435,289.247,249.781,238.963,248.307,245.612,237.222,0.433383,0.506438,225.058,237.468
2013-10-05 14:00,0.400902,298.918,280.187,256.664,280.347,275.396,253.497,0.257846,0.329495,228.575,246.371
2013-10-05 15:00,0.357739,297.649,279.091,256.205,279.76,276.015,255.28,0.273951,0.325413,229.093,247.917
2013-10-05 16:00,0.343956,300.134,279.823,256.892,280.493,276.631,257.034,0.236556,0.297101,229.769,249.198
2013-10-05 17:00,0.491808,298.822,261.662,246.13,264.27,263.063,251.028,0.439356,0.491038,229.601,247.917
2013-10-05 18:00,0.585304,280.05,245.032,237.101,244.575,242.805,236.0,0.633085,0.714274,224.054,236.469
2013-10-05 19:00,0.725229,282.923,240.75,234.681,239.911,236.872,230.768,0.76893,0.879898,223.642,233.928
2013-10-05 20:00,0.851483,293.24,264.94,248.121,264.095,259.139,242.956,0.730114,0.88512,226.405,242.478
2013-10-05 21:00,1.8437,287.3,266.145,248.9,264.792,260.584,244.231,1.36153,1.81934,224.86,239.656
2013-10-05 22:00,-0.0,286.421,284.528,259.683,286.997,284.636,261.062,-0.0,-0.0,230.266,251.552
2013-10-05 23:00,-0.119664,284.73,283.264,258.913,285.895,283.629,260.701,-0.0810556,-0.0755051,230.348,252.342
2013-10-06 00:00,0.00196761,283.428,280.789,257.572,282.374,280.108,258.147,-0.0,-0.0,228.835,249.928
2013-10-06 01:00,-0.0,283.261,279.823,256.549,281.366,278.911,257.282,-0.0,-0.0,229.178,249.825
2013-10-06 02:00,-0.0,285.202,284.642,259.683,287.134,285.208,262.017,-0.0,-0.0,232.251,253.5
2013-10-06 03:00,-0.0,284.249,283.841,259.683,286.31,284.205,261.182,-0.0,-0.0,232.784,253.595
2013-10-06 04:00,-0.0,281.705,281.505,258.246,284.22,282.175,260.219,-0.0,-0.0,231.787,252.828
2013-10-06 05:00,-0.0,281.346,279.091,256.434,280.639,278.307,256.909,-0.0,-0.0,230.43,250.34
2013-10-06 06:00,-0.0,282.234,279.458,256.664,281.366,279.061,256.285,-0.0,-0.0,231.156,251.452
2013-10-06 07:00,-0.0,283.76,283.841,259.354,286.31,284.779,261.54,-0.0,-0.0,232.935,253.405
2013-10-06 08:00,-0.0,283.093,283.495,259.244,286.033,284.492,261.301,-0.0,-0.0,232.86,253.309
2013-10-06 09:00,-0.06615,282.753,282.799,259.024,285.479,284.205,260.701,-0.112018,-0.100174,232.935,253.021
2013-10-06 10:00,0.599415,287.871,284.982,260.119,287.27,285.208,261.421,0.308309,0.480723,233.968,252.925
2013-10-06 11:00,0.624148,295.583,288.195,262.366,289.835,286.626,262.136,0.263108,0.453146,234.113,253.021
2013-10-06 12:00,0.508823,300.134,290.965,263.928,292.34,288.167,262.136,0.207717,0.36325,234.113,252.828
2013-10-06 13:00,0.409887,303.098,293.235,265.456,294.277,289.551,262.255,0.158757,0.286142,234.113,253.405
2013-10-06 14:00,0.347326,305.95,295.442,266.657,296.433,290.784,262.728,0.13239,0.239371,234.113,253.5
2013-10-06 15:00,0.304594,307.137,296.229,267.052,296.684,290.784,262.61,0.112444,0.207874,234.329,253.309
2013-10-06 16:00,0.359447,300.679,284.642,260.337,286.033,282.758,260.219,0.278107,0.326595,232.935,253.117
2013-10-06 17:00,0.428789,298.436,276.208,255.16,277.978,275.861,256.535,0.376798,0.421963,231.943,251.552
2013-10-06 18:00,0.476825,298.242,275.176,254.336,277.377,275.861,258.023,0.417321,0.463555,233.159,252.244
2013-10-06 19:00,0.876533,296.738,266.59,249.542,269.842,269.821,254.773,0.891319,0.993358,233.234,252.634
2013-10-06 20:00,1.17337,293.007,263.867,247.597,266.508,266.329,252.982,1.13063,1.30087,232.86,251.552
2013-10-06 21:00,1.63569,279.859,265.846,248.382,268.358,267.84,253.625,1.16381,1.55419,233.823,252.634
2013-10-06 22:00,-0.0,260.827,262.458,246.667,265.997,265.82,252.853,-0.0,-0.0,233.823,252.146
2013-10-06 23:00,-0.137911,267.123,262.931,247.2,265.826,264.795,251.944,-0.0837693,-0.0726416,234.113,252.146
2013-10-07 00:00,-0.0,257.605,261.017,245.995,264.618,264.795,251.683,-0.0,-0.0,234.968,252.146
2013-10-07 01:00,-0.00155071,264.009,265.696,248.771,268.855,268.339,253.497,-0.0,-0.0,234.968,252.925
2013-10-07 02:00,-0.0,281.705,278.226,255.277,280.493,277.701,256.535,-0.0,-0.0,234.401,252.537
2013-10-07 03:00,0.00128676,266.131,266.59,249.158,269.515,269.0,253.881,-0.0,-0.0,234.113,250.849
2013-10-07 04:00,-0.0,273.338,269.201,250.681,270.981,267.673,251.159,-0.0,-0.0,232.557,249.303
2013-10-07 05:00,0.00143861,271.798,260.854,245.723,259.421,254.664,239.913,-0.0,-0.0,226.122,239.39
2013-10-07 06:00,0.00172887,258.096,255.05,242.369,256.213,254.855,244.372,-0.0,-0.0,230.101,244.764
2013-10-07 07:00,0.00237673,264.739,263.712,247.332,266.167,265.48,251.814,-0.0,-0.0,233.456,250.849
2013-10-07 08:00,-0.0,284.249,282.682,259.024,285.061,282.904,259.735,-0.0,-0.0,233.234,251.949
2013-10-07 09:00,-0.0725661,276.594,269.059,250.681,267.69,264.106,247.415,-0.153604,-0.10989,228.224,243.336
2013-10-07 10:00,0.480244,279.859,269.201,250.429,270.332,267.339,249.838,0.467382,0.557282,230.674,247.59
2013-10-07 11:00,0.553985,280.799,256.118,243.509,254.657,252.341,240.938,0.45789,0.545964,227.87,241.093
2013-10-07 12:00,0.555461,289.247,256.644,243.509,255.633,253.316,241.519,0.52699,0.608263,229.601,243.937
2013-10-07 13:00,0.482473,277.24,246.942,238.195,246.794,245.186,237.373,0.553266,0.615805,225.931,237.608
2013-10-07 14:00,0.469187,278.482,255.587,242.513,256.406,256.18,244.932,0.623493,0.699538,232.175,247.04
2013-10-07 15:00,0.297888,297.649,276.718,255.51,276.772,271.765,253.111,0.170893,0.256546,235.178,252.244
2013-10-07 16:00,0.358813,301.913,272.796,253.02,273.843,269.494,251.553,0.227331,0.297289,234.472,251.652
2013-10-07 17:00,0.475375,293.007,265.995,249.029,267.522,266.667,252.205,0.436803,0.500371,235.455,252.439
2013-10-07 18:00,0.304571,301.826,286.217,261.091,286.86,282.613,259.127,0.200875,0.254078,234.543,253.785
2013-10-07 19:00,0.240209,298.436,291.383,264.236,292.47,288.306,262.136,0.176146,0.225184,235.386,254.907
2013-10-07 20:00,0.445224,300.498,287.76,261.731,289.032,285.065,260.581,0.398251,0.438605,234.686,254.629
2013-10-07 21:00,1.93488,293.702,276.591,255.742,278.725,274.929,256.535,1.36137,1.85709,235.662,254.722
2013-10-07 22:00,-0.0,266.466,269.767,251.305,273.529,273.517,256.785,-0.0,-0.0,235.455,254.629
2013-10-07 23:00,-0.108177,269.283,268.487,250.555,271.303,271.121,255.532,-0.0686947,-0.0637063,236.274,254.907
2013-10-08 00:00,-0.0,263.636,265.995,248.642,268.024,267.84,254.137,-0.0,-0.0,236.742,253.974
2013-10-08 01:00,-0.0,287.01,285.882,260.661,288.087,285.635,262.017,-0.0,-0.0,236.341,255.548
2013-10-08 02:00,-0.0,271.531,269.908,251.18,272.582,270.148,254.392,-0.0,-0.0,235.867,254.256
2013-10-08 03:00,-0.00128945,278.684,276.718,255.277,278.725,275.396,256.16,-0.0,-0.0,234.686,253.88
2013-10-08 04:00,-0.0,283.261,282.096,258.246,284.079,282.028,260.098,-0.0,-0.0,233.308,254.256
2013-10-08 05:00,-0.0,282.923,282.799,258.913,285.061,283.339,260.822,-0.0,-0.0,232.633,254.162
2013-10-08 06:00,0.00173589,283.261,283.148,259.134,285.479,283.629,261.421,-0.0,-0.0,232.02,253.69
2013-10-08 07:00,-0.0,282.753,282.916,258.691,285.479,284.205,261.301,-0.0,-0.0,230.916,253.117
2013-10-08 08:00,-0.0,280.427,277.852,255.393,279.022,276.169,255.027,-0.0,-0.0,229.263,249.928
2013-10-08 09:00,-0.120395,280.982,277.727,255.393,279.17,276.477,254.773,-0.203877,-0.202577,229.517,250.032
2013-10-08 10:00,0.565927,283.76,276.336,255.043,276.923,274.147,253.24,0.35477,0.510907,228.921,247.261
2013-10-08 11:00,0.615852,295.796,287.869,261.625,289.701,286.343,261.182,0.268486,0.457706,230.018,251.751
2013-10-08 12:00,0.500856,299.95,290.229,262.995,291.555,287.329,260.822,0.210511,0.365591,230.348,250.95
2013-10-08 13:00,0.404423,304.159,294.346,265.658,295.677,290.784,262.255,0.160206,0.285803,231.315,252.244
2013-10-08 14:00,0.344338,306.101,295.541,266.358,296.433,291.329,262.847,0.131738,0.239478,230.996,252.731
2013-10-08 15:00,0.303358,307.137,296.229,266.557,296.684,290.921,262.373,0.117125,0.20948,230.511,252.731
2013-10-08 16:00,0.296438,306.475,294.145,265.758,295.17,289.964,262.373,0.137001,0.218219,230.996,252.925
2013-10-08 17:00,0.295299,303.428,291.487,263.928,292.6,287.888,261.421,0.176961,0.245032,231.943,253.595
2013-10-08 18:00,0.420951,295.902,275.176,253.86,274.623,270.148,250.369,0.36997,0.44275,229.852,249.303
2013-10-08 19:00,0.164864,292.174,285.882,260.769,287.27,284.205,260.098,0.159532,0.188056,233.968,255.091
2013-10-08 20:00,0.809443,276.811,242.142,235.337,239.911,237.109,229.449,0.794525,0.958199,223.013,230.183
2013-10-08 21:00,0.364619,257.103,0.0,237.101,244.122,243.024,234.76,0.411629,0.490806,225.931,235.592
2013-10-08 22:00,-0.00743931,248.394,246.313,237.415,246.135,245.399,237.373,-0.0,-0.0,229.433,239.922
2013-10-08 23:00,-0.0722909,282.408,280.429,257.12,282.517,280.998,260.701,-0.0943632,-0.0608183,236.609,255.911
2013-10-09 00:00,0.00197829,279.859,278.598,255.974,280.785,279.211,259.005,-0.0,-0.0,236.071,256.001
2013-10-09 01:00,-0.0,285.97,284.982,259.683,287.134,285.065,262.017,-0.0,-0.0,237.203,258.114
2013-10-09 02:00,-0.0,281.705,281.386,257.91,284.079,282.321,261.062,-0.0,-0.0,237.137,257.682
2013-10-09 03:00,-0.0,265.446,267.473,250.177,270.332,269.821,255.28,-0.0,-0.0,236.808,255.821
2013-10-09 04:00,0.00131733,277.869,277.224,255.742,279.613,277.701,259.127,-0.0,-0.0,237.268,256.982
2013-10-09 05:00,0.0014475,278.482,279.702,256.549,282.231,281.293,260.822,-0.0,-0.0,236.94,257.246
2013-10-09 06:00,-0.0,282.581,283.148,258.691,285.479,284.205,262.136,-0.0,-0.0,237.913,259.554
2013-10-09 07:00,0.00240529,275.02,277.727,255.393,280.785,280.257,260.822,-0.0,-0.0,239.227,260.952
2013-10-09 08:00,-0.0,277.869,278.598,255.858,280.785,279.361,259.249,-0.0,-0.0,239.288,259.721
2013-10-09 09:00,-0.493123,277.026,277.977,255.277,280.201,279.511,259.856,-0.417527,-0.543095,239.653,260.135
2013-10-09 10:00,0.686916,289.113,281.386,257.798,283.938,282.758,261.54,0.540716,0.633887,240.43,261.275
2013-10-09 12:00,0.48443,301.037,286.55,260.876,288.763,286.485,262.373,0.276483,0.394872,241.131,261.275
2013-10-09 13:00,0.397441,302.511,294.746,266.059,295.93,292.41,264.605,0.153625,0.2893,240.782,261.194
2013-10-09 14:00,0.340978,304.636,295.244,266.358,296.182,291.871,263.67,0.134657,0.244049,240.371,260.627
2013-10-09 15:00,0.302766,301.826,291.591,264.031,292.86,289.826,262.847,0.174319,0.251864,240.134,261.355
2013-10-09 16:00,0.344031,294.156,281.86,258.913,283.797,282.613,261.182,0.325744,0.377197,240.253,260.789
2013-10-09 17:00,0.228878,292.174,283.032,259.024,284.501,282.613,261.062,0.226849,0.27728,239.653,260.135
2013-10-09 18:00,0.282877,301.653,293.641,265.859,295.297,291.871,264.605,0.142083,0.237178,239.532,261.355
2013-10-09 19:00,0.267184,290.558,284.642,260.445,285.618,283.629,261.182,0.256991,0.310738,238.671,259.638
2013-10-09 20:00,0.796683,274.073,234.477,231.973,231.957,230.17,225.36,0.771347,0.930534,222.368,227.323
2013-10-09 21:00,1.21764,282.923,261.179,245.995,258.304,254.089,239.765,0.883694,1.22928,225.156,238.303
2013-10-09 22:00,-0.00747986,247.601,240.277,234.681,239.183,238.515,232.867,-0.0,-0.0,225.156,231.859
2013-10-09 23:00,-0.0664338,260.827,246.313,237.415,245.248,243.461,235.691,-0.0715902,-0.051826,226.405,234.694
2013-10-10 00:00,-0.0,245.01,240.514,234.515,240.392,239.667,234.447,-0.0,-0.0,226.405,234.082
2013-10-10 01:00,0.00155914,269.283,267.473,250.051,268.855,268.007,251.944,-0.0,-0.0,228.312,247.699
2013-10-10 02:00,-0.0,260.395,255.587,243.084,255.049,252.536,240.5,-0.0,-0.0,227.329,242.478
2013-10-10 03:00,-0.0,275.251,271.574,252.412,272.741,270.798,252.853,-0.0,-0.0,229.093,248.775
2013-10-10 04:00,-0.0013207,261.666,254.871,241.791,254.066,252.144,240.793,-0.0,-0.0,227.147,241.728
2013-10-10 05:00,-0.00145203,274.551,272.796,253.02,274.467,273.042,254.646,-0.0,-0.0,231.315,254.536
2013-10-10 06:00,-0.00175012,282.234,280.549,257.572,282.231,280.702,259.127,-0.0,-0.0,231.552,256.091
2013-10-10 07:00,-0.0,279.473,281.505,258.469,284.361,283.484,262.255,-0.0,-0.0,233.308,259.471
2013-10-10 08:00,-0.0,281.526,283.032,259.354,285.757,284.492,262.373,-0.0,-0.0,233.456,259.22
2013-10-10 09:00,-0.405486,283.924,284.3,259.683,286.722,285.777,261.898,-0.429155,-0.562873,233.896,259.387
2013-10-10 10:00,0.524174,287.871,286.661,261.305,288.763,287.469,263.083,0.282429,0.454351,235.317,260.135
2013-10-10 11:00,0.602893,295.042,289.593,263.307,291.555,289.413,263.436,0.25633,0.467594,234.543,259.638
2013-10-10 12:00,0.486053,299.485,292.725,265.456,294.533,291.6,265.185,0.196692,0.368025,235.386,259.887
2013-10-10 13:00,0.396272,302.68,295.442,266.855,297.184,293.883,264.605,0.153174,0.292798,235.525,259.804
2013-10-10 14:00,0.341462,305.416,297.59,268.033,299.164,295.208,265.532,0.124674,0.247331,235.799,259.304
2013-10-10 15:00,0.29494,305.798,297.107,268.033,298.426,293.883,263.787,0.105417,0.213557,236.408,258.798
2013-10-10 16:00,0.276991,306.991,298.167,268.711,299.654,295.339,265.416,0.10215,0.200097,237.398,258.967
2013-10-10 17:00,0.26349,306.101,298.071,268.324,299.654,295.208,265.416,0.101304,0.195435,237.977,259.22
2013-10-10 18:00,0.245755,297.649,285.208,260.445,285.34,281.146,257.034,0.164843,0.230382,234.472,254.536
2013-10-10 19:00,0.356352,295.042,277.098,255.51,275.242,269.0,246.457,0.252941,0.357604,229.685,248.241
2013-10-10 20:00,0.648538,289.647,268.916,250.429,268.191,263.759,243.808,0.531014,0.687115,227.147,243.937
2013-10-10 21:00,0.914587,290.041,282.448,258.58,283.938,281.146,257.777,0.695819,0.976856,230.184,253.309
2013-10-10 22:00,-0.0,285.818,283.38,259.134,284.781,282.467,258.27,-0.0,-0.0,229.935,254.068
2013-10-10 23:00,-0.0575266,287.155,284.414,260.011,286.172,283.773,260.701,-0.0769069,-0.0427933,231.076,255.275
2013-10-11 00:00,-0.0,279.473,270.189,251.799,269.186,263.759,243.808,-0.0,-0.0,225.254,244.175
2013-10-11 01:00,-0.00156217,279.081,270.329,252.168,268.69,263.237,243.949,-0.0,-0.0,224.661,243.937
2013-10-11 02:00,-0.0,276.811,265.696,249.414,263.745,259.139,240.938,-0.0,-0.0,222.259,240.185
2013-10-11 03:00,0.00129792,261.666,244.38,237.258,239.669,234.461,225.709,-0.0,-0.0,217.096,228.242
2013-10-11 04:00,-0.0,267.444,253.779,241.791,251.652,247.293,234.916,-0.0,-0.0,222.04,235.592
2013-10-11 05:00,0.00145662,269.576,257.511,243.368,256.021,253.122,239.618,-0.0,-0.0,223.642,238.165
2013-10-11 06:00,-0.0,251.282,238.338,233.005,236.695,234.461,227.77,-0.0,-0.0,220.686,229.489
2013-10-11 07:00,-0.0,265.446,252.666,241.207,249.789,246.035,234.604,-0.0,-0.0,221.371,234.082
2013-10-11 08:00,-0.0,275.02,267.473,250.051,266.508,261.831,244.372,-0.0,-0.0,224.959,242.848
2013-10-11 09:00,-0.581813,275.932,271.023,251.305,272.104,269.821,251.944,-0.541882,-0.822325,229.007,246.595
2013-10-11 10:00,0.710729,287.01,280.549,257.346,281.221,279.061,257.034,0.407082,0.680592,228.575,248.562
2013-10-11 11:00,0.324042,253.81,242.597,234.845,242.049,241.698,234.916,0.540022,0.643894,226.778,235.592
2013-10-11 12:00,0.252754,265.095,248.177,237.728,247.878,245.824,237.222,0.334573,0.424085,227.147,237.608
2013-10-11 13:00,0.27488,277.661,262.458,246.801,262.329,259.684,245.905,0.241226,0.34833,228.662,243.093
2013-10-11 14:00,0.245708,276.376,261.662,245.723,260.706,259.139,245.211,0.217692,0.31071,227.87,242.23
2013-10-11 15:00,0.306462,306.771,295.541,266.557,296.935,292.141,263.318,0.136891,0.228998,230.101,251.85
2013-10-11 16:00,0.285153,297.449,284.414,259.902,285.618,282.758,260.581,0.239357,0.296565,231.709,251.949
2013-10-11 17:00,0.257735,296.323,281.505,258.022,282.66,280.108,258.147,0.223907,0.269686,232.557,250.95
2013-10-11 18:00,0.245395,300.858,292.52,264.849,294.405,290.511,263.318,0.147062,0.21235,231.236,251.652
2013-10-11 19:00,0.232194,296.84,289.486,262.786,290.897,286.767,261.062,0.160525,0.227962,229.935,250.032
2013-10-11 20:00,0.735695,292.534,263.712,247.465,261.25,254.472,236.765,0.571754,0.75708,224.258,238.027
2013-10-11 21:00,1.61462,281.883,252.479,241.354,247.878,242.585,233.026,1.12258,1.55054,220.916,230.863
2013-10-11 22:00,-0.0,254.396,245.248,237.572,243.438,240.123,232.867,-0.0,-0.0,223.642,233.773
2013-10-11 23:00,-0.0455418,261.251,247.357,237.728,245.471,242.585,232.867,-0.128534,-0.0459772,224.054,234.236
2013-10-12 00:00,-0.0,233.989,231.427,229.484,231.408,230.688,227.601,-0.0,-0.0,222.692,227.694
2013-10-12 01:00,0.00156532,246.775,238.83,233.175,238.199,236.396,230.276,-0.0,-0.0,225.643,233.304
2013-10-12 02:00,-0.0,258.096,251.339,240.32,251.242,249.955,240.207,-0.0,-0.0,227.51,238.441
2013-10-12 03:00,-0.0,240.898,236.06,231.799,236.186,235.435,231.257,-0.0,-0.0,225.546,231.53
2013-10-12 04:00,-0.0,240.898,241.451,235.337,241.815,241.698,235.537,-0.0,-0.0,227.329,236.033
2013-10-12 05:00,-0.0,249.156,247.769,238.195,248.093,247.708,240.207,-0.0,-0.0,228.4,240.316
2013-10-12 06:00,-0.0,253.206,249.978,240.021,249.368,247.915,239.913,-0.0,-0.0,225.931,238.303
2013-10-12 07:00,-0.0024489,250.598,247.973,238.349,248.093,246.457,238.128,-0.0,-0.0,226.592,239.39
2013-10-12 08:00,-0.0,245.01,245.032,236.943,247.012,246.457,239.173,-0.0,-0.0,229.517,239.523
2013-10-12 09:00,-0.612946,245.913,243.049,235.985,243.895,243.461,237.07,-0.864967,-1.1001,228.921,238.027
2013-10-12 10:00,0.356053,265.446,252.479,240.766,253.469,252.341,243.525,0.585462,0.682446,229.685,242.725
2013-10-12 11:00,0.603341,289.779,254.509,242.225,255.633,253.316,242.384,0.532494,0.64008,229.601,242.478
2013-10-12 12:00,0.586921,297.146,258.365,244.488,260.888,259.864,247.687,0.486436,0.580001,230.674,246.258
2013-10-12 13:00,0.399754,297.549,268.199,250.051,269.186,265.82,250.104,0.285283,0.373307,230.593,247.04
2013-10-12 14:00,0.478976,293.124,252.29,241.207,254.066,252.927,243.667,0.405548,0.483554,232.481,243.937
2013-10-12 15:00,0.492593,294.602,254.871,242.656,257.361,255.803,245.211,0.477243,0.528916,233.085,245.46
2013-10-12 16:00,0.4737,287.587,262.458,247.067,265.138,264.623,251.553,0.582919,0.626901,233.456,248.775
2013-10-12 17:00,0.510712,292.053,259.706,245.995,262.685,262.008,249.572,0.578829,0.649568,234.041,248.669
2013-10-12 18:00,0.660335,299.297,260.201,245.723,263.04,262.008,249.971,0.695176,0.769456,233.53,248.455
2013-10-12 19:00,0.844253,294.823,266.293,248.9,268.855,268.67,254.264,0.81566,0.899556,232.328,249.825
2013-10-12 20:00,1.02794,294.491,265.696,248.9,268.69,268.007,253.625,0.924375,1.03061,231.709,249.408
2013-10-12 21:00,0.493891,268.986,263.088,247.597,265.654,265.138,251.422,0.506214,0.603583,230.266,248.775
2013-10-12 22:00,-0.0,256.062,252.853,241.5,254.066,252.536,242.241,-0.0,-0.0,228.048,241.221
2013-10-12 23:00,-0.0395842,262.869,259.871,245.314,261.069,259.864,247.551,-0.108282,-0.0430367,228.488,245.114
2013-10-13 00:00,-0.0,257.605,254.871,242.513,255.244,253.703,243.808,-0.0016892,-0.00201411,230.348,243.818
2013-10-13 01:00,-0.00156858,264.377,263.556,247.465,264.27,262.888,250.236,-0.0,-0.0,233.456,247.917
2013-10-13 02:00,-0.0,254.966,255.764,243.368,258.304,257.486,246.732,-0.0,-0.0,234.472,247.151
2013-10-13 03:00,-0.0,257.605,260.528,246.265,263.745,263.412,250.236,-0.0,-0.0,236.274,249.928
2013-10-13 04:00,-0.0,257.605,259.206,244.903,261.431,260.764,249.572,-0.0,-0.0,236.94,250.34
2013-10-13 05:00,-0.0,268.382,265.696,249.286,267.185,265.48,251.291,-0.0,-0.0,234.543,249.617
2013-10-13 06:00,0.00177189,262.475,259.373,245.177,260.888,259.502,246.732,-0.0,-0.0,233.456,248.133
2013-10-13 07:00,0.0024636,282.408,278.226,256.205,279.022,276.477,255.28,-0.0,-0.0,233.159,249.408
2013-10-13 08:00,-0.0,281.705,277.977,256.32,278.427,276.015,254.9,-0.0,-0.0,230.511,248.025
2013-10-13 09:00,-0.491087,282.234,277.601,255.974,279.022,275.24,253.497,-0.554404,-0.661043,229.601,248.133
2013-10-13 10:00,0.63716,290.301,285.433,260.661,286.997,283.773,259.856,0.319373,0.509454,230.593,250.95
2013-10-13 11:00,0.61766,298.045,290.123,263.307,291.555,287.329,261.421,0.262562,0.467032,231.473,251.85
2013-10-13 12:00,0.492887,303.428,289.486,263.099,290.367,285.493,260.219,0.227361,0.370969,231.63,252.244
2013-10-13 13:00,0.40295,302.68,278.226,256.32,279.76,275.085,254.773,0.235087,0.339241,231.787,252.342
2013-10-13 14:00,0.43509,293.007,262.774,247.067,264.444,263.063,250.104,0.339559,0.422697,231.709,250.135
2013-10-13 15:00,0.453265,280.427,260.036,245.04,262.15,262.008,249.838,0.467253,0.537708,234.113,250.748
2013-10-13 16:00,0.38476,290.939,260.365,245.995,260.341,257.115,244.792,0.333038,0.400809,230.348,246.032
2013-10-13 17:00,0.310549,295.368,272.662,253.02,270.981,265.309,246.594,0.21874,0.301356,227.601,243.336
2013-10-13 18:00,0.476666,288.291,265.092,248.642,266.338,264.795,251.159,0.461441,0.543782,233.308,250.849
2013-10-13 19:00,0.666603,302.171,273.865,253.381,275.396,272.405,255.406,0.512284,0.63654,233.382,252.146
2013-10-13 20:00,0.463083,293.124,279.945,257.233,280.347,275.396,252.853,0.383113,0.474648,230.511,247.261
2013-10-13 21:00,0.74619,273.586,265.846,249.158,268.358,266.835,251.553,0.620904,0.805276,232.709,250.748
2013-10-13 22:00,-0.0,271.531,266.738,249.414,269.021,266.498,250.236,-0.0,-0.0,230.184,248.455
2013-10-13 23:00,-0.0427586,263.636,255.764,242.656,254.263,252.927,241.519,-0.0879231,-0.0370006,224.56,238.303
2013-10-14 00:00,-0.00199969,251.282,245.676,237.101,246.135,244.112,236.46,-0.00169314,-0.00201881,225.931,238.165
2013-10-14 01:00,0.00157196,232.213,226.261,226.866,226.221,225.597,224.304,-0.0,-0.0,220.686,223.377
2013-10-14 02:00,-0.0,239.711,237.339,232.663,237.2,236.157,231.905,-0.0,-0.0,225.546,232.508
2013-10-14 03:00,-0.00130697,246.775,244.38,236.784,243.895,243.243,236.307,-0.0,-0.0,227.51,235.887
2013-10-14 04:00,-0.0,266.797,266.442,249.286,268.191,267.339,252.464,-0.0,-0.0,230.674,247.371
2013-10-14 05:00,-0.0,256.062,257.683,244.21,260.158,259.321,248.229,-0.0,-0.0,230.511,246.032
2013-10-14 06:00,-0.0,259.954,259.206,245.314,261.431,259.864,247.687,-0.0,-0.0,229.935,245.804
2013-10-14 07:00,0.00247836,240.898,240.277,233.849,240.631,240.123,235.072,-0.0,-0.0,227.959,235.592
2013-10-14 08:00,-0.0,246.775,245.89,237.258,246.575,246.035,239.322,-0.0,-0.0,228.835,239.656
2013-10-14 09:00,-0.408451,253.206,250.954,239.871,252.262,251.156,242.527,-1.12396,-1.34015,229.348,242.478
2013-10-14 10:00,0.337487,267.123,261.501,245.587,261.971,260.942,248.364,0.511791,0.650915,230.43,245.46
2013-10-14 11:00,0.525742,297.146,275.951,255.16,276.62,272.405,253.753,0.316738,0.44656,230.996,246.032
2013-10-14 12:00,0.364378,293.356,271.711,251.922,270.819,266.498,248.903,0.254863,0.380301,230.996,244.412
2013-10-14 13:00,0.336573,297.549,284.3,259.683,284.501,279.661,257.158,0.17315,0.278141,231.552,248.241
2013-10-14 14:00,0.322191,304.078,288.195,262.366,287.951,282.613,258.638,0.151318,0.243953,231.473,248.775
2013-10-14 15:00,0.409292,297.248,268.773,251.056,271.625,269.657,253.625,0.301832,0.368371,230.266,248.455
2013-10-14 16:00,0.274076,279.667,265.995,248.771,268.024,266.16,250.633,0.332549,0.366869,230.266,247.151
2013-10-14 17:00,0.57747,288.43,261.017,246.533,263.569,262.361,249.037,0.698328,0.75033,231.236,247.481
2013-10-14 18:00,0.415698,262.869,243.273,235.499,243.667,242.364,236.613,0.646175,0.727217,229.348,238.441
2013-10-14 19:00,0.73963,295.69,263.867,247.859,265.654,263.933,250.501,0.741085,0.815166,230.511,247.261
2013-10-14 21:00,0.636587,265.791,258.871,244.903,261.611,260.942,249.438,0.592897,0.719793,230.018,246.483
2013-10-14 22:00,-0.00771973,245.913,242.142,235.01,242.747,242.364,235.846,-0.0,-0.0,227.238,235.146
2013-10-14 23:00,-0.0367664,258.576,258.195,244.903,261.069,260.405,248.768,-0.0959842,-0.0340247,230.348,246.818
2013-10-15 00:00,-0.00200454,257.103,257.166,243.65,259.236,258.957,247.415,-0.00169724,-0.0,230.101,245.804
2013-10-15 01:00,-0.0,257.103,257.166,243.79,259.791,258.957,248.364,-0.0,-0.0,230.348,247.04
2013-10-15 02:00,-0.0,258.576,257.854,244.07,260.341,260.045,248.364,-0.0,-0.0,231.787,247.371
2013-10-15 03:00,0.00131011,265.446,261.822,246.934,263.92,261.477,249.838,-0.0,-0.0,231.552,247.59
2013-10-15 04:00,-0.0,259.505,258.534,245.177,261.25,259.684,248.499,-0.0,-0.0,229.685,246.595
2013-10-15 05:00,-0.0,264.739,262.774,247.597,264.965,263.063,250.104,-0.0,-0.0,229.935,247.261
2013-10-15 06:00,0.00178662,284.888,282.566,259.024,284.641,281.882,259.249,-0.0,-0.0,230.43,249.408
2013-10-15 07:00,-0.0,265.095,261.822,246.801,263.745,262.185,249.705,-0.0,-0.0,230.835,247.261
2013-10-15 08:00,-0.0,273.088,272.662,253.02,275.703,273.359,256.285,-0.0,-0.0,230.348,248.775
2013-10-15 09:00,-1.7542,280.982,279.336,256.778,282.087,279.361,258.392,-1.59953,-1.9072,231.315,249.198
2013-10-15 10:00,0.63739,291.44,285.77,260.445,287.951,284.922,260.219,0.358379,0.537912,231.865,249.721
2013-10-15 11:00,0.588255,296.531,286.882,261.412,287.815,283.484,258.392,0.261808,0.459367,228.921,246.371
2013-10-15 12:00,0.489412,302.256,290.86,263.618,292.73,287.469,261.301,0.21239,0.370125,230.835,249.198
2013-10-15 13:00,0.405135,304.557,290.123,263.721,291.817,285.208,258.882,0.177511,0.306041,232.481,249.408
2013-10-15 14:00,0.327837,305.569,292.52,264.849,293.506,286.767,260.219,0.141448,0.242205,233.159,249.825
2013-10-15 15:00,0.297182,308.351,297.3,267.74,298.426,292.276,262.847,0.108563,0.206871,233.456,250.646
2013-10-15 16:00,0.283459,304.239,291.694,264.236,292.73,287.888,261.301,0.164486,0.230662,234.113,250.95
2013-10-15 17:00,0.456549,293.587,271.299,251.552,274.0,272.883,255.784,0.464549,0.525603,235.593,250.748
2013-10-15 18:00,0.453138,297.146,277.224,255.742,279.613,276.938,257.158,0.454771,0.540646,235.386,251.85
2013-10-15 19:00,0.609296,265.446,220.75,224.305,220.852,219.472,218.218,0.823991,0.946176,216.695,217.918
2013-10-15 20:00,0.892871,292.053,266.738,249.542,268.024,266.667,253.111,0.878023,0.986579,234.543,249.617
2013-10-15 21:00,0.088175,256.589,257.339,244.488,260.158,259.321,248.903,0.266635,0.228903,234.968,248.025
2013-10-15 22:00,-0.00777592,249.156,243.719,236.784,242.978,240.802,233.185,-0.0,0.00785026,223.538,233.928
2013-10-15 23:00,-0.0338138,253.206,247.769,238.81,248.307,246.666,237.676,-0.104109,-0.0310337,225.352,238.714
2013-10-16 00:00,-0.00200957,260.827,258.025,244.488,259.421,258.04,245.628,-0.0017015,-0.00202878,229.601,244.998
2013-10-16 01:00,-0.0,225.382,220.006,224.102,218.13,217.29,216.466,-0.0,-0.0,213.693,214.511
2013-10-16 02:00,-0.0,244.063,243.496,236.146,244.122,243.461,237.676,-0.0,-0.0,229.348,238.303
2013-10-16 03:00,-0.0,246.775,245.89,237.572,247.012,244.973,238.128,-0.0,-0.0,229.178,238.027
2013-10-16 04:00,-0.0,240.898,239.317,233.681,240.152,238.747,233.976,-0.0,-0.0,229.178,235.74
2013-10-16 05:00,-0.0,250.598,249.781,239.115,250.623,250.156,242.097,-0.0,-0.0,233.308,242.848
2013-10-16 06:00,-0.00179403,262.869,260.854,246.13,262.15,260.584,248.499,-0.0,-0.0,233.677,247.59
2013-10-16 07:00,0.00250804,256.589,258.871,245.04,262.329,261.477,249.572,-0.0,-0.00253201,233.896,248.562
2013-10-16 08:00,-0.00475448,259.045,260.036,245.314,262.507,262.008,249.971,-0.0,-0.0,233.53,248.882
2013-10-16 09:00,-0.39429,274.073,270.468,251.922,271.945,269.0,252.594,-1.5023,-1.39321,233.896,249.513
2013-10-16 10:00,0.748547,281.346,258.534,244.488,261.25,260.942,249.705,0.687999,0.795476,234.257,248.882
2013-10-16 11:00,0.687695,298.822,261.501,246.667,263.92,262.888,250.633,0.556862,0.653875,237.657,250.849
2013-10-16 12:00,0.428325,299.108,280.187,257.685,281.221,277.396,257.158,0.276807,0.384765,238.231,252.828
2013-10-16 13:00,0.507303,296.84,265.545,249.029,267.857,267.171,253.111,0.415175,0.495034,238.168,252.342
2013-10-16 14:00,0.3059,301.478,289.805,263.618,290.897,286.06,260.34,0.143302,0.235415,238.104,253.69
2013-10-16 15:00,0.275178,304.078,294.446,266.358,295.424,290.375,262.492,0.10434,0.196881,238.795,253.69
2013-10-16 16:00,0.258663,304.794,294.945,266.557,295.424,289.964,262.373,0.105373,0.192157,238.294,253.974
2013-10-16 17:00,0.302631,303.098,288.951,263.203,290.367,285.065,260.581,0.208828,0.28399,238.42,253.785
2013-10-16 18:00,0.373396,292.414,273.599,253.501,274.933,272.405,254.264,0.47691,0.551073,236.408,252.439
2013-10-16 19:00,0.253431,286.569,272.391,253.02,273.843,272.246,255.28,0.31114,0.34327,236.94,252.925
2013-10-16 20:00,0.581848,300.589,286.661,261.731,288.087,284.205,260.34,0.549038,0.615719,239.714,255.275
2013-10-16 21:00,0.523301,292.174,285.994,261.519,287.407,284.061,259.005,0.569672,0.628933,233.603,252.342
2013-10-16 22:00,-0.0,288.152,285.433,260.984,287.27,284.205,259.977,-0.0,-0.0,234.472,252.342
2013-10-16 23:00,-0.0308455,286.864,283.264,259.793,284.781,281.441,257.777,-0.0861856,-0.0404825,232.935,250.95
2013-10-17 00:00,-0.0,281.526,272.662,253.381,271.785,265.309,244.231,-0.0,-0.0,231.787,245.918
2013-10-17 01:00,-0.0,285.818,281.86,259.134,283.23,279.361,256.66,-0.0,-0.0,233.308,250.442
2013-10-17 02:00,-0.0,253.81,246.523,237.415,245.248,242.805,234.604,-0.0,-0.0,227.329,237.327
2013-10-17 03:00,-0.0,227.984,217.685,224.102,215.993,212.329,212.619,-0.0,-0.0,214.145,215.061
2013-10-17 04:00,-0.0,260.395,254.509,242.942,253.469,248.736,237.525,-0.0,-0.0,227.42,241.093
2013-10-17 05:00,-0.0,258.576,257.511,244.349,256.98,255.045,244.512,-0.0,-0.0,233.085,246.707
2013-10-17 06:00,-0.0,227.984,226.902,227.248,227.118,226.974,223.77,-0.0,-0.0,221.596,225.21
2013-10-17 07:00,-0.0,267.761,267.764,250.429,270.332,268.835,252.723,-0.0,-0.0,235.525,253.69
2013-10-17 08:00,-0.0,269.865,268.916,251.056,269.842,267.673,251.028,-0.0,-0.0,233.677,252.047
2013-10-17 09:00,-2.87818,279.859,274.524,254.69,274.623,270.473,251.553,-3.35081,-3.99533,233.896,252.731
2013-10-17 10:00,0.779543,289.247,265.243,249.286,268.191,267.673,252.982,0.651787,0.757482,236.408,255.183
2013-10-17 11:00,0.768792,299.203,266.145,249.797,268.191,267.171,252.982,0.68464,0.771117,236.94,254.629
2013-10-17 12:00,0.545427,299.485,283.495,260.011,285.34,282.467,259.37,0.389516,0.448606,236.139,256.45
2013-10-17 13:00,0.338346,295.796,282.448,259.134,281.799,276.784,254.646,0.17308,0.281804,232.633,251.751
2013-10-17 14:00,0.29908,298.242,284.528,260.119,283.514,278.004,254.519,0.136681,0.241299,232.557,251.652
2013-10-17 15:00,0.274758,296.008,278.845,257.346,276.923,270.635,249.305,0.149697,0.233968,229.348,247.59
2013-10-17 16:00,0.22176,295.69,285.208,260.876,285.757,282.321,258.392,0.185701,0.238642,234.615,255.091
2013-10-17 17:00,0.195724,265.446,261.34,246.265,262.15,261.654,251.159,0.491521,0.556492,234.968,251.152
2013-10-17 18:00,0.426598,297.848,277.476,256.089,279.907,277.091,257.034,0.464209,0.531168,235.455,256.181
2013-10-17 19:00,0.316232,294.823,284.071,260.228,284.501,280.702,257.53,0.258828,0.321383,232.784,252.342
2013-10-17 20:00,0.992524,278.684,234.208,231.799,232.502,229.909,224.657,1.0623,1.28074,223.013,228.423
2013-10-17 21:00,1.05962,273.586,206.1,219.855,205.497,204.159,206.97,0.813722,1.09463,206.084,205.868
2013-10-17 22:00,-0.0,213.142,203.838,218.272,202.701,201.271,203.468,-0.0,-0.0,205.015,205.109
2013-10-17 23:00,-0.0278602,218.393,195.165,214.927,193.017,192.954,196.596,-0.0629046,-0.0312518,197.221,195.457
2013-10-18 00:00,-0.00202023,218.393,196.665,215.909,195.943,194.933,199.751,-0.00171052,-0.00203954,198.14,197.598
2013-10-18 01:00,-0.0031732,204.719,199.463,216.392,197.056,196.831,201.515,-0.0,-0.0,198.14,199.57
2013-10-18 02:00,-0.0,218.393,203.247,218.73,200.227,197.752,201.266,-0.0,-0.0,201.465,201.84
2013-10-18 03:00,0.0013199,213.142,203.247,218.502,202.217,201.694,204.422,-0.0,-0.0,204.573,204.328
2013-10-18 04:00,-0.0,213.142,203.838,218.041,203.179,202.529,204.658,-0.0,-0.0,204.573,203.524
2013-10-18 05:00,-0.0,218.393,207.178,219.409,205.043,203.757,205.361,-0.0,-0.0,204.795,206.606
2013-10-18 06:00,-0.0,213.142,216.058,223.076,214.89,213.356,213.035,-0.0,-0.0,213.234,214.233
2013-10-18 07:00,-0.0,218.393,206.643,218.272,205.946,204.955,207.197,-0.0,-0.0,206.905,207.326
2013-10-18 08:00,-0.00486221,238.442,218.862,224.305,213.763,210.219,208.982,-0.0,-0.0,209.023,212.8
2013-10-18 09:00,-16.8653,245.913,225.282,227.438,221.838,217.29,213.653,-19.0398,-22.702,215.734,222.096
2013-10-18 10:00,0.597928,255.521,230.85,229.484,228.871,226.426,221.782,0.792059,0.905466,218.517,226.187
2013-10-18 11:00,0.497631,263.636,226.583,227.628,224.384,220.685,216.663,0.656121,0.732337,213.541,220.989
2013-10-18 12:00,0.383901,278.279,248.177,239.419,244.122,237.815,226.402,0.413297,0.466488,218.517,230.354
2013-10-18 13:00,0.371335,263.636,222.552,226.481,219.847,217.922,215.873,0.515678,0.573688,215.167,218.41
2013-10-18 14:00,0.309792,262.074,222.198,225.897,219.167,217.29,216.466,0.41672,0.481742,214.879,217.918
2013-10-18 15:00,0.312523,263.636,219.628,224.908,216.715,215.683,215.674,0.418129,0.498555,213.995,215.867
2013-10-18 16:00,0.270144,275.251,246.733,238.349,242.978,239.208,230.604,0.238004,0.320638,220.219,228.782
2013-10-18 17:00,0.264624,296.114,281.978,258.469,281.51,276.784,254.009,0.145243,0.237619,229.517,249.303
2013-10-18 18:00,0.407077,269.865,220.006,225.107,215.26,214.364,214.062,0.459562,0.546365,209.748,212.207
2013-10-18 19:00,0.502971,282.753,247.15,237.884,244.349,238.747,226.918,0.504267,0.63738,222.476,232.669
2013-10-18 20:00,0.721253,279.473,239.074,234.35,237.2,233.722,226.402,0.678538,0.798501,219.503,228.782
2013-10-18 21:00,1.51051,271.531,210.707,220.954,209.394,208.397,209.638,1.14486,1.56184,210.452,210.353
2013-10-18 22:00,-0.00796324,218.393,212.119,221.6,210.625,210.576,210.718,-0.0,-0.0,210.452,211.602
2013-10-18 23:00,-0.0248566,230.231,222.552,225.504,221.838,221.283,219.551,-0.0605075,-0.028231,219.137,221.213
2013-10-19 00:00,-0.0,268.073,255.23,242.942,253.469,246.876,234.604,-0.00171528,-0.00204521,224.76,238.85
2013-10-19 01:00,-0.00159055,263.255,259.706,245.177,261.431,259.321,246.869,-0.0,-0.0,231.787,248.241
2013-10-19 02:00,-0.0,270.434,264.482,247.859,265.31,262.008,247.551,-0.0,-0.0,230.511,246.929
2013-10-19 03:00,-0.0,278.883,276.591,255.51,278.576,275.706,255.28,-0.0,-0.00133593,231.473,250.849
2013-10-19 04:00,-0.0013533,270.434,260.201,245.451,260.158,255.235,240.646,-0.0,-0.00136623,227.055,241.475
2013-10-19 05:00,-0.0,262.074,250.954,240.021,250.207,247.085,235.537,-0.0,-0.0,223.952,235.146
2013-10-19 06:00,-0.0,266.797,259.039,244.21,258.865,256.367,242.241,-0.0,-0.0,225.835,239.922
2013-10-19 07:00,-0.0,280.05,280.669,257.12,282.66,280.998,259.37,-0.0,-0.0,232.481,253.309
2013-10-19 08:00,0.00491654,277.24,275.823,254.217,277.678,276.015,255.658,-0.0,-0.0,231.315,251.652
2013-10-19 09:00,1.80308,285.357,285.882,260.119,288.628,287.469,263.2,5.08888,4.85417,234.615,257.07
2013-10-19 10:00,0.544252,290.301,287.102,260.661,289.835,288.306,263.905,0.351676,0.472338,236.274,258.457
2013-10-19 11:00,0.576583,298.822,285.658,260.011,288.628,287.048,263.436,0.369273,0.490054,235.593,259.721
2013-10-19 12:00,0.469332,300.589,289.058,261.731,290.897,288.722,263.2,0.283007,0.393392,238.357,262.857
2013-10-19 13:00,0.501049,300.679,284.869,259.464,287.815,286.485,263.67,0.412354,0.474666,239.166,262.623
2013-10-19 14:00,0.325475,300.769,291.279,263.307,292.73,289.964,264.022,0.166826,0.269415,238.608,262.23
2013-10-19 15:00,0.297785,298.822,289.379,262.155,290.897,288.584,263.436,0.194647,0.274176,238.981,262.701
2013-10-19 16:00,0.264939,298.918,290.44,262.89,291.817,289.137,263.67,0.15538,0.234345,239.532,262.779
2013-10-19 17:00,0.265623,301.565,293.641,264.441,295.043,292.006,264.605,0.120323,0.211848,238.919,262.701
2013-10-19 18:00,0.274165,299.485,292.622,264.031,294.277,291.871,265.301,0.157425,0.238608,239.593,263.09
2013-10-19 19:00,0.317209,297.848,290.229,262.995,291.817,289.137,262.492,0.200991,0.299033,240.724,262.23
2013-10-19 20:00,0.270945,295.583,292.211,264.031,294.277,291.735,264.605,0.191174,0.270028,242.655,262.23
2013-10-19 21:00,0.433464,292.534,289.165,262.261,291.16,288.999,263.2,0.479156,0.534854,242.544,262.151
2013-10-19 22:00,-0.0,286.717,284.982,259.902,287.134,284.779,261.062,-0.0,-0.0,237.072,256.805
2013-10-19 23:00,-0.0218334,270.151,262.774,247.465,258.865,248.327,234.134,-0.0369725,-0.0251909,229.007,245.804
2013-10-20 00:00,-0.00203167,266.466,260.854,245.587,260.158,256.742,243.808,-0.0,-0.0,233.085,247.371
2013-10-20 01:00,-0.0,282.923,276.971,254.808,276.163,273.359,253.497,-0.0,-0.0,233.159,252.634
2013-10-20 02:00,-0.0,282.059,280.549,257.346,282.231,279.511,257.9,-0.0,-0.0,236.207,257.158
2013-10-20 03:00,-0.0,279.667,274.129,253.98,273.843,268.007,247.823,-0.0,-0.0,234.686,252.731
2013-10-20 04:00,-0.0,267.444,262.616,247.465,262.685,258.774,244.652,-0.0,-0.0,235.317,251.452
2013-10-20 05:00,0.00149979,275.251,264.021,247.991,262.863,258.957,242.527,-0.0,-0.0,229.348,245.23
2013-10-20 06:00,-0.0,285.202,284.869,259.793,286.86,285.065,262.017,-0.0,-0.0,237.977,260.299
2013-10-20 07:00,-0.0,281.165,278.35,256.434,278.873,276.015,255.28,-0.0,-0.0,234.329,254.536
2013-10-20 08:00,-0.0,279.081,280.789,257.459,283.514,282.175,260.581,-0.0,-0.0,235.731,258.882
2013-10-20 09:00,0.262367,284.57,284.071,259.464,285.895,283.917,260.581,2.4436,2.119,239.288,260.217
2013-10-20 10:00,0.510676,290.429,288.087,261.944,289.835,288.027,263.2,0.264238,0.4535,244.217,262.701
2013-10-20 11:00,0.596019,296.531,288.195,262.471,290.367,288.584,264.372,0.338509,0.458097,244.635,263.322
2013-10-20 12:00,0.492139,300.769,289.165,262.576,291.029,288.999,264.138,0.286568,0.395732,243.74,262.701
2013-10-20 13:00,0.413161,300.408,289.272,262.471,291.16,289.276,264.488,0.290531,0.378935,244.322,263.399
2013-10-20 14:00,0.32992,302.932,293.235,264.95,295.043,291.735,265.069,0.149686,0.257661,244.635,263.858
2013-10-20 15:00,0.309271,302.68,292.314,264.645,293.892,290.784,264.022,0.150065,0.246179,244.635,262.935
2013-10-20 16:00,0.287674,302.426,292.108,264.441,293.377,289.689,263.083,0.129495,0.223026,244.006,262.309
2013-10-20 18:00,0.283232,300.225,292.725,264.747,294.533,291.6,265.185,0.151881,0.233518,245.253,263.167
2013-10-20 19:00,0.306153,298.242,290.756,263.721,292.079,288.722,262.492,0.179323,0.273091,244.79,261.834
2013-10-20 20:00,0.263172,295.26,292.108,264.441,294.021,291.735,264.255,0.164189,0.248209,246.603,263.629
2013-10-20 22:00,0.00810516,288.43,288.736,262.471,291.423,289.964,264.721,-0.0,-0.0,247.617,263.706
2013-10-20 23:00,-0.018789,288.152,287.978,261.838,290.101,288.445,263.905,-0.0291659,-0.0252915,246.993,262.935
2013-10-21 00:00,-0.00203768,287.3,287.322,261.519,289.968,288.445,263.905,-0.0017253,-0.00205716,246.109,263.012
2013-10-21 01:00,-0.00159878,286.121,285.77,260.661,287.679,286.202,261.66,-0.0,-0.0,243.526,261.595
2013-10-21 02:00,-0.0,286.569,287.212,261.305,289.568,288.584,263.083,-0.0,-0.0,240.782,261.755
2013-10-21 03:00,-0.0,286.421,287.432,261.731,290.101,288.861,264.372,-0.0,-0.0,242.875,261.914
2013-10-21 04:00,-0.0,286.569,287.212,261.625,289.701,288.445,264.721,-0.0,-0.0,241.76,261.834
2013-10-21 05:00,-0.0,286.271,286.882,261.519,289.3,288.167,263.67,-0.0,-0.0,238.981,260.217
2013-10-21 06:00,-0.0,285.512,285.433,260.661,287.407,285.777,262.373,-0.0,-0.0,238.795,259.721
2013-10-21 07:00,-0.00258244,280.799,281.386,258.469,283.656,281.293,258.515,-0.0,-0.0,236.609,256.894
2013-10-21 08:00,-0.0,279.667,281.86,258.802,284.501,283.049,259.735,-0.0,-0.0,237.006,257.942
2013-10-21 09:00,4.57014,280.427,281.742,258.802,284.641,283.339,260.34,4.01285,4.61383,238.357,258.798
2013-10-21 10:00,0.763648,291.065,282.916,259.354,286.31,286.06,262.61,0.702114,0.723651,240.899,261.033
2013-10-21 11:00,0.847355,299.579,283.956,259.793,287.543,286.907,264.138,0.715387,0.756844,240.841,261.515
2013-10-21 12:00,0.561361,283.594,245.463,239.57,238.693,231.203,221.046,0.545287,0.618881,218.767,230.183
2013-10-21 13:00,0.451464,284.41,246.313,239.721,239.426,231.203,219.551,0.421307,0.500934,219.982,231.198
2013-10-21 14:00,0.411439,286.121,258.703,246.399,254.854,248.941,233.185,0.416774,0.486901,227.147,240.316
2013-10-21 15:00,0.327869,286.864,255.587,244.765,250.83,243.024,228.109,0.259501,0.339398,225.058,236.614
2013-10-21 16:00,0.305515,286.421,258.365,245.314,254.066,246.876,231.581,0.243281,0.319451,226.778,238.303
2013-10-21 17:00,0.264982,294.043,273.333,254.217,270.657,263.412,242.241,0.152564,0.242101,232.935,246.258
2013-10-21 18:00,0.27342,296.008,279.213,257.798,277.978,271.605,248.903,0.16498,0.247479,236.94,251.051
2013-10-21 19:00,0.288851,296.635,283.38,259.793,282.803,277.548,253.881,0.186085,0.259915,239.954,254.162
2013-10-21 20:00,0.37279,295.476,287.541,261.944,288.222,285.208,260.701,0.318563,0.386808,244.997,259.638
2013-10-21 21:00,0.858189,293.124,284.642,260.876,285.479,282.175,259.127,0.746535,0.901998,244.997,259.135
2013-10-21 22:00,-0.0,288.705,287.651,261.838,289.3,286.767,262.017,-0.0,-0.0,245.91,260.871
2013-10-21 23:00,-0.0188667,286.717,282.566,259.134,283.372,279.661,256.035,-0.026624,-0.0222216,243.686,257.508
2013-10-22 00:00,-0.0,281.526,273.199,253.261,272.423,267.673,247.006,-0.00173057,-0.00206344,238.857,251.152
2013-10-22 01:00,0.00160307,282.059,275.436,254.217,275.55,271.765,250.501,-0.0,-0.0,237.137,252.146
2013-10-22 02:00,-0.00140319,280.05,272.796,252.656,272.899,269.657,249.838,-0.0,-0.0,235.317,249.825
2013-10-22 03:00,-0.0,285.202,283.38,259.244,285.061,282.467,259.249,-0.0,-0.00134648,240.014,256.539
2013-10-22 04:00,0.00136495,285.818,284.982,260.011,286.997,284.636,261.062,-0.0,-0.0,240.724,257.855
2013-10-22 05:00,-0.00150972,285.512,284.642,260.011,,,,-0.0,-0.0,240.899,257.942
2013-10-22 07:00,0.00259725,284.57,283.148,258.913,284.781,282.175,259.127,-0.0,-0.0,239.532,256.181
2013-10-22 10:00,0.390053,285.045,273.333,253.261,272.104,266.835,246.182,0.298804,0.417221,229.433,247.151
2013-10-22 11:00,0.425529,288.152,269.767,250.681,267.69,261.654,242.671,0.26353,0.405049,227.959,244.056
2013-10-22 12:00,0.338315,282.059,256.118,242.656,252.262,246.666,232.066,0.247191,0.365822,221.819,234.542
2013-10-22 13:00,0.291558,280.427,253.595,240.913,249.789,245.399,233.026,0.233869,0.332371,222.692,234.694
2013-10-22 14:00,0.366135,296.427,277.224,255.277,276.62,271.926,250.369,0.259564,0.359611,228.488,248.775
2013-10-22 15:00,0.307282,302.171,287.212,261.305,287.679,282.758,258.147,0.179812,0.271891,231.236,253.405
2013-10-22 16:00,0.268831,295.583,283.032,259.134,284.079,280.702,257.53,0.208138,0.282404,231.473,254.162
2013-10-22 17:00,0.271287,292.053,276.463,255.043,275.55,271.121,250.765,0.216253,0.291248,228.048,249.408
2013-10-22 18:00,0.291882,296.323,284.528,259.464,285.479,281.735,258.147,0.220562,0.299425,231.315,253.974
2013-10-22 19:00,0.17341,291.686,284.071,259.134,284.781,282.028,259.614,0.185743,0.219362,233.382,253.405
2013-10-22 20:00,0.574569,287.155,259.039,244.903,255.439,252.536,238.727,0.550575,0.62869,220.801,233.146
2013-10-22 21:00,1.10319,270.989,227.533,227.628,222.806,219.165,215.674,0.904572,1.20752,214.588,220.763
2013-10-22 22:00,-0.00826218,218.393,199.463,216.151,197.601,197.294,200.766,-0.0,-0.0,198.732,199.092
2013-10-22 23:00,-0.0157895,222.276,200.125,215.909,198.14,197.752,201.763,-0.0240641,-0.0191285,200.142,200.502
2013-10-23 00:00,-0.0,204.719,203.838,217.342,202.701,201.271,204.185,-0.0,-0.00206992,204.349,203.929
2013-10-23 01:00,-0.0,222.276,209.734,219.855,208.131,207.274,208.982,-0.0,-0.0,209.023,209.707
2013-10-23 02:00,-0.0,249.89,232.28,230.565,228.871,226.151,221.965,-0.0,-0.0,217.752,223.167
2013-10-23 03:00,-0.0,245.913,233.392,230.921,231.957,229.909,224.834,-0.0,-0.0,220.916,225.994
2013-10-23 04:00,-0.00136891,271.798,263.712,247.332,263.217,260.045,244.512,-0.0,-0.0,227.147,241.98
2013-10-23 05:00,0.00151471,284.57,283.032,259.244,284.921,282.758,259.127,-0.0,-0.0,228.835,248.882
2013-10-23 06:00,-0.00184634,245.01,242.142,235.662,241.344,239.895,233.026,-0.0,-0.0,225.835,234.694
2013-10-23 07:00,-0.0,277.451,270.189,250.681,270.169,267.004,248.499,-0.0,-0.0,225.643,242.354
2013-10-23 08:00,0.00513549,274.314,267.909,250.177,267.185,262.888,247.279,-0.0,-0.0,225.931,241.98
2013-10-23 09:00,1.20698,280.427,276.08,254.808,277.528,274.304,254.009,1.19227,1.72623,227.238,247.808
2013-10-23 10:00,0.400549,286.121,278.474,256.205,279.022,275.24,253.625,0.268977,0.418323,226.963,246.595
2013-10-23 11:00,0.501292,293.24,281.86,258.469,282.374,277.701,253.881,0.241953,0.425404,226.405,246.258
2013-10-23 12:00,0.340869,285.202,268.343,249.542,267.857,262.888,246.044,0.218998,0.351045,226.871,242.354
2013-10-23 13:00,0.348108,301.478,289.058,262.366,289.3,283.917,257.9,0.139118,0.27412,228.136,247.261
2013-10-23 14:00,0.302398,303.998,291.694,264.236,292.34,286.485,259.614,0.117527,0.231469,229.517,248.562
2013-10-23 15:00,0.311645,298.533,283.841,259.134,284.781,280.257,257.53,0.224741,0.303858,228.575,247.808
2013-10-23 16:00,0.299977,294.156,273.065,252.777,272.264,265.99,246.044,0.22941,0.30895,226.499,242.354
2013-10-23 17:00,0.294767,296.219,280.549,257.346,282.231,277.548,255.406,0.245102,0.328277,229.007,248.133
2013-10-23 18:00,0.416861,291.563,268.63,249.924,269.679,266.329,249.171,0.417974,0.504699,229.007,246.032
2013-10-23 19:00,0.594337,277.661,238.585,233.175,235.93,231.968,224.126,0.591509,0.73897,220.101,226.57
2013-10-23 20:00,0.90529,290.301,252.666,241.207,248.733,243.243,229.946,0.783928,0.983182,222.692,234.082
2013-10-23 21:00,1.35328,283.924,260.036,245.451,256.406,251.552,237.676,1.00987,1.34306,222.476,236.179
2013-10-23 22:00,-0.0,274.314,260.036,245.723,256.98,251.947,237.977,-0.0,-0.0,221.708,235.146
2013-10-23 23:00,-0.0126874,283.093,274.129,253.621,273.843,269.0,249.171,-0.0187992,-0.0128087,226.027,244.175
2013-10-24 00:00,-0.00205693,279.667,268.487,250.806,266.678,261.121,242.814,-0.0,-0.0,224.56,241.093
2013-10-24 01:00,-0.00161198,266.131,250.954,240.171,248.307,244.112,233.026,-0.0,-0.0,220.916,232.185
2013-10-24 02:00,-0.00141065,276.155,273.199,253.501,275.396,272.883,254.646,-0.0,-0.0,230.43,249.513
2013-10-24 03:00,-0.00134094,267.123,268.773,250.681,271.945,271.121,255.532,-0.0,-0.0,232.557,251.152
2013-10-24 04:00,-0.0,263.255,264.329,248.512,267.522,267.171,253.753,-0.0,-0.0,232.328,250.849
2013-10-24 05:00,-0.0,257.103,258.025,244.21,259.606,259.502,248.499,-0.0,-0.0,233.677,248.987
2013-10-24 06:00,-0.0018538,256.589,257.166,243.79,259.051,258.591,248.364,-0.0,-0.0,233.896,248.562
2013-10-24 07:00,-0.0,252.585,253.779,242.225,255.827,255.614,246.319,-0.0,-0.0,233.456,246.707
2013-10-24 08:00,-0.0,257.103,257.511,243.93,259.051,258.957,248.634,-0.0,-0.0,233.968,248.562
2013-10-24 09:00,1.43126,260.395,259.039,244.488,261.25,261.121,249.037,1.9247,2.29492,233.01,248.348
2013-10-24 10:00,0.643872,279.859,262.931,247.332,265.482,265.48,251.944,0.62636,0.700738,234.756,250.95
2013-10-24 11:00,0.480038,294.156,264.635,248.642,266.678,263.933,250.104,0.377853,0.482191,236.675,251.051
2013-10-24 12:00,0.584372,286.717,257.339,243.93,259.421,258.774,249.037,0.661162,0.750385,237.072,249.928
2013-10-24 13:00,0.496219,290.301,258.365,244.903,259.791,259.321,248.499,0.491938,0.573932,237.528,249.617
2013-10-24 14:00,0.28094,303.098,295.343,267.052,296.684,291.735,263.553,0.105837,0.226151,237.072,253.5
2013-10-24 15:00,0.244999,301.826,282.214,259.024,282.803,275.861,254.264,0.112238,0.20791,238.357,252.537
2013-10-24 16:00,0.238027,300.679,286.661,261.625,287.134,282.467,259.249,0.134017,0.212247,238.168,252.439
2013-10-24 17:00,0.245581,305.416,297.975,268.421,300.263,295.996,265.301,0.0916692,0.19461,238.733,255.091
2013-10-24 18:00,0.251972,303.346,296.327,267.642,298.672,294.679,264.721,0.116611,0.214881,239.532,256.716
2013-10-24 19:00,0.355932,297.947,280.669,258.802,279.613,273.2,250.501,0.25907,0.359335,235.386,250.34
2013-10-24 20:00,0.539971,290.171,270.468,252.168,268.358,264.623,246.869,0.465873,0.576185,230.101,245.918
2013-10-24 21:00,0.475609,292.889,284.982,260.119,285.34,282.613,258.882,0.393109,0.514452,232.328,252.537
2013-10-24 22:00,-0.00843573,270.713,256.118,242.656,252.667,249.144,236.153,-0.0,-0.0,222.906,236.469
2013-10-24 23:00,-0.00955892,273.338,255.05,243.93,250.207,242.364,227.77,-0.0134892,-0.0160838,219.503,233.461
2013-10-25 00:00,-0.0,263.636,252.853,241.5,250.207,246.666,235.537,-0.0,-0.00208348,223.849,237.185
2013-10-25 01:00,-0.0016166,249.156,237.086,233.005,236.186,234.216,227.77,-0.0,-0.0,222.04,229.314
2013-10-25 02:00,-0.0,265.446,253.595,242.081,250.207,245.399,233.661,-0.0,-0.0,221.145,235.146
2013-10-25 03:00,-0.00134462,268.686,252.853,241.791,249.998,245.612,233.976,-0.0,-0.0,219.863,233.146
2013-10-25 04:00,0.0013769,264.377,253.779,242.081,252.262,249.955,238.727,-0.0,-0.0,225.058,236.757
2013-10-25 05:00,-0.0,242.013,234.208,231.098,232.772,231.968,228.109,-0.0,-0.0,221.93,226.76
2013-10-25 06:00,-0.00186123,249.89,239.559,234.35,237.951,237.109,230.44,-0.0,-0.0,224.86,231.859
2013-10-25 07:00,-0.00264126,261.666,247.973,238.195,246.355,243.679,233.026,-0.0,-0.0,223.434,234.236
2013-10-25 08:00,-0.00524495,237.078,235.275,231.45,234.107,233.225,228.614,-0.0,-0.0,223.952,229.314
2013-10-25 09:00,1.30842,286.421,284.869,259.793,286.033,283.629,259.977,1.29248,1.68786,230.511,251.85
2013-10-25 10:00,0.507448,288.568,282.916,258.913,283.514,281.146,258.882,0.326078,0.521448,229.601,249.303
2013-10-25 11:00,0.490261,295.583,286.439,260.984,287.27,282.904,257.9,0.231969,0.414882,229.769,250.34
2013-10-25 12:00,0.329001,290.301,275.565,254.454,275.396,271.283,251.683,0.209284,0.332146,229.935,244.647
2013-10-25 13:00,0.36217,305.028,295.837,266.954,297.931,293.216,264.138,0.135113,0.277376,232.557,253.117
2013-10-25 14:00,0.311468,307.064,298.071,268.13,300.02,295.076,264.605,0.11093,0.234586,233.53,253.974
2013-10-25 15:00,0.282553,308.281,298.834,268.518,300.869,295.865,265.185,0.1011,0.212449,234.543,254.907
2013-10-25 16:00,0.260708,308.421,299.213,268.711,301.352,296.258,265.416,0.0899314,0.194963,234.185,254.349
2013-10-25 17:00,0.24135,306.326,297.687,267.838,299.531,294.679,264.605,0.0938004,0.189068,234.041,253.785
2013-10-25 18:00,0.250072,304.398,296.425,267.249,298.549,293.617,263.553,0.107191,0.205126,234.329,252.828
2013-10-25 19:00,0.255535,301.037,293.336,265.456,295.297,290.648,262.017,0.147759,0.234907,234.615,252.925
2013-10-25 20:00,0.282678,297.947,292.314,264.645,294.277,290.511,262.728,0.245111,0.299134,235.178,253.88
2013-10-25 21:00,0.413635,293.587,288.628,262.366,291.029,287.888,262.373,0.530069,0.56431,235.317,254.068
2013-10-25 22:00,-0.0,279.278,278.101,256.089,280.639,278.76,259.249,-0.0,-0.0,236.742,254.162
2013-10-25 23:00,-0.0128051,279.081,277.977,255.626,280.054,278.307,258.76,-0.0108421,-0.0129276,236.542,254.443
2013-10-26 00:00,-0.0,281.526,280.066,256.892,282.231,280.406,259.249,-0.0,-0.00209057,236.408,254.443
2013-10-26 01:00,-0.00162133,286.421,285.77,260.661,288.358,286.202,261.66,-0.0,-0.0,236.207,254.999
2013-10-26 02:00,0.00141838,287.587,287.102,261.198,289.835,288.167,263.787,-0.0,-0.0,236.874,256.271
2013-10-26 03:00,-0.0,285.665,285.658,260.661,288.222,286.767,262.61,-0.0,-0.0,236.408,256.45
2013-10-26 04:00,-0.00138094,279.473,273.732,253.501,272.104,269.165,251.944,-0.0,-0.0,228.662,246.707
2013-10-26 05:00,-0.0,281.705,276.463,254.926,276.923,273.517,252.205,-0.0,-0.00154435,232.405,250.849
2013-10-26 06:00,-0.0,276.811,267.618,249.414,266.678,261.831,243.383,-0.0,-0.0,229.685,246.258
2013-10-26 07:00,-0.0,282.753,280.066,256.892,281.943,279.661,256.285,-0.0,-0.0,233.234,253.5
2013-10-26 08:00,0.00529941,280.982,277.35,255.51,278.427,276.323,255.406,-0.0,-0.0,231.315,251.051
2013-10-26 09:00,1.34794,280.427,273.199,252.656,271.625,268.835,250.369,1.30434,1.74963,226.963,245.575
2013-10-26 10:00,0.458686,272.58,253.595,241.5,250.415,246.876,234.447,0.407406,0.581108,222.15,234.236
2013-10-26 11:00,0.328069,277.869,258.195,243.509,254.854,251.156,236.765,0.275748,0.410984,224.258,237.608
2013-10-26 12:00,0.386092,295.902,283.38,258.469,282.66,278.458,255.027,0.200174,0.364026,228.048,248.241
2013-10-26 13:00,0.282621,299.108,289.699,262.261,290.234,287.188,259.492,0.132551,0.260147,230.835,252.244
2013-10-26 14:00,0.316013,298.726,280.909,257.346,279.613,274.617,250.236,0.155733,0.282893,227.238,245.345
2013-10-26 15:00,0.283428,302.171,285.994,260.119,286.31,279.81,253.625,0.140987,0.257524,228.835,248.882
2013-10-26 16:00,0.242354,291.931,271.848,252.045,268.855,262.888,243.949,0.171511,0.254409,224.76,240.835
2013-10-26 17:00,0.264799,290.939,272.796,252.412,271.142,266.498,247.279,0.207473,0.289941,227.78,243.698
2013-10-26 18:00,0.277832,293.472,277.727,255.16,277.075,273.042,251.814,0.204844,0.288367,230.266,247.481
2013-10-26 19:00,0.354574,299.485,288.951,262.155,290.5,287.188,262.255,0.251059,0.345404,233.53,254.349
2013-10-26 20:00,0.447983,296.943,287.432,261.519,289.968,287.048,262.61,0.373559,0.459118,233.677,255.183
2013-10-26 21:00,0.529658,294.602,291.07,263.825,293.635,290.921,264.372,0.560576,0.601562,235.455,256.36
2013-10-26 22:00,-0.00862739,290.041,289.058,262.471,291.686,289.551,263.905,-0.0,-0.00870987,236.609,256.628
2013-10-26 23:00,-0.00965038,289.647,287.978,261.731,290.764,288.999,263.436,-0.0108946,-0.0129902,236.609,255.821
2013-10-27 00:00,-0.00207799,288.43,287.651,261.838,290.367,288.306,263.318,-0.0,-0.0,236.139,256.091
2013-10-27 01:00,0.00162616,279.667,278.474,256.778,280.785,278.458,258.76,-0.0,-0.0,234.401,254.068
2013-10-27 02:00,-0.0,276.811,273.599,254.336,272.899,268.007,250.765,-0.0,-0.0,232.784,250.544
2013-10-27 03:00,-0.0,280.613,277.35,256.32,278.576,274.147,254.137,-0.0,-0.0,234.968,252.244
2013-10-27 04:00,0.00276999,271.798,270.885,252.168,272.582,270.473,253.881,-0.0,-0.0,235.525,252.634
2013-10-27 05:00,0.00153473,280.613,277.977,256.089,279.613,276.323,255.532,-0.0,0.0015494,234.185,251.85
2013-10-27 06:00,-0.0,285.045,283.032,259.134,284.921,281.735,258.515,-0.0,-0.0,233.53,252.047
2013-10-27 07:00,-0.0,278.883,271.848,252.29,271.945,268.505,249.171,-0.0,-0.0,229.007,244.881
2013-10-27 08:00,-0.00535357,276.376,274.129,254.217,276.163,273.359,255.658,-0.0,-0.0,232.784,251.051
2013-10-27 09:00,1.03785,270.713,266.886,249.924,268.358,266.667,251.553,1.2693,1.39703,232.557,249.617
2013-10-27 10:00,0.973328,290.558,275.951,254.69,277.678,275.861,256.285,0.858139,1.01869,233.53,251.051
2013-10-27 11:00,0.527419,299.108,290.756,263.307,292.34,287.888,261.182,0.222272,0.416814,233.308,251.85
2013-10-27 12:00,0.434488,303.098,292.314,264.441,293.377,288.027,261.062,0.176755,0.334122,232.86,251.552
2013-10-27 13:00,0.367954,304.95,290.545,263.515,290.764,285.208,260.219,0.182711,0.297457,233.01,251.85
2013-10-27 14:00,0.295907,300.225,284.071,259.574,285.201,280.85,259.005,0.207742,0.272596,233.603,251.652
2013-10-27 15:00,0.350379,275.02,261.017,246.265,262.15,261.477,250.104,0.617304,0.659817,230.348,246.818
2013-10-27 16:00,0.295112,256.589,216.88,223.899,215.993,214.697,215.474,0.676181,0.750305,213.078,213.952
2013-10-27 17:00,0.371109,263.636,205.549,219.632,203.652,202.941,205.127,0.665204,0.749313,205.015,204.328
2013-10-27 18:00,0.399045,278.279,243.273,237.415,241.107,237.345,229.449,0.54772,0.632616,223.642,233.773
2013-10-27 19:00,0.598087,294.268,262.616,247.067,262.685,259.321,245.35,0.588755,0.666483,232.557,246.595
2013-10-27 20:00,1.32562,295.902,246.523,238.81,248.307,246.876,239.913,1.22261,1.44071,233.456,241.602
2013-10-27 21:00,0.903858,277.451,260.201,245.859,261.791,260.405,248.094,0.700752,0.89051,230.916,246.929
2013-10-27 22:00,-0.0,246.775,239.074,234.515,237.451,234.95,229.615,-0.0,-0.0,221.93,230.354
2013-10-27 23:00,-0.00969849,247.601,239.799,234.845,238.938,236.635,231.581,-0.0109489,-0.0130549,222.476,232.829
2013-10-28 00:00,-0.0,265.095,247.973,239.419,244.349,239.208,230.111,-0.0,-0.00210534,220.454,230.354
2013-10-28 01:00,-0.0,260.827,245.032,236.943,242.747,238.747,230.604,-0.0,-0.0,222.15,231.198
2013-10-28 02:00,-0.0,281.883,275.694,255.043,276.468,272.405,252.464,-0.0,-0.0,227.78,245.804
2013-10-28 03:00,-0.0,286.421,285.208,260.228,287.815,285.35,261.301,-0.0,-0.0,231.943,252.537
2013-10-28 04:00,-0.0,285.202,282.916,259.244,285.34,282.467,259.37,-0.0,-0.0,230.996,252.244
2013-10-28 05:00,-0.0,268.073,268.916,251.429,271.142,270.148,254.646,-0.0,-0.0,229.935,251.051
2013-10-28 06:00,-0.0,257.605,254.328,242.513,253.867,252.536,242.671,-0.0,-0.0,224.359,240.053
2013-10-28 07:00,-0.0,255.521,254.69,242.799,256.213,255.235,245.072,-0.0,-0.0,227.691,244.412
2013-10-28 08:00,-0.00540735,257.103,258.195,244.765,260.341,259.684,248.768,-0.0,-0.0,229.935,248.348
2013-10-28 09:00,0.997444,280.239,276.08,255.277,277.828,274.46,255.532,1.06678,1.16598,229.769,249.721
2013-10-28 10:00,0.691767,284.73,260.854,246.399,261.611,256.555,242.814,0.679583,0.761055,228.488,243.698
2013-10-28 11:00,0.506681,291.809,275.046,254.572,276.468,272.883,253.753,0.414908,0.489911,228.921,247.917
2013-10-28 12:00,0.501362,295.151,272.796,253.14,274.156,271.926,254.392,0.466092,0.514704,230.348,248.882
2013-10-28 13:00,0.462733,298.726,275.951,254.926,277.075,275.551,257.406,0.390626,0.457395,232.328,252.537
2013-10-28 14:00,0.312811,302.764,288.951,262.576,287.815,281.882,256.909,0.133471,0.244933,230.755,250.95
2013-10-28 15:00,0.280497,290.171,261.017,246.934,256.021,249.348,236.765,0.191593,0.279609,222.368,236.179
2013-10-28 16:00,0.316488,263.636,220.379,225.897,218.478,216.652,215.873,0.421824,0.500531,215.024,217.418
2013-10-28 17:00,0.280008,292.294,273.466,253.261,272.104,267.506,248.903,0.248213,0.315864,227.78,245.114
2013-10-28 18:00,0.2911,294.713,282.214,258.246,282.66,279.061,256.909,0.226704,0.308027,234.041,251.85
2013-10-28 19:00,0.390367,287.729,266.886,249.158,264.965,260.405,244.512,0.363751,0.454569,227.959,242.971
2013-10-28 20:00,0.825496,281.165,217.685,224.507,215.26,213.356,212.619,0.795942,0.966049,212.448,214.233
2013-10-28 21:00,1.30019,264.009,209.237,220.954,207.702,206.895,209.201,1.11907,1.45365,209.023,208.371
2013-10-28 22:00,-0.0,230.231,218.474,224.708,215.628,214.03,213.857,-0.0,-0.0,213.388,215.867
2013-10-28 23:00,-0.00974822,235.601,217.285,224.507,214.517,211.983,211.358,-0.0082538,-0.0131219,211.303,214.511
2013-10-29 00:00,-0.0,232.213,220.379,225.897,218.478,216.652,214.872,-0.0,-0.0,214.734,217.418
2013-10-29 01:00,-0.0,222.276,214.358,223.283,212.997,210.931,210.718,-0.0,-0.0,211.964,213.952
2013-10-29 02:00,-0.00143047,218.393,213.031,222.659,211.428,209.859,210.504,-0.0,-0.0,211.303,212.207
2013-10-29 03:00,0.00135975,213.142,204.418,218.957,203.652,203.351,205.593,-0.0,-0.0,204.795,203.929
2013-10-29 04:00,-0.0,227.984,223.597,226.866,222.162,219.777,218.601,-0.0,-0.0,216.695,220.306
2013-10-29 05:00,-0.0,222.276,221.841,226.092,221.511,220.384,218.025,-0.0,-0.0,218.891,220.989
2013-10-29 06:00,-0.0,230.231,230.265,230.027,228.293,225.318,222.511,-0.0,-0.0,222.04,226.76
2013-10-29 07:00,-0.0,233.989,227.219,228.378,225.615,223.905,221.965,-0.0,-0.0,218.264,222.743
2013-10-29 08:00,-0.0,243.066,240.514,234.845,240.631,238.747,232.387,-0.0,-0.0,226.685,235.592
2013-10-29 09:00,0.338264,253.206,247.563,238.503,247.446,246.035,238.428,0.695561,0.780566,227.055,238.441
2013-10-29 10:00,0.326018,257.605,244.815,237.101,244.349,242.364,235.691,0.514776,0.596001,226.216,236.757
2013-10-29 11:00,0.379436,272.836,242.597,236.146,242.978,241.251,234.291,0.67667,0.768521,226.405,236.033
2013-10-29 12:00,0.420947,290.685,266.293,249.286,266.508,261.654,244.932,0.326356,0.438625,227.959,242.602
2013-10-29 13:00,0.311747,291.315,273.466,253.261,271.625,265.82,246.457,0.189207,0.296623,226.685,241.854
2013-10-29 14:00,0.410891,291.19,255.23,243.368,254.854,250.557,239.025,0.335402,0.407367,226.499,240.706
2013-10-29 15:00,0.406217,283.76,250.175,240.766,249.998,247.915,239.173,0.427686,0.493309,226.778,239.656
2013-10-29 16:00,0.455654,287.729,245.89,238.503,247.662,246.666,239.47,0.447896,0.523125,227.691,239.39
2013-10-29 17:00,0.424169,299.203,253.595,242.942,254.461,252.341,243.241,0.322451,0.413641,231.787,243.457
2013-10-29 18:00,0.340458,303.428,281.978,258.691,282.517,277.548,256.909,0.232982,0.318602,233.159,250.032
2013-10-29 19:00,0.500903,298.045,267.18,250.681,266.508,260.225,247.959,0.40666,0.501529,233.677,246.258
2013-10-29 20:00,0.88622,282.234,222.552,227.438,218.824,216.331,214.468,0.821418,0.982805,213.845,217.164
2013-10-29 21:00,1.11314,267.123,204.418,219.183,203.179,201.694,205.127,0.942493,1.24151,204.122,204.328
2013-10-29 22:00,-0.0,213.142,205.549,219.632,204.12,202.529,205.127,-0.0,-0.0,205.449,205.109
2013-10-29 23:00,-0.0130661,233.989,220.75,226.092,219.167,216.008,214.872,-0.00829728,-0.00989326,216.424,219.372
2013-10-30 00:00,-0.00210084,239.711,231.14,230.565,229.158,226.701,223.413,-0.0,-0.00212092,219.744,226.379
2013-10-30 01:00,-0.0,237.078,225.937,227.438,223.758,221.875,219.551,-0.0,-0.0,216.695,221.436
2013-10-30 02:00,-0.0,239.711,226.583,228.378,224.384,221.283,218.601,-0.0,-0.0,216.56,221.436
2013-10-30 03:00,-0.00136362,232.213,224.279,227.058,222.806,219.472,217.445,-0.0,-0.0,217.881,221.658
2013-10-30 04:00,-0.0,235.601,230.559,230.027,229.444,227.246,223.592,-0.0,-0.0,220.454,226.76
2013-10-30 05:00,-0.0,246.775,240.514,235.337,239.426,237.345,231.581,-0.0,-0.0,223.849,232.347
2013-10-30 06:00,-0.0,252.585,248.784,238.963,249.157,247.708,239.47,-0.0,-0.0,227.691,239.121
2013-10-30 07:00,-0.00271221,218.393,210.224,219.855,209.394,209.133,210.932,-0.0,-0.0,208.274,208.711
2013-10-30 08:00,-0.00551337,218.393,216.058,222.659,215.993,214.697,215.674,-0.0,-0.0,213.845,215.6
2013-10-30 09:00,0.763073,245.01,236.06,232.834,235.93,234.461,229.449,1.10216,1.35947,224.56,231.859
2013-10-30 10:00,0.350281,258.576,234.477,231.799,233.842,230.688,225.36,0.60058,0.698419,221.371,228.603
2013-10-30 11:00,0.312124,259.505,235.275,232.491,234.371,232.976,227.77,0.602626,0.680346,223.746,231.031
2013-10-30 12:00,0.416813,267.123,236.832,233.005,236.441,235.435,230.768,0.570093,0.655899,223.746,230.524
2013-10-30 13:00,0.224555,261.251,247.563,238.657,248.307,247.085,239.765,0.445582,0.510427,228.136,239.121
2013-10-30 14:00,0.253166,274.314,255.409,242.942,256.021,253.896,244.09,0.334019,0.411915,229.263,243.577
2013-10-30 15:00,0.361148,272.322,246.313,238.04,245.693,244.328,237.676,0.429292,0.494051,226.592,236.9
2013-10-30 16:00,0.351942,268.686,241.682,235.499,241.344,239.438,233.503,0.476985,0.542054,225.352,234.389
2013-10-30 17:00,0.355515,280.05,251.912,241.354,251.652,250.156,240.646,0.585367,0.611875,227.329,239.789
2013-10-30 18:00,0.406761,283.428,257.854,244.488,257.55,254.281,241.084,0.482428,0.578358,224.359,239.255
2013-10-30 19:00,0.506066,271.531,241.218,235.499,239.911,238.049,232.387,0.691498,0.772586,223.642,233.304
2013-10-30 21:00,1.24448,279.081,252.666,241.936,250.83,245.399,233.185,0.920877,1.24581,221.484,233.617
2013-10-30 22:00,-0.0,249.89,235.011,232.319,233.041,229.647,223.949,-0.0,-0.0,219.137,227.509
2013-10-30 23:00,-0.0131368,260.395,238.09,234.35,234.371,228.856,220.302,-0.00834216,-0.0132624,216.695,225.21
2013-10-31 00:00,-0.00210885,243.066,223.252,226.866,219.167,216.008,213.857,-0.00178556,-0.0,213.388,216.909
2013-10-31 01:00,-0.0,259.505,249.978,240.913,247.012,240.35,230.276,-0.0,-0.0,223.434,236.179
2013-10-31 02:00,-0.0,258.576,256.118,244.488,256.021,251.75,240.938,-0.0,-0.0,230.43,245.804
2013-10-31 03:00,-0.00136752,252.585,243.719,237.884,241.815,236.872,228.446,-0.0,-0.0,223.118,235.146
2013-10-31 04:00,-0.00140137,247.601,240.039,236.306,236.948,233.225,226.574,-0.0,-0.0,221.819,232.185
2013-10-31 05:00,-0.0,251.282,247.769,239.419,247.446,245.612,237.07,-0.0,-0.0,227.691,240.446
2013-10-31 06:00,-0.0,257.605,248.985,240.171,248.52,244.758,234.291,-0.0,-0.0,225.643,238.986
2013-10-31 07:00,-0.0,249.89,247.357,239.267,247.662,245.824,236.765,-0.0,-0.0,229.348,241.221
2013-10-31 08:00,-0.0,255.521,247.973,239.115,247.229,243.243,233.819,-0.0,-0.0,225.643,237.748
2013-10-31 09:00,0.966338,258.576,248.177,238.81,247.446,244.544,234.134,0.996066,1.31491,226.122,239.523
2013-10-31 10:00,0.644236,276.811,257.339,244.765,258.116,255.803,243.525,0.685528,0.764653,227.51,244.764
2013-10-31 11:00,0.56358,281.165,255.409,243.65,254.263,250.357,238.876,0.602967,0.690379,228.224,242.971
2013-10-31 12:00,0.397576,288.977,263.088,247.728,259.606,252.144,236.153,0.276718,0.391172,222.15,236.614
2013-10-31 13:00,0.337115,289.647,264.94,248.252,261.431,253.51,236.613,0.206212,0.325058,222.368,235.592
2013-10-31 14:00,0.373245,286.569,259.206,245.723,257.928,254.281,239.913,0.325382,0.394167,225.352,240.316
2013-10-31 15:00,0.305595,285.045,261.34,246.13,258.678,252.927,238.128,0.294573,0.36666,223.013,237.043
2013-10-31 16:00,0.412839,273.088,242.142,235.823,240.87,238.049,228.109,0.530422,0.58035,221.145,232.347
2013-10-31 17:00,0.449512,279.859,250.566,240.913,251.242,248.532,237.977,0.59143,0.643007,226.027,240.185
2013-10-31 18:00,0.257373,260.395,240.514,235.823,239.183,237.345,231.743,0.613057,0.673063,226.685,235.146
2013-10-31 19:00,0.496823,267.761,226.261,227.817,224.384,223.905,221.782,0.780479,0.860134,217.881,221.658
2013-10-31 20:00,0.906154,278.075,244.16,237.258,243.438,241.921,235.846,1.11983,1.30496,229.007,238.165
2013-10-31 21:00,1.28937,281.883,254.145,242.799,253.669,250.757,239.173,0.978166,1.3121,231.865,243.937
2013-10-31 22:00,-0.00919802,227.984,221.117,225.504,219.847,218.857,217.639,-0.0,-0.0,215.873,218.653
2013-10-31 23:00,-0.00990724,235.601,221.481,226.287,220.184,218.235,217.639,-0.00838844,-0.0100019,216.695,219.372
