# timestamp,IR_016,IR_039,IR_087,IR_097,IR_108,IR_120,IR_134,VIS006,VIS008,WV_062,WV_073
2015-02-01 00:00,-0.00274893,275.707,261.501,246.533,257.928,252.341,237.525,-0.00232752,-0.00277521,222.585,237.608
2015-02-01 01:00,0.00192399,262.074,251.339,240.913,248.733,244.758,233.661,-0.0,-0.0,222.906,236.179
2015-02-01 02:00,-0.0,243.066,231.427,229.665,228.871,226.426,222.147,-0.0,-0.0,219.624,225.408
2015-02-01 03:00,-0.0,222.276,218.082,223.899,217.78,216.008,215.873,-0.0,-0.0,214.441,216.909
2015-02-01 04:00,-0.00139586,213.142,212.119,221.17,211.028,209.859,210.718,-0.0,-0.0,209.748,210.67
2015-02-01 05:00,-0.0,213.142,203.247,218.502,203.179,202.941,205.127,-0.0,-0.0,204.349,204.721
2015-02-01 06:00,-0.0,204.719,203.247,217.809,201.728,201.271,203.228,-0.0,-0.0,203.429,202.696
2015-02-01 07:00,-0.0,227.984,221.117,224.908,219.508,217.607,215.674,-0.0,-0.0,216.287,219.134
2015-02-01 08:00,-0.00360037,230.231,221.481,224.908,219.847,216.652,214.671,-0.0,0.00363479,214.145,218.165
2015-02-01 10:00,0.521604,255.521,245.032,236.146,244.349,242.805,235.227,0.801748,0.955964,224.76,236.033
2015-02-01 11:00,0.363054,249.89,235.538,231.45,235.414,234.461,231.094,0.656124,0.770009,223.434,230.354
2015-02-01 12:00,0.256952,266.466,245.463,236.943,244.349,241.475,232.547,0.306563,0.410729,223.538,231.859
2015-02-01 13:00,0.34042,294.491,263.245,247.067,262.863,257.115,242.956,0.235138,0.39191,228.835,242.725
2015-02-01 14:00,0.227947,297.045,292.314,263.928,294.149,291.057,264.138,0.0841016,0.266123,230.266,253.117
2015-02-01 15:00,0.197098,298.918,294.846,265.658,297.309,294.282,266.108,0.0675478,0.228593,233.75,255.73
2015-02-01 16:00,0.180041,299.672,295.837,266.259,298.549,295.602,266.337,0.0576539,0.206231,234.615,256.45
2015-02-01 17:00,0.168158,299.579,296.425,266.458,299.041,296.389,266.681,0.0553129,0.199078,236.808,257.942
2015-02-01 18:00,0.168598,299.765,297.01,266.954,299.654,297.17,267.023,0.0587125,0.201781,239.288,259.471
2015-02-01 19:00,0.190225,299.108,294.846,265.658,297.309,294.282,265.647,0.0861831,0.232474,240.43,258.798
2015-02-01 20:00,0.294867,300.498,293.235,265.052,295.424,292.679,264.837,0.192201,0.340212,241.647,259.471
2015-02-01 21:00,0.198916,295.26,292.725,264.849,295.17,292.41,265.762,0.186729,0.296861,242.875,260.463
2015-02-01 22:00,0.572218,289.113,283.032,258.58,283.938,280.554,256.285,0.588316,0.784005,234.968,254.162
2015-02-01 23:00,-0.00558774,213.142,213.479,221.814,212.997,212.329,212.619,-0.00473113,-0.00564115,211.964,213.092
2015-02-02 00:00,-0.00273913,227.984,214.79,222.659,213.763,213.016,213.653,-0.00231922,-0.00276531,212.765,213.952
2015-02-02 01:00,-0.0019181,222.276,216.058,223.283,215.26,214.697,214.671,-0.0,-0.0,212.607,213.952
2015-02-02 02:00,-0.0,254.396,243.273,235.823,241.107,238.049,231.094,-0.0,-0.0,223.224,232.022
2015-02-02 03:00,0.0014197,252.585,235.011,231.799,233.31,230.429,225.185,-0.0,-0.0,219.014,225.799
2015-02-02 04:00,-0.0,263.255,256.644,243.084,256.98,255.235,244.231,-0.0,-0.0,229.601,242.23
2015-02-02 05:00,-0.0,280.05,272.796,252.777,273.843,269.821,249.838,-0.0,-0.0,226.871,243.457
2015-02-02 06:00,-0.0,270.151,265.394,248.642,266.167,264.106,249.037,-0.0,-0.0,229.601,245.46
2015-02-02 07:00,-0.0,285.97,284.071,259.793,285.895,282.758,259.249,-0.0,0.00223441,230.184,249.198
2015-02-02 08:00,-0.0,284.087,281.505,257.798,282.803,279.061,256.535,-0.0,-0.0,228.575,247.04
2015-02-02 09:00,-0.0119238,277.24,272.391,252.168,271.945,269.657,251.422,-0.0,-0.0,227.691,243.214
2015-02-02 10:00,0.455585,288.568,283.495,259.134,285.34,281.735,258.392,0.309972,0.558499,230.101,249.408
2015-02-02 11:00,0.370753,292.534,286.882,260.984,289.032,285.919,261.301,0.212736,0.417604,230.996,250.646
2015-02-02 12:00,0.333594,292.053,282.096,257.91,282.946,279.061,256.535,0.163526,0.387989,229.852,247.481
2015-02-02 13:00,0.282539,297.248,289.058,262.681,290.5,286.202,260.701,0.111385,0.313915,231.865,250.34
2015-02-02 14:00,0.23958,299.672,292.827,265.153,294.405,290.101,263.436,0.0830831,0.261169,233.75,252.731
2015-02-02 15:00,0.206569,300.679,294.044,266.159,295.677,291.464,263.318,0.069563,0.227502,234.756,253.213
2015-02-02 16:00,0.187008,300.769,294.145,266.259,295.677,290.921,263.436,0.0635313,0.206277,236.207,253.117
2015-02-02 17:00,0.17665,300.947,295.639,267.052,297.558,293.75,264.721,0.0594181,0.199105,237.006,254.162
2015-02-02 18:00,0.178141,300.498,295.343,266.954,297.558,293.883,265.301,0.0690833,0.21142,237.785,255.73
2015-02-02 19:00,0.175259,299.579,295.144,267.052,297.434,293.75,265.416,0.0763156,0.222432,238.357,256.628
2015-02-02 20:00,0.646381,280.239,239.317,234.35,239.183,234.461,224.834,0.672215,0.881902,226.122,230.524
2015-02-02 21:00,0.416074,289.247,278.101,255.974,279.022,275.396,253.625,0.480728,0.621326,235.525,251.652
2015-02-02 22:00,0.0844339,269.283,258.025,244.07,257.928,253.51,238.727,0.42894,0.426205,230.674,241.854
2015-02-02 23:00,-0.0,264.377,262.458,246.801,263.92,262.712,248.634,-0.0,-0.0056078,233.603,249.513
2015-02-03 00:00,-0.00272899,278.279,275.565,255.16,276.62,274.929,256.035,-0.00231063,-0.00275507,232.097,251.552
2015-02-03 01:00,-0.00191207,272.322,262.3,246.667,262.685,259.139,241.664,-0.0,-0.0,229.935,244.881
2015-02-03 02:00,-0.0,259.045,243.719,236.784,241.344,235.677,225.709,-0.0,-0.0,220.454,231.53
2015-02-03 03:00,-0.0,259.954,251.339,241.061,250.623,246.457,236.153,-0.0,-0.0,224.661,238.578
2015-02-03 04:00,-0.0,266.466,261.501,246.801,260.888,258.591,245.211,-0.0,-0.0,226.963,244.175
2015-02-03 05:00,-0.0,278.883,276.336,255.626,279.022,275.861,254.773,-0.0,-0.0,231.076,251.352
2015-02-03 06:00,-0.0,262.475,258.025,245.04,259.421,257.671,244.792,-0.0,-0.0,229.007,244.998
2015-02-03 07:00,-0.0,259.954,260.692,246.265,263.04,262.008,248.768,-0.0,-0.0,230.674,248.348
2015-02-03 08:00,-0.0,259.954,260.692,245.859,262.863,262.185,249.305,-0.0,-0.0,229.601,247.481
2015-02-03 09:00,-0.0,277.451,273.865,254.454,276.163,273.675,255.027,-0.0,-0.0,231.865,251.252
2015-02-03 10:00,0.915528,275.48,265.092,248.771,268.191,267.84,253.625,0.838028,1.03253,231.787,251.452
2015-02-03 11:00,0.553904,294.933,280.549,258.022,281.943,279.061,258.638,0.34132,0.587159,233.677,252.731
2015-02-03 12:00,0.342136,296.635,285.546,261.519,287.134,283.484,259.492,0.173811,0.386855,231.156,252.925
2015-02-03 13:00,0.279895,296.114,288.52,263.307,289.434,285.35,259.614,0.11279,0.318837,231.236,252.244
2015-02-03 14:00,0.241032,297.248,287.322,262.786,287.407,281.882,256.16,0.0950219,0.271661,230.674,250.34
2015-02-03 15:00,0.209007,298.242,288.843,263.721,289.434,283.773,257.406,0.0785411,0.235899,231.552,250.544
2015-02-03 16:00,0.187057,299.391,291.591,265.355,292.6,287.748,261.182,0.0664809,0.210994,231.943,251.751
2015-02-03 17:00,0.177894,299.765,292.725,265.959,294.021,289.137,261.301,0.0635278,0.204029,232.557,252.634
2015-02-03 18:00,0.178179,299.391,292.622,265.859,294.149,290.101,262.965,0.0783112,0.211465,234.257,253.974
2015-02-03 19:00,0.223752,298.045,290.651,264.543,292.47,288.722,262.847,0.138553,0.264663,232.86,254.443
2015-02-03 20:00,0.178149,295.151,286.992,262.366,287.815,283.917,259.249,0.148854,0.222449,230.266,250.544
2015-02-03 21:00,0.378036,291.686,280.066,258.134,281.221,277.701,255.28,0.353194,0.434291,228.312,247.699
2015-02-03 22:00,1.44465,274.787,255.941,242.799,255.633,250.557,236.613,1.07492,1.59105,227.147,240.316
2015-02-03 23:00,0.0055202,243.066,229.97,228.934,228.293,225.874,222.329,-0.0,-0.00557297,220.801,225.21
2015-02-04 00:00,-0.00271852,235.601,230.85,229.665,230.853,229.385,226.574,-0.00230176,-0.0027445,223.434,227.694
2015-02-04 01:00,-0.00190592,225.382,221.841,225.897,221.182,219.472,0.0,-0.0,-0.0,216.83,219.372
2015-02-04 02:00,0.00156028,253.206,242.824,236.466,241.58,239.438,232.227,-0.0,-0.0,223.434,232.508
2015-02-04 03:00,0.00141119,264.377,263.088,248.642,264.27,262.361,248.903,-0.0,-0.0,227.691,246.595
2015-02-04 04:00,-0.0,270.151,260.201,245.859,259.421,255.803,242.384,-0.0,-0.0,224.156,239.922
2015-02-04 05:00,0.0014628,260.827,250.175,241.207,248.307,243.896,233.976,-0.0,0.00147678,221.93,235.444
2015-02-04 06:00,-0.0,274.314,265.846,249.797,265.654,260.225,243.667,-0.0,-0.0,225.546,242.848
2015-02-04 07:00,-0.0,273.338,265.995,250.051,266.167,261.831,245.072,-0.0,-0.0,226.871,244.647
2015-02-04 08:00,-0.00351934,266.131,259.54,246.265,259.974,256.18,242.241,-0.0,-0.0,226.216,243.698
2015-02-04 09:00,-0.0,267.123,262.616,248.382,263.745,260.764,246.319,-0.0,-0.0,227.147,245.345
2015-02-04 10:00,0.72752,264.739,250.954,240.913,250.83,248.736,237.827,0.750517,0.894877,223.538,238.165
2015-02-04 11:00,0.525365,281.705,260.036,245.723,259.051,256.367,242.814,0.544257,0.645824,224.661,241.093
2015-02-04 12:00,0.387935,274.073,247.15,239.115,244.349,241.475,233.819,0.434634,0.536037,222.799,233.617
2015-02-04 13:00,0.269752,257.605,236.576,232.834,236.186,234.216,229.116,0.470754,0.561303,224.959,231.859
2015-02-04 14:00,0.477319,282.408,252.853,242.225,253.069,250.557,239.322,0.523012,0.606862,225.058,240.185
2015-02-04 15:00,0.249045,290.939,267.764,250.931,266.167,259.321,242.097,0.164117,0.295307,226.311,244.056
2015-02-04 16:00,0.303771,287.01,266.442,249.542,265.997,261.654,244.512,0.370646,0.437275,226.499,243.336
2015-02-04 17:00,0.317139,262.074,209.734,221.6,208.556,208.397,209.638,0.629282,0.708775,207.697,208.027
2015-02-04 18:00,0.398638,273.831,210.707,220.954,208.977,206.895,208.982,0.807529,0.896926,209.748,210.032
2015-02-04 19:00,0.459419,268.686,218.862,225.504,218.13,216.331,216.071,0.864264,0.968101,215.873,217.164
2015-02-04 20:00,0.610099,279.473,242.37,236.146,241.344,238.747,231.905,0.79075,0.916791,225.835,236.325
2015-02-04 21:00,1.00663,288.291,229.673,230.207,227.708,225.038,222.329,0.97407,1.17903,221.93,226.57
2015-02-04 22:00,0.775075,249.156,221.481,225.897,220.184,218.857,217.639,0.694858,0.92057,216.83,219.608
2015-02-04 23:00,-0.00548429,250.598,246.733,238.81,247.229,245.399,237.07,-0.0,-0.00553672,226.592,238.714
2015-02-05 00:00,-0.00541547,261.666,244.38,236.943,242.515,237.345,227.77,-0.00229264,-0.00273362,217.752,228.96
2015-02-05 01:00,-0.0,235.601,221.481,225.897,219.847,217.607,216.663,-0.0,-0.0,215.31,217.669
2015-02-05 02:00,0.0015555,253.81,238.09,233.513,235.414,232.725,226.229,-0.0,-0.0,220.219,226.948
2015-02-05 03:00,-0.0,265.095,250.371,240.469,248.52,244.758,234.134,-0.0,-0.0,222.799,232.508
2015-02-05 04:00,-0.0,238.442,230.559,230.743,227.118,221.875,219.172,-0.0,-0.0,219.744,225.21
2015-02-05 05:00,-0.0,247.601,236.832,234.017,231.957,224.756,220.302,-0.0,-0.00147174,218.391,226.948
2015-02-05 06:00,-0.0,244.063,235.275,232.491,232.502,228.324,223.413,-0.0,-0.0,220.686,228.782
2015-02-05 07:00,-0.0,260.827,252.101,242.081,250.83,245.612,234.604,-0.0,-0.0,221.708,235.887
2015-02-05 08:00,-0.00349363,276.376,272.527,253.501,273.843,269.329,252.075,-0.0,-0.0,229.433,246.145
2015-02-05 09:00,-0.0,259.954,258.534,245.177,260.341,258.408,247.142,-0.0,-0.0,229.178,245.575
2015-02-05 10:00,0.703699,284.57,280.066,258.358,281.799,278.307,256.535,0.595821,0.616273,229.852,247.917
2015-02-05 11:00,0.645523,291.44,278.845,257.346,280.054,275.706,253.497,0.591234,0.595297,228.312,246.032
2015-02-05 12:00,0.64205,294.268,249.385,240.021,250.415,248.736,240.207,0.57521,0.664046,229.348,241.093
2015-02-05 13:00,0.319602,285.512,264.788,248.382,262.863,257.671,241.229,0.252821,0.375677,223.329,237.748
2015-02-05 14:00,0.454694,280.427,252.101,240.766,252.262,249.55,238.428,0.466096,0.548012,224.86,238.027
2015-02-05 15:00,0.271498,281.883,260.528,245.723,259.421,255.992,242.814,0.25376,0.340541,225.643,238.578
2015-02-05 16:00,0.226462,256.589,235.538,232.146,234.895,233.225,228.949,0.346316,0.432759,222.906,229.664
2015-02-05 17:00,0.181622,277.869,258.195,244.488,255.827,251.552,239.173,0.243996,0.325156,225.254,237.748
2015-02-05 18:00,0.406949,263.255,208.223,219.632,207.269,206.895,208.318,0.765184,0.861526,208.084,207.678
2015-02-05 19:00,0.354383,269.576,246.942,238.04,246.575,244.112,236.153,0.551989,0.642975,227.601,238.027
2015-02-05 20:00,0.704813,272.322,231.997,231.098,231.683,230.17,225.709,0.827512,0.979568,224.959,229.314
2015-02-05 21:00,0.572668,279.473,264.175,248.512,264.792,261.654,246.869,0.551502,0.670822,230.593,247.917
2015-02-05 22:00,0.333986,268.073,266.293,249.542,268.191,266.835,251.683,0.605969,0.626189,231.315,250.544
2015-02-05 23:00,-0.0,245.01,229.673,230.027,227.118,223.043,219.172,-0.0,-0.0,216.15,223.999
2015-02-06 00:00,-0.00539333,233.989,216.471,224.305,213.763,211.284,210.504,-0.00456652,-0.00272244,210.624,213.668
2015-02-06 01:00,0.00189327,218.393,211.184,221.17,208.977,206.895,208.761,-0.0,0.00191137,208.464,209.707
2015-02-06 02:00,-0.0,227.984,215.64,223.283,213.381,212.329,212.411,-0.0,-0.0,211.135,212.505
2015-02-06 03:00,-0.0,253.81,237.591,234.017,234.371,230.688,224.834,-0.0,-0.0,217.229,226.57
2015-02-06 04:00,-0.0,254.966,237.339,233.681,234.633,229.909,223.77,-0.0,-0.0,219.014,225.994
2015-02-06 05:00,-0.00145285,271.798,260.528,246.265,259.051,255.045,241.229,-0.0,-0.0,224.86,239.789
2015-02-06 06:00,0.00167432,273.338,264.788,249.158,264.27,259.864,244.792,-0.0,-0.0,225.449,242.971
2015-02-06 07:00,-0.00217002,259.954,255.409,243.368,255.439,252.536,241.808,-0.0,-0.0,226.216,242.725
2015-02-06 08:00,-0.0,259.954,249.781,240.32,249.157,244.112,232.867,-0.0,-0.0,221.596,236.614
2015-02-06 09:00,0.0109356,253.206,243.049,236.943,241.58,237.815,229.116,-0.0,-0.0,219.982,233.304
2015-02-06 10:00,0.498566,260.395,242.142,235.499,240.392,237.345,229.615,0.553142,0.668216,220.686,232.508
2015-02-06 11:00,0.557856,276.376,254.69,242.799,253.269,249.348,236.765,0.628022,0.723651,223.434,239.39
2015-02-06 12:00,0.318756,274.073,250.175,239.721,248.093,242.364,230.931,0.334864,0.4688,221.484,233.304
2015-02-06 13:00,0.304977,290.429,272.391,253.501,271.142,265.138,245.628,0.239143,0.35036,227.329,244.647
2015-02-06 14:00,0.36046,291.315,269.059,251.676,267.69,261.477,242.956,0.334422,0.424557,227.42,244.998
2015-02-06 15:00,0.237537,286.271,265.846,249.158,263.393,257.671,240.354,0.201123,0.309851,225.254,240.706
2015-02-06 16:00,0.253135,270.989,240.277,234.35,236.948,232.725,223.592,0.32394,0.415422,218.137,226.948
2015-02-06 17:00,0.308867,259.954,211.654,221.386,210.625,209.133,208.982,0.63482,0.721465,209.569,210.984
2015-02-06 18:00,0.371725,262.869,212.119,222.027,211.028,209.859,210.504,0.700958,0.786299,210.278,210.984
2015-02-06 19:00,0.52693,272.836,204.988,218.73,203.652,202.529,205.127,0.848395,0.967674,205.233,204.328
2015-02-06 20:00,0.588147,282.059,224.279,227.817,221.182,216.331,212.411,0.677257,0.802776,212.126,217.164
2015-02-06 21:00,1.07036,283.76,211.654,222.027,210.625,208.397,209.42,1.12912,1.37288,212.287,212.207
2015-02-06 22:00,1.85743,255.521,213.031,221.6,210.625,208.766,209.856,1.23265,1.97655,210.624,211.295
2015-02-06 23:00,-0.00540863,233.989,225.611,228.192,224.072,219.777,216.466,-0.00457948,-0.0,216.83,222.956
2015-02-07 00:00,-0.00537062,227.984,213.031,222.659,211.428,209.497,209.201,-0.0045473,-0.00271098,209.388,211.295
2015-02-07 01:00,-0.0,242.013,224.279,228.004,219.847,215.356,212.411,-0.0,-0.0,211.303,218.165
2015-02-07 02:00,-0.00154582,233.989,219.247,225.107,216.715,214.697,212.827,-0.0,-0.0,212.126,216.392
2015-02-07 03:00,-0.0,218.393,207.178,219.855,205.497,203.757,205.127,-0.0,-0.0,204.349,205.868
2015-02-07 04:00,-0.0,240.898,222.904,226.481,219.167,216.008,214.468,-0.0,-0.0,211.8,216.909
2015-02-07 05:00,0.00144793,235.601,222.552,225.897,220.184,217.922,215.274,-0.0,-0.0,213.693,219.134
2015-02-07 06:00,0.00166789,227.984,218.474,224.305,216.715,214.364,214.671,-0.0,-0.0,213.995,216.652
2015-02-07 07:00,-0.0,252.585,238.585,233.681,235.93,231.714,224.304,-0.0,-0.0,218.642,227.509
2015-02-07 08:00,-0.0,242.013,225.611,227.817,222.485,217.607,214.872,-0.0,-0.0,214.293,219.372
2015-02-07 09:00,-0.0,244.063,230.265,229.665,226.82,223.905,218.601,-0.0,-0.0,215.167,222.096
2015-02-07 10:00,0.56649,269.576,251.721,241.061,250.415,245.186,232.867,0.649367,0.756674,221.819,234.236
2015-02-07 11:00,0.535145,275.48,253.595,242.369,252.059,246.876,233.661,0.62799,0.660319,223.118,236.033
2015-02-07 12:00,0.396329,266.797,243.496,236.146,241.344,238.978,230.44,0.709542,0.760424,224.86,235.74
2015-02-07 13:00,0.379065,274.551,248.177,239.721,246.135,242.585,232.867,0.55148,0.613517,226.778,239.39
2015-02-07 14:00,0.324929,288.43,267.618,250.051,267.016,263.412,246.457,0.305444,0.402941,232.935,248.455
2015-02-07 15:00,0.24708,287.729,273.065,253.261,272.264,269.329,250.633,0.220161,0.314773,234.472,251.252
2015-02-07 16:00,0.190799,294.268,283.841,259.902,284.22,280.554,258.515,0.105742,0.232315,237.268,256.539
2015-02-07 17:00,0.178126,294.823,283.956,260.011,283.938,279.061,256.535,0.0892603,0.217752,235.108,254.907
2015-02-07 18:00,0.22751,293.124,280.789,258.469,280.931,276.631,254.264,0.173023,0.288825,231.076,252.537
2015-02-07 19:00,0.234381,295.69,287.651,262.261,288.358,284.922,260.942,0.165848,0.285636,235.386,256.716
2015-02-07 20:00,0.183782,292.174,279.702,257.233,279.022,273.675,252.464,0.213462,0.268794,231.787,251.751
2015-02-07 21:00,0.686915,271.261,226.583,228.378,224.694,224.19,222.692,0.656175,0.777944,218.137,221.213
2015-02-07 22:00,1.75377,257.605,208.223,219.632,205.497,203.757,206.743,1.16993,1.82418,205.663,206.606
2015-02-07 23:00,-0.00536904,270.713,264.788,248.642,264.095,259.502,243.241,-0.00454596,-0.00542037,229.007,245.114
2015-02-08 00:00,-0.00534739,269.865,263.401,247.859,263.04,258.774,244.932,-0.00452763,-0.00269925,229.601,244.53
2015-02-08 01:00,-0.00188021,267.123,263.088,247.597,262.329,259.139,245.767,-0.0,-0.0,229.685,245.918
2015-02-08 02:00,-0.0,267.761,265.243,248.642,265.826,264.106,249.438,-0.0,-0.0,230.755,248.987
2015-02-08 03:00,-0.0,262.475,254.145,242.081,253.269,249.753,237.373,-0.0,-0.0,226.216,241.221
2015-02-08 04:00,-0.00136544,261.251,251.53,240.32,250.83,247.915,236.153,-0.0,-0.0,224.661,239.121
2015-02-08 05:00,-0.0,261.666,250.954,240.913,247.229,239.208,228.109,-0.0,-0.0,222.799,237.043
2015-02-08 06:00,0.00332311,262.074,254.69,242.942,253.469,249.144,236.46,-0.0,-0.0,224.86,241.093
2015-02-08 07:00,-0.0,266.131,260.201,246.13,259.791,256.18,241.953,-0.0,-0.0,227.601,244.764
2015-02-08 08:00,-0.0,272.322,269.485,251.18,270.006,266.835,249.572,-0.0,-0.0,229.769,248.669
2015-02-08 09:00,-0.0105165,269.283,265.545,248.642,266.508,264.106,248.229,-0.0,-0.0,230.674,249.617
2015-02-08 10:00,0.547835,271.261,264.788,247.991,265.654,264.279,249.572,0.733183,0.820687,231.63,249.928
2015-02-08 11:00,0.436798,276.811,264.482,247.728,265.482,263.586,249.171,0.649208,0.691598,231.943,249.928
2015-02-08 12:00,0.387282,279.473,262.616,246.801,263.745,262.888,249.438,0.644111,0.694197,234.041,250.544
2015-02-08 13:00,0.409662,288.841,269.059,250.555,270.981,269.165,252.723,0.487134,0.529137,234.897,252.244
2015-02-08 14:00,0.449382,292.414,278.35,256.434,280.931,279.061,257.9,0.494313,0.524767,236.207,254.162
2015-02-08 15:00,0.251933,292.653,283.956,259.464,286.033,283.629,261.301,0.231253,0.316144,237.137,256.091
2015-02-08 16:00,0.233695,293.93,283.264,259.244,284.781,282.758,260.581,0.193951,0.282648,236.542,255.639
2015-02-08 17:00,0.219429,287.587,281.386,257.91,283.372,281.882,261.062,0.315125,0.367171,237.072,255.911
2015-02-08 18:00,0.234461,292.653,284.982,260.011,286.585,284.205,261.54,0.205443,0.322025,237.721,256.45
2015-02-08 19:00,0.209461,274.787,261.179,245.995,261.431,259.321,247.142,0.393008,0.483828,235.038,247.261
2015-02-08 20:00,0.745809,278.684,220.379,224.102,218.478,216.652,214.671,1.00916,1.19374,214.588,217.418
2015-02-08 21:00,1.38388,291.931,235.275,232.146,233.31,229.647,224.126,1.26906,1.57119,222.15,228.603
2015-02-08 22:00,0.396613,271.798,264.635,248.252,263.745,259.139,243.949,0.47973,0.572006,226.963,243.937
2015-02-08 23:00,-0.00532838,218.393,207.178,219.183,205.497,205.349,207.197,-0.00451153,-0.0,205.449,205.109
2015-02-09 00:00,-0.00532366,230.231,216.471,223.076,215.628,214.697,214.468,-0.00450754,-0.00537455,214.293,215.061
2015-02-09 01:00,-0.0,204.719,207.704,219.632,206.833,205.74,207.648,-0.0,-0.0,207.105,206.968
2015-02-09 02:00,-0.0,213.142,208.223,219.409,207.269,205.74,207.872,-0.0,-0.0,207.304,206.968
2015-02-09 03:00,-0.0,213.142,212.578,221.17,211.825,211.284,210.718,-0.0,-0.0,210.796,212.207
2015-02-09 04:00,-0.00136116,222.276,219.247,224.305,217.78,216.008,215.873,-0.0,-0.0,213.995,216.909
2015-02-09 05:00,-0.0,256.589,242.142,235.499,239.669,235.677,226.574,-0.0,-0.0,220.57,230.011
2015-02-09 06:00,-0.0,260.395,253.411,241.354,252.868,249.753,237.07,-0.0,-0.0,225.835,240.576
2015-02-09 07:00,-0.00213965,271.531,271.711,252.168,274.0,273.042,256.035,-0.0,-0.0,231.394,250.544
2015-02-09 08:00,-0.00339727,270.989,271.984,252.29,274.467,273.675,256.16,-0.0,-0.0,233.456,251.352
2015-02-09 09:00,-0.0,273.586,274.524,253.86,277.528,276.631,258.147,-0.0,-0.0,233.896,252.244
2015-02-09 10:00,0.430001,275.932,273.199,253.381,275.55,274.617,256.785,0.561292,0.551683,235.593,252.244
2015-02-09 11:00,0.230336,259.954,252.479,241.936,253.469,253.703,243.099,0.49157,0.535156,230.018,239.656
2015-02-09 12:00,0.267307,251.282,239.799,233.849,241.58,240.123,233.344,0.578396,0.62968,228.136,236.9
2015-02-09 13:00,0.230725,245.913,227.219,227.628,228.293,228.056,224.657,0.574571,0.637894,223.013,226.187
2015-02-09 14:00,0.249865,264.377,251.147,240.021,251.856,249.55,240.207,0.458924,0.501921,230.101,241.348
2015-02-09 15:00,0.288604,288.291,273.199,253.261,275.396,272.405,254.773,0.27927,0.348447,234.968,250.646
2015-02-09 16:00,0.273171,287.155,269.201,251.056,270.981,268.67,253.111,0.267556,0.338885,233.53,249.198
2015-02-09 17:00,0.30324,288.152,277.35,256.32,279.613,277.548,258.023,0.36767,0.416348,233.308,250.34
2015-02-09 18:00,0.373754,283.924,272.796,253.14,274.933,273.675,256.035,0.528968,0.570121,232.097,249.303
2015-02-09 19:00,0.263353,273.586,253.963,242.369,253.867,252.144,242.527,0.458743,0.552062,231.315,242.848
2015-02-09 20:00,0.643149,277.451,221.841,225.701,221.182,219.472,218.41,0.908924,1.04556,218.009,219.134
2015-02-09 21:00,1.8385,285.665,230.265,228.934,230.012,228.056,223.949,1.82738,2.30441,223.849,229.489
2015-02-09 22:00,0.852678,267.761,261.982,247.067,262.329,259.864,246.732,0.825098,1.10678,228.048,245.114
2015-02-09 23:00,-0.00528674,235.601,225.282,227.817,223.125,220.384,217.832,-0.0,-0.00533728,214.734,220.763
2015-02-10 00:00,-0.00529947,257.605,243.94,237.415,241.107,234.706,225.36,-0.00448705,-0.00535013,220.454,231.198
2015-02-10 01:00,-0.00186678,251.944,238.338,233.849,236.695,231.714,224.657,-0.0,-0.0,219.26,228.06
2015-02-10 02:00,-0.00153103,269.576,259.54,245.723,259.421,254.089,239.173,-0.0,-0.0,224.054,239.523
2015-02-10 03:00,0.00138541,262.475,256.469,244.349,256.406,252.536,240.938,-0.0,-0.0,225.352,240.835
2015-02-10 04:00,-0.0,272.836,262.931,248.121,262.507,257.856,242.527,-0.0,-0.0,224.156,240.316
2015-02-10 05:00,-0.0,267.761,250.371,240.913,245.914,239.895,228.278,-0.0,-0.0,216.963,228.242
2015-02-10 06:00,-0.00164917,265.095,250.371,240.617,247.878,243.243,232.227,-0.0,-0.0,219.863,232.185
2015-02-10 07:00,-0.0,268.073,253.779,242.369,251.652,247.085,234.134,-0.0,-0.0,221.031,233.617
2015-02-10 08:00,-0.0,245.913,240.984,234.515,240.152,238.978,232.227,-0.0,-0.0,223.434,233.146
2015-02-10 09:00,-0.0,265.791,259.54,245.04,259.421,257.115,244.231,-0.0,-0.0,225.931,241.602
2015-02-10 10:00,0.653911,283.924,274.916,254.217,277.226,274.147,255.027,0.530596,0.6785,228.488,247.699
2015-02-10 12:00,0.488104,297.749,274.392,254.217,277.226,274.147,255.406,0.416637,0.480752,229.685,248.669
2015-02-10 13:00,0.378988,298.045,281.267,258.691,283.372,280.108,258.392,0.277421,0.379562,230.184,249.513
2015-02-10 14:00,0.270598,296.219,286.105,261.519,287.543,284.205,260.34,0.171565,0.301669,230.835,250.34
2015-02-10 15:00,0.225139,295.476,285.77,261.305,286.997,283.484,260.581,0.129744,0.247521,230.674,250.544
2015-02-10 16:00,0.222366,291.44,282.096,259.134,283.797,280.85,259.127,0.175529,0.278276,230.835,249.825
2015-02-10 17:00,0.177197,288.291,280.308,257.798,281.076,278.911,257.9,0.21991,0.267111,230.101,249.513
2015-02-10 18:00,0.303051,279.859,267.909,250.681,269.35,268.173,252.205,0.492381,0.566418,230.101,248.669
2015-02-10 19:00,0.312352,296.008,280.549,258.358,281.51,278.307,257.158,0.247406,0.389934,231.315,250.95
2015-02-10 20:00,0.338807,298.822,285.095,261.198,286.172,282.613,259.856,0.238722,0.389884,231.394,251.452
2015-02-10 21:00,0.41495,292.294,283.495,260.011,285.061,282.321,260.219,0.476006,0.52252,233.159,252.146
2015-02-10 22:00,0.198342,284.73,280.909,258.913,282.66,279.959,259.614,0.559787,0.667462,234.257,252.925
2015-02-10 23:00,-0.00524421,268.986,267.764,250.806,270.657,269.657,253.368,-0.00444026,-0.00529434,234.113,251.152
2015-02-11 00:00,-0.00527485,233.989,221.117,225.306,221.511,219.777,218.982,-0.00446621,-0.00532528,215.873,217.669
2015-02-11 01:00,-0.00185996,272.061,264.482,247.859,265.997,262.888,247.551,-0.0,-0.0,232.709,247.59
2015-02-11 02:00,-0.00152605,267.761,264.175,249.158,264.792,261.299,247.006,-0.0,-0.0,230.018,245.804
2015-02-11 03:00,-0.00138111,262.869,262.774,247.465,263.393,261.299,247.823,-0.0,-0.0,232.251,248.025
2015-02-11 04:00,-0.00135269,270.434,269.485,251.552,269.35,266.498,250.765,-0.0,-0.0,232.709,249.303
2015-02-11 05:00,-0.0014288,283.261,280.308,258.58,280.931,276.784,255.658,-0.0,-0.0,233.159,250.646
2015-02-11 06:00,0.00164313,285.512,280.909,258.802,281.221,276.631,254.264,-0.0,-0.0,231.865,249.303
2015-02-11 07:00,-0.0,286.569,283.726,260.661,284.921,281.441,258.638,-0.0,-0.0,231.63,250.95
2015-02-11 08:00,0.0033529,280.799,272.12,252.899,271.785,267.506,247.823,-0.0,-0.0,226.499,243.698
2015-02-11 09:00,-0.00996518,264.739,248.784,239.57,243.895,237.109,227.94,-0.0,-0.0,219.624,230.183
2015-02-11 10:00,0.451153,281.165,266.886,250.555,263.745,255.614,239.913,0.467743,0.650665,224.359,239.523
2015-02-11 12:00,0.306192,291.809,280.308,258.469,279.17,273.517,251.553,0.161612,0.375358,226.871,244.998
2015-02-11 13:00,0.250963,288.705,272.931,254.336,270.657,264.795,246.732,0.168968,0.320519,225.546,240.706
2015-02-11 14:00,0.240029,290.939,275.565,255.974,273.529,268.505,249.705,0.141285,0.292862,227.238,242.848
2015-02-11 15:00,0.231189,295.796,285.994,261.944,286.585,281.735,257.777,0.135825,0.266742,230.348,248.562
2015-02-11 16:00,0.190054,297.349,286.882,262.89,286.585,280.406,256.16,0.0912523,0.229309,232.935,250.032
2015-02-11 17:00,0.312119,274.551,221.481,225.897,218.13,211.635,208.982,0.555278,0.630206,212.126,215.332
2015-02-11 18:00,0.408505,272.322,206.1,219.855,204.584,202.529,205.127,0.828263,0.915855,205.015,205.868
2015-02-11 19:00,0.551501,280.799,200.125,217.342,198.14,196.363,201.266,0.885507,0.987934,201.465,200.502
2015-02-11 20:00,0.738449,280.239,206.1,220.517,203.652,202.529,204.422,0.962996,1.10508,206.702,206.239
2015-02-11 21:00,1.19284,283.093,210.707,222.027,209.394,208.397,209.638,1.16565,1.4125,210.966,210.67
2015-02-11 22:00,0.363121,252.585,245.032,238.195,242.049,237.815,232.066,0.614907,0.733184,223.952,234.542
2015-02-11 23:00,-0.00520086,271.261,263.867,248.382,261.971,257.301,245.072,-0.00440356,-0.00525058,228.048,242.971
2015-02-12 00:00,-0.00787475,249.156,242.37,235.985,241.107,238.978,232.227,-0.00444503,-0.00265001,225.254,235.295
2015-02-12 01:00,-0.0,233.989,229.072,229.665,228.293,225.874,222.511,-0.0,-0.0,219.982,225.604
2015-02-12 02:00,-0.0,270.713,255.941,244.07,251.447,244.973,232.547,-0.0,-0.0,219.137,231.198
2015-02-12 03:00,-0.0,269.865,255.05,243.368,251.036,244.544,233.185,-0.0,0.00138999,221.031,232.022
2015-02-12 04:00,-0.00134849,254.966,237.841,233.513,234.371,230.17,224.481,-0.0,0.00136138,217.229,225.011
2015-02-12 05:00,-0.0,271.798,260.528,246.13,258.491,254.472,239.618,-0.0,-0.0,222.585,235.295
2015-02-12 06:00,-0.0,265.446,254.145,242.081,253.669,249.753,237.07,-0.0,-0.0,223.952,235.887
2015-02-12 07:00,-0.0,264.377,255.587,243.226,256.021,252.732,241.374,-0.0,-0.0,224.959,239.789
2015-02-12 08:00,-0.0,282.581,279.458,257.572,280.931,276.938,255.153,-0.0,-0.0,228.048,247.481
2015-02-12 14:00,0.222258,296.427,288.303,262.786,288.763,283.629,258.392,0.0870223,0.26459,229.178,248.025
2015-02-12 15:00,0.192402,296.943,288.52,263.099,288.628,283.049,257.034,0.0739574,0.227607,229.178,248.348
2015-02-12 16:00,0.178582,298.045,290.756,264.133,291.948,287.329,261.421,0.0657842,0.209557,231.076,249.928
2015-02-12 17:00,0.200532,297.749,289.058,262.995,290.367,286.767,261.66,0.103932,0.229442,232.328,250.544
2015-02-12 18:00,0.179142,297.947,291.174,264.441,292.989,288.722,262.373,0.0810499,0.216749,231.943,250.849
2015-02-12 19:00,0.193624,296.531,289.486,263.307,290.764,286.767,260.34,0.0983649,0.243069,232.86,251.051
2015-02-12 20:00,0.19754,296.427,292.622,265.052,294.533,291.193,264.138,0.110833,0.259497,234.401,0.0
2015-02-12 21:00,0.216407,294.491,292.108,265.052,294.405,291.6,264.372,0.190866,0.309507,235.386,254.349
2015-02-12 22:00,0.242875,286.864,282.799,259.244,283.938,281.146,257.653,0.616926,0.653858,232.097,249.928
2015-02-12 23:00,-0.0,290.301,289.593,263.307,292.6,290.648,264.605,-0.00436624,-0.00520608,235.386,254.068
2015-02-13 00:00,-0.00783668,289.514,289.058,262.576,291.555,289.826,263.787,-0.00442353,-0.00791159,235.038,254.629
2015-02-13 01:00,-0.0,286.864,284.071,259.244,286.172,283.629,258.638,-0.0,-0.0,229.852,251.051
2015-02-13 02:00,0.00151605,286.864,284.642,259.574,286.86,284.205,259.856,-0.0,-0.0,229.007,250.646
2015-02-13 03:00,-0.0,257.605,244.16,236.784,242.049,237.345,230.604,-0.0,-0.0,225.058,233.461
2015-02-13 04:00,0.00134434,278.482,272.527,252.412,273.215,266.329,247.687,-0.0,-0.0,231.315,249.408
2015-02-13 05:00,0.00141958,277.869,270.607,251.305,270.657,265.48,246.594,-0.0,-0.0,228.835,246.483
2015-02-13 06:00,-0.0,280.982,274.524,253.621,274.156,269.821,249.171,-0.0,-0.0,228.048,246.483
2015-02-13 07:00,-0.0,285.045,283.264,258.58,284.501,281.293,257.034,-0.0,-0.0,232.784,252.731
2015-02-13 08:00,0.00331101,285.818,284.982,260.228,286.585,283.194,258.882,-0.0,-0.0,233.308,253.974
2015-02-13 09:00,-0.0192845,284.73,283.148,258.802,284.361,281.146,256.785,-0.0,-0.0,230.593,252.439
2015-02-13 10:00,0.293298,284.73,281.386,257.572,282.803,280.406,257.282,0.2964,0.468032,230.348,252.244
2015-02-13 11:00,0.359068,292.053,290.123,262.89,292.6,290.648,264.372,0.171013,0.472546,231.943,256.45
2015-02-13 12:00,0.339388,296.427,292.622,264.441,294.916,292.41,264.953,0.136918,0.409143,232.175,257.07
2015-02-13 13:00,0.284952,298.63,293.133,264.849,295.043,292.006,263.905,0.106517,0.332052,232.481,256.716
2015-02-13 14:00,0.236608,300.225,294.646,265.758,296.307,293.082,264.372,0.0881912,0.273921,233.823,257.333
2015-02-13 15:00,0.203177,300.589,295.442,266.159,297.184,293.75,265.069,0.0690119,0.232548,234.686,257.508
2015-02-13 16:00,0.18103,300.769,295.541,266.657,297.434,293.75,264.953,0.0599354,0.208534,236.475,258.457
2015-02-13 17:00,0.178796,299.95,293.944,265.557,295.17,292.006,264.488,0.0762079,0.206291,235.525,258.628
2015-02-13 18:00,0.175215,299.108,293.539,265.355,294.788,290.784,264.255,0.0788132,0.212821,235.108,258.882
2015-02-13 19:00,0.205712,298.822,290.44,264.339,291.029,286.202,260.219,0.117069,0.253641,232.709,255.548
2015-02-13 20:00,0.257685,301.653,290.651,264.441,289.968,283.339,257.653,0.157575,0.298688,234.329,256.716
2015-02-13 21:00,0.634788,296.531,277.852,255.626,277.828,272.565,250.501,0.529796,0.69121,232.097,251.751
2015-02-13 22:00,1.28753,271.798,248.38,239.267,245.471,240.123,228.949,1.01228,1.57837,221.484,232.669
2015-02-13 23:00,-0.0,233.989,223.252,227.058,220.852,217.922,217.055,-0.00432837,-0.00516093,216.287,220.075
2015-02-14 00:00,-0.00519873,242.013,226.583,228.749,223.758,220.081,218.41,-0.00440176,-0.00787265,217.881,222.529
2015-02-14 01:00,0.00183911,237.078,232.28,230.743,230.574,229.121,226.229,-0.0,-0.0,222.259,227.694
2015-02-14 02:00,0.00151104,274.551,262.774,247.991,262.685,253.703,237.373,-0.0,-0.0,224.258,240.446
2015-02-14 03:00,-0.0,257.605,244.16,238.195,240.392,234.216,225.883,-0.0,-0.0,217.096,229.137
2015-02-14 04:00,0.00134022,253.206,236.576,233.344,233.041,228.324,222.329,-0.0,-0.0,217.229,225.408
2015-02-14 05:00,-0.0,238.442,227.845,229.118,225.31,223.043,220.86,-0.0,0.00142859,218.009,222.529
2015-02-14 06:00,-0.0,242.013,236.06,232.319,235.155,232.976,227.94,-0.0,-0.0,223.013,230.694
2015-02-14 07:00,-0.0,256.589,245.248,237.415,244.8,241.251,232.867,-0.0,-0.0,222.906,235.887
2015-02-14 08:00,-0.0,274.073,261.982,246.533,261.791,257.115,241.664,-0.0,-0.0,225.739,241.348
2015-02-14 09:00,-0.0,253.81,238.09,233.849,234.633,232.474,226.574,-0.0,-0.0,219.137,226.76
2015-02-14 10:00,0.25893,276.811,266.145,249.542,265.31,261.299,245.211,0.308553,0.387266,228.488,243.457
2015-02-14 11:00,0.202761,280.05,271.162,251.429,270.981,267.84,249.305,0.215278,0.337916,229.769,246.483
2015-02-14 12:00,0.320071,289.514,278.226,255.974,278.128,273.832,252.723,0.188009,0.414012,230.266,247.481
2015-02-14 13:00,0.288356,298.144,290.965,264.133,292.079,287.748,262.373,0.109225,0.326352,232.251,251.452
2015-02-14 14:00,0.236831,298.918,290.545,264.236,291.16,286.06,260.581,0.0915438,0.270281,232.02,250.238
2015-02-14 15:00,0.205701,299.297,290.545,264.441,290.764,285.208,259.005,0.0750719,0.233924,232.251,249.408
2015-02-14 16:00,0.200909,294.156,279.58,257.459,278.278,271.926,250.633,0.106196,0.243865,228.921,244.53
2015-02-14 17:00,0.272681,266.797,235.011,231.973,233.041,229.647,223.949,0.360748,0.476838,222.368,226.948
2015-02-14 18:00,0.217887,265.095,241.913,235.499,238.938,237.109,231.743,0.348083,0.420571,226.311,232.988
2015-02-14 19:00,0.49483,268.382,213.479,223.283,212.219,211.284,211.57,0.772166,0.864426,211.8,212.505
2015-02-14 20:00,0.624405,276.594,211.184,222.238,210.625,210.219,211.358,0.864932,0.985412,210.278,210.032
2015-02-14 21:00,1.22707,278.684,221.481,226.481,220.184,217.607,216.663,1.34794,1.63024,216.012,219.608
2015-02-14 22:00,0.107126,254.966,254.509,243.226,255.244,253.703,244.512,0.634921,0.757048,229.852,243.937
2015-02-14 23:00,-0.0101335,260.827,245.463,238.503,242.049,237.581,229.449,-0.00429003,-0.0051152,221.819,231.198
2015-02-15 00:00,-0.00775907,270.151,258.871,244.903,257.361,253.122,240.793,-0.00437973,-0.00522216,225.739,239.255
2015-02-15 01:00,-0.0,251.282,244.598,237.572,245.024,243.024,234.134,-0.0,-0.0,226.685,237.608
2015-02-15 02:00,0.00150602,232.213,229.673,229.665,229.444,228.856,225.535,-0.0,-0.0,221.93,226.57
2015-02-15 03:00,-0.0,245.913,244.598,236.943,245.024,244.112,236.918,-0.0,-0.0,227.601,238.303
2015-02-15 04:00,0.00267229,268.686,265.545,249.286,266.508,264.279,250.104,-0.0,-0.0,229.935,245.918
2015-02-15 05:00,-0.0,275.02,270.746,252.777,271.945,269.165,252.335,-0.0,-0.0,230.266,246.707
2015-02-15 06:00,-0.0,266.797,260.036,245.995,261.25,259.684,248.094,-0.0,-0.0,228.748,244.53
2015-02-15 07:00,-0.0,258.576,257.511,244.21,259.421,258.224,247.415,-0.0,-0.0,229.433,245.114
2015-02-15 08:00,-0.0,268.986,263.245,247.991,264.965,263.237,250.369,-0.0,-0.0,230.916,246.032
2015-02-15 09:00,-0.0093504,285.045,282.448,259.464,284.641,281.146,258.392,-0.0,-0.0,231.315,248.669
2015-02-15 10:00,0.806744,277.026,259.373,245.995,261.431,259.321,247.415,0.674839,0.824268,231.552,245.69
2015-02-15 12:00,0.595331,292.653,251.147,241.5,253.669,253.122,244.372,0.522735,0.611141,234.257,245.345
2015-02-15 13:00,0.524275,299.203,254.871,243.368,257.361,255.992,246.044,0.458056,0.543094,235.317,246.595
2015-02-15 14:00,0.383934,299.297,270.468,252.656,271.945,268.835,253.368,0.287987,0.396709,235.455,250.646
2015-02-15 15:00,0.467349,285.357,266.738,250.051,269.515,269.165,254.519,0.47785,0.545874,236.341,252.828
2015-02-15 16:00,0.197585,296.943,285.77,261.305,287.407,282.613,259.37,0.0895519,0.227635,236.207,253.974
2015-02-15 17:00,0.14865,297.146,288.736,263.307,289.3,285.35,261.182,0.0763421,0.186973,235.593,253.69
2015-02-15 18:00,0.0521346,288.291,283.148,260.228,283.656,281.441,259.856,0.0743449,0.108036,236.675,253.309
2015-02-15 19:00,0.340033,288.841,261.662,247.597,260.706,258.224,245.767,0.383874,0.476498,231.865,244.998
2015-02-15 20:00,0.592593,285.202,263.088,247.991,263.569,261.299,247.142,0.59519,0.699986,232.86,247.808
2015-02-15 21:00,0.973221,274.551,240.039,235.173,238.446,236.396,230.276,0.917311,1.08912,223.329,231.53
2015-02-15 22:00,0.646267,248.394,231.713,231.098,228.871,225.038,221.046,1.09439,1.30489,217.096,225.21
2015-02-15 23:00,-0.00502099,256.589,251.147,241.791,250.83,247.501,238.128,-0.00425126,-0.00506899,224.359,238.85
2015-02-16 00:00,-0.0102928,245.01,233.116,231.799,231.131,229.121,224.481,-0.0065362,-0.00779343,218.009,225.994
2015-02-16 01:00,0.00182498,227.984,224.616,227.817,223.758,223.043,221.23,-0.0,-0.0,218.767,221.436
2015-02-16 02:00,-0.0,233.989,230.265,230.387,230.012,228.856,225.535,-0.0,-0.0,222.585,227.323
2015-02-16 03:00,-0.0,232.213,229.373,229.847,229.158,228.056,225.709,-0.0,-0.0,221.258,226.379
2015-02-16 04:00,0.00133212,238.442,235.8,233.005,234.895,234.706,230.604,-0.0,-0.0,223.849,230.694
2015-02-16 05:00,-0.0,246.775,241.682,235.985,240.87,239.438,234.291,-0.0,-0.0,223.746,233.146
2015-02-16 06:00,-0.0,263.255,254.145,242.513,254.263,249.753,238.577,-0.0,-0.0,225.739,238.986
2015-02-16 07:00,-0.0,258.576,255.764,244.07,257.739,257.115,246.732,-0.0,-0.0,229.852,244.998
2015-02-16 08:00,-0.0,281.165,277.35,256.892,278.873,274.929,255.532,-0.0,-0.0,230.755,247.917
2015-02-16 09:00,0.0092151,275.932,271.437,253.381,272.741,269.165,252.594,-0.0,-0.0,229.263,246.595
2015-02-16 10:00,0.748645,270.713,260.528,247.067,263.217,262.361,249.438,0.725622,0.805526,229.348,246.258
2015-02-16 11:00,0.59348,288.977,265.394,249.924,268.524,267.004,252.335,0.507991,0.602428,229.935,248.348
2015-02-16 12:00,0.574432,290.813,262.774,248.252,265.826,265.48,251.814,0.520383,0.600201,230.184,248.455
2015-02-16 13:00,0.36367,296.008,276.208,256.32,278.278,276.015,257.282,0.261538,0.385581,230.593,250.032
2015-02-16 14:00,0.383026,294.713,271.023,252.899,273.686,271.765,255.658,0.306836,0.408821,229.852,249.093
2015-02-16 15:00,0.414464,285.045,269.059,251.799,272.264,271.926,256.16,0.388024,0.456682,230.43,249.721
2015-02-16 16:00,0.304775,291.686,269.908,252.534,272.899,272.086,256.535,0.222595,0.310037,231.63,250.544
2015-02-16 17:00,0.176847,296.738,286.328,262.366,287.407,283.484,260.461,0.110495,0.206857,232.02,251.452
2015-02-16 18:00,0.0412107,261.666,262.3,247.2,261.971,262.185,252.075,0.195401,0.191382,232.557,246.595
2015-02-16 19:00,0.438946,264.739,226.902,228.378,224.072,224.474,222.511,0.553896,0.653593,216.963,219.843
2015-02-16 20:00,0.844645,276.376,230.85,230.743,230.574,228.056,224.834,0.922984,1.12238,222.585,228.782
2015-02-16 21:00,0.346612,291.686,281.029,259.354,280.931,276.169,254.264,0.293476,0.410579,230.916,248.133
2015-02-16 22:00,0.16447,283.093,274.524,255.51,274.0,270.148,250.633,0.974794,0.996252,228.224,243.937
2015-02-16 23:00,-0.0049748,280.799,270.885,252.899,270.819,266.498,247.142,-0.00421215,-0.00502236,226.499,242.848
2015-02-17 00:00,-0.00511989,247.601,235.011,232.834,232.23,230.688,226.574,-0.0065025,-0.00775325,219.26,225.994
2015-02-17 01:00,-0.0,254.396,243.719,237.572,242.747,240.123,231.419,-0.0,-0.0,223.224,234.082
2015-02-17 02:00,-0.0,233.989,231.713,230.743,230.574,229.909,227.601,-0.0,-0.0,221.484,226.76
2015-02-17 03:00,-0.0,253.206,247.15,239.57,247.229,244.328,235.537,-0.0,-0.0,223.329,235.74
2015-02-17 04:00,-0.00132813,265.095,263.088,248.9,264.965,262.537,248.364,-0.0,-0.0,228.4,245.69
2015-02-17 05:00,0.00140193,269.283,265.995,249.797,266.508,263.933,247.687,-0.0,-0.0,227.87,245.575
2015-02-17 06:00,-0.00160918,264.009,254.328,243.368,251.447,248.532,239.025,-0.0,-0.0,223.849,237.043
2015-02-17 07:00,0.00206787,280.982,272.391,253.86,271.303,265.48,246.319,-0.0,-0.0,225.931,243.214
2015-02-17 08:00,0.00323448,268.686,259.206,245.587,257.739,254.855,241.808,-0.0,0.0032654,226.122,239.922
2015-02-17 09:00,-0.0,278.279,269.485,251.799,268.855,264.279,246.457,-0.0,-0.0,224.46,240.053
2015-02-17 10:00,0.249557,283.76,278.845,257.459,279.907,276.631,255.532,0.338079,0.35272,228.575,247.261
2015-02-17 11:00,0.47852,289.247,277.35,256.778,278.427,274.617,253.753,0.413431,0.476522,227.51,245.69
2015-02-17 13:00,0.323013,288.291,269.059,251.799,269.35,267.339,253.24,0.301876,0.403011,230.996,246.371
2015-02-17 14:00,0.291757,289.514,270.468,252.656,270.657,268.007,251.683,0.306055,0.384474,230.266,247.04
2015-02-17 15:00,0.18964,259.505,243.719,236.306,243.438,241.698,234.291,0.473675,0.537264,226.592,237.327
2015-02-17 16:00,0.236358,264.739,224.279,227.438,221.838,218.547,214.671,0.329268,0.409058,211.47,216.392
2015-02-17 17:00,0.239299,264.009,238.338,234.183,237.951,235.435,230.604,0.446577,0.528778,225.546,233.304
2015-02-17 18:00,0.343885,260.827,220.006,225.107,218.824,218.235,218.025,0.697636,0.788775,214.879,216.909
2015-02-17 19:00,0.483942,267.123,224.279,227.248,223.758,221.875,219.551,0.872702,0.995994,219.982,223.377
2015-02-17 20:00,0.593859,271.261,233.938,232.491,231.683,229.909,227.26,0.670426,0.777447,218.264,225.408
2015-02-17 21:00,1.26127,277.24,225.937,228.564,225.31,223.905,221.965,1.31223,1.60693,220.916,223.999
2015-02-17 22:00,0.229044,232.213,227.219,229.301,226.82,225.597,224.126,1.16359,1.3874,220.454,224.408
2015-02-17 23:00,-0.0147848,222.276,215.218,223.899,213.763,212.329,211.992,-0.00417276,-0.00497538,211.636,213.092
2015-02-18 00:00,-0.0101863,232.213,220.006,225.107,218.478,217.607,216.466,-0.00646854,-0.0102837,215.873,218.165
2015-02-18 01:00,-0.0,232.213,228.463,229.118,227.414,226.426,224.126,-0.0,-0.0,220.219,225.408
2015-02-18 02:00,-0.0,240.898,235.011,232.491,233.842,232.976,229.449,-0.0,-0.0,222.368,229.314
2015-02-18 03:00,-0.00135152,240.898,237.339,233.681,237.2,235.917,231.419,-0.0,-0.0,225.156,232.347
2015-02-18 04:00,0.0013242,253.206,250.371,241.354,250.207,247.501,238.577,-0.0,-0.0,226.778,240.446
2015-02-18 05:00,-0.0,260.827,255.941,244.903,256.213,254.089,242.814,-0.0,-0.0,225.352,241.221
2015-02-18 06:00,-0.00160393,265.446,260.528,246.934,261.25,258.591,246.457,-0.0,-0.0,227.329,244.294
2015-02-18 07:00,-0.0,258.576,251.147,241.791,250.207,246.457,236.918,-0.0,0.00207955,222.692,237.185
2015-02-18 08:00,-0.0,249.156,244.16,238.04,244.575,241.921,233.976,-0.0,-0.0,223.118,235.887
2015-02-18 09:00,-0.00896386,248.394,233.392,231.973,229.729,225.038,220.302,-0.0,-0.0,215.452,222.743
2015-02-18 10:00,0.495624,247.601,226.583,228.564,224.694,222.169,218.982,0.676568,0.796494,217.096,223.377
2015-02-18 11:00,0.320197,258.096,242.824,236.466,241.815,239.208,232.227,0.683308,0.752068,222.906,234.082
2015-02-18 12:00,0.270213,254.396,238.585,233.849,237.951,237.109,231.419,0.568559,0.627025,223.746,232.185
2015-02-18 13:00,0.209018,256.589,245.676,237.728,245.471,244.112,236.918,0.507673,0.546793,227.055,237.748
2015-02-18 14:00,0.267508,266.466,255.05,243.084,255.244,253.703,243.949,0.486918,0.512733,228.224,242.602
2015-02-18 15:00,0.355909,283.594,251.339,241.5,253.069,251.552,243.241,0.408828,0.463512,230.184,242.725
2015-02-18 16:00,0.328657,291.065,273.599,254.808,275.087,272.086,253.368,0.353269,0.400041,230.43,246.707
2015-02-18 17:00,0.259122,282.059,268.773,251.922,269.679,268.007,251.422,0.3529,0.393633,231.552,247.59
2015-02-18 18:00,0.311317,277.451,252.479,242.225,252.465,251.947,243.241,0.591332,0.643884,231.236,243.457
2015-02-18 19:00,0.423677,279.081,251.912,242.513,252.262,250.156,240.793,0.716013,0.79705,229.852,242.354
2015-02-18 20:00,0.714538,270.434,219.247,225.504,219.508,217.607,217.055,1.089,1.26423,216.963,219.372
2015-02-18 21:00,0.792373,281.705,251.339,241.936,248.733,246.246,236.46,0.710599,0.870949,224.959,236.325
2015-02-18 22:00,0.770637,253.81,243.719,237.101,243.209,240.576,232.707,2.60999,2.72301,224.46,234.389
2015-02-18 23:00,-0.00488148,273.088,263.088,248.642,262.863,260.045,246.182,-0.00413314,-0.00492815,227.691,242.971
2015-02-19 00:00,-0.00759934,276.376,265.995,249.797,265.138,261.477,245.628,-0.00643435,-0.0102293,226.592,241.475
2015-02-19 01:00,-0.0,240.898,238.338,234.183,238.446,237.109,231.743,-0.0,-0.00182081,225.058,233.928
2015-02-19 02:00,-0.0,243.066,242.824,236.943,244.575,243.896,237.525,-0.0,-0.0,228.575,238.027
2015-02-19 03:00,-0.0,259.954,258.534,245.859,260.524,259.139,246.869,-0.0,-0.0,229.601,245.46
2015-02-19 04:00,-0.00132031,262.475,261.662,247.332,263.569,262.008,249.171,-0.0,-0.0,230.43,246.707
2015-02-19 05:00,-0.0,272.58,271.162,253.261,273.529,271.444,254.519,-0.0,-0.0,229.517,247.808
2015-02-19 06:00,-0.00159878,270.434,270.607,252.656,272.899,272.086,255.28,-0.0,-0.0,229.178,247.917
2015-02-19 07:00,-0.0,245.01,244.598,237.415,246.355,244.758,237.07,-0.0,-0.0,227.055,238.027
2015-02-19 08:00,-0.00319972,258.576,253.411,242.799,254.066,251.947,242.241,-0.0,-0.0,228.048,241.093
2015-02-19 09:00,-0.0,274.551,272.527,253.98,275.087,273.042,254.9,-0.0,-0.0,228.835,247.917
2015-02-19 10:00,0.133224,274.073,270.189,252.777,272.264,269.821,252.982,0.216923,0.186227,230.593,248.562
2015-02-19 11:00,0.862452,292.771,267.473,250.931,269.186,267.673,252.853,0.805204,0.864076,230.266,248.562
2015-02-19 12:00,0.555641,284.57,252.666,242.081,253.269,250.156,240.207,0.644958,0.675182,227.691,241.854
2015-02-19 13:00,0.456792,285.512,261.017,247.332,260.888,256.928,242.814,0.534227,0.558326,225.156,241.602
2015-02-19 14:00,0.382934,285.665,269.343,252.045,270.981,268.67,252.335,0.525778,0.582505,228.835,247.04
2015-02-19 15:00,0.349133,286.271,270.049,252.777,271.785,269.821,252.723,0.34689,0.399227,229.517,247.261
2015-02-19 16:00,0.197162,279.473,268.487,251.552,270.006,267.171,251.291,0.347702,0.399271,231.236,248.455
2015-02-19 17:00,0.14807,265.791,257.854,245.451,258.304,256.555,245.628,0.454858,0.512699,230.266,245.345
2015-02-19 18:00,0.400086,263.636,207.704,221.17,207.702,206.895,209.42,0.845711,0.935958,207.304,208.371
2015-02-19 19:00,0.530314,270.713,203.247,219.409,202.217,201.694,204.893,0.872045,0.986415,203.429,203.113
2015-02-19 20:00,0.68546,275.707,209.237,221.814,208.131,207.274,209.201,0.901438,1.02575,208.838,208.027
2015-02-19 21:00,1.25212,290.041,205.549,220.736,204.584,202.941,206.056,1.16418,1.41673,206.292,206.239
2015-02-19 22:00,1.30032,213.142,209.237,221.17,208.556,207.651,210.289,6.60589,6.56377,208.274,208.027
2015-02-19 23:00,-0.009669,230.231,221.117,226.092,219.167,217.922,216.663,-0.00409337,-0.00488072,214.879,217.418
2015-02-20 00:00,-0.0100783,244.063,231.713,231.45,229.158,226.151,223.233,-0.00639997,-0.007631,217.229,225.21
2015-02-20 01:00,-0.0,222.276,215.64,223.899,213.763,212.329,212.619,-0.0,-0.0,212.287,214.233
2015-02-20 02:00,-0.0,218.393,214.79,223.076,212.219,209.859,210.073,-0.0,-0.0,210.624,212.505
2015-02-20 03:00,-0.0,222.276,214.358,223.899,211.825,209.133,210.504,-0.0,-0.0,211.303,211.906
2015-02-20 04:00,-0.00131648,225.382,214.358,223.489,212.609,209.859,211.358,-0.0,-0.0,210.796,212.505
2015-02-20 05:00,-0.0,233.989,232.839,231.799,231.957,230.429,226.574,-0.0,-0.0,223.118,229.137
2015-02-20 06:00,0.00159376,238.442,236.576,233.849,235.155,231.714,226.746,-0.0,-0.0,222.259,231.198
2015-02-20 07:00,-0.0,249.89,241.218,236.466,238.199,232.725,226.402,-0.0,-0.0,221.145,232.185
2015-02-20 08:00,-0.0,239.711,229.072,230.207,226.221,223.043,219.927,-0.0,-0.0,216.56,223.167
2015-02-20 09:00,-0.0,239.711,228.463,229.484,225.919,223.619,220.489,-0.0,-0.0,218.264,223.793
2015-02-20 10:00,0.415271,251.944,232.56,231.274,230.574,227.787,224.126,0.588946,0.702228,220.57,228.242
2015-02-20 12:00,0.429193,272.58,245.248,238.657,244.122,241.251,233.026,0.54681,0.598848,222.799,234.694
2015-02-20 13:00,0.396221,277.451,240.984,236.466,239.426,236.157,229.116,0.458532,0.512752,220.219,231.53
2015-02-20 14:00,0.334141,279.667,253.04,243.084,251.652,248.327,236.46,0.391478,0.451088,223.538,237.748
2015-02-20 15:00,0.237749,275.48,251.147,242.081,248.52,243.896,233.344,0.281822,0.369633,221.145,232.022
2015-02-20 16:00,0.251097,264.009,228.769,230.207,225.615,223.043,220.489,0.385652,0.463369,216.83,221.436
2015-02-20 17:00,0.248727,268.073,235.275,233.175,232.23,228.056,221.23,0.417044,0.488603,219.624,226.76
2015-02-20 18:00,0.411784,265.095,200.125,218.041,198.14,197.752,201.515,0.771023,0.874687,199.867,200.041
2015-02-20 19:00,0.548613,271.261,200.125,218.272,198.671,196.831,201.763,0.85956,0.971407,201.465,200.956
2015-02-20 20:00,0.773386,277.24,202.034,219.409,201.233,200.415,203.708,0.970876,1.1256,202.954,202.271
2015-02-20 21:00,1.15272,277.451,207.178,220.736,205.946,204.559,207.423,1.12523,1.37533,206.905,208.027
2015-02-20 22:00,-0.899647,222.276,212.578,222.868,211.428,209.859,211.146,-3.80865,-4.54124,210.278,211.906
2015-02-20 23:00,-0.00957479,232.213,221.481,226.674,221.182,218.547,216.663,-0.00405348,-0.00483316,217.622,220.306
2015-02-21 00:00,-0.0100239,238.442,231.14,230.921,229.729,227.246,224.304,-0.00636544,-0.0126497,220.801,226.379
2015-02-21 01:00,-0.0,244.063,237.841,234.515,234.895,232.474,228.614,-0.0,-0.0,221.031,229.664
2015-02-21 02:00,-0.00147607,251.282,243.049,237.572,240.631,238.049,231.094,-0.0,-0.00149018,222.906,232.347
2015-02-21 03:00,-0.0,250.598,241.451,236.306,239.911,236.635,229.946,-0.0,-0.0,222.585,232.829
2015-02-21 04:00,-0.0,248.394,233.392,232.663,229.729,226.701,222.329,-0.0,-0.0,216.83,224.204
2015-02-21 05:00,-0.0,230.231,224.616,228.378,223.443,222.169,220.489,-0.0,-0.00139871,216.963,220.535
2015-02-21 06:00,-0.0,246.775,238.09,234.681,236.948,234.216,228.109,-0.0,-0.0,222.259,231.198
2015-02-21 07:00,-0.00203713,256.062,249.385,240.32,248.093,245.186,235.072,-0.0,-0.0,223.434,236.757
2015-02-21 08:00,0.00316721,240.898,234.477,231.799,233.842,230.688,225.883,-0.0,-0.0,222.15,229.314
2015-02-21 09:00,-0.0,249.156,240.984,235.662,240.631,238.282,231.905,-0.0,-0.0,224.76,234.542
2015-02-21 10:00,0.504774,276.376,262.141,248.121,261.611,256.928,241.664,0.534239,0.679465,225.254,240.316
2015-02-21 11:00,0.544983,265.791,247.973,240.171,246.575,244.544,235.846,0.727112,0.790277,224.156,234.542
2015-02-21 12:00,0.494948,273.338,240.514,236.146,239.911,236.872,229.781,0.535862,0.610264,221.031,231.859
2015-02-21 13:00,0.537701,287.155,248.583,240.171,249.998,248.736,239.913,0.573304,0.649554,225.931,240.185
2015-02-21 14:00,0.469364,280.982,251.721,242.081,253.269,251.75,241.664,0.526952,0.592968,227.78,242.602
2015-02-21 15:00,0.203492,292.653,282.096,260.119,282.231,277.396,254.646,0.0987429,0.248687,228.048,246.371
2015-02-21 16:00,0.184735,292.653,282.448,260.119,282.946,278.458,255.027,0.095037,0.227815,227.42,246.483
2015-02-21 17:00,0.21225,293.816,283.611,260.553,284.079,279.81,256.035,0.127772,0.250199,227.959,247.151
2015-02-21 18:00,0.224236,293.356,284.185,260.876,285.757,282.321,258.392,0.162905,0.268302,228.921,249.093
2015-02-21 19:00,0.188448,295.368,290.86,264.543,292.86,290.101,263.67,0.102988,0.236948,231.236,253.021
2015-02-21 20:00,0.271856,293.816,286.217,261.412,287.543,284.061,259.492,0.192853,0.341214,231.076,252.439
2015-02-21 21:00,0.293025,292.889,288.736,262.995,290.367,287.888,262.373,0.280642,0.402518,231.709,254.068
2015-02-21 22:00,-5.58233,289.113,286.992,262.155,289.032,286.907,261.301,-3.05836,-5.96721,231.473,253.974
2015-02-21 23:00,-0.00948046,287.444,285.546,261.091,287.407,285.493,260.822,-0.00401355,-0.00957109,230.755,253.309
2015-02-22 00:00,-0.00996938,287.01,285.658,261.198,287.543,285.35,260.461,-0.00633079,-0.0100647,232.175,253.88
2015-02-22 01:00,-0.00178205,284.41,281.267,258.691,282.374,279.061,255.909,-0.0,-0.0,231.076,251.85
2015-02-22 02:00,-0.00147115,281.705,275.951,255.974,275.857,271.444,250.104,-0.0,-0.0,228.312,247.59
2015-02-22 03:00,-0.0,282.923,277.852,256.664,278.128,273.99,252.075,-0.0,-0.0,229.178,248.882
2015-02-22 04:00,-0.0,282.923,277.977,257.006,278.128,273.832,252.335,-0.0,-0.0,228.136,247.808
2015-02-22 05:00,-0.0,281.705,277.35,256.205,278.128,273.99,253.111,-0.0,-0.0,229.093,248.775
2015-02-22 06:00,-0.0,272.836,269.626,252.045,271.142,268.007,251.291,-0.0,-0.0,229.517,248.348
2015-02-22 07:00,0.00202999,254.396,252.479,241.207,253.669,251.552,240.938,-0.0,-0.0,228.921,243.093
2015-02-22 08:00,-0.00315177,259.505,256.294,243.93,256.98,255.614,244.09,-0.0,-0.0,227.959,244.647
2015-02-22 09:00,-0.00852988,265.095,263.867,248.512,265.31,262.888,248.903,-0.0,-0.0,228.748,247.59
2015-02-22 10:00,0.873374,274.787,268.054,250.931,269.842,269.494,253.625,0.838683,1.03226,230.593,251.949
2015-02-22 11:00,0.377864,290.429,286.328,260.876,287.543,284.349,259.977,0.19084,0.481865,232.557,254.907
2015-02-22 12:00,0.337387,294.491,289.165,262.471,290.234,287.048,261.301,0.139391,0.410376,231.865,255.366
2015-02-22 13:00,0.283797,296.943,290.965,264.031,291.948,288.167,261.779,0.107806,0.332972,233.896,0.0
2015-02-22 14:00,0.23106,298.045,292.314,264.747,293.635,289.964,263.083,0.0824319,0.271274,234.113,256.982
2015-02-22 15:00,0.299024,292.053,282.096,258.58,284.22,282.321,260.34,0.284453,0.39329,233.53,256.45
2015-02-22 16:00,0.257532,292.889,282.916,259.464,284.921,282.613,260.34,0.222016,0.333264,234.615,256.982
2015-02-22 17:00,0.237118,290.429,280.549,257.798,281.943,280.257,259.735,0.268383,0.33117,234.113,256.36
2015-02-22 18:00,0.183037,297.449,291.07,264.236,292.34,288.584,262.61,0.0845331,0.226784,235.731,257.595
2015-02-22 19:00,0.218119,296.635,290.229,263.618,291.817,288.861,263.318,0.117789,0.253148,236.341,257.769
2015-02-22 20:00,0.221316,296.114,291.174,264.133,293.119,289.964,263.67,0.135335,0.295426,237.137,258.028
2015-02-22 21:00,0.479768,294.491,288.195,262.471,290.5,287.888,262.61,0.393909,0.557742,237.528,258.286
2015-02-22 22:00,-0.397531,290.171,289.486,262.89,291.948,289.551,263.905,-0.841473,-1.00333,237.463,258.028
2015-02-22 23:00,-0.00938614,289.779,288.951,262.366,291.423,289.551,263.787,-0.00397362,-0.00947587,238.483,258.628
2015-02-23 00:00,-0.00743602,289.113,288.843,262.261,291.423,289.689,263.67,-0.00839475,-0.0200189,237.592,258.457
2015-02-23 01:00,-0.00177488,288.43,288.195,261.625,290.764,288.999,263.436,-0.0,-0.0,237.785,258.457
2015-02-23 02:00,-0.00146625,287.587,286.439,261.091,288.628,286.202,261.54,-0.0,-0.0,236.475,256.539
2015-02-23 03:00,-0.00133131,282.059,281.742,258.469,284.22,282.028,260.219,-0.0,-0.0,236.071,256.091
2015-02-23 04:00,-0.0,287.444,286.328,260.984,288.628,286.202,261.54,-0.0,-0.0,235.178,255.639
2015-02-23 05:00,-0.00137771,282.581,281.029,258.134,282.517,281.146,259.856,-0.0,-0.0,234.257,254.536
2015-02-23 06:00,-0.0,286.421,285.994,260.769,288.222,286.06,261.898,-0.0,-0.0,234.827,255.548
2015-02-23 07:00,0.00202306,268.073,269.201,250.931,271.303,270.798,254.9,-0.0,-0.0,233.75,254.162
2015-02-23 08:00,-0.00313688,245.01,245.89,238.195,246.794,246.035,239.025,-0.0,-0.0,229.852,240.316
2015-02-23 09:00,-0.00843402,259.505,260.854,246.533,261.611,261.831,249.572,-0.0,-0.0,230.916,247.481
2015-02-23 10:00,0.539301,287.155,284.869,260.119,286.86,284.922,261.182,0.392698,0.696904,232.784,255.275
2015-02-23 12:00,0.395066,295.476,286.217,260.876,288.493,285.065,260.701,0.187942,0.444072,232.251,255.366
2015-02-23 13:00,0.284196,294.933,288.412,262.049,289.434,285.635,259.977,0.115762,0.338092,230.996,253.974
2015-02-23 14:00,0.231336,296.738,290.545,263.411,291.686,287.888,261.182,0.084731,0.271597,232.175,254.722
2015-02-23 15:00,0.201567,298.144,292.725,265.052,294.021,290.375,262.965,0.0676608,0.233597,232.481,255.457
2015-02-23 16:00,0.179324,298.533,294.245,265.557,295.93,292.679,264.372,0.0585502,0.211803,233.456,256.628
2015-02-23 17:00,0.169794,298.436,294.646,265.758,296.559,293.75,265.532,0.0552139,0.202471,233.01,256.894
2015-02-23 18:00,0.163931,298.339,294.646,265.758,297.06,294.149,265.301,0.0588137,0.207574,233.75,257.508
2015-02-23 19:00,0.177365,297.248,293.133,265.355,295.17,292.006,264.488,0.0801903,0.225998,233.75,256.716
2015-02-23 20:00,0.518582,289.113,262.458,245.859,260.706,254.281,235.537,0.430719,0.643205,227.87,242.354
2015-02-23 21:00,0.366807,259.954,229.072,229.847,228.871,228.056,225.535,0.674983,0.75544,221.484,225.604
2015-02-23 22:00,-0.282988,283.76,277.601,255.51,278.278,274.929,254.009,-0.83862,-0.999928,233.234,249.408
2015-02-23 23:00,-0.00464598,288.977,287.76,261.944,290.234,288.445,262.728,-0.00786748,-0.00938078,236.004,256.271
2015-02-24 00:00,-0.00739494,288.705,287.869,261.944,290.234,288.306,262.847,-0.00834838,-0.0149313,235.038,255.639
2015-02-24 01:00,-0.00176773,285.665,285.433,261.198,287.951,286.202,262.61,-0.0,-0.0,235.038,255.821
2015-02-24 02:00,-0.00146138,287.444,287.102,261.838,289.701,287.748,262.373,-0.0,-0.0,233.382,255.821
2015-02-24 03:00,-0.0,276.594,269.767,250.051,270.495,265.82,246.457,-0.0,-0.0,229.935,246.145
2015-02-24 04:00,0.00130173,257.103,253.595,242.656,253.269,252.927,241.519,-0.0,-0.0,229.852,243.577
2015-02-24 05:00,-0.0,237.078,235.275,233.513,232.772,233.722,231.905,-0.0,-0.0,223.434,230.183
2015-02-24 06:00,-0.0,265.446,259.039,247.465,254.657,254.089,245.767,-0.0,-0.0,227.42,243.577
2015-02-24 07:00,-0.00201634,281.165,276.08,254.454,276.62,273.359,251.291,-0.0,-0.0,228.835,248.775
2015-02-24 08:00,-0.0,280.982,275.436,254.572,276.772,273.359,250.896,-0.0,-0.0,229.263,248.348
2015-02-24 09:00,-0.0,284.57,283.841,259.464,285.895,284.349,260.219,-0.0,-0.0,231.943,253.974
2015-02-24 10:00,0.338564,286.717,286.772,261.091,289.3,288.027,263.083,0.295908,0.529239,234.472,256.45
2015-02-24 11:00,0.357126,290.813,288.412,261.944,290.367,288.306,262.965,0.178036,0.481843,233.75,256.716
2015-02-24 12:00,0.322383,294.156,289.593,262.89,291.029,288.306,262.373,0.138208,0.401681,234.401,256.628
2015-02-24 13:00,0.255371,295.151,289.058,262.366,289.968,286.767,260.461,0.108111,0.323042,232.86,255.183
2015-02-24 14:00,0.22251,296.84,290.44,263.721,291.16,287.888,262.61,0.08814,0.275871,233.085,255.366
2015-02-24 15:00,0.230468,293.356,283.956,259.683,284.079,281.882,259.492,0.15065,0.274865,232.328,253.405
2015-02-24 16:00,0.211244,296.635,284.982,259.024,288.628,283.194,257.9,0.166936,0.324634,234.329,255.275
2015-02-24 17:00,0.136783,295.042,291.07,264.339,292.209,289.137,262.255,0.0563421,0.189098,235.317,256.805
2015-02-24 18:00,0.206013,298.533,283.956,261.091,285.201,279.661,257.406,0.0954655,0.243114,232.097,249.198
2015-02-24 19:00,0.188212,296.738,290.965,264.645,292.47,287.888,262.136,0.0891826,0.263227,236.341,254.999
2015-02-24 20:00,0.0644874,291.809,285.095,259.134,286.722,281.588,252.075,0.128103,0.20032,235.525,252.244
2015-02-24 21:00,1.19984,276.155,252.101,242.799,251.242,251.156,243.525,1.13296,1.38079,234.257,242.23
2015-02-24 22:00,-0.0,288.012,285.882,261.519,287.407,284.349,260.461,-0.370015,-0.441187,238.981,253.309
2015-02-24 23:00,-0.004599,275.02,260.201,246.934,256.598,252.536,240.793,-0.00389397,-0.00928593,225.739,237.608
2015-02-25 00:00,-0.0147077,239.711,225.937,228.749,223.443,222.169,221.415,-0.00830199,-0.017323,217.491,222.096
2015-02-25 01:00,-0.0,254.396,239.317,234.845,236.695,234.216,228.782,-0.0,-0.0,222.259,228.242
2015-02-25 02:00,-0.00145655,277.869,266.442,250.051,264.965,258.04,238.876,-0.0,-0.0,223.434,238.027
2015-02-25 03:00,-0.0,271.531,258.703,246.13,254.854,250.357,238.577,-0.0,-0.0,223.118,236.179
2015-02-25 04:00,-0.0,266.797,261.822,247.728,259.236,260.045,249.838,-0.0,-0.0,226.778,244.647
2015-02-25 05:00,0.00137029,281.705,276.208,256.089,275.857,271.765,252.335,-0.0,-0.0,227.87,246.371
2015-02-25 06:00,-0.0,270.151,257.854,244.903,256.021,252.341,239.618,-0.0,-0.0,226.122,237.608
2015-02-25 07:00,-0.0,273.831,268.054,252.29,267.354,264.279,251.291,-0.0,-0.0,228.488,244.175
2015-02-25 08:00,-0.0,286.121,284.3,260.119,286.033,283.339,259.856,-0.0,-0.0,230.348,249.617
2015-02-25 09:00,-0.00825576,282.059,281.86,258.469,284.781,282.613,259.856,-0.0,-0.0,230.916,249.928
2015-02-25 10:00,0.39805,286.121,283.032,259.354,284.501,281.882,258.27,0.318305,0.591621,229.935,249.617
2015-02-25 11:00,0.341597,285.97,278.598,256.549,278.725,275.551,254.9,0.204162,0.459817,228.048,246.258
2015-02-25 12:00,0.34141,292.414,284.3,260.011,284.921,280.85,256.785,0.145401,0.402463,229.178,248.241
2015-02-25 13:00,0.288092,295.583,288.087,262.261,288.493,284.349,259.977,0.113485,0.328174,228.662,249.408
2015-02-25 14:00,0.336139,294.602,284.414,260.228,285.895,283.194,260.219,0.284609,0.386704,230.101,250.646
2015-02-25 15:00,0.25108,294.491,285.658,260.984,286.997,283.773,259.977,0.166022,0.284864,230.996,250.95
2015-02-25 16:00,0.195078,295.042,286.992,261.412,287.815,284.205,259.249,0.117412,0.228976,230.916,251.252
2015-02-25 17:00,0.225871,295.796,286.217,261.519,287.407,283.773,259.492,0.140037,0.241737,230.511,250.442
2015-02-25 18:00,0.2162,293.93,285.77,261.305,286.997,283.773,260.461,0.160617,0.264737,231.63,251.452
2015-02-25 19:00,0.221653,288.705,280.909,257.91,282.946,279.959,258.638,0.237524,0.335658,232.633,251.652
2015-02-25 21:00,0.16955,292.294,288.303,262.576,289.701,285.777,260.942,0.181558,0.281928,234.257,252.342
2015-02-25 22:00,-0.0,288.291,285.658,261.198,287.27,283.917,260.098,-0.300069,-0.357787,233.159,251.252
2015-02-25 23:00,-0.0091044,288.568,285.321,260.876,286.585,283.194,258.515,-0.00770868,-0.00919143,233.896,251.352
2015-02-26 00:00,-0.00975038,280.239,268.199,249.414,268.855,261.654,240.06,-0.00825563,-0.0172263,228.224,241.602
2015-02-26 01:00,-0.00175349,275.251,265.394,249.158,263.217,260.584,244.792,-0.00148468,-0.0,226.778,240.964
2015-02-26 02:00,0.00145176,273.338,260.854,247.2,257.361,253.51,239.765,-0.0,-0.0,222.692,236.469
2015-02-26 03:00,-0.0,257.605,240.277,235.662,236.695,232.976,226.574,-0.0,-0.0,219.137,226.187
2015-02-26 04:00,-0.0,268.686,253.779,242.656,251.856,247.708,235.227,-0.0,-0.0,223.329,234.389
2015-02-26 05:00,-0.0,262.475,244.815,237.572,242.515,238.515,229.283,-0.0,-0.00137977,221.145,229.664
2015-02-26 06:00,-0.0015662,233.989,220.379,226.287,216.715,216.008,215.873,-0.0,-0.0,213.234,215.6
2015-02-26 07:00,-0.0,283.76,278.35,256.892,279.022,274.147,251.291,-0.0,-0.0,228.488,245.918
2015-02-26 08:00,-0.0,286.717,284.528,260.553,286.447,283.773,260.098,-0.0,-0.0,230.593,249.513
2015-02-26 09:00,-0.0,286.421,285.208,260.769,287.134,284.205,260.581,-0.0,-0.0,230.593,249.721
2015-02-26 10:00,0.369356,287.3,285.433,260.553,287.27,284.492,260.701,0.303256,0.519781,230.755,249.825
2015-02-26 11:00,0.38307,291.563,287.102,261.731,288.493,285.35,260.822,0.176398,0.478326,231.236,249.721
2015-02-26 12:00,0.362558,295.69,289.165,262.995,289.968,285.919,260.701,0.140481,0.413586,231.552,250.135
2015-02-26 13:00,0.288512,297.649,290.123,263.618,290.5,286.202,260.701,0.105812,0.328653,232.02,250.442
2015-02-26 14:00,0.240037,298.63,290.756,264.236,291.292,286.485,260.822,0.0839464,0.266038,232.251,250.748
2015-02-26 15:00,0.226264,298.63,289.593,263.515,290.234,285.635,260.701,0.0962953,0.24293,231.943,250.646
2015-02-26 16:00,0.0753175,286.569,278.721,257.233,275.703,274.46,256.909,0.079714,0.109304,228.921,246.032
2015-02-26 17:00,0.301668,253.81,218.082,224.708,218.13,217.29,218.218,0.483626,0.580395,215.024,215.867
2015-02-26 18:00,0.240428,289.247,268.63,250.177,267.69,261.831,241.519,0.16688,0.310463,228.312,240.964
2015-02-26 19:00,0.425524,293.587,272.796,253.98,273.057,271.926,256.035,0.345584,0.417317,233.677,251.051
2015-02-26 20:00,0.683433,277.451,219.247,225.701,215.628,215.027,215.674,0.754592,0.879518,212.126,214.787
2015-02-26 21:00,1.30996,288.705,224.616,228.378,220.519,216.972,215.274,1.10061,1.38352,215.873,219.608
2015-02-26 22:00,-0.0,249.156,228.463,229.665,225.615,219.777,214.468,-0.18862,-0.224901,212.765,220.075
2015-02-26 23:00,-0.00901125,232.213,211.654,223.489,207.702,204.559,204.893,-0.00381491,-0.00909739,207.891,209.047
2015-02-27 00:00,-0.00727178,213.142,206.1,219.632,205.043,204.159,206.97,-0.00820934,-0.0195768,204.795,205.109
2015-02-27 01:00,-0.0,233.989,225.937,228.749,224.072,220.384,217.639,-0.0,-0.0,216.695,222.313
2015-02-27 02:00,0.00144701,235.601,223.94,228.378,219.167,214.697,214.062,-0.0,-0.0,211.8,218.165
2015-02-27 03:00,-0.0,218.393,210.707,222.238,208.131,206.513,207.648,-0.0,-0.0,209.569,209.379
2015-02-27 04:00,-0.00129132,230.231,221.117,226.866,218.478,215.027,214.468,-0.0,-0.0,214.293,218.41
2015-02-27 05:00,-0.0,237.078,227.219,229.301,224.384,220.081,216.663,-0.0,-0.0,216.424,222.096
2015-02-27 06:00,-0.0,225.382,217.285,224.102,215.628,213.694,213.857,-0.0,-0.0,213.541,215.332
2015-02-27 07:00,-0.0,227.984,226.902,229.118,225.31,222.753,221.415,-0.0,-0.0,219.863,223.793
2015-02-27 08:00,-0.0,227.984,223.252,227.438,221.838,220.384,218.218,-0.0,-0.0,217.752,220.763
2015-02-27 09:00,-0.0,235.601,229.673,230.027,228.871,226.701,221.782,-0.0,-0.0,220.219,226.187
2015-02-27 10:00,0.521099,246.775,228.463,229.118,227.414,225.597,222.511,0.815286,0.983542,220.57,225.21
2015-02-27 11:00,0.391086,258.096,234.477,232.319,232.23,230.17,227.089,0.6223,0.711366,220.219,228.242
2015-02-27 12:00,0.305798,260.395,235.275,232.834,233.31,231.203,226.918,0.50046,0.588435,221.145,228.603
2015-02-27 13:00,0.251856,271.531,247.357,239.419,245.471,241.698,231.905,0.282584,0.391535,221.484,232.829
2015-02-27 14:00,0.193329,262.074,243.719,237.101,241.344,239.667,233.026,0.274294,0.378485,222.906,232.988
2015-02-27 15:00,0.221771,265.791,240.277,235.662,237.951,235.677,229.283,0.294347,0.393322,221.145,229.314
2015-02-27 16:00,0.183857,290.685,275.951,254.808,274.778,268.835,247.142,0.0977938,0.234398,225.931,241.728
2015-02-27 17:00,0.17463,290.685,276.08,255.043,274.778,269.165,248.094,0.0964754,0.225063,225.643,241.475
2015-02-27 18:00,0.297004,259.954,230.265,230.921,226.522,226.701,226.229,0.441263,0.530382,217.229,221.878
2015-02-27 19:00,0.386772,271.531,233.666,232.146,229.729,226.701,222.511,0.427788,0.536455,218.391,223.586
2015-02-27 20:00,0.7522,279.278,204.418,219.632,203.179,202.113,205.361,0.864802,1.01083,204.349,203.524
2015-02-27 21:00,1.21197,287.729,214.79,224.708,212.219,211.284,212.202,1.01324,1.22355,212.287,212.8
2015-02-27 22:00,-0.0,218.393,216.058,224.102,215.26,214.364,214.671,-0.161875,-0.193012,212.922,215.061
2015-02-27 23:00,-0.013378,230.231,216.88,224.305,215.628,215.683,216.269,-0.00755141,-0.00450196,213.845,215.867
2015-02-28 00:00,-0.0,204.719,223.252,226.674,222.485,221.579,220.675,-0.0,-0.00243333,218.391,220.989
2015-02-28 01:00,-0.0,237.078,235.8,232.834,235.672,234.95,230.931,-0.0,-0.0,225.156,232.185
2015-02-28 02:00,-0.0,254.396,252.479,242.369,252.667,251.552,242.097,-0.0,-0.0,227.78,242.105
2015-02-28 03:00,-0.0,251.944,245.676,238.81,245.024,243.024,235.537,-0.0,-0.0,222.906,235.444
2015-02-28 04:00,-0.0,260.827,253.04,242.942,252.868,249.955,239.765,-0.0,-0.0,225.156,239.39
2015-02-28 05:00,-0.0,253.81,248.985,240.913,248.52,246.876,238.428,-0.0,-0.0,226.592,239.789
2015-02-28 06:00,-0.0,254.396,248.38,240.32,248.733,246.246,236.46,-0.0,-0.0015729,226.216,239.39
2015-02-28 07:00,-0.0,259.045,247.563,238.81,248.307,243.896,233.026,-0.0,-0.0,225.546,237.608
2015-02-28 08:00,-0.00307011,266.797,254.328,242.369,253.269,248.941,236.46,-0.0,-0.0,223.849,236.033
2015-02-28 09:00,-0.0,269.865,261.34,247.2,259.791,257.115,244.512,-0.0,-0.0,226.685,241.602
2015-02-28 10:00,0.504408,270.434,255.941,243.93,256.021,252.144,241.229,0.475613,0.590244,226.871,241.221
2015-02-28 11:00,0.531055,287.587,256.819,244.488,258.116,255.045,243.525,0.458235,0.580525,227.78,242.478
2015-02-28 12:00,0.392758,296.531,276.208,255.51,278.128,273.832,254.646,0.257681,0.431805,229.178,247.151
2015-02-28 13:00,0.273898,294.933,286.882,261.625,287.543,282.758,258.392,0.111369,0.334319,229.852,248.348
2015-02-28 14:00,0.224985,296.738,289.379,263.411,289.835,285.635,260.701,0.0886022,0.269394,231.394,250.032
2015-02-28 15:00,0.188466,297.248,290.335,263.928,290.897,286.626,261.301,0.0670821,0.227837,230.835,249.825
2015-02-28 16:00,0.172336,297.749,290.651,264.441,291.686,287.329,261.898,0.0639634,0.210925,231.473,250.442
2015-02-28 17:00,0.152615,283.594,278.845,257.233,280.785,278.76,259.127,0.164938,0.230485,233.234,252.342
2015-02-28 18:00,0.162889,286.864,278.101,256.549,279.613,276.477,257.9,0.229467,0.317552,234.041,252.047
2015-02-28 19:00,0.377529,286.864,263.867,247.465,263.92,260.764,245.628,0.36109,0.44819,230.101,243.336
2015-02-28 20:00,0.520874,278.482,251.339,242.081,247.229,246.035,239.47,0.453868,0.602434,218.891,228.603
2015-02-28 21:00,1.23058,286.717,221.117,227.438,215.993,211.983,209.42,0.989615,1.24754,210.278,213.092
2015-02-28 22:00,-0.111358,nan,204.988,219.855,203.179,201.694,205.825,-0.094287,-0.112423,201.72,201.84
2015-02-28 23:00,-0.01324,256.062,250.371,241.646,248.307,246.246,239.173,-0.00747355,-0.00445554,228.4,240.053
