# timestamp,IR_016,IR_039,IR_087,IR_097,IR_108,IR_120,IR_134,VIS006,VIS008,WV_062,WV_073
2014-03-01 00:00,-0.0023674,287.587,286.217,262.681,287.951,285.065,261.301,-0.0,-0.0,239.834,254.068
2014-03-01 01:00,-0.0,286.271,284.982,262.049,286.86,283.917,261.54,-0.0,-0.0,241.817,255.275
2014-03-01 02:00,-0.00143145,284.57,282.916,260.445,285.201,282.467,260.461,-0.0,-0.0,239.954,255.457
2014-03-01 03:00,-0.00130584,281.165,281.029,259.574,283.656,281.735,260.461,-0.0,-0.0,240.841,256.001
2014-03-01 04:00,-0.0,284.888,283.38,260.661,285.201,282.467,260.098,-0.0,-0.0,242.322,256.181
2014-03-01 05:00,-0.00135906,268.382,268.773,252.168,271.142,270.635,255.027,-0.0,-0.0,242.71,256.181
2014-03-01 06:00,-0.0,279.667,278.101,257.572,279.907,277.853,258.882,-0.0,0.00157581,242.211,256.181
2014-03-01 07:00,-0.0,286.271,285.095,261.838,287.134,284.636,261.301,-0.0,-0.0,241.189,256.539
2014-03-01 08:00,-0.0,286.271,285.433,261.412,287.134,284.922,261.779,-0.0,-0.0,242.322,257.855
2014-03-01 09:00,-0.0,285.818,284.642,261.091,286.447,284.205,261.421,-0.0,-0.0,244.164,259.135
2014-03-01 10:00,0.315637,287.3,285.994,262.049,287.679,285.493,262.492,0.294896,0.472487,243.74,259.554
2014-03-01 11:00,0.509774,292.414,286.105,261.838,287.815,285.208,261.66,0.299034,0.534829,244.635,260.217
2014-03-01 12:00,0.528337,298.918,284.982,261.519,286.722,284.779,262.136,0.36271,0.504556,244.997,260.627
2014-03-01 13:00,0.395893,297.749,284.071,260.984,286.172,283.917,261.66,0.306507,0.433891,244.635,260.952
2014-03-01 14:00,0.345891,296.219,285.546,261.519,287.134,285.065,262.017,0.277393,0.386094,245.355,261.435
2014-03-01 15:00,0.235252,296.738,289.058,264.031,289.701,286.626,262.373,0.129065,0.2787,245.759,261.675
2014-03-01 16:00,0.242424,293.124,285.77,262.155,286.997,285.065,262.61,0.185235,0.29369,245.96,261.595
2014-03-01 17:00,0.203062,297.146,288.843,263.721,289.032,285.777,262.017,0.0843841,0.23393,246.159,261.355
2014-03-01 18:00,0.233277,293.702,286.661,262.261,287.951,285.493,262.728,0.187939,0.289745,244.945,261.595
2014-03-01 19:00,0.254446,298.144,288.843,263.721,289.701,286.485,262.61,0.130161,0.290772,244.269,260.871
2014-03-01 20:00,0.23699,294.823,290.44,265.355,291.686,288.306,262.965,0.124321,0.30167,241.986,260.052
2014-03-01 21:00,0.279235,293.124,290.651,264.95,291.817,288.999,263.787,0.200054,0.368644,241.817,259.804
2014-03-01 22:00,-0.076223,251.282,235.275,232.319,231.131,228.59,223.949,-0.0322689,-0.0769516,222.585,228.603
2014-03-01 23:00,-0.0127819,225.382,206.1,219.409,205.946,205.74,206.286,-0.00721495,-0.00860273,209.388,208.027
2014-03-02 00:00,-0.00235423,204.719,195.165,216.151,193.017,191.931,197.932,-0.0,-0.0,195.928,194.891
2014-03-02 01:00,-0.0,204.719,195.165,215.421,194.213,192.445,197.667,-0.0,-0.0,195.928,193.719
2014-03-02 02:00,-0.0,218.393,202.034,217.809,200.227,199.102,201.763,-0.0,-0.0,201.465,201.84
2014-03-02 03:00,-0.0,213.142,200.774,217.809,198.671,198.206,200.766,-0.0,-0.0,200.681,200.041
2014-03-02 04:00,-0.0,257.103,239.799,236.625,233.31,223.905,217.055,-0.0,-0.0,220.337,229.137
2014-03-02 05:00,-0.00135584,280.239,277.977,257.459,278.427,273.517,251.944,-0.0,-0.0,236.808,251.85
2014-03-02 06:00,-0.0,273.088,267.764,251.18,268.191,263.586,248.768,-0.0,-0.0,237.268,249.198
2014-03-02 07:00,0.00199633,283.594,282.916,259.902,285.201,282.758,259.249,-0.0,-0.0,237.398,253.974
2014-03-02 08:00,-0.0,283.428,283.032,260.011,285.618,283.773,260.461,-0.0,-0.0,237.072,255.275
2014-03-02 09:00,-0.00823548,284.57,285.208,261.091,288.358,287.329,263.436,-0.0,-0.0,237.785,256.805
2014-03-02 10:00,0.495082,285.97,284.528,260.769,287.543,286.343,261.898,0.540283,0.55535,237.006,256.982
2014-03-02 11:00,0.594925,292.534,283.956,260.445,286.997,285.777,262.255,0.540511,0.576993,237.333,257.333
2014-03-02 13:00,0.478265,293.702,281.148,258.802,282.803,280.702,258.147,0.455891,0.523333,236.139,255.821
2014-03-02 14:00,0.360761,295.151,284.642,261.305,286.86,284.779,261.421,0.288855,0.406437,236.742,256.894
2014-03-02 15:00,0.320943,292.889,283.148,260.553,285.479,283.773,260.822,0.271742,0.374979,236.609,256.001
2014-03-02 16:00,0.323371,290.939,280.909,258.802,283.372,281.882,259.614,0.323944,0.412562,236.742,256.628
2014-03-02 17:00,0.292088,291.065,282.448,260.011,284.501,282.613,260.822,0.290643,0.384353,237.268,256.716
2014-03-02 18:00,0.21969,292.889,284.642,261.519,284.921,282.175,259.735,0.154809,0.297628,235.455,254.814
2014-03-02 19:00,0.241145,290.429,280.909,259.024,281.655,278.458,256.785,0.198172,0.298942,233.456,252.342
2014-03-02 20:00,0.404061,283.76,260.528,246.399,258.304,254.089,239.913,0.377207,0.509905,227.78,241.093
2014-03-02 21:00,0.445726,290.685,279.336,258.022,279.318,276.015,255.027,0.358986,0.471938,232.097,251.949
2014-03-02 22:00,-0.0,276.376,266.145,249.924,264.095,260.584,243.383,-0.0296218,-0.0353196,227.959,246.145
2014-03-02 23:00,-0.0126532,281.883,273.997,254.808,273.843,270.635,250.896,-0.00714228,-0.00851608,226.499,246.483
2014-03-03 00:00,-0.0,278.075,270.607,253.14,269.35,266.16,248.364,-0.0,-0.0,227.959,244.764
2014-03-03 01:00,-0.0,286.864,284.869,261.625,286.997,284.636,260.219,-0.0,-0.0,230.755,251.552
2014-03-03 02:00,-0.00142241,282.923,278.35,257.685,278.427,273.832,251.944,-0.0,-0.0,230.184,247.59
2014-03-03 03:00,-0.0,275.707,263.088,248.642,260.341,254.855,237.373,-0.0,-0.0,223.746,238.441
2014-03-03 04:00,-0.0,266.131,247.973,240.469,242.283,236.157,225.36,-0.0,0.00129048,217.36,228.603
2014-03-03 05:00,0.0013527,265.791,247.973,240.32,244.349,238.282,226.574,-0.0,-0.0,218.264,230.183
2014-03-03 06:00,-0.0,268.382,252.853,243.084,247.229,240.35,229.946,-0.0,-0.0,217.752,231.031
2014-03-03 07:00,-0.00199103,257.103,235.538,233.175,230.574,224.756,217.639,-0.0,-0.0,213.078,222.743
2014-03-03 08:00,-0.00308208,260.827,243.049,237.415,238.199,233.225,224.126,-0.0,-0.0,216.424,226.76
2014-03-03 09:00,-0.0,249.156,231.713,230.207,228.871,225.874,221.046,-0.0,-0.0,216.963,223.377
2014-03-03 10:00,0.522603,249.89,224.95,227.248,222.162,219.777,218.601,0.715511,0.864363,216.012,220.535
2014-03-03 11:00,0.362083,256.062,232.839,230.743,231.131,229.647,225.185,0.5507,0.660012,221.258,226.948
2014-03-03 13:00,0.273498,283.093,262.616,247.465,260.706,254.855,239.173,0.211946,0.379069,223.642,238.165
2014-03-03 14:00,0.222533,279.473,261.501,246.399,259.051,255.425,241.229,0.17401,0.322453,225.352,237.748
2014-03-03 15:00,0.222715,293.816,283.38,260.228,283.23,279.061,256.16,0.100912,0.268598,228.835,246.929
2014-03-03 16:00,0.204084,297.848,291.487,265.456,292.86,288.861,262.728,0.072334,0.235982,231.236,251.552
2014-03-03 17:00,0.206381,295.368,283.264,260.661,283.088,277.701,253.753,0.0963732,0.244974,229.685,248.241
2014-03-03 18:00,0.244419,290.813,271.711,254.217,268.69,262.185,243.383,0.162431,0.289795,223.746,240.316
2014-03-03 19:00,0.256246,290.301,272.12,254.217,268.855,262.537,244.09,0.195869,0.305404,224.156,240.316
2014-03-03 20:00,0.604319,285.202,247.15,239.57,242.049,236.872,226.746,0.524909,0.688988,219.014,228.242
2014-03-03 21:00,0.974307,287.01,251.912,241.646,248.093,242.585,229.946,0.759694,0.994735,220.219,231.364
2014-03-03 22:00,-0.032293,264.009,245.032,238.195,241.107,236.157,226.918,-0.0,-0.0,219.137,227.877
2014-03-03 23:00,-0.0125256,282.753,273.199,255.16,271.464,264.795,244.932,-0.00707028,-0.00843024,226.499,243.577
2014-03-04 00:00,0.00232811,235.601,216.058,223.694,212.219,209.859,209.856,-0.0,-0.0,209.748,211.906
2014-03-04 01:00,-0.0,249.156,229.373,230.207,224.694,221.283,217.832,-0.0,0.0017157,215.873,220.763
2014-03-04 02:00,-0.00141797,271.261,259.206,246.13,255.439,248.532,235.537,-0.0,-0.0,223.013,236.469
2014-03-04 03:00,-0.0,254.966,244.598,237.728,242.978,240.802,233.344,-0.0,-0.0,223.118,232.829
2014-03-04 04:00,-0.0,280.239,276.591,256.205,277.528,274.147,254.519,-0.0,-0.0,228.748,247.808
2014-03-04 05:00,-0.00134966,278.482,270.049,253.741,266.847,259.864,241.664,-0.0,0.00136256,224.56,241.348
2014-03-04 06:00,-0.0,272.061,261.017,247.067,260.524,255.803,240.207,-0.0,-0.0,221.708,237.888
2014-03-04 07:00,-0.0,272.836,261.34,246.934,260.158,255.803,240.354,-0.0,-0.0,222.259,237.185
2014-03-04 08:00,-0.0,264.739,248.784,240.32,245.248,241.475,229.283,-0.0,-0.0,216.287,227.323
2014-03-04 09:00,-0.00809842,252.585,234.477,232.663,230.574,225.597,219.927,-0.0,-0.0,214.293,222.529
2014-03-04 10:00,0.359556,268.382,257.854,244.765,257.739,253.896,239.025,0.523248,0.589864,226.027,240.835
2014-03-04 11:00,0.517887,287.3,274.261,255.043,276.315,274.617,255.658,0.46412,0.566974,231.156,248.882
2014-03-04 13:00,0.346667,296.323,285.546,261.944,286.86,283.194,259.614,0.217521,0.387479,231.076,250.032
2014-03-04 14:00,0.334299,293.124,282.566,259.902,283.938,280.554,259.127,0.327451,0.436758,231.076,250.135
2014-03-04 15:00,0.305057,291.065,281.386,259.683,283.088,279.81,257.9,0.306274,0.389531,231.709,249.617
2014-03-04 17:00,0.251943,289.647,280.789,259.244,282.374,279.061,258.023,0.281242,0.373301,231.315,250.135
2014-03-04 18:00,0.242228,291.686,280.669,259.354,281.799,278.458,257.53,0.18941,0.317907,232.175,250.748
2014-03-04 19:00,0.228618,284.087,273.333,254.572,273.686,271.121,253.881,0.288843,0.391284,232.557,250.135
2014-03-04 20:00,0.175543,281.346,276.971,256.892,278.873,276.938,258.023,0.27508,0.277735,233.456,251.552
2014-03-04 21:00,0.936876,277.869,236.06,233.175,231.131,229.385,225.185,0.916016,1.09221,216.15,224.204
2014-03-04 22:00,0.0299529,261.251,248.985,240.913,247.446,242.364,231.743,-0.0,-0.0,222.476,235.146
2014-03-04 23:00,-0.0123994,254.396,243.94,238.04,241.815,237.815,229.116,-0.00699902,-0.00834527,220.57,233.461
2014-03-05 00:00,-0.0,245.913,230.85,230.921,227.414,223.332,219.362,-0.0,-0.0,215.31,222.743
2014-03-05 01:00,-0.0,243.066,228.769,229.847,225.31,221.875,217.832,-0.0,-0.0,215.024,221.436
2014-03-05 02:00,-0.0,245.913,229.673,230.565,225.003,221.579,217.832,-0.00119688,-0.0,213.078,219.843
2014-03-05 03:00,-0.0,235.601,222.904,226.674,220.184,217.922,216.466,-0.0,-0.0,214.441,217.669
2014-03-05 04:00,-0.00127226,246.775,231.427,231.098,229.729,226.974,223.592,-0.0,-0.0,219.624,225.604
2014-03-05 05:00,-0.0,252.585,240.277,235.01,238.693,236.396,230.111,-0.0,-0.0,222.799,230.524
2014-03-05 06:00,-0.0,254.396,240.984,235.985,238.693,236.157,229.116,-0.0,-0.0,220.801,228.96
2014-03-05 07:00,-0.00198104,250.598,245.463,238.349,245.024,242.364,234.291,-0.0,0.00199998,223.434,236.469
2014-03-05 08:00,-0.0,243.066,238.585,234.515,237.451,236.157,230.276,-0.0,-0.0,223.642,232.347
2014-03-05 09:00,-0.0,251.944,246.102,238.349,244.575,242.364,235.072,-0.0,0.00811161,223.013,234.694
2014-03-05 10:00,0.601685,263.255,242.37,236.625,239.669,235.677,227.94,0.663241,0.871042,219.137,229.137
2014-03-05 11:00,0.374416,273.831,252.479,241.936,249.368,244.328,233.344,0.37985,0.517615,222.476,233.304
2014-03-05 12:00,0.384411,293.356,281.148,259.464,280.347,275.24,253.753,0.196681,0.450346,227.329,246.371
2014-03-05 13:00,0.361174,296.84,283.956,261.519,284.781,280.702,257.9,0.23362,0.384971,229.178,248.241
2014-03-05 14:00,0.313806,292.053,278.101,257.459,278.128,273.517,252.723,0.244576,0.3632,227.691,245.46
2014-03-05 15:00,0.252413,285.512,266.59,250.806,264.792,259.864,242.814,0.204514,0.304815,223.538,238.441
2014-03-05 16:00,0.259599,290.041,277.35,257.006,277.377,273.2,252.982,0.223835,0.324595,228.662,246.371
2014-03-05 17:00,0.248727,281.165,262.931,248.512,260.341,256.928,243.667,0.302068,0.376657,222.799,237.327
2014-03-05 18:00,0.31863,270.151,226.902,229.484,223.443,220.984,218.792,0.504483,0.581325,214.145,219.608
2014-03-05 19:00,0.464361,268.073,212.119,222.238,210.625,209.859,210.932,0.637578,0.752975,208.652,209.379
2014-03-05 20:00,0.677402,270.989,0.0,231.625,232.502,230.946,225.009,0.827973,1.02449,224.258,228.96
2014-03-05 21:00,0.972154,272.061,203.247,219.183,201.728,201.271,204.185,0.918833,1.12981,203.894,203.113
2014-03-05 22:00,-0.0,222.276,203.247,218.73,201.728,200.845,203.468,-0.0236247,-0.0,202.469,202.271
2014-03-05 23:00,-0.00818301,222.276,206.1,219.855,205.043,203.351,205.825,-0.00692854,-0.00826124,205.015,205.868
2014-03-06 00:00,-0.0,222.276,218.862,225.107,218.13,215.356,214.265,-0.0,-0.0,215.452,217.918
2014-03-06 01:00,-0.0,237.078,232.28,231.098,231.131,229.385,225.709,-0.0,-0.0,221.819,227.694
2014-03-06 02:00,-0.0,263.636,259.706,246.533,259.606,256.742,244.372,-0.0,-0.0,224.959,241.348
2014-03-06 03:00,-0.0,262.869,252.666,243.226,251.036,246.876,236.613,-0.0,-0.0,222.04,236.179
2014-03-06 04:00,0.00126937,269.865,261.34,247.991,260.341,257.115,243.241,-0.0,-0.0,224.054,240.706
2014-03-06 05:00,-0.0,249.156,240.984,236.625,239.183,234.216,226.746,-0.0,-0.0,220.686,232.988
2014-03-06 06:00,-0.00154317,273.831,267.473,252.168,266.167,258.224,243.667,-0.0,-0.0,225.739,243.093
2014-03-06 07:00,-0.0,267.123,261.982,247.728,262.863,260.045,246.457,-0.0,-0.0,226.778,244.53
2014-03-06 08:00,0.0030513,282.753,278.968,257.91,280.785,277.548,257.53,-0.0,-0.0,229.769,248.987
2014-03-06 09:00,-0.0,271.531,270.468,253.02,273.215,271.605,255.658,-0.0,-0.0,229.348,248.987
2014-03-06 10:00,0.711044,269.576,253.04,242.942,249.998,245.186,233.661,0.708854,0.833623,222.04,236.9
2014-03-06 11:00,0.405993,269.283,238.09,234.017,232.772,228.856,221.965,0.455474,0.563577,217.229,225.21
2014-03-06 12:00,0.335727,273.088,241.451,236.306,236.695,232.474,225.535,0.320882,0.449143,219.014,227.509
2014-03-06 13:00,0.304316,290.685,274.392,255.16,272.899,267.506,247.823,0.174843,0.358952,228.136,246.818
2014-03-06 14:00,0.352438,296.738,284.414,261.412,285.757,282.613,259.856,0.261664,0.381032,232.02,254.349
2014-03-06 15:00,0.281869,290.429,280.429,259.244,281.51,278.458,257.406,0.273484,0.372497,233.085,253.595
2014-03-06 16:00,0.219526,278.279,271.299,253.261,272.741,271.765,255.28,0.431345,0.474566,233.382,253.785
2014-03-06 17:00,0.13094,258.096,250.76,240.766,249.157,248.941,241.374,0.331535,0.358444,225.156,237.608
2014-03-06 18:00,0.412686,265.791,210.224,221.386,208.977,208.766,209.638,0.726746,0.821689,210.278,210.67
2014-03-06 19:00,0.298792,283.924,254.509,243.226,251.447,244.544,231.094,0.329187,0.427032,223.952,236.179
2014-03-06 20:00,0.403122,287.3,259.706,246.667,255.049,249.753,235.537,0.357041,0.452492,221.145,234.389
2014-03-06 21:00,1.5359,277.661,217.285,224.305,216.355,215.356,213.653,1.36838,1.7473,216.695,217.669
2014-03-06 22:00,-0.0521836,266.797,249.781,241.646,246.355,241.475,230.931,-0.0,-0.0263413,220.454,233.304
2014-03-06 23:00,-0.0121511,247.601,231.713,231.274,228.293,225.038,219.927,-0.00685889,-0.00817819,216.83,225.011
2014-03-07 01:00,-0.00167966,235.601,227.845,228.934,226.221,224.756,221.598,-0.0,-0.0,218.642,222.743
2014-03-07 02:00,-0.0,237.078,221.841,226.481,219.167,216.652,215.274,-0.0,-0.0,212.607,215.867
2014-03-07 03:00,-0.00128539,255.521,240.039,236.146,236.695,232.725,224.481,-0.0,-0.0,217.096,226.948
2014-03-07 04:00,-0.00126655,249.156,240.039,235.337,239.183,237.345,230.604,-0.0,-0.0,223.642,231.695
2014-03-07 05:00,-0.0,260.827,250.175,241.354,249.157,245.824,235.846,-0.0,-0.0,224.46,236.033
2014-03-07 06:00,-0.0,262.074,249.185,240.171,247.662,244.328,233.503,-0.0,-0.0,223.642,235.592
2014-03-07 07:00,-0.0,267.444,261.017,247.067,260.524,257.856,244.372,-0.0,-0.0,226.778,242.971
2014-03-07 08:00,-0.0,237.078,230.265,230.207,228.293,226.151,223.233,-0.0,-0.0,219.624,225.011
2014-03-07 09:00,-0.00791661,204.719,207.178,219.632,206.392,205.349,207.648,-0.0,-0.0,205.874,206.968
2014-03-07 10:00,0.39385,238.442,215.64,223.076,215.26,214.03,213.653,0.647329,0.795231,214.145,215.332
2014-03-07 11:00,0.522581,284.73,267.764,250.931,268.524,265.65,250.369,0.709673,0.822197,230.511,247.808
2014-03-07 12:00,0.315747,263.636,241.451,235.823,240.87,238.515,232.066,0.651756,0.722951,224.258,234.236
2014-03-07 13:00,0.303266,268.382,240.984,235.01,239.911,237.581,229.449,0.63206,0.679843,223.538,234.236
2014-03-07 14:00,0.259488,254.966,224.279,227.248,223.758,222.462,221.046,0.670276,0.731383,218.137,220.075
2014-03-07 15:00,0.27872,274.551,254.509,243.368,254.657,252.732,241.084,0.568431,0.621492,229.601,244.647
2014-03-07 16:00,0.266576,256.062,218.082,224.305,215.628,215.027,214.468,0.510124,0.575661,212.448,214.233
2014-03-07 17:00,0.311711,254.966,221.841,226.092,221.511,220.685,219.362,0.531055,0.614092,218.517,220.306
2014-03-07 18:00,0.344922,263.255,230.559,230.387,228.871,226.974,223.053,0.434417,0.533937,220.101,224.811
2014-03-07 19:00,0.500604,267.761,232.28,230.921,231.957,229.647,224.304,0.630436,0.757173,220.801,226.57
2014-03-07 20:00,0.528458,278.279,247.973,239.267,245.248,241.475,232.066,0.522018,0.652067,221.708,230.863
2014-03-07 21:00,1.28478,279.859,233.116,231.799,231.408,229.121,224.126,1.06321,1.37923,220.686,225.799
2014-03-07 22:00,-0.0,259.045,241.218,236.625,239.183,235.193,227.26,-0.0,-0.0,220.219,228.603
2014-03-07 23:00,-0.00801953,247.601,227.219,228.934,225.003,221.875,218.601,-0.00679012,-0.0121443,215.734,220.989
2014-03-08 00:00,-0.0,249.156,225.937,228.749,222.485,219.165,216.071,-0.0,-0.0,213.388,218.165
2014-03-08 01:00,0.0016732,232.213,215.218,223.694,212.609,211.284,210.504,-0.0,-0.0,210.796,212.8
2014-03-08 02:00,-0.0,218.393,215.64,223.489,214.517,213.356,213.447,-0.0,-0.0,212.126,213.668
2014-03-08 03:00,-0.0,242.013,233.116,231.098,231.683,229.385,225.883,-0.0,-0.0,220.801,228.06
2014-03-08 04:00,-0.0,255.521,240.984,235.985,238.938,235.435,228.109,-0.0,-0.0,221.484,229.489
2014-03-08 05:00,-0.0,256.062,238.83,234.681,235.93,231.968,225.883,-0.0,-0.0,219.744,228.423
2014-03-08 06:00,-0.0,268.986,254.871,243.368,252.465,249.348,236.307,-0.0,-0.0,222.799,234.082
2014-03-08 07:00,0.00196753,277.24,270.607,252.899,270.495,267.339,248.499,-0.0,-0.0,227.87,243.457
2014-03-08 08:00,-0.00303295,270.989,258.534,245.451,256.021,252.144,238.428,-0.0,-0.0,225.643,237.327
2014-03-08 09:00,-0.0,281.165,275.951,255.974,276.315,272.086,251.553,-0.0,-0.0,233.968,249.408
2014-03-08 10:00,0.386056,285.512,281.267,259.134,281.799,279.061,256.785,0.326873,0.578715,234.756,251.652
2014-03-08 11:00,0.377783,290.685,285.095,261.838,286.31,283.339,259.735,0.22189,0.474166,238.671,254.814
2014-03-08 12:00,0.487993,296.738,284.3,261.519,286.033,283.339,260.219,0.346653,0.490571,239.288,255.366
2014-03-08 13:00,0.376996,297.749,286.772,262.89,288.628,286.202,262.728,0.273036,0.410482,242.322,259.387
2014-03-08 14:00,0.295542,296.635,287.541,263.411,288.358,285.777,262.136,0.195496,0.342323,242.655,259.97
2014-03-08 16:00,0.25274,294.043,286.328,262.471,287.815,285.493,262.373,0.195739,0.307155,242.099,261.595
2014-03-08 17:00,0.242886,291.315,280.549,259.024,280.785,277.853,256.41,0.19494,0.302678,240.607,257.942
2014-03-08 18:00,0.283986,270.713,240.75,235.173,237.451,234.706,227.431,0.361287,0.440967,220.916,228.242
2014-03-08 19:00,0.361136,282.408,258.703,245.859,256.406,251.552,236.765,0.348797,0.489171,224.959,237.888
2014-03-08 20:00,0.241776,292.053,282.448,260.337,281.943,278.156,255.784,0.191064,0.320026,229.935,249.303
2014-03-08 21:00,0.849573,270.151,221.481,225.701,218.824,219.165,219.172,0.739313,0.923213,212.607,214.233
2014-03-08 22:00,-0.0230466,218.393,210.224,220.954,209.394,208.397,210.073,-0.0195135,-0.0232669,209.388,209.379
2014-03-08 23:00,-0.0158788,270.713,252.29,242.656,247.012,241.475,229.781,-0.0100834,-0.0120229,222.799,234.542
2014-03-09 00:00,-0.0,283.76,280.429,259.024,280.931,277.853,255.658,-0.0,-0.0,236.874,255.639
2014-03-09 01:00,-0.0,279.859,273.997,254.099,275.242,272.883,252.464,-0.0,-0.0,239.166,255.821
2014-03-09 02:00,-0.0,271.798,271.984,253.621,274.0,273.517,257.034,-0.0,-0.0,241.59,258.798
2014-03-09 03:00,-0.00255819,287.587,286.328,262.366,287.951,285.777,262.255,-0.0,0.00129132,240.957,259.304
2014-03-09 04:00,0.00126113,284.888,283.032,260.445,284.501,282.028,259.977,-0.0,-0.0,239.954,257.508
2014-03-09 05:00,-0.0,260.395,258.871,245.451,260.524,259.502,246.732,-0.0,-0.0,239.349,251.949
2014-03-09 06:00,-0.0,262.869,261.501,247.2,263.745,262.537,248.768,-0.0,-0.0,239.349,253.117
2014-03-09 07:00,-0.00196341,285.665,283.841,260.769,285.479,283.339,260.822,-0.0,-0.0,240.014,257.158
2014-03-09 08:00,-0.0030244,285.045,283.956,261.091,286.033,283.917,261.421,-0.0,-0.00305331,240.134,258.028
2014-03-09 09:00,-0.0078095,284.57,285.658,262.155,288.222,286.626,262.847,-0.0,-0.0,242.984,260.871
2014-03-09 10:00,0.649713,285.357,285.095,261.519,288.087,286.485,263.787,0.69014,0.632073,244.739,261.435
2014-03-09 11:00,0.720244,293.24,284.3,260.984,287.27,286.343,262.965,0.725436,0.709898,245.507,261.675
2014-03-09 12:00,0.528326,296.635,284.982,261.731,287.815,286.626,262.965,0.478909,0.520827,246.009,262.072
2014-03-09 13:00,0.463473,294.38,285.546,261.838,287.679,286.343,262.965,0.478305,0.519893,245.507,261.993
2014-03-09 14:00,0.433494,294.268,285.095,261.625,287.543,286.202,263.436,0.401729,0.468326,245.507,262.151
2014-03-09 15:00,0.280941,295.583,287.651,263.203,289.3,287.329,263.787,0.198742,0.311867,245.253,261.993
2014-03-09 16:00,0.225658,295.26,288.52,264.133,289.568,287.469,263.083,0.143298,0.264169,244.058,261.033
2014-03-09 17:00,0.195298,297.248,291.174,266.159,291.948,288.861,263.553,0.0848269,0.235574,243.899,261.194
2014-03-09 18:00,0.196666,297.549,292.211,266.557,292.989,289.964,264.022,0.0795852,0.236503,244.217,261.435
2014-03-09 19:00,0.225991,296.635,291.487,265.959,292.34,289.413,264.022,0.112647,0.275989,244.635,261.755
2014-03-09 20:00,0.22176,295.368,291.591,266.358,293.248,290.238,264.372,0.121359,0.292136,245.456,261.914
2014-03-09 21:00,0.281534,293.24,290.756,265.859,292.47,290.101,264.953,0.25359,0.374936,245.202,262.388
2014-03-09 22:00,-0.0217562,290.429,289.379,264.95,291.423,289.413,264.255,-0.0,-0.0219641,242.099,260.545
2014-03-09 23:00,-0.00786038,290.041,288.843,264.236,290.764,288.722,264.022,-0.00998305,-0.0119033,240.253,260.052
2014-03-10 00:00,-0.0,288.977,288.303,264.133,290.234,288.167,263.436,-0.0,-0.0,237.657,0.0
2014-03-10 01:00,-0.0,286.121,284.185,261.412,285.479,283.339,260.581,-0.0,-0.0,234.968,255.73
2014-03-10 02:00,-0.0,270.151,260.365,247.067,259.421,257.115,244.372,-0.0,-0.0,231.552,243.214
2014-03-10 03:00,-0.0,286.271,283.495,260.984,284.641,282.321,260.098,-0.0,-0.0,232.251,253.69
2014-03-10 04:00,-0.0,287.871,287.322,263.203,289.434,287.469,263.2,-0.0,-0.0,233.234,255.091
2014-03-10 05:00,-0.0,285.202,284.528,261.731,286.585,284.922,262.492,-0.0,-0.0,237.006,257.421
2014-03-10 06:00,-0.0,287.444,287.102,263.099,289.032,287.329,263.436,-0.0,-0.0,243.147,259.887
2014-03-10 07:00,0.00195948,286.421,286.439,262.786,288.897,287.048,263.318,-0.0,-0.0,241.647,258.713
2014-03-10 08:00,-0.00301624,287.3,286.661,262.576,288.628,286.907,263.553,-0.0,-0.0,241.361,258.798
2014-03-10 09:00,-0.0,287.155,286.105,262.366,288.087,286.343,262.492,-0.0,-0.0,239.714,258.2
2014-03-10 10:00,0.500923,287.729,285.546,261.944,287.543,285.777,262.136,0.393836,0.589997,240.607,258.114
2014-03-10 11:00,0.756589,294.043,280.187,259.024,282.803,281.441,0.0,0.652197,0.732716,241.361,257.682
2014-03-10 12:00,0.593738,299.765,275.694,256.32,278.128,276.323,258.023,0.481624,0.578456,241.073,256.805
2014-03-10 13:00,0.465848,297.146,281.505,260.011,283.514,281.146,259.856,0.432817,0.530272,241.304,257.07
2014-03-10 14:00,0.327012,293.007,281.624,260.119,283.372,281.293,259.735,0.285848,0.396968,238.42,255.548
2014-03-10 15:00,0.285125,294.713,286.439,263.099,287.951,285.493,261.898,0.225939,0.346897,236.874,255.366
2014-03-10 16:00,0.239373,289.514,276.208,256.664,275.242,272.405,252.982,0.181289,0.307238,230.674,247.699
2014-03-10 17:00,0.266996,278.075,255.409,243.65,254.263,250.357,237.525,0.269125,0.395338,224.56,236.757
2014-03-10 18:00,0.274188,276.594,254.328,243.368,252.667,249.144,237.977,0.302169,0.418875,225.546,237.043
2014-03-10 19:00,0.426504,272.836,238.338,234.515,236.441,233.474,227.601,0.474261,0.595053,222.259,227.877
2014-03-10 20:00,0.713412,269.576,218.862,225.107,218.13,216.972,217.445,0.820763,0.973138,216.695,217.164
2014-03-10 21:00,1.21081,272.58,223.597,227.628,222.806,221.875,221.046,1.13853,1.40053,220.57,222.096
2014-03-10 22:00,-0.0,225.382,221.841,226.674,220.519,219.472,218.792,-0.0,-0.0,216.83,218.653
2014-03-10 23:00,-0.0155651,240.898,228.769,229.484,227.414,225.318,222.692,-0.00988418,-0.0117854,221.145,225.799
2014-03-11 00:00,-0.0,256.062,235.011,234.017,231.683,227.517,221.965,-0.0,-0.0,217.752,223.793
2014-03-11 01:00,-0.00165429,245.01,226.583,229.118,225.615,222.169,218.792,-0.0,-0.0,216.963,221.213
2014-03-11 02:00,-0.0,272.322,258.534,246.399,256.213,251.156,237.676,-0.0,-0.0,223.538,236.757
2014-03-11 03:00,-0.0,275.02,262.931,249.029,260.524,255.992,239.765,-0.0,-0.0,223.434,237.608
2014-03-11 04:00,-0.0,222.276,218.082,225.107,217.427,216.331,216.663,-0.0,-0.0,215.593,216.652
2014-03-11 05:00,-0.0,249.89,240.984,235.985,240.392,238.747,233.026,-0.0,-0.0,225.449,234.542
2014-03-11 06:00,0.00152851,239.711,234.208,232.146,234.371,232.725,228.446,-0.0,-0.0,224.56,230.354
2014-03-11 07:00,-0.0,268.686,261.34,246.934,260.706,258.774,245.905,-0.0,-0.0,227.78,242.478
2014-03-11 08:00,-0.0,285.512,283.148,260.769,285.061,282.028,259.37,-0.0,-0.0,230.348,249.198
2014-03-11 09:00,-0.00771242,286.569,284.869,262.049,286.722,284.061,260.581,-0.0,-0.0,231.552,249.825
2014-03-11 10:00,0.421401,287.729,285.658,262.366,287.543,284.779,261.421,0.316022,0.595601,230.266,249.408
2014-03-11 11:00,0.484118,285.512,259.206,246.399,258.865,255.425,244.372,0.436066,0.582336,229.769,243.937
2014-03-11 12:00,0.526289,298.242,265.696,250.177,266.167,261.477,248.229,0.352259,0.491418,231.552,246.371
2014-03-11 13:00,0.350792,299.391,279.336,258.691,279.907,275.396,254.773,0.204198,0.377861,231.076,247.699
2014-03-11 14:00,0.302397,298.242,287.978,263.928,289.3,285.919,261.182,0.179677,0.326712,231.787,250.032
2014-03-11 15:00,0.264922,291.686,274.785,256.205,276.468,272.724,255.027,0.270824,0.33894,231.865,249.408
2014-03-11 16:00,0.237489,273.586,264.329,249.286,264.618,264.279,252.075,0.407266,0.481952,232.02,247.808
2014-03-11 17:00,0.275346,268.986,237.086,234.017,234.633,231.459,225.185,0.308688,0.419541,220.101,225.799
2014-03-11 18:00,0.240161,291.809,276.845,256.434,275.703,270.148,249.305,0.161443,0.318868,227.959,244.881
2014-03-11 19:00,0.419226,290.041,245.463,238.657,242.747,233.474,221.046,0.660098,0.774072,222.04,234.694
2014-03-11 20:00,0.844562,298.822,213.921,223.076,210.625,206.895,207.197,1.00763,1.16268,212.287,213.382
2014-03-11 21:00,0.847102,268.073,234.745,233.005,234.371,232.474,228.109,0.890006,1.11114,224.959,231.695
2014-03-11 22:00,-0.019537,227.984,221.841,226.674,221.182,220.081,219.739,-0.0,-0.0,217.096,220.075
2014-03-11 23:00,-0.0154118,233.989,223.252,227.438,220.519,217.29,216.663,-0.00978684,-0.0116693,215.31,219.134
2014-03-12 00:00,-0.0,222.276,216.88,224.102,215.628,214.03,214.265,-0.0,-0.0,213.845,214.787
2014-03-12 01:00,-0.00164815,230.231,219.628,224.708,217.78,216.331,215.274,-0.0,-0.0,214.441,216.652
2014-03-12 02:00,-0.00138473,218.393,212.119,221.6,211.428,210.931,211.781,-0.0,-0.0,210.102,210.984
2014-03-12 03:00,-0.0,213.142,211.654,221.6,210.625,209.859,211.992,-0.0,-0.0,210.278,210.984
2014-03-12 04:00,-0.0,225.382,218.862,224.708,218.478,217.29,216.466,-0.0,-0.0,216.287,218.165
2014-03-12 05:00,-0.0,233.989,232.839,231.274,232.772,231.968,228.446,-0.0,-0.0,223.746,230.183
2014-03-12 06:00,-0.00152593,243.066,240.75,235.499,241.107,240.123,234.291,-0.0,-0.0,226.499,236.325
2014-03-12 07:00,-0.0,255.521,251.339,241.5,251.242,249.753,241.664,-0.0,-0.0,226.216,239.656
2014-03-12 08:00,-0.00300108,243.066,237.086,233.344,236.186,235.193,230.111,-0.0,-0.0,223.118,230.694
2014-03-12 09:00,-0.00766733,238.442,235.8,232.834,235.414,234.706,230.276,-0.0,-0.0,224.959,231.364
2014-03-12 10:00,0.413197,270.151,266.59,250.429,267.016,265.48,251.683,0.607098,0.736141,230.755,246.595
2014-03-12 11:00,0.471751,290.558,261.179,247.465,261.971,259.502,248.094,0.431502,0.573599,232.784,246.145
2014-03-12 12:00,0.439813,298.436,265.092,250.177,265.138,261.477,248.364,0.28591,0.454539,233.75,246.258
2014-03-12 13:00,0.414185,293.007,253.779,243.226,255.049,253.51,244.372,0.328107,0.446654,234.113,244.764
2014-03-12 14:00,0.301623,293.124,269.767,253.02,270.006,265.99,251.422,0.205882,0.348773,233.382,246.483
2014-03-12 15:00,0.27768,293.816,281.267,260.553,282.66,278.609,257.9,0.227861,0.322323,234.401,250.032
2014-03-12 16:00,0.234401,291.19,282.916,261.305,283.797,280.998,259.249,0.225066,0.315929,234.686,251.051
2014-03-12 17:00,0.216014,271.798,256.992,244.07,257.17,255.045,243.808,0.481597,0.521324,229.935,243.698
2014-03-12 18:00,0.376798,261.251,217.685,224.908,217.427,216.331,217.25,0.758016,0.835996,214.441,215.867
2014-03-12 19:00,0.574469,268.986,214.358,223.489,214.517,214.364,214.872,0.90086,1.03311,215.167,214.511
2014-03-12 20:00,0.795399,281.705,254.509,243.509,255.633,253.51,243.099,0.902628,1.08461,229.852,244.294
2014-03-12 21:00,1.10642,282.408,253.779,243.65,254.461,251.552,240.793,0.904869,1.18046,228.662,242.354
2014-03-12 22:00,-0.0185776,257.605,256.118,244.488,257.739,256.555,245.35,-0.0,-0.0,229.433,245.575
2014-03-12 23:00,-0.0152609,258.096,242.37,236.625,240.392,236.635,229.283,-0.00969106,-0.0115551,221.596,231.364
2014-03-13 00:00,-0.0,251.282,238.09,234.35,236.441,234.461,228.949,-0.0,-0.0,221.484,229.489
2014-03-13 01:00,-0.0,245.01,234.208,231.799,231.957,229.647,226.056,-0.0,-0.0,222.368,228.06
2014-03-13 02:00,-0.0,246.775,237.591,234.35,237.951,236.635,230.931,-0.0,-0.0,226.778,233.461
2014-03-13 03:00,-0.0,254.396,249.185,240.617,249.789,247.501,239.025,-0.0,-0.0,228.136,240.446
2014-03-13 04:00,-0.0,240.898,238.09,233.849,239.183,238.282,232.867,-0.0,-0.0,227.78,234.694
2014-03-13 05:00,-0.0,256.589,257.166,244.765,257.928,256.928,246.594,-0.0,-0.0,229.263,245.23
2014-03-13 06:00,-0.0,266.131,262.774,248.382,263.217,261.831,249.705,-0.0,-0.0,229.263,245.345
2014-03-13 07:00,-0.0,267.761,260.201,246.801,260.706,258.957,248.229,-0.0,-0.0,230.184,243.937
2014-03-13 08:00,-0.0,260.827,257.854,245.177,259.606,256.928,245.35,-0.0,-0.0,229.769,244.175
2014-03-13 09:00,0.00762437,257.103,256.294,244.349,257.928,256.742,247.142,-0.0,-0.0,230.018,244.764
2014-03-13 10:00,1.00575,272.061,247.769,239.721,249.789,248.736,241.229,0.893106,1.11442,230.184,240.446
2014-03-13 11:00,0.625068,284.249,253.411,242.656,255.633,255.614,245.905,0.596496,0.707745,230.674,244.881
2014-03-13 12:00,0.386411,289.113,265.995,249.924,266.678,264.623,250.896,0.323636,0.474451,231.315,246.483
2014-03-13 13:00,0.337934,293.587,268.199,251.552,268.855,264.795,249.572,0.239549,0.379248,231.394,245.918
2014-03-13 14:00,0.336801,294.823,265.545,250.051,265.826,261.831,248.499,0.237828,0.377651,232.251,246.258
2014-03-13 15:00,0.323598,289.779,254.69,243.93,255.439,253.122,243.808,0.252196,0.352679,232.86,243.937
2014-03-13 16:00,0.247056,293.124,272.931,254.454,274.312,270.635,253.881,0.175344,0.279984,233.01,248.562
2014-03-13 17:00,0.2525,291.563,271.299,253.501,272.264,268.835,252.982,0.20728,0.313143,232.935,248.348
2014-03-13 18:00,0.260864,276.594,251.912,241.061,252.465,247.915,235.537,0.449192,0.562225,229.433,240.185
2014-03-13 19:00,0.270955,272.58,250.371,240.171,248.946,246.246,236.46,0.353554,0.472147,227.51,237.608
2014-03-13 20:00,0.709439,275.251,236.832,234.017,235.155,233.474,227.26,0.824463,0.983048,223.849,231.031
2014-03-13 21:00,0.984751,269.283,215.218,222.868,214.141,214.364,215.074,0.958314,1.20074,213.845,214.233
2014-03-13 22:00,-0.0,225.382,223.252,226.674,223.443,222.753,221.782,-0.0,-0.0,219.982,222.096
2014-03-13 23:00,-0.0151126,276.155,267.764,250.177,269.186,264.795,247.959,-0.00959688,-0.0114428,230.835,245.46
2014-03-14 01:00,-0.0,239.711,231.997,231.274,231.683,230.17,226.574,-0.0,-0.0,222.799,226.57
2014-03-14 02:00,-0.00137712,284.888,280.187,258.358,281.799,278.307,256.035,-0.0,-0.0,230.266,247.917
2014-03-14 03:00,-0.0,281.346,275.823,255.974,276.772,273.2,253.111,-0.0,-0.0,229.601,245.804
2014-03-14 04:00,-0.0,285.202,281.86,259.793,283.797,280.108,257.53,-0.0,-0.0,230.348,248.025
2014-03-14 05:00,-0.0,286.569,285.095,261.944,287.27,284.779,261.182,-0.0,0.00133681,230.916,248.987
2014-03-14 06:00,-0.0,280.799,277.098,256.892,277.226,273.042,254.264,-0.0,-0.0,230.593,245.918
2014-03-14 07:00,-0.00194553,279.859,275.694,255.858,275.55,272.086,253.881,-0.0,0.00196413,231.552,246.032
2014-03-14 08:00,-0.0,280.799,276.718,256.549,278.128,274.304,253.753,-0.0,-0.0,232.405,247.261
2014-03-14 09:00,-0.0,286.121,285.658,262.049,288.628,286.767,262.255,-0.0,-0.0,234.329,251.152
2014-03-14 10:00,0.284677,281.705,274.261,254.69,276.315,272.724,253.497,0.366794,0.412355,235.038,249.408
2014-03-14 11:00,0.412145,291.931,288.843,263.928,291.029,288.167,262.728,0.193542,0.527973,233.53,252.244
2014-03-14 12:00,0.399771,296.427,291.591,265.557,293.119,289.964,263.436,0.155951,0.464871,232.633,252.634
2014-03-14 13:00,0.308652,298.436,292.52,266.458,294.021,290.511,262.965,0.114667,0.357707,232.328,252.634
2014-03-14 14:00,0.266757,299.013,291.694,265.658,293.248,289.137,262.492,0.109543,0.301624,232.405,252.146
2014-03-14 15:00,0.228466,299.765,292.622,266.557,294.277,290.375,263.67,0.0863209,0.261652,232.633,252.537
2014-03-14 16:00,0.22458,292.889,279.091,257.91,278.278,273.99,252.594,0.132592,0.273298,230.511,246.371
2014-03-14 17:00,0.267355,289.381,274.655,254.69,276.163,272.246,251.422,0.313434,0.400974,232.02,249.093
2014-03-14 18:00,0.135308,291.563,283.148,260.337,284.921,280.702,257.406,0.0996219,0.194509,232.935,250.646
2014-03-14 19:00,0.0279717,291.19,288.195,264.031,289.3,285.919,261.182,0.0457883,0.0922478,233.456,250.849
2014-03-14 20:00,0.283104,286.121,273.997,254.808,273.529,269.984,251.291,0.28005,0.359386,229.852,244.175
2014-03-14 21:00,0.832954,278.482,251.53,241.061,248.946,245.612,234.447,0.672202,0.893474,223.849,233.146
2014-03-14 22:00,-0.0,227.984,221.117,225.701,220.184,219.472,219.172,-0.0,-0.0,217.36,219.134
2014-03-14 23:00,-0.0112252,238.442,229.97,229.118,229.158,228.324,225.535,-0.00950433,-0.01511,223.538,226.76
2014-03-15 00:00,-0.0,248.394,242.597,236.306,242.283,241.921,234.916,-0.0,-0.0,228.921,234.845
2014-03-15 01:00,-0.00163028,266.131,258.025,244.903,256.98,255.803,243.383,-0.0,-0.0,229.601,240.576
2014-03-15 02:00,-0.0,282.059,276.718,256.205,276.923,274.46,254.773,-0.00116288,-0.0,230.835,246.145
2014-03-15 03:00,-0.00126187,282.923,278.35,257.233,280.054,277.701,256.035,-0.0,-0.0,231.315,248.025
2014-03-15 04:00,-0.0,285.97,284.071,261.091,286.585,284.205,260.581,-0.0,-0.0,231.236,249.513
2014-03-15 05:00,0.00132209,287.3,286.439,262.681,289.032,287.048,262.017,-0.0,-0.0,231.709,250.646
2014-03-15 06:00,0.00151888,260.827,254.328,243.79,253.269,249.753,240.207,-0.0,-0.0,230.348,239.121
2014-03-15 07:00,-0.0,279.473,275.694,255.51,276.62,274.46,254.773,-0.0,-0.0,231.156,247.371
2014-03-15 08:00,-0.00298105,286.569,286.105,262.261,289.032,286.626,262.255,-0.0,-0.0,233.159,250.544
2014-03-15 09:00,-0.0,286.271,285.994,261.944,288.628,286.907,262.492,-0.0,-0.0,233.968,250.544
2014-03-15 10:00,0.399648,287.3,286.217,262.471,288.897,286.626,261.54,0.327807,0.579986,234.401,251.152
2014-03-15 11:00,0.423756,292.534,288.843,264.031,290.897,288.027,262.492,0.194101,0.525992,235.247,251.85
2014-03-15 12:00,0.409,297.045,290.86,265.052,292.47,288.584,262.136,0.158055,0.46373,234.897,251.85
2014-03-15 13:00,0.318713,298.822,291.174,265.355,292.209,288.445,262.492,0.129583,0.35521,235.867,252.146
2014-03-15 14:00,0.352812,296.84,285.658,262.261,287.27,284.636,261.54,0.297594,0.420946,235.455,252.439
2014-03-15 15:00,0.280656,285.045,266.738,248.512,266.847,262.537,243.525,0.291827,0.401396,233.677,246.032
2014-03-15 16:00,0.153331,257.605,251.53,241.791,251.447,251.947,244.792,0.438932,0.493875,233.456,243.336
2014-03-15 17:00,0.320985,254.966,221.117,225.306,220.519,220.384,220.115,0.682173,0.779551,216.287,218.653
2014-03-15 18:00,0.414781,262.475,210.224,220.954,209.394,209.133,210.504,0.784876,0.889649,209.926,209.379
2014-03-15 19:00,0.449746,259.954,226.583,227.817,225.919,225.038,223.413,0.641012,0.75485,221.484,224.811
2014-03-15 20:00,0.463221,279.859,259.871,245.859,258.865,255.614,242.527,0.447213,0.576006,228.748,239.255
2014-03-15 21:00,0.854707,286.271,268.054,250.806,267.016,263.412,247.142,0.706849,0.882944,229.769,242.848
2014-03-15 22:00,-0.0,283.093,280.549,258.58,282.374,279.511,258.638,-0.0,-0.0,235.038,253.309
2014-03-15 23:00,-0.0111178,260.827,246.733,238.81,245.024,241.921,233.819,-0.0125513,-0.0149655,226.122,234.694
2014-03-16 00:00,-0.0,274.314,261.822,247.465,259.606,254.472,239.025,-0.0,0.0022016,228.048,241.728
2014-03-16 01:00,-0.0,258.576,241.913,235.662,240.152,237.345,229.283,-0.0,-0.0,223.746,231.364
2014-03-16 02:00,-0.0,249.156,232.839,231.625,230.012,228.324,223.949,-0.0,-0.0,219.26,224.408
2014-03-16 03:00,-0.0,276.811,270.329,251.305,269.842,266.835,249.838,-0.0,-0.0,231.394,247.151
2014-03-16 04:00,-0.0,280.427,275.046,254.572,275.703,272.405,252.853,-0.0,-0.0,231.236,249.617
2014-03-16 05:00,0.00132012,266.466,266.738,249.924,268.855,268.173,253.497,-0.0,-0.0,231.552,251.85
2014-03-16 06:00,-0.00151676,280.613,277.727,256.434,278.725,276.631,256.785,-0.0,-0.0,231.156,250.032
2014-03-16 07:00,0.00193958,285.512,283.611,259.683,285.757,283.484,260.219,-0.0,-0.0,231.709,251.152
2014-03-16 08:00,-0.0,284.57,283.148,259.574,285.34,283.194,259.856,-0.0,-0.0,232.175,251.051
2014-03-16 09:00,-0.00750726,282.923,282.448,259.244,285.479,283.629,260.822,-0.0,-0.0,232.405,252.634
2014-03-16 10:00,0.604826,283.76,279.945,257.572,282.803,280.85,259.614,0.490767,0.737818,233.234,253.117
2014-03-16 11:00,0.421497,290.939,286.772,261.519,288.628,285.635,261.182,0.20351,0.499378,233.456,253.213
2014-03-16 12:00,0.418277,296.114,290.335,263.618,291.686,288.306,262.61,0.158391,0.475325,235.108,254.629
2014-03-16 13:00,0.317757,297.749,291.383,264.339,292.34,288.584,262.61,0.115113,0.363886,238.671,256.805
2014-03-16 14:00,0.259785,299.108,292.52,265.052,293.635,289.551,262.847,0.0895712,0.29877,239.653,257.07
2014-03-16 15:00,0.254131,299.297,284.071,260.445,285.895,280.998,258.76,0.106542,0.272752,240.607,257.158
2014-03-16 16:00,0.27815,298.918,278.968,257.798,280.493,277.701,258.147,0.145644,0.280809,240.607,256.091
2014-03-16 17:00,0.338748,299.765,276.336,255.742,278.873,275.551,257.034,0.23646,0.35765,241.704,256.001
2014-03-16 18:00,0.509662,292.889,265.092,249.414,268.024,267.506,252.982,0.489234,0.586329,241.986,255.091
2014-03-16 19:00,0.246717,280.427,262.774,247.597,262.15,260.225,246.732,0.298193,0.365057,235.247,247.481
2014-03-16 20:00,0.828367,296.008,262.931,247.991,262.329,259.139,245.767,0.648352,0.879393,232.175,244.412
2014-03-16 21:00,0.722174,288.291,276.463,255.277,276.62,274.46,255.532,0.634322,0.756333,235.593,251.452
2014-03-16 22:00,-0.0,288.291,286.772,261.944,288.763,286.06,261.66,-0.0,-0.0,236.675,254.256
2014-03-16 23:00,-0.0110125,288.152,286.661,262.261,289.3,286.907,262.136,-0.0124323,-0.0148237,236.004,252.047
2014-03-17 00:00,0.00216944,287.3,286.439,261.731,289.166,286.343,261.898,-0.0,-0.0,238.168,252.342
2014-03-17 01:00,-0.0,287.444,286.661,261.625,289.032,286.767,262.728,-0.0,-0.0,240.134,253.595
2014-03-17 02:00,-0.00136628,286.864,286.439,262.155,289.032,287.188,262.017,-0.0,-0.0,240.014,254.443
2014-03-17 03:00,-0.0,286.421,286.217,261.519,289.032,286.907,262.847,-0.0,-0.0,240.193,254.629
2014-03-17 04:00,-0.0,286.121,286.217,261.838,288.897,286.907,262.373,-0.0,-0.0,239.593,254.722
2014-03-17 05:00,-0.0,286.121,286.105,261.412,288.897,287.188,262.965,-0.0,-0.0,238.795,254.536
2014-03-17 06:00,-0.0,285.818,286.105,261.198,288.763,286.907,262.373,-0.0,-0.0,237.721,254.443
2014-03-17 07:00,-0.00193685,284.57,282.916,259.354,285.061,282.175,258.882,-0.0,-0.0,235.455,252.146
2014-03-17 08:00,-0.00296936,283.428,281.148,257.685,282.66,280.406,257.53,-0.0,-0.0,233.01,250.135
2014-03-17 09:00,-0.0,279.667,275.694,255.043,276.468,273.042,253.625,-0.0,-0.0,231.787,247.59
2014-03-17 10:00,0.279663,285.665,283.726,259.244,285.618,283.339,260.34,0.322895,0.436338,234.257,252.047
2014-03-17 11:00,0.429704,291.315,286.882,261.305,288.763,285.493,261.062,0.204099,0.525511,234.543,252.146
2014-03-17 12:00,0.410752,296.427,290.229,263.515,291.423,287.609,261.66,0.156948,0.467842,235.108,253.213
2014-03-17 13:00,0.343737,298.726,289.593,262.995,291.029,286.907,261.182,0.15558,0.37261,234.827,252.925
2014-03-17 14:00,0.284473,298.918,290.229,263.307,291.555,287.469,261.66,0.130657,0.316996,234.543,252.828
2014-03-17 15:00,0.274485,298.822,286.105,261.412,288.087,282.758,258.27,0.145516,0.294585,234.756,251.949
2014-03-17 16:00,0.260517,299.579,281.86,259.354,281.799,276.938,256.16,0.143946,0.27412,234.401,250.34
2014-03-17 17:00,0.213982,299.013,291.383,264.339,293.248,289.276,262.728,0.0889422,0.246141,235.108,253.69
2014-03-17 18:00,0.184412,298.144,292.827,265.456,295.043,291.193,263.436,0.0679972,0.225212,235.799,254.068
2014-03-17 19:00,0.215798,297.248,291.902,264.747,294.021,290.648,263.083,0.0945633,0.27137,232.02,252.731
2014-03-17 20:00,0.338582,293.24,284.3,259.683,285.479,281.588,256.66,0.233228,0.437412,229.852,249.617
2014-03-17 21:00,0.254511,291.44,286.882,261.838,288.763,285.777,260.581,0.221319,0.291667,231.076,251.252
2014-03-17 22:00,-0.0148606,287.3,284.869,260.228,286.997,283.917,260.461,-0.0,-0.0,231.552,251.352
2014-03-17 23:00,-0.0145455,258.576,240.984,235.01,238.446,235.677,228.278,-0.0123157,-0.0146846,221.258,228.96
2014-03-18 00:00,-0.0021583,245.01,238.585,233.849,237.702,236.396,231.743,-0.0,-0.0,225.546,232.022
2014-03-18 01:00,-0.00161327,282.923,282.331,259.134,284.921,282.613,259.977,-0.0,-0.0,229.852,250.34
2014-03-18 02:00,-0.0,259.045,251.912,241.5,251.036,249.955,241.229,-0.0,-0.0,227.601,237.043
2014-03-18 03:00,-0.0,263.255,252.666,241.791,252.059,248.532,237.525,-0.0,-0.0,225.739,236.9
2014-03-18 04:00,-0.0,276.155,267.618,250.177,267.354,263.412,246.457,-0.0,-0.0,225.931,240.964
2014-03-18 05:00,-0.0,276.811,273.599,254.336,274.933,272.724,255.532,-0.0,-0.0,229.178,247.371
2014-03-18 06:00,-0.0,270.989,266.293,249.542,268.69,265.65,250.369,-0.0,-0.0,228.575,246.371
2014-03-18 07:00,-0.0,276.376,272.391,253.381,273.843,270.96,253.753,-0.0,0.00195277,229.263,247.151
2014-03-18 08:00,-0.0,278.482,275.823,255.742,276.772,273.675,255.153,-0.0,-0.0,229.769,247.808
2014-03-18 09:00,-0.0,257.103,256.644,244.349,258.865,258.04,246.869,-0.0,-0.0,230.266,245.918
2014-03-18 10:00,0.833517,265.791,254.145,242.369,256.789,256.555,246.457,0.814312,0.970944,230.755,245.918
2014-03-18 11:00,0.728761,291.19,254.509,242.942,257.17,257.115,247.279,0.622974,0.73219,231.63,246.595
2014-03-18 12:00,0.669191,299.391,256.118,243.65,258.491,257.486,247.551,0.514769,0.637227,232.175,247.04
2014-03-18 13:00,0.387294,299.765,270.049,251.799,270.981,265.99,250.236,0.270132,0.405419,233.456,248.882
2014-03-18 14:00,0.371132,300.679,272.662,253.741,274.0,269.821,253.625,0.245924,0.36925,235.038,250.34
2014-03-18 15:00,0.221829,299.108,291.383,265.254,291.948,287.188,261.301,0.0744992,0.251474,236.475,252.342
2014-03-18 16:00,0.22809,298.339,287.978,263.307,288.628,284.205,259.492,0.105906,0.247602,236.274,251.949
2014-03-18 17:00,0.240665,293.124,283.956,260.769,285.34,282.613,260.34,0.20267,0.298126,238.294,253.785
2014-03-18 18:00,0.209014,297.449,289.379,264.236,290.234,286.343,261.66,0.0910141,0.253214,239.043,254.536
2014-03-18 19:00,0.203602,295.69,289.593,264.031,290.764,286.202,260.219,0.0870004,0.2651,239.043,253.69
2014-03-18 20:00,0.231413,294.491,290.229,264.543,291.555,288.027,262.847,0.122461,0.303713,239.043,255.091
2014-03-18 21:00,0.140283,290.429,286.772,262.786,288.358,285.493,261.66,0.225676,0.219517,235.662,253.69
2014-03-18 22:00,-0.0,286.864,285.77,261.731,287.679,285.35,261.898,-0.0,-0.0144182,236.475,254.629
2014-03-18 23:00,-0.0180131,288.012,286.55,262.155,288.493,285.777,261.898,-0.00915098,-0.0145482,236.475,254.256
2014-03-19 00:00,-0.0,266.131,261.662,247.332,263.217,262.185,249.438,-0.0,-0.0,233.603,249.303
2014-03-19 01:00,-0.00160781,283.428,280.669,258.913,281.943,278.458,257.406,-0.0,-0.0,232.784,250.849
2014-03-19 02:00,-0.0,286.569,284.982,261.519,287.27,284.061,260.822,-0.0,-0.0,232.02,251.452
2014-03-19 03:00,-0.0,287.155,285.658,261.838,287.951,285.493,261.54,-0.0,-0.0,232.633,252.047
2014-03-19 04:00,-0.0,286.421,285.658,262.049,288.087,285.777,262.136,-0.0,-0.0,231.787,251.949
2014-03-19 05:00,-0.0,286.271,285.546,262.049,287.951,285.493,261.54,-0.0,-0.0,231.787,251.949
2014-03-19 06:00,-0.0,283.924,281.386,259.354,282.803,280.108,257.9,-0.0,-0.0,230.266,249.303
2014-03-19 07:00,-0.00193186,285.357,284.071,260.769,286.172,283.484,260.581,-0.0,-0.0,230.996,250.849
2014-03-19 08:00,-0.0,283.76,281.505,259.024,282.374,279.959,258.147,-0.0,-0.0,228.921,248.348
2014-03-19 09:00,0.0074056,284.249,281.148,258.913,282.517,279.81,258.147,-0.0,-0.0,229.348,248.348
2014-03-19 10:00,0.595002,264.739,253.779,242.656,253.867,251.156,240.793,0.700921,1.03162,226.685,237.888
2014-03-19 11:00,0.379496,255.521,241.451,235.662,241.815,239.667,233.503,0.481979,0.620803,226.592,233.928
2014-03-19 12:00,0.423136,296.738,290.229,264.747,291.555,287.329,261.66,0.161221,0.474171,230.674,250.544
2014-03-19 13:00,0.318114,299.013,291.591,265.959,292.6,288.167,262.255,0.118513,0.356482,232.02,250.95
2014-03-19 14:00,0.281643,299.391,290.229,264.95,291.292,287.329,262.017,0.140342,0.311545,232.709,251.85
2014-03-19 15:00,0.253405,297.749,285.095,261.944,286.31,282.467,259.735,0.143038,0.277147,234.041,252.146
2014-03-19 16:00,0.213946,299.95,291.902,266.159,292.73,288.445,262.492,0.0843274,0.238335,234.185,252.925
2014-03-19 22:00,-0.0,288.841,287.651,263.721,289.568,286.907,262.492,-0.0,-0.0,233.53,253.595
2014-03-19 23:00,-0.0142781,287.729,284.982,261.519,286.172,282.904,259.856,-0.00906694,-0.0144146,232.175,251.552
2014-03-20 00:00,-0.0,288.012,286.661,262.995,288.628,286.06,261.898,-0.0,-0.0,233.968,253.309
2014-03-20 01:00,-0.00160245,287.01,285.095,262.366,286.997,284.061,260.461,-0.0,-0.0,232.557,251.949
2014-03-20 02:00,-0.00135616,272.836,266.886,251.305,266.678,260.584,247.006,-0.0,-0.0,230.593,245.575
2014-03-20 03:00,-0.00124952,260.395,248.784,240.617,245.693,241.027,232.066,-0.0,-0.0,220.337,231.198
2014-03-20 04:00,-0.00123677,280.05,272.12,254.099,272.264,268.007,248.499,-0.0,-0.0,228.224,243.577
2014-03-20 05:00,-0.0,262.869,246.942,238.963,243.209,239.208,229.781,-0.0,-0.0,219.863,228.423
2014-03-20 06:00,0.00150933,280.613,272.527,254.099,272.582,268.67,248.768,-0.0,-0.0,228.488,243.818
2014-03-20 07:00,-0.0,268.986,256.294,244.488,252.465,248.736,237.222,-0.0,-0.0,222.04,232.988
2014-03-20 08:00,-0.0,283.428,280.308,258.802,281.221,277.396,256.41,-0.0,-0.0,230.101,248.133
2014-03-20 09:00,-0.0,285.97,283.495,260.984,285.201,281.588,257.53,-0.0,-0.0,230.674,249.513
2014-03-20 10:00,0.547954,286.421,281.267,259.464,281.943,278.307,256.909,0.397673,0.684905,230.996,249.093
2014-03-20 12:00,0.443169,296.738,285.882,262.366,285.895,280.998,258.515,0.193899,0.455968,231.787,249.617
2014-03-20 13:00,0.320383,298.918,290.123,265.153,290.367,285.065,260.461,0.118764,0.352411,232.86,250.34
2014-03-20 14:00,0.260654,299.765,290.651,265.557,290.764,285.493,260.581,0.0994844,0.290415,234.041,250.748
2014-03-20 15:00,0.282654,298.242,287.322,263.618,288.358,284.349,260.942,0.186608,0.306726,233.896,251.152
2014-03-20 16:00,0.21823,298.242,288.087,264.236,288.493,284.061,260.461,0.117964,0.25268,234.472,251.352
2014-03-20 17:00,0.0720087,268.986,266.59,250.681,267.69,267.339,253.881,0.22725,0.257744,234.827,250.442
2014-03-20 18:00,0.313015,258.576,225.937,228.192,223.443,223.332,222.147,0.485463,0.551494,216.15,218.895
2014-03-20 19:00,0.346184,289.247,269.767,252.412,266.508,262.008,245.905,0.2866,0.41745,227.601,241.98
2014-03-20 20:00,0.27647,296.427,284.185,262.049,284.501,279.959,257.282,0.214165,0.347407,232.86,250.135
2014-03-20 21:00,0.628181,281.346,256.819,244.765,254.854,248.327,236.0,0.53188,0.722677,226.963,238.165
2014-03-20 22:00,-0.0132461,222.276,211.654,221.814,209.808,208.766,210.073,-0.0,-0.0,209.206,209.707
2014-03-20 23:00,-0.0141485,225.382,205.549,219.855,205.043,204.159,206.286,-0.00898464,-0.0107128,205.449,205.491
2014-03-21 00:00,-0.0,218.393,206.643,219.855,205.497,204.559,206.743,-0.0,-0.0,206.292,206.606
2014-03-21 02:00,-0.00135295,213.142,214.358,222.449,213.381,212.329,211.358,-0.0,0.00136588,212.922,213.668
2014-03-21 03:00,-0.00124727,227.984,224.95,227.438,225.003,223.905,222.692,-0.0,-0.0,220.454,223.793
2014-03-21 04:00,-0.0,243.066,241.218,235.662,241.107,239.667,234.604,-0.0,-0.0,226.685,235.74
2014-03-21 05:00,-0.0,261.251,259.706,246.399,259.974,258.957,247.959,-0.0,-0.0,231.473,245.918
2014-03-21 06:00,-0.0,253.81,255.05,244.21,256.98,254.855,245.211,-0.0,-0.0,232.251,245.804
2014-03-21 07:00,-0.00192747,251.282,251.721,242.369,254.461,253.51,244.652,-0.0,-0.0,230.43,244.056
2014-03-21 08:00,-0.0,258.576,258.195,245.723,260.341,258.774,246.869,-0.0,-0.0,229.769,245.69
2014-03-21 09:00,0.00734514,271.531,266.59,251.18,267.69,264.451,249.971,-0.0,-0.0,230.674,246.818
2014-03-21 10:00,0.65793,271.261,254.69,243.509,256.789,255.045,245.072,0.601634,0.717357,230.755,244.647
2014-03-21 11:00,0.73164,290.171,256.294,244.903,258.491,256.928,246.044,0.619478,0.720793,230.184,244.998
2014-03-21 12:00,0.605696,296.531,268.487,252.29,269.679,266.667,252.335,0.444463,0.579303,230.674,247.699
2014-03-21 13:00,0.316283,292.174,272.391,254.336,272.264,267.673,249.971,0.209639,0.369299,228.136,244.412
2014-03-21 14:00,0.366818,293.124,271.023,254.099,271.945,269.657,253.625,0.272764,0.389456,229.433,247.699
2014-03-21 15:00,0.322044,283.924,266.738,250.931,268.69,267.339,253.368,0.275844,0.359147,229.517,247.59
2014-03-21 17:00,0.207544,297.549,288.736,265.153,289.568,284.922,261.182,0.0945368,0.244008,231.552,249.825
2014-03-21 18:00,0.155638,294.713,287.869,264.645,289.032,284.636,261.301,0.0997931,0.212043,232.02,250.442
2014-03-21 19:00,0.181777,286.864,274.392,256.205,271.464,268.007,251.291,0.167009,0.220608,224.054,239.656
2014-03-21 20:00,0.6526,272.061,216.058,224.102,214.141,212.673,213.653,0.693206,0.835527,212.607,213.668
2014-03-21 21:00,0.768378,265.791,222.904,226.674,220.184,218.857,218.218,0.650584,0.820911,214.441,218.165
2014-03-21 22:00,-0.0,232.213,225.282,227.438,224.384,223.905,220.675,-0.0,-0.0,219.624,222.529
2014-03-21 23:00,-0.0140217,269.865,257.166,245.177,255.827,251.75,239.173,-0.00890409,-0.0106168,225.449,239.121
2014-03-22 01:00,-0.00159205,265.446,260.854,247.991,261.611,259.139,247.415,-0.0,-0.0,231.552,245.918
2014-03-22 02:00,-0.0,258.096,246.313,239.419,244.349,241.027,233.819,-0.0,-0.0,223.434,234.996
2014-03-22 03:00,-0.0,271.798,260.365,247.332,258.491,253.703,240.793,-0.0,-0.0,226.778,239.789
2014-03-22 04:00,-0.0,280.982,272.391,254.926,271.785,265.48,246.869,-0.0,-0.0,226.871,243.457
2014-03-22 05:00,-0.00131006,268.073,262.3,248.382,262.507,258.774,245.905,-0.0,-0.0,228.488,245.23
2014-03-22 06:00,-0.00150624,261.666,257.166,245.177,258.116,255.614,244.231,-0.0,-0.0,229.263,244.294
2014-03-22 07:00,-0.0,258.096,255.764,244.626,257.17,255.425,244.512,-0.0,-0.0,229.433,244.53
2014-03-22 08:00,-0.0,254.966,254.871,243.65,256.406,255.425,244.932,-0.0,-0.0,230.593,245.114
2014-03-22 09:00,-0.0,254.966,253.779,242.799,254.657,253.316,243.525,-0.0,-0.0,230.101,244.647
2014-03-22 10:00,0.544119,273.831,259.039,245.587,259.051,254.281,239.322,0.573072,0.723495,227.42,241.98
2014-03-22 11:00,0.577828,277.661,253.226,242.942,253.069,248.121,236.46,0.642323,0.694296,225.546,240.185
2014-03-22 12:00,0.577273,285.045,259.206,246.801,259.421,256.18,243.383,0.708816,0.774189,227.51,243.214
2014-03-22 13:00,0.424241,275.02,246.313,239.267,244.122,240.35,231.581,0.553039,0.617394,221.145,233.773
2014-03-22 14:00,0.374443,274.073,228.769,230.565,225.003,220.081,216.466,0.395152,0.487594,214.588,221.878
2014-03-22 15:00,0.276552,273.338,237.086,234.681,232.502,227.246,221.23,0.252168,0.370155,214.734,222.743
2014-03-22 16:00,0.317417,274.551,255.587,244.488,255.244,252.144,240.354,0.325448,0.431859,226.405,240.576
2014-03-22 17:00,0.237238,277.661,255.941,244.765,253.867,250.357,239.025,0.245507,0.352606,224.156,235.146
2014-03-22 18:00,0.317124,264.377,224.279,227.058,221.182,219.472,217.25,0.42653,0.517764,213.693,217.164
2014-03-22 19:00,0.369471,266.797,228.463,229.484,226.221,224.474,222.873,0.474185,0.543798,218.137,222.313
2014-03-22 20:00,0.661273,270.989,233.938,232.319,230.853,229.385,225.709,0.673905,0.797488,217.622,221.878
2014-03-22 21:00,0.678445,272.836,242.37,236.625,240.152,237.581,231.419,0.580892,0.700322,223.538,231.031
2014-03-22 22:00,-0.0,265.095,254.871,244.07,253.069,250.357,240.646,-0.0,-0.012467,225.643,236.757
2014-03-22 23:00,-0.0104232,274.073,264.482,249.029,264.095,260.764,246.182,-0.0088253,-0.0140304,227.42,242.602
2014-03-23 00:00,-0.0,276.376,268.343,252.168,268.024,264.279,248.768,-0.0,-0.0,228.224,242.848
2014-03-23 01:00,-0.0,276.155,264.175,249.414,262.863,258.04,242.671,-0.0,-0.0,223.118,236.9
2014-03-23 02:00,0.00134678,270.713,259.706,246.533,258.678,255.235,241.664,-0.0,-0.0,225.739,238.303
2014-03-23 03:00,-0.001243,267.761,262.141,247.991,263.745,260.764,247.415,-0.0,-0.0,229.433,245.804
2014-03-23 04:00,-0.0,263.636,250.566,241.936,248.307,242.585,235.227,-0.0,-0.0,225.352,234.542
2014-03-23 05:00,-0.00130868,283.594,279.091,258.802,280.201,276.477,255.153,-0.0,-0.0,229.517,246.707
2014-03-23 06:00,-0.0,285.357,283.611,261.731,285.201,282.028,259.492,-0.0,-0.0,232.709,249.513
2014-03-23 07:00,0.00192364,285.045,283.611,261.944,285.479,282.028,260.098,-0.0,-0.0,231.787,249.198
2014-03-23 08:00,-0.0,284.888,283.148,261.625,284.921,282.175,259.492,-0.0,-0.0,232.097,249.408
2014-03-23 09:00,-0.0,280.05,279.091,259.244,280.054,276.169,255.28,-0.0,-0.0,232.328,248.348
2014-03-23 10:00,0.856606,287.3,282.096,261.091,283.514,279.81,258.515,0.679956,0.810745,233.456,250.032
2014-03-23 11:00,0.508441,291.065,284.528,262.471,285.757,282.028,259.614,0.282984,0.52766,233.234,250.544
2014-03-23 12:00,0.495357,297.045,279.58,259.464,280.639,275.551,255.909,0.26756,0.461292,233.159,249.928
2014-03-23 13:00,0.421985,299.391,282.096,260.876,283.514,279.511,257.9,0.275782,0.4163,233.823,251.152
2014-03-23 14:00,0.432434,298.242,283.841,262.261,285.757,283.049,260.581,0.35693,0.440686,233.75,252.146
2014-03-23 15:00,0.314897,291.686,282.214,261.198,283.938,281.146,260.219,0.304864,0.374903,232.784,251.751
2014-03-23 16:00,0.253677,296.738,277.977,258.691,279.17,275.706,256.785,0.176884,0.28121,233.53,251.552
2014-03-23 17:00,0.249953,294.491,283.264,261.625,284.361,280.85,259.735,0.202677,0.296402,233.603,252.146
2014-03-23 18:00,0.419036,295.151,267.909,252.168,270.169,268.505,254.009,0.408985,0.483037,234.113,252.342
2014-03-23 19:00,0.158403,271.531,264.329,249.797,265.482,264.451,251.553,0.349373,0.37314,233.75,249.303
2014-03-23 20:00,0.597689,277.24,256.644,244.488,255.633,255.614,245.628,0.74887,0.908152,228.835,242.602
2014-03-23 21:00,1.19246,283.261,256.992,244.488,257.361,250.557,235.846,1.08224,1.49498,230.018,242.478
2014-03-23 22:00,0.0119445,256.062,251.53,242.081,251.856,249.55,239.173,-0.0,-0.0,228.575,242.848
2014-03-23 23:00,-0.00688814,285.512,281.029,260.119,282.231,278.458,257.282,-0.00874827,-0.010431,233.456,251.352
2014-03-24 00:00,-0.0,261.666,254.145,244.07,252.059,248.941,240.06,-0.0,-0.0,223.434,237.468
2014-03-24 01:00,-0.00158209,264.009,257.339,245.859,257.55,254.664,242.671,-0.0,-0.0,228.748,244.056
2014-03-24 02:00,-0.0,275.932,270.189,253.86,271.464,268.173,252.853,-0.0,-0.0,232.784,250.135
2014-03-24 03:00,-0.0,271.261,266.738,251.552,268.524,265.82,251.683,-0.0,-0.0,233.382,250.748
2014-03-24 04:00,-0.00123017,267.761,264.94,250.681,266.678,264.279,251.422,-0.0,-0.0,233.968,249.928
2014-03-24 05:00,0.00130737,264.377,261.179,247.859,263.393,261.654,249.171,-0.0,-0.0,234.756,249.408
2014-03-24 06:00,-0.0,256.589,257.166,245.859,259.606,258.957,248.499,-0.0,-0.0,234.756,248.669
2014-03-24 07:00,0.00192193,264.009,264.329,249.797,266.508,265.309,252.075,-0.0,-0.0,235.662,251.652
2014-03-24 08:00,0.00293762,277.24,273.732,255.742,275.396,272.086,254.392,-0.0,-0.0,234.968,251.552
2014-03-24 09:00,-0.0,268.382,260.854,247.597,261.25,258.591,246.732,-0.0,-0.0,233.968,247.917
2014-03-24 10:00,0.809915,266.131,253.595,243.509,254.854,253.703,243.808,0.765759,0.940307,234.615,246.483
2014-03-24 11:00,0.677584,290.171,257.854,246.399,258.865,256.928,246.594,0.540495,0.716465,234.185,247.371
2014-03-24 12:00,0.451593,295.796,272.662,254.926,272.423,268.007,250.501,0.289944,0.477517,233.159,248.987
2014-03-24 13:00,0.504969,292.889,261.662,248.382,263.745,262.712,250.369,0.45479,0.545515,233.75,249.513
2014-03-24 14:00,0.389848,279.859,261.822,247.859,263.745,263.237,251.028,0.593227,0.660544,235.662,250.646
2014-03-24 15:00,0.420121,280.613,263.556,248.9,265.482,264.967,251.944,0.58363,0.640016,235.936,250.849
2014-03-24 16:00,0.269395,277.869,265.696,250.555,267.016,266.16,252.205,0.354817,0.439434,236.341,251.751
2014-03-24 17:00,0.256133,286.569,273.065,255.393,273.372,270.96,253.368,0.217991,0.340309,236.207,252.244
2014-03-24 18:00,0.410127,269.865,221.481,226.481,220.852,217.29,211.358,0.576598,0.673601,213.388,217.918
2014-03-24 19:00,0.550712,273.586,218.862,226.092,214.89,211.635,210.289,0.666125,0.806166,210.796,213.952
2014-03-24 21:00,0.741487,266.466,214.79,223.694,213.381,211.983,212.411,0.675071,0.861264,212.765,213.092
2014-03-24 22:00,-0.0115663,213.142,205.549,219.409,203.652,203.351,206.743,-0.0,-0.0,204.795,203.929
2014-03-24 23:00,-0.0102433,227.984,211.184,222.027,208.977,207.274,209.856,-0.00867299,-0.0103412,209.206,210.032
2014-03-25 00:00,0.0020856,225.382,216.88,224.305,215.26,213.016,212.619,-0.0,-0.0,213.234,215.6
2014-03-25 02:00,-0.0,230.231,218.474,225.107,215.993,213.356,212.827,-0.0,-0.0,212.607,215.6
2014-03-25 03:00,-0.0,230.231,221.481,225.897,219.847,217.922,215.873,-0.0,-0.0,214.734,218.653
2014-03-25 04:00,-0.0,230.231,223.252,227.438,222.485,220.685,218.792,-0.0,-0.0,216.963,221.213
2014-03-25 05:00,-0.0,235.601,230.559,230.743,230.012,228.056,224.126,-0.0,-0.0,220.916,227.694
2014-03-25 06:00,-0.0,249.156,247.563,239.57,248.093,246.876,240.06,-0.0,-0.0,227.329,240.053
2014-03-25 07:00,-0.0,249.89,248.177,239.721,248.52,247.708,239.765,-0.0,-0.0,227.959,239.523
2014-03-25 08:00,-0.00293409,259.045,257.166,244.765,258.116,256.742,246.457,-0.0,-0.0,228.488,244.412
2014-03-25 09:00,-0.00723859,268.986,262.458,248.642,264.095,260.942,248.229,-0.0,-0.0,229.601,245.345
2014-03-25 10:00,0.884894,270.434,244.598,238.81,245.693,243.896,237.676,0.714658,0.948329,229.178,237.327
2014-03-25 11:00,0.547292,281.705,257.683,245.04,258.678,257.486,246.594,0.526994,0.653639,230.018,245.114
2014-03-25 12:00,0.598578,288.012,252.101,241.936,253.669,252.927,244.09,0.572211,0.680109,229.685,243.698
2014-03-25 13:00,0.378806,274.787,246.942,239.721,246.355,244.973,237.07,0.401259,0.497968,226.592,236.325
2014-03-25 14:00,0.356637,284.41,258.025,245.587,258.491,255.235,242.956,0.32626,0.446954,227.691,241.854
2014-03-25 15:00,0.310255,274.551,253.04,242.799,253.269,251.552,241.664,0.317153,0.408715,227.42,240.964
2014-03-25 16:00,0.305235,280.05,257.683,245.451,257.928,255.803,244.512,0.285981,0.382665,227.238,243.336
2014-03-25 17:00,0.222413,289.91,271.023,254.69,270.981,267.506,251.028,0.146594,0.256808,228.748,246.258
2014-03-25 18:00,0.198275,295.368,288.195,264.849,288.628,283.917,259.37,0.0963026,0.252928,231.394,250.646
2014-03-25 19:00,0.538095,290.939,247.15,241.207,240.87,233.474,224.481,0.470679,0.613141,219.624,230.694
2014-03-25 20:00,0.682301,276.594,214.79,223.899,211.428,208.397,209.638,0.713021,0.859478,206.084,208.027
2014-03-25 21:00,1.2323,277.451,225.611,228.749,222.162,219.777,217.639,1.06411,1.35118,216.695,220.989
2014-03-25 22:00,-0.0,259.045,246.313,239.721,243.667,238.978,228.949,-0.0,-0.0,223.434,234.694
2014-03-25 23:00,-0.0101565,277.661,266.442,251.305,264.965,259.684,242.814,-0.00859947,-0.00683571,225.643,241.602
2014-03-26 00:00,-0.0,277.451,267.909,251.922,267.354,261.831,245.767,-0.0,0.00209585,227.51,243.336
2014-03-26 04:00,-0.0,232.213,226.583,228.378,225.615,225.038,222.873,-0.0,-0.0,219.863,223.167
2014-03-26 05:00,-0.0,233.989,227.845,229.118,227.118,225.874,224.304,-0.0,0.00131746,220.916,225.21
2014-03-26 06:00,-0.00150121,262.475,256.469,244.626,256.789,254.664,243.949,-0.0,-0.0,228.4,242.354
2014-03-26 07:00,-0.0,277.026,272.527,254.572,274.778,271.605,254.646,-0.0,-0.0,230.266,248.455
2014-03-26 08:00,-0.00293078,263.636,263.712,249.414,266.678,266.16,252.594,-0.0,-0.0,230.018,247.808
2014-03-26 09:00,-0.00721447,262.074,261.017,247.728,263.745,262.888,250.633,-0.0,-0.0,230.511,247.371
2014-03-26 10:00,0.700238,270.989,258.703,246.265,261.431,260.045,248.499,0.662643,0.803962,231.473,246.929
2014-03-26 11:00,0.599206,293.472,263.712,249.029,264.965,261.831,249.037,0.449625,0.572333,232.709,247.481
2014-03-26 12:00,0.38283,289.113,275.565,256.549,274.623,269.657,249.838,0.213059,0.447286,228.662,243.698
2014-03-26 13:00,0.310229,286.121,260.036,247.067,258.116,252.341,237.373,0.221628,0.380075,225.643,237.608
2014-03-26 14:00,0.393139,299.013,264.329,250.051,264.27,259.502,247.823,0.295756,0.396897,232.784,246.258
2014-03-26 15:00,0.293392,293.587,273.333,255.858,274.312,269.984,252.723,0.201302,0.311518,232.405,248.669
2014-03-26 16:00,0.21959,295.902,285.433,262.995,286.31,281.882,259.249,0.137055,0.268561,233.159,250.748
2014-03-26 17:00,0.229897,268.686,251.53,242.081,249.368,247.915,239.173,0.447024,0.511418,225.931,237.468
2014-03-26 18:00,0.236205,254.966,223.94,227.058,222.162,221.579,220.302,0.526784,0.589145,216.424,220.535
2014-03-26 19:00,0.541272,266.131,212.578,221.814,210.625,210.576,211.146,0.862671,0.980389,210.452,210.984
2014-03-26 20:00,0.719613,266.797,213.479,222.449,212.219,211.284,213.241,0.921821,1.06469,211.636,213.382
2014-03-26 21:00,1.08655,265.446,220.379,225.701,220.184,219.165,218.41,0.990752,1.27414,218.137,219.372
2014-03-26 22:00,-0.0,232.213,225.611,227.058,224.384,222.462,220.675,-0.0,-0.0,218.767,222.096
2014-03-26 23:00,-0.0134289,249.89,233.116,231.799,230.853,228.324,223.413,-0.0085277,-0.010168,219.744,224.408
2014-03-27 00:00,-0.0,270.434,258.871,245.859,257.17,253.703,241.374,-0.0,-0.0,225.931,238.441
2014-03-27 01:00,-0.00156801,275.707,271.023,253.381,272.264,269.329,251.944,-0.0,-0.0,230.593,247.151
2014-03-27 02:00,-0.0,283.093,276.463,257.233,276.01,271.605,252.075,-0.0,-0.0,226.027,243.818
2014-03-27 03:00,-0.0,266.131,257.511,245.587,256.021,251.354,239.173,-0.0,-0.0,224.359,238.303
2014-03-27 04:00,-0.00122599,261.251,257.683,246.13,257.55,253.316,242.097,-0.0,-0.0,228.224,242.971
2014-03-27 05:00,-0.00130391,244.063,237.339,233.681,233.842,231.459,226.574,-0.0,-0.0,216.424,226.187
2014-03-27 06:00,0.00150019,230.231,223.94,228.192,220.852,217.29,216.071,-0.0,-0.0,215.31,220.075
2014-03-27 07:00,0.00191755,253.81,250.566,240.913,251.652,249.55,239.47,-0.0,-0.0,227.42,241.221
2014-03-27 08:00,-0.0,227.984,223.94,227.058,222.806,220.984,219.551,-0.0,-0.0,218.137,221.658
2014-03-27 09:00,-0.0,230.231,228.463,228.749,227.414,226.426,225.36,-0.0,-0.0,220.916,224.408
2014-03-27 10:00,0.498529,235.601,221.117,225.306,220.852,220.384,219.739,0.867657,1.06251,217.36,219.843
2014-03-27 11:00,0.323929,244.063,224.279,226.866,224.072,223.332,222.147,0.731388,0.824832,219.26,222.313
2014-03-27 12:00,0.247954,251.282,237.086,233.681,237.2,236.157,231.743,0.65356,0.724853,225.352,232.669
2014-03-27 13:00,0.233236,254.966,243.496,236.784,243.209,242.585,236.0,0.470388,0.539609,227.238,236.757
2014-03-27 14:00,0.300751,257.103,239.799,235.499,239.911,238.747,233.819,0.498826,0.565659,225.058,233.773
2014-03-27 15:00,0.259964,260.827,240.984,236.146,240.87,239.438,233.503,0.391905,0.466008,225.739,234.996
2014-03-27 16:00,0.347407,270.713,246.102,239.267,246.135,244.328,236.307,0.477459,0.538799,225.058,237.608
2014-03-27 17:00,0.35818,272.061,244.815,238.81,244.349,242.585,235.072,0.386187,0.459115,224.661,235.887
2014-03-27 18:00,0.480737,281.165,246.102,238.963,246.794,244.973,237.977,0.508143,0.590228,227.055,238.027
2014-03-27 19:00,0.528493,301.478,265.545,251.18,266.508,262.185,248.903,0.430525,0.551735,230.835,246.145
2014-03-27 20:00,0.839045,301.214,274.655,257.006,276.62,273.675,256.41,0.612338,0.812298,230.43,249.513
2014-03-27 21:00,0.445389,286.717,276.591,257.459,276.163,272.565,253.111,0.37711,0.484235,226.871,244.764
2014-03-27 22:00,-0.0,266.466,253.411,242.942,252.059,249.55,237.373,-0.0,-0.0,225.449,236.325
2014-03-27 23:00,-0.009989,262.475,250.175,240.913,248.307,245.186,234.916,-0.00563845,-0.0100845,225.352,236.469
2014-03-28 00:00,-0.0,279.278,272.12,254.454,272.582,269.165,250.369,-0.0,-0.0,227.87,245.575
2014-03-28 01:00,-0.00156355,280.427,273.466,255.51,272.741,269.165,250.633,-0.0,-0.0,226.216,243.336
2014-03-28 02:00,-0.0,271.531,261.501,247.859,261.069,257.301,242.384,-0.0,-0.0,225.835,240.706
2014-03-28 03:00,-0.0,281.705,275.176,256.205,275.703,271.605,251.291,-0.0,0.00124541,226.311,244.412
2014-03-28 04:00,-0.0,249.156,236.318,234.017,233.31,231.203,227.26,-0.0,-0.0,221.371,228.423
2014-03-28 05:00,-0.0,259.954,246.102,239.267,242.978,240.35,232.227,-0.0,-0.0,222.906,231.364
2014-03-28 06:00,-0.0,268.382,259.206,246.265,258.678,255.992,242.241,-0.0,-0.0,226.778,240.706
2014-03-28 07:00,-0.0,269.865,261.662,247.991,261.25,258.957,245.072,-0.0,-0.0,226.963,241.98
2014-03-28 08:00,-0.0,262.074,256.469,244.626,256.789,254.855,243.241,-0.0,-0.0,227.601,241.854
2014-03-28 09:00,-0.0,257.103,252.29,242.656,253.269,249.55,239.765,-0.0,-0.0,227.959,240.053
2014-03-28 10:00,0.195546,278.883,275.694,257.006,277.226,275.396,256.16,0.31931,0.324325,229.178,248.562
2014-03-28 11:00,0.59574,291.931,270.885,254.217,273.057,268.835,252.335,0.400472,0.557694,229.769,248.025
2014-03-28 12:00,0.432325,296.531,280.669,260.228,282.66,279.061,258.638,0.245253,0.451734,230.755,250.238
2014-03-28 13:00,0.36858,297.449,274.524,256.434,276.923,273.517,255.28,0.243337,0.390135,231.076,249.513
2014-03-28 14:00,0.283628,296.84,277.476,258.358,278.128,272.724,254.9,0.170202,0.31275,231.787,248.562
2014-03-28 15:00,0.240349,295.583,287.322,264.339,287.951,284.492,260.942,0.149666,0.283729,231.473,250.442
2014-03-28 16:00,0.208348,268.686,250.371,241.207,248.946,247.085,236.765,0.31005,0.365863,222.799,233.617
2014-03-28 17:00,0.257177,274.314,253.963,242.942,252.667,250.357,239.173,0.337457,0.444506,226.871,237.327
2014-03-28 18:00,0.224327,286.717,278.968,259.024,280.201,277.853,258.392,0.27963,0.336562,230.674,249.928
2014-03-28 19:00,0.537733,266.797,219.628,225.504,217.78,216.972,216.269,0.755419,0.882424,214.879,216.652
2014-03-28 20:00,0.774294,277.661,229.673,231.098,225.615,221.283,217.639,0.743898,0.925273,213.541,219.372
2014-03-28 21:00,0.386436,273.586,267.473,252.168,269.021,267.506,252.594,0.431303,0.46993,228.921,246.032
2014-03-28 22:00,-0.0102738,279.081,272.12,255.16,271.303,267.84,250.633,-0.0,-0.0,228.136,243.577
2014-03-28 23:00,-0.00990835,260.827,251.147,241.061,250.623,249.144,239.47,-0.00838938,-0.0100031,228.662,238.303
2014-03-29 00:00,-0.0,285.512,283.148,261.731,285.061,282.175,260.461,-0.0,-0.0,231.787,250.442
2014-03-29 01:00,-0.0015592,285.045,282.682,261.412,284.501,281.441,259.37,-0.0,-0.0,231.315,249.928
2014-03-29 02:00,-0.0013303,271.798,260.201,247.728,255.827,250.957,237.525,-0.0,-0.0,220.337,233.617
2014-03-29 03:00,-0.0,262.869,252.666,242.799,252.667,249.55,239.322,-0.0,-0.0,224.661,237.327
2014-03-29 04:00,0.00122356,256.589,251.53,242.081,252.262,250.957,240.207,-0.0,-0.0,225.449,239.39
2014-03-29 05:00,-0.00130199,259.954,257.854,246.13,258.865,257.671,245.628,-0.0,-0.0,226.778,243.457
2014-03-29 06:00,-0.0,251.944,244.815,238.503,244.349,241.921,233.819,-0.0,-0.0,221.93,234.082
2014-03-29 07:00,0.00191521,251.944,248.38,240.32,248.52,246.876,238.128,-0.0,0.00193352,225.156,237.608
2014-03-29 08:00,-0.0,250.598,233.116,231.799,230.012,226.701,221.598,-0.0,-0.0,216.012,222.743
2014-03-29 09:00,-0.0,247.601,235.275,233.344,233.842,232.221,227.26,-0.0,-0.0,221.031,226.76
2014-03-29 10:00,0.42267,245.913,222.198,225.701,220.184,218.547,217.639,0.608386,0.782303,215.452,217.418
2014-03-29 11:00,0.278899,272.322,252.29,241.646,251.652,246.035,233.185,0.371082,0.489996,223.434,234.542
2014-03-29 12:00,0.409608,294.043,285.433,262.89,285.618,281.146,257.9,0.17983,0.476974,229.178,247.481
2014-03-29 13:00,0.288118,288.152,275.565,256.664,274.467,271.283,251.422,0.183307,0.359893,228.136,243.336
2014-03-29 14:00,0.259526,286.121,270.746,254.099,269.021,264.795,247.279,0.236104,0.342838,225.739,240.706
2014-03-29 15:00,0.205328,256.062,235.538,233.513,235.672,233.474,228.782,0.396293,0.464794,225.739,233.146
2014-03-29 16:00,0.278693,266.466,229.072,230.743,228.293,224.756,221.415,0.395784,0.492375,220.916,225.011
2014-03-29 17:00,0.243278,294.38,282.682,261.944,282.517,277.548,255.532,0.144188,0.272892,229.093,246.929
2014-03-29 18:00,0.236317,294.713,285.321,263.307,285.757,281.146,258.147,0.153711,0.276495,232.557,249.303
2014-03-29 19:00,0.277604,290.939,282.331,261.305,283.23,279.511,257.9,0.265929,0.353903,234.615,250.849
2014-03-29 20:00,0.644509,281.165,265.995,250.806,268.358,266.329,251.553,1.08601,1.20793,236.274,250.544
2014-03-29 21:00,0.639795,276.155,259.871,247.332,260.888,258.774,246.319,0.579862,0.71869,233.085,247.481
2014-03-29 22:00,-0.0,259.045,244.815,238.963,242.283,237.815,229.781,-0.0,-0.0,222.15,231.695
2014-03-29 23:00,-0.022936,267.123,251.339,242.225,248.093,242.805,231.094,-0.0110971,-0.0198474,222.906,234.389
2014-03-30 00:00,-0.0,259.505,251.147,242.081,249.998,247.708,238.727,-0.0,-0.0,223.746,237.185
2014-03-30 01:00,-0.0,250.598,239.317,235.337,237.951,235.193,229.116,-0.0,-0.0,222.799,232.347
2014-03-30 02:00,-0.00132786,250.598,242.37,236.784,241.344,239.438,233.185,-0.0,-0.0,226.216,235.592
2014-03-30 03:00,-0.0,252.585,250.175,241.207,249.789,247.501,238.876,-0.0,-0.0,227.238,240.053
2014-03-30 04:00,-0.0,257.103,248.583,240.766,247.446,243.896,234.76,-0.0,-0.0,223.642,235.74
2014-03-30 05:00,-0.00260227,251.282,239.559,235.337,237.702,233.969,228.109,-0.0,-0.0,220.57,228.96
2014-03-30 06:00,-0.0,249.89,231.427,231.098,227.414,223.619,219.172,-0.0,-0.0,214.734,220.535
2014-03-30 07:00,-0.0,245.01,233.666,231.799,233.041,230.429,224.657,-0.0,-0.0,220.57,227.694
2014-03-30 08:00,-0.00291952,280.05,273.865,255.858,274.312,270.635,252.205,-0.0,-0.0,229.007,246.371
2014-03-30 09:00,-0.00712577,259.045,247.973,239.721,247.012,244.973,236.46,-0.0,-0.0,223.118,233.304
2014-03-30 10:00,0.696418,253.81,234.477,232.146,232.772,230.429,226.402,0.830332,1.11918,219.982,226.57
2014-03-30 11:00,0.43242,269.576,246.942,239.57,243.438,241.251,232.867,0.461508,0.61998,220.101,227.694
2014-03-30 12:00,0.397653,268.686,245.89,239.267,242.747,240.576,233.026,0.447083,0.530885,221.484,230.694
2014-03-30 13:00,0.323129,269.576,245.463,238.503,242.515,240.35,232.387,0.352354,0.444842,222.15,230.011
2014-03-30 14:00,0.398635,276.155,248.583,240.617,248.307,246.035,237.525,0.458235,0.515634,225.643,237.608
2014-03-30 15:00,0.447663,280.239,252.101,242.081,252.667,251.156,241.953,0.494913,0.553953,226.963,241.602
2014-03-30 16:00,0.391447,272.322,245.676,238.963,244.575,241.921,235.072,0.440123,0.506817,223.538,236.469
2014-03-30 17:00,0.374448,278.883,245.676,239.721,244.122,241.698,233.819,0.350358,0.435554,223.746,236.179
2014-03-30 18:00,0.290878,290.301,270.746,254.69,269.842,264.106,245.767,0.210342,0.333343,226.963,243.577
2014-03-30 19:00,0.275244,292.653,280.429,260.337,280.347,275.24,253.625,0.191618,0.316983,229.178,247.917
2014-03-30 20:00,0.302823,292.534,283.264,262.155,283.514,278.911,256.285,0.218213,0.367512,231.394,249.721
2014-03-30 21:00,0.730868,291.931,279.213,259.793,279.613,275.24,254.392,0.595325,0.728515,232.175,248.987
2014-03-30 22:00,-0.0,275.02,267.326,252.168,267.69,263.063,247.415,-0.0,-0.0,231.394,246.145
2014-03-30 23:00,-0.0390126,260.395,255.941,244.626,256.789,255.235,244.231,-0.0192686,-0.026257,232.02,245.345
2014-03-31 00:00,-0.0,282.923,275.436,257.459,274.778,269.657,248.903,-0.0,-0.0,231.156,245.575
2014-03-31 01:00,-0.0,282.408,275.951,257.91,275.703,270.798,250.501,-0.0,-0.0,230.184,245.804
2014-03-31 02:00,-0.0,271.261,261.34,249.029,259.791,255.235,239.322,-0.0,-0.0,226.685,240.446
2014-03-31 03:00,-0.0,250.598,236.576,234.681,233.041,229.647,224.657,-0.0,-0.0,217.096,226.57
2014-03-31 04:00,-0.00122141,248.394,227.219,230.207,221.838,217.922,215.274,-0.0,-0.0,212.126,217.164
2014-03-31 05:00,-0.0,230.231,213.479,223.076,211.028,210.219,211.146,-0.0,-0.0,209.569,210.353
2014-03-31 06:00,0.00149693,232.213,219.247,225.306,218.13,216.652,215.674,-0.0,-0.0,215.167,217.164
2014-03-31 07:00,-0.0,243.066,236.06,233.175,235.155,232.976,228.614,-0.0,-0.0,222.692,230.863
2014-03-31 08:00,-0.0,246.775,240.514,235.173,239.911,238.282,232.387,-0.0,-0.0,225.931,233.617
2014-03-31 09:00,-0.0,250.598,249.781,240.171,250.415,249.55,240.938,-0.0,-0.0,229.517,241.602
2014-03-31 10:00,0.473175,270.713,264.482,249.542,264.965,263.063,249.705,0.594885,0.694834,229.007,245.69
2014-03-31 11:00,0.721852,288.705,264.482,250.177,262.863,258.774,245.072,0.605017,0.750836,229.852,243.093
2014-03-31 12:00,0.490232,295.69,267.473,252.168,266.678,260.225,245.211,0.313615,0.461924,230.996,243.937
2014-03-31 13:00,0.309247,296.531,284.528,262.576,284.361,279.361,256.785,0.145466,0.350196,230.348,247.808
2014-03-31 15:00,0.320705,290.041,265.545,251.056,265.31,262.185,248.768,0.234611,0.335427,231.709,246.145
2014-03-31 16:00,0.290735,292.053,280.669,260.553,281.366,277.396,256.035,0.249404,0.345008,230.916,248.348
2014-03-31 17:00,0.238339,293.356,281.386,261.198,281.076,276.169,254.773,0.156829,0.276367,230.018,247.808
2014-03-31 18:00,0.246439,294.38,282.799,261.838,282.803,277.548,255.784,0.151144,0.285476,229.852,248.133
2014-03-31 19:00,0.2585,293.472,281.978,261.305,281.366,276.631,254.646,0.152862,0.300323,229.685,247.59
2014-03-31 20:00,0.328557,294.156,280.669,260.553,280.347,273.832,250.633,0.239628,0.433507,230.835,247.699
2014-03-31 21:00,1.12151,269.865,218.862,225.897,215.993,213.016,211.358,0.901295,1.19939,211.135,214.511
2014-03-31 22:00,-0.0,242.013,222.198,227.058,217.427,213.694,211.358,-0.0,-0.00958222,211.135,216.392
2014-03-31 23:00,-0.0548452,238.442,217.285,224.708,213.763,210.576,209.638,-0.0245845,-0.0455984,209.569,212.207
