# timestamp,IR_016,IR_039,IR_087,IR_097,IR_108,IR_120,IR_134,VIS006,VIS008,WV_062,WV_073
2016-08-01 00:00,-0.224805,289.247,287.432,257.006,290.234,288.027,261.66,-0.0539776,-0.115171,229.517,251.85
2016-08-01 01:00,-0.00233237,286.864,286.105,256.664,289.032,287.048,261.182,0.0,-0.00235467,229.852,251.751
2016-08-01 02:00,0.0,290.041,288.412,258.022,291.292,288.999,262.255,0.0,0.0,229.852,251.452
2016-08-01 03:00,-0.00174516,289.779,288.195,257.91,290.897,288.167,261.66,0.0,0.0,228.835,250.34
2016-08-01 04:00,0.0,288.841,286.772,257.233,289.3,286.767,260.822,0.0,0.0,229.935,250.646
2016-08-01 05:00,0.0,289.113,287.432,257.572,290.101,287.329,261.182,0.0,0.0,229.769,250.95
2016-08-01 06:00,0.0,289.247,287.322,257.91,289.835,287.048,260.822,0.0,0.0,230.184,251.252
2016-08-01 07:00,0.0,275.02,269.343,247.991,269.842,266.835,248.634,0.0,0.0,227.42,244.647
2016-08-01 08:00,-0.00603868,288.152,285.77,256.778,288.222,285.35,259.977,0.0,0.0,230.266,251.051
2016-08-01 09:00,1.54517,289.113,286.772,257.459,289.3,286.626,260.34,2.21404,1.91993,230.184,251.552
2016-08-01 10:00,0.0474797,290.558,287.978,258.022,290.632,288.027,261.301,0.192071,0.122497,230.755,251.949
2016-08-01 11:00,0.161433,292.534,285.658,256.892,288.087,285.635,260.581,0.206186,0.160214,230.43,251.751
2016-08-01 12:00,0.10111,292.889,287.76,257.798,290.632,288.027,261.898,0.145375,0.111707,231.236,252.731
2016-08-01 13:00,0.13591,294.043,285.433,256.32,288.222,285.919,260.581,0.146106,0.127959,232.097,253.213
2016-08-01 14:00,0.0801538,292.414,286.105,256.549,288.763,286.485,261.66,0.10293,0.0836174,231.315,253.88
2016-08-01 15:00,0.00876176,290.558,288.52,258.134,290.897,288.167,261.898,0.0392124,0.0202183,231.156,253.88
2016-08-01 16:00,0.0186916,291.315,288.628,257.798,291.423,288.999,262.255,0.042203,0.0251604,231.552,254.256
2016-08-01 17:00,0.0210795,291.44,288.951,257.798,291.817,289.413,262.373,0.04462,0.0279314,232.481,254.443
2016-08-01 18:00,0.0342533,292.771,288.843,257.459,291.686,289.137,261.779,0.0630483,0.0436018,232.709,253.785
2016-08-01 19:00,0.586325,291.19,276.591,251.305,280.201,279.511,258.515,0.622102,0.67702,233.159,253.595
2016-08-01 20:00,0.243277,290.171,284.071,254.69,286.722,285.35,261.182,0.31873,0.297308,235.247,254.349
2016-08-01 21:00,1.72038,308.769,287.102,255.858,289.434,287.048,260.461,1.18646,1.28861,233.75,253.405
2016-08-01 22:00,0.373223,281.165,279.945,251.922,282.517,281.146,259.249,0.510474,0.579679,234.615,253.595
2016-08-01 23:00,-0.466965,290.041,287.76,255.742,289.968,287.188,261.54,-0.119812,-0.25,234.257,253.785
2016-08-02 00:00,-0.18978,286.271,284.642,254.454,287.543,285.635,260.822,-0.0507432,-0.104201,233.234,252.828
2016-08-02 01:00,-0.00231883,289.91,287.76,256.205,290.367,287.748,261.182,0.0,0.0,233.085,252.537
2016-08-02 02:00,-0.00190416,282.408,281.742,252.777,284.361,282.904,258.882,0.0,0.0,233.159,252.731
2016-08-02 03:00,0.0,289.113,287.322,255.742,290.234,287.609,260.822,0.0,0.0,232.709,252.634
2016-08-02 04:00,0.0,289.514,287.76,255.974,290.101,287.469,261.182,0.0,0.0,232.405,252.146
2016-08-02 05:00,0.0,288.977,286.661,254.926,289.568,286.767,260.701,0.0,0.0,232.02,252.146
2016-08-02 06:00,0.0,290.041,287.102,255.51,289.166,286.202,260.34,0.0,0.0,230.835,251.751
2016-08-02 07:00,-0.00309865,279.081,279.091,251.305,281.366,280.406,258.392,0.0,0.0,230.996,251.652
2016-08-02 08:00,-0.00597305,290.171,287.869,255.393,289.835,287.329,260.701,0.0,0.0,231.156,252.047
2016-08-02 09:00,0.144989,290.171,287.869,255.51,289.3,286.485,260.581,1.84142,1.171,231.076,252.342
2016-08-02 10:00,0.143356,288.012,283.726,253.501,285.061,282.028,257.9,0.26074,0.214409,230.101,249.408
2016-08-02 11:00,0.0384038,290.041,286.772,254.926,288.763,285.777,260.219,0.127743,0.0747725,231.076,251.352
2016-08-02 12:00,0.267432,280.799,271.023,247.067,273.529,272.086,253.24,0.475513,0.507194,230.674,247.917
2016-08-02 13:00,0.0687705,291.315,286.217,254.572,288.087,284.779,259.735,0.120338,0.0894849,231.156,250.544
2016-08-02 14:00,0.0695019,288.705,282.448,252.777,283.938,280.85,256.535,0.0984558,0.0836598,231.709,249.825
2016-08-02 15:00,0.151518,271.531,257.854,239.57,259.236,256.18,242.241,0.282026,0.285706,228.312,235.444
2016-08-02 16:00,0.0349076,288.705,284.755,253.741,286.033,283.194,258.27,0.0738905,0.0566378,232.097,248.882
2016-08-02 17:00,0.0395503,289.247,283.032,253.14,284.921,281.293,256.66,0.0658581,0.050576,231.156,248.987
2016-08-02 18:00,0.0477059,292.294,287.432,255.277,289.968,287.048,260.34,0.075736,0.0556873,232.175,250.544
2016-08-02 19:00,0.150505,296.219,287.541,255.277,289.835,287.048,259.977,0.163175,0.138973,231.394,250.544
2016-08-02 20:00,0.31854,296.635,286.105,254.69,288.763,286.485,260.461,0.330609,0.306025,231.63,251.152
2016-08-02 21:00,0.749892,295.151,285.433,254.336,287.679,285.635,260.219,0.6862,0.728847,232.328,252.342
2016-08-02 22:00,0.242494,290.301,288.843,255.974,291.423,288.861,262.017,0.410638,0.459022,232.784,253.213
2016-08-02 23:00,-0.369427,289.381,288.195,255.742,290.897,288.584,261.779,-0.112133,-0.246293,233.159,253.595
2016-08-03 00:00,-0.231235,290.171,288.52,255.51,291.029,288.445,261.779,-0.0587358,-0.123392,233.75,254.068
2016-08-03 01:00,0.0,285.202,284.185,254.217,287.134,285.635,261.062,0.0,0.0,234.041,253.88
2016-08-03 02:00,-0.00189449,287.871,286.772,255.393,289.434,287.609,261.66,0.0,0.0,233.968,253.5
2016-08-03 03:00,0.0,288.152,287.102,256.089,289.835,287.609,261.54,0.0,0.0,234.113,253.785
2016-08-03 04:00,0.0,288.705,287.432,256.205,289.968,287.888,261.66,0.0,0.0,235.178,254.443
2016-08-03 05:00,0.0,288.43,287.432,256.434,289.968,288.167,262.017,0.0,0.0,234.686,254.722
2016-08-03 06:00,0.0,286.569,286.328,255.742,288.897,287.329,261.898,0.0,0.0,234.897,256.001
2016-08-03 07:00,-0.00307848,290.558,289.486,257.572,291.817,289.964,262.965,0.0,0.0,233.823,256.091
2016-08-03 08:00,0.0,288.568,288.087,257.006,290.897,289.137,262.728,0.0,0.0,233.234,255.639
2016-08-03 09:00,1.30097,290.301,289.379,257.91,292.079,290.101,262.728,2.98986,2.81443,232.935,255.548
2016-08-03 10:00,0.0320627,290.939,289.805,258.134,292.6,290.511,262.965,0.180983,0.0917127,232.251,255.091
2016-08-03 11:00,0.0220008,290.939,290.017,258.134,292.47,290.511,263.67,0.10944,0.0610806,231.943,255.366
2016-08-03 12:00,0.0114764,290.813,289.911,258.358,292.73,290.784,263.905,0.0744971,0.0386202,231.394,254.907
2016-08-03 13:00,0.12847,292.771,288.412,257.459,291.16,289.964,263.2,0.151508,0.12661,231.236,254.999
2016-08-03 14:00,0.00802361,291.315,290.229,258.469,292.989,291.057,263.787,0.047555,0.0243009,232.175,255.73
2016-08-03 15:00,0.011275,291.44,290.229,258.469,293.248,291.464,263.67,0.0413681,0.0240302,232.097,255.911
2016-08-03 16:00,0.00997865,291.563,290.651,258.802,293.892,292.006,264.022,0.036964,0.0201481,232.481,255.73
2016-08-03 17:00,0.0197891,292.053,290.44,258.802,293.635,292.006,263.67,0.043564,0.0279696,231.943,255.091
2016-08-03 18:00,0.0447733,293.702,290.651,258.913,294.021,292.141,264.255,0.068237,0.0512281,232.709,254.722
2016-08-03 19:00,0.161811,297.449,290.229,258.58,293.764,292.276,264.022,0.163472,0.150363,233.159,254.349
2016-08-03 20:00,0.538668,302.764,289.699,258.58,293.119,291.464,263.553,0.458272,0.465758,233.308,254.349
2016-08-03 21:00,1.43593,306.475,290.229,258.802,293.248,291.871,263.905,1.00919,1.10382,234.257,255.091
2016-08-03 22:00,0.67557,291.44,290.545,259.024,293.506,291.735,264.721,0.544766,0.682028,234.756,255.548
2016-08-03 23:00,-0.350136,289.91,289.699,258.469,292.86,291.329,263.905,-0.104633,-0.228724,234.968,255.911
2016-08-04 00:00,-0.163848,290.939,289.805,259.024,292.6,290.921,264.255,-0.0527172,-0.112481,235.178,256.001
2016-08-04 01:00,-0.00458254,283.924,285.095,256.32,289.032,288.306,263.083,0.0,-0.00231317,235.662,256.181
2016-08-04 02:00,0.0,286.569,286.992,257.12,290.367,289.276,263.083,0.0,0.0,235.867,256.539
2016-08-04 03:00,-0.00172067,289.514,288.951,258.246,291.817,290.511,263.553,0.0,0.0,235.593,256.894
2016-08-04 04:00,0.0,286.717,286.882,257.233,290.101,288.861,263.787,0.0,0.0,236.004,257.333
2016-08-04 05:00,0.00184808,289.779,289.165,258.358,292.079,290.648,263.905,0.0,0.0,236.542,258.286
2016-08-04 06:00,0.00220668,282.923,284.071,255.974,287.679,287.469,263.2,0.0,0.0,238.546,259.721
2016-08-04 07:00,0.0,284.73,285.095,256.549,288.493,287.748,263.2,0.0,0.0,238.483,259.387
2016-08-04 08:00,0.0,289.514,290.017,259.244,292.47,291.329,264.255,0.0,0.0,238.294,259.554
2016-08-04 09:00,6.21021,288.705,288.736,258.358,291.686,290.648,264.255,5.69636,6.79204,238.294,259.804
2016-08-04 10:00,0.360356,292.174,289.699,258.913,292.209,291.057,264.488,0.44173,0.39095,237.721,259.638
2016-08-04 11:00,0.242623,292.771,289.058,258.802,291.686,290.648,264.372,0.296471,0.278344,237.268,259.554
2016-08-04 12:00,0.141726,293.007,289.805,259.024,292.34,291.193,264.953,0.184864,0.162416,237.072,259.471
2016-08-04 13:00,0.00765287,291.44,291.279,259.683,293.892,292.276,265.069,0.0570211,0.0293589,237.006,259.471
2016-08-04 14:00,0.0334494,291.315,288.736,258.691,290.632,288.584,262.136,0.0679718,0.0513291,235.178,257.595
2016-08-04 15:00,0.0451208,291.686,290.123,259.574,293.119,291.329,264.488,0.0700402,0.0544095,235.038,258.114
2016-08-04 16:00,0.00998401,292.294,291.279,260.553,294.149,292.545,264.605,0.0369838,0.0201589,235.038,257.595
2016-08-04 17:00,0.0224445,292.414,290.756,260.228,293.377,291.871,264.837,0.049186,0.034655,234.615,257.508
2016-08-04 18:00,0.0806853,293.356,290.229,259.683,293.119,291.193,264.605,0.0974137,0.085982,233.159,256.982
2016-08-04 19:00,0.193439,294.823,289.486,259.354,292.47,290.784,264.721,0.21526,0.208307,232.02,256.45
2016-08-04 20:00,0.292251,299.579,291.279,260.337,294.021,292.276,264.488,0.280295,0.263712,232.481,256.894
2016-08-04 21:00,1.72149,309.789,290.756,260.119,293.377,291.735,264.138,1.1973,1.30346,233.085,257.421
2016-08-04 22:00,0.240428,291.686,291.07,260.337,293.892,292.141,264.488,0.348977,0.381427,233.159,257.682
2016-08-04 23:00,-0.500288,291.686,290.86,260.553,293.635,292.006,264.022,-0.137381,-0.273011,232.709,257.682
2016-08-05 00:00,-0.191768,291.315,290.335,259.793,292.86,291.193,263.787,-0.0550406,-0.114848,232.709,257.508
2016-08-05 01:00,-0.00455456,287.01,282.682,255.51,284.079,281.293,256.909,0.0,-0.00229905,230.101,252.342
2016-08-05 02:00,-0.00187488,289.514,287.541,258.469,289.3,287.048,260.822,0.0,0.0,230.348,254.814
2016-08-05 03:00,0.00171239,288.977,286.439,257.798,288.222,286.06,260.581,0.0,0.0,230.835,253.974
2016-08-05 04:00,-0.0017021,290.939,290.123,260.119,292.6,290.375,263.318,0.0,0.0,231.156,256.001
2016-08-05 05:00,0.0,290.939,289.911,259.793,292.34,289.964,263.083,0.0,0.0,231.315,255.183
2016-08-05 06:00,0.0,290.813,290.123,260.228,292.73,290.511,262.965,0.0,0.0,231.156,254.629
2016-08-05 07:00,-0.00303863,290.939,290.123,260.119,292.86,290.784,263.67,0.0,0.0,230.835,254.722
2016-08-05 08:00,0.0,290.939,290.229,260.445,293.119,291.057,263.787,0.0,0.0,230.593,254.629
2016-08-05 09:00,0.425575,290.813,289.699,259.793,292.209,290.101,263.083,4.68433,3.0075,230.674,255.091
2016-08-05 10:00,0.0216538,291.315,290.017,259.902,292.6,290.238,262.965,0.187926,0.0983736,231.076,255.639
2016-08-05 11:00,0.0442252,292.053,289.699,259.683,292.209,290.101,263.318,0.128718,0.0781339,231.236,255.821
2016-08-05 12:00,0.059449,285.512,277.224,252.777,276.923,273.675,252.075,0.121779,0.0929301,227.87,247.481
2016-08-05 13:00,0.0245081,291.931,289.058,259.464,291.423,289.137,262.373,0.0700345,0.0402064,231.076,256.181
2016-08-05 14:00,0.0227579,292.653,290.017,259.683,292.6,290.375,263.318,0.0555404,0.035139,232.328,256.716
2016-08-05 15:00,0.0326031,292.653,288.843,259.024,290.897,288.584,261.898,0.0573335,0.0392446,231.709,255.639
2016-08-05 16:00,0.0149845,293.24,290.756,260.011,293.377,290.921,263.553,0.0401767,0.0239523,232.784,256.716
2016-08-05 17:00,0.0105705,293.24,290.651,260.119,292.73,289.689,262.728,0.0380376,0.0213431,231.865,255.821
2016-08-05 18:00,0.02244,293.587,291.174,260.337,293.506,291.193,263.67,0.0519331,0.0332267,232.097,256.894
2016-08-05 19:00,0.094145,295.26,290.545,260.337,293.506,290.921,263.553,0.118787,0.0969086,231.394,256.36
2016-08-05 20:00,0.179101,295.902,290.965,260.337,293.506,291.464,263.553,0.210983,0.178192,231.709,256.539
2016-08-05 21:00,0.467275,296.008,290.756,260.011,293.377,291.193,263.67,0.464272,0.438046,231.076,256.181
2016-08-05 22:00,0.369267,291.315,290.44,260.228,293.248,291.464,264.488,0.500252,0.596474,231.076,256.091
2016-08-05 23:00,-0.372747,291.315,290.651,259.902,293.248,291.193,264.022,-0.118352,-0.248634,230.674,256.001
2016-08-06 00:00,-0.209524,291.809,291.174,260.119,294.021,292.141,264.255,-0.0627737,-0.130171,231.236,256.271
2016-08-06 01:00,0.0,291.563,291.174,260.011,294.021,292.141,264.372,-0.00191622,-0.0022848,230.674,256.628
2016-08-06 02:00,-0.00372991,291.44,291.07,259.793,294.021,292.141,264.605,0.0,0.0,230.348,256.716
2016-08-06 03:00,0.0,291.563,291.07,259.354,293.764,292.006,264.721,0.0,0.0,230.43,256.982
2016-08-06 04:00,-0.00169407,291.686,291.07,259.574,293.635,291.6,264.022,0.0,0.0,231.236,257.246
2016-08-06 05:00,0.00183034,290.813,290.123,259.024,292.6,290.784,263.905,0.0,0.0,230.835,256.628
2016-08-06 06:00,0.0,290.429,289.805,258.58,292.079,290.238,263.2,0.0,0.0,232.328,257.07
2016-08-06 07:00,0.0,290.939,290.123,258.691,292.47,290.511,263.787,0.0,0.0,233.382,257.595
2016-08-06 08:00,0.0,291.065,290.335,259.024,292.86,290.921,263.553,0.0,0.0,234.329,258.028
2016-08-06 09:00,2.3901,291.065,290.545,258.691,292.989,291.464,263.318,16.1895,10.8582,234.041,258.028
2016-08-06 10:00,0.163464,291.686,289.486,258.469,291.948,290.101,262.965,0.267582,0.181529,233.234,256.982
2016-08-06 11:00,0.146867,292.771,289.165,258.358,291.686,289.826,263.2,0.213509,0.170651,232.935,257.07
2016-08-06 12:00,0.0499253,292.534,289.911,258.691,292.34,290.511,263.905,0.105679,0.0756039,233.382,257.333
2016-08-06 13:00,0.027593,292.294,290.229,258.913,292.86,291.057,264.022,0.0700889,0.0448804,232.709,257.682
2016-08-06 14:00,0.00535778,291.563,290.545,259.244,293.248,291.193,263.787,0.043096,0.021636,232.175,257.421
2016-08-06 15:00,0.0100368,292.053,290.335,259.354,292.73,290.784,263.787,0.0382418,0.0202656,231.63,257.158
2016-08-06 16:00,0.00499785,291.686,290.545,259.574,292.86,290.511,263.2,0.0327955,0.0163983,231.552,256.805
2016-08-06 17:00,0.00925699,292.174,290.229,259.464,292.47,290.375,263.318,0.0347106,0.0213611,231.473,255.639
2016-08-06 18:00,0.022469,292.771,290.017,259.134,292.47,290.238,263.318,0.0532685,0.0332696,231.394,254.162
2016-08-06 19:00,0.116542,296.427,289.699,259.354,292.47,289.964,262.61,0.137833,0.113921,230.755,253.117
2016-08-06 20:00,0.453356,302.341,289.272,258.802,291.817,289.551,262.373,0.40371,0.378778,230.674,253.117
2016-08-06 21:00,1.49077,304.794,288.951,258.802,291.555,289.276,262.492,1.0505,1.09721,230.266,252.634
2016-08-06 22:00,0.320218,290.301,288.951,258.913,291.423,288.861,262.492,0.508366,0.606149,230.593,252.925
2016-08-06 23:00,-0.517624,290.429,288.736,258.691,291.292,288.861,262.492,-0.149789,-0.284438,230.916,252.634
2016-08-07 00:00,-0.188588,290.939,288.843,258.246,291.292,288.584,262.136,-0.0595408,-0.125852,230.674,252.537
2016-08-07 01:00,-0.00449787,290.429,288.951,258.469,291.686,289.276,262.61,0.0,0.0,231.63,252.925
2016-08-07 02:00,-0.00185497,290.041,287.76,257.685,290.234,287.888,261.898,0.0,0.0,230.266,252.146
2016-08-07 03:00,-0.0016957,278.883,269.767,247.991,268.855,266.329,246.732,0.0,0.0,224.56,239.922
2016-08-07 04:00,-0.00168603,254.966,243.273,234.183,243.438,241.475,234.291,0.0,0.0,226.871,234.694
2016-08-07 05:00,0.0,285.665,278.721,252.656,279.318,275.396,252.723,0.0,0.0,227.87,247.151
2016-08-07 06:00,0.0,235.601,227.845,228.192,228.001,226.974,223.77,0.0,0.0,220.801,223.999
2016-08-07 07:00,0.00299948,287.587,281.505,254.099,282.946,279.061,254.9,0.0,0.0,229.007,248.987
2016-08-07 08:00,0.0,275.02,270.329,248.642,271.464,269.165,252.075,0.0,0.0,229.769,246.032
2016-08-07 09:00,-5.93755,289.514,285.658,256.434,286.86,283.773,259.005,-16.3388,-11.9886,229.093,248.241
2016-08-07 10:00,0.329068,281.346,277.35,252.045,278.873,276.631,256.535,0.506162,0.492784,229.178,248.348
2016-08-07 11:00,0.300031,290.558,283.032,255.277,284.921,282.321,258.638,0.362236,0.33375,229.517,248.455
2016-08-07 12:00,0.038454,291.065,286.328,257.12,287.951,284.636,259.977,0.100933,0.0621146,231.156,249.928
2016-08-07 13:00,0.0567635,290.813,284.755,256.205,286.033,282.758,258.147,0.098721,0.0712454,230.018,248.882
2016-08-07 14:00,0.160825,289.647,282.566,254.926,284.22,281.293,257.53,0.196312,0.185364,230.266,248.669
2016-08-07 15:00,0.0288713,291.065,284.869,256.205,286.447,282.175,258.515,0.0542047,0.0380182,230.755,249.513
2016-08-07 16:00,0.0512605,290.685,283.495,254.926,284.641,280.998,257.282,0.07516,0.0580616,230.755,249.303
2016-08-07 17:00,0.050297,291.809,285.321,256.549,287.134,283.917,258.882,0.0739659,0.0561229,230.755,249.825
2016-08-07 18:00,0.0809984,293.007,285.77,256.32,287.543,284.492,259.37,0.104142,0.0878299,230.511,249.617
2016-08-07 19:00,0.161295,296.323,287.322,257.233,289.434,286.202,261.062,0.174242,0.14412,230.996,250.032
2016-08-07 20:00,0.457764,301.478,286.882,257.233,288.897,285.493,260.098,0.407521,0.372353,230.835,249.408
2016-08-07 21:00,0.693823,297.749,285.433,256.549,287.407,284.061,259.005,0.575134,0.597591,231.156,248.882
2016-08-07 22:00,1.13925,288.841,282.916,255.043,284.501,280.257,257.158,0.630703,1.01744,230.916,248.987
2016-08-07 23:00,-0.554597,268.073,261.982,244.765,264.965,262.888,249.438,-0.158346,-0.305991,231.076,247.481
2016-08-08 00:00,-0.183815,285.357,279.458,253.381,281.366,277.853,257.034,-0.0617177,-0.13118,230.511,249.303
2016-08-08 01:00,-0.00223462,281.705,276.718,251.429,278.278,274.773,255.406,0.0,0.0,231.315,249.198
2016-08-08 02:00,-0.00184492,271.531,266.293,246.265,268.524,265.99,250.765,0.0,-0.00186256,231.076,247.808
2016-08-08 03:00,0.0,289.514,285.994,256.549,287.134,283.484,258.882,0.0,0.0,229.935,248.987
2016-08-08 04:00,-0.00167797,286.717,281.624,254.69,282.517,278.76,256.035,0.0,0.0,230.101,248.025
2016-08-08 05:00,0.0,227.984,225.282,225.897,225.003,224.474,222.692,0.0,0.0,219.137,221.213
2016-08-08 06:00,0.0,235.601,235.538,230.921,235.414,234.216,230.276,0.0,0.0,224.56,230.694
2016-08-08 07:00,0.0,274.073,269.908,248.121,270.981,268.007,249.971,0.0,0.0,228.136,245.345
2016-08-08 08:00,0.0,278.075,272.931,249.669,274.0,271.605,254.009,0.0,0.0,229.685,247.261
2016-08-08 09:00,-15.1306,274.551,269.201,247.728,270.006,268.835,252.075,-25.2338,-37.9566,230.348,246.483
2016-08-08 10:00,0.0607251,288.43,282.916,255.393,284.079,280.257,257.9,0.215012,0.133758,230.593,249.198
2016-08-08 11:00,0.108618,292.653,285.658,256.892,287.27,283.773,259.614,0.167426,0.115279,231.552,250.238
2016-08-08 12:00,0.019252,291.19,287.322,257.685,289.166,285.777,260.701,0.0798731,0.0427593,232.405,251.352
2016-08-08 13:00,0.0276365,291.686,287.651,257.346,289.3,286.485,260.822,0.0727993,0.041851,232.633,251.949
2016-08-08 14:00,0.0160919,291.563,287.76,257.798,289.568,286.485,260.581,0.052229,0.0257224,232.633,251.949
2016-08-08 15:00,0.042703,290.685,287.212,257.12,288.763,286.06,260.701,0.0914549,0.0659348,232.481,252.047
2016-08-08 16:00,0.0963344,290.685,285.994,256.664,288.222,285.635,260.942,0.134531,0.11999,232.709,252.047
2016-08-08 17:00,0.0596183,292.414,287.651,257.459,289.835,286.767,260.701,0.0830094,0.0655383,232.935,252.047
2016-08-08 18:00,0.111156,292.174,286.105,256.778,287.951,285.065,259.735,0.136087,0.119801,231.787,251.051
2016-08-08 19:00,0.170959,290.301,281.386,254.217,282.946,279.81,256.16,0.215553,0.19323,230.266,248.775
2016-08-08 20:00,0.294177,295.26,284.528,255.858,285.757,282.321,257.653,0.300229,0.273124,230.835,249.928
2016-08-08 21:00,0.558273,295.583,287.102,257.346,288.897,285.777,260.822,0.50586,0.454843,232.328,251.051
2016-08-08 22:00,0.485482,290.813,287.102,257.006,288.763,285.493,260.461,0.534373,0.735184,232.557,251.652
2016-08-08 23:00,-0.501344,290.558,287.541,257.459,289.3,286.202,260.701,-0.155824,-0.301119,232.405,251.652
2016-08-09 00:00,-0.194799,291.065,288.195,257.572,290.101,287.188,260.822,-0.0691667,-0.149082,232.633,252.146
2016-08-09 01:00,-0.00222021,290.939,288.303,258.134,290.367,287.188,261.54,0.0,0.0,232.481,251.751
2016-08-09 02:00,0.0,290.685,288.087,257.798,290.367,287.329,261.421,0.0,0.0,233.01,252.047
2016-08-09 03:00,0.0,290.558,287.869,257.459,289.835,286.485,260.942,0.0,0.0,233.159,252.146
2016-08-09 04:00,-0.00166991,290.301,287.869,257.685,289.968,286.626,261.182,0.0,0.0,233.53,252.342
2016-08-09 05:00,0.0,290.429,287.978,257.685,290.101,286.907,260.942,0.0,0.0,234.257,252.439
2016-08-09 06:00,0.0,287.729,285.546,256.892,287.679,284.922,260.098,0.0,0.0,234.897,252.925
2016-08-09 07:00,0.0,282.753,279.458,253.621,280.785,278.609,257.9,0.0,0.0,234.827,251.152
2016-08-09 08:00,0.00554769,264.739,259.206,241.936,259.791,258.591,247.006,0.0,0.0,231.473,243.336
2016-08-09 09:00,-4.07095,288.705,285.095,256.664,286.86,283.484,259.735,-3.90645,-3.56189,233.677,251.85
2016-08-09 10:00,0.127806,0.0,286.772,257.346,288.222,284.922,260.581,0.244656,0.151468,234.257,252.634
2016-08-09 11:00,0.0474653,291.315,286.772,257.685,288.087,284.922,259.735,0.120566,0.0676504,233.53,252.731
2016-08-09 12:00,0.038554,291.563,286.772,257.572,288.222,285.065,260.581,0.106092,0.0661684,232.935,252.244
2016-08-09 13:00,0.147512,290.939,281.742,254.572,282.66,279.361,256.285,0.225077,0.204768,232.709,251.552
2016-08-09 14:00,0.138205,290.041,284.755,256.549,286.447,283.629,259.735,0.197681,0.184229,232.175,251.051
2016-08-09 15:00,0.0339309,291.686,286.772,257.685,288.358,285.208,259.977,0.0585226,0.0393302,232.481,251.452
2016-08-09 16:00,0.118938,285.665,280.549,254.454,282.517,280.406,258.27,0.195049,0.182009,232.097,250.95
2016-08-09 17:00,0.0106093,291.686,286.992,258.022,288.222,284.779,259.856,0.040423,0.0227603,232.251,251.051
2016-08-09 18:00,0.0135393,291.686,286.992,258.134,288.222,284.349,259.37,0.0458548,0.0243,232.175,250.748
2016-08-09 19:00,0.0949998,294.602,286.772,258.134,288.087,284.349,259.856,0.124597,0.0940274,232.328,250.544
2016-08-09 20:00,0.31918,297.349,286.439,257.685,287.815,284.205,260.098,0.319385,0.274296,232.097,250.748
2016-08-09 21:00,0.613142,295.796,286.772,258.022,287.951,284.349,260.219,0.561013,0.489213,232.02,250.748
2016-08-09 22:00,0.218436,290.685,286.882,258.134,288.222,284.779,260.701,0.554849,0.606442,232.557,251.552
2016-08-09 23:00,-0.549497,290.813,286.992,258.022,288.628,285.065,259.977,-0.169185,-0.340415,232.633,251.252
2016-08-10 00:00,-0.205558,290.813,286.882,257.798,288.087,284.922,259.977,-0.0712005,-0.150926,232.784,251.452
2016-08-10 01:00,-0.00220574,290.558,286.882,257.91,288.358,285.208,260.219,0.0,-0.00222683,232.709,251.652
2016-08-10 02:00,-0.0018247,290.171,286.661,257.572,288.087,284.492,260.34,0.0,-0.00184214,232.633,251.751
2016-08-10 03:00,0.00167044,289.647,285.994,257.233,287.679,284.636,260.219,0.0,0.0,232.86,251.452
2016-08-10 04:00,-0.00166185,288.977,285.994,257.12,287.679,284.779,260.461,0.0,0.0,232.935,251.85
2016-08-10 05:00,0.0,290.301,287.432,258.022,289.166,286.06,260.581,0.0,0.0,233.677,251.949
2016-08-10 06:00,0.0,291.315,288.087,258.358,289.835,286.626,260.701,0.0,0.0,233.085,252.244
2016-08-10 07:00,0.0,290.685,287.651,257.91,289.701,286.485,261.182,0.0,0.00297033,233.159,252.439
2016-08-10 08:00,0.0,290.171,287.651,258.022,289.568,286.626,260.581,0.0,0.0,233.234,252.439
2016-08-10 09:00,-0.578702,291.065,288.195,258.358,290.234,287.188,261.421,-2.44993,-1.94745,233.159,252.828
2016-08-10 10:00,0.0167803,291.19,288.303,258.022,290.234,287.188,261.421,0.179966,0.0903504,233.677,253.309
2016-08-10 11:00,0.109164,290.558,287.432,257.459,289.3,286.626,261.182,0.201448,0.166725,233.603,253.405
2016-08-10 12:00,0.108092,292.294,287.102,257.346,289.434,286.767,262.136,0.166699,0.142252,234.401,253.88
2016-08-10 13:00,0.147631,290.429,285.321,256.434,287.543,285.493,261.182,0.225259,0.225116,233.968,253.5
2016-08-10 14:00,0.0308803,291.563,288.195,257.91,290.367,287.609,261.898,0.0704814,0.0447301,233.968,253.69
2016-08-10 15:00,0.0905375,291.809,286.882,257.572,289.3,286.767,261.421,0.106469,0.0875945,234.257,253.213
2016-08-10 16:00,0.0087704,291.931,288.412,258.358,290.632,287.469,261.779,0.0360686,0.0189734,233.896,252.925
2016-08-10 17:00,0.0278785,291.563,286.217,257.233,288.493,284.922,260.219,0.0573256,0.0402071,234.041,253.309
2016-08-10 18:00,0.0376682,292.889,287.978,258.358,290.101,286.907,261.182,0.0663388,0.045634,234.113,253.117
2016-08-10 19:00,0.169937,294.823,287.76,257.798,289.835,287.469,261.301,0.184995,0.16025,234.543,253.69
2016-08-10 20:00,0.328554,299.672,289.272,258.58,291.686,289.137,262.61,0.316324,0.283545,235.178,254.999
2016-08-10 21:00,1.27865,302.171,288.412,258.134,290.764,288.584,263.083,0.938843,0.968154,235.867,255.457
2016-08-10 22:00,1.06489,290.301,288.843,257.91,291.423,289.137,263.083,0.68949,0.948591,236.004,256.091
2016-08-10 23:00,-0.503758,291.315,289.593,258.134,291.948,289.689,262.847,-0.161249,-0.32251,235.799,256.539
2016-08-11 00:00,-0.237703,291.809,290.229,258.691,292.6,290.648,263.553,-0.0862554,-0.168294,236.207,256.716
2016-08-11 01:00,-0.00219121,291.315,289.911,258.58,292.6,290.511,263.787,0.0,0.0,236.542,256.539
2016-08-11 02:00,-0.00181453,289.647,288.951,257.91,291.817,289.689,263.083,0.0,0.0,236.408,256.45
2016-08-11 03:00,0.0,289.779,288.736,257.798,291.423,289.826,263.436,0.0,0.0,236.542,256.628
2016-08-11 04:00,0.00165379,290.041,289.379,257.798,292.34,290.784,263.787,0.0,0.0,236.94,256.628
2016-08-11 05:00,0.0,291.315,290.017,258.358,292.6,290.921,263.318,0.0,0.0,236.808,256.628
2016-08-11 06:00,0.0,290.813,289.486,258.022,291.948,289.964,263.083,0.0,0.0,236.675,256.628
2016-08-11 07:00,0.00292353,290.171,289.058,257.572,291.423,289.551,262.847,0.0,0.0,237.268,256.982
2016-08-11 08:00,0.00543694,287.729,286.661,256.434,289.166,287.748,262.728,0.0,0.0,238.608,257.508
2016-08-11 09:00,-1.49731,288.568,287.541,257.459,290.234,288.584,262.61,-2.15522,-1.96512,237.977,257.595
2016-08-11 10:00,0.163281,292.053,290.017,258.358,292.47,290.648,263.436,0.281267,0.204631,238.294,258.028
2016-08-11 12:00,0.23386,293.472,287.978,257.572,290.764,289.137,263.318,0.289649,0.280973,237.785,257.855
2016-08-11 13:00,0.075415,293.124,289.805,257.91,292.209,290.375,263.67,0.114676,0.0870125,237.006,257.682
2016-08-11 14:00,0.116882,292.053,287.651,257.12,289.968,288.445,262.847,0.16494,0.147839,236.609,257.942
2016-08-11 15:00,0.295692,283.093,280.429,253.02,283.514,283.194,261.301,0.512443,0.534793,236.475,257.855
2016-08-11 16:00,0.318489,285.512,281.505,253.741,284.781,284.492,261.421,0.407681,0.427868,236.341,258.028
2016-08-11 17:00,0.308328,289.247,281.267,253.741,284.921,284.349,261.421,0.308322,0.320667,235.799,257.942
2016-08-11 18:00,0.137338,296.008,287.102,256.778,290.101,288.722,263.2,0.135451,0.126462,236.071,257.595
2016-08-11 19:00,0.129192,297.045,290.756,258.58,293.377,291.6,264.255,0.149019,0.128536,236.207,257.595
2016-08-11 20:00,0.463174,303.098,290.756,258.469,293.377,291.735,264.022,0.394422,0.384293,236.808,257.595
2016-08-11 21:00,1.42334,306.918,290.651,258.802,293.764,291.871,264.022,0.953001,1.04459,236.274,257.421
2016-08-11 22:00,0.368865,290.939,290.123,258.691,293.119,291.329,263.905,0.624635,0.819261,236.675,257.769
2016-08-11 23:00,-0.477439,290.429,289.805,258.134,292.73,291.057,263.67,-0.173979,-0.353875,235.867,257.682
2016-08-12 00:00,-0.296776,291.44,290.651,258.469,293.506,291.464,263.905,-0.0932584,-0.17915,235.593,257.421
2016-08-12 01:00,0.0,289.647,288.195,257.346,291.16,289.276,263.436,0.0,0.0,235.525,257.682
2016-08-12 02:00,0.0,290.939,290.123,258.469,292.6,290.784,263.436,0.0,0.0,235.867,257.855
2016-08-12 03:00,-0.00165352,288.568,287.651,257.12,290.764,288.861,263.318,0.0,0.0,235.867,257.421
2016-08-12 04:00,0.0,283.093,282.448,254.454,286.172,285.065,261.66,0.0,0.0,236.274,258.286
2016-08-12 05:00,0.0,289.247,287.651,256.892,290.234,288.445,262.965,0.0,0.0,235.867,258.2
2016-08-12 06:00,-0.00211524,290.939,289.699,258.022,292.209,290.375,263.553,0.0,0.0,235.799,258.457
2016-08-12 07:00,0.0,290.171,289.058,258.022,291.948,289.826,263.67,0.0,0.0,235.799,257.595
2016-08-12 08:00,-0.00538331,290.558,290.017,258.358,292.6,290.511,263.787,0.0,-0.00543477,235.593,257.595
2016-08-12 09:00,-0.489716,291.19,289.911,258.134,292.47,290.375,263.905,-1.45125,-1.23599,235.799,257.246
2016-08-12 10:00,0.079347,291.931,290.229,258.134,292.73,290.511,263.67,0.230342,0.160211,236.207,257.595
2016-08-12 11:00,0.272873,294.268,286.992,256.892,289.3,287.888,262.136,0.314407,0.303882,236.408,257.595
2016-08-12 12:00,0.327057,298.436,283.148,255.043,286.447,285.208,261.898,0.306413,0.308692,236.274,257.158
2016-08-12 13:00,0.294208,296.219,284.071,255.51,287.27,285.777,262.017,0.299969,0.304795,235.593,257.246
2016-08-12 14:00,0.182832,295.583,283.956,255.626,287.134,285.635,261.66,0.184398,0.179151,235.799,257.333
2016-08-12 15:00,0.130946,294.38,284.3,255.51,287.27,285.635,261.66,0.147119,0.144909,235.731,257.158
2016-08-12 16:00,0.176945,295.476,283.38,255.393,286.722,285.35,262.136,0.154069,0.159632,235.317,256.894
2016-08-12 17:00,0.02528,292.534,290.017,258.58,292.6,290.375,263.2,0.0552011,0.0376109,235.108,256.894
2016-08-12 18:00,0.0937316,295.368,289.486,258.58,292.079,290.375,263.083,0.110083,0.0915751,235.386,256.982
2016-08-12 19:00,0.183991,293.587,287.76,257.685,290.234,288.584,263.318,0.22255,0.212286,235.247,256.894
2016-08-12 20:00,0.478778,299.391,287.651,257.346,290.367,288.584,262.965,0.44841,0.450951,235.455,256.894
2016-08-12 21:00,0.785798,300.317,290.229,258.469,292.86,290.648,263.67,0.600529,0.643921,235.386,256.539
2016-08-12 22:00,0.541243,289.247,288.736,257.798,291.555,289.689,263.318,0.763783,1.00176,234.756,256.628
2016-08-12 23:00,-0.636093,290.558,289.699,258.802,292.34,290.238,263.2,-0.206372,-0.384104,233.677,256.001
2016-08-13 00:00,-0.20921,286.271,285.77,256.205,288.763,287.469,262.017,-0.0795835,-0.171417,233.823,256.36
2016-08-13 01:00,-0.00432406,290.558,289.699,258.358,292.6,290.375,263.083,0.0,0.0,233.823,256.001
2016-08-13 02:00,-0.00179413,290.813,289.486,258.358,292.079,289.964,263.2,0.0,0.0,234.401,256.181
2016-08-13 03:00,0.0,287.444,287.651,257.12,290.367,288.861,263.083,0.0,0.0,234.543,256.539
2016-08-13 04:00,0.0,289.91,288.628,257.91,291.16,288.999,262.373,0.0,0.0,234.401,256.539
2016-08-13 05:00,-0.00176874,290.558,289.486,258.246,292.209,290.101,263.083,0.0,0.0,234.756,256.805
2016-08-13 06:00,0.0,290.939,290.123,258.358,292.73,290.648,263.553,0.0,0.0,234.615,256.628
2016-08-13 07:00,0.0,290.813,289.699,258.802,292.34,290.375,263.2,0.0,0.0,234.185,255.911
2016-08-13 08:00,0.0,290.429,289.593,258.58,291.948,289.964,262.847,0.0,0.0,233.823,255.639
2016-08-13 09:00,-0.828869,290.041,288.843,258.134,291.686,289.551,262.61,-1.4036,-1.25519,233.456,255.275
2016-08-13 10:00,0.0684627,291.44,289.911,258.691,292.73,290.648,263.318,0.236699,0.155514,234.329,255.366
2016-08-13 11:00,0.0366621,291.44,290.335,258.246,292.989,291.057,263.553,0.138494,0.0854135,234.615,255.821
2016-08-13 12:00,0.0290667,291.686,290.123,258.469,292.989,290.784,263.436,0.103365,0.0626017,235.455,256.539
2016-08-13 13:00,0.0308329,292.174,290.017,258.358,292.86,290.784,263.905,0.0796238,0.052917,236.675,257.246
2016-08-13 14:00,0.0134526,291.809,290.545,258.58,293.506,291.329,263.553,0.0569515,0.0353111,236.475,257.158
2016-08-13 15:00,0.0151196,292.174,290.545,258.58,293.506,291.6,264.255,0.0501403,0.0305284,236.874,257.333
2016-08-13 16:00,0.0602884,293.587,289.486,258.022,292.34,290.511,263.2,0.0776326,0.0634008,236.475,256.982
2016-08-13 17:00,0.146534,293.007,286.992,257.006,289.835,288.306,262.492,0.17821,0.165418,236.675,256.982
2016-08-13 18:00,0.071182,294.268,289.486,258.469,291.948,289.964,262.965,0.0987397,0.0795074,236.542,256.894
2016-08-13 19:00,0.638268,302.426,280.549,254.099,284.641,284.061,261.182,0.529262,0.589247,236.408,257.07
2016-08-13 20:00,1.06718,302.764,279.58,253.621,283.514,283.049,261.301,0.876264,0.982395,236.004,256.45
2016-08-13 21:00,0.825709,298.918,286.992,257.459,289.568,287.609,262.136,0.655431,0.708562,237.006,257.333
2016-08-13 22:00,0.46749,291.065,290.017,258.802,292.47,290.238,262.61,0.791646,1.06191,236.874,256.805
2016-08-13 23:00,-0.491172,290.558,288.843,258.469,291.292,289.413,262.492,-0.183183,-0.360094,237.072,256.45
2016-08-14 00:00,-0.306461,290.558,288.736,257.572,291.292,289.137,262.847,-0.101757,-0.194128,237.528,256.716
2016-08-14 01:00,-0.0021474,291.065,289.911,258.802,292.34,290.101,263.2,0.0,-0.00216793,237.592,256.805
2016-08-14 02:00,0.0,288.43,287.102,257.233,289.3,287.609,262.255,0.0,0.0,238.041,256.982
2016-08-14 03:00,-0.0016366,284.087,283.726,255.393,286.172,285.208,261.301,0.0,0.0,238.733,257.333
2016-08-14 04:00,0.0,288.841,287.322,257.233,290.101,288.445,262.255,0.0,0.0,239.41,258.028
2016-08-14 05:00,0.00176008,289.647,288.412,257.572,291.029,288.999,263.2,0.0,0.0,239.043,257.769
2016-08-14 06:00,-0.00209312,288.705,287.322,257.12,289.835,287.748,262.255,0.0,0.0,239.227,257.682
2016-08-14 07:00,0.0,290.041,289.379,258.358,291.817,289.826,263.2,0.0,0.0,238.857,257.855
2016-08-14 08:00,0.0,290.813,290.44,258.802,293.119,291.193,264.255,0.0,0.0,239.166,258.2
2016-08-14 09:00,-0.539115,289.514,289.272,258.469,292.34,290.238,264.022,-1.14117,-0.997825,238.919,258.114
2016-08-14 10:00,0.178036,292.053,289.805,258.913,292.6,290.648,263.787,0.291761,0.220324,239.104,258.114
2016-08-14 11:00,0.356227,292.653,286.55,256.778,289.166,287.609,262.373,0.399762,0.396737,239.043,257.942
2016-08-14 12:00,0.0291048,292.053,290.229,258.913,292.86,290.784,263.67,0.0952864,0.0587662,239.349,258.114
2016-08-14 13:00,0.0894915,293.93,289.486,258.358,292.209,290.511,263.436,0.118884,0.0965778,239.41,258.457
2016-08-14 14:00,0.0592326,292.889,289.699,258.58,292.6,290.921,264.138,0.0877662,0.0720304,239.653,258.628
2016-08-14 15:00,0.0781746,291.44,287.76,257.233,290.234,288.584,263.2,0.107826,0.105654,239.471,258.967
2016-08-14 16:00,0.0264,292.294,290.123,258.691,292.73,290.648,263.436,0.0553499,0.0380749,239.774,258.713
2016-08-14 17:00,0.0426817,293.124,290.017,258.691,292.989,291.057,263.905,0.0655011,0.0498225,239.954,258.967
2016-08-14 18:00,0.0804191,294.823,290.123,258.691,292.6,290.648,263.905,0.100209,0.0811879,240.371,259.471
2016-08-14 19:00,0.164287,297.549,290.229,258.246,292.86,291.057,263.905,0.177474,0.156325,240.312,259.554
2016-08-14 20:00,0.399899,301.826,290.86,258.802,293.764,292.006,264.138,0.359184,0.343709,240.665,259.554
2016-08-14 21:00,1.27933,304.95,290.756,258.691,293.635,291.735,264.255,0.85772,0.943627,241.015,259.638
2016-08-14 22:00,0.502675,290.685,290.017,258.246,292.47,290.921,263.436,0.9931,1.35328,240.957,259.804
2016-08-14 23:00,-0.65562,285.818,285.095,255.51,287.951,286.06,262.373,-0.219123,-0.389004,241.189,259.638
2016-08-15 00:00,-0.28282,286.121,286.217,256.089,288.493,287.609,263.083,-0.098306,-0.195358,241.131,259.887
2016-08-15 01:00,-0.00213277,287.871,286.328,256.32,289.835,287.469,262.017,0.0,-0.00215316,241.131,260.299
2016-08-15 02:00,0.0,289.381,288.52,257.572,291.029,288.861,263.2,0.0,0.0,241.189,260.871
2016-08-15 03:00,0.0,289.247,289.699,258.022,292.079,290.648,263.905,0.0,0.0,241.246,261.914
2016-08-15 04:00,0.0,288.705,289.165,258.022,291.948,290.375,264.372,0.0,0.0,241.304,262.388
2016-08-15 05:00,0.00175146,288.152,288.52,258.134,291.029,289.964,263.436,0.0,0.0,241.476,262.701
2016-08-15 06:00,0.0,288.568,288.843,258.134,291.292,289.689,263.67,0.0,0.0,241.93,263.167
2016-08-15 07:00,0.0,291.44,290.965,259.464,293.248,291.329,264.138,0.0,0.0,241.647,262.623
2016-08-15 08:00,0.0,286.121,285.77,256.892,288.493,286.767,262.373,0.0,0.0,241.419,261.914
2016-08-15 09:00,-0.317445,290.685,290.017,259.024,292.34,290.375,263.2,-0.873536,-0.801199,241.361,261.675
2016-08-15 10:00,0.144533,291.809,289.593,259.024,291.817,289.826,263.553,0.279016,0.210117,241.476,261.355
2016-08-15 11:00,0.0425137,291.809,290.651,259.574,293.248,291.6,264.138,0.143985,0.0887017,241.015,261.355
2016-08-15 13:00,0.0293415,291.686,289.911,259.354,292.209,290.375,263.787,0.0823756,0.0514488,240.957,261.275
2016-08-15 14:00,0.0700523,292.294,289.165,259.134,291.423,289.276,263.318,0.103798,0.0884025,240.371,260.708
2016-08-15 15:00,0.0353313,292.414,289.272,259.354,291.292,289.413,263.318,0.068377,0.0445863,240.489,260.463
2016-08-15 16:00,0.0213917,291.931,289.486,259.354,291.423,289.137,263.436,0.0522061,0.0342998,240.607,260.052
2016-08-15 17:00,0.0347245,292.653,289.165,259.244,290.764,288.445,262.728,0.0644565,0.0471914,240.014,259.471
2016-08-15 18:00,0.0653726,293.816,288.412,259.354,290.101,287.329,261.54,0.0978295,0.0767414,240.074,258.543
2016-08-15 19:00,0.587184,301.037,281.505,255.858,284.781,283.484,260.822,0.487545,0.523956,240.014,258.028
2016-08-15 20:00,1.0703,299.013,281.148,255.16,284.361,283.484,261.182,0.910824,0.968093,240.134,257.769
2016-08-15 21:00,1.76549,297.349,281.267,255.626,284.501,283.917,260.942,1.29791,1.48353,240.134,257.855
2016-08-15 22:00,0.903175,287.871,286.439,258.358,288.628,286.343,261.779,1.78434,2.12755,239.894,257.158
2016-08-15 23:00,-0.509055,282.923,282.331,256.434,285.34,283.773,260.701,-0.191563,-0.371166,240.134,256.894
2016-08-16 00:00,-0.303814,286.717,284.528,257.459,287.27,284.779,261.182,-0.0998984,-0.187604,240.607,257.07
2016-08-16 01:00,-0.00423627,289.113,287.432,258.802,289.032,286.343,261.182,0.0,0.0,240.724,257.595
2016-08-16 02:00,0.0,288.705,287.322,258.691,289.032,286.343,261.66,0.0,0.0,240.607,257.769
2016-08-16 03:00,0.0,289.247,287.322,258.913,289.032,286.626,261.421,0.0,0.0,240.312,257.942
2016-08-16 04:00,0.0,283.093,282.566,256.089,285.34,283.773,261.301,0.0,0.0,240.253,257.595
2016-08-16 05:00,-0.00174289,285.818,284.642,257.346,286.722,284.636,261.301,0.0,0.0,239.954,257.508
2016-08-16 06:00,-0.00207137,279.473,280.187,254.926,283.372,282.613,261.062,0.0,0.0,239.834,257.942
2016-08-16 07:00,-0.00283352,288.568,286.882,258.469,288.493,286.343,261.54,0.0,0.0,240.074,258.114
2016-08-16 08:00,-0.00518005,289.779,287.322,258.691,289.032,286.343,261.779,0.0,0.0,240.371,257.942
2016-08-16 09:00,-0.355489,287.729,286.217,257.91,287.679,285.635,261.66,-0.842778,-0.717775,240.957,257.942
2016-08-16 10:00,0.372468,290.813,285.546,257.685,287.543,285.35,261.301,0.438559,0.381905,240.607,257.855
2016-08-16 11:00,0.232988,293.007,285.095,257.685,287.27,284.922,261.54,0.27666,0.255294,240.665,257.421
2016-08-16 12:00,0.437727,296.635,279.458,254.454,283.23,282.467,260.701,0.395331,0.388882,240.607,257.333
2016-08-16 13:00,0.230302,297.349,281.624,256.089,284.781,283.339,260.581,0.227713,0.205976,240.841,257.333
2016-08-16 14:00,0.0741486,293.356,288.087,259.244,289.835,287.188,261.898,0.101592,0.0762185,240.782,257.246
2016-08-16 15:00,0.0328335,292.053,288.195,259.683,289.968,287.048,261.421,0.0630847,0.0420716,240.489,256.894
2016-08-16 16:00,0.0717961,292.771,287.651,259.354,289.166,286.202,261.182,0.106648,0.0851986,240.489,256.45
2016-08-16 17:00,0.100304,293.587,288.087,259.244,290.101,287.609,261.779,0.113237,0.0931622,240.724,256.894
2016-08-16 18:00,0.0853088,294.043,288.52,259.683,290.5,287.888,262.255,0.108346,0.0861243,240.724,257.07
2016-08-16 19:00,0.252721,296.943,287.869,259.354,289.968,287.329,261.779,0.250982,0.222525,240.312,256.982
2016-08-16 20:00,0.488952,298.822,287.432,259.244,289.434,286.767,261.421,0.451,0.421926,240.607,256.271
2016-08-16 21:00,1.14561,299.858,287.869,259.464,289.701,286.907,261.421,0.83401,0.826891,240.074,256.091
2016-08-16 22:00,4.85558,282.923,283.264,256.664,286.31,284.636,261.182,8.22243,11.438,239.774,255.911
2016-08-16 23:00,-0.561832,285.665,284.3,257.12,286.86,284.922,261.421,-0.202527,-0.381879,239.954,256.091
2016-08-17 00:00,-0.306844,288.568,285.546,257.91,287.407,284.922,260.461,-0.103922,-0.185866,239.834,255.639
2016-08-17 01:00,-0.00210352,288.291,285.095,257.572,286.722,282.758,259.005,0.0,-0.00212362,239.774,254.814
2016-08-17 02:00,-0.00175328,284.249,279.213,254.69,281.076,276.938,256.285,0.0,0.0,239.894,253.785
2016-08-17 03:00,-0.00161131,282.753,279.702,254.572,281.51,279.061,257.406,0.0,0.0,239.894,254.443
2016-08-17 04:00,0.0,283.594,280.308,254.572,281.221,278.911,257.282,0.0,0.0,239.41,253.88
2016-08-17 05:00,0.0,290.301,288.412,259.024,290.234,287.748,262.017,0.0,0.0,240.134,255.911
2016-08-17 06:00,0.00206065,290.939,288.736,259.354,290.897,288.445,262.255,0.0,0.0,239.653,255.821
2016-08-17 07:00,0.0,290.685,288.628,258.802,290.764,288.306,262.136,0.0,0.0,239.653,256.181
2016-08-17 08:00,0.0,288.568,287.76,258.469,289.835,287.888,261.898,0.0,0.0,239.104,255.821
2016-08-17 09:00,-0.837485,288.43,287.102,257.91,289.701,287.609,262.017,-0.872735,-0.910529,239.166,256.181
2016-08-17 10:00,0.140608,291.563,288.951,258.802,291.16,288.861,262.492,0.297631,0.212928,237.785,255.73
2016-08-17 11:00,0.0712098,291.931,289.165,259.244,291.555,289.137,262.847,0.166409,0.112149,238.608,256.001
2016-08-17 12:00,0.0350648,291.563,289.272,259.244,291.555,288.999,262.373,0.107211,0.0649,238.671,256.45
2016-08-17 13:00,0.0201114,0.0,289.272,258.913,291.555,289.276,262.847,0.0,0.043731,238.857,256.894
2016-08-17 14:00,0.0175394,291.44,289.165,259.024,291.555,288.999,262.61,0.0594025,0.0381384,239.043,256.716
2016-08-17 15:00,0.073304,292.653,288.412,258.58,290.764,288.861,262.136,0.09738,0.0791085,238.919,256.982
2016-08-17 16:00,0.0201741,292.174,289.272,258.913,291.16,288.722,262.136,0.0501766,0.0305505,238.546,257.595
2016-08-17 17:00,0.0227682,292.294,289.272,258.913,291.423,288.861,262.492,0.0555655,0.036507,238.42,257.246
2016-08-17 18:00,0.071749,294.043,288.951,258.691,291.029,288.722,262.017,0.100819,0.0755172,238.608,257.421
2016-08-17 19:00,0.167764,293.702,287.978,258.246,290.101,288.027,262.136,0.204997,0.177066,238.357,257.07
2016-08-17 20:00,0.436811,297.449,287.541,258.022,289.568,287.329,262.373,0.432652,0.404932,237.849,256.805
2016-08-17 21:00,0.672603,294.268,287.102,257.572,289.166,287.048,261.54,0.624604,0.596892,237.657,256.628
2016-08-17 22:00,-0.933567,288.012,286.772,257.459,288.628,286.343,261.54,-1.5809,-1.88498,237.977,257.158
2016-08-17 23:00,-0.65101,284.087,283.264,255.51,286.033,284.636,261.182,-0.222337,-0.403177,237.721,256.894
2016-08-18 00:00,-0.30109,278.883,280.429,253.86,283.656,283.049,260.461,-0.100502,-0.181212,237.528,256.805
2016-08-18 01:00,-0.00417784,281.705,281.86,254.69,285.061,284.205,260.822,0.0,0.0,237.203,256.894
2016-08-18 02:00,0.0,281.705,281.978,255.043,285.061,284.205,261.66,0.0,0.0,237.268,257.246
2016-08-18 03:00,0.0,282.234,281.978,254.926,285.061,284.492,261.421,0.0,0.0,237.203,257.333
2016-08-18 04:00,0.0,283.76,283.032,255.393,285.895,284.922,261.301,0.0,0.0,236.808,257.333
2016-08-18 05:00,0.0,285.665,284.528,256.205,287.407,286.06,261.779,0.0,0.00174243,236.94,257.246
2016-08-18 06:00,0.0,290.171,288.52,258.022,290.367,288.306,262.492,0.0,0.0,236.94,257.508
2016-08-18 07:00,-0.00279915,290.939,288.951,258.58,290.764,288.445,262.017,0.0,0.0,237.072,257.421
2016-08-18 08:00,-0.00508493,290.301,288.52,258.358,290.632,288.306,262.255,0.0,0.0,236.274,256.716
2016-08-18 09:00,-0.176751,290.558,288.736,258.58,290.764,288.167,262.492,-0.598621,-0.475843,236.742,257.158
2016-08-18 10:00,0.389255,291.809,287.212,257.233,289.568,287.748,262.373,0.429455,0.369159,236.874,257.508
2016-08-18 11:00,0.0314104,291.563,289.486,258.469,291.423,289.137,262.965,0.132976,0.0749525,237.463,258.2
2016-08-18 12:00,0.0390131,292.174,289.593,258.802,291.817,289.551,263.436,0.1024,0.0630177,236.808,258.028
2016-08-18 13:00,0.0774221,293.24,289.058,258.358,291.555,289.689,263.083,0.112751,0.0844152,237.463,258.286
2016-08-18 14:00,0.0297056,291.931,289.805,258.802,292.209,290.238,262.965,0.0663089,0.0463475,237.268,258.457
2016-08-18 15:00,0.0581874,292.294,289.486,258.358,291.817,289.964,263.553,0.0888951,0.0702369,237.785,258.628
2016-08-18 16:00,0.17419,292.771,287.869,257.685,290.632,289.137,262.847,0.191305,0.189873,237.849,258.286
2016-08-18 17:00,0.0523109,293.472,290.123,258.58,292.73,290.784,263.787,0.0772262,0.0595816,238.546,258.882
2016-08-18 18:00,0.0504869,293.24,290.44,258.691,293.119,291.057,263.553,0.0854944,0.0633258,238.733,258.628
2016-08-18 19:00,0.23146,297.649,289.699,258.802,292.73,290.784,263.553,0.234848,0.216292,238.671,257.942
2016-08-18 20:00,0.367548,299.108,289.911,258.58,292.86,291.057,263.905,0.36736,0.345953,238.857,258.372
2016-08-18 21:00,1.09425,301.037,290.756,258.691,293.506,291.6,263.67,0.800791,0.866001,239.288,258.372
2016-08-18 22:00,-0.201698,291.065,290.756,258.691,293.506,291.735,263.553,-0.683109,-0.814504,239.41,258.028
2016-08-18 23:00,-0.677899,291.315,290.756,258.913,293.764,291.871,263.553,-0.236879,-0.418232,239.954,258.286
2016-08-19 00:00,-0.326952,291.315,290.545,258.691,293.635,291.871,263.67,-0.109275,-0.191098,240.548,259.22
2016-08-19 01:00,-0.00207436,291.065,290.545,258.58,293.377,291.735,263.787,0.0,0.0,241.015,259.051
2016-08-19 02:00,-0.00173294,291.19,290.86,258.913,294.021,292.141,264.022,0.0,0.0,240.957,259.135
2016-08-19 03:00,0.0,291.19,291.07,258.913,294.277,292.545,264.488,0.0,0.0,240.489,259.051
2016-08-19 04:00,0.0,289.514,289.805,258.358,292.86,291.464,264.488,0.0,0.0,239.834,258.967
2016-08-19 05:00,0.0,290.301,290.229,258.691,293.377,291.735,264.488,0.0,0.0,238.546,258.372
2016-08-19 06:00,0.0,290.041,289.911,258.58,292.989,291.329,264.138,0.0,0.00205901,238.357,258.713
2016-08-19 07:00,0.0,291.315,290.86,258.913,293.764,292.006,264.255,0.0,0.0,237.657,258.457
2016-08-19 08:00,0.0,291.065,291.07,259.244,294.149,292.276,264.255,0.0,0.0,237.913,258.543
2016-08-19 09:00,-0.162903,291.065,290.965,259.134,294.021,292.141,263.905,-0.551718,-0.49338,237.721,258.713
2016-08-19 10:00,0.0534356,291.686,291.07,259.134,294.149,292.545,264.488,0.221192,0.131869,237.072,258.286
2016-08-19 11:00,0.0229009,291.563,290.86,259.244,293.892,292.006,263.436,0.123612,0.0693594,235.867,257.421
2016-08-19 12:00,0.0195329,291.686,290.335,259.354,293.635,291.735,263.318,0.0893076,0.051271,235.108,256.45
2016-08-19 13:00,0.0170487,291.809,290.44,259.134,293.635,291.464,263.787,0.0669264,0.0391174,235.108,256.45
2016-08-19 14:00,0.0621624,293.587,289.593,258.913,292.73,290.784,263.318,0.0869585,0.0668495,234.615,256.45
2016-08-19 15:00,0.0227893,292.294,290.229,259.354,293.377,291.057,263.318,0.050383,0.0306761,233.382,256.001
2016-08-19 16:00,0.0581287,293.702,289.379,259.244,292.34,290.238,263.2,0.0748962,0.0574086,233.456,255.548
2016-08-19 17:00,0.0429883,293.472,290.017,259.574,292.73,290.375,262.847,0.0648342,0.0488242,232.784,254.999
2016-08-19 18:00,0.0567347,293.702,290.017,259.683,292.989,290.784,263.318,0.0856879,0.0665652,232.097,254.256
2016-08-19 19:00,0.20156,295.151,288.412,259.134,291.423,289.276,262.728,0.21292,0.193797,232.02,253.309
2016-08-19 20:00,0.177948,294.268,290.229,259.574,293.119,290.648,262.61,0.23071,0.190877,231.787,253.117
2016-08-19 21:00,0.791942,296.738,289.593,259.683,292.6,290.101,262.492,0.65637,0.658753,231.865,252.828
2016-08-19 22:00,-0.127748,291.065,289.379,259.793,292.079,289.276,262.847,-0.324493,-0.515878,231.63,252.731
2016-08-19 23:00,-0.550282,291.19,289.272,259.354,292.079,289.413,262.255,-0.215041,-0.405973,231.943,252.244
2016-08-20 00:00,-0.278423,283.428,276.336,252.412,277.528,273.517,252.853,-0.0986259,-0.183565,232.251,245.46
2016-08-20 01:00,-0.00205984,281.165,272.796,249.924,273.686,267.673,248.634,0.0,0.0,233.968,247.481
2016-08-20 02:00,0.00172281,288.841,287.322,257.798,289.968,286.907,260.822,0.0,0.0,233.159,250.748
2016-08-20 03:00,-0.00158624,290.813,289.058,258.913,291.948,288.999,262.255,0.0,0.0,233.968,251.051
2016-08-20 04:00,0.0,288.43,287.102,257.572,290.101,287.469,261.182,0.0,0.0,234.257,251.652
2016-08-20 05:00,0.0,283.093,282.566,255.277,285.201,283.773,260.098,0.0,0.0,234.897,252.244
2016-08-20 06:00,0.00202912,290.429,287.978,258.246,290.101,286.767,261.062,0.00171805,0.0,234.401,252.047
2016-08-20 07:00,0.0,288.841,286.55,257.572,288.897,286.202,260.822,0.0,0.0,233.968,251.751
2016-08-20 08:00,0.0,287.3,284.869,256.778,286.722,283.629,259.492,0.0,0.0,233.456,251.85
2016-08-20 09:00,-0.251873,290.171,287.869,258.691,290.5,287.469,261.66,-0.554477,-0.508561,233.968,251.652
2016-08-20 10:00,0.26897,291.19,287.869,258.469,290.5,287.748,261.898,0.37956,0.307746,233.456,251.751
2016-08-20 11:00,0.0631346,291.931,288.843,258.802,291.555,288.861,261.898,0.157938,0.0985044,233.603,252.146
2016-08-20 12:00,0.0136916,291.315,289.058,259.024,291.686,288.861,262.255,0.0844609,0.0434421,233.896,251.949
2016-08-20 13:00,0.0139622,291.44,289.165,259.134,291.948,289.137,261.898,0.0643629,0.0360222,234.472,252.537
2016-08-20 14:00,0.0554524,292.174,288.303,258.58,291.16,288.445,261.66,0.0847416,0.064175,234.615,253.309
2016-08-20 15:00,0.010138,291.44,289.379,259.134,292.079,289.276,262.255,0.041846,0.0217491,235.038,253.309
2016-08-20 16:00,0.00885606,291.563,289.379,259.464,291.948,289.276,262.492,0.037492,0.0191587,235.317,253.69
2016-08-20 17:00,0.0174922,292.294,289.058,259.354,291.686,288.861,261.898,0.0478496,0.0258099,235.247,253.785
2016-08-20 18:00,0.0968287,292.174,287.541,258.134,289.835,287.469,261.54,0.132737,0.117926,235.867,254.256
2016-08-20 19:00,0.132935,294.933,288.628,258.913,291.292,288.584,262.373,0.1566,0.134206,235.386,254.068
2016-08-20 20:00,0.223839,295.902,289.272,259.244,291.817,288.722,262.255,0.253488,0.217504,236.207,254.162
2016-08-20 21:00,0.89419,296.738,288.52,259.024,291.292,288.722,262.373,0.704399,0.719905,235.593,254.162
2016-08-20 22:00,-0.186026,290.041,288.628,259.134,291.555,289.137,262.373,-0.236262,-0.375608,235.799,254.256
2016-08-20 23:00,-0.535987,286.121,285.658,257.346,288.358,286.485,261.182,-0.215895,-0.40452,235.593,254.349
2016-08-21 00:00,-0.236397,291.315,289.911,259.683,292.6,289.964,263.083,-0.0953129,-0.181834,235.386,254.443
2016-08-21 01:00,-0.00409074,290.813,289.593,259.574,292.34,289.826,262.61,0.0,0.0,235.662,254.349
2016-08-21 02:00,-0.00171272,290.171,288.843,259.354,291.948,288.999,262.965,0.0,0.0,235.799,254.443
2016-08-21 03:00,0.0,289.381,287.978,259.244,290.632,288.167,261.779,0.0,0.0,235.455,254.162
2016-08-21 04:00,-0.00157453,290.429,288.087,259.134,290.5,287.609,261.182,0.0,0.0,235.799,253.88
2016-08-21 05:00,0.0,289.247,287.541,259.024,289.968,287.048,261.66,0.0,0.0,236.139,254.068
2016-08-21 06:00,0.0,290.939,289.272,260.011,291.555,288.445,261.898,0.0,0.0,235.936,254.349
2016-08-21 07:00,-0.00274939,291.065,289.165,259.793,291.16,288.167,262.017,0.0,0.0,236.274,254.629
2016-08-21 08:00,-0.00989986,290.685,288.303,259.354,290.632,287.609,261.898,0.0,0.0,237.006,255.275
2016-08-21 09:00,-0.140984,289.514,287.651,258.913,289.434,286.626,260.942,-0.477483,-0.379551,236.609,255.366
2016-08-21 10:00,0.517485,289.91,282.566,256.089,284.781,283.049,259.856,0.514576,0.479909,236.475,255.275
2016-08-21 11:00,0.0345231,291.809,288.52,259.464,290.367,287.469,261.779,0.12423,0.0668019,236.071,255.091
2016-08-21 12:00,0.0195863,291.563,288.303,259.354,290.234,287.048,261.779,0.0845768,0.0454791,235.386,254.629
2016-08-21 13:00,0.0310571,292.174,287.322,258.913,289.3,286.06,260.581,0.0762585,0.047031,234.827,253.974
2016-08-21 14:00,0.0920501,292.653,284.642,257.685,286.722,284.061,260.098,0.112323,0.09293,235.455,254.443
2016-08-21 15:00,0.111625,290.429,280.789,255.043,282.517,280.108,258.392,0.115993,0.117815,235.525,253.974
2016-08-21 16:00,0.0430677,292.653,286.992,258.691,289.166,286.202,260.34,0.0632781,0.046037,235.455,254.068
2016-08-21 17:00,0.0646947,293.356,287.76,258.913,289.701,286.907,261.66,0.0810241,0.0639524,235.178,253.785
2016-08-21 18:00,0.101686,294.491,288.303,259.244,290.234,287.609,261.421,0.114796,0.099547,234.968,253.69
2016-08-21 19:00,0.17211,297.045,288.412,259.683,290.764,287.748,261.182,0.175198,0.154232,235.317,254.162
2016-08-21 20:00,0.422429,300.679,288.303,259.244,290.5,288.027,262.136,0.364824,0.34686,235.386,253.974
2016-08-21 21:00,0.948104,296.531,287.212,258.469,289.568,287.188,261.898,0.72978,0.736729,235.662,253.974
2016-08-21 22:00,-0.0728509,288.291,285.658,257.91,287.951,285.065,260.098,-0.185048,-0.294189,235.317,253.69
2016-08-21 23:00,-0.542501,287.01,285.994,257.798,288.628,286.767,261.421,-0.225334,-0.434016,235.386,253.88
2016-08-22 00:00,-0.289914,290.429,287.651,258.358,289.568,287.048,261.66,-0.110934,-0.197,235.455,253.69
2016-08-22 01:00,-0.00203097,283.76,283.495,256.089,286.31,285.208,260.34,0.0,-0.00205038,235.799,253.785
2016-08-22 02:00,0.0,282.059,282.448,255.626,285.201,284.061,260.581,0.0,0.0,235.731,253.405
2016-08-22 03:00,0.0,282.581,283.032,255.393,285.479,284.349,260.581,0.0,0.0,235.662,253.309
2016-08-22 04:00,-0.00156683,282.059,282.682,255.626,285.34,284.205,260.098,0.0,0.0,236.071,253.117
2016-08-22 05:00,0.00169278,281.346,282.331,254.808,284.921,284.061,259.735,0.0,0.0,235.867,252.925
2016-08-22 06:00,-0.00200866,280.799,281.978,254.572,284.501,283.773,260.098,0.0,0.0,235.108,252.925
2016-08-22 07:00,0.0,287.587,285.208,256.205,286.997,285.065,260.581,0.0,0.0,235.799,253.69
2016-08-22 08:00,-0.00490689,288.705,286.105,256.549,287.679,285.35,260.219,0.0,0.0,234.827,253.117
2016-08-22 09:00,-0.132164,289.514,286.772,256.664,288.222,286.06,260.942,-0.410311,-0.311331,234.827,252.828
2016-08-22 10:00,0.157503,291.19,286.992,257.12,288.763,286.343,261.062,0.318006,0.238513,234.897,252.828
2016-08-22 11:00,0.106713,291.809,287.102,257.572,288.763,286.202,260.701,0.202685,0.148497,234.041,252.731
2016-08-22 12:00,0.105913,292.889,286.55,256.892,0.0,285.919,261.182,0.167727,0.130686,233.53,251.949
2016-08-22 13:00,0.132124,292.771,286.217,257.006,288.087,285.635,260.219,0.177674,0.145941,233.01,251.751
2016-08-22 14:00,0.364468,290.301,282.331,255.277,285.061,284.061,259.614,0.365954,0.357009,232.86,251.652
2016-08-22 15:00,0.176494,291.809,284.869,255.974,286.722,284.922,259.735,0.208567,0.188436,231.787,251.152
2016-08-22 16:00,0.312004,291.931,282.331,255.043,285.34,284.349,259.977,0.317867,0.312426,230.835,251.051
2016-08-22 17:00,0.423946,291.563,281.742,254.808,284.641,283.629,259.856,0.460697,0.467528,231.315,250.95
2016-08-22 18:00,0.469546,295.26,281.978,254.926,284.781,283.484,260.461,0.445952,0.431933,232.251,251.352
2016-08-22 19:00,0.572685,300.317,282.799,255.16,285.201,283.917,260.219,0.486535,0.511524,232.633,251.352
2016-08-22 20:00,0.722947,302.341,285.095,256.32,286.86,284.922,259.977,0.580912,0.601059,233.159,251.652
2016-08-22 21:00,1.25501,299.485,283.148,255.742,285.061,283.049,258.882,0.869864,1.0195,233.382,251.751
2016-08-22 22:00,-0.11938,288.568,285.994,256.434,287.543,285.493,259.977,-0.0505396,-0.0602609,233.677,251.452
2016-08-22 23:00,-0.59398,279.473,274.524,250.931,276.315,274.617,254.773,-0.230151,-0.416712,233.677,251.051
2016-08-23 00:00,-0.237465,289.779,286.661,256.664,288.222,285.919,260.461,-0.0981926,-0.183983,233.677,252.047
2016-08-23 01:00,-0.00201663,289.647,286.772,256.664,288.493,286.343,260.098,0.0,0.0,234.113,252.342
2016-08-23 02:00,-0.00169268,289.514,286.882,257.006,288.628,286.485,260.581,0.0,0.00170886,233.603,251.751
2016-08-23 03:00,-0.00156152,289.647,286.772,257.006,288.628,286.485,260.34,0.0,0.0,233.308,251.949
2016-08-23 04:00,0.0,289.514,286.992,257.006,288.763,286.485,260.701,0.0,0.0,232.784,251.85
2016-08-23 05:00,0.00168467,289.647,286.772,256.778,288.763,286.485,260.581,0.0,0.0,232.405,251.652
2016-08-23 06:00,0.0,289.647,286.772,257.006,288.628,286.343,260.34,0.0,0.0,231.709,251.352
2016-08-23 07:00,-0.00271742,289.779,287.212,257.346,289.032,286.767,260.581,0.0,0.0,230.996,250.95
2016-08-23 08:00,-0.0048648,289.247,286.661,256.892,288.628,286.485,260.34,0.0,0.0,231.156,250.95
2016-08-23 09:00,-0.124422,289.779,286.661,256.892,288.493,285.919,259.856,-0.386277,-0.293094,230.996,251.051
2016-08-23 10:00,0.372021,290.685,284.982,256.089,286.447,283.917,258.882,0.464738,0.400205,230.511,250.34
2016-08-23 11:00,0.182157,290.171,281.386,254.217,282.087,279.511,255.406,0.264397,0.20725,228.921,248.241
2016-08-23 12:00,0.288722,293.007,284.185,255.742,286.447,284.492,259.735,0.325947,0.315276,230.916,251.252
2016-08-23 13:00,0.0497911,292.053,287.212,257.459,289.3,286.485,260.942,0.10803,0.072259,230.755,251.352
2016-08-23 14:00,0.0420411,291.809,287.651,257.233,289.968,287.329,260.822,0.0849715,0.0588726,231.076,252.244
2016-08-23 15:00,0.113125,292.053,286.882,256.778,289.3,286.767,260.581,0.13345,0.118056,232.328,252.342
2016-08-23 16:00,0.0253997,291.931,288.843,258.022,291.292,288.999,261.779,0.0591411,0.0358995,233.603,253.309
2016-08-23 17:00,0.127142,290.171,286.217,256.549,289.032,287.188,261.54,0.171784,0.170689,234.615,253.595
2016-08-23 18:00,0.0929139,293.24,288.303,257.685,291.16,288.584,262.017,0.119316,0.0953655,238.104,254.443
2016-08-23 19:00,0.0760128,293.472,289.272,258.358,292.34,289.826,262.136,0.112217,0.0846101,237.463,254.536
2016-08-23 20:00,0.302595,296.738,288.736,257.91,291.292,288.861,261.779,0.311799,0.26514,236.341,253.974
2016-08-23 21:00,0.634859,294.823,288.087,257.572,290.234,287.609,260.822,0.582747,0.527118,236.94,254.349
2016-08-23 22:00,-0.0504302,290.558,287.978,257.572,290.101,287.188,260.581,-0.0426992,-0.0509123,236.675,254.349
2016-08-23 23:00,-0.519871,290.171,287.432,257.798,289.434,286.343,260.098,-0.222183,-0.424871,237.592,254.349
2016-08-24 00:00,-0.259826,289.91,287.432,257.12,289.434,286.485,260.701,-0.106523,-0.196042,237.592,254.999
2016-08-24 01:00,-0.00400475,290.558,288.52,257.572,290.5,287.748,261.54,0.0,0.0,236.475,255.911
2016-08-24 02:00,0.0,289.381,287.212,257.006,288.897,285.919,260.461,0.0,0.0,237.657,255.091
2016-08-24 03:00,0.0,290.558,287.651,256.892,289.3,286.485,259.977,0.0,0.0,236.94,255.457
2016-08-24 04:00,0.0,289.91,287.869,257.233,289.835,287.048,261.062,0.0,0.0,236.808,255.911
2016-08-24 05:00,-0.00167664,288.841,286.55,256.205,288.493,285.635,260.942,0.0,0.0,236.475,255.457
2016-08-24 06:00,0.0,290.429,287.978,257.12,289.701,286.626,260.942,0.0,0.0,236.475,255.821
2016-08-24 07:00,0.0,290.301,288.195,257.233,290.101,287.469,261.182,0.0,0.0,236.609,255.275
2016-08-24 08:00,0.0,289.647,288.087,256.664,290.234,287.609,261.301,0.0,0.0,237.592,257.07
2016-08-24 09:00,-0.039191,289.91,288.087,255.742,290.5,288.445,261.54,-0.298647,-0.276959,238.231,256.716
2016-08-24 10:00,0.0552599,291.44,289.593,256.32,292.34,289.826,262.61,0.213148,0.123974,237.528,0.0
2016-08-24 11:00,0.017392,291.19,289.165,256.089,291.555,288.861,262.017,0.115352,0.0643802,237.721,256.539
2016-08-24 12:00,0.00983438,291.19,288.843,255.51,291.423,288.584,261.301,0.0782715,0.0416992,236.874,254.536
2016-08-24 13:00,0.034267,291.809,288.087,255.51,290.632,287.609,260.822,0.0791285,0.0518918,236.274,253.69
2016-08-24 14:00,0.0190047,291.19,288.195,255.16,290.632,287.748,260.581,0.0563193,0.03015,233.234,251.949
2016-08-24 15:00,0.0305387,291.686,287.869,254.926,290.764,287.888,261.301,0.0560236,0.0372537,231.787,251.452
2016-08-24 16:00,0.119542,289.113,283.611,253.14,286.447,284.061,259.127,0.160439,0.15535,232.86,251.552
2016-08-24 17:00,0.12738,290.301,283.264,252.656,286.033,283.629,258.882,0.153747,0.138174,232.405,250.95
2016-08-24 18:00,0.0403705,291.809,287.212,254.808,289.3,286.06,260.219,0.0709926,0.0501618,232.633,250.646
2016-08-24 19:00,0.17222,292.174,285.77,253.86,287.951,284.922,259.977,0.205472,0.189673,233.159,250.646
2016-08-24 20:00,0.109249,287.587,284.185,253.02,286.447,283.629,259.005,0.214212,0.17705,233.677,251.051
2016-08-24 21:00,0.543091,294.156,284.528,252.899,285.201,281.293,256.785,0.475162,0.499547,235.731,251.452
2016-08-24 22:00,-0.0435652,283.594,275.436,248.642,275.55,271.926,250.369,-0.0368866,-0.0439816,229.433,246.483
2016-08-24 23:00,-0.540594,283.76,273.997,247.728,274.933,0.0,247.551,-0.235045,-0.442509,227.691,244.175
2016-08-25 00:00,-0.322374,287.729,282.916,253.261,284.079,280.257,255.909,-0.11698,-0.205119,228.312,247.59
2016-08-25 01:00,0.0,257.605,248.583,235.499,247.878,246.246,236.46,0.0,-0.00200721,225.449,233.773
2016-08-25 02:00,-0.00167285,285.512,283.38,253.261,285.757,282.904,258.515,0.0,0.0,232.175,249.928
2016-08-25 03:00,0.00154529,284.57,281.86,252.534,282.66,280.554,257.777,0.0,0.0,231.076,248.987
2016-08-25 04:00,0.00154408,287.871,284.982,254.099,286.447,283.773,259.37,0.0,0.0,233.308,250.646
2016-08-25 05:00,0.0,289.247,287.102,255.626,289.434,286.485,260.461,0.0,0.0,235.108,252.537
2016-08-25 06:00,0.0,288.012,285.77,254.454,287.543,285.065,259.856,0.0,0.0,236.071,253.405
2016-08-25 07:00,0.0,276.155,270.885,246.533,271.142,268.835,248.768,0.0,0.0,235.038,250.544
2016-08-25 08:00,0.0,289.647,286.439,254.808,288.222,285.065,259.492,0.0,0.0,236.609,253.974
2016-08-25 09:00,-0.780289,283.261,281.624,252.045,284.22,282.028,259.005,-0.660669,-0.937795,237.333,253.88
2016-08-25 10:00,0.0741803,291.065,288.087,256.205,290.234,287.329,260.942,0.240765,0.149779,238.294,255.366
2016-08-25 11:00,0.0871799,291.931,288.303,255.858,290.5,287.888,260.942,0.164854,0.111484,238.168,256.001
2016-08-25 12:00,0.019697,291.686,288.843,256.205,291.292,288.306,261.421,0.083387,0.0457361,238.041,255.821
2016-08-25 13:00,0.0795216,292.053,287.432,255.626,289.835,287.469,261.182,0.114858,0.092875,237.333,255.821
2016-08-25 14:00,0.101912,291.809,287.212,254.926,289.568,287.329,261.301,0.125407,0.109746,235.867,255.183
2016-08-25 15:00,0.0254776,291.44,288.736,255.858,290.897,288.167,261.421,0.0560867,0.0360096,235.867,255.457
2016-08-25 16:00,0.0509415,291.686,287.76,255.858,290.367,288.027,261.421,0.071168,0.0552857,234.257,254.999
2016-08-25 17:00,0.0746745,292.053,287.869,255.974,290.367,288.027,261.54,0.0885175,0.0753884,234.686,255.548
2016-08-25 18:00,0.084078,292.534,287.869,256.089,290.5,287.888,261.54,0.110738,0.0943131,234.113,254.999
2016-08-25 19:00,0.231908,289.113,273.199,248.771,272.741,269.165,248.499,0.246277,0.248014,229.007,246.818
2016-08-25 21:00,1.38169,284.57,247.563,235.985,245.248,241.251,230.111,1.06589,1.3577,221.93,232.508
2016-08-25 22:00,-0.0382761,254.396,235.538,230.387,233.842,231.203,226.056,-0.0324083,-0.038642,220.101,226.187
2016-08-25 23:00,-0.507838,253.81,240.277,232.663,239.669,237.581,230.276,-0.227162,-0.430468,224.054,232.185
2016-08-26 00:00,-0.330043,280.427,277.224,251.676,279.76,276.938,255.909,-0.120412,-0.205879,229.178,249.721
2016-08-26 01:00,-0.00197413,280.982,274.785,250.931,273.686,271.444,252.982,0.0,0.0,228.136,245.23
2016-08-26 02:00,-0.00166302,287.871,283.032,255.393,284.22,280.554,257.034,0.0,0.0,229.007,248.025
2016-08-26 03:00,-0.00153726,264.009,262.931,245.04,265.997,264.967,250.633,0.0,0.0,230.184,247.917
2016-08-26 04:00,0.0,246.775,246.523,235.823,246.575,246.666,239.765,0.0,0.0,226.499,235.592
2016-08-26 05:00,0.0,270.434,263.712,245.177,264.618,262.712,247.687,0.0,0.0,229.433,245.23
2016-08-26 06:00,0.0,204.719,211.654,220.517,211.428,210.576,212.827,0.0,0.001988,212.287,212.505
2016-08-26 07:00,0.0,218.393,219.628,223.283,219.167,218.235,218.025,0.0,0.0,216.963,217.918
2016-08-26 08:00,0.0,254.966,247.563,236.943,247.878,246.876,237.07,0.0,0.0,227.055,237.748
2016-08-26 09:00,-0.0353323,257.605,255.941,241.354,257.55,256.555,245.211,-0.239327,-0.249691,230.835,243.937
2016-08-26 10:00,0.734411,279.473,249.978,238.349,251.036,249.55,240.793,0.716679,0.816831,232.405,241.602
2016-08-26 11:00,0.460315,291.315,255.587,240.617,256.213,252.341,242.527,0.434149,0.473539,233.234,243.093
2016-08-26 12:00,0.558236,297.146,247.357,237.101,248.52,247.501,239.913,0.562846,0.619332,233.159,241.475
2016-08-26 13:00,0.202923,270.151,258.025,242.513,258.304,256.928,244.512,0.42425,0.453851,233.823,245.918
2016-08-26 14:00,0.106099,290.171,281.148,255.974,282.66,279.061,256.41,0.143964,0.122218,232.86,249.303
2016-08-26 15:00,0.283132,257.605,225.282,226.866,225.615,223.619,221.782,0.410344,0.451934,219.503,223.377
2016-08-26 16:00,0.326507,256.589,215.64,222.027,215.26,214.364,215.074,0.572345,0.639943,213.995,214.787
2016-08-26 17:00,0.330584,254.396,218.862,224.102,218.824,217.607,218.41,0.657719,0.743027,216.963,218.41
2016-08-26 18:00,0.356007,257.103,219.628,224.507,218.824,218.547,218.601,0.765474,0.855963,216.012,217.918
2016-08-26 19:00,0.592159,262.869,211.184,220.736,210.625,209.497,211.57,0.992733,1.12589,211.303,211.295
2016-08-26 20:00,0.761541,270.713,210.224,220.736,209.394,208.766,210.073,1.02278,1.19594,210.624,210.353
2016-08-26 21:00,1.17559,272.836,226.261,227.058,225.31,223.905,222.147,1.02184,1.29415,219.624,222.956
2016-08-26 22:00,0.0,222.276,216.471,223.489,216.715,215.683,215.274,-0.0288547,-0.0344048,214.293,215.6
2016-08-26 23:00,-0.593874,233.989,227.533,228.192,225.919,224.19,221.598,-0.251416,-0.456801,219.137,224.204
2016-08-27 00:00,-0.313618,235.601,223.94,226.287,222.485,220.984,218.792,-0.114767,-0.195873,217.36,221.213
2016-08-27 01:00,-0.00196015,232.213,219.628,224.305,218.824,217.607,216.859,0.0,0.0,214.293,217.418
2016-08-27 02:00,0.0,244.063,237.841,232.834,237.702,235.917,229.946,0.0,0.0,225.156,232.829
2016-08-27 03:00,-0.00152929,242.013,233.938,230.565,233.31,231.203,225.535,0.0,0.0,220.801,228.06
2016-08-27 04:00,0.0,252.585,248.177,237.572,247.878,246.035,237.525,0.0,0.0,229.517,240.185
2016-08-27 05:00,0.0,277.869,266.442,248.121,265.138,260.405,242.384,0.0,0.0,230.348,242.105
2016-08-27 06:00,0.0,261.251,245.89,236.784,242.049,238.747,231.257,0.0,0.0,226.027,234.694
2016-08-27 07:00,-0.00265636,251.944,243.496,235.499,242.747,241.251,232.387,0.0,0.0,229.601,237.327
2016-08-27 08:00,0.0,286.121,280.187,255.393,280.201,276.631,254.009,0.0,0.0,238.294,251.152
2016-08-27 09:00,-0.0673743,286.121,280.669,255.393,281.366,277.701,255.027,-0.19966,-0.204055,238.981,251.949
2016-08-27 10:00,0.162926,289.113,283.611,256.892,284.361,280.998,257.034,0.286511,0.221421,240.607,254.068
2016-08-27 11:00,0.224904,286.569,278.598,253.86,279.613,277.243,256.035,0.289348,0.262439,239.41,254.443
2016-08-27 12:00,0.16594,290.558,284.642,257.12,285.618,283.339,259.249,0.234168,0.199436,241.533,258.286
2016-08-27 13:00,0.106263,288.977,280.308,254.926,280.201,276.323,254.009,0.201116,0.176695,240.548,256.271
2016-08-27 14:00,0.172935,288.43,280.789,255.277,281.221,278.609,256.035,0.232895,0.202082,240.724,256.894
2016-08-27 15:00,0.126415,288.43,283.611,256.892,284.641,281.882,257.9,0.192447,0.185634,241.015,257.769
2016-08-27 16:00,0.181387,287.155,282.096,256.32,283.372,281.146,258.147,0.248756,0.237283,240.548,256.894
2016-08-27 17:00,0.209938,285.818,276.208,253.14,277.226,274.773,253.111,0.279328,0.294521,238.608,253.595
2016-08-27 18:00,0.139375,291.931,281.742,256.205,282.231,278.76,254.9,0.156461,0.142288,237.528,253.309
2016-08-27 19:00,0.313264,290.041,272.662,251.056,272.104,268.173,247.415,0.327353,0.328268,234.543,248.241
2016-08-27 20:00,0.517498,292.414,271.848,250.303,270.981,266.16,245.489,0.475509,0.49573,233.308,246.483
2016-08-27 21:00,1.23609,294.713,271.984,250.931,270.657,265.65,245.211,0.927906,1.10639,232.784,246.595
2016-08-27 22:00,-0.0306697,286.864,281.029,255.626,281.943,278.004,253.625,0.0,0.0,236.609,252.731
2016-08-27 23:00,-0.630672,285.665,278.968,254.808,279.907,275.551,251.814,-0.259142,-0.454118,235.593,251.352
2016-08-28 00:00,-0.315906,286.121,279.213,255.043,279.76,275.706,252.464,-0.113678,-0.194013,235.178,250.646
2016-08-28 01:00,-0.00194629,286.569,281.267,256.089,282.087,278.458,254.264,0.0,-0.00196489,236.004,251.85
2016-08-28 02:00,0.0,288.152,283.841,257.798,285.201,282.028,257.158,0.0,0.0,236.408,252.634
2016-08-28 03:00,-0.00152139,289.91,287.978,260.011,290.5,287.469,261.182,0.0,0.0,238.483,255.366
2016-08-28 04:00,0.0015219,285.665,283.032,257.346,285.061,282.321,257.9,0.0,0.00153645,237.977,254.256
2016-08-28 05:00,0.0,290.813,289.593,260.876,292.209,290.101,262.728,0.0,0.0,239.894,257.246
2016-08-28 06:00,-0.00195016,288.152,287.651,259.793,290.101,288.306,263.2,0.0,0.0,239.954,257.595
2016-08-28 07:00,0.0,290.685,290.017,261.198,292.86,290.511,263.436,0.0,0.0,239.774,257.508
2016-08-28 08:00,0.0,290.685,289.805,260.984,292.209,289.964,263.436,0.0,0.0,239.532,258.028
2016-08-28 09:00,-0.0965872,290.041,289.272,260.445,291.423,289.137,263.083,-0.245341,-0.227525,240.193,258.2
2016-08-28 10:00,0.100951,291.563,289.593,260.661,291.817,289.551,262.965,0.261768,0.171984,239.894,257.769
2016-08-28 11:00,0.0497818,291.686,288.843,260.337,290.764,287.888,262.373,0.146286,0.0916464,239.834,257.246
2016-08-28 12:00,0.0633099,292.534,287.978,260.011,289.968,287.048,261.301,0.11726,0.0798939,239.41,256.982
2016-08-28 13:00,0.0219029,291.065,287.978,260.011,289.835,286.907,261.062,0.0728559,0.0426451,239.043,256.45
2016-08-28 14:00,0.0149952,290.939,288.195,259.683,289.968,287.048,261.421,0.0565568,0.0344058,238.733,256.181
2016-08-28 15:00,0.0153423,290.429,287.212,259.574,289.032,286.202,260.461,0.049796,0.0309778,237.913,255.639
2016-08-28 16:00,0.0191909,291.065,287.978,260.011,289.835,286.907,260.701,0.0476635,0.030999,238.168,255.73
2016-08-28 17:00,0.0245904,291.315,287.869,259.793,289.701,286.626,260.581,0.0555218,0.0399967,238.041,255.73
2016-08-28 18:00,0.0863907,291.19,281.505,256.778,281.51,276.631,252.075,0.109055,0.0967311,234.827,251.051
2016-08-28 19:00,0.187228,293.007,278.474,254.808,277.678,271.926,248.903,0.19394,0.184996,233.308,248.669
2016-08-28 20:00,0.408987,296.427,281.029,256.549,280.931,275.551,252.205,0.356326,0.359041,234.329,250.646
2016-08-28 21:00,0.883536,297.848,285.433,258.58,286.31,282.028,256.909,0.649076,0.734573,236.742,254.068
2016-08-28 22:00,-0.0556945,288.568,286.772,259.024,288.628,285.777,260.219,-0.0235782,0.0,237.398,254.999
2016-08-28 23:00,-0.647939,289.647,286.772,259.354,289.032,285.919,260.098,-0.251124,-0.423805,236.874,255.366
2016-08-29 00:00,-0.279012,289.381,285.77,258.358,287.407,284.349,258.515,-0.1126,-0.194806,235.662,254.162
2016-08-29 01:00,-0.00193253,288.291,285.321,258.246,286.86,283.629,257.9,0.0,0.0,235.455,254.256
2016-08-29 02:00,-0.00163398,282.234,274.785,251.676,275.703,271.926,250.236,0.0,0.0,233.677,250.442
2016-08-29 03:00,0.0,279.667,271.023,249.669,271.303,267.506,247.687,0.0,0.0,231.63,247.151
2016-08-29 04:00,0.0,286.864,282.096,256.434,283.088,280.257,256.535,0.0,0.0,234.543,252.439
2016-08-29 05:00,0.0,289.647,287.322,259.354,289.166,286.485,260.942,0.0,0.0,236.609,255.275
2016-08-29 06:00,0.0,289.779,287.322,259.574,289.032,286.626,260.822,0.0,0.0,236.675,255.821
2016-08-29 07:00,0.00262725,285.665,282.916,256.664,284.781,282.321,259.249,0.0,0.0,236.408,254.443
2016-08-29 08:00,-0.00463083,284.087,282.799,257.233,284.781,283.049,260.098,0.0,0.0,236.94,255.911
2016-08-29 09:00,-0.0308374,283.594,275.176,252.534,273.843,269.0,248.364,-0.15666,-0.124529,232.02,247.808
2016-08-29 10:00,0.254121,284.087,273.865,251.305,272.899,269.165,249.305,0.349641,0.327101,233.159,249.513
2016-08-29 11:00,0.123309,291.065,285.433,258.358,286.997,284.205,259.127,0.198868,0.1482,236.475,255.366
2016-08-29 12:00,0.126813,285.97,273.732,251.18,272.899,269.0,248.903,0.187901,0.160031,231.156,247.59
2016-08-29 13:00,0.0516892,289.514,282.799,256.778,283.656,280.257,256.16,0.103445,0.0759031,235.455,254.068
2016-08-29 15:00,0.108816,281.346,265.092,246.667,263.04,258.957,240.938,0.148499,0.142167,228.488,242.848
2016-08-29 16:00,0.144809,275.251,252.666,240.021,249.368,245.186,232.867,0.185541,0.185005,223.746,234.542
2016-08-29 17:00,0.162927,282.234,260.365,244.626,258.304,253.703,238.128,0.190116,0.187983,228.575,242.23
2016-08-29 18:00,0.242645,279.081,250.954,238.963,247.446,242.805,229.449,0.269483,0.278369,222.04,233.146
2016-08-29 19:00,0.408238,279.859,247.357,237.101,243.895,239.667,228.949,0.421901,0.456587,220.801,229.838
2016-08-29 20:00,0.72903,280.427,243.719,235.173,239.911,237.581,229.781,0.708341,0.80236,221.371,229.664
2016-08-29 21:00,1.06058,289.779,269.059,248.771,267.185,264.451,246.044,0.802579,0.97703,226.592,242.725
2016-08-29 22:00,-0.0254737,288.705,284.869,257.572,286.585,283.049,258.76,0.0,0.0,231.315,253.595
2016-08-29 23:00,-0.516379,288.152,285.433,257.572,287.134,284.636,259.249,-0.220509,-0.403453,231.787,253.69
2016-08-30 00:00,-0.289287,288.841,284.528,257.346,286.033,283.049,258.515,-0.102787,-0.179925,231.236,253.117
2016-08-30 01:00,0.0,285.665,280.308,254.69,280.639,278.307,255.027,0.0,0.0,230.184,249.825
2016-08-30 02:00,-0.00162445,285.357,280.066,254.926,280.639,278.458,255.28,0.0,0.0,230.916,250.748
2016-08-30 03:00,0.0,287.155,283.38,256.892,285.201,282.758,259.005,0.0,0.0,232.481,253.88
2016-08-30 04:00,0.0,290.813,289.165,260.228,291.292,289.276,263.553,0.0,0.0,234.257,256.982
2016-08-30 05:00,0.0,288.012,287.212,259.354,289.835,288.584,263.2,0.0,0.0,234.329,257.158
2016-08-30 06:00,0.0,285.202,284.982,257.685,287.951,286.907,262.61,0.0,0.0,235.936,257.855
2016-08-30 07:00,0.0,287.01,286.55,258.691,289.166,287.469,262.492,0.0,0.0,236.408,258.286
2016-08-30 08:00,-0.00459471,285.202,285.095,257.798,287.815,286.626,262.965,0.0,0.0,236.475,258.028
2016-08-30 09:00,-0.0295947,289.113,288.087,259.354,290.5,288.306,262.965,-0.22552,-0.179266,236.675,258.372
2016-08-30 10:00,0.147134,291.931,288.951,259.902,291.16,288.584,263.318,0.297904,0.200206,237.006,258.713
2016-08-30 11:00,0.0470975,291.563,289.165,260.011,290.764,288.584,262.61,0.14954,0.0832084,237.268,258.543
2016-08-30 12:00,0.0773962,292.174,287.432,259.134,289.3,286.767,262.373,0.129382,0.0881535,237.463,257.942
2016-08-30 13:00,0.0705708,293.007,288.195,259.683,290.234,288.167,262.136,0.104898,0.0775784,236.139,257.158
2016-08-30 14:00,0.0560215,291.931,287.541,259.354,289.701,287.469,262.017,0.0867682,0.0634542,236.071,256.45
2016-08-30 15:00,0.0564043,292.294,287.541,259.464,289.835,287.048,261.66,0.0759777,0.0569435,235.593,256.091
2016-08-30 17:00,0.0713563,293.356,287.322,259.574,289.568,287.329,261.898,0.089464,0.0706531,233.677,254.722
2016-08-30 18:00,0.0932582,293.007,285.321,258.022,287.134,284.205,259.005,0.115097,0.0941497,231.943,252.439
2016-08-30 19:00,0.150813,292.653,282.799,256.32,283.797,280.702,256.785,0.17877,0.152254,229.852,249.721
2016-08-30 20:00,0.295256,295.26,285.994,258.802,287.679,284.922,259.856,0.313766,0.28287,229.935,250.238
2016-08-30 21:00,0.81895,293.24,281.505,255.626,281.943,278.76,254.9,0.65329,0.737952,228.4,246.818
2016-08-30 22:00,-0.0234511,288.291,283.956,257.233,285.201,281.882,257.158,0.0,-0.0236753,228.4,247.59
2016-08-30 23:00,-0.512625,288.841,284.982,258.022,286.86,283.049,258.882,-0.224503,-0.414913,228.662,248.241
2016-08-31 00:00,-0.0562878,288.841,284.982,257.91,287.134,284.061,258.882,-0.0173305,-0.0413279,228.921,248.455
2016-08-31 01:00,-0.00381079,258.096,251.339,239.267,251.036,249.955,240.793,0.0,0.0,229.007,239.39
2016-08-31 02:00,-0.00161501,287.3,283.38,257.459,285.201,282.175,258.638,0.0,0.0,228.748,248.133
2016-08-31 03:00,0.0,276.811,275.046,252.29,277.678,275.551,255.658,0.0,0.0,229.007,247.04
2016-08-31 04:00,-0.00150036,275.932,273.065,250.681,275.242,273.359,252.982,0.0,0.0,229.263,247.261
2016-08-31 05:00,0.0,283.924,278.845,254.572,280.201,276.784,255.784,0.0,0.0,229.007,248.025
2016-08-31 06:00,0.0,264.377,258.871,242.656,259.236,257.486,243.949,0.0,0.0,225.643,241.854
2016-08-31 07:00,0.0,245.01,246.733,236.625,247.662,247.085,239.618,0.0,0.0,228.662,238.714
2016-08-31 08:00,0.0,277.026,275.046,252.29,277.377,275.551,256.66,0.0,0.0,229.935,250.544
2016-08-31 09:00,-0.0284535,279.081,278.721,253.86,281.366,279.661,259.249,-0.144549,-0.114902,230.674,252.244
2016-08-31 10:00,0.65062,281.346,275.046,251.922,277.226,275.861,255.658,0.741778,0.73488,230.593,251.252
2016-08-31 11:00,0.430896,287.01,274.129,251.676,276.01,273.832,254.137,0.459797,0.446933,230.184,250.849
2016-08-31 12:00,0.343863,289.779,276.591,252.899,277.828,275.085,254.773,0.392125,0.38327,230.916,250.646
2016-08-31 13:00,0.08008,290.813,283.032,256.32,283.938,280.257,257.53,0.123642,0.084016,231.865,252.146
2016-08-31 14:00,0.117652,289.113,280.909,255.51,282.087,278.911,256.909,0.156374,0.121539,230.266,250.646
2016-08-31 15:00,0.0731713,289.514,279.58,254.69,280.201,276.015,254.264,0.0913007,0.0738708,228.662,248.669
2016-08-31 16:00,0.11316,284.888,271.162,249.669,271.303,267.004,248.229,0.136097,0.133715,228.575,245.69
2016-08-31 17:00,0.0880279,289.113,278.845,254.69,279.318,275.085,253.368,0.110635,0.097201,228.488,246.483
2016-08-31 18:00,0.155411,293.816,276.845,253.381,277.075,271.926,251.028,0.166497,0.150493,226.499,243.093
2016-08-31 19:00,0.236434,290.171,281.029,255.626,282.087,279.211,256.41,0.296005,0.275416,229.178,248.025
2016-08-31 20:00,0.455799,292.771,281.267,255.742,283.23,280.554,257.9,0.460536,0.450953,230.835,249.093
2016-08-31 21:00,0.587845,290.301,284.528,257.572,286.585,283.917,260.098,0.532861,0.530627,231.473,250.849
2016-08-31 22:00,-0.0217081,288.705,285.433,258.022,286.997,283.629,259.614,-0.0183802,0.0,231.943,251.452
2016-08-31 23:00,-0.591563,284.41,275.046,251.799,274.0,269.329,248.499,-0.235706,-0.412783,227.78,245.114
