# timestamp,IR_016,IR_039,IR_087,IR_097,IR_108,IR_120,IR_134,VIS006,VIS008,WV_062,WV_073
2014-07-01 00:00,-0.0735215,283.261,284.755,261.198,287.27,286.767,263.787,-0.019154,-0.0380638,244.635,262.151
2014-07-01 01:00,-0.00151028,283.261,284.528,260.876,286.86,286.485,263.083,-0.0,-0.0,244.583,262.151
2014-07-01 02:00,-0.0,282.408,283.956,260.553,286.447,285.777,263.083,-0.0,-0.00133732,244.058,262.072
2014-07-01 03:00,-0.00124614,281.883,283.611,260.011,286.172,285.777,263.787,-0.0,-0.0,243.899,262.388
2014-07-01 04:00,-0.0,281.705,283.264,260.228,285.757,285.493,263.2,-0.0,-0.0,243.74,261.595
2014-07-01 05:00,-0.0,280.982,283.032,259.793,285.479,285.208,263.553,-0.0,-0.0,243.899,261.755
2014-07-01 06:00,0.00151982,281.165,282.799,260.011,285.061,285.208,263.2,-0.0,-0.0,243.633,261.993
2014-07-01 07:00,-0.00190468,280.613,282.566,259.793,285.061,284.922,263.436,-0.0,-0.0,243.633,261.675
2014-07-01 08:00,-0.0,280.239,282.331,259.574,284.921,284.779,263.2,-0.0,-0.0,244.006,262.23
2014-07-01 09:00,-0.00550954,280.613,282.566,259.354,285.061,285.065,263.083,-0.0,-0.0,243.793,262.151
2014-07-01 10:00,1.23566,280.799,282.566,259.464,284.921,285.065,263.436,2.09246,2.13852,243.686,262.309
2014-07-01 12:00,0.425368,291.065,289.593,263.825,292.079,290.784,265.532,0.18738,0.400419,243.793,262.309
2014-07-01 13:00,0.362715,295.583,293.235,266.358,295.55,293.75,266.108,0.146495,0.324093,244.006,262.23
2014-07-01 14:00,0.307364,298.436,295.442,267.935,297.807,295.471,266.566,0.116814,0.264462,244.006,262.466
2014-07-01 15:00,0.267617,299.765,296.718,269.096,299.164,296.258,267.478,0.0969153,0.227859,244.479,262.309
2014-07-01 16:00,0.240515,300.225,297.397,269.384,299.898,297.3,267.251,0.0861044,0.202074,244.479,262.545
2014-07-01 17:00,0.227949,299.485,296.913,269.0,299.531,297.04,266.909,0.0816554,0.191183,244.894,263.012
2014-07-01 18:00,0.22477,298.045,296.033,268.421,298.549,295.996,266.566,0.0871525,0.192987,244.945,263.399
2014-07-01 19:00,0.2244,295.69,294.546,267.249,296.809,294.679,265.993,0.108571,0.211834,245.048,263.476
2014-07-01 20:00,0.2325,292.294,292.108,265.859,294.661,292.948,265.301,0.178109,0.251488,244.894,263.244
2014-07-01 21:00,-10.9935,287.444,288.412,263.203,290.764,290.101,265.301,-16.2894,-19.4226,244.479,263.244
2014-07-01 22:00,-0.0,285.97,287.212,262.576,289.701,288.999,264.721,-0.0,-0.0,243.899,262.623
2014-07-01 23:00,-0.105925,284.73,286.55,261.838,289.032,288.861,264.837,-0.0321952,-0.0630659,243.793,262.545
2014-07-02 00:00,-0.0641627,284.087,285.882,261.519,288.358,288.306,264.721,-0.0191741,-0.0381036,243.846,262.545
2014-07-02 01:00,-0.0,283.594,285.433,261.305,287.815,288.027,264.372,-0.0,-0.0,243.526,262.388
2014-07-02 02:00,-0.0,283.093,285.095,261.198,287.543,287.748,264.488,-0.0,-0.0,243.418,262.388
2014-07-02 03:00,-0.0,282.923,284.642,260.553,287.134,287.188,264.488,-0.0,-0.0,243.202,262.309
2014-07-02 04:00,-0.0,281.526,282.448,259.244,284.361,284.205,262.255,-0.0,-0.0,242.211,260.871
2014-07-02 05:00,-0.0,280.05,278.968,257.233,280.201,279.361,258.515,-0.0,-0.0,240.014,258.114
2014-07-02 06:00,-0.0,278.883,277.727,256.32,278.873,277.396,256.285,-0.0,-0.0,240.253,257.855
2014-07-02 07:00,-0.0,281.526,283.264,260.228,285.757,285.919,263.553,-0.0,-0.0,242.6,262.151
2014-07-02 08:00,-0.0,281.346,283.264,260.119,285.895,286.06,263.553,-0.0,-0.0,242.378,261.834
2014-07-02 09:00,-0.0,280.982,283.148,259.574,285.757,285.919,263.67,-0.0,0.00555002,242.489,261.834
2014-07-02 10:00,1.30789,280.982,283.148,259.683,285.618,285.777,263.787,2.21477,2.45215,242.322,261.675
2014-07-02 11:00,0.0,285.818,286.105,261.519,288.628,287.888,264.372,0.250291,0.466642,242.655,261.914
2014-07-02 12:00,0.43403,291.931,290.123,264.031,292.47,291.329,265.185,0.18983,0.403357,242.82,262.23
2014-07-02 13:00,0.364689,296.323,293.641,266.358,295.93,293.75,265.993,0.148215,0.326098,242.875,262.072
2014-07-02 14:00,0.307187,299.203,296.327,268.13,298.672,295.996,266.795,0.116747,0.267834,243.039,262.309
2014-07-02 15:00,0.265786,300.769,297.879,0.0,0.0,0.0,0.0,0.0981995,0.0,0.0,0.0
2014-07-02 16:00,0.238641,300.947,298.071,269.479,300.506,297.818,267.478,0.0860109,0.20511,243.256,262.545
2014-07-02 17:00,0.224124,300.134,297.975,269.0,300.506,297.947,267.932,0.0815398,0.19268,243.31,262.701
2014-07-02 18:00,0.22644,299.013,296.718,268.615,299.164,296.65,267.365,0.0923127,0.198971,243.899,262.701
2014-07-02 19:00,0.238305,296.943,294.945,267.249,297.434,295.339,266.337,0.120571,0.22298,244.006,262.545
2014-07-02 20:00,0.225758,293.587,292.827,265.959,295.424,293.75,266.222,0.177163,0.250152,244.006,262.779
2014-07-02 21:00,7.16812,288.43,289.486,263.721,291.948,291.464,265.993,10.6212,14.4733,244.164,263.012
2014-07-02 22:00,-0.00535548,286.569,288.087,262.89,290.764,290.511,265.185,-0.0,-0.0,244.164,262.857
2014-07-02 23:00,-0.106129,286.121,287.432,262.576,290.101,289.689,265.301,-0.0322571,-0.0631872,244.269,263.09
2014-07-03 00:00,-0.0642287,285.202,286.992,262.261,289.434,289.413,265.185,-0.0191938,-0.0362356,244.635,263.322
2014-07-03 01:00,-0.00151199,284.41,286.439,261.731,289.032,288.999,265.301,-0.0,-0.0,244.635,263.476
2014-07-03 02:00,-0.0,283.76,285.882,261.412,288.358,288.445,265.185,-0.0,-0.0,245.456,263.782
2014-07-03 03:00,-0.0,283.594,285.546,261.305,288.087,288.167,264.953,-0.0,-0.0,245.405,263.858
2014-07-03 04:00,-0.0,283.093,285.321,261.091,287.815,287.748,265.301,-0.0,-0.0,244.945,263.782
2014-07-03 05:00,-0.00132826,282.923,285.095,260.769,287.407,287.469,264.022,-0.0,-0.0,244.894,263.629
2014-07-03 06:00,-0.0,282.408,284.528,260.661,287.134,287.048,264.255,-0.0,0.0015326,244.842,263.476
2014-07-03 07:00,-0.0,282.234,284.185,260.445,286.722,286.485,265.069,-0.0,-0.0,245.048,263.476
2014-07-03 08:00,-0.00275204,282.059,283.956,260.553,286.447,286.767,264.022,-0.0,-0.0,244.739,263.322
2014-07-03 09:00,-0.0,281.705,283.726,260.119,286.172,286.202,264.022,-0.0,-0.0,244.374,262.857
2014-07-03 10:00,0.984015,281.705,283.264,259.902,285.618,285.208,263.318,2.33286,2.38421,244.111,262.388
2014-07-03 12:00,0.433995,292.771,290.756,264.645,292.989,291.464,265.185,0.189815,0.39462,244.997,262.779
2014-07-03 13:00,0.362447,296.84,293.843,266.458,296.056,293.75,266.452,0.149914,0.32175,244.997,263.012
2014-07-03 14:00,0.30523,299.858,296.131,268.13,298.426,295.602,266.222,0.121097,0.260605,244.635,262.857
2014-07-03 15:00,0.268758,301.037,297.107,268.518,299.287,296.389,266.566,0.102196,0.222586,244.842,262.701
2014-07-03 16:00,0.265737,300.498,293.539,266.557,295.803,292.948,265.416,0.130909,0.229255,245.304,262.623
2014-07-03 17:00,0.326935,298.822,290.017,263.928,291.686,289.137,263.905,0.204281,0.30182,244.945,262.388
2014-07-03 18:00,0.353628,295.69,286.217,261.838,287.951,285.919,262.492,0.279928,0.363346,245.304,261.675
2014-07-03 19:00,0.243411,296.943,293.031,265.758,295.297,292.545,264.953,0.149665,0.231111,245.151,262.151
2014-07-03 20:00,0.251912,293.472,292.211,265.557,294.277,292.545,265.301,0.222567,0.281964,244.842,262.072
2014-07-03 21:00,4.00825,286.121,286.439,262.049,288.897,287.329,263.436,4.52504,6.06986,244.894,262.23
2014-07-03 22:00,-0.0,283.428,284.185,260.337,286.585,285.493,262.373,-0.0,-0.0,244.997,262.23
2014-07-03 23:00,-0.117238,285.665,286.661,261.625,288.897,287.748,264.488,-0.0346275,-0.0688134,245.048,262.388
2014-07-04 00:00,-0.0756394,285.045,286.328,261.625,288.628,288.167,264.022,-0.0224153,-0.0419994,244.894,262.388
2014-07-04 01:00,-0.0,284.57,285.882,261.305,288.358,287.888,264.488,-0.0,-0.0,245.202,262.935
2014-07-04 02:00,-0.0,284.087,285.658,261.091,287.951,287.748,264.255,-0.0,-0.0,245.202,263.012
2014-07-04 03:00,0.0,0.0,285.321,260.661,287.543,287.469,264.138,-0.0,-0.0,245.456,263.09
2014-07-04 04:00,-0.0,283.093,284.982,260.769,287.27,287.329,263.787,-0.0,-0.0,244.997,263.322
2014-07-04 05:00,-0.0,283.093,284.869,260.553,287.27,287.329,264.488,-0.0,-0.0,244.842,263.399
2014-07-04 06:00,-0.00151722,282.408,284.414,260.445,286.447,286.767,264.022,-0.0,-0.0,244.79,263.629
2014-07-04 07:00,0.0019001,282.059,283.841,260.119,286.31,286.767,264.488,-0.0,-0.0,244.79,263.552
2014-07-04 08:00,-0.0,281.883,283.841,260.119,286.172,286.202,264.605,-0.0,-0.0,244.635,263.706
2014-07-04 09:00,0.00547631,281.526,283.495,259.574,285.895,285.919,264.255,-0.0,-0.0,244.269,263.629
2014-07-04 10:00,1.64845,281.526,283.264,259.244,285.618,286.06,263.905,2.44254,2.70433,244.531,263.934
2014-07-04 12:00,0.445379,292.771,291.279,264.543,293.892,292.814,266.222,0.1922,0.406124,244.842,264.389
2014-07-04 13:00,0.372649,297.449,295.244,266.855,297.683,295.996,267.251,0.149829,0.323668,245.202,264.389
2014-07-04 14:00,0.313697,300.134,297.494,268.421,300.263,298.205,268.045,0.120999,0.267432,245.355,264.54
2014-07-04 15:00,0.274911,300.769,298.167,268.904,300.869,298.72,267.819,0.100729,0.230471,245.202,264.54
2014-07-04 16:00,0.246094,300.858,298.167,269.0,300.748,298.334,267.705,0.0885221,0.202979,245.151,264.01
2014-07-04 17:00,0.230406,300.134,297.975,268.807,300.506,298.076,267.705,0.085719,0.195603,245.759,264.162
2014-07-04 18:00,0.225514,299.013,297.494,268.13,300.02,298.076,267.932,0.0901672,0.196049,246.357,264.765
2014-07-04 19:00,0.228237,296.635,296.033,267.348,298.795,297.3,267.478,0.110078,0.218752,246.652,265.36
2014-07-04 20:00,0.245067,293.587,293.438,265.959,295.93,294.679,266.795,0.179831,0.263904,246.208,264.989
2014-07-04 21:00,1.63152,287.871,289.058,263.203,291.292,290.921,265.301,3.10817,3.70602,245.658,264.765
2014-07-04 22:00,-0.00540426,285.97,287.432,261.944,289.701,289.551,265.301,-0.0,-0.00545592,245.507,264.615
2014-07-04 23:00,-0.106536,284.57,286.55,261.305,288.763,288.722,265.069,-0.0346937,-0.0689449,245.202,264.464
2014-07-05 00:00,-0.0794999,284.249,286.105,261.091,288.358,288.306,264.953,-0.0224375,-0.0439518,245.557,264.989
2014-07-05 01:00,-0.00151356,283.76,285.546,260.876,287.679,287.888,264.721,-0.0,-0.0,245.608,264.989
2014-07-05 02:00,-0.0,283.261,285.095,260.984,287.27,287.329,264.488,-0.0,-0.0,246.208,265.507
2014-07-05 03:00,-0.00124611,283.428,285.095,260.876,287.134,287.329,264.721,-0.0,-0.0,246.406,265.655
2014-07-05 04:00,-0.0,283.261,285.208,260.769,287.27,287.748,264.953,-0.0,-0.0,247.041,266.384
2014-07-05 05:00,-0.0,282.753,284.982,260.337,287.134,287.329,265.416,-0.0,-0.0,247.522,266.888
2014-07-05 06:00,-0.0,282.753,284.755,260.661,286.86,287.188,265.301,-0.0,-0.0,247.474,267.032
2014-07-05 07:00,0.00189866,281.526,283.38,259.683,285.201,285.35,263.553,-0.0,-0.0,247.331,266.312
2014-07-05 08:00,0.00274619,281.346,283.38,259.574,285.201,285.35,263.905,-0.0,-0.0,248.184,267.032
2014-07-05 09:00,-0.00546727,280.982,283.148,259.354,284.921,285.065,263.67,-0.0,-0.0,248.231,266.817
2014-07-05 10:00,1.92782,281.346,283.032,259.354,284.921,285.065,263.905,2.53911,3.24375,248.371,266.817
2014-07-05 12:00,0.456679,293.816,292.52,265.153,295.17,294.016,267.705,0.194551,0.426249,248.51,267.459
2014-07-05 13:00,0.372386,297.449,295.837,267.348,298.426,296.91,267.705,0.151484,0.340241,247.949,267.742
2014-07-05 14:00,0.306442,299.013,296.621,268.033,298.549,296.78,267.137,0.120887,0.268943,246.944,266.673
2014-07-05 15:00,0.276203,300.947,299.213,269.575,301.952,300.252,269.395,0.100615,0.238314,248.417,268.441
2014-07-05 16:00,0.24736,300.769,299.118,269.288,301.472,299.616,268.497,0.0897595,0.210806,248.371,267.742
2014-07-05 17:00,0.235241,299.95,298.549,269.0,301.11,299.232,268.609,0.0840975,0.198788,248.137,267.6
2014-07-05 18:00,0.227104,298.339,297.494,268.324,300.141,298.334,268.609,0.0899698,0.199827,248.464,267.459
2014-07-05 19:00,0.230411,296.323,0.0,0.0,0.0,297.17,267.932,0.109737,0.0,248.787,267.53
2014-07-05 20:00,0.0,292.414,293.031,265.658,0.0,0.0,267.592,0.169643,0.256942,0.0,267.317
2014-07-05 21:00,0.876868,287.155,288.736,262.786,291.029,290.648,0.0,1.97985,2.65575,0.0,266.96
2014-07-05 22:00,-0.00542919,285.357,287.212,261.731,289.166,289.137,264.721,-0.0,-0.0,247.522,266.239
2014-07-05 23:00,-0.0930538,284.57,286.439,261.412,288.628,288.306,264.721,-0.030125,-0.0607869,246.701,266.021
2014-07-06 00:00,-0.0644193,283.428,285.658,261.091,287.679,287.888,264.605,-0.0224592,-0.0439943,246.406,265.581
2014-07-06 01:00,-0.00151428,283.093,285.095,260.876,287.134,287.329,264.488,-0.0,-0.0,246.406,265.581
2014-07-06 02:00,-0.0,282.408,284.528,260.553,286.585,287.188,264.488,-0.0,-0.0,246.603,265.728
2014-07-06 03:00,-0.00124603,282.059,284.3,260.119,286.172,286.767,264.372,-0.0,-0.0,246.456,265.581
2014-07-06 04:00,-0.0,281.705,283.841,260.011,286.033,286.485,264.255,-0.0,-0.0,246.554,265.581
2014-07-06 05:00,-0.00132667,281.346,283.264,259.683,285.618,285.919,264.022,-0.0,-0.0,246.554,265.36
2014-07-06 06:00,-0.0,280.982,282.916,259.464,285.061,285.493,263.787,-0.0,-0.0,246.109,264.989
2014-07-06 07:00,-0.0,280.05,282.566,259.464,284.781,284.922,263.2,-0.0,-0.0,245.809,264.389
2014-07-06 08:00,-0.0,280.239,282.331,258.913,284.501,284.779,263.905,-0.0,-0.0,244.79,264.162
2014-07-06 09:00,-0.0,280.05,281.86,259.244,284.079,284.349,263.553,-0.0,-0.0,244.531,263.934
2014-07-06 10:00,1.325,280.05,282.096,259.244,284.22,284.636,263.083,2.43073,2.67533,244.79,264.464
2014-07-06 11:00,0.478937,285.512,285.994,261.305,288.087,288.027,264.138,0.255155,0.488948,244.997,265.507
2014-07-06 12:00,0.450666,292.294,290.965,264.543,293.248,292.141,265.647,0.196865,0.414403,244.531,265.212
2014-07-06 13:00,0.378309,296.635,294.446,266.756,296.809,295.208,266.337,0.153117,0.331562,243.846,264.615
2014-07-06 14:00,0.313081,299.391,296.815,268.033,299.041,296.519,267.365,0.120761,0.270419,243.633,264.615
2014-07-06 15:00,0.274256,300.769,297.879,269.0,299.898,297.3,266.909,0.101848,0.229922,243.202,264.314
2014-07-06 16:00,0.306336,299.95,291.902,265.153,294.149,291.6,264.721,0.16839,0.275262,242.378,263.934
2014-07-06 17:00,0.353098,298.726,287.432,262.681,289.835,287.609,263.318,0.228275,0.328377,242.322,263.09
2014-07-06 18:00,0.392888,298.533,286.55,262.261,289.3,287.188,262.136,0.262254,0.373559,242.042,262.623
2014-07-06 19:00,0.32729,297.045,290.756,264.849,292.86,290.375,264.372,0.206622,0.315927,242.82,263.167
2014-07-06 20:00,0.231507,292.653,290.965,264.543,292.86,291.193,264.605,0.200575,0.255461,243.256,262.701
2014-07-06 21:00,0.45408,284.249,283.726,260.445,286.172,284.779,261.66,1.73011,1.83368,243.418,261.993
2014-07-06 22:00,-0.0,280.239,279.58,257.685,282.231,280.406,260.219,-0.0,-0.0,243.846,261.755
2014-07-06 23:00,-0.0932297,279.473,279.58,257.91,281.655,280.85,260.461,-0.0325036,-0.0664383,244.058,261.435
2014-07-07 00:00,-0.075859,283.428,284.755,260.876,286.997,285.777,262.61,-0.0240861,-0.0459505,242.489,261.993
2014-07-07 01:00,-0.00302995,284.249,285.321,261.198,287.679,286.907,263.67,-0.0,-0.0,242.099,261.755
2014-07-07 02:00,-0.0,277.026,277.35,256.549,280.054,278.156,259.249,-0.0,-0.0,241.533,260.381
2014-07-07 03:00,0.00124593,279.859,280.429,258.469,283.372,281.441,260.461,-0.0,-0.0,242.155,260.871
2014-07-07 04:00,-0.0,282.581,284.071,260.337,286.447,286.343,263.67,-0.0,-0.0,239.954,260.708
2014-07-07 05:00,-0.0,282.234,283.726,260.445,285.757,285.635,262.847,-0.0,-0.0,240.782,260.871
2014-07-07 06:00,-0.00151465,281.705,283.38,259.793,285.618,285.35,263.083,-0.0,-0.0,241.361,261.275
2014-07-07 07:00,-0.0018959,281.346,283.148,259.793,285.201,285.208,262.965,-0.0,-0.0,240.841,260.708
2014-07-07 08:00,-0.00274106,280.982,282.682,259.574,284.921,285.065,262.965,-0.0,-0.0,239.954,260.952
2014-07-07 09:00,-0.00545232,280.799,282.448,259.244,284.781,284.779,263.67,-0.0,0.00550444,239.714,261.113
2014-07-07 10:00,3.38346,278.482,279.458,257.685,281.943,281.293,261.54,3.24674,3.87124,238.981,259.887
2014-07-07 12:00,0.44745,292.174,290.335,264.133,292.73,291.464,264.605,0.199142,0.405397,238.483,260.463
2014-07-07 13:00,0.37794,296.635,293.641,266.358,296.307,293.883,265.416,0.152968,0.324949,237.137,259.554
2014-07-07 14:00,0.317932,299.391,296.131,267.74,298.426,295.865,266.337,0.123564,0.264846,238.795,260.217
2014-07-07 15:00,0.277091,300.589,297.107,268.518,299.654,296.78,266.222,0.103067,0.227996,237.785,259.721
2014-07-07 16:00,0.248206,300.679,297.397,268.518,300.02,296.91,266.452,0.0908414,0.202079,236.475,258.628
2014-07-07 17:00,0.270834,300.408,294.846,266.657,297.06,293.75,264.605,0.116127,0.224347,237.203,258.286
2014-07-07 18:00,0.250936,298.822,294.145,266.358,296.182,293.216,264.255,0.117647,0.207274,236.609,257.158
2014-07-07 19:00,0.23751,296.323,293.742,265.859,296.182,293.483,264.721,0.12599,0.216669,237.203,257.595
2014-07-07 20:00,0.240855,292.414,291.174,264.339,293.635,291.464,264.138,0.1994,0.259368,237.333,257.158
2014-07-07 21:00,0.740696,287.3,287.432,261.625,289.835,288.167,263.553,1.41108,1.6825,236.139,256.894
2014-07-07 22:00,-0.00548002,285.665,286.217,260.984,288.628,287.609,263.2,-0.0,-0.0,236.542,257.508
2014-07-07 23:00,-0.129118,284.73,285.095,260.337,287.543,286.485,262.255,-0.0372167,-0.0665629,235.108,255.73
2014-07-08 00:00,,284.249,284.755,260.119,287.134,286.202,262.492,-0.0192866,-0.04216,235.038,255.911
2014-07-08 01:00,-0.00151563,283.428,284.071,259.574,286.585,285.635,262.136,-0.0,-0.0,235.317,255.639
2014-07-08 02:00,-0.0,282.753,283.611,259.464,286.172,285.35,262.017,-0.0,-0.0,233.308,255.275
2014-07-08 03:00,-0.0,282.581,283.38,259.244,285.618,284.922,261.779,-0.0,-0.0,,254.722
2014-07-08 04:00,-0.0,282.234,282.682,258.802,285.479,284.492,262.017,-0.0,-0.0,231.473,253.69
2014-07-08 05:00,-0.0,281.526,282.331,258.691,284.921,284.349,261.779,-0.0,-0.0,230.996,252.731
2014-07-08 06:00,-0.0,280.982,,258.913,284.781,284.061,262.136,-0.0,-0.0,231.552,252.731
2014-07-08 07:00,-0.0018946,280.982,282.096,258.913,284.641,284.061,261.182,-0.0,-0.0,231.315,252.146
2014-07-08 08:00,-0.00273877,267.444,270.468,251.922,274.467,273.675,256.535,-0.0,-0.0,232.481,252.828
2014-07-08 09:00,-0.00544646,266.131,269.201,251.429,273.215,,256.535,-0.0,-0.0,232.175,251.152
2014-07-08 10:00,2.73702,267.761,269.201,251.18,273.215,273.042,256.41,3.86238,3.91451,232.557,252.244
2014-07-08 11:00,0.736419,285.97,269.201,251.18,272.741,272.565,255.532,0.614422,0.678338,231.315,251.252
2014-07-08 12:00,0.398313,287.444,281.505,258.358,282.803,280.108,256.785,0.218364,0.384763,230.101,249.513
2014-07-08 13:00,0.443899,297.649,282.096,259.244,284.641,281.146,259.127,0.275739,0.393695,231.709,252.925
2014-07-08 14:00,0.478897,299.579,274.524,254.926,277.226,275.861,257.653,0.326148,0.413407,232.709,253.69
2014-07-08 15:00,0.273492,299.579,295.343,267.151,297.309,293.75,264.605,0.104272,0.222823,233.308,254.536
2014-07-08 16:00,0.278166,300.769,293.641,266.259,295.677,291.464,263.318,0.112347,0.22111,234.185,254.999
2014-07-08 17:00,0.535401,296.219,273.997,254.099,277.226,276.015,257.9,0.438653,0.521278,233.085,254.443
2014-07-08 18:00,0.374448,299.95,284.755,260.984,286.997,283.629,260.219,0.231214,0.315371,233.603,254.814
2014-07-08 19:00,0.282344,295.796,290.965,264.95,293.248,290.101,263.436,0.159374,0.256251,234.113,255.366
2014-07-08 20:00,0.255386,292.174,290.44,264.031,292.73,290.511,263.2,0.193711,0.263199,234.401,255.73
2014-07-08 21:00,1.24852,282.059,281.86,259.024,284.641,282.467,260.219,1.3214,1.57557,235.386,256.091
2014-07-08 22:00,-0.00550588,268.073,270.468,251.799,274.0,273.832,257.653,-0.0,-0.0,235.731,255.73
2014-07-08 23:00,-0.115597,268.986,270.746,252.168,274.156,273.832,256.66,-0.0349556,-0.0694654,235.936,256.181
2014-07-09 00:00,-0.0835965,277.661,278.101,256.778,280.639,278.911,259.249,-0.0225212,-0.0441159,235.936,256.001
2014-07-09 01:00,-0.00151624,284.249,284.528,260.119,286.86,285.635,262.255,-0.0,0.00153074,235.662,256.45
2014-07-09 02:00,-0.00132657,283.261,283.726,259.683,286.172,285.493,262.373,-0.0,-0.0,236.408,256.982
2014-07-09 03:00,0.00124565,276.811,277.35,256.434,280.054,278.307,258.638,-0.0,-0.0,236.609,256.539
2014-07-09 04:00,-0.0,282.408,283.148,259.683,285.479,284.349,262.136,-0.0,-0.0,236.808,257.07
2014-07-09 05:00,-0.00132498,282.059,282.799,259.464,285.201,284.349,261.301,-0.0,-0.0,235.867,256.716
2014-07-09 06:00,-0.0,280.613,279.945,257.459,281.655,280.108,258.147,-0.0,-0.0,234.257,254.629
2014-07-09 07:00,0.00189336,281.526,282.331,259.024,284.921,284.205,261.779,-0.0,-0.0,235.593,257.246
2014-07-09 08:00,-0.0,281.165,282.331,258.802,284.641,284.205,261.898,-0.0,-0.0,235.455,256.982
2014-07-09 09:00,-0.0,279.667,279.823,257.459,281.943,280.702,259.127,-0.0,-0.0,234.185,255.73
2014-07-09 10:00,3.87946,278.482,275.176,254.808,276.62,275.085,254.646,3.67117,5.29885,232.328,252.731
2014-07-09 12:00,0.43794,289.514,283.264,259.574,284.361,281.146,257.282,0.21812,0.401671,232.557,254.256
2014-07-09 13:00,0.374982,293.702,287.541,262.155,289.032,285.635,259.005,0.17015,0.332553,233.823,255.275
2014-07-09 14:00,0.291101,280.799,262.774,246.399,261.069,257.115,240.354,0.203929,0.30438,225.546,239.789
2014-07-09 15:00,0.261891,296.008,288.628,262.89,289.434,285.777,258.882,0.11628,0.224091,232.557,253.5
2014-07-09 16:00,0.26491,282.923,264.635,247.991,262.507,258.04,240.646,0.189168,0.280332,224.56,239.789
2014-07-09 17:00,0.243806,298.918,294.446,266.855,296.559,293.216,264.022,0.0922348,0.197259,234.897,257.158
2014-07-09 18:00,0.224925,296.323,291.902,265.052,293.506,290.375,262.965,0.103084,0.193743,234.827,256.36
2014-07-09 19:00,0.241584,295.26,292.827,265.758,295.297,292.679,264.138,0.120323,0.2152,235.936,257.769
2014-07-09 20:00,0.200964,292.053,291.383,264.441,294.021,292.141,264.605,0.165678,0.224242,237.072,258.286
2014-07-09 21:00,0.673384,287.155,287.651,262.155,290.101,288.999,263.318,1.02627,1.22368,236.675,258.286
2014-07-09 22:00,-0.0,285.357,286.105,261.091,288.628,287.609,263.318,-0.0,-0.0,237.333,257.855
2014-07-09 23:00,-0.0965081,284.57,285.433,260.553,287.815,287.048,263.083,-0.0303506,-0.0640259,236.874,257.942
2014-07-10 00:00,-0.076063,283.924,284.642,260.011,287.27,286.485,262.965,-0.0225408,-0.0479938,236.609,257.682
2014-07-10 01:00,-0.00151681,282.923,284.071,259.902,286.722,286.202,262.492,-0.0,-0.00153131,236.808,257.769
2014-07-10 02:00,-0.0,282.581,283.495,259.683,286.172,285.493,262.61,-0.0,-0.0,237.006,257.855
2014-07-10 03:00,-0.0,282.408,283.495,259.464,285.895,285.493,262.136,-0.0,-0.0,237.268,258.028
2014-07-10 04:00,-0.0,281.346,283.032,258.913,285.479,285.208,261.66,-0.0,-0.0,237.849,258.286
2014-07-10 05:00,0.00132441,281.526,282.682,258.691,285.201,284.636,262.255,-0.0,-0.0,237.398,257.855
2014-07-10 06:00,-0.00151216,281.165,282.214,258.358,284.641,284.205,261.898,-0.0,0.00152661,237.203,257.508
2014-07-10 07:00,-0.0,280.982,281.978,258.246,284.501,283.629,261.301,-0.0,-0.0,236.874,257.246
2014-07-10 08:00,-0.0,281.165,281.742,257.91,284.22,283.339,261.182,-0.0,-0.0,236.808,256.628
2014-07-10 09:00,-0.00543807,281.165,281.978,258.134,284.501,283.484,261.182,-0.0,-0.0,236.542,256.091
2014-07-10 10:00,1.80699,281.526,281.978,258.134,284.641,283.773,260.942,2.67746,2.96443,236.609,255.911
2014-07-10 11:00,0.48267,285.665,284.414,259.683,286.585,285.208,261.421,0.26791,0.438556,237.137,255.639
2014-07-10 12:00,0.440233,290.939,287.322,262.049,289.434,287.048,261.779,0.203315,0.38095,237.849,255.73
2014-07-10 13:00,0.376536,294.823,290.229,263.721,292.079,288.999,262.136,0.159406,0.311209,238.104,255.548
2014-07-10 14:00,0.339112,297.947,292.314,265.052,293.892,289.689,262.136,0.136238,0.272486,240.665,256.001
2014-07-10 15:00,0.266244,298.63,292.827,265.456,294.533,290.648,262.373,0.10934,0.215675,241.704,256.36
2014-07-10 16:00,0.254864,299.672,294.145,266.059,295.93,291.735,263.083,0.0971067,0.201016,242.875,256.628
2014-07-10 17:00,0.303674,298.533,288.087,262.155,289.701,285.208,260.581,0.165083,0.263029,243.093,256.894
2014-07-10 18:00,0.25521,298.045,292.417,264.747,294.021,290.238,262.255,0.123727,0.216093,243.526,257.508
2014-07-10 19:00,0.44182,301.74,284.869,260.119,286.585,282.028,259.127,0.292556,0.397437,243.953,256.894
2014-07-10 20:00,0.67807,292.534,276.845,254.926,278.128,275.24,256.035,0.520715,0.663326,244.531,256.271
2014-07-10 21:00,1.18315,282.408,282.331,258.469,284.641,282.613,260.461,1.00177,1.3139,244.635,258.457
2014-07-10 22:00,-0.00555835,286.569,286.217,260.553,288.493,286.626,261.898,-0.0,-0.0,245.658,259.304
2014-07-10 23:00,-0.116021,285.512,285.77,260.337,288.087,286.06,262.255,-0.0350838,-0.0697202,246.059,260.052
2014-07-11 00:00,-0.0685145,285.202,285.77,260.119,287.815,286.485,262.255,-0.0209485,-0.0441916,246.701,260.789
2014-07-11 01:00,-0.0,285.045,285.658,260.119,287.951,286.202,262.255,-0.0,-0.0,246.652,260.789
2014-07-11 02:00,0.00132673,284.41,285.321,260.119,287.543,286.485,262.61,-0.0,-0.0,246.847,260.952
2014-07-11 03:00,-0.0,284.249,284.869,259.574,287.134,285.777,262.136,-0.0,-0.0,247.331,261.113
2014-07-11 04:00,-0.00124439,284.57,285.095,259.793,287.543,286.202,262.373,-0.0,-0.0,246.603,261.194
2014-07-11 05:00,0.00132383,283.261,284.982,259.902,287.27,286.485,262.847,-0.0,-0.0,245.658,261.435
2014-07-11 06:00,-0.0,283.428,284.642,259.902,287.134,286.485,262.61,-0.0,-0.0,243.953,261.435
2014-07-11 07:00,0.00189105,282.923,284.528,260.011,286.997,286.626,262.847,-0.0,-0.0,243.31,261.435
2014-07-11 08:00,-0.00273314,282.753,284.185,259.902,286.585,286.343,263.318,-0.0,-0.0,241.817,260.627
2014-07-11 09:00,-0.00543558,282.753,283.841,259.683,286.585,285.919,263.2,-0.0,-0.0,240.724,259.804
2014-07-11 10:00,1.32726,282.581,283.956,259.464,286.447,286.06,263.083,2.62217,2.90321,239.349,259.22
2014-07-11 11:00,0.492611,287.155,286.439,260.876,288.763,287.748,263.436,0.258416,0.45948,238.919,259.135
2014-07-11 12:00,0.453859,292.053,289.593,263.099,291.817,290.101,264.138,0.2006,0.400563,239.349,259.22
2014-07-11 14:00,0.319568,297.749,293.944,265.859,296.056,293.216,264.953,0.12432,0.26333,239.894,259.721
2014-07-11 15:00,0.273739,299.203,295.144,266.458,297.184,294.016,264.837,0.103759,0.224941,239.593,259.135
2014-07-11 16:00,0.249601,299.765,295.935,266.954,297.931,294.679,264.837,0.0915345,0.200627,238.733,259.387
2014-07-11 17:00,0.235857,299.485,295.738,266.954,297.931,294.944,264.953,0.0889175,0.189447,237.977,258.798
2014-07-11 18:00,0.250419,298.045,293.843,265.959,295.803,292.679,264.837,0.119918,0.215513,237.913,258.114
2014-07-11 19:00,0.265271,296.427,292.725,265.456,294.788,291.871,264.138,0.148144,0.242166,237.977,257.942
2014-07-11 21:00,1.15948,280.05,278.845,257.459,280.931,278.307,258.638,1.07098,1.48981,239.41,257.421
2014-07-11 22:00,-0.0111698,286.271,285.546,261.091,287.543,285.919,262.017,-0.0,-0.0,239.41,258.114
2014-07-11 23:00,-0.102393,270.713,270.189,252.168,273.215,271.121,255.532,-0.0304607,-0.064258,240.074,256.45
2014-07-12 00:00,-0.0914273,273.338,272.256,253.381,274.623,272.565,255.909,-0.0258038,-0.0499965,240.489,256.894
2014-07-12 01:00,-0.0,270.151,271.023,252.412,273.686,272.086,256.16,-0.0,-0.0,240.193,256.628
2014-07-12 02:00,-0.0,275.932,274.785,254.808,277.678,274.929,257.034,-0.0,-0.0,239.41,256.982
2014-07-12 03:00,0.00124505,282.059,282.566,259.464,285.201,283.194,260.942,-0.0,-0.0,239.043,258.2
2014-07-12 04:00,-0.0,285.045,285.77,261.091,288.222,287.329,263.436,-0.0,-0.0,239.288,259.135
2014-07-12 05:00,-0.0,284.249,285.546,260.769,287.951,287.188,263.67,-0.0,-0.0,238.981,259.22
2014-07-12 06:00,-0.00151058,283.594,284.755,260.661,287.407,286.767,263.436,-0.0,-0.0,238.42,259.051
2014-07-12 07:00,-0.0,282.408,284.185,260.011,286.447,286.202,262.847,-0.0,-0.0,238.795,259.22
2014-07-12 08:00,-0.00546339,281.883,283.611,259.574,286.033,285.635,262.728,-0.0,-0.0,238.981,259.135
2014-07-12 09:00,-0.0,281.165,282.566,259.024,284.921,284.636,262.492,-0.0,-0.0,239.166,259.135
2014-07-12 10:00,3.86032,270.151,269.767,252.045,273.057,271.926,256.41,3.6317,4.54676,239.471,257.158
2014-07-12 11:00,0.619943,288.977,279.945,257.91,282.517,279.661,259.37,0.402728,0.555729,239.774,258.457
2014-07-12 12:00,0.487311,294.823,282.682,259.464,284.641,281.588,259.977,0.294374,0.420044,239.714,258.2
2014-07-12 13:00,0.511472,299.391,277.727,256.778,279.907,276.477,258.638,0.324797,0.435159,239.774,257.855
2014-07-12 14:00,0.381103,299.672,285.208,260.984,287.134,283.484,260.34,0.216093,0.330777,239.288,258.543
2014-07-12 15:00,0.284357,300.042,293.742,266.059,295.803,292.276,264.255,0.11971,0.22934,239.471,259.135
2014-07-12 16:00,0.255444,301.037,296.815,268.033,298.918,295.471,265.993,0.0967231,0.205027,239.104,259.554
2014-07-12 17:00,0.237033,300.225,296.523,267.935,299.041,295.865,265.993,0.0959846,0.195947,238.671,259.554
2014-07-12 18:00,0.313184,296.943,289.058,263.515,290.897,288.027,262.373,0.216644,0.301712,238.546,258.713
2014-07-12 19:00,0.424572,296.635,285.546,261.091,287.134,284.205,261.301,0.319013,0.422954,237.785,258.372
2014-07-12 20:00,0.835862,286.864,271.023,252.29,274.778,274.304,257.158,0.782451,0.974885,237.913,257.07
2014-07-12 21:00,0.189951,266.466,267.764,251.305,271.625,271.121,256.285,1.0454,1.05472,237.913,256.982
2014-07-12 22:00,-0.0,269.865,269.767,251.799,272.582,271.605,256.285,-0.0,-0.0056653,238.104,256.894
2014-07-12 23:00,-0.0942578,275.48,274.785,254.808,277.226,275.24,257.034,-0.0305148,-0.0643722,238.041,257.595
2014-07-13 00:00,-0.0934057,284.249,284.414,260.228,286.722,285.35,262.255,-0.0258242,-0.0481115,237.721,258.798
2014-07-13 01:00,-0.0015183,284.57,285.433,260.984,287.679,287.048,263.083,-0.0,-0.0,237.528,259.135
2014-07-13 02:00,-0.00132677,284.087,285.433,260.445,287.679,287.188,263.2,-0.0,-0.00133946,236.808,259.22
2014-07-13 03:00,-0.0012448,283.594,284.869,260.661,287.27,286.907,263.787,-0.0,-0.0,236.609,259.554
2014-07-13 04:00,-0.0,282.923,284.528,260.337,286.86,286.485,263.436,-0.0,-0.0,235.867,259.304
2014-07-13 05:00,-0.0,281.705,282.566,258.913,284.641,284.061,261.779,-0.0,-0.0,234.615,258.028
2014-07-13 06:00,-0.0,281.346,281.505,258.691,283.23,282.613,260.701,-0.0,-0.0,234.257,257.508
2014-07-13 07:00,-0.0,281.165,281.624,258.913,283.514,283.194,261.301,-0.0,-0.00190707,234.686,257.942
2014-07-13 08:00,-0.0,278.482,276.463,255.51,277.075,276.015,257.158,-0.0,-0.0,231.394,253.974
2014-07-13 09:00,-0.0,279.667,279.58,257.346,281.366,280.406,259.005,-0.0,-0.0,233.456,257.158
2014-07-13 10:00,0.617974,280.982,281.386,258.358,283.23,282.904,261.301,1.3953,1.45572,233.75,258.372
2014-07-13 12:00,0.492116,293.816,291.902,264.95,294.405,292.814,264.837,0.214358,0.439385,234.897,259.554
2014-07-13 13:00,0.399397,296.943,293.031,265.758,295.424,292.948,264.372,0.167341,0.345019,234.041,258.028
2014-07-13 14:00,0.345985,298.533,293.438,265.758,295.424,292.948,263.436,0.144286,0.300635,233.677,257.942
2014-07-13 15:00,0.282224,286.121,270.329,251.922,267.69,264.623,246.044,0.19063,0.28012,224.661,239.789
2014-07-13 16:00,0.250157,291.44,279.58,256.778,278.427,275.551,251.814,0.143439,0.239761,227.691,247.261
2014-07-13 17:00,0.245037,296.114,289.699,263.618,290.5,287.888,260.34,0.11897,0.221431,231.076,254.256
2014-07-13 18:00,0.218405,297.045,294.546,266.954,296.935,294.415,264.953,0.103695,0.195765,232.405,257.246
2014-07-13 19:00,0.32215,290.171,278.721,256.892,277.528,274.147,251.422,0.24193,0.336542,229.007,248.348
2014-07-13 20:00,0.190893,292.053,291.174,264.645,293.635,291.871,264.721,0.170366,0.218761,233.677,257.942
2014-07-13 21:00,0.604649,286.864,286.439,261.731,288.358,287.048,262.728,0.731365,0.959246,233.085,256.628
2014-07-13 22:00,-0.00563856,280.239,278.474,257.12,280.201,278.609,257.158,-0.0,-0.0,232.405,253.974
2014-07-13 23:00,-0.0999772,285.045,286.105,261.625,288.628,287.609,263.2,-0.0329196,-0.0672886,234.041,257.769
2014-07-14 00:00,-0.0667691,284.888,286.105,261.519,288.493,288.167,264.138,-0.0209981,-0.0462222,234.401,258.286
2014-07-14 01:00,-0.00151871,284.087,285.77,261.305,288.358,287.888,263.905,-0.0,-0.0,234.113,258.286
2014-07-14 02:00,-0.00132674,283.594,285.321,260.769,287.543,287.469,264.255,-0.0,-0.0,233.968,258.713
2014-07-14 03:00,-0.0,283.093,284.869,260.553,287.407,287.188,264.022,-0.0,-0.0,234.257,258.543
2014-07-14 04:00,-0.0,281.346,282.214,259.134,284.22,283.629,261.421,-0.0,-0.0,233.456,256.982
2014-07-14 05:00,-0.0,272.061,267.326,249.414,267.185,265.309,247.823,-0.0,-0.0,230.101,249.513
2014-07-14 06:00,-0.0,282.059,283.956,260.011,286.31,286.202,263.553,-0.0,-0.0,233.823,258.457
2014-07-14 07:00,-0.0,282.059,283.726,260.011,285.895,285.777,262.61,-0.0,-0.0,233.456,258.372
2014-07-14 08:00,-0.00272948,281.883,283.148,259.793,285.479,285.35,262.61,-0.0,-0.0,234.185,258.2
2014-07-14 09:00,-0.0,264.739,258.025,244.765,256.789,256.928,244.932,-0.0,-0.0,225.156,239.39
2014-07-14 10:00,1.17728,281.883,283.264,259.574,285.757,285.777,263.2,1.9936,1.98089,233.159,258.372
2014-07-14 11:00,0.510657,287.155,286.661,261.625,289.3,288.584,264.255,0.270233,0.483318,233.382,258.372
2014-07-14 12:00,0.468427,293.24,291.07,264.645,293.506,292.141,264.721,0.209125,0.412717,233.456,258.114
2014-07-14 13:00,0.373982,297.248,294.546,266.756,296.809,294.679,265.647,0.158325,0.315323,233.456,258.2
2014-07-14 14:00,0.333295,300.225,296.621,267.935,299.041,296.389,266.222,0.132372,0.27751,234.472,258.286
2014-07-14 15:00,0.302225,298.045,290.86,263.928,291.817,288.027,260.34,0.129956,0.257191,233.01,254.722
2014-07-14 16:00,0.25277,301.478,298.453,269.192,300.627,297.689,266.566,0.0963091,0.208934,234.615,258.114
2014-07-14 17:00,0.350418,275.707,249.978,239.721,246.355,243.896,234.134,0.306829,0.410716,223.952,231.031
2014-07-14 18:00,0.236091,297.848,294.945,266.657,297.184,294.812,265.185,0.103395,0.201363,233.382,257.508
2014-07-14 19:00,0.237213,296.738,295.045,267.052,297.807,295.602,266.452,0.122872,0.214124,234.543,258.286
2014-07-14 20:00,0.240964,293.24,292.725,265.153,295.297,293.483,265.532,0.195342,0.258795,234.968,258.114
2014-07-14 21:00,0.39589,287.871,288.736,262.89,291.292,290.648,264.837,0.670399,0.879284,234.897,258.286
2014-07-14 22:00,-0.0,286.121,287.432,261.731,289.968,289.413,264.488,-0.0,-0.0,235.455,258.543
2014-07-14 23:00,-0.119623,285.357,286.439,261.198,288.897,288.584,264.138,-0.0353318,-0.0702131,235.386,258.543
2014-07-15 00:00,-0.066818,284.41,285.882,260.876,288.358,288.167,263.787,-0.0226299,-0.046256,235.936,258.967
2014-07-15 01:00,-0.00151909,283.76,285.321,260.661,287.951,287.609,264.488,-0.0,-0.0,236.139,258.882
2014-07-15 02:00,-0.00132669,282.923,284.755,260.119,287.27,287.048,263.787,-0.0,-0.00133937,235.936,259.051
2014-07-15 03:00,0.00124425,282.753,284.528,260.011,286.997,286.907,263.553,-0.0,-0.0,235.386,258.798
2014-07-15 04:00,-0.00124269,282.408,284.414,260.228,286.722,286.907,263.787,-0.0,-0.0,236.609,259.638
2014-07-15 05:00,-0.0,282.234,284.414,259.902,286.585,286.767,263.318,-0.0,-0.0,237.333,260.135
2014-07-15 06:00,-0.0,281.883,283.956,259.793,286.447,286.626,264.022,-0.0,-0.0,237.528,260.052
2014-07-15 07:00,-0.0,281.346,283.495,259.464,285.757,286.202,263.905,-0.0,-0.0,237.528,260.217
2014-07-15 08:00,-0.0,281.526,283.264,259.464,285.618,286.06,263.436,-0.0,-0.0,237.913,260.627
2014-07-15 09:00,0.00543755,280.799,282.916,259.464,285.201,285.635,263.553,-0.0,-0.0,238.104,260.708
2014-07-15 10:00,1.29889,280.799,282.799,259.464,285.34,285.777,263.318,2.35665,2.62262,0.0,260.463
2014-07-15 12:00,0.467416,292.771,291.07,264.133,293.506,292.545,265.647,0.208673,0.414686,237.203,260.217
2014-07-15 13:00,0.393733,297.045,294.546,266.259,297.184,295.471,266.681,0.161478,0.331248,237.398,260.135
2014-07-15 14:00,0.329191,299.95,296.913,268.033,299.531,297.43,266.452,0.127749,0.271756,237.528,259.804
2014-07-15 15:00,0.285799,301.125,297.975,268.711,300.627,298.076,267.023,0.108292,0.22955,236.609,258.798
2014-07-15 16:00,0.256928,301.478,297.879,268.711,300.748,298.076,266.337,0.0960913,0.203688,235.799,258.028
2014-07-15 17:00,0.243822,300.858,297.687,268.904,300.506,297.818,266.222,0.0909509,0.194513,235.593,257.421
2014-07-15 18:00,0.237423,299.108,296.815,268.033,299.287,296.65,266.222,0.0979354,0.194622,236.139,257.682
2014-07-15 19:00,0.241867,296.84,295.144,266.855,297.931,295.602,266.337,0.122402,0.213306,237.463,258.2
2014-07-15 20:00,0.249632,293.356,292.725,265.758,295.297,293.883,265.532,0.189795,0.252019,237.006,258.2
2014-07-15 21:00,0.511459,288.012,288.843,262.786,291.555,290.648,264.605,0.680509,0.811404,239.043,258.457
2014-07-15 22:00,-0.0,285.97,287.432,261.731,289.968,289.413,264.372,-0.0,-0.0,240.134,258.882
2014-07-15 23:00,-0.100319,285.045,286.55,261.305,289.3,288.861,263.787,-0.0306728,-0.0618922,241.419,259.135
2014-07-16 00:00,-0.0936108,284.41,285.77,260.661,288.493,288.167,263.787,-0.0258809,-0.0482172,242.544,259.135
2014-07-16 01:00,-0.00151942,283.594,285.321,260.228,287.815,287.609,263.2,-0.0,-0.0,242.875,259.721
2014-07-16 02:00,-0.0013266,283.428,285.095,260.337,287.679,287.329,263.318,-0.0,-0.0,243.364,259.887
2014-07-16 03:00,-0.0,283.093,284.755,260.228,287.407,287.188,263.318,-0.0,-0.00125583,244.217,260.463
2014-07-16 04:00,-0.00124223,282.408,284.3,259.793,286.86,287.048,263.318,-0.0,-0.0,243.472,260.135
2014-07-16 05:00,-0.0,282.059,283.956,259.793,286.447,286.485,263.318,-0.0,-0.0,243.039,259.887
2014-07-16 06:00,-0.0,281.526,283.611,259.574,286.033,286.343,263.083,-0.0,-0.0,242.929,259.804
2014-07-16 07:00,-0.0,281.165,283.38,259.574,285.895,286.06,262.847,-0.0,-0.0,242.6,259.804
2014-07-16 08:00,-0.0,281.165,283.148,259.354,285.757,285.919,263.436,-0.0,-0.0,242.6,260.052
2014-07-16 09:00,0.00544116,280.982,282.916,259.244,285.479,285.919,263.083,-0.0,-0.0,242.544,260.052
2014-07-16 10:00,1.39535,280.982,283.032,259.134,285.618,285.919,263.083,2.21521,2.46521,242.322,259.887
2014-07-16 12:00,0.463501,292.534,290.545,263.928,293.377,291.871,264.372,0.205794,0.410867,242.984,260.299
2014-07-16 13:00,0.386749,297.045,294.044,266.159,296.559,294.547,265.647,0.161131,0.328471,242.765,260.627
2014-07-16 14:00,0.328491,299.765,296.425,267.446,298.795,296.258,265.647,0.128926,0.269451,242.71,260.627
2014-07-16 15:00,0.285172,300.947,297.494,268.518,299.898,297.04,266.108,0.108054,0.229046,243.256,260.789
2014-07-16 16:00,0.253182,301.214,297.59,268.421,300.02,297.17,265.993,0.0945353,0.201624,242.875,260.708
2014-07-16 17:00,0.239791,300.498,297.204,268.227,299.776,297.04,265.993,0.0921557,0.190576,242.765,260.545
2014-07-16 18:00,0.230638,299.013,296.327,267.74,298.672,296.127,266.337,0.0993533,0.194035,243.147,261.033
2014-07-16 19:00,0.235392,296.84,294.546,266.657,296.935,294.547,265.532,0.126618,0.21248,242.929,260.871
2014-07-16 20:00,0.253113,293.356,292.52,265.254,294.788,292.814,265.185,0.205738,0.265754,243.633,261.435
2014-07-16 21:00,0.474716,288.152,288.951,263.203,291.423,290.238,264.372,0.631623,0.821579,243.418,261.595
2014-07-16 22:00,-0.00571994,286.569,287.651,262.261,290.234,289.276,263.787,-0.0,-0.0,243.256,261.355
2014-07-16 23:00,-0.0921122,285.818,287.212,261.731,289.835,289.276,264.138,-0.0307238,-0.0619951,243.526,261.914
2014-07-17 00:00,-0.07838,284.888,286.55,261.412,289.032,288.445,263.905,-0.022661,-0.0463196,243.74,261.675
2014-07-17 01:00,-0.00151971,284.57,286.105,260.984,288.493,288.027,263.318,-0.0,-0.0,244.006,261.914
2014-07-17 02:00,-0.00132649,283.924,285.658,260.984,288.222,287.748,263.67,-0.0,-0.0,244.111,262.23
2014-07-17 03:00,-0.0,283.594,285.095,260.553,287.679,287.048,263.318,-0.0,-0.0,244.217,262.623
2014-07-17 04:00,-0.0,283.261,285.095,260.661,287.543,287.469,263.787,-0.0,-0.0,244.531,263.012
2014-07-17 05:00,-0.00132037,282.408,284.755,260.119,287.134,287.188,264.022,-0.0,-0.0,244.635,263.244
2014-07-17 06:00,-0.0,282.234,284.185,259.793,286.585,286.767,263.436,-0.0,-0.0,244.635,263.244
2014-07-17 07:00,0.00188583,281.526,283.956,259.793,286.31,286.343,263.318,-0.0,-0.0,245.151,263.244
2014-07-17 08:00,-0.0,281.526,283.726,259.574,286.172,286.485,263.318,-0.0,-0.0,244.894,263.167
2014-07-17 09:00,-0.00544606,281.346,283.495,259.244,286.033,286.202,263.083,-0.0,-0.0,244.945,263.244
2014-07-17 10:00,0.489448,281.526,283.495,259.024,286.033,286.485,263.2,1.7958,1.64709,244.687,263.167
2014-07-17 12:00,0.4708,293.007,291.487,263.825,293.892,292.679,264.837,0.207667,0.40984,244.945,263.476
2014-07-17 13:00,0.394038,297.848,295.244,266.557,297.807,295.996,266.452,0.162494,0.329786,244.687,263.322
2014-07-17 14:00,0.32776,300.408,297.59,267.935,300.384,298.205,266.222,0.128639,0.268851,245.202,263.476
2014-07-17 16:00,0.257278,301.653,298.929,268.324,301.472,298.848,267.023,0.092979,0.202722,244.635,263.012
2014-07-17 17:00,0.239156,300.947,298.739,268.13,301.472,298.976,267.365,0.0876033,0.191784,244.997,263.09
2014-07-17 18:00,0.231947,299.485,297.783,267.249,300.506,298.205,266.681,0.0922174,0.191404,245.151,263.399
2014-07-17 19:00,0.237229,297.349,296.131,266.159,298.549,296.65,266.566,0.114444,0.206078,244.164,263.399
2014-07-17 20:00,0.206235,293.24,293.235,264.236,295.803,294.282,265.647,0.161842,0.223441,241.246,263.012
2014-07-17 21:00,0.189794,287.729,288.628,261.412,291.029,289.964,263.905,0.428529,0.510956,238.795,261.515
2014-07-17 22:00,-0.0057472,285.97,287.322,260.661,289.568,289.413,263.787,-0.0,-0.00580214,238.42,261.275
2014-07-17 23:00,-0.0922623,285.512,286.55,260.011,289.032,288.861,263.436,-0.0284067,-0.0620962,237.398,260.789
2014-07-18 00:00,-0.0899078,280.982,278.845,255.393,280.201,278.458,255.658,-0.0259148,-0.0482805,233.677,256.271
2014-07-18 01:00,-0.00151997,273.088,266.59,248.252,265.482,263.759,247.006,-0.0,-0.0,228.488,247.04
2014-07-18 02:00,-0.0,283.428,285.433,259.683,287.951,288.167,264.022,-0.0,-0.0,233.968,259.887
2014-07-18 03:00,-0.0,283.428,284.755,259.134,287.407,287.469,262.492,-0.0,-0.0,234.041,259.887
2014-07-18 04:00,-0.0012413,282.581,285.095,259.134,287.543,287.888,263.67,-0.0,-0.0,234.615,260.217
2014-07-18 05:00,-0.0,282.408,284.528,259.024,286.997,287.188,263.553,-0.0,-0.0,236.004,260.299
2014-07-18 06:00,-0.0015064,281.883,283.956,258.58,286.585,286.767,262.965,-0.0,-0.0,234.897,259.304
2014-07-18 07:00,-0.0,281.705,283.611,258.58,286.172,286.626,263.553,-0.0,-0.0,234.041,258.713
2014-07-18 08:00,-0.0,281.346,283.148,258.358,286.033,285.919,262.61,-0.0,-0.0,233.085,257.508
2014-07-18 09:00,-0.0,281.165,283.032,258.358,285.618,285.777,262.728,-0.0,-0.0,232.02,256.982
2014-07-18 10:00,1.2162,280.982,283.032,258.469,285.757,286.202,262.847,1.93079,1.84174,231.236,256.271
2014-07-18 11:00,0.498833,286.271,285.77,260.011,288.628,288.167,263.083,0.2712,0.477096,231.394,255.639
2014-07-18 12:00,0.472357,293.124,290.86,263.515,293.635,292.141,264.372,0.211875,0.405909,230.674,255.457
2014-07-18 13:00,0.397168,297.947,294.945,265.859,297.931,295.734,265.301,0.167279,0.339278,230.348,254.999
2014-07-18 14:00,0.33892,300.317,295.343,266.159,297.807,294.812,263.67,0.141318,0.280262,229.433,251.652
2014-07-18 15:00,0.345012,300.589,290.123,263.203,291.292,288.027,260.701,0.205813,0.296064,229.601,250.95
2014-07-18 16:00,0.300455,283.093,265.545,247.332,264.444,260.405,243.949,0.23452,0.327025,228.136,241.728
2014-07-18 17:00,0.246965,299.765,295.343,266.059,297.309,294.016,263.905,0.104552,0.194679,230.101,252.047
2014-07-18 18:00,0.239265,298.822,295.541,266.259,298.055,295.471,265.185,0.105549,0.194866,230.348,253.117
2014-07-18 19:00,0.24728,296.738,295.343,266.059,298.426,296.519,265.647,0.123297,0.216358,231.156,254.256
2014-07-18 20:00,0.129951,292.174,290.756,263.515,293.635,292.006,264.022,0.160813,0.161469,231.473,252.244
2014-07-18 21:00,1.71922,278.883,272.256,252.29,274.0,271.926,251.814,1.0541,1.6758,230.511,246.483
2014-07-18 22:00,-0.00577448,273.338,267.18,249.669,266.167,258.591,243.808,-0.0,-0.0,230.511,243.577
2014-07-18 23:00,-0.114812,282.923,280.549,256.892,282.374,280.85,256.535,-0.030823,-0.0650224,230.018,248.455
2014-07-19 00:00,-0.0918767,272.322,267.473,249.286,267.354,263.237,247.415,-0.0259306,-0.0521747,230.916,244.294
2014-07-19 01:00,-0.00152018,269.283,263.556,247.991,263.04,256.367,242.814,-0.0,-0.0,230.755,242.105
2014-07-19 02:00,-0.0,271.261,266.59,249.414,268.024,263.063,246.044,-0.0,-0.0,231.315,244.998
2014-07-19 03:00,-0.0,250.598,249.385,239.115,249.998,249.55,240.646,-0.0,-0.0,231.315,241.475
2014-07-19 04:00,-0.0,268.382,265.092,248.642,264.792,263.063,248.768,-0.0,-0.0,230.674,243.937
2014-07-19 05:00,-0.0,281.883,280.549,257.572,282.66,280.998,258.392,-0.0,-0.0,231.076,248.987
2014-07-19 06:00,0.00150581,272.322,267.473,249.542,268.024,265.99,249.438,-0.0,-0.0,229.852,244.175
2014-07-19 07:00,-0.0,280.613,279.823,257.12,281.51,280.257,258.882,-0.0,-0.0,230.593,249.928
2014-07-19 08:00,-0.0,282.408,282.799,259.024,285.201,284.205,260.461,-0.0,-0.0,231.315,251.051
2014-07-19 09:00,-0.0,281.526,280.308,257.346,282.231,280.554,258.147,-0.0,-0.0,230.101,249.825
2014-07-19 10:00,2.54259,274.314,267.326,249.158,267.354,264.967,246.732,2.15281,2.99472,229.263,244.647
2014-07-19 11:00,0.465472,0.0,0.0,0.0,0.0,0.0,0.0,0.0,0.0,0.0,0.0
2014-07-19 12:00,0.274761,273.586,264.021,247.2,264.444,261.831,246.594,0.282491,0.359472,230.835,244.53
2014-07-19 13:00,0.335221,286.569,275.823,254.454,275.857,271.926,250.896,0.211583,0.336374,230.511,247.04
2014-07-19 14:00,0.254849,274.073,257.854,244.21,256.789,254.664,240.938,0.248866,0.325894,229.348,240.446
2014-07-19 15:00,0.305059,296.531,289.165,262.786,289.701,285.919,259.614,0.135107,0.257436,230.916,250.748
2014-07-19 16:00,0.260667,292.294,282.799,258.58,282.66,279.211,255.406,0.140089,0.237946,230.835,248.455
2014-07-19 17:00,0.249655,297.649,291.487,264.339,293.506,289.689,260.701,0.112832,0.212873,231.943,251.949
2014-07-19 18:00,0.3768,279.859,262.3,245.859,261.791,258.408,242.241,0.351279,0.463362,231.236,242.848
2014-07-19 19:00,0.303761,294.713,289.165,262.995,290.764,287.748,260.822,0.183048,0.2818,231.709,251.552
2014-07-19 20:00,0.680387,298.822,278.226,256.205,277.828,270.96,250.633,0.496188,0.601657,232.097,247.699
2014-07-19 21:00,0.223099,275.02,267.18,249.029,266.678,264.623,247.959,0.425019,0.563079,230.593,244.647
2014-07-19 22:00,-0.00580174,256.589,249.185,237.884,250.207,248.736,238.128,-0.0,-0.0,230.018,239.523
2014-07-19 23:00,-0.0925538,280.239,277.35,254.808,279.613,277.548,255.153,-0.0284964,-0.0594609,231.394,250.95
2014-07-20 00:00,-0.0861842,285.357,284.982,259.793,287.27,286.202,260.098,-0.024324,-0.0464043,231.552,253.69
2014-07-20 01:00,-0.00152036,273.338,268.054,249.158,267.69,265.82,249.171,-0.0,-0.0,231.156,245.46
2014-07-20 02:00,-0.0,260.827,253.04,240.171,252.868,250.757,239.765,-0.0,-0.0,230.101,240.053
2014-07-20 03:00,-0.00124255,272.061,265.243,247.728,264.792,263.412,247.823,-0.0,-0.0,230.266,243.093
2014-07-20 04:00,0.00124036,282.581,282.214,258.246,284.361,282.758,259.977,-0.0,-0.0,232.175,252.244
2014-07-20 05:00,-0.0,283.428,284.3,259.354,286.722,285.777,260.942,-0.0,-0.0,233.085,253.974
2014-07-20 06:00,-0.0,278.279,276.463,254.217,278.725,277.091,255.28,-0.0,0.00151965,233.53,251.949
2014-07-20 07:00,-0.0,282.753,283.032,258.58,285.895,284.922,259.977,-0.0,-0.0,233.603,254.536
2014-07-20 08:00,0.0027288,280.982,281.505,257.685,283.656,282.613,259.249,-0.0,-0.0,233.75,253.974
2014-07-20 09:00,-0.0,280.799,281.148,257.12,283.372,282.904,259.614,-0.0,-0.0,234.041,254.162
2014-07-20 10:00,1.9648,272.836,267.473,248.642,267.354,265.82,249.971,1.99631,2.64478,232.709,246.258
2014-07-20 11:00,0.364542,277.24,269.908,249.669,270.169,268.007,249.305,0.308657,0.431118,233.234,247.808
2014-07-20 12:00,0.34382,285.512,279.58,256.089,281.51,279.661,255.784,0.224843,0.347107,234.543,251.452
2014-07-20 13:00,0.401206,296.738,293.539,264.543,296.182,294.016,264.953,0.166419,0.331397,237.333,256.539
2014-07-20 15:00,0.285565,300.947,297.3,266.756,299.898,297.17,266.108,0.108342,0.226855,240.43,258.2
2014-07-20 16:00,0.259984,301.214,297.783,266.756,300.263,297.43,265.762,0.0962237,0.202746,240.665,258.372
2014-07-20 17:00,0.25736,300.858,297.01,266.259,299.654,296.91,265.878,0.102544,0.20378,241.246,259.304
2014-07-20 19:00,0.294362,296.738,293.641,264.645,296.307,294.282,264.837,0.175388,0.275163,243.418,260.381
2014-07-20 20:00,0.286215,293.472,291.798,263.825,294.788,292.948,264.837,0.221447,0.298915,243.793,260.381
2014-07-20 21:00,0.579284,287.871,288.195,261.305,290.764,289.964,263.67,0.668835,0.85065,245.202,261.275
2014-07-20 22:00,-0.00582896,285.97,287.432,260.769,289.835,289.689,264.372,-0.0,-0.0,246.307,262.623
2014-07-20 23:00,-0.129211,284.888,286.992,260.228,289.434,289.413,264.488,-0.0332965,-0.065223,246.847,263.629
2014-07-21 00:00,-0.0785662,283.76,286.217,260.337,288.493,288.861,264.255,-0.0243373,-0.0502988,247.807,264.01
2014-07-21 01:00,0.00152049,283.428,285.77,260.011,288.087,288.306,264.022,-0.0,-0.00153503,248.417,264.389
2014-07-21 02:00,-0.00132577,282.923,285.321,260.011,287.543,287.748,264.138,-0.0,-0.0,249.108,264.389
2014-07-21 03:00,-0.00124216,283.093,285.321,260.119,287.815,288.027,264.721,-0.0,-0.0,249.062,264.464
2014-07-21 04:00,-0.0,282.408,284.528,259.464,286.997,287.188,263.436,-0.0,-0.0,248.695,264.162
2014-07-21 05:00,-0.0,281.883,283.841,259.024,286.172,286.202,263.318,-0.0,-0.0,248.833,264.086
2014-07-21 06:00,-0.0,281.346,283.264,258.469,285.479,285.35,262.61,-0.0,-0.0,248.925,264.01
2014-07-21 07:00,-0.0,280.613,283.032,258.134,285.061,285.065,262.136,-0.0,-0.0,248.695,263.782
2014-07-21 08:00,0.00272963,280.799,282.799,258.134,285.061,285.208,262.728,-0.0,-0.0,248.787,264.162
2014-07-21 09:00,-0.0,280.239,282.448,258.246,284.501,284.779,262.373,-0.0,-0.0,249.29,264.086
2014-07-21 10:00,1.45574,278.684,279.702,256.892,282.374,281.735,260.701,1.74614,2.08201,249.696,263.706
2014-07-21 11:00,0.482119,286.569,283.032,258.469,285.618,284.492,261.66,0.311644,0.460559,250.406,264.389
2014-07-21 12:00,0.465338,292.889,290.017,262.366,292.209,290.511,264.372,0.219414,0.399459,251.189,264.839
2014-07-21 13:00,0.398082,297.848,294.846,265.254,297.06,295.208,265.762,0.16425,0.326406,251.36,265.581
2014-07-21 14:00,0.336369,300.408,297.494,267.249,299.898,297.43,266.566,0.131668,0.266207,251.059,265.728
2014-07-21 15:00,0.294162,301.913,299.402,268.033,302.072,299.87,267.705,0.109378,0.227837,251.103,267.174
2014-07-21 16:00,0.260839,302.764,300.246,268.711,302.907,300.632,268.158,0.0972802,0.202202,251.488,266.96
2014-07-21 17:00,0.249909,302.171,299.496,268.13,302.072,299.488,267.478,0.093728,0.193034,251.189,266.166
2014-07-21 18:00,0.238956,300.225,297.975,267.348,300.384,297.947,267.023,0.101162,0.192992,251.232,265.655
2014-07-21 19:00,0.233449,297.649,295.442,266.059,297.683,295.339,266.337,0.135605,0.200055,251.403,265.581
2014-07-21 20:00,0.27459,294.602,293.336,264.441,295.677,294.149,265.301,0.203433,0.272265,251.103,265.36
2014-07-21 21:00,0.598618,286.864,286.772,260.553,288.897,287.609,262.965,0.675798,0.856148,250.8,264.464
2014-07-21 22:00,-0.0,287.155,288.303,261.198,290.764,290.101,264.138,-0.0,-0.0,250.8,265.434
2014-07-21 23:00,-0.0956455,285.97,287.432,260.769,289.968,289.551,264.605,-0.0285822,-0.0596399,251.275,265.507
2014-07-22 00:00,-0.0977789,285.045,286.772,260.228,289.3,289.137,264.488,-0.0259731,-0.048389,251.103,265.36
2014-07-22 01:00,-0.00152059,284.41,285.882,259.902,288.358,288.027,263.905,-0.0,-0.00153512,250.186,264.314
2014-07-22 02:00,-0.0,283.428,285.095,259.354,287.543,287.469,263.318,-0.0,-0.0,246.406,261.435
2014-07-22 03:00,-0.0,276.155,276.971,254.69,279.907,278.609,258.882,-0.0,-0.0,245.048,258.882
2014-07-22 04:00,-0.0,283.261,284.414,259.354,286.86,286.343,262.965,-0.0,-0.0,244.583,259.304
2014-07-22 05:00,-0.00131768,281.165,282.331,258.246,284.641,283.917,261.301,-0.0,-0.0,244.269,258.628
2014-07-22 06:00,-0.0,272.836,273.997,253.02,275.55,275.24,257.158,-0.0,-0.0,243.953,256.628
2014-07-22 07:00,-0.0,281.165,280.909,257.346,283.372,281.735,260.098,-0.0,-0.0,243.793,257.333
2014-07-22 08:00,0.00273074,282.059,283.264,259.024,285.757,284.922,261.66,-0.0,-0.0,243.147,257.246
2014-07-22 09:00,-0.0,282.581,283.495,259.024,286.033,285.208,261.54,-0.0,-0.0,242.71,257.158
2014-07-22 10:00,0.224556,282.408,283.726,259.244,286.172,285.635,261.779,1.33092,1.02016,242.929,257.508
2014-07-22 11:00,0.531381,288.291,287.212,261.305,289.568,288.027,262.492,0.275193,0.463544,242.929,257.769
2014-07-22 12:00,0.480458,294.713,291.174,263.825,293.506,291.193,263.787,0.213983,0.398134,242.82,257.595
2014-07-22 13:00,0.388882,298.242,292.52,264.645,294.661,291.464,263.553,0.184252,0.321403,243.846,258.2
2014-07-22 14:00,0.335461,300.858,296.229,267.249,298.302,295.208,265.069,0.13274,0.262085,243.472,258.028
2014-07-22 15:00,0.290272,301.913,297.397,268.033,299.531,295.996,265.301,0.111715,0.222527,243.364,258.114
2014-07-22 16:00,0.315864,299.95,290.651,263.515,292.47,289.276,262.728,0.183538,0.2673,243.846,257.508
2014-07-22 17:00,0.290985,297.449,290.756,263.721,292.34,289.689,262.61,0.174163,0.260001,243.633,257.769
2014-07-22 18:00,0.297709,294.933,288.843,262.681,290.234,287.609,262.847,0.186532,0.264488,243.579,257.508
2014-07-22 19:00,0.254125,295.69,291.694,264.236,294.021,291.193,263.553,0.153364,0.229262,243.256,257.508
2014-07-22 20:00,0.282595,294.491,291.798,264.236,294.021,291.329,263.905,0.210395,0.27054,243.039,257.508
2014-07-22 21:00,0.805688,288.291,286.55,261.305,289.166,287.188,261.66,0.682175,0.909083,242.71,256.805
2014-07-22 22:00,-0.00588316,285.97,285.433,260.337,287.951,285.493,260.942,-0.0,-0.0,242.266,256.628
2014-07-22 23:00,-0.121138,286.421,286.217,260.769,288.897,287.188,262.017,-0.0333941,-0.0654142,240.193,255.821
2014-07-23 00:00,-0.0690536,285.97,286.328,260.769,288.763,287.469,262.373,-0.0227374,-0.0484123,238.357,255.639
2014-07-23 01:00,-0.0030413,283.261,283.495,258.913,286.31,284.922,261.421,-0.0,-0.0,239.41,256.091
2014-07-23 02:00,-0.00132527,284.087,284.982,260.119,287.407,286.485,262.017,-0.0,-0.0,235.867,254.907
2014-07-23 03:00,0.00124135,284.087,284.528,260.228,287.134,286.06,261.54,-0.0,-0.0,233.75,253.405
2014-07-23 04:00,-0.00123892,276.594,277.098,255.742,279.466,278.609,258.76,-0.0,-0.0,236.475,253.785
2014-07-23 05:00,-0.0,284.087,284.755,260.228,287.27,285.919,262.61,-0.0,-0.0,235.386,254.349
2014-07-23 06:00,-0.0,282.753,283.726,259.574,286.447,285.208,261.062,-0.0,-0.0,233.896,253.021
2014-07-23 07:00,0.00188377,276.155,277.977,256.434,281.221,279.81,259.249,-0.0,-0.0,232.557,252.047
2014-07-23 08:00,-0.0,273.586,269.767,251.056,270.006,268.339,249.971,-0.0,-0.0,230.018,245.345
2014-07-23 09:00,-0.00550458,274.787,270.189,250.555,270.819,268.007,249.572,-0.0,-0.0,231.236,246.595
2014-07-23 10:00,0.415611,282.753,283.611,259.574,286.447,285.635,262.017,1.23164,1.15386,235.178,252.925
2014-07-23 11:00,0.523534,288.705,287.102,261.944,289.701,287.748,262.847,0.278134,0.461176,236.139,253.021
2014-07-23 12:00,0.484323,295.26,291.591,264.645,293.892,291.193,263.436,0.213239,0.399544,237.268,254.722
2014-07-23 13:00,0.401787,298.726,294.346,265.959,296.809,293.883,263.905,0.168395,0.320446,238.733,255.275
2014-07-23 14:00,0.339569,300.858,296.621,267.642,299.041,295.996,264.953,0.133793,0.264748,239.166,256.271
2014-07-23 15:00,0.292572,301.565,296.913,268.033,299.164,295.865,265.301,0.111408,0.22348,239.166,256.271
2014-07-23 16:00,0.260938,301.565,297.59,268.615,299.898,296.519,265.532,0.0980486,0.201082,238.795,256.001
2014-07-23 17:00,0.295121,294.823,285.433,259.464,286.31,281.441,255.28,0.207526,0.302992,234.543,250.748
2014-07-23 18:00,0.241329,299.203,295.541,266.954,297.931,294.679,265.532,0.102166,0.191714,235.936,254.443
2014-07-23 19:00,0.258469,296.84,293.336,265.859,295.803,292.948,263.905,0.139058,0.220168,234.615,254.349
2014-07-23 20:00,0.116197,291.563,289.699,262.995,291.555,288.999,262.373,0.106583,0.13686,230.835,251.152
2014-07-23 21:00,0.496628,257.103,251.912,240.021,252.262,251.354,241.519,0.573401,0.774853,230.348,241.475
2014-07-23 22:00,-0.0,279.667,275.306,254.336,276.62,274.773,254.9,-0.0,-0.0,230.916,246.595
2014-07-23 23:00,-0.0902758,285.818,284.642,259.902,286.997,285.35,259.735,-0.0286636,-0.0626579,231.709,250.135
2014-07-24 00:00,-0.0786797,280.427,276.08,255.043,276.163,274.147,254.009,-0.0227476,-0.048434,229.263,245.23
2014-07-24 01:00,-0.00152067,246.775,236.832,232.146,234.107,232.725,226.918,-0.0,-0.0,221.596,226.57
2014-07-24 02:00,-0.0,284.41,284.3,260.337,286.997,284.779,260.461,-0.0,-0.0,230.916,249.617
2014-07-24 03:00,-0.0,274.314,267.909,250.303,267.354,264.623,247.687,-0.0,-0.0,227.87,241.728
2014-07-24 04:00,0.00123844,283.76,284.185,260.119,286.997,285.493,261.421,-0.0,-0.00125028,230.674,250.032
2014-07-24 05:00,0.00131671,273.831,268.916,250.931,269.679,268.173,250.765,-0.0,-0.0,229.007,242.725
2014-07-24 06:00,-0.0,251.944,251.912,240.469,253.269,251.552,242.241,-0.0,-0.0,230.348,242.23
2014-07-24 07:00,0.00376758,270.713,265.394,248.642,266.847,262.537,247.415,-0.0,-0.0,231.156,246.145
2014-07-24 08:00,-0.0,262.475,259.706,246.13,261.791,259.139,247.687,-0.0,-0.0,230.996,245.918
2014-07-24 09:00,-0.0,273.831,267.909,249.797,269.021,265.138,248.364,-0.0,-0.0,232.481,246.483
2014-07-24 10:00,2.2121,272.322,263.556,246.399,264.618,260.584,244.09,2.03585,2.81583,227.78,240.835
2014-07-24 11:00,0.556451,281.346,271.574,252.045,271.625,268.339,249.171,0.384698,0.577232,228.662,243.336
2014-07-24 12:00,0.394324,287.01,278.845,256.434,278.725,275.706,255.658,0.282508,0.437068,231.63,246.818
2014-07-24 13:00,0.540738,293.472,253.779,241.354,253.469,248.121,237.977,0.444276,0.537819,228.575,239.255
2014-07-24 14:00,0.288307,251.282,223.597,224.908,221.838,220.984,219.551,0.414418,0.490747,217.36,219.608
2014-07-24 15:00,0.254701,249.89,229.673,228.192,228.871,228.59,225.535,0.446994,0.514272,221.371,225.994
2014-07-24 16:00,0.246336,254.966,242.142,234.183,241.815,241.027,235.072,0.501877,0.570434,227.42,236.614
2014-07-24 17:00,0.252671,290.041,276.845,255.858,278.128,274.304,254.264,0.25053,0.286972,231.552,249.093
2014-07-24 18:00,0.553976,284.087,245.89,237.101,245.248,241.698,234.134,0.515789,0.607039,226.592,236.179
2014-07-24 19:00,0.734679,291.315,247.563,238.04,249.789,248.532,240.938,0.796862,0.893291,234.615,242.848
2014-07-24 20:00,0.611011,261.666,243.273,235.499,244.349,244.328,237.525,0.936918,1.06856,231.076,238.714
2014-07-24 21:00,0.215578,251.282,249.583,239.419,251.856,250.357,241.664,0.584096,0.739974,233.823,243.818
2014-07-24 22:00,-0.00593682,244.063,244.815,235.985,246.794,246.457,238.876,-0.0,-0.0,233.823,240.706
2014-07-24 23:00,-0.104523,249.89,251.147,239.871,253.069,252.927,244.09,-0.0310945,-0.0598912,234.472,244.881
2014-07-25 00:00,-0.0691133,248.394,247.357,237.884,249.579,249.144,241.953,-0.0211316,-0.0445779,234.185,243.214
2014-07-25 01:00,-0.0,250.598,249.781,239.721,251.856,250.957,242.814,-0.0,-0.0,232.86,243.457
2014-07-25 02:00,-0.00132467,247.601,247.769,237.884,250.207,249.144,241.374,-0.0,-0.0,232.481,241.854
2014-07-25 03:00,-0.0,262.074,261.179,245.995,262.685,261.477,248.499,-0.0,-0.0,231.394,246.818
2014-07-25 04:00,-0.00123797,249.89,248.985,238.657,249.157,248.736,240.938,-0.0,-0.0,230.348,240.316
2014-07-25 05:00,-0.0,260.827,260.692,245.587,262.329,260.405,246.594,-0.0,-0.0,231.236,246.371
2014-07-25 06:00,-0.0,260.395,261.017,245.723,262.685,262.008,249.171,-0.0,-0.0,231.787,247.481
2014-07-25 07:00,-0.0,264.739,264.94,248.252,267.857,267.339,252.335,-0.0,-0.0,232.097,249.721
2014-07-25 08:00,-0.0,265.095,267.033,249.669,269.842,269.657,253.753,-0.0,-0.0,232.86,251.152
2014-07-25 09:00,-0.0,264.739,265.995,248.771,268.855,268.505,253.497,-0.0,-0.0,231.943,249.303
2014-07-25 10:00,1.4253,260.395,258.534,244.349,261.431,259.864,247.551,2.03647,2.33825,232.175,247.04
2014-07-25 11:00,0.416249,271.261,260.365,245.177,262.15,261.477,248.903,0.649,0.691838,233.01,247.481
2014-07-25 12:00,0.236249,265.791,256.819,242.656,257.361,256.742,246.044,0.814082,0.859736,232.481,246.595
2014-07-25 13:00,0.61487,286.421,258.703,244.349,260.524,260.045,247.959,0.757251,0.824305,231.709,247.04
2014-07-25 14:00,0.504718,285.818,261.501,245.995,263.569,263.063,250.104,0.7712,0.826741,232.251,248.775
2014-07-25 15:00,0.32785,262.869,237.339,231.973,236.948,235.677,230.768,0.771517,0.820467,224.76,231.695
2014-07-25 16:00,0.340795,265.446,240.984,233.681,241.344,239.667,232.547,0.822759,0.87718,226.216,235.74
2014-07-25 18:00,0.444032,266.466,237.086,231.799,236.441,233.474,227.77,0.758577,0.823164,223.538,230.863
2014-07-25 19:00,0.445931,258.096,230.559,228.564,230.294,229.121,225.883,0.685051,0.754817,221.93,226.76
2014-07-25 20:00,0.76496,261.666,221.841,224.102,221.838,220.984,219.362,0.939151,1.10049,219.137,220.989
2014-07-25 21:00,0.123807,247.601,247.563,237.728,249.579,248.532,240.06,0.41931,0.4583,231.552,241.728
2014-07-25 22:00,-0.00596338,232.213,230.265,228.192,230.294,229.385,226.574,-0.0,-0.0,221.708,226.187
2014-07-25 23:00,-0.101832,246.775,245.248,236.146,245.693,244.544,236.765,-0.0311355,-0.0599701,228.488,239.39
2014-07-26 00:00,-0.0749015,237.078,235.538,230.743,235.672,234.95,230.111,-0.0211397,-0.0465339,225.156,231.859
2014-07-26 01:00,-0.0015206,235.601,233.392,229.484,233.577,231.968,227.77,-0.0,-0.0,224.56,230.354
2014-07-26 02:00,-0.0,225.382,225.282,225.504,225.31,224.756,221.965,-0.0,-0.0,219.863,222.743
2014-07-26 03:00,-0.0,249.156,244.598,235.985,243.895,242.364,235.382,-0.0,-0.0,225.835,236.179
2014-07-26 04:00,-0.0,257.605,250.371,239.419,249.579,245.824,236.153,-0.0,-0.0,225.156,237.888
2014-07-26 05:00,-0.00131582,253.81,251.147,240.171,251.447,249.55,239.322,-0.0,-0.0,226.311,240.446
2014-07-26 06:00,-0.0,235.601,230.85,228.749,230.294,228.324,225.185,-0.0,-0.0,221.031,227.136
2014-07-26 07:00,0.00188417,242.013,234.208,230.387,233.041,231.203,225.883,-0.0,-0.0,221.93,228.423
2014-07-26 08:00,0.00273824,250.598,244.38,236.784,242.747,237.815,230.276,-0.0,-0.0,223.849,234.082
2014-07-26 09:00,-0.0,225.382,221.841,223.899,220.519,219.165,217.639,-0.0,-0.0,216.15,219.372
2014-07-26 10:00,0.990943,247.601,239.559,233.344,239.426,236.872,229.781,1.39838,1.66736,222.906,232.347
2014-07-26 11:00,0.615632,275.251,251.53,240.617,250.623,245.399,235.537,0.619524,0.703027,223.013,238.027
2014-07-26 12:00,0.369398,261.666,227.845,226.674,226.82,224.756,223.053,0.634804,0.718233,219.624,224.811
2014-07-26 13:00,0.405908,258.576,231.713,228.934,230.853,229.121,225.009,0.633452,0.693024,219.982,225.604
2014-07-26 14:00,0.346564,254.966,231.14,228.564,230.853,229.385,225.535,0.507869,0.576961,221.371,226.76
2014-07-26 15:00,0.37139,269.576,248.38,238.349,247.446,245.399,237.222,0.419707,0.49269,225.931,236.757
2014-07-26 16:00,0.387232,276.376,251.912,240.021,250.83,248.327,237.827,0.403032,0.460467,224.959,237.043
2014-07-26 17:00,0.335369,256.589,236.318,231.098,235.672,234.461,229.116,0.472794,0.543721,223.849,230.183
2014-07-26 18:00,0.428805,271.798,239.799,233.175,238.199,234.706,227.601,0.427725,0.513951,221.371,229.137
2014-07-26 19:00,0.561093,268.986,241.218,234.017,240.152,236.635,230.44,0.612421,0.708742,223.434,230.863
2014-07-26 20:00,0.688932,268.986,227.845,227.628,227.118,225.038,222.692,0.683889,0.820231,219.503,223.586
2014-07-26 21:00,0.672954,253.206,236.576,231.625,235.155,232.725,228.109,0.603306,0.839243,222.368,228.782
2014-07-26 22:00,-0.0,245.913,236.576,231.274,235.414,232.221,226.746,-0.0,-0.0,220.454,227.877
2014-07-26 23:00,-0.107627,249.156,243.94,236.146,244.349,241.475,234.447,-0.0311751,-0.0629058,224.359,234.996
2014-07-27 00:00,-0.0710853,235.601,231.713,229.484,231.408,229.909,226.574,-0.0211471,-0.0465502,222.04,227.877
2014-07-27 01:00,-0.0,247.601,247.563,238.349,248.946,247.085,237.827,-0.0,-0.0,226.027,239.39
2014-07-27 02:00,-0.001324,244.063,243.94,235.662,245.693,245.399,238.577,-0.0,-0.0,228.4,238.714
2014-07-27 03:00,-0.0,243.066,244.16,236.146,245.914,244.544,238.278,-0.0,-0.0,228.662,238.027
2014-07-27 04:00,-0.0,240.898,242.597,234.845,243.438,243.024,237.373,-0.0,-0.0,228.748,237.468
2014-07-27 05:00,-0.00131541,250.598,250.371,239.721,251.242,250.156,242.097,-0.0,-0.0,229.685,241.602
2014-07-27 06:00,-0.0,249.89,249.583,238.963,250.415,249.55,240.354,-0.0,-0.0,228.575,240.835
2014-07-27 07:00,-0.0,249.89,247.973,238.04,248.733,247.915,239.913,-0.0,-0.0,228.312,239.922
2014-07-27 08:00,-0.00274091,258.096,255.409,241.646,255.827,254.855,244.231,-0.0,-0.0,228.662,243.093
2014-07-27 09:00,-0.0,258.576,258.871,244.07,259.974,258.774,247.006,-0.0,-0.0,228.921,244.294
2014-07-27 10:00,1.37936,250.598,243.496,235.662,242.978,241.475,234.604,1.88162,2.39828,226.592,235.592
2014-07-27 11:00,0.506514,251.282,230.85,228.749,230.574,229.385,225.709,0.760067,0.860698,223.434,227.694
2014-07-27 12:00,0.392417,251.944,227.845,226.287,227.414,226.701,224.834,0.712972,0.0,222.476,225.408
2014-07-27 13:00,0.281582,254.966,240.277,233.513,240.392,239.208,233.661,0.663196,0.714688,226.122,234.542
2014-07-27 14:00,0.322231,255.521,239.799,233.681,239.911,238.515,232.547,0.673642,0.71602,225.643,233.617
2014-07-27 15:00,0.287651,263.255,246.523,237.258,245.693,243.679,236.153,0.362739,0.423243,226.499,236.325
2014-07-27 16:00,0.358598,285.357,248.985,239.267,250.623,249.348,241.664,0.536187,0.585403,228.136,241.093
2014-07-27 17:00,0.490768,277.661,245.032,236.466,246.135,244.544,237.222,0.55079,0.623481,228.748,238.85
2014-07-27 18:00,0.491718,267.761,229.97,228.934,230.294,229.385,226.574,0.688939,0.766298,223.952,227.509
2014-07-27 19:00,0.534937,265.446,228.463,227.248,228.871,228.59,225.883,0.872227,0.983855,223.224,226.187
2014-07-27 20:00,0.991597,280.799,247.973,238.657,248.946,247.085,238.727,1.15942,1.39197,228.224,240.053
2014-07-27 21:00,0.152182,257.605,257.683,244.07,259.421,258.04,247.142,0.450984,0.422502,231.315,245.46
2014-07-27 22:00,-0.00601578,247.601,247.15,237.884,248.733,247.915,240.354,-0.00509355,-0.0,230.348,240.835
2014-07-27 23:00,-0.104923,245.01,244.815,235.985,246.575,245.612,238.278,-0.0312134,-0.0543945,230.593,239.789
2014-07-28 00:00,-0.09417,265.095,257.511,243.79,258.116,253.703,241.519,-0.0260355,-0.0504454,229.685,241.728
2014-07-28 01:00,-0.0015204,271.798,265.092,248.121,264.27,260.942,246.044,-0.0,-0.0,228.921,241.98
2014-07-28 02:00,-0.00132363,245.913,239.074,233.175,237.702,236.157,231.094,-0.0,-0.0,226.871,232.347
2014-07-28 03:00,0.00123918,245.01,242.597,234.845,242.049,241.251,235.227,-0.0,-0.0,228.224,235.74
2014-07-28 04:00,0.00123659,262.869,255.587,242.081,254.854,253.51,242.097,-0.0,-0.0,228.662,239.255
2014-07-28 05:00,-0.0,237.078,236.318,231.274,236.186,235.193,230.604,-0.0,-0.0,226.871,232.829
2014-07-28 06:00,0.00150249,240.898,242.142,234.017,242.515,241.921,236.307,-0.0,-0.0,228.312,237.327
2014-07-28 07:00,0.00188502,249.89,245.676,236.784,245.914,244.328,236.918,-0.0,-0.0,227.691,237.327
2014-07-28 08:00,-0.0,253.206,250.954,239.419,251.652,250.557,241.664,-0.0,-0.0,230.101,241.98
2014-07-28 09:00,-0.0,271.798,266.886,248.771,267.185,264.106,248.499,-0.0,-0.0,232.86,246.258
2014-07-28 10:00,1.77994,260.827,250.954,240.021,251.036,248.532,239.913,1.50707,1.94071,232.328,240.316
2014-07-28 11:00,0.468377,288.012,281.386,258.022,282.946,280.108,258.147,0.282665,0.477885,232.935,249.198
2014-07-28 12:00,0.423323,290.685,284.185,260.011,286.447,283.629,259.614,0.209083,0.372579,233.677,250.032
2014-07-28 13:00,0.351732,291.686,287.869,262.049,289.835,287.188,261.182,0.147232,0.291257,233.085,249.721
2014-07-28 14:00,0.309612,293.93,288.736,262.681,290.367,287.048,260.822,0.124766,0.24404,233.085,248.987
2014-07-28 15:00,0.262363,294.823,289.379,262.786,291.16,287.748,260.098,0.103322,0.204813,234.543,249.721
2014-07-28 16:00,0.219064,286.121,271.574,251.799,270.006,266.329,248.634,0.164872,0.213479,233.677,242.478
2014-07-28 17:00,0.279079,276.155,256.469,242.081,255.439,251.947,240.646,0.308575,0.387816,233.968,241.221
2014-07-28 18:00,0.280007,293.24,282.799,258.691,284.22,279.361,255.027,0.156408,0.245385,236.408,249.408
2014-07-28 19:00,0.213616,292.414,289.805,262.786,291.817,288.722,261.898,0.102715,0.178384,238.733,253.021
2014-07-28 20:00,0.215874,290.301,288.52,261.944,291.029,288.584,262.136,0.15894,0.208463,239.349,253.117
2014-07-28 21:00,0.0732659,286.421,286.105,260.228,288.897,286.767,261.062,0.310171,0.295865,239.471,252.925
2014-07-28 22:00,-0.0,285.202,285.095,259.464,287.951,286.202,261.301,-0.00511539,-0.0,239.714,252.925
2014-07-28 23:00,-0.113564,281.165,279.458,256.434,280.785,278.609,256.785,-0.0312503,-0.0601912,238.608,249.928
2014-07-29 00:00,-0.0653611,271.798,265.995,248.252,265.482,259.864,246.044,-0.0211599,-0.0446376,237.785,245.114
2014-07-29 01:00,-0.00152025,280.799,279.823,256.205,281.655,278.911,257.158,-0.0,-0.0,238.671,250.442
2014-07-29 02:00,-0.00132325,283.594,283.264,258.022,286.172,283.773,259.492,-0.0,-0.0,239.288,252.731
2014-07-29 03:00,-0.0,282.234,282.214,257.798,284.921,283.339,259.856,-0.0,-0.0,239.834,252.537
2014-07-29 04:00,-0.0,273.338,271.299,251.799,273.372,268.835,251.028,-0.0,0.00124796,239.954,250.442
2014-07-29 05:00,-0.0,283.428,284.071,259.024,286.997,286.06,261.54,-0.0,-0.0,241.533,255.091
2014-07-29 06:00,-0.0,282.923,283.956,258.802,286.722,285.493,262.017,-0.0,-0.0,242.6,256.091
2014-07-29 07:00,-0.00188564,282.581,283.841,258.58,286.585,285.919,261.898,-0.0,-0.0,243.418,257.421
2014-07-29 08:00,-0.0,282.408,283.38,258.58,286.172,285.35,261.66,-0.0,-0.0,243.418,257.421
2014-07-29 09:00,-0.0,282.234,283.38,258.022,286.033,285.777,262.136,-0.0,-0.0,243.793,258.372
2014-07-29 10:00,0.861066,282.408,283.38,258.022,286.172,285.493,261.898,0.95339,1.0699,244.006,258.713
2014-07-29 12:00,0.451196,291.931,289.272,262.049,291.686,289.964,262.965,0.196733,0.370954,244.006,259.051
2014-07-29 13:00,0.379999,295.69,292.314,263.928,294.533,292.276,264.255,0.151703,0.298159,243.793,259.387
2014-07-29 14:00,0.313552,297.947,294.446,265.153,296.809,293.883,264.837,0.118769,0.241577,243.953,259.887
2014-07-29 15:00,0.270668,299.203,295.639,265.959,298.178,295.208,265.532,0.0978496,0.202639,243.579,259.638
2014-07-29 16:00,0.242649,299.485,296.425,266.458,298.918,296.258,265.185,0.0860324,0.182195,243.256,259.721
2014-07-29 17:00,0.224184,299.013,296.229,266.458,298.672,295.865,265.416,0.08036,0.168506,243.039,259.804
2014-07-29 18:00,0.217024,298.144,295.738,266.059,298.178,295.471,265.647,0.0836736,0.16628,242.544,259.638
2014-07-29 19:00,0.220611,296.323,294.646,265.355,297.184,294.944,265.532,0.10229,0.180297,241.817,259.638
2014-07-29 20:00,0.22389,293.24,292.827,264.133,295.424,293.75,264.605,0.157973,0.211903,241.419,259.22
2014-07-29 22:00,-0.0,286.864,288.195,260.661,290.897,290.101,264.138,-0.0,-0.0,241.704,259.721
2014-07-29 23:00,-0.0994816,286.271,288.087,260.553,290.897,290.648,264.488,-0.0288792,-0.05739,241.59,260.135
2014-07-30 00:00,-0.0846065,285.665,287.541,260.445,290.367,289.964,264.138,-0.0227933,-0.0465902,241.817,260.381
2014-07-30 01:00,-0.00152006,285.045,286.882,260.337,289.835,289.551,264.022,-0.0,-0.0,242.266,260.708
2014-07-30 02:00,-0.00132286,284.57,286.661,260.119,289.568,289.276,263.905,-0.0,-0.0,242.765,260.463
2014-07-30 03:00,-0.0,284.888,286.661,260.337,289.568,289.689,264.138,-0.0,-0.0,243.364,260.545
2014-07-30 04:00,-0.0,284.249,286.328,260.337,289.166,289.137,263.553,-0.0,-0.0,244.322,261.113
2014-07-30 05:00,-0.0,283.594,285.77,260.119,288.628,288.584,264.138,-0.0,-0.0,244.739,261.275
2014-07-30 06:00,-0.0,283.261,285.321,259.902,288.087,288.167,263.67,-0.0,-0.0,244.739,260.952
2014-07-30 07:00,-0.00188639,283.093,284.869,259.793,287.815,287.748,263.553,-0.0,-0.0,244.426,261.033
2014-07-30 08:00,-0.0,282.753,284.755,259.683,287.543,287.329,263.318,-0.0,-0.0,244.635,260.871
2014-07-30 09:00,-0.0,282.923,284.869,259.683,287.407,287.188,263.318,-0.0,-0.0,244.842,261.194
2014-07-30 10:00,0.740465,283.093,284.755,259.464,287.407,287.469,262.847,0.88818,0.996724,244.739,261.275
2014-07-30 12:00,0.454546,292.889,290.756,263.203,293.248,291.871,264.605,0.195847,0.377431,244.583,262.151
2014-07-30 13:00,0.384479,296.531,293.843,265.254,296.182,294.016,265.416,0.152803,0.301018,244.058,262.151
2014-07-30 14:00,0.320729,298.918,295.837,266.458,298.302,296.127,266.222,0.121158,0.245753,243.526,262.388
2014-07-30 15:00,0.275871,299.858,297.204,267.151,299.654,297.17,266.337,0.100106,0.208116,243.686,262.545
2014-07-30 16:00,0.246421,300.317,297.879,267.838,300.263,297.947,267.023,0.0857618,0.184675,243.74,262.857
2014-07-30 17:00,0.236507,300.134,297.107,267.052,299.287,296.91,266.222,0.0856241,0.177841,243.899,263.782
2014-07-30 18:00,0.235573,298.339,295.639,266.259,297.558,295.076,265.532,0.101365,0.187141,244.322,264.162
2014-07-30 19:00,0.230161,296.323,294.746,265.557,296.935,294.679,265.647,0.115155,0.198035,244.374,263.858
2014-07-30 21:00,0.30722,288.568,289.486,262.155,291.555,290.648,264.255,0.433538,0.482467,243.039,263.09
2014-07-30 22:00,-0.00609218,286.121,287.541,261.198,289.835,288.861,263.905,-0.0,-0.0,242.82,262.857
2014-07-30 23:00,-0.102435,286.121,287.76,261.091,290.234,289.413,263.905,-0.0265013,-0.0545798,242.6,263.244
2014-07-31 00:00,-0.0730855,285.202,286.882,260.337,289.166,288.722,264.138,-0.0227984,-0.0466005,242.266,262.857
2014-07-31 01:00,-0.00303969,284.73,286.105,260.445,288.493,287.748,263.318,-0.0,-0.0,241.419,261.755
2014-07-31 02:00,-0.0,281.883,283.38,259.244,286.172,285.493,262.373,-0.0,-0.0,240.253,261.194
2014-07-31 03:00,-0.0,281.883,283.611,259.134,286.033,285.493,262.61,-0.0,-0.0,239.532,260.708
2014-07-31 04:00,-0.0012353,283.093,285.208,260.119,287.543,287.469,263.436,-0.0,-0.0,239.104,261.033
2014-07-31 05:00,-0.0,282.923,284.982,259.464,287.27,287.048,263.553,-0.0,-0.0,239.104,260.952
2014-07-31 06:00,-0.0,282.753,284.869,259.902,287.407,287.609,262.965,-0.0,-0.0,240.43,262.309
2014-07-31 07:00,-0.0,282.581,284.755,259.793,287.27,287.469,262.847,-0.0,-0.0,238.671,261.435
2014-07-31 08:00,-0.0,282.581,284.642,259.574,287.134,287.188,263.787,-0.0,-0.0,237.463,261.194
2014-07-31 09:00,-0.0,282.581,284.642,259.793,286.997,287.188,263.67,-0.0,-0.0,236.874,260.871
2014-07-31 10:00,0.748377,282.753,284.642,259.354,287.134,287.329,263.436,0.877361,1.04612,236.071,260.708
2014-07-31 12:00,0.463149,293.93,292.211,264.236,294.916,293.617,265.647,0.197207,0.389196,234.472,259.051
2014-07-31 13:00,0.38693,297.349,294.846,0.0,297.309,295.339,265.878,0.152224,0.309741,235.038,259.051
2014-07-31 14:00,0.322916,0.0,296.327,267.052,298.918,296.519,266.452,0.119358,0.248225,234.686,258.882
2014-07-31 15:00,0.279513,300.769,297.783,267.935,300.02,297.43,266.452,0.0997824,0.210495,235.178,258.628
2014-07-31 16:00,0.251665,300.947,298.071,268.13,300.506,298.334,266.337,0.0880407,0.18713,235.178,258.114
2014-07-31 17:00,0.234109,300.134,297.397,267.151,299.898,297.43,266.452,0.0880978,0.175619,235.108,258.114
2014-07-31 18:00,0.230897,298.726,296.425,266.557,299.164,296.65,265.878,0.0879751,0.176771,236.341,258.798
2014-07-31 19:00,0.231817,296.427,295.045,265.959,297.683,295.602,265.878,0.103653,0.18933,238.041,259.471
2014-07-31 20:00,0.211994,292.771,292.622,264.133,295.297,293.75,265.416,0.152181,0.214021,238.795,260.217
2014-07-31 21:00,0.231199,287.871,288.843,261.731,291.423,290.511,263.787,0.419477,0.466819,239.471,260.135
2014-07-31 22:00,-0.0,286.121,287.322,260.876,289.968,289.137,263.787,-0.0,-0.0,238.608,259.721
2014-07-31 23:00,-0.116783,285.357,286.55,260.445,289.032,288.306,263.436,-0.0313523,-0.0603878,239.104,260.052
