# timestamp,IR_016,IR_039,IR_087,IR_097,IR_108,IR_120,IR_134,VIS006,VIS008,WV_062,WV_073
2014-10-01 00:00,0.00193362,287.3,284.528,259.574,285.757,282.321,258.882,-0.0,0.0019521,229.178,249.408
2014-10-01 01:00,-0.0,281.165,272.796,252.534,272.104,268.007,248.364,-0.0,-0.0,225.449,241.728
2014-10-01 02:00,-0.0,280.613,272.12,252.29,271.464,266.667,246.457,-0.0,-0.0,226.216,242.602
2014-10-01 03:00,-0.0,265.095,248.177,239.115,242.978,237.815,229.116,-0.0,-0.0,219.744,230.011
2014-10-01 04:00,-0.00129114,272.061,261.34,246.13,260.706,257.486,243.949,-0.0,-0.0,227.329,240.316
2014-10-01 05:00,-0.0,287.729,286.55,260.553,289.3,287.048,261.54,-0.0,-0.0,230.348,251.352
2014-10-01 06:00,-0.0,286.271,284.528,259.354,286.722,284.349,260.219,-0.0,-0.0,230.43,250.95
2014-10-01 07:00,-0.00231047,269.283,258.871,244.07,258.678,254.855,241.519,-0.0,-0.0,227.959,241.602
2014-10-01 08:00,0.00408462,259.954,249.781,239.115,246.794,245.612,237.977,-0.0,0.00412367,225.931,234.845
2014-10-01 09:00,-0.0509002,273.338,265.846,248.642,265.654,263.933,248.499,-0.0646456,-0.0770801,228.4,241.728
2014-10-01 10:00,0.412338,289.514,287.102,260.661,289.701,286.485,261.54,0.274313,0.374652,232.02,251.751
2014-10-01 12:00,0.403912,299.203,288.412,261.412,289.568,284.922,259.977,0.195201,0.301641,232.251,251.051
2014-10-01 13:00,0.369013,302.932,289.699,262.155,290.764,284.779,259.005,0.164313,0.270129,231.63,250.849
2014-10-01 15:00,0.27171,302.932,288.628,261.305,288.628,283.049,256.785,0.221728,0.290443,230.835,250.442
2014-10-01 16:00,0.303947,254.396,225.937,228.004,226.522,226.974,221.782,0.612137,0.705888,222.476,224.61
2014-10-01 17:00,0.289628,257.103,222.904,226.866,221.511,220.984,220.675,0.573739,0.616515,216.83,219.608
2014-10-01 18:00,0.346084,264.009,221.117,225.701,220.184,218.857,217.639,0.719503,0.81525,217.881,219.608
2014-10-01 19:00,0.53726,267.123,220.379,225.306,219.847,219.165,218.982,0.822883,0.941476,216.56,218.895
2014-10-01 20:00,0.744472,277.026,218.474,225.107,217.427,215.027,214.872,0.787145,0.931073,214.879,217.418
2014-10-01 21:00,1.19185,271.798,217.685,224.305,215.993,213.356,213.447,0.878083,1.18762,214.734,215.6
2014-10-01 22:00,-0.00693158,233.989,225.282,227.817,222.806,219.777,218.601,-0.0,-0.0,216.287,220.989
2014-10-01 23:00,-0.0671764,251.944,236.832,232.834,234.107,231.203,225.535,-0.0494593,-0.0530754,220.801,228.603
2014-10-02 00:00,0.001936,252.585,248.985,239.871,249.368,246.457,236.918,-0.0,-0.0,223.746,237.608
2014-10-02 01:00,-0.0,255.521,234.477,232.491,230.012,223.619,218.792,-0.0,-0.0,213.995,221.658
2014-10-02 02:00,0.00133943,233.989,221.841,225.701,218.478,215.683,214.468,-0.0,-0.0,213.845,217.418
2014-10-02 03:00,-0.00127064,272.061,256.644,243.509,254.066,247.293,232.707,-0.0,-0.0,221.708,233.773
2014-10-02 04:00,-0.0,276.594,268.63,250.555,268.524,261.831,245.072,-0.0,-0.0,227.42,243.093
2014-10-02 05:00,-0.0,275.932,271.162,251.676,271.945,267.339,250.104,-0.0,-0.0,228.835,246.032
2014-10-02 06:00,-0.0,250.598,248.38,239.267,249.157,247.501,238.278,-0.0,-0.00171637,225.643,238.986
2014-10-02 07:00,-0.0,250.598,248.784,239.721,249.579,247.501,239.765,-0.0,-0.0,226.122,239.255
2014-10-02 08:00,0.00412953,276.594,270.189,251.18,271.464,268.007,250.369,-0.0,-0.0,228.575,246.145
2014-10-02 09:00,-0.0547487,274.314,273.199,252.899,274.933,272.565,255.153,-0.0695335,-0.0829081,229.348,248.562
2014-10-02 10:00,0.359323,288.568,285.433,259.683,287.407,284.061,259.856,0.245353,0.333503,230.511,249.198
2014-10-02 11:00,0.0,295.26,286.439,260.228,287.815,283.194,258.147,0.264862,0.443764,230.348,248.455
2014-10-02 12:00,0.453388,299.485,291.694,262.89,293.377,288.861,261.66,0.180285,0.335416,231.236,249.721
2014-10-02 13:00,0.350141,301.39,293.539,263.928,295.043,290.648,262.255,0.136448,0.25883,231.709,249.825
2014-10-02 14:00,0.291681,303.346,295.144,265.052,296.809,292.141,263.083,0.109277,0.214988,231.709,250.135
2014-10-02 15:00,0.252693,304.715,296.131,265.153,297.807,292.814,263.318,0.0924369,0.18452,232.02,250.032
2014-10-02 16:00,0.230953,305.106,296.425,265.355,298.178,292.814,263.553,0.0877322,0.167624,232.481,250.646
2014-10-02 17:00,0.227761,304.398,295.837,265.355,297.558,292.679,262.965,0.100464,0.170733,232.784,250.95
2014-10-02 18:00,0.222245,303.346,296.131,265.658,298.178,293.216,263.67,0.109883,0.176875,233.896,251.452
2014-10-02 19:00,0.242024,301.302,294.945,264.95,296.935,292.814,264.255,0.166152,0.222325,235.178,252.439
2014-10-02 20:00,0.28088,298.533,293.843,264.339,296.056,292.41,264.022,0.31918,0.335801,236.874,253.88
2014-10-02 21:00,0.0614445,294.491,292.52,263.307,295.297,292.41,264.372,0.247119,0.217112,236.341,254.256
2014-10-02 22:00,-0.0,291.809,290.229,261.731,292.989,290.648,263.2,-0.0,-0.00702109,236.274,254.814
2014-10-02 23:00,-0.0643572,292.174,290.123,262.049,292.6,290.101,263.905,-0.0495374,-0.0472527,236.341,255.275
2014-10-03 00:00,-0.0,278.883,276.463,254.572,278.576,276.015,256.535,-0.0,-0.0,235.178,252.439
2014-10-03 01:00,0.00153033,290.171,287.212,260.445,289.032,286.202,261.66,-0.0,-0.0,235.936,253.785
2014-10-03 02:00,-0.0,289.247,286.882,260.119,289.166,286.202,261.062,-0.0,-0.0,236.071,253.5
2014-10-03 03:00,-0.00127293,284.087,277.35,254.454,277.528,274.304,252.464,-0.0,0.0012851,231.156,248.025
2014-10-03 04:00,-0.0,271.798,266.886,249.158,267.69,265.138,249.037,-0.0,-0.0,229.601,246.929
2014-10-03 05:00,-0.00142246,283.428,280.429,256.778,282.087,279.361,258.147,-0.0,-0.0,232.097,251.452
2014-10-03 06:00,-0.0,283.924,282.566,258.469,284.781,282.028,259.492,-0.0,-0.0,233.968,253.021
2014-10-03 07:00,0.00233738,280.613,276.971,254.572,277.978,274.929,255.28,-0.0,0.00235973,230.755,250.34
2014-10-03 08:00,-0.0,283.093,281.029,257.006,281.799,276.631,255.784,-0.0,-0.0,230.916,250.95
2014-10-03 09:00,-0.0295953,285.665,283.726,258.358,284.22,279.661,256.785,-0.0751749,-0.0896346,230.674,251.252
2014-10-03 10:00,0.370793,287.587,283.148,257.685,284.781,281.588,258.515,0.25116,0.345542,230.755,251.452
2014-10-03 12:00,0.454931,300.769,293.843,264.133,295.677,292.276,263.905,0.18254,0.344921,231.63,254.443
2014-10-03 13:00,0.357702,303.015,296.327,265.456,298.549,294.944,264.605,0.137217,0.269735,231.865,254.536
2014-10-03 14:00,0.296043,305.106,298.358,267.151,300.384,296.91,266.108,0.111162,0.222206,231.076,254.907
2014-10-03 15:00,0.276612,304.95,296.425,266.059,298.549,295.208,265.647,0.131612,0.219945,231.315,255.366
2014-10-03 16:00,0.275375,305.569,297.204,266.159,299.287,295.865,265.185,0.132933,0.225173,231.63,255.548
2014-10-03 17:00,0.251889,303.998,295.343,265.254,297.309,293.216,263.436,0.124506,0.217183,230.835,254.068
2014-10-03 18:00,0.241334,298.339,288.087,260.876,289.032,284.779,258.76,0.167309,0.2371,229.517,251.152
2014-10-03 19:00,0.374414,293.702,278.968,255.393,279.466,275.396,252.853,0.317016,0.395575,228.4,248.025
2014-10-03 20:00,0.53471,298.144,284.071,259.244,286.31,283.049,260.098,0.480839,0.595665,231.63,253.69
2014-10-03 21:00,0.899221,292.053,287.651,261.305,290.101,288.167,263.318,0.761369,0.953977,233.382,255.457
2014-10-03 22:00,0.0,0.0,0.0,0.0,0.0,0.0,0.0,0.0,0.0,0.0,0.0
2014-10-03 23:00,-0.0615354,290.558,290.017,262.261,292.6,291.193,265.185,-0.0471398,-0.0473323,235.038,257.421
2014-10-04 00:00,-0.00194123,289.647,289.805,262.471,292.47,291.329,264.837,-0.0,-0.0,234.827,257.333
2014-10-04 01:00,-0.00153249,288.977,289.593,262.261,292.34,291.329,265.532,-0.0,-0.0,234.329,257.07
2014-10-04 02:00,-0.0,288.568,289.165,261.944,291.948,291.057,265.069,-0.0,-0.0,234.827,257.421
2014-10-04 03:00,-0.0,287.729,288.628,261.625,291.423,290.375,265.416,-0.0,-0.0,235.317,257.421
2014-10-04 04:00,-0.0,287.729,288.628,261.731,291.555,290.784,265.069,-0.0,-0.0,234.897,257.682
2014-10-04 05:00,-0.00142657,287.444,288.303,261.412,290.897,290.238,264.953,-0.0,-0.0,234.329,257.421
2014-10-04 06:00,-0.0,287.155,287.651,261.198,290.234,289.551,264.953,-0.0,-0.0,233.896,256.982
2014-10-04 07:00,-0.0,285.665,285.994,260.228,288.222,287.188,262.728,-0.0,-0.0,232.784,256.628
2014-10-04 08:00,-0.0,284.73,284.528,258.913,286.722,285.635,261.779,-0.0,-0.0,232.86,256.894
2014-10-04 09:00,-0.0643699,285.357,286.105,260.228,288.628,288.027,263.905,-0.163506,-0.194956,233.53,258.114
2014-10-04 10:00,0.539261,289.91,288.52,261.412,290.897,289.551,264.255,0.280613,0.470693,234.185,257.595
2014-10-04 11:00,0.560932,297.248,292.725,264.031,295.043,292.679,264.721,0.229592,0.440153,234.185,257.942
2014-10-04 12:00,0.456496,301.125,295.837,265.959,298.178,295.208,265.762,0.180168,0.356203,234.257,258.882
2014-10-04 13:00,0.36087,303.51,297.59,266.954,299.776,296.258,266.222,0.136757,0.277647,234.686,258.713
2014-10-04 14:00,0.296548,304.872,299.024,267.935,301.231,297.43,266.222,0.108695,0.226805,235.386,259.22
2014-10-04 15:00,0.258916,306.176,300.433,268.807,302.669,299.232,267.251,0.0899644,0.19481,234.968,259.887
2014-10-04 16:00,0.233824,306.025,300.712,269.096,302.788,299.104,267.705,0.08214,0.1783,235.867,259.721
2014-10-04 17:00,0.227009,305.339,299.872,268.711,302.072,298.334,267.137,0.087472,0.179775,237.528,260.299
2014-10-04 18:00,0.231259,303.998,298.358,267.935,300.627,297.17,266.452,0.106803,0.195918,238.546,260.627
2014-10-04 19:00,0.29122,302.171,295.343,265.959,297.309,294.547,265.647,0.185852,0.269869,238.671,260.052
2014-10-04 20:00,0.272278,298.436,294.746,265.758,297.06,294.282,265.993,0.25546,0.308312,238.671,259.554
2014-10-04 21:00,1.39088,293.007,285.77,260.553,288.493,286.343,262.728,1.04965,1.48049,239.41,259.471
2014-10-04 22:00,-0.0,281.883,281.267,257.798,283.23,281.588,260.34,-0.0,-0.0,239.714,259.22
2014-10-04 23:00,-0.0675168,288.705,286.328,260.769,288.222,286.343,261.301,-0.0497099,-0.0474172,238.041,258.2
2014-10-05 00:00,-0.0,287.729,286.882,261.091,288.897,286.907,261.898,-0.0,-0.0,236.742,258.2
2014-10-05 01:00,-0.00153475,287.587,287.322,261.519,289.434,287.888,263.083,-0.0,-0.0,237.137,258.713
2014-10-05 02:00,-0.00134576,287.587,288.195,261.838,290.5,289.551,264.488,-0.0,-0.0,236.874,258.967
2014-10-05 03:00,-0.00127771,277.24,278.35,256.549,281.51,279.81,259.856,-0.0,-0.0,238.231,258.286
2014-10-05 04:00,-0.0,286.121,285.994,261.198,288.493,287.048,262.965,-0.0,-0.0,237.528,258.798
2014-10-05 05:00,-0.00143075,281.526,281.386,258.58,284.079,282.467,260.942,-0.0,-0.0,237.006,257.855
2014-10-05 06:00,-0.0,279.278,278.968,257.006,281.655,280.108,259.614,-0.0,-0.0,236.475,256.894
2014-10-05 07:00,-0.00236492,283.594,281.148,257.91,282.087,279.81,257.53,-0.0,-0.0,234.686,254.907
2014-10-05 08:00,0.00426915,283.594,282.096,258.358,283.23,281.146,258.27,-0.0,-0.0,233.53,255.639
2014-10-05 09:00,-0.140963,284.57,285.095,260.337,286.997,286.06,262.255,-0.208868,-0.28462,235.247,258.372
2014-10-05 10:00,0.531241,289.647,288.412,262.049,290.764,289.689,264.605,0.290496,0.491626,235.038,259.304
2014-10-05 11:00,0.533309,296.943,292.314,264.441,294.149,292.006,264.488,0.236953,0.447784,235.247,258.882
2014-10-05 12:00,0.454463,301.913,297.107,267.348,299.531,297.04,266.795,0.179366,0.365584,235.867,259.97
2014-10-05 13:00,0.36114,304.319,298.929,268.615,301.231,298.205,267.137,0.138766,0.285524,235.108,259.387
2014-10-05 14:00,0.294506,305.722,299.024,268.711,300.99,296.91,265.993,0.111669,0.232686,235.936,259.22
2014-10-05 15:00,0.262026,306.326,299.496,268.807,301.472,297.559,264.953,0.095966,0.204242,237.006,259.721
2014-10-05 16:00,0.243335,304.872,296.718,267.446,298.302,294.547,263.787,0.0935552,0.194273,235.867,258.2
2014-10-05 17:00,0.274147,297.449,281.624,258.134,281.221,276.477,250.896,0.151682,0.246624,230.43,249.513
2014-10-05 18:00,0.308415,305.184,294.044,266.259,295.93,292.276,264.022,0.165431,0.260828,237.398,258.967
2014-10-05 19:00,0.282068,302.596,294.446,265.859,296.182,292.141,263.787,0.19841,0.278193,236.874,259.051
2014-10-05 20:00,0.550666,292.294,275.694,254.454,274.778,270.798,248.499,0.441381,0.563342,229.348,246.818
2014-10-05 21:00,1.06448,295.151,288.843,262.155,291.029,288.306,260.822,0.837821,1.16547,235.799,258.028
2014-10-05 22:00,-0.00703312,288.152,284.642,260.011,285.895,283.629,258.515,-0.0,-0.0,232.784,255.091
2014-10-05 23:00,-0.082351,287.729,284.3,259.134,286.033,283.917,259.249,-0.0423339,-0.0415691,234.543,256.45
2014-10-06 00:00,-0.00194711,284.41,280.909,257.459,282.517,280.257,256.66,-0.0,-0.0,231.865,253.69
2014-10-06 01:00,-0.0,286.569,285.77,260.553,287.679,286.767,262.61,-0.0,-0.0,233.896,257.246
2014-10-06 02:00,-0.0,287.587,288.843,262.261,291.423,290.784,265.416,-0.0,-0.0,234.401,259.638
2014-10-06 03:00,-0.0,287.155,288.195,261.625,290.632,290.238,264.721,-0.0,-0.0,235.178,259.638
2014-10-06 04:00,-0.0,275.932,267.033,249.542,264.965,261.299,243.099,-0.0,-0.0,226.592,245.345
2014-10-06 05:00,-0.0,274.551,265.696,247.728,265.31,262.888,245.072,-0.0,-0.0,228.136,246.929
2014-10-06 06:00,-0.0,284.087,284.528,259.024,286.447,285.777,262.373,-0.0,-0.0,231.865,257.508
2014-10-06 07:00,-0.0023789,276.594,270.049,250.681,269.679,267.84,249.171,-0.0,-0.0,227.51,247.699
2014-10-06 08:00,-0.0,280.613,277.35,254.572,277.528,276.169,254.9,-0.0,-0.0,230.266,252.828
2014-10-06 09:00,-0.311179,284.249,284.185,258.691,286.033,285.919,262.255,-0.263474,-0.392692,233.234,257.769
2014-10-06 10:00,0.447205,288.012,285.77,259.574,287.543,286.202,261.062,0.272442,0.445974,231.943,256.181
2014-10-06 11:00,0.555946,297.349,292.622,263.721,294.916,293.082,264.721,0.23758,0.473894,232.251,257.246
2014-10-06 12:00,0.456091,301.125,295.639,265.153,298.178,295.602,265.185,0.186217,0.376733,232.481,257.158
2014-10-06 13:00,0.359988,304.636,299.496,267.74,302.669,299.998,267.478,0.137099,0.287532,233.75,258.286
2014-10-06 14:00,0.301432,306.771,302.094,269.67,305.377,302.394,268.722,0.110308,0.23984,233.896,258.543
2014-10-06 15:00,0.26392,306.991,301.911,269.384,304.91,302.144,267.705,0.094739,0.20505,233.382,257.333
2014-10-06 16:00,0.242909,303.51,294.346,264.645,295.803,291.871,260.701,0.103884,0.206444,230.43,252.925
2014-10-06 17:00,0.214096,301.037,292.314,263.411,293.248,289.826,259.492,0.1067,0.192887,229.685,251.352
2014-10-06 18:00,0.377284,282.581,252.101,240.32,247.878,243.024,228.446,0.352209,0.454139,219.624,230.354
2014-10-06 19:00,0.316271,294.268,280.669,256.32,280.639,276.477,252.205,0.229269,0.323669,227.87,247.151
2014-10-06 20:00,0.542075,288.977,269.343,250.051,268.191,264.451,245.211,0.440367,0.554652,225.643,241.854
2014-10-06 21:00,1.17428,280.982,259.871,244.488,257.739,253.703,238.428,0.830651,1.1555,224.359,238.441
2014-10-06 22:00,-0.00706271,287.587,286.55,260.228,288.628,287.469,262.373,-0.0,-0.0,231.394,255.183
2014-10-06 23:00,-0.058941,279.667,269.908,250.303,269.842,266.667,246.594,-0.0598863,-0.0416531,226.499,244.998
2014-10-07 00:00,-0.0,285.357,284.185,259.024,285.757,284.205,259.856,-0.0,-0.0,229.433,253.021
2014-10-07 01:00,-0.0,286.271,286.328,260.445,288.493,287.609,263.2,-0.0,-0.0,233.234,255.911
2014-10-07 02:00,-0.0,284.41,282.682,257.91,284.22,282.758,259.977,-0.0,-0.0,232.097,254.349
2014-10-07 03:00,-0.00128276,283.76,282.799,258.022,284.501,283.339,260.098,-0.0,-0.0,232.097,254.629
2014-10-07 04:00,-0.00130896,283.428,282.566,256.892,284.361,283.194,259.614,-0.0,-0.0,233.603,255.366
2014-10-07 05:00,-0.0,282.234,280.789,256.434,281.655,280.406,258.27,-0.0,-0.0,230.835,253.595
2014-10-07 06:00,-0.00173388,278.075,272.256,251.429,273.215,270.635,249.971,-0.0,-0.0,227.42,248.775
2014-10-07 07:00,-0.0,282.059,281.978,257.233,283.372,282.758,260.34,-0.0,-0.0,233.456,256.091
2014-10-07 08:00,0.00436614,281.883,281.978,256.664,283.656,283.194,261.182,-0.0,-0.0,233.234,255.73
2014-10-07 09:00,-0.130041,282.923,283.956,257.798,286.172,286.202,263.2,-0.220212,-0.262569,234.257,257.421
2014-10-07 10:00,0.526951,288.152,287.76,260.011,290.632,290.101,264.605,0.273164,0.510274,233.603,257.333
2014-10-07 11:00,0.549689,296.008,292.211,262.576,295.297,293.617,264.953,0.227196,0.468152,231.63,255.911
2014-10-07 12:00,0.446974,300.769,295.442,264.543,298.549,296.389,265.532,0.179347,0.375133,230.266,254.162
2014-10-07 13:00,0.357427,303.998,298.834,266.358,302.191,299.232,266.566,0.136673,0.288093,229.769,253.595
2014-10-07 14:00,0.300697,306.549,301.544,268.033,305.027,301.893,268.158,0.111118,0.239255,230.996,254.629
2014-10-07 15:00,0.260964,307.786,302.912,268.711,306.651,303.763,268.497,0.0924939,0.203414,231.552,254.814
2014-10-07 16:00,0.236307,307.643,303.544,268.807,307.226,304.257,268.946,0.0838034,0.186106,232.175,255.183
2014-10-07 17:00,0.224591,306.549,302.731,268.518,306.305,303.639,268.609,0.0836251,0.180298,232.02,254.907
2014-10-07 18:00,0.223782,304.715,301.819,268.033,305.377,303.142,268.722,0.0926934,0.188539,233.01,256.091
2014-10-07 19:00,0.22925,301.913,299.778,266.855,303.618,301.516,268.271,0.122689,0.213974,233.308,255.366
2014-10-07 20:00,0.270404,298.242,296.425,265.254,300.141,297.947,267.251,0.222763,0.291434,234.686,254.907
2014-10-07 21:00,0.471464,292.889,291.902,262.471,294.788,293.35,264.953,0.561358,0.594964,236.139,254.162
2014-10-07 22:00,-0.0,289.113,289.379,260.876,292.209,291.057,264.022,-0.0,-0.0,236.207,253.785
2014-10-07 23:00,-0.0620203,289.247,288.628,260.337,291.555,290.101,264.022,-0.0525125,-0.0387605,237.463,253.69
2014-10-08 00:00,-0.0,287.155,287.432,259.793,290.632,289.413,263.67,-0.0,-0.0,238.546,254.256
2014-10-08 01:00,0.00154217,286.121,286.882,259.244,289.568,288.584,263.2,-0.0,-0.0,238.231,253.69
2014-10-08 02:00,-0.00135281,285.512,285.994,259.024,288.897,288.027,263.67,-0.0,-0.0,238.857,254.068
2014-10-08 03:00,-0.0,284.41,284.185,258.022,286.86,285.493,261.301,-0.0,-0.0,237.913,252.439
2014-10-08 04:00,-0.00131214,282.753,281.742,256.664,283.656,282.321,259.37,-0.0,-0.0,238.546,251.751
2014-10-08 05:00,-0.0,284.57,284.982,258.691,287.407,286.485,262.136,-0.0,-0.0,238.857,253.405
2014-10-08 06:00,-0.00174085,283.594,284.071,258.246,286.722,285.919,262.136,-0.0,-0.0,239.593,254.443
2014-10-08 07:00,0.00240725,283.093,283.841,257.91,286.447,285.777,262.017,-0.0,-0.0,240.899,255.548
2014-10-08 08:00,-0.0,282.753,283.495,257.233,286.172,285.065,261.779,-0.0,-0.0,242.544,256.628
2014-10-08 09:00,-0.0977482,282.753,283.726,257.459,286.172,285.35,262.492,-0.331053,-0.345389,245.859,259.387
2014-10-08 10:00,0.514449,288.012,286.661,259.244,289.166,288.306,262.965,0.269433,0.471178,247.186,260.052
2014-10-08 11:00,0.535812,296.114,292.005,262.049,294.405,292.141,263.787,0.223548,0.439019,249.29,261.113
2014-10-08 12:00,0.445124,301.826,296.425,264.543,299.041,295.865,265.416,0.175577,0.355533,249.875,261.675
2014-10-08 13:00,0.35347,305.028,299.307,266.855,301.952,298.334,265.762,0.135042,0.278516,250.538,262.623
2014-10-08 14:00,0.297441,307.499,301.268,267.935,303.854,299.87,266.681,0.109778,0.229705,250.713,263.09
2014-10-08 15:00,0.259244,308.351,302.459,268.711,305.261,301.138,267.023,0.0923137,0.199349,250.756,263.322
2014-10-08 16:00,0.239618,308.211,302.185,268.518,305.144,301.012,267.819,0.0888926,0.184549,250.625,263.476
2014-10-08 17:00,0.272888,305.184,295.144,264.236,297.309,293.883,264.721,0.154417,0.231854,250.406,262.857
2014-10-08 18:00,0.250786,303.592,296.131,264.747,298.426,295.208,264.721,0.149727,0.22397,250.097,262.466
2014-10-08 19:00,0.360593,303.181,294.446,264.133,296.684,293.75,264.488,0.243154,0.335701,249.83,262.545
2014-10-08 20:00,0.495776,300.225,290.965,262.261,292.86,289.964,263.318,0.444465,0.529957,249.606,261.834
2014-10-08 21:00,0.452582,294.823,291.591,262.471,293.635,291.193,264.138,0.531536,0.58956,249.108,261.914
2014-10-08 22:00,-0.00712748,287.01,285.882,259.024,288.222,285.635,261.54,-0.0,-0.0,248.833,261.113
2014-10-08 23:00,-0.0562401,286.271,284.414,258.691,286.172,284.061,261.301,-0.0526309,-0.0358596,248.603,260.299
2014-10-09 00:00,-0.0,276.155,274.916,253.14,276.923,275.085,257.282,-0.0,-0.0,248.277,259.638
2014-10-09 01:00,-0.0,283.261,282.096,257.459,283.797,281.735,260.461,-0.0,-0.0,248.603,260.789
2014-10-09 02:00,-0.00135532,278.883,279.091,255.858,281.076,279.511,259.735,-0.0,-0.0,248.277,260.871
2014-10-09 03:00,-0.0,287.155,286.772,260.228,288.493,287.329,263.083,-0.0,-0.0,248.09,261.595
2014-10-09 04:00,-0.0,287.871,287.978,260.984,290.101,288.861,263.436,-0.0,-0.0,247.522,261.914
2014-10-09 05:00,0.00144807,286.569,286.992,260.445,289.3,288.027,263.553,-0.0,-0.0,246.896,261.914
2014-10-09 06:00,0.00174788,285.97,286.882,260.119,289.166,288.167,263.67,-0.0,-0.0,246.406,261.834
2014-10-09 07:00,0.00242159,281.705,281.86,257.346,284.921,283.484,260.822,-0.0,-0.0,246.357,261.515
2014-10-09 08:00,0.00446607,280.05,280.789,256.32,283.372,282.613,260.822,-0.0,-0.0,246.456,261.834
2014-10-09 09:00,-0.167747,284.73,285.546,259.244,288.087,287.188,263.67,-0.37875,-0.451602,246.357,262.151
2014-10-09 10:00,0.680323,290.685,285.882,259.683,288.358,286.907,262.728,0.389927,0.607577,245.759,261.275
2014-10-09 12:00,0.436206,302.256,296.229,265.658,298.549,294.812,265.069,0.191451,0.350503,244.269,260.708
2014-10-09 13:00,0.35386,306.101,300.34,268.13,303.144,299.488,267.251,0.139496,0.277695,244.426,261.113
2014-10-09 14:00,0.298023,308.281,302.094,269.288,305.027,301.264,267.932,0.113819,0.229174,244.583,261.435
2014-10-09 15:00,0.261171,308.769,302.459,269.765,305.377,301.642,268.158,0.0993051,0.200192,244.945,261.834
2014-10-09 16:00,0.25156,308.281,300.99,269.096,303.381,299.616,267.251,0.113806,0.201678,244.479,262.072
2014-10-09 17:00,0.276534,305.569,295.541,265.557,297.931,294.016,264.721,0.166754,0.247855,244.269,261.355
2014-10-09 18:00,0.378849,304.478,289.272,261.305,292.209,287.888,261.062,0.275917,0.359781,244.111,259.721
2014-10-09 19:00,0.681213,301.125,271.574,251.799,273.686,271.605,254.773,0.618763,0.731253,242.929,256.628
2014-10-09 20:00,0.650946,305.874,288.303,261.519,290.101,286.06,260.822,0.551155,0.653497,241.419,257.333
2014-10-09 21:00,1.37397,298.339,289.058,261.731,291.292,287.188,262.017,1.00415,1.41631,240.548,257.769
2014-10-09 22:00,-0.0,291.315,290.965,262.576,293.764,292.006,264.721,-0.0,-0.0,239.593,258.372
2014-10-09 23:00,-0.0504397,289.381,288.843,261.625,291.686,289.826,263.787,-0.0753657,-0.0389403,239.227,258.114
2014-10-10 00:00,-0.0,289.113,289.379,262.049,292.209,290.784,264.605,-0.0,-0.0,239.532,258.628
2014-10-10 01:00,-0.0,288.43,288.843,261.305,291.555,290.375,264.837,-0.0,-0.0,239.471,258.457
2014-10-10 02:00,-0.00135791,288.152,288.195,260.984,290.897,289.689,264.255,-0.0,-0.0,240.014,258.286
2014-10-10 03:00,-0.00129083,285.357,284.869,259.244,287.679,285.208,261.421,-0.0,-0.0,238.981,256.894
2014-10-10 04:00,0.00131869,280.982,281.742,257.685,283.372,280.554,259.492,-0.0,-0.0,239.043,255.73
2014-10-10 05:00,-0.0,286.864,287.651,260.445,290.5,289.689,264.488,-0.0,-0.0,238.294,257.421
2014-10-10 06:00,0.00175497,286.121,287.212,260.553,289.968,289.413,264.488,-0.0,0.00177175,238.546,257.682
2014-10-10 07:00,-0.0,285.97,286.772,260.011,289.568,288.861,263.905,-0.0,-0.0,239.227,258.372
2014-10-10 08:00,-0.0,284.57,285.77,259.134,288.628,287.748,263.083,-0.0,-0.0,239.349,258.372
2014-10-10 09:00,-0.0651832,285.045,285.658,259.134,288.222,287.048,262.61,-0.496715,-0.460644,239.349,258.028
2014-10-10 10:00,0.542417,289.779,285.321,259.024,287.815,285.065,260.822,0.336793,0.474589,239.349,257.421
2014-10-10 11:00,0.613594,297.848,285.77,259.683,288.222,285.065,260.701,0.333365,0.480081,239.227,256.982
2014-10-10 12:00,0.469961,302.511,290.229,261.731,292.86,288.306,261.301,0.247759,0.379563,239.104,257.158
2014-10-10 13:00,0.381416,304.398,289.165,261.198,291.423,285.635,260.219,0.223763,0.327375,240.43,257.421
2014-10-10 14:00,0.316334,305.028,290.123,262.261,291.817,286.767,260.942,0.179988,0.259319,241.476,258.114
2014-10-10 15:00,0.261897,308.14,300.619,267.838,302.907,298.334,265.532,0.109341,0.199823,242.099,259.304
2014-10-10 16:00,0.331189,306.991,284.528,258.802,286.033,280.554,258.515,0.202234,0.27345,242.266,257.682
2014-10-10 17:00,0.22495,306.845,300.619,267.642,303.381,299.36,266.681,0.114051,0.189024,242.211,259.638
2014-10-10 18:00,0.288542,306.475,294.546,264.441,296.935,292.006,262.965,0.202233,0.268644,241.704,257.246
2014-10-10 19:00,0.430448,302.764,281.029,256.434,281.655,278.458,257.406,0.38086,0.419353,241.76,255.275
2014-10-10 20:00,1.00121,300.225,268.916,250.177,271.625,268.505,253.625,0.89994,1.08769,243.093,254.999
2014-10-10 21:00,0.615919,295.368,291.279,262.576,294.021,291.329,263.436,0.824694,0.939941,243.147,258.114
2014-10-10 22:00,-0.00720029,290.429,289.486,261.412,292.079,289.689,263.318,-0.0,-0.0,243.899,258.028
2014-10-10 23:00,-0.0475914,290.301,289.486,261.731,292.209,290.238,264.255,-0.0604433,-0.0360347,244.426,259.051
2014-10-11 00:00,-0.0,289.381,289.379,261.305,291.948,290.375,264.022,-0.0,-0.0,244.739,259.387
2014-10-11 01:00,-0.0,288.841,289.165,261.305,291.817,290.648,264.721,-0.0,-0.0,244.739,260.052
2014-10-11 02:00,-0.00136058,288.012,288.52,260.876,291.292,289.826,264.605,-0.0,-0.0,244.426,260.052
2014-10-11 03:00,-0.00129365,287.729,288.195,260.876,290.764,289.551,263.436,-0.0,-0.0,244.269,259.97
2014-10-11 04:00,-0.0,286.864,287.432,260.553,290.234,289.137,263.905,-0.0,0.00133468,244.426,259.97
2014-10-11 05:00,-0.0,282.408,282.799,257.798,285.201,283.194,260.581,-0.0,-0.0,243.953,258.628
2014-10-11 06:00,-0.0,286.121,286.992,260.119,289.568,288.722,264.255,-0.0,0.00177897,243.633,259.721
2014-10-11 07:00,0.00245059,285.357,285.882,259.354,288.358,287.609,263.2,-0.0,-0.0,243.472,259.22
2014-10-11 08:00,-0.00456874,282.408,282.214,257.459,285.061,282.904,260.098,-0.0,0.00461241,242.82,258.2
2014-10-11 09:00,-0.233746,269.576,268.487,249.797,271.303,269.657,253.625,-0.725678,-0.707941,241.93,256.539
2014-10-11 10:00,0.530542,290.171,278.35,255.043,279.76,276.631,256.785,0.427613,0.499563,242.378,256.982
2014-10-11 12:00,0.549433,300.947,273.997,252.656,276.62,273.517,255.28,0.427808,0.536849,243.418,256.36
2014-10-11 13:00,0.547026,301.302,268.773,250.051,271.303,269.165,254.009,0.460753,0.549379,243.793,255.911
2014-10-11 14:00,0.310595,305.416,291.174,262.786,292.73,287.188,260.461,0.158216,0.252381,243.74,257.769
2014-10-11 15:00,0.267452,307.928,298.929,267.052,301.11,295.996,264.138,0.119346,0.210412,243.579,258.114
2014-10-11 16:00,0.24217,308.421,301.911,269.0,304.91,300.506,266.566,0.0947162,0.187397,242.544,258.372
2014-10-11 17:00,0.24481,307.427,299.59,267.446,302.311,297.818,265.647,0.117307,0.202338,241.93,257.942
2014-10-11 18:00,0.366574,295.042,278.474,254.926,277.828,276.631,257.034,0.387633,0.407248,242.211,254.999
2014-10-11 19:00,0.244955,296.531,284.185,258.469,284.781,282.904,259.977,0.265622,0.26899,242.655,255.821
2014-10-11 20:00,0.962502,291.563,260.036,245.177,263.745,262.888,250.236,0.998772,1.16897,242.099,253.5
2014-10-11 21:00,0.382912,293.93,291.902,262.786,294.661,292.679,264.837,0.55236,0.558383,242.6,258.628
2014-10-11 22:00,-0.00723993,290.558,290.651,262.155,293.635,292.141,264.372,-0.0,-0.0,242.378,258.967
2014-10-11 23:00,-0.0477163,289.779,289.486,261.305,292.209,290.648,264.372,-0.0732274,-0.0391401,242.929,258.372
2014-10-12 00:00,-0.00393764,289.113,289.058,261.091,291.817,290.511,264.372,-0.001667,-0.00198764,243.039,258.372
2014-10-12 01:00,-0.0,287.444,287.869,260.228,290.367,288.999,263.787,-0.0,-0.0,243.31,258.372
2014-10-12 02:00,-0.00136334,286.569,286.661,259.574,288.897,288.167,263.553,-0.0,-0.0,243.418,258.286
2014-10-12 03:00,-0.00129654,287.3,287.541,260.228,290.234,289.137,263.787,-0.0,-0.0,243.039,258.713
2014-10-12 04:00,-0.0,286.717,287.212,260.119,290.101,289.137,263.67,-0.0,-0.0,242.875,258.798
2014-10-12 05:00,-0.0,285.97,286.55,260.011,289.434,288.445,263.67,-0.0,-0.0,242.322,258.713
2014-10-12 06:00,-0.0,285.665,286.328,259.793,289.032,288.306,264.022,-0.0,-0.0,242.155,258.882
2014-10-12 07:00,-0.00246522,285.202,285.994,259.354,288.763,287.748,263.318,-0.0,-0.0,242.266,258.713
2014-10-12 08:00,-0.00462101,284.57,285.546,259.024,287.951,287.188,263.2,-0.0,-0.0,241.817,258.543
2014-10-12 09:00,-0.385913,284.57,285.208,258.913,287.679,287.048,263.318,-0.735192,-0.974006,241.533,258.457
2014-10-12 10:00,0.509001,289.381,288.087,260.769,290.764,289.551,264.138,0.277357,0.462989,242.099,258.628
2014-10-12 12:00,0.434747,303.51,297.975,266.358,300.99,298.076,266.222,0.178834,0.346502,242.211,258.543
2014-10-12 13:00,0.352332,306.991,300.99,268.033,304.442,300.759,267.137,0.141942,0.276815,242.765,258.713
2014-10-12 14:00,0.29986,309.044,302.912,269.67,306.421,302.769,267.478,0.117345,0.228953,243.256,259.304
2014-10-12 15:00,0.26338,310.056,303.813,270.145,307.112,303.391,268.384,0.101828,0.200334,242.544,259.304
2014-10-12 16:00,0.239352,309.52,303.274,269.86,306.651,302.519,267.932,0.10081,0.185877,241.704,258.967
2014-10-12 17:00,0.325068,306.4,287.651,260.445,290.632,285.493,259.249,0.230879,0.305122,241.361,257.07
2014-10-12 18:00,0.669786,296.84,259.039,244.765,262.329,262.537,251.028,0.722757,0.823047,240.193,252.828
2014-10-12 19:00,0.84736,311.357,264.635,247.991,266.338,263.237,250.236,0.710193,0.848964,240.312,253.117
2014-10-12 20:00,0.923933,308.561,278.845,255.858,280.201,274.929,255.027,0.785348,0.932765,240.193,254.162
2014-10-12 21:00,1.57222,296.427,281.267,258.022,283.23,278.76,257.9,1.12914,1.58725,241.419,255.73
2014-10-12 22:00,-0.0,290.813,290.123,262.681,292.989,291.329,264.837,-0.0,-0.0,242.322,258.372
2014-10-12 23:00,-0.0448571,289.247,287.978,261.198,290.764,288.584,262.965,-0.0708969,-0.0332097,241.986,258.286
2014-10-13 00:00,-0.00197306,289.113,289.165,262.049,291.948,290.648,264.138,-0.00167059,-0.00199193,241.76,258.543
2014-10-13 01:00,-0.0,288.291,288.52,261.412,291.16,289.964,264.255,-0.0,-0.0,241.361,258.286
2014-10-13 02:00,-0.00136617,286.864,286.992,260.876,289.568,288.167,262.965,-0.0,-0.0,241.419,257.855
2014-10-13 03:00,-0.0,285.665,285.882,260.337,288.087,286.485,262.728,-0.0,-0.0,242.322,258.286
2014-10-13 04:00,-0.0,286.421,287.102,261.198,289.835,288.861,263.787,-0.0,-0.0,242.489,258.798
2014-10-13 05:00,0.00146626,285.512,286.661,260.984,289.434,288.584,264.138,-0.0,-0.00148027,242.489,258.713
2014-10-13 06:00,-0.0,285.512,286.661,260.769,289.434,288.722,263.553,-0.0,-0.0,242.322,259.135
2014-10-13 07:00,0.00247992,284.73,286.105,260.876,289.032,288.167,264.022,-0.0,-0.0,242.655,259.22
2014-10-13 08:00,-0.0,275.932,275.823,254.454,278.278,276.477,257.282,-0.0,-0.0,242.266,257.421
2014-10-13 09:00,-0.756162,285.202,286.217,260.337,288.763,288.167,263.787,-1.06707,-1.27232,241.647,259.22
2014-10-13 10:00,0.503031,290.041,288.628,261.731,291.555,290.238,264.255,0.282538,0.442474,241.246,259.051
2014-10-13 12:00,0.429673,303.51,297.687,267.151,300.506,297.43,265.762,0.178189,0.33286,241.59,259.554
2014-10-13 13:00,0.348575,306.697,300.153,268.711,303.144,299.488,266.909,0.14277,0.267507,241.476,259.554
2014-10-13 14:00,0.29296,308.838,301.911,269.86,304.676,300.379,266.681,0.118169,0.223407,240.489,259.304
2014-10-13 15:00,0.259334,309.989,302.912,270.617,306.074,302.018,267.251,0.10369,0.197572,240.607,259.135
2014-10-13 16:00,0.227972,309.453,302.822,270.711,305.958,302.018,268.045,0.0975495,0.180656,239.954,259.471
2014-10-13 17:00,0.237436,308.281,301.911,270.334,305.027,301.138,267.478,0.115852,0.195015,239.104,259.135
2014-10-13 18:00,0.229872,306.4,301.175,269.765,304.207,300.125,267.478,0.144623,0.212731,238.733,258.967
2014-10-13 19:00,0.252719,303.592,298.739,268.227,301.832,298.463,265.993,0.208537,0.259459,238.483,258.713
2014-10-13 20:00,0.295169,300.769,297.107,267.348,300.141,297.17,266.337,0.426691,0.417914,240.134,259.721
2014-10-13 21:00,0.972375,295.902,288.736,262.366,290.764,287.469,259.735,1.12911,1.36031,238.357,257.07
2014-10-13 22:00,-0.0146523,290.813,288.628,262.155,290.764,288.722,262.017,-0.0,-0.0,238.608,258.028
2014-10-13 23:00,-0.0389882,286.864,279.823,257.346,280.639,277.243,253.753,-0.0711012,-0.0333054,235.038,253.021
2014-10-14 00:00,-0.00197749,286.271,281.386,258.134,282.231,279.361,255.658,-0.00167434,-0.00199639,235.731,253.974
2014-10-14 01:00,-0.0,287.01,283.611,259.354,285.34,282.904,258.147,-0.0,-0.0,237.977,256.091
2014-10-14 02:00,-0.0,287.155,285.208,260.011,287.134,285.065,260.461,-0.0,-0.0,239.104,258.028
2014-10-14 03:00,0.00130249,279.473,270.885,250.931,270.981,267.673,247.279,-0.0,-0.0,235.317,249.617
2014-10-14 04:00,-0.0,275.251,264.175,247.2,263.569,260.045,242.956,-0.0,-0.0,232.405,245.23
2014-10-14 05:00,-0.0,276.155,266.293,248.512,266.508,263.237,243.949,-0.0,-0.0,234.113,247.808
2014-10-14 06:00,-0.0,282.923,282.331,258.246,284.361,282.758,259.735,-0.0,-0.0,242.489,259.554
2014-10-14 07:00,-0.0,285.818,286.992,260.984,289.568,288.722,263.67,-0.0,-0.0,242.929,260.789
2014-10-14 08:00,-0.0,285.97,286.772,260.661,289.3,288.445,263.67,-0.0,-0.0,243.31,260.299
2014-10-14 09:00,-1.2623,285.512,286.217,260.553,288.493,287.609,263.083,-1.8322,-2.00257,242.765,260.381
2014-10-14 10:00,0.507167,290.558,289.165,262.366,291.686,290.375,264.022,0.275161,0.407624,242.765,260.708
2014-10-14 12:00,0.424677,303.428,297.3,266.954,299.776,296.519,265.647,0.177567,0.315818,244.635,261.194
2014-10-14 13:00,0.34769,307.355,300.246,268.711,302.55,298.591,265.993,0.144801,0.258267,245.099,261.355
2014-10-14 14:00,0.293635,309.588,301.911,270.145,304.442,299.998,266.681,0.122185,0.219164,245.405,261.515
2014-10-14 15:00,0.258911,310.188,302.185,270.239,304.324,299.87,266.108,0.112655,0.19483,245.099,261.113
2014-10-14 16:00,0.246007,305.106,294.746,265.254,295.803,291.871,263.553,0.158552,0.222411,244.531,260.463
2014-10-14 17:00,0.257217,305.261,294.145,265.153,296.559,291.871,263.2,0.176951,0.243446,244.687,259.638
2014-10-14 18:00,0.280572,305.95,295.045,265.758,297.931,292.814,263.553,0.224062,0.284864,244.583,259.387
2014-10-14 19:00,0.474668,308.976,290.44,263.825,291.817,287.469,261.301,0.405521,0.470571,244.269,258.114
2014-10-14 20:00,0.287196,300.408,293.438,265.758,294.916,291.057,262.728,0.480258,0.453034,242.489,257.855
2014-10-14 21:00,1.22306,296.84,283.841,260.011,283.797,278.76,253.497,0.965746,1.27637,239.714,253.974
2014-10-14 22:00,-0.00737295,281.705,272.931,253.86,271.945,266.16,245.211,-0.0,-0.0,237.137,250.442
2014-10-14 23:00,-0.0330894,285.818,277.098,256.549,277.226,271.765,249.037,-0.0738623,-0.0242951,237.592,251.452
2014-10-15 00:00,-0.0019821,282.923,271.162,253.381,269.515,263.412,241.808,-0.00167824,-0.00200105,233.308,246.258
2014-10-15 01:00,-0.0,280.613,269.626,252.29,267.354,261.299,241.229,-0.0,-0.0,233.234,245.918
2014-10-15 02:00,-0.0,282.408,279.945,257.91,281.076,278.004,256.035,-0.0,-0.0,242.378,257.246
2014-10-15 03:00,-0.0,275.48,275.046,255.16,277.075,275.551,256.66,-0.0,-0.0,241.647,257.508
2014-10-15 04:00,-0.0,281.526,280.549,257.798,282.803,280.554,258.882,-0.0,-0.0,240.43,257.333
2014-10-15 05:00,-0.0,285.818,285.882,261.198,288.763,286.907,263.083,-0.0,-0.0,238.919,258.628
2014-10-15 06:00,-0.0,285.97,284.528,260.445,286.172,283.917,259.735,-0.0,-0.0,235.317,256.36
2014-10-15 07:00,-0.0,285.97,285.658,260.661,288.358,286.767,261.66,-0.0,-0.0,234.329,256.271
2014-10-15 08:00,-0.0,284.57,283.264,259.134,285.479,283.629,259.37,-0.0,-0.0,232.784,253.021
2014-10-15 09:00,-2.50111,287.3,287.869,261.944,290.764,289.689,264.022,-3.44123,-3.4719,236.139,256.539
2014-10-15 10:00,0.506465,291.686,290.44,263.825,293.506,292.141,264.721,0.272138,0.412978,241.76,258.882
2014-10-15 12:00,0.424982,304.239,297.975,268.033,300.99,297.947,266.108,0.176966,0.31475,240.312,257.158
2014-10-15 13:00,0.349657,307.999,301.083,270.145,304.089,299.998,266.681,0.142058,0.261903,238.671,256.001
2014-10-15 14:00,0.295577,309.989,303.003,271.459,305.958,301.767,267.478,0.11983,0.223802,240.134,258.286
2014-10-15 15:00,0.260896,310.778,303.723,272.015,306.767,302.144,267.251,0.109437,0.200563,240.782,259.304
2014-10-15 16:00,0.281113,308.838,298.167,267.935,300.141,295.339,264.372,0.162473,0.243081,243.31,260.217
2014-10-15 17:00,0.280967,307.427,295.541,266.756,296.684,291.871,262.492,0.198245,0.25934,244.997,259.387
2014-10-15 18:00,0.243577,306.4,298.453,268.711,300.748,295.996,265.762,0.1968,0.242691,245.507,259.804
2014-10-15 19:00,0.226266,303.346,297.975,268.033,300.02,296.127,265.532,0.287368,0.293078,245.91,259.887
2014-10-15 20:00,0.311468,301.302,295.837,266.756,298.426,294.812,264.721,0.557752,0.513234,246.059,259.721
2014-10-15 21:00,1.04652,294.823,287.322,261.198,289.968,286.767,260.461,0.88609,1.20746,246.258,260.052
2014-10-15 22:00,-0.0,270.713,268.343,249.797,271.464,270.148,252.982,-0.0,-0.0,244.842,254.722
2014-10-15 23:00,-0.0241407,292.771,291.591,263.928,294.277,291.871,264.721,-0.0562096,-0.0274179,246.307,260.871
2014-10-16 00:00,-0.0019869,291.065,290.44,263.411,293.119,290.784,264.372,-0.00168231,-0.00200589,246.896,261.435
2014-10-16 01:00,-0.0,290.685,290.229,262.995,292.86,291.057,264.372,-0.0,-0.0,247.234,261.355
2014-10-16 02:00,-0.0,289.514,289.379,262.786,292.079,290.238,264.022,-0.0,-0.0,247.234,260.871
2014-10-16 03:00,-0.0,263.255,265.846,248.9,268.69,268.007,253.24,-0.0,-0.0,247.041,257.333
2014-10-16 04:00,-0.0,288.977,289.058,262.366,291.686,289.826,263.67,-0.0,-0.0,247.283,260.627
2014-10-16 05:00,-0.0,286.864,287.212,261.412,289.701,288.027,263.553,-0.0,-0.0,245.809,260.217
2014-10-16 06:00,-0.0,287.587,287.322,261.198,289.568,288.306,262.847,-0.0,-0.0,243.793,260.463
2014-10-16 07:00,-0.0,287.155,286.882,260.984,289.166,287.748,262.847,-0.0,-0.0,243.202,259.97
2014-10-16 08:00,-0.00483548,287.587,288.303,261.519,291.029,289.826,264.255,-0.0,-0.0,243.256,260.545
2014-10-16 09:00,-7.81441,287.444,288.087,261.625,290.897,289.826,264.488,-11.3425,-12.3972,242.655,260.381
2014-10-16 10:00,0.457723,291.19,289.593,262.366,292.209,290.921,264.138,0.277406,0.379407,242.378,260.135
2014-10-16 11:00,0.487231,297.947,293.235,264.747,295.93,293.483,264.953,0.21988,0.36205,241.476,259.887
2014-10-16 12:00,0.418384,303.836,297.59,267.249,300.263,297.04,266.222,0.179327,0.30671,241.533,260.381
2014-10-16 13:00,0.346014,307.283,299.872,268.904,302.43,298.334,266.452,0.147676,0.254182,241.419,260.871
2014-10-16 14:00,0.292531,309.044,301.175,269.479,303.854,299.232,266.566,0.12596,0.217078,240.899,260.789
2014-10-16 15:00,0.260498,309.923,302.094,270.711,304.793,300.379,267.478,0.117364,0.197844,240.841,261.113
2014-10-16 16:00,0.278295,308.838,298.549,268.033,300.506,296.127,265.532,0.163289,0.230433,240.899,260.545
2014-10-16 17:00,0.255222,306.771,296.718,267.052,298.918,294.812,265.069,0.173103,0.226634,241.76,260.545
2014-10-16 18:00,0.255969,305.646,297.687,267.544,300.506,296.65,265.762,0.211344,0.256811,242.489,261.113
2014-10-16 19:00,0.304732,299.579,290.229,263.411,292.209,289.689,263.436,0.331993,0.352824,242.211,259.97
2014-10-16 20:00,0.335585,300.317,294.945,265.758,297.434,294.415,265.416,0.556187,0.519002,241.817,259.887
2014-10-16 21:00,0.094068,295.042,293.336,264.95,296.182,293.75,265.416,0.386858,0.325602,242.099,259.721
2014-10-16 22:00,-0.0,292.771,291.279,263.618,294.277,291.464,264.488,-0.0,-0.0,242.655,259.051
2014-10-16 23:00,-0.0242198,292.294,290.86,263.515,293.764,291.6,264.605,-0.0512671,-0.0213949,242.6,258.967
2014-10-17 00:00,-0.00199189,291.315,290.756,263.515,293.892,292.141,264.837,-0.00168653,-0.0,243.31,259.554
2014-10-17 01:00,-0.0,290.813,290.44,263.203,293.377,292.006,265.301,-0.0,-0.0,242.71,259.135
2014-10-17 02:00,-0.0,290.171,290.123,263.307,293.248,292.006,265.416,-0.0,-0.0,242.042,259.22
2014-10-17 03:00,0.00131188,288.977,288.628,261.944,291.555,290.101,263.318,-0.0,-0.0,239.894,257.682
2014-10-17 04:00,-0.00134325,288.43,288.195,261.731,290.764,289.137,262.965,-0.0,-0.0,239.714,257.595
2014-10-17 05:00,-0.00148514,285.202,281.624,257.685,282.517,0.0,257.282,-0.0,-0.0,234.686,252.731
2014-10-17 06:00,-0.0,280.613,275.046,253.381,274.933,272.724,252.464,-0.0,-0.0,231.552,248.562
2014-10-17 07:00,-0.0,287.3,287.432,261.091,289.701,288.722,263.2,-0.0,-0.0,238.733,257.942
2014-10-17 08:00,-0.0,287.01,287.322,261.091,290.101,288.861,263.67,-0.0,-0.0,239.043,258.457
2014-10-17 09:00,7.34521,287.155,287.541,261.198,290.5,289.137,263.318,8.08494,8.15697,239.104,258.543
2014-10-17 10:00,0.486407,291.44,289.805,262.576,292.86,291.193,264.372,0.286673,0.375514,239.104,258.713
2014-10-17 12:00,0.41533,302.932,297.397,266.855,300.748,297.818,266.566,0.180226,0.307487,238.483,259.051
2014-10-17 13:00,0.342416,307.21,300.246,268.711,303.499,299.998,267.137,0.149714,0.255017,238.357,259.135
2014-10-17 14:00,0.293257,308.976,301.452,269.384,304.559,300.506,267.137,0.129961,0.217951,237.657,259.051
2014-10-17 15:00,0.287556,307.283,295.639,266.059,297.931,293.75,264.138,0.177806,0.243326,237.398,258.2
2014-10-17 16:00,0.238925,307.857,299.778,268.421,301.832,297.17,265.993,0.139337,0.196905,238.231,259.22
2014-10-17 17:00,0.234886,307.427,299.872,268.807,302.669,298.848,266.452,0.157068,0.206143,237.721,258.628
2014-10-17 18:00,0.238163,306.251,299.684,268.615,302.55,298.848,266.795,0.211062,0.248454,237.592,258.457
2014-10-17 19:00,0.263796,303.51,296.327,266.557,299.287,295.865,265.532,0.34404,0.345783,238.294,258.457
2014-10-17 20:00,0.320383,300.858,296.621,266.657,299.531,296.65,266.452,0.596789,0.546264,238.608,259.051
2014-10-17 21:00,0.637611,296.943,293.641,264.849,296.559,294.415,265.185,0.866032,0.99238,238.795,259.051
2014-10-17 22:00,-0.0,293.124,291.902,263.721,294.788,292.41,264.372,-0.0,-0.0,239.954,258.882
2014-10-17 23:00,-0.0212646,292.294,291.487,263.721,294.405,292.679,264.953,-0.0462978,-0.018401,239.954,259.051
2014-10-18 00:00,-0.00199707,289.381,286.992,260.984,288.493,285.635,259.735,-0.00169091,-0.00201616,235.525,254.443
2014-10-18 01:00,-0.00314822,289.779,289.165,262.261,291.817,290.101,263.67,-0.0,-0.0,237.849,256.45
2014-10-18 02:00,-0.00276303,280.613,277.852,255.626,279.613,276.477,256.41,-0.0,-0.0,232.097,252.634
2014-10-18 03:00,-0.0,279.859,271.984,251.799,271.785,266.16,246.594,-0.0,-0.0,229.263,247.261
2014-10-18 04:00,-0.0,276.155,264.482,246.934,263.569,260.584,242.671,-0.0,-0.0,224.959,238.986
2014-10-18 05:00,-0.00148995,285.512,281.624,257.685,283.23,280.108,256.035,-0.0,-0.0,230.184,249.513
2014-10-18 06:00,-0.0,285.357,281.978,258.358,283.656,280.406,256.035,-0.0,-0.0,230.916,250.544
2014-10-18 07:00,-0.0,266.131,265.092,248.252,267.016,265.82,250.765,-0.0,-0.0,231.709,250.95
2014-10-18 08:00,-0.00494527,252.585,244.815,236.466,243.438,241.698,235.382,-0.0,-0.0,226.216,234.236
2014-10-18 09:00,4.47982,274.314,264.635,247.465,263.92,260.764,245.489,4.03013,5.37065,229.433,244.53
2014-10-18 10:00,0.38244,286.421,280.429,256.205,281.51,279.061,256.41,0.323811,0.381329,232.328,251.85
2014-10-18 11:00,0.453124,297.649,292.108,263.411,295.17,292.545,264.022,0.223974,0.321455,234.185,256.181
2014-10-18 12:00,0.400261,302.426,295.738,265.456,299.164,295.996,265.416,0.192823,0.283906,234.897,256.894
2014-10-18 14:00,0.289016,307.643,300.153,267.838,303.854,300.125,266.909,0.14345,0.217576,234.686,257.508
2014-10-18 15:00,0.254976,308.907,301.911,268.904,305.842,302.394,267.932,0.132156,0.199676,235.108,258.2
2014-10-18 16:00,0.237405,308.351,301.636,268.615,305.958,302.269,268.158,0.1371,0.196656,235.038,258.372
2014-10-18 17:00,0.229268,306.918,299.966,267.838,303.972,300.252,266.795,0.177192,0.219348,235.525,257.595
2014-10-18 18:00,0.226748,304.159,296.815,266.259,300.141,295.996,264.721,0.252402,0.267335,236.408,256.894
2014-10-18 19:00,0.284582,301.125,291.174,262.995,293.377,288.722,259.614,0.397397,0.390217,235.247,254.162
2014-10-18 20:00,0.408178,300.317,291.279,263.099,293.892,289.826,260.942,0.730276,0.698745,238.041,256.181
2014-10-18 21:00,0.105018,294.491,292.417,264.441,295.424,292.948,265.301,0.300099,0.265054,240.134,258.457
2014-10-18 22:00,-0.0,291.931,290.44,262.89,293.506,290.921,264.138,-0.00642397,-0.0,240.074,257.769
2014-10-18 23:00,-0.0182915,288.977,284.414,259.574,285.201,281.293,256.535,-0.0361372,-0.0153886,235.799,253.213
2014-10-19 00:00,-0.00200244,268.382,254.69,243.65,248.733,242.805,231.094,-0.00169546,-0.00202158,223.013,236.033
2014-10-19 01:00,-0.00157792,264.009,241.451,236.943,234.371,226.974,218.982,-0.0,-0.001593,216.15,225.21
2014-10-19 02:00,-0.00138482,266.466,247.769,240.021,242.747,235.435,225.185,-0.0,-0.0,218.264,229.664
2014-10-19 03:00,-0.00131842,266.466,246.523,238.963,240.87,232.474,222.692,-0.00111631,-0.0,217.622,229.314
2014-10-19 04:00,-0.0,265.095,244.598,237.728,239.911,232.725,222.511,-0.0,-0.0,218.009,228.603
2014-10-19 05:00,-0.0,270.434,253.226,243.084,249.579,240.123,227.431,-0.0,-0.0,219.624,233.928
2014-10-19 06:00,-0.0,272.061,258.195,244.765,255.633,249.55,235.227,-0.0,-0.0,222.799,237.748
2014-10-19 07:00,-0.0,279.859,268.487,250.555,266.678,259.684,241.084,-0.0,-0.0,224.959,242.602
2014-10-19 08:00,-0.0,278.075,266.59,249.924,264.444,258.224,239.618,-0.0,-0.0,223.746,240.706
2014-10-19 09:00,3.13961,280.982,270.329,251.922,268.855,262.361,242.384,2.36293,3.16962,225.352,243.577
2014-10-19 10:00,0.495698,286.569,271.711,252.29,269.842,262.712,242.097,0.435544,0.500436,224.359,243.214
2014-10-19 12:00,0.402525,297.349,280.429,257.006,279.318,271.765,247.142,0.244689,0.319541,226.027,245.575
2014-10-19 13:00,0.338142,304.078,292.725,264.031,293.892,287.888,258.638,0.173912,0.251093,230.674,252.731
2014-10-19 14:00,0.289781,306.918,296.229,265.658,298.302,292.545,261.779,0.149531,0.220983,231.076,253.595
2014-10-19 15:00,0.280802,306.4,292.827,264.031,293.892,287.469,258.392,0.168242,0.22703,230.674,252.731
2014-10-19 16:00,0.260218,301.826,287.102,260.553,286.31,280.554,254.773,0.209001,0.252885,229.517,250.032
2014-10-19 17:00,0.304881,293.93,269.485,250.681,270.169,264.967,244.932,0.342687,0.395162,228.835,246.483
2014-10-19 18:00,0.25812,300.769,286.217,259.683,288.222,282.758,254.392,0.26816,0.295759,230.835,249.198
2014-10-19 19:00,0.265011,303.346,296.523,266.259,299.898,295.602,264.953,0.359014,0.359579,234.329,254.068
2014-10-19 20:00,0.346797,300.679,293.336,264.645,295.803,292.006,262.728,0.623219,0.589474,235.178,254.907
2014-10-19 21:00,0.791132,297.146,287.651,261.198,289.701,285.635,258.76,0.658869,0.837975,233.234,252.731
2014-10-19 22:00,-0.0,286.569,278.968,255.974,279.76,275.861,252.853,-0.0,-0.0,230.101,247.808
2014-10-19 23:00,-0.0183589,278.075,262.774,246.533,261.25,256.18,239.765,-0.0233166,-0.0216234,224.86,238.714
2014-10-20 00:00,-0.002008,268.986,255.941,243.084,254.263,249.955,237.373,-0.0,-0.00202719,223.849,236.469
2014-10-20 01:00,-0.00158184,273.586,264.788,247.332,265.138,260.584,244.512,-0.0,-0.0,226.122,242.478
2014-10-20 02:00,-0.00138819,250.598,247.973,239.267,248.733,246.035,237.525,-0.0,-0.0,226.311,240.446
2014-10-20 03:00,-0.0,240.898,239.317,234.183,239.426,238.515,232.707,-0.0,-0.0,226.216,234.694
2014-10-20 04:00,0.00135447,246.775,246.523,238.503,247.662,244.973,237.525,-0.0,-0.0,227.51,239.922
2014-10-20 05:00,-0.0,237.078,230.559,230.207,228.871,226.151,221.598,-0.0,-0.0,220.337,226.948
2014-10-20 06:00,-0.0,235.601,231.997,230.565,231.131,228.59,225.535,-0.0,-0.0,221.371,228.423
2014-10-20 07:00,-0.0,246.775,243.719,235.985,243.209,241.027,233.819,-0.0,-0.0,224.258,235.74
2014-10-20 08:00,-0.0,244.063,238.09,233.175,237.2,234.461,228.782,-0.0,0.00510452,222.476,231.198
2014-10-20 09:00,1.01976,247.601,240.277,234.183,239.911,237.581,231.257,1.61894,1.80165,223.329,232.988
2014-10-20 10:00,0.565272,261.251,243.719,235.823,244.349,242.143,235.537,0.686537,0.781171,225.643,236.469
2014-10-20 11:00,0.660207,275.707,237.841,233.005,238.199,236.635,232.066,0.778896,0.877256,224.56,232.508
2014-10-20 13:00,0.628888,292.534,248.38,238.657,249.579,248.327,239.322,0.626932,0.706696,227.329,239.523
2014-10-20 14:00,0.594784,292.889,249.781,239.419,252.059,251.354,242.956,0.711772,0.787255,228.662,242.478
2014-10-20 15:00,0.547789,291.563,249.185,239.57,251.652,251.552,242.814,0.689179,0.758161,230.101,242.725
2014-10-20 16:00,0.478523,280.799,246.523,237.728,247.229,246.035,238.727,0.683844,0.747942,228.048,239.121
2014-10-20 17:00,0.448142,268.073,236.06,232.146,235.93,234.216,229.615,0.710467,0.782684,224.46,231.364
2014-10-20 18:00,0.453886,260.827,237.591,233.175,237.451,237.109,232.707,0.737812,0.820655,226.027,232.829
2014-10-20 19:00,0.73227,282.059,250.371,240.469,251.242,250.757,242.527,0.838628,0.942249,229.601,241.093
2014-10-20 20:00,1.3018,298.436,260.365,245.723,263.04,262.888,250.501,1.16197,1.33917,230.835,247.151
2014-10-20 21:00,1.63972,280.982,261.34,246.399,264.444,264.279,251.553,1.14973,1.48727,232.251,248.775
2014-10-20 22:00,-0.0,262.475,261.822,246.801,264.792,263.933,251.291,-0.0,-0.0,231.865,248.987
2014-10-20 23:00,-0.0153575,260.395,260.692,245.859,263.92,263.759,251.422,-0.0208051,-0.0155043,232.481,248.987
2014-10-21 00:00,-0.00201375,264.009,262.616,246.934,265.138,264.106,251.683,-0.0,-0.002033,232.175,249.721
2014-10-21 01:00,-0.00158587,286.271,284.755,259.024,287.543,285.065,260.34,-0.0,-0.0,231.787,250.238
2014-10-21 02:00,0.00139164,285.97,284.3,259.134,287.407,284.636,260.34,-0.0,-0.0,231.236,249.198
2014-10-21 03:00,0.00132518,285.97,284.528,259.244,287.679,285.208,260.701,-0.0,-0.0,232.557,249.721
2014-10-21 04:00,-0.0,283.261,281.505,257.459,283.938,280.257,258.27,-0.0,-0.0,231.394,249.408
2014-10-21 05:00,-0.0,256.589,255.941,243.65,258.865,258.408,247.415,-0.0,-0.0,232.405,246.818
2014-10-21 06:00,-0.0,251.282,253.963,242.225,256.98,256.928,246.594,-0.0,-0.0,231.787,246.371
2014-10-21 07:00,-0.0,259.954,257.511,244.488,259.974,258.04,247.415,-0.0,-0.0,231.943,246.818
2014-10-21 08:00,0.0051119,270.713,266.59,249.029,268.855,265.309,250.236,-0.0,-0.0,231.156,248.348
2014-10-21 09:00,0.807633,285.357,283.495,258.246,286.585,283.773,259.735,1.19669,1.22303,230.018,249.617
2014-10-21 10:00,0.766923,291.563,260.854,245.859,261.791,259.321,248.499,0.583251,0.709347,230.593,245.575
2014-10-21 11:00,0.471289,293.472,280.669,257.006,281.943,276.015,252.982,0.268073,0.385516,230.511,247.371
2014-10-21 12:00,0.43622,300.042,273.199,253.261,274.0,266.498,248.499,0.272303,0.366128,231.709,246.483
2014-10-21 13:00,0.334009,300.858,290.44,263.099,291.817,286.202,258.515,0.146116,0.251496,232.175,248.987
2014-10-21 14:00,0.280201,303.755,293.641,264.747,295.424,289.964,260.822,0.119672,0.20903,232.557,250.135
2014-10-21 15:00,0.249217,304.398,293.539,264.645,294.661,288.584,259.735,0.111535,0.186902,232.097,249.303
2014-10-21 16:00,0.22928,305.261,295.442,265.758,297.06,291.193,261.898,0.107851,0.17636,232.481,249.928
2014-10-21 17:00,0.244401,304.478,293.438,264.543,295.297,290.101,261.54,0.151827,0.202486,233.308,250.442
2014-10-21 18:00,0.331678,305.339,290.965,263.203,292.989,287.048,260.581,0.252748,0.304553,234.401,250.95
2014-10-21 19:00,0.551403,309.856,285.321,260.119,287.27,281.146,258.147,0.472238,0.543877,234.968,251.352
2014-10-21 20:00,0.288383,298.436,293.031,264.645,295.55,291.464,262.847,0.476436,0.44026,235.317,252.342
2014-10-21 21:00,0.518657,295.476,291.694,263.721,294.533,291.329,263.436,0.792605,0.830121,235.317,253.021
2014-10-21 22:00,-0.00777935,292.174,290.545,262.786,293.377,290.784,263.436,-0.0,-0.0,235.317,253.69
2014-10-21 23:00,-0.0154183,290.939,289.272,262.471,292.6,290.238,263.436,-0.0182766,-0.0155657,235.108,253.69
2014-10-22 00:00,-0.00403941,289.91,288.951,262.049,292.079,290.238,263.436,-0.0,-0.00203901,234.897,253.69
2014-10-22 01:00,-0.00159002,289.647,288.628,261.838,291.686,289.276,263.083,-0.0,-0.0,234.897,253.69
2014-10-22 02:00,-0.0,288.705,287.651,261.519,290.897,288.584,262.847,-0.0,-0.0,234.827,254.162
2014-10-22 03:00,-0.0,288.705,287.76,261.412,290.897,288.584,263.2,-0.0,-0.0,233.677,253.69
2014-10-22 04:00,-0.0,288.43,287.432,261.091,290.367,288.027,262.492,-0.0,-0.0,233.382,253.595
2014-10-22 05:00,-0.0,287.3,285.994,260.445,288.897,286.06,261.421,-0.0,-0.0,234.615,253.309
2014-10-22 06:00,-0.00184293,285.97,284.185,259.354,286.172,283.049,259.492,-0.0,-0.0,232.784,252.342
2014-10-22 07:00,-0.0,286.864,285.77,260.228,288.763,286.485,262.017,-0.0,-0.0,232.02,252.047
2014-10-22 08:00,0.00516769,286.569,285.77,260.228,288.493,286.343,261.421,-0.0,-0.0,233.53,252.244
2014-10-22 09:00,0.839382,286.271,285.658,259.683,288.358,286.485,261.182,0.994984,1.10163,233.823,252.925
2014-10-22 10:00,0.4872,290.685,287.432,260.876,289.968,287.469,262.373,0.258301,0.376937,233.603,253.117
2014-10-22 11:00,0.486204,297.349,290.86,262.995,292.73,288.999,262.255,0.205834,0.357204,233.01,252.925
2014-10-22 12:00,0.411196,301.214,292.929,264.031,294.533,290.101,262.492,0.167579,0.297996,233.01,252.731
2014-10-22 13:00,0.340329,304.636,294.945,265.456,296.433,291.6,262.965,0.136433,0.246818,233.456,253.213
2014-10-22 14:00,0.287219,306.4,296.523,266.557,297.683,292.141,263.436,0.115305,0.208725,233.823,253.213
2014-10-22 15:00,0.273802,306.475,294.846,265.456,296.182,291.329,263.318,0.129462,0.205819,233.677,253.213
2014-10-22 16:00,0.278706,304.557,291.798,263.721,292.989,288.722,262.136,0.177498,0.234883,233.677,253.117
2014-10-22 17:00,0.25474,302.171,290.965,263.411,292.34,288.306,261.66,0.18985,0.235744,234.401,253.309
2014-10-22 18:00,0.241337,301.913,292.108,263.928,293.764,289.137,262.728,0.190984,0.234089,235.178,253.5
2014-10-22 19:00,0.263611,301.478,293.539,265.355,295.17,290.375,262.965,0.262482,0.291679,236.808,254.536
2014-10-22 20:00,0.262922,297.848,292.108,264.236,293.377,289.137,262.61,0.492722,0.44947,237.333,254.722
2014-10-22 21:00,0.0624457,276.376,272.391,252.534,273.529,270.635,253.625,0.253789,0.214345,238.857,252.439
2014-10-22 22:00,-0.00785018,240.898,227.533,227.817,226.522,224.756,221.598,-0.0,-0.0,220.219,225.21
2014-10-22 23:00,-0.0154815,225.382,212.578,220.954,212.219,210.931,211.992,-0.0131082,-0.0125036,211.636,212.207
2014-10-23 00:00,-0.00202585,213.142,202.646,217.576,202.217,201.694,204.893,-0.00171528,-0.0,203.894,203.524
2014-10-23 01:00,0.00159427,213.142,209.237,220.517,208.131,206.895,209.638,-0.0,-0.0,206.905,208.711
2014-10-23 02:00,-0.0,218.393,213.031,221.814,212.219,210.576,212.619,-0.0,-0.0,211.135,212.8
2014-10-23 03:00,-0.0,222.276,220.006,224.507,218.824,217.922,216.859,-0.0,-0.0,215.873,217.418
2014-10-23 04:00,-0.00136601,218.393,213.031,221.814,212.609,211.635,211.781,-0.0,-0.0,211.47,212.505
2014-10-23 05:00,-0.0,204.719,209.237,220.077,208.131,207.651,208.982,-0.0,-0.0,207.697,208.711
2014-10-23 06:00,0.00185032,218.393,204.418,218.272,203.652,203.351,205.593,-0.0,-0.0,204.122,204.328
2014-10-23 07:00,0.00262806,222.276,209.237,219.409,208.131,207.651,208.982,-0.0,-0.0,208.274,208.027
2014-10-23 08:00,0.00522349,222.276,218.862,223.283,218.13,216.652,216.071,-0.0,-0.0,216.424,217.918
2014-10-23 09:00,0.937419,235.601,226.583,227.248,225.919,224.756,221.782,1.3432,1.67437,219.624,224.61
2014-10-23 10:00,0.44709,247.601,232.839,230.565,232.772,231.459,228.446,0.791514,0.911846,224.76,229.489
2014-10-23 11:00,0.0,0.0,0.0,0.0,0.0,0.0,0.0,0.0,0.0,0.0,0.0
2014-10-23 12:00,0.308053,279.278,260.201,245.04,259.791,256.742,244.09,0.282444,0.372854,231.473,243.093
2014-10-23 13:00,0.249589,278.883,263.556,246.667,261.791,258.591,244.512,0.207805,0.299571,230.835,241.348
2014-10-23 14:00,0.262092,294.043,282.096,257.798,282.087,277.396,254.519,0.138172,0.240883,231.943,247.699
2014-10-23 15:00,0.285318,274.787,254.328,242.513,253.069,250.357,239.913,0.307737,0.363344,230.101,239.523
2014-10-23 16:00,0.338927,292.174,276.971,255.393,278.873,277.853,258.638,0.333089,0.380049,233.677,253.405
2014-10-23 17:00,0.271686,295.26,282.682,258.913,284.22,281.588,259.37,0.221059,0.276959,234.756,253.785
2014-10-23 19:00,0.258925,262.475,250.954,240.32,250.207,250.357,242.384,0.408163,0.439918,228.835,237.748
2014-10-23 20:00,1.36273,301.478,258.195,244.07,259.606,255.992,242.814,1.18045,1.44278,233.456,246.258
2014-10-23 21:00,0.369823,291.563,287.541,261.838,289.568,286.202,261.54,0.480131,0.497812,236.071,253.785
2014-10-23 22:00,-0.0,288.705,286.439,260.984,288.222,285.065,260.461,-0.0,-0.0,234.615,253.021
2014-10-23 23:00,-0.0155471,265.095,265.092,249.029,268.358,267.171,252.982,-0.010531,-0.0156958,232.709,250.646
2014-10-24 00:00,-0.00203219,272.58,270.189,251.552,272.582,270.96,255.027,-0.0,-0.0,233.234,252.537
2014-10-24 01:00,-0.0,261.251,263.712,247.859,266.847,266.498,252.853,-0.0,-0.0,232.405,251.352
2014-10-24 02:00,-0.0,267.761,267.764,250.681,270.169,269.329,253.497,-0.0,-0.0,232.097,250.849
2014-10-24 03:00,-0.0,260.395,253.04,241.791,252.667,249.348,238.727,-0.0,-0.0,225.352,239.656
2014-10-24 04:00,0.00136992,276.811,269.626,250.681,270.006,265.138,247.687,-0.0,-0.0,228.488,245.345
2014-10-24 05:00,0.00151926,282.059,278.226,255.626,279.613,275.861,254.773,-0.0,-0.0,229.433,248.455
2014-10-24 06:00,0.0018577,285.818,283.956,258.913,286.033,283.049,259.492,-0.0,-0.0,232.784,251.751
2014-10-24 07:00,0.00264268,272.58,272.12,252.534,275.087,273.042,255.027,-0.0,-0.0,231.394,250.849
2014-10-24 08:00,-0.0,266.797,269.485,250.555,272.741,272.405,255.532,-0.0,-0.0,231.473,251.352
2014-10-24 09:00,1.90267,271.261,268.343,249.669,271.142,269.984,253.881,1.61099,1.98489,230.755,250.442
2014-10-24 10:00,0.613851,288.152,271.023,251.18,273.529,271.283,254.264,0.49319,0.574484,230.43,250.34
2014-10-24 11:00,0.656815,301.478,272.12,251.922,274.933,272.724,255.658,0.450966,0.554588,230.593,251.252
2014-10-24 12:00,0.363349,296.008,284.982,258.802,284.921,279.661,255.153,0.172512,0.305114,229.007,248.348
2014-10-24 13:00,0.315606,300.679,290.017,262.366,290.632,285.208,259.37,0.142988,0.252942,232.175,251.051
2014-10-24 14:00,0.286434,303.181,293.031,263.928,293.764,287.888,261.421,0.127534,0.225604,232.557,251.751
2014-10-24 15:00,0.358313,296.943,277.852,255.043,278.725,276.015,256.785,0.321406,0.38084,232.784,251.552
2014-10-24 16:00,0.414749,295.476,270.329,251.18,272.899,271.283,255.027,0.37062,0.448011,233.896,252.244
2014-10-24 17:00,0.296543,288.568,263.245,246.801,260.158,255.045,240.207,0.248841,0.307397,224.054,238.441
2014-10-24 18:00,0.420065,268.986,231.427,230.207,228.293,225.874,221.965,0.451579,0.540028,217.229,222.956
2014-10-24 19:00,0.466475,278.684,242.597,235.662,238.446,234.216,226.918,0.466128,0.564272,221.031,228.423
2014-10-24 20:00,0.832324,275.707,217.685,223.694,214.517,213.016,213.241,0.861006,1.01256,211.303,212.8
2014-10-24 21:00,0.997552,264.377,221.481,225.107,220.184,218.235,217.055,0.896127,1.22816,216.012,218.895
2014-10-24 22:00,-0.0,213.142,203.247,218.272,201.233,200.415,202.743,-0.0,-0.0,202.222,201.84
2014-10-24 23:00,-0.00936912,227.984,206.1,219.183,205.497,204.159,207.197,-0.0105771,-0.0157645,205.874,206.239
2014-10-25 00:00,0.00203872,222.276,212.119,221.17,212.219,211.983,212.619,-0.0,-0.00205821,211.8,212.207
2014-10-25 01:00,-0.0,227.984,223.597,226.481,222.806,221.283,219.739,-0.0,-0.0,218.517,221.658
2014-10-25 02:00,-0.0,222.276,223.252,226.287,222.806,221.579,220.675,-0.0,-0.0,217.491,219.608
2014-10-25 03:00,-0.0,240.898,237.086,232.663,236.948,235.193,230.44,-0.0,-0.0,223.849,232.829
2014-10-25 04:00,-0.0,245.913,242.37,235.499,241.344,240.35,234.447,-0.0,-0.0,224.661,233.773
2014-10-25 05:00,-0.00304839,242.013,238.09,233.344,237.702,236.872,230.931,-0.0,-0.0,224.156,232.508
2014-10-25 06:00,-0.0,238.442,235.011,231.274,234.633,233.225,229.116,-0.0,0.00188288,223.224,230.524
2014-10-25 07:00,-0.0,242.013,237.591,232.663,237.2,236.396,231.743,-0.0,-0.0,224.76,232.185
2014-10-25 08:00,-0.0,260.395,257.166,242.942,258.116,256.555,245.35,-0.0,-0.0,227.78,244.412
2014-10-25 09:00,0.738184,267.123,262.141,245.859,262.507,260.584,247.551,1.05772,1.26118,228.575,245.345
2014-10-25 10:00,0.484727,280.982,259.039,243.79,260.341,258.774,247.142,0.523376,0.615068,230.348,245.804
2014-10-25 11:00,0.597329,297.549,254.69,242.081,256.598,254.855,244.231,0.505757,0.583819,230.43,244.412
2014-10-25 12:00,0.48788,292.294,259.206,244.765,260.706,259.684,247.823,0.413087,0.497675,230.511,246.483
2014-10-25 13:00,0.399394,299.108,275.436,253.86,276.923,272.883,254.264,0.293701,0.365541,230.101,248.455
2014-10-25 14:00,0.374849,296.635,270.885,251.676,272.264,268.505,251.553,0.266227,0.331129,228.312,246.595
2014-10-25 15:00,0.414625,283.093,257.854,244.488,259.236,257.486,245.211,0.426076,0.477024,228.575,244.294
2014-10-25 16:00,0.387752,290.685,271.162,251.922,273.529,271.121,253.111,0.426495,0.473165,227.87,246.483
2014-10-25 17:00,0.370281,293.24,273.199,252.534,274.933,272.246,253.497,0.394135,0.421884,227.959,246.371
2014-10-25 18:00,0.413237,282.408,261.982,246.265,261.971,259.684,246.319,0.443013,0.494914,226.871,241.221
2014-10-25 19:00,0.425763,290.558,273.065,251.799,272.582,268.505,248.364,0.438629,0.510294,227.87,244.647
2014-10-25 20:00,0.242947,291.44,283.38,258.58,284.361,280.108,256.909,0.264476,0.301332,228.4,247.261
2014-10-25 21:00,1.78842,280.239,253.779,241.646,253.469,249.753,238.727,1.27034,1.7934,225.546,239.255
2014-10-25 22:00,-0.00808495,267.444,260.854,245.723,261.791,258.408,246.319,-0.0,-0.0,227.329,244.881
2014-10-25 23:00,-0.0125486,268.073,257.683,244.21,258.678,254.855,242.384,-0.0106249,-0.0126685,226.871,242.23
2014-10-26 00:00,-0.0,264.377,257.854,243.79,258.678,255.992,243.525,-0.0,-0.0,227.42,242.971
2014-10-26 01:00,-0.00160767,270.713,268.343,250.051,269.35,266.835,250.765,-0.0,-0.0,228.662,246.032
2014-10-26 02:00,-0.00140994,237.078,231.14,230.027,230.294,228.856,225.36,-0.0,-0.0,221.145,226.76
2014-10-26 03:00,-0.0,235.601,229.673,229.484,228.293,226.974,224.126,-0.0,-0.0,219.382,225.21
2014-10-26 04:00,-0.00137782,240.898,236.318,232.491,235.93,233.474,229.116,-0.0,-0.0,224.156,231.859
2014-10-26 05:00,-0.0,248.394,242.37,235.662,241.58,239.438,232.387,-0.0,-0.0,224.661,234.694
2014-10-26 06:00,-0.0,218.393,218.082,224.507,217.072,215.356,215.474,-0.0,-0.0,213.995,215.6
2014-10-26 07:00,-0.00267161,232.213,228.463,228.378,228.001,226.974,224.834,-0.0,-0.0,220.801,225.21
2014-10-26 08:00,-0.00539013,233.989,230.85,229.484,230.294,228.856,225.535,-0.0,-0.0,220.801,226.57
2014-10-26 09:00,0.773307,242.013,234.208,230.921,234.371,232.474,228.278,1.13491,1.45731,223.329,231.198
2014-10-26 10:00,0.419436,247.601,224.616,226.481,223.443,222.169,220.115,0.646721,0.744373,218.767,222.743
2014-10-26 11:00,0.384198,258.096,221.841,225.897,219.847,217.922,217.25,0.570279,0.648846,216.287,218.895
2014-10-26 12:00,0.273838,253.81,228.463,229.118,227.414,225.597,222.692,0.469442,0.537553,219.26,225.011
2014-10-26 13:00,0.27459,254.396,224.279,227.248,222.485,220.984,219.927,0.531583,0.592041,215.873,220.535
2014-10-26 14:00,0.230302,254.396,228.155,228.192,227.118,225.874,224.304,0.538065,0.603018,220.454,225.011
2014-10-26 15:00,0.233648,254.966,235.011,231.973,234.107,232.725,228.278,0.51056,0.565878,223.538,230.354
2014-10-26 16:00,0.25704,259.045,238.83,233.681,238.693,236.872,231.257,0.501684,0.579908,226.216,234.996
2014-10-26 17:00,0.248355,261.251,245.032,237.572,244.575,243.679,236.613,0.437342,0.510795,227.055,237.468
2014-10-26 18:00,0.390733,268.686,224.616,227.438,223.443,222.462,222.329,0.585934,0.676458,218.009,221.436
2014-10-26 19:00,0.443806,265.095,244.598,237.258,244.122,243.024,235.846,0.655825,0.756611,225.352,236.614
2014-10-26 20:00,0.712478,266.797,243.496,236.306,243.438,242.585,236.918,0.866812,1.02656,226.685,237.043
2014-10-26 21:00,1.42083,271.261,247.357,238.657,246.355,245.399,237.676,1.10276,1.51808,226.311,237.185
2014-10-26 22:00,-0.0,247.601,241.218,234.845,240.631,239.208,233.819,-0.0,-0.0,225.156,234.389
2014-10-26 23:00,-0.00945525,237.078,226.261,227.817,225.31,223.905,222.329,-0.0106743,-0.0127275,218.767,223.167
2014-10-27 00:00,-0.0,240.898,235.8,231.973,235.414,234.461,229.781,-0.00173774,-0.00207199,223.434,231.031
2014-10-27 01:00,-0.0,233.989,226.261,228.004,225.919,224.19,221.782,-0.0,-0.0,219.863,223.793
2014-10-27 02:00,-0.0,240.898,235.8,232.146,235.155,233.969,229.116,-0.0,-0.0,222.799,230.524
2014-10-27 03:00,-0.0,244.063,241.451,234.681,242.283,241.475,234.916,-0.0,-0.0,226.499,236.033
2014-10-27 04:00,-0.0,264.739,263.245,247.597,265.482,264.967,251.291,-0.0,-0.0,229.263,246.595
2014-10-27 05:00,-0.00153406,258.576,255.764,242.799,255.827,254.855,243.808,-0.0,-0.0,226.592,240.706
2014-10-27 06:00,-0.0,275.932,270.329,251.305,272.104,269.165,251.028,-0.0,-0.0,229.093,248.241
2014-10-27 07:00,-0.00268588,271.261,269.201,250.931,272.264,271.444,254.9,-0.0,-0.0,231.156,251.352
2014-10-27 08:00,0.00544513,285.512,284.071,258.802,286.172,283.773,260.098,-0.0,-0.0,230.511,252.828
2014-10-27 09:00,1.23073,273.338,269.343,250.303,271.945,270.96,254.9,1.1623,1.38586,232.097,253.5
2014-10-27 10:00,0.425331,288.43,281.624,257.233,282.803,280.257,258.27,0.2933,0.407263,231.865,254.068
2014-10-27 11:00,0.442032,295.042,285.321,259.354,286.31,282.758,260.098,0.22416,0.386597,232.251,255.091
2014-10-27 12:00,0.431842,296.943,273.599,252.899,275.703,273.517,255.784,0.305652,0.405316,233.234,255.091
2014-10-27 13:00,0.355478,299.203,286.328,260.011,286.722,281.882,259.127,0.202989,0.312974,232.097,255.275
2014-10-27 14:00,0.402257,290.813,267.618,249.414,269.679,268.505,253.625,0.304136,0.388716,231.709,253.595
2014-10-27 15:00,0.325367,277.451,256.469,243.368,255.633,254.281,243.099,0.299444,0.371323,227.87,244.294
2014-10-27 16:00,0.380972,295.796,270.049,250.806,271.142,268.505,252.205,0.286841,0.372442,232.251,253.309
2014-10-27 17:00,0.378745,276.594,244.16,236.784,242.049,238.515,231.094,0.404485,0.487616,224.959,235.146
2014-10-27 18:00,0.398064,285.357,258.534,244.626,256.406,252.536,239.025,0.372867,0.450916,226.027,240.185
2014-10-27 19:00,0.522364,284.888,259.54,245.04,258.491,255.425,243.241,0.486513,0.563218,228.224,244.056
2014-10-27 20:00,0.644475,283.924,265.846,249.029,266.508,264.795,250.369,0.58361,0.699346,232.481,251.552
2014-10-27 21:00,1.93851,281.883,262.931,246.801,263.745,262.008,248.094,1.30516,1.8981,230.755,248.562
2014-10-27 22:00,-0.00826174,269.865,257.854,243.65,256.406,253.51,240.06,-0.0,-0.0,226.871,240.576
2014-10-27 23:00,-0.0126674,286.864,283.38,258.691,285.201,282.028,258.882,-0.0107255,-0.00959141,231.787,254.907
2014-10-28 00:00,-0.00205949,285.512,282.448,257.91,283.938,281.146,257.9,-0.00174377,-0.0,231.473,253.309
2014-10-28 01:00,-0.0,283.428,279.58,256.549,280.931,277.701,256.16,-0.0,-0.0,230.348,252.439
2014-10-28 02:00,-0.00141773,259.045,252.101,240.766,251.856,250.357,239.765,-0.0,-0.0,226.685,242.105
2014-10-28 03:00,-0.0,262.869,253.595,241.354,252.667,249.348,237.977,-0.0,-0.0,226.685,242.23
2014-10-28 04:00,-0.0,268.382,263.401,247.332,263.92,261.477,246.732,-0.0,-0.0,229.769,250.135
2014-10-28 05:00,-0.0,267.761,263.401,247.2,264.618,262.888,248.634,-0.0,-0.0,231.076,251.552
2014-10-28 06:00,-0.0,268.382,261.34,245.995,261.971,259.139,244.652,-0.0,-0.0,229.517,249.303
2014-10-28 07:00,-0.0,278.075,268.63,249.669,266.508,261.831,243.949,-0.0,-0.0,225.352,245.114
2014-10-28 08:00,-0.00549971,275.932,264.94,247.465,261.971,258.408,241.084,-0.0,-0.00555229,225.643,243.336
2014-10-28 09:00,0.789646,263.636,247.357,237.258,244.349,241.475,231.581,0.891456,1.19579,222.476,233.773
2014-10-28 10:00,0.400772,280.982,269.485,249.924,269.842,267.171,249.705,0.365152,0.461776,229.935,249.928
2014-10-28 11:00,0.511345,296.219,281.978,257.233,283.088,279.511,257.158,0.305263,0.473412,232.481,255.911
2014-10-28 12:00,0.287895,279.859,259.206,244.21,255.439,251.156,237.373,0.22808,0.328041,224.86,239.121
2014-10-28 13:00,0.297197,297.649,285.321,258.802,284.641,279.061,255.153,0.133973,0.270868,231.709,254.068
2014-10-28 14:00,0.274023,297.649,282.448,257.91,281.366,275.861,252.075,0.137336,0.244388,228.835,250.95
2014-10-28 15:00,0.259105,300.134,289.805,262.366,290.632,287.048,260.942,0.151574,0.240179,233.308,257.07
2014-10-28 16:00,0.242103,298.822,286.882,260.228,285.618,281.441,257.406,0.151956,0.234689,231.394,253.595
2014-10-28 17:00,0.222796,301.302,292.417,263.825,292.73,288.306,261.54,0.104925,0.198308,233.382,256.271
2014-10-28 18:00,0.200339,301.913,295.935,266.458,297.434,293.082,264.255,0.0821631,0.178553,234.756,257.942
2014-10-28 19:00,0.398319,294.491,274.524,253.621,271.464,265.99,244.792,0.289581,0.408443,228.921,247.371
2014-10-28 20:00,0.758904,272.061,213.031,222.659,212.997,212.673,213.653,0.805384,0.977633,210.966,212.505
2014-10-28 21:00,0.426078,277.24,261.34,245.723,258.491,255.235,241.519,0.419261,0.499905,226.685,239.656
2014-10-28 22:00,-0.00835677,280.05,267.909,249.797,266.167,261.121,243.099,-0.0,-0.0,224.661,241.854
2014-10-28 23:00,-0.00954746,250.598,232.28,230.387,230.574,228.056,223.233,-0.00808381,-0.00963872,219.014,224.61
2014-10-29 00:00,-0.0020668,242.013,231.14,229.847,229.729,227.787,223.77,-0.0,-0.00208656,220.686,225.604
2014-10-29 01:00,-0.0,252.585,239.317,233.849,237.702,233.969,227.77,-0.0,-0.0,222.04,230.183
2014-10-29 02:00,-0.0,218.393,212.119,221.814,211.028,210.219,211.781,-0.0,-0.0,210.796,211.602
2014-10-29 03:00,-0.0,213.142,204.988,219.183,203.652,202.529,205.361,-0.0,-0.0,204.122,203.524
2014-10-29 04:00,-0.0,213.142,204.988,218.957,204.12,202.529,205.825,-0.0,-0.0,204.573,204.721
2014-10-29 05:00,-0.0,218.393,204.988,218.957,204.12,203.351,206.515,-0.0,-0.0,205.233,205.109
2014-10-29 06:00,-0.0,218.393,206.1,219.855,205.043,203.757,206.286,-0.0,-0.0,205.233,205.491
2014-10-29 07:00,-0.0,213.142,208.223,220.077,207.269,206.128,207.648,-0.0,-0.0,207.697,208.711
2014-10-29 08:00,-0.0,222.276,211.654,220.954,210.625,209.133,210.073,-0.0,-0.0,210.278,210.67
2014-10-29 09:00,0.942446,237.078,222.198,225.504,221.182,220.081,218.41,1.28369,1.73744,217.491,220.075
2014-10-29 10:00,0.393953,259.505,240.75,234.35,239.183,236.872,229.946,0.689111,0.786696,223.013,233.773
2014-10-29 11:00,0.39001,256.589,220.379,224.908,219.167,216.972,216.466,0.706195,0.801707,215.452,218.165
2014-10-29 12:00,0.341142,267.444,231.713,230.387,229.158,225.318,220.489,0.435401,0.510667,217.229,225.408
2014-10-29 13:00,0.373759,285.045,257.166,243.226,255.633,249.955,235.846,0.331586,0.410626,221.371,237.468
2014-10-29 14:00,0.246734,269.283,248.784,238.195,246.575,244.328,234.291,0.293097,0.382934,226.499,235.74
2014-10-29 15:00,0.207096,296.635,288.303,261.198,288.897,284.492,258.882,0.0896665,0.196008,231.473,253.785
2014-10-29 16:00,0.221428,299.95,291.07,262.995,291.16,286.06,259.856,0.0866089,0.191957,232.633,254.256
2014-10-29 17:00,0.21467,295.902,285.77,259.902,285.618,281.735,256.909,0.110395,0.208745,232.784,252.439
2014-10-29 18:00,0.217274,297.248,288.843,261.731,289.835,285.35,260.219,0.115144,0.216195,233.085,254.443
2014-10-29 19:00,0.197731,297.146,292.005,263.928,293.119,289.551,262.847,0.111025,0.199621,234.472,256.716
2014-10-29 20:00,0.253179,295.583,290.335,263.099,291.686,288.167,261.779,0.194088,0.279777,234.185,256.001
2014-10-29 21:00,0.113539,289.113,286.882,261.412,289.166,286.343,261.301,0.20188,0.206324,235.038,256.45
2014-10-29 22:00,-0.0,279.278,268.63,250.177,266.167,262.537,245.35,-0.0,-0.0,225.546,241.98
2014-10-29 23:00,-0.00959587,256.062,234.477,231.973,230.574,228.056,222.511,-0.00812481,-0.00968761,216.287,223.586
2014-10-30 00:00,-0.0020743,276.155,264.788,247.991,262.329,257.486,241.084,-0.0,-0.00209413,225.352,241.093
2014-10-30 01:00,-0.0,282.581,274.524,253.86,273.843,269.657,248.499,-0.0,-0.0,224.959,244.764
2014-10-30 02:00,-0.0,245.01,235.275,232.491,232.772,230.688,225.36,-0.0,-0.0,219.503,227.136
2014-10-30 03:00,-0.0,232.213,224.95,226.866,224.072,223.043,220.86,-0.0,-0.0,220.219,222.956
2014-10-30 04:00,0.00139383,227.984,220.379,224.908,219.847,218.547,217.832,-0.0,-0.0,217.229,218.653
2014-10-30 05:00,-0.0,244.063,236.318,232.663,235.93,234.216,229.781,-0.0,-0.0,224.359,231.53
2014-10-30 06:00,0.00190116,254.966,246.313,237.884,245.248,241.921,235.072,-0.0,-0.0,225.643,235.887
2014-10-30 07:00,-0.0,247.601,245.248,237.258,245.693,244.544,236.613,-0.0,-0.0,227.51,239.39
2014-10-30 08:00,-0.0,251.944,247.15,238.04,247.229,245.824,238.727,-0.0,-0.0,227.42,238.441
2014-10-30 09:00,1.50269,273.088,263.867,247.465,263.745,260.584,246.869,1.17445,1.78935,227.51,242.848
2014-10-30 10:00,0.469094,278.482,265.995,248.121,265.826,262.185,246.182,0.397181,0.560473,226.963,242.354
2014-10-30 11:00,0.424061,291.315,280.187,256.549,280.639,276.015,253.368,0.232094,0.399732,229.433,248.133
2014-10-30 12:00,0.365715,297.146,286.105,260.769,286.033,280.85,257.034,0.180393,0.330257,231.076,249.928
2014-10-30 13:00,0.40212,298.533,281.86,258.022,282.374,278.307,256.16,0.263781,0.358856,230.43,249.093
2014-10-30 14:00,0.290642,297.449,282.682,258.691,283.23,279.361,257.9,0.159904,0.258755,230.996,250.646
2014-10-30 15:00,0.302146,296.323,279.213,256.664,279.907,276.631,257.406,0.179178,0.272988,230.996,250.238
2014-10-30 16:00,0.280152,300.408,286.439,261.625,287.815,284.205,260.581,0.160851,0.23549,231.473,251.352
2014-10-30 17:00,0.242087,299.672,290.335,263.515,291.423,287.609,262.136,0.131451,0.216507,231.156,251.85
2014-10-30 18:00,0.266947,293.587,279.336,257.006,278.576,273.832,252.594,0.170509,0.269499,228.048,246.032
2014-10-30 19:00,0.240964,290.041,276.971,255.277,276.163,272.565,250.896,0.216336,0.287307,227.51,244.998
2014-10-30 20:00,0.886218,274.073,227.533,228.934,226.221,225.038,221.598,0.860027,1.05986,220.57,223.586
2014-10-30 21:00,1.15287,265.446,218.862,224.708,216.715,216.008,215.474,0.909791,1.22039,213.078,215.332
2014-10-30 22:00,-0.0,249.156,239.317,234.681,237.2,234.216,227.94,-0.0,-0.0,223.434,232.022
2014-10-30 23:00,-0.0128611,255.521,241.218,235.823,238.199,235.435,228.109,-0.00816713,-0.00973807,219.744,229.489
2014-10-31 00:00,0.002082,232.213,222.198,226.481,220.852,219.777,218.41,-0.0,-0.0021019,217.096,218.653
2014-10-31 01:00,-0.0,264.377,254.328,242.225,253.269,250.357,238.278,-0.0,-0.0,225.835,238.165
2014-10-31 02:00,-0.0,256.589,249.385,240.021,247.662,244.758,237.222,-0.0,-0.0,226.027,236.757
2014-10-31 03:00,-0.0,264.739,259.706,245.451,259.421,257.486,245.35,-0.0,-0.0,228.136,243.093
2014-10-31 04:00,-0.0,269.576,268.054,250.555,269.679,267.171,251.683,-0.0,-0.0,230.593,247.808
2014-10-31 05:00,-0.0,284.087,280.789,257.572,281.655,278.458,256.909,-0.0,-0.0,230.916,248.775
2014-10-31 06:00,-0.0019082,284.41,280.909,257.91,281.51,277.091,255.406,-0.0,-0.0,230.511,248.241
2014-10-31 07:00,-0.0,282.059,276.336,255.043,276.62,272.405,251.553,-0.0,-0.0,229.769,245.918
2014-10-31 08:00,-0.0,277.026,266.886,249.286,265.654,260.405,241.953,-0.0,-0.0,225.643,240.706
2014-10-31 09:00,0.728839,270.434,256.118,242.942,254.066,249.753,235.846,0.678817,0.956548,222.692,235.146
2014-10-31 10:00,0.48359,259.505,233.116,231.098,230.294,227.246,223.592,0.539901,0.648071,219.744,225.408
2014-10-31 11:00,0.441636,291.686,280.066,257.346,279.76,274.46,251.814,0.229503,0.417549,227.42,245.575
2014-10-31 12:00,0.43379,296.635,283.148,258.802,283.656,279.511,256.285,0.289293,0.40581,229.852,248.562
2014-10-31 13:00,0.478424,297.848,278.474,256.205,280.347,276.631,256.16,0.401599,0.469158,229.935,249.617
2014-10-31 14:00,0.339384,299.391,283.495,258.802,284.501,280.257,257.9,0.210589,0.310469,231.076,250.95
2014-10-31 15:00,0.283103,295.368,284.755,260.011,285.757,282.613,260.461,0.212848,0.286995,232.633,252.537
2014-10-31 16:00,0.243877,298.63,288.843,262.155,289.434,285.777,260.822,0.139355,0.228015,232.935,252.828
2014-10-31 17:00,0.399578,285.97,271.437,252.656,273.215,272.405,255.532,0.526403,0.591827,231.787,252.342
2014-10-31 18:00,0.28219,296.943,285.208,260.553,285.34,280.85,257.653,0.190088,0.277018,232.709,252.439
2014-10-31 19:00,0.375236,294.713,278.35,256.32,276.923,272.086,252.075,0.28085,0.385102,230.018,247.808
2014-10-31 20:00,0.903216,286.121,255.587,243.368,252.262,249.55,238.428,0.799252,0.918707,222.04,233.773
2014-10-31 21:00,0.684025,293.007,284.982,260.445,285.34,281.735,258.392,0.551139,0.623736,231.787,250.849
2014-10-31 22:00,0.00867092,281.165,271.162,252.29,270.006,265.309,246.182,-0.0,-0.0,226.871,242.602
2014-10-31 23:00,-0.00969741,276.811,261.822,246.934,260.158,255.045,238.876,-0.00547385,-0.00979011,224.359,237.888
