# timestamp,IR_016,IR_039,IR_087,IR_097,IR_108,IR_120,IR_134,VIS006,VIS008,WV_062,WV_073
2015-09-01 00:00,-0.00195677,288.43,289.486,263.515,291.948,291.193,265.647,-0.0,-0.0,248.09,265.286
2015-09-01 01:00,-0.0,288.012,289.058,263.411,291.555,290.921,265.762,-0.0,-0.0,248.371,265.655
2015-09-01 02:00,-0.0,286.864,288.303,262.89,290.5,290.101,265.647,-0.0,-0.0,248.417,265.507
2015-09-01 03:00,-0.0,285.97,287.978,262.786,290.101,290.101,265.878,-0.0,-0.0,248.371,265.801
2015-09-01 04:00,0.0012347,285.512,287.432,262.471,289.434,289.137,265.416,-0.0,-0.0,248.371,266.312
2015-09-01 05:00,-0.0,284.73,286.55,261.519,288.628,288.584,265.416,-0.0,-0.0,248.043,266.094
2015-09-01 06:00,-0.00152744,284.249,286.217,261.731,288.358,288.722,264.488,-0.0,-0.0,247.902,266.166
2015-09-01 07:00,0.00196016,283.76,285.882,261.625,287.951,288.306,265.185,-0.0,-0.0,247.331,265.948
2015-09-01 08:00,-0.0,283.093,285.658,261.519,287.815,288.027,265.532,-0.0,0.00302998,246.896,265.655
2015-09-01 09:00,0.00736181,282.923,285.433,261.305,287.407,288.027,264.953,-0.0,-0.0,246.456,265.728
2015-09-01 10:00,0.540527,284.888,286.439,261.944,288.493,288.861,264.953,0.408186,0.545694,246.357,265.655
2015-09-01 11:00,0.609598,293.816,292.52,265.658,294.788,294.282,267.023,0.277189,0.482463,246.406,266.166
2015-09-01 12:00,0.542242,300.679,297.3,268.615,300.141,298.334,268.158,0.219993,0.401446,246.505,265.801
2015-09-01 13:00,0.425917,305.416,301.452,271.738,304.559,302.144,269.171,0.164444,0.304432,246.505,266.021
2015-09-01 14:00,0.351236,308.281,304.081,273.48,307.341,304.504,270.064,0.129033,0.24763,246.554,265.801
2015-09-01 15:00,0.306042,309.789,305.411,274.382,308.822,305.853,270.286,0.108445,0.21233,246.357,265.948
2015-09-01 16:00,0.279136,309.722,305.674,274.561,309.049,306.219,271.061,0.0947659,0.18787,246.357,266.094
2015-09-01 17:00,0.261421,308.838,305.587,274.202,308.936,306.341,271.282,0.088538,0.177413,247.09,266.312
2015-09-01 18:00,0.250746,307.137,304.704,273.571,308.027,306.097,271.061,0.0938767,0.179094,246.993,266.312
2015-09-01 19:00,0.255845,304.239,303.003,272.751,306.536,304.75,270.951,0.111187,0.196575,247.09,266.745
2015-09-01 20:00,0.275817,300.679,299.59,270.617,302.907,301.39,269.506,0.172751,0.251752,247.234,266.021
2015-09-01 21:00,0.416012,294.38,294.446,267.249,297.309,296.258,267.251,0.427716,0.494987,247.186,265.655
2015-09-01 22:00,-0.00730168,290.041,291.591,265.254,294.149,293.216,266.909,-0.0,-0.0,246.944,265.434
2015-09-01 23:00,-0.209466,289.113,290.651,264.747,292.86,292.41,266.108,-0.0861437,-0.148028,247.186,265.286
2015-09-02 00:00,-0.0,287.729,289.379,264.133,291.948,291.329,266.681,-0.0,-0.0,247.426,265.36
2015-09-02 01:00,-0.0,287.587,289.272,263.928,291.555,291.057,266.108,-0.0,-0.0,247.665,265.507
2015-09-02 02:00,-0.00132048,287.01,289.058,264.031,291.292,291.329,266.108,-0.0,-0.0,248.043,266.239
2015-09-02 03:00,-0.00123484,286.271,288.628,263.721,290.897,290.784,266.337,-0.0,-0.0,248.557,266.817
2015-09-02 04:00,-0.0,285.818,288.087,263.203,290.5,290.375,266.222,-0.0,-0.0,248.464,267.032
2015-09-02 05:00,-0.00132267,285.818,287.651,262.995,290.101,289.964,265.993,-0.0,-0.0,248.787,266.817
2015-09-02 06:00,-0.0,285.045,287.322,262.471,289.434,289.276,265.647,-0.0,-0.0,248.833,266.529
2015-09-02 07:00,-0.0019667,284.57,286.882,262.576,289.166,289.413,265.647,-0.0,-0.0,248.741,266.529
2015-09-02 08:00,0.00302023,284.888,286.772,262.471,288.763,288.999,265.762,-0.0,-0.0,248.417,266.312
2015-09-02 09:00,-0.0,284.41,286.328,261.944,288.763,288.861,264.953,-0.0,-0.0,248.649,266.384
2015-09-02 10:00,0.51983,285.97,287.651,262.681,289.701,289.689,265.762,0.392556,0.496432,248.695,266.384
2015-09-02 11:00,0.606691,294.156,292.52,265.758,294.916,294.016,267.023,0.277327,0.469702,249.017,266.456
2015-09-02 12:00,0.534083,300.858,297.107,268.711,299.776,298.076,268.158,0.218503,0.391931,249.062,266.529
2015-09-02 13:00,0.418662,304.794,300.805,270.992,303.618,301.138,269.059,0.163607,0.296036,249.335,266.601
2015-09-02 14:00,0.361334,307.571,303.003,272.384,305.958,303.391,269.506,0.138285,0.253892,249.381,266.529
2015-09-02 15:00,0.306288,308.7,303.813,273.025,306.882,304.134,269.73,0.11033,0.2075,249.471,266.601
2015-09-02 16:00,0.279591,309.181,304.704,273.48,307.799,304.627,269.953,0.103569,0.189985,249.426,266.673
2015-09-02 17:00,0.267902,308.907,304.438,273.661,308.027,305.119,270.064,0.0980897,0.184208,249.381,266.601
2015-09-02 18:00,0.256865,306.845,303.274,272.751,306.305,303.763,270.286,0.109464,0.185474,249.335,266.456
2015-09-02 19:00,0.266445,303.998,301.636,271.645,304.559,302.144,269.73,0.135741,0.209722,248.833,266.456
2015-09-02 20:00,0.293818,300.498,298.549,269.86,301.472,299.232,268.609,0.22326,0.281415,248.649,266.166
2015-09-02 21:00,0.4575,294.491,294.245,267.052,296.935,295.602,267.592,0.48733,0.53637,247.379,265.728
2015-09-02 22:00,-0.007311,290.171,291.694,265.254,294.021,293.082,266.566,-0.0,-0.0,245.759,264.989
2015-09-02 23:00,-0.155596,289.779,290.651,264.441,292.989,292.41,266.108,-0.078539,-0.145,245.253,264.615
2015-09-03 00:00,-0.0019559,288.705,289.911,263.928,292.209,291.735,265.993,-0.0,-0.0,244.217,264.086
2015-09-03 01:00,-0.0,288.012,289.486,263.721,291.948,291.329,266.108,-0.0,-0.0,243.686,264.086
2015-09-03 03:00,-0.0,286.717,288.303,263.307,290.632,290.375,265.532,-0.0,-0.0,244.531,264.389
2015-09-03 04:00,-0.0,285.512,287.102,262.261,289.434,289.276,265.069,-0.0,-0.0,244.006,263.629
2015-09-03 05:00,-0.0,284.888,286.661,261.838,289.032,288.999,265.069,-0.0,-0.0,243.418,263.399
2015-09-03 06:00,-0.0,284.41,286.439,262.155,288.493,288.584,264.372,-0.0,-0.0,243.364,263.322
2015-09-03 07:00,-0.0,284.249,285.994,261.731,288.222,288.306,264.488,-0.0,-0.0,243.74,263.629
2015-09-03 08:00,-0.0,283.76,285.994,261.625,288.222,288.167,264.837,-0.0,-0.00306885,243.793,263.629
2015-09-03 09:00,-0.0,284.087,285.994,261.519,288.358,288.306,265.069,-0.0,-0.0,244.164,263.934
2015-09-03 10:00,0.500459,285.665,287.102,262.155,289.434,289.551,265.185,0.389381,0.505243,243.202,263.858
2015-09-03 11:00,0.589071,293.356,291.902,264.95,294.405,293.35,266.222,0.271204,0.457177,243.364,263.934
2015-09-03 12:00,0.510415,299.765,296.425,267.74,299.287,297.818,267.592,0.211366,0.382533,242.266,263.399
2015-09-03 13:00,0.40136,304.159,300.526,270.145,303.854,301.516,269.059,0.15992,0.294533,241.419,262.545
2015-09-03 14:00,0.333926,308.14,303.634,275.891,306.997,297.3,269.618,0.125524,0.238308,241.073,262.466
2015-09-03 15:00,0.286457,309.044,303.902,272.384,307.226,304.134,269.841,0.106537,0.202707,241.073,261.834
2015-09-03 16:00,0.26397,309.655,304.171,272.568,307.456,303.887,269.171,0.0964352,0.179917,240.841,261.515
2015-09-03 17:00,0.252694,308.907,303.813,272.384,307.112,303.763,269.395,0.0965856,0.177848,240.665,261.755
2015-09-03 18:00,0.239209,306.845,302.912,272.015,306.536,303.391,268.834,0.101987,0.178125,241.304,261.675
2015-09-03 19:00,0.252228,304.078,301.175,270.805,304.559,302.018,268.834,0.131569,0.204621,240.782,261.675
2015-09-03 20:00,0.281686,300.589,298.644,269.192,301.952,299.616,268.722,0.222603,0.276795,240.371,261.914
2015-09-03 21:00,0.454544,295.151,294.346,266.259,297.434,295.865,267.478,0.521426,0.577313,240.665,261.834
2015-09-03 22:00,-0.0,290.685,291.591,264.441,294.277,293.483,266.337,-0.0,-0.0,240.074,261.033
2015-09-03 23:00,-0.191494,289.91,290.44,263.515,292.989,291.871,265.532,-0.0912023,-0.160097,240.253,260.627
2015-09-04 00:00,-0.0,288.291,289.058,263.307,291.686,290.921,264.721,-0.0,-0.0,239.834,259.554
2015-09-04 01:00,-0.0,287.729,288.951,262.995,291.423,290.784,265.416,-0.0,-0.0015399,239.653,259.97
2015-09-04 02:00,-0.0,287.587,288.52,262.995,291.029,290.375,265.069,-0.0,-0.0,239.593,260.217
2015-09-04 03:00,-0.0,287.155,288.412,262.261,290.764,290.101,264.488,-0.0,-0.0,239.471,259.887
2015-09-04 04:00,-0.0,287.3,288.303,262.471,290.764,290.101,264.605,-0.0,-0.0,240.665,260.463
2015-09-04 05:00,-0.0,287.01,287.869,262.049,290.234,289.689,264.721,-0.0,-0.0,240.371,260.052
2015-09-04 06:00,-0.0,286.271,287.322,262.049,289.568,288.861,264.605,-0.0,-0.0,240.074,259.638
2015-09-04 07:00,-0.0,282.581,283.611,260.011,285.757,284.349,262.492,-0.0,-0.0,240.724,259.135
2015-09-04 08:00,-0.0,278.883,279.336,257.12,281.799,279.661,259.735,-0.0,-0.0,241.246,258.372
2015-09-04 09:00,-0.0,283.093,283.841,259.464,286.31,285.35,262.373,-0.0,-0.0,241.304,259.638
2015-09-04 10:00,0.612657,285.512,285.658,260.337,288.087,286.907,263.553,0.419403,0.565874,240.312,258.798
2015-09-04 11:00,0.622773,294.823,291.798,264.133,294.661,293.216,265.993,0.277527,0.474302,238.857,259.135
2015-09-04 12:00,0.544612,301.302,296.621,267.544,299.654,297.3,267.478,0.221189,0.391131,236.808,258.2
2015-09-04 13:00,0.42282,305.261,300.06,269.479,303.499,300.252,267.819,0.166215,0.296432,235.455,257.333
2015-09-04 14:00,0.348315,308.211,302.64,271.086,306.421,302.644,268.384,0.128647,0.240218,235.178,257.421
2015-09-04 15:00,0.313456,308.907,300.153,269.67,303.381,299.232,266.108,0.134395,0.224883,233.823,256.628
2015-09-04 16:00,0.28051,309.52,302.003,271.273,305.493,301.39,267.592,0.116492,0.199583,232.935,256.181
2015-09-04 17:00,0.256298,308.976,303.364,272.015,307.112,303.391,268.497,0.103627,0.181705,232.328,256.539
2015-09-04 18:00,0.260573,306.697,301.175,270.428,304.793,301.264,267.592,0.126072,0.198152,232.02,255.548
2015-09-04 19:00,0.397577,304.239,292.108,265.456,294.916,291.735,264.372,0.264357,0.337883,231.709,253.88
2015-09-04 20:00,0.69283,299.485,282.096,258.913,285.618,282.758,259.977,0.599301,0.718357,231.236,252.439
2015-09-04 21:00,0.9617,293.007,284.982,260.769,288.358,285.208,260.822,0.801933,1.07387,231.63,253.213
2015-09-04 22:00,-0.0,284.73,283.611,259.574,286.585,284.061,260.822,-0.0,-0.0,231.709,253.309
2015-09-04 23:00,-0.158574,288.43,287.978,262.261,290.764,289.137,263.436,-0.0835986,-0.154049,232.481,254.629
2015-09-05 00:00,-0.0,282.234,281.505,258.691,283.938,281.441,260.461,-0.0,-0.0,232.557,253.117
2015-09-05 01:00,-0.00152519,286.121,285.77,261.091,288.763,286.626,261.779,-0.0,-0.0,232.097,253.5
2015-09-05 02:00,-0.0,286.864,287.212,262.155,290.101,288.861,263.436,-0.0,-0.0,231.709,253.595
2015-09-05 03:00,-0.0,287.01,287.541,262.155,290.367,289.413,263.905,-0.0,-0.0,231.63,253.5
2015-09-05 04:00,-0.0,285.818,285.77,260.984,288.358,286.767,262.728,-0.0,-0.0,230.996,252.828
2015-09-05 05:00,-0.00132775,279.278,275.951,255.16,277.226,275.085,255.909,-0.0,-0.0,229.852,248.562
2015-09-05 06:00,-0.0,281.705,281.978,259.024,284.781,283.339,260.219,-0.0,-0.0,231.315,251.751
2015-09-05 07:00,-0.0,284.249,284.869,260.337,287.679,286.485,262.965,-0.0,-0.0,231.787,252.244
2015-09-05 08:00,-0.00308078,281.883,282.566,259.134,285.34,283.917,261.54,-0.0,-0.0,232.633,252.146
2015-09-05 09:00,-0.0,283.594,284.642,260.228,287.679,286.907,262.728,-0.0,-0.0,232.935,253.309
2015-09-05 10:00,0.528141,285.357,285.208,260.011,288.087,287.188,262.965,0.393941,0.48241,233.159,252.828
2015-09-05 11:00,0.623287,294.043,290.44,262.995,293.377,291.329,264.138,0.283696,0.461931,233.603,253.021
2015-09-05 12:00,0.562946,298.339,289.272,262.155,290.897,285.065,257.777,0.262527,0.419586,233.085,250.34
2015-09-05 13:00,0.345568,286.864,273.333,251.922,274.467,270.96,248.768,0.258668,0.370781,232.405,245.46
2015-09-05 14:00,0.216982,295.368,289.699,262.366,287.543,287.048,261.421,0.131745,0.187351,232.251,248.025
2015-09-05 15:00,0.208681,270.434,256.118,242.942,255.439,253.896,242.527,0.33875,0.402566,232.175,242.478
2015-09-05 16:00,0.331578,307.21,295.343,266.159,299.164,294.547,263.787,0.183782,0.258118,233.677,251.652
2015-09-05 17:00,0.472395,302.932,277.098,256.205,280.639,277.548,257.653,0.375661,0.44502,234.756,251.252
2015-09-05 18:00,0.302085,302.426,289.593,262.995,292.86,288.861,261.66,0.258633,0.306677,234.756,251.85
2015-09-05 19:00,0.582528,297.947,277.224,255.742,280.493,278.458,258.023,0.53496,0.601668,234.756,250.544
2015-09-05 20:00,0.731969,299.108,281.86,258.58,285.061,282.028,259.249,0.63873,0.738967,235.455,251.352
2015-09-05 21:00,0.550364,293.356,291.07,263.721,294.277,292.141,264.488,0.74804,0.818816,235.317,253.021
2015-09-05 22:00,-0.00733714,289.779,289.058,262.995,292.47,290.784,264.372,-0.0,-0.0,235.038,252.828
2015-09-05 23:00,-0.197463,289.381,288.736,262.471,291.948,290.238,264.372,-0.0987952,-0.169146,235.247,252.439
2015-09-06 00:00,-0.0,288.012,287.76,261.838,290.764,288.861,264.022,-0.0,-0.0,234.756,251.85
2015-09-06 01:00,-0.0,287.444,287.322,261.412,289.968,288.722,262.61,-0.0,-0.0,234.897,251.751
2015-09-06 02:00,-0.0,282.059,279.823,257.572,281.076,277.548,257.158,-0.0,-0.0,233.896,248.987
2015-09-06 03:00,-0.00123668,286.421,285.77,260.553,288.358,286.485,261.898,-0.0,-0.0,235.731,251.652
2015-09-06 04:00,0.00123925,271.798,265.394,249.286,265.31,260.225,248.634,-0.0,-0.0,237.137,246.032
2015-09-06 05:00,-0.00132959,285.045,285.095,260.553,288.222,286.626,262.373,-0.0,-0.0,237.137,252.731
2015-09-06 06:00,-0.0,284.249,284.982,260.337,287.951,286.767,262.373,-0.0,-0.0,236.742,252.925
2015-09-06 07:00,0.00199494,284.087,284.869,260.228,287.951,286.485,263.083,-0.0,-0.0,237.463,253.595
2015-09-06 08:00,0.00310223,283.594,284.3,259.902,287.27,286.06,262.61,-0.0,-0.0,237.398,253.5
2015-09-06 09:00,-0.0,284.249,285.095,260.228,288.087,287.048,262.728,-0.0,-0.0,237.268,253.595
2015-09-06 10:00,0.692102,286.121,283.956,259.354,286.31,283.773,260.34,0.42151,0.527103,237.137,252.731
2015-09-06 11:00,0.573853,292.174,288.843,262.576,292.079,290.238,263.905,0.259539,0.395821,237.203,253.5
2015-09-06 12:00,0.500206,298.242,292.929,264.95,296.056,293.082,264.605,0.207138,0.330778,237.333,253.785
2015-09-06 13:00,0.395329,302.426,296.523,266.756,299.776,296.127,265.647,0.163143,0.269985,236.675,253.405
2015-09-06 14:00,0.335521,305.95,298.644,268.324,302.072,297.818,265.647,0.13482,0.223905,236.475,253.213
2015-09-06 15:00,0.299352,307.137,298.739,268.518,301.592,296.91,264.721,0.130095,0.205933,236.207,253.213
2015-09-06 16:00,0.304013,304.557,290.545,263.825,294.661,289.689,261.779,0.225934,0.288156,235.525,252.828
2015-09-06 17:00,0.282083,304.636,293.539,265.456,296.935,292.006,263.2,0.184282,0.239966,234.827,252.925
2015-09-06 18:00,0.267646,303.098,294.245,265.254,297.931,293.483,263.553,0.232316,0.2821,234.897,253.021
2015-09-06 19:00,0.248076,301.302,296.327,267.151,299.654,295.996,265.069,0.247891,0.27301,235.247,253.213
2015-09-06 20:00,0.216011,298.436,295.442,266.756,298.672,295.602,265.416,0.39102,0.349674,234.329,252.439
2015-09-06 21:00,0.273573,293.587,291.174,264.236,294.277,291.6,264.138,0.560798,0.566913,234.968,251.85
2015-09-06 22:00,-0.0,290.939,289.272,262.995,292.6,289.964,263.2,-0.0,-0.0,235.525,252.537
2015-09-06 23:00,-0.161558,268.073,259.373,244.626,259.421,255.992,241.808,-0.0861275,-0.160082,228.748,240.446
2015-09-07 00:00,-0.00195462,267.761,268.916,251.552,271.785,271.121,255.28,-0.0,0.00197331,234.615,250.646
2015-09-07 01:00,-0.00152506,277.24,273.732,253.86,276.468,273.359,255.027,-0.0,-0.0,234.827,250.748
2015-09-07 02:00,-0.0013212,286.271,285.208,260.337,287.951,284.922,259.977,-0.0,-0.0,234.968,251.452
2015-09-07 03:00,-0.00123727,268.986,266.293,249.669,269.021,267.339,251.814,-0.0,-0.0,236.071,250.544
2015-09-07 04:00,-0.00124034,265.791,265.243,249.029,267.185,266.16,252.594,-0.0,-0.0,234.897,250.238
2015-09-07 05:00,-0.0,279.859,276.336,255.16,278.427,275.551,255.406,-0.0,-0.0,237.785,251.949
2015-09-07 06:00,-0.00154713,286.271,285.208,260.337,288.087,285.208,260.461,-0.0,-0.0,233.456,251.751
2015-09-07 07:00,-0.0,279.081,276.463,255.277,280.054,277.091,257.158,-0.0,-0.0,231.236,250.032
2015-09-07 08:00,-0.00312433,280.613,279.58,257.346,281.799,278.911,257.9,-0.0,-0.0,240.134,253.974
2015-09-07 09:00,-0.0,270.989,270.607,252.045,272.741,270.96,254.264,-0.0,-0.0,242.042,254.536
2015-09-07 10:00,0.469406,279.473,275.694,254.808,278.873,276.938,257.406,0.457062,0.473893,242.71,256.36
2015-09-07 11:00,0.557175,293.587,288.736,262.576,291.16,288.306,262.017,0.25678,0.323972,243.039,256.628
2015-09-07 12:00,0.503386,299.203,290.86,263.618,292.86,288.999,262.373,0.236991,0.311053,243.74,257.508
2015-09-07 13:00,0.391707,302.085,293.539,265.254,295.297,290.921,263.083,0.177724,0.246949,244.111,258.028
2015-09-07 14:00,0.331332,303.674,293.742,265.355,294.788,289.964,262.373,0.163048,0.22014,245.456,259.051
2015-09-07 15:00,0.290401,305.339,295.045,266.557,296.182,290.921,263.083,0.143059,0.197229,244.635,258.286
2015-09-07 16:00,0.297801,304.239,293.031,265.355,294.149,289.551,262.492,0.177064,0.221811,244.531,257.682
2015-09-07 17:00,0.218484,299.579,290.86,263.825,291.948,287.609,261.66,0.178945,0.206156,244.058,256.716
2015-09-07 18:00,0.38115,261.666,240.514,234.681,238.693,238.282,234.134,0.513222,0.584818,228.224,232.347
2015-09-07 19:00,0.187275,267.761,245.463,238.963,241.815,241.027,237.525,0.283153,0.272344,224.258,232.508
2015-09-07 20:00,0.765168,270.434,208.223,220.736,207.702,206.513,209.201,0.949785,1.10248,208.274,208.027
2015-09-07 21:00,0.314973,243.066,224.95,228.004,224.384,223.332,221.415,0.412152,0.491429,220.57,223.167
2015-09-07 22:00,-0.00735357,238.442,236.576,233.175,236.441,235.435,230.931,-0.0,-0.0,227.329,233.146
2015-09-07 23:00,-0.200451,238.442,233.392,231.45,233.31,232.725,229.449,-0.0937268,-0.160081,226.027,230.863
2015-09-08 00:00,-0.00195442,259.505,252.853,241.5,252.667,251.156,240.646,-0.0,-0.0,229.517,240.835
2015-09-08 01:00,-0.00152508,213.142,208.223,220.298,207.702,207.274,209.638,-0.0,-0.0,207.891,207.326
2015-09-08 02:00,0.00264299,218.393,218.862,224.708,218.13,216.972,217.639,-0.0,-0.0,216.012,217.918
2015-09-08 03:00,-0.00123792,274.073,266.145,248.512,267.016,262.008,244.09,-0.0,-0.0,233.896,245.804
2015-09-08 04:00,-0.0,267.444,253.226,242.225,249.368,245.612,235.072,-0.0,-0.0,226.778,235.592
2015-09-08 05:00,-0.0,283.428,279.091,257.798,279.466,275.396,254.519,-0.0,-0.0,241.073,252.925
2015-09-08 06:00,-0.00155081,284.888,283.841,260.445,286.172,283.049,259.614,-0.0,-0.0,244.635,256.271
2015-09-08 07:00,-0.0,286.864,286.105,261.412,288.628,286.626,262.373,-0.0,-0.0,244.945,257.595
2015-09-08 08:00,-0.00314709,286.569,285.882,261.625,288.087,286.343,262.255,-0.0,-0.0,245.809,258.028
2015-09-08 09:00,-0.0,285.97,285.321,261.091,287.543,285.208,261.898,-0.0,-0.0,245.608,257.595
2015-09-08 10:00,0.601649,287.444,285.77,261.198,287.815,286.06,261.898,0.403687,0.446955,246.059,258.967
2015-09-08 11:00,0.533846,292.653,288.412,262.89,290.5,287.888,262.492,0.262932,0.380435,246.603,259.471
2015-09-08 12:00,0.472034,296.531,290.229,264.133,291.948,288.861,263.2,0.208047,0.326401,246.059,258.798
2015-09-08 13:00,0.389768,298.436,291.694,265.052,293.377,289.689,263.318,0.169882,0.273952,246.406,258.882
2015-09-08 14:00,0.325771,300.042,292.005,265.254,293.506,289.689,263.553,0.152841,0.233494,246.603,259.804
2015-09-08 15:00,0.334139,299.391,288.843,263.411,290.234,287.188,262.136,0.224995,0.272257,246.701,259.387
2015-09-08 16:00,0.292953,300.134,290.545,264.645,291.686,287.888,262.373,0.168714,0.225146,246.944,258.967
2015-09-08 17:00,0.336105,298.918,285.095,261.412,287.815,284.492,260.219,0.27855,0.333567,247.283,259.135
2015-09-08 18:00,0.361783,259.505,236.318,233.175,236.186,235.917,232.387,0.604134,0.674683,229.517,232.508
2015-09-08 19:00,0.429259,262.074,222.198,226.092,220.852,219.165,218.41,0.755153,0.855498,218.642,220.535
2015-09-08 20:00,0.792814,277.451,237.086,233.681,235.672,232.474,226.746,1.07592,1.27165,229.263,232.508
2015-09-08 21:00,1.25295,285.665,275.176,255.393,276.923,273.832,253.111,1.2417,1.68177,244.374,256.805
2015-09-08 22:00,-0.0,279.473,279.458,258.134,281.51,280.257,260.34,-0.0,-0.0,248.51,260.217
2015-09-08 23:00,-0.158568,285.97,282.916,260.011,284.22,281.882,260.461,-0.0835956,-0.151023,246.307,259.135
2015-09-09 00:00,-0.0,240.898,236.318,233.005,235.155,233.722,229.449,-0.0,-0.0,225.156,230.863
2015-09-09 01:00,-0.0,227.984,218.474,225.504,218.13,216.972,215.873,-0.0,-0.0,216.695,217.164
2015-09-09 02:00,-0.00132184,251.282,242.597,236.146,242.049,240.35,233.026,-0.0,-0.0,227.601,234.996
2015-09-09 03:00,-0.00123862,265.446,257.511,243.93,257.928,254.855,242.671,-0.0,-0.0,229.007,241.98
2015-09-09 04:00,-0.0,240.898,237.086,233.344,235.93,233.969,228.278,-0.0,-0.0,224.359,232.022
2015-09-09 05:00,-0.0,244.063,244.815,237.572,244.8,244.328,239.618,-0.0,-0.0,228.4,237.468
2015-09-09 06:00,-0.00155461,225.382,223.94,226.866,223.443,223.332,222.511,-0.0,-0.0,220.454,222.529
2015-09-09 07:00,-0.00201836,213.142,218.082,224.908,217.78,217.29,217.25,-0.0,-0.0,215.734,217.418
2015-09-09 08:00,-0.0,222.276,223.94,226.674,223.443,223.332,223.053,-0.0,-0.0,220.454,222.529
2015-09-09 09:00,0.00866682,246.775,246.733,237.884,247.662,246.666,237.373,-0.0,-0.00874968,231.787,241.98
2015-09-09 10:00,0.692403,258.576,243.94,237.101,244.575,244.112,238.428,1.17251,1.42024,230.511,239.121
2015-09-09 11:00,0.780288,283.428,247.769,238.963,249.579,249.348,241.664,0.888687,1.02825,234.543,243.698
2015-09-09 12:00,0.584552,289.113,253.963,242.513,255.244,254.664,245.905,0.823086,0.914394,233.603,244.881
2015-09-09 13:00,0.558049,290.558,247.973,239.721,248.946,247.708,240.646,0.544552,0.622861,232.481,241.602
2015-09-09 14:00,0.306214,254.966,226.902,229.118,226.82,226.974,226.746,0.733809,0.791289,222.04,224.61
2015-09-09 15:00,0.302858,257.605,232.839,231.274,232.502,231.459,228.446,0.67493,0.742543,224.86,230.183
2015-09-09 17:00,0.328116,254.396,223.597,227.438,223.758,222.753,221.782,0.644628,0.719865,219.503,222.313
2015-09-09 18:00,0.384296,254.966,221.841,226.092,221.511,220.685,221.046,0.75687,0.848474,219.26,220.535
2015-09-09 19:00,0.556953,268.382,237.339,234.183,236.441,234.216,229.781,0.593691,0.687725,224.46,231.031
2015-09-09 20:00,1.26749,296.114,255.941,244.07,257.928,257.115,245.767,1.11073,1.33184,234.401,247.371
2015-09-09 21:00,0.637271,269.865,262.141,247.991,265.31,264.623,250.633,0.575548,0.757739,232.481,248.562
2015-09-09 22:00,-0.0,257.605,255.764,244.21,258.116,256.928,245.905,-0.0,-0.0,235.525,247.699
2015-09-09 23:00,-0.185503,259.505,259.706,246.801,263.04,262.712,249.971,-0.083599,-0.141967,231.943,248.562
2015-09-10 00:00,0.0019542,257.605,254.145,243.509,255.439,254.089,244.372,-0.0,-0.0,228.488,243.457
2015-09-10 01:00,-0.0,257.605,256.294,244.903,259.051,258.408,247.415,-0.0,-0.0,231.315,246.707
2015-09-10 02:00,-0.00132224,256.062,256.294,244.488,258.491,257.301,246.319,-0.0,-0.00133488,234.185,247.699
2015-09-10 03:00,-0.00123937,254.396,247.973,240.171,247.878,244.973,236.0,-0.0,-0.0,226.871,238.578
2015-09-10 04:00,-0.0,257.103,258.025,245.314,260.524,260.405,249.037,-0.0,-0.0,232.709,248.455
2015-09-10 05:00,-0.0,249.89,248.583,239.721,249.579,247.708,238.428,-0.0,-0.0,228.312,241.093
2015-09-10 06:00,-0.0,237.078,234.745,231.973,235.414,234.706,230.768,-0.0,0.00157342,226.122,231.364
2015-09-10 07:00,-0.0,254.396,253.595,243.084,255.633,253.703,244.652,-0.0,-0.0,230.018,243.818
2015-09-10 08:00,0.00319461,254.966,253.595,242.513,256.98,255.045,244.09,-0.0,-0.0,235.178,246.483
2015-09-10 09:00,0.00887338,255.521,256.644,244.21,259.606,258.957,248.094,-0.0,-0.0,236.274,248.669
2015-09-10 10:00,0.532477,265.791,256.992,244.349,259.421,259.139,248.499,0.568068,0.591324,237.977,249.617
2015-09-10 11:00,0.734585,286.271,257.166,244.626,259.421,259.502,248.768,0.674044,0.786449,239.104,250.544
2015-09-10 12:00,0.659437,293.93,264.329,249.158,266.167,264.795,251.683,0.51872,0.584134,239.834,252.634
2015-09-10 13:00,0.584639,287.01,259.039,245.723,261.25,260.942,250.104,0.639793,0.718466,240.607,251.85
2015-09-10 14:00,0.573636,291.065,259.54,246.399,261.791,261.477,249.838,0.626668,0.694944,241.304,252.439
2015-09-10 15:00,0.382863,297.848,267.033,250.931,269.021,266.16,252.594,0.278808,0.32584,242.378,254.443
2015-09-10 16:00,0.523446,294.268,263.867,249.029,266.847,266.329,253.24,0.468749,0.531099,241.76,254.722
2015-09-10 17:00,0.317346,302.085,280.549,258.913,282.803,277.091,256.035,0.200323,0.256018,241.59,255.457
2015-09-10 18:00,0.225027,299.013,290.44,264.747,291.686,286.767,260.822,0.197587,0.217081,241.874,256.271
2015-09-10 19:00,0.245737,297.349,291.383,265.254,292.989,288.861,262.017,0.290542,0.286081,242.71,257.421
2015-09-10 20:00,0.283833,295.583,290.545,264.543,292.34,288.445,262.847,0.47752,0.424237,243.147,257.855
2015-09-10 21:00,0.563495,292.174,288.412,263.411,290.5,287.048,262.373,0.739521,0.782212,243.364,257.421
2015-09-10 22:00,-0.0147558,272.58,270.746,253.381,273.215,271.121,254.519,-0.0,-0.0,242.765,256.36
2015-09-10 23:00,-0.16457,282.753,278.721,257.459,279.318,275.861,257.282,-0.0734708,-0.123852,239.166,254.349
2015-09-11 00:00,-0.00195419,265.446,254.69,243.509,253.269,249.955,238.278,-0.0,-0.0,227.51,240.053
2015-09-11 01:00,-0.0,264.009,247.15,238.963,245.471,241.027,230.276,-0.0,-0.00154003,225.058,234.389
2015-09-11 02:00,-0.00132269,230.231,225.282,228.564,224.072,222.753,222.692,-0.0,-0.0,218.517,222.956
2015-09-11 03:00,-0.0,218.393,216.88,224.708,214.517,213.356,214.872,-0.0,-0.0,210.796,213.382
2015-09-11 04:00,-0.0,225.382,218.862,225.107,218.824,217.922,217.055,-0.0,-0.0,216.56,219.134
2015-09-11 05:00,-0.0,230.231,222.904,226.674,222.162,220.984,219.739,-0.0,-0.0,217.096,220.306
2015-09-11 06:00,-0.0,233.989,225.937,228.378,225.003,223.619,222.147,-0.0,-0.0,218.891,222.529
2015-09-11 07:00,-0.00203505,232.213,226.583,228.934,225.919,224.756,223.053,-0.0,-0.0,220.454,224.204
2015-09-11 08:00,0.00321939,227.984,222.198,226.481,220.519,218.857,218.025,-0.0,-0.0,215.873,218.895
2015-09-11 09:00,-0.00909195,259.505,256.469,243.93,256.98,255.614,244.512,-0.0,-0.0,228.048,244.056
2015-09-11 11:00,0.355048,275.02,259.373,245.587,258.491,254.281,240.646,0.400825,0.464268,226.311,240.706
2015-09-11 12:00,0.431134,294.491,286.992,262.576,288.763,285.208,260.34,0.220098,0.31364,231.236,251.751
2015-09-11 13:00,0.491053,301.037,277.224,256.205,278.873,275.551,256.41,0.366375,0.440118,231.63,252.342
2015-09-11 14:00,0.26758,256.589,236.318,233.005,236.695,235.677,230.768,0.47554,0.536056,226.592,232.508
2015-09-11 15:00,0.505327,292.053,242.824,237.101,243.209,240.802,234.134,0.467558,0.53251,227.87,235.592
2015-09-11 16:00,0.330957,300.134,280.909,259.244,281.799,275.24,253.24,0.210442,0.277333,229.769,249.617
2015-09-11 17:00,0.327839,273.088,246.102,238.81,243.895,241.251,233.503,0.376888,0.432262,222.799,233.304
2015-09-11 18:00,0.25277,300.317,293.235,266.657,295.043,290.648,263.083,0.205572,0.236719,233.382,254.722
2015-09-11 19:00,0.366673,300.042,280.549,258.913,281.655,275.396,251.422,0.37405,0.423698,230.835,248.882
2015-09-11 20:00,0.878846,301.39,264.482,249.029,264.965,258.957,244.932,0.815727,0.916946,231.394,243.698
2015-09-11 21:00,2.73295,294.491,260.201,247.2,260.706,255.235,241.664,1.89865,2.71663,232.633,244.412
2015-09-11 22:00,-0.0,288.977,286.772,262.155,288.087,284.636,260.701,-0.0,-0.0,234.543,253.405
2015-09-11 23:00,-0.134661,289.113,286.105,261.731,288.087,285.065,261.182,-0.0582757,-0.0966747,235.455,253.213
2015-09-12 00:00,-0.0,288.152,286.105,261.944,288.222,285.635,262.017,-0.0,-0.0,237.268,254.349
2015-09-12 01:00,-0.0,287.3,286.105,261.944,288.222,285.777,261.779,-0.0,-0.0,238.168,254.162
2015-09-12 02:00,-0.00132321,275.251,275.951,256.549,279.022,276.784,258.392,-0.0,-0.0,239.349,255.275
2015-09-12 03:00,-0.0,286.271,285.433,261.625,287.951,285.919,261.779,-0.0,-0.0,240.43,257.07
2015-09-12 04:00,-0.0,283.428,283.148,260.228,285.618,283.484,261.54,-0.0,-0.0,241.189,257.595
2015-09-12 05:00,-0.0,285.357,284.869,261.091,286.997,285.208,261.898,-0.0,-0.0,240.724,257.682
2015-09-12 06:00,0.0015667,285.97,285.321,261.412,288.087,286.485,262.492,-0.0,-0.0,240.957,257.682
2015-09-12 07:00,0.00204372,285.818,285.546,261.198,288.222,286.485,262.965,-0.0,-0.0,241.189,257.508
2015-09-12 08:00,-0.0,285.357,285.433,261.519,287.951,286.343,262.373,-0.0,0.00327587,240.489,257.421
2015-09-12 09:00,-0.0,285.357,285.095,260.984,287.543,285.635,262.017,-0.0,-0.0,241.015,257.769
2015-09-12 10:00,0.370849,286.421,285.546,261.305,287.815,285.635,262.255,0.356429,0.364275,240.782,257.769
2015-09-12 11:00,0.502021,290.813,286.55,261.838,288.493,286.202,262.136,0.25787,0.33788,241.189,258.286
2015-09-12 12:00,0.503948,295.476,286.882,262.049,288.628,286.06,262.61,0.263127,0.326458,241.304,257.855
2015-09-12 13:00,0.559661,301.826,272.796,254.217,276.163,274.304,256.66,0.461574,0.532446,241.647,256.982
2015-09-12 14:00,0.319299,298.63,288.736,263.411,289.968,286.06,261.66,0.17514,0.231252,242.211,257.508
2015-09-12 15:00,0.294679,299.297,286.882,262.261,287.134,283.339,261.54,0.19125,0.233279,242.099,257.855
2015-09-12 16:00,0.249146,300.498,291.383,264.95,292.209,287.609,262.492,0.142475,0.188316,242.6,258.372
2015-09-12 17:00,0.241032,300.317,291.902,265.355,292.989,288.999,262.965,0.15873,0.199222,242.82,258.372
2015-09-12 18:00,0.3086,299.108,289.272,263.825,291.029,287.609,263.083,0.272529,0.29815,242.71,257.855
2015-09-12 19:00,0.317378,298.045,289.379,263.825,290.897,287.329,262.61,0.360164,0.351563,242.655,258.2
2015-09-12 20:00,0.458554,296.943,288.843,263.307,290.632,287.329,262.492,0.627423,0.596263,242.984,258.628
2015-09-12 21:00,0.488062,283.093,276.591,256.549,279.318,276.323,257.53,0.484083,0.563117,242.82,257.07
2015-09-12 22:00,-0.0,266.131,265.995,249.414,267.016,265.48,251.944,-0.0,-0.0,240.193,253.117
2015-09-12 23:00,-0.104751,232.213,227.845,228.564,227.118,226.701,224.834,-0.0456132,-0.0846017,222.259,224.811
2015-09-13 00:00,-0.00195439,267.761,257.166,243.65,257.361,253.51,238.428,-0.0,-0.0,233.456,242.848
2015-09-13 01:00,-0.0,287.3,285.994,261.944,288.222,286.06,262.017,-0.0,-0.0,243.093,258.882
2015-09-13 02:00,-0.0,286.717,285.77,261.625,288.087,285.919,262.492,-0.0,-0.0,243.31,258.882
2015-09-13 03:00,-0.0,286.421,285.658,261.412,288.087,285.777,262.61,-0.0,-0.0,243.472,258.713
2015-09-13 04:00,-0.00124821,286.569,285.77,261.412,288.222,286.343,262.847,-0.0,-0.0,242.322,258.882
2015-09-13 05:00,-0.0,286.121,285.208,260.984,287.679,285.635,261.898,-0.0,-0.0,242.322,258.628
2015-09-13 06:00,-0.00157096,285.202,284.528,260.661,286.86,284.922,261.54,-0.0,-0.0,242.211,257.942
2015-09-13 07:00,-0.0,282.059,283.38,260.011,286.172,284.205,261.421,-0.0,-0.0,241.93,257.508
2015-09-13 08:00,-0.0,281.883,283.611,260.337,286.86,285.065,261.421,-0.0,-0.0,240.957,257.07
2015-09-13 09:00,0.00956878,280.05,282.682,259.902,286.172,284.492,261.779,-0.0,-0.0,241.647,257.333
2015-09-13 10:00,0.671701,283.924,282.799,259.574,286.31,285.065,261.898,0.560486,0.55036,241.361,257.421
2015-09-13 11:00,0.761963,292.653,283.264,259.793,286.722,285.35,262.136,0.485267,0.52175,241.361,257.246
2015-09-13 13:00,0.377218,296.008,288.195,262.786,290.5,287.609,262.61,0.18212,0.260905,239.349,256.982
2015-09-13 14:00,0.312546,298.822,291.902,265.052,293.764,290.101,263.318,0.132316,0.209425,239.288,257.246
2015-09-13 15:00,0.270439,300.589,293.641,266.059,295.55,291.193,264.022,0.115038,0.184193,238.671,256.894
2015-09-13 16:00,0.249752,301.478,294.245,266.557,296.056,292.006,264.138,0.110138,0.170719,237.849,257.158
2015-09-13 17:00,0.236217,301.125,294.346,266.657,296.182,292.006,264.138,0.120241,0.171759,237.657,257.421
2015-09-13 18:00,0.225133,299.858,293.539,266.259,295.55,291.6,263.436,0.161186,0.197203,237.398,257.246
2015-09-13 19:00,0.230923,298.242,293.539,266.159,295.803,292.276,264.488,0.245799,0.257553,238.357,257.595
2015-09-13 20:00,0.267171,295.796,292.314,265.355,294.916,291.735,264.255,0.449328,0.413825,238.168,257.333
2015-09-13 21:00,0.457895,292.414,290.756,264.339,293.635,291.329,263.787,0.822392,0.88252,238.357,257.508
2015-09-13 22:00,-0.00740332,289.779,288.951,263.515,292.079,290.101,263.905,-0.0,-0.0,238.857,257.855
2015-09-13 23:00,-0.0808217,289.514,289.165,263.307,292.209,290.375,264.721,-0.0329485,-0.0574182,239.471,258.543
2015-09-14 00:00,-0.0,288.705,288.412,262.89,291.423,289.826,263.905,-0.0,-0.0,238.795,258.114
2015-09-14 01:00,-0.00152638,287.587,287.869,262.786,290.764,289.413,264.837,-0.0,-0.0,237.849,257.595
2015-09-14 02:00,-0.00132441,286.717,287.102,262.261,289.968,288.584,263.787,-0.0,-0.0,237.398,257.158
2015-09-14 03:00,-0.0,286.121,286.661,262.155,289.701,288.027,264.022,-0.0,-0.0,237.398,257.421
2015-09-14 04:00,-0.0,285.665,286.439,261.838,289.3,288.167,263.905,-0.0,-0.0,238.041,257.769
2015-09-14 05:00,-0.0,285.202,285.77,261.519,288.763,287.748,263.67,-0.0,-0.0,239.104,258.114
2015-09-14 06:00,-0.0,284.57,285.433,261.305,288.358,287.329,263.787,-0.0,-0.0,239.104,257.942
2015-09-14 07:00,-0.0,284.41,284.755,260.769,287.134,285.635,261.54,-0.0,-0.0,238.168,257.333
2015-09-14 08:00,-0.0,284.087,284.755,260.553,287.27,285.919,262.255,-0.0,-0.0,238.168,257.682
2015-09-14 09:00,0.00982913,284.249,284.755,260.553,287.407,286.202,262.255,-0.0,-0.0,238.42,257.769
2015-09-14 10:00,0.454172,286.121,285.658,261.198,288.222,286.907,262.847,0.34449,0.382095,238.981,258.286
2015-09-14 11:00,0.550978,291.44,287.978,262.576,290.632,289.137,264.022,0.244363,0.37083,238.733,258.114
2015-09-14 12:00,0.483043,296.219,290.86,264.543,293.506,291.057,264.138,0.194841,0.311852,238.357,257.769
2015-09-14 13:00,0.383429,299.579,293.742,266.557,296.559,293.483,265.301,0.151503,0.251612,239.471,258.457
2015-09-14 14:00,0.321007,302.341,295.837,267.74,298.549,294.944,265.185,0.124816,0.211414,239.166,257.855
2015-09-14 15:00,0.277319,303.917,297.107,268.615,300.02,296.127,265.301,0.111396,0.183608,240.074,258.457
2015-09-14 16:00,0.255551,304.319,297.397,268.807,299.776,295.865,265.416,0.109835,0.174179,240.014,258.2
2015-09-14 17:00,0.242655,303.51,296.033,268.033,298.055,293.617,264.953,0.130636,0.182669,240.371,258.2
2015-09-14 18:00,0.269231,300.769,292.929,266.259,294.661,290.921,264.022,0.20698,0.245124,240.014,257.855
2015-09-14 19:00,0.320414,283.594,268.199,251.799,269.679,268.505,254.646,0.449678,0.456412,239.227,252.634
2015-09-14 20:00,0.74856,298.726,276.718,256.089,278.278,276.015,257.282,0.692547,0.781521,240.134,255.639
2015-09-14 21:00,0.386619,292.294,290.123,264.543,292.6,289.964,263.905,0.607936,0.655172,241.361,258.882
2015-09-14 22:00,-0.00741236,289.381,289.058,263.721,291.555,289.413,264.138,-0.0,-0.0,241.93,259.804
2015-09-14 23:00,-0.0628748,289.514,288.843,263.411,291.555,289.413,264.022,-0.0228154,-0.0392946,242.433,260.052
2015-09-15 00:00,0.00195491,288.291,288.628,263.307,291.292,289.689,264.372,-0.0,-0.0,243.093,260.463
2015-09-15 01:00,-0.0,285.97,285.658,261.838,288.628,286.485,262.847,-0.0,-0.0,242.82,259.721
2015-09-15 02:00,-0.0013251,287.444,287.651,262.995,290.5,288.861,264.372,-0.0,-0.0,243.202,260.217
2015-09-15 03:00,-0.00124403,287.444,287.76,262.786,290.5,288.861,264.255,-0.0,-0.0,243.256,260.052
2015-09-15 04:00,-0.0,286.864,287.76,262.786,290.632,289.413,264.255,-0.0,-0.0,244.269,260.871
2015-09-15 05:00,-0.00134979,286.271,287.212,262.576,289.835,288.445,263.787,-0.0,-0.0,243.74,260.299
2015-09-15 06:00,-0.0,286.421,287.212,262.471,290.101,288.722,264.372,-0.0,-0.0,243.633,261.194
2015-09-15 07:00,-0.002071,286.271,287.212,262.471,290.101,288.861,264.488,-0.0,-0.0,243.793,261.914
2015-09-15 08:00,-0.00332547,286.421,287.322,262.471,290.234,289.413,264.488,-0.0,-0.0,243.147,261.355
2015-09-15 09:00,-0.0,285.97,286.992,262.261,289.835,288.722,264.372,-0.0,-0.0,243.846,260.871
2015-09-15 10:00,0.487775,288.012,287.432,262.471,290.101,288.445,263.318,0.327282,0.390234,244.374,260.463
2015-09-15 11:00,0.581222,294.043,289.805,264.441,292.34,289.826,263.905,0.239187,0.373702,244.894,259.887
2015-09-15 12:00,0.475891,298.918,292.827,265.859,294.916,291.6,264.138,0.186641,0.307814,245.658,260.299
2015-09-15 13:00,0.36892,301.826,294.846,267.052,296.935,292.679,264.372,0.141372,0.240806,246.159,260.463
2015-09-15 14:00,0.304708,303.917,296.425,268.033,298.178,293.483,264.605,0.115052,0.198152,246.258,260.627
2015-09-15 15:00,0.263591,303.917,296.425,268.324,297.931,293.35,264.605,0.101249,0.175244,246.701,260.952
2015-09-15 16:00,0.239335,304.159,296.425,268.324,298.055,293.483,264.138,0.0974886,0.160647,246.208,260.871
2015-09-15 17:00,0.225283,303.51,296.523,268.13,298.055,293.883,264.837,0.105444,0.162455,246.258,260.463
2015-09-15 18:00,0.225794,301.826,294.945,267.544,296.559,292.141,264.022,0.14792,0.191347,245.859,259.887
2015-09-15 19:00,0.240907,299.858,294.044,267.151,295.677,291.464,264.138,0.244771,0.260898,246.406,260.135
2015-09-15 20:00,0.324255,298.339,292.929,266.358,294.533,290.648,263.905,0.490481,0.470802,247.186,260.708
2015-09-15 21:00,0.563384,294.602,291.279,265.254,293.377,290.375,264.255,0.837688,0.943326,247.138,261.194
2015-09-15 22:00,-0.00742179,290.939,290.017,264.747,292.47,289.826,263.436,-0.0,-0.0,247.57,261.435
2015-09-15 23:00,-0.0419275,290.301,289.165,264.133,291.292,288.861,263.553,-0.01775,-0.0211641,247.712,261.435
2015-09-16 00:00,0.0019553,289.514,288.736,264.031,291.029,288.584,263.318,-0.0,-0.0,247.996,261.515
2015-09-16 01:00,-0.00305468,287.729,286.55,262.786,288.897,285.919,261.779,-0.0,-0.0,247.76,260.952
2015-09-16 02:00,-0.00265172,279.667,278.968,258.802,281.221,279.361,259.127,-0.0,0.00133854,246.554,260.299
2015-09-16 03:00,-0.0,275.48,275.436,256.089,277.528,276.169,258.023,-0.0,-0.0,247.041,259.554
2015-09-16 04:00,-0.0,269.576,271.299,253.86,273.215,272.405,256.535,-0.0,-0.0,248.557,259.97
2015-09-16 05:00,-0.0,270.151,271.848,254.099,274.0,273.517,257.53,-0.0,-0.0,248.649,260.627
2015-09-16 06:00,0.00158442,271.798,274.129,255.51,276.163,275.551,258.76,-0.0,-0.0,248.557,261.033
2015-09-16 07:00,0.00208052,275.932,276.718,256.892,278.873,277.243,259.492,-0.0,-0.0,248.51,261.675
2015-09-16 08:00,-0.0,280.239,281.267,259.683,283.514,281.735,260.822,-0.0,-0.0,248.741,261.993
2015-09-16 09:00,-0.0103998,282.923,283.38,260.876,286.033,284.061,261.301,-0.0,-0.0,248.557,261.834
2015-09-16 10:00,0.922676,283.76,278.474,257.572,280.493,279.661,259.492,0.87983,1.00385,248.277,261.834
2015-09-16 11:00,0.594802,295.151,286.882,263.099,288.087,284.636,261.779,0.334838,0.428456,247.712,261.914
2015-09-16 12:00,0.581443,299.765,283.495,261.091,285.201,282.467,260.219,0.367496,0.46092,246.554,260.135
2015-09-16 13:00,0.352973,300.769,291.694,266.358,291.948,287.609,262.136,0.168863,0.255675,245.759,259.304
2015-09-16 14:00,0.314523,303.51,292.211,266.259,292.34,287.329,261.421,0.137784,0.216748,245.658,258.457
2015-09-16 15:00,0.279441,303.098,291.902,265.859,291.817,287.188,262.017,0.136752,0.197996,245.658,258.286
2015-09-16 16:00,0.279986,302.256,286.439,263.411,287.543,282.904,260.822,0.166054,0.21102,245.91,258.628
2015-09-16 17:00,0.314096,297.649,282.682,260.553,283.797,280.998,259.977,0.260035,0.300187,245.557,258.372
2015-09-16 18:00,0.108544,296.219,290.86,265.355,291.686,287.329,262.136,0.128109,0.144449,240.43,256.091
2015-09-16 19:00,0.316914,282.923,269.626,251.676,269.842,267.339,251.159,0.423777,0.503084,238.42,249.928
2015-09-16 20:00,0.668891,271.531,255.587,244.07,256.021,255.235,245.211,0.784885,0.906497,239.653,247.371
2015-09-16 21:00,1.43589,290.429,281.029,258.802,281.943,278.156,257.282,1.12313,1.60148,241.304,254.068
2015-09-16 22:00,-0.00743168,267.444,268.054,251.305,270.819,269.329,254.009,-0.0,-0.0,242.155,254.068
2015-09-16 23:00,-0.035949,289.247,287.651,263.099,290.101,287.188,262.255,-0.015219,-0.0151219,242.71,255.639
2015-09-17 00:00,-0.0,272.322,270.049,252.899,271.625,269.329,253.24,-0.0,-0.0,241.533,254.068
2015-09-17 01:00,-0.0,288.012,287.322,263.307,290.101,287.609,262.492,-0.0,-0.0,242.82,256.45
2015-09-17 02:00,-0.00132668,287.444,287.102,263.099,289.434,287.188,261.898,-0.0,-0.0,241.304,256.805
2015-09-17 03:00,-0.00124633,286.864,287.322,263.203,290.101,288.306,263.436,-0.0,-0.0,239.834,257.333
2015-09-17 04:00,-0.0,286.864,287.322,263.307,289.968,288.722,263.905,-0.0,-0.0,241.304,258.543
2015-09-17 05:00,-0.0,286.569,287.322,263.099,289.968,288.584,263.905,-0.0,-0.0,242.6,259.051
2015-09-17 06:00,-0.0,285.818,286.992,262.89,289.701,288.306,263.787,-0.0,-0.0,244.426,260.052
2015-09-17 07:00,-0.0,286.271,286.992,262.366,289.701,288.445,264.022,-0.0,-0.0,243.793,259.97
2015-09-17 08:00,-0.00338278,285.97,286.992,262.681,289.701,288.584,263.436,-0.0,-0.0,243.953,260.381
2015-09-17 09:00,-0.0,285.665,286.882,262.786,289.701,288.722,264.372,-0.0,-0.0,244.058,260.135
2015-09-17 10:00,0.479887,288.291,287.76,263.515,290.5,289.137,264.605,0.325056,0.405197,243.418,259.97
2015-09-17 11:00,0.57629,295.26,291.591,265.355,293.892,291.735,265.069,0.24532,0.417866,243.093,260.299
2015-09-17 12:00,0.494443,300.947,295.144,267.544,297.184,294.016,265.185,0.191233,0.338942,243.093,259.97
2015-09-17 13:00,0.374998,303.755,297.397,269.192,299.654,295.865,265.301,0.141412,0.259281,243.093,259.721
2015-09-17 14:00,0.318826,306.251,299.307,270.334,301.592,297.3,266.222,0.115363,0.213207,244.583,259.97
2015-09-17 15:00,0.356543,303.674,289.165,264.441,292.209,288.584,262.728,0.231553,0.307055,245.507,260.627
2015-09-17 16:00,0.268957,305.798,297.3,269.288,299.041,294.812,265.416,0.118766,0.18968,245.608,260.627
2015-09-17 17:00,0.277159,305.339,296.425,268.904,298.918,294.812,265.301,0.132075,0.202474,245.304,260.627
2015-09-17 18:00,0.242893,303.755,296.718,268.807,298.549,294.547,264.721,0.129231,0.188882,245.709,260.627
2015-09-17 19:00,0.24212,301.478,296.718,268.807,299.041,295.208,265.993,0.162524,0.2092,245.557,260.381
2015-09-17 20:00,0.272053,298.436,295.343,268.227,297.931,294.812,265.878,0.270274,0.28564,245.507,260.545
2015-09-17 21:00,0.394683,293.816,292.725,266.557,295.55,293.216,265.993,0.587691,0.577074,246.208,261.275
2015-09-17 22:00,-0.00744211,290.813,290.965,265.859,293.764,292.276,265.878,-0.0,-0.0,246.258,261.194
2015-09-17 23:00,-0.0419558,290.301,290.44,265.153,293.377,291.871,265.532,-0.017762,-0.0151275,246.406,261.435
2015-09-18 00:00,-0.00195638,289.113,289.699,264.543,292.47,291.193,265.647,-0.0,-0.0,246.798,261.515
2015-09-18 01:00,-0.0,288.705,289.379,264.543,292.209,290.784,265.301,-0.0,-0.0,247.331,261.834
2015-09-18 02:00,-0.0,288.152,288.628,264.236,291.423,290.101,265.301,-0.0,-0.0,247.283,261.993
2015-09-18 03:00,-0.0,287.3,288.087,263.515,290.764,289.689,264.721,-0.0,-0.0,247.617,261.914
2015-09-18 04:00,-0.0,286.717,287.869,263.618,290.367,289.551,264.721,-0.0,-0.0,247.617,261.834
2015-09-18 05:00,-0.0,286.421,287.322,263.307,289.701,288.861,264.255,-0.0,-0.0,247.283,261.834
2015-09-18 06:00,-0.0,286.421,287.102,263.099,289.568,288.584,264.488,-0.0,-0.0,247.186,262.23
2015-09-18 07:00,-0.0,285.202,286.439,262.995,289.032,287.888,263.905,-0.0,-0.0,247.426,261.993
2015-09-18 08:00,-0.0,285.357,286.328,262.576,288.763,287.748,263.67,-0.0,-0.0,247.283,261.914
2015-09-18 09:00,-0.0,285.045,285.994,262.366,288.222,287.188,263.787,-0.0,-0.0,247.234,261.914
2015-09-18 10:00,0.49324,287.587,287.212,262.995,289.434,288.167,263.67,0.33122,0.420686,247.283,261.914
2015-09-18 11:00,0.583373,295.26,291.591,265.658,293.892,292.006,265.416,0.245636,0.413857,246.847,261.914
2015-09-18 12:00,0.491437,300.858,295.244,268.033,297.931,295.208,265.993,0.191782,0.338924,246.505,261.834
2015-09-18 13:00,0.373308,303.592,298.071,269.765,300.627,297.17,265.993,0.146087,0.259697,246.406,262.072
2015-09-18 14:00,0.304103,305.95,300.06,270.617,302.669,298.591,267.705,0.113798,0.215181,246.009,261.834
2015-09-18 15:00,0.300687,306.326,295.244,267.74,297.558,293.483,265.416,0.155344,0.228957,246.505,261.914
2015-09-18 16:00,0.296502,304.715,292.314,266.259,294.533,290.921,264.138,0.17932,0.244912,246.258,262.072
2015-09-18 17:00,0.233452,304.95,297.397,269.288,299.409,295.996,266.222,0.12354,0.183778,246.307,262.623
2015-09-18 18:00,0.286615,302.085,293.133,266.259,295.17,291.6,264.488,0.188594,0.254632,245.759,261.595
2015-09-18 19:00,0.348318,299.297,289.272,264.133,291.555,288.861,263.2,0.282018,0.342857,244.894,260.952
2015-09-18 20:00,0.27871,299.672,295.935,268.13,298.795,295.865,266.452,0.291148,0.321571,244.739,261.435
2015-09-18 21:00,0.460521,294.713,293.031,266.557,295.803,293.883,265.647,0.630756,0.656362,245.253,261.755
2015-09-18 22:00,-0.0,291.065,291.591,265.355,294.277,292.814,266.108,-0.0,-0.0,245.809,261.755
2015-09-18 23:00,-0.0569641,290.171,290.545,264.747,293.119,291.871,265.416,-0.0177695,-0.0181606,246.208,261.993
2015-09-19 00:00,-0.00195707,288.705,289.699,264.133,292.079,290.784,264.605,-0.0,-0.0,245.709,261.515
2015-09-19 01:00,-0.0,288.705,289.165,263.928,291.817,290.511,265.301,-0.0,-0.0,245.507,261.355
2015-09-19 02:00,-0.00132853,286.421,286.992,262.681,289.568,288.167,264.022,-0.0,0.00134123,246.258,261.755
2015-09-19 03:00,-0.0,287.3,288.412,263.515,291.16,290.648,265.647,-0.0,-0.0,246.896,262.309
2015-09-19 04:00,-0.0,284.73,285.095,261.412,287.543,286.202,262.965,-0.0,-0.0,247.186,261.435
2015-09-19 05:00,-0.00136084,279.081,279.336,257.459,281.366,280.257,260.461,-0.0,-0.0,247.186,259.97
2015-09-19 06:00,0.0015989,284.087,284.414,260.769,286.997,285.919,262.965,-0.0,-0.0,247.617,260.789
2015-09-19 07:00,0.00211035,285.97,286.661,262.155,289.434,288.861,265.069,-0.0,0.00213052,246.993,261.435
2015-09-19 08:00,-0.0,286.421,287.541,262.261,290.101,289.964,265.532,-0.0,-0.0,247.996,262.466
2015-09-19 09:00,-0.0,287.729,288.628,262.995,291.423,290.784,265.185,-0.0096549,-0.011512,248.324,262.701
2015-09-19 10:00,0.530818,290.041,290.017,263.721,292.73,292.006,265.762,0.316014,0.477279,248.695,262.701
2015-09-19 11:00,0.615328,297.848,294.446,266.259,297.558,296.127,267.137,0.248598,0.460389,248.649,262.388
2015-09-19 12:00,0.506576,303.428,299.213,269.67,302.55,300.125,267.932,0.192332,0.371388,248.741,263.012
2015-09-19 13:00,0.396632,305.569,301.452,270.899,305.144,302.893,269.618,0.144115,0.283765,248.787,263.244
2015-09-19 14:00,0.332785,307.427,303.274,272.2,306.997,304.873,270.064,0.115686,0.233538,249.154,263.858
2015-09-19 15:00,0.292177,308.211,304.171,272.751,308.255,305.853,270.619,0.096803,0.198784,249.426,264.314
2015-09-19 16:00,0.261183,308.211,304.616,273.025,308.596,306.219,271.172,0.0878068,0.180957,249.561,264.989
2015-09-19 17:00,0.235706,307.499,303.992,272.292,308.027,305.241,270.175,0.0821765,0.17217,250.23,265.063
2015-09-19 18:00,0.241906,305.798,301.911,270.711,305.61,302.893,269.395,0.102411,0.186464,250.538,264.839
2015-09-19 19:00,0.252045,303.264,300.34,269.765,303.618,301.39,268.497,0.139818,0.21497,250.582,264.765
2015-09-19 20:00,0.270897,299.579,297.879,268.227,301.352,299.36,268.609,0.235485,0.291719,250.756,264.914
2015-09-19 21:00,0.417875,294.156,293.641,265.557,296.809,295.471,267.137,0.525015,0.585175,250.625,264.615
2015-09-19 22:00,-0.0,290.301,290.965,264.031,293.764,292.948,267.023,-0.0,-0.0,250.582,264.314
2015-09-19 23:00,-0.107984,289.381,290.017,263.411,292.73,292.006,266.222,-0.0203178,-0.0211976,250.669,264.54
2015-09-20 00:00,-0.0,287.871,289.379,262.89,292.079,291.871,266.795,-0.0,-0.0,250.756,264.989
2015-09-20 01:00,-0.00153016,287.3,288.843,262.681,291.423,291.6,266.452,-0.0,-0.0,250.93,265.728
2015-09-20 02:00,-0.0,286.717,288.412,262.366,290.764,290.921,266.452,-0.0,-0.0,250.8,265.507
2015-09-20 03:00,-0.00125025,286.421,288.087,262.049,290.367,290.375,266.681,-0.0,-0.0,250.669,265.434
2015-09-20 04:00,-0.0,285.512,287.322,261.519,289.568,289.689,265.301,-0.0,0.00127245,250.142,265.212
2015-09-20 05:00,-0.0,284.888,286.661,261.305,288.763,288.722,265.416,-0.0,-0.0,249.919,265.137
2015-09-20 06:00,0.00160394,284.249,285.77,260.876,288.087,288.445,265.647,-0.0,-0.0,249.108,264.839
2015-09-20 07:00,-0.0021207,284.249,285.882,260.661,288.222,288.306,265.185,-0.0,-0.0,248.603,264.314
2015-09-20 08:00,-0.0,284.087,285.546,260.553,287.815,287.888,265.069,-0.0,-0.0,248.51,263.629
2015-09-20 09:00,-0.011784,283.76,285.433,260.445,287.679,287.888,265.185,-0.0,-0.0,248.137,263.399
2015-09-20 10:00,0.542315,287.587,287.541,261.838,290.234,289.826,265.185,0.315256,0.506641,247.855,263.476
2015-09-20 11:00,0.615763,296.323,293.133,265.254,296.307,295.076,266.909,0.251513,0.481076,247.522,263.322
2015-09-20 12:00,0.509565,302.511,298.167,268.227,301.712,299.998,268.722,0.194575,0.377253,247.902,263.322
2015-09-20 13:00,0.393337,306.251,301.911,270.711,305.726,303.639,270.286,0.143483,0.288798,248.417,263.782
2015-09-20 14:00,0.328926,308.838,304.26,272.384,308.368,305.853,270.175,0.115281,0.234082,248.557,264.01
2015-09-20 15:00,0.290061,309.385,304.616,272.568,308.596,305.731,270.508,0.0986666,0.202042,248.787,263.934
2015-09-20 16:00,0.26181,309.044,304.616,272.384,308.596,305.853,270.619,0.0886696,0.181796,249.017,264.615
2015-09-20 17:00,0.243491,308.07,304.349,272.292,308.368,305.853,271.061,0.0890253,0.177381,248.925,265.137
2015-09-20 18:00,0.239797,306.025,303.093,271.366,306.997,304.75,270.951,0.100827,0.184449,248.787,265.36
2015-09-20 19:00,0.260244,302.848,301.175,270.05,304.676,302.769,269.841,0.14139,0.223322,248.925,265.507
2015-09-20 20:00,0.27754,299.485,297.975,268.227,301.352,299.488,269.059,0.2472,0.298388,248.603,264.914
2015-09-20 21:00,0.335373,292.771,293.336,265.456,296.433,295.471,267.365,0.465694,0.487554,248.231,265.137
2015-09-20 22:00,-0.00747736,289.514,290.86,263.721,293.506,292.814,266.108,-0.0,-0.0,248.231,265.36
2015-09-20 23:00,-0.216087,288.841,289.699,263.099,292.209,291.735,267.023,-0.0203289,-0.0212093,248.09,264.765
2015-09-21 00:00,-0.0,287.871,288.951,262.681,291.555,291.057,265.532,-0.0,-0.0,248.043,265.063
2015-09-21 01:00,-0.00153106,287.587,288.951,262.471,291.292,291.057,265.762,-0.0,-0.0,248.371,265.063
2015-09-21 02:00,-0.0,287.444,288.736,262.366,291.16,290.784,266.337,-0.0,-0.0,248.649,265.137
2015-09-21 03:00,-0.0,287.155,288.195,262.366,290.764,290.511,266.222,-0.0,-0.0,248.741,265.286
2015-09-21 04:00,-0.00126241,286.271,287.76,261.944,290.101,289.964,265.532,-0.0,-0.0,248.464,265.063
2015-09-21 05:00,-0.0,286.271,287.651,261.625,289.835,289.689,265.416,-0.0,-0.0,248.51,264.765
2015-09-21 06:00,-0.0,285.97,287.102,261.412,289.3,289.413,265.416,-0.0,-0.0,248.464,264.615
2015-09-21 07:00,-0.00213126,285.512,286.55,261.198,288.763,288.584,265.301,-0.0,-0.0,248.371,264.162
2015-09-21 08:00,0.00350616,284.888,286.105,260.876,288.358,288.167,264.605,-0.0,-0.0,248.231,263.858
2015-09-21 09:00,0.0121919,284.41,285.77,260.553,287.951,288.027,265.069,-0.0,-0.0123085,248.603,263.934
2015-09-21 10:00,0.513772,287.155,287.432,261.412,289.568,289.551,265.647,0.341315,0.446866,248.695,264.464
2015-09-21 11:00,0.582493,295.151,292.005,263.928,295.043,294.016,267.251,0.241406,0.402358,248.787,264.314
2015-09-21 12:00,0.476781,300.679,296.229,266.557,299.776,298.334,267.819,0.188389,0.330921,248.925,264.464
2015-09-21 13:00,0.37151,304.398,300.153,269.0,303.972,301.642,269.171,0.149415,0.270357,249.062,264.314
2015-09-21 14:00,0.306299,306.845,301.636,269.67,305.377,302.519,269.059,0.127396,0.22107,248.925,264.314
2015-09-21 15:00,0.279127,307.427,300.433,269.0,303.854,300.252,267.819,0.12405,0.206565,249.199,264.01
2015-09-21 16:00,0.263718,306.251,299.024,268.227,301.472,298.848,268.271,0.141309,0.199358,249.29,264.086
2015-09-21 17:00,0.234686,306.623,302.003,269.765,305.842,303.142,269.618,0.120394,0.18815,249.29,264.765
2015-09-21 18:00,0.224679,304.398,300.898,269.0,304.559,302.018,269.618,0.14888,0.200528,249.108,264.615
2015-09-21 19:00,0.238115,301.999,299.024,267.935,302.669,300.252,268.834,0.234602,0.262245,248.925,264.389
2015-09-21 20:00,0.269772,298.63,296.621,266.557,300.02,298.205,268.158,0.414194,0.392185,248.51,264.086
2015-09-21 21:00,0.413842,294.823,292.827,264.133,295.803,294.415,266.108,0.700799,0.741256,248.324,264.314
2015-09-21 22:00,-0.00749068,290.939,290.965,263.099,293.764,292.814,266.795,-0.0,-0.0,248.277,264.01
2015-09-21 23:00,-0.102104,290.171,289.805,262.471,292.6,291.735,266.108,-0.0254269,-0.0272859,248.184,263.858
2015-09-22 00:00,-0.0,288.152,288.843,262.261,291.423,290.921,265.647,-0.0,-0.0,247.996,263.629
2015-09-22 01:00,-0.0,287.3,288.303,261.838,290.764,289.964,265.647,-0.0,-0.0,247.234,263.167
2015-09-22 02:00,-0.00133182,287.155,287.869,261.944,290.367,289.964,265.301,-0.0,-0.0,246.847,262.779
2015-09-22 03:00,-0.00125319,286.569,287.541,261.838,289.968,289.413,264.953,-0.0,-0.0,246.554,263.012
2015-09-22 04:00,-0.0,285.97,287.102,261.625,289.568,288.999,265.532,-0.0,-0.0,246.603,262.701
2015-09-22 05:00,-0.0,285.818,286.772,260.984,289.032,288.861,265.301,-0.0,-0.0,246.505,262.623
2015-09-22 06:00,0.00161436,285.045,286.328,261.198,288.628,288.445,265.185,-0.0,-0.0,246.603,262.701
2015-09-22 07:00,-0.0,285.045,285.77,260.769,288.222,288.167,264.837,-0.0,-0.0,246.603,262.857
2015-09-22 08:00,-0.0,285.045,286.217,260.553,288.628,288.027,264.953,-0.0,-0.0,246.406,262.623
2015-09-22 09:00,-0.0,285.045,285.882,260.228,288.222,287.888,264.837,-0.0,-0.0,246.406,262.388
2015-09-22 10:00,0.525181,287.729,287.432,261.198,289.701,289.276,265.069,0.320424,0.444434,246.258,262.466
2015-09-22 11:00,0.571122,295.26,291.798,263.825,294.661,293.082,265.878,0.244356,0.414035,246.896,262.545
2015-09-22 12:00,0.45625,299.297,289.379,262.995,292.209,287.469,262.61,0.289312,0.410762,246.798,261.275
2015-09-22 13:00,0.369925,304.398,299.213,268.033,303.144,300.632,269.283,0.148777,0.264535,247.138,263.782
2015-09-22 14:00,0.313294,306.475,301.36,269.479,305.61,303.142,269.395,0.125831,0.225727,247.283,264.086
2015-09-22 15:00,0.268267,307.786,302.64,270.145,306.997,304.134,269.73,0.114104,0.197084,247.331,264.086
2015-09-22 16:00,0.251646,307.999,302.64,270.239,307.226,304.257,269.395,0.114067,0.188614,247.57,263.934
2015-09-22 17:00,0.236948,307.283,302.185,269.765,306.421,303.515,269.953,0.125973,0.193318,247.426,264.01
2015-09-22 18:00,0.234002,305.106,300.805,269.479,304.559,301.767,268.609,0.158228,0.213271,247.57,263.706
2015-09-22 19:00,0.371645,305.416,293.843,265.153,296.307,293.35,265.185,0.305524,0.351203,247.331,262.545
2015-09-22 20:00,0.25845,299.203,293.742,265.254,296.684,294.149,266.681,0.452854,0.416748,247.474,262.857
2015-09-22 21:00,0.464945,294.38,292.417,264.339,295.424,293.883,266.337,0.708603,0.764435,247.902,263.244
2015-09-22 22:00,-0.00750492,294.156,290.86,263.721,293.635,292.679,265.762,-0.0,-0.0,248.231,263.476
2015-09-22 23:00,-0.183313,291.315,290.44,262.995,293.119,292.276,266.337,-0.0279888,-0.0333725,248.649,264.238
2015-09-23 00:00,-0.0,289.247,289.699,262.576,292.47,292.006,266.337,-0.0,-0.0,248.137,264.615
2015-09-23 01:00,0.00153313,288.43,288.843,262.366,291.686,291.193,266.452,-0.0,-0.0,247.902,263.858
2015-09-23 02:00,-0.0,287.587,288.303,261.944,291.16,290.511,265.647,-0.0,-0.0,247.712,263.322
2015-09-23 03:00,-0.0,287.871,288.195,261.838,290.764,290.238,265.762,-0.0,-0.0,247.712,262.701
2015-09-23 04:00,-0.0,288.291,288.736,262.471,291.948,291.193,265.647,-0.0,-0.0,247.331,262.466
2015-09-23 05:00,-0.0,288.152,289.058,262.471,291.948,291.6,265.416,-0.0,-0.0,247.234,261.914
2015-09-23 06:00,-0.0,287.729,288.52,262.366,291.948,291.329,265.878,-0.0,-0.0,247.331,262.072
2015-09-23 07:00,-0.00215297,286.569,288.087,261.944,291.16,290.784,265.416,-0.0,-0.0,247.617,262.779
2015-09-23 08:00,0.00357229,285.97,287.541,261.519,290.764,290.101,265.532,-0.0,-0.0,247.57,262.857
2015-09-23 09:00,-0.0130997,286.121,287.651,261.412,290.632,289.964,264.953,-0.0110915,-0.0132249,247.617,263.09
2015-09-23 10:00,0.490812,288.568,288.951,261.944,291.817,291.057,265.416,0.332456,0.38878,247.617,263.09
2015-09-23 11:00,0.541922,295.368,291.591,263.721,294.661,292.814,265.416,0.244717,0.358656,247.283,263.09
2015-09-23 12:00,0.463471,300.317,294.746,265.254,297.558,295.208,265.762,0.192884,0.307308,247.138,263.244
2015-09-23 13:00,0.359161,303.098,296.523,266.458,299.287,295.996,267.023,0.155949,0.249478,247.186,263.399
2015-09-23 14:00,0.304243,305.028,297.687,267.348,300.263,296.78,266.222,0.131061,0.214198,247.186,263.322
2015-09-23 15:00,0.262503,305.722,297.59,267.052,300.02,296.127,266.337,0.12655,0.195272,246.701,263.09
2015-09-23 16:00,0.24725,305.95,298.071,267.446,300.627,296.65,266.681,0.129902,0.18945,246.603,262.779
2015-09-23 17:00,0.247458,305.261,297.397,267.348,300.141,296.258,266.452,0.154813,0.204022,246.059,262.623
2015-09-23 18:00,0.244919,302.68,295.935,266.657,298.178,294.547,265.532,0.222479,0.24726,245.809,262.545
2015-09-23 19:00,0.258822,301.565,296.523,267.052,299.164,295.996,266.452,0.301323,0.304845,245.507,262.072
2015-09-23 20:00,0.282999,298.242,294.145,265.557,0.0,293.617,265.532,0.454964,0.412282,244.322,260.627
2015-09-23 21:00,0.502281,296.635,291.902,264.543,294.661,292.006,264.605,0.794603,0.894067,245.099,260.627
2015-09-23 22:00,-0.00752016,284.41,282.448,258.691,284.641,279.959,258.392,-0.0,-0.0,245.709,258.882
2015-09-23 23:00,-0.180446,286.121,282.331,258.691,284.361,279.81,258.023,-0.0331031,-0.0394704,245.304,258.114
2015-09-24 00:00,-0.00196223,273.831,271.162,252.899,273.372,268.67,253.368,-0.0,0.00198099,245.048,256.181
2015-09-24 01:00,-0.0015343,274.787,272.256,253.501,273.843,269.165,252.982,-0.0,-0.0,244.894,255.821
2015-09-24 02:00,-0.00133437,290.041,289.272,262.471,292.47,289.413,263.787,-0.0,-0.0,245.099,258.967
2015-09-24 03:00,0.00125639,284.73,282.448,259.134,285.201,280.108,258.76,-0.0,-0.0,245.658,257.508
2015-09-24 04:00,-0.00126885,285.202,283.495,259.134,286.31,282.904,259.127,-0.00107433,-0.0,245.859,258.286
2015-09-24 05:00,-0.0,287.871,287.432,261.412,289.968,288.027,262.373,-0.0,-0.0,245.507,259.135
2015-09-24 06:00,-0.0,285.665,285.433,259.683,288.087,285.777,262.136,-0.0,-0.0,245.151,259.387
2015-09-24 07:00,-0.0,286.717,286.55,260.553,289.3,287.469,262.61,-0.0,-0.0,244.739,259.135
2015-09-24 08:00,-0.0,285.357,284.869,259.354,287.134,284.636,262.136,-0.0,-0.0,244.322,258.798
2015-09-24 09:00,-0.0,287.01,286.439,260.337,288.897,286.626,262.61,-0.0115201,-0.013736,244.479,258.967
2015-09-24 10:00,0.494914,290.041,288.087,261.305,290.5,288.445,263.083,0.325227,0.410157,244.006,259.135
2015-09-24 11:00,0.543112,296.219,290.229,262.366,292.47,289.413,263.2,0.245086,0.364532,243.039,258.457
2015-09-24 12:00,0.464775,300.408,293.031,264.339,295.043,291.464,264.372,0.193455,0.323327,243.093,258.713
2015-09-24 13:00,0.376018,303.917,296.229,265.758,298.302,294.679,265.532,0.151422,0.266963,242.929,259.721
2015-09-24 14:00,0.315216,306.176,298.453,267.249,300.99,297.04,266.795,0.121622,0.224238,242.984,259.554
2015-09-24 15:00,0.276822,307.427,299.307,267.74,301.592,297.43,266.566,0.108178,0.197272,243.147,260.217
2015-09-24 16:00,0.339026,298.63,282.096,258.134,284.22,281.293,260.098,0.280626,0.357592,243.472,259.304
2015-09-24 17:00,0.268909,303.015,293.742,264.543,295.803,291.464,263.787,0.199805,0.254859,243.579,259.638
2015-09-24 18:00,0.386943,305.798,291.694,263.203,293.506,288.722,261.66,0.348186,0.423332,244.111,259.22
2015-09-24 19:00,0.622225,291.315,264.788,248.771,267.522,267.506,253.625,0.700019,0.786847,243.526,256.45
2015-09-24 20:00,1.04032,298.144,269.059,250.806,271.625,270.798,255.28,0.950458,1.08997,243.579,257.942
2015-09-24 21:00,1.14413,280.239,268.343,250.806,271.303,270.635,255.153,0.957597,1.22145,242.82,257.421
2015-09-24 22:00,-0.0,266.466,267.764,250.177,270.332,269.821,255.153,-0.0,-0.0,243.74,257.508
2015-09-24 23:00,-0.102339,286.864,284.071,259.354,286.722,284.205,260.942,-0.0382281,-0.0455813,243.364,258.882
2015-09-25 00:00,-0.00196363,264.739,268.63,250.555,271.303,270.798,255.909,-0.0,-0.0,242.544,257.07
2015-09-25 01:00,-0.0,287.01,286.105,260.445,288.628,285.919,261.779,-0.0,-0.0,243.418,258.543
2015-09-25 02:00,-0.0,289.91,289.593,262.576,292.73,291.193,264.488,-0.0,-0.0,243.846,259.721
2015-09-25 03:00,-0.0012581,289.113,289.379,262.049,292.209,290.784,264.372,-0.0,-0.0,243.686,259.804
2015-09-25 04:00,-0.0,288.841,288.736,261.625,291.686,289.964,264.488,-0.0,-0.0,241.817,259.22
2015-09-25 05:00,-0.0013798,288.012,288.195,261.838,291.029,289.276,263.67,-0.0,-0.0,240.841,259.304
2015-09-25 06:00,-0.0,287.155,287.541,260.876,290.234,288.722,263.553,-0.0,-0.0,240.899,259.135
2015-09-25 07:00,-0.0,287.3,287.651,261.091,290.5,288.999,263.67,-0.0,-0.0,240.841,259.135
2015-09-25 08:00,-0.00364138,287.01,287.651,260.769,290.5,289.276,263.787,-0.0,-0.0,239.043,258.713
2015-09-25 09:00,-0.0,287.444,287.322,260.661,290.367,288.861,263.553,-0.0119826,-0.0142874,237.977,258.2
2015-09-25 10:00,0.462738,289.381,287.978,261.091,290.764,288.999,263.553,0.312216,0.394168,238.168,258.372
2015-09-25 11:00,0.526567,295.902,290.86,262.89,293.377,290.648,263.787,0.240455,0.370328,239.288,258.798
2015-09-25 12:00,0.444729,300.589,293.843,264.236,295.93,292.41,264.022,0.190742,0.313698,241.704,259.051
2015-09-25 13:00,0.351653,303.836,295.837,265.758,298.055,293.883,264.138,0.152094,0.253582,241.817,259.135
2015-09-25 14:00,0.302269,306.025,297.107,266.557,299.287,294.812,264.953,0.12572,0.215485,242.322,259.135
2015-09-25 15:00,0.272339,306.623,297.01,266.458,298.918,294.149,264.488,0.125872,0.203053,242.875,259.804
2015-09-25 16:00,0.299131,302.932,288.736,261.519,291.029,287.188,262.017,0.218008,0.281603,243.202,259.97
2015-09-25 17:00,0.329994,301.214,284.982,259.244,286.722,283.484,260.219,0.301433,0.366325,243.793,260.299
2015-09-25 18:00,0.328068,296.738,282.214,257.685,283.656,280.85,259.37,0.311984,0.363835,244.894,259.97
2015-09-25 19:00,0.247166,302.341,295.837,265.557,298.549,294.282,265.301,0.272968,0.299435,245.099,260.871
2015-09-25 20:00,0.281853,297.146,289.699,262.261,291.817,288.999,263.436,0.422914,0.403408,240.014,258.457
2015-09-25 21:00,0.0392488,293.124,291.591,262.89,294.021,291.193,264.255,0.265855,0.211328,242.099,260.627
2015-09-25 22:00,-0.0,291.44,290.651,262.366,293.506,291.6,265.069,-0.0,-0.0,241.647,260.708
2015-09-25 23:00,-0.0933959,290.041,287.978,260.876,291.029,288.722,262.61,-0.0433655,-0.0486652,241.131,258.967
2015-09-26 00:00,-0.0,279.667,277.601,255.51,280.347,277.548,258.882,-0.0,-0.0,238.919,256.36
2015-09-26 01:00,-0.0,288.841,288.303,260.661,291.029,289.137,263.67,-0.0,-0.0,240.134,258.882
2015-09-26 02:00,0.00133721,284.73,283.611,258.691,285.895,283.484,261.301,-0.0,-0.0,241.304,258.543
2015-09-26 03:00,-0.00125987,287.729,287.102,259.902,289.835,287.748,262.847,-0.0,-0.0,239.954,258.713
2015-09-26 04:00,-0.0,286.717,286.217,259.464,288.628,286.343,262.255,-0.0,-0.0,240.134,258.798
2015-09-26 05:00,-0.00138322,284.73,282.214,256.664,283.938,281.588,257.777,-0.0,-0.0,237.072,255.639
2015-09-26 06:00,-0.0,284.888,282.214,256.892,283.938,281.146,257.53,-0.0,-0.0,237.137,256.001
2015-09-26 07:00,-0.0,284.888,283.264,257.233,285.34,283.773,258.882,-0.0,-0.0,236.874,257.07
2015-09-26 08:00,-0.00367704,280.982,276.463,253.381,277.377,274.304,252.464,-0.0,-0.0,233.456,252.047
2015-09-26 09:00,-0.0294855,272.322,258.703,243.226,256.406,251.354,235.691,-0.0124826,-0.0297673,225.643,239.922
2015-09-26 10:00,0.439026,276.594,262.616,245.04,261.791,257.856,240.06,0.437673,0.536157,228.136,243.336
2015-09-26 11:00,0.387156,270.989,245.89,236.784,242.283,238.515,228.949,0.382438,0.470805,221.145,232.185
2015-09-26 12:00,0.332216,273.338,246.733,236.146,242.978,238.049,226.402,0.3189,0.40754,221.031,231.198
2015-09-26 13:00,0.294146,277.026,247.769,236.943,242.978,237.815,225.709,0.260607,0.338287,219.744,229.838
2015-09-26 14:00,0.276204,289.514,269.201,248.642,267.185,262.185,243.808,0.189103,0.265503,226.871,242.602
2015-09-26 15:00,0.270382,299.203,284.414,257.685,284.079,278.609,253.753,0.150863,0.23523,233.01,251.751
2015-09-26 16:00,0.283355,284.73,256.469,241.354,253.069,247.293,233.344,0.23032,0.303864,222.799,234.082
2015-09-26 17:00,0.288355,288.43,263.401,246.13,262.507,256.742,238.577,0.259192,0.325603,228.224,242.354
2015-09-26 18:00,0.33233,292.889,272.527,251.18,271.142,265.99,246.044,0.278651,0.34365,230.916,247.04
2015-09-26 19:00,0.489191,283.76,255.409,241.354,254.066,248.941,235.382,0.486863,0.574012,226.216,238.165
2015-09-26 20:00,0.551884,291.065,272.12,250.931,271.142,266.835,247.006,0.60897,0.679375,232.097,248.025
2015-09-26 21:00,1.3144,284.249,259.54,244.765,258.491,253.896,241.229,0.980675,1.31383,226.122,238.714
2015-09-26 22:00,-0.00757262,287.729,283.956,258.022,284.781,282.467,259.492,-0.0,-0.00764501,235.038,253.974
2015-09-26 23:00,-0.0874591,280.613,268.916,248.9,268.024,263.412,244.372,-0.0485165,-0.0548039,229.685,245.46
2015-09-27 00:00,-0.0,283.093,274.524,253.261,275.242,270.635,248.903,-0.0,-0.0,231.787,248.241
2015-09-27 01:00,-0.00153835,282.923,276.463,254.217,276.923,272.883,251.422,-0.0,-0.0,234.968,251.252
2015-09-27 02:00,-0.00133875,285.665,283.032,257.798,284.361,281.293,256.909,-0.0,-0.0,239.593,256.982
2015-09-27 03:00,-0.00126171,286.121,285.433,259.134,287.815,286.06,261.301,-0.0,-0.0,238.671,258.372
2015-09-27 04:00,0.0012759,286.271,285.658,259.244,287.543,286.343,262.255,-0.0,-0.0,235.731,258.286
2015-09-27 05:00,-0.0,280.799,275.046,252.899,276.315,273.99,252.075,-0.0,-0.0,232.557,251.949
2015-09-27 06:00,-0.0,251.944,238.09,233.005,236.186,233.722,227.77,-0.0,-0.0,220.454,228.242
2015-09-27 07:00,-0.0,265.791,254.871,240.617,254.854,251.552,237.827,-0.0,-0.0,225.643,238.714
2015-09-27 08:00,-0.00371343,279.081,273.732,251.552,275.087,272.883,251.814,-0.0,-0.0,229.852,249.408
2015-09-27 09:00,-0.0,283.76,282.096,256.549,284.641,283.049,258.638,-0.0260494,-0.01553,231.63,253.69
2015-09-27 10:00,0.27061,285.818,283.611,257.459,286.86,285.065,259.977,0.276125,0.315227,232.481,254.162
2015-09-27 11:00,0.50897,294.38,289.379,260.876,292.079,289.964,263.553,0.236404,0.369962,233.085,255.366
2015-09-27 12:00,0.428419,298.533,291.383,261.944,294.149,291.057,263.436,0.187064,0.316143,232.175,254.256
2015-09-27 13:00,0.35038,301.826,294.145,263.618,296.809,293.082,263.553,0.148333,0.256149,232.86,254.162
2015-09-27 14:00,0.299061,304.715,295.935,264.747,298.549,294.149,264.488,0.121588,0.219458,234.472,254.068
2015-09-27 15:00,0.263477,306.176,297.107,265.355,299.531,294.812,264.138,0.111543,0.195733,235.178,254.814
2015-09-27 16:00,0.245041,306.623,297.687,265.758,300.263,295.471,265.069,0.107462,0.185221,234.543,255.091
2015-09-27 17:00,0.238702,305.646,297.59,265.658,300.02,295.865,265.301,0.12011,0.19141,235.247,256.001
2015-09-27 18:00,0.241569,303.998,297.107,265.557,299.898,295.865,265.647,0.160901,0.221116,235.108,257.07
2015-09-27 19:00,0.239896,302.256,295.935,264.747,298.672,295.339,265.301,0.239391,0.276787,236.341,259.051
2015-09-27 20:00,0.177667,296.84,291.383,262.261,293.635,290.375,263.2,0.312895,0.286984,234.968,257.508
2015-09-27 21:00,1.12609,266.466,237.086,230.743,237.2,235.193,225.185,1.15072,1.4374,221.596,230.183
2015-09-28 00:00,-0.00196866,268.382,262.458,245.723,264.095,260.764,245.905,-0.0,-0.0,231.709,248.669
2015-09-28 01:00,-0.0015399,243.066,242.142,234.681,242.049,241.475,235.691,-0.0,-0.0,229.348,237.043
2015-09-28 02:00,0.00134037,248.394,248.985,238.503,249.579,248.941,241.953,-0.0,-0.0,230.835,241.728
2015-09-28 03:00,-0.0,252.585,253.411,240.469,254.263,253.316,245.072,-0.0,-0.0,233.382,244.647
2015-09-28 04:00,-0.0,286.717,284.642,258.469,287.407,284.922,260.581,-0.0,-0.0,233.823,252.342
2015-09-28 05:00,-0.0013903,285.665,284.3,258.358,287.27,284.779,261.062,-0.0,-0.0,233.968,252.244
2015-09-28 06:00,-0.00164811,276.811,271.848,251.552,273.215,268.67,252.464,-0.0,-0.0,232.328,248.241
2015-09-28 07:00,-0.00221059,286.121,284.869,258.469,287.815,285.208,260.34,-0.0,-0.0,232.328,250.95
2015-09-28 08:00,-0.0,284.249,280.308,255.974,281.51,277.701,254.519,-0.0,-0.0,229.517,247.59
2015-09-28 09:00,-0.0321573,284.087,280.669,256.664,282.231,279.361,257.034,-0.0272276,-0.0324647,229.685,248.133
2015-09-28 10:00,0.469398,287.587,282.214,257.572,284.921,282.028,258.638,0.374399,0.439546,230.916,250.032
2015-09-28 11:00,0.937443,293.93,269.626,250.303,271.945,270.635,254.009,0.88898,1.03959,232.86,250.135
2015-09-28 12:00,0.380302,294.268,284.755,258.691,286.722,281.882,258.023,0.218443,0.306764,233.75,250.135
2015-09-28 13:00,0.330974,297.549,288.628,260.876,290.632,286.06,260.461,0.173236,0.259717,233.677,251.552
2015-09-28 14:00,0.283704,298.726,287.76,261.091,289.701,285.35,260.581,0.174598,0.241332,233.382,251.252
2015-09-28 15:00,0.241742,300.589,291.487,263.203,293.635,288.861,262.017,0.128058,0.200249,232.709,250.95
2015-09-28 16:00,0.252044,300.947,288.52,261.838,290.234,284.061,258.515,0.156072,0.216475,233.308,250.238
2015-09-28 17:00,0.213751,299.391,291.174,262.89,291.817,287.329,261.421,0.161386,0.210296,233.234,250.646
2015-09-28 18:00,0.212219,298.144,289.379,262.155,291.292,286.626,260.461,0.219162,0.248333,234.113,250.544
2015-09-28 19:00,0.299366,299.297,288.195,262.155,290.234,285.635,260.34,0.387451,0.401531,236.274,252.047
2015-09-28 20:00,0.94327,307.857,276.845,255.51,277.075,273.99,255.784,0.75663,0.830566,236.609,251.352
2015-09-28 21:00,0.888156,281.165,269.201,250.931,271.303,268.505,252.205,0.773798,1.0136,236.609,250.135
2015-09-28 22:00,-0.00761407,278.482,266.738,249.286,266.338,259.321,240.646,-0.0,-0.0,229.601,241.093
2015-09-28 23:00,-0.0785924,265.446,255.05,243.084,253.069,249.144,238.727,-0.0639847,-0.067137,229.093,240.446
2015-09-29 00:00,-0.00197062,242.013,242.142,235.823,244.8,242.805,236.0,-0.0,-0.0,232.405,238.441
2015-09-29 01:00,-0.0,256.062,254.145,242.656,256.021,255.045,244.231,-0.0,-0.0,229.517,243.457
2015-09-29 02:00,-0.0,245.01,241.913,235.173,241.815,238.978,233.185,-0.0,-0.0,223.849,234.389
2015-09-29 03:00,0.0012656,218.393,211.654,221.814,211.428,210.576,211.57,-0.0,-0.0,210.278,210.984
2015-09-29 04:00,-0.0,238.442,229.373,229.118,228.001,226.426,223.413,-0.0,-0.0,218.891,224.811
2015-09-29 05:00,-0.00139395,222.276,223.252,226.092,221.838,219.777,219.172,-0.0,-0.0,218.009,220.306
2015-09-29 06:00,0.00165408,242.013,237.339,233.005,236.695,234.95,229.946,-0.0,-0.0,224.258,232.022
2015-09-29 07:00,-0.0,230.231,229.673,228.934,229.158,228.324,225.883,-0.0,-0.0,221.596,226.948
2015-09-29 08:00,0.00378842,227.984,227.845,228.004,228.293,226.974,224.834,-0.0,-0.0,222.476,226.187
2015-09-29 09:00,-0.0168369,242.013,238.83,233.344,238.199,238.049,233.503,-0.0285116,-0.0339958,225.352,232.669
2015-09-29 10:00,0.407066,240.898,226.583,227.058,227.118,226.974,225.36,0.711925,0.828651,222.259,225.408
2015-09-29 11:00,0.300417,252.585,235.538,231.625,236.695,235.435,230.44,0.639541,0.707675,226.216,232.829
2015-09-29 12:00,0.26807,250.598,235.275,231.098,235.414,234.461,230.44,0.653558,0.723607,227.147,232.185
2015-09-29 13:00,0.26078,260.827,243.719,236.466,244.575,243.679,237.222,0.639564,0.696008,229.685,238.85
2015-09-29 14:00,0.216072,255.521,239.559,233.681,240.631,239.895,233.661,0.654178,0.715227,228.835,236.325
2015-09-29 15:00,0.24857,258.096,236.318,232.491,236.695,235.917,231.581,0.661757,0.727869,228.136,232.988
2015-09-29 16:00,0.247765,254.396,236.576,232.319,236.695,236.396,231.581,0.68656,0.756717,227.87,233.617
2015-09-29 17:00,0.300337,257.103,240.277,234.681,240.631,240.35,234.134,0.735268,0.8177,230.018,237.185
2015-09-29 18:00,0.338662,259.045,246.523,237.884,247.229,246.457,239.173,0.66726,0.755097,231.076,240.706
2015-09-29 19:00,0.486728,262.869,246.102,237.415,246.355,246.035,238.876,0.77542,0.890089,229.935,239.255
2015-09-29 20:00,0.813948,274.073,238.338,233.513,238.446,237.815,233.026,0.862959,0.986075,228.921,234.236
2015-09-29 21:00,0.537542,253.81,242.37,235.337,242.283,241.921,236.0,0.574338,0.710653,229.093,236.614
2015-09-29 22:00,-0.00763699,232.213,231.997,230.207,233.041,232.221,229.116,-0.0,-0.0,227.147,229.838
2015-09-29 23:00,-0.0786943,285.97,281.624,257.685,283.938,279.959,257.282,-0.0615049,-0.067224,234.185,249.198
2015-09-30 01:00,-0.00154328,283.261,281.029,257.572,283.938,280.702,257.406,-0.0,-0.0,230.593,248.455
2015-09-30 02:00,-0.0,270.434,262.774,246.934,262.507,256.18,242.671,-0.0,-0.0,229.601,241.221
2015-09-30 03:00,-0.0,284.888,283.726,258.913,286.722,284.779,260.219,-0.0,-0.0,233.823,250.032
2015-09-30 04:00,-0.0,267.123,262.141,245.995,263.569,258.774,244.792,-0.0,-0.0,233.01,245.46
2015-09-30 05:00,-0.0,283.093,279.458,256.434,282.66,278.76,255.28,-0.0,-0.0,230.43,248.241
2015-09-30 06:00,-0.0,279.667,273.732,253.381,274.778,271.283,250.896,-0.0,-0.0,227.329,243.336
2015-09-30 07:00,-0.0,278.075,274.261,254.099,276.772,273.832,255.027,-0.0,-0.0,232.784,248.025
2015-09-30 08:00,-0.0,265.791,265.394,248.771,268.024,266.498,252.075,-0.0,-0.0,231.787,247.699
2015-09-30 09:00,-0.0176659,256.062,256.644,243.509,258.865,258.591,247.142,-0.0299154,-0.0356696,229.093,244.647
2015-09-30 10:00,0.373316,249.89,238.338,232.663,237.951,237.345,232.867,0.621082,0.727322,227.238,233.928
2015-09-30 11:00,0.258296,254.966,241.913,234.515,241.815,240.576,234.76,0.471044,0.553052,229.263,235.592
2015-09-30 12:00,0.450196,296.531,289.486,262.049,291.292,287.609,260.942,0.174574,0.345649,230.43,248.669
2015-09-30 13:00,0.358361,296.738,270.049,250.681,269.679,263.063,246.457,0.226304,0.322593,230.835,243.577
2015-09-30 14:00,0.312064,301.653,291.487,263.099,292.47,286.907,260.098,0.129348,0.245183,233.01,248.882
2015-09-30 15:00,0.308425,297.649,272.391,252.777,272.423,266.329,249.705,0.175488,0.260308,232.935,245.69
2015-09-30 16:00,0.399613,297.248,273.997,253.501,275.396,272.724,254.519,0.288657,0.36309,234.756,250.032
2015-09-30 17:00,0.406969,298.242,267.909,250.177,270.006,268.339,252.982,0.328499,0.375251,235.038,250.442
2015-09-30 18:00,0.556034,298.436,269.767,251.056,271.625,269.494,253.625,0.465366,0.543554,232.251,250.442
2015-09-30 19:00,0.409201,272.58,240.039,235.173,239.183,236.872,231.419,0.485419,0.542211,221.819,227.694
2015-09-30 20:00,0.734583,261.251,230.85,229.118,230.294,229.647,227.089,0.86119,1.02327,223.642,227.136
2015-09-30 21:00,1.84495,291.19,270.746,251.429,271.625,267.339,249.171,1.33588,1.83689,230.755,246.595
2015-09-30 22:00,-0.0,287.155,285.321,259.683,287.679,284.779,260.822,-0.0,-0.0,233.603,251.751
2015-09-30 23:00,-0.0788041,269.576,268.199,250.051,271.625,271.283,255.532,-0.0615908,-0.0673179,233.382,251.051
